25.811;r ;Density                 ;Velocity u              ;Velocity v              ;Velocity w              ;|Velocity|              ;Pressure                ;Distribution            ;Levels                  ;
0 1.20406 9.99753 2.94072e-05 3.14748e-05 9.99753 -1.69817 1 1 
1 1.20402 9.99845 1.8083e-05 3.80652e-05 9.99845 -1.77091 1 1 
2 1.20395 9.99947 3.20145e-06 3.75187e-05 9.99947 -1.89806 1 1 
3 1.20388 9.99956 -8.95868e-06 4.85173e-05 9.99956 -2.02341 1 1 
4 1.20383 9.99976 6.3568e-06 7.11214e-05 9.99976 -2.11628 1 1 
5 1.20377 10.0004 3.63824e-05 0.0001179 10.0004 -2.21821 1 1 
6 1.20371 10.0008 5.01107e-05 0.00014289 10.0008 -2.32587 1 1 
7 1.2037 10.0011 3.98798e-05 0.000145351 10.0011 -2.33921 1 1 
8 1.20371 10.0013 4.2527e-05 0.000150575 10.0013 -2.33352 1 1 
9 1.20371 10.0014 3.67184e-05 0.000150741 10.0014 -2.33634 1 1 
10 1.20373 10.0021 9.85409e-06 0.000133343 10.0021 -2.30234 1 1 
11 1.20375 10.0023 -1.02093e-05 0.000114265 10.0023 -2.2525 1 1 
12 1.2038 10.002 -4.31272e-06 0.000127295 10.002 -2.1733 1 1 
13 1.20386 10.0022 -9.36456e-06 0.000113648 10.0022 -2.06646 1 1 
14 1.20391 10.0022 -5.38517e-05 7.55889e-05 10.0022 -1.96522 1 1 
15 1.204 10.0019 -4.64449e-05 7.55937e-05 10.0019 -1.80541 1 1 
16 1.2041 10.0015 -2.99625e-05 8.83135e-05 10.0016 -1.62874 1 1 
16 1.2041 10.0015 -2.99625e-05 8.83135e-05 10.0016 -1.62874 1 1 
17 1.20418 10.0013 -4.37751e-05 8.11855e-05 10.0013 -1.47939 1 1 
18 1.20428 10.0014 -5.21779e-05 6.47474e-05 10.0015 -1.30341 1 1 
19 1.20437 10.0015 -6.14495e-05 6.32951e-05 10.0015 -1.14106 1 1 
20 1.20447 10.0005 -6.88409e-05 7.21376e-05 10.0005 -0.956499 1 1 
21 1.20458 10.0001 -0.000100992 5.23641e-05 10.0001 -0.755241 1 1 
22 1.20465 10.0005 -0.000113828 5.47137e-05 10.0005 -0.626457 1 1 
23 1.20471 10.0004 -0.000124377 6.24094e-05 10.0004 -0.516715 1 1 
24 1.20478 10.0002 -0.000140807 7.07479e-05 10.0002 -0.391858 1 1 
25 1.20483 9.99945 -0.000142932 9.21628e-05 9.99945 -0.303381 1 1 
26 1.20485 9.9992 -0.000134696 0.000115966 9.9992 -0.278067 1 1 
27 1.20484 9.99868 -0.000132381 0.000145178 9.99869 -0.282028 1 1 
28 1.20481 9.99741 -0.000141227 0.000166353 9.99742 -0.337282 1 1 
29 1.20477 9.99683 -0.000135678 0.000193065 9.99684 -0.422597 1 1 
30 1.20471 9.99655 -0.000134874 0.000221545 9.99656 -0.531381 1 1 
31 1.20462 9.99647 -0.000107583 0.000270841 9.99649 -0.692213 1 1 
32 1.20455 9.99586 -8.72354e-05 0.000314615 9.99589 -0.807333 1 1 
32 1.20455 9.99586 -8.72354e-05 0.000314615 9.99589 -0.807333 1 1 
33 1.20446 9.99599 -7.62616e-05 0.000349229 9.99602 -0.981665 1 1 
34 1.20432 9.99678 -2.63671e-05 0.000419085 9.99682 -1.22761 1 1 
35 1.2042 9.99704 3.53565e-05 0.000491362 9.99708 -1.44019 1 1 
36 1.20406 9.99684 6.61383e-05 0.000539996 9.99688 -1.69554 1 1 
37 1.20392 9.99677 7.89231e-05 0.000576732 9.99681 -1.95596 1 1 
38 1.20378 9.99756 0.000130042 0.000642268 9.99759 -2.20624 1 1 
39 1.20364 9.99783 0.000165387 0.00068696 9.99786 -2.45817 1 1 
40 1.20352 9.99824 0.00019254 0.00071701 9.99827 -2.66613 1 1 
41 1.20341 9.99924 0.000218953 0.000755867 9.99926 -2.86317 1 1 
42 1.20331 10.0005 0.000252377 0.000793877 10.0005 -3.05071 1 1 
43 1.20326 10.0014 0.000297893 0.000839635 10.0014 -3.14885 1 1 
44 1.20322 10.0019 0.000308261 0.000856215 10.0019 -3.20885 1 1 
45 1.20319 10.0027 0.000309764 0.000858336 10.0027 -3.2774 1 1 
46 1.20317 10.0033 0.000325739 0.000886083 10.0033 -3.29769 1 1 
47 1.20319 10.0036 0.000319118 0.000873508 10.0036 -3.27437 1 1 
48 1.20322 10.0039 0.000298937 0.000849651 10.0039 -3.20636 1 1 
48 1.20322 10.0039 0.000298937 0.000849651 10.0039 -3.20636 1 1 
49 1.20329 10.0041 0.00026173 0.000823739 10.0042 -3.09416 1 1 
50 1.20338 10.0037 0.000232011 0.00078269 10.0037 -2.92237 1 1 
51 1.20351 10.0039 0.000200111 0.000757246 10.0039 -2.69234 1 1 
52 1.20365 10.0048 0.000129927 0.000684188 10.0048 -2.43025 1 1 
53 1.2038 10.0051 8.91346e-05 0.000642281 10.0051 -2.16298 1 1 
54 1.20397 10.005 3.75626e-05 0.000608816 10.0051 -1.85789 1 1 
55 1.20416 10.0046 -4.62299e-05 0.000523229 10.0046 -1.52268 1 1 
56 1.20432 10.0041 -8.04942e-05 0.000492986 10.0041 -1.22141 1 1 
57 1.2045 10.0035 -0.000103418 0.000485152 10.0035 -0.907375 1 1 
58 1.20467 10.0028 -0.000189511 0.000422122 10.0029 -0.601417 1 1 
59 1.20481 10.0021 -0.00025931 0.000373095 10.0021 -0.33681 1 1 
60 1.20496 10.0013 -0.000266328 0.000395742 10.0013 -0.0659746 1 1 
61 1.2051 10.0004 -0.000289741 0.00039384 10.0004 0.176668 1 1 
62 1.20521 10.0001 -0.000370334 0.000340632 10.0001 0.376763 1 1 
63 1.2053 9.99955 -0.000382745 0.000360497 9.99955 0.550529 1 1 
64 1.20536 9.99862 -0.000354419 0.000414902 9.99862 0.649651 1 1 
64 1.20536 9.99862 -0.000354419 0.000414902 9.99862 0.649651 2 1 
65 1.20539 9.99821 -0.000381002 0.000428787 9.99821 0.709719 2 1 
66 1.20539 9.99825 -0.000395032 0.000445161 9.99825 0.713421 2 1 
67 1.20537 9.99785 -0.000331893 0.000538105 9.99786 0.662158 2 1 
68 1.20532 9.99747 -0.000295059 0.000618825 9.99748 0.585978 2 1 
69 1.20523 9.9977 -0.00030487 0.000644147 9.99773 0.423534 2 1 
70 1.20512 9.99757 -0.00025875 0.000728357 9.99761 0.219228 2 1 
71 1.20499 9.99748 -0.000193872 0.000831881 9.99754 -0.0124946 2 1 
72 1.20482 9.99748 -0.000163341 0.000898375 9.99754 -0.322511 2 1 
73 1.20463 9.99721 -0.000106578 0.000980245 9.99729 -0.66795 2 1 
74 1.20444 9.99699 -1.92951e-05 0.0010988 9.99707 -1.01626 2 1 
75 1.20423 9.99678 4.74059e-05 0.00119872 9.99686 -1.38531 2 1 
76 1.20402 9.9972 0.000107987 0.00127251 9.99728 -1.77857 2 1 
77 1.20381 9.99775 0.000175222 0.00136333 9.99783 -2.15295 2 1 
78 1.20361 9.99786 0.000229449 0.00143437 9.99794 -2.512 2 1 
79 1.20342 9.99869 0.000266392 0.00148339 9.99875 -2.85145 2 1 
80 1.20328 9.99931 0.00032795 0.00155201 9.99936 -3.11461 2 1 
80 1.20328 9.99931 0.00032795 0.00155201 9.99936 -3.11461 2 1 
81 1.20313 10 0.000376003 0.00159823 10 -3.37373 2 1 
82 1.20301 10.0014 0.000390962 0.00161226 10.0014 -3.5978 2 1 
83 1.20293 10.0025 0.000400477 0.00162638 10.0026 -3.7351 2 1 
84 1.20288 10.0034 0.00039352 0.0016175 10.0034 -3.82641 2 1 
85 1.20286 10.004 0.000365784 0.00158472 10.004 -3.86945 2 1 
86 1.20285 10.0045 0.000346228 0.00155902 10.0045 -3.8766 2 1 
87 1.2029 10.005 0.00034577 0.00154194 10.005 -3.78956 2 1 
88 1.20298 10.0057 0.000305922 0.00148978 10.0057 -3.64841 2 1 
89 1.20307 10.0061 0.000242141 0.00140546 10.0062 -3.48243 2 1 
90 1.20322 10.0063 0.000200938 0.00135407 10.0064 -3.20705 2 1 
91 1.2034 10.007 0.000132135 0.00128022 10.0071 -2.88989 2 1 
92 1.20358 10.0073 3.2441e-05 0.00117307 10.0074 -2.56547 2 1 
93 1.20379 10.0074 -5.73802e-05 0.00107444 10.0075 -2.18801 2 1 
94 1.20401 10.0071 -0.000122431 0.00100484 10.0072 -1.78982 2 1 
95 1.20421 10.0068 -0.000210285 0.000918284 10.0069 -1.41918 2 1 
96 1.20442 10.0065 -0.000346392 0.000785117 10.0066 -1.04353 2 1 
96 1.20442 10.0065 -0.000346392 0.000785117 10.0066 -1.04353 2 1 
97 1.20464 10.0055 -0.000404047 0.000737374 10.0056 -0.642967 2 1 
98 1.20486 10.0049 -0.000416112 0.000738468 10.005 -0.257441 2 1 
99 1.20506 10.0044 -0.000507413 0.00066509 10.0045 0.107033 2 1 
100 1.20524 10.0036 -0.000555851 0.00064095 10.0036 0.441615 2 1 
101 1.2054 10.0031 -0.000567839 0.000656523 10.0032 0.72602 2 1 
102 1.20553 10.0028 -0.000632395 0.000616421 10.0028 0.958627 2 1 
103 1.20564 10.0016 -0.000700413 0.000584875 10.0016 1.15535 2 1 
104 1.20571 10.0002 -0.000691663 0.000632633 10.0002 1.28435 2 1 
105 1.20573 9.99947 -0.000622968 0.000748514 9.99947 1.3187 2 1 
106 1.20572 9.99882 -0.000656536 0.000771647 9.99882 1.2994 2 1 
107 1.20568 9.99826 -0.000674023 0.000787501 9.99827 1.22448 2 1 
108 1.2056 9.99759 -0.000573842 0.000925692 9.99761 1.09185 2 1 
109 1.2055 9.99699 -0.00047388 0.0010797 9.99702 0.909592 2 1 
110 1.20538 9.99634 -0.00047949 0.0011218 9.99639 0.69185 2 1 
111 1.20522 9.99603 -0.000478189 0.0011747 9.9961 0.400962 2 1 
112 1.20503 9.99643 -0.000307984 0.00138148 9.99651 0.0567675 2 1 
112 1.20503 9.99643 -0.000307984 0.00138148 9.99651 0.0567675 2 1 
113 1.20485 9.99617 -0.000197957 0.00151594 9.99627 -0.269215 2 1 
114 1.20463 9.99653 -0.000203385 0.00156041 9.99663 -0.672078 2 1 
115 1.2044 9.99661 -0.000140248 0.00166427 9.99672 -1.08271 2 1 
116 1.20418 9.99609 7.84406e-06 0.00182607 9.9962 -1.47853 2 1 
117 1.20394 9.99652 6.27809e-05 0.00189887 9.99663 -1.90587 2 1 
118 1.20374 9.99652 2.74971e-05 0.00188805 9.99662 -2.27116 2 1 
119 1.20354 9.99711 0.000113805 0.00200246 9.99719 -2.63627 2 1 
120 1.20335 9.99884 0.000241699 0.0021487 9.99891 -2.983 2 1 
121 1.20321 9.99989 0.000223305 0.00213696 9.99994 -3.2415 2 1 
122 1.20308 10.0008 9.48281e-05 0.00200174 10.0009 -3.4689 2 1 
123 1.20297 10.0014 0.000100833 0.00199323 10.0015 -3.65822 2 1 
124 1.20291 10.0012 0.000195926 0.0020759 10.0012 -3.76824 2 1 
125 1.20286 10.0022 0.000139516 0.00200532 10.0022 -3.85667 2 1 
126 1.20284 10.0032 8.84058e-06 0.00185345 10.0032 -3.89497 2 1 
127 1.20288 10.0036 -1.28768e-05 0.00179557 10.0036 -3.82223 2 1 
128 1.20295 10.0044 7.27833e-05 0.00183708 10.0044 -3.69755 2 1 
128 1.20295 10.0044 7.27833e-05 0.00183708 10.0044 -3.69755 10 1 
129 1.20306 10.0044 1.45067e-05 0.00172934 10.0044 -3.50657 10 1 
130 1.2032 10.0045 -0.000160086 0.00150665 10.0046 -3.25154 10 1 
131 1.20336 10.0048 -0.000213189 0.0014123 10.0048 -2.96918 10 1 
132 1.20353 10.0049 -0.00016305 0.00141484 10.005 -2.65167 10 1 
133 1.20373 10.0051 -0.000249473 0.00127779 10.0052 -2.29516 10 1 
134 1.20394 10.0051 -0.00048316 0.000998513 10.0052 -1.91194 10 1 
135 1.20417 10.0042 -0.000522109 0.000944247 10.0043 -1.50668 10 1 
136 1.20439 10.0033 -0.000383418 0.00107702 10.0034 -1.09843 10 1 
137 1.20461 10.0033 -0.00042449 0.00103769 10.0034 -0.701048 10 1 
138 1.20484 10.0029 -0.000756862 0.000733262 10.003 -0.293279 10 1 
139 1.20505 10.0026 -0.000937943 0.000553596 10.0027 0.0821485 10 1 
140 1.20523 10.002 -0.000791312 0.00072896 10.002 0.419985 10 1 
141 1.2054 10.0008 -0.00071408 0.000822295 10.0008 0.731459 10 1 
142 1.20555 9.99982 -0.00100007 0.000526356 9.99986 0.99326 10 1 
143 1.20567 9.99872 -0.00127451 0.000271535 9.99874 1.20562 10 1 
144 1.20575 9.99736 -0.00102284 0.00054618 9.99737 1.36307 10 1 
144 1.20575 9.99736 -0.00102284 0.00054618 9.99737 1.36307 10 1 
145 1.20581 9.99667 -0.000486154 0.00111942 9.99667 1.46431 10 1 
146 1.20584 9.99568 -0.000349668 0.00130257 9.99568 1.50873 10 1 
147 1.20583 9.99452 -0.000772313 0.00093394 9.99452 1.49539 10 1 
148 1.20579 9.9932 -0.00106923 0.000667336 9.9932 1.42695 10 1 
149 1.20571 9.99103 -0.000606842 0.00116924 9.99104 1.27781 10 1 
150 1.20559 9.99001 0.000378754 0.00222636 9.99004 1.05815 10 1 
151 1.20546 9.99021 0.000912823 0.0028622 9.99026 0.826715 10 1 
152 1.20531 9.99107 0.000469974 0.00252728 9.99113 0.566111 10 1 
153 1.20515 9.99206 -0.000431209 0.00172927 9.99213 0.269773 10 1 
154 1.20496 9.99216 -0.000846135 0.00138094 9.99224 -0.064907 10 1 
155 1.20476 9.99121 -0.000426789 0.00182628 9.9913 -0.42719 10 1 
156 1.20457 9.9901 0.000246081 0.00252006 9.99019 -0.785274 10 1 
157 1.20436 9.99038 0.0004083 0.00268729 9.99047 -1.15178 10 1 
158 1.20418 9.99091 -9.26063e-05 0.00219271 9.991 -1.48517 10 1 
159 1.204 9.99187 -0.000865325 0.00144446 9.99194 -1.80521 10 1 
160 1.20382 9.9926 -0.00132667 0.00100257 9.99266 -2.13178 10 1 
160 1.20382 9.9926 -0.00132667 0.00100257 9.99266 -2.13178 10 1 
161 1.20367 9.99185 -0.00113943 0.00119521 9.9919 -2.40848 10 1 
162 1.20355 9.991 -0.000508461 0.00185263 9.99103 -2.62445 10 1 
163 1.20344 9.99068 0.000194469 0.0025422 9.9907 -2.80991 10 1 
164 1.20336 9.99101 0.000687894 0.00301354 9.99102 -2.95536 10 1 
165 1.20334 9.99195 0.00091267 0.0032193 9.99195 -3.0042 10 1 
166 1.20333 9.99325 0.000971527 0.00323353 9.99325 -3.02139 10 1 
167 1.20333 9.99346 0.000932408 0.00314774 9.99346 -3.01398 10 1 
168 1.20339 9.99323 0.000843624 0.00302124 9.99324 -2.91164 10 1 
169 1.20345 9.99417 0.000806368 0.00293288 9.99418 -2.79865 10 1 
170 1.20354 9.99415 0.000773412 0.00283677 9.99417 -2.64349 10 1 
171 1.20366 9.99398 0.000681021 0.00271445 9.994 -2.41761 10 1 
172 1.20381 9.99411 0.000623236 0.00261753 9.99415 -2.15795 10 1 
173 1.20399 9.99249 0.000564126 0.00252131 9.99253 -1.83007 10 1 
174 1.20414 9.99263 0.000492654 0.00239144 9.99269 -1.54496 10 1 
175 1.20432 9.99244 0.000386346 0.00225485 9.9925 -1.23432 10 1 
176 1.2045 9.99174 0.000312539 0.00216281 9.9918 -0.907984 10 1 
176 1.2045 9.99174 0.000312539 0.00216281 9.9918 -0.907984 10 1 
177 1.20465 9.99228 0.000234025 0.00207024 9.99233 -0.636264 10 1 
178 1.20483 9.99023 0.000144385 0.00195989 9.99028 -0.300192 10 1 
179 1.205 9.98923 8.67809e-05 0.0019222 9.98928 0.0060804 10 1 
180 1.20515 9.98913 6.31539e-05 0.00190789 9.98917 0.264638 10 1 
181 1.20528 9.98772 2.80337e-05 0.00187292 9.98775 0.499198 10 1 
182 1.20538 9.98697 -2.33673e-05 0.00186202 9.987 0.688857 10 1 
183 1.20547 9.98616 -3.04484e-05 0.00188204 9.98618 0.850716 10 1 
184 1.20554 9.9844 -5.0085e-05 0.00189938 9.98441 0.978949 10 1 
185 1.20559 9.98367 -6.48252e-05 0.00192801 9.98368 1.06261 10 1 
186 1.20561 9.98348 -3.3632e-05 0.00201049 9.98348 1.10779 10 1 
187 1.20561 9.98181 4.33679e-06 0.00210901 9.98181 1.09863 10 1 
188 1.20556 9.98095 4.58916e-05 0.00220683 9.98095 1.00713 10 1 
189 1.20552 9.98008 8.36911e-05 0.00229905 9.98008 0.933022 10 1 
190 1.20547 9.97855 0.000104939 0.00239327 9.97856 0.840229 10 1 
191 1.20537 9.97929 0.000176241 0.00249269 9.97931 0.67008 10 1 
192 1.20529 9.97938 0.000235898 0.00260657 9.9794 0.517636 10 1 
192 1.20529 9.97938 0.000235898 0.00260657 9.9794 0.517636 10 1 
193 1.20519 9.97749 0.000332053 0.00275791 9.97751 0.336498 10 1 
194 1.20504 9.97727 0.000362932 0.00283813 9.97729 0.0800224 10 1 
195 1.20492 9.9763 0.000411384 0.00291615 9.97633 -0.145989 10 1 
196 1.20482 9.97487 0.000508643 0.0030368 9.97491 -0.325695 10 1 
197 1.20469 9.97593 0.000525149 0.00309722 9.97596 -0.555894 10 1 
198 1.20459 9.97548 0.000590803 0.00319397 9.97551 -0.744511 10 1 
199 1.20451 9.97449 0.000730487 0.00331952 9.97452 -0.884701 10 1 
200 1.20441 9.97532 0.000677651 0.0032785 9.97534 -1.07381 10 1 
201 1.20435 9.9743 0.000632373 0.00326315 9.97432 -1.17084 10 1 
202 1.20428 9.97336 0.000722097 0.00336612 9.97337 -1.2934 10 1 
203 1.20422 9.9728 0.000626186 0.00323081 9.97281 -1.41117 10 1 
204 1.20422 9.97073 0.000690284 0.00327634 9.97074 -1.41484 10 1 
205 1.20418 9.97082 0.000725447 0.00331578 9.97082 -1.47924 10 1 
206 1.20419 9.97173 0.000610774 0.00317481 9.97173 -1.46571 10 1 
207 1.20423 9.97131 0.00067794 0.00320934 9.97131 -1.38773 10 1 
208 1.20427 9.9719 0.000607546 0.00313827 9.97191 -1.3241 10 1 
208 1.20427 9.9719 0.000607546 0.00313827 9.97191 -1.3241 10 1 
209 1.20433 9.9716 0.000571638 0.00307668 9.9716 -1.2151 10 1 
210 1.2044 9.96805 0.000567983 0.00301202 9.96805 -1.08157 10 1 
211 1.20446 9.96589 0.00043421 0.00292578 9.9659 -0.979593 10 1 
212 1.2045 9.96477 0.000367008 0.00282417 9.96478 -0.902833 10 1 
213 1.20458 9.96279 0.000343048 0.00274998 9.9628 -0.759836 10 1 
214 1.20467 9.96382 0.000305686 0.00271523 9.96383 -0.593904 10 1 
215 1.20476 9.96542 0.000306489 0.00274004 9.96543 -0.438861 10 1 
216 1.20485 9.96423 0.000316406 0.00275407 9.96424 -0.273414 10 1 
217 1.20494 9.96164 0.000256804 0.00265018 9.96165 -0.117134 10 1 
218 1.20499 9.95821 0.000206643 0.00262185 9.95822 -0.0259524 10 1 
219 1.20505 9.95434 9.8282e-05 0.0025979 9.95435 0.0813593 10 1 
220 1.20511 9.9531 9.32621e-05 0.00257675 9.9531 0.200508 10 1 
221 1.20516 9.95408 0.000170326 0.00260667 9.95409 0.281068 10 1 
222 1.2052 9.95347 0.00012985 0.00261045 9.95347 0.361577 10 1 
223 1.20521 9.9521 9.49873e-05 0.00264869 9.9521 0.378506 10 1 
224 1.20523 9.94964 0.000133478 0.00271753 9.94964 0.41703 10 1 
224 1.20523 9.94964 0.000133478 0.00271753 9.94964 0.41703 10 1 
225 1.20526 9.94462 0.000172697 0.0027697 9.94462 0.464337 10 1 
226 1.20523 9.9425 0.00022505 0.00277261 9.9425 0.408069 10 1 
227 1.20523 9.94235 0.000244382 0.00286119 9.94235 0.41604 10 1 
228 1.20527 9.94022 0.000186953 0.00292312 9.94022 0.484791 10 1 
229 1.20524 9.94009 0.000223132 0.00292778 9.94009 0.436876 10 1 
230 1.20522 9.93742 0.000331685 0.00304115 9.93742 0.389622 10 1 
231 1.20522 9.93236 0.000304237 0.00304775 9.93236 0.401941 10 1 
232 1.20516 9.93014 0.000227808 0.00299794 9.93014 0.284155 10 1 
233 1.20509 9.92733 0.000225364 0.00301321 9.92733 0.16268 10 1 
234 1.20514 9.92552 0.000334897 0.00315161 9.92552 0.254477 10 1 
235 1.20514 9.92541 0.000474576 0.00326751 9.92542 0.245081 10 1 
236 1.20509 9.92191 0.000456096 0.00331011 9.92191 0.16897 10 1 
237 1.20512 9.91638 0.000340442 0.00325178 9.91638 0.218995 10 1 
238 1.20509 9.91478 0.000302546 0.00314897 9.91478 0.156083 10 1 
239 1.2051 9.91078 0.000349028 0.00318669 9.91078 0.187034 10 1 
240 1.20511 9.90768 0.00034644 0.00324633 9.90769 0.190633 10 1 
240 1.20511 9.90768 0.00034644 0.00324633 9.90769 0.190633 10 1 
241 1.2051 9.9066 0.000393146 0.00329166 9.9066 0.189594 10 1 
242 1.20515 9.89991 0.00035148 0.00326059 9.89991 0.277649 10 1 
243 1.2051 9.89705 0.000247157 0.00314367 9.89706 0.17762 10 1 
244 1.20518 9.89229 0.000281498 0.00317785 9.89229 0.320974 10 1 
245 1.20523 9.88827 0.000263263 0.00321936 9.88827 0.421204 10 1 
246 1.20525 9.88517 0.00033159 0.0032517 9.88517 0.454329 10 1 
247 1.2053 9.88031 0.000265597 0.00316539 9.88032 0.535817 10 1 
248 1.20533 9.8749 0.000190269 0.00311786 9.8749 0.591055 10 1 
249 1.2054 9.8676 0.000133515 0.00305679 9.86761 0.725304 10 1 
250 1.20538 9.8644 0.000129724 0.00305526 9.8644 0.68558 10 1 
251 1.2055 9.85668 0.000260775 0.00322535 9.85668 0.896624 10 1 
252 1.20555 9.8524 8.38798e-05 0.00305405 9.8524 0.998815 10 1 
253 1.20554 9.84578 0.000101305 0.00306263 9.84578 0.979423 10 1 
254 1.20563 9.837 6.73586e-05 0.00304683 9.837 1.1453 10 1 
255 1.2057 9.83134 3.76219e-06 0.00298854 9.83134 1.26416 10 1 
256 1.20576 9.82223 0.000134076 0.00312728 9.82223 1.38159 10 1 
256 1.20576 9.82223 0.000134076 0.00312728 9.82223 1.38159 11 1 
257 1.20579 9.81527 5.59865e-05 0.00306282 9.81528 1.43124 11 1 
258 1.20588 9.80782 -4.25601e-05 0.00295055 9.80782 1.5838 11 1 
259 1.20596 9.79706 8.84174e-07 0.00302797 9.79706 1.73686 11 1 
260 1.20596 9.78594 7.68152e-06 0.00305681 9.78594 1.73443 11 1 
261 1.20603 9.77758 -1.07182e-05 0.0030312 9.77758 1.8664 11 1 
262 1.20616 9.76638 -7.30473e-06 0.00306037 9.76638 2.10042 11 1 
263 1.20619 9.75385 -3.88191e-05 0.0030392 9.75385 2.15864 11 1 
264 1.20622 9.74443 -2.37806e-05 0.00307932 9.74444 2.1964 11 1 
265 1.20639 9.72973 -4.64187e-05 0.0030726 9.72973 2.50414 11 1 
266 1.20653 9.7126 -8.98931e-05 0.00301885 9.7126 2.77037 11 1 
267 1.20646 9.70345 -9.73654e-05 0.00301528 9.70346 2.64048 11 1 
268 1.20658 9.68724 -7.26105e-05 0.00304573 9.68724 2.85443 11 1 
269 1.20684 9.66294 -6.19405e-05 0.0030419 9.66294 3.31699 11 1 
270 1.20674 9.65146 -0.000100346 0.0030261 9.65146 3.13938 11 1 
271 1.20688 9.63567 -0.000114451 0.00302998 9.63567 3.40484 11 1 
272 1.20732 9.60369 -0.00014002 0.00301013 9.60369 4.19701 11 1 
272 1.20732 9.60369 -0.00014002 0.00301013 9.60369 4.19701 11 1 
273 1.20714 9.59096 -0.000200283 0.00297341 9.59097 3.87381 11 1 
274 1.20724 9.56908 -0.000213224 0.00296685 9.56908 4.04048 11 1 
275 1.20776 9.531 -0.000220265 0.0029631 9.531 4.97826 11 1 
276 1.20764 9.51652 -0.000222137 0.00295165 9.51653 4.77725 11 1 
277 1.20777 9.48569 -0.000242534 0.0029372 9.48569 4.99998 11 1 
278 1.2082 9.45 -0.00028731 0.00291167 9.45001 5.78103 11 1 
279 1.20832 9.42525 -0.000325826 0.00286496 9.42525 5.99528 11 1 
280 1.20847 9.38857 -0.000355505 0.00283164 9.38858 6.26002 11 1 
281 1.2088 9.35026 -0.000398673 0.00279615 9.35028 6.86077 11 1 
282 1.20913 9.30422 -0.000417476 0.00276651 9.30427 7.46648 11 1 
283 1.20927 9.25044 -0.000421769 0.00275332 9.25048 7.71649 11 1 
284 1.20945 9.20064 -0.000463881 0.00273433 9.20066 8.04208 11 1 
285 1.20983 9.15885 -0.000483313 0.00272838 9.15885 8.72598 11 1 
286 1.21031 9.11855 -0.000532764 0.00269096 9.11855 9.5996 11 1 
287 1.21075 9.06554 -0.000581991 0.00263888 9.06558 10.3851 11 1 
288 1.21096 8.9919 -0.00059187 0.00258703 8.99198 10.7659 11 1 
288 1.21096 8.9919 -0.00059187 0.00258703 8.99198 10.7659 11 1 
289 1.21115 8.91926 -0.000618731 0.00255048 8.91932 11.1009 11 1 
290 1.21172 8.85489 -0.000651611 0.00253628 8.85492 12.13 11 1 
291 1.21233 8.78839 -0.000657916 0.00250637 8.78845 13.2406 11 1 
292 1.21258 8.71983 -0.000660051 0.00248422 8.71994 13.6987 11 1 
293 1.21295 8.63728 -0.000677452 0.00245424 8.63739 14.361 11 1 
294 1.21351 8.55269 -0.000707498 0.00239936 8.55288 15.3774 11 1 
295 1.21387 8.48255 -0.000741422 0.00231831 8.48291 16.0232 11 1 
296 1.2142 8.42509 -0.000765592 0.00225228 8.42591 16.6178 11 1 
297 1.2144 8.38774 -0.000735998 0.00213907 8.38839 16.9843 11 1 
298 1.21345 8.49325 -0.000807792 0.00195917 8.50819 15.2699 11 1 
299 1.20299 8.6651 -0.001571 0.0023213 9.72374 -3.63388 11 1 
300 1.18667 8.87193 -0.00271767 0.00255412 10.2124 -33.1032 11 1 
301 1.18147 8.82071 -0.00348794 0.00205466 9.40174 -42.5091 11 1 
302 1.18455 8.41878 -0.00399764 0.00151086 8.82899 -36.9364 11 1 
303 1.18752 8.06958 -0.0044218 0.00111264 8.35407 -31.5795 11 1 
304 1.18954 7.78375 -0.00477977 0.000830144 8.00345 -27.9196 11 1 
304 1.18954 7.78375 -0.00477977 0.000830144 8.00345 -27.9196 11 1 
305 1.19084 7.55354 -0.00502788 0.000588655 7.69686 -25.5724 11 1 
306 1.19203 7.3721 -0.00529812 0.000320323 7.50739 -23.4301 11 1 
307 1.19305 7.2202 -0.00553384 0.000100076 7.33826 -21.5902 11 1 
308 1.19395 7.09716 -0.00574348 -0.000149406 7.20428 -19.9565 11 1 
309 1.1946 6.98559 -0.00596556 -0.00042408 7.07268 -18.777 11 1 
310 1.19522 6.88221 -0.00610473 -0.00061994 6.96323 -17.6647 11 1 
311 1.19587 6.79575 -0.00623343 -0.000853248 6.87176 -16.492 11 1 
312 1.19639 6.72005 -0.00635464 -0.00110263 6.7906 -15.5574 11 1 
313 1.1968 6.64773 -0.00644732 -0.00132983 6.71129 -14.8186 11 1 
314 1.19724 6.58257 -0.00653602 -0.00157024 6.64252 -14.0106 11 1 
315 1.19766 6.52127 -0.00661676 -0.00180898 6.5765 -13.2635 11 1 
316 1.19799 6.46556 -0.00667118 -0.00204815 6.51819 -12.6578 11 1 
317 1.1983 6.41856 -0.00671165 -0.00228413 6.46754 -12.0949 11 1 
318 1.19861 6.37341 -0.00674351 -0.00250474 6.41986 -11.541 11 1 
319 1.19889 6.32903 -0.00677363 -0.00273587 6.37293 -11.0336 11 1 
320 1.19916 6.28964 -0.00679883 -0.00296926 6.33103 -10.5522 11 1 
320 1.19916 6.28964 -0.00679883 -0.00296926 6.33103 -10.5522 15 1 
321 1.1994 6.25405 -0.00681617 -0.0031963 6.29326 -10.1129 15 1 
322 1.19962 6.2225 -0.00681267 -0.00341799 6.26025 -9.72143 15 1 
323 1.19983 6.19268 -0.00681156 -0.00362572 6.22845 -9.33071 15 1 
324 1.20004 6.16109 -0.00681698 -0.00383596 6.19538 -8.95347 15 1 
325 1.20019 6.13286 -0.0068148 -0.0040582 6.16553 -8.67941 15 1 
326 1.20037 6.11018 -0.00680415 -0.00426246 6.14153 -8.36497 15 1 
327 1.20059 6.08745 -0.00681091 -0.00446557 6.1176 -7.95906 15 1 
328 1.20074 6.06458 -0.00682233 -0.0046757 6.09358 -7.69904 15 1 
329 1.20083 6.04288 -0.00682471 -0.00487384 6.07077 -7.5287 15 1 
330 1.20097 6.02254 -0.00682452 -0.00506482 6.04936 -7.27036 15 1 
331 1.20114 6.0063 -0.00683383 -0.0052554 6.03203 -6.96454 15 1 
332 1.20128 5.98945 -0.00684581 -0.00544626 6.01441 -6.72527 15 1 
333 1.20134 5.97056 -0.00684898 -0.0056338 5.99471 -6.61113 15 1 
334 1.20146 5.95802 -0.00684715 -0.00580446 5.98138 -6.38861 15 1 
335 1.20165 5.94643 -0.006866 -0.00598823 5.96894 -6.05996 15 1 
336 1.20171 5.92972 -0.00688998 -0.00619163 5.95147 -5.94963 15 1 
336 1.20171 5.92972 -0.00688998 -0.00619163 5.95147 -5.94963 15 1 
337 1.20175 5.91592 -0.00689448 -0.00636791 5.93713 -5.87867 15 1 
338 1.20188 5.90654 -0.00688715 -0.00653341 5.92724 -5.64013 15 1 
339 1.202 5.89779 -0.00690119 -0.00673095 5.91778 -5.41448 15 1 
340 1.20208 5.88682 -0.00693464 -0.00693951 5.90617 -5.27668 15 1 
341 1.20212 5.87266 -0.00692986 -0.00711858 5.89152 -5.20355 15 1 
342 1.20219 5.86337 -0.00687618 -0.0072604 5.88184 -5.07349 15 1 
343 1.20231 5.85913 -0.00684524 -0.00742313 5.87714 -4.85575 15 1 
344 1.20239 5.85131 -0.00683646 -0.00763025 5.86878 -4.72192 15 1 
345 1.20242 5.83946 -0.00679725 -0.00780933 5.85645 -4.65129 15 1 
346 1.20248 5.82853 -0.00676068 -0.00796352 5.84516 -4.55255 15 1 
347 1.20257 5.82389 -0.00676038 -0.00816134 5.84015 -4.39764 15 1 
348 1.20266 5.82145 -0.00677008 -0.00836429 5.8373 -4.22392 15 1 
349 1.20269 5.81194 -0.00674212 -0.0085033 5.82735 -4.17047 15 1 
350 1.20271 5.80107 -0.00665978 -0.00860754 5.8161 -4.13262 15 1 
351 1.20279 5.79543 -0.00661976 -0.00876331 5.81014 -3.99762 15 1 
352 1.20285 5.7919 -0.00666369 -0.00899092 5.8063 -3.88029 15 1 
352 1.20285 5.7919 -0.00666369 -0.00899092 5.8063 -3.88029 15 1 
353 1.20292 5.78827 -0.00669343 -0.00921005 5.80229 -3.76341 15 1 
354 1.20298 5.78201 -0.00666016 -0.00936098 5.79568 -3.64915 15 1 
355 1.20301 5.77482 -0.00660142 -0.00949185 5.78817 -3.59228 15 1 
356 1.20305 5.77088 -0.00652801 -0.00966956 5.78397 -3.52774 15 1 
357 1.20309 5.76852 -0.00640506 -0.00988254 5.78136 -3.45498 15 1 
358 1.20313 5.76639 -0.00624315 -0.0101129 5.77894 -3.37712 15 1 
359 1.20319 5.76336 -0.00614916 -0.0104118 5.77563 -3.27272 15 1 
360 1.20324 5.75961 -0.00615991 -0.0107525 5.77168 -3.17196 15 1 
361 1.20329 5.7586 -0.00614032 -0.0109802 5.77048 -3.08335 15 1 
362 1.20332 5.75901 -0.00598072 -0.011059 5.77066 -3.02946 15 1 
363 1.20334 5.75802 -0.00573015 -0.0111132 5.76942 -2.99838 15 1 
364 1.20337 5.75551 -0.00552073 -0.0112663 5.76671 -2.94738 15 1 
365 1.20341 5.75281 -0.00545215 -0.0115816 5.76388 -2.87367 15 1 
366 1.20347 5.75282 -0.0054976 -0.0119786 5.76372 -2.76565 15 1 
367 1.20353 5.75414 -0.00557794 -0.0122779 5.76482 -2.66347 15 1 
368 1.20355 5.7539 -0.00564389 -0.0124186 5.76442 -2.61779 15 1 
368 1.20355 5.7539 -0.00564389 -0.0124186 5.76442 -2.61779 15 1 
369 1.20355 5.75249 -0.00565347 -0.0124707 5.76285 -2.6115 15 1 
370 1.20356 5.75136 -0.00558812 -0.0124956 5.76153 -2.60372 15 1 
371 1.2036 5.75314 -0.00545885 -0.0125461 5.76308 -2.52632 15 1 
372 1.20367 5.75593 -0.00531669 -0.0126835 5.7657 -2.40846 15 1 
373 1.20371 5.75571 -0.00523333 -0.0129114 5.76536 -2.33437 15 1 
374 1.20374 5.75437 -0.00517984 -0.0131688 5.76386 -2.28271 15 1 
375 1.20375 5.75268 -0.00508026 -0.0133929 5.76204 -2.2652 15 1 
376 1.20374 5.7506 -0.00493782 -0.0135591 5.75989 -2.28011 15 1 
377 1.20376 5.75009 -0.0048032 -0.0137191 5.7593 -2.23353 15 1 
378 1.20381 5.74948 -0.00472763 -0.0139519 5.75859 -2.14225 15 1 
379 1.20385 5.74814 -0.00471493 -0.0142182 5.75715 -2.08289 15 1 
380 1.20387 5.74753 -0.00467664 -0.0144351 5.75646 -2.04793 15 1 
381 1.20388 5.74687 -0.00457446 -0.0146271 5.75573 -2.01445 15 1 
382 1.2039 5.74631 -0.00446561 -0.0148104 5.75508 -1.99186 15 1 
383 1.20391 5.74642 -0.00437615 -0.014977 5.75508 -1.97578 15 1 
384 1.20393 5.74644 -0.00428737 -0.0151744 5.75502 -1.9265 15 1 
384 1.20393 5.74644 -0.00428737 -0.0151744 5.75502 -1.9265 16 1 
385 1.20397 5.74613 -0.004198 -0.0153924 5.75463 -1.86179 16 1 
386 1.20399 5.74665 -0.00412902 -0.0155829 5.75505 -1.82882 16 1 
387 1.204 5.74861 -0.00405598 -0.0157727 5.75693 -1.79876 16 1 
388 1.20402 5.74925 -0.00396493 -0.0159734 5.75749 -1.76343 16 1 
389 1.20404 5.7485 -0.00387215 -0.0161491 5.75664 -1.74116 16 1 
390 1.20405 5.74998 -0.00376491 -0.016309 5.75802 -1.71555 16 1 
391 1.20407 5.7522 -0.00365952 -0.0164855 5.76017 -1.68331 16 1 
392 1.2041 5.75332 -0.00358308 -0.016675 5.76121 -1.63133 16 1 
393 1.20412 5.75516 -0.00350485 -0.0168585 5.76293 -1.58147 16 1 
394 1.20412 5.75686 -0.00340226 -0.0170281 5.76456 -1.58363 16 1 
395 1.20413 5.75809 -0.00329069 -0.0171856 5.76572 -1.56849 16 1 
396 1.20417 5.76049 -0.00318009 -0.0173431 5.768 -1.49509 16 1 
397 1.20419 5.76322 -0.00308764 -0.0175209 5.77066 -1.47095 16 1 
398 1.20417 5.76538 -0.0030093 -0.0177082 5.77274 -1.49321 16 1 
399 1.2042 5.76727 -0.00291174 -0.0178761 5.77453 -1.44318 16 1 
400 1.20424 5.76964 -0.00279983 -0.0180333 5.77681 -1.36983 16 1 
400 1.20424 5.76964 -0.00279983 -0.0180333 5.77681 -1.36983 16 1 
401 1.20423 5.77322 -0.00269476 -0.0181956 5.78031 -1.3862 16 1 
402 1.20423 5.77655 -0.00259601 -0.0183516 5.78355 -1.3986 16 1 
403 1.20427 5.77845 -0.00249734 -0.0185045 5.78538 -1.31478 16 1 
404 1.2043 5.78122 -0.00239652 -0.0186734 5.78807 -1.27081 16 1 
405 1.20427 5.78584 -0.00230528 -0.0188402 5.7926 -1.31369 16 1 
406 1.20429 5.78918 -0.00221247 -0.0189798 5.79588 -1.28722 16 1 
407 1.20433 5.79109 -0.00209487 -0.0191152 5.79772 -1.2013 16 1 
408 1.20433 5.79558 -0.00198333 -0.0192708 5.80214 -1.20545 16 1 
409 1.20431 5.80085 -0.00191138 -0.0194361 5.80734 -1.24198 16 1 
410 1.20435 5.80286 -0.0018422 -0.0195964 5.8093 -1.17596 16 1 
411 1.20439 5.80568 -0.00174061 -0.0197398 5.81206 -1.10943 16 1 
412 1.20436 5.81165 -0.00163876 -0.0198767 5.81797 -1.15591 16 1 
413 1.20436 5.81558 -0.00155066 -0.0200155 5.82185 -1.16377 16 1 
414 1.20441 5.81767 -0.00144653 -0.0201327 5.82387 -1.07109 16 1 
415 1.20441 5.82242 -0.00132447 -0.0202344 5.82856 -1.06163 16 1 
416 1.20439 5.82755 -0.00121326 -0.0203628 5.83365 -1.10866 16 1 
416 1.20439 5.82755 -0.00121326 -0.0203628 5.83365 -1.10866 16 1 
417 1.20442 5.83031 -0.00114379 -0.020526 5.83636 -1.04137 16 1 
418 1.20445 5.83392 -0.00109287 -0.0206764 5.83991 -0.985386 16 1 
419 1.20442 5.839 -0.000996247 -0.0207899 5.84493 -1.05128 16 1 
420 1.20442 5.84233 -0.000871701 -0.0209022 5.84822 -1.04 16 1 
421 1.20448 5.84531 -0.000774806 -0.0210156 5.85114 -0.941538 16 1 
422 1.20446 5.85032 -0.00068857 -0.0211069 5.85609 -0.971161 16 1 
423 1.20444 5.85425 -0.000593709 -0.0212061 5.85998 -1.01104 16 1 
424 1.2045 5.856 -0.000508811 -0.021323 5.86168 -0.911582 16 1 
425 1.2045 5.85934 -0.000434643 -0.0214186 5.86496 -0.894438 16 1 
426 1.20447 5.86378 -0.00035722 -0.0214869 5.86934 -0.96601 16 1 
427 1.20451 5.86593 -0.000266382 -0.021539 5.87144 -0.893323 16 1 
428 1.20454 5.86767 -0.000172487 -0.0215849 5.8731 -0.836992 16 1 
429 1.20449 5.87087 -0.000100624 -0.0216379 5.87624 -0.922948 16 1 
430 1.20451 5.87253 -4.58192e-05 -0.0216887 5.87783 -0.879202 16 1 
431 1.20458 5.87257 9.22196e-06 -0.0217272 5.8778 -0.767028 16 1 
432 1.20453 5.8739 7.24811e-05 -0.0217349 5.87906 -0.854799 16 1 
432 1.20453 5.8739 7.24811e-05 -0.0217349 5.87906 -0.854799 16 1 
433 1.20451 5.87417 0.000144497 -0.0216875 5.87924 -0.889284 16 1 
434 1.20459 5.87154 0.000222106 -0.0215868 5.8765 -0.739373 16 1 
435 1.20458 5.8697 0.000281619 -0.0214598 5.87455 -0.767533 16 1 
436 1.20452 5.86816 0.000282906 -0.0213467 5.87288 -0.860223 16 1 
437 1.20461 5.863 0.000250846 -0.0212402 5.86759 -0.701245 16 1 
438 1.20464 5.85641 0.000240706 -0.0210931 5.86085 -0.648898 16 1 
439 1.20455 5.84988 0.000252491 -0.0208814 5.85416 -0.811541 16 1 
440 1.20459 5.83976 0.00026829 -0.0205817 5.84384 -0.73525 16 1 
441 1.20467 5.82692 0.000268264 -0.0202001 5.83078 -0.587661 16 1 
442 1.20461 5.8135 0.000227902 -0.0197726 5.81711 -0.695321 16 1 
443 1.20462 5.79578 0.000157421 -0.0192929 5.79914 -0.687427 16 1 
444 1.20471 5.7742 9.10107e-05 -0.0187624 5.77732 -0.519749 16 1 
445 1.20468 5.75306 3.7929e-05 -0.0181961 5.75595 -0.582885 16 1 
446 1.20465 5.72989 -1.78255e-05 -0.0175818 5.73254 -0.636466 16 1 
447 1.20474 5.70401 -8.56267e-05 -0.0169421 5.70644 -0.474145 16 1 
448 1.20474 5.68042 -0.000148597 -0.0163296 5.68265 -0.46862 16 1 
448 1.20474 5.68042 -0.000148597 -0.0163296 5.68265 -0.46862 17 1 
449 1.2047 5.65683 -0.000182343 -0.0157824 5.65887 -0.539634 17 1 
450 1.20476 5.63006 -0.000184986 -0.0153458 5.63194 -0.427793 17 1 
451 1.20477 5.60542 -0.000183446 -0.0150451 5.60719 -0.418618 17 1 
452 1.20474 5.58313 -0.00022008 -0.014833 5.5848 -0.478426 17 1 
453 1.2048 5.55895 -0.000313892 -0.0146256 5.56053 -0.356282 17 1 
454 1.20481 5.53666 -0.000447533 -0.0143959 5.53815 -0.341318 17 1 
455 1.20476 5.51723 -0.00057744 -0.0141534 5.51863 -0.427313 17 1 
456 1.20483 5.49545 -0.000673876 -0.0138776 5.49677 -0.313701 17 1 
457 1.20484 5.47256 -0.000749261 -0.0136069 5.47382 -0.280218 17 1 
458 1.20478 5.44991 -0.000788206 -0.0134212 5.45113 -0.390553 17 1 
459 1.20483 5.42429 -0.000761646 -0.0133353 5.4255 -0.301859 17 1 
460 1.20487 5.39781 -0.000697691 -0.0133877 5.39905 -0.241345 17 1 
461 1.2048 5.37234 -0.000631578 -0.0136378 5.37365 -0.361894 17 1 
462 1.20482 5.3469 -0.00061371 -0.0140069 5.34828 -0.324654 17 1 
463 1.20486 5.32752 -0.000743948 -0.0143238 5.32896 -0.252974 17 1 
464 1.20482 5.3195 -0.00108744 -0.0144671 5.32094 -0.321832 17 1 
464 1.20482 5.3195 -0.00108744 -0.0144671 5.32094 -0.321832 17 1 
465 1.20486 5.32264 -0.00166797 -0.014372 5.32399 -0.260407 17 1 
466 1.2049 5.341 -0.00246534 -0.0139779 5.3422 -0.178307 17 1 
467 1.20487 5.37653 -0.00336972 -0.0132714 5.37754 -0.231021 17 1 
468 1.20491 5.42432 -0.00427555 -0.0123293 5.42512 -0.160321 17 1 
469 1.20496 5.48336 -0.00510277 -0.0112232 5.48396 -0.0792925 17 1 
470 1.20494 5.55196 -0.00577873 -0.00998487 5.55239 -0.115027 17 1 
471 1.205 5.62164 -0.00626016 -0.00868331 5.62194 -0.00569015 17 1 
472 1.20504 5.68708 -0.00648462 -0.00738337 5.68727 0.0804388 17 1 
473 1.205 5.74274 -0.00640401 -0.00610004 5.74284 -0.00692625 17 1 
474 1.20502 5.77803 -0.00601796 -0.00485511 5.77807 0.0427455 17 1 
475 1.20506 5.78789 -0.00535884 -0.00373875 5.7879 0.102575 17 1 
476 1.205 5.77168 -0.00456649 -0.00287113 5.7717 -0.000540966 17 1 
477 1.20499 5.72862 -0.00386099 -0.00231316 5.72866 -0.0116813 17 1 
478 1.20499 5.66484 -0.00337585 -0.00203798 5.6649 -0.0259233 17 1 
479 1.20491 5.58893 -0.00312549 -0.0019507 5.58901 -0.162839 17 1 
480 1.20489 5.50651 -0.00311449 -0.00195592 5.50659 -0.203274 17 1 
480 1.20489 5.50651 -0.00311449 -0.00195592 5.50659 -0.203274 17 1 
481 1.20487 5.42629 -0.00334825 -0.00201144 5.42637 -0.23081 17 1 
482 1.20481 5.35476 -0.00376435 -0.00210219 5.35482 -0.33888 17 1 
483 1.20479 5.29343 -0.00429814 -0.00224026 5.29347 -0.374052 17 1 
484 1.20477 5.24691 -0.00494563 -0.00244856 5.24694 -0.407437 17 1 
485 1.20475 5.21816 -0.00564132 -0.0026874 5.21818 -0.446002 17 1 
486 1.20479 5.20463 -0.00626043 -0.00289438 5.20464 -0.38564 17 1 
487 1.20479 5.20594 -0.00678767 -0.00306889 5.20595 -0.379708 17 1 
488 1.20477 5.22227 -0.00727583 -0.00323733 5.22229 -0.407915 17 1 
489 1.20483 5.25171 -0.00772886 -0.00341227 5.25174 -0.302535 17 1 
490 1.2049 5.29288 -0.00812559 -0.00358465 5.29292 -0.183956 17 1 
491 1.20494 5.34361 -0.0084551 -0.00372163 5.34366 -0.10968 17 1 
492 1.205 5.40278 -0.00871092 -0.00380515 5.40284 -0.00031683 17 1 
493 1.20507 5.4708 -0.00890329 -0.00385329 5.47087 0.129134 17 1 
494 1.20516 5.5457 -0.00907306 -0.00390214 5.54579 0.289925 17 1 
495 1.20523 5.6259 -0.00924605 -0.00396441 5.62599 0.416374 17 1 
496 1.20526 5.71151 -0.00941608 -0.00403423 5.71161 0.474479 17 1 
496 1.20526 5.71151 -0.00941608 -0.00403423 5.71161 0.474479 17 1 
497 1.20535 5.80197 -0.00955847 -0.00409376 5.80208 0.626506 17 1 
498 1.20546 5.89721 -0.00964242 -0.00410135 5.89732 0.827778 17 1 
499 1.20552 5.99617 -0.00968101 -0.00406276 5.99628 0.947104 17 1 
500 1.20559 6.09757 -0.00971972 -0.00403407 6.09769 1.05756 17 1 
501 1.20564 6.20299 -0.00977866 -0.0040318 6.20311 1.15992 17 1 
502 1.20571 6.3121 -0.00984465 -0.00403874 6.31223 1.28168 17 1 
503 1.20581 6.42262 -0.00988924 -0.00403288 6.42275 1.46165 17 1 
504 1.20585 6.53481 -0.00988979 -0.00398795 6.53494 1.5374 17 1 
505 1.20585 6.64838 -0.0098512 -0.0039104 6.64851 1.5406 17 1 
506 1.2059 6.76312 -0.00980665 -0.00384301 6.76325 1.6188 17 1 
507 1.20595 6.88011 -0.00978352 -0.00380633 6.88024 1.71007 17 1 
508 1.20599 6.99743 -0.00976706 -0.00378198 6.99756 1.78485 17 1 
509 1.20599 7.11345 -0.00972335 -0.00374473 7.11358 1.79079 17 1 
510 1.20596 7.22955 -0.00964044 -0.00368743 7.22967 1.7297 17 1 
511 1.20598 7.34565 -0.0095239 -0.00361006 7.34577 1.77836 17 1 
512 1.20603 7.46102 -0.00939268 -0.00352208 7.46113 1.86223 17 1 
512 1.20603 7.46102 -0.00939268 -0.00352208 7.46113 1.86223 25 1 
513 1.20601 7.57454 -0.00928141 -0.00346239 7.57465 1.82765 25 1 
514 1.20597 7.68513 -0.00918491 -0.00343848 7.68524 1.74507 25 1 
515 1.20593 7.7942 -0.00907122 -0.00340771 7.79431 1.67774 25 1 
516 1.20594 7.90245 -0.00894068 -0.00336203 7.90255 1.69536 25 1 
517 1.20596 8.00824 -0.00880765 -0.0033328 8.00834 1.73876 25 1 
518 1.20592 8.11013 -0.00867172 -0.00330237 8.11022 1.6565 25 1 
519 1.20587 8.20827 -0.00851099 -0.0032421 8.20837 1.57807 25 1 
520 1.20589 8.30476 -0.0083334 -0.00318025 8.30485 1.61269 25 1 
521 1.20593 8.39978 -0.00817368 -0.00314183 8.39987 1.67221 25 1 
522 1.20593 8.49022 -0.00802949 -0.00311163 8.4903 1.67738 25 1 
523 1.20588 8.57585 -0.00786966 -0.00307055 8.57592 1.59789 25 1 
524 1.20587 8.65897 -0.00770344 -0.00303562 8.65904 1.5694 25 1 
525 1.20592 8.7404 -0.00755065 -0.00300132 8.74047 1.6632 25 1 
526 1.20595 8.81853 -0.00738695 -0.00294598 8.81859 1.71644 25 1 
527 1.2059 8.89146 -0.00719658 -0.00288322 8.89151 1.62851 25 1 
528 1.20582 8.9607 -0.00699448 -0.00282161 8.96074 1.48555 25 1 
528 1.20582 8.9607 -0.00699448 -0.00282161 8.96074 1.48555 25 1 
529 1.20582 9.02878 -0.00681156 -0.00277372 9.02882 1.48041 25 1 
530 1.20588 9.09572 -0.00666008 -0.00274446 9.09575 1.59739 25 1 
531 1.20587 9.15822 -0.00650039 -0.00270651 9.15824 1.57657 25 1 
532 1.20574 9.21466 -0.00630359 -0.00264891 9.21468 1.34209 25 1 
533 1.2056 9.26871 -0.00608437 -0.00256868 9.26873 1.08041 25 1 
534 1.20557 9.32305 -0.00589681 -0.0024981 9.32306 1.0301 25 1 
535 1.20562 9.3763 -0.00577863 -0.00248728 9.37631 1.11796 25 1 
536 1.20556 9.4253 -0.00568395 -0.00250291 9.42531 1.00329 25 1 
537 1.20536 9.46867 -0.0055589 -0.00247952 9.46868 0.65431 25 1 
538 1.20519 9.5098 -0.00540948 -0.00242467 9.5098 0.340995 25 1 
539 1.20517 9.55191 -0.00524658 -0.00236182 9.55191 0.301688 25 1 
540 1.20524 9.59299 -0.00511049 -0.00231364 9.59299 0.440332 25 1 
541 1.20522 9.6288 -0.00504973 -0.00230447 9.6288 0.388523 25 1 
542 1.20507 9.65751 -0.00501245 -0.00232275 9.65752 0.125238 25 1 
543 1.20497 9.68314 -0.0049039 -0.00230366 9.68315 -0.0572985 25 1 
544 1.20502 9.70981 -0.00475125 -0.00222426 9.70982 0.0343476 25 1 
544 1.20502 9.70981 -0.00475125 -0.00222426 9.70982 0.0343476 25 1 
545 1.20516 9.73454 -0.00464294 -0.00215265 9.73454 0.284248 25 1 
546 1.2052 9.75325 -0.00458599 -0.00213137 9.75326 0.361415 25 1 
547 1.20514 9.76605 -0.00457727 -0.0021549 9.76606 0.253537 25 1 
548 1.20513 9.77751 -0.00458929 -0.00219108 9.77752 0.232744 25 1 
549 1.20526 9.79159 -0.00455668 -0.00219129 9.7916 0.460892 25 1 
550 1.20544 9.80592 -0.00447459 -0.00214186 9.80593 0.788647 25 1 
551 1.20549 9.81669 -0.00439436 -0.00208077 9.8167 0.886467 25 1 
552 1.20543 9.82424 -0.00433678 -0.00203754 9.82425 0.78422 25 1 
553 1.20542 9.83252 -0.00429444 -0.00203184 9.83252 0.762379 25 1 
554 1.20551 9.8432 -0.00425721 -0.0020482 9.8432 0.921105 25 1 
555 1.20561 9.85381 -0.00418802 -0.00202516 9.85381 1.10225 25 1 
556 1.20557 9.86115 -0.00407884 -0.00195926 9.86115 1.03459 25 1 
557 1.20542 9.86532 -0.0039476 -0.00188009 9.86532 0.764384 25 1 
558 1.20531 9.87024 -0.00380831 -0.00180045 9.87025 0.563414 25 1 
559 1.20529 9.87715 -0.00370562 -0.00175475 9.87716 0.521384 25 1 
560 1.20527 9.8835 -0.00364802 -0.00174355 9.8835 0.484993 25 1 
560 1.20527 9.8835 -0.00364802 -0.00174355 9.8835 0.484993 25 1 
561 1.20515 9.88684 -0.00358192 -0.00172477 9.88685 0.267421 25 1 
562 1.20496 9.88772 -0.00348771 -0.00167351 9.88773 -0.0633547 25 1 
563 1.20482 9.88992 -0.00339803 -0.00161473 9.88993 -0.319528 25 1 
564 1.20478 9.89477 -0.0033388 -0.00158592 9.89478 -0.40512 25 1 
565 1.20476 9.89973 -0.00332058 -0.00159952 9.89974 -0.437534 25 1 
566 1.20467 9.9027 -0.00334073 -0.00163817 9.9027 -0.59687 25 1 
567 1.20456 9.90423 -0.00335975 -0.0016643 9.90423 -0.786128 25 1 
568 1.20454 9.90724 -0.00335875 -0.00166651 9.90724 -0.83913 25 1 
569 1.2046 9.91242 -0.00338052 -0.0016839 9.91242 -0.726141 25 1 
570 1.20469 9.91724 -0.00342038 -0.00171447 9.91724 -0.557562 25 1 
571 1.20475 9.92045 -0.00344712 -0.00173716 9.92046 -0.460439 25 1 
572 1.20478 9.92301 -0.00349826 -0.00177988 9.92303 -0.394654 25 1 
573 1.20486 9.92657 -0.00356311 -0.00182422 9.92659 -0.25675 25 1 
574 1.20501 9.93093 -0.00356694 -0.00182773 9.93094 0.0098311 25 1 
575 1.20515 9.93447 -0.00355401 -0.00183096 9.93448 0.264679 25 1 
576 1.20521 9.93664 -0.00357308 -0.00185555 9.93665 0.386518 25 1 
576 1.20521 9.93664 -0.00357308 -0.00185555 9.93665 0.386518 26 1 
577 1.20527 9.9382 -0.00358547 -0.00188227 9.9382 0.479689 26 1 
578 1.20533 9.94045 -0.00354909 -0.00189307 9.94046 0.594306 26 1 
579 1.2054 9.94309 -0.00347588 -0.00186497 9.9431 0.725597 26 1 
580 1.20543 9.94543 -0.00339158 -0.00180834 9.94543 0.784378 26 1 
581 1.20538 9.94632 -0.00329621 -0.00176331 9.94632 0.688729 26 1 
582 1.20531 9.94579 -0.00319788 -0.00173115 9.94579 0.553422 26 1 
583 1.20525 9.94664 -0.00309664 -0.00167733 9.94664 0.451675 26 1 
584 1.20519 9.94865 -0.00299555 -0.00162267 9.94866 0.34482 26 1 
585 1.20509 9.94977 -0.00290792 -0.00160092 9.94978 0.156612 26 1 
586 1.20494 9.94961 -0.00281603 -0.00157425 9.94961 -0.116098 26 1 
587 1.20479 9.94915 -0.00272192 -0.00152468 9.94916 -0.376686 26 1 
588 1.20468 9.95035 -0.00265551 -0.00149666 9.95035 -0.574101 26 1 
589 1.20462 9.95275 -0.00262558 -0.00151264 9.95275 -0.694603 26 1 
590 1.20456 9.9544 -0.00261838 -0.00153521 9.95441 -0.793861 26 1 
591 1.20448 9.95494 -0.00262435 -0.00154561 9.95494 -0.939225 26 1 
592 1.20441 9.95561 -0.00263619 -0.00156461 9.95561 -1.05717 26 1 
592 1.20441 9.95561 -0.00263619 -0.00156461 9.95561 -1.05717 26 1 
593 1.20443 9.95794 -0.00266387 -0.0016031 9.95794 -1.0364 26 1 
594 1.2045 9.96105 -0.00272809 -0.00165844 9.96105 -0.902054 26 1 
595 1.20458 9.96321 -0.00279893 -0.00171043 9.96322 -0.756669 26 1 
596 1.20465 9.96461 -0.00287307 -0.00177679 9.96462 -0.637156 26 1 
597 1.20472 9.96564 -0.00294754 -0.00184269 9.96565 -0.512467 26 1 
598 1.20483 9.96726 -0.00300141 -0.00187902 9.96727 -0.314235 26 1 
599 1.20498 9.96994 -0.00301943 -0.00190217 9.96995 -0.0367112 26 1 
600 1.20511 9.97198 -0.00302876 -0.00192813 9.97199 0.203522 26 1 
601 1.20519 9.97233 -0.00304463 -0.00195153 9.97233 0.33879 26 1 
602 1.20524 9.97217 -0.00301663 -0.00194573 9.97217 0.430578 26 1 
603 1.20529 9.97287 -0.00293604 -0.00190651 9.97287 0.524248 26 1 
604 1.20534 9.97411 -0.00286067 -0.00186693 9.97411 0.614265 26 1 
605 1.20536 9.97487 -0.00278687 -0.00183422 9.97487 0.647319 26 1 
606 1.20531 9.97436 -0.00268338 -0.00179011 9.97436 0.552843 26 1 
607 1.2052 9.97319 -0.00257155 -0.00173058 9.97319 0.359431 26 1 
608 1.20509 9.97276 -0.00245501 -0.00165753 9.97277 0.171008 26 1 
608 1.20509 9.97276 -0.00245501 -0.00165753 9.97277 0.171008 26 1 
609 1.20501 9.97346 -0.00234088 -0.00159829 9.97347 0.0218211 26 1 
610 1.20492 9.97444 -0.00223806 -0.00155516 9.97445 -0.149371 26 1 
611 1.2048 9.97447 -0.00214512 -0.00150089 9.97448 -0.364066 26 1 
612 1.20465 9.97393 -0.00206147 -0.00145687 9.97394 -0.632549 26 1 
613 1.20451 9.97409 -0.00198901 -0.00142603 9.9741 -0.893307 26 1 
614 1.20443 9.97508 -0.00194302 -0.00139773 9.97508 -1.02567 26 1 
615 1.2044 9.9766 -0.00192467 -0.00139152 9.9766 -1.07903 26 1 
616 1.20437 9.97803 -0.00194558 -0.00142736 9.97803 -1.13391 26 1 
617 1.20433 9.97847 -0.0019934 -0.00147562 9.97847 -1.20251 26 1 
618 1.20432 9.97892 -0.0020236 -0.00149635 9.97892 -1.22289 26 1 
619 1.20438 9.98038 -0.0020447 -0.00150769 9.98038 -1.12096 26 1 
620 1.20448 9.98245 -0.00209524 -0.00154989 9.98245 -0.936441 26 1 
621 1.20459 9.98454 -0.00215947 -0.00160431 9.98455 -0.736634 26 1 
622 1.20468 9.9852 -0.00221379 -0.00165142 9.98521 -0.570845 26 1 
623 1.20476 9.98492 -0.0022541 -0.00169427 9.98493 -0.437441 26 1 
624 1.20484 9.9854 -0.0022686 -0.00171361 9.98541 -0.285363 26 1 
624 1.20484 9.9854 -0.0022686 -0.00171361 9.98541 -0.285363 26 1 
625 1.20496 9.98609 -0.00227144 -0.00172016 9.98609 -0.0808355 26 1 
626 1.20506 9.98691 -0.00225628 -0.00172481 9.98691 0.101192 26 1 
627 1.20511 9.98753 -0.00222202 -0.00171384 9.98754 0.199072 26 1 
628 1.20512 9.98687 -0.00218791 -0.00170651 9.98687 0.213503 26 1 
629 1.2051 9.98596 -0.00215188 -0.00170768 9.98596 0.171514 26 1 
630 1.20508 9.98567 -0.002078 -0.00167222 9.98567 0.145858 26 1 
631 1.20505 9.98579 -0.00195563 -0.00159652 9.98579 0.0898957 26 1 
632 1.20499 9.98573 -0.00184252 -0.00152595 9.98573 -0.0259838 26 1 
633 1.20489 9.985 -0.00176579 -0.00147979 9.985 -0.189975 26 1 
634 1.20479 9.98444 -0.00171464 -0.00146763 9.98445 -0.379919 26 1 
635 1.2047 9.98435 -0.00168121 -0.00147671 9.98436 -0.547407 26 1 
636 1.20462 9.98464 -0.00164041 -0.00146499 9.98465 -0.689877 26 1 
637 1.20455 9.98519 -0.00157971 -0.00143509 9.98519 -0.815818 26 1 
638 1.20447 9.98542 -0.0015252 -0.00140566 9.98542 -0.960212 26 1 
639 1.20441 9.98572 -0.00152303 -0.00140927 9.98572 -1.05939 26 1 
640 1.20441 9.98686 -0.0015671 -0.00145798 9.98686 -1.07265 26 1 
640 1.20441 9.98686 -0.0015671 -0.00145798 9.98686 -1.07265 26 1 
641 1.20444 9.9883 -0.00162266 -0.00153421 9.9883 -1.01961 26 1 
642 1.20448 9.98986 -0.00167033 -0.00158955 9.98986 -0.932011 26 1 
643 1.20452 9.99081 -0.00169247 -0.00159697 9.99081 -0.858256 26 1 
644 1.20457 9.99071 -0.00171447 -0.00161612 9.99072 -0.772018 26 1 
645 1.20465 9.99106 -0.00176885 -0.00167755 9.99106 -0.641058 26 1 
646 1.20475 9.99208 -0.00183914 -0.00173686 9.99208 -0.459085 26 1 
647 1.20485 9.9929 -0.00188378 -0.00177168 9.9929 -0.275082 26 1 
648 1.20493 9.99286 -0.00187255 -0.00177424 9.99286 -0.126878 26 1 
649 1.20497 9.9922 -0.00184277 -0.00174459 9.9922 -0.050019 26 1 
650 1.20501 9.99162 -0.00183682 -0.0017244 9.99162 0.0120741 26 1 
651 1.20506 9.99174 -0.00182511 -0.00172493 9.99174 0.103061 26 1 
652 1.20508 9.99175 -0.00179748 -0.00171629 9.99175 0.150279 26 1 
653 1.20507 9.99108 -0.00174637 -0.00166289 9.99108 0.122231 26 1 
654 1.205 9.98962 -0.00164427 -0.00157848 9.98963 -0.000143168 26 1 
655 1.20491 9.98761 -0.00153948 -0.00150205 9.98761 -0.159736 26 1 
656 1.20483 9.98742 -0.00147728 -0.00145065 9.98743 -0.299773 26 1 
656 1.20483 9.98742 -0.00147728 -0.00145065 9.98743 -0.299773 26 1 
657 1.20478 9.98808 -0.00144637 -0.00143869 9.98808 -0.393023 26 1 
658 1.20472 9.98851 -0.00141238 -0.00143487 9.98852 -0.503693 26 1 
659 1.20463 9.98835 -0.00134325 -0.00138641 9.98836 -0.676576 26 1 
660 1.20452 9.98698 -0.00124777 -0.00130038 9.98698 -0.873292 26 1 
661 1.20442 9.98635 -0.00116385 -0.0012296 9.98635 -1.05578 26 1 
662 1.20438 9.98699 -0.00112545 -0.00121356 9.98699 -1.12682 26 1 
663 1.20438 9.98796 -0.00115379 -0.00124116 9.98796 -1.11662 26 1 
664 1.20439 9.98875 -0.00119641 -0.00127072 9.98875 -1.1044 26 1 
665 1.20438 9.98838 -0.00120989 -0.0012891 9.98838 -1.12204 26 1 
666 1.20437 9.98728 -0.00119769 -0.00127882 9.98729 -1.14035 26 1 
667 1.20439 9.98756 -0.00117157 -0.00123966 9.98756 -1.10798 26 1 
668 1.20446 9.98853 -0.0011502 -0.00121151 9.98853 -0.980938 26 1 
669 1.20455 9.99034 -0.00117155 -0.00122436 9.99035 -0.805176 26 1 
670 1.20463 9.99169 -0.00123611 -0.00128296 9.99169 -0.673884 26 1 
671 1.20467 9.99146 -0.00127411 -0.00132048 9.99147 -0.595789 26 1 
672 1.20469 9.99139 -0.00127609 -0.00131361 9.9914 -0.555419 26 1 
672 1.20469 9.99139 -0.00127609 -0.00131361 9.9914 -0.555419 27 1 
673 1.20473 9.99142 -0.00125224 -0.00129051 9.99142 -0.494211 27 1 
674 1.20477 9.99194 -0.00121551 -0.00126073 9.99194 -0.41313 27 1 
675 1.20481 9.99193 -0.00118382 -0.0012288 9.99193 -0.351401 27 1 
676 1.2048 9.99085 -0.0011676 -0.00121892 9.99085 -0.365697 27 1 
677 1.20476 9.98931 -0.00116107 -0.00122636 9.98931 -0.427722 27 1 
678 1.20472 9.98823 -0.00115718 -0.00123311 9.98823 -0.505103 27 1 
679 1.20469 9.98816 -0.00114677 -0.00123525 9.98816 -0.553761 27 1 
680 1.20469 9.98878 -0.00112043 -0.00122562 9.98878 -0.565941 27 1 
681 1.20464 9.98894 -0.00105951 -0.00117703 9.98894 -0.649884 27 1 
682 1.20458 9.98844 -0.000994068 -0.00111916 9.98844 -0.762933 27 1 
683 1.20452 9.98826 -0.000964622 -0.00109439 9.98826 -0.869076 27 1 
684 1.20448 9.98848 -0.000979584 -0.00112356 9.98848 -0.93348 27 1 
685 1.2045 9.98963 -0.00102856 -0.0011745 9.98964 -0.905801 27 1 
686 1.20454 9.99052 -0.00106323 -0.00120354 9.99052 -0.835561 27 1 
687 1.20455 9.99009 -0.00106309 -0.00121674 9.99009 -0.821653 27 1 
688 1.20454 9.98873 -0.00103295 -0.00119107 9.98873 -0.838927 27 1 
688 1.20454 9.98873 -0.00103295 -0.00119107 9.98873 -0.838927 27 1 
689 1.20454 9.98753 -0.00101354 -0.00115877 9.98753 -0.835392 27 1 
690 1.20457 9.98742 -0.00101787 -0.00116531 9.98742 -0.776108 27 1 
691 1.20465 9.98866 -0.00104044 -0.00119419 9.98866 -0.636621 27 1 
692 1.20472 9.99047 -0.00107757 -0.00123145 9.99047 -0.49715 27 1 
693 1.20476 9.99161 -0.00110444 -0.00126219 9.99161 -0.424821 27 1 
694 1.20476 9.99151 -0.0011157 -0.00127037 9.99151 -0.430911 27 1 
695 1.20476 9.9907 -0.00109966 -0.00125495 9.9907 -0.429899 27 1 
696 1.20478 9.99033 -0.00107109 -0.00122523 9.99033 -0.39734 27 1 
697 1.20481 9.98979 -0.00105635 -0.00120704 9.98979 -0.347305 27 1 
698 1.20483 9.9893 -0.00104444 -0.00119766 9.9893 -0.314021 27 1 
699 1.2048 9.98794 -0.00101807 -0.00117172 9.98795 -0.361594 27 1 
700 1.20473 9.98618 -0.000984805 -0.00113882 9.98618 -0.488632 27 1 
701 1.20467 9.98595 -0.000933867 -0.00108972 9.98595 -0.587821 27 1 
702 1.20465 9.98658 -0.000874204 -0.0010243 9.98658 -0.640683 27 1 
703 1.20463 9.98856 -0.000833539 -0.000980624 9.98856 -0.669421 27 1 
704 1.20462 9.99038 -0.00083009 -0.000976132 9.99038 -0.680935 27 1 
704 1.20462 9.99038 -0.00083009 -0.000976132 9.99038 -0.680935 31 1 
705 1.20458 9.99 -0.000844938 -0.000983632 9.99 -0.752533 31 1 
706 1.20452 9.98824 -0.000806891 -0.000951043 9.98825 -0.868369 31 1 
707 1.20447 9.98574 -0.000729433 -0.000867528 9.98574 -0.966067 31 1 
708 1.20445 9.98422 -0.00066005 -0.000793262 9.98422 -0.985934 31 1 
709 1.20447 9.98513 -0.000636051 -0.000768609 9.98513 -0.955055 31 1 
710 1.2045 9.98651 -0.000659224 -0.000778106 9.98651 -0.901446 31 1 
711 1.20452 9.98837 -0.000693862 -0.000805887 9.98837 -0.874176 31 1 
712 1.20451 9.98988 -0.000694218 -0.000808974 9.98988 -0.892251 31 1 
713 1.2045 9.98984 -0.000646592 -0.00075344 9.98984 -0.90442 31 1 
714 1.20453 9.9901 -0.000591789 -0.000696648 9.9901 -0.857825 31 1 
715 1.20456 9.98915 -0.000569207 -0.00067638 9.98915 -0.792808 31 1 
716 1.20459 9.9877 -0.000587182 -0.000680302 9.9877 -0.735446 31 1 
717 1.20461 9.98684 -0.000635045 -0.000721037 9.98684 -0.699655 31 1 
718 1.2046 9.98582 -0.000666815 -0.00074657 9.98582 -0.722816 31 1 
719 1.20459 9.98647 -0.000642203 -0.000714519 9.98647 -0.739784 31 1 
720 1.20459 9.9886 -0.000585552 -0.000651096 9.9886 -0.738697 31 1 
721 1.20461 9.99028 -0.000556548 -0.000615742 9.99028 -0.705266 31 1 
722 1.20463 9.99152 -0.000550245 -0.000603373 9.99152 -0.664541 31 1 
723 1.20463 9.99039 -0.000555315 -0.000602353 9.99039 -0.66392 31 1 
724 1.20461 9.98773 -0.000588848 -0.00062655 9.98773 -0.708078 31 1 
725 1.20458 9.98551 -0.000616402 -0.0006528 9.98551 -0.752773 31 1 
726 1.20457 9.98408 -0.000634974 -0.000668685 9.98408 -0.771643 31 1 
727 1.20459 9.98587 -0.000634758 -0.000658284 9.98587 -0.73911 31 1 
728 1.20461 9.98899 -0.000600525 -0.000622655 9.98899 -0.696238 31 1 
728 1.20461 9.98899 -0.000600525 -0.000622655 9.98899 -0.696238 31 1 
729 1.20463 9.99124 -0.000561438 -0.000573795 9.99124 -0.672524 31 1 
730 1.20463 9.99258 -0.000553951 -0.000561369 9.99258 -0.659705 31 1 
731 1.20463 9.9906 -0.000589988 -0.00059611 9.9906 -0.674849 31 1 
732 1.20463 9.98801 -0.000630899 -0.000632217 9.98801 -0.67241 31 1 
733 1.20464 9.98655 -0.000652682 -0.000648637 9.98655 -0.646478 31 1 
734 1.20466 9.98518 -0.000640255 -0.000638522 9.98518 -0.614989 31 1 
735 1.20469 9.98722 -0.000604878 -0.000597371 9.98722 -0.563982 31 1 
736 1.20471 9.98988 -0.000586651 -0.000570498 9.98988 -0.527668 31 1 
737 1.20471 9.99224 -0.00059537 -0.000572954 9.99224 -0.523488 31 1 
738 1.20473 9.99417 -0.000631671 -0.000605084 9.99417 -0.488492 31 1 
739 1.20473 9.99189 -0.000665487 -0.000636917 9.99189 -0.48481 31 1 
740 1.20472 9.98916 -0.000658455 -0.000620774 9.98916 -0.498129 31 1 
741 1.20472 9.9867 -0.000617056 -0.000573221 9.9867 -0.507782 31 1 
742 1.20471 9.98579 -0.000566269 -0.00052065 9.98579 -0.515233 31 1 
743 1.20473 9.98921 -0.000545266 -0.000495229 9.98921 -0.49313 31 1 
744 1.20474 9.99197 -0.000566826 -0.000509833 9.99197 -0.460521 31 1 
745 1.20475 9.99426 -0.00060831 -0.000545433 9.99426 -0.451182 31 1 
746 1.20473 9.99477 -0.000620601 -0.000551733 9.99477 -0.490618 31 1 
747 1.20471 9.99162 -0.000561773 -0.000491158 9.99162 -0.531151 31 1 
748 1.20471 9.99016 -0.000475885 -0.000404945 9.99016 -0.529008 31 1 
749 1.20471 9.9889 -0.000413981 -0.000340349 9.9889 -0.531703 31 1 
750 1.20471 9.98946 -0.00040341 -0.00032609 9.98946 -0.515523 31 1 
751 1.20473 9.99285 -0.000445472 -0.000366154 9.99285 -0.482732 31 1 
752 1.20471 9.99363 -0.000499116 -0.000411618 9.99363 -0.525078 31 1 
752 1.20471 9.99363 -0.000499116 -0.000411618 9.99363 -0.525078 31 1 
753 1.2047 9.995 -0.000502822 -0.000410435 9.995 -0.548928 31 1 
754 1.20469 9.99516 -0.000435442 -0.000339496 9.99516 -0.553273 31 1 
755 1.20468 9.9931 -0.000362556 -0.000263966 9.9931 -0.575563 31 1 
756 1.20468 9.99375 -0.00033859 -0.00023164 9.99375 -0.569123 31 1 
757 1.20468 9.9932 -0.000355906 -0.000241363 9.9932 -0.5702 31 1 
758 1.20467 9.99397 -0.000395502 -0.000275648 9.99397 -0.589323 31 1 
759 1.20468 9.99655 -0.000417257 -0.000287514 9.99655 -0.585948 31 1 
760 1.20469 9.99765 -0.000411662 -0.000278441 9.99765 -0.56238 31 1 
761 1.20471 10.0001 -0.000406283 -0.000275706 10.0001 -0.525143 31 1 
762 1.2047 9.99895 -0.00043208 -0.000294031 9.99895 -0.540436 31 1 
763 1.20469 9.99611 -0.000474827 -0.000326723 9.99611 -0.565781 31 1 
764 1.20468 9.99528 -0.000511095 -0.000357918 9.99528 -0.578335 31 1 
765 1.20467 9.99362 -0.000516573 -0.000357626 9.99362 -0.598066 31 1 
766 1.20471 9.99698 -0.000499362 -0.000331234 9.99698 -0.515906 31 1 
767 1.20477 10.0001 -0.000503109 -0.000324441 10.0001 -0.422347 31 1 
768 1.20479 10.0005 -0.000520974 -0.000334111 10.0005 -0.380572 31 1 
769 1.20481 10.0025 -0.000524797 -0.00033083 10.0025 -0.334792 31 1 
770 1.20479 9.99981 -0.000503657 -0.000304186 9.99981 -0.371099 31 1 
771 1.20477 9.99794 -0.000483671 -0.000285408 9.99794 -0.421483 31 1 
772 1.20477 9.99687 -0.000491349 -0.000293242 9.99687 -0.412329 31 1 
773 1.2048 9.99479 -0.000554209 -0.000348049 9.99479 -0.368195 31 1 
774 1.20487 9.9983 -0.000624237 -0.000421106 9.9983 -0.237666 31 1 
775 1.20495 10.0009 -0.000650052 -0.000448686 10.0009 -0.0946649 31 1 
776 1.20501 10.0039 -0.000601848 -0.000396064 10.0039 0.0199169 31 1 
776 1.20501 10.0039 -0.000601848 -0.000396064 10.0039 0.0199169 31 1 
777 1.20503 10.0058 -0.000503265 -0.000294517 10.0058 0.0523286 31 1 
778 1.205 10.0015 -0.000404229 -0.000188491 10.0015 -0.00679678 31 1 
779 1.20498 10.0007 -0.000336044 -0.000110932 10.0007 -0.0283222 31 1 
780 1.20497 9.99971 -0.00032636 -9.94962e-05 9.99971 -0.0475541 31 1 
781 1.20499 10.0006 -0.00039189 -0.000155802 10.0006 -0.0249024 31 1 
782 1.20505 10.0058 -0.000505508 -0.00025634 10.0058 0.0844798 31 1 
783 1.20508 10.0052 -0.000600055 -0.000348192 10.0052 0.138222 31 1 
784 1.20512 10.0069 -0.000645148 -0.000390097 10.0069 0.214179 31 1 
785 1.20515 10.0077 -0.00062074 -0.000358632 10.0077 0.27767 31 1 
786 1.20516 10.0057 -0.000548607 -0.000280936 10.0057 0.285015 31 1 
787 1.20517 10.0072 -0.000474302 -0.000197577 10.0072 0.313132 31 1 
788 1.20514 10.0036 -0.000435355 -0.000157126 10.0036 0.25979 31 1 
789 1.20511 10.0036 -0.000410825 -0.000130721 10.0036 0.206839 31 1 
790 1.20511 10.0058 -0.000394447 -0.000101361 10.0058 0.205907 31 1 
791 1.20515 10.0051 -0.000381038 -7.18164e-05 10.0051 0.264503 31 1 
792 1.20523 10.0095 -0.000363905 -4.64021e-05 10.0095 0.406587 31 1 
793 1.20524 10.0071 -0.000368388 -4.05062e-05 10.0071 0.434887 31 1 
794 1.20523 10.0055 -0.00040724 -7.04443e-05 10.0055 0.407498 31 1 
795 1.20519 10.0066 -0.000438188 -0.000106149 10.0066 0.335317 31 1 
796 1.2051 10.0035 -0.000438872 -9.14078e-05 10.0035 0.173648 31 1 
797 1.20507 10.0063 -0.000444925 -9.50909e-05 10.0063 0.122587 31 1 
798 1.20506 10.0032 -0.000445508 -0.000112444 10.0032 0.115579 31 1 
799 1.2051 10.0005 -0.000428992 -0.000101197 10.0005 0.173251 31 1 
800 1.20514 10.0038 -0.000420154 -8.17073e-05 10.0038 0.253075 31 1 
