19.0186;r ;Density                 ;Velocity u              ;Velocity v              ;Velocity w              ;|Velocity|              ;Pressure                ;Distribution            ;Levels                  ;
0 1.20449 9.99956 8.78823e-07 -8.24455e-06 9.99956 -0.929285 1 1 
1 1.20448 9.9996 -4.17704e-06 -4.30522e-06 9.9996 -0.937935 1 1 
2 1.20448 9.99977 3.60826e-06 3.10339e-05 9.99977 -0.945242 1 1 
3 1.20447 9.99992 1.93809e-05 7.66232e-05 9.99992 -0.955631 1 1 
4 1.20448 9.99967 2.99309e-05 8.50748e-05 9.99967 -0.942235 1 1 
5 1.20448 10.0001 1.7591e-05 9.28401e-05 10.0001 -0.934101 1 1 
6 1.20448 10.0001 -1.60879e-05 7.33616e-05 10.0001 -0.944886 1 1 
7 1.20449 9.99959 -3.65834e-05 7.01759e-05 9.99959 -0.916855 1 1 
8 1.2045 9.99989 -4.0357e-05 7.02773e-05 9.99989 -0.903991 1 1 
9 1.20449 9.99973 -5.45341e-05 6.54922e-05 9.99973 -0.930054 1 1 
10 1.20447 9.99993 -4.8407e-05 0.000104998 9.99993 -0.94992 1 1 
11 1.20449 9.99948 -3.72585e-05 0.000128524 9.99948 -0.929889 1 1 
12 1.20449 9.99903 -3.84852e-05 0.000149908 9.99903 -0.923413 1 1 
13 1.20447 9.99938 -4.11706e-06 0.000180282 9.99938 -0.961867 1 1 
14 1.20447 9.99937 -2.76068e-05 0.000162092 9.99937 -0.954769 1 1 
15 1.2045 9.99887 -5.10879e-05 0.000163507 9.99887 -0.908883 1 1 
16 1.20448 9.99838 -2.47239e-05 0.000204503 9.99838 -0.942456 1 1 
16 1.20448 9.99838 -2.47239e-05 0.000204503 9.99838 -0.942456 1 1 
17 1.20447 9.99885 -4.56526e-05 0.000193075 9.99885 -0.957973 1 1 
18 1.20449 9.99922 -8.32304e-05 0.000172611 9.99922 -0.927079 1 1 
19 1.20447 9.99917 -9.98633e-05 0.000174955 9.99917 -0.954449 1 1 
20 1.20448 9.99844 -9.31505e-05 0.000187269 9.99844 -0.93556 1 1 
21 1.20449 9.99827 -0.000112191 0.000193601 9.99827 -0.916423 1 1 
22 1.20448 9.99914 -5.49605e-05 0.000249707 9.99914 -0.935533 1 1 
23 1.20448 9.99883 -4.02009e-05 0.000272688 9.99883 -0.943337 1 1 
24 1.20446 9.99868 -6.77824e-05 0.000266965 9.99868 -0.980152 1 1 
25 1.20446 9.99842 -6.24298e-05 0.000276473 9.99842 -0.968829 1 1 
26 1.20448 9.99851 -5.78996e-05 0.000288063 9.99851 -0.946663 1 1 
27 1.20449 9.99888 -7.35243e-05 0.000286986 9.99888 -0.917521 1 1 
28 1.2045 9.99895 -0.00011032 0.000259303 9.99895 -0.910486 1 1 
29 1.20447 9.99924 -0.000137224 0.000254533 9.99924 -0.965929 1 1 
30 1.20448 9.99902 -0.000191004 0.000207155 9.99902 -0.946821 1 1 
31 1.20449 9.99901 -0.000157828 0.000237314 9.99901 -0.914531 1 1 
32 1.2045 9.99817 -0.000121211 0.000294949 9.99817 -0.908907 1 1 
32 1.2045 9.99817 -0.000121211 0.000294949 9.99817 -0.908907 1 1 
33 1.20448 9.99841 -0.00011863 0.000287704 9.99841 -0.943706 1 1 
34 1.20446 9.99939 -0.000114092 0.000309249 9.99939 -0.967351 1 1 
35 1.20448 9.99917 -0.000110148 0.000314929 9.99917 -0.943308 1 1 
36 1.20448 9.99839 -0.000160125 0.000267969 9.99839 -0.937566 1 1 
37 1.20449 9.99797 -0.000198629 0.0002508 9.99797 -0.912572 1 1 
38 1.2045 9.99883 -0.000142811 0.000306812 9.99883 -0.900173 1 1 
39 1.20449 9.9993 -0.000166858 0.0003023 9.9993 -0.916532 1 1 
40 1.20449 9.99965 -0.000254446 0.000233573 9.99965 -0.927343 1 1 
41 1.2045 9.99893 -0.000240926 0.000252096 9.99893 -0.899193 1 1 
42 1.2045 9.99833 -0.000187529 0.000314383 9.99833 -0.90221 1 1 
43 1.20448 9.99846 -0.000203158 0.000307096 9.99846 -0.931152 1 1 
44 1.20448 9.99876 -0.000246899 0.000277611 9.99876 -0.938109 1 1 
45 1.20448 9.99871 -0.00019607 0.000339721 9.99871 -0.947589 1 1 
46 1.20448 9.99811 -0.000173725 0.000370426 9.99811 -0.938843 1 1 
47 1.20449 9.99872 -0.000246057 0.000297734 9.99872 -0.918178 1 1 
48 1.20449 9.9986 -0.000192517 0.000369124 9.9986 -0.912089 1 1 
48 1.20449 9.9986 -0.000192517 0.000369124 9.9986 -0.912089 1 1 
49 1.20448 9.99887 -0.000186491 0.000399207 9.99887 -0.944335 1 1 
50 1.20448 9.99881 -0.000323551 0.00025187 9.99881 -0.933639 1 1 
51 1.20448 9.99849 -0.000338214 0.000258445 9.99849 -0.932797 1 1 
52 1.20448 9.99862 -0.000253018 0.000334848 9.99862 -0.945318 1 1 
53 1.20448 9.99855 -0.000322546 0.000280257 9.99855 -0.942334 1 1 
54 1.20447 9.99846 -0.000429346 0.000202709 9.99846 -0.961639 1 1 
55 1.20447 9.99801 -0.000364336 0.000251327 9.99801 -0.964759 1 1 
56 1.20445 9.99807 -0.000292023 0.000325344 9.99807 -0.990699 1 1 
57 1.20444 9.99859 -0.000398197 0.000216703 9.99859 -1.01172 1 1 
58 1.20445 9.99903 -0.000476293 0.000160527 9.99903 -0.999779 1 1 
59 1.20446 9.99861 -0.00035518 0.000291896 9.99861 -0.969614 1 1 
60 1.20448 9.99833 -0.000355498 0.000294351 9.99833 -0.940796 1 1 
61 1.20446 9.99827 -0.000500039 0.000153395 9.99827 -0.973716 1 1 
62 1.20445 9.99869 -0.000470259 0.000183867 9.99869 -1.0011 1 1 
63 1.20445 9.99908 -0.000329445 0.000319515 9.99908 -0.98537 1 1 
64 1.20445 9.99862 -0.000409525 0.000226204 9.99862 -0.999553 1 1 
64 1.20445 9.99862 -0.000409525 0.000226204 9.99862 -0.999553 2 1 
65 1.20447 9.99701 -0.000520971 0.000125791 9.99701 -0.961375 2 1 
66 1.20447 9.99683 -0.000352649 0.00028568 9.99683 -0.96579 2 1 
67 1.20443 9.99843 -0.000185835 0.000457981 9.99843 -1.02213 2 1 
68 1.20443 9.99922 -0.000285321 0.000374707 9.99922 -1.03583 2 1 
69 1.20444 9.99876 -0.00042732 0.000255522 9.99876 -1.01283 2 1 
70 1.20449 9.99764 -0.000313847 0.000414425 9.99764 -0.915687 2 1 
71 1.20451 9.99786 -0.000283299 0.000469513 9.99786 -0.893482 2 1 
72 1.20448 9.99913 -0.000515504 0.000257745 9.99913 -0.932445 2 1 
73 1.20448 9.99998 -0.000564026 0.000202062 9.99998 -0.944022 2 1 
74 1.20445 9.99981 -0.000327791 0.000432239 9.99981 -1.00075 2 1 
75 1.20445 9.99831 -0.000270138 0.00046994 9.99831 -0.988006 2 1 
76 1.20451 9.99767 -0.000542988 0.000149326 9.99767 -0.893856 2 1 
77 1.20452 9.9979 -0.000533906 0.000161047 9.9979 -0.859578 2 1 
78 1.20448 9.99767 2.79745e-05 0.000725788 9.99767 -0.935889 2 1 
79 1.20443 9.99853 0.000363027 0.00105853 9.99853 -1.02088 2 1 
80 1.20448 9.99824 -9.28514e-05 0.000608457 9.99824 -0.935623 2 1 
80 1.20448 9.99824 -9.28514e-05 0.000608457 9.99824 -0.935623 2 1 
81 1.20451 9.99726 -0.000557977 0.00012169 9.99726 -0.881687 2 1 
82 1.2045 9.99609 -1.58863e-05 0.000640885 9.99609 -0.904566 2 1 
83 1.2045 9.99576 0.00109572 0.00177803 9.99576 -0.909414 2 1 
84 1.20447 9.99757 0.00134152 0.00205711 9.99757 -0.949625 2 1 
85 1.20446 9.999 0.000313441 0.00108952 9.999 -0.982437 2 1 
86 1.20445 9.99987 -0.000860241 -3.84959e-05 9.99987 -0.994943 2 1 
87 1.20446 9.99924 -0.000918693 -0.000120394 9.99924 -0.967637 2 1 
88 1.20444 9.99736 -5.27335e-05 0.000725311 9.99736 -1.00348 2 1 
89 1.20442 9.99665 0.000560355 0.00128611 9.99665 -1.05117 2 1 
90 1.20443 9.9985 0.000129857 0.000832695 9.9985 -1.02719 2 1 
91 1.20443 10.0004 -0.00101577 -0.000294524 10.0004 -1.03799 2 1 
92 1.20441 9.99955 -0.0018092 -0.00106787 9.99955 -1.07199 2 1 
93 1.20441 9.99872 -0.00173098 -0.000975047 9.99872 -1.07064 2 1 
94 1.20443 9.99779 -0.00102225 -0.000243468 9.99779 -1.02902 2 1 
95 1.2044 9.99664 -0.000177233 0.000613604 9.99664 -1.08359 2 1 
96 1.20435 9.99646 0.000367817 0.0011579 9.99646 -1.17443 2 1 
96 1.20435 9.99646 0.000367817 0.0011579 9.99646 -1.17443 2 1 
97 1.20436 9.99675 0.000590008 0.00138805 9.99675 -1.15967 2 1 
98 1.20436 9.99721 0.000634812 0.00143303 9.99721 -1.15217 2 1 
99 1.20435 9.99728 0.000550267 0.00135671 9.99728 -1.17217 2 1 
100 1.20437 9.99787 0.000536634 0.0013471 9.99787 -1.13135 2 1 
101 1.20439 9.99843 0.000532871 0.00134979 9.99843 -1.10397 2 1 
102 1.20435 9.99851 0.000518132 0.0013267 9.99851 -1.17238 2 1 
103 1.20436 9.99824 0.000564133 0.0013707 9.99824 -1.15591 2 1 
104 1.20441 9.99815 0.000562343 0.00136986 9.99815 -1.07275 2 1 
105 1.20439 9.99851 0.000551572 0.00136736 9.99851 -1.10232 2 1 
106 1.20437 9.99764 0.000521581 0.00135758 9.99764 -1.13529 2 1 
107 1.20439 9.99779 0.000551214 0.00137034 9.99779 -1.09707 2 1 
108 1.20442 9.99864 0.000571338 0.00138057 9.99864 -1.0536 2 1 
109 1.20439 9.99791 0.000546848 0.0013754 9.99791 -1.09915 2 1 
110 1.20439 9.99664 0.00054095 0.00136999 9.99664 -1.0975 2 1 
111 1.20444 9.99728 0.000511542 0.00135365 9.99728 -1.00351 2 1 
112 1.20446 9.99843 0.000528234 0.00138501 9.99843 -0.968271 2 1 
112 1.20446 9.99843 0.000528234 0.00138501 9.99843 -0.968271 2 1 
113 1.20447 9.99743 0.000537868 0.00137407 9.99743 -0.95319 2 1 
114 1.20445 9.99836 0.000550202 0.00139876 9.99836 -0.991961 2 1 
115 1.20447 9.99913 0.000541951 0.00140212 9.99913 -0.959731 2 1 
116 1.20449 9.99793 0.000505077 0.00135049 9.99793 -0.925496 2 1 
117 1.20446 9.99738 0.000505353 0.00135622 9.99738 -0.973392 2 1 
118 1.20448 9.99657 0.000536775 0.00138677 9.99657 -0.933113 2 1 
119 1.20446 9.99684 0.000573872 0.00142717 9.99684 -0.966575 2 1 
120 1.20443 9.99839 0.000550433 0.00142266 9.99839 -1.03222 2 1 
121 1.20446 9.99869 0.000534102 0.00141882 9.99869 -0.97315 2 1 
122 1.20449 9.99883 0.000530071 0.00141316 9.99883 -0.92286 2 1 
123 1.20446 9.99815 0.000527913 0.00140886 9.99815 -0.982028 2 1 
124 1.20443 9.99663 0.000544086 0.00142177 9.99663 -1.02826 2 1 
125 1.20443 9.99811 0.000536878 0.00142171 9.99811 -1.02189 2 1 
126 1.20441 9.99877 0.000549959 0.00145476 9.99878 -1.06853 2 1 
127 1.20437 9.99735 0.000535361 0.00145067 9.99735 -1.13577 2 1 
128 1.20436 9.99732 0.000551861 0.00146893 9.99732 -1.16471 2 1 
128 1.20436 9.99732 0.000551861 0.00146893 9.99732 -1.16471 10 1 
129 1.20436 9.99731 0.000558323 0.00147883 9.99731 -1.1606 10 1 
130 1.20434 9.99742 0.00055996 0.00148908 9.99742 -1.20024 10 1 
131 1.20431 9.99708 0.000551947 0.00150374 9.99708 -1.25489 10 1 
132 1.20431 9.99705 0.00056916 0.00151266 9.99705 -1.25267 10 1 
133 1.20431 9.99765 0.000607309 0.00155288 9.99765 -1.25105 10 1 
134 1.20427 9.99773 0.000585538 0.00153006 9.99773 -1.32106 10 1 
135 1.20425 9.99725 0.000563032 0.00152452 9.99725 -1.35425 10 1 
136 1.20428 9.99745 0.000543577 0.00151628 9.99745 -1.2969 10 1 
137 1.20427 9.9976 0.000577161 0.00155309 9.9976 -1.31654 10 1 
138 1.20423 9.99603 0.000578181 0.0015917 9.99603 -1.38751 10 1 
139 1.20421 9.99624 0.000591464 0.0015651 9.99624 -1.42307 10 1 
140 1.20423 9.99747 0.000571956 0.00155794 9.99747 -1.39203 10 1 
141 1.20426 9.9973 0.000549442 0.00154844 9.9973 -1.33628 10 1 
142 1.20427 9.99698 0.000550852 0.00153362 9.99699 -1.31715 10 1 
143 1.20429 9.99691 0.000570167 0.00157513 9.99691 -1.28957 10 1 
144 1.20429 9.99654 0.000595962 0.00161038 9.99654 -1.28737 10 1 
144 1.20429 9.99654 0.000595962 0.00161038 9.99654 -1.28737 10 1 
145 1.20428 9.99706 0.000575832 0.00159361 9.99706 -1.29505 10 1 
146 1.20431 9.99724 0.000547635 0.00155395 9.99724 -1.25343 10 1 
147 1.20433 9.99679 0.00053709 0.00155866 9.99679 -1.20955 10 1 
148 1.20434 9.99651 0.000553047 0.00157735 9.99651 -1.18948 10 1 
149 1.20434 9.99544 0.000561082 0.00159064 9.99544 -1.19036 10 1 
150 1.20435 9.99551 0.000571205 0.0016156 9.99551 -1.17334 10 1 
151 1.20439 9.99623 0.000566468 0.00161721 9.99623 -1.10384 10 1 
152 1.2044 9.99624 0.000560802 0.00161848 9.99624 -1.09133 10 1 
153 1.2044 9.99591 0.000551613 0.00161348 9.99591 -1.08832 10 1 
154 1.20443 9.99591 0.000530116 0.00159501 9.99591 -1.0365 10 1 
155 1.20444 9.99548 0.000532717 0.00160076 9.99548 -1.00686 10 1 
156 1.20443 9.99475 0.000563772 0.00165472 9.99475 -1.02114 10 1 
157 1.20441 9.99502 0.000568651 0.00166978 9.99502 -1.06684 10 1 
158 1.20441 9.99464 0.00057775 0.0016821 9.99464 -1.05779 10 1 
159 1.20442 9.99451 0.000564297 0.00168038 9.99451 -1.0527 10 1 
160 1.2044 9.99444 0.000546833 0.00167346 9.99444 -1.07524 10 1 
160 1.2044 9.99444 0.000546833 0.00167346 9.99444 -1.07524 10 1 
161 1.20441 9.99372 0.000581665 0.00170088 9.99372 -1.05693 10 1 
162 1.20442 9.99362 0.000585048 0.00174649 9.99362 -1.04785 10 1 
163 1.20439 9.99361 0.00059547 0.00175332 9.99361 -1.09463 10 1 
164 1.20437 9.99323 0.00060965 0.00176777 9.99323 -1.14546 10 1 
165 1.20438 9.9929 0.0005766 0.00176836 9.9929 -1.11203 10 1 
166 1.20437 9.99298 0.000585359 0.00177684 9.99298 -1.1316 10 1 
167 1.20431 9.99174 0.000634787 0.00182804 9.99174 -1.24512 10 1 
168 1.2043 9.99075 0.000616134 0.00183222 9.99075 -1.27139 10 1 
169 1.20427 9.99284 0.000632605 0.00185702 9.99284 -1.32188 10 1 
170 1.20423 9.99407 0.000644488 0.00186285 9.99407 -1.38981 10 1 
171 1.20422 9.99399 0.000615363 0.00186126 9.99399 -1.41658 10 1 
172 1.20419 9.9936 0.000638054 0.00189232 9.99361 -1.46426 10 1 
173 1.20421 9.99111 0.000640346 0.00191718 9.99111 -1.42289 10 1 
174 1.20422 9.9911 0.000666446 0.00192298 9.9911 -1.40304 10 1 
175 1.20424 9.99042 0.000655701 0.00192045 9.99042 -1.36799 10 1 
176 1.20426 9.98917 0.000649924 0.00193343 9.98917 -1.33834 10 1 
176 1.20426 9.98917 0.000649924 0.00193343 9.98917 -1.33834 10 1 
177 1.20421 9.9903 0.000628794 0.00192355 9.9903 -1.43368 10 1 
178 1.20419 9.98948 0.00061957 0.00189659 9.98948 -1.46543 10 1 
179 1.20417 9.99092 0.000636871 0.00194116 9.99092 -1.4936 10 1 
180 1.20413 9.99347 0.000664274 0.00197365 9.99347 -1.57327 10 1 
181 1.2041 9.99294 0.000686721 0.00198281 9.99294 -1.61968 10 1 
182 1.20412 9.99159 0.000675513 0.00200066 9.99159 -1.58106 10 1 
183 1.2042 9.99051 0.000673991 0.00199744 9.99051 -1.44054 10 1 
184 1.20427 9.98868 0.000638812 0.00197389 9.98868 -1.31984 10 1 
185 1.20427 9.98823 0.000629547 0.0019705 9.98823 -1.31135 10 1 
186 1.20426 9.98948 0.000659155 0.00200002 9.98948 -1.34457 10 1 
187 1.20423 9.98931 0.000640745 0.00199817 9.98931 -1.39965 10 1 
188 1.2042 9.98906 0.000626523 0.00199302 9.98906 -1.4461 10 1 
189 1.20426 9.98785 0.000632052 0.00199084 9.98785 -1.33776 10 1 
190 1.20434 9.98558 0.000604723 0.0019967 9.98558 -1.20103 10 1 
191 1.20433 9.98619 0.000642491 0.00201259 9.98619 -1.21107 10 1 
192 1.2043 9.98733 0.00066589 0.00204873 9.98733 -1.26382 10 1 
192 1.2043 9.98733 0.00066589 0.00204873 9.98733 -1.26382 10 1 
193 1.2043 9.98716 0.000697133 0.00210144 9.98716 -1.26599 10 1 
194 1.2043 9.98769 0.000634928 0.00206152 9.98769 -1.26357 10 1 
195 1.20433 9.98535 0.000605239 0.00203822 9.98535 -1.21826 10 1 
196 1.20438 9.98163 0.000667908 0.00209596 9.98163 -1.11955 10 1 
197 1.20438 9.98219 0.000627903 0.00208046 9.98219 -1.12476 10 1 
198 1.20435 9.98277 0.000640621 0.00210997 9.98277 -1.16963 10 1 
199 1.20433 9.98196 0.000748902 0.00219537 9.98196 -1.20267 10 1 
200 1.20431 9.98202 0.000653565 0.00210999 9.98202 -1.24088 10 1 
201 1.20438 9.97993 0.000596664 0.00209629 9.97993 -1.11115 10 1 
202 1.20441 9.97853 0.000704549 0.00223584 9.97853 -1.06287 10 1 
203 1.20435 9.97811 0.000613884 0.00212841 9.97811 -1.17632 10 1 
204 1.20431 9.9762 0.000704471 0.00222296 9.9762 -1.23875 10 1 
205 1.2043 9.9767 0.000739736 0.00229123 9.9767 -1.26226 10 1 
206 1.20435 9.97696 0.000612035 0.00216522 9.97696 -1.17089 10 1 
207 1.20436 9.97513 0.000703067 0.00225764 9.97513 -1.16505 10 1 
208 1.2043 9.97539 0.000663703 0.00225347 9.97539 -1.27338 10 1 
208 1.2043 9.97539 0.000663703 0.00225347 9.97539 -1.27338 10 1 
209 1.20429 9.97612 0.000683833 0.00226953 9.97612 -1.2849 10 1 
210 1.20432 9.97268 0.000737842 0.00229556 9.97268 -1.23051 10 1 
211 1.20431 9.96888 0.000662647 0.00230387 9.96888 -1.25065 10 1 
212 1.20427 9.96753 0.000655456 0.00227805 9.96753 -1.31724 10 1 
213 1.2043 9.96747 0.000669509 0.00226057 9.96747 -1.26797 10 1 
214 1.20433 9.96974 0.000662355 0.00228788 9.96974 -1.20707 10 1 
215 1.20431 9.9703 0.000697184 0.00235967 9.9703 -1.23847 10 1 
216 1.20431 9.96752 0.000725963 0.00240059 9.96752 -1.25437 10 1 
217 1.20432 9.96508 0.000680053 0.00231564 9.96508 -1.22578 10 1 
218 1.20431 9.96285 0.000676908 0.00233238 9.96285 -1.24186 10 1 
219 1.20432 9.95926 0.000604274 0.00234079 9.95926 -1.22036 10 1 
220 1.20434 9.95743 0.000600358 0.00231114 9.95743 -1.18381 10 1 
221 1.20436 9.95843 0.000666777 0.00232817 9.95843 -1.1613 10 1 
222 1.20439 9.95844 0.00062109 0.00231199 9.95844 -1.09468 10 1 
223 1.2044 9.95753 0.000556123 0.00229866 9.95753 -1.07631 10 1 
224 1.20442 9.95544 0.000560354 0.00231643 9.95544 -1.04008 10 1 
224 1.20442 9.95544 0.000560354 0.00231643 9.95544 -1.04008 10 1 
225 1.20445 9.95043 0.000590702 0.00234493 9.95043 -0.995963 10 1 
226 1.20442 9.94792 0.000637734 0.00231534 9.94792 -1.05616 10 1 
227 1.20443 9.94705 0.000621609 0.00234468 9.94705 -1.03553 10 1 
228 1.2045 9.94474 0.000512291 0.00234645 9.94474 -0.897546 10 1 
229 1.20452 9.94521 0.000521133 0.00230248 9.94521 -0.872642 10 1 
230 1.20452 9.9422 0.000583756 0.00235729 9.9422 -0.871916 10 1 
231 1.20456 9.93648 0.000517424 0.00231559 9.93648 -0.792316 10 1 
232 1.20455 9.93511 0.000429868 0.00224482 9.93511 -0.808303 10 1 
233 1.20454 9.93359 0.000422055 0.00224307 9.93359 -0.823936 10 1 
234 1.20462 9.93111 0.000472077 0.00231204 9.93111 -0.687562 10 1 
235 1.20463 9.92916 0.000549485 0.00236009 9.92916 -0.66987 10 1 
236 1.20463 9.92538 0.000514051 0.00238269 9.92538 -0.676426 10 1 
237 1.20468 9.92061 0.000399296 0.00232099 9.92061 -0.57742 10 1 
238 1.20464 9.91834 0.000373186 0.00222281 9.91834 -0.651572 10 1 
239 1.20466 9.91288 0.000433735 0.00227839 9.91288 -0.616673 10 1 
240 1.20471 9.91064 0.000455482 0.00236229 9.91064 -0.520413 10 1 
240 1.20471 9.91064 0.000455482 0.00236229 9.91064 -0.520413 10 1 
241 1.20478 9.91144 0.000486087 0.0024004 9.91144 -0.404942 10 1 
242 1.20483 9.90425 0.000399506 0.00233127 9.90425 -0.30803 10 1 
243 1.20471 9.8992 0.000261802 0.00218894 9.8992 -0.517445 10 1 
244 1.20477 9.89378 0.000300606 0.0022319 9.89378 -0.420457 10 1 
245 1.20487 9.89122 0.000300009 0.00230166 9.89122 -0.228437 10 1 
246 1.20491 9.88833 0.000393243 0.00236567 9.88833 -0.166342 10 1 
247 1.20488 9.88169 0.000363531 0.00232259 9.8817 -0.215453 10 1 
248 1.20486 9.87538 0.000306284 0.00229814 9.87538 -0.247742 10 1 
249 1.20499 9.86926 0.000227506 0.00221532 9.86926 -0.0188397 10 1 
250 1.20501 9.86694 0.000208371 0.00220435 9.86694 0.00988621 10 1 
251 1.20506 9.8584 0.000352901 0.00238798 9.8584 0.103662 10 1 
252 1.20507 9.85326 0.000173569 0.00221637 9.85326 0.117912 10 1 
253 1.2051 9.84712 0.000189509 0.00222626 9.84712 0.17238 10 1 
254 1.20521 9.83939 0.000162573 0.00222374 9.83939 0.37478 10 1 
255 1.20522 9.83275 0.000101876 0.00216846 9.83275 0.391715 10 1 
256 1.20524 9.82175 0.000215237 0.00228477 9.82175 0.429528 10 1 
256 1.20524 9.82175 0.000215237 0.00228477 9.82175 0.429528 11 1 
257 1.20529 9.81543 0.000132129 0.00221848 9.81544 0.525267 11 1 
258 1.20542 9.80991 4.70052e-05 0.00212242 9.80991 0.767547 11 1 
259 1.2055 9.79872 8.69853e-05 0.00218785 9.79873 0.901814 11 1 
260 1.20543 9.78546 6.74339e-05 0.00218625 9.78546 0.782989 11 1 
261 1.20551 9.77743 2.44493e-05 0.00213547 9.77744 0.919252 11 1 
262 1.20573 9.7687 7.8553e-06 0.00214354 9.7687 1.31103 11 1 
263 1.2058 9.75637 -5.56564e-05 0.00209054 9.75638 1.43625 11 1 
264 1.20574 9.74463 -3.85705e-05 0.00213431 9.74463 1.32823 11 1 
265 1.20585 9.72884 -3.55457e-05 0.00215235 9.72884 1.5309 11 1 
266 1.20606 9.71284 -6.84877e-05 0.00210512 9.71285 1.90838 11 1 
267 1.20604 9.70476 -9.44072e-05 0.00207844 9.70476 1.88693 11 1 
268 1.20615 9.68861 -0.000109417 0.00206807 9.68861 2.0794 11 1 
269 1.2064 9.66362 -0.000135559 0.00203218 9.66363 2.52383 11 1 
270 1.20632 9.65199 -0.000194435 0.00199709 9.652 2.37905 11 1 
271 1.20646 9.63678 -0.000210969 0.0019981 9.63678 2.63208 11 1 
272 1.20688 9.60456 -0.000220504 0.00199164 9.60457 3.39053 11 1 
272 1.20688 9.60456 -0.000220504 0.00199164 9.60457 3.39053 11 1 
273 1.20671 9.59142 -0.000268582 0.00196865 9.59143 3.08143 11 1 
274 1.20682 9.57042 -0.00027935 0.00197016 9.57042 3.27932 11 1 
275 1.20735 9.533 -0.000305874 0.00195361 9.533 4.2419 11 1 
276 1.20722 9.51739 -0.000321369 0.0019303 9.51739 4.01152 11 1 
277 1.20731 9.48573 -0.000338444 0.00192057 9.48573 4.17812 11 1 
278 1.20778 9.4514 -0.000377483 0.00190539 9.4514 5.01849 11 1 
279 1.20796 9.4281 -0.000399947 0.00187712 9.4281 5.34329 11 1 
280 1.20806 9.39021 -0.000428525 0.00184289 9.39021 5.51872 11 1 
281 1.20828 9.34966 -0.000482795 0.0017998 9.34968 5.92647 11 1 
282 1.20866 9.30462 -0.000513234 0.00176377 9.30466 6.60556 11 1 
283 1.20893 9.25408 -0.000520311 0.00175275 9.25412 7.09657 11 1 
284 1.20911 9.20445 -0.000553985 0.00174596 9.20447 7.41991 11 1 
285 1.20936 9.1591 -0.000570334 0.00174063 9.1591 7.87483 11 1 
286 1.2098 9.11729 -0.00060798 0.00171371 9.11729 8.66503 11 1 
287 1.21033 9.06739 -0.000639681 0.00168267 9.06743 9.63131 11 1 
288 1.21063 8.99647 -0.000635866 0.00165351 8.99655 10.1765 11 1 
288 1.21063 8.99647 -0.000635866 0.00165351 8.99655 10.1765 11 1 
289 1.21076 8.92188 -0.00065646 0.00162748 8.92193 10.4035 11 1 
290 1.2112 8.85371 -0.000697654 0.00160797 8.85374 11.1935 11 1 
291 1.21182 8.78764 -0.000721388 0.00156745 8.78769 12.323 11 1 
292 1.21224 8.72357 -0.000746393 0.00152875 8.72368 13.0762 11 1 
293 1.21266 8.6429 -0.000771032 0.00150111 8.643 13.8442 11 1 
294 1.21308 8.5546 -0.000787123 0.00146901 8.55479 14.5991 11 1 
295 1.21333 8.48139 -0.000793749 0.00143103 8.48174 15.0526 11 1 
296 1.21377 8.42646 -0.000791704 0.00140354 8.42728 15.8343 11 1 
297 1.21409 8.39221 -0.000758101 0.00133628 8.39286 16.4263 11 1 
298 1.21309 8.49644 -0.000799887 0.00118829 8.51136 14.6163 11 1 
299 1.20252 8.66544 -0.0013876 0.00127441 9.72384 -4.47792 11 1 
300 1.18622 8.87228 -0.00220713 0.00121415 10.2123 -33.9223 11 1 
301 1.18109 8.82315 -0.00265002 0.000746906 9.4037 -43.1857 11 1 
302 1.1842 8.42226 -0.00288759 0.00030908 8.83209 -37.5617 11 1 
303 1.18713 8.07227 -0.00310121 -1.96099e-05 8.3565 -32.2726 11 1 
304 1.18912 7.78574 -0.00329721 -0.000271671 8.00525 -28.6841 11 1 
304 1.18912 7.78574 -0.00329721 -0.000271671 8.00525 -28.6841 11 1 
305 1.19043 7.55608 -0.0034284 -0.000490442 7.69922 -26.3195 11 1 
306 1.19164 7.37508 -0.00360006 -0.000735082 7.5102 -24.1328 11 1 
307 1.19264 7.22238 -0.00373747 -0.000917591 7.34026 -22.3191 11 1 
308 1.19353 7.09854 -0.00385644 -0.00109988 7.2055 -20.7248 11 1 
309 1.19421 6.98804 -0.00401612 -0.00128934 7.07494 -19.4885 11 1 
310 1.19486 6.88589 -0.00413606 -0.00140958 6.9667 -18.3087 11 1 
311 1.19548 6.79858 -0.00426199 -0.00159379 6.87439 -17.1918 11 1 
312 1.19596 6.72137 -0.00435995 -0.00181806 6.79171 -16.334 11 1 
313 1.19639 6.64936 -0.00438102 -0.00203562 6.7127 -15.5488 11 1 
314 1.19687 6.58513 -0.00435859 -0.00228261 6.64484 -14.6794 11 1 
315 1.19725 6.52313 -0.00433047 -0.00254194 6.57812 -13.992 11 1 
316 1.19754 6.46603 -0.00435017 -0.00280039 6.51845 -13.4701 11 1 
317 1.19787 6.41958 -0.00445185 -0.00303003 6.46836 -12.8723 11 1 
318 1.19824 6.37702 -0.00457644 -0.00319707 6.42325 -12.2026 11 1 
319 1.19854 6.33458 -0.0046127 -0.00334106 6.37827 -11.6646 11 1 
320 1.19874 6.29505 -0.00449533 -0.00351496 6.33629 -11.3149 11 1 
320 1.19874 6.29505 -0.00449533 -0.00351496 6.33629 -11.3149 15 1 
321 1.19891 6.25989 -0.00426377 -0.0037661 6.29905 -10.9975 15 1 
322 1.19918 6.23256 -0.00404047 -0.00408788 6.27039 -10.5118 15 1 
323 1.19949 6.20891 -0.00397533 -0.00439437 6.24488 -9.95881 15 1 
324 1.19966 6.18119 -0.00409549 -0.00460995 6.21574 -9.64626 15 1 
325 1.1997 6.15499 -0.0042846 -0.00470813 6.18792 -9.57046 15 1 
326 1.19988 6.13672 -0.0044101 -0.00471215 6.16823 -9.25423 15 1 
327 1.20021 6.12037 -0.00442806 -0.00473934 6.15053 -8.65165 15 1 
328 1.2004 6.101 -0.00434795 -0.00486295 6.12991 -8.31063 15 1 
329 1.20041 6.07772 -0.00422543 -0.00505542 6.10545 -8.29174 15 1 
330 1.20046 6.05421 -0.00411998 -0.00527315 6.0809 -8.19574 15 1 
331 1.20067 6.03765 -0.00405748 -0.00548724 6.06328 -7.82599 15 1 
332 1.20091 6.02265 -0.00402157 -0.00568954 6.04755 -7.38689 15 1 
333 1.20098 6.00325 -0.00397983 -0.00587695 6.02739 -7.2589 15 1 
334 1.20098 5.98701 -0.00393219 -0.00603715 6.01041 -7.26264 15 1 
335 1.2011 5.97361 -0.00390125 -0.00620556 5.9962 -7.05337 15 1 
336 1.20126 5.95993 -0.00386676 -0.00639184 5.98177 -6.76405 15 1 
336 1.20126 5.95993 -0.00386676 -0.00639184 5.98177 -6.76405 15 1 
337 1.2014 5.94987 -0.00381146 -0.00655074 5.97117 -6.50417 15 1 
338 1.20148 5.94033 -0.00374433 -0.00669631 5.96114 -6.35684 15 1 
339 1.20148 5.92944 -0.00368986 -0.00686856 5.94956 -6.35122 15 1 
340 1.20154 5.91916 -0.00364469 -0.00704717 5.93866 -6.2466 15 1 
341 1.20168 5.90923 -0.00355562 -0.00719502 5.92824 -5.997 15 1 
342 1.20182 5.90347 -0.00343795 -0.00732131 5.92208 -5.75213 15 1 
343 1.20187 5.89914 -0.00338514 -0.00749785 5.91731 -5.65646 15 1 
344 1.20185 5.89044 -0.0033812 -0.00773196 5.90809 -5.69435 15 1 
345 1.20192 5.88143 -0.00333636 -0.00791989 5.8986 -5.56473 15 1 
346 1.20208 5.87572 -0.0032448 -0.00804191 5.89253 -5.26578 15 1 
347 1.20217 5.87337 -0.00313966 -0.00817565 5.88982 -5.11089 15 1 
348 1.20214 5.86957 -0.00303865 -0.00832834 5.88563 -5.16563 15 1 
349 1.20211 5.86037 -0.00294159 -0.00847455 5.87601 -5.22398 15 1 
350 1.20223 5.85466 -0.00285015 -0.00863203 5.86992 -5.00397 15 1 
351 1.20243 5.85527 -0.00281925 -0.00883026 5.87021 -4.6384 15 1 
352 1.20247 5.85371 -0.00281846 -0.00904046 5.86833 -4.5619 15 1 
352 1.20247 5.85371 -0.00281846 -0.00904046 5.86833 -4.5619 15 1 
353 1.20238 5.84799 -0.00272631 -0.00918195 5.86226 -4.73457 15 1 
354 1.20234 5.84131 -0.00254571 -0.00924652 5.85523 -4.79722 15 1 
355 1.20248 5.83911 -0.00241265 -0.00934745 5.8527 -4.55451 15 1 
356 1.20269 5.84209 -0.00240049 -0.00956437 5.8554 -4.16962 15 1 
357 1.20274 5.84222 -0.00242763 -0.00980949 5.85526 -4.07464 15 1 
358 1.20262 5.83749 -0.00237766 -0.00996214 5.85023 -4.30383 15 1 
359 1.20255 5.83257 -0.00226275 -0.0100589 5.84501 -4.42753 15 1 
360 1.20267 5.832 -0.00215625 -0.0101777 5.84421 -4.20086 15 1 
361 1.20289 5.83679 -0.00205579 -0.0102954 5.84878 -3.81734 15 1 
362 1.20297 5.84003 -0.00196591 -0.0104275 5.85179 -3.66207 15 1 
363 1.20289 5.8375 -0.00192901 -0.0106122 5.84901 -3.81857 15 1 
364 1.20279 5.83312 -0.00192873 -0.0107951 5.84443 -3.99136 15 1 
365 1.20283 5.83256 -0.00189528 -0.0109362 5.84373 -3.91308 15 1 
366 1.203 5.83778 -0.00175918 -0.0110238 5.84876 -3.62106 15 1 
367 1.20311 5.84276 -0.00156549 -0.0110743 5.85353 -3.40863 15 1 
368 1.2031 5.84284 -0.00145585 -0.01119 5.85346 -3.43286 15 1 
368 1.2031 5.84284 -0.00145585 -0.01119 5.85346 -3.43286 15 1 
369 1.20304 5.84111 -0.00148417 -0.0114305 5.8516 -3.53899 15 1 
370 1.20305 5.84152 -0.00155715 -0.01169 5.85188 -3.52293 15 1 
371 1.20315 5.84607 -0.00151511 -0.0118237 5.85625 -3.33388 15 1 
372 1.20325 5.85085 -0.00131324 -0.0118313 5.8609 -3.16155 15 1 
373 1.20324 5.85146 -0.00107826 -0.0118258 5.86143 -3.1757 15 1 
374 1.20321 5.85155 -0.000929622 -0.0119111 5.86138 -3.24203 15 1 
375 1.20322 5.85368 -0.000900874 -0.0121109 5.86337 -3.20674 15 1 
376 1.2033 5.85738 -0.000955829 -0.0123432 5.86698 -3.07952 15 1 
377 1.20338 5.86231 -0.000990484 -0.0125194 5.8718 -2.92939 15 1 
378 1.20342 5.86522 -0.00092156 -0.0126197 5.87459 -2.85158 15 1 
379 1.20342 5.86605 -0.000753259 -0.0126347 5.87531 -2.85583 15 1 
380 1.20341 5.86814 -0.000540087 -0.0126095 5.8773 -2.86392 15 1 
381 1.20343 5.87128 -0.000398254 -0.0126816 5.88036 -2.83711 15 1 
382 1.20346 5.87443 -0.000419687 -0.012867 5.88341 -2.77917 15 1 
383 1.20351 5.87748 -0.000524523 -0.0130458 5.88634 -2.6984 15 1 
384 1.20356 5.8806 -0.000541622 -0.0131526 5.88935 -2.59527 15 1 
384 1.20356 5.8806 -0.000541622 -0.0131526 5.88935 -2.59527 16 1 
385 1.20361 5.88368 -0.000403104 -0.0131579 5.89233 -2.51014 16 1 
386 1.20361 5.88619 -0.0002096 -0.0130922 5.89473 -2.50402 16 1 
387 1.20358 5.8883 -7.67317e-05 -0.0130897 5.89675 -2.55842 16 1 
388 1.20357 5.88947 -6.85174e-05 -0.0132132 5.89781 -2.5892 16 1 
389 1.20363 5.89135 -0.00017116 -0.0133752 5.89955 -2.48058 16 1 
390 1.20377 5.89661 -0.000250369 -0.0134727 5.90466 -2.22843 16 1 
391 1.20386 5.90128 -0.000223612 -0.0134826 5.90921 -2.05848 16 1 
392 1.20381 5.90126 -0.000119969 -0.0134286 5.90907 -2.14668 16 1 
393 1.20367 5.89822 6.61053e-06 -0.0133566 5.9059 -2.39868 16 1 
394 1.20359 5.8952 8.08612e-05 -0.0133183 5.90275 -2.55015 16 1 
395 1.20369 5.89676 5.90961e-05 -0.0133106 5.90417 -2.3574 16 1 
396 1.20395 5.90339 -1.19042e-05 -0.0132902 5.91058 -1.89695 16 1 
397 1.20412 5.90676 -6.53937e-05 -0.013238 5.91374 -1.58499 16 1 
398 1.20405 5.90114 -6.4211e-05 -0.0131589 5.90794 -1.71973 16 1 
399 1.20381 5.88998 -2.2687e-05 -0.0130832 5.89659 -2.14382 16 1 
400 1.20367 5.88022 -2.99979e-05 -0.013062 5.88662 -2.39359 16 1 
400 1.20367 5.88022 -2.99979e-05 -0.013062 5.88662 -2.39359 16 1 
401 1.20381 5.87662 -0.000145778 -0.0130895 5.88278 -2.15259 16 1 
402 1.20413 5.87698 -0.000314465 -0.0130697 5.88284 -1.57186 16 1 
403 1.20436 5.87184 -0.000411542 -0.0129055 5.87738 -1.15318 16 1 
404 1.20428 5.8537 -0.000339929 -0.0125817 5.85891 -1.29349 16 1 
405 1.20397 5.82532 -0.000128241 -0.0121433 5.83021 -1.86068 16 1 
406 1.20374 5.79635 0.00010132 -0.0116779 5.80093 -2.26822 16 1 
407 1.20388 5.7749 0.000236809 -0.0112925 5.77912 -2.02915 16 1 
408 1.20432 5.76134 0.000190411 -0.011043 5.76518 -1.23499 16 1 
409 1.2047 5.74512 -2.10851e-05 -0.0109011 5.7486 -0.536073 16 1 
410 1.20469 5.71431 -0.000227017 -0.0107856 5.7175 -0.560757 16 1 
411 1.20429 5.67076 -0.000293663 -0.0106104 5.67372 -1.28975 16 1 
412 1.20386 5.62759 -0.000263406 -0.0103446 5.63037 -2.06325 16 1 
413 1.2038 5.59692 -0.000240066 -0.0100347 5.59954 -2.16684 16 1 
414 1.20421 5.58261 -0.000278438 -0.00975098 5.58508 -1.42922 16 1 
415 1.20478 5.57551 -0.000405486 -0.00956581 5.57784 -0.395889 16 1 
416 1.20504 5.55933 -0.000614386 -0.00950095 5.56156 0.0780937 16 1 
416 1.20504 5.55933 -0.000614386 -0.00950095 5.56156 0.0780937 16 1 
417 1.20477 5.52656 -0.000849096 -0.00947952 5.52871 -0.421229 16 1 
418 1.20419 5.48363 -0.000988533 -0.00938653 5.48571 -1.46784 16 1 
419 1.20379 5.44353 -0.000915936 -0.00920856 5.44558 -2.18304 16 1 
420 1.20391 5.41639 -0.000699301 -0.00907821 5.41846 -1.96051 16 1 
421 1.20449 5.40086 -0.000521071 -0.00910394 5.403 -0.924928 16 1 
422 1.20506 5.38499 -0.000492364 -0.00930193 5.38724 0.116042 16 1 
423 1.20517 5.35992 -0.00067299 -0.00964941 5.36228 0.313744 16 1 
424 1.20473 5.32992 -0.00106503 -0.00999857 5.33231 -0.492385 16 1 
425 1.20407 5.31018 -0.00158985 -0.0101176 5.31249 -1.68749 16 1 
426 1.2037 5.31892 -0.0021431 -0.00986208 5.32099 -2.35704 16 1 
427 1.20392 5.36503 -0.00265036 -0.00922538 5.36673 -1.94301 16 1 
428 1.20461 5.43907 -0.00309684 -0.0083118 5.44035 -0.702587 16 1 
429 1.20527 5.51901 -0.00350263 -0.00728753 5.5199 0.492858 16 1 
430 1.20547 5.58408 -0.00387945 -0.00631582 5.58465 0.842691 16 1 
431 1.20509 5.62408 -0.00420334 -0.00550511 5.62443 0.161502 16 1 
432 1.20443 5.64197 -0.0044376 -0.00485589 5.64217 -1.02692 16 1 
432 1.20443 5.64197 -0.0044376 -0.00485589 5.64217 -1.02692 16 1 
433 1.20398 5.64971 -0.00455326 -0.00429168 5.64982 -1.84666 16 1 
434 1.20406 5.65783 -0.00451927 -0.00375162 5.65788 -1.69156 16 1 
435 1.20463 5.6668 -0.00435538 -0.00323223 5.66683 -0.662128 16 1 
436 1.20531 5.66886 -0.00417958 -0.00278674 5.66888 0.561545 16 1 
437 1.20567 5.65559 -0.00411173 -0.00248459 5.6556 1.20843 16 1 
438 1.2055 5.62563 -0.00419369 -0.00235879 5.62564 0.912115 16 1 
439 1.20499 5.58922 -0.0044431 -0.00241254 5.58922 -0.0188536 16 1 
440 1.20454 5.56345 -0.00482279 -0.00258914 5.56346 -0.837989 16 1 
441 1.2045 5.56202 -0.0052355 -0.00281239 5.56203 -0.906514 16 1 
442 1.20496 5.58889 -0.00561216 -0.00302208 5.5889 -0.0798108 16 1 
443 1.20567 5.6381 -0.00591136 -0.003141 5.63812 1.21073 16 1 
444 1.20624 5.69788 -0.00612697 -0.00317946 5.69791 2.24597 16 1 
445 1.20639 5.75862 -0.00630603 -0.00321067 5.75867 2.50815 16 1 
446 1.2061 5.81986 -0.0065058 -0.00325727 5.81993 1.98827 16 1 
447 1.20565 5.88953 -0.00673226 -0.00333474 5.88963 1.17546 16 1 
448 1.20541 5.97767 -0.00694375 -0.00344047 5.97779 0.734489 16 1 
448 1.20541 5.97767 -0.00694375 -0.00344047 5.97779 0.734489 17 1 
449 1.2056 6.0906 -0.00711223 -0.00351868 6.09073 1.07875 17 1 
450 1.2062 6.22659 -0.00721726 -0.00352614 6.22674 2.16184 17 1 
451 1.20695 6.37612 -0.00725517 -0.00348501 6.37629 3.52733 17 1 
452 1.20752 6.52692 -0.00725869 -0.00343166 6.5271 4.54904 17 1 
453 1.20763 6.66948 -0.00725552 -0.00336896 6.66968 4.75783 17 1 
454 1.20727 6.80145 -0.00726557 -0.00332655 6.80166 4.09155 17 1 
455 1.20661 6.92788 -0.0072783 -0.00332851 6.92809 2.91472 17 1 
456 1.20599 7.05732 -0.00726851 -0.00333019 7.05753 1.78007 17 1 
457 1.20566 7.19726 -0.00721518 -0.00328887 7.19746 1.18418 17 1 
458 1.20577 7.35088 -0.00707049 -0.00319864 7.35107 1.38446 17 1 
459 1.20627 7.51618 -0.00680534 -0.00301521 7.51636 2.28642 17 1 
460 1.20696 7.68603 -0.00644795 -0.0027085 7.6862 3.54331 17 1 
461 1.2076 7.85046 -0.00603762 -0.00234808 7.85062 4.68839 17 1 
462 1.20792 8.00143 -0.00562668 -0.00201525 8.00157 5.273 17 1 
463 1.20782 8.13498 -0.00530634 -0.00175021 8.13512 5.09334 17 1 
464 1.20735 8.25204 -0.00516991 -0.00164396 8.25217 4.23891 17 1 
464 1.20735 8.25204 -0.00516991 -0.00164396 8.25217 4.23891 17 1 
465 1.20666 8.35796 -0.00525513 -0.00178502 8.35808 3.00682 17 1 
466 1.20601 8.4593 -0.00557153 -0.00217335 8.45941 1.83048 17 1 
467 1.20561 8.56228 -0.00608118 -0.00274384 8.56238 1.09856 17 1 
468 1.20556 8.67054 -0.00668425 -0.00341806 8.67062 1.00806 17 1 
469 1.20587 8.78318 -0.00728637 -0.00412231 8.78325 1.56845 17 1 
470 1.20645 8.89739 -0.00780497 -0.00474223 8.89745 2.61205 17 1 
471 1.20711 9.00757 -0.00816289 -0.00517209 9.00762 3.81799 17 1 
472 1.20767 9.1068 -0.00825488 -0.00535641 9.10684 4.82423 17 1 
473 1.20797 9.19095 -0.00803853 -0.00526003 9.19098 5.35903 17 1 
474 1.20793 9.25749 -0.00758745 -0.00488593 9.25752 5.28599 17 1 
475 1.20755 9.30731 -0.00694814 -0.00429692 9.30734 4.60151 17 1 
476 1.20693 9.34501 -0.00618814 -0.00361565 9.34503 3.48398 17 1 
477 1.20623 9.37557 -0.00545718 -0.00296511 9.37559 2.22014 17 1 
478 1.2056 9.40471 -0.00485469 -0.00240551 9.40473 1.0767 17 1 
479 1.20517 9.43722 -0.00437338 -0.00196389 9.43723 0.307686 17 1 
480 1.20505 9.47575 -0.0040729 -0.00172906 9.47576 0.0852109 17 1 
480 1.20505 9.47575 -0.0040729 -0.00172906 9.47576 0.0852109 17 1 
481 1.20524 9.5212 -0.0040218 -0.00173524 9.52121 0.424822 17 1 
482 1.20568 9.57142 -0.00416405 -0.00190683 9.57143 1.23523 17 1 
483 1.20631 9.62366 -0.00441311 -0.00220012 9.62366 2.36912 17 1 
484 1.20702 9.67527 -0.00475709 -0.00258693 9.67527 3.64241 17 1 
485 1.20769 9.72209 -0.00515884 -0.00299573 9.7221 4.85528 17 1 
486 1.20823 9.76114 -0.00548139 -0.00334183 9.76115 5.82899 17 1 
487 1.20856 9.79059 -0.00567861 -0.00358523 9.79059 6.42746 17 1 
488 1.20865 9.8097 -0.0057792 -0.00370272 9.80971 6.59842 17 1 
489 1.20853 9.82053 -0.00574795 -0.00366765 9.82054 6.38369 17 1 
490 1.20825 9.8246 -0.00555317 -0.00349315 9.82461 5.87122 17 1 
491 1.20787 9.8242 -0.00526272 -0.00322896 9.8242 5.18726 17 1 
492 1.20747 9.82292 -0.00493615 -0.00290812 9.82292 4.46852 17 1 
493 1.20711 9.82185 -0.00459683 -0.00257265 9.82186 3.80789 17 1 
494 1.20682 9.8228 -0.00423844 -0.00223618 9.82281 3.28715 17 1 
495 1.20664 9.82739 -0.00389817 -0.00191675 9.82739 2.96581 17 1 
496 1.20656 9.83479 -0.00364475 -0.00166949 9.8348 2.82588 17 1 
496 1.20656 9.83479 -0.00364475 -0.00166949 9.8348 2.82588 17 1 
497 1.20658 9.84525 -0.00348751 -0.0015195 9.84525 2.84666 17 1 
498 1.20666 9.8576 -0.00337428 -0.00141982 9.8576 3.00478 17 1 
499 1.20679 9.86985 -0.0032844 -0.00134043 9.86985 3.22874 17 1 
500 1.20693 9.88269 -0.00324493 -0.00130704 9.88269 3.48882 17 1 
501 1.20708 9.89475 -0.00327961 -0.00135141 9.89475 3.76245 17 1 
502 1.20719 9.90427 -0.00335501 -0.00143896 9.90428 3.95967 17 1 
503 1.20724 9.91163 -0.00342821 -0.00152949 9.91163 4.03766 17 1 
504 1.20723 9.91697 -0.00349563 -0.00161694 9.91697 4.0202 17 1 
505 1.20716 9.92113 -0.00357947 -0.00171663 9.92113 3.89636 17 1 
506 1.20703 9.9237 -0.00365754 -0.00181857 9.9237 3.67161 17 1 
507 1.20688 9.92425 -0.00370655 -0.00189751 9.92425 3.39476 17 1 
508 1.20671 9.92395 -0.00374604 -0.00194771 9.92395 3.09568 17 1 
509 1.20655 9.92244 -0.00378273 -0.00198964 9.92244 2.79797 17 1 
510 1.2064 9.91993 -0.00380795 -0.0020392 9.91993 2.52996 17 1 
511 1.20627 9.91781 -0.00381577 -0.00206013 9.91781 2.29398 17 1 
512 1.20614 9.91647 -0.00381594 -0.00205123 9.91647 2.06505 17 1 
512 1.20614 9.91647 -0.00381594 -0.00205123 9.91647 2.06505 25 1 
513 1.20601 9.91644 -0.00382871 -0.0020624 9.91644 1.81536 25 1 
514 1.20587 9.91738 -0.00385753 -0.00209868 9.91738 1.56327 25 1 
515 1.20575 9.91838 -0.00385013 -0.00207885 9.91838 1.36016 25 1 
516 1.20568 9.91933 -0.00381774 -0.00203498 9.91933 1.22308 25 1 
517 1.20564 9.92043 -0.00379916 -0.00202787 9.92043 1.1493 25 1 
518 1.2056 9.92186 -0.00379042 -0.00201968 9.92186 1.09176 25 1 
519 1.20555 9.92365 -0.00374243 -0.00196547 9.92365 0.988441 25 1 
520 1.20549 9.92659 -0.00369406 -0.00193159 9.9266 0.878278 25 1 
521 1.20545 9.93017 -0.00370439 -0.00196427 9.93017 0.816012 25 1 
522 1.20544 9.93222 -0.00372219 -0.0019999 9.93222 0.800109 25 1 
523 1.20545 9.93303 -0.0036991 -0.00199624 9.93303 0.804348 25 1 
524 1.20544 9.93496 -0.00364099 -0.00197005 9.93496 0.788878 25 1 
525 1.20541 9.93842 -0.00359658 -0.00195683 9.93842 0.740029 25 1 
526 1.20537 9.94178 -0.00359802 -0.00198375 9.94178 0.673709 25 1 
527 1.20536 9.94401 -0.00359947 -0.0020161 9.94401 0.648902 25 1 
528 1.20538 9.94535 -0.00358046 -0.00202107 9.94535 0.68919 25 1 
528 1.20538 9.94535 -0.00358046 -0.00202107 9.94535 0.68919 25 1 
529 1.20539 9.94659 -0.0035642 -0.00202183 9.94659 0.710786 25 1 
530 1.20537 9.9489 -0.0035517 -0.00202233 9.94891 0.672641 25 1 
531 1.20535 9.95175 -0.00352273 -0.00200832 9.95176 0.636186 25 1 
532 1.20536 9.95359 -0.00349542 -0.00199251 9.95359 0.647856 25 1 
533 1.20539 9.95473 -0.00350188 -0.00199484 9.95473 0.696331 25 1 
534 1.2054 9.95606 -0.00350944 -0.00200173 9.95606 0.72374 25 1 
535 1.20537 9.95771 -0.00348601 -0.00199173 9.95771 0.673608 25 1 
536 1.20535 9.95975 -0.00345072 -0.00195926 9.95975 0.627049 25 1 
537 1.20538 9.96169 -0.00342404 -0.0019286 9.96169 0.680445 25 1 
538 1.20541 9.96236 -0.0034221 -0.00192673 9.96236 0.746226 25 1 
539 1.2054 9.96278 -0.00341514 -0.00192158 9.96278 0.723346 25 1 
540 1.20536 9.96486 -0.00337018 -0.00189439 9.96486 0.658046 25 1 
541 1.20535 9.96721 -0.00333953 -0.00187353 9.96721 0.633021 25 1 
542 1.20537 9.96792 -0.00333782 -0.00187104 9.96792 0.666537 25 1 
543 1.20538 9.96799 -0.00330968 -0.00185808 9.96799 0.693843 25 1 
544 1.20536 9.96921 -0.00327498 -0.0018356 9.96921 0.643839 25 1 
544 1.20536 9.96921 -0.00327498 -0.0018356 9.96921 0.643839 25 1 
545 1.20532 9.97129 -0.00325202 -0.00182472 9.97129 0.579016 25 1 
546 1.20532 9.97266 -0.00322254 -0.00181644 9.97266 0.584235 25 1 
547 1.20534 9.97319 -0.00320922 -0.00180666 9.97319 0.605731 25 1 
548 1.20531 9.97411 -0.00320027 -0.00180738 9.97411 0.564798 25 1 
549 1.20528 9.9758 -0.0031831 -0.00181465 9.9758 0.502851 25 1 
550 1.20528 9.97698 -0.00316425 -0.00180372 9.97698 0.513183 25 1 
551 1.20531 9.9774 -0.00315074 -0.00179 9.97741 0.553591 25 1 
552 1.20529 9.97878 -0.00312656 -0.00177762 9.97878 0.525943 25 1 
553 1.20526 9.98076 -0.00312138 -0.00178618 9.98076 0.476329 25 1 
554 1.20527 9.98143 -0.00313754 -0.00180763 9.98143 0.495652 25 1 
555 1.20531 9.98131 -0.00313209 -0.00179383 9.98131 0.553676 25 1 
556 1.20531 9.98271 -0.00310459 -0.00177169 9.98271 0.558935 25 1 
557 1.20529 9.98479 -0.00309294 -0.00177217 9.98479 0.518203 25 1 
558 1.2053 9.98515 -0.0031024 -0.00177575 9.98515 0.538345 25 1 
559 1.20533 9.98494 -0.00310338 -0.0017695 9.98494 0.602757 25 1 
560 1.20533 9.98584 -0.00310159 -0.00176612 9.98584 0.592597 25 1 
560 1.20533 9.98584 -0.00310159 -0.00176612 9.98584 0.592597 25 1 
561 1.20531 9.98747 -0.00309272 -0.00176186 9.98747 0.567302 25 1 
562 1.20534 9.98811 -0.00306126 -0.001736 9.98811 0.613113 25 1 
563 1.20535 9.98732 -0.00305098 -0.00171628 9.98732 0.640808 25 1 
564 1.20533 9.98808 -0.00304936 -0.00171038 9.98808 0.596137 25 1 
565 1.20532 9.98946 -0.00303006 -0.00170625 9.98946 0.571051 25 1 
566 1.20534 9.98914 -0.00301991 -0.00169921 9.98914 0.611346 25 1 
567 1.20534 9.98942 -0.00300622 -0.00168143 9.98942 0.615709 25 1 
568 1.20531 9.99027 -0.00297823 -0.00166219 9.99027 0.555824 25 1 
569 1.2053 9.9904 -0.00297918 -0.00166397 9.9904 0.539538 25 1 
570 1.20531 9.99015 -0.00296991 -0.00166343 9.99015 0.568046 25 1 
571 1.2053 9.99057 -0.00292566 -0.00163161 9.99057 0.539688 25 1 
572 1.20527 9.99214 -0.002919 -0.00162222 9.99214 0.481609 25 1 
573 1.20527 9.99182 -0.00292603 -0.00163495 9.99182 0.49336 25 1 
574 1.2053 9.99083 -0.00289726 -0.00162135 9.99083 0.535779 25 1 
575 1.20527 9.99252 -0.00287465 -0.00160329 9.99252 0.486898 25 1 
576 1.20524 9.99326 -0.00288436 -0.00161378 9.99326 0.442053 25 1 
576 1.20524 9.99326 -0.00288436 -0.00161378 9.99326 0.442053 26 1 
577 1.20529 9.99269 -0.00287374 -0.00161135 9.99269 0.524328 26 1 
578 1.20529 9.99331 -0.00284636 -0.00159995 9.99331 0.531726 26 1 
579 1.20524 9.99382 -0.00283022 -0.00159177 9.99382 0.435614 26 1 
580 1.20527 9.99426 -0.00283756 -0.00159135 9.99427 0.490807 26 1 
581 1.20532 9.99417 -0.00283094 -0.00159765 9.99417 0.582824 26 1 
582 1.20528 9.99455 -0.00280898 -0.00159388 9.99455 0.509693 26 1 
583 1.20526 9.99591 -0.00279189 -0.00157664 9.99591 0.475221 26 1 
584 1.20531 9.99521 -0.00278539 -0.00157137 9.99521 0.555743 26 1 
585 1.2053 9.99534 -0.00278721 -0.00158374 9.99534 0.548882 26 1 
586 1.20527 9.99713 -0.00277449 -0.00157903 9.99713 0.494724 26 1 
587 1.20529 9.9964 -0.00274152 -0.00154331 9.9964 0.526307 26 1 
588 1.2053 9.99617 -0.00273477 -0.00154056 9.99617 0.535987 26 1 
589 1.20526 9.99756 -0.00273867 -0.00155672 9.99756 0.471231 26 1 
590 1.20527 9.99789 -0.00270603 -0.00153122 9.99789 0.478627 26 1 
591 1.20529 9.99786 -0.00269597 -0.00151257 9.99786 0.51826 26 1 
592 1.20525 9.99825 -0.00269932 -0.00152094 9.99825 0.459846 26 1 
592 1.20525 9.99825 -0.00269932 -0.00152094 9.99825 0.459846 26 1 
593 1.20523 9.99914 -0.00267483 -0.00151191 9.99914 0.421999 26 1 
594 1.20526 9.99893 -0.00265223 -0.00148883 9.99893 0.467109 26 1 
595 1.20526 9.99897 -0.00265072 -0.00147744 9.99897 0.462914 26 1 
596 1.20523 10.0008 -0.00263517 -0.00147414 10.0008 0.420058 26 1 
597 1.20525 10.0003 -0.00263492 -0.0014898 10.0003 0.447766 26 1 
598 1.20525 9.99998 -0.00263934 -0.00147891 9.99998 0.459494 26 1 
599 1.20523 10.0019 -0.00261163 -0.00145382 10.0019 0.406995 26 1 
600 1.20525 10.0013 -0.00258792 -0.00144867 10.0013 0.454505 26 1 
601 1.20529 10.0013 -0.00259986 -0.00145285 10.0013 0.530264 26 1 
602 1.20525 10.0028 -0.00260876 -0.00145639 10.0028 0.454949 26 1 
603 1.20525 10.0025 -0.00258705 -0.00145049 10.0025 0.444449 26 1 
604 1.2053 10.0025 -0.00258833 -0.00145172 10.0025 0.536967 26 1 
605 1.20527 10.003 -0.002584 -0.00144731 10.003 0.481287 26 1 
606 1.20526 10.0034 -0.00254595 -0.00142035 10.0034 0.472428 26 1 
607 1.20532 10.003 -0.00254121 -0.00141288 10.003 0.577095 26 1 
608 1.20528 10.0036 -0.00257132 -0.00143849 10.0036 0.51234 26 1 
608 1.20528 10.0036 -0.00257132 -0.00143849 10.0036 0.51234 26 1 
609 1.20525 10.0049 -0.00257617 -0.00145087 10.0049 0.454173 26 1 
610 1.2053 10.0032 -0.00254301 -0.00142562 10.0032 0.546778 26 1 
611 1.20529 10.0036 -0.00250631 -0.00138321 10.0036 0.520682 26 1 
612 1.20526 10.0051 -0.00250667 -0.00139048 10.0051 0.461715 26 1 
613 1.2053 10.0036 -0.00253765 -0.00143071 10.0036 0.543069 26 1 
614 1.20528 10.0045 -0.00253685 -0.00142366 10.0045 0.510681 26 1 
615 1.20523 10.0051 -0.00249549 -0.00137593 10.0051 0.418707 26 1 
616 1.20529 10.0038 -0.00246954 -0.00136314 10.0038 0.51811 26 1 
617 1.20529 10.0051 -0.00247842 -0.00137932 10.0051 0.527098 26 1 
618 1.20524 10.0055 -0.00248712 -0.00138785 10.0055 0.429339 26 1 
619 1.20529 10.0047 -0.00248549 -0.00138603 10.0047 0.52547 26 1 
620 1.20528 10.0049 -0.00246911 -0.00137366 10.0049 0.509995 26 1 
621 1.20522 10.0051 -0.00244729 -0.00135607 10.0051 0.39505 26 1 
622 1.20529 10.0053 -0.00242316 -0.0013385 10.0053 0.524556 26 1 
623 1.20529 10.0052 -0.00242216 -0.00134334 10.0052 0.525663 26 1 
624 1.20523 10.0061 -0.00243651 -0.00135138 10.0061 0.409736 26 1 
624 1.20523 10.0061 -0.00243651 -0.00135138 10.0061 0.409736 26 1 
625 1.20529 10.0053 -0.00241902 -0.00134255 10.0053 0.522293 26 1 
626 1.20529 10.0045 -0.00240291 -0.00133451 10.0045 0.519559 26 1 
627 1.20523 10.0068 -0.00238315 -0.00131492 10.0068 0.419419 26 1 
628 1.20528 10.0054 -0.00238131 -0.00131894 10.0054 0.511839 26 1 
629 1.20527 10.0053 -0.00239278 -0.00133534 10.0053 0.494567 26 1 
630 1.20522 10.0069 -0.00238291 -0.00131499 10.0069 0.400307 26 1 
631 1.20528 10.0044 -0.00233429 -0.00127553 10.0044 0.500621 26 1 
632 1.20528 10.0062 -0.00231312 -0.00127348 10.0062 0.501726 26 1 
633 1.20522 10.0072 -0.00233275 -0.00129131 10.0072 0.402422 26 1 
634 1.20527 10.0051 -0.00234501 -0.00129625 10.0051 0.49323 26 1 
635 1.20527 10.0072 -0.00234655 -0.00130484 10.0072 0.489892 26 1 
636 1.20522 10.0064 -0.002307 -0.00127336 10.0064 0.392537 26 1 
637 1.20527 10.0054 -0.00226702 -0.00123046 10.0054 0.48011 26 1 
638 1.20525 10.007 -0.00226152 -0.00123652 10.007 0.453988 26 1 
639 1.20523 10.0067 -0.00228522 -0.00126637 10.0067 0.410707 26 1 
640 1.20529 10.0069 -0.00228333 -0.00125477 10.0069 0.515785 26 1 
640 1.20529 10.0069 -0.00228333 -0.00125477 10.0069 0.515785 26 1 
641 1.20524 10.0066 -0.00226357 -0.00124199 10.0066 0.440532 26 1 
642 1.20523 10.0071 -0.00224521 -0.00124276 10.0071 0.414633 26 1 
643 1.20527 10.0069 -0.00222667 -0.00121649 10.0069 0.48938 26 1 
644 1.20524 10.007 -0.00222612 -0.00121324 10.007 0.434264 26 1 
645 1.20527 10.0084 -0.00223127 -0.00123531 10.0084 0.483369 26 1 
646 1.20527 10.0062 -0.00221665 -0.0012247 10.0062 0.485297 26 1 
647 1.20522 10.0071 -0.00220597 -0.00121029 10.0071 0.398822 26 1 
648 1.20527 10.0081 -0.00219155 -0.00120251 10.0081 0.48068 26 1 
649 1.20527 10.0064 -0.00218474 -0.00120157 10.0064 0.485186 26 1 
650 1.20525 10.009 -0.00219734 -0.00121117 10.009 0.45503 26 1 
651 1.20528 10.0075 -0.00217784 -0.00120269 10.0075 0.509081 26 1 
652 1.20525 10.007 -0.00215229 -0.00118521 10.007 0.454299 26 1 
653 1.20524 10.0088 -0.00215093 -0.00117618 10.0088 0.439427 26 1 
654 1.20528 10.0064 -0.00216318 -0.00119651 10.0064 0.502916 26 1 
655 1.20527 10.0089 -0.00215438 -0.0012029 10.009 0.479981 26 1 
656 1.20526 10.0081 -0.00214197 -0.00118195 10.0081 0.46823 26 1 
656 1.20526 10.0081 -0.00214197 -0.00118195 10.0081 0.46823 26 1 
657 1.20526 10.0067 -0.00211359 -0.00115841 10.0067 0.475081 26 1 
658 1.20524 10.0095 -0.00209303 -0.00114863 10.0095 0.435769 26 1 
659 1.20526 10.007 -0.00209461 -0.00115072 10.007 0.477698 26 1 
660 1.20528 10.0089 -0.00210908 -0.00117041 10.0089 0.510699 26 1 
661 1.20526 10.0091 -0.00210883 -0.00117187 10.0091 0.466695 26 1 
662 1.20527 10.0068 -0.00208099 -0.00114984 10.0068 0.488898 26 1 
663 1.20525 10.0096 -0.0020563 -0.00112933 10.0096 0.44333 26 1 
664 1.20523 10.0074 -0.00203511 -0.00110694 10.0074 0.421845 26 1 
665 1.20528 10.0088 -0.0020323 -0.00111364 10.0088 0.512643 26 1 
666 1.20525 10.0094 -0.00204041 -0.00112747 10.0094 0.446106 26 1 
667 1.20526 10.0075 -0.00204258 -0.00112759 10.0075 0.471273 26 1 
668 1.20529 10.0104 -0.00202157 -0.00111657 10.0104 0.518291 26 1 
669 1.20522 10.0079 -0.00200608 -0.00110443 10.0079 0.404712 26 1 
670 1.20527 10.0091 -0.0019944 -0.0010895 10.0091 0.483691 26 1 
671 1.20526 10.0096 -0.00198504 -0.00108876 10.0096 0.4646 26 1 
672 1.20523 10.0074 -0.00197348 -0.00107925 10.0074 0.421182 26 1 
672 1.20523 10.0074 -0.00197348 -0.00107925 10.0074 0.421182 27 1 
673 1.20528 10.0103 -0.0019534 -0.00105982 10.0103 0.501917 27 1 
674 1.20522 10.008 -0.00194719 -0.00106573 10.008 0.401093 27 1 
675 1.20526 10.0098 -0.00194698 -0.00106795 10.0098 0.468052 27 1 
676 1.20528 10.0099 -0.00194144 -0.00106105 10.0099 0.502506 27 1 
677 1.20524 10.008 -0.00193297 -0.00105853 10.008 0.428908 27 1 
678 1.20527 10.0109 -0.00191961 -0.00104824 10.0109 0.490901 27 1 
679 1.20521 10.0073 -0.00189964 -0.00103824 10.0073 0.383116 27 1 
680 1.20525 10.01 -0.00188538 -0.0010262 10.01 0.444963 27 1 
681 1.20528 10.0097 -0.00187271 -0.00100945 10.0097 0.506062 27 1 
682 1.20521 10.0075 -0.00186646 -0.00101086 10.0075 0.382083 27 1 
683 1.20527 10.0117 -0.00186511 -0.00101736 10.0117 0.482888 27 1 
684 1.20525 10.0073 -0.00185649 -0.00101449 10.0073 0.446168 27 1 
685 1.20524 10.0103 -0.00184677 -0.00100681 10.0103 0.437232 27 1 
686 1.20527 10.0096 -0.00184062 -0.000997133 10.0096 0.494368 27 1 
687 1.20522 10.0074 -0.00182112 -0.000985339 10.0074 0.402363 27 1 
688 1.20525 10.0118 -0.00180747 -0.000976526 10.0118 0.455805 27 1 
688 1.20525 10.0118 -0.00180747 -0.000976526 10.0118 0.455805 27 1 
689 1.20524 10.0064 -0.00180515 -0.00097336 10.0064 0.433846 27 1 
690 1.20524 10.0105 -0.00180016 -0.00097704 10.0105 0.437605 27 1 
691 1.20526 10.0093 -0.00177632 -0.000958197 10.0093 0.466208 27 1 
692 1.20523 10.0074 -0.00176172 -0.000942914 10.0074 0.423085 27 1 
693 1.20527 10.0122 -0.00176733 -0.000954909 10.0122 0.48405 27 1 
694 1.20524 10.0059 -0.00177114 -0.000959053 10.0059 0.426044 27 1 
695 1.20524 10.011 -0.00176893 -0.000956956 10.011 0.438108 27 1 
696 1.20526 10.0087 -0.00174071 -0.000937611 10.0087 0.469195 27 1 
697 1.20522 10.0069 -0.00170437 -0.000906823 10.0069 0.397582 27 1 
698 1.20524 10.0114 -0.00168754 -0.000890036 10.0114 0.442223 27 1 
699 1.20525 10.0058 -0.00168819 -0.000895551 10.0058 0.44821 27 1 
700 1.20525 10.0117 -0.00170051 -0.000909791 10.0117 0.454333 27 1 
701 1.20524 10.0077 -0.00171018 -0.000923982 10.0077 0.441759 27 1 
702 1.20524 10.0078 -0.00170193 -0.000920602 10.0078 0.426481 27 1 
703 1.20524 10.0112 -0.00165309 -0.000875922 10.0112 0.441625 27 1 
704 1.20523 10.0049 -0.00160634 -0.000829462 10.0049 0.409158 27 1 
704 1.20523 10.0049 -0.00160634 -0.000829462 10.0049 0.409158 31 1 
705 1.20525 10.0116 -0.00161224 -0.000837904 10.0116 0.443871 31 1 
706 1.20524 10.007 -0.0016328 -0.000870158 10.007 0.439958 31 1 
707 1.20523 10.008 -0.00162918 -0.000869232 10.008 0.410527 31 1 
708 1.20523 10.0107 -0.00161521 -0.000851305 10.0107 0.410375 31 1 
709 1.20524 10.0054 -0.00159283 -0.000836915 10.0054 0.439812 31 1 
710 1.20524 10.0116 -0.00155984 -0.000812789 10.0116 0.439448 31 1 
711 1.20522 10.0064 -0.00154588 -0.000800316 10.0064 0.396144 31 1 
712 1.20525 10.0088 -0.0015508 -0.000806131 10.0088 0.460221 31 1 
713 1.20522 10.0096 -0.00154399 -0.000805338 10.0096 0.394913 31 1 
714 1.20521 10.0052 -0.00152691 -0.000791568 10.0052 0.374982 31 1 
715 1.20525 10.0112 -0.00150789 -0.000778436 10.0112 0.446572 31 1 
716 1.20522 10.0064 -0.00149261 -0.000771225 10.0064 0.389369 31 1 
717 1.20524 10.0096 -0.00149352 -0.000771521 10.0096 0.440911 31 1 
718 1.20523 10.0087 -0.00149549 -0.000775618 10.0087 0.406808 31 1 
719 1.20521 10.0064 -0.00145582 -0.000743003 10.0064 0.384499 31 1 
720 1.20523 10.0104 -0.00141565 -0.000707175 10.0104 0.423559 31 1 
721 1.20521 10.0059 -0.00143271 -0.000727737 10.0059 0.37692 31 1 
722 1.20524 10.0105 -0.00144757 -0.000745542 10.0105 0.441718 31 1 
723 1.20521 10.0073 -0.00141916 -0.000724261 10.0073 0.382211 31 1 
724 1.2052 10.0073 -0.00137986 -0.000689437 10.0073 0.357718 31 1 
725 1.20524 10.0103 -0.00135645 -0.000671196 10.0103 0.427731 31 1 
726 1.20521 10.0058 -0.0013557 -0.000677247 10.0058 0.383821 31 1 
727 1.20524 10.0112 -0.00137961 -0.000699212 10.0112 0.428383 31 1 
728 1.20523 10.007 -0.00137689 -0.000702237 10.007 0.419537 31 1 
728 1.20523 10.007 -0.00137689 -0.000702237 10.007 0.419537 31 1 
729 1.2052 10.0083 -0.00132912 -0.000665231 10.0083 0.366147 31 1 
730 1.20518 10.0085 -0.00127818 -0.000617381 10.0085 0.321957 31 1 
731 1.2052 10.006 -0.00125792 -0.000602428 10.006 0.35988 31 1 
732 1.20526 10.0121 -0.00127278 -0.000622254 10.0121 0.463501 31 1 
733 1.20522 10.0068 -0.00130647 -0.000653995 10.0068 0.405229 31 1 
734 1.20521 10.0096 -0.001315 -0.000669195 10.0096 0.381416 31 1 
735 1.20519 10.008 -0.00125598 -0.000622204 10.008 0.352202 31 1 
736 1.20518 10.0064 -0.00118602 -0.000556554 10.0064 0.329964 31 1 
737 1.20521 10.0108 -0.00118217 -0.000555572 10.0108 0.379182 31 1 
738 1.20522 10.0064 -0.0012054 -0.000580834 10.0064 0.388711 31 1 
739 1.20523 10.0108 -0.00120203 -0.000583439 10.0108 0.409546 31 1 
740 1.20519 10.0072 -0.0011851 -0.000569554 10.0072 0.33646 31 1 
741 1.20519 10.0081 -0.00115663 -0.000547343 10.0081 0.352321 31 1 
742 1.20521 10.0101 -0.00114066 -0.000539693 10.0101 0.381919 31 1 
743 1.20519 10.0062 -0.00114488 -0.000544858 10.0062 0.33866 31 1 
744 1.2052 10.0107 -0.00112831 -0.000534255 10.0107 0.369212 31 1 
745 1.20518 10.0061 -0.00108382 -0.000498147 10.0061 0.328543 31 1 
746 1.20519 10.0094 -0.00106472 -0.000479328 10.0094 0.351235 31 1 
747 1.20519 10.0085 -0.00106014 -0.000478101 10.0085 0.342468 31 1 
748 1.2052 10.0078 -0.00105735 -0.000482282 10.0078 0.362959 31 1 
749 1.20521 10.0106 -0.0010667 -0.000492561 10.0106 0.384448 31 1 
750 1.20517 10.0058 -0.00105875 -0.000491773 10.0058 0.298225 31 1 
751 1.20518 10.0099 -0.00102217 -0.000460127 10.0099 0.327719 31 1 
752 1.20518 10.0069 -0.000984552 -0.000425551 10.0069 0.324825 31 1 
752 1.20518 10.0069 -0.000984552 -0.000425551 10.0069 0.324825 31 1 
753 1.20519 10.0087 -0.000970328 -0.000418329 10.0087 0.346904 31 1 
754 1.20519 10.0088 -0.000966148 -0.000414348 10.0088 0.342007 31 1 
755 1.20518 10.0066 -0.000967866 -0.000422449 10.0066 0.321448 31 1 
756 1.2052 10.0103 -0.000958373 -0.000423112 10.0103 0.353109 31 1 
757 1.20516 10.006 -0.000941458 -0.000404506 10.006 0.286133 31 1 
758 1.20519 10.0101 -0.000927928 -0.000392807 10.0101 0.337038 31 1 
759 1.20519 10.0082 -0.000920452 -0.000395007 10.0082 0.337092 31 1 
760 1.20517 10.0081 -0.000909429 -0.000381706 10.0081 0.302186 31 1 
761 1.20517 10.0091 -0.000881277 -0.000359591 10.0091 0.299427 31 1 
762 1.20517 10.0063 -0.000850371 -0.000339056 10.0063 0.298033 31 1 
763 1.2052 10.0098 -0.000834782 -0.000323673 10.0098 0.363097 31 1 
764 1.20516 10.005 -0.000846878 -0.000335782 10.005 0.292599 31 1 
765 1.20518 10.0069 -0.000867077 -0.000359664 10.0069 0.323772 31 1 
766 1.20518 10.005 -0.00085617 -0.000356806 10.005 0.324435 31 1 
767 1.20515 10.0039 -0.000820089 -0.000325087 10.0039 0.263449 31 1 
768 1.20516 10.0059 -0.000785229 -0.000295678 10.0059 0.280521 31 1 
769 1.20517 10.0041 -0.000762436 -0.000278029 10.0041 0.30505 31 1 
770 1.2052 10.0084 -0.000771947 -0.000285086 10.0084 0.358344 31 1 
771 1.20515 10.005 -0.000786288 -0.000301171 10.005 0.274673 31 1 
772 1.20517 10.0084 -0.000773795 -0.00029812 10.0084 0.297916 31 1 
773 1.20516 10.0085 -0.000753961 -0.000281662 10.0085 0.297057 31 1 
774 1.20514 10.0083 -0.000733455 -0.00026461 10.0083 0.257595 31 1 
775 1.20516 10.0111 -0.000720684 -0.000263416 10.0111 0.292813 31 1 
776 1.20517 10.009 -0.000709094 -0.000254008 10.009 0.305288 31 1 
776 1.20517 10.009 -0.000709094 -0.000254008 10.009 0.305288 31 1 
777 1.20518 10.0121 -0.000694756 -0.000232748 10.0121 0.330964 31 1 
778 1.20512 10.0066 -0.000677911 -0.00021622 10.0066 0.21339 31 1 
779 1.20515 10.0085 -0.000673108 -0.000227197 10.0085 0.279464 31 1 
780 1.20517 10.0071 -0.00066183 -0.000228299 10.0071 0.312133 31 1 
781 1.20514 10.0064 -0.000632182 -0.000191909 10.0064 0.258895 31 1 
782 1.20515 10.007 -0.000633824 -0.000190031 10.007 0.269906 31 1 
783 1.20515 10.004 -0.000649362 -0.00022422 10.004 0.277109 31 1 
784 1.20517 10.006 -0.000646511 -0.00022832 10.006 0.304327 31 1 
785 1.20511 10.0006 -0.000585722 -0.00016739 10.0006 0.195786 31 1 
786 1.20514 10.0037 -0.000540707 -0.000129752 10.0037 0.254357 31 1 
787 1.20515 10.0033 -0.000573634 -0.00016201 10.0033 0.271489 31 1 
788 1.20515 10.0062 -0.00060264 -0.000201577 10.0062 0.278308 31 1 
789 1.20516 10.0083 -0.000584834 -0.000191667 10.0083 0.282844 31 1 
790 1.20513 10.0079 -0.000528116 -0.000123816 10.0079 0.234583 31 1 
791 1.20512 10.0111 -0.000481648 -7.89756e-05 10.0111 0.222137 31 1 
792 1.2051 10.008 -0.000478038 -8.70682e-05 10.008 0.175626 31 1 
793 1.20516 10.0108 -0.000500086 -0.000114642 10.0108 0.289381 31 1 
794 1.20515 10.007 -0.000512471 -0.000126722 10.007 0.271766 31 1 
795 1.20515 10.0077 -0.000490645 -0.000110618 10.0077 0.270363 31 1 
796 1.20514 10.0053 -0.000462119 -9.37908e-05 10.0053 0.261521 31 1 
797 1.20511 10.0033 -0.000435153 -6.94312e-05 10.0033 0.201589 31 1 
798 1.20507 10.0035 -0.000393956 -3.15371e-05 10.0035 0.133547 31 1 
799 1.20509 10.0021 -0.000380048 -1.95615e-05 10.0021 0.166856 31 1 
800 1.20517 10.0073 -0.000383872 -2.62553e-05 10.0073 0.313996 31 1 
