56.1501;r ;Density                 ;Velocity u              ;Velocity v              ;Velocity w              ;|Velocity|              ;Pressure                ;Distribution            ;Levels                  ;
0 1.20508 9.99582 -0.000114852 -0.00279056 9.99582 0.151315 1 1 
1.33334 1.20504 9.99652 -4.52979e-05 -0.00182713 9.99652 0.0669078 1 1 
2.66666 1.20494 9.99706 0.00010574 0.000691977 9.99706 -0.115136 1 1 
4 1.20486 9.99682 0.000219843 0.00286148 9.99682 -0.253548 1 1 
5.33334 1.20481 9.99691 0.000272435 0.00465117 9.99691 -0.350258 1 1 
6.66666 1.20473 9.99684 0.000338563 0.00742203 9.99685 -0.496567 1 1 
8 1.20465 9.99669 0.000400002 0.00980785 9.9967 -0.627818 1 1 
9.33334 1.20459 9.99659 0.000426053 0.0123231 9.99661 -0.73222 1 1 
10.6667 1.20452 9.99639 0.000463316 0.0157712 9.99642 -0.868473 1 1 
12 1.20446 9.99673 0.000470793 0.0183184 9.99677 -0.971233 1 1 
13.3333 1.20441 9.99656 0.000452039 0.0210974 9.99662 -1.0588 1 1 
14.6667 1.20436 9.99605 0.000436947 0.0240747 9.99612 -1.14888 1 1 
16 1.20435 9.99657 0.000368044 0.0256687 9.99665 -1.17141 1 1 
17.3333 1.20434 9.99664 0.000289332 0.0274116 9.99673 -1.1922 1 1 
18.6667 1.20433 9.99604 0.000215598 0.0287489 9.99613 -1.20671 1 1 
20 1.20437 9.99609 8.53175e-05 0.0288457 9.99619 -1.1464 1 1 
21.3333 1.2044 9.99626 -5.31867e-05 0.028932 9.99635 -1.08649 1 1 
21.3333 1.2044 9.99626 -5.31867e-05 0.028932 9.99635 -1.08649 1 1 
22.6667 1.20445 9.99603 -0.000200331 0.0281756 9.99612 -0.999361 1 1 
24 1.20452 9.99557 -0.00038973 0.0266304 9.99566 -0.861 1 1 
25.3333 1.2046 9.99526 -0.000568293 0.0248354 9.99533 -0.727246 1 1 
26.6667 1.2047 9.99537 -0.000761434 0.0217941 9.99543 -0.54447 1 1 
28 1.20481 9.99496 -0.000966173 0.0186695 9.99501 -0.35201 1 1 
29.3333 1.2049 9.99413 -0.0011367 0.0155111 9.99417 -0.183492 1 1 
30.6667 1.20502 9.99421 -0.00133156 0.0109935 9.99424 0.0392199 1 1 
32 1.20514 9.99396 -0.00152721 0.00690072 9.99398 0.251529 1 1 
33.3333 1.20524 9.99289 -0.00168484 0.00313911 9.9929 0.43024 1 1 
34.6667 1.20535 9.99241 -0.00184421 -0.00137702 9.99242 0.626045 1 1 
36 1.20543 9.99209 -0.00197487 -0.00524143 9.99211 0.777705 1 1 
37.3333 1.20551 9.99138 -0.00207967 -0.00891398 9.9914 0.914176 1 1 
38.6667 1.20558 9.99051 -0.00218435 -0.0124086 9.99054 1.05478 1 1 
40 1.20562 9.98978 -0.00223943 -0.0150174 9.98982 1.12033 1 1 
41.3333 1.20565 9.98929 -0.00227786 -0.0177216 9.98933 1.1755 1 1 
42.6667 1.20568 9.98838 -0.00232357 -0.0196007 9.98844 1.23121 1 1 
42.6667 1.20568 9.98838 -0.00232357 -0.0196007 9.98844 1.23121 2 1 
44 1.20568 9.98739 -0.00231917 -0.020691 9.98745 1.22076 2 1 
45.3333 1.20566 9.98717 -0.00229729 -0.0221177 9.98723 1.19134 2 1 
46.6667 1.20562 9.98667 -0.0022664 -0.0223008 9.98673 1.12714 2 1 
48 1.20558 9.98564 -0.00220931 -0.0216613 9.9857 1.03901 2 1 
49.3333 1.20553 9.98541 -0.00214267 -0.0213953 9.98548 0.955176 2 1 
50.6667 1.20544 9.98533 -0.00204461 -0.0198049 9.9854 0.789734 2 1 
52 1.20534 9.98463 -0.00193511 -0.017475 9.98469 0.607048 2 1 
53.3333 1.20526 9.98422 -0.00183656 -0.015191 9.98427 0.463804 2 1 
54.6667 1.20514 9.98434 -0.001705 -0.0121717 9.98438 0.256897 2 1 
56 1.20502 9.98436 -0.00157998 -0.00898071 9.9844 0.042786 2 1 
57.3333 1.20493 9.98388 -0.00148603 -0.00514632 9.98391 -0.132597 2 1 
58.6667 1.20481 9.98384 -0.00137126 -0.00125055 9.98386 -0.335846 2 1 
60 1.20472 9.98439 -0.00129228 0.00193151 9.9844 -0.50731 2 1 
61.3333 1.20463 9.98417 -0.00126623 0.00595166 9.98419 -0.66787 2 1 
62.6667 1.20453 9.98387 -0.00124457 0.00991149 9.98389 -0.84156 2 1 
64 1.20448 9.98439 -0.00123741 0.0126744 9.98442 -0.9372 2 1 
64 1.20448 9.98439 -0.00123741 0.0126744 9.98442 -0.9372 2 1 
65.3333 1.20443 9.98496 -0.00122202 0.015885 9.98499 -1.03276 2 1 
66.6667 1.20437 9.98489 -0.00119386 0.0190764 9.98492 -1.13415 2 1 
68 1.20435 9.98463 -0.00117312 0.0213606 9.98467 -1.16741 2 1 
69.3333 1.20433 9.98509 -0.00113652 0.023407 9.98514 -1.20431 2 1 
70.6667 1.20433 9.98555 -0.00115448 0.025188 9.9856 -1.20648 2 1 
72 1.20436 9.98512 -0.00124202 0.0265708 9.98519 -1.16222 2 1 
73.3333 1.20437 9.98508 -0.00131619 0.0270716 9.98515 -1.13824 2 1 
74.6667 1.20442 9.98554 -0.00142321 0.0269878 9.98561 -1.04955 2 1 
76 1.20449 9.98533 -0.00159037 0.0269646 9.9854 -0.926774 2 1 
77.3333 1.20454 9.9848 -0.00174222 0.0259863 9.98487 -0.835019 2 1 
78.6667 1.20462 9.98476 -0.00187399 0.0241214 9.98483 -0.694197 2 1 
80 1.2047 9.98485 -0.00202871 0.0224747 9.9849 -0.543453 2 1 
81.3333 1.20477 9.98436 -0.00220679 0.0205191 9.98442 -0.40651 2 1 
82.6667 1.20487 9.98366 -0.00236317 0.0173385 9.9837 -0.239153 2 1 
84 1.20494 9.98347 -0.00248372 0.0145535 9.98351 -0.107028 2 1 
85.3333 1.20501 9.98342 -0.00263168 0.0121179 9.98345 0.0207238 2 1 
85.3333 1.20501 9.98342 -0.00263168 0.0121179 9.98345 0.0207238 3 1 
86.6667 1.2051 9.98269 -0.00278191 0.00872221 9.98271 0.173444 3 1 
88 1.20515 9.98213 -0.00286229 0.00540606 9.98215 0.27116 3 1 
89.3333 1.20521 9.9819 -0.00293802 0.00257974 9.98191 0.377577 3 1 
90.6667 1.20526 9.98133 -0.00305771 -0.000483197 9.98134 0.476629 3 1 
92 1.20529 9.98058 -0.00312117 -0.00337168 9.98059 0.522863 3 1 
93.3333 1.20532 9.98016 -0.00312593 -0.00606337 9.98017 0.586559 3 1 
94.6667 1.20533 9.98003 -0.00315865 -0.0081365 9.98005 0.603191 3 1 
96 1.20532 9.97931 -0.00319198 -0.00988057 9.97933 0.58298 3 1 
97.3333 1.20532 9.97878 -0.00314659 -0.0120829 9.97881 0.573701 3 1 
98.6667 1.20529 9.97878 -0.00307327 -0.0130461 9.97881 0.517126 3 1 
100 1.20524 9.97857 -0.00304524 -0.0134825 9.97861 0.434901 3 1 
101.333 1.20519 9.97799 -0.00297804 -0.0137994 9.97803 0.335254 3 1 
102.667 1.20512 9.97747 -0.00283441 -0.0129695 9.97751 0.21554 3 1 
104 1.20506 9.97774 -0.00273769 -0.0120705 9.97778 0.106056 3 1 
105.333 1.20497 9.97759 -0.00268349 -0.0105899 9.97763 -0.0467684 3 1 
106.667 1.20488 9.97699 -0.00254146 -0.00870242 9.97702 -0.222481 3 1 
106.667 1.20488 9.97699 -0.00254146 -0.00870242 9.97702 -0.222481 3 1 
108 1.20482 9.97699 -0.00240316 -0.00739748 9.97702 -0.324564 3 1 
109.333 1.20474 9.97725 -0.00233916 -0.00477863 9.97727 -0.475993 3 1 
110.667 1.20462 9.97726 -0.00225109 -0.00171479 9.97727 -0.680314 3 1 
112 1.20457 9.97692 -0.00213708 0.000635731 9.97694 -0.776409 3 1 
113.333 1.2045 9.97725 -0.00206142 0.00421336 9.97726 -0.900352 3 1 
114.667 1.2044 9.97806 -0.00202551 0.00762696 9.97806 -1.08481 3 1 
116 1.20436 9.97711 -0.00198132 0.00979839 9.97712 -1.15624 3 1 
117.333 1.20432 9.97616 -0.00191868 0.0126324 9.97617 -1.22744 3 1 
118.667 1.20425 9.97782 -0.00192006 0.0154817 9.97784 -1.36314 3 1 
120 1.20423 9.97763 -0.00198022 0.017669 9.97766 -1.39049 3 1 
121.333 1.20422 9.97657 -0.00198208 0.0201788 9.9766 -1.41184 3 1 
122.667 1.20419 9.97796 -0.002 0.0223806 9.978 -1.46491 3 1 
124 1.20421 9.97794 -0.00211908 0.0236973 9.97798 -1.42987 3 1 
125.333 1.20422 9.97709 -0.00221487 0.0245731 9.97714 -1.41379 3 1 
126.667 1.20423 9.97739 -0.00226042 0.0246503 9.97744 -1.39248 3 1 
128 1.20427 9.97702 -0.00237381 0.0246821 9.97707 -1.31129 3 1 
128 1.20427 9.97702 -0.00237381 0.0246821 9.97707 -1.31129 3 1 
129.333 1.20429 9.9772 -0.00252853 0.024527 9.97725 -1.27383 3 1 
130.667 1.20433 9.97704 -0.00263151 0.0239238 9.97709 -1.20365 3 1 
132 1.2044 9.97597 -0.00271657 0.0231638 9.97602 -1.08664 3 1 
133.333 1.20442 9.97736 -0.00285879 0.0217838 9.9774 -1.04548 3 1 
134.667 1.20447 9.97713 -0.00300664 0.0196868 9.97716 -0.95919 3 1 
136 1.20454 9.97525 -0.00308619 0.0175797 9.97527 -0.833757 3 1 
137.333 1.20457 9.97566 -0.00318698 0.0153271 9.97568 -0.777737 3 1 
138.667 1.2046 9.97576 -0.0033417 0.0131005 9.97578 -0.717242 3 1 
140 1.20465 9.97477 -0.00343884 0.0110612 9.97478 -0.630552 3 1 
141.333 1.20469 9.97432 -0.00347167 0.00881983 9.97433 -0.567006 3 1 
142.667 1.2047 9.97502 -0.00354792 0.00634501 9.97503 -0.537877 3 1 
144 1.20472 9.97464 -0.00363491 0.00398389 9.97464 -0.497815 3 1 
145.333 1.20474 9.97264 -0.00363775 0.00219708 9.97264 -0.46574 3 1 
146.667 1.20472 9.97283 -0.00363588 0.000628869 9.97283 -0.500443 3 1 
148 1.20471 9.97365 -0.00369107 -0.00062003 9.97365 -0.518647 3 1 
149.333 1.20472 9.97201 -0.00371938 -0.001605 9.97202 -0.505541 3 1 
149.333 1.20472 9.97201 -0.00371938 -0.001605 9.97202 -0.505541 3 1 
150.667 1.20468 9.9716 -0.00367115 -0.00210609 9.97161 -0.586039 3 1 
152 1.20463 9.97211 -0.00365341 -0.0022145 9.97212 -0.659434 3 1 
153.333 1.20463 9.97095 -0.00369322 -0.00279709 9.97096 -0.673082 3 1 
154.667 1.20456 9.97053 -0.00365701 -0.00198454 9.97054 -0.796356 3 1 
156 1.2045 9.97016 -0.00357531 -0.00118653 9.97017 -0.91127 3 1 
157.333 1.20448 9.9698 -0.00357921 -0.000822172 9.9698 -0.935268 3 1 
158.667 1.20442 9.9706 -0.00360058 0.000769728 9.9706 -1.04915 3 1 
160 1.20435 9.96911 -0.0035404 0.0018833 9.96912 -1.17343 3 1 
161.333 1.2043 9.96846 -0.00350062 0.00356223 9.96847 -1.25569 3 1 
162.667 1.20425 9.96939 -0.00354372 0.00523433 9.96939 -1.3519 3 1 
164 1.20421 9.96747 -0.00355366 0.00665148 9.96747 -1.43477 3 1 
165.333 1.20414 9.96705 -0.00350623 0.00914001 9.96705 -1.54622 3 1 
166.667 1.20411 9.9679 -0.00352256 0.0102919 9.96791 -1.60305 3 1 
168 1.2041 9.96714 -0.00357553 0.0113783 9.96715 -1.63417 3 1 
169.333 1.20404 9.96696 -0.00356989 0.013153 9.96697 -1.74003 3 1 
170.667 1.20403 9.96637 -0.00356307 0.0135867 9.96638 -1.75865 3 1 
170.667 1.20403 9.96637 -0.00356307 0.0135867 9.96638 -1.75865 11 1 
172 1.20404 9.96609 -0.00364057 0.0142141 9.9661 -1.73084 11 1 
173.333 1.204 9.96611 -0.00369228 0.0155242 9.96613 -1.79891 11 1 
174.667 1.20399 9.96471 -0.00369219 0.0162323 9.96473 -1.8232 11 1 
176 1.20402 9.96411 -0.00375318 0.0163799 9.96412 -1.76533 11 1 
177.333 1.20403 9.96424 -0.00385079 0.0161505 9.96425 -1.75747 11 1 
178.667 1.20402 9.96304 -0.00391132 0.0158383 9.96305 -1.77502 11 1 
180 1.20405 9.96221 -0.00394537 0.0155859 9.96222 -1.72343 11 1 
181.333 1.20409 9.96265 -0.00403319 0.0149738 9.96266 -1.65025 11 1 
182.667 1.20409 9.96194 -0.00409807 0.0147628 9.96195 -1.65123 11 1 
184 1.20409 9.95982 -0.00410986 0.0148099 9.95983 -1.65107 11 1 
185.333 1.20413 9.95835 -0.00417057 0.0141321 9.95837 -1.57181 11 1 
186.667 1.20415 9.95808 -0.00426321 0.0132113 9.95809 -1.53705 11 1 
188 1.20413 9.95759 -0.00430385 0.0125788 9.9576 -1.57264 11 1 
189.333 1.20415 9.95623 -0.00429588 0.0124157 9.95623 -1.53692 11 1 
190.667 1.20419 9.95507 -0.00436414 0.0124502 9.95508 -1.46735 11 1 
192 1.20416 9.95445 -0.00446599 0.0126116 9.95446 -1.5212 11 1 
192 1.20416 9.95445 -0.00446599 0.0126116 9.95446 -1.5212 11 1 
193.333 1.20414 9.95235 -0.00449624 0.0133999 9.95236 -1.56203 11 1 
194.667 1.20417 9.94969 -0.00449821 0.013285 9.9497 -1.50455 11 1 
196 1.20414 9.94921 -0.00456596 0.0121898 9.94921 -1.55095 11 1 
197.333 1.20409 9.94819 -0.0046219 0.0124898 9.9482 -1.6381 11 1 
198.667 1.20411 9.94488 -0.00454552 0.012781 9.94489 -1.60879 11 1 
200 1.2041 9.94356 -0.00458204 0.0131956 9.94357 -1.62138 11 1 
201.333 1.20405 9.94388 -0.00470845 0.0147199 9.94389 -1.72462 11 1 
202.667 1.20404 9.94156 -0.00472099 0.0152989 9.94157 -1.73117 11 1 
204 1.20405 9.93896 -0.00470137 0.0148263 9.93898 -1.71562 11 1 
205.333 1.20402 9.93765 -0.00477477 0.0135207 9.93766 -1.77598 11 1 
206.667 1.204 9.93552 -0.00483907 0.0121324 9.93553 -1.80866 11 1 
208 1.204 9.93273 -0.00482909 0.013273 9.93274 -1.81091 11 1 
209.333 1.204 9.93003 -0.00482637 0.0143655 9.93004 -1.80912 11 1 
210.667 1.20399 9.92853 -0.00488141 0.0139807 9.92854 -1.83247 11 1 
212 1.20398 9.92679 -0.00494489 0.0155712 9.92681 -1.83675 11 1 
213.333 1.20403 9.92254 -0.00492076 0.0141021 9.92255 -1.75706 11 1 
213.333 1.20403 9.92254 -0.00492076 0.0141021 9.92255 -1.75706 11 1 
214.667 1.20402 9.92058 -0.00493311 0.0112402 9.92059 -1.77524 11 1 
216 1.20399 9.92026 -0.00500674 0.0120473 9.92027 -1.81804 11 1 
217.333 1.20407 9.91448 -0.00507356 0.0106406 9.91449 -1.6807 11 1 
218.667 1.20407 9.91013 -0.00510151 0.0108628 9.91014 -1.68813 11 1 
220 1.20403 9.90878 -0.00523453 0.0133261 9.90879 -1.75243 11 1 
221.333 1.20411 9.90247 -0.00538376 0.0125986 9.90248 -1.59902 11 1 
222.667 1.20411 9.89808 -0.00541792 0.0132935 9.89809 -1.60765 11 1 
224 1.20408 9.89599 -0.0054391 0.0129752 9.896 -1.66328 11 1 
225.333 1.20415 9.89107 -0.00547779 0.0110372 9.89108 -1.53772 11 1 
226.667 1.20416 9.88757 -0.00549583 0.0135268 9.88758 -1.5138 11 1 
228 1.20415 9.88221 -0.00550234 0.0143088 9.88222 -1.53497 11 1 
229.333 1.20417 9.87555 -0.00561206 0.0143532 9.87557 -1.50825 11 1 
230.667 1.20418 9.87031 -0.0057641 0.016838 9.87033 -1.4763 11 1 
232 1.2042 9.86195 -0.00580564 0.0164164 9.86197 -1.44152 11 1 
233.333 1.20418 9.85635 -0.00580613 0.0179405 9.85637 -1.47444 11 1 
234.667 1.20422 9.85298 -0.00586244 0.0188005 9.853 -1.40308 11 1 
234.667 1.20422 9.85298 -0.00586244 0.0188005 9.853 -1.40308 11 1 
236 1.20429 9.84455 -0.00591253 0.0182163 9.84457 -1.28686 11 1 
237.333 1.20425 9.83682 -0.00600813 0.020205 9.83685 -1.36155 11 1 
238.667 1.20427 9.82891 -0.00611252 0.0200758 9.82893 -1.31964 11 1 
240 1.20436 9.81875 -0.00616466 0.0216755 9.81878 -1.15039 11 1 
241.333 1.20437 9.8102 -0.00620612 0.0234867 9.81024 -1.13536 11 1 
242.667 1.20438 9.80225 -0.00622513 0.0216519 9.80228 -1.11254 11 1 
244 1.20449 9.79294 -0.0063095 0.0219269 9.79297 -0.92995 11 1 
245.333 1.20456 9.78142 -0.00653066 0.0228462 9.78145 -0.788584 11 1 
246.667 1.20457 9.76894 -0.0065948 0.0237523 9.76898 -0.781779 11 1 
248 1.20464 9.75659 -0.00656817 0.0243502 9.75662 -0.6529 11 1 
249.333 1.20478 9.74358 -0.00671257 0.0240857 9.74361 -0.397218 11 1 
250.667 1.20483 9.72989 -0.00682926 0.0252802 9.72993 -0.299295 11 1 
252 1.20487 9.71573 -0.00690983 0.0253684 9.71576 -0.232503 11 1 
253.333 1.20504 9.69898 -0.00702017 0.0255638 9.69901 0.0677827 11 1 
254.667 1.20516 9.68064 -0.00708695 0.0283396 9.68069 0.285044 11 1 
256 1.20517 9.66251 -0.00719206 0.0300638 9.66256 0.312108 11 1 
256 1.20517 9.66251 -0.00719206 0.0300638 9.66256 0.312108 13 1 
257.333 1.20532 9.6432 -0.00732216 0.0306308 9.64326 0.586076 13 1 
258.667 1.20553 9.62133 -0.00740358 0.0338921 9.6214 0.95642 13 1 
260 1.20558 9.59825 -0.00749829 0.0357036 9.59832 1.05317 13 1 
261.333 1.20568 9.57372 -0.0075915 0.0388516 9.57381 1.23065 13 1 
262.667 1.20593 9.54499 -0.00768879 0.0424112 9.54509 1.68462 13 1 
264 1.20607 9.51651 -0.00783394 0.0459912 9.51663 1.93888 13 1 
265.333 1.20616 9.48599 -0.00796425 0.0506215 9.48613 2.0916 13 1 
266.667 1.20643 9.45049 -0.0080397 0.0552396 9.45066 2.58218 13 1 
268 1.20668 9.41486 -0.0081056 0.0613424 9.41507 3.04188 13 1 
269.333 1.20682 9.37425 -0.00819615 0.0674113 9.37451 3.2931 13 1 
270.667 1.20705 9.33121 -0.00830421 0.0762074 9.33154 3.71081 13 1 
272 1.20742 9.28681 -0.00841328 0.0848212 9.28721 4.36925 13 1 
273.333 1.20774 9.23325 -0.00852533 0.0951948 9.23376 4.94884 13 1 
274.667 1.20792 9.18139 -0.00863249 0.109605 9.18208 5.26979 13 1 
276 1.20834 9.12261 -0.00868932 0.123697 9.12351 6.02811 13 1 
277.333 1.20891 9.04343 -0.00873113 0.134437 9.0445 7.06185 13 1 
277.333 1.20891 9.04343 -0.00873113 0.134437 9.0445 7.06185 13 1 
278.667 1.20904 8.97211 -0.00881683 0.149276 8.97342 7.29465 13 1 
280 1.20943 8.90047 -0.0089361 0.170659 8.90214 8.00863 13 1 
281.333 1.21028 8.81624 -0.00904876 0.200202 8.81856 9.54566 13 1 
282.667 1.21062 8.74177 -0.0091273 0.236296 8.74502 10.1537 13 1 
284 1.21102 8.64443 -0.00917135 0.265443 8.64859 10.865 13 1 
285.333 1.21181 8.52519 -0.0091871 0.295712 8.53043 12.2984 13 1 
286.667 1.21233 8.4212 -0.00922876 0.33223 8.42786 13.241 13 1 
288 1.21293 8.30366 -0.00929401 0.388678 8.31296 14.3231 13 1 
289.333 1.21362 8.18004 -0.00934477 0.44409 8.19221 15.5788 13 1 
290.667 1.21433 8.05079 -0.00935716 0.494735 8.06629 16.8611 13 1 
292 1.21509 7.9009 -0.00935389 0.59008 7.92342 18.225 13 1 
293.333 1.2155 7.76042 -0.00935769 0.654932 7.78813 18.9681 13 1 
294.667 1.21661 7.58816 -0.00933884 0.710227 7.62226 20.97 13 1 
296 1.21784 7.37639 -0.00926893 0.892883 7.43236 23.1993 13 1 
297.333 1.21633 7.05945 -0.00915348 0.94434 7.12415 20.4605 13 1 
298.667 1.21108 6.53528 -0.00904931 0.468147 6.56709 10.9845 13 1 
298.667 1.21108 6.53528 -0.00904931 0.468147 6.56709 10.9845 14 1 
300 1.20354 5.99386 -0.00903908 -0.533828 6.05465 -2.64587 14 1 
301.333 1.19689 5.63964 -0.00913015 -1.28976 5.79027 -14.6457 14 1 
302.667 1.19369 5.42957 -0.00922725 -1.32046 5.58934 -20.437 14 1 
304 1.19316 5.26128 -0.00929323 -1.10445 5.37688 -21.3821 14 1 
305.333 1.19365 5.14027 -0.0093544 -0.966335 5.23064 -20.5067 14 1 
306.667 1.19454 5.08266 -0.00940374 -0.872708 5.15742 -18.8908 14 1 
308 1.19517 5.02571 -0.00945946 -0.790045 5.08766 -17.7494 14 1 
309.333 1.19529 4.94121 -0.00953232 -0.711815 4.99255 -17.5384 14 1 
310.667 1.19564 4.85156 -0.00955364 -0.63505 4.8932 -16.9143 14 1 
312 1.19631 4.77323 -0.00953664 -0.570275 4.80746 -15.7002 14 1 
313.333 1.19658 4.69553 -0.00956716 -0.506924 4.72302 -15.2026 14 1 
314.667 1.19665 4.6068 -0.00962314 -0.450176 4.62896 -15.0847 14 1 
316 1.1971 4.52055 -0.00964933 -0.404736 4.53882 -14.2771 14 1 
317.333 1.19754 4.44288 -0.00967819 -0.360957 4.45773 -13.4775 14 1 
318.667 1.19759 4.36006 -0.00975104 -0.318375 4.37181 -13.3857 14 1 
320 1.19772 4.2782 -0.00982429 -0.287753 4.288 -13.1551 14 1 
320 1.19772 4.2782 -0.00982429 -0.287753 4.288 -13.1551 14 1 
321.333 1.19812 4.21153 -0.00987967 -0.258825 4.21959 -12.4221 14 1 
322.667 1.19836 4.14567 -0.00996801 -0.230139 4.15219 -11.9901 14 1 
324 1.19838 4.06812 -0.0100735 -0.205343 4.07342 -11.958 14 1 
325.333 1.19854 3.99616 -0.0101596 -0.185766 4.00056 -11.6659 14 1 
326.667 1.19882 3.94249 -0.0102497 -0.16897 3.94619 -11.1678 14 1 
328 1.19895 3.89028 -0.0103624 -0.152503 3.89336 -10.929 14 1 
329.333 1.199 3.82616 -0.0104854 -0.136216 3.82867 -10.8367 14 1 
330.667 1.19915 3.76418 -0.010607 -0.123144 3.76626 -10.5727 14 1 
332 1.19931 3.71642 -0.0107224 -0.113066 3.71821 -10.2707 14 1 
333.333 1.19939 3.67256 -0.0108585 -0.103172 3.67408 -10.1269 14 1 
334.667 1.19948 3.62299 -0.0110339 -0.0931964 3.62425 -9.97027 14 1 
336 1.19961 3.57296 -0.0112011 -0.0847619 3.57403 -9.73695 14 1 
337.333 1.19969 3.52862 -0.0113531 -0.0769885 3.52953 -9.58841 14 1 
338.667 1.19975 3.48871 -0.0115239 -0.0703256 3.48947 -9.47581 14 1 
340 1.19986 3.44915 -0.0117174 -0.064306 3.4498 -9.28398 14 1 
341.333 1.19996 3.40954 -0.0119227 -0.058887 3.4101 -9.10463 14 1 
341.333 1.19996 3.40954 -0.0119227 -0.058887 3.4101 -9.10463 15 1 
342.667 1.20001 3.37108 -0.0121267 -0.053146 3.37156 -9.01314 15 1 
344 1.20007 3.33364 -0.0123415 -0.0476443 3.33403 -8.90453 15 1 
345.333 1.20017 3.29909 -0.012563 -0.043765 3.29943 -8.7207 15 1 
346.667 1.20025 3.26658 -0.012796 -0.0401374 3.26688 -8.58416 15 1 
348 1.20029 3.23315 -0.0130785 -0.0361392 3.23341 -8.51217 15 1 
349.333 1.20036 3.20069 -0.0133639 -0.0320707 3.2009 -8.37463 15 1 
350.667 1.20045 3.16948 -0.013618 -0.0287357 3.16966 -8.21697 15 1 
352 1.20049 3.13869 -0.0138787 -0.0261342 3.13886 -8.1381 15 1 
353.333 1.20054 3.11007 -0.0140795 -0.0231534 3.11022 -8.04735 15 1 
354.667 1.20063 3.08248 -0.0141616 -0.0203384 3.0826 -7.89283 15 1 
356 1.2007 3.05409 -0.0142475 -0.0180382 3.05419 -7.7703 15 1 
357.333 1.20074 3.02562 -0.0144802 -0.0156543 3.02572 -7.70077 15 1 
358.667 1.20079 2.99845 -0.014798 -0.0136858 2.99854 -7.59696 15 1 
360 1.20087 2.97314 -0.0150123 -0.0122284 2.97323 -7.45602 15 1 
361.333 1.20093 2.94765 -0.0150807 -0.0112562 2.94773 -7.35753 15 1 
362.667 1.20097 2.92053 -0.0151014 -0.0103955 2.92061 -7.2847 15 1 
362.667 1.20097 2.92053 -0.0151014 -0.0103955 2.92061 -7.2847 15 1 
364 1.20103 2.89387 -0.015174 -0.00903294 2.89394 -7.17571 15 1 
365.333 1.20109 2.86943 -0.0153439 -0.00763591 2.8695 -7.06235 15 1 
366.667 1.20113 2.84607 -0.0155908 -0.0063247 2.84614 -6.98305 15 1 
368 1.20118 2.82163 -0.0158723 -0.00488124 2.8217 -6.90588 15 1 
369.333 1.20123 2.79666 -0.0161666 -0.00329216 2.79673 -6.80641 15 1 
370.667 1.20128 2.77327 -0.0164792 -0.00132982 2.77334 -6.71815 15 1 
372 1.20131 2.75094 -0.016803 0.000595466 2.75101 -6.65925 15 1 
373.333 1.20135 2.72888 -0.017131 0.00211185 2.72895 -6.58689 15 1 
374.667 1.2014 2.70741 -0.0174626 0.00344661 2.70748 -6.49848 15 1 
376 1.20143 2.68576 -0.0178018 0.00519791 2.68584 -6.44028 15 1 
377.333 1.20146 2.66447 -0.018153 0.00738959 2.66456 -6.39121 15 1 
378.667 1.2015 2.645 -0.0185026 0.00918502 2.64509 -6.31689 15 1 
380 1.20154 2.62606 -0.0188476 0.0103921 2.62616 -6.25578 15 1 
381.333 1.20155 2.6066 -0.0191955 0.0117259 2.60671 -6.22271 15 1 
382.667 1.20158 2.58772 -0.0195527 0.0132496 2.58784 -6.17037 15 1 
384 1.20162 2.56968 -0.0199171 0.0144968 2.56981 -6.09826 15 1 
384 1.20162 2.56968 -0.0199171 0.0144968 2.56981 -6.09826 15 1 
385.333 1.20165 2.55219 -0.0202719 0.0153361 2.55233 -6.05181 15 1 
386.667 1.20167 2.53539 -0.0206136 0.0160901 2.53554 -6.02256 15 1 
388 1.20169 2.5188 -0.0209559 0.0165701 2.51895 -5.97709 15 1 
389.333 1.20172 2.50206 -0.0213041 0.0166317 2.50222 -5.9274 15 1 
390.667 1.20174 2.48598 -0.0216345 0.0167711 2.48614 -5.88976 15 1 
392 1.20176 2.47111 -0.0219426 0.0169693 2.47128 -5.84958 15 1 
393.333 1.20179 2.45685 -0.0222537 0.0165625 2.45701 -5.7984 15 1 
394.667 1.20181 2.44258 -0.0225544 0.0156682 2.44274 -5.75397 15 1 
396 1.20183 2.42838 -0.0228286 0.014948 2.42854 -5.72598 15 1 
397.333 1.20185 2.41481 -0.0230933 0.0143724 2.41497 -5.6916 15 1 
398.667 1.20188 2.40267 -0.0233336 0.0133488 2.40283 -5.63998 15 1 
400 1.2019 2.39131 -0.0235474 0.0119783 2.39147 -5.59765 15 1 
401.333 1.20192 2.37961 -0.0237572 0.0109316 2.37976 -5.57054 15 1 
402.667 1.20194 2.36855 -0.0239518 0.0102865 2.3687 -5.53086 15 1 
404 1.20197 2.35911 -0.0241211 0.00952665 2.35925 -5.48009 15 1 
405.333 1.20199 2.35038 -0.0242729 0.00870881 2.35053 -5.44233 15 1 
405.333 1.20199 2.35038 -0.0242729 0.00870881 2.35053 -5.44233 15 1 
406.667 1.20201 2.34204 -0.024411 0.00814831 2.34219 -5.40791 15 1 
408 1.20203 2.33459 -0.024544 0.00761516 2.33474 -5.36044 15 1 
409.333 1.20206 2.32801 -0.0246771 0.00687181 2.32815 -5.31579 15 1 
410.667 1.20208 2.32221 -0.024797 0.00612343 2.32236 -5.28208 15 1 
412 1.2021 2.31736 -0.0248896 0.00544575 2.3175 -5.24319 15 1 
413.333 1.20212 2.31314 -0.0249572 0.00456177 2.31329 -5.19684 15 1 
414.667 1.20215 2.30933 -0.0250263 0.00342075 2.30947 -5.15391 15 1 
416 1.20217 2.30615 -0.0250904 0.00230537 2.30629 -5.11212 15 1 
417.333 1.2022 2.30371 -0.0251364 0.00124537 2.30385 -5.06389 15 1 
418.667 1.20222 2.30186 -0.0251804 0.000162169 2.302 -5.0161 15 1 
420 1.20224 2.30056 -0.0252133 -0.000652059 2.3007 -4.9791 15 1 
421.333 1.20226 2.29979 -0.0252242 -0.000757084 2.29993 -4.94538 15 1 
422.667 1.20229 2.29974 -0.0252337 0.000104653 2.29988 -4.9035 15 1 
424 1.20231 2.30045 -0.025258 0.00194273 2.30059 -4.85887 15 1 
425.333 1.20233 2.3016 -0.0253095 0.00441633 2.30174 -4.81821 15 1 
426.667 1.20236 2.30323 -0.0253955 0.0068848 2.30338 -4.77604 15 1 
426.667 1.20236 2.30323 -0.0253955 0.0068848 2.30338 -4.77604 20 1 
428 1.20238 2.30579 -0.0254969 0.00861732 2.30595 -4.73178 20 1 
429.333 1.2024 2.30921 -0.0255866 0.0091623 2.30937 -4.69513 20 1 
430.667 1.20242 2.31312 -0.0256407 0.00854383 2.31327 -4.6655 20 1 
432 1.20244 2.31755 -0.0256347 0.00714877 2.3177 -4.63252 20 1 
433.333 1.20246 2.32235 -0.0255826 0.00550317 2.3225 -4.59624 20 1 
434.667 1.20247 2.32695 -0.0255354 0.00410315 2.3271 -4.56241 20 1 
436 1.20249 2.33114 -0.0255378 0.00328533 2.33129 -4.52935 20 1 
437.333 1.20251 2.33518 -0.0256087 0.00301848 2.33533 -4.49537 20 1 
438.667 1.20253 2.33934 -0.0257577 0.00304754 2.33949 -4.46441 20 1 
440 1.20254 2.34391 -0.0259711 0.00322032 2.34405 -4.43849 20 1 
441.333 1.20256 2.34913 -0.0261944 0.00336928 2.34928 -4.41276 20 1 
442.667 1.20257 2.35506 -0.0263781 0.00333256 2.35521 -4.38384 20 1 
444 1.20259 2.36152 -0.0264991 0.00316364 2.36167 -4.35514 20 1 
445.333 1.2026 2.36818 -0.026563 0.00300214 2.36833 -4.32826 20 1 
446.667 1.20262 2.37482 -0.0266278 0.00289693 2.37497 -4.29973 20 1 
448 1.20264 2.38138 -0.0267772 0.00282776 2.38153 -4.27014 20 1 
448 1.20264 2.38138 -0.0267772 0.00282776 2.38153 -4.27014 20 1 
449.333 1.20265 2.38797 -0.0270969 0.00274374 2.38813 -4.24349 20 1 
450.667 1.20267 2.39493 -0.0276512 0.0026749 2.39509 -4.21687 20 1 
452 1.20268 2.40278 -0.0284831 0.00257777 2.40295 -4.18668 20 1 
453.333 1.2027 2.41216 -0.0296621 0.0022198 2.41235 -4.15664 20 1 
454.667 1.20271 2.42371 -0.0312236 0.00143563 2.42392 -4.12847 20 1 
456 1.20273 2.43782 -0.0330251 0.000206429 2.43805 -4.09883 20 1 
457.333 1.20275 2.45445 -0.0346814 -0.00179309 2.45471 -4.06748 20 1 
458.667 1.20277 2.47294 -0.0356812 -0.00537211 2.47322 -4.0366 20 1 
460 1.20278 2.49133 -0.0356275 -0.0105919 2.49163 -4.00549 20 1 
461.333 1.2028 2.50595 -0.0344057 -0.0158278 2.50624 -3.97157 20 1 
462.667 1.20282 2.51283 -0.0323901 -0.0190135 2.51312 -3.93652 20 1 
464 1.20284 2.51074 -0.0307803 -0.0190322 2.511 -3.904 20 1 
465.333 1.20286 2.50309 -0.0312762 -0.0163199 2.50335 -3.87172 20 1 
466.667 1.20288 2.49789 -0.0346548 -0.0140804 2.49818 -3.83566 20 1 
468 1.2029 2.50507 -0.0393715 -0.0189251 2.50548 -3.79736 20 1 
469.333 1.20292 2.53126 -0.0422271 -0.0374323 2.53196 -3.75981 20 1 
469.333 1.20292 2.53126 -0.0422271 -0.0374323 2.53196 -3.75981 20 1 
470.667 1.20294 2.57413 -0.041024 -0.0695463 2.57553 -3.72073 20 1 
472 1.20296 2.62117 -0.0364361 -0.105556 2.62366 -3.68046 20 1 
473.333 1.20298 2.65605 -0.0312404 -0.131001 2.65952 -3.64731 20 1 
474.667 1.20299 2.66861 -0.0280326 -0.135713 2.67223 -3.62326 20 1 
476 1.20301 2.65934 -0.0277696 -0.119147 2.6622 -3.60087 20 1 
477.333 1.20302 2.63634 -0.0299454 -0.088138 2.63807 -3.57739 20 1 
478.667 1.20303 2.6091 -0.0335209 -0.0509668 2.60993 -3.55303 20 1 
480 1.20305 2.58437 -0.0375861 -0.0136255 2.58481 -3.52479 20 1 
481.333 1.20307 2.56541 -0.0415228 0.0209635 2.56597 -3.49165 20 1 
482.667 1.20309 2.55302 -0.0449962 0.0519892 2.55409 -3.45436 20 1 
484 1.20311 2.54651 -0.0478626 0.0795297 2.54835 -3.41126 20 1 
485.333 1.20314 2.5444 -0.0501008 0.103921 2.54717 -3.36129 20 1 
486.667 1.20317 2.54516 -0.0517643 0.125621 2.54894 -3.30937 20 1 
488 1.20319 2.54759 -0.052949 0.145092 2.55244 -3.26065 20 1 
489.333 1.20322 2.55081 -0.0537455 0.16272 2.55673 -3.21318 20 1 
490.667 1.20325 2.55409 -0.0541764 0.178797 2.5611 -3.16489 20 1 
490.667 1.20325 2.55409 -0.0541764 0.178797 2.5611 -3.16489 20 1 
492 1.20327 2.55692 -0.0542046 0.19371 2.56501 -3.11825 20 1 
493.333 1.2033 2.55896 -0.0537402 0.207904 2.56814 -3.07309 20 1 
494.667 1.20333 2.55971 -0.0526051 0.221724 2.57002 -3.02484 20 1 
496 1.20335 2.55851 -0.0505602 0.235406 2.56999 -2.97417 20 1 
497.333 1.20338 2.55459 -0.0473569 0.249153 2.56732 -2.92761 20 1 
498.667 1.2034 2.54723 -0.0427583 0.26296 2.5613 -2.88497 20 1 
500 1.20343 2.5358 -0.0365817 0.276452 2.55125 -2.84024 20 1 
501.333 1.20345 2.52001 -0.0287616 0.288868 2.53684 -2.7934 20 1 
502.667 1.20348 2.50039 -0.0194003 0.29902 2.51844 -2.7474 20 1 
504 1.20351 2.47849 -0.00883377 0.305089 2.49739 -2.70012 20 1 
505.333 1.20353 2.4568 0.00230795 0.304681 2.47588 -2.6505 20 1 
506.667 1.20356 2.43847 0.0131335 0.295314 2.45676 -2.60314 20 1 
508 1.20358 2.4269 0.0225662 0.274908 2.44325 -2.55969 20 1 
509.333 1.20361 2.42473 0.0294905 0.242402 2.43813 -2.51649 20 1 
510.667 1.20363 2.43299 0.0329263 0.198411 2.44284 -2.47502 20 1 
512 1.20365 2.45085 0.0322626 0.145419 2.45725 -2.44274 20 1 
512 1.20365 2.45085 0.0322626 0.145419 2.45725 -2.44274 21 1 
513.333 1.20366 2.47612 0.0273965 0.0873186 2.47983 -2.41898 21 1 
514.667 1.20367 2.50598 0.0187073 0.028524 2.50822 -2.39496 21 1 
516 1.20369 2.53784 0.0069394 -0.0269055 2.53989 -2.36926 21 1 
517.333 1.2037 2.56999 -0.00694996 -0.0760093 2.5729 -2.3462 21 1 
518.667 1.20371 2.60185 -0.02197 -0.117252 2.60628 -2.3224 21 1 
520 1.20373 2.6337 -0.0372734 -0.150242 2.6399 -2.29235 21 1 
521.333 1.20375 2.66607 -0.0522025 -0.17527 2.67401 -2.25838 21 1 
522.667 1.20377 2.69951 -0.06627 -0.193037 2.70892 -2.22179 21 1 
524 1.20379 2.73432 -0.0791459 -0.204499 2.74487 -2.17694 21 1 
525.333 1.20382 2.77065 -0.090647 -0.210588 2.78196 -2.12401 21 1 
526.667 1.20385 2.80838 -0.100717 -0.212109 2.82009 -2.07025 21 1 
528 1.20388 2.84728 -0.109355 -0.209854 2.85906 -2.01554 21 1 
529.333 1.20392 2.88707 -0.116628 -0.204592 2.89867 -1.95596 21 1 
530.667 1.20395 2.92756 -0.122653 -0.196995 2.93878 -1.89448 21 1 
532 1.20398 2.96856 -0.127537 -0.187637 2.97927 -1.8358 21 1 
533.333 1.20402 3.00988 -0.131409 -0.177035 3.01999 -1.77666 21 1 
533.333 1.20402 3.00988 -0.131409 -0.177035 3.01999 -1.77666 21 1 
534.667 1.20405 3.05143 -0.134416 -0.1656 3.0609 -1.71271 21 1 
536 1.20409 3.09319 -0.136686 -0.153655 3.102 -1.64941 21 1 
537.333 1.20412 3.13508 -0.138328 -0.141473 3.14326 -1.5908 21 1 
538.667 1.20415 3.1771 -0.13945 -0.129274 3.18468 -1.53226 21 1 
540 1.20418 3.21926 -0.140153 -0.117237 3.22628 -1.47244 21 1 
541.333 1.20422 3.2616 -0.140523 -0.10545 3.2681 -1.41568 21 1 
542.667 1.20425 3.30414 -0.140627 -0.0939873 3.31018 -1.36044 21 1 
544 1.20428 3.34692 -0.140533 -0.082922 3.35255 -1.30158 21 1 
545.333 1.20431 3.38994 -0.140298 -0.0722636 3.3952 -1.24394 21 1 
546.667 1.20434 3.43316 -0.139951 -0.0619931 3.4381 -1.19262 21 1 
548 1.20437 3.4766 -0.139519 -0.0521023 3.48127 -1.14134 21 1 
549.333 1.2044 3.52029 -0.139033 -0.0425983 3.52472 -1.08683 21 1 
550.667 1.20443 3.5642 -0.138525 -0.0334342 3.56843 -1.03594 21 1 
552 1.20445 3.60832 -0.137998 -0.0245835 3.61238 -0.989862 21 1 
553.333 1.20448 3.6526 -0.13746 -0.0160618 3.65652 -0.941404 21 1 
554.667 1.20451 3.69704 -0.136923 -0.00782574 3.70084 -0.891688 21 1 
554.667 1.20451 3.69704 -0.136923 -0.00782574 3.70084 -0.891688 22 1 
556 1.20453 3.74163 -0.136393 0.000190427 3.74534 -0.847014 22 1 
557.333 1.20455 3.78631 -0.135858 0.00798448 3.78995 -0.804862 22 1 
558.667 1.20458 3.831 -0.135315 0.0155393 3.8346 -0.761075 22 1 
560 1.2046 3.87571 -0.13479 0.0229009 3.87927 -0.719549 22 1 
561.333 1.20462 3.92045 -0.134261 0.0301053 3.92399 -0.681937 22 1 
562.667 1.20464 3.96514 -0.133716 0.0371465 3.96868 -0.642432 22 1 
564 1.20467 4.00974 -0.133161 0.044018 4.01329 -0.602455 22 1 
565.333 1.20468 4.0542 -0.13259 0.050754 4.05777 -0.569366 22 1 
566.667 1.2047 4.0985 -0.13199 0.0573656 4.10209 -0.539931 22 1 
568 1.20472 4.14261 -0.131347 0.0638166 4.14624 -0.506571 22 1 
569.333 1.20474 4.18652 -0.130681 0.070133 4.19019 -0.473052 22 1 
570.667 1.20475 4.2302 -0.129974 0.076339 4.23392 -0.445643 22 1 
572 1.20477 4.27355 -0.129213 0.0824174 4.27732 -0.420198 22 1 
573.333 1.20478 4.31655 -0.128406 0.0883274 4.32038 -0.394284 22 1 
574.667 1.20479 4.35922 -0.127553 0.0940942 4.36311 -0.37281 22 1 
576 1.2048 4.40155 -0.126652 0.0997519 4.40551 -0.354546 22 1 
576 1.2048 4.40155 -0.126652 0.0997519 4.40551 -0.354546 22 1 
577.333 1.20482 4.44353 -0.125701 0.105235 4.44755 -0.333442 22 1 
578.667 1.20483 4.4851 -0.124717 0.11053 4.48919 -0.312581 22 1 
580 1.20483 4.52628 -0.123708 0.115659 4.53044 -0.29859 22 1 
581.333 1.20484 4.56707 -0.122674 0.120589 4.5713 -0.287283 22 1 
582.667 1.20485 4.60748 -0.12163 0.125268 4.61177 -0.272982 22 1 
584 1.20486 4.64753 -0.120597 0.129706 4.65189 -0.260119 22 1 
585.333 1.20486 4.68725 -0.119588 0.13389 4.69168 -0.252651 22 1 
586.667 1.20486 4.72666 -0.118606 0.137748 4.73114 -0.244575 22 1 
588 1.20487 4.76577 -0.117664 0.141266 4.7703 -0.233573 22 1 
589.333 1.20487 4.80464 -0.116783 0.14444 4.80922 -0.227577 22 1 
590.667 1.20488 4.84331 -0.115955 0.14724 4.84793 -0.225426 22 1 
592 1.20488 4.88181 -0.115184 0.149594 4.88647 -0.219383 22 1 
593.333 1.20488 4.92022 -0.114483 0.151464 4.9249 -0.211809 22 1 
594.667 1.20488 4.95858 -0.113861 0.152854 4.96327 -0.208659 22 1 
596 1.20489 4.99693 -0.113312 0.153728 5.00161 -0.206307 22 1 
597.333 1.20489 5.03527 -0.11283 0.15405 5.03994 -0.199917 22 1 
597.333 1.20489 5.03527 -0.11283 0.15405 5.03994 -0.199917 24 1 
598.667 1.20489 5.0737 -0.112438 0.153809 5.07834 -0.196615 24 1 
600 1.20489 5.11225 -0.112129 0.152987 5.11685 -0.197287 24 1 
601.333 1.20489 5.15097 -0.111894 0.151534 5.1555 -0.193279 24 1 
602.667 1.2049 5.1899 -0.111749 0.149434 5.19436 -0.185858 24 1 
604 1.2049 5.22904 -0.111703 0.146721 5.23342 -0.181349 24 1 
605.333 1.2049 5.26843 -0.111739 0.143404 5.27271 -0.180129 24 1 
606.667 1.2049 5.30809 -0.111838 0.139414 5.31226 -0.176299 24 1 
608 1.20491 5.34804 -0.112037 0.134779 5.35208 -0.170762 24 1 
609.333 1.20491 5.38835 -0.112323 0.12957 5.39226 -0.167927 24 1 
610.667 1.20491 5.42902 -0.112676 0.123763 5.4328 -0.162058 24 1 
612 1.20492 5.47004 -0.113115 0.117366 5.47368 -0.152896 24 1 
613.333 1.20492 5.51139 -0.113631 0.110422 5.5149 -0.146865 24 1 
614.667 1.20492 5.55311 -0.11421 0.102982 5.55648 -0.144931 24 1 
616 1.20492 5.59521 -0.114844 0.0950506 5.59845 -0.140045 24 1 
617.333 1.20493 5.63769 -0.115533 0.0866939 5.64079 -0.129106 24 1 
618.667 1.20493 5.6806 -0.116281 0.0779753 5.68359 -0.120793 24 1 
618.667 1.20493 5.6806 -0.116281 0.0779753 5.68359 -0.120793 24 1 
620 1.20494 5.72389 -0.117064 0.0688991 5.72677 -0.113383 24 1 
621.333 1.20494 5.76748 -0.117859 0.0595053 5.77026 -0.103219 24 1 
622.667 1.20495 5.81141 -0.118673 0.049871 5.81411 -0.0949532 24 1 
624 1.20495 5.85568 -0.119489 0.0400663 5.8583 -0.0886829 24 1 
625.333 1.20496 5.90033 -0.120286 0.0301263 5.9029 -0.0795659 24 1 
626.667 1.20496 5.94525 -0.121075 0.0200726 5.94777 -0.0651479 24 1 
628 1.20497 5.99044 -0.121836 0.00999099 5.99294 -0.0546723 24 1 
629.333 1.20497 6.03585 -0.122552 -9.36333e-05 6.03834 -0.0478988 24 1 
630.667 1.20498 6.08144 -0.123204 -0.0101517 6.08393 -0.0382969 24 1 
632 1.20498 6.12721 -0.123789 -0.0201165 6.12972 -0.0282698 24 1 
633.333 1.20499 6.17308 -0.124301 -0.0299783 6.17561 -0.0202556 24 1 
634.667 1.20499 6.21911 -0.124727 -0.0396847 6.22167 -0.0131715 24 1 
636 1.205 6.26508 -0.125063 -0.0492282 6.2677 -0.00136404 24 1 
637.333 1.205 6.31106 -0.125307 -0.0585457 6.31373 0.00687131 24 1 
638.667 1.205 6.35699 -0.125455 -0.0676586 6.35973 0.00893575 24 1 
640 1.20501 6.40277 -0.125479 -0.0765805 6.40557 0.0141852 24 1 
640 1.20501 6.40277 -0.125479 -0.0765805 6.40557 0.0141852 24 1 
641.333 1.20501 6.44841 -0.125395 -0.0852593 6.45128 0.021569 24 1 
642.667 1.20501 6.49384 -0.125231 -0.0936685 6.4968 0.0247153 24 1 
644 1.20501 6.53908 -0.124944 -0.101825 6.54211 0.0254976 24 1 
645.333 1.20502 6.58395 -0.124564 -0.109722 6.58706 0.0321842 24 1 
646.667 1.20502 6.62856 -0.124115 -0.117377 6.63176 0.0348525 24 1 
648 1.20502 6.67281 -0.123574 -0.124783 6.67609 0.0314547 24 1 
649.333 1.20502 6.71655 -0.122935 -0.131927 6.71992 0.0306987 24 1 
650.667 1.20502 6.75998 -0.122231 -0.138827 6.76343 0.0300838 24 1 
652 1.20502 6.8029 -0.121482 -0.145459 6.80643 0.0297528 24 1 
653.333 1.20501 6.84535 -0.120676 -0.151846 6.84897 0.0267416 24 1 
654.667 1.20501 6.88735 -0.119831 -0.157982 6.89105 0.0236419 24 1 
656 1.20501 6.92862 -0.11894 -0.163883 6.9324 0.0221298 24 1 
657.333 1.20501 6.96942 -0.118036 -0.169501 6.97328 0.0132559 24 1 
658.667 1.205 7.00963 -0.117112 -0.174841 7.01356 0.00440875 24 1 
660 1.205 7.04913 -0.116162 -0.179932 7.05314 0.000201735 24 1 
661.333 1.205 7.08812 -0.115228 -0.184752 7.09219 -0.00604115 24 1 
661.333 1.205 7.08812 -0.115228 -0.184752 7.09219 -0.00604115 24 1 
662.667 1.20499 7.12635 -0.11429 -0.189255 7.13049 -0.0139397 24 1 
664 1.20499 7.16391 -0.113349 -0.193462 7.1681 -0.0237677 24 1 
665.333 1.20498 7.20073 -0.112401 -0.197364 7.20497 -0.0316941 24 1 
666.667 1.20498 7.23674 -0.111463 -0.200906 7.24103 -0.0430052 24 1 
668 1.20497 7.27209 -0.11051 -0.204136 7.27641 -0.0584448 24 1 
669.333 1.20496 7.30652 -0.109559 -0.206981 7.31088 -0.0688524 24 1 
670.667 1.20496 7.34023 -0.108609 -0.209463 7.3446 -0.0803089 24 1 
672 1.20495 7.37307 -0.107656 -0.211523 7.37745 -0.093196 24 1 
673.333 1.20494 7.40501 -0.106687 -0.213191 7.40939 -0.109723 24 1 
674.667 1.20493 7.43612 -0.105675 -0.214505 7.44049 -0.125084 24 1 
676 1.20492 7.46622 -0.104692 -0.215326 7.47056 -0.138599 24 1 
677.333 1.20491 7.49553 -0.103684 -0.215753 7.49984 -0.159357 24 1 
678.667 1.2049 7.52383 -0.10263 -0.215772 7.5281 -0.175383 24 1 
680 1.20489 7.55123 -0.101558 -0.215321 7.55544 -0.190605 24 1 
681.333 1.20489 7.57767 -0.100472 -0.214483 7.58181 -0.205522 24 1 
682.667 1.20487 7.60318 -0.0993387 -0.213234 7.60724 -0.227026 24 1 
682.667 1.20487 7.60318 -0.0993387 -0.213234 7.60724 -0.227026 31 1 
684 1.20486 7.62785 -0.0981235 -0.21157 7.63182 -0.249472 31 1 
685.333 1.20486 7.65142 -0.09689 -0.209504 7.6553 -0.259347 31 1 
686.667 1.20484 7.67438 -0.0956402 -0.20698 7.67814 -0.280983 31 1 
688 1.20483 7.69637 -0.0943177 -0.204159 7.70002 -0.298095 31 1 
689.333 1.20483 7.7175 -0.0929319 -0.20096 7.72103 -0.310947 31 1 
690.667 1.20482 7.73793 -0.0915262 -0.197388 7.74132 -0.329033 31 1 
692 1.20481 7.75751 -0.0900829 -0.193573 7.76077 -0.34829 31 1 
693.333 1.20479 7.77662 -0.0885577 -0.189428 7.77974 -0.372521 31 1 
694.667 1.20479 7.79496 -0.0870203 -0.185026 7.79794 -0.380126 31 1 
696 1.20478 7.8129 -0.0854517 -0.180367 7.81573 -0.396157 31 1 
697.333 1.20477 7.83038 -0.083808 -0.175536 7.83307 -0.41821 31 1 
698.667 1.20476 7.84729 -0.0821052 -0.170484 7.84983 -0.430126 31 1 
700 1.20475 7.86401 -0.080351 -0.165299 7.86641 -0.450324 31 1 
701.333 1.20474 7.88041 -0.0785876 -0.16004 7.88266 -0.47035 31 1 
702.667 1.20473 7.89675 -0.0767663 -0.15464 7.89887 -0.494888 31 1 
704 1.20472 7.91302 -0.0748803 -0.149189 7.91499 -0.508307 31 1 
704 1.20472 7.91302 -0.0748803 -0.149189 7.91499 -0.508307 31 1 
705.333 1.20471 7.92928 -0.0730076 -0.143642 7.93112 -0.521405 31 1 
706.667 1.20469 7.9458 -0.0711021 -0.138151 7.94752 -0.553582 31 1 
708 1.20468 7.96227 -0.0691487 -0.132645 7.96386 -0.571304 31 1 
709.333 1.20467 7.97918 -0.0671723 -0.127183 7.98065 -0.593033 31 1 
710.667 1.20466 7.9965 -0.0651981 -0.121827 7.99786 -0.620049 31 1 
712 1.20464 8.01424 -0.0632618 -0.116527 8.0155 -0.643303 31 1 
713.333 1.20463 8.03271 -0.0613233 -0.11131 8.03386 -0.667967 31 1 
714.667 1.20462 8.05154 -0.0594347 -0.10615 8.05259 -0.682904 31 1 
716 1.2046 8.07135 -0.0576505 -0.101141 8.07232 -0.717897 31 1 
717.333 1.20459 8.09184 -0.0559919 -0.0962615 8.09273 -0.745502 31 1 
718.667 1.20458 8.11314 -0.0544392 -0.0914401 8.11396 -0.760248 31 1 
720 1.20456 8.13571 -0.0530542 -0.0865545 8.13645 -0.7906 31 1 
721.333 1.20455 8.15921 -0.0518766 -0.0817086 8.15989 -0.811959 31 1 
722.667 1.20454 8.18399 -0.0509775 -0.0768547 8.18462 -0.831149 31 1 
724 1.20453 8.20987 -0.0503531 -0.071986 8.21044 -0.845732 31 1 
725.333 1.20452 8.23706 -0.0500079 -0.0669009 8.23759 -0.869989 31 1 
725.333 1.20452 8.23706 -0.0500079 -0.0669009 8.23759 -0.869989 31 1 
726.667 1.2045 8.26567 -0.0499749 -0.0615842 8.26615 -0.898736 31 1 
728 1.2045 8.29548 -0.0502702 -0.056146 8.29592 -0.901512 31 1 
729.333 1.20449 8.32682 -0.0509216 -0.0502359 8.32723 -0.917258 31 1 
730.667 1.20448 8.35962 -0.0518366 -0.0440895 8.36 -0.936698 31 1 
732 1.20448 8.39334 -0.0530568 -0.0376179 8.3937 -0.938332 31 1 
733.333 1.20447 8.42817 -0.0544142 -0.0307553 8.42852 -0.950677 31 1 
734.667 1.20447 8.4639 -0.0560429 -0.0235335 8.46423 -0.966227 31 1 
736 1.20446 8.50002 -0.0579045 -0.015898 8.50035 -0.979343 31 1 
737.333 1.20445 8.5367 -0.0597722 -0.00804599 8.53705 -0.988022 31 1 
738.667 1.20445 8.57349 -0.0618504 0.000109751 8.57386 -0.996388 31 1 
740 1.20444 8.61004 -0.0639567 0.00831213 8.61044 -1.01086 31 1 
741.333 1.20443 8.64624 -0.0660922 0.0165947 8.64668 -1.02152 31 1 
742.667 1.20443 8.68182 -0.0683299 0.0248503 8.68231 -1.03625 31 1 
744 1.20442 8.71679 -0.0705043 0.03285 8.71734 -1.0541 31 1 
745.333 1.20441 8.75106 -0.0727613 0.0407726 8.75167 -1.07373 31 1 
746.667 1.2044 8.78461 -0.0751016 0.048248 8.7853 -1.0918 31 1 
746.667 1.2044 8.78461 -0.0751016 0.048248 8.7853 -1.0918 31 1 
748 1.20439 8.8174 -0.077432 0.0554187 8.81816 -1.10192 31 1 
749.333 1.20438 8.84933 -0.0797207 0.0620439 8.85017 -1.11929 31 1 
750.667 1.20437 8.88081 -0.0819103 0.0679617 8.88173 -1.14511 31 1 
752 1.20436 8.91127 -0.0840812 0.0731341 8.91226 -1.15627 31 1 
753.333 1.20435 8.94135 -0.0862238 0.0776814 8.94241 -1.17631 31 1 
754.667 1.20434 8.9709 -0.0881002 0.0814505 8.97202 -1.1937 31 1 
756 1.20434 8.99931 -0.0897784 0.0842597 9.00048 -1.19466 31 1 
757.333 1.20433 9.02799 -0.0913488 0.086415 9.0292 -1.21313 31 1 
758.667 1.20433 9.05506 -0.0928381 0.088019 9.05631 -1.20687 31 1 
760 1.20433 9.08182 -0.0940326 0.0887798 9.08309 -1.21675 31 1 
761.333 1.20432 9.10844 -0.0949372 0.0888102 9.10972 -1.22633 31 1 
762.667 1.20433 9.13344 -0.0956029 0.0883003 9.13472 -1.20393 31 1 
764 1.20433 9.15873 -0.0959823 0.0871161 9.16 -1.21203 31 1 
765.333 1.20433 9.18298 -0.0963574 0.0858823 9.18424 -1.20399 31 1 
766.667 1.20434 9.20642 -0.0966394 0.0840478 9.20765 -1.1888 31 1 
768 1.20434 9.22945 -0.0966066 0.0821505 9.23066 -1.18676 31 1 
768 1.20434 9.22945 -0.0966066 0.0821505 9.23066 -1.18676 32 1 
769.333 1.20435 9.25162 -0.0963418 0.0802653 9.25279 -1.18003 32 1 
770.667 1.20435 9.27402 -0.0960079 0.0778398 9.27516 -1.17958 32 1 
772 1.20436 9.29482 -0.0956398 0.075842 9.29593 -1.1581 32 1 
773.333 1.20436 9.31539 -0.0950412 0.0737759 9.31646 -1.16324 32 1 
774.667 1.20435 9.33604 -0.0945092 0.0718074 9.33708 -1.17234 32 1 
776 1.20437 9.35469 -0.0937049 0.0698614 9.3557 -1.14334 32 1 
777.333 1.20435 9.37453 -0.0929304 0.0681102 9.37551 -1.17119 32 1 
778.667 1.20435 9.39308 -0.0922661 0.0672764 9.39403 -1.17294 32 1 
780 1.20437 9.41027 -0.0912559 0.066007 9.41118 -1.14451 32 1 
781.333 1.20435 9.42842 -0.0899922 0.0650918 9.4293 -1.17185 32 1 
782.667 1.20435 9.44518 -0.0887169 0.0642309 9.44603 -1.16888 32 1 
784 1.20437 9.46124 -0.0877065 0.0641783 9.46208 -1.1346 32 1 
785.333 1.20437 9.47687 -0.0866468 0.064463 9.47769 -1.13566 32 1 
786.667 1.20437 9.49189 -0.085477 0.0645287 9.49268 -1.13834 32 1 
788 1.2044 9.50568 -0.0838697 0.0656435 9.50645 -1.07982 32 1 
789.333 1.20442 9.5201 -0.0822162 0.0670698 9.52086 -1.04743 32 1 
790.667 1.20444 9.5335 -0.0807553 0.0690226 9.53425 -1.01885 32 1 
792 1.20448 9.54386 -0.0789973 0.0711827 9.5446 -0.943199 32 1 
793.333 1.20449 9.55606 -0.0771185 0.0742695 9.5568 -0.926607 32 1 
794.667 1.20454 9.56646 -0.075589 0.0773371 9.5672 -0.832185 32 1 
796 1.20461 9.57534 -0.0735802 0.0802419 9.57608 -0.701154 32 1 
797.333 1.20465 9.58298 -0.070698 0.0842887 9.58372 -0.635398 32 1 
798.667 1.20472 9.58546 -0.0657115 0.0883424 9.58619 -0.505857 32 1 
800 1.20477 9.58589 -0.0622846 0.0901651 9.58659 -0.420213 32 1 
