19.9242;r ;Density                 ;Velocity u              ;Velocity v              ;Velocity w              ;|Velocity|              ;Pressure                ;Distribution            ;Levels                  ;
0 1.20424 10.0004 1.11158e-05 0.000929292 10.0004 -1.36534 1 1 
1.33334 1.20424 10.0008 1.69187e-05 0.000469522 10.0008 -1.37962 1 1 
2.66666 1.20423 10.0011 7.52098e-05 0.000312188 10.0011 -1.38517 1 1 
4 1.20424 10.0008 0.000140907 0.000187977 10.0008 -1.37167 1 1 
5.33334 1.20424 10.0004 0.000172459 0.000246796 10.0004 -1.37869 1 1 
6.66666 1.20424 9.99994 0.000190743 0.000353976 9.99994 -1.37844 1 1 
8 1.20424 9.99989 0.000213981 0.000204519 9.99989 -1.37732 1 1 
9.33334 1.20423 10.0003 0.000245292 -7.42695e-05 10.0003 -1.39493 1 1 
10.6667 1.20423 10.0001 0.000266615 2.99229e-05 10.0001 -1.38709 1 1 
12 1.20424 10.0001 0.000281718 -9.36557e-05 10.0001 -1.37775 1 1 
13.3333 1.20423 10.0005 0.000285059 -8.39453e-06 10.0005 -1.39263 1 1 
14.6667 1.20424 10 0.000309232 0.000413097 10 -1.37272 1 1 
16 1.20428 9.99934 0.000345652 0.000639874 9.99934 -1.30938 1 1 
17.3333 1.20426 9.99944 0.000367402 0.000733379 9.99944 -1.32767 1 1 
18.6667 1.20421 10.0002 0.000395303 -0.000262144 10.0002 -1.41984 1 1 
20 1.20421 10 0.000412169 -0.000397777 10 -1.42967 1 1 
21.3333 1.20424 9.99897 0.000409788 0.000479637 9.99897 -1.36582 1 1 
21.3333 1.20424 9.99897 0.000409788 0.000479637 9.99897 -1.36582 1 1 
22.6667 1.20426 9.99867 0.00042215 0.000517488 9.99867 -1.33959 1 1 
24 1.20424 9.99904 0.00043564 0.000227135 9.99904 -1.37866 1 1 
25.3333 1.20422 9.99942 0.000436319 -0.000227366 9.99942 -1.40567 1 1 
26.6667 1.20424 9.99929 0.000436126 -0.000217822 9.99929 -1.38049 1 1 
28 1.20426 9.9989 0.000448165 0.000382816 9.9989 -1.33338 1 1 
29.3333 1.20427 9.99851 0.000483234 0.000668637 9.99851 -1.31411 1 1 
30.6667 1.20425 9.99869 0.00050411 -3.14558e-05 9.99869 -1.36289 1 1 
32 1.20421 9.99901 0.000489659 -0.000776624 9.99901 -1.41936 1 1 
33.3333 1.20422 9.99857 0.000464686 -0.000166951 9.99857 -1.4035 1 1 
34.6667 1.20426 9.99764 0.000451365 1.97618e-05 9.99764 -1.34221 1 1 
36 1.20426 9.99719 0.000455137 -5.50961e-05 9.99719 -1.33371 1 1 
37.3333 1.20423 9.99802 0.000470568 0.00034004 9.99802 -1.38433 1 1 
38.6667 1.20422 9.99892 0.000468889 0.000187305 9.99892 -1.40577 1 1 
40 1.20424 9.99862 0.000471955 -0.000433532 9.99862 -1.37616 1 1 
41.3333 1.20426 9.99766 0.000474746 -9.09425e-05 9.99766 -1.34444 1 1 
42.6667 1.20426 9.99697 0.000437592 0.000867033 9.99697 -1.33469 1 1 
42.6667 1.20426 9.99697 0.000437592 0.000867033 9.99697 -1.33469 2 1 
44 1.20425 9.99714 0.000403617 -1.07031e-05 9.99714 -1.3523 2 1 
45.3333 1.20422 9.99811 0.000400096 -0.000828533 9.99811 -1.41017 2 1 
46.6667 1.20421 9.9986 0.000424147 -0.000308495 9.9986 -1.43484 2 1 
48 1.20425 9.99741 0.00044747 -0.0002553 9.99741 -1.36128 2 1 
49.3333 1.20428 9.99615 0.000446064 -0.000293265 9.99615 -1.29659 2 1 
50.6667 1.20426 9.99666 0.00037622 0.000225576 9.99666 -1.33014 2 1 
52 1.20423 9.99773 0.000330781 1.35154e-05 9.99773 -1.39964 2 1 
53.3333 1.20421 9.99775 0.000385292 -0.000747883 9.99775 -1.42768 2 1 
54.6667 1.20422 9.99689 0.000423308 -0.000392413 9.99689 -1.41392 2 1 
56 1.20425 9.99612 0.000416507 0.000212238 9.99612 -1.35805 2 1 
57.3333 1.20428 9.99602 0.000454566 -0.000289 9.99602 -1.304 2 1 
58.6667 1.20424 9.99707 0.000473894 -0.000790084 9.99707 -1.36728 2 1 
60 1.2042 9.99796 0.000341431 4.52307e-05 9.99796 -1.44659 2 1 
61.3333 1.20422 9.99714 0.000203504 5.98254e-05 9.99714 -1.40174 2 1 
62.6667 1.20427 9.99579 0.000224339 -0.00103743 9.99579 -1.32449 2 1 
64 1.20427 9.99532 0.000222803 -0.000129417 9.99532 -1.32268 2 1 
64 1.20427 9.99532 0.000222803 -0.000129417 9.99532 -1.32268 2 1 
65.3333 1.20422 9.99678 7.957e-05 0.000657531 9.99678 -1.4173 2 1 
66.6667 1.20418 9.99805 7.05725e-06 -0.00124073 9.99805 -1.47261 2 1 
68 1.20422 9.99659 8.85347e-05 -0.00181392 9.99659 -1.39993 2 1 
69.3333 1.20426 9.9952 7.52492e-05 0.000112005 9.9952 -1.32921 2 1 
70.6667 1.20426 9.99544 -4.87211e-05 0.0007779 9.99544 -1.33485 2 1 
72 1.20422 9.99621 2.01611e-05 -0.00140942 9.99621 -1.40677 2 1 
73.3333 1.20419 9.99682 0.000207855 -0.00218026 9.99682 -1.47181 2 1 
74.6667 1.20422 9.99566 0.000183223 0.0013866 9.99566 -1.4177 2 1 
76 1.20426 9.99419 0.000102526 0.00234415 9.99419 -1.34101 2 1 
77.3333 1.20424 9.99473 0.000326471 -0.00174191 9.99473 -1.38027 2 1 
78.6667 1.20419 9.99629 0.000553649 -0.00232646 9.99629 -1.46018 2 1 
80 1.20419 9.99732 0.000276907 0.00110449 9.99732 -1.46088 2 1 
81.3333 1.20423 9.99665 -0.000154772 0.00242965 9.99665 -1.38843 2 1 
82.6667 1.20426 9.99527 1.56647e-05 -0.0010111 9.99527 -1.33838 2 1 
84 1.20424 9.99565 0.000540703 -0.00414106 9.99565 -1.37954 2 1 
85.3333 1.20419 9.99693 0.000528484 -0.000865207 9.99693 -1.46815 2 1 
85.3333 1.20419 9.99693 0.000528484 -0.000865207 9.99693 -1.46815 3 1 
86.6667 1.20417 9.99642 8.98846e-05 0.00278297 9.99642 -1.50188 3 1 
88 1.2042 9.9941 0.000253933 0.000256326 9.9941 -1.44195 3 1 
89.3333 1.20425 9.99166 0.00136062 -0.00349934 9.99166 -1.35441 3 1 
90.6667 1.20423 9.99207 0.00232836 -0.00301768 9.99208 -1.39702 3 1 
92 1.20417 9.99465 0.00218239 0.0020523 9.99465 -1.49667 3 1 
93.3333 1.20419 9.99556 0.00141991 0.00522312 9.99556 -1.45838 3 1 
94.6667 1.20423 9.99491 0.00110293 0.0032089 9.99491 -1.39229 3 1 
96 1.20422 9.99399 0.0013631 0.000422506 9.99399 -1.40585 3 1 
97.3333 1.20419 9.99418 0.00137573 -0.000632564 9.99418 -1.46625 3 1 
98.6667 1.20417 9.99532 0.000564958 0.000591843 9.99532 -1.49121 3 1 
100 1.2042 9.99576 -0.000576719 0.00186033 9.99576 -1.44705 3 1 
101.333 1.20422 9.99494 -0.00110634 0.00163976 9.99494 -1.41013 3 1 
102.667 1.20422 9.99348 -0.000661155 0.000512015 9.99348 -1.40142 3 1 
104 1.20419 9.99253 0.000398389 -0.000758002 9.99253 -1.45549 3 1 
105.333 1.20416 9.99175 0.00143065 -0.000934758 9.99175 -1.52238 3 1 
106.667 1.20417 9.99114 0.00205452 -0.000405915 9.99114 -1.4915 3 1 
106.667 1.20417 9.99114 0.00205452 -0.000405915 9.99114 -1.4915 3 1 
108 1.20422 9.99057 0.00227922 0.000263465 9.99057 -1.41205 3 1 
109.333 1.20421 9.99121 0.00232206 0.000803122 9.99121 -1.42224 3 1 
110.667 1.20417 9.99326 0.00231001 0.00110574 9.99326 -1.49916 3 1 
112 1.20418 9.99355 0.00229693 0.00170992 9.99355 -1.48147 3 1 
113.333 1.20421 9.9922 0.00230874 0.00240647 9.9922 -1.42671 3 1 
114.667 1.2042 9.99182 0.0023263 0.00272846 9.99182 -1.45261 3 1 
116 1.20419 9.99155 0.00233539 0.00228058 9.99156 -1.46357 3 1 
117.333 1.20418 9.9914 0.0023368 0.00154672 9.9914 -1.48639 3 1 
118.667 1.20414 9.99262 0.00236099 0.00143419 9.99262 -1.55035 3 1 
120 1.20419 9.99148 0.00239624 0.0019389 9.99148 -1.46583 3 1 
121.333 1.20423 9.99024 0.00242055 0.00242604 9.99024 -1.38273 3 1 
122.667 1.20419 9.99136 0.00242868 0.00246209 9.99136 -1.45439 3 1 
124 1.20417 9.99093 0.00242988 0.00228683 9.99093 -1.50193 3 1 
125.333 1.20416 9.99072 0.00242214 0.00212896 9.99072 -1.51019 3 1 
126.667 1.20417 9.99101 0.00242348 0.0019528 9.99101 -1.49291 3 1 
128 1.20421 9.98933 0.0024552 0.00210739 9.98933 -1.42904 3 1 
128 1.20421 9.98933 0.0024552 0.00210739 9.98933 -1.42904 3 1 
129.333 1.2042 9.98936 0.00248067 0.00218939 9.98936 -1.43652 3 1 
130.667 1.20418 9.99014 0.00249498 0.00268796 9.99014 -1.47495 3 1 
132 1.20419 9.989 0.00251932 0.0027591 9.989 -1.46402 3 1 
133.333 1.20417 9.98928 0.00255473 0.00255693 9.98928 -1.49822 3 1 
134.667 1.20418 9.98889 0.00257212 0.00252872 9.9889 -1.47791 3 1 
136 1.20421 9.98796 0.00256124 0.00236142 9.98796 -1.43241 3 1 
137.333 1.20418 9.98851 0.00256115 0.0021542 9.98851 -1.47966 3 1 
138.667 1.20418 9.98826 0.0025884 0.00239242 9.98826 -1.48433 3 1 
140 1.2042 9.98755 0.00261379 0.00307325 9.98755 -1.44019 3 1 
141.333 1.20419 9.98728 0.00263314 0.00294763 9.98728 -1.45616 3 1 
142.667 1.20417 9.98736 0.0026452 0.00247144 9.98736 -1.50357 3 1 
144 1.20418 9.98739 0.00264569 0.00234226 9.98739 -1.48861 3 1 
145.333 1.20419 9.98664 0.00265323 0.00260394 9.98664 -1.46684 3 1 
146.667 1.20417 9.98668 0.00266956 0.00279326 9.98668 -1.50441 3 1 
148 1.20417 9.98654 0.00271142 0.00310442 9.98654 -1.4922 3 1 
149.333 1.2042 9.98537 0.00275583 0.00313249 9.98537 -1.45263 3 1 
149.333 1.2042 9.98537 0.00275583 0.00313249 9.98537 -1.45263 3 1 
150.667 1.20415 9.98605 0.00277547 0.00256625 9.98605 -1.53406 3 1 
152 1.20413 9.98615 0.00278208 0.00250568 9.98615 -1.5765 3 1 
153.333 1.20418 9.98452 0.00279218 0.00252446 9.98452 -1.48869 3 1 
154.667 1.20417 9.98532 0.00280602 0.00340785 9.98532 -1.50059 3 1 
156 1.20415 9.98561 0.00283009 0.0032367 9.98562 -1.54177 3 1 
157.333 1.20417 9.98432 0.00285746 0.00250008 9.98433 -1.49002 3 1 
158.667 1.20416 9.9848 0.00289093 0.00304888 9.9848 -1.51067 3 1 
160 1.20414 9.98374 0.00292193 0.00240964 9.98374 -1.54905 3 1 
161.333 1.20414 9.98259 0.00292794 0.00275062 9.9826 -1.55357 3 1 
162.667 1.20414 9.9829 0.00295236 0.00334606 9.9829 -1.55736 3 1 
164 1.20416 9.9819 0.00297412 0.00292358 9.9819 -1.52522 3 1 
165.333 1.20415 9.98203 0.00298061 0.00347436 9.98203 -1.52841 3 1 
166.667 1.20418 9.98156 0.00300203 0.00314286 9.98156 -1.48629 3 1 
168 1.20419 9.97975 0.00304548 0.0030669 9.97976 -1.45418 3 1 
169.333 1.20414 9.98027 0.00307431 0.00322958 9.98027 -1.55395 3 1 
170.667 1.20413 9.97962 0.0030856 0.00247844 9.97962 -1.56911 3 1 
170.667 1.20413 9.97962 0.0030856 0.00247844 9.97962 -1.56911 11 1 
172 1.20417 9.97825 0.00310112 0.00281028 9.97825 -1.49485 11 1 
173.333 1.20418 9.97831 0.00315251 0.0035407 9.97832 -1.48976 11 1 
174.667 1.20418 9.97732 0.00319383 0.00363051 9.97732 -1.47881 11 1 
176 1.2042 9.9758 0.00319657 0.0036353 9.9758 -1.44412 11 1 
177.333 1.20417 9.9752 0.00320459 0.00347489 9.9752 -1.4906 11 1 
178.667 1.20414 9.97477 0.00319215 0.00296427 9.97478 -1.55704 11 1 
180 1.20416 9.97423 0.00320101 0.00319778 9.97423 -1.5217 11 1 
181.333 1.2042 9.97361 0.00323341 0.00368778 9.97362 -1.44057 11 1 
182.667 1.20421 9.97277 0.00329278 0.00364972 9.97277 -1.43156 11 1 
184 1.20419 9.97165 0.00331976 0.00360103 9.97165 -1.46819 11 1 
185.333 1.20419 9.96984 0.00330862 0.00349136 9.96984 -1.47105 11 1 
186.667 1.20417 9.96846 0.00331366 0.00348719 9.96846 -1.49731 11 1 
188 1.20415 9.96852 0.00332556 0.00320817 9.96852 -1.53517 11 1 
189.333 1.20419 9.96836 0.00337809 0.0031654 9.96836 -1.46993 11 1 
190.667 1.20423 9.96683 0.00342288 0.00385646 9.96683 -1.39051 11 1 
192 1.2042 9.96569 0.00343811 0.00407764 9.96569 -1.4403 11 1 
192 1.2042 9.96569 0.00343811 0.00407764 9.96569 -1.4403 11 1 
193.333 1.20419 9.9642 0.00342621 0.00456987 9.9642 -1.47071 11 1 
194.667 1.20422 9.9617 0.00341805 0.00447689 9.9617 -1.41207 11 1 
196 1.2042 9.96043 0.00344028 0.00340739 9.96044 -1.44388 11 1 
197.333 1.20418 9.95965 0.00345444 0.00324432 9.95965 -1.47466 11 1 
198.667 1.20424 9.95746 0.00352178 0.00311786 9.95746 -1.36839 11 1 
200 1.20426 9.95588 0.00353897 0.00390736 9.95588 -1.33126 11 1 
201.333 1.20423 9.9551 0.00352861 0.00545599 9.9551 -1.39916 11 1 
202.667 1.20424 9.95307 0.00355435 0.00539865 9.95307 -1.36876 11 1 
204 1.20426 9.95103 0.00355828 0.00462935 9.95104 -1.33651 11 1 
205.333 1.20424 9.94882 0.00358316 0.0036594 9.94882 -1.37417 11 1 
206.667 1.20427 9.94625 0.00364481 0.00246377 9.94625 -1.32176 11 1 
208 1.20432 9.94448 0.00366739 0.00348638 9.94448 -1.22386 11 1 
209.333 1.20433 9.94165 0.00366962 0.00497065 9.94166 -1.21219 11 1 
210.667 1.2043 9.93867 0.00368892 0.00499331 9.93867 -1.27211 11 1 
212 1.2043 9.9368 0.00366156 0.00664911 9.9368 -1.26624 11 1 
213.333 1.20436 9.93331 0.00364596 0.00554201 9.93332 -1.15176 11 1 
213.333 1.20436 9.93331 0.00364596 0.00554201 9.93332 -1.15176 11 1 
214.667 1.20436 9.93094 0.00369784 0.00347882 9.93094 -1.1579 11 1 
216 1.20434 9.93012 0.00378871 0.00476924 9.93012 -1.18495 11 1 
217.333 1.20444 9.92519 0.0038028 0.0032174 9.92519 -1.01001 11 1 
218.667 1.20443 9.92115 0.00382127 0.00373291 9.92115 -1.02552 11 1 
220 1.20438 9.91857 0.00380191 0.00673986 9.91857 -1.1272 11 1 
221.333 1.20447 9.91193 0.00377437 0.00590635 9.91193 -0.962156 11 1 
222.667 1.20448 9.90879 0.00377083 0.00651667 9.90879 -0.941599 11 1 
224 1.20446 9.90675 0.00379191 0.00636956 9.90675 -0.978403 11 1 
225.333 1.20455 9.90111 0.00386438 0.0041573 9.90112 -0.815811 11 1 
226.667 1.20459 9.89854 0.00391465 0.00585339 9.89854 -0.743129 11 1 
228 1.20458 9.89386 0.00392405 0.00610002 9.89386 -0.757056 11 1 
229.333 1.20458 9.88638 0.00388023 0.00575958 9.88638 -0.749884 11 1 
230.667 1.20462 9.88104 0.00383005 0.00758676 9.88104 -0.682205 11 1 
232 1.20469 9.87364 0.00384966 0.00654143 9.87364 -0.566268 11 1 
233.333 1.2047 9.86825 0.00391213 0.00775268 9.86825 -0.547888 11 1 
234.667 1.20475 9.86437 0.0039484 0.00806837 9.86437 -0.446725 11 1 
234.667 1.20475 9.86437 0.0039484 0.00806837 9.86437 -0.446725 11 1 
236 1.20484 9.85644 0.00398351 0.00652392 9.85644 -0.284416 11 1 
237.333 1.20482 9.84952 0.00390884 0.00801569 9.84953 -0.33272 11 1 
238.667 1.20484 9.84106 0.00382812 0.00786562 9.84107 -0.282061 11 1 
240 1.20496 9.83073 0.0038632 0.00936319 9.83074 -0.0697236 11 1 
241.333 1.205 9.82333 0.00390956 0.0111209 9.82334 0.00072715 11 1 
242.667 1.20502 9.81574 0.00394655 0.00946426 9.81575 0.044483 11 1 
244 1.20513 9.80555 0.0039461 0.00988379 9.80555 0.227229 11 1 
245.333 1.20521 9.79404 0.00383172 0.010845 9.79405 0.376942 11 1 
246.667 1.20521 9.78255 0.00383625 0.0122861 9.78256 0.381541 11 1 
248 1.20528 9.77026 0.00390632 0.0136618 9.77027 0.497285 11 1 
249.333 1.20543 9.75728 0.00384928 0.0137604 9.75729 0.775954 11 1 
250.667 1.20551 9.74459 0.00384024 0.0152223 9.7446 0.916688 11 1 
252 1.20555 9.73086 0.00380707 0.0156542 9.73088 0.986189 11 1 
253.333 1.2057 9.71379 0.00376151 0.0161207 9.71381 1.25824 11 1 
254.667 1.20581 9.69595 0.00381169 0.0189997 9.69598 1.46938 11 1 
256 1.20584 9.67911 0.00378092 0.0209853 9.67913 1.51458 11 1 
256 1.20584 9.67911 0.00378092 0.0209853 9.67913 1.51458 13 1 
257.333 1.206 9.66033 0.00369882 0.0220387 9.66036 1.80785 13 1 
258.667 1.20622 9.63861 0.00370063 0.0251106 9.63865 2.20404 13 1 
260 1.20629 9.6165 0.00369548 0.0264328 9.61654 2.32469 13 1 
261.333 1.20639 9.59277 0.00366935 0.0295092 9.59282 2.50709 13 1 
262.667 1.20664 9.56422 0.00364351 0.0328234 9.56429 2.97004 13 1 
264 1.20681 9.5368 0.00358989 0.0361384 9.53688 3.26732 13 1 
265.333 1.20692 9.50788 0.00352712 0.0407051 9.50797 3.4702 13 1 
266.667 1.20721 9.47303 0.00349304 0.0451862 9.47315 3.98494 13 1 
268 1.20747 9.43789 0.00346124 0.0508786 9.43803 4.46569 13 1 
269.333 1.20763 9.39838 0.00342589 0.0564356 9.39856 4.74713 13 1 
270.667 1.20787 9.35636 0.00338902 0.0650907 9.3566 5.18067 13 1 
272 1.20824 9.31257 0.00334057 0.0737643 9.31288 5.84538 13 1 
273.333 1.20857 9.26016 0.00330253 0.0841729 9.26056 6.45173 13 1 
274.667 1.20877 9.21008 0.00326085 0.0987779 9.21064 6.80753 13 1 
276 1.2092 9.15235 0.00320759 0.11305 9.1531 7.58547 13 1 
277.333 1.20978 9.07384 0.00315545 0.123863 9.07476 8.62676 13 1 
277.333 1.20978 9.07384 0.00315545 0.123863 9.07476 8.62676 13 1 
278.667 1.2099 9.00384 0.00309775 0.138652 9.00497 8.84801 13 1 
280 1.21029 8.93338 0.00303251 0.160204 8.93485 9.55266 13 1 
281.333 1.21115 8.8504 0.00298407 0.190156 8.85248 11.1075 13 1 
282.667 1.2115 8.77799 0.00292588 0.226616 8.78098 11.7455 13 1 
284 1.21191 8.68246 0.00286155 0.256011 8.68631 12.4811 13 1 
285.333 1.2127 8.56413 0.00279811 0.286631 8.56904 13.9091 13 1 
286.667 1.21321 8.46115 0.00272882 0.323378 8.46743 14.8303 13 1 
288 1.21382 8.34523 0.00267516 0.38016 8.35408 15.9241 13 1 
289.333 1.21453 8.22367 0.00262617 0.436019 8.23535 17.2143 13 1 
290.667 1.21526 8.09627 0.00257713 0.486999 8.11121 18.5245 13 1 
292 1.21602 7.94779 0.00251765 0.583024 7.96966 19.8964 13 1 
293.333 1.21642 7.8088 0.00245561 0.648221 7.83578 20.6238 13 1 
294.667 1.21754 7.63803 0.00239313 0.703759 7.67132 22.6495 13 1 
296 1.21881 7.42791 0.002314 0.88808 7.48294 24.9409 13 1 
297.333 1.21728 7.11194 0.00223334 0.939814 7.17559 22.1794 13 1 
298.667 1.21194 6.58698 0.00215416 0.459555 6.61818 12.5315 13 1 
298.667 1.21194 6.58698 0.00215416 0.459555 6.61818 12.5315 14 1 
300 1.20424 6.04479 0.00207016 -0.551024 6.10725 -1.36585 14 1 
301.333 1.19747 5.69166 0.00197426 -1.3132 5.8462 -13.6021 14 1 
302.667 1.1942 5.48412 0.00186051 -1.3434 5.64777 -19.5049 14 1 
304 1.19367 5.31882 0.001743 -1.12493 5.43741 -20.4563 14 1 
305.333 1.19418 5.20138 0.00161922 -0.985043 5.29414 -19.5452 14 1 
306.667 1.19509 5.14801 0.00149955 -0.889704 5.22471 -17.8991 14 1 
308 1.19573 5.09519 0.00140274 -0.804942 5.1586 -16.7475 14 1 
309.333 1.19585 5.01458 0.00131494 -0.724749 5.067 -16.5265 14 1 
310.667 1.19621 4.92879 0.00122704 -0.646046 4.97119 -15.8788 14 1 
312 1.1969 4.85417 0.0011478 -0.579465 4.8889 -14.6346 14 1 
313.333 1.19718 4.78012 0.00106897 -0.514478 4.80792 -14.1197 14 1 
314.667 1.19725 4.69513 0.000972079 -0.456135 4.71744 -13.9899 14 1 
316 1.19772 4.61268 0.000870124 -0.409482 4.63098 -13.1565 14 1 
317.333 1.19817 4.53908 0.000786914 -0.364692 4.55389 -12.3283 14 1 
318.667 1.19823 4.46051 0.000692158 -0.321633 4.47221 -12.2201 14 1 
320 1.19837 4.38228 0.000565605 -0.292381 4.39213 -11.9771 14 1 
320 1.19837 4.38228 0.000565605 -0.292381 4.39213 -11.9771 14 1 
321.333 1.19879 4.31819 0.000467864 -0.26611 4.32648 -11.224 14 1 
322.667 1.19904 4.2543 0.000431941 -0.239147 4.26114 -10.7668 14 1 
324 1.19907 4.17885 0.000424475 -0.213272 4.1844 -10.7094 14 1 
325.333 1.19925 4.10983 0.000401004 -0.19035 4.11431 -10.394 14 1 
326.667 1.19953 4.06018 0.000338103 -0.169906 4.0638 -9.87538 14 1 
328 1.19968 4.01286 0.000266443 -0.150235 4.01574 -9.61566 14 1 
329.333 1.19974 3.95414 0.000210222 -0.131026 3.95637 -9.49629 14 1 
330.667 1.19991 3.89743 0.000168978 -0.115788 3.89919 -9.20064 14 1 
332 1.20008 3.85459 0.000143592 -0.104552 3.85605 -8.87792 14 1 
333.333 1.20017 3.81595 0.000122715 -0.0939019 3.81715 -8.71902 14 1 
334.667 1.20028 3.77245 9.51769e-05 -0.0831882 3.7734 -8.53082 14 1 
336 1.20043 3.72901 6.91596e-05 -0.0742247 3.72978 -8.26013 14 1 
337.333 1.20052 3.6912 4.929e-05 -0.0663332 3.69183 -8.09596 14 1 
338.667 1.20058 3.65797 2.07607e-05 -0.0601015 3.65849 -7.97858 14 1 
340 1.2007 3.62589 -5.75103e-06 -0.0546548 3.62632 -7.75843 14 1 
341.333 1.20083 3.59463 -1.98876e-05 -0.0498648 3.595 -7.53365 14 1 
341.333 1.20083 3.59463 -1.98876e-05 -0.0498648 3.595 -7.53365 15 1 
342.667 1.20089 3.5648 -3.66918e-05 -0.0448799 3.56511 -7.4179 15 1 
344 1.20096 3.53591 -7.12226e-05 -0.0403958 3.53616 -7.30544 15 1 
345.333 1.20107 3.51042 -0.000111763 -0.0380905 3.51065 -7.10039 15 1 
346.667 1.20116 3.48806 -0.000121878 -0.0364694 3.48827 -6.92903 15 1 
348 1.2012 3.46548 -0.000119866 -0.0347045 3.46567 -6.85723 15 1 
349.333 1.20126 3.444 -0.000133822 -0.03313 3.44417 -6.74975 15 1 
350.667 1.20135 3.42451 -0.000149158 -0.0327608 3.42467 -6.58551 15 1 
352 1.20143 3.40689 -0.000168215 -0.0339217 3.40707 -6.45617 15 1 
353.333 1.20149 3.39202 -0.000200192 -0.0353034 3.39222 -6.34012 15 1 
354.667 1.20156 3.37799 -0.000244429 -0.0365845 3.3782 -6.21259 15 1 
356 1.20161 3.3638 -0.000282971 -0.0381162 3.36402 -6.1141 15 1 
357.333 1.20166 3.35057 -0.00029457 -0.0399551 3.35082 -6.02926 15 1 
358.667 1.20173 3.33901 -0.000303004 -0.0414389 3.33927 -5.91553 15 1 
360 1.20178 3.33056 -0.000340776 -0.0425845 3.33084 -5.80838 15 1 
361.333 1.20182 3.32591 -0.000402056 -0.0456745 3.32622 -5.74915 15 1 
362.667 1.20186 3.32539 -0.000446078 -0.0510743 3.32579 -5.66812 15 1 
362.667 1.20186 3.32539 -0.000446078 -0.0510743 3.32579 -5.66812 15 1 
364 1.20194 3.32964 -0.000433784 -0.0575596 3.33015 -5.52197 15 1 
365.333 1.202 3.3355 -0.000382774 -0.0655787 3.33616 -5.41092 15 1 
366.667 1.20202 3.33618 -0.000345715 -0.0712176 3.33695 -5.38873 15 1 
368 1.20203 3.32765 -0.000363037 -0.0680267 3.32836 -5.35775 15 1 
369.333 1.2021 3.31547 -0.000474799 -0.0585382 3.316 -5.24182 15 1 
370.667 1.20217 3.31377 -0.000659967 -0.0508504 3.31419 -5.11626 15 1 
372 1.20219 3.33483 -0.000794798 -0.0517999 3.33532 -5.06819 15 1 
373.333 1.20221 3.38174 -0.000772872 -0.0710905 3.38275 -5.04235 15 1 
374.667 1.20225 3.44527 -0.0005785 -0.115733 3.44764 -4.97024 15 1 
376 1.2023 3.49954 -0.000286607 -0.171719 3.5041 -4.87183 15 1 
377.333 1.20236 3.50974 -2.49378e-05 -0.205953 3.51593 -4.77012 15 1 
378.667 1.20241 3.45046 0.000128039 -0.191311 3.45603 -4.67463 15 1 
380 1.20244 3.31216 0.00021506 -0.118623 3.3153 -4.6221 15 1 
381.333 1.20244 3.09736 0.000328403 0.012718 3.10002 -4.62877 15 1 
382.667 1.20243 2.82322 0.000422401 0.189536 2.83421 -4.64567 15 1 
384 1.20244 2.52714 0.000282187 0.372852 2.55998 -4.63098 15 1 
384 1.20244 2.52714 0.000282187 0.372852 2.55998 -4.63098 15 1 
385.333 1.20245 2.25593 -0.000256688 0.518749 2.31941 -4.60008 15 1 
386.667 1.20246 2.04031 -0.00113104 0.61142 2.13318 -4.58219 15 1 
388 1.20245 1.88371 -0.00212739 0.663707 1.99955 -4.60465 15 1 
389.333 1.20241 1.77466 -0.00305431 0.694009 1.90761 -4.67633 15 1 
390.667 1.20238 1.70131 -0.00383032 0.712642 1.84682 -4.7288 15 1 
392 1.20241 1.65465 -0.00448707 0.722694 1.80833 -4.67804 15 1 
393.333 1.20247 1.62751 -0.00508435 0.72409 1.78458 -4.56134 15 1 
394.667 1.20251 1.61551 -0.00563437 0.717237 1.77141 -4.49885 15 1 
396 1.20251 1.61767 -0.00614595 0.703686 1.76856 -4.49673 15 1 
397.333 1.20256 1.6353 -0.00663159 0.685003 1.77814 -4.40963 15 1 
398.667 1.20269 1.66865 -0.00706861 0.662359 1.80126 -4.16812 15 1 
400 1.20284 1.71474 -0.00744273 0.636852 1.83593 -3.90012 15 1 
401.333 1.20293 1.77081 -0.00776257 0.609552 1.88023 -3.73204 15 1 
402.667 1.203 1.83727 -0.00803042 0.581366 1.93512 -3.60538 15 1 
404 1.20313 1.91543 -0.00825652 0.553622 2.00243 -3.37436 15 1 
405.333 1.20334 2.00491 -0.00846096 0.527964 2.08229 -2.99852 15 1 
405.333 1.20334 2.00491 -0.00846096 0.527964 2.08229 -2.99852 15 1 
406.667 1.20357 2.1038 -0.0086413 0.505226 2.17295 -2.58725 15 1 
408 1.20374 2.20996 -0.00877861 0.485248 2.27215 -2.28464 15 1 
409.333 1.20383 2.32282 -0.0088576 0.467889 2.37918 -2.1061 15 1 
410.667 1.20395 2.44408 -0.0088786 0.453659 2.49562 -1.90225 15 1 
412 1.20415 2.57541 -0.00886066 0.44302 2.62306 -1.53035 15 1 
413.333 1.20443 2.71592 -0.00882745 0.43587 2.76045 -1.02898 15 1 
414.667 1.20469 2.86286 -0.00880617 0.431819 2.90494 -0.566691 15 1 
416 1.20487 3.01437 -0.00880371 0.430481 3.05455 -0.243775 15 1 
417.333 1.205 3.17078 -0.00880963 0.431688 3.20947 -0.00461739 15 1 
418.667 1.20515 3.33321 -0.00880766 0.435439 3.37078 0.263538 15 1 
420 1.20534 3.50168 -0.00876614 0.441795 3.53847 0.606465 15 1 
421.333 1.20555 3.6749 -0.00866386 0.450558 3.71122 0.989392 15 1 
422.667 1.20575 3.85128 -0.00850629 0.461147 3.88734 1.35067 15 1 
424 1.20591 4.02966 -0.00830997 0.473021 4.06562 1.64478 15 1 
425.333 1.20604 4.20968 -0.00810645 0.485946 4.24566 1.87286 15 1 
426.667 1.20615 4.3915 -0.00794193 0.49985 4.42759 2.07399 15 1 
426.667 1.20615 4.3915 -0.00794193 0.49985 4.42759 2.07399 20 1 
428 1.20626 4.57492 -0.00783046 0.514537 4.61121 2.27086 20 1 
429.333 1.20636 4.75918 -0.00775181 0.529638 4.7957 2.45773 20 1 
430.667 1.20646 4.9436 -0.00767686 0.544855 4.98037 2.63603 20 1 
432 1.20656 5.12796 -0.00756591 0.560146 5.16498 2.81986 20 1 
433.333 1.20666 5.31203 -0.0073905 0.575484 5.34933 3.00625 20 1 
434.667 1.20675 5.49518 -0.0071662 0.590732 5.53274 3.16703 20 1 
436 1.20681 5.67652 -0.00692837 0.605739 5.71433 3.27311 20 1 
437.333 1.20683 5.85542 -0.00671088 0.620201 5.89345 3.3131 20 1 
438.667 1.20683 6.03171 -0.00653919 0.633778 6.06987 3.2985 20 1 
440 1.2068 6.20551 -0.00640838 0.646385 6.24372 3.25999 20 1 
441.333 1.20679 6.37699 -0.00628897 0.657993 6.41516 3.23254 20 1 
442.667 1.20679 6.54612 -0.00614926 0.668482 6.58417 3.22613 20 1 
444 1.20678 6.71256 -0.0059652 0.677824 6.75039 3.22343 20 1 
445.333 1.20677 6.87564 -0.00573743 0.685937 6.91315 3.20612 20 1 
446.667 1.20675 7.03476 -0.00549792 0.692691 7.07187 3.16729 20 1 
448 1.20672 7.18957 -0.00527629 0.697945 7.22616 3.10403 20 1 
448 1.20672 7.18957 -0.00527629 0.697945 7.22616 3.10403 20 1 
449.333 1.20667 7.33996 -0.0050838 0.701646 7.37593 3.01635 20 1 
450.667 1.20661 7.48595 -0.00491776 0.70377 7.5212 2.9164 20 1 
452 1.20656 7.62741 -0.00475844 0.70406 7.66182 2.81021 20 1 
453.333 1.20649 7.76389 -0.00458057 0.702311 7.79734 2.69403 20 1 
454.667 1.20643 7.89511 -0.00436488 0.698353 7.92746 2.5746 20 1 
456 1.20636 8.02103 -0.00411164 0.691992 8.05215 2.46233 20 1 
457.333 1.2063 8.14144 -0.00386038 0.683267 8.17119 2.35421 20 1 
458.667 1.20624 8.25613 -0.00364523 0.672111 8.28441 2.2424 20 1 
460 1.20618 8.36517 -0.00347109 0.658343 8.39185 2.13013 20 1 
461.333 1.20612 8.46858 -0.0033484 0.641882 8.49356 2.02152 20 1 
462.667 1.20606 8.56635 -0.00326619 0.622558 8.58952 1.92152 20 1 
464 1.20602 8.65861 -0.00318213 0.6003 8.67988 1.84332 20 1 
465.333 1.20599 8.74559 -0.0030563 0.575195 8.76488 1.78486 20 1 
466.667 1.20596 8.82736 -0.00289056 0.547505 8.84466 1.72535 20 1 
468 1.20592 8.90391 -0.00270894 0.517653 8.91923 1.65483 20 1 
469.333 1.20587 8.97533 -0.00251341 0.486147 8.98872 1.57857 20 1 
469.333 1.20587 8.97533 -0.00251341 0.486147 8.98872 1.57857 20 1 
470.667 1.20583 9.04212 -0.00233172 0.453506 9.05368 1.50393 20 1 
472 1.2058 9.10511 -0.00221348 0.420253 9.11497 1.4389 20 1 
473.333 1.20577 9.16486 -0.00218461 0.386622 9.17315 1.39043 20 1 
474.667 1.20575 9.2218 -0.00221043 0.35284 9.22866 1.35883 20 1 
476 1.20574 9.27651 -0.00223622 0.319268 9.2821 1.33896 20 1 
477.333 1.20574 9.32964 -0.00225103 0.286384 9.33412 1.33052 20 1 
478.667 1.20574 9.38131 -0.00225278 0.254639 9.38484 1.33283 20 1 
480 1.20574 9.43083 -0.00222213 0.224226 9.43355 1.33333 20 1 
481.333 1.20573 9.47774 -0.00216296 0.195328 9.4798 1.32303 20 1 
482.667 1.20573 9.52245 -0.00212121 0.168071 9.52397 1.31031 20 1 
484 1.20572 9.56504 -0.00211714 0.142644 9.56613 1.30387 20 1 
485.333 1.20572 9.60489 -0.00210776 0.119225 9.60566 1.3021 20 1 
486.667 1.20572 9.64162 -0.00205978 0.0979242 9.64214 1.30273 20 1 
488 1.20573 9.67525 -0.00199055 0.0786228 9.67558 1.313 20 1 
489.333 1.20574 9.70568 -0.0019088 0.0614149 9.70588 1.34014 20 1 
490.667 1.20576 9.73265 -0.00180627 0.046689 9.73277 1.36739 20 1 
490.667 1.20576 9.73265 -0.00180627 0.046689 9.73277 1.36739 20 1 
492 1.20577 9.75628 -0.00169497 0.0343743 9.75635 1.38657 20 1 
493.333 1.20579 9.7774 -0.00160947 0.0243245 9.77744 1.41965 20 1 
494.667 1.20582 9.79659 -0.00156831 0.0164494 9.7966 1.47547 20 1 
496 1.20585 9.81375 -0.00157055 0.0106497 9.81376 1.53786 20 1 
497.333 1.20588 9.82926 -0.00162394 0.0064668 9.82926 1.597 20 1 
498.667 1.20592 9.84354 -0.00172863 0.00378256 9.84355 1.65443 20 1 
500 1.20594 9.85652 -0.00184552 0.00270452 9.85652 1.69328 20 1 
501.333 1.20594 9.86797 -0.00192873 0.00281104 9.86797 1.69002 20 1 
502.667 1.20592 9.8779 -0.00197204 0.00366383 9.8779 1.65382 20 1 
504 1.20589 9.88656 -0.00199774 0.00484759 9.88656 1.60623 20 1 
505.333 1.20586 9.89434 -0.00202473 0.00588027 9.89434 1.54883 20 1 
506.667 1.20583 9.90168 -0.00206726 0.00659513 9.90169 1.4959 20 1 
508 1.20582 9.90878 -0.00214006 0.00685882 9.90878 1.48611 20 1 
509.333 1.20585 9.91566 -0.00222711 0.00669148 9.91566 1.52742 20 1 
510.667 1.20587 9.92215 -0.00230805 0.00640612 9.92215 1.57635 20 1 
512 1.20589 9.92816 -0.00240102 0.00613316 9.92816 1.60562 20 1 
512 1.20589 9.92816 -0.00240102 0.00613316 9.92816 1.60562 21 1 
513.333 1.20591 9.93391 -0.00251301 0.00617174 9.93391 1.64833 21 1 
514.667 1.20596 9.93954 -0.00264707 0.00626032 9.93954 1.73135 21 1 
516 1.20601 9.94501 -0.00282011 0.00610367 9.94502 1.82245 21 1 
517.333 1.20605 9.95041 -0.00298671 0.00604949 9.95041 1.89866 21 1 
518.667 1.20611 9.95579 -0.00310474 0.00593634 9.95579 1.99647 21 1 
520 1.20619 9.96142 -0.00321951 0.00561551 9.96142 2.14611 21 1 
521.333 1.20629 9.96789 -0.00336699 0.00519958 9.96789 2.3299 21 1 
522.667 1.2064 9.97519 -0.00347637 0.00485359 9.97519 2.52155 21 1 
524 1.20651 9.98256 -0.00349575 0.00485968 9.98256 2.7224 21 1 
525.333 1.20662 9.98934 -0.00347491 0.00491229 9.98934 2.93426 21 1 
526.667 1.20674 9.9957 -0.00343885 0.00473457 9.9957 3.13537 21 1 
528 1.20683 10.0023 -0.00335847 0.00441933 10.0023 3.30574 21 1 
529.333 1.20691 10.009 -0.00325326 0.00440128 10.009 3.45811 21 1 
530.667 1.20701 10.0153 -0.00317091 0.00457687 10.0153 3.63533 21 1 
532 1.20713 10.0213 -0.00308775 0.0045546 10.0213 3.84698 21 1 
533.333 1.20724 10.0276 -0.00299442 0.00443564 10.0276 4.04596 21 1 
533.333 1.20724 10.0276 -0.00299442 0.00443564 10.0276 4.04596 21 1 
534.667 1.20734 10.0344 -0.00292191 0.00445406 10.0344 4.22846 21 1 
536 1.20746 10.0407 -0.00285552 0.00457635 10.0407 4.43556 21 1 
537.333 1.20757 10.046 -0.0027637 0.00450139 10.046 4.63553 21 1 
538.667 1.20764 10.0504 -0.0026594 0.00447729 10.0504 4.76104 21 1 
540 1.20766 10.0543 -0.00254719 0.00460616 10.0543 4.81364 21 1 
541.333 1.20769 10.0569 -0.00240865 0.00465902 10.0569 4.85262 21 1 
542.667 1.2077 10.0581 -0.00225306 0.00478865 10.0581 4.88579 21 1 
544 1.20769 10.0588 -0.00209571 0.00492006 10.0589 4.8514 21 1 
545.333 1.20762 10.0591 -0.00194433 0.00489254 10.0591 4.73862 21 1 
546.667 1.20755 10.0582 -0.00180353 0.00499085 10.0582 4.61374 21 1 
548 1.2075 10.0566 -0.00169066 0.00530673 10.0566 4.5118 21 1 
549.333 1.20744 10.0553 -0.00161186 0.00545895 10.0553 4.39837 21 1 
550.667 1.20735 10.054 -0.00156961 0.00560945 10.054 4.24321 21 1 
552 1.20725 10.0518 -0.00156462 0.00602174 10.0518 4.06369 21 1 
553.333 1.20714 10.0481 -0.00157947 0.00632296 10.0481 3.86548 21 1 
554.667 1.20701 10.044 -0.00160717 0.00626239 10.044 3.62283 21 1 
554.667 1.20701 10.044 -0.00160717 0.00626239 10.044 3.62283 22 1 
556 1.20685 10.0403 -0.00165721 0.00635174 10.0403 3.34451 22 1 
557.333 1.20669 10.036 -0.00171883 0.00668309 10.036 3.06027 22 1 
558.667 1.20653 10.0307 -0.00176577 0.00674519 10.0307 2.77057 22 1 
560 1.20636 10.0249 -0.00180117 0.00678222 10.0249 2.45089 22 1 
561.333 1.20617 10.0197 -0.00184062 0.00676685 10.0197 2.11143 22 1 
562.667 1.206 10.0147 -0.00188451 0.00658578 10.0147 1.80593 22 1 
564 1.20586 10.01 -0.00191325 0.00642614 10.01 1.54772 22 1 
565.333 1.20572 10.006 -0.00192746 0.00645081 10.006 1.29974 22 1 
566.667 1.20558 10.0026 -0.00193416 0.00637638 10.0026 1.05534 22 1 
568 1.20547 9.99926 -0.00192641 0.00624234 9.99926 0.850823 22 1 
569.333 1.20539 9.9965 -0.00191261 0.00613381 9.99651 0.700647 22 1 
570.667 1.20532 9.99497 -0.00191462 0.0060567 9.99497 0.582223 22 1 
572 1.20527 9.99405 -0.001923 0.00589878 9.99405 0.48838 22 1 
573.333 1.20523 9.99292 -0.00190507 0.00571964 9.99292 0.41804 22 1 
574.667 1.20519 9.9919 -0.00187261 0.00575041 9.9919 0.341545 22 1 
576 1.20515 9.99168 -0.00186078 0.00580366 9.99169 0.265495 22 1 
576 1.20515 9.99168 -0.00186078 0.00580366 9.99169 0.265495 22 1 
577.333 1.20513 9.99191 -0.00186692 0.0057945 9.99191 0.237313 22 1 
578.667 1.20514 9.99179 -0.00185858 0.00554995 9.9918 0.253062 22 1 
580 1.20514 9.99174 -0.00183247 0.00540889 9.99175 0.254965 22 1 
581.333 1.20512 9.99233 -0.00179434 0.00540564 9.99233 0.218936 22 1 
582.667 1.2051 9.99269 -0.00176799 0.00543574 9.99269 0.188586 22 1 
584 1.20511 9.9926 -0.00177576 0.00548616 9.9926 0.196985 22 1 
585.333 1.20512 9.99291 -0.00178103 0.00557551 9.99291 0.208746 22 1 
586.667 1.20511 9.99358 -0.00175919 0.00536696 9.99358 0.201082 22 1 
588 1.20511 9.99394 -0.00172426 0.00506922 9.99394 0.202988 22 1 
589.333 1.20511 9.99397 -0.0016981 0.00510421 9.99397 0.207633 22 1 
590.667 1.2051 9.99425 -0.00167847 0.00527369 9.99425 0.187102 22 1 
592 1.2051 9.99471 -0.00166892 0.00532627 9.99471 0.177669 22 1 
593.333 1.20512 9.99504 -0.0016711 0.00521896 9.99504 0.211197 22 1 
594.667 1.20513 9.99553 -0.00165404 0.00497998 9.99553 0.228782 22 1 
596 1.20511 9.99584 -0.00161361 0.0049007 9.99584 0.197328 22 1 
597.333 1.2051 9.99557 -0.00158409 0.00514585 9.99557 0.179847 22 1 
597.333 1.2051 9.99557 -0.00158409 0.00514585 9.99557 0.179847 24 1 
598.667 1.20511 9.99554 -0.00157691 0.00524382 9.99554 0.190757 24 1 
600 1.20511 9.99631 -0.00156812 0.00505312 9.99631 0.198937 24 1 
601.333 1.20512 9.99709 -0.00154684 0.0048214 9.99709 0.212587 24 1 
602.667 1.20512 9.99726 -0.00151923 0.00471148 9.99726 0.220441 24 1 
604 1.20511 9.99713 -0.00149058 0.00484749 9.99713 0.193918 24 1 
605.333 1.20509 9.99708 -0.00146703 0.00511214 9.99708 0.166697 24 1 
606.667 1.2051 9.99732 -0.00144874 0.00508032 9.99732 0.182466 24 1 
608 1.20512 9.99787 -0.00142682 0.00473661 9.99788 0.217788 24 1 
609.333 1.20513 9.99836 -0.00140479 0.00452278 9.99836 0.232277 24 1 
610.667 1.20512 9.9986 -0.00138678 0.00458094 9.9986 0.208772 24 1 
612 1.2051 9.99862 -0.00136462 0.00480445 9.99863 0.171896 24 1 
613.333 1.20509 9.9985 -0.0013413 0.00490714 9.9985 0.169664 24 1 
614.667 1.20511 9.99892 -0.0013126 0.00464111 9.99892 0.19441 24 1 
616 1.20512 9.99982 -0.00128301 0.00436609 9.99982 0.214254 24 1 
617.333 1.20513 9.99991 -0.00125917 0.00433691 9.99991 0.228629 24 1 
618.667 1.20512 9.99955 -0.00124189 0.00455427 9.99955 0.210387 24 1 
618.667 1.20512 9.99955 -0.00124189 0.00455427 9.99955 0.210387 24 1 
620 1.20509 9.99982 -0.00124522 0.00462672 9.99983 0.160391 24 1 
621.333 1.20509 10.0002 -0.00122736 0.00446789 10.0002 0.164565 24 1 
622.667 1.20512 10.0006 -0.0011726 0.00437102 10.0006 0.216358 24 1 
624 1.20513 10.0014 -0.00112822 0.0042315 10.0014 0.229582 24 1 
625.333 1.20512 10.0015 -0.00111701 0.00413123 10.0015 0.213792 24 1 
626.667 1.2051 10.0009 -0.00112386 0.00431088 10.0009 0.186129 24 1 
628 1.20509 10.0009 -0.00112006 0.00443849 10.0009 0.158502 24 1 
629.333 1.2051 10.0017 -0.00108694 0.00422374 10.0017 0.18695 24 1 
630.667 1.20513 10.0023 -0.00102892 0.00399269 10.0023 0.226929 24 1 
632 1.20512 10.0025 -0.000994833 0.00399934 10.0025 0.214333 24 1 
633.333 1.2051 10.0021 -0.00100256 0.00429703 10.0021 0.183862 24 1 
634.667 1.20509 10.0018 -0.00100746 0.00429583 10.0018 0.163114 24 1 
636 1.2051 10.0024 -0.00098102 0.00394791 10.0024 0.183013 24 1 
637.333 1.20513 10.0032 -0.000935383 0.00379303 10.0032 0.234556 24 1 
638.667 1.20513 10.0036 -0.000898278 0.00389415 10.0036 0.231753 24 1 
640 1.2051 10.0031 -0.000891778 0.00410687 10.0031 0.179451 24 1 
640 1.2051 10.0031 -0.000891778 0.00410687 10.0031 0.179451 24 1 
641.333 1.20508 10.0022 -0.000896994 0.00415821 10.0022 0.142656 24 1 
642.667 1.20508 10.0024 -0.000884107 0.00408348 10.0024 0.15052 24 1 
644 1.20512 10.0035 -0.000840558 0.00378884 10.0035 0.212887 24 1 
645.333 1.20514 10.0042 -0.000795394 0.00359858 10.0042 0.253574 24 1 
646.667 1.20512 10.0041 -0.000780908 0.00381074 10.0041 0.209889 24 1 
648 1.20508 10.0031 -0.000788434 0.00403292 10.0031 0.150312 24 1 
649.333 1.20508 10.0027 -0.000795078 0.00407693 10.0027 0.140866 24 1 
650.667 1.2051 10.0032 -0.000764427 0.00381767 10.0032 0.182701 24 1 
652 1.20512 10.0041 -0.000712143 0.00352037 10.0041 0.223814 24 1 
653.333 1.20512 10.0045 -0.000670425 0.00358955 10.0045 0.211752 24 1 
654.667 1.20509 10.0036 -0.000663602 0.00381928 10.0036 0.163974 24 1 
656 1.20507 10.003 -0.000685911 0.0039964 10.003 0.12628 24 1 
657.333 1.20509 10.0035 -0.000688611 0.00380146 10.0035 0.157996 24 1 
658.667 1.20513 10.0042 -0.000652909 0.00342226 10.0042 0.237913 24 1 
660 1.20514 10.0046 -0.000605482 0.00332852 10.0046 0.246495 24 1 
661.333 1.2051 10.004 -0.000577773 0.00357077 10.004 0.179717 24 1 
661.333 1.2051 10.004 -0.000577773 0.00357077 10.004 0.179717 24 1 
662.667 1.20506 10.0032 -0.000577814 0.00395339 10.0032 0.111682 24 1 
664 1.20506 10.0032 -0.000580346 0.00399325 10.0032 0.102963 24 1 
665.333 1.20511 10.0039 -0.000566464 0.00356472 10.0039 0.192397 24 1 
666.667 1.20514 10.0049 -0.000542566 0.00315827 10.0049 0.252245 24 1 
668 1.20512 10.0048 -0.000509214 0.00323059 10.0048 0.209147 24 1 
669.333 1.20508 10.0034 -0.000493757 0.00366611 10.0034 0.145649 24 1 
670.667 1.20506 10.0032 -0.000498871 0.00381925 10.0032 0.112127 24 1 
672 1.20509 10.0041 -0.000495113 0.00355491 10.0041 0.153797 24 1 
673.333 1.20512 10.0049 -0.000467202 0.00324264 10.0049 0.224013 24 1 
674.667 1.20512 10.0049 -0.000433235 0.00331001 10.0049 0.211624 24 1 
676 1.20508 10.0038 -0.000420097 0.00358275 10.0038 0.147184 24 1 
677.333 1.20506 10.0034 -0.000428171 0.00364976 10.0034 0.111875 24 1 
678.667 1.20508 10.0039 -0.000431441 0.00342264 10.0039 0.141877 24 1 
680 1.20512 10.0049 -0.000409638 0.00316152 10.0049 0.218234 24 1 
681.333 1.20513 10.0055 -0.000369252 0.00310224 10.0055 0.228209 24 1 
682.667 1.20509 10.0049 -0.00033781 0.00331708 10.0049 0.167019 24 1 
682.667 1.20509 10.0049 -0.00033781 0.00331708 10.0049 0.167019 31 1 
684 1.20507 10.0039 -0.000338181 0.00356235 10.0039 0.118739 31 1 
685.333 1.20506 10.0035 -0.000354857 0.00353467 10.0035 0.111535 31 1 
686.667 1.20509 10.0046 -0.000359518 0.00328688 10.0046 0.171613 31 1 
688 1.20513 10.0057 -0.000332622 0.00312609 10.0057 0.226892 31 1 
689.333 1.20511 10.0055 -0.000289307 0.00322518 10.0055 0.193884 31 1 
690.667 1.20507 10.0045 -0.000262988 0.0033759 10.0045 0.12236 31 1 
692 1.20505 10.0039 -0.000267061 0.00326165 10.0039 0.0947257 31 1 
693.333 1.20509 10.005 -0.000284715 0.00305255 10.005 0.157201 31 1 
694.667 1.20513 10.006 -0.000280762 0.00306925 10.006 0.240525 31 1 
696 1.20512 10.0061 -0.000246484 0.0031743 10.0061 0.224857 31 1 
697.333 1.20507 10.0051 -0.000214731 0.00335374 10.0051 0.130268 31 1 
698.667 1.20504 10.0039 -0.000208395 0.00333713 10.0039 0.0650998 31 1 
700 1.20505 10.0046 -0.000219832 0.00316926 10.0046 0.0977352 31 1 
701.333 1.20511 10.0061 -0.00021527 0.0029143 10.0061 0.199734 31 1 
702.667 1.20513 10.007 -0.000191274 0.00288213 10.007 0.241675 31 1 
704 1.2051 10.0065 -0.000171001 0.00304664 10.0065 0.182074 31 1 
704 1.2051 10.0065 -0.000171001 0.00304664 10.0065 0.182074 31 1 
705.333 1.20506 10.0049 -0.00015792 0.00316082 10.0049 0.109919 31 1 
706.667 1.20505 10.0046 -0.000156843 0.00316705 10.0046 0.0884315 31 1 
708 1.20508 10.0058 -0.000157119 0.00289328 10.0058 0.138059 31 1 
709.333 1.20511 10.007 -0.00014308 0.00281926 10.007 0.192573 31 1 
710.667 1.2051 10.0067 -0.000126184 0.00307539 10.0067 0.179311 31 1 
712 1.20507 10.0054 -0.000120598 0.00327118 10.0054 0.122162 31 1 
713.333 1.20505 10.0052 -0.000111432 0.00306043 10.0052 0.0845809 31 1 
714.667 1.20507 10.0063 -9.50993e-05 0.00264149 10.0063 0.129974 31 1 
716 1.20511 10.0072 -7.74688e-05 0.00256492 10.0072 0.20238 31 1 
717.333 1.20511 10.0075 -6.58558e-05 0.00268186 10.0075 0.201394 31 1 
718.667 1.20507 10.0064 -7.02078e-05 0.00299833 10.0064 0.128758 31 1 
720 1.20503 10.0053 -7.93225e-05 0.00328218 10.0053 0.0593832 31 1 
721.333 1.20504 10.0057 -7.0902e-05 0.00304847 10.0057 0.0651179 31 1 
722.667 1.20508 10.0068 -3.45704e-05 0.00250702 10.0068 0.135571 31 1 
724 1.20511 10.0078 -2.44505e-06 0.00227241 10.0078 0.191598 31 1 
725.333 1.20509 10.0073 -5.43113e-06 0.00262851 10.0073 0.167325 31 1 
725.333 1.20509 10.0073 -5.43113e-06 0.00262851 10.0073 0.167325 31 1 
726.667 1.20506 10.0065 -2.01787e-05 0.00301878 10.0065 0.109926 31 1 
728 1.20504 10.0062 -2.30503e-05 0.0029544 10.0062 0.0793238 31 1 
729.333 1.20507 10.007 -1.12626e-05 0.0024834 10.007 0.118501 31 1 
730.667 1.20509 10.0078 1.23253e-05 0.00228313 10.0078 0.171321 31 1 
732 1.20508 10.007 3.45885e-05 0.00258888 10.007 0.135773 31 1 
733.333 1.20503 10.0059 4.86123e-05 0.00305496 10.0059 0.0562294 31 1 
734.667 1.20502 10.0058 4.67385e-05 0.0030868 10.0058 0.0329351 31 1 
736 1.20507 10.0073 3.49155e-05 0.00254627 10.0073 0.117711 31 1 
737.333 1.20512 10.0085 3.85331e-05 0.00202752 10.0085 0.210031 31 1 
738.667 1.20511 10.0083 5.59358e-05 0.00207461 10.0083 0.194122 31 1 
740 1.20505 10.007 7.55502e-05 0.00262194 10.007 0.0960824 31 1 
741.333 1.20501 10.0056 9.14207e-05 0.00308893 10.0056 0.0151656 31 1 
742.667 1.20502 10.0061 9.66838e-05 0.00280242 10.0061 0.0345816 31 1 
744 1.20507 10.0076 9.02299e-05 0.00224754 10.0076 0.128371 31 1 
745.333 1.2051 10.0085 8.80247e-05 0.00220534 10.0085 0.183001 31 1 
746.667 1.20508 10.0075 0.000100117 0.0026749 10.0075 0.14159 31 1 
746.667 1.20508 10.0075 0.000100117 0.0026749 10.0075 0.14159 31 1 
748 1.20503 10.0061 0.000119026 0.00293888 10.0061 0.0582161 31 1 
749.333 1.20502 10.0061 0.000139059 0.00260399 10.0061 0.0344753 31 1 
750.667 1.20506 10.0075 0.000141702 0.00207719 10.0075 0.113249 31 1 
752 1.20511 10.0086 0.00012157 0.0019579 10.0086 0.193408 31 1 
753.333 1.20509 10.008 9.98501e-05 0.00245196 10.008 0.157589 31 1 
754.667 1.20502 10.0065 0.00011938 0.00305816 10.0065 0.0305417 31 1 
756 1.20499 10.0059 0.000168984 0.00295947 10.0059 -0.0227932 31 1 
757.333 1.20504 10.0067 0.000199191 0.0021453 10.0067 0.0691111 31 1 
758.667 1.2051 10.0081 0.000189437 0.00159968 10.0081 0.186561 31 1 
760 1.20511 10.0087 0.000155514 0.0019869 10.0087 0.192288 31 1 
761.333 1.20505 10.0076 0.000142884 0.00300399 10.0076 0.0991084 31 1 
762.667 1.20501 10.0061 0.000166633 0.00331367 10.0061 0.0232467 31 1 
764 1.20502 10.0059 0.000202093 0.00256665 10.0059 0.0294333 31 1 
765.333 1.20505 10.0071 0.000209543 0.00186133 10.0071 0.0896174 31 1 
766.667 1.20507 10.0078 0.000192966 0.0018472 10.0078 0.122044 31 1 
768 1.20506 10.0073 0.000187544 0.0025731 10.0073 0.106022 31 1 
768 1.20506 10.0073 0.000187544 0.0025731 10.0073 0.106022 32 1 
769.333 1.20504 10.0067 0.000212362 0.00321849 10.0067 0.0710558 32 1 
770.667 1.20504 10.0071 0.000241735 0.00288178 10.0071 0.0800294 32 1 
772 1.20507 10.0075 0.000232819 0.0018282 10.0075 0.120713 32 1 
773.333 1.20507 10.0079 0.000195215 0.00132939 10.0079 0.120064 32 1 
774.667 1.20503 10.0071 0.000193381 0.00216685 10.0071 0.0530823 32 1 
776 1.20501 10.0064 0.000230196 0.00311901 10.0064 0.00955541 32 1 
777.333 1.20503 10.0068 0.000265402 0.00316407 10.0068 0.0561394 32 1 
778.667 1.20507 10.0081 0.000275639 0.0024542 10.0081 0.132824 32 1 
780 1.20508 10.008 0.000252474 0.00193823 10.008 0.1457 32 1 
781.333 1.20504 10.0063 0.000223682 0.00204669 10.0063 0.0812853 32 1 
782.667 1.20501 10.0056 0.000223499 0.00261582 10.0056 0.0250953 32 1 
784 1.20502 10.0064 0.000260893 0.00287419 10.0064 0.0312129 32 1 
785.333 1.20505 10.0076 0.000294852 0.00239071 10.0076 0.092429 32 1 
786.667 1.20507 10.0077 0.000287579 0.00200246 10.0077 0.129954 32 1 
788 1.20505 10.0074 0.000254491 0.0021039 10.0074 0.0817383 32 1 
789.333 1.20501 10.0066 0.000239513 0.00248311 10.0066 0.00974793 32 1 
790.667 1.20501 10.0061 0.000281575 0.00265538 10.0061 0.0221244 32 1 
792 1.20506 10.0072 0.000342265 0.00249673 10.0072 0.100541 32 1 
793.333 1.20508 10.0082 0.000334836 0.00223765 10.0082 0.152017 32 1 
794.667 1.20507 10.0074 0.000283006 0.00234126 10.0074 0.123146 32 1 
796 1.20501 10.0055 0.000245596 0.00256179 10.0055 0.0188914 32 1 
797.333 1.20497 10.0049 0.000256105 0.00254813 10.0049 -0.0607831 32 1 
798.667 1.205 10.0063 0.000310416 0.002389 10.0063 0.000739042 32 1 
800 1.20504 10.0072 0.000341079 0.00217218 10.0072 0.0764945 32 1 
