70.6405;r ;Density                 ;Velocity u              ;Velocity v              ;Velocity w              ;|Velocity|              ;Pressure                ;Distribution            ;Levels                  ;
0 1.20113 9.99838 8.63968e-05 0.000584485 9.99838 -6.99483 1 1 
1.33334 1.2011 9.9989 8.01577e-05 0.00262713 9.9989 -7.04361 1 1 
2.66666 1.20106 9.99955 5.78223e-05 0.00663528 9.99956 -7.12357 1 1 
4 1.201 9.99946 4.64984e-05 0.0104801 9.99947 -7.22012 1 1 
5.33334 1.20097 9.9994 1.86694e-05 0.0129769 9.99943 -7.27441 1 1 
6.66666 1.20098 9.99932 -4.86764e-05 0.0146992 9.99935 -7.25611 1 1 
8 1.20098 9.99882 -0.000100451 0.0164953 9.99886 -7.25537 1 1 
9.33334 1.20101 9.99872 -0.000189133 0.01686 9.99877 -7.19893 1 1 
10.6667 1.20107 9.99844 -0.000300238 0.0168995 9.99849 -7.10262 1 1 
12 1.20112 9.99775 -0.000378623 0.0166462 9.9978 -7.01616 1 1 
13.3333 1.2012 9.99748 -0.000502092 0.0149707 9.99753 -6.8624 1 1 
14.6667 1.20129 9.99704 -0.000629548 0.0133347 9.99709 -6.71008 1 1 
16 1.20137 9.99627 -0.000721866 0.0111237 9.99631 -6.56458 1 1 
17.3333 1.20147 9.99569 -0.000842749 0.00797112 9.99573 -6.37003 1 1 
18.6667 1.20156 9.99504 -0.00094859 0.00533754 9.99507 -6.21981 1 1 
20 1.20164 9.99432 -0.00103436 0.00201827 9.99434 -6.06099 1 1 
21.3333 1.20175 9.99345 -0.00111892 -0.00171184 9.99347 -5.87185 1 1 
21.3333 1.20175 9.99345 -0.00111892 -0.00171184 9.99347 -5.87185 1 1 
22.6667 1.20181 9.99237 -0.00115451 -0.00465557 9.9924 -5.75596 1 1 
24 1.20188 9.99177 -0.00120342 -0.00821702 9.99179 -5.63615 1 1 
25.3333 1.20195 9.99092 -0.00124765 -0.0115414 9.99095 -5.51295 1 1 
26.6667 1.20198 9.98959 -0.00121197 -0.0140463 9.98962 -5.46005 1 1 
28 1.202 9.98897 -0.00119006 -0.016924 9.98901 -5.414 1 1 
29.3333 1.20201 9.9883 -0.0011683 -0.0189963 9.98835 -5.40077 1 1 
30.6667 1.202 9.98717 -0.00108165 -0.0204722 9.98723 -5.4263 1 1 
32 1.20198 9.9865 -0.000993379 -0.0219185 9.98656 -5.45344 1 1 
33.3333 1.20192 9.98585 -0.000887162 -0.022057 9.98592 -5.55916 1 1 
34.6667 1.20186 9.98506 -0.000761224 -0.0220286 9.98514 -5.67377 1 1 
36 1.20181 9.98439 -0.00065032 -0.0218144 9.98447 -5.75338 1 1 
37.3333 1.20172 9.98383 -0.00050351 -0.0201612 9.98391 -5.91651 1 1 
38.6667 1.20163 9.9835 -0.000365657 -0.0185234 9.98357 -6.09301 1 1 
40 1.20155 9.98291 -0.000260287 -0.0165464 9.98297 -6.23462 1 1 
41.3333 1.20145 9.98223 -0.000122268 -0.0135361 9.98228 -6.40614 1 1 
42.6667 1.20136 9.98231 -7.21589e-06 -0.0106854 9.98236 -6.5728 1 1 
42.6667 1.20136 9.98231 -7.21589e-06 -0.0106854 9.98236 -6.5728 2 1 
44 1.20126 9.98204 8.82873e-05 -0.00724301 9.98208 -6.7579 2 1 
45.3333 1.20116 9.98118 0.000205292 -0.00331871 9.98121 -6.94236 2 1 
46.6667 1.20109 9.98129 0.0002825 0.000273422 9.98132 -7.06811 2 1 
48 1.201 9.98149 0.00034658 0.00464921 9.98151 -7.22874 2 1 
49.3333 1.20091 9.98086 0.000416363 0.00889485 9.98088 -7.39226 2 1 
50.6667 1.20086 9.9805 0.000440428 0.0126775 9.98052 -7.47679 2 1 
52 1.20081 9.98068 0.000453014 0.0169759 9.98071 -7.56019 2 1 
53.3333 1.20078 9.98075 0.000444415 0.0204936 9.9808 -7.61942 2 1 
54.6667 1.20078 9.9801 0.000396417 0.023466 9.98016 -7.62938 2 1 
56 1.20078 9.97952 0.000354066 0.0265538 9.9796 -7.62121 2 1 
57.3333 1.20083 9.97992 0.00026819 0.0284807 9.98001 -7.54095 2 1 
58.6667 1.20088 9.97977 0.000144804 0.0297489 9.97987 -7.44382 2 1 
60 1.20094 9.97852 4.27016e-05 0.0307629 9.97863 -7.34199 2 1 
61.3333 1.20104 9.97824 -8.98242e-05 0.0306468 9.97835 -7.15993 2 1 
62.6667 1.20114 9.97849 -0.000242823 0.0301643 9.9786 -6.97927 2 1 
64 1.20124 9.97747 -0.000384591 0.0290177 9.97758 -6.78977 2 1 
64 1.20124 9.97747 -0.000384591 0.0290177 9.97758 -6.78977 2 1 
65.3333 1.20138 9.97647 -0.000545008 0.0268989 9.97657 -6.54706 2 1 
66.6667 1.2015 9.97631 -0.000693146 0.0249273 9.9764 -6.32919 2 1 
68 1.20163 9.97574 -0.000845533 0.0220865 9.97582 -6.09156 2 1 
69.3333 1.20178 9.97449 -0.00101608 0.0184326 9.97455 -5.82211 2 1 
70.6667 1.20191 9.97346 -0.00115295 0.0152462 9.9735 -5.58933 2 1 
72 1.20204 9.97314 -0.00128953 0.0114698 9.97318 -5.3544 2 1 
73.3333 1.20216 9.97234 -0.00143546 0.00723282 9.97236 -5.12678 2 1 
74.6667 1.20228 9.97059 -0.0015437 0.00341014 9.97061 -4.91662 2 1 
76 1.20239 9.96988 -0.00164651 -0.000658027 9.9699 -4.71004 2 1 
77.3333 1.20246 9.96951 -0.00173601 -0.00424505 9.96952 -4.58108 2 1 
78.6667 1.20252 9.96769 -0.00179114 -0.00750238 9.96771 -4.47109 2 1 
80 1.2026 9.96639 -0.00184893 -0.0109842 9.96642 -4.33358 2 1 
81.3333 1.20262 9.96614 -0.00187308 -0.0131056 9.96618 -4.30139 2 1 
82.6667 1.20261 9.96497 -0.00186776 -0.0150635 9.96502 -4.31662 2 1 
84 1.20262 9.96328 -0.00187642 -0.0170778 9.96334 -4.29547 2 1 
85.3333 1.2026 9.96262 -0.00183844 -0.0174092 9.96268 -4.34002 2 1 
85.3333 1.2026 9.96262 -0.00183844 -0.0174092 9.96268 -4.34002 3 1 
86.6667 1.20254 9.96247 -0.00177729 -0.0176772 9.96254 -4.43695 3 1 
88 1.20249 9.96123 -0.00174311 -0.017873 9.96131 -4.54221 3 1 
89.3333 1.20242 9.95959 -0.00166784 -0.0166062 9.95966 -4.65918 3 1 
90.6667 1.20235 9.95974 -0.00157938 -0.0153373 9.95981 -4.79418 3 1 
92 1.20224 9.95965 -0.00151393 -0.0135491 9.95971 -4.97714 3 1 
93.3333 1.20215 9.95781 -0.00142997 -0.0109684 9.95786 -5.15409 3 1 
94.6667 1.20206 9.95736 -0.00133571 -0.00823019 9.95741 -5.3087 3 1 
96 1.20196 9.95789 -0.00124698 -0.00484582 9.95792 -5.49661 3 1 
97.3333 1.20186 9.9571 -0.00117028 -0.00185253 9.95712 -5.67599 3 1 
98.6667 1.20178 9.95594 -0.00110586 0.00155655 9.95596 -5.81574 3 1 
100 1.2017 9.95608 -0.0010253 0.00555383 9.9561 -5.96084 3 1 
101.333 1.20164 9.95659 -0.000974482 0.00856283 9.95661 -6.07534 3 1 
102.667 1.20159 9.9556 -0.000965156 0.0119378 9.95562 -6.15096 3 1 
104 1.20156 9.95466 -0.000933396 0.0155696 9.95469 -6.21534 3 1 
105.333 1.20155 9.95539 -0.000939551 0.0178714 9.95542 -6.22656 3 1 
106.667 1.20155 9.95558 -0.000992514 0.0202254 9.95562 -6.22431 3 1 
106.667 1.20155 9.95558 -0.000992514 0.0202254 9.95562 -6.22431 3 1 
108 1.20157 9.95402 -0.00102854 0.0223699 9.95408 -6.18803 3 1 
109.333 1.20163 9.95373 -0.00108574 0.023434 9.95379 -6.08549 3 1 
110.667 1.20167 9.95471 -0.00117435 0.0248211 9.95477 -6.00587 3 1 
112 1.20175 9.95372 -0.00126603 0.0257264 9.95379 -5.87885 3 1 
113.333 1.20186 9.95235 -0.00138026 0.0256309 9.95243 -5.68 3 1 
114.667 1.20194 9.95284 -0.00148895 0.0257565 9.95292 -5.53175 3 1 
116 1.20205 9.95243 -0.00160636 0.0249258 9.95251 -5.33696 3 1 
117.333 1.20219 9.95041 -0.00177365 0.0231683 9.95049 -5.08021 3 1 
118.667 1.20229 9.95002 -0.0019081 0.0219076 9.95008 -4.89193 3 1 
120 1.20242 9.94996 -0.00203058 0.0200126 9.95002 -4.65709 3 1 
121.333 1.20256 9.94886 -0.00220124 0.0177111 9.9489 -4.41028 3 1 
122.667 1.20266 9.94769 -0.00234916 0.0158799 9.94772 -4.22695 3 1 
124 1.20279 9.9466 -0.00246738 0.0132711 9.94663 -3.98735 3 1 
125.333 1.2029 9.94627 -0.00260042 0.0105407 9.94629 -3.7964 3 1 
126.667 1.20297 9.94508 -0.00272302 0.00818343 9.94509 -3.66924 3 1 
128 1.20307 9.94272 -0.00282125 0.00564399 9.94273 -3.48127 3 1 
128 1.20307 9.94272 -0.00282125 0.00564399 9.94273 -3.48127 3 1 
129.333 1.20314 9.94263 -0.0028958 0.00349515 9.94264 -3.36105 3 1 
130.667 1.20317 9.94234 -0.00296272 0.00189824 9.94235 -3.29721 3 1 
132 1.20323 9.93961 -0.0030306 0.00026956 9.93962 -3.19601 3 1 
133.333 1.20324 9.93914 -0.00305848 -0.00108539 9.93916 -3.17025 3 1 
134.667 1.20325 9.9393 -0.00306782 -0.00224748 9.93932 -3.16472 3 1 
136 1.20325 9.93733 -0.00309204 -0.00311675 9.93736 -3.15477 3 1 
137.333 1.20322 9.93562 -0.00309415 -0.00337231 9.93565 -3.21308 3 1 
138.667 1.20319 9.9353 -0.00305917 -0.00328473 9.93533 -3.2727 3 1 
140 1.20316 9.93521 -0.00303652 -0.00272836 9.93524 -3.33223 3 1 
141.333 1.2031 9.93371 -0.0030224 -0.00175831 9.93374 -3.43416 3 1 
142.667 1.20304 9.93272 -0.00298303 -0.000898913 9.93276 -3.54592 3 1 
144 1.20299 9.9329 -0.00293449 0.000323055 9.93293 -3.63586 3 1 
145.333 1.20293 9.93174 -0.0029145 0.00210369 9.93176 -3.73663 3 1 
146.667 1.20286 9.93055 -0.00291347 0.00374149 9.93057 -3.87101 3 1 
148 1.20281 9.93042 -0.0028776 0.00566126 9.93044 -3.9624 3 1 
149.333 1.20278 9.93003 -0.0028564 0.00766093 9.93004 -4.00986 3 1 
149.333 1.20278 9.93003 -0.0028564 0.00766093 9.93004 -4.00986 3 1 
150.667 1.20272 9.92966 -0.00288565 0.00949284 9.92967 -4.11222 3 1 
152 1.20269 9.92857 -0.00290612 0.0113644 9.92858 -4.17516 3 1 
153.333 1.2027 9.92767 -0.0029077 0.0126844 9.92768 -4.15823 3 1 
154.667 1.20267 9.92829 -0.00294225 0.0144893 9.9283 -4.20837 3 1 
156 1.20266 9.92702 -0.00301965 0.0157447 9.92704 -4.22208 3 1 
157.333 1.20271 9.92542 -0.00308354 0.0162933 9.92544 -4.13069 3 1 
158.667 1.20274 9.92658 -0.0031422 0.0174327 9.9266 -4.09101 3 1 
160 1.20276 9.9255 -0.00325167 0.0177138 9.92553 -4.04311 3 1 
161.333 1.20282 9.92343 -0.00338049 0.0179159 9.92346 -3.93878 3 1 
162.667 1.20289 9.92349 -0.00346627 0.0178949 9.92352 -3.81895 3 1 
164 1.20296 9.92255 -0.00356806 0.0173166 9.92258 -3.68175 3 1 
165.333 1.20302 9.92147 -0.00371995 0.0172681 9.9215 -3.57766 3 1 
166.667 1.20311 9.92026 -0.00383295 0.0161836 9.92029 -3.4191 3 1 
168 1.20321 9.91938 -0.00390592 0.0149162 9.9194 -3.22818 3 1 
169.333 1.20327 9.91946 -0.00402564 0.0141582 9.91948 -3.12397 3 1 
170.667 1.20335 9.91722 -0.00415196 0.0125018 9.91724 -2.97513 3 1 
170.667 1.20335 9.91722 -0.00415196 0.0125018 9.91724 -2.97513 11 1 
172 1.20346 9.91537 -0.00422063 0.0111833 9.91539 -2.78149 11 1 
173.333 1.20352 9.91566 -0.0042678 0.0105537 9.91567 -2.67151 11 1 
174.667 1.20358 9.91409 -0.00435752 0.00969466 9.9141 -2.5735 11 1 
176 1.20365 9.91148 -0.00442741 0.00882525 9.91149 -2.43493 11 1 
177.333 1.20371 9.91063 -0.00441342 0.00796538 9.91063 -2.32797 11 1 
178.667 1.20374 9.91007 -0.00444502 0.00738455 9.91007 -2.27358 11 1 
180 1.20378 9.90826 -0.00450705 0.00723947 9.90826 -2.21075 11 1 
181.333 1.20382 9.90657 -0.00448533 0.00715271 9.90658 -2.1316 11 1 
182.667 1.20383 9.90586 -0.0044081 0.00763931 9.90586 -2.11137 11 1 
184 1.20382 9.90439 -0.00440492 0.0086117 9.9044 -2.12674 11 1 
185.333 1.20384 9.90157 -0.00441904 0.00925813 9.90158 -2.09839 11 1 
186.667 1.20384 9.90011 -0.00433762 0.00979471 9.90012 -2.08856 11 1 
188 1.20381 9.90036 -0.00427478 0.0106597 9.90037 -2.14345 11 1 
189.333 1.2038 9.89895 -0.00428042 0.0119601 9.89896 -2.16289 11 1 
190.667 1.20382 9.89615 -0.00426119 0.0133807 9.89617 -2.13901 11 1 
192 1.20379 9.8953 -0.00418773 0.0148598 9.89531 -2.1924 11 1 
192 1.20379 9.8953 -0.00418773 0.0148598 9.89531 -2.1924 11 1 
193.333 1.20376 9.89426 -0.00419934 0.0167743 9.89428 -2.24162 11 1 
194.667 1.20378 9.89104 -0.00424954 0.0177748 9.89106 -2.20939 11 1 
196 1.20377 9.88923 -0.00420822 0.0177822 9.88925 -2.22844 11 1 
197.333 1.20375 9.88879 -0.00417485 0.0187287 9.88881 -2.25753 11 1 
198.667 1.20379 9.88625 -0.00420056 0.0194245 9.88628 -2.19445 11 1 
200 1.20381 9.88358 -0.00427193 0.0201516 9.88361 -2.15771 11 1 
201.333 1.2038 9.883 -0.00428228 0.0216717 9.88303 -2.16334 11 1 
202.667 1.20385 9.8816 -0.00430872 0.0222123 9.88163 -2.07205 11 1 
204 1.20391 9.87865 -0.00445414 0.0216721 9.87868 -1.97371 11 1 
205.333 1.20393 9.87569 -0.00455618 0.0203554 9.87571 -1.93228 11 1 
206.667 1.20398 9.87357 -0.00458343 0.0189701 9.87359 -1.8374 11 1 
208 1.20405 9.87141 -0.00474096 0.0197389 9.87143 -1.71977 11 1 
209.333 1.2041 9.86755 -0.00494415 0.0204011 9.86757 -1.62019 11 1 
210.667 1.20415 9.86471 -0.00499372 0.0199041 9.86473 -1.53592 11 1 
212 1.20421 9.86325 -0.00505527 0.0212759 9.86327 -1.4257 11 1 
213.333 1.2043 9.85901 -0.00520288 0.0198957 9.85903 -1.26494 11 1 
213.333 1.2043 9.85901 -0.00520288 0.0198957 9.85903 -1.26494 11 1 
214.667 1.20433 9.8554 -0.00526514 0.0174151 9.85542 -1.2132 11 1 
216 1.20435 9.85415 -0.00521476 0.0182215 9.85417 -1.16888 11 1 
217.333 1.20447 9.84908 -0.00529491 0.0169565 9.8491 -0.965025 11 1 
218.667 1.20449 9.84416 -0.00545054 0.0171116 9.84418 -0.924011 11 1 
220 1.20448 9.8413 -0.00554813 0.0191832 9.84132 -0.93687 11 1 
221.333 1.20459 9.83525 -0.00561408 0.0183156 9.83527 -0.733643 11 1 
222.667 1.20461 9.83123 -0.00572389 0.0185472 9.83126 -0.700343 11 1 
224 1.2046 9.82796 -0.00581161 0.0176451 9.82798 -0.729638 11 1 
225.333 1.20469 9.82226 -0.00575282 0.0152766 9.82228 -0.561165 11 1 
226.667 1.20473 9.81929 -0.00571871 0.0167721 9.81931 -0.479067 11 1 
228 1.20474 9.81381 -0.00579757 0.0164416 9.81382 -0.460936 11 1 
229.333 1.20479 9.80598 -0.00584818 0.0153931 9.80599 -0.387794 11 1 
230.667 1.20485 9.80076 -0.00583095 0.0165253 9.80078 -0.278546 11 1 
232 1.20491 9.79316 -0.00582096 0.0150155 9.79317 -0.159352 11 1 
233.333 1.20493 9.78685 -0.0058112 0.0153126 9.78686 -0.122176 11 1 
234.667 1.20501 9.78247 -0.00573081 0.0151132 9.78249 0.0270973 11 1 
234.667 1.20501 9.78247 -0.00573081 0.0151132 9.78249 0.0270973 11 1 
236 1.20514 9.77443 -0.00564191 0.0139766 9.77444 0.249147 11 1 
237.333 1.20515 9.76684 -0.00571812 0.0152793 9.76685 0.273331 11 1 
238.667 1.20521 9.75776 -0.00576241 0.0148772 9.75778 0.386901 11 1 
240 1.20536 9.74704 -0.00563415 0.0167332 9.74706 0.641359 11 1 
241.333 1.20542 9.73877 -0.00556767 0.0190385 9.73879 0.75346 11 1 
242.667 1.20547 9.73006 -0.00558981 0.0182094 9.73008 0.844059 11 1 
244 1.2056 9.7193 -0.0055869 0.0198261 9.71933 1.07626 11 1 
245.333 1.20571 9.70755 -0.00564593 0.0225191 9.70758 1.28047 11 1 
246.667 1.20574 9.69517 -0.00567472 0.0254382 9.69521 1.34249 11 1 
248 1.20582 9.68171 -0.00566096 0.0281024 9.68176 1.48999 11 1 
249.333 1.20598 9.66796 -0.00569141 0.0301359 9.66801 1.76155 11 1 
250.667 1.20605 9.65441 -0.00572053 0.0336252 9.65447 1.89248 11 1 
252 1.20609 9.63963 -0.00586296 0.0358159 9.6397 1.97088 11 1 
253.333 1.20625 9.62173 -0.0059839 0.037879 9.62181 2.25863 11 1 
254.667 1.20638 9.60311 -0.00594479 0.0422119 9.60322 2.48946 11 1 
256 1.20641 9.58517 -0.00603262 0.0450785 9.58528 2.55049 11 1 
256 1.20641 9.58517 -0.00603262 0.0450785 9.58528 2.55049 13 1 
257.333 1.20657 9.5651 -0.00623765 0.0463495 9.56522 2.83357 13 1 
258.667 1.20678 9.54262 -0.00630141 0.0497207 9.54276 3.21868 13 1 
260 1.20687 9.51985 -0.00635386 0.0512309 9.52 3.37763 13 1 
261.333 1.20701 9.49522 -0.00651178 0.0536281 9.49539 3.6244 13 1 
262.667 1.20729 9.46588 -0.00665043 0.0558884 9.46606 4.13029 13 1 
264 1.20747 9.43731 -0.00672615 0.0579008 9.43749 4.46716 13 1 
265.333 1.20762 9.40708 -0.00683187 0.060753 9.40729 4.73743 13 1 
266.667 1.20795 9.37114 -0.00696496 0.0633902 9.37137 5.32696 13 1 
268 1.20825 9.33491 -0.00704452 0.0675256 9.33516 5.87924 13 1 
269.333 1.20846 9.29433 -0.00709891 0.0717776 9.29462 6.25275 13 1 
270.667 1.20876 9.25113 -0.00720255 0.0788884 9.25147 6.79235 13 1 
272 1.20918 9.20609 -0.0073092 0.0861172 9.20651 7.54198 13 1 
273.333 1.20955 9.15211 -0.00734895 0.0954937 9.15263 8.21135 13 1 
274.667 1.20978 9.10007 -0.00739994 0.109137 9.10075 8.64088 13 1 
276 1.21025 9.04076 -0.00748669 0.122843 9.04165 9.47951 13 1 
277.333 1.21085 8.96104 -0.00751818 0.133788 8.96211 10.5593 13 1 
277.333 1.21085 8.96104 -0.00751818 0.133788 8.96211 10.5593 13 1 
278.667 1.21101 8.88955 -0.00754004 0.149032 8.89087 10.8586 13 1 
280 1.21144 8.81783 -0.00764279 0.170971 8.81952 11.6329 13 1 
281.333 1.2123 8.73325 -0.00773631 0.201244 8.73562 13.188 13 1 
282.667 1.21265 8.65811 -0.00777767 0.238091 8.66145 13.814 13 1 
284 1.21306 8.56062 -0.00782814 0.268106 8.56491 14.5533 13 1 
285.333 1.21386 8.44131 -0.00784687 0.299303 8.44674 15.9947 13 1 
286.667 1.21437 8.33682 -0.00786729 0.336722 8.34373 16.9313 13 1 
288 1.21497 8.2194 -0.00792825 0.393629 8.22904 18.0157 13 1 
289.333 1.21568 8.09599 -0.00797891 0.449274 8.10859 19.285 13 1 
290.667 1.21639 7.96655 -0.0079954 0.500057 7.98256 20.5665 13 1 
292 1.21714 7.81669 -0.00800542 0.594819 7.83981 21.9306 13 1 
293.333 1.21757 7.67628 -0.00801232 0.659391 7.70469 22.7106 13 1 
294.667 1.21869 7.50446 -0.0080097 0.714279 7.53931 24.7308 13 1 
296 1.21993 7.2933 -0.00799402 0.894567 7.35007 26.976 13 1 
297.333 1.2185 6.97835 -0.00793603 0.945809 7.04392 24.3759 13 1 
298.667 1.21342 6.45832 -0.0078525 0.475831 6.49065 15.2029 13 1 
298.667 1.21342 6.45832 -0.0078525 0.475831 6.49065 15.2029 14 1 
300 1.20609 5.91979 -0.00782495 -0.514314 5.97873 1.97398 14 1 
301.333 1.19965 5.56547 -0.00788232 -1.26293 5.71201 -9.66138 14 1 
302.667 1.19657 5.35367 -0.00794037 -1.29595 5.50977 -15.2356 14 1 
304 1.1961 5.18339 -0.00796065 -1.08457 5.29655 -16.0819 14 1 
305.333 1.19661 5.06008 -0.00797298 -0.949591 5.14872 -15.1537 14 1 
306.667 1.19752 4.99965 -0.00797192 -0.85811 5.07313 -13.5035 14 1 
308 1.19818 4.94014 -0.00797271 -0.777383 5.00116 -12.3186 14 1 
309.333 1.19833 4.85345 -0.00798751 -0.700864 4.90412 -12.0428 14 1 
310.667 1.19871 4.76167 -0.00795185 -0.625814 4.80288 -11.362 14 1 
312 1.1994 4.68116 -0.00787789 -0.562699 4.71514 -10.112 14 1 
313.333 1.1997 4.60125 -0.00784318 -0.500908 4.62865 -9.56577 14 1 
314.667 1.1998 4.51035 -0.0078224 -0.445556 4.53253 -9.38757 14 1 
316 1.20027 4.4219 -0.00776504 -0.401307 4.44027 -8.53898 14 1 
317.333 1.20073 4.34194 -0.00770466 -0.358571 4.35694 -7.70408 14 1 
318.667 1.20082 4.25682 -0.00767727 -0.316945 4.26875 -7.55663 14 1 
320 1.20097 4.1726 -0.00764306 -0.286974 4.18259 -7.27087 14 1 
320 1.20097 4.1726 -0.00764306 -0.286974 4.18259 -7.27087 14 1 
321.333 1.2014 4.10339 -0.00758006 -0.258632 4.11165 -6.49909 14 1 
322.667 1.20167 4.03487 -0.00752552 -0.230529 4.04159 -6.02281 14 1 
324 1.20171 3.95464 -0.00747491 -0.206226 3.96014 -5.93569 14 1 
325.333 1.2019 3.87987 -0.00741436 -0.187059 3.88447 -5.59292 14 1 
326.667 1.2022 3.82316 -0.00737066 -0.170563 3.82705 -5.04949 14 1 
328 1.20236 3.76773 -0.00734587 -0.154385 3.771 -4.75982 14 1 
329.333 1.20245 3.70034 -0.00731705 -0.138356 3.70301 -4.60909 14 1 
330.667 1.20262 3.63496 -0.00727375 -0.125452 3.6372 -4.2901 14 1 
332 1.20282 3.58352 -0.00721089 -0.115413 3.58545 -3.93867 14 1 
333.333 1.20293 3.53566 -0.00715542 -0.105471 3.53731 -3.7408 14 1 
334.667 1.20305 3.48201 -0.0071236 -0.0953678 3.48338 -3.52554 14 1 
336 1.20321 3.42781 -0.00707499 -0.0866268 3.42896 -3.2357 14 1 
337.333 1.20332 3.37901 -0.00701078 -0.0784296 3.37999 -3.03198 14 1 
338.667 1.20341 3.33433 -0.00695544 -0.0712086 3.33515 -2.86425 14 1 
340 1.20355 3.28985 -0.0069016 -0.0645374 3.29053 -2.61925 14 1 
341.333 1.20368 3.24518 -0.00684628 -0.0583116 3.24576 -2.38782 14 1 
341.333 1.20368 3.24518 -0.00684628 -0.0583116 3.24576 -2.38782 15 1 
342.667 1.20376 3.20153 -0.00678054 -0.0515914 3.202 -2.24383 15 1 
344 1.20385 3.15875 -0.00671963 -0.0450225 3.15912 -2.08423 15 1 
345.333 1.20397 3.1187 -0.00666687 -0.040082 3.119 -1.85495 15 1 
346.667 1.20407 3.08059 -0.00658884 -0.0353154 3.08084 -1.67715 15 1 
348 1.20414 3.04157 -0.00651031 -0.0300622 3.04177 -1.56246 15 1 
349.333 1.20423 3.00366 -0.0064569 -0.0247406 3.0038 -1.38299 15 1 
350.667 1.20434 2.96713 -0.00639856 -0.0202143 2.96724 -1.18642 15 1 
352 1.20441 2.93102 -0.00632353 -0.0164272 2.93111 -1.06934 15 1 
353.333 1.20448 2.89715 -0.00624084 -0.012294 2.89721 -0.944339 15 1 
354.667 1.20458 2.8646 -0.00617996 -0.00837261 2.86465 -0.759501 15 1 
356 1.20466 2.83167 -0.00614546 -0.00494128 2.83171 -0.605503 15 1 
357.333 1.20472 2.79913 -0.00611082 -0.00128471 2.79916 -0.504591 15 1 
358.667 1.20479 2.76849 -0.00606903 0.00212952 2.76853 -0.37102 15 1 
360 1.20489 2.74047 -0.00603317 0.00513821 2.74051 -0.200229 15 1 
361.333 1.20496 2.71293 -0.00602709 0.00769812 2.71297 -0.0715931 15 1 
362.667 1.20502 2.68428 -0.00602845 0.0100446 2.68433 0.0316278 15 1 
362.667 1.20502 2.68428 -0.00602845 0.0100446 2.68433 0.0316278 15 1 
364 1.2051 2.65658 -0.00601444 0.0125483 2.65664 0.172778 15 1 
365.333 1.20518 2.63163 -0.00600801 0.0146215 2.6317 0.320902 15 1 
366.667 1.20524 2.60826 -0.00602435 0.0162364 2.60833 0.435433 15 1 
368 1.2053 2.58425 -0.00604966 0.017673 2.58434 0.548032 15 1 
369.333 1.20538 2.56017 -0.00607356 0.0189807 2.56027 0.686158 15 1 
370.667 1.20545 2.53804 -0.00610895 0.0205055 2.53815 0.817806 15 1 
372 1.20551 2.5173 -0.00615248 0.0219092 2.51742 0.924028 15 1 
373.333 1.20558 2.49712 -0.0061964 0.0227689 2.49725 1.04559 15 1 
374.667 1.20565 2.47773 -0.00624789 0.0232691 2.47786 1.18289 15 1 
376 1.20571 2.45829 -0.00631662 0.0240761 2.45843 1.29002 15 1 
377.333 1.20577 2.43944 -0.00639868 0.025278 2.43959 1.39122 15 1 
378.667 1.20584 2.4227 -0.0064913 0.0260497 2.42286 1.52375 15 1 
380 1.20591 2.40673 -0.00659937 0.0262742 2.40689 1.64784 15 1 
381.333 1.20596 2.39033 -0.0067134 0.0267341 2.3905 1.74274 15 1 
382.667 1.20603 2.37456 -0.00684189 0.0274447 2.37474 1.85209 15 1 
384 1.2061 2.35976 -0.00699237 0.0279462 2.35995 1.98002 15 1 
384 1.2061 2.35976 -0.00699237 0.0279462 2.35995 1.98002 15 1 
385.333 1.20615 2.34564 -0.0071542 0.0281729 2.34583 2.08613 15 1 
386.667 1.20621 2.33232 -0.0073272 0.0284411 2.33251 2.1797 15 1 
388 1.20627 2.31925 -0.0075271 0.0285877 2.31945 2.29233 15 1 
389.333 1.20633 2.30603 -0.0077434 0.0284564 2.30623 2.40801 15 1 
390.667 1.20639 2.29335 -0.00791078 0.0284823 2.29354 2.50602 15 1 
392 1.20644 2.28174 -0.00800519 0.0286058 2.28194 2.60277 15 1 
393.333 1.2065 2.27065 -0.00808923 0.0282358 2.27085 2.71265 15 1 
394.667 1.20656 2.25945 -0.00820132 0.0275624 2.25964 2.81824 15 1 
396 1.20661 2.24809 -0.00831778 0.0271163 2.24828 2.90675 15 1 
397.333 1.20666 2.23707 -0.00839639 0.026664 2.23726 3.00072 15 1 
398.667 1.20672 2.22705 -0.00840515 0.0254184 2.22722 3.11019 15 1 
400 1.20678 2.2172 -0.00837867 0.0232966 2.21735 3.20719 15 1 
401.333 1.20682 2.20638 -0.00837705 0.02094 2.20651 3.28714 15 1 
402.667 1.20687 2.19561 -0.00841785 0.0185592 2.19571 3.37922 15 1 
404 1.20693 2.18575 -0.00849447 0.0158997 2.18583 3.48012 15 1 
405.333 1.20697 2.17583 -0.0085941 0.0132041 2.17589 3.56363 15 1 
405.333 1.20697 2.17583 -0.0085941 0.0132041 2.17589 3.56363 15 1 
406.667 1.20702 2.16547 -0.00869537 0.0109082 2.16552 3.64063 15 1 
408 1.20706 2.15525 -0.00879344 0.0089143 2.15529 3.72968 15 1 
409.333 1.20711 2.14521 -0.00888916 0.00709181 2.14525 3.81519 15 1 
410.667 1.20715 2.13539 -0.00897356 0.00568258 2.13543 3.8889 15 1 
412 1.2072 2.12604 -0.00903239 0.00474812 2.12607 3.96634 15 1 
413.333 1.20724 2.11693 -0.00907536 0.00401096 2.11696 4.04793 15 1 
414.667 1.20728 2.1079 -0.0091265 0.00344537 2.10792 4.12106 15 1 
416 1.20732 2.09925 -0.00916682 0.00332552 2.09928 4.18919 15 1 
417.333 1.20736 2.0911 -0.00918551 0.00358428 2.09113 4.26318 15 1 
418.667 1.2074 2.0833 -0.00920208 0.00393632 2.08333 4.33792 15 1 
420 1.20744 2.07568 -0.0092179 0.00437021 2.07571 4.40354 15 1 
421.333 1.20747 2.06823 -0.00922353 0.00499473 2.06826 4.46763 15 1 
422.667 1.20751 2.06118 -0.0092302 0.00579415 2.06121 4.53879 15 1 
424 1.20755 2.05455 -0.0092366 0.00669618 2.05458 4.60778 15 1 
425.333 1.20758 2.04799 -0.00924044 0.00764892 2.04802 4.66861 15 1 
426.667 1.20762 2.04146 -0.00924724 0.00866073 2.04151 4.73116 15 1 
426.667 1.20762 2.04146 -0.00924724 0.00866073 2.04151 4.73116 20 1 
428 1.20766 2.03532 -0.00925751 0.0097141 2.03536 4.79774 20 1 
429.333 1.20769 2.02939 -0.00927428 0.0107819 2.02944 4.85821 20 1 
430.667 1.20772 2.02336 -0.00929776 0.0118775 2.02342 4.91416 20 1 
432 1.20775 2.01745 -0.00932013 0.0130221 2.01752 4.97491 20 1 
433.333 1.20779 2.01178 -0.00935323 0.0142103 2.01186 5.0362 20 1 
434.667 1.20782 2.00609 -0.00941422 0.0155109 2.00618 5.09103 20 1 
436 1.20785 2.00036 -0.0095027 0.0170617 2.00045 5.14386 20 1 
437.333 1.20788 1.99475 -0.00960384 0.0189039 1.99486 5.19845 20 1 
438.667 1.20791 1.98922 -0.00973261 0.0209432 1.98935 5.25085 20 1 
440 1.20793 1.98371 -0.00990049 0.0231583 1.98387 5.29995 20 1 
441.333 1.20796 1.97827 -0.0100961 0.0254901 1.97846 5.34974 20 1 
442.667 1.20799 1.97294 -0.0103296 0.027797 1.97317 5.40016 20 1 
444 1.20802 1.96769 -0.0106093 0.0299998 1.96795 5.44695 20 1 
445.333 1.20804 1.9625 -0.0109208 0.0319559 1.96279 5.49105 20 1 
446.667 1.20807 1.95744 -0.0112596 0.0334255 1.95776 5.53718 20 1 
448 1.20809 1.95256 -0.0116276 0.0342522 1.9529 5.5839 20 1 
448 1.20809 1.95256 -0.0116276 0.0342522 1.9529 5.5839 20 1 
449.333 1.20812 1.9479 -0.0120163 0.0344269 1.94824 5.6274 20 1 
450.667 1.20814 1.94347 -0.0124177 0.0341366 1.94381 5.67076 20 1 
452 1.20816 1.93925 -0.0128499 0.033698 1.93958 5.71622 20 1 
453.333 1.20819 1.9352 -0.0133397 0.0334449 1.93553 5.76007 20 1 
454.667 1.20821 1.93139 -0.0138937 0.0336632 1.93173 5.80236 20 1 
456 1.20824 1.92795 -0.0145102 0.0344389 1.92831 5.84652 20 1 
457.333 1.20826 1.92496 -0.0151856 0.0355711 1.92535 5.89209 20 1 
458.667 1.20829 1.92258 -0.0158872 0.0365776 1.92299 5.93739 20 1 
460 1.20831 1.92108 -0.0165584 0.0369515 1.92151 5.98305 20 1 
461.333 1.20834 1.92064 -0.017184 0.0364191 1.92106 6.03039 20 1 
462.667 1.20837 1.92127 -0.0177613 0.0349169 1.92167 6.07905 20 1 
464 1.20839 1.92282 -0.0183111 0.0325765 1.92318 6.12774 20 1 
465.333 1.20842 1.92511 -0.0188761 0.0296754 1.92543 6.17701 20 1 
466.667 1.20845 1.9281 -0.0195021 0.0264736 1.92838 6.22856 20 1 
468 1.20848 1.93186 -0.0202032 0.023145 1.93211 6.28207 20 1 
469.333 1.20851 1.93643 -0.0209332 0.0197436 1.93665 6.33553 20 1 
469.333 1.20851 1.93643 -0.0209332 0.0197436 1.93665 6.33553 20 1 
470.667 1.20854 1.94182 -0.0216231 0.0162752 1.94201 6.38932 20 1 
472 1.20857 1.94813 -0.0222164 0.0127664 1.94831 6.44566 20 1 
473.333 1.2086 1.95543 -0.0226919 0.0092455 1.95559 6.50388 20 1 
474.667 1.20863 1.96368 -0.0230539 0.00580772 1.96383 6.56302 20 1 
476 1.20867 1.97273 -0.0233437 0.00258263 1.97288 6.6241 20 1 
477.333 1.2087 1.98254 -0.0236137 -0.000336562 1.98269 6.68619 20 1 
478.667 1.20874 1.99319 -0.0239066 -0.00293148 1.99335 6.74852 20 1 
480 1.20877 2.00473 -0.0242475 -0.00514666 2.0049 6.81241 20 1 
481.333 1.20881 2.01708 -0.0246741 -0.00673412 2.01725 6.87848 20 1 
482.667 1.20885 2.03013 -0.0253177 -0.00741912 2.03031 6.94639 20 1 
484 1.20888 2.04389 -0.0263622 -0.00712342 2.04409 7.01475 20 1 
485.333 1.20892 2.05838 -0.0279389 -0.00573214 2.05859 7.08243 20 1 
486.667 1.20896 2.07378 -0.029981 -0.00301789 2.07402 7.1499 20 1 
488 1.209 2.09073 -0.0322388 0.000786577 2.091 7.21771 20 1 
489.333 1.20903 2.11 -0.0343508 0.00467169 2.11031 7.28546 20 1 
490.667 1.20907 2.13187 -0.035741 0.00736419 2.13221 7.35242 20 1 
490.667 1.20907 2.13187 -0.035741 0.00736419 2.13221 7.35242 20 1 
492 1.20911 2.15534 -0.0355391 0.00823099 2.15567 7.4182 20 1 
493.333 1.20914 2.17769 -0.0330026 0.00764158 2.17797 7.48217 20 1 
494.667 1.20918 2.19496 -0.028583 0.00692528 2.19516 7.54429 20 1 
496 1.20921 2.20426 -0.0243417 0.00804155 2.20441 7.60557 20 1 
497.333 1.20924 2.20675 -0.0226761 0.0118575 2.2069 7.66574 20 1 
498.667 1.20928 2.20829 -0.0243459 0.0160366 2.20848 7.72331 20 1 
500 1.20931 2.21677 -0.0278006 0.0154283 2.21701 7.77849 20 1 
501.333 1.20934 2.2377 -0.0304565 0.00587745 2.23795 7.83227 20 1 
502.667 1.20936 2.27077 -0.0306398 -0.0118235 2.27109 7.88407 20 1 
504 1.20939 2.30947 -0.0286014 -0.0315791 2.30995 7.93226 20 1 
505.333 1.20942 2.34423 -0.0259636 -0.0454901 2.34487 7.97597 20 1 
506.667 1.20944 2.36768 -0.0244218 -0.0482412 2.36833 8.01529 20 1 
508 1.20946 2.378 -0.0248144 -0.0392845 2.37848 8.04947 20 1 
509.333 1.20947 2.37804 -0.0270875 -0.0219906 2.37834 8.0805 20 1 
510.667 1.20949 2.37256 -0.030752 -0.00103245 2.37283 8.1138 20 1 
512 1.20951 2.36598 -0.0352469 0.0198631 2.36641 8.14978 20 1 
512 1.20951 2.36598 -0.0352469 0.0198631 2.36641 8.14978 21 1 
513.333 1.20953 2.36137 -0.04011 0.0386787 2.36213 8.18466 21 1 
514.667 1.20955 2.36025 -0.0450066 0.0547141 2.36144 8.22002 21 1 
516 1.20957 2.36288 -0.0497108 0.0680373 2.36452 8.25957 21 1 
517.333 1.20959 2.36886 -0.0540671 0.0790472 2.37095 8.29939 21 1 
518.667 1.20961 2.37761 -0.0579958 0.0881612 2.38013 8.33521 21 1 
520 1.20963 2.38855 -0.0614779 0.0956549 2.39144 8.37123 21 1 
521.333 1.20966 2.40109 -0.0645374 0.101761 2.40431 8.40989 21 1 
522.667 1.20968 2.41477 -0.0672339 0.106718 2.41827 8.44595 21 1 
524 1.20969 2.42931 -0.0696064 0.110703 2.43305 8.47854 21 1 
525.333 1.20971 2.44454 -0.0717192 0.113809 2.44846 8.51299 21 1 
526.667 1.20973 2.46034 -0.0736343 0.116192 2.4644 8.54861 21 1 
528 1.20975 2.47663 -0.0753683 0.118077 2.48081 8.58049 21 1 
529.333 1.20977 2.49337 -0.0769522 0.119661 2.49764 8.61056 21 1 
530.667 1.20979 2.51056 -0.0783994 0.121102 2.51492 8.64369 21 1 
532 1.2098 2.52819 -0.079702 0.122606 2.53263 8.67652 21 1 
533.333 1.20982 2.54619 -0.080832 0.12443 2.55072 8.70519 21 1 
533.333 1.20982 2.54619 -0.080832 0.12443 2.55072 8.70519 21 1 
534.667 1.20984 2.56448 -0.0817481 0.126786 2.56912 8.73542 21 1 
536 1.20985 2.58293 -0.082395 0.129799 2.5877 8.76902 21 1 
537.333 1.20987 2.60139 -0.0826858 0.133644 2.60632 8.79912 21 1 
538.667 1.20989 2.61963 -0.0825031 0.138458 2.62476 8.82618 21 1 
540 1.2099 2.63731 -0.0817098 0.144225 2.64268 8.85762 21 1 
541.333 1.20992 2.65396 -0.0801607 0.150924 2.65961 8.89127 21 1 
542.667 1.20994 2.66899 -0.0776716 0.158514 2.67496 8.91983 21 1 
544 1.20995 2.68166 -0.074055 0.166826 2.68798 8.94753 21 1 
545.333 1.20997 2.69107 -0.0691563 0.175543 2.69778 8.97975 21 1 
546.667 1.20999 2.69633 -0.0628551 0.18435 2.70346 9.01038 21 1 
548 1.21 2.69682 -0.0551103 0.192855 2.70436 9.03684 21 1 
549.333 1.21002 2.6923 -0.0460059 0.200387 2.70023 9.06626 21 1 
550.667 1.21004 2.68325 -0.0357935 0.206101 2.69148 9.09852 21 1 
552 1.21005 2.67097 -0.0249098 0.209021 2.67935 9.12547 21 1 
553.333 1.21007 2.65744 -0.0139749 0.208084 2.66573 9.14892 21 1 
554.667 1.21008 2.64507 -0.00374869 0.202314 2.65298 9.17584 21 1 
554.667 1.21008 2.64507 -0.00374869 0.202314 2.65298 9.17584 22 1 
556 1.21009 2.63627 0.00493523 0.191207 2.64347 9.20193 22 1 
557.333 1.2101 2.63289 0.0113622 0.174883 2.63913 9.22029 22 1 
558.667 1.21011 2.63594 0.0150519 0.154069 2.64107 9.23643 22 1 
560 1.21012 2.64557 0.0157372 0.130046 2.64957 9.25521 22 1 
561.333 1.21013 2.66121 0.0134543 0.104464 2.66421 9.26966 22 1 
562.667 1.21014 2.68182 0.00850386 0.0789507 2.68405 9.27756 22 1 
564 1.21014 2.7062 0.00133388 0.0548042 2.70791 9.28699 22 1 
565.333 1.21015 2.73328 -0.00756459 0.033031 2.73472 9.2986 22 1 
566.667 1.21015 2.7623 -0.0176947 0.0143234 2.76366 9.30519 22 1 
568 1.21015 2.79268 -0.0286022 -0.00102155 2.79411 9.31061 22 1 
569.333 1.21016 2.82404 -0.0399278 -0.0130182 2.82564 9.32245 22 1 
570.667 1.21017 2.85619 -0.0513659 -0.021789 2.85802 9.33499 22 1 
572 1.21017 2.88906 -0.0626616 -0.0275116 2.89113 9.3421 22 1 
573.333 1.21018 2.92258 -0.0736049 -0.0304998 2.92489 9.35127 22 1 
574.667 1.21019 2.95668 -0.0840752 -0.0310998 2.95922 9.36673 22 1 
576 1.21019 2.99137 -0.0939827 -0.0295583 2.99413 9.37992 22 1 
576 1.21019 2.99137 -0.0939827 -0.0295583 2.99413 9.37992 22 1 
577.333 1.2102 3.02655 -0.10327 -0.026165 3.02951 9.3893 22 1 
578.667 1.21021 3.06213 -0.111915 -0.0212805 3.06527 9.40299 22 1 
580 1.21021 3.09803 -0.119939 -0.0151784 3.10136 9.41956 22 1 
581.333 1.21022 3.13423 -0.127376 -0.00805615 3.13774 9.43051 22 1 
582.667 1.21023 3.17067 -0.134231 -0.000128576 3.17435 9.44015 22 1 
584 1.21024 3.20725 -0.140575 0.00835217 3.21112 9.45631 22 1 
585.333 1.21024 3.244 -0.146448 0.0172146 3.24807 9.47141 22 1 
586.667 1.21025 3.28089 -0.151886 0.0263723 3.28517 9.48012 22 1 
588 1.21025 3.31793 -0.156925 0.0356373 3.32244 9.49077 22 1 
589.333 1.21026 3.35506 -0.161596 0.0448735 3.35981 9.50688 22 1 
590.667 1.21027 3.39236 -0.165957 0.0540365 3.39736 9.51798 22 1 
592 1.21027 3.42986 -0.169968 0.0630635 3.43512 9.5246 22 1 
593.333 1.21028 3.46752 -0.17367 0.0718306 3.47303 9.53802 22 1 
594.667 1.21029 3.50536 -0.177076 0.0802808 3.51114 9.553 22 1 
596 1.21029 3.54338 -0.180194 0.0884515 3.54943 9.56035 22 1 
597.333 1.2103 3.58163 -0.183002 0.0962922 3.58794 9.56602 22 1 
597.333 1.2103 3.58163 -0.183002 0.0962922 3.58794 9.56602 24 1 
598.667 1.2103 3.62002 -0.185498 0.103706 3.62658 9.57894 24 1 
600 1.21031 3.6586 -0.187729 0.110712 3.6654 9.58989 24 1 
601.333 1.21031 3.69739 -0.189642 0.117358 3.70442 9.59381 24 1 
602.667 1.21032 3.73627 -0.19126 0.123584 3.74352 9.60282 24 1 
604 1.21032 3.77522 -0.192612 0.129361 3.78266 9.61596 24 1 
605.333 1.21033 3.81423 -0.193727 0.134773 3.82186 9.62126 24 1 
606.667 1.21033 3.85328 -0.19458 0.139808 3.86107 9.62125 24 1 
608 1.21033 3.89226 -0.195207 0.144408 3.90019 9.62822 24 1 
609.333 1.21034 3.93118 -0.195674 0.14863 3.93924 9.63619 24 1 
610.667 1.21033 3.97008 -0.195985 0.152542 3.97825 9.63602 24 1 
612 1.21034 4.00885 -0.196179 0.156115 4.01712 9.63739 24 1 
613.333 1.21034 4.04746 -0.196296 0.159315 4.05582 9.64457 24 1 
614.667 1.21034 4.08595 -0.196396 0.162231 4.09437 9.64649 24 1 
616 1.21034 4.12427 -0.196472 0.164923 4.13276 9.6414 24 1 
617.333 1.21034 4.16247 -0.196554 0.167341 4.17101 9.64072 24 1 
618.667 1.21034 4.2005 -0.196685 0.169518 4.20909 9.64436 24 1 
618.667 1.21034 4.2005 -0.196685 0.169518 4.20909 9.64436 24 1 
620 1.21034 4.23841 -0.196913 0.171524 4.24704 9.64147 24 1 
621.333 1.21033 4.27627 -0.19721 0.173373 4.28494 9.63478 24 1 
622.667 1.21033 4.31396 -0.197571 0.175059 4.32266 9.63516 24 1 
624 1.21033 4.35154 -0.198076 0.17663 4.36027 9.63527 24 1 
625.333 1.21033 4.38911 -0.198669 0.178165 4.39787 9.62711 24 1 
626.667 1.21033 4.42661 -0.19934 0.179615 4.43541 9.62152 24 1 
628 1.21033 4.464 -0.20011 0.181002 4.47282 9.62194 24 1 
629.333 1.21032 4.50133 -0.200987 0.182393 4.51018 9.61707 24 1 
630.667 1.21032 4.53865 -0.201926 0.183842 4.54754 9.60659 24 1 
632 1.21032 4.57588 -0.2029 0.185303 4.58481 9.60225 24 1 
633.333 1.21032 4.61299 -0.203941 0.186769 4.62195 9.6015 24 1 
634.667 1.21031 4.65012 -0.205039 0.188349 4.65912 9.59257 24 1 
636 1.21031 4.68707 -0.206109 0.190009 4.69612 9.58366 24 1 
637.333 1.2103 4.7239 -0.207219 0.19173 4.733 9.57987 24 1 
638.667 1.2103 4.76062 -0.208327 0.193537 4.76977 9.57369 24 1 
640 1.21029 4.79713 -0.209386 0.195449 4.80632 9.56316 24 1 
640 1.21029 4.79713 -0.209386 0.195449 4.80632 9.56316 24 1 
641.333 1.21029 4.83354 -0.210441 0.197498 4.84279 9.55428 24 1 
642.667 1.21029 4.86965 -0.211429 0.199569 4.87895 9.5512 24 1 
644 1.21028 4.90555 -0.212372 0.201781 4.91491 9.54253 24 1 
645.333 1.21028 4.94121 -0.213262 0.204131 4.95062 9.5295 24 1 
646.667 1.21027 4.97654 -0.214044 0.206482 4.98601 9.52167 24 1 
648 1.21027 5.01157 -0.21474 0.208943 5.02108 9.51485 24 1 
649.333 1.21026 5.04621 -0.215382 0.211459 5.05578 9.50314 24 1 
650.667 1.21025 5.08056 -0.215874 0.214104 5.09018 9.49008 24 1 
652 1.21025 5.11445 -0.216266 0.216739 5.12413 9.48286 24 1 
653.333 1.21025 5.14787 -0.216562 0.219421 5.1576 9.47433 24 1 
654.667 1.21024 5.18097 -0.216749 0.222179 5.19074 9.45798 24 1 
656 1.21023 5.21347 -0.216797 0.224938 5.2233 9.44672 24 1 
657.333 1.21023 5.24549 -0.216747 0.22772 5.25536 9.43923 24 1 
658.667 1.21022 5.27704 -0.216617 0.230511 5.28696 9.42505 24 1 
660 1.21021 5.30797 -0.216344 0.233377 5.31793 9.40978 24 1 
661.333 1.2102 5.33836 -0.216 0.236207 5.34835 9.39859 24 1 
661.333 1.2102 5.33836 -0.216 0.236207 5.34835 9.39859 24 1 
662.667 1.2102 5.36819 -0.215565 0.239035 5.37822 9.38733 24 1 
664 1.21019 5.39736 -0.215059 0.24193 5.40744 9.37297 24 1 
665.333 1.21018 5.42597 -0.214473 0.24487 5.43609 9.35725 24 1 
666.667 1.21017 5.45398 -0.21381 0.247789 5.46415 9.34521 24 1 
668 1.21017 5.48119 -0.213108 0.250754 5.4914 9.33393 24 1 
669.333 1.21016 5.50794 -0.212354 0.253803 5.5182 9.31282 24 1 
670.667 1.21015 5.53398 -0.211497 0.256886 5.54428 9.29729 24 1 
672 1.21014 5.55927 -0.210633 0.260033 5.56963 9.28801 24 1 
673.333 1.21013 5.58407 -0.209699 0.263263 5.59449 9.2706 24 1 
674.667 1.21012 5.60809 -0.208695 0.266584 5.61858 9.2523 24 1 
676 1.21011 5.63146 -0.207629 0.270011 5.64202 9.23783 24 1 
677.333 1.21011 5.65415 -0.206469 0.273462 5.66478 9.22396 24 1 
678.667 1.2101 5.67618 -0.205265 0.277128 5.6869 9.2034 24 1 
680 1.21009 5.69763 -0.203908 0.280855 5.70843 9.18524 24 1 
681.333 1.21008 5.71834 -0.202498 0.284673 5.72923 9.17505 24 1 
682.667 1.21007 5.73849 -0.200977 0.288611 5.74948 9.15885 24 1 
682.667 1.21007 5.73849 -0.200977 0.288611 5.74948 9.15885 31 1 
684 1.21006 5.75801 -0.199308 0.292655 5.7691 9.13869 31 1 
685.333 1.21005 5.77695 -0.197563 0.296824 5.78815 9.1227 31 1 
686.667 1.21004 5.79526 -0.195707 0.301016 5.80657 9.11137 31 1 
688 1.21003 5.81309 -0.193741 0.305351 5.82453 9.09219 31 1 
689.333 1.21002 5.83045 -0.191713 0.309726 5.84201 9.07307 31 1 
690.667 1.21002 5.84724 -0.189645 0.314123 5.85893 9.06234 31 1 
692 1.21001 5.86367 -0.187501 0.318509 5.87549 9.0467 31 1 
693.333 1.21 5.87966 -0.185375 0.322914 5.89162 9.02766 31 1 
694.667 1.20999 5.89533 -0.183222 0.327224 5.90743 9.01114 31 1 
696 1.20998 5.91057 -0.181091 0.331435 5.92281 9.00022 31 1 
697.333 1.20997 5.92554 -0.178965 0.335489 5.9379 8.98298 31 1 
698.667 1.20996 5.94025 -0.176816 0.339355 5.95274 8.96352 31 1 
700 1.20996 5.95466 -0.174617 0.342957 5.96727 8.95211 31 1 
701.333 1.20995 5.96889 -0.172411 0.346208 5.9816 8.93794 31 1 
702.667 1.20994 5.98298 -0.170247 0.349137 5.99577 8.91983 31 1 
704 1.20993 5.99705 -0.168 0.351567 6.0099 8.90451 31 1 
704 1.20993 5.99705 -0.168 0.351567 6.0099 8.90451 31 1 
705.333 1.20992 6.01103 -0.16591 0.353531 6.02391 8.89377 31 1 
706.667 1.20992 6.02508 -0.163724 0.354931 6.03796 8.87954 31 1 
708 1.20991 6.03934 -0.161549 0.355702 6.05219 8.86348 31 1 
709.333 1.2099 6.05379 -0.159588 0.355903 6.06659 8.85308 31 1 
710.667 1.2099 6.06864 -0.157499 0.355277 6.08134 8.84153 31 1 
712 1.20989 6.08397 -0.155761 0.353973 6.09653 8.82838 31 1 
713.333 1.20988 6.09994 -0.154193 0.351814 6.11232 8.81702 31 1 
714.667 1.20988 6.11662 -0.15264 0.348723 6.12877 8.8082 31 1 
716 1.20987 6.13412 -0.151535 0.345056 6.14603 8.80064 31 1 
717.333 1.20987 6.15274 -0.150474 0.340301 6.16434 8.79084 31 1 
718.667 1.20986 6.17232 -0.149819 0.334869 6.1836 8.78588 31 1 
720 1.20986 6.19318 -0.149528 0.328533 6.2041 8.78057 31 1 
721.333 1.20986 6.21521 -0.149478 0.321151 6.22574 8.77673 31 1 
722.667 1.20986 6.23848 -0.149894 0.313191 6.2486 8.77316 31 1 
724 1.20985 6.26319 -0.150586 0.304215 6.27287 8.76927 31 1 
725.333 1.20986 6.28924 -0.151632 0.294853 6.29849 8.77044 31 1 
725.333 1.20986 6.28924 -0.151632 0.294853 6.29849 8.77044 31 1 
726.667 1.20986 6.3168 -0.153085 0.284691 6.32561 8.77266 31 1 
728 1.20986 6.34558 -0.154857 0.273856 6.35395 8.77651 31 1 
729.333 1.20986 6.3758 -0.156901 0.262723 6.38373 8.77685 31 1 
730.667 1.20986 6.40685 -0.159448 0.250812 6.41436 8.78662 31 1 
732 1.20987 6.4393 -0.162029 0.238764 6.44641 8.78868 31 1 
733.333 1.20987 6.47286 -0.164895 0.226483 6.47959 8.7933 31 1 
734.667 1.20988 6.5071 -0.167974 0.213921 6.51346 8.80898 31 1 
736 1.20988 6.54261 -0.171019 0.201449 6.54865 8.81444 31 1 
737.333 1.20989 6.57835 -0.17446 0.188665 6.58409 8.82901 31 1 
738.667 1.20989 6.61477 -0.177846 0.176077 6.62025 8.83943 31 1 
740 1.2099 6.65153 -0.181054 0.163493 6.65676 8.84941 31 1 
741.333 1.20991 6.68868 -0.184511 0.151117 6.6937 8.8621 31 1 
742.667 1.20991 6.72617 -0.187918 0.139075 6.73102 8.87603 31 1 
744 1.20992 6.76366 -0.19106 0.127057 6.76835 8.89122 31 1 
745.333 1.20993 6.80108 -0.194475 0.115399 6.80565 8.90488 31 1 
746.667 1.20994 6.83856 -0.19772 0.103951 6.84303 8.9191 31 1 
746.667 1.20994 6.83856 -0.19772 0.103951 6.84303 8.9191 31 1 
748 1.20995 6.87566 -0.20084 0.0931078 6.88005 8.93631 31 1 
749.333 1.20995 6.91302 -0.204003 0.0822752 6.91736 8.94534 31 1 
750.667 1.20996 6.94989 -0.207138 0.0719564 6.9542 8.96545 31 1 
752 1.20997 6.98648 -0.210234 0.0620301 6.99077 8.97893 31 1 
753.333 1.20998 7.023 -0.213141 0.0522392 7.02728 8.98977 31 1 
754.667 1.20999 7.05891 -0.216322 0.0431049 7.06322 9.01279 31 1 
756 1.21 7.09509 -0.219316 0.0339836 7.09942 9.02286 31 1 
757.333 1.21001 7.13029 -0.222079 0.0256247 7.13465 9.04444 31 1 
758.667 1.21001 7.16567 -0.224966 0.0172505 7.17008 9.0518 31 1 
760 1.21002 7.20025 -0.22798 0.0093734 7.20472 9.06967 31 1 
761.333 1.21003 7.23459 -0.2306 0.00208999 7.23912 9.08797 31 1 
762.667 1.21004 7.26891 -0.233222 -0.00529559 7.2735 9.09716 31 1 
764 1.21005 7.30256 -0.235887 -0.0121124 7.30722 9.12012 31 1 
765.333 1.21006 7.33544 -0.238283 -0.0186232 7.34017 9.14156 31 1 
766.667 1.21006 7.36857 -0.240502 -0.0248722 7.37336 9.14336 31 1 
768 1.21008 7.4009 -0.242675 -0.0307918 7.40576 9.16785 31 1 
768 1.21008 7.4009 -0.242675 -0.0307918 7.40576 9.16785 32 1 
769.333 1.21009 7.43196 -0.244744 -0.0364739 7.43689 9.19919 32 1 
770.667 1.21009 7.46445 -0.246388 -0.0418532 7.46944 9.189 32 1 
772 1.21011 7.49485 -0.24806 -0.0470419 7.49989 9.23083 32 1 
773.333 1.21013 7.52428 -0.249528 -0.0523519 7.52937 9.26592 32 1 
774.667 1.21012 7.55511 -0.250796 -0.0567243 7.56025 9.24068 32 1 
776 1.21014 7.58403 -0.251963 -0.0616142 7.58922 9.28838 32 1 
777.333 1.21018 7.61118 -0.252762 -0.0661282 7.6164 9.35174 32 1 
778.667 1.21015 7.64041 -0.253024 -0.0701608 7.64564 9.30208 32 1 
780 1.21018 7.66698 -0.253956 -0.0745682 7.67225 9.35137 32 1 
781.333 1.21022 7.69269 -0.254099 -0.0781855 7.69797 9.43325 32 1 
782.667 1.2102 7.722 -0.254321 -0.0834789 7.72731 9.38446 32 1 
784 1.21024 7.74516 -0.254279 -0.087355 7.75048 9.47015 32 1 
785.333 1.21027 7.76767 -0.254054 -0.0911595 7.773 9.52039 32 1 
786.667 1.21024 7.79207 -0.254475 -0.0972562 7.79746 9.46486 32 1 
788 1.21028 7.8139 -0.254206 -0.101989 7.8193 9.54134 32 1 
789.333 1.21033 7.83791 -0.253181 -0.106393 7.84331 9.621 32 1 
790.667 1.21034 7.86034 -0.251854 -0.111451 7.86573 9.65337 32 1 
792 1.21037 7.87809 -0.252069 -0.117572 7.88355 9.69652 32 1 
793.333 1.21038 7.8963 -0.251857 -0.12561 7.90185 9.70901 32 1 
794.667 1.21041 7.91504 -0.252092 -0.134359 7.92072 9.77924 32 1 
796 1.21049 7.9317 -0.252263 -0.142017 7.9375 9.9245 32 1 
797.333 1.21054 7.94455 -0.254358 -0.151189 7.95056 10.0015 32 1 
798.667 1.21052 7.95801 -0.26096 -0.158725 7.96435 9.97347 32 1 
800 1.2105 7.96668 -0.264799 -0.160631 7.97314 9.93438 32 1 
