18.1129;r ;Density                 ;Velocity u              ;Velocity v              ;Velocity w              ;|Velocity|              ;Pressure                ;Distribution            ;Levels                  ;
0 1.20406 9.99953 3.20561e-06 0.00184706 9.99953 -1.70329 1 1 
1.33334 1.20405 9.99985 1.00001e-05 0.000868644 9.99985 -1.71384 1 1 
2.66666 1.20404 10.0005 3.52364e-05 -0.000310397 10.0005 -1.74069 1 1 
4 1.20403 10.0007 6.81672e-05 -0.000797393 10.0007 -1.74316 1 1 
5.33334 1.20406 10.0003 9.32655e-05 -0.000844042 10.0003 -1.69441 1 1 
6.66666 1.20408 9.99965 8.47463e-05 -0.000148552 9.99965 -1.66859 1 1 
8 1.20405 10.0003 6.54167e-05 5.10761e-05 10.0003 -1.7184 1 1 
9.33334 1.20403 10.0008 5.62885e-05 -0.000293194 10.0008 -1.74615 1 1 
10.6667 1.20406 9.99978 7.22581e-05 0.00013482 9.99978 -1.69849 1 1 
12 1.20407 9.99908 0.00010105 0.000337222 9.99908 -1.68208 1 1 
13.3333 1.20405 9.99902 9.35596e-05 0.000420582 9.99902 -1.72159 1 1 
14.6667 1.20403 9.9992 9.28483e-05 -0.000357373 9.9992 -1.75351 1 1 
16 1.20404 9.99929 0.000123489 -0.000334939 9.99929 -1.73944 1 1 
17.3333 1.20407 9.99874 0.000127875 0.0003069 9.99874 -1.68619 1 1 
18.6667 1.20407 9.99876 8.90243e-05 2.30473e-05 9.99876 -1.68288 1 1 
20 1.20405 9.99925 8.1193e-05 -0.000378744 9.99925 -1.7071 1 1 
21.3333 1.20407 9.99915 9.6516e-05 -0.000378665 9.99915 -1.67677 1 1 
21.3333 1.20407 9.99915 9.6516e-05 -0.000378665 9.99915 -1.67677 1 1 
22.6667 1.20408 9.99869 7.61571e-05 0.000117749 9.99869 -1.65695 1 1 
24 1.20407 9.99827 2.54741e-05 -0.00013035 9.99827 -1.67441 1 1 
25.3333 1.20406 9.99793 -2.82218e-07 -0.000238058 9.99793 -1.69206 1 1 
26.6667 1.20404 9.99787 1.40778e-05 -0.000272382 9.99787 -1.72662 1 1 
28 1.20403 9.99793 2.56486e-05 -0.000538403 9.99793 -1.74781 1 1 
29.3333 1.20406 9.99727 1.42037e-05 -8.15284e-05 9.99727 -1.69921 1 1 
30.6667 1.20408 9.99697 6.75779e-06 0.000272431 9.99697 -1.65588 1 1 
32 1.20406 9.99768 2.6547e-05 -0.000296438 9.99768 -1.69406 1 1 
33.3333 1.20405 9.99808 8.35252e-06 -0.000606001 9.99808 -1.71068 1 1 
34.6667 1.20408 9.99734 -3.93071e-05 -3.9857e-05 9.99734 -1.65538 1 1 
36 1.2041 9.99635 -2.59418e-05 -0.000428287 9.99635 -1.63338 1 1 
37.3333 1.20406 9.99669 3.98096e-05 -0.00129718 9.99669 -1.7033 1 1 
38.6667 1.20403 9.9973 3.37919e-05 -0.00059155 9.9973 -1.74818 1 1 
40 1.20407 9.99677 -2.67825e-05 -0.000223109 9.99677 -1.68206 1 1 
41.3333 1.20411 9.99619 -4.85793e-05 -0.000515047 9.99619 -1.61647 1 1 
42.6667 1.20409 9.99636 -0.000108586 2.92486e-05 9.99636 -1.63862 1 1 
42.6667 1.20409 9.99636 -0.000108586 2.92486e-05 9.99636 -1.63862 2 1 
44 1.20406 9.99679 -0.000225315 -3.45933e-05 9.99679 -1.69671 2 1 
45.3333 1.20405 9.99656 -0.000270436 -0.00111688 9.99656 -1.7169 2 1 
46.6667 1.20406 9.99583 -0.00026917 -0.00103019 9.99583 -1.69854 2 1 
48 1.20407 9.99543 -0.000358319 -3.53247e-05 9.99543 -1.67983 2 1 
49.3333 1.20406 9.9958 -0.000406596 -0.000647864 9.9958 -1.69275 2 1 
50.6667 1.20406 9.99629 -0.000334162 -0.00161898 9.99629 -1.70611 2 1 
52 1.20408 9.99604 -0.000356283 -0.000502727 9.99604 -1.66017 2 1 
53.3333 1.20411 9.99537 -0.000499241 0.000554625 9.99537 -1.61166 2 1 
54.6667 1.20409 9.99525 -0.000464087 -0.00137242 9.99525 -1.64771 2 1 
56 1.20405 9.99529 -0.000245414 -0.002262 9.99529 -1.70702 2 1 
57.3333 1.20405 9.9948 -0.000191493 0.000598311 9.9948 -1.70791 2 1 
58.6667 1.20407 9.99437 -0.000271998 0.00127631 9.99437 -1.68658 2 1 
60 1.20408 9.99429 -0.000153583 -0.00163782 9.99429 -1.66383 2 1 
61.3333 1.20408 9.99502 -1.69426e-05 -0.00178609 9.99502 -1.65873 2 1 
62.6667 1.20407 9.99616 -0.000278629 0.0013184 9.99616 -1.68624 2 1 
64 1.20406 9.99591 -0.000584895 0.0015066 9.99591 -1.69939 2 1 
64 1.20406 9.99591 -0.000584895 0.0015066 9.99591 -1.69939 2 1 
65.3333 1.20406 9.99492 -0.000342845 -0.00272096 9.99492 -1.69087 2 1 
66.6667 1.20408 9.99458 6.87471e-05 -0.00414795 9.99458 -1.66876 2 1 
68 1.20407 9.99444 -5.99046e-05 0.000231155 9.99444 -1.67306 2 1 
69.3333 1.20406 9.99403 -0.000347039 0.0023257 9.99403 -1.70509 2 1 
70.6667 1.20408 9.99261 0.000181065 -0.00134083 9.99261 -1.66836 2 1 
72 1.2041 9.99127 0.00136382 -0.00417683 9.99127 -1.62599 2 1 
73.3333 1.20408 9.99222 0.00192957 -0.00159681 9.99222 -1.67011 2 1 
74.6667 1.20406 9.99341 0.00137966 0.00397226 9.99341 -1.70085 2 1 
76 1.20407 9.99325 0.000647368 0.0049584 9.99325 -1.6794 2 1 
77.3333 1.20407 9.9928 0.000598688 0.000854751 9.9928 -1.68106 2 1 
78.6667 1.20405 9.99275 0.000874223 -0.00128187 9.99275 -1.71913 2 1 
80 1.20404 9.99354 0.000522997 -0.000751313 9.99354 -1.72976 2 1 
81.3333 1.20406 9.99425 -0.000594664 0.00177367 9.99425 -1.68958 2 1 
82.6667 1.2041 9.99357 -0.00156323 0.00273678 9.99357 -1.63164 2 1 
84 1.20411 9.99231 -0.00157697 0.000655763 9.99231 -1.60266 2 1 
85.3333 1.20409 9.99129 -0.000665722 -0.00121369 9.99129 -1.65198 2 1 
85.3333 1.20409 9.99129 -0.000665722 -0.00121369 9.99129 -1.65198 3 1 
86.6667 1.20403 9.99033 0.000513981 -0.0021326 9.99033 -1.74545 3 1 
88 1.20402 9.9898 0.00132469 -0.00180042 9.9898 -1.76263 3 1 
89.3333 1.20409 9.98882 0.00167965 1.08021e-05 9.98882 -1.65053 3 1 
90.6667 1.20411 9.98907 0.00175474 0.000769595 9.98907 -1.61037 3 1 
92 1.20405 9.99084 0.0017248 0.00122995 9.99084 -1.71059 3 1 
93.3333 1.20403 9.99154 0.00171262 0.00142565 9.99154 -1.74749 3 1 
94.6667 1.20406 9.99094 0.00171584 0.00117609 9.99094 -1.7036 3 1 
96 1.20409 9.98945 0.00173202 0.00201429 9.98945 -1.63901 3 1 
97.3333 1.2041 9.98863 0.00175709 0.00203898 9.98863 -1.63175 3 1 
98.6667 1.20406 9.98966 0.0017599 0.00129591 9.98966 -1.70373 3 1 
100 1.20403 9.99104 0.00176966 0.000908031 9.99104 -1.75123 3 1 
101.333 1.20404 9.99102 0.00180612 0.00117907 9.99102 -1.7273 3 1 
102.667 1.20409 9.98937 0.00182235 0.00197204 9.98937 -1.63656 3 1 
104 1.20411 9.98798 0.0018166 0.00261804 9.98798 -1.60333 3 1 
105.333 1.20406 9.98814 0.00180306 0.00204495 9.98814 -1.70633 3 1 
106.667 1.204 9.98938 0.00181319 0.0012133 9.98938 -1.81007 3 1 
106.667 1.204 9.98938 0.00181319 0.0012133 9.98938 -1.81007 3 1 
108 1.20402 9.98945 0.00183728 0.00102261 9.98945 -1.7761 3 1 
109.333 1.20407 9.98828 0.00186484 0.00126442 9.98828 -1.67482 3 1 
110.667 1.20411 9.98771 0.00188924 0.00204564 9.98771 -1.61258 3 1 
112 1.20411 9.98743 0.00189406 0.00237855 9.98743 -1.60106 3 1 
113.333 1.20406 9.98828 0.00190162 0.00202052 9.98828 -1.70484 3 1 
114.667 1.20398 9.98952 0.00192193 0.00164744 9.98952 -1.8357 3 1 
116 1.20401 9.98803 0.00195078 0.00170684 9.98803 -1.78412 3 1 
117.333 1.20408 9.98544 0.00195665 0.00194336 9.98544 -1.66134 3 1 
118.667 1.20408 9.98602 0.00194449 0.00209666 9.98602 -1.66248 3 1 
120 1.20407 9.9866 0.00194625 0.00197419 9.9866 -1.68088 3 1 
121.333 1.20405 9.98706 0.00198251 0.00170823 9.98706 -1.72204 3 1 
122.667 1.20401 9.98791 0.00201441 0.0020302 9.98791 -1.78659 3 1 
124 1.20405 9.98592 0.00202198 0.0022858 9.98593 -1.72186 3 1 
125.333 1.20408 9.98486 0.00203021 0.00229088 9.98486 -1.66853 3 1 
126.667 1.20405 9.98589 0.00204889 0.0021407 9.98589 -1.71261 3 1 
128 1.20404 9.98553 0.00207057 0.00161935 9.98554 -1.73692 3 1 
128 1.20404 9.98553 0.00207057 0.00161935 9.98554 -1.73692 3 1 
129.333 1.20403 9.98537 0.00208524 0.00167953 9.98537 -1.75442 3 1 
130.667 1.20405 9.98492 0.0021038 0.00242758 9.98492 -1.71969 3 1 
132 1.20408 9.9833 0.00211601 0.00254148 9.9833 -1.66429 3 1 
133.333 1.20403 9.98463 0.00213115 0.00230175 9.98463 -1.74939 3 1 
134.667 1.204 9.98526 0.00216012 0.00204316 9.98526 -1.79925 3 1 
136 1.20404 9.98391 0.00218659 0.00202965 9.98391 -1.73997 3 1 
137.333 1.20406 9.98336 0.00219188 0.00198888 9.98336 -1.69659 3 1 
138.667 1.20408 9.98275 0.00219573 0.00204286 9.98275 -1.66548 3 1 
140 1.20406 9.98312 0.00221825 0.00230689 9.98312 -1.6944 3 1 
141.333 1.20401 9.9837 0.00225386 0.00215402 9.9837 -1.79336 3 1 
142.667 1.20399 9.9831 0.00227604 0.00210395 9.9831 -1.82951 3 1 
144 1.20405 9.98143 0.00228039 0.00241832 9.98143 -1.71988 3 1 
145.333 1.20408 9.98006 0.002298 0.00269312 9.98006 -1.65462 3 1 
146.667 1.20403 9.98152 0.00232278 0.00221196 9.98152 -1.75412 3 1 
148 1.204 9.9827 0.00235198 0.00211566 9.9827 -1.79986 3 1 
149.333 1.20405 9.98112 0.00237791 0.00227265 9.98112 -1.72449 3 1 
149.333 1.20405 9.98112 0.00237791 0.00227265 9.98112 -1.72449 3 1 
150.667 1.20405 9.98025 0.00238575 0.00241153 9.98025 -1.71294 3 1 
152 1.20405 9.97936 0.00239911 0.00278441 9.97936 -1.7247 3 1 
153.333 1.20405 9.97846 0.00242423 0.00218662 9.97846 -1.7076 3 1 
154.667 1.20401 9.98021 0.0024506 0.00238682 9.98021 -1.79183 3 1 
156 1.20399 9.98011 0.00247726 0.00251443 9.98011 -1.81792 3 1 
157.333 1.20406 9.9776 0.0025005 0.00245733 9.9776 -1.69784 3 1 
158.667 1.20407 9.97757 0.00252631 0.00317058 9.97757 -1.68161 3 1 
160 1.20403 9.97729 0.00254548 0.00227274 9.97729 -1.74718 3 1 
161.333 1.20401 9.97713 0.00254628 0.00216072 9.97713 -1.79184 3 1 
162.667 1.20402 9.97742 0.00256138 0.00279925 9.97742 -1.77778 3 1 
164 1.20406 9.97535 0.00258505 0.00279726 9.97535 -1.70403 3 1 
165.333 1.20405 9.97489 0.00260961 0.00351161 9.97489 -1.71071 3 1 
166.667 1.20404 9.97481 0.00264835 0.00276311 9.97481 -1.7258 3 1 
168 1.20404 9.97373 0.00268889 0.00224559 9.97374 -1.73648 3 1 
169.333 1.20401 9.97423 0.00270544 0.00270197 9.97423 -1.79725 3 1 
170.667 1.20403 9.97313 0.00271346 0.00251408 9.97313 -1.74344 3 1 
170.667 1.20403 9.97313 0.00271346 0.00251408 9.97313 -1.74344 11 1 
172 1.20408 9.97164 0.00271742 0.00288647 9.97164 -1.65588 11 1 
173.333 1.20405 9.97189 0.00274601 0.00332317 9.97189 -1.70881 11 1 
174.667 1.20403 9.97115 0.00277761 0.00321567 9.97115 -1.75935 11 1 
176 1.20405 9.96972 0.00279744 0.00322732 9.96972 -1.7148 11 1 
177.333 1.20406 9.96863 0.00283256 0.00344328 9.96863 -1.69524 11 1 
178.667 1.20405 9.96773 0.00283081 0.00305448 9.96773 -1.7135 11 1 
180 1.20406 9.96742 0.00284073 0.00281807 9.96742 -1.69731 11 1 
181.333 1.20408 9.96684 0.00285921 0.0029548 9.96684 -1.66512 11 1 
182.667 1.20407 9.96539 0.00290069 0.00317748 9.96539 -1.67124 11 1 
184 1.20408 9.96381 0.00293834 0.00360015 9.96381 -1.66869 11 1 
185.333 1.2041 9.962 0.00294838 0.00364878 9.962 -1.62457 11 1 
186.667 1.20409 9.96075 0.00296881 0.00331767 9.96075 -1.63936 11 1 
188 1.20407 9.96093 0.00296495 0.00268485 9.96093 -1.67897 11 1 
189.333 1.20411 9.96058 0.00299333 0.00261747 9.96058 -1.61084 11 1 
190.667 1.20416 9.95839 0.00303419 0.00347381 9.95839 -1.5149 11 1 
192 1.20414 9.9567 0.00305336 0.00399163 9.9567 -1.55862 11 1 
192 1.20414 9.9567 0.00305336 0.00399163 9.9567 -1.55862 11 1 
193.333 1.20411 9.95537 0.00306041 0.00429337 9.95537 -1.606 11 1 
194.667 1.20414 9.95301 0.00307061 0.00400742 9.95301 -1.55585 11 1 
196 1.20413 9.95141 0.00309365 0.00319326 9.95141 -1.57556 11 1 
197.333 1.20413 9.95028 0.00309861 0.00313661 9.95029 -1.57089 11 1 
198.667 1.2042 9.94811 0.00315434 0.00289971 9.94812 -1.44259 11 1 
200 1.2042 9.94676 0.00316873 0.00350871 9.94676 -1.43645 11 1 
201.333 1.20414 9.94621 0.00315899 0.00476316 9.94621 -1.54961 11 1 
202.667 1.20416 9.94423 0.00318752 0.00485187 9.94423 -1.52443 11 1 
204 1.2042 9.94215 0.00319989 0.00439379 9.94216 -1.44912 11 1 
205.333 1.2042 9.94017 0.00321132 0.00349995 9.94017 -1.4443 11 1 
206.667 1.20422 9.93805 0.00325792 0.00211436 9.93805 -1.41537 11 1 
208 1.20423 9.93643 0.00327064 0.0028534 9.93643 -1.39346 11 1 
209.333 1.20421 9.93337 0.00326526 0.00459033 9.93337 -1.42356 11 1 
210.667 1.20419 9.93039 0.00329437 0.00482251 9.93039 -1.46642 11 1 
212 1.20421 9.92892 0.00327562 0.00658689 9.92893 -1.42644 11 1 
213.333 1.20428 9.92582 0.00326918 0.00558804 9.92582 -1.29931 11 1 
213.333 1.20428 9.92582 0.00326918 0.00558804 9.92582 -1.29931 11 1 
214.667 1.20426 9.92374 0.00331502 0.00319702 9.92374 -1.33319 11 1 
216 1.20422 9.92296 0.0033893 0.0043331 9.92297 -1.40208 11 1 
217.333 1.20431 9.91781 0.00340841 0.00288332 9.91781 -1.2489 11 1 
218.667 1.20431 9.91416 0.0034218 0.00352615 9.91416 -1.2458 11 1 
220 1.20428 9.9124 0.00339251 0.0066309 9.9124 -1.29694 11 1 
221.333 1.20439 9.90594 0.00335168 0.00580067 9.90594 -1.10353 11 1 
222.667 1.20439 9.90226 0.00333007 0.00659502 9.90227 -1.10534 11 1 
224 1.20434 9.89949 0.00335084 0.00642883 9.89949 -1.19296 11 1 
225.333 1.20441 9.89358 0.00343083 0.00411719 9.89359 -1.06309 11 1 
226.667 1.20446 9.89139 0.0035041 0.00593741 9.89139 -0.971477 11 1 
228 1.20448 9.88731 0.00352703 0.00605289 9.88731 -0.931126 11 1 
229.333 1.20451 9.87995 0.00348528 0.00561602 9.87996 -0.880732 11 1 
230.667 1.20455 9.87411 0.003428 0.00747761 9.87411 -0.806688 11 1 
232 1.2046 9.86633 0.0034204 0.00639369 9.86633 -0.714825 11 1 
233.333 1.2046 9.86107 0.00346336 0.00762142 9.86107 -0.71817 11 1 
234.667 1.20467 9.85731 0.00349325 0.00806799 9.85731 -0.598358 11 1 
234.667 1.20467 9.85731 0.00349325 0.00806799 9.85731 -0.598358 11 1 
236 1.20478 9.84942 0.00353311 0.00656564 9.84943 -0.401828 11 1 
237.333 1.20476 9.84256 0.00347696 0.00798656 9.84256 -0.440982 11 1 
238.667 1.20478 9.83397 0.0034181 0.00764704 9.83397 -0.406189 11 1 
240 1.20488 9.82354 0.00345586 0.00903585 9.82354 -0.214475 11 1 
241.333 1.20492 9.81622 0.0034865 0.0107846 9.81622 -0.141024 11 1 
242.667 1.20495 9.80885 0.00351769 0.00916699 9.80885 -0.0869582 11 1 
244 1.20506 9.79901 0.00352231 0.00978942 9.79902 0.102902 11 1 
245.333 1.20515 9.78783 0.00340342 0.0108029 9.78784 0.265506 11 1 
246.667 1.20515 9.77645 0.00340714 0.012094 9.77646 0.273537 11 1 
248 1.20521 9.76393 0.00348424 0.0134228 9.76394 0.383328 11 1 
249.333 1.20536 9.75077 0.00342486 0.0133515 9.75078 0.64366 11 1 
250.667 1.20542 9.73822 0.00341746 0.014768 9.73823 0.763156 11 1 
252 1.20546 9.72482 0.00339051 0.0153874 9.72484 0.832956 11 1 
253.333 1.20563 9.70825 0.00336025 0.0159814 9.70826 1.1301 11 1 
254.667 1.20576 9.69071 0.00342968 0.0188521 9.69073 1.37 11 1 
256 1.20579 9.67387 0.00340713 0.020797 9.67389 1.41832 11 1 
256 1.20579 9.67387 0.00340713 0.020797 9.67389 1.41832 13 1 
257.333 1.20594 9.65502 0.00332443 0.0218154 9.65505 1.69694 13 1 
258.667 1.20615 9.63346 0.0033136 0.0248756 9.6335 2.08463 13 1 
260 1.20622 9.61157 0.00329517 0.0262355 9.61161 2.20782 13 1 
261.333 1.20632 9.58782 0.00325582 0.029309 9.58787 2.38939 13 1 
262.667 1.20658 9.55927 0.00322398 0.032654 9.55933 2.8453 13 1 
264 1.20674 9.5321 0.00319133 0.0358889 9.53217 3.14747 13 1 
265.333 1.20687 9.50371 0.00315641 0.040319 9.50381 3.37382 13 1 
266.667 1.20717 9.46921 0.00313518 0.0447896 9.46933 3.91209 13 1 
268 1.20743 9.43408 0.00310319 0.0504462 9.43423 4.39251 13 1 
269.333 1.20758 9.39484 0.00306678 0.0562187 9.39502 4.66603 13 1 
270.667 1.20783 9.35335 0.00303865 0.065055 9.35359 5.10489 13 1 
272 1.2082 9.30989 0.00299369 0.0735701 9.3102 5.77603 13 1 
273.333 1.20852 9.25727 0.00296822 0.0837878 9.25767 6.36472 13 1 
274.667 1.20871 9.20687 0.00294458 0.0979868 9.20742 6.69404 13 1 
276 1.20914 9.14954 0.00289593 0.112264 9.15028 7.48534 13 1 
277.333 1.20975 9.07216 0.00284239 0.123396 9.07307 8.57297 13 1 
277.333 1.20975 9.07216 0.00284239 0.123396 9.07307 8.57297 13 1 
278.667 1.20989 9.00316 0.0027778 0.138353 9.00429 8.82765 13 1 
280 1.21027 8.9329 0.00271256 0.160047 8.93436 9.52002 13 1 
281.333 1.21111 8.8496 0.00266293 0.189838 8.85167 11.0384 13 1 
282.667 1.21146 8.77722 0.00260949 0.226096 8.78019 11.6659 13 1 
284 1.21188 8.68227 0.00256167 0.255346 8.6861 12.4193 13 1 
285.333 1.21267 8.5645 0.00251844 0.285805 8.56938 13.8569 13 1 
286.667 1.21317 8.46162 0.00247207 0.322608 8.46787 14.7554 13 1 
288 1.21376 8.34592 0.00242426 0.379516 8.35475 15.8306 13 1 
289.333 1.21449 8.22509 0.00236724 0.435628 8.23674 17.1423 13 1 
290.667 1.21524 8.09866 0.0023062 0.48682 8.11358 18.4903 13 1 
292 1.216 7.95074 0.00223357 0.582844 7.97258 19.872 13 1 
293.333 1.21639 7.81165 0.00216511 0.647867 7.83858 20.575 13 1 
294.667 1.2175 7.64087 0.00210701 0.703284 7.6741 22.5826 13 1 
296 1.21877 7.43121 0.00204102 0.887695 7.48618 24.879 13 1 
297.333 1.21725 7.11567 0.00197246 0.939488 7.17924 22.1179 13 1 
298.667 1.21189 6.59059 0.00190542 0.458977 6.62175 12.4398 13 1 
298.667 1.21189 6.59059 0.00190542 0.458977 6.62175 12.4398 14 1 
300 1.20418 6.04837 0.00184047 -0.552261 6.11096 -1.48419 14 1 
301.333 1.19741 5.69602 0.00177359 -1.31491 5.85083 -13.7019 14 1 
302.667 1.19416 5.48943 0.00169941 -1.34511 5.65334 -19.5711 14 1 
304 1.19363 5.32425 0.00161626 -1.12638 5.44302 -20.5314 14 1 
305.333 1.19411 5.20618 0.00149797 -0.986339 5.29909 -19.6773 14 1 
306.667 1.195 5.15242 0.0013638 -0.891269 5.22931 -18.0666 14 1 
308 1.19566 5.10018 0.00127219 -0.807165 5.16387 -16.8788 14 1 
309.333 1.19581 5.02083 0.00120986 -0.727749 5.07361 -16.5957 14 1 
310.667 1.19618 4.93585 0.00111818 -0.65013 4.97871 -15.9311 14 1 
312 1.19685 4.86094 0.000993897 -0.586247 4.89642 -14.7215 14 1 
313.333 1.19712 4.78581 0.000900237 -0.525735 4.81478 -14.233 14 1 
314.667 1.1972 4.69979 0.000872457 -0.471032 4.72353 -14.0811 14 1 
316 1.19768 4.61674 0.000876179 -0.424357 4.63638 -13.2148 14 1 
317.333 1.19814 4.54262 0.000865445 -0.375752 4.55834 -12.393 14 1 
318.667 1.19818 4.46406 0.000816094 -0.327172 4.47616 -12.3102 14 1 
320 1.19833 4.38775 0.000757277 -0.292344 4.39759 -12.0462 14 1 
320 1.19833 4.38775 0.000757277 -0.292344 4.39759 -12.0462 14 1 
321.333 1.19879 4.32766 0.000718646 -0.260879 4.33562 -11.2255 14 1 
322.667 1.19906 4.26821 0.000676215 -0.230062 4.27452 -10.7345 14 1 
324 1.19907 4.196 0.000632526 -0.203409 4.20102 -10.71 14 1 
325.333 1.19923 4.12931 0.000606556 -0.182754 4.13342 -10.4259 14 1 
326.667 1.19953 4.08206 0.000589612 -0.16561 4.08548 -9.87563 14 1 
328 1.19971 4.03721 0.000572775 -0.148754 4.04002 -9.55298 14 1 
329.333 1.19979 3.98057 0.000554894 -0.131537 3.9828 -9.41276 14 1 
330.667 1.19994 3.92555 0.00054042 -0.117666 3.92736 -9.13939 14 1 
332 1.20012 3.88488 0.000533678 -0.107397 3.88641 -8.81485 14 1 
333.333 1.20023 3.84929 0.000530348 -0.0976308 3.85057 -8.60707 14 1 
334.667 1.20037 3.80891 0.000506199 -0.0875743 3.80995 -8.36876 14 1 
336 1.20052 3.76767 0.00045846 -0.0791452 3.76853 -8.08801 14 1 
337.333 1.2006 3.73141 0.000386468 -0.0718594 3.73213 -7.94122 14 1 
338.667 1.20066 3.69995 0.000295616 -0.0661996 3.70057 -7.8309 14 1 
340 1.2008 3.67011 0.000248722 -0.0614632 3.67064 -7.58965 14 1 
341.333 1.20094 3.64156 0.000280643 -0.0572392 3.64202 -7.32584 14 1 
341.333 1.20094 3.64156 0.000280643 -0.0572392 3.64202 -7.32584 15 1 
342.667 1.20102 3.61459 0.000367236 -0.0525905 3.615 -7.18367 15 1 
344 1.20108 3.5879 0.000433781 -0.0485775 3.58825 -7.08103 15 1 
345.333 1.20118 3.56419 0.000423221 -0.0467339 3.56451 -6.90305 15 1 
346.667 1.20128 3.5445 0.000350497 -0.0459902 3.5448 -6.71606 15 1 
348 1.20137 3.52563 0.000229184 -0.0458247 3.52594 -6.56296 15 1 
349.333 1.20147 3.50736 0.00010385 -0.0452992 3.50766 -6.38503 15 1 
350.667 1.20154 3.48925 3.92419e-05 -0.0449382 3.48955 -6.25617 15 1 
352 1.20154 3.47188 3.68868e-05 -0.0458058 3.47219 -6.24423 15 1 
353.333 1.20157 3.45785 4.09795e-05 -0.0461919 3.45816 -6.20098 15 1 
354.667 1.20166 3.44686 -3.71426e-06 -0.0459309 3.44717 -6.03673 15 1 
356 1.20176 3.43895 -8.80999e-05 -0.0475738 3.43928 -5.85546 15 1 
357.333 1.20183 3.43549 -0.000164723 -0.0515703 3.43588 -5.72281 15 1 
358.667 1.2019 3.43629 -0.000195483 -0.0569095 3.43678 -5.59556 15 1 
360 1.20197 3.43918 -0.000172573 -0.0638786 3.43979 -5.47927 15 1 
361.333 1.20198 3.43758 -0.000152074 -0.0693853 3.43829 -5.44802 15 1 
362.667 1.20197 3.42553 -0.000203035 -0.0670007 3.42621 -5.46547 15 1 
362.667 1.20197 3.42553 -0.000203035 -0.0670007 3.42621 -5.46547 15 1 
364 1.202 3.40919 -0.000351524 -0.0582133 3.4097 -5.4238 15 1 
365.333 1.20206 3.40546 -0.000562338 -0.0515109 3.40589 -5.31433 15 1 
366.667 1.20214 3.42724 -0.000714718 -0.05566 3.42782 -5.17271 15 1 
368 1.20222 3.4758 -0.000683933 -0.0828808 3.47714 -5.0164 15 1 
369.333 1.20231 3.54096 -0.000499632 -0.140099 3.54431 -4.86516 15 1 
370.667 1.20237 3.59486 -0.000308324 -0.207615 3.60132 -4.7445 15 1 
372 1.20242 3.59763 -0.000205929 -0.244531 3.60614 -4.65964 15 1 
373.333 1.20248 3.52248 -0.000216817 -0.225613 3.53005 -4.54953 15 1 
374.667 1.20257 3.36525 -0.000262056 -0.149631 3.36972 -4.38869 15 1 
376 1.20265 3.13312 -0.000199959 -0.0159229 3.13597 -4.23752 15 1 
377.333 1.20273 2.8452 -4.93964e-05 0.168878 2.85523 -4.10852 15 1 
378.667 1.2028 2.5411 -8.79737e-05 0.368454 2.57371 -3.97923 15 1 
380 1.20285 2.26854 -0.000598223 0.53485 2.33575 -3.88207 15 1 
381.333 1.20288 2.05802 -0.00154556 0.649207 2.16144 -3.82625 15 1 
382.667 1.20292 1.91214 -0.00264782 0.724798 2.04756 -3.75694 15 1 
384 1.20297 1.81536 -0.00363525 0.779564 1.97837 -3.66133 15 1 
384 1.20297 1.81536 -0.00363525 0.779564 1.97837 -3.66133 15 1 
385.333 1.20303 1.75101 -0.00439052 0.821224 1.93716 -3.56182 15 1 
386.667 1.20311 1.70992 -0.00493207 0.850818 1.91351 -3.42235 15 1 
388 1.20323 1.68839 -0.00532092 0.868553 1.90273 -3.19466 15 1 
389.333 1.20339 1.68444 -0.00561379 0.875771 1.90306 -2.91207 15 1 
390.667 1.20354 1.6966 -0.00584543 0.874171 1.9138 -2.64328 15 1 
392 1.20366 1.7235 -0.00604582 0.865031 1.9344 -2.41553 15 1 
393.333 1.20377 1.7643 -0.00622109 0.849474 1.96491 -2.22162 15 1 
394.667 1.20387 1.81909 -0.00633915 0.829517 2.00679 -2.04696 15 1 
396 1.20397 1.88808 -0.00640328 0.807324 2.0616 -1.85742 15 1 
397.333 1.20411 1.97136 -0.00646128 0.78432 2.13036 -1.59882 15 1 
398.667 1.2043 2.06827 -0.00656717 0.761584 2.21318 -1.26465 15 1 
400 1.2045 2.17716 -0.0067729 0.740154 2.30903 -0.908173 15 1 
401.333 1.2047 2.2971 -0.00710662 0.720818 2.41726 -0.548361 15 1 
402.667 1.20492 2.42826 -0.00752471 0.703697 2.538 -0.148627 15 1 
404 1.20517 2.57024 -0.0079239 0.688759 2.67079 0.304354 15 1 
405.333 1.20543 2.72185 -0.00820791 0.676429 2.81447 0.783052 15 1 
405.333 1.20543 2.72185 -0.00820791 0.676429 2.81447 0.783052 15 1 
406.667 1.2057 2.88201 -0.0082991 0.667144 2.96793 1.2562 15 1 
408 1.20593 3.0494 -0.00817829 0.660919 3.12974 1.67274 15 1 
409.333 1.20609 3.22234 -0.0078957 0.657589 3.29809 1.96059 15 1 
410.667 1.20616 3.39979 -0.00754823 0.65703 3.47179 2.10162 15 1 
412 1.2062 3.58205 -0.00726026 0.658949 3.65096 2.1705 15 1 
413.333 1.20626 3.7703 -0.00711796 0.662856 3.83661 2.28235 15 1 
414.667 1.2064 3.96567 -0.00716463 0.668361 4.02972 2.53038 15 1 
416 1.20664 4.16841 -0.00738529 0.675227 4.23048 2.96868 15 1 
417.333 1.20699 4.37763 -0.00771304 0.683199 4.43795 3.59896 15 1 
418.667 1.20741 4.59138 -0.00806065 0.692007 4.65014 4.34812 15 1 
420 1.20782 4.80711 -0.0083286 0.701573 4.86453 5.09497 15 1 
421.333 1.20818 5.0225 -0.00845123 0.711862 5.07879 5.73901 15 1 
422.667 1.20845 5.23595 -0.00839936 0.722501 5.29125 6.22965 15 1 
424 1.20862 5.44653 -0.00816113 0.73294 5.50091 6.54487 15 1 
425.333 1.20871 5.65408 -0.00776569 0.74279 5.70755 6.70282 15 1 
426.667 1.20875 5.85929 -0.00727612 0.751798 5.91181 6.78019 15 1 
426.667 1.20875 5.85929 -0.00727612 0.751798 5.91181 6.78019 20 1 
428 1.2088 6.06309 -0.00675002 0.759807 6.11461 6.86421 20 1 
429.333 1.20888 6.2659 -0.00625082 0.766576 6.31633 7.01032 20 1 
430.667 1.20901 6.46746 -0.00584234 0.771984 6.51671 7.25174 20 1 
432 1.20921 6.66702 -0.00554428 0.776083 6.71501 7.59871 20 1 
433.333 1.20944 6.86336 -0.00533395 0.778586 6.91001 8.01328 20 1 
434.667 1.20966 7.0548 -0.00518255 0.779127 7.10001 8.42284 20 1 
436 1.20985 7.23971 -0.00504862 0.777326 7.28333 8.7659 20 1 
437.333 1.20999 7.41703 -0.0048798 0.772801 7.45893 9.00493 20 1 
438.667 1.21005 7.58634 -0.00465106 0.765306 7.62634 9.11703 20 1 
440 1.21004 7.74734 -0.00435051 0.754719 7.78529 9.1055 20 1 
441.333 1.20998 7.89969 -0.00396856 0.741002 7.93545 9.00047 20 1 
442.667 1.20989 8.04339 -0.00352077 0.723841 8.07681 8.8288 20 1 
444 1.20977 8.17894 -0.00301546 0.703144 8.20987 8.60689 20 1 
445.333 1.20963 8.30683 -0.00247952 0.679179 8.33518 8.35959 20 1 
446.667 1.20949 8.42739 -0.00197258 0.652051 8.45311 8.11352 20 1 
448 1.20936 8.54086 -0.00150922 0.622186 8.56393 7.87763 20 1 
448 1.20936 8.54086 -0.00150922 0.622186 8.56393 7.87763 20 1 
449.333 1.20924 8.64738 -0.00109307 0.590066 8.66786 7.65348 20 1 
450.667 1.20912 8.74709 -0.000751696 0.555975 8.76505 7.4472 20 1 
452 1.20901 8.83998 -0.0005045 0.520337 8.85553 7.24531 20 1 
453.333 1.20889 8.9261 -0.000350797 0.483476 8.9394 7.01795 20 1 
454.667 1.20874 9.00594 -0.000260623 0.445997 9.01716 6.756 20 1 
456 1.20857 9.08021 -0.000211533 0.408388 9.08955 6.45473 20 1 
457.333 1.20838 9.14929 -0.000213873 0.371098 9.15695 6.09777 20 1 
458.667 1.20815 9.21341 -0.000246771 0.334435 9.21959 5.68587 20 1 
460 1.2079 9.27308 -0.000272869 0.298447 9.27798 5.2462 20 1 
461.333 1.20766 9.32889 -0.000307924 0.263738 9.33269 4.79968 20 1 
462.667 1.20741 9.38119 -0.000358302 0.23069 9.38409 4.34805 20 1 
464 1.20716 9.4302 -0.000404374 0.199567 9.43236 3.89536 20 1 
465.333 1.20691 9.47597 -0.000418108 0.170387 9.47754 3.45432 20 1 
466.667 1.20668 9.51838 -0.000407027 0.143104 9.51949 3.03756 20 1 
468 1.20647 9.55726 -0.000408499 0.117827 9.55801 2.65969 20 1 
469.333 1.20629 9.59262 -0.000415966 0.0948704 9.5931 2.33652 20 1 
469.333 1.20629 9.59262 -0.000415966 0.0948704 9.5931 2.33652 20 1 
470.667 1.20614 9.62486 -0.000413991 0.0746383 9.62516 2.06285 20 1 
472 1.20601 9.65424 -0.000409684 0.0572397 9.65442 1.81927 20 1 
473.333 1.20589 9.68052 -0.000424317 0.0425148 9.68063 1.59888 20 1 
474.667 1.20578 9.70384 -0.000447258 0.0301736 9.70389 1.4141 20 1 
476 1.2057 9.7251 -0.000446021 0.0200459 9.72513 1.27314 20 1 
477.333 1.20565 9.74502 -0.000429489 0.0121691 9.74503 1.16868 20 1 
478.667 1.2056 9.76341 -0.000432459 0.00660181 9.76342 1.08628 20 1 
480 1.20556 9.78 -0.000446778 0.00277221 9.78 1.00294 20 1 
481.333 1.20551 9.79516 -0.000440758 0.000487889 9.79516 0.917988 20 1 
482.667 1.20548 9.80953 -0.000439566 -0.00020974 9.80953 0.860018 20 1 
484 1.20546 9.82274 -0.000468557 0.000156946 9.82274 0.833405 20 1 
485.333 1.20544 9.83428 -0.000488564 0.00102157 9.83428 0.803421 20 1 
486.667 1.20542 9.84451 -0.000473362 0.00205835 9.84451 0.754529 20 1 
488 1.20539 9.85379 -0.000471065 0.00305638 9.8538 0.710719 20 1 
489.333 1.20538 9.86207 -0.000519454 0.00361338 9.86208 0.691151 20 1 
490.667 1.20538 9.8692 -0.000571619 0.00401923 9.86921 0.680055 20 1 
490.667 1.20538 9.8692 -0.000571619 0.00401923 9.86921 0.680055 20 1 
492 1.20536 9.87544 -0.00057945 0.00440757 9.87544 0.654041 20 1 
493.333 1.20534 9.88128 -0.000568271 0.00476205 9.88128 0.622386 20 1 
494.667 1.20533 9.88669 -0.000572469 0.00489615 9.88669 0.595921 20 1 
496 1.20532 9.89139 -0.000580918 0.00496746 9.89139 0.570288 20 1 
497.333 1.20531 9.89584 -0.00061223 0.00528847 9.89584 0.555463 20 1 
498.667 1.20531 9.90037 -0.000658102 0.00541659 9.90037 0.556028 20 1 
500 1.2053 9.90462 -0.000673262 0.00535105 9.90462 0.545596 20 1 
501.333 1.20528 9.90845 -0.000660361 0.00519358 9.90845 0.505063 20 1 
502.667 1.20526 9.91237 -0.000651609 0.0052496 9.91237 0.46815 20 1 
504 1.20526 9.91662 -0.000679053 0.00537687 9.91662 0.472117 20 1 
505.333 1.20527 9.92067 -0.000728109 0.00535639 9.92068 0.489602 20 1 
506.667 1.20526 9.92419 -0.000761707 0.00554275 9.92419 0.475609 20 1 
508 1.20524 9.9277 -0.000772494 0.00568429 9.9277 0.438509 20 1 
509.333 1.20523 9.93154 -0.000763507 0.00553501 9.93155 0.416048 20 1 
510.667 1.20523 9.93514 -0.000764265 0.00560765 9.93515 0.416193 20 1 
512 1.20524 9.93826 -0.000793464 0.00571542 9.93826 0.425403 20 1 
512 1.20524 9.93826 -0.000793464 0.00571542 9.93826 0.425403 21 1 
513.333 1.20524 9.94119 -0.000812795 0.00586602 9.94119 0.4325 21 1 
514.667 1.20523 9.94392 -0.000808793 0.00587389 9.94393 0.422636 21 1 
516 1.20522 9.94632 -0.000816611 0.00570555 9.94632 0.396275 21 1 
517.333 1.20522 9.94858 -0.000835672 0.0058391 9.94858 0.391265 21 1 
518.667 1.20524 9.95079 -0.000841201 0.00595399 9.95079 0.428451 21 1 
520 1.20526 9.95266 -0.000853997 0.0059398 9.95266 0.464721 21 1 
521.333 1.20526 9.95428 -0.000879874 0.00571928 9.95428 0.462506 21 1 
522.667 1.20524 9.95574 -0.000882311 0.00561092 9.95574 0.44087 21 1 
524 1.20524 9.95704 -0.000861928 0.00576326 9.95704 0.440012 21 1 
525.333 1.20526 9.95855 -0.000867767 0.00576683 9.95855 0.468014 21 1 
526.667 1.20527 9.96016 -0.000899111 0.00554554 9.96016 0.495302 21 1 
528 1.20528 9.9615 -0.000911935 0.00533496 9.9615 0.500109 21 1 
529.333 1.20527 9.96257 -0.000902422 0.00537 9.96257 0.480314 21 1 
530.667 1.20525 9.9636 -0.000911946 0.00534919 9.9636 0.45989 21 1 
532 1.20526 9.96475 -0.000942581 0.00525804 9.96475 0.472422 21 1 
533.333 1.20528 9.96597 -0.000968282 0.00511793 9.96597 0.499918 21 1 
533.333 1.20528 9.96597 -0.000968282 0.00511793 9.96597 0.499918 21 1 
534.667 1.20528 9.96741 -0.000980661 0.00497088 9.96741 0.500294 21 1 
536 1.20525 9.96912 -0.000982448 0.00498641 9.96913 0.457287 21 1 
537.333 1.20522 9.97076 -0.000975824 0.00491683 9.97076 0.392198 21 1 
538.667 1.2052 9.97225 -0.000972217 0.00498432 9.97226 0.353867 21 1 
540 1.2052 9.97381 -0.000993001 0.00496179 9.97382 0.356247 21 1 
541.333 1.2052 9.9751 -0.0010208 0.00466065 9.9751 0.369807 21 1 
542.667 1.2052 9.97618 -0.0010163 0.00455185 9.97618 0.361131 21 1 
544 1.20518 9.97742 -0.000981587 0.00473276 9.97742 0.316828 21 1 
545.333 1.20515 9.97876 -0.000965728 0.00477905 9.97876 0.267037 21 1 
546.667 1.20514 9.98008 -0.000969076 0.00465831 9.98008 0.259102 21 1 
548 1.20516 9.98129 -0.000974766 0.00436044 9.98129 0.287538 21 1 
549.333 1.20516 9.98226 -0.000971477 0.00419445 9.98226 0.295007 21 1 
550.667 1.20515 9.98309 -0.00095136 0.00436664 9.9831 0.26259 21 1 
552 1.20513 9.98382 -0.000934585 0.00457762 9.98382 0.23402 21 1 
553.333 1.20513 9.98449 -0.000922987 0.00460116 9.98449 0.234748 21 1 
554.667 1.20514 9.98543 -0.000917471 0.00422751 9.98543 0.253105 21 1 
554.667 1.20514 9.98543 -0.000917471 0.00422751 9.98543 0.253105 22 1 
556 1.20515 9.9865 -0.000915174 0.00395474 9.9865 0.272953 22 1 
557.333 1.20515 9.98716 -0.000896219 0.00392169 9.98716 0.268282 22 1 
558.667 1.20513 9.98748 -0.000878581 0.00425815 9.98748 0.242764 22 1 
560 1.20513 9.98793 -0.000887239 0.00446183 9.98793 0.231732 22 1 
561.333 1.20514 9.98874 -0.00089538 0.00426629 9.98874 0.245739 22 1 
562.667 1.20514 9.98983 -0.000892907 0.00373239 9.98983 0.259584 22 1 
564 1.20514 9.99076 -0.000869491 0.00350414 9.99076 0.24484 22 1 
565.333 1.20512 9.99126 -0.000825365 0.00403043 9.99126 0.209329 22 1 
566.667 1.2051 9.9916 -0.000802429 0.00428148 9.9916 0.185474 22 1 
568 1.2051 9.99215 -0.000809905 0.00414155 9.99215 0.188527 22 1 
569.333 1.20511 9.99302 -0.000820864 0.00371008 9.99302 0.204411 22 1 
570.667 1.20512 9.99384 -0.000813441 0.00334226 9.99384 0.219934 22 1 
572 1.20512 9.99416 -0.000785801 0.00363138 9.99416 0.222033 22 1 
573.333 1.20511 9.99426 -0.000742828 0.00396956 9.99426 0.192928 22 1 
574.667 1.20508 9.99468 -0.000699198 0.00403479 9.99468 0.15253 22 1 
576 1.20509 9.9954 -0.000692422 0.00372499 9.99541 0.156577 22 1 
576 1.20509 9.9954 -0.000692422 0.00372499 9.99541 0.156577 22 1 
577.333 1.20512 9.99606 -0.000723054 0.00331621 9.99606 0.21437 22 1 
578.667 1.20514 9.99605 -0.000729394 0.00337591 9.99605 0.254419 22 1 
580 1.20512 9.99592 -0.000687988 0.00361164 9.99592 0.225208 22 1 
581.333 1.20509 9.99646 -0.000640576 0.0037751 9.99646 0.168635 22 1 
582.667 1.20509 9.99703 -0.000629006 0.00361755 9.99703 0.161501 22 1 
584 1.20512 9.99743 -0.000642765 0.00327571 9.99744 0.212371 22 1 
585.333 1.20514 9.99787 -0.000644728 0.00317982 9.99787 0.248119 22 1 
586.667 1.20513 9.99828 -0.000624282 0.00339914 9.99828 0.228167 22 1 
588 1.2051 9.99841 -0.000596266 0.00353009 9.99841 0.189107 22 1 
589.333 1.2051 9.99816 -0.000577812 0.00346647 9.99816 0.176281 22 1 
590.667 1.20511 9.99846 -0.000580916 0.00338238 9.99846 0.190355 22 1 
592 1.20511 9.99963 -0.000587033 0.00324341 9.99963 0.205652 22 1 
593.333 1.20512 10.0004 -0.000568816 0.00310319 10.0004 0.21535 22 1 
594.667 1.20512 10 -0.000539403 0.00315836 10 0.21766 22 1 
596 1.20511 9.99951 -0.000511637 0.00331079 9.99951 0.202507 22 1 
597.333 1.2051 9.99987 -0.000506798 0.00338715 9.99987 0.173593 22 1 
597.333 1.2051 9.99987 -0.000506798 0.00338715 9.99987 0.173593 24 1 
598.667 1.20509 10.0008 -0.000527547 0.00307687 10.0008 0.171488 24 1 
600 1.20512 10.0012 -0.00052516 0.00284725 10.0012 0.213036 24 1 
601.333 1.20513 10.0009 -0.000486068 0.00313191 10.0009 0.233304 24 1 
602.667 1.2051 10.0007 -0.000449147 0.0033264 10.0007 0.184509 24 1 
604 1.20508 10.0008 -0.000437516 0.00325247 10.0008 0.138208 24 1 
605.333 1.2051 10.0013 -0.000441282 0.00298832 10.0013 0.177309 24 1 
606.667 1.20514 10.0018 -0.000439116 0.00276896 10.0018 0.250394 24 1 
608 1.20514 10.002 -0.00041886 0.0028251 10.002 0.253729 24 1 
609.333 1.2051 10.0018 -0.000390095 0.00301303 10.0018 0.189368 24 1 
610.667 1.20508 10.001 -0.000367481 0.0032538 10.001 0.144184 24 1 
612 1.20509 10.001 -0.000356655 0.0032946 10.001 0.160078 24 1 
613.333 1.20511 10.0018 -0.000360271 0.00291072 10.0018 0.199351 24 1 
614.667 1.20513 10.0025 -0.000359604 0.00258369 10.0025 0.228639 24 1 
616 1.20513 10.0024 -0.000333535 0.00277906 10.0024 0.237634 24 1 
617.333 1.20511 10.0016 -0.000303614 0.00307093 10.0016 0.199763 24 1 
618.667 1.20508 10.0017 -0.000294763 0.00304229 10.0017 0.151013 24 1 
618.667 1.20508 10.0017 -0.000294763 0.00304229 10.0017 0.151013 24 1 
620 1.20509 10.0021 -0.000298392 0.00276662 10.0021 0.166907 24 1 
621.333 1.20512 10.0024 -0.000287289 0.0025703 10.0024 0.225138 24 1 
622.667 1.20513 10.0026 -0.000267682 0.00274011 10.0026 0.233663 24 1 
624 1.2051 10.0021 -0.00025949 0.0029876 10.0021 0.179272 24 1 
625.333 1.20508 10.0018 -0.00025548 0.00297145 10.0018 0.143996 24 1 
626.667 1.20509 10.0018 -0.000235408 0.00280014 10.0018 0.159422 24 1 
628 1.20511 10.0025 -0.0002109 0.00251021 10.0025 0.200979 24 1 
629.333 1.20513 10.0036 -0.000192617 0.00234558 10.0036 0.240576 24 1 
630.667 1.20513 10.0033 -0.000177381 0.00258949 10.0033 0.241386 24 1 
632 1.2051 10.0021 -0.000177092 0.00289496 10.0021 0.189303 24 1 
633.333 1.20507 10.0015 -0.000177396 0.00302547 10.0015 0.124863 24 1 
634.667 1.20507 10.002 -0.000157133 0.00284082 10.002 0.130682 24 1 
636 1.20512 10.0031 -0.000124574 0.00243438 10.0031 0.209065 24 1 
637.333 1.20514 10.0035 -0.000104776 0.00238539 10.0035 0.249084 24 1 
638.667 1.20511 10.0033 -9.84899e-05 0.00256962 10.0033 0.204606 24 1 
640 1.20509 10.0025 -9.88571e-05 0.00269525 10.0025 0.15959 24 1 
640 1.20509 10.0025 -9.88571e-05 0.00269525 10.0025 0.15959 24 1 
641.333 1.2051 10.0023 -9.47397e-05 0.00261361 10.0023 0.181277 24 1 
642.667 1.20512 10.0034 -7.14338e-05 0.00237977 10.0034 0.220583 24 1 
644 1.20513 10.0041 -3.84516e-05 0.00233188 10.0041 0.227128 24 1 
645.333 1.20511 10.0032 -2.17387e-05 0.00270068 10.0032 0.194337 24 1 
646.667 1.20507 10.002 -2.3136e-05 0.00300963 10.002 0.134446 24 1 
648 1.20506 10.0022 -2.22954e-05 0.00279517 10.0022 0.116375 24 1 
649.333 1.20511 10.0035 -1.30421e-05 0.00225537 10.0035 0.194944 24 1 
650.667 1.20516 10.0046 6.4883e-07 0.00187542 10.0046 0.286758 24 1 
652 1.20515 10.0046 2.2043e-05 0.00213285 10.0046 0.269638 24 1 
653.333 1.2051 10.0038 4.65575e-05 0.0027556 10.0038 0.177321 24 1 
654.667 1.20507 10.0024 6.61155e-05 0.0030421 10.0024 0.11811 24 1 
656 1.20508 10.0025 7.68321e-05 0.00257561 10.0025 0.138765 24 1 
657.333 1.20511 10.0037 7.35818e-05 0.00195833 10.0037 0.196197 24 1 
658.667 1.20513 10.0045 6.90334e-05 0.00197461 10.0045 0.232691 24 1 
660 1.20512 10.0043 8.05759e-05 0.00266557 10.0043 0.219691 24 1 
661.333 1.2051 10.0033 0.000106843 0.00298819 10.0033 0.174839 24 1 
661.333 1.2051 10.0033 0.000106843 0.00298819 10.0033 0.174839 24 1 
662.667 1.20509 10.0039 0.000133515 0.00245643 10.0039 0.1608 24 1 
664 1.20511 10.0047 0.000149928 0.00166567 10.0047 0.202194 24 1 
665.333 1.20514 10.0049 0.000147056 0.0014853 10.0049 0.259544 24 1 
666.667 1.20512 10.0043 0.000144129 0.00230744 10.0043 0.216923 24 1 
668 1.20506 10.0031 0.000161118 0.0032131 10.0031 0.113636 24 1 
669.333 1.20506 10.0029 0.000183634 0.00324409 10.0029 0.106709 24 1 
670.667 1.20509 10.0039 0.000192897 0.00224713 10.0039 0.170367 24 1 
672 1.20514 10.0058 0.000195245 0.00124242 10.0058 0.245094 24 1 
673.333 1.20516 10.0057 0.000205912 0.0013654 10.0057 0.282993 24 1 
674.667 1.20512 10.0045 0.000220272 0.00233559 10.0045 0.214193 24 1 
676 1.20506 10.0039 0.000234719 0.00304422 10.0039 0.112862 24 1 
677.333 1.20508 10.0039 0.000248859 0.00258551 10.0039 0.135984 24 1 
678.667 1.20512 10.0048 0.00025105 0.00176085 10.0048 0.218128 24 1 
680 1.20512 10.0051 0.000247644 0.00158307 10.0051 0.218593 24 1 
681.333 1.20509 10.0042 0.000261615 0.00218445 10.0042 0.160816 24 1 
682.667 1.20506 10.0037 0.000286401 0.00286838 10.0037 0.113165 24 1 
682.667 1.20506 10.0037 0.000286401 0.00286838 10.0037 0.113165 31 1 
684 1.20508 10.0044 0.000304773 0.00248231 10.0044 0.152885 31 1 
685.333 1.20514 10.0059 0.000302894 0.00152105 10.0059 0.255948 31 1 
686.667 1.20516 10.0065 0.000286815 0.00105307 10.0065 0.290406 31 1 
688 1.20512 10.0052 0.000283463 0.00175845 10.0052 0.217846 31 1 
689.333 1.20505 10.0034 0.000314448 0.00284737 10.0034 0.09089 31 1 
690.667 1.20502 10.003 0.000362471 0.00302498 10.003 0.0334129 31 1 
692 1.20508 10.0042 0.000380387 0.0020529 10.0042 0.13638 31 1 
693.333 1.20515 10.0061 0.000354886 0.00108437 10.0061 0.27406 31 1 
694.667 1.20516 10.0067 0.000315914 0.0012814 10.0067 0.288239 31 1 
696 1.2051 10.0053 0.000312946 0.00218283 10.0053 0.187325 31 1 
697.333 1.20505 10.0039 0.000357445 0.0027199 10.0039 0.0912103 31 1 
698.667 1.20507 10.0041 0.00040678 0.00214161 10.0041 0.121702 31 1 
700 1.20512 10.0054 0.000422075 0.00126632 10.0054 0.209865 31 1 
701.333 1.20512 10.0058 0.00039686 0.00125632 10.0058 0.221908 31 1 
702.667 1.20509 10.0049 0.000368532 0.00211689 10.0049 0.159319 31 1 
704 1.20505 10.0042 0.000374811 0.00280045 10.0042 0.0925819 31 1 
704 1.20505 10.0042 0.000374811 0.00280045 10.0042 0.0925819 31 1 
705.333 1.20507 10.0047 0.000405681 0.00242407 10.0047 0.130237 31 1 
706.667 1.20513 10.006 0.000426353 0.00134751 10.006 0.236545 31 1 
708 1.20514 10.0067 0.000414362 0.000749116 10.0067 0.260178 31 1 
709.333 1.2051 10.0054 0.000398756 0.00119359 10.0054 0.179849 31 1 
710.667 1.20503 10.0036 0.000418583 0.00220168 10.0036 0.0623603 31 1 
712 1.20503 10.0039 0.000452977 0.00282063 10.0039 0.0625532 31 1 
713.333 1.20511 10.0056 0.000471082 0.00245572 10.0056 0.205996 31 1 
714.667 1.20516 10.0071 0.000459554 0.00160168 10.0071 0.286489 31 1 
716 1.20513 10.0067 0.000416973 0.00104938 10.0067 0.230866 31 1 
717.333 1.20505 10.0044 0.000396 0.0010854 10.0044 0.0964202 31 1 
718.667 1.20501 10.0034 0.00042971 0.00160028 10.0034 0.0157439 31 1 
720 1.20506 10.0043 0.000488026 0.00201646 10.0043 0.114587 31 1 
721.333 1.20514 10.0068 0.00052439 0.00208712 10.0068 0.257854 31 1 
722.667 1.20516 10.0078 0.000500757 0.00194685 10.0078 0.283671 31 1 
724 1.20511 10.0059 0.000443534 0.00180396 10.0059 0.197486 31 1 
725.333 1.20503 10.0039 0.000423279 0.00161501 10.0039 0.0619622 31 1 
725.333 1.20503 10.0039 0.000423279 0.00161501 10.0039 0.0619622 31 1 
726.667 1.20502 10.0033 0.000462732 0.00128391 10.0033 0.0272471 31 1 
728 1.20507 10.0049 0.000518114 0.0012859 10.0049 0.128783 31 1 
729.333 1.20514 10.0072 0.000525179 0.00158417 10.0072 0.249342 31 1 
730.667 1.20516 10.0075 0.000477031 0.00189645 10.0075 0.283876 31 1 
732 1.2051 10.0058 0.000443536 0.00202962 10.0058 0.174564 31 1 
733.333 1.20502 10.0036 0.000474848 0.0019141 10.0036 0.0387454 31 1 
734.667 1.20502 10.0035 0.000534713 0.00164503 10.0035 0.0376399 31 1 
736 1.20508 10.0056 0.000556704 0.00130491 10.0056 0.148508 31 1 
737.333 1.20515 10.0077 0.000514003 0.00112416 10.0077 0.272646 31 1 
738.667 1.20515 10.0076 0.000448261 0.0012948 10.0076 0.278778 31 1 
740 1.20508 10.0052 0.000434171 0.00172223 10.0052 0.140468 31 1 
741.333 1.205 10.0031 0.000488132 0.00202195 10.0031 0.00523129 31 1 
742.667 1.205 10.0033 0.000559297 0.00198887 10.0033 0.0065662 31 1 
744 1.20509 10.006 0.000578651 0.00159914 10.006 0.160592 31 1 
745.333 1.20517 10.0079 0.00052647 0.00119274 10.0079 0.307687 31 1 
746.667 1.20516 10.0077 0.000466538 0.00113123 10.0077 0.289286 31 1 
746.667 1.20516 10.0077 0.000466538 0.00113123 10.0077 0.289286 31 1 
748 1.20508 10.0055 0.000455028 0.00144805 10.0055 0.13717 31 1 
749.333 1.20501 10.0034 0.000491996 0.00181122 10.0034 0.00948022 31 1 
750.667 1.20502 10.004 0.000540156 0.00165933 10.004 0.0282695 31 1 
752 1.20509 10.0059 0.000548734 0.0013157 10.0059 0.170464 31 1 
753.333 1.20514 10.0073 0.000517999 0.00138785 10.0073 0.258041 31 1 
754.667 1.20511 10.0064 0.000487027 0.00188105 10.0064 0.191565 31 1 
756 1.20505 10.005 0.000487314 0.00194278 10.005 0.0910561 31 1 
757.333 1.20505 10.0052 0.0005238 0.00135588 10.0052 0.09127 31 1 
758.667 1.20511 10.0063 0.000545821 0.000739699 10.0063 0.192619 31 1 
760 1.20513 10.0071 0.000518149 0.000871534 10.0071 0.231633 31 1 
761.333 1.20508 10.0058 0.000478391 0.00159206 10.0058 0.139802 31 1 
762.667 1.20503 10.0044 0.000468124 0.00219827 10.0044 0.052191 31 1 
764 1.20503 10.0044 0.000496789 0.0020834 10.0044 0.0602543 31 1 
765.333 1.20509 10.0061 0.000539303 0.0013073 10.0061 0.161458 31 1 
766.667 1.20514 10.0076 0.000552345 0.000701219 10.0076 0.251343 31 1 
768 1.20513 10.0076 0.000512436 0.000964259 10.0076 0.242369 31 1 
768 1.20513 10.0076 0.000512436 0.000964259 10.0076 0.242369 32 1 
769.333 1.20509 10.0063 0.000459924 0.0016375 10.0063 0.156413 32 1 
770.667 1.20504 10.0046 0.000454732 0.0018984 10.0046 0.0696689 32 1 
772 1.20504 10.0046 0.000493243 0.00170511 10.0046 0.0655688 32 1 
773.333 1.20507 10.0056 0.000533847 0.00158752 10.0056 0.120948 32 1 
774.667 1.2051 10.007 0.000532555 0.00132775 10.007 0.174487 32 1 
776 1.20512 10.0077 0.00049509 0.000991484 10.0077 0.225599 32 1 
777.333 1.20514 10.0078 0.000461562 0.00097577 10.0078 0.251842 32 1 
778.667 1.2051 10.0066 0.000456907 0.00131134 10.0066 0.173233 32 1 
780 1.20502 10.0043 0.000475947 0.00174433 10.0043 0.0363009 32 1 
781.333 1.205 10.0044 0.00049076 0.00201233 10.0044 0.00660024 32 1 
782.667 1.20508 10.0066 0.000495982 0.00146567 10.0066 0.139165 32 1 
784 1.20517 10.0089 0.000486551 0.000582852 10.0089 0.298455 32 1 
785.333 1.20516 10.0088 0.000468213 0.000465033 10.0088 0.295431 32 1 
786.667 1.20509 10.0069 0.000454504 0.0011745 10.0069 0.159473 32 1 
788 1.20502 10.0049 0.000451468 0.00195839 10.0049 0.0354667 32 1 
789.333 1.20502 10.0048 0.000456873 0.00200392 10.0048 0.0438351 32 1 
790.667 1.20509 10.0065 0.00045731 0.00143716 10.0065 0.160485 32 1 
792 1.20513 10.008 0.000450631 0.000866877 10.008 0.239368 32 1 
793.333 1.20513 10.0081 0.000444422 0.000965421 10.0081 0.234201 32 1 
794.667 1.2051 10.0068 0.000446819 0.0014028 10.0068 0.182342 32 1 
796 1.20507 10.0062 0.00045444 0.00155295 10.0062 0.134557 32 1 
797.333 1.20506 10.006 0.000450196 0.00135263 10.006 0.110886 32 1 
798.667 1.20508 10.0065 0.000443812 0.00119376 10.0065 0.137038 32 1 
800 1.20509 10.0073 0.000445676 0.000985102 10.0073 0.1685 32 1 
