9.05647;r ;Density                 ;Velocity u              ;Velocity v              ;Velocity w              ;|Velocity|              ;Pressure                ;Distribution            ;Levels                  ;
0 1.20695 9.98658 1.30027e-05 0.00174173 9.98658 3.51367 1 1 
1.33334 1.20702 9.97659 2.23327e-05 0.00195237 9.97659 3.6525 1 1 
2.66666 1.20712 9.95973 3.70144e-05 0.00198924 9.95973 3.82719 1 1 
4 1.20704 9.95162 4.41865e-05 0.00144648 9.95162 3.68067 1 1 
5.33334 1.20674 9.95363 4.98188e-05 0.00042507 9.95363 3.13899 1 1 
6.66666 1.20634 9.96107 5.3519e-05 -0.000416745 9.96107 2.42936 1 1 
8 1.20605 9.96726 5.75313e-05 -0.000757629 9.96726 1.89349 1 1 
9.33334 1.20597 9.96726 7.08459e-05 -0.000242197 9.96726 1.75963 1 1 
10.6667 1.20605 9.96302 9.62856e-05 0.000749407 9.96302 1.90068 1 1 
12 1.20606 9.96215 0.000154997 0.00145905 9.96215 1.91514 1 1 
13.3333 1.20592 9.96641 0.000278088 0.00240727 9.96641 1.65894 1 1 
14.6667 1.20576 9.97117 0.000491605 0.00331421 9.97117 1.37913 1 1 
16 1.2058 9.97046 0.000809207 0.00410766 9.97046 1.43972 1 1 
17.3333 1.20604 9.9626 0.00120819 0.00424601 9.9626 1.88699 1 1 
18.6667 1.20635 9.95227 0.00163164 0.00322798 9.95228 2.43999 1 1 
20 1.20664 9.9425 0.00197022 0.00140497 9.9425 2.95578 1 1 
21.3333 1.20692 9.93291 0.0021033 -0.0010671 9.93291 3.4691 1 1 
21.3333 1.20692 9.93291 0.0021033 -0.0010671 9.93291 3.4691 1 1 
22.6667 1.20719 9.92435 0.00199099 -0.00307352 9.92435 3.94733 1 1 
24 1.20731 9.92043 0.00167048 -0.00447834 9.92043 4.17762 1 1 
25.3333 1.20724 9.92276 0.00127338 -0.00477696 9.92276 4.0469 1 1 
26.6667 1.20705 9.92909 0.000974967 -0.00383435 9.92909 3.6994 1 1 
28 1.20679 9.93788 0.000868275 -0.00176315 9.93788 3.23607 1 1 
29.3333 1.20649 9.94779 0.000937707 0.000818343 9.94779 2.693 1 1 
30.6667 1.20623 9.95631 0.00105387 0.00237652 9.95631 2.21677 1 1 
32 1.20607 9.96202 0.00103953 0.0032091 9.96202 1.93321 1 1 
33.3333 1.20597 9.96597 0.000834252 0.00343311 9.96597 1.74519 1 1 
34.6667 1.20586 9.96969 0.000536025 0.00295889 9.96969 1.55632 1 1 
36 1.20577 9.97323 0.000317672 0.00301063 9.97323 1.39907 1 1 
37.3333 1.20557 9.98012 0.000308126 0.00376313 9.98012 1.03207 1 1 
38.6667 1.20519 9.99203 0.000473832 0.00531487 9.99204 0.344809 1 1 
40 1.20498 9.99878 0.000682556 0.00567882 9.99878 -0.0283295 1 1 
41.3333 1.20519 9.99287 0.000853757 0.00322671 9.99287 0.338545 1 1 
42.6667 1.20551 9.98281 0.000994978 -0.000703559 9.98281 0.924723 1 1 
42.6667 1.20551 9.98281 0.000994978 -0.000703559 9.98281 0.924723 2 1 
44 1.20573 9.97596 0.00115773 -0.00508604 9.97596 1.32674 2 1 
45.3333 1.2059 9.9715 0.00133846 -0.00721329 9.97151 1.61899 2 1 
46.6667 1.20578 9.97534 0.00141069 -0.00589103 9.97535 1.41606 2 1 
48 1.20532 9.98936 0.00125336 -0.00194995 9.98936 0.570322 2 1 
49.3333 1.20498 10.0001 0.00088875 0.00192674 10.0001 -0.0383092 2 1 
50.6667 1.20502 9.99975 0.00048288 0.00282786 9.99975 0.0345717 2 1 
52 1.20515 9.99579 0.000235631 -1.63378e-05 9.99579 0.267791 2 1 
53.3333 1.20524 9.99291 0.00021336 -0.0028208 9.99291 0.433922 2 1 
54.6667 1.20523 9.99369 0.000292643 -0.00277238 9.99369 0.406578 2 1 
56 1.20487 10.0047 0.00029837 -7.35791e-06 10.0047 -0.226367 2 1 
57.3333 1.20438 10.0196 0.000170694 0.00433955 10.0196 -1.1148 2 1 
58.6667 1.20419 10.0257 -1.73759e-06 0.00639551 10.0257 -1.46194 2 1 
60 1.20434 10.0219 -4.97633e-05 0.00492057 10.0219 -1.19892 2 1 
61.3333 1.20457 10.0147 0.000103735 0.00127164 10.0147 -0.779918 2 1 
62.6667 1.20466 10.0119 0.000355821 -0.00212891 10.0119 -0.619104 2 1 
64 1.20451 10.0163 0.000529526 -0.00117947 10.0163 -0.885678 2 1 
64 1.20451 10.0163 0.000529526 -0.00117947 10.0163 -0.885678 2 1 
65.3333 1.20424 10.0247 0.000548196 0.00204358 10.0247 -1.36562 2 1 
66.6667 1.20408 10.0299 0.000462848 0.00408526 10.0299 -1.65877 2 1 
68 1.2041 10.0286 0.00038974 0.00357858 10.0286 -1.61698 2 1 
69.3333 1.20431 10.0224 0.000429064 0.000560771 10.0224 -1.25336 2 1 
70.6667 1.20458 10.0149 0.000571748 -0.00173717 10.0149 -0.759531 2 1 
72 1.20459 10.0145 0.000754165 -0.00181058 10.0145 -0.735118 2 1 
73.3333 1.20431 10.0227 0.000897449 -0.000113613 10.0227 -1.25501 2 1 
74.6667 1.20416 10.027 0.000924 0.00264659 10.027 -1.51295 2 1 
76 1.20429 10.0232 0.000812168 0.00330357 10.0232 -1.2748 2 1 
77.3333 1.2044 10.02 0.000639829 0.00108866 10.02 -1.07608 2 1 
78.6667 1.20444 10.0186 0.000560029 -0.000549005 10.0186 -1.00799 2 1 
80 1.20452 10.0166 0.000651781 -0.000985339 10.0166 -0.867637 2 1 
81.3333 1.20452 10.0171 0.000866701 0.000421189 10.0171 -0.871822 2 1 
82.6667 1.20436 10.0211 0.00106234 0.00223925 10.0211 -1.14965 2 1 
84 1.20429 10.0234 0.00108023 0.00197471 10.0234 -1.28415 2 1 
85.3333 1.20442 10.0203 0.000932086 0.0014077 10.0203 -1.05636 2 1 
85.3333 1.20442 10.0203 0.000932086 0.0014077 10.0203 -1.05636 3 1 
86.6667 1.20451 10.0172 0.000779963 0.00139937 10.0172 -0.878791 3 1 
88 1.20446 10.0185 0.000764928 0.00070994 10.0185 -0.982886 3 1 
89.3333 1.20442 10.0198 0.000935785 0.000970846 10.0198 -1.05224 3 1 
90.6667 1.20444 10.0196 0.00114231 0.00124383 10.0196 -1.01427 3 1 
92 1.20444 10.0194 0.00120288 0.00182102 10.0194 -1.00463 3 1 
93.3333 1.20443 10.0198 0.001135 0.00207694 10.0198 -1.03402 3 1 
94.6667 1.20438 10.0212 0.00102762 0.00149308 10.0212 -1.11328 3 1 
96 1.20438 10.0213 0.000992117 0.00147721 10.0213 -1.12349 3 1 
97.3333 1.20443 10.0196 0.00106903 0.00128073 10.0196 -1.02903 3 1 
98.6667 1.20447 10.0186 0.00115895 0.00121733 10.0186 -0.952075 3 1 
100 1.20442 10.0204 0.00120235 0.000930524 10.0204 -1.04164 3 1 
101.333 1.20434 10.0226 0.00119696 0.00085353 10.0226 -1.1932 3 1 
102.667 1.20437 10.0216 0.00116226 0.00189898 10.0216 -1.14575 3 1 
104 1.20441 10.0205 0.00115331 0.0021145 10.0205 -1.06284 3 1 
105.333 1.20434 10.0223 0.00117197 0.000965603 10.0223 -1.18754 3 1 
106.667 1.2043 10.0233 0.00117941 0.000283765 10.0233 -1.26618 3 1 
106.667 1.2043 10.0233 0.00117941 0.000283765 10.0233 -1.26618 3 1 
108 1.20441 10.0205 0.00118947 0.000878255 10.0205 -1.06276 3 1 
109.333 1.20445 10.0193 0.00121687 0.00158479 10.0193 -0.986252 3 1 
110.667 1.2043 10.0234 0.00125463 0.00133973 10.0234 -1.25617 3 1 
112 1.20424 10.0251 0.00128998 0.00118323 10.0251 -1.37523 3 1 
113.333 1.20436 10.0216 0.00128001 0.00164838 10.0216 -1.15041 3 1 
114.667 1.20441 10.0204 0.00124066 0.001955 10.0204 -1.05787 3 1 
116 1.2043 10.0232 0.00120576 0.00105758 10.0232 -1.2636 3 1 
117.333 1.20425 10.0243 0.00121412 0.000570723 10.0243 -1.35702 3 1 
118.667 1.20434 10.0223 0.00126931 0.00169781 10.0223 -1.19744 3 1 
120 1.20438 10.0207 0.00131022 0.00253756 10.0207 -1.11168 3 1 
121.333 1.20426 10.0237 0.00131193 0.0014557 10.0237 -1.33831 3 1 
122.667 1.20418 10.0262 0.00127204 0.000720164 10.0262 -1.47995 3 1 
124 1.20432 10.0223 0.00124366 0.00145561 10.0223 -1.23315 3 1 
125.333 1.20439 10.0205 0.00125393 0.00192553 10.0205 -1.10406 3 1 
126.667 1.20428 10.0239 0.00129959 0.00123288 10.0239 -1.3037 3 1 
128 1.20422 10.0246 0.00133106 0.000757553 10.0246 -1.41278 3 1 
128 1.20422 10.0246 0.00133106 0.000757553 10.0246 -1.41278 3 1 
129.333 1.20426 10.0232 0.00131818 0.00132416 10.0232 -1.33872 3 1 
130.667 1.20429 10.0227 0.00128733 0.00216799 10.0227 -1.27374 3 1 
132 1.20427 10.0226 0.00126674 0.00140177 10.0226 -1.31334 3 1 
133.333 1.20421 10.0243 0.00129229 0.00050667 10.0243 -1.42045 3 1 
134.667 1.20426 10.0231 0.00133692 0.000970945 10.0231 -1.33139 3 1 
136 1.20436 10.0204 0.00137045 0.00202084 10.0204 -1.16339 3 1 
137.333 1.20429 10.022 0.00136935 0.00177304 10.022 -1.29011 3 1 
138.667 1.20417 10.0245 0.00135176 0.00070077 10.0245 -1.49926 3 1 
140 1.20423 10.0234 0.00132938 0.00103201 10.0234 -1.39219 3 1 
141.333 1.20435 10.0203 0.00133855 0.00163439 10.0203 -1.17879 3 1 
142.667 1.20432 10.0204 0.00137066 0.00135404 10.0204 -1.23297 3 1 
144 1.20424 10.0223 0.00139271 0.000959617 10.0223 -1.37521 3 1 
145.333 1.20425 10.0215 0.00140664 0.00105219 10.0215 -1.35171 3 1 
146.667 1.20429 10.0205 0.00138893 0.00177014 10.0205 -1.28082 3 1 
148 1.2043 10.0205 0.00137696 0.00196492 10.0205 -1.2673 3 1 
149.333 1.20429 10.0202 0.00137392 0.00110778 10.0202 -1.27787 3 1 
149.333 1.20429 10.0202 0.00137392 0.00110778 10.0202 -1.27787 3 1 
150.667 1.20428 10.0205 0.00139309 0.00108932 10.0205 -1.30588 3 1 
152 1.20431 10.0191 0.0014147 0.00158609 10.0191 -1.24749 3 1 
153.333 1.20436 10.0174 0.0014157 0.00162451 10.0174 -1.1577 3 1 
154.667 1.2043 10.0193 0.00140827 0.00174068 10.0193 -1.27299 3 1 
156 1.20424 10.0201 0.0013876 0.00117217 10.0201 -1.36568 3 1 
157.333 1.20434 10.0172 0.0013749 0.00145271 10.0172 -1.19971 3 1 
158.667 1.20439 10.0164 0.00138968 0.00217744 10.0164 -1.10098 3 1 
160 1.20435 10.0169 0.00142666 0.00125834 10.0169 -1.18166 3 1 
161.333 1.20431 10.0171 0.00144046 0.00121638 10.0171 -1.24555 3 1 
162.667 1.20433 10.0167 0.00143586 0.00124495 10.0167 -1.20432 3 1 
164 1.20438 10.0143 0.00142027 0.0012413 10.0143 -1.12388 3 1 
165.333 1.20436 10.0145 0.0014076 0.00216985 10.0145 -1.15936 3 1 
166.667 1.20435 10.0149 0.00141735 0.00159783 10.0149 -1.17604 3 1 
168 1.20439 10.0131 0.00144454 0.00154594 10.0131 -1.10456 3 1 
169.333 1.20438 10.0131 0.00146378 0.00194249 10.0131 -1.11569 3 1 
170.667 1.20439 10.0129 0.00146053 0.00107307 10.0129 -1.10836 3 1 
170.667 1.20439 10.0129 0.00146053 0.00107307 10.0129 -1.10836 11 1 
172 1.20442 10.0119 0.00144436 0.00112914 10.0119 -1.05371 11 1 
173.333 1.20441 10.0114 0.00144569 0.00154868 10.0114 -1.07157 11 1 
174.667 1.2044 10.0103 0.00145839 0.00166326 10.0103 -1.08154 11 1 
176 1.20442 10.0094 0.00147119 0.0021819 10.0094 -1.04843 11 1 
177.333 1.20443 10.0087 0.00150271 0.00193417 10.0087 -1.03333 11 1 
178.667 1.20443 10.0079 0.00149483 0.00139397 10.0079 -1.03344 11 1 
180 1.20444 10.0075 0.00147666 0.00135303 10.0075 -1.00957 11 1 
181.333 1.20447 10.0072 0.00147111 0.0015158 10.0072 -0.956269 11 1 
182.667 1.20448 10.006 0.00149196 0.00198304 10.006 -0.941962 11 1 
184 1.20446 10.0045 0.00151255 0.00222517 10.0045 -0.966457 11 1 
185.333 1.20447 10.0032 0.00151897 0.00211106 10.0032 -0.953925 11 1 
186.667 1.20449 10.0019 0.00153581 0.00142626 10.0019 -0.927596 11 1 
188 1.20448 10.0016 0.00151921 0.000827243 10.0016 -0.937268 11 1 
189.333 1.2045 10.0019 0.00151663 0.00113764 10.0019 -0.907994 11 1 
190.667 1.20455 10.0007 0.00152055 0.00186308 10.0007 -0.813543 11 1 
192 1.20456 9.99881 0.00153729 0.00232357 9.99881 -0.803913 11 1 
192 1.20456 9.99881 0.00153729 0.00232357 9.99881 -0.803913 11 1 
193.333 1.20453 9.99749 0.00154039 0.00270399 9.99749 -0.848384 11 1 
194.667 1.20453 9.99589 0.00155072 0.00247317 9.99589 -0.843248 11 1 
196 1.20454 9.99431 0.00155095 0.00145015 9.99431 -0.834631 11 1 
197.333 1.20457 9.9926 0.00152895 0.00128388 9.9926 -0.777983 11 1 
198.667 1.20462 9.99054 0.00157685 0.00101613 9.99054 -0.677686 11 1 
200 1.20461 9.98983 0.00157893 0.00136906 9.98983 -0.704186 11 1 
201.333 1.20456 9.98965 0.00155647 0.00285226 9.98965 -0.787749 11 1 
202.667 1.20461 9.98779 0.0015675 0.0035014 9.98779 -0.695411 11 1 
204 1.20467 9.98608 0.00155153 0.0033571 9.98608 -0.588506 11 1 
205.333 1.20467 9.9841 0.00153728 0.00227952 9.9841 -0.596711 11 1 
206.667 1.20467 9.98106 0.00157829 2.38521e-05 9.98106 -0.591669 11 1 
208 1.20467 9.97929 0.00158734 0.000389433 9.97929 -0.59652 11 1 
209.333 1.20468 9.97743 0.00157587 0.00199477 9.97743 -0.585331 11 1 
210.667 1.20472 9.97475 0.00158097 0.00239062 9.97475 -0.514339 11 1 
212 1.20477 9.97246 0.00154274 0.00505999 9.97246 -0.422568 11 1 
213.333 1.20481 9.96927 0.00149386 0.00409908 9.96927 -0.351981 11 1 
213.333 1.20481 9.96927 0.00149386 0.00409908 9.96927 -0.351981 11 1 
214.667 1.20476 9.96738 0.00151581 0.00147562 9.96738 -0.437255 11 1 
216 1.20474 9.96679 0.00157945 0.00236069 9.96679 -0.476734 11 1 
217.333 1.20487 9.96228 0.00158599 0.000823516 9.96228 -0.242308 11 1 
218.667 1.20489 9.95932 0.00158608 0.00154112 9.95932 -0.193062 11 1 
220 1.20484 9.95764 0.00154551 0.00424157 9.95764 -0.286855 11 1 
221.333 1.20491 9.9509 0.00148369 0.00299496 9.9509 -0.155169 11 1 
222.667 1.20491 9.94765 0.00145921 0.00376401 9.94765 -0.157608 11 1 
224 1.20491 9.94556 0.00147191 0.0040327 9.94556 -0.169701 11 1 
225.333 1.20502 9.9399 0.00150637 0.00210122 9.9399 0.0447031 11 1 
226.667 1.20507 9.93817 0.00152553 0.0040252 9.93817 0.119908 11 1 
228 1.20505 9.93484 0.00151994 0.00386404 9.93484 0.0820449 11 1 
229.333 1.20505 9.9284 0.00149126 0.00295693 9.9284 0.0995188 11 1 
230.667 1.20512 9.92322 0.00144079 0.00456198 9.92322 0.210963 11 1 
232 1.2052 9.91571 0.00142847 0.00353943 9.91571 0.35861 11 1 
233.333 1.20519 9.9113 0.00142034 0.00489677 9.9113 0.346105 11 1 
234.667 1.20523 9.90812 0.00140942 0.00527281 9.90812 0.414705 11 1 
234.667 1.20523 9.90812 0.00140942 0.00527281 9.90812 0.414705 11 1 
236 1.20533 9.90058 0.00144423 0.00411129 9.90058 0.597763 11 1 
237.333 1.20534 9.8948 0.00138118 0.00588281 9.8948 0.606819 11 1 
238.667 1.20539 9.88706 0.00130605 0.00534732 9.88706 0.700742 11 1 
240 1.20549 9.87714 0.00131431 0.00662629 9.87715 0.884058 11 1 
241.333 1.2055 9.87054 0.00132393 0.0080469 9.87055 0.899603 11 1 
242.667 1.20552 9.86412 0.00135173 0.00613127 9.86412 0.935778 11 1 
244 1.20565 9.85487 0.0013473 0.00689593 9.85488 1.17554 11 1 
245.333 1.20577 9.84429 0.00121222 0.00802647 9.8443 1.38992 11 1 
246.667 1.20577 9.83424 0.00118291 0.00930746 9.83424 1.39475 11 1 
248 1.20582 9.82311 0.00122667 0.0102483 9.82312 1.47315 11 1 
249.333 1.20596 9.81071 0.00115677 0.0102081 9.81071 1.73582 11 1 
250.667 1.20604 9.7988 0.00114799 0.0122011 9.79881 1.8857 11 1 
252 1.20609 9.78652 0.0011087 0.0129598 9.78653 1.97736 11 1 
253.333 1.20626 9.77102 0.00104784 0.0132804 9.77104 2.27775 11 1 
254.667 1.20638 9.75478 0.00109289 0.0157749 9.75479 2.48788 11 1 
256 1.20639 9.73934 0.00106339 0.017484 9.73935 2.51651 11 1 
256 1.20639 9.73934 0.00106339 0.017484 9.73935 2.51651 13 1 
257.333 1.20656 9.72172 0.000975186 0.0184779 9.72174 2.81014 13 1 
258.667 1.20678 9.70142 0.000950799 0.0215943 9.70145 3.21187 13 1 
260 1.20686 9.68127 0.00090763 0.0230779 9.6813 3.35133 13 1 
261.333 1.20697 9.65977 0.000860897 0.0260221 9.65981 3.55679 13 1 
262.667 1.20722 9.6329 0.000839028 0.0292151 9.63295 4.01758 13 1 
264 1.20738 9.60683 0.000800798 0.0327753 9.60689 4.29216 13 1 
265.333 1.20748 9.57985 0.000748264 0.0371792 9.57993 4.47875 13 1 
266.667 1.20777 9.54733 0.000704401 0.0416101 9.54743 5.00001 13 1 
268 1.20805 9.51444 0.000669345 0.0471133 9.51457 5.50508 13 1 
269.333 1.20821 9.47741 0.000646545 0.0526862 9.47757 5.80218 13 1 
270.667 1.20845 9.43801 0.000613597 0.0615295 9.43822 6.23572 13 1 
272 1.20882 9.39658 0.000551989 0.0699826 9.39685 6.89956 13 1 
273.333 1.20915 9.34644 0.000495712 0.0805154 9.34681 7.49009 13 1 
274.667 1.20933 9.29891 0.000455796 0.0950187 9.29942 7.82824 13 1 
276 1.20977 9.24385 0.000425049 0.109353 9.24454 8.62163 13 1 
277.333 1.21036 9.16805 0.000381562 0.120187 9.1689 9.68917 13 1 
277.333 1.21036 9.16805 0.000381562 0.120187 9.1689 9.68917 13 1 
278.667 1.21049 9.10147 0.000325795 0.134968 9.10253 9.91356 13 1 
280 1.21089 9.03445 0.000268841 0.156767 9.03584 10.6341 13 1 
281.333 1.21176 8.95421 0.00023046 0.18701 8.9562 12.2075 13 1 
282.667 1.21209 8.88488 0.000196405 0.223803 8.88775 12.8128 13 1 
284 1.2125 8.79251 0.000150471 0.253356 8.79624 13.5401 13 1 
285.333 1.21331 8.67742 9.43255e-05 0.284054 8.68217 15.0152 13 1 
286.667 1.21384 8.57829 4.38686e-05 0.321088 8.58439 15.9637 13 1 
288 1.21445 8.46593 1.22353e-05 0.378535 8.47458 17.0714 13 1 
289.333 1.21517 8.34754 -2.41231e-05 0.435253 8.359 18.3618 13 1 
290.667 1.21589 8.2234 -6.51428e-05 0.486866 8.2381 19.6684 13 1 
292 1.21667 8.07851 -0.000110427 0.584487 8.10013 21.0751 13 1 
293.333 1.2171 7.94402 -0.000148181 0.650523 7.97072 21.8466 13 1 
294.667 1.21826 7.77685 -0.000170154 0.706366 7.80978 23.9484 13 1 
296 1.21955 7.56903 -0.000196424 0.894835 7.6239 26.2775 13 1 
297.333 1.21791 7.25297 -0.000226694 0.946506 7.31632 23.319 13 1 
298.667 1.2123 6.72408 -0.000260322 0.45387 6.75492 13.1823 13 1 
298.667 1.2123 6.72408 -0.000260322 0.45387 6.75492 13.1823 14 1 
300 1.20424 6.17969 -0.000307246 -0.580795 6.24522 -1.37546 14 1 
301.333 1.19714 5.82979 -0.000371677 -1.35995 5.99128 -14.1931 14 1 
302.667 1.1937 5.62838 -0.000444795 -1.38893 5.79873 -20.4041 14 1 
304 1.19313 5.46918 -0.000514709 -1.1644 5.59269 -21.4426 14 1 
305.333 1.19364 5.35878 -0.000588555 -1.02086 5.45545 -20.5189 14 1 
306.667 1.19458 5.31444 -0.00065786 -0.923079 5.39439 -18.8146 14 1 
308 1.19524 5.27068 -0.000716086 -0.835652 5.33672 -17.6211 14 1 
309.333 1.19537 5.19864 -0.000782062 -0.753047 5.25321 -17.391 14 1 
310.667 1.19575 5.12147 -0.00084659 -0.671733 5.16554 -16.7053 14 1 
312 1.19648 5.05562 -0.000902312 -0.602946 5.09169 -15.3947 14 1 
313.333 1.19677 4.99037 -0.000961017 -0.536199 5.01926 -14.8644 14 1 
314.667 1.19684 4.91409 -0.00102048 -0.476021 4.93727 -14.7482 14 1 
316 1.19732 4.84085 -0.00107382 -0.427608 4.85982 -13.8807 14 1 
317.333 1.1978 4.77673 -0.00112804 -0.380368 4.79202 -13.0023 14 1 
318.667 1.19787 4.70681 -0.00119612 -0.333958 4.71874 -12.8731 14 1 
320 1.19802 4.6378 -0.00125452 -0.301717 4.64768 -12.5998 14 1 
320 1.19802 4.6378 -0.00125452 -0.301717 4.64768 -12.5998 14 1 
321.333 1.19847 4.58539 -0.00129056 -0.272622 4.59356 -11.786 14 1 
322.667 1.19875 4.53479 -0.00133716 -0.242819 4.54137 -11.2881 14 1 
324 1.19878 4.47245 -0.00139907 -0.214917 4.47768 -11.2312 14 1 
325.333 1.19896 4.41541 -0.00145366 -0.194067 4.41972 -10.9069 14 1 
326.667 1.19928 4.3759 -0.00150681 -0.179558 4.37963 -10.3386 14 1 
328 1.19945 4.33808 -0.00156867 -0.165206 4.34127 -10.0276 14 1 
329.333 1.19952 4.29221 -0.0016437 -0.151228 4.29491 -9.89237 14 1 
330.667 1.1997 4.25204 -0.00174725 -0.146037 4.25457 -9.5743 14 1 
332 1.1999 4.22325 -0.00186077 -0.149724 4.22594 -9.20298 14 1 
333.333 1.2 4.19137 -0.00194444 -0.156743 4.19434 -9.03175 14 1 
334.667 1.20009 4.14716 -0.00198828 -0.162795 4.15041 -8.86985 14 1 
336 1.20024 4.09621 -0.00198781 -0.171382 4.09986 -8.59337 14 1 
337.333 1.20035 4.05601 -0.00194655 -0.19771 4.06097 -8.40523 14 1 
338.667 1.20041 4.05034 -0.0019006 -0.2645 4.05949 -8.29941 14 1 
340 1.20051 4.08523 -0.00186866 -0.379634 4.10383 -8.10423 14 1 
341.333 1.20064 4.13172 -0.00181658 -0.528097 4.16643 -7.88379 14 1 
341.333 1.20064 4.13172 -0.00181658 -0.528097 4.16643 -7.88379 15 1 
342.667 1.2007 4.13397 -0.00172075 -0.684882 4.1913 -7.76497 15 1 
344 1.20074 4.04394 -0.00164267 -0.818575 4.12689 -7.69956 15 1 
345.333 1.20079 3.85633 -0.00166342 -0.887283 3.95794 -7.61292 15 1 
346.667 1.2008 3.60611 -0.0017918 -0.847371 3.70539 -7.58765 15 1 
348 1.20077 3.34667 -0.0019943 -0.673059 3.41616 -7.64044 15 1 
349.333 1.2008 3.12557 -0.00222506 -0.383744 3.1538 -7.57804 15 1 
350.667 1.20094 2.96669 -0.00244734 -0.044301 2.97272 -7.32549 15 1 
352 1.20116 2.8777 -0.00266522 0.276276 2.89542 -6.94449 15 1 
353.333 1.20146 2.85717 -0.00288757 0.536678 2.90972 -6.4016 15 1 
354.667 1.20186 2.89497 -0.00310216 0.727095 2.98619 -5.66475 15 1 
356 1.20234 2.98257 -0.0032879 0.858647 3.10455 -4.79749 15 1 
357.333 1.20287 3.11585 -0.00342872 0.94939 3.25812 -3.85576 15 1 
358.667 1.20344 3.29043 -0.00352897 1.01174 3.44346 -2.817 15 1 
360 1.20406 3.50165 -0.00359104 1.05074 3.65709 -1.70131 15 1 
361.333 1.20466 3.74466 -0.00361783 1.06868 3.89556 -0.611925 15 1 
362.667 1.20525 4.01547 -0.00361914 1.06836 4.15674 0.444997 15 1 
362.667 1.20525 4.01547 -0.00361914 1.06836 4.15674 0.444997 15 1 
364 1.20584 4.31045 -0.0035892 1.05299 4.4389 1.50847 15 1 
365.333 1.20639 4.62448 -0.00353898 1.02459 4.73836 2.51434 15 1 
366.667 1.20688 4.95111 -0.00347517 0.984532 5.04978 3.39568 15 1 
368 1.2073 5.28391 -0.00336844 0.934112 5.36751 4.15964 15 1 
369.333 1.20766 5.61797 -0.00322809 0.875152 5.6873 4.80755 15 1 
370.667 1.20793 5.94894 -0.00309216 0.809856 6.00524 5.28731 15 1 
372 1.2081 6.27165 -0.00294991 0.740077 6.31644 5.597 15 1 
373.333 1.20822 6.58171 -0.00278982 0.667264 6.61656 5.80847 15 1 
374.667 1.20828 6.87621 -0.00262935 0.593444 6.90272 5.92511 15 1 
376 1.20827 7.1534 -0.00246732 0.520944 7.17314 5.91321 15 1 
377.333 1.20823 7.41228 -0.00231819 0.451208 7.42666 5.83108 15 1 
378.667 1.20817 7.6521 -0.00218731 0.385145 7.66233 5.72265 15 1 
380 1.20806 7.87245 -0.00205137 0.324012 7.87955 5.52468 15 1 
381.333 1.2079 8.07382 -0.00191597 0.268475 8.07863 5.23333 15 1 
382.667 1.20775 8.25717 -0.00180144 0.21901 8.26035 4.96204 15 1 
384 1.20762 8.42311 -0.00170415 0.176168 8.42517 4.73933 15 1 
384 1.20762 8.42311 -0.00170415 0.176168 8.42517 4.73933 15 1 
385.333 1.20748 8.57241 -0.00160748 0.13995 8.57372 4.48128 15 1 
386.667 1.20732 8.70619 -0.00151531 0.10969 8.70701 4.19355 15 1 
388 1.20719 8.82572 -0.00144046 0.0842563 8.82622 3.95169 15 1 
389.333 1.20706 8.93263 -0.00137957 0.0636477 8.93294 3.72892 15 1 
390.667 1.20692 9.02858 -0.0013138 0.0477792 9.02877 3.47357 15 1 
392 1.20679 9.11428 -0.00126558 0.0359609 9.11439 3.23983 15 1 
393.333 1.2067 9.18982 -0.00124173 0.0267662 9.1899 3.07013 15 1 
394.667 1.20661 9.25642 -0.00119319 0.0198471 9.25647 2.89948 15 1 
396 1.20649 9.31604 -0.00112993 0.0154031 9.31607 2.69964 15 1 
397.333 1.20641 9.36986 -0.00110902 0.0127367 9.36989 2.5437 15 1 
398.667 1.20635 9.41802 -0.00108401 0.0102386 9.41804 2.44295 15 1 
400 1.20628 9.46097 -0.0010277 0.00756624 9.46098 2.31038 15 1 
401.333 1.20619 9.49968 -0.00100616 0.00595915 9.49969 2.14767 15 1 
402.667 1.20613 9.53468 -0.000993278 0.00571741 9.53469 2.03952 15 1 
404 1.20609 9.56617 -0.000957437 0.00542316 9.56617 1.96172 15 1 
405.333 1.20603 9.59461 -0.000930674 0.00425451 9.59462 1.85309 15 1 
405.333 1.20603 9.59461 -0.000930674 0.00425451 9.59462 1.85309 15 1 
406.667 1.20597 9.62049 -0.000917742 0.00345104 9.62049 1.75356 15 1 
408 1.20594 9.64417 -0.000897171 0.00285358 9.64417 1.70193 15 1 
409.333 1.20591 9.66616 -0.000878853 0.00237274 9.66616 1.64298 15 1 
410.667 1.20586 9.68637 -0.000862791 0.00221388 9.68638 1.54657 15 1 
412 1.20581 9.70447 -0.000840658 0.0023122 9.70447 1.46723 15 1 
413.333 1.20579 9.72128 -0.000813406 0.00175312 9.72128 1.42857 15 1 
414.667 1.20577 9.73781 -0.000795573 0.00108641 9.73781 1.38313 15 1 
416 1.20573 9.75298 -0.000800101 0.00117679 9.75298 1.31211 15 1 
417.333 1.2057 9.76654 -0.000788939 0.0013324 9.76654 1.25959 15 1 
418.667 1.20568 9.7796 -0.000767811 0.000922859 9.7796 1.23036 15 1 
420 1.20566 9.79208 -0.000749006 -0.000197636 9.79209 1.19625 15 1 
421.333 1.20565 9.8036 -0.000730761 -0.000143187 9.8036 1.16608 15 1 
422.667 1.20564 9.8144 -0.000715703 0.000399539 9.8144 1.15172 15 1 
424 1.20561 9.82454 -0.000687961 0.000787219 9.82454 1.10938 15 1 
425.333 1.20557 9.83383 -0.000676853 0.00063865 9.83383 1.03373 15 1 
426.667 1.20555 9.84278 -0.000688161 -2.14442e-05 9.84278 0.995545 15 1 
426.667 1.20555 9.84278 -0.000688161 -2.14442e-05 9.84278 0.995545 20 1 
428 1.20556 9.85165 -0.000675907 -0.00034391 9.85165 1.01134 20 1 
429.333 1.20556 9.85923 -0.000657313 -0.000457812 9.85923 1.01335 20 1 
430.667 1.20554 9.86579 -0.000671331 4.75618e-05 9.86579 0.973173 20 1 
432 1.20551 9.87235 -0.00066068 0.000349382 9.87235 0.927125 20 1 
433.333 1.2055 9.87921 -0.0006197 0.000169605 9.87921 0.903987 20 1 
434.667 1.2055 9.88594 -0.000620612 -0.000513049 9.88594 0.898916 20 1 
436 1.20549 9.89142 -0.000648572 -0.000693009 9.89142 0.890091 20 1 
437.333 1.20548 9.89624 -0.000653992 -0.000424979 9.89624 0.86981 20 1 
438.667 1.20546 9.90105 -0.000641431 -0.000108962 9.90105 0.827241 20 1 
440 1.20544 9.90589 -0.0006305 -5.99041e-05 9.90589 0.796924 20 1 
441.333 1.20545 9.91071 -0.000619809 -0.00026609 9.91071 0.82035 20 1 
442.667 1.20547 9.91481 -0.000612049 -0.00064572 9.91481 0.841092 20 1 
444 1.20545 9.91889 -0.000614531 -0.00102643 9.91889 0.807427 20 1 
445.333 1.20542 9.92289 -0.000616955 -0.0005444 9.92289 0.750325 20 1 
446.667 1.2054 9.92658 -0.000609649 0.000205948 9.92658 0.731678 20 1 
448 1.20541 9.92985 -0.000595459 0.000272914 9.92985 0.739821 20 1 
448 1.20541 9.92985 -0.000595459 0.000272914 9.92985 0.739821 20 1 
449.333 1.20541 9.93276 -0.000583754 -0.000725164 9.93276 0.741087 20 1 
450.667 1.20542 9.93638 -0.000578345 -0.00124709 9.93638 0.761207 20 1 
452 1.20542 9.94023 -0.000570398 -0.000633316 9.94023 0.764877 20 1 
453.333 1.20539 9.94327 -0.000573446 0.000152254 9.94327 0.700162 20 1 
454.667 1.20535 9.94548 -0.000574009 0.000260746 9.94548 0.64108 20 1 
456 1.20537 9.94752 -0.000558939 -0.000483453 9.94752 0.672994 20 1 
457.333 1.20541 9.95019 -0.000558555 -0.00104288 9.95019 0.737933 20 1 
458.667 1.20541 9.95321 -0.000559085 -0.000681137 9.95321 0.739139 20 1 
460 1.20538 9.95602 -0.000542553 4.42622e-05 9.95602 0.6835 20 1 
461.333 1.20535 9.95828 -0.000520564 0.000290749 9.95828 0.625116 20 1 
462.667 1.20534 9.95974 -0.000513875 -0.000382449 9.95974 0.605123 20 1 
464 1.20537 9.96233 -0.000521499 -0.00102827 9.96233 0.665448 20 1 
465.333 1.20541 9.96479 -0.000523769 -0.000769158 9.96479 0.732477 20 1 
466.667 1.20538 9.96593 -0.000526802 -6.79875e-06 9.96593 0.691709 20 1 
468 1.20533 9.96697 -0.000529132 0.000291213 9.96697 0.590383 20 1 
469.333 1.20532 9.96862 -0.000513888 -1.7217e-05 9.96862 0.571058 20 1 
469.333 1.20532 9.96862 -0.000513888 -1.7217e-05 9.96862 0.571058 20 1 
470.667 1.20536 9.97128 -0.000486695 -0.000821608 9.97128 0.650036 20 1 
472 1.20539 9.97383 -0.000483355 -0.001163 9.97383 0.71056 20 1 
473.333 1.20538 9.97526 -0.000511647 -0.000640601 9.97526 0.681991 20 1 
474.667 1.20534 9.97597 -0.000524877 0.000242818 9.97597 0.613051 20 1 
476 1.20531 9.97608 -0.000503327 0.000395241 9.97608 0.566022 20 1 
477.333 1.20532 9.97746 -0.00048159 -0.000403042 9.97746 0.574953 20 1 
478.667 1.20535 9.97952 -0.000469031 -0.000971052 9.97952 0.637508 20 1 
480 1.20538 9.98111 -0.000464378 -0.00089939 9.98111 0.686702 20 1 
481.333 1.20536 9.98245 -0.000482339 -0.000444015 9.98245 0.643413 20 1 
482.667 1.2053 9.98267 -0.000499474 -7.22834e-05 9.98267 0.548786 20 1 
484 1.20531 9.98396 -0.000497107 7.53974e-05 9.98396 0.552909 20 1 
485.333 1.20536 9.98504 -0.000492552 -0.000319057 9.98504 0.644602 20 1 
486.667 1.20538 9.98637 -0.000484533 -0.000826014 9.98637 0.691836 20 1 
488 1.20534 9.98733 -0.000476599 -0.000795644 9.98733 0.61738 20 1 
489.333 1.20529 9.98685 -0.000481032 -0.000414633 9.98685 0.516063 20 1 
490.667 1.20529 9.98783 -0.000478515 -7.2044e-05 9.98783 0.524358 20 1 
490.667 1.20529 9.98783 -0.000478515 -7.2044e-05 9.98783 0.524358 20 1 
492 1.20533 9.98878 -0.000461749 -0.000125882 9.98878 0.601232 20 1 
493.333 1.20538 9.99065 -0.000457963 -0.000637445 9.99065 0.6839 20 1 
494.667 1.20538 9.99175 -0.000466191 -0.000808968 9.99175 0.685842 20 1 
496 1.20532 9.9916 -0.000473057 -0.00062222 9.9916 0.580996 20 1 
497.333 1.20527 9.9922 -0.000485204 -5.46528e-05 9.9922 0.480592 20 1 
498.667 1.20528 9.99211 -0.000495453 4.53663e-05 9.99211 0.498547 20 1 
500 1.20536 9.99364 -0.000484676 -0.000560425 9.99364 0.64759 20 1 
501.333 1.20539 9.99414 -0.000464832 -0.00103886 9.99414 0.712173 20 1 
502.667 1.20534 9.99424 -0.000458181 -0.000904235 9.99424 0.608558 20 1 
504 1.20527 9.99492 -0.000462319 -9.33059e-05 9.99492 0.493381 20 1 
505.333 1.20528 9.9956 -0.000476728 0.000211543 9.9956 0.513365 20 1 
506.667 1.20535 9.99767 -0.000492925 -0.000459977 9.99767 0.629725 20 1 
508 1.20537 9.99743 -0.000486973 -0.00117471 9.99743 0.660067 20 1 
509.333 1.20534 9.99729 -0.000472203 -0.000965824 9.99729 0.612076 20 1 
510.667 1.2053 9.9968 -0.000469225 -4.76651e-05 9.9968 0.53504 20 1 
512 1.20528 9.99708 -0.000469654 0.000147936 9.99708 0.503223 20 1 
512 1.20528 9.99708 -0.000469654 0.000147936 9.99708 0.503223 21 1 
513.333 1.20532 9.999 -0.000479827 -0.000563594 9.999 0.578036 21 1 
514.667 1.20537 9.99992 -0.000494137 -0.00109681 9.99992 0.672948 21 1 
516 1.20537 10.0008 -0.000505249 -0.00094408 10.0008 0.667165 21 1 
517.333 1.2053 9.99975 -0.000500512 -0.000301559 9.99975 0.544336 21 1 
518.667 1.20528 10.0002 -0.000470499 -2.35338e-05 10.0002 0.499675 21 1 
520 1.20532 10.0009 -0.000449404 -0.000259201 10.0009 0.571982 21 1 
521.333 1.20535 10.0009 -0.000457795 -0.000688187 10.0009 0.634943 21 1 
522.667 1.20534 10.0014 -0.000491401 -0.000958647 10.0014 0.619659 21 1 
524 1.20532 10.0012 -0.000519858 -0.000740303 10.0012 0.571118 21 1 
525.333 1.20532 10.0028 -0.000508273 -0.000385764 10.0028 0.5793 21 1 
526.667 1.20533 10.0036 -0.000484925 -0.000484583 10.0036 0.598389 21 1 
528 1.20533 10.0041 -0.000485784 -0.000592853 10.0041 0.603406 21 1 
529.333 1.20532 10.0027 -0.00048935 -0.000479734 10.0027 0.572225 21 1 
530.667 1.20532 10.0019 -0.000489746 -0.000354387 10.0019 0.573906 21 1 
532 1.20535 10.0037 -0.000499861 -0.00075919 10.0037 0.638351 21 1 
533.333 1.20536 10.0049 -0.000501279 -0.00102513 10.0049 0.648932 21 1 
533.333 1.20536 10.0049 -0.000501279 -0.00102513 10.0049 0.648932 21 1 
534.667 1.20532 10.0052 -0.000497467 -0.000487911 10.0052 0.575905 21 1 
536 1.20528 10.0042 -0.000506987 -0.000189559 10.0042 0.506865 21 1 
537.333 1.20531 10.0052 -0.000512506 -0.000539616 10.0052 0.559803 21 1 
538.667 1.20537 10.0055 -0.000509502 -0.0010015 10.0055 0.672763 21 1 
540 1.20539 10.0057 -0.000511605 -0.000939393 10.0057 0.711302 21 1 
541.333 1.20534 10.0051 -0.000509704 -0.00045584 10.0051 0.606456 21 1 
542.667 1.20528 10.0049 -0.000505351 -0.000167408 10.0049 0.502053 21 1 
544 1.20531 10.0064 -0.000526016 -0.000322298 10.0064 0.557479 21 1 
545.333 1.20538 10.008 -0.000553437 -0.00103776 10.008 0.687759 21 1 
546.667 1.20538 10.008 -0.00054409 -0.00126136 10.008 0.684027 21 1 
548 1.20531 10.0054 -0.000519663 -0.000548109 10.0054 0.553463 21 1 
549.333 1.2053 10.0054 -0.000506264 -0.000155745 10.0054 0.546528 21 1 
550.667 1.20536 10.0072 -0.000505206 -0.000616523 10.0072 0.648224 21 1 
552 1.20538 10.0086 -0.000521769 -0.00109784 10.0086 0.680027 21 1 
553.333 1.20533 10.0074 -0.000545735 -0.000557886 10.0074 0.592328 21 1 
554.667 1.20532 10.0073 -0.00056069 -0.000245977 10.0073 0.571749 21 1 
554.667 1.20532 10.0073 -0.00056069 -0.000245977 10.0073 0.571749 22 1 
556 1.20536 10.0083 -0.000556056 -0.000872162 10.0083 0.650455 22 1 
557.333 1.20537 10.0088 -0.000547093 -0.00106491 10.0088 0.673444 22 1 
558.667 1.20534 10.0083 -0.000543801 -0.000837248 10.0083 0.618804 22 1 
560 1.20532 10.0075 -0.000537408 -0.000571702 10.0075 0.578234 22 1 
561.333 1.20533 10.0077 -0.000542274 -0.000400182 10.0077 0.59328 22 1 
562.667 1.20536 10.0087 -0.000559557 -0.000586355 10.0087 0.644864 22 1 
564 1.20538 10.0098 -0.000565415 -0.000829703 10.0098 0.687554 22 1 
565.333 1.20536 10.0094 -0.000555609 -0.000905201 10.0094 0.655452 22 1 
566.667 1.20533 10.0085 -0.000547908 -0.000649523 10.0085 0.588139 22 1 
568 1.20533 10.0084 -0.000545229 -0.000656276 10.0084 0.58718 22 1 
569.333 1.20536 10.0096 -0.000545624 -0.000941985 10.0096 0.655878 22 1 
570.667 1.20537 10.01 -0.000560232 -0.000798712 10.01 0.670883 22 1 
572 1.20535 10.0095 -0.000577247 -0.000484907 10.0095 0.623971 22 1 
573.333 1.20534 10.0092 -0.000583006 -0.000507781 10.0092 0.612391 22 1 
574.667 1.20535 10.0095 -0.000580237 -0.000736724 10.0095 0.640189 22 1 
576 1.20535 10.0096 -0.000566012 -0.000961058 10.0096 0.637027 22 1 
576 1.20535 10.0096 -0.000566012 -0.000961058 10.0096 0.637027 22 1 
577.333 1.20536 10.0101 -0.000555254 -0.00094789 10.0101 0.642936 22 1 
578.667 1.20537 10.0107 -0.000564102 -0.000724295 10.0107 0.677486 22 1 
580 1.20537 10.0103 -0.000579392 -0.000699881 10.0103 0.659574 22 1 
581.333 1.20533 10.0096 -0.000592533 -0.000786604 10.0096 0.600606 22 1 
582.667 1.20534 10.01 -0.000591536 -0.000760724 10.01 0.609714 22 1 
584 1.20538 10.0108 -0.000573052 -0.000704073 10.0108 0.677861 22 1 
585.333 1.20538 10.0109 -0.000565001 -0.000626373 10.0109 0.6849 22 1 
586.667 1.20534 10.01 -0.000576049 -0.000834048 10.01 0.610689 22 1 
588 1.20534 10.0101 -0.000598864 -0.00097778 10.0101 0.607386 22 1 
589.333 1.2054 10.0119 -0.000626069 -0.000925105 10.0119 0.724854 22 1 
590.667 1.2054 10.0121 -0.000633103 -0.000762119 10.0121 0.730336 22 1 
592 1.20532 10.0098 -0.000610748 -0.000485023 10.0098 0.572355 22 1 
593.333 1.20531 10.0096 -0.000584191 -0.000774378 10.0096 0.553756 22 1 
594.667 1.2054 10.0121 -0.000585573 -0.00098142 10.0121 0.716734 22 1 
596 1.20542 10.0127 -0.000614135 -0.000841917 10.0127 0.756639 22 1 
597.333 1.20533 10.0103 -0.000633694 -0.000756763 10.0103 0.602264 22 1 
597.333 1.20533 10.0103 -0.000633694 -0.000756763 10.0103 0.602264 24 1 
598.667 1.20532 10.0102 -0.000630332 -0.00065135 10.0102 0.572204 24 1 
600 1.20541 10.0128 -0.000606366 -0.000764718 10.0128 0.749344 24 1 
601.333 1.20543 10.0129 -0.000575073 -0.000664736 10.0129 0.776244 24 1 
602.667 1.20533 10.0106 -0.000575652 -0.000942538 10.0106 0.597361 24 1 
604 1.2053 10.0102 -0.000615528 -0.00118629 10.0102 0.550835 24 1 
605.333 1.2054 10.0124 -0.000657911 -0.000601723 10.0124 0.716441 24 1 
606.667 1.20545 10.014 -0.000664725 -0.000515581 10.014 0.814674 24 1 
608 1.20538 10.0128 -0.000638209 -0.000715617 10.0128 0.690102 24 1 
609.333 1.20531 10.0107 -0.000603367 -0.000907698 10.0107 0.568073 24 1 
610.667 1.20536 10.0112 -0.000588158 -0.0011452 10.0112 0.643882 24 1 
612 1.20542 10.0132 -0.000614476 -0.00106677 10.0132 0.764322 24 1 
613.333 1.2054 10.013 -0.000642682 -0.000579996 10.013 0.729648 24 1 
614.667 1.20536 10.0117 -0.000639746 -9.29448e-05 10.0117 0.650494 24 1 
616 1.2054 10.0128 -0.000621738 -0.000645316 10.0128 0.715883 24 1 
617.333 1.20543 10.0138 -0.000599203 -0.00105856 10.0138 0.78075 24 1 
618.667 1.20539 10.0125 -0.00059267 -0.00093542 10.0125 0.697707 24 1 
618.667 1.20539 10.0125 -0.00059267 -0.00093542 10.0125 0.697707 24 1 
620 1.20535 10.0119 -0.000611669 -0.000994411 10.0119 0.628802 24 1 
621.333 1.20539 10.0133 -0.000627451 -0.000500963 10.0133 0.711373 24 1 
622.667 1.20546 10.0146 -0.000617504 -8.57187e-05 10.0146 0.824598 24 1 
624 1.20543 10.014 -0.000596009 -0.000470592 10.014 0.783341 24 1 
625.333 1.20536 10.0126 -0.000582382 -0.00141584 10.0126 0.653358 24 1 
626.667 1.20534 10.0121 -0.000585415 -0.00148579 10.0121 0.621444 24 1 
628 1.2054 10.0135 -0.000600277 -0.000641038 10.0135 0.731568 24 1 
629.333 1.20547 10.0154 -0.000596953 -0.000356833 10.0154 0.85109 24 1 
630.667 1.20546 10.0149 -0.000573317 -0.000145564 10.0149 0.828084 24 1 
632 1.20541 10.0133 -0.000555609 -0.000506355 10.0133 0.732658 24 1 
633.333 1.20539 10.013 -0.000559842 -0.00136866 10.013 0.69919 24 1 
634.667 1.2054 10.0136 -0.000591277 -0.00145643 10.0136 0.730665 24 1 
636 1.20543 10.014 -0.000619636 -0.000671513 10.014 0.775243 24 1 
637.333 1.20545 10.0148 -0.000613731 0.00010379 10.0148 0.813347 24 1 
638.667 1.20546 10.0155 -0.000576137 -0.000244202 10.0155 0.839231 24 1 
640 1.20544 10.0148 -0.00053473 -0.000648739 10.0148 0.790634 24 1 
640 1.20544 10.0148 -0.00053473 -0.000648739 10.0148 0.790634 24 1 
641.333 1.20539 10.0137 -0.000534349 -0.00145508 10.0137 0.711103 24 1 
642.667 1.20538 10.0135 -0.000573046 -0.00204752 10.0135 0.687166 24 1 
644 1.2054 10.0142 -0.000612069 -0.000557374 10.0142 0.730632 24 1 
645.333 1.20548 10.016 -0.000626392 0.000128031 10.016 0.859173 24 1 
646.667 1.2055 10.0168 -0.000592124 -0.000179373 10.0168 0.907976 24 1 
648 1.20543 10.0149 -0.0005376 -0.000696526 10.0149 0.782438 24 1 
649.333 1.20535 10.0124 -0.000519376 -0.0018229 10.0124 0.638535 24 1 
650.667 1.20535 10.0125 -0.00054244 -0.00158554 10.0125 0.631973 24 1 
652 1.20545 10.0153 -0.000594367 -0.000698855 10.0153 0.812312 24 1 
653.333 1.20554 10.0176 -0.000644892 0.000488205 10.0176 0.971289 24 1 
654.667 1.20552 10.0176 -0.000647013 0.000616055 10.0176 0.943409 24 1 
656 1.20542 10.0149 -0.000604786 -0.00106618 10.0149 0.762514 24 1 
657.333 1.20531 10.0117 -0.000554785 -0.0014799 10.0117 0.56821 24 1 
658.667 1.20534 10.0126 -0.000519536 -0.0016773 10.0126 0.618044 24 1 
660 1.20546 10.016 -0.000535084 -0.00107433 10.016 0.838031 24 1 
661.333 1.20553 10.0178 -0.000607828 0.00107128 10.0178 0.965084 24 1 
661.333 1.20553 10.0178 -0.000607828 0.00107128 10.0178 0.965084 24 1 
662.667 1.20552 10.0176 -0.000687965 0.000590226 10.0176 0.947083 24 1 
664 1.20542 10.0147 -0.000731926 -0.00102735 10.0147 0.753932 24 1 
665.333 1.2053 10.0112 -0.000703254 -0.00176929 10.0112 0.538507 24 1 
666.667 1.20531 10.0116 -0.000608394 -0.00272808 10.0116 0.554108 24 1 
668 1.20541 10.0145 -0.000522174 -0.00140124 10.0145 0.733596 24 1 
669.333 1.20551 10.0174 -0.000511144 0.000813474 10.0174 0.925555 24 1 
670.667 1.20556 10.019 -0.000592562 0.000678201 10.019 1.0169 24 1 
672 1.20548 10.0167 -0.000711676 -6.16011e-05 10.0167 0.868875 24 1 
673.333 1.20533 10.0122 -0.000767275 -0.00153478 10.0122 0.596868 24 1 
674.667 1.20525 10.0101 -0.000707372 -0.00291724 10.0101 0.459656 24 1 
676 1.20531 10.0116 -0.000566658 -0.00169303 10.0116 0.55184 24 1 
677.333 1.20545 10.0157 -0.000444028 5.7711e-05 10.0157 0.814492 24 1 
678.667 1.20557 10.0192 -0.000427359 0.00105076 10.0192 1.02939 24 1 
680 1.20553 10.0181 -0.000522109 0.00103734 10.0181 0.965596 24 1 
681.333 1.20538 10.0137 -0.000646636 -0.000747991 10.0137 0.691182 24 1 
682.667 1.20526 10.0103 -0.000694735 -0.00227052 10.0103 0.472817 24 1 
682.667 1.20526 10.0103 -0.000694735 -0.00227052 10.0103 0.472817 31 1 
684 1.20527 10.0105 -0.000623073 -0.00226436 10.0105 0.48827 31 1 
685.333 1.2054 10.0144 -0.000475246 -0.00111112 10.0144 0.728916 31 1 
686.667 1.20554 10.0184 -0.00034993 0.000684429 10.0184 0.976052 31 1 
688 1.20556 10.0189 -0.000321761 0.00145473 10.0189 1.00804 31 1 
689.333 1.20545 10.0156 -0.000386269 0.000272489 10.0156 0.813546 31 1 
690.667 1.2053 10.0113 -0.000479883 -0.00156114 10.0113 0.54688 31 1 
692 1.20523 10.0092 -0.000530734 -0.00236505 10.0092 0.422204 31 1 
693.333 1.2053 10.0114 -0.000508724 -0.00164895 10.0114 0.550308 31 1 
694.667 1.20547 10.0163 -0.000441345 0.000214003 10.0163 0.84477 31 1 
696 1.20561 10.0205 -0.00037816 0.00174632 10.0205 1.09443 31 1 
697.333 1.20562 10.0206 -0.000348715 0.00148975 10.0206 1.11149 31 1 
698.667 1.20548 10.0163 -0.000351818 -0.00030928 10.0163 0.863372 31 1 
700 1.20529 10.0108 -0.0003627 -0.00222794 10.0108 0.531036 31 1 
701.333 1.20522 10.0085 -0.000360289 -0.00280875 10.0085 0.395125 31 1 
702.667 1.20532 10.0117 -0.000340004 -0.00175079 10.0117 0.580095 31 1 
704 1.20553 10.0181 -0.000302141 0.000277519 10.0181 0.958895 31 1 
704 1.20553 10.0181 -0.000302141 0.000277519 10.0181 0.958895 31 1 
705.333 1.20569 10.023 -0.000247424 0.00200054 10.023 1.25287 31 1 
706.667 1.20569 10.0229 -0.000180518 0.00218446 10.0229 1.24703 31 1 
708 1.20554 10.0182 -0.000110391 0.00091952 10.0182 0.970979 31 1 
709.333 1.20536 10.0127 -5.31813e-05 -0.000943545 10.0127 0.650008 31 1 
710.667 1.20528 10.0102 -2.92987e-05 -0.00214867 10.0102 0.503808 31 1 
712 1.20533 10.0119 -4.59541e-05 -0.00180355 10.0119 0.594727 31 1 
713.333 1.20546 10.0157 -7.95645e-05 -0.000230829 10.0157 0.823188 31 1 
714.667 1.20556 10.0188 -8.38422e-05 0.00167628 10.0188 1.01 31 1 
716 1.20558 10.0192 -2.20171e-05 0.00289185 10.0192 1.04072 31 1 
717.333 1.20551 10.0171 0.000110567 0.00274485 10.0171 0.921978 31 1 
718.667 1.20539 10.0134 0.000267683 0.0012949 10.0134 0.709353 31 1 
720 1.20526 10.0095 0.000361288 -0.000569327 10.0095 0.478151 31 1 
721.333 1.20515 10.0059 0.000310136 -0.00200116 10.0059 0.276021 31 1 
722.667 1.20507 10.003 8.70339e-05 -0.00270723 10.003 0.118591 31 1 
724 1.20501 10.0012 -0.000269857 -0.0023605 10.0012 0.0211057 31 1 
725.333 1.205 10.0006 -0.000670593 -0.00135084 10.0006 -0.00210939 31 1 
725.333 1.205 10.0006 -0.000670593 -0.00135084 10.0006 -0.00210939 31 1 
726.667 1.20503 10.0014 -0.000999151 -0.000555842 10.0014 0.0514338 31 1 
728 1.20507 10.0026 -0.00117681 -0.000488459 10.0026 0.118107 31 1 
729.333 1.20507 10.0027 -0.00118624 -0.00115626 10.0027 0.121926 31 1 
730.667 1.20501 10.0007 -0.00105683 -0.00214143 10.0007 0.013589 31 1 
732 1.20489 9.99687 -0.000857758 -0.00296953 9.99687 -0.203339 31 1 
733.333 1.20477 9.99309 -0.000657758 -0.00297208 9.99309 -0.409751 31 1 
734.667 1.20473 9.99144 -0.000499349 -0.00209824 9.99144 -0.48693 31 1 
736 1.20479 9.99315 -0.000389544 -0.000775533 9.99315 -0.385855 31 1 
737.333 1.20493 9.99754 -0.000309424 0.000780334 9.99754 -0.132911 31 1 
738.667 1.20507 10.0019 -0.000236914 0.00200219 10.0019 0.125875 31 1 
740 1.20513 10.0035 -0.000156488 0.00266334 10.0035 0.227371 31 1 
741.333 1.20504 10.0004 -7.50603e-05 0.00267042 10.0004 0.065459 31 1 
742.667 1.2048 9.99229 -1.5201e-05 0.00187415 9.99229 -0.368462 31 1 
744 1.20447 9.98144 -6.41707e-06 0.000584371 9.98144 -0.95322 31 1 
745.333 1.20414 9.97036 -7.04144e-05 -0.000950765 9.97036 -1.55069 31 1 
746.667 1.20387 9.96125 -0.000209358 -0.00238292 9.96125 -2.03708 31 1 
746.667 1.20387 9.96125 -0.000209358 -0.00238292 9.96125 -2.03708 31 1 
748 1.2037 9.95543 -0.000412936 -0.00340514 9.95543 -2.34316 31 1 
749.333 1.20362 9.95258 -0.000650507 -0.00400321 9.95258 -2.49662 31 1 
750.667 1.20361 9.95216 -0.000884417 -0.00404334 9.95216 -2.51686 31 1 
752 1.20365 9.95368 -0.00108188 -0.00349641 9.95368 -2.43402 31 1 
753.333 1.20373 9.95642 -0.00121573 -0.00267724 9.95642 -2.29039 31 1 
754.667 1.20385 9.96047 -0.00127692 -0.00179265 9.96047 -2.06965 31 1 
756 1.20401 9.96583 -0.00126298 -0.000923 9.96583 -1.78176 31 1 
757.333 1.20419 9.97173 -0.0011833 -0.000301205 9.97173 -1.46597 31 1 
758.667 1.20437 9.9776 -0.00105936 1.59236e-05 9.9776 -1.14515 31 1 
760 1.20451 9.98253 -0.000906723 0.000106781 9.98253 -0.877139 31 1 
761.333 1.2046 9.98535 -0.000744824 5.76056e-05 9.98535 -0.719693 31 1 
762.667 1.20462 9.98572 -0.000589528 5.46154e-06 9.98572 -0.687694 31 1 
764 1.20457 9.98378 -0.000449863 -0.00011522 9.98378 -0.78286 31 1 
765.333 1.20446 9.97996 -0.000331386 -0.000255594 9.97996 -0.981869 31 1 
766.667 1.20432 9.97516 -0.000236842 -0.000220205 9.97516 -1.22736 31 1 
768 1.20419 9.97046 -0.000165074 -7.36501e-05 9.97046 -1.47194 31 1 
768 1.20419 9.97046 -0.000165074 -7.36501e-05 9.97046 -1.47194 32 1 
769.333 1.20408 9.96677 -0.000110431 0.000105583 9.96677 -1.66992 32 1 
770.667 1.20402 9.96473 -7.2707e-05 0.000242726 9.96473 -1.77866 32 1 
772 1.20401 9.9646 -4.72128e-05 0.000322634 9.9646 -1.79091 32 1 
773.333 1.20405 9.96616 -2.9768e-05 0.000406378 9.96616 -1.71469 32 1 
774.667 1.20413 9.96906 -1.89199e-05 0.000452239 9.96906 -1.56603 32 1 
776 1.20424 9.97292 -1.16663e-05 0.000485949 9.97292 -1.371 32 1 
777.333 1.20436 9.97713 -7.39841e-06 0.000478339 9.97713 -1.15521 32 1 
778.667 1.20448 9.98135 -4.07838e-06 0.00041171 9.98135 -0.939741 32 1 
780 1.20459 9.9854 -2.52782e-06 0.000315982 9.9854 -0.739919 32 1 
781.333 1.20469 9.98902 -1.67811e-06 0.000228922 9.98902 -0.558874 32 1 
782.667 1.20478 9.99201 -5.09238e-07 0.000200457 9.99201 -0.40404 32 1 
784 1.20484 9.99435 -1.55806e-06 0.000136497 9.99435 -0.287178 32 1 
785.333 1.20489 9.99603 -1.3059e-06 9.13347e-05 9.99603 -0.199703 32 1 
786.667 1.20492 9.99725 -4.33328e-07 7.93892e-05 9.99725 -0.136377 32 1 
788 1.20495 9.9982 -5.32643e-07 3.00464e-05 9.9982 -0.0916576 32 1 
789.333 1.20497 9.99889 8.9399e-08 2.54834e-05 9.99889 -0.0552646 32 1 
790.667 1.20498 9.99935 -3.40482e-07 4.63172e-05 9.99935 -0.0311973 32 1 
792 1.20499 9.99962 -1.73657e-08 4.64079e-05 9.99962 -0.0175365 32 1 
793.333 1.20499 9.99973 3.42594e-07 4.37754e-05 9.99973 -0.0102983 32 1 
794.667 1.205 9.99981 7.27109e-07 3.00086e-05 9.99981 -0.00787735 32 1 
796 1.205 9.99986 1.6937e-06 -4.78474e-06 9.99986 -0.00592495 32 1 
797.333 1.205 9.99991 8.62615e-07 -1.26285e-05 9.99991 -0.00323409 32 1 
798.667 1.205 9.99999 5.00397e-07 2.24793e-05 9.99999 0.000522695 32 1 
800 1.205 10 9.96946e-07 3.69888e-05 10 0.00260461 32 1 
