105.055;r ;Density                 ;Velocity u              ;Velocity v              ;Velocity w              ;|Velocity|              ;Pressure                ;Distribution            ;Levels                  ;
0 1.20832 9.99441 -9.77556e-05 -0.00018293 9.99441 5.99072 1 1 
1.33334 1.20827 9.99489 0.000605643 0.000875128 9.99489 5.89996 1 1 
2.66666 1.20815 9.99486 0.00199159 0.00294668 9.99487 5.68208 1 1 
4 1.20807 9.99445 0.0032733 0.00485419 9.99447 5.54459 1 1 
5.33334 1.20801 9.99447 0.00412942 0.00611868 9.9945 5.43901 1 1 
6.66666 1.20787 9.99396 0.00477607 0.00708786 9.994 5.18916 1 1 
8 1.20776 9.99373 0.00542876 0.00805947 9.99378 4.97779 1 1 
9.33334 1.20765 9.99343 0.00569157 0.0084142 9.99349 4.78246 1 1 
10.6667 1.20748 9.99322 0.00588766 0.00868126 9.99328 4.48758 1 1 
12 1.20735 9.9938 0.00593878 0.00875133 9.99386 4.24803 1 1 
13.3333 1.20722 9.99331 0.00555318 0.00816532 9.99337 4.00168 1 1 
14.6667 1.20707 9.99298 0.00519336 0.00761293 9.99303 3.74287 1 1 
16 1.20699 9.99394 0.00464366 0.00675438 9.99398 3.59716 1 1 
17.3333 1.2069 9.99399 0.00381413 0.00546982 9.99402 3.42409 1 1 
18.6667 1.20683 9.99355 0.00307064 0.00432274 9.99357 3.30407 1 1 
20 1.20683 9.99407 0.00208033 0.00276852 9.99409 3.29818 1 1 
21.3333 1.2068 9.99453 0.00101225 0.00108888 9.99453 3.2598 1 1 
21.3333 1.2068 9.99453 0.00101225 0.00108888 9.99453 3.2598 1 1 
22.6667 1.20685 9.99445 9.868e-05 -0.000348814 9.99445 3.33438 1 1 
24 1.20694 9.99414 -0.00109109 -0.0022079 9.99415 3.49702 1 1 
25.3333 1.20701 9.99409 -0.00219692 -0.00392879 9.9941 3.63884 1 1 
26.6667 1.20716 9.99463 -0.00312323 -0.00537132 9.99466 3.90619 1 1 
28 1.20734 9.99384 -0.00420355 -0.00705665 9.99388 4.2209 1 1 
29.3333 1.2075 9.99283 -0.00503107 -0.00837549 9.99288 4.52047 1 1 
30.6667 1.20772 9.99336 -0.00573656 -0.00951106 9.99343 4.9105 1 1 
32 1.20793 9.99274 -0.00643883 -0.0106296 9.99282 5.29701 1 1 
33.3333 1.20816 9.99131 -0.00671854 -0.0111153 9.99139 5.69964 1 1 
34.6667 1.20839 9.99094 -0.00693461 -0.0115139 9.99103 6.12623 1 1 
36 1.20857 9.99037 -0.00704827 -0.0117411 9.99047 6.44458 1 1 
37.3333 1.20877 9.98894 -0.00674125 -0.011315 9.98903 6.81841 1 1 
38.6667 1.20899 9.98767 -0.00642182 -0.0108764 9.98776 7.20254 1 1 
40 1.20911 9.98679 -0.0059008 -0.0101308 9.98686 7.42549 1 1 
41.3333 1.20924 9.9857 -0.00508575 -0.00894168 9.98575 7.65837 1 1 
42.6667 1.20937 9.98372 -0.00435422 -0.00786387 9.98376 7.8867 1 1 
42.6667 1.20937 9.98372 -0.00435422 -0.00786387 9.98376 7.8867 2 1 
44 1.20945 9.98215 -0.00332957 -0.00633396 9.98218 8.03331 2 1 
45.3333 1.20951 9.98199 -0.00209748 -0.00452054 9.98201 8.13837 2 1 
46.6667 1.20951 9.98013 -0.000971914 -0.00284793 9.98014 8.14199 2 1 
48 1.20951 9.97788 0.000366902 -0.000808844 9.97788 8.13779 2 1 
49.3333 1.20951 9.97789 0.00172765 0.00124161 9.9779 8.14095 2 1 
50.6667 1.20941 9.97737 0.00306967 0.00324015 9.97738 7.96087 2 1 
52 1.20929 9.97531 0.00452803 0.00544129 9.97534 7.7515 2 1 
53.3333 1.2092 9.97438 0.00574598 0.00727972 9.97443 7.58929 2 1 
54.6667 1.20904 9.9749 0.00692186 0.00904086 9.97496 7.3005 2 1 
56 1.20887 9.97462 0.00811833 0.0108332 9.9747 6.98215 2 1 
57.3333 1.20869 9.97285 0.00888278 0.0119806 9.97295 6.66117 2 1 
58.6667 1.20849 9.97257 0.00951784 0.0129459 9.97268 6.3028 2 1 
60 1.20832 9.97412 0.0100454 0.0137274 9.97425 5.99887 2 1 
61.3333 1.20812 9.97321 0.0101674 0.0139013 9.97333 5.64146 2 1 
62.6667 1.20792 9.97181 0.0102004 0.0139603 9.97193 5.27325 2 1 
64 1.20778 9.97315 0.00997696 0.0135946 9.97326 5.02232 2 1 
64 1.20778 9.97315 0.00997696 0.0135946 9.97326 5.02232 2 1 
65.3333 1.20761 9.97426 0.00945885 0.0127763 9.97436 4.71505 2 1 
66.6667 1.20746 9.97305 0.00894591 0.0119967 9.97313 4.44002 2 1 
68 1.20735 9.97288 0.00812294 0.0107247 9.97294 4.251 2 1 
69.3333 1.20723 9.97432 0.00712348 0.00915907 9.97436 4.03201 2 1 
70.6667 1.20716 9.97471 0.00614505 0.00764585 9.97474 3.89858 2 1 
72 1.20712 9.9737 0.00488041 0.0057225 9.97371 3.82731 2 1 
73.3333 1.20708 9.97372 0.00360905 0.00376364 9.97373 3.75881 2 1 
74.6667 1.20709 9.9755 0.00239458 0.00183901 9.9755 3.76817 2 1 
76 1.20713 9.97466 0.00101229 -0.000308056 9.97467 3.83895 2 1 
77.3333 1.2072 9.97314 -0.000198505 -0.00216917 9.97316 3.96665 2 1 
78.6667 1.2073 9.97464 -0.00136094 -0.00401959 9.97467 4.15363 2 1 
80 1.20739 9.97487 -0.00253173 -0.00589259 9.97492 4.32537 2 1 
81.3333 1.20754 9.97286 -0.00340035 -0.00726007 9.97293 4.58233 2 1 
82.6667 1.20773 9.97243 -0.00424665 -0.00861972 9.97251 4.93576 2 1 
84 1.20787 9.9732 -0.00494404 -0.00979871 9.9733 5.18871 2 1 
85.3333 1.20803 9.97229 -0.00525855 -0.0103747 9.9724 5.47911 2 1 
85.3333 1.20803 9.97229 -0.00525855 -0.0103747 9.9724 5.47911 3 1 
86.6667 1.20826 9.97013 -0.00560727 -0.010965 9.97023 5.88997 3 1 
88 1.20844 9.97023 -0.00576329 -0.0112793 9.97033 6.21756 3 1 
89.3333 1.20861 9.97082 -0.00548955 -0.0109724 9.97091 6.52311 3 1 
90.6667 1.2088 9.96825 -0.00519956 -0.0105919 9.96834 6.85877 3 1 
92 1.20898 9.96618 -0.00474724 -0.0099262 9.96625 7.1887 3 1 
93.3333 1.20914 9.96723 -0.00401762 -0.00887341 9.96728 7.48328 3 1 
94.6667 1.20925 9.96637 -0.00317974 -0.00763523 9.96642 7.67944 3 1 
96 1.20938 9.96304 -0.00220548 -0.00612781 9.96307 7.90243 3 1 
97.3333 1.20948 9.96272 -0.00121303 -0.004612 9.96274 8.09817 3 1 
98.6667 1.20951 9.96337 -5.94937e-05 -0.00284926 9.96338 8.1459 3 1 
100 1.20953 9.96103 0.0011972 -0.000877988 9.96104 8.18938 3 1 
101.333 1.20954 9.95843 0.00217551 0.000726914 9.95844 8.19633 3 1 
102.667 1.20948 9.95887 0.0033139 0.00255407 9.95889 8.09237 3 1 
104 1.20942 9.95951 0.00454826 0.00450213 9.95953 7.98008 3 1 
105.333 1.20932 9.95655 0.00540553 0.00595507 9.95659 7.80143 3 1 
106.667 1.20918 9.95516 0.00634072 0.00752499 9.95521 7.54952 3 1 
106.667 1.20918 9.95516 0.00634072 0.00752499 9.95521 7.54952 3 1 
108 1.20906 9.95685 0.00725173 0.00900107 9.95691 7.32895 3 1 
109.333 1.20888 9.95567 0.00785527 0.0100219 9.95575 7.01175 3 1 
110.667 1.20869 9.95294 0.00844721 0.0110891 9.95303 6.66789 3 1 
112 1.20853 9.95378 0.00885067 0.011816 9.95388 6.38477 3 1 
113.333 1.20833 9.9551 0.00902986 0.0121405 9.95519 6.01144 3 1 
114.667 1.20812 9.95375 0.00922059 0.0125378 9.95384 5.64054 3 1 
116 1.20796 9.95264 0.00904926 0.0123895 9.95272 5.35408 3 1 
117.333 1.20778 9.95348 0.00867998 0.011867 9.95356 5.02508 3 1 
118.667 1.2076 9.95489 0.00842977 0.0114692 9.95496 4.69014 3 1 
120 1.20749 9.95257 0.00782546 0.010567 9.95262 4.48889 3 1 
121.333 1.20737 9.95208 0.00709169 0.00942795 9.95212 4.277 3 1 
122.667 1.20726 9.95549 0.00649957 0.00840024 9.95552 4.08892 3 1 
124 1.20722 9.95449 0.00570183 0.00705928 9.9545 4.00718 3 1 
125.333 1.20718 9.95278 0.00483943 0.0056531 9.95279 3.94113 3 1 
126.667 1.2072 9.95442 0.00406595 0.00430224 9.95443 3.97244 3 1 
128 1.20722 9.95555 0.00328543 0.00285405 9.95556 4.0051 3 1 
128 1.20722 9.95555 0.00328543 0.00285405 9.95556 4.0051 3 1 
129.333 1.20726 9.95357 0.00252117 0.00148782 9.95359 4.08968 3 1 
130.667 1.20738 9.95258 0.0017709 0.000126214 9.9526 4.30267 3 1 
132 1.20749 9.95499 0.00111054 -0.00118715 9.95502 4.49089 3 1 
133.333 1.20761 9.9549 0.000607329 -0.00226615 9.95494 4.70832 3 1 
134.667 1.20777 9.95203 8.64808e-05 -0.00330665 9.95209 5.0016 3 1 
136 1.20794 9.95172 -0.000308517 -0.00419043 9.95178 5.31892 3 1 
137.333 1.20811 9.95327 -0.000448487 -0.00474004 9.95334 5.62475 3 1 
138.667 1.20829 9.95124 -0.000544271 -0.00514087 9.95132 5.94358 3 1 
140 1.20848 9.94873 -0.000547695 -0.00532366 9.9488 6.2871 3 1 
141.333 1.20866 9.95005 -0.00033443 -0.00522106 9.95012 6.61863 3 1 
142.667 1.20882 9.95001 4.42597e-05 -0.00486924 9.95008 6.90872 3 1 
144 1.20897 9.94635 0.000501458 -0.00426485 9.94641 7.17663 3 1 
145.333 1.20912 9.94444 0.00103141 -0.00352017 9.94448 7.4414 3 1 
146.667 1.20923 9.94586 0.00167384 -0.00262505 9.94589 7.64163 3 1 
148 1.20931 9.94443 0.00239101 -0.00153086 9.94446 7.78623 3 1 
149.333 1.20938 9.94087 0.00306127 -0.000374869 9.94088 7.9181 3 1 
149.333 1.20938 9.94087 0.00306127 -0.000374869 9.94088 7.9181 3 1 
150.667 1.20943 9.94067 0.00376358 0.000833343 9.94068 8.00536 3 1 
152 1.20943 9.94117 0.00452603 0.0021199 9.94117 8.00551 3 1 
153.333 1.20941 9.93827 0.00521648 0.0033995 9.93828 7.96582 3 1 
154.667 1.20939 9.93577 0.00581983 0.00463377 9.93578 7.92098 3 1 
156 1.20932 9.93696 0.00642032 0.00582685 9.93698 7.80197 3 1 
157.333 1.20922 9.93673 0.00694478 0.00692821 9.93675 7.61477 3 1 
158.667 1.20912 9.93329 0.00732491 0.00791926 9.93332 7.44522 3 1 
160 1.20901 9.93254 0.00762615 0.00877249 9.93258 7.25084 3 1 
161.333 1.20886 9.9345 0.00785073 0.00944612 9.93455 6.96776 3 1 
162.667 1.20871 9.93241 0.00793801 0.00992674 9.93247 6.70763 3 1 
164 1.20858 9.92951 0.00785618 0.0101824 9.92957 6.47017 3 1 
165.333 1.20843 9.9315 0.00769666 0.010255 9.93157 6.19936 3 1 
166.667 1.2083 9.93176 0.00745587 0.0101381 9.93182 5.95418 3 1 
168 1.20815 9.92923 0.00704782 0.00977744 9.92928 5.68116 3 1 
169.333 1.20803 9.92878 0.00655518 0.0092606 9.92883 5.4698 3 1 
170.667 1.20795 9.93058 0.00605913 0.00862047 9.93063 5.32182 3 1 
170.667 1.20795 9.93058 0.00605913 0.00862047 9.93063 5.32182 11 1 
172 1.20783 9.93067 0.00551702 0.00782353 9.9307 5.11486 11 1 
173.333 1.20776 9.92742 0.00495701 0.006984 9.92744 4.98891 11 1 
174.667 1.20773 9.92777 0.00440915 0.00610424 9.92778 4.93359 11 1 
176 1.20769 9.92937 0.00392196 0.00518841 9.92938 4.86219 11 1 
177.333 1.20767 9.92687 0.00347831 0.00430602 9.92688 4.83029 11 1 
178.667 1.2077 9.92486 0.00309948 0.00351073 9.92487 4.876 11 1 
180 1.20774 9.92641 0.00284872 0.00279728 9.92641 4.95287 11 1 
181.333 1.20778 9.92758 0.00271135 0.00215227 9.92758 5.02686 11 1 
182.667 1.20786 9.92477 0.0026925 0.00170772 9.92478 5.15968 11 1 
184 1.20796 9.92287 0.00277978 0.00140362 9.92288 5.34982 11 1 
185.333 1.20805 9.92372 0.003011 0.00121426 9.92374 5.50312 11 1 
186.667 1.20814 9.92124 0.00336008 0.00122196 9.92126 5.67421 11 1 
188 1.20827 9.91815 0.00383203 0.00146047 9.91817 5.90085 11 1 
189.333 1.20838 9.91968 0.00446995 0.001885 9.9197 6.11027 11 1 
190.667 1.2085 9.91982 0.00518435 0.00239886 9.91985 6.32236 11 1 
192 1.2086 9.91603 0.00600652 0.00316433 9.91607 6.50896 11 1 
192 1.2086 9.91603 0.00600652 0.00316433 9.91607 6.50896 11 1 
193.333 1.2087 9.91363 0.00690608 0.00405264 9.91366 6.69109 11 1 
194.667 1.20881 9.91323 0.00774863 0.00492817 9.91326 6.87452 11 1 
196 1.20887 9.91154 0.00870046 0.00598146 9.91156 6.99637 11 1 
197.333 1.20894 9.90923 0.00961575 0.00708452 9.90926 7.11522 11 1 
198.667 1.20903 9.90804 0.0103959 0.00810449 9.90806 7.27058 11 1 
200 1.20907 9.9079 0.0112925 0.00923973 9.90792 7.35276 11 1 
201.333 1.20907 9.90489 0.0119749 0.0102217 9.90491 7.3467 11 1 
202.667 1.20909 9.89947 0.0124212 0.0109695 9.89949 7.38488 11 1 
204 1.20909 9.89955 0.01291 0.0117914 9.89957 7.39373 11 1 
205.333 1.20908 9.90065 0.0131886 0.012398 9.90067 7.36907 11 1 
206.667 1.20908 9.89764 0.013306 0.0128491 9.89766 7.37027 11 1 
208 1.20903 9.89664 0.0133049 0.0131514 9.89667 7.28685 11 1 
209.333 1.209 9.8958 0.0130072 0.0131133 9.89582 7.22393 11 1 
210.667 1.20897 9.89108 0.0125849 0.012911 9.8911 7.16273 11 1 
212 1.2089 9.88633 0.0119918 0.0124899 9.88635 7.03671 11 1 
213.333 1.20886 9.885 0.0112867 0.0119413 9.88502 6.97476 11 1 
213.333 1.20886 9.885 0.0112867 0.0119413 9.88502 6.97476 11 1 
214.667 1.20884 9.885 0.0104806 0.0112393 9.88502 6.93527 11 1 
216 1.20878 9.88364 0.00951526 0.010319 9.88367 6.83284 11 1 
217.333 1.20874 9.88245 0.00851422 0.0092945 9.88247 6.75716 11 1 
218.667 1.20875 9.88107 0.00746145 0.00822587 9.88109 6.77932 11 1 
220 1.20872 9.87809 0.00641078 0.00711513 9.8781 6.71553 11 1 
221.333 1.20867 9.87249 0.00538405 0.00590592 9.87249 6.62533 11 1 
222.667 1.20867 9.86717 0.00434877 0.00470341 9.86718 6.63296 11 1 
224 1.20866 9.86695 0.00336568 0.00360245 9.86695 6.61818 11 1 
225.333 1.20868 9.86524 0.00252545 0.00258052 9.86524 6.63834 11 1 
226.667 1.2087 9.86193 0.00184357 0.00164331 9.86193 6.69163 11 1 
228 1.20872 9.86167 0.00131184 0.000917828 9.86167 6.72595 11 1 
229.333 1.20875 9.85666 0.000895439 0.000360389 9.85666 6.7727 11 1 
230.667 1.20875 9.84933 0.000572942 -0.000157703 9.84933 6.77777 11 1 
232 1.20876 9.84564 0.000503064 -0.000433972 9.84564 6.78925 11 1 
233.333 1.20884 9.84366 0.000724307 -0.000330826 9.84366 6.94391 11 1 
234.667 1.20893 9.84096 0.00118137 5.40617e-05 9.84096 7.09669 11 1 
234.667 1.20893 9.84096 0.00118137 5.40617e-05 9.84096 7.09669 11 1 
236 1.2089 9.83684 0.00170394 0.00048086 9.83684 7.04193 11 1 
237.333 1.20896 9.83014 0.00231425 0.000993948 9.83014 7.15608 11 1 
238.667 1.20906 9.82391 0.00306359 0.00170098 9.82391 7.32503 11 1 
240 1.20905 9.81992 0.00398037 0.00263699 9.81992 7.31244 11 1 
241.333 1.20915 9.81318 0.00506831 0.00371481 9.81318 7.49605 11 1 
242.667 1.20921 9.81139 0.00621768 0.00488035 9.8114 7.60804 11 1 
244 1.20928 9.8049 0.00729054 0.00599389 9.80491 7.73607 11 1 
245.333 1.20931 9.79532 0.00825206 0.00700607 9.79533 7.78364 11 1 
246.667 1.20936 9.78847 0.00941445 0.008211 9.78848 7.87226 11 1 
248 1.2095 9.78084 0.0103741 0.00916802 9.78084 8.13004 11 1 
249.333 1.20951 9.77558 0.0114105 0.0102388 9.7756 8.14107 11 1 
250.667 1.20957 9.7656 0.0122507 0.011079 9.76562 8.25054 11 1 
252 1.20963 9.758 0.0127413 0.0115475 9.75801 8.3656 11 1 
253.333 1.20975 9.74594 0.0134373 0.0122571 9.74596 8.576 11 1 
254.667 1.20976 9.73637 0.0138507 0.0126388 9.73639 8.60385 11 1 
256 1.20979 9.72694 0.0140515 0.0127757 9.72696 8.65388 11 1 
256 1.20979 9.72694 0.0140515 0.0127757 9.72696 8.65388 13 1 
257.333 1.20995 9.71393 0.0142367 0.0129473 9.71395 8.94274 13 1 
258.667 1.20995 9.70339 0.0140621 0.0127625 9.70341 8.94864 13 1 
260 1.20999 9.68817 0.0138194 0.0124271 9.68819 9.01297 13 1 
261.333 1.21014 9.67195 0.0135983 0.0121505 9.67197 9.28008 13 1 
262.667 1.21024 9.65605 0.0131574 0.0117322 9.65607 9.46608 13 1 
264 1.21022 9.64425 0.0125565 0.0110794 9.64427 9.42134 13 1 
265.333 1.21037 9.6253 0.0118559 0.0103117 9.62532 9.69701 13 1 
266.667 1.21061 9.59964 0.0112193 0.0097095 9.59966 10.132 13 1 
268 1.21055 9.58307 0.0105055 0.00900141 9.58309 10.0225 13 1 
269.333 1.21072 9.55948 0.00974559 0.00813574 9.55949 10.3392 13 1 
270.667 1.21112 9.52693 0.00898567 0.00735479 9.52694 11.0485 13 1 
272 1.21099 9.51341 0.00835543 0.00676023 9.51342 10.8172 13 1 
273.333 1.21127 9.47988 0.00774234 0.006054 9.4799 11.3174 13 1 
274.667 1.21179 9.43534 0.00707925 0.00531046 9.43535 12.2639 13 1 
276 1.21168 9.41229 0.00656407 0.00482186 9.41231 12.0724 13 1 
277.333 1.21203 9.36438 0.00613824 0.00434435 9.3644 12.69 13 1 
277.333 1.21203 9.36438 0.00613824 0.00434435 9.3644 12.69 13 1 
278.667 1.21252 9.31708 0.00577008 0.00383992 9.3171 13.5747 13 1 
280 1.21264 9.27342 0.00550695 0.00351086 9.27344 13.8018 13 1 
281.333 1.21298 9.21295 0.00537969 0.00333635 9.21296 14.4152 13 1 
282.667 1.21338 9.1648 0.00528808 0.00313038 9.1648 15.1453 13 1 
284 1.2139 9.11588 0.00521778 0.00295598 9.11588 16.074 13 1 
285.333 1.21443 9.05223 0.00528551 0.00298125 9.05228 17.0393 13 1 
286.667 1.21472 8.96375 0.00540554 0.00302032 8.96393 17.5581 13 1 
288 1.21503 8.85678 0.00556248 0.00307392 8.85693 18.1079 13 1 
289.333 1.2156 8.77027 0.00585008 0.00331313 8.7703 19.1509 13 1 
290.667 1.21642 8.6895 0.00615887 0.00356541 8.68953 20.6239 13 1 
292 1.21703 8.5911 0.00641686 0.00374937 8.59115 21.7212 13 1 
293.333 1.21736 8.48793 0.00671873 0.00401698 8.48804 22.3183 13 1 
294.667 1.218 8.36398 0.00701338 0.00428585 8.3642 23.473 13 1 
296 1.21883 8.23594 0.00730739 0.00450852 8.2361 24.9774 13 1 
297.333 1.21933 8.12402 0.00759544 0.00476731 8.12409 25.8796 13 1 
298.667 1.21349 7.94368 0.00767098 0.00489409 7.94383 15.3306 13 1 
298.667 1.21349 7.94368 0.00767098 0.00489409 7.94383 15.3306 14 1 
300 1.20362 7.88664 0.00781605 0.00499667 7.88676 -2.48658 14 1 
301.333 1.20005 7.89683 0.00801208 0.00510066 7.89691 -8.94435 14 1 
302.667 1.20084 7.78655 0.00805565 0.0050882 7.78666 -7.52216 14 1 
304 1.20147 7.66718 0.0081373 0.00512086 7.6673 -6.37491 14 1 
305.333 1.2019 7.54903 0.00815058 0.00510813 7.54926 -5.60069 14 1 
306.667 1.20242 7.44485 0.0080782 0.00501239 7.44503 -4.66485 14 1 
308 1.20284 7.33657 0.00807309 0.00495387 7.33664 -3.90139 14 1 
309.333 1.20327 7.24533 0.00803762 0.00483954 7.24538 -3.12365 14 1 
310.667 1.20378 7.16921 0.0080377 0.00475425 7.16924 -2.20877 14 1 
312 1.2042 7.09048 0.0080244 0.00464663 7.0905 -1.44935 14 1 
313.333 1.20456 7.02601 0.00789907 0.00445973 7.02602 -0.794762 14 1 
314.667 1.20493 6.96227 0.00782648 0.00434256 6.9623 -0.129252 14 1 
316 1.20517 6.89088 0.00771422 0.00413782 6.89093 0.31073 14 1 
317.333 1.20541 6.83211 0.0076074 0.00390606 6.83215 0.735601 14 1 
318.667 1.20576 6.78181 0.00752246 0.00373174 6.78184 1.37751 14 1 
320 1.206 6.72594 0.00741578 0.00353784 6.72599 1.79812 14 1 
320 1.206 6.72594 0.00741578 0.00353784 6.72599 1.79812 14 1 
321.333 1.20608 6.67123 0.0073266 0.00331554 6.67128 1.94405 14 1 
322.667 1.20628 6.62387 0.0072108 0.00307443 6.62393 2.30623 14 1 
324 1.20651 6.57681 0.00709503 0.0028526 6.57686 2.72826 14 1 
325.333 1.2066 6.53592 0.00704352 0.00265986 6.53594 2.88758 14 1 
326.667 1.20673 6.5056 0.00699602 0.00245609 6.50562 3.12601 14 1 
328 1.20694 6.474 0.00691187 0.00223283 6.47401 3.50289 14 1 
329.333 1.20705 6.4422 0.00681829 0.00203197 6.44221 3.69972 14 1 
330.667 1.20709 6.41383 0.00675396 0.00186129 6.41383 3.78382 14 1 
332 1.20719 6.39223 0.0066984 0.00166122 6.39224 3.95977 14 1 
333.333 1.20739 6.38269 0.00662229 0.00145691 6.3827 4.3252 14 1 
334.667 1.20756 6.36626 0.00657308 0.00132669 6.36627 4.61891 14 1 
336 1.20753 6.3394 0.00652062 0.00118051 6.3394 4.57806 14 1 
337.333 1.20756 6.32288 0.00642169 0.000948195 6.32289 4.6199 14 1 
338.667 1.20775 6.31397 0.00634507 0.000766944 6.31397 4.96699 14 1 
340 1.20792 6.30562 0.0063198 0.000682464 6.30563 5.26534 14 1 
341.333 1.20794 6.28992 0.00625494 0.000532675 6.28993 5.30616 14 1 
341.333 1.20794 6.28992 0.00625494 0.000532675 6.28993 5.30616 15 1 
342.667 1.20791 6.26271 0.00614349 0.000304062 6.26272 5.25433 15 1 
344 1.20802 6.24761 0.00608386 0.000153691 6.24762 5.45288 15 1 
345.333 1.20818 6.24305 0.00607521 6.66633e-05 6.24305 5.74326 15 1 
346.667 1.20822 6.22725 0.00602418 -9.42925e-05 6.22726 5.80943 15 1 
348 1.20824 6.20456 0.00592435 -0.000322098 6.20457 5.84904 15 1 
349.333 1.20827 6.18063 0.00587794 -0.000485566 6.18064 5.91374 15 1 
350.667 1.20833 6.16671 0.00589468 -0.000583783 6.16672 6.01863 15 1 
352 1.20845 6.16134 0.00587815 -0.000741989 6.16135 6.22598 15 1 
353.333 1.20847 6.13901 0.0058109 -0.000968661 6.13902 6.27329 15 1 
354.667 1.20847 6.11327 0.0057752 -0.00114774 6.11328 6.25921 15 1 
356 1.20853 6.1019 0.00580502 -0.0012564 6.10191 6.37186 15 1 
357.333 1.20857 6.08917 0.0058236 -0.00140126 6.08918 6.45408 15 1 
358.667 1.20862 6.07485 0.00579719 -0.00158633 6.07486 6.53717 15 1 
360 1.20865 6.05999 0.0057593 -0.00176368 6.05999 6.59953 15 1 
361.333 1.20866 6.04217 0.00577362 -0.00190768 6.04218 6.60337 15 1 
362.667 1.2087 6.03161 0.00584265 -0.00201864 6.03161 6.67976 15 1 
362.667 1.2087 6.03161 0.00584265 -0.00201864 6.03161 6.67976 15 1 
364 1.20874 6.02316 0.00588576 -0.00212954 6.02317 6.75586 15 1 
365.333 1.20876 6.01195 0.00585846 -0.00228329 6.01196 6.78718 15 1 
366.667 1.20878 6.002 0.00585515 -0.00243999 6.00201 6.83324 15 1 
368 1.20881 5.99127 0.00593157 -0.00253736 5.99127 6.88679 15 1 
369.333 1.20885 5.98466 0.0060044 -0.00260281 5.98466 6.94993 15 1 
370.667 1.20886 5.98028 0.00602222 -0.00271912 5.98028 6.97257 15 1 
372 1.20888 5.97269 0.00603598 -0.00287368 5.9727 7.013 15 1 
373.333 1.20894 5.96797 0.00609244 -0.00297319 5.96797 7.11242 15 1 
374.667 1.20895 5.96309 0.00616754 -0.00303786 5.96309 7.13992 15 1 
376 1.20897 5.95787 0.00621023 -0.00315154 5.95787 7.16403 15 1 
377.333 1.20901 5.95739 0.00622588 -0.00330355 5.9574 7.2447 15 1 
378.667 1.20903 5.95415 0.00624483 -0.00344641 5.95416 7.28485 15 1 
380 1.20906 5.94973 0.0062898 -0.00355278 5.94973 7.33587 15 1 
381.333 1.2091 5.94888 0.00633663 -0.00365497 5.94888 7.39992 15 1 
382.667 1.20911 5.94612 0.00634483 -0.00381218 5.94613 7.43183 15 1 
384 1.20914 5.94439 0.00633133 -0.00398272 5.94439 7.48312 15 1 
384 1.20914 5.94439 0.00633133 -0.00398272 5.94439 7.48312 15 1 
385.333 1.20917 5.94402 0.00632639 -0.00411631 5.94402 7.53064 15 1 
386.667 1.20919 5.9404 0.00633813 -0.00425432 5.9404 7.57103 15 1 
388 1.20922 5.93819 0.00636934 -0.00439638 5.93819 7.63131 15 1 
389.333 1.20924 5.93727 0.00636235 -0.00455568 5.93727 7.66416 15 1 
390.667 1.20926 5.93473 0.00631812 -0.00474349 5.93473 7.68568 15 1 
392 1.20928 5.93258 0.00633827 -0.00488592 5.93258 7.733 15 1 
393.333 1.2093 5.92933 0.00639203 -0.00499796 5.92934 7.77287 15 1 
394.667 1.20932 5.92566 0.00638751 -0.00517236 5.92567 7.79449 15 1 
396 1.20933 5.92321 0.00637121 -0.00536432 5.92322 7.82399 15 1 
397.333 1.20935 5.91955 0.00639511 -0.00548753 5.91956 7.86082 15 1 
398.667 1.20936 5.91527 0.00643793 -0.00559834 5.91527 7.87445 15 1 
400 1.20936 5.91061 0.00647698 -0.00575433 5.91062 7.88068 15 1 
401.333 1.20939 5.90536 0.00650832 -0.00587788 5.90536 7.92528 15 1 
402.667 1.20941 5.90138 0.0065322 -0.00596035 5.90139 7.9656 15 1 
404 1.2094 5.89623 0.00655121 -0.0061052 5.89624 7.95597 15 1 
405.333 1.20941 5.88938 0.00660701 -0.00623885 5.88939 7.96069 15 1 
405.333 1.20941 5.88938 0.00660701 -0.00623885 5.88939 7.96069 15 1 
406.667 1.20943 5.88407 0.00669469 -0.00627578 5.88408 8.00958 15 1 
408 1.20945 5.87865 0.00674058 -0.00634261 5.87866 8.04359 15 1 
409.333 1.20946 5.87217 0.00674911 -0.00650366 5.87218 8.04928 15 1 
410.667 1.20946 5.86577 0.00679282 -0.00662414 5.86578 8.05976 15 1 
412 1.20948 5.859 0.00688353 -0.00665059 5.85901 8.08568 15 1 
413.333 1.20949 5.85306 0.00695831 -0.0067146 5.85307 8.1162 15 1 
414.667 1.20951 5.84684 0.00698177 -0.00688327 5.84685 8.13842 15 1 
416 1.20952 5.83911 0.00701536 -0.0070123 5.83912 8.15841 15 1 
417.333 1.20953 5.83293 0.00708637 -0.00706354 5.83294 8.17873 15 1 
418.667 1.20953 5.82722 0.00715158 -0.00716473 5.82723 8.19017 15 1 
420 1.20955 5.81989 0.00719823 -0.00731929 5.8199 8.21248 15 1 
421.333 1.20957 5.81334 0.00724256 -0.00743313 5.81335 8.24552 15 1 
422.667 1.20957 5.80741 0.0072868 -0.00753026 5.80742 8.25825 15 1 
424 1.20958 5.80135 0.00734757 -0.00765557 5.80136 8.26544 15 1 
425.333 1.20959 5.79564 0.00741698 -0.00776935 5.79565 8.28983 15 1 
426.667 1.2096 5.78949 0.00748152 -0.00785434 5.7895 8.31033 15 1 
426.667 1.2096 5.78949 0.00748152 -0.00785434 5.7895 8.31033 20 1 
428 1.20961 5.78397 0.00753574 -0.0079635 5.78398 8.31958 20 1 
429.333 1.20962 5.77934 0.00758925 -0.00808516 5.77935 8.33917 20 1 
430.667 1.20963 5.77425 0.0076637 -0.00816812 5.77426 8.3624 20 1 
432 1.20963 5.76953 0.00774512 -0.00824474 5.76954 8.36474 20 1 
433.333 1.20963 5.76526 0.00782683 -0.00834544 5.76528 8.36929 20 1 
434.667 1.20965 5.76125 0.00791133 -0.00842514 5.76126 8.40346 20 1 
436 1.20967 5.75795 0.00797859 -0.00849634 5.75796 8.42723 20 1 
437.333 1.20966 5.7544 0.00804737 -0.00858974 5.75442 8.41962 20 1 
438.667 1.20967 5.75119 0.00814818 -0.00867039 5.7512 8.42745 20 1 
440 1.20968 5.7488 0.00825524 -0.00870693 5.74882 8.45889 20 1 
441.333 1.20969 5.74612 0.00833644 -0.00876174 5.74614 8.47338 20 1 
442.667 1.20969 5.7441 0.00840018 -0.00886187 5.74411 8.47833 20 1 
444 1.20971 5.7427 0.00846851 -0.00894802 5.74271 8.49903 20 1 
445.333 1.20971 5.74068 0.00855902 -0.00898417 5.74069 8.51435 20 1 
446.667 1.20972 5.73932 0.00864934 -0.00902871 5.73934 8.51865 20 1 
448 1.20973 5.73875 0.00873194 -0.00909943 5.73876 8.53852 20 1 
448 1.20973 5.73875 0.00873194 -0.00909943 5.73876 8.53852 20 1 
449.333 1.20974 5.73788 0.00881464 -0.0091613 5.73789 8.56641 20 1 
450.667 1.20975 5.7374 0.00888267 -0.00921509 5.73741 8.57711 20 1 
452 1.20975 5.73724 0.00894596 -0.00928265 5.73725 8.57951 20 1 
453.333 1.20976 5.73708 0.00902067 -0.00936398 5.73709 8.59736 20 1 
454.667 1.20978 5.73745 0.00908419 -0.00943678 5.73746 8.62569 20 1 
456 1.20978 5.73815 0.0091505 -0.00948018 5.73817 8.64163 20 1 
457.333 1.20979 5.73891 0.00924366 -0.00953106 5.73892 8.64843 20 1 
458.667 1.2098 5.73968 0.00934134 -0.00959847 5.7397 8.66147 20 1 
460 1.20981 5.74072 0.00943451 -0.0096418 5.74074 8.67907 20 1 
461.333 1.20981 5.74241 0.00950809 -0.00968858 5.74243 8.6945 20 1 
462.667 1.20982 5.7441 0.00955359 -0.0097935 5.74412 8.70811 20 1 
464 1.20983 5.7457 0.00961356 -0.0099008 5.74572 8.72284 20 1 
465.333 1.20983 5.74777 0.00969075 -0.00996373 5.74779 8.73163 20 1 
466.667 1.20984 5.74976 0.0097524 -0.0100228 5.74978 8.73478 20 1 
468 1.20985 5.75209 0.00979544 -0.0101306 5.7521 8.75262 20 1 
469.333 1.20986 5.75502 0.00983931 -0.010246 5.75503 8.77391 20 1 
469.333 1.20986 5.75502 0.00983931 -0.010246 5.75503 8.77391 20 1 
470.667 1.20986 5.75736 0.00989342 -0.0103162 5.75738 8.77371 20 1 
472 1.20986 5.75971 0.00994757 -0.0103807 5.75972 8.7759 20 1 
473.333 1.20987 5.76291 0.0099861 -0.0104863 5.76293 8.79544 20 1 
474.667 1.20988 5.7659 0.0100196 -0.010591 5.76592 8.80875 20 1 
476 1.20988 5.76867 0.0100515 -0.0106695 5.76869 8.81387 20 1 
477.333 1.20989 5.77176 0.0100741 -0.0107596 5.77178 8.82639 20 1 
478.667 1.20989 5.7748 0.0101 -0.0108698 5.77482 8.84026 20 1 
480 1.2099 5.77782 0.0101231 -0.0109866 5.77784 8.8468 20 1 
481.333 1.2099 5.78095 0.0101371 -0.0110937 5.78097 8.85835 20 1 
482.667 1.20992 5.78411 0.0101475 -0.011203 5.78413 8.88034 20 1 
484 1.20992 5.78728 0.0101504 -0.0113368 5.7873 8.89475 20 1 
485.333 1.20993 5.79031 0.0101436 -0.0114804 5.79033 8.89951 20 1 
486.667 1.20993 5.79335 0.0101479 -0.0116066 5.79337 8.91202 20 1 
488 1.20994 5.79644 0.0101467 -0.0117305 5.79647 8.93189 20 1 
489.333 1.20995 5.79964 0.0101198 -0.0118868 5.79966 8.94684 20 1 
490.667 1.20996 5.803 0.0100989 -0.0120533 5.80302 8.9587 20 1 
490.667 1.20996 5.803 0.0100989 -0.0120533 5.80302 8.9587 20 1 
492 1.20997 5.806 0.0100935 -0.0122028 5.80602 8.97147 20 1 
493.333 1.20997 5.80884 0.0100771 -0.0123576 5.80886 8.98167 20 1 
494.667 1.20998 5.8123 0.0100433 -0.0125375 5.81232 8.99312 20 1 
496 1.20999 5.81585 0.0100052 -0.0127227 5.81588 9.00948 20 1 
497.333 1.21 5.81889 0.00997629 -0.012892 5.81892 9.02286 20 1 
498.667 1.21 5.82201 0.00995319 -0.0130677 5.82203 9.02887 20 1 
500 1.21 5.82545 0.00991771 -0.0132587 5.82548 9.03675 20 1 
501.333 1.21001 5.82889 0.00988269 -0.0134392 5.82891 9.05077 20 1 
502.667 1.21002 5.83228 0.00986064 -0.0136008 5.83231 9.06462 20 1 
504 1.21002 5.83566 0.00983073 -0.0137783 5.83568 9.0749 20 1 
505.333 1.21003 5.83893 0.00979319 -0.0139754 5.83896 9.08294 20 1 
506.667 1.21003 5.8422 0.00975793 -0.0141598 5.84222 9.09306 20 1 
508 1.21004 5.84561 0.00972464 -0.0143155 5.84564 9.10782 20 1 
509.333 1.21005 5.84897 0.00969157 -0.0144897 5.849 9.12237 20 1 
510.667 1.21006 5.85211 0.00966166 -0.0146956 5.85214 9.13284 20 1 
512 1.21006 5.85519 0.00963401 -0.0148603 5.85521 9.14468 20 1 
512 1.21006 5.85519 0.00963401 -0.0148603 5.85521 9.14468 21 1 
513.333 1.21007 5.85824 0.00960677 -0.0149927 5.85827 9.15708 21 1 
514.667 1.21008 5.86119 0.00958177 -0.0151732 5.86121 9.16807 21 1 
516 1.21008 5.86409 0.0095649 -0.0153574 5.86412 9.18398 21 1 
517.333 1.21009 5.86693 0.00953414 -0.0155068 5.86696 9.1995 21 1 
518.667 1.2101 5.86945 0.00951017 -0.0156595 5.86948 9.20572 21 1 
520 1.2101 5.87177 0.00952408 -0.0158284 5.8718 9.21153 21 1 
521.333 1.21011 5.87416 0.00953603 -0.0159761 5.87419 9.22547 21 1 
522.667 1.21011 5.87644 0.00951745 -0.0161168 5.87647 9.23775 21 1 
524 1.21012 5.87845 0.00951151 -0.0162863 5.87848 9.24325 21 1 
525.333 1.21012 5.88024 0.00955691 -0.0164444 5.88027 9.24858 21 1 
526.667 1.21012 5.88179 0.00959548 -0.0165647 5.88182 9.25524 21 1 
528 1.21013 5.8833 0.00960212 -0.0167054 5.88334 9.26057 21 1 
529.333 1.21013 5.88477 0.00963733 -0.0168683 5.8848 9.26723 21 1 
530.667 1.21013 5.88581 0.00971574 -0.0169903 5.88584 9.27441 21 1 
532 1.21014 5.88668 0.00978483 -0.0170972 5.88671 9.28069 21 1 
533.333 1.21014 5.88745 0.0098562 -0.0172112 5.88749 9.28621 21 1 
533.333 1.21014 5.88745 0.0098562 -0.0172112 5.88749 9.28621 21 1 
534.667 1.21014 5.88785 0.00995296 -0.0173186 5.88788 9.28801 21 1 
536 1.21015 5.88806 0.0100551 -0.0174136 5.88809 9.29501 21 1 
537.333 1.21015 5.8883 0.01016 -0.0175057 5.88833 9.30825 21 1 
538.667 1.21016 5.88818 0.0102859 -0.0175813 5.88822 9.31436 21 1 
540 1.21016 5.88753 0.0104295 -0.017635 5.88756 9.31622 21 1 
541.333 1.21016 5.88669 0.0105762 -0.0176869 5.88673 9.32526 21 1 
542.667 1.21017 5.88595 0.0107414 -0.0177267 5.88598 9.33739 21 1 
544 1.21017 5.88491 0.01089 -0.0177754 5.88495 9.3453 21 1 
545.333 1.21018 5.88327 0.011034 -0.0178212 5.8833 9.35176 21 1 
546.667 1.21018 5.88131 0.0111921 -0.0178648 5.88135 9.35964 21 1 
548 1.21019 5.87928 0.011351 -0.0179013 5.87932 9.36658 21 1 
549.333 1.21019 5.87714 0.0114903 -0.0179404 5.87718 9.37524 21 1 
550.667 1.2102 5.87462 0.0116247 -0.0179897 5.87466 9.38706 21 1 
552 1.2102 5.87156 0.0117935 -0.0180177 5.8716 9.39279 21 1 
553.333 1.2102 5.86836 0.0119534 -0.0180454 5.8684 9.39595 21 1 
554.667 1.21021 5.8651 0.0120825 -0.0180854 5.86514 9.40472 21 1 
554.667 1.21021 5.8651 0.0120825 -0.0180854 5.86514 9.40472 22 1 
556 1.21021 5.86152 0.0122201 -0.0181241 5.86156 9.41458 22 1 
557.333 1.21022 5.85775 0.012376 -0.0181517 5.85779 9.42212 22 1 
558.667 1.21022 5.85378 0.0124956 -0.0182054 5.85382 9.42585 22 1 
560 1.21022 5.84949 0.0125984 -0.0182675 5.84954 9.42943 22 1 
561.333 1.21023 5.84523 0.012718 -0.0183205 5.84527 9.43788 22 1 
562.667 1.21023 5.84104 0.0128316 -0.0183805 5.84108 9.44407 22 1 
564 1.21023 5.83668 0.012917 -0.0184665 5.83672 9.44894 22 1 
565.333 1.21024 5.83214 0.0129785 -0.0185666 5.83219 9.45747 22 1 
566.667 1.21024 5.82761 0.0130487 -0.0186732 5.82766 9.4622 22 1 
568 1.21024 5.82324 0.0131248 -0.0187778 5.82328 9.4654 22 1 
569.333 1.21025 5.81893 0.0131772 -0.018895 5.81898 9.47402 22 1 
570.667 1.21025 5.81464 0.0132124 -0.0190402 5.81468 9.48523 22 1 
572 1.21026 5.81038 0.013256 -0.0191858 5.81043 9.49193 22 1 
573.333 1.21026 5.80619 0.0132952 -0.0193253 5.80623 9.49621 22 1 
574.667 1.21026 5.80223 0.0133182 -0.0194734 5.80227 9.5079 22 1 
576 1.21027 5.79845 0.0133388 -0.0196463 5.7985 9.52006 22 1 
576 1.21027 5.79845 0.0133388 -0.0196463 5.7985 9.52006 22 1 
577.333 1.21027 5.7946 0.0133635 -0.0198288 5.79465 9.52618 22 1 
578.667 1.21028 5.79093 0.013401 -0.0199769 5.79098 9.53664 22 1 
580 1.21029 5.78754 0.0134247 -0.0201472 5.78759 9.55066 22 1 
581.333 1.21029 5.78418 0.0134443 -0.0203384 5.78423 9.55963 22 1 
582.667 1.2103 5.7809 0.0134756 -0.0205065 5.78095 9.56766 22 1 
584 1.2103 5.77779 0.0135087 -0.0206547 5.77784 9.57988 22 1 
585.333 1.21031 5.77483 0.0135323 -0.0208345 5.77488 9.59352 22 1 
586.667 1.21032 5.77195 0.0135698 -0.0210198 5.77201 9.60201 22 1 
588 1.21032 5.76906 0.0136198 -0.0211664 5.76912 9.60905 22 1 
589.333 1.21033 5.76625 0.0136576 -0.0213045 5.7663 9.62276 22 1 
590.667 1.21033 5.76364 0.0136997 -0.0214659 5.7637 9.63445 22 1 
592 1.21034 5.76101 0.0137504 -0.0216226 5.76107 9.64383 22 1 
593.333 1.21035 5.75836 0.013809 -0.0217444 5.75842 9.65566 22 1 
594.667 1.21035 5.75566 0.0138666 -0.0218621 5.75572 9.66787 22 1 
596 1.21036 5.75294 0.0139271 -0.0219968 5.753 9.67972 22 1 
597.333 1.21037 5.75029 0.0139891 -0.0221314 5.75035 9.693 22 1 
597.333 1.21037 5.75029 0.0139891 -0.0221314 5.75035 9.693 24 1 
598.667 1.21038 5.74755 0.0140528 -0.0222366 5.74761 9.70964 24 1 
600 1.21038 5.74467 0.0141323 -0.0223332 5.74473 9.72553 24 1 
601.333 1.21039 5.74173 0.0142079 -0.0224493 5.74179 9.73871 24 1 
602.667 1.2104 5.73872 0.0142807 -0.022551 5.73878 9.75487 24 1 
604 1.21041 5.73556 0.0143629 -0.022635 5.73562 9.77564 24 1 
605.333 1.21042 5.73239 0.014466 -0.0227208 5.73245 9.79328 24 1 
606.667 1.21043 5.72913 0.0145541 -0.0228257 5.72919 9.80853 24 1 
608 1.21044 5.72552 0.0146662 -0.0228933 5.72559 9.8275 24 1 
609.333 1.21045 5.72187 0.0148001 -0.0229511 5.72194 9.84501 24 1 
610.667 1.21046 5.71839 0.0149158 -0.0230289 5.71846 9.8599 24 1 
612 1.21047 5.71466 0.0150242 -0.0231082 5.71472 9.87731 24 1 
613.333 1.21048 5.71074 0.0151587 -0.0231784 5.71081 9.89321 24 1 
614.667 1.21048 5.70683 0.01531 -0.0232489 5.7069 9.9044 24 1 
616 1.21049 5.70276 0.0154282 -0.0233444 5.70283 9.91687 24 1 
617.333 1.2105 5.69869 0.0155484 -0.0234456 5.69876 9.93062 24 1 
618.667 1.2105 5.69473 0.0156844 -0.0235437 5.6948 9.9421 24 1 
618.667 1.2105 5.69473 0.0156844 -0.0235437 5.6948 9.9421 24 1 
620 1.21051 5.69056 0.015799 -0.0236643 5.69063 9.9533 24 1 
621.333 1.21052 5.68637 0.015886 -0.0237998 5.68644 9.96199 24 1 
622.667 1.21052 5.68227 0.0159687 -0.0239584 5.68234 9.97247 24 1 
624 1.21053 5.67826 0.0160615 -0.0241332 5.67833 9.98655 24 1 
625.333 1.21054 5.67429 0.016146 -0.024304 5.67436 9.99808 24 1 
626.667 1.21054 5.67036 0.0162095 -0.0244858 5.67044 10.0086 24 1 
628 1.21055 5.66653 0.0162615 -0.0246977 5.66661 10.0231 24 1 
629.333 1.21056 5.66289 0.0163345 -0.0249014 5.66297 10.0368 24 1 
630.667 1.21056 5.65946 0.0163985 -0.0250994 5.65954 10.0517 24 1 
632 1.21057 5.65636 0.0164357 -0.0253213 5.65644 10.0693 24 1 
633.333 1.21058 5.65336 0.016466 -0.025582 5.65344 10.087 24 1 
634.667 1.21059 5.65047 0.0165067 -0.0258448 5.65055 10.103 24 1 
636 1.2106 5.64793 0.0165105 -0.02612 5.64801 10.1191 24 1 
637.333 1.21061 5.64569 0.0165012 -0.0264122 5.64577 10.1403 24 1 
638.667 1.21063 5.64379 0.0164992 -0.0267198 5.64388 10.1627 24 1 
640 1.21064 5.6421 0.0164918 -0.0270304 5.64219 10.1818 24 1 
640 1.21064 5.6421 0.0164918 -0.0270304 5.64219 10.1818 24 1 
641.333 1.21065 5.64064 0.0164809 -0.0273242 5.64073 10.2004 24 1 
642.667 1.21066 5.63957 0.0164978 -0.0276221 5.63967 10.2221 24 1 
644 1.21067 5.63886 0.0165053 -0.0279482 5.63895 10.2452 24 1 
645.333 1.21068 5.63847 0.0164867 -0.0282692 5.63856 10.2674 24 1 
646.667 1.2107 5.63825 0.0164979 -0.0285812 5.63835 10.2915 24 1 
648 1.21071 5.63822 0.0164977 -0.0289219 5.63832 10.3166 24 1 
649.333 1.21072 5.63852 0.0164824 -0.0292627 5.63862 10.3394 24 1 
650.667 1.21074 5.63918 0.016491 -0.0295832 5.63929 10.3639 24 1 
652 1.21075 5.64015 0.0164962 -0.0299323 5.64026 10.3931 24 1 
653.333 1.21077 5.64139 0.0165228 -0.0302614 5.64149 10.4211 24 1 
654.667 1.21078 5.64291 0.0165556 -0.0305769 5.64301 10.4459 24 1 
656 1.2108 5.64461 0.0165614 -0.0309202 5.64472 10.4746 24 1 
657.333 1.21081 5.64666 0.0165777 -0.0312648 5.64678 10.5034 24 1 
658.667 1.21083 5.64901 0.0165979 -0.0316088 5.64912 10.5307 24 1 
660 1.21085 5.65125 0.0166271 -0.0319239 5.65136 10.563 24 1 
661.333 1.21086 5.65377 0.0166718 -0.0322341 5.65389 10.5913 24 1 
661.333 1.21086 5.65377 0.0166718 -0.0322341 5.65389 10.5913 24 1 
662.667 1.21088 5.65655 0.0167036 -0.0325771 5.65667 10.6191 24 1 
664 1.2109 5.65919 0.0167584 -0.032861 5.65931 10.6524 24 1 
665.333 1.21091 5.66241 0.0167752 -0.0331662 5.66254 10.6782 24 1 
666.667 1.21093 5.66559 0.0168154 -0.0334836 5.66571 10.7085 24 1 
668 1.21095 5.66867 0.0168806 -0.0337645 5.66879 10.7413 24 1 
669.333 1.21096 5.67218 0.0168847 -0.0340879 5.67231 10.765 24 1 
670.667 1.21098 5.67565 0.0169107 -0.0343977 5.67578 10.7934 24 1 
672 1.21099 5.67895 0.0169515 -0.0347106 5.67908 10.827 24 1 
673.333 1.21101 5.68248 0.0169345 -0.0350344 5.68261 10.8496 24 1 
674.667 1.21102 5.68571 0.016977 -0.0352885 5.68585 10.8764 24 1 
676 1.21104 5.68877 0.0170012 -0.0355929 5.68891 10.907 24 1 
677.333 1.21105 5.69213 0.0169882 -0.0359259 5.69227 10.9292 24 1 
678.667 1.21107 5.69516 0.0170544 -0.0361331 5.6953 10.956 24 1 
680 1.21108 5.69824 0.0171821 -0.0362959 5.69838 10.9826 24 1 
681.333 1.21109 5.70127 0.0173831 -0.036432 5.70141 11.0069 24 1 
682.667 1.21111 5.70413 0.017563 -0.0365274 5.70427 11.032 24 1 
682.667 1.21111 5.70413 0.017563 -0.0365274 5.70427 11.032 31 1 
684 1.21112 5.70681 0.0176952 -0.0366551 5.70696 11.0597 31 1 
685.333 1.21114 5.70953 0.0177249 -0.0369408 5.70968 11.0843 31 1 
686.667 1.21115 5.71194 0.017614 -0.0373672 5.71209 11.1134 31 1 
688 1.21117 5.71422 0.0175609 -0.0376943 5.71437 11.1417 31 1 
689.333 1.21118 5.7164 0.0175041 -0.0380272 5.71656 11.1685 31 1 
690.667 1.2112 5.71844 0.0175448 -0.0383067 5.7186 11.1983 31 1 
692 1.21122 5.72038 0.0177636 -0.0383716 5.72054 11.2295 31 1 
693.333 1.21123 5.7221 0.0179427 -0.0384768 5.72226 11.2612 31 1 
694.667 1.21125 5.72367 0.0181402 -0.0385718 5.72383 11.2914 31 1 
696 1.21127 5.72505 0.0183708 -0.0386166 5.72521 11.3227 31 1 
697.333 1.21129 5.72629 0.0185444 -0.0387489 5.72645 11.3559 31 1 
698.667 1.21131 5.72733 0.0186685 -0.0389044 5.72749 11.3889 31 1 
700 1.21132 5.72822 0.0188105 -0.0390321 5.72838 11.4175 31 1 
701.333 1.21134 5.72883 0.0189969 -0.039127 5.729 11.451 31 1 
702.667 1.21136 5.72936 0.0191342 -0.0392636 5.72952 11.4826 31 1 
704 1.21137 5.72974 0.019258 -0.0393789 5.7299 11.5097 31 1 
704 1.21137 5.72974 0.019258 -0.0393789 5.7299 11.5097 31 1 
705.333 1.21139 5.72998 0.0194417 -0.0394626 5.73015 11.5408 31 1 
706.667 1.21141 5.7301 0.0196441 -0.0394971 5.73027 11.5709 31 1 
708 1.21142 5.73007 0.0198246 -0.0395383 5.73024 11.5971 31 1 
709.333 1.21144 5.7299 0.0199745 -0.0396482 5.73008 11.624 31 1 
710.667 1.21145 5.72972 0.0202964 -0.039536 5.72989 11.6513 31 1 
712 1.21147 5.72949 0.0204929 -0.0395114 5.72966 11.6797 31 1 
713.333 1.21148 5.72915 0.0206634 -0.0395476 5.72932 11.7063 31 1 
714.667 1.21149 5.7289 0.020964 -0.0394747 5.72907 11.7303 31 1 
716 1.21151 5.72845 0.0211776 -0.0394054 5.72863 11.7599 31 1 
717.333 1.21152 5.72821 0.0213792 -0.0393406 5.72838 11.7832 31 1 
718.667 1.21154 5.728 0.0216805 -0.0392263 5.72818 11.808 31 1 
720 1.21155 5.72803 0.0219743 -0.0390975 5.72821 11.8379 31 1 
721.333 1.21157 5.72792 0.0221898 -0.0389817 5.72809 11.8693 31 1 
722.667 1.21158 5.72774 0.0224342 -0.03888 5.72791 11.8933 31 1 
724 1.2116 5.72794 0.022699 -0.0387283 5.72812 11.915 31 1 
725.333 1.21162 5.72795 0.0229284 -0.0385977 5.72812 11.9523 31 1 
725.333 1.21162 5.72795 0.0229284 -0.0385977 5.72812 11.9523 31 1 
726.667 1.21163 5.72837 0.0231468 -0.0384895 5.72855 11.9796 31 1 
728 1.21164 5.72924 0.0234014 -0.0383771 5.72942 12.0021 31 1 
729.333 1.21167 5.72956 0.0236637 -0.0382047 5.72973 12.0441 31 1 
730.667 1.21168 5.73018 0.0238435 -0.0381319 5.73035 12.0711 31 1 
732 1.21169 5.73088 0.0239541 -0.0381762 5.73106 12.0927 31 1 
733.333 1.21172 5.73139 0.02414 -0.0380606 5.73156 12.1312 31 1 
734.667 1.21173 5.7326 0.0243225 -0.0379533 5.73277 12.1632 31 1 
736 1.21175 5.73339 0.0243768 -0.0380913 5.73357 12.1954 31 1 
737.333 1.21177 5.73465 0.0244794 -0.0381633 5.73483 12.221 31 1 
738.667 1.21179 5.73553 0.0245313 -0.0381719 5.73571 12.2605 31 1 
740 1.21181 5.73602 0.0245377 -0.0383467 5.7362 12.2928 31 1 
741.333 1.21181 5.73713 0.0242873 -0.0387769 5.73731 12.3079 31 1 
742.667 1.21184 5.73781 0.0244093 -0.0388014 5.73799 12.3509 31 1 
744 1.21186 5.73867 0.0243787 -0.0390113 5.73886 12.3876 31 1 
745.333 1.21187 5.73951 0.0238141 -0.0397487 5.7397 12.4082 31 1 
746.667 1.21189 5.7395 0.0238913 -0.0398941 5.73969 12.4411 31 1 
746.667 1.21189 5.7395 0.0238913 -0.0398941 5.73969 12.4411 31 1 
748 1.2119 5.73995 0.0235816 -0.0403998 5.74015 12.4687 31 1 
749.333 1.21192 5.73998 0.0230315 -0.0411763 5.74018 12.5023 31 1 
750.667 1.21194 5.74009 0.0229065 -0.0414887 5.74029 12.5319 31 1 
752 1.21195 5.73997 0.0224431 -0.0422603 5.74017 12.5593 31 1 
753.333 1.21197 5.73895 0.0218514 -0.0430797 5.73916 12.5977 31 1 
754.667 1.21199 5.73847 0.0213311 -0.043815 5.73867 12.6196 31 1 
756 1.212 5.73743 0.020903 -0.0444837 5.73764 12.6496 31 1 
757.333 1.21203 5.73614 0.0202864 -0.0454111 5.73636 12.6899 31 1 
758.667 1.21204 5.73478 0.0195988 -0.0464146 5.735 12.7127 31 1 
760 1.21205 5.73392 0.0190271 -0.047203 5.73415 12.7333 31 1 
761.333 1.21208 5.73142 0.0182772 -0.0483041 5.73165 12.7895 31 1 
762.667 1.21209 5.72966 0.0175943 -0.0492934 5.7299 12.8037 31 1 
764 1.21209 5.72862 0.0169951 -0.0502162 5.72887 12.8132 31 1 
765.333 1.21213 5.72573 0.0162616 -0.0512651 5.72599 12.8775 31 1 
766.667 1.21214 5.72398 0.0156088 -0.0522806 5.72424 12.8916 31 1 
768 1.21214 5.72342 0.0147527 -0.0534468 5.72369 12.8876 31 1 
768 1.21214 5.72342 0.0147527 -0.0534468 5.72369 12.8876 32 1 
769.333 1.21218 5.71997 0.0141757 -0.0544283 5.72025 12.9599 32 1 
770.667 1.21218 5.71961 0.0135552 -0.0554205 5.7199 12.9639 32 1 
772 1.21218 5.71925 0.0128835 -0.0565226 5.71955 12.9677 32 1 
773.333 1.21221 5.71662 0.0122674 -0.0576035 5.71693 13.0309 32 1 
774.667 1.21221 5.71814 0.0115361 -0.0586915 5.71845 13.0239 32 1 
776 1.21223 5.71757 0.0108082 -0.0598339 5.71789 13.054 32 1 
777.333 1.21225 5.71614 0.010431 -0.0607 5.71647 13.0981 32 1 
778.667 1.21224 5.71906 0.0101491 -0.0615285 5.7194 13.0751 32 1 
780 1.21227 5.72024 0.00979679 -0.0623374 5.72059 13.126 32 1 
781.333 1.21229 5.72208 0.00938177 -0.0632928 5.72244 13.1675 32 1 
782.667 1.21227 5.72872 0.00862779 -0.0646743 5.72909 13.1267 32 1 
784 1.21231 5.73046 0.00847367 -0.0653518 5.73084 13.2122 32 1 
785.333 1.21232 5.73529 0.00863821 -0.0656291 5.73568 13.2271 32 1 
786.667 1.21231 5.73698 0.00786246 -0.067193 5.73738 13.2098 32 1 
788 1.2123 5.74485 0.00669914 -0.0690745 5.74527 13.1807 32 1 
789.333 1.21234 5.75561 0.00691044 -0.0696322 5.75604 13.2641 32 1 
790.667 1.2124 5.76218 0.0080862 -0.0691236 5.7626 13.3582 32 1 
792 1.21233 5.77188 0.00787994 -0.0698523 5.77231 13.2369 32 1 
793.333 1.21234 5.7766 0.00662227 -0.0720707 5.77706 13.2532 32 1 
794.667 1.21238 5.78581 0.00537612 -0.0741124 5.78629 13.339 32 1 
796 1.2124 5.79615 0.00578523 -0.0743185 5.79663 13.3681 32 1 
797.333 1.21241 5.80131 0.00618582 -0.0746722 5.80179 13.3892 32 1 
798.667 1.21243 5.80326 0.00428025 -0.077259 5.80378 13.4281 32 1 
800 1.21245 5.80409 0.00331802 -0.0784568 5.80462 13.4528 32 1 
