12.6791;r ;Density                 ;Velocity u              ;Velocity v              ;Velocity w              ;|Velocity|              ;Pressure                ;Distribution            ;Levels                  ;
0 1.20412 9.99951 5.08337e-05 5.48286e-05 9.99951 -1.58982 1 1 
1.33334 1.20415 9.99992 4.43405e-05 5.48142e-05 9.99992 -1.54024 1 1 
2.66666 1.20417 10.0009 4.08516e-05 6.91477e-05 10.0009 -1.49697 1 1 
4 1.20414 10.001 0.000131271 0.000158516 10.001 -1.55392 1 1 
5.33334 1.20408 9.99965 0.000306136 0.000329401 9.99965 -1.66173 1 1 
6.66666 1.20409 9.99891 0.000262284 0.000287943 9.99891 -1.63912 1 1 
8 1.20415 10.0006 9.42083e-05 0.000122072 10.0006 -1.54089 1 1 
9.33334 1.20417 10.0016 0.00015981 0.00017433 10.0016 -1.49891 1 1 
10.6667 1.20411 10.0012 0.000194771 0.000197394 10.0012 -1.60243 1 1 
12 1.20408 10.0012 -7.92244e-05 -8.81935e-05 10.0012 -1.66743 1 1 
13.3333 1.20419 10.0005 9.27788e-05 7.59978e-05 10.0005 -1.4556 1 1 
14.6667 1.20419 10.001 0.000543356 0.000547631 10.001 -1.45985 1 1 
16 1.20408 10.0006 0.000256493 0.000267274 10.0006 -1.66326 1 1 
17.3333 1.20407 9.99907 0.000137232 0.000118727 9.99907 -1.67233 1 1 
18.6667 1.20415 9.99858 0.001172 0.00112811 9.99858 -1.53657 1 1 
20 1.20413 9.99949 0.00193996 0.00193022 9.99949 -1.57078 1 1 
21.3333 1.204 10.0006 0.0010128 0.00105747 10.0006 -1.81373 1 1 
21.3333 1.204 10.0006 0.0010128 0.00105747 10.0006 -1.81373 1 1 
22.6667 1.20403 9.99922 -5.8427e-05 -8.97674e-06 9.99922 -1.74574 1 1 
24 1.20418 10.0003 0.000360975 0.000357157 10.0003 -1.4855 1 1 
25.3333 1.20419 10.0044 0.00101996 0.000968736 10.0044 -1.45453 1 1 
26.6667 1.20412 10.004 0.000376229 0.000324351 10.004 -1.58598 1 1 
28 1.20407 9.9994 -0.00092033 -0.000946551 9.9994 -1.68587 1 1 
29.3333 1.20402 9.99891 -0.00129145 -0.00129472 9.99891 -1.76592 1 1 
30.6667 1.20407 10.0006 -0.000520626 -0.000520907 10.0006 -1.67102 1 1 
32 1.20417 10.0002 0.000463319 0.000460267 10.0002 -1.50557 1 1 
33.3333 1.20412 9.99987 0.000989046 0.000988816 9.99987 -1.58858 1 1 
34.6667 1.20411 9.99845 0.00113851 0.00113946 9.99845 -1.60301 1 1 
36 1.20404 9.99949 0.00114179 0.00113467 9.99949 -1.73511 1 1 
37.3333 1.20399 9.99987 0.00107377 0.0010656 9.99987 -1.82741 1 1 
38.6667 1.2041 9.99837 0.00101885 0.00100836 9.99837 -1.62578 1 1 
40 1.2042 10.0013 0.00101624 0.0010117 10.0013 -1.44037 1 1 
41.3333 1.20428 10.0049 0.00104343 0.00104301 10.0049 -1.30902 1 1 
42.6667 1.20419 10.0034 0.0010504 0.00104422 10.0034 -1.46753 1 1 
42.6667 1.20419 10.0034 0.0010504 0.00104422 10.0034 -1.46753 2 1 
44 1.20403 9.99613 0.00104055 0.00103825 9.99613 -1.76048 2 1 
45.3333 1.20395 9.99429 0.000966424 0.00096068 9.99429 -1.89056 2 1 
46.6667 1.20416 10.0001 0.000979525 0.000979587 10.0001 -1.51058 2 1 
48 1.20441 10.0064 0.00100155 0.00100024 10.0064 -1.06868 2 1 
49.3333 1.20436 10.0054 0.000960329 0.000960165 10.0054 -1.16364 2 1 
50.6667 1.20413 9.9988 0.000984228 0.00098631 9.9988 -1.57339 2 1 
52 1.20401 9.99699 0.000967548 0.000957667 9.99699 -1.79503 2 1 
53.3333 1.20424 10.0022 0.000989339 0.000974934 10.0022 -1.37497 2 1 
54.6667 1.20443 10.0086 0.00101743 0.000999368 10.0086 -1.03276 2 1 
56 1.2044 10.0059 0.00102213 0.00100666 10.0059 -1.08118 2 1 
57.3333 1.20424 9.99964 0.0010797 0.00106461 9.99964 -1.37977 2 1 
58.6667 1.20415 10.0005 0.00111975 0.00110497 10.0005 -1.53296 2 1 
60 1.20434 10.0063 0.00111464 0.00110376 10.0063 -1.19608 2 1 
61.3333 1.20446 10.0095 0.00106877 0.00105391 10.0095 -0.968092 2 1 
62.6667 1.2044 10.0067 0.000976244 0.000963697 10.0067 -1.08113 2 1 
64 1.20431 10.0026 0.0009318 0.000917815 10.0026 -1.23753 2 1 
64 1.20431 10.0026 0.0009318 0.000917815 10.0026 -1.23753 2 1 
65.3333 1.20438 10.0053 0.000988125 0.000971031 10.0053 -1.12262 2 1 
66.6667 1.20452 10.0106 0.00111845 0.00109564 10.0106 -0.870009 2 1 
68 1.20454 10.0097 0.00124529 0.00121685 10.0097 -0.828132 2 1 
69.3333 1.20435 10.0042 0.00128201 0.00126095 10.0042 -1.17629 2 1 
70.6667 1.20424 10.0025 0.0013152 0.00129603 10.0025 -1.36575 2 1 
72 1.2045 10.0087 0.0012453 0.00122528 10.0087 -0.896229 2 1 
73.3333 1.2048 10.0169 0.00107254 0.00105956 10.0169 -0.363466 2 1 
74.6667 1.20477 10.0171 0.000888965 0.000883664 10.0171 -0.412246 2 1 
76 1.20448 10.0074 0.000746389 0.000736516 10.0074 -0.932809 2 1 
77.3333 1.20422 10.0011 0.000719924 0.000705068 10.0011 -1.40314 2 1 
78.6667 1.20431 10.0058 0.000844457 0.000827292 10.0058 -1.24212 2 1 
80 1.20471 10.0134 0.00107332 0.001051 10.0134 -0.525909 2 1 
81.3333 1.20479 10.0156 0.00129578 0.0012683 10.0156 -0.376306 2 1 
82.6667 1.2045 10.009 0.00149368 0.00146054 10.009 -0.906983 2 1 
84 1.20428 10.0017 0.00153423 0.00149668 10.0017 -1.30841 2 1 
85.3333 1.20439 10.0057 0.00139053 0.00135754 10.0057 -1.09762 2 1 
85.3333 1.20439 10.0057 0.00139053 0.00135754 10.0057 -1.09762 3 1 
86.6667 1.20483 10.0169 0.00109704 0.0010794 10.0169 -0.309705 3 1 
88 1.20507 10.0239 0.000783169 0.000759045 10.0239 0.126254 3 1 
89.3333 1.20482 10.0182 0.000617751 0.00059155 10.0182 -0.333214 3 1 
90.6667 1.20438 10.0045 0.000623455 0.000598195 10.0045 -1.12863 3 1 
92 1.20419 9.99745 0.000742555 0.000716481 9.99745 -1.45833 3 1 
93.3333 1.2044 10.004 0.000938553 0.000910719 10.004 -1.09154 3 1 
94.6667 1.20474 10.0157 0.00107303 0.00103127 10.0157 -0.468765 3 1 
96 1.20486 10.0191 0.00112499 0.00108773 10.0191 -0.257966 3 1 
97.3333 1.20463 10.0115 0.00115531 0.00110765 10.0115 -0.666467 3 1 
98.6667 1.20437 10.0017 0.00103761 0.000996073 10.0017 -1.1402 3 1 
100 1.20434 10.0016 0.000983319 0.000942603 10.0016 -1.19492 3 1 
101.333 1.20458 10.0101 0.00095728 0.000923051 10.0101 -0.76609 3 1 
102.667 1.20485 10.0165 0.000946565 0.000920805 10.0165 -0.267853 3 1 
104 1.2048 10.0156 0.00101573 0.000984711 10.0156 -0.368203 3 1 
105.333 1.20448 10.0064 0.000961644 0.000944803 10.0064 -0.942775 3 1 
106.667 1.20422 9.99833 0.000892715 0.00086102 9.99833 -1.41712 3 1 
106.667 1.20422 9.99833 0.000892715 0.00086102 9.99833 -1.41712 3 1 
108 1.20424 9.9992 0.000773494 0.000745796 9.9992 -1.37117 3 1 
109.333 1.2045 10.0055 0.000662177 0.000637345 10.0055 -0.907629 3 1 
110.667 1.20468 10.0108 0.000636417 0.000610624 10.0108 -0.57838 3 1 
112 1.20457 10.009 0.000658508 0.000635999 10.009 -0.769394 3 1 
113.333 1.20431 9.99986 0.00075832 0.000744735 9.99986 -1.2525 3 1 
114.667 1.20412 9.99342 0.000807742 0.000807666 9.99342 -1.59162 3 1 
116 1.20418 9.99712 0.000807574 0.000799047 9.99712 -1.48018 3 1 
117.333 1.20454 10.0061 0.000634257 0.000627993 10.0061 -0.836261 3 1 
118.667 1.20485 10.0168 0.000363533 0.000360668 10.0168 -0.279142 3 1 
120 1.20492 10.0181 5.52221e-05 5.59977e-05 10.0181 -0.151062 3 1 
121.333 1.20472 10.0097 -0.000194864 -0.000203393 10.0097 -0.514892 3 1 
122.667 1.20437 10.0017 -0.000311314 -0.000334839 10.0017 -1.13039 3 1 
124 1.20425 9.99764 -0.000307679 -0.000338023 9.99764 -1.34863 3 1 
125.333 1.20442 10.0035 -0.000129748 -0.000163319 10.0035 -1.05442 3 1 
126.667 1.20479 10.0141 0.000119164 7.68704e-05 10.0141 -0.371242 3 1 
128 1.20513 10.0235 0.000377055 0.000331438 10.0235 0.228402 3 1 
128 1.20513 10.0235 0.000377055 0.000331438 10.0235 0.228402 3 1 
129.333 1.20524 10.0274 0.000525829 0.000491846 10.0274 0.429702 3 1 
130.667 1.2052 10.0259 0.000576488 0.000531559 10.0259 0.357772 3 1 
132 1.20514 10.0246 0.000520346 0.000464973 10.0246 0.248546 3 1 
133.333 1.20522 10.0259 0.000500387 0.000456206 10.0259 0.394732 3 1 
134.667 1.20538 10.0321 0.000553626 0.000518191 10.0321 0.67951 3 1 
136 1.20556 10.0379 0.000774104 0.000721214 10.0379 1.01056 3 1 
137.333 1.20563 10.0384 0.00108719 0.0010348 10.0384 1.13781 3 1 
138.667 1.20547 10.0335 0.00138765 0.00133736 10.0335 0.840764 3 1 
140 1.20519 10.0247 0.00163901 0.00160164 10.0247 0.335665 3 1 
141.333 1.20495 10.0172 0.00170098 0.00166108 10.0172 -0.0924138 3 1 
142.667 1.20493 10.0168 0.0016162 0.00157455 10.0168 -0.125939 3 1 
144 1.2052 10.0247 0.00133119 0.00131503 10.0247 0.358341 3 1 
145.333 1.20561 10.0373 0.000936453 0.000911674 10.0373 1.11001 3 1 
146.667 1.206 10.0504 0.000473423 0.000446436 10.0504 1.8003 3 1 
148 1.2062 10.0567 9.68054e-05 6.63009e-05 10.0567 2.17612 3 1 
149.333 1.20615 10.0551 -8.40002e-05 -9.87359e-05 10.0551 2.0698 3 1 
149.333 1.20615 10.0551 -8.40002e-05 -9.87359e-05 10.0551 2.0698 3 1 
150.667 1.20591 10.048 -3.58762e-05 -5.61678e-05 10.048 1.64276 3 1 
152 1.20565 10.0381 0.000234374 0.000209096 10.0381 1.17932 3 1 
153.333 1.20549 10.0327 0.000668541 0.00064588 10.0327 0.877146 3 1 
154.667 1.20553 10.0349 0.00117078 0.00114677 10.0349 0.961861 3 1 
156 1.20581 10.0431 0.00167968 0.00165293 10.0431 1.46996 3 1 
157.333 1.2062 10.0565 0.00214225 0.00211297 10.0565 2.16566 3 1 
158.667 1.20658 10.0693 0.00245002 0.00243053 10.0693 2.85288 3 1 
160 1.2068 10.0754 0.00265012 0.00262119 10.0754 3.24744 3 1 
161.333 1.20674 10.0748 0.00264958 0.00261934 10.0748 3.14705 3 1 
162.667 1.20652 10.0655 0.00252888 0.00249632 10.0655 2.74569 3 1 
164 1.20616 10.0509 0.00232956 0.00229384 10.0509 2.09847 3 1 
165.333 1.20571 10.0373 0.00207436 0.002036 10.0373 1.28168 3 1 
166.667 1.20536 10.0241 0.00185822 0.00183231 10.0241 0.652602 3 1 
168 1.20511 10.0157 0.00162398 0.00159157 10.0157 0.206143 3 1 
169.333 1.20503 10.014 0.0014084 0.0013676 10.014 0.0511788 3 1 
170.667 1.20516 10.0163 0.00127447 0.00124734 10.0163 0.289255 3 1 
170.667 1.20516 10.0163 0.00127447 0.00124734 10.0163 0.289255 11 1 
172 1.20532 10.0228 0.00119396 0.00116455 10.0228 0.57747 11 1 
173.333 1.20551 10.0291 0.00115897 0.00112281 10.0291 0.924584 11 1 
174.667 1.20573 10.0347 0.00111097 0.00108054 10.0347 1.32141 11 1 
176 1.20586 10.0387 0.00107677 0.00104893 10.0387 1.55722 11 1 
177.333 1.20591 10.0399 0.00110559 0.00106193 10.0399 1.6397 11 1 
178.667 1.20589 10.0384 0.00113474 0.00110424 10.0384 1.61633 11 1 
180 1.2058 10.0349 0.00117322 0.00115532 10.0349 1.44939 11 1 
181.333 1.20567 10.031 0.00117992 0.0011446 10.031 1.20515 11 1 
182.667 1.20554 10.0253 0.00124194 0.00121399 10.0253 0.975047 11 1 
184 1.20539 10.0184 0.00126912 0.00124525 10.0184 0.703546 11 1 
185.333 1.20522 10.0124 0.0012499 0.00122177 10.0124 0.396523 11 1 
186.667 1.2051 10.0061 0.00121996 0.00119307 10.0062 0.188696 11 1 
188 1.20504 10.0019 0.00120453 0.00118063 10.0019 0.0679713 11 1 
189.333 1.20497 10.0007 0.00126986 0.00123426 10.0007 -0.049876 11 1 
190.667 1.20493 9.9987 0.00128198 0.00124121 9.9987 -0.121545 11 1 
192 1.20489 9.99626 0.00134019 0.00132663 9.99626 -0.191837 11 1 
192 1.20489 9.99626 0.00134019 0.00132663 9.99626 -0.191837 11 1 
193.333 1.20486 9.99448 0.0013468 0.00130251 9.99448 -0.248568 11 1 
194.667 1.20486 9.99133 0.00125718 0.00122643 9.99133 -0.260351 11 1 
196 1.20485 9.98973 0.0013138 0.00130018 9.98973 -0.278544 11 1 
197.333 1.20485 9.99118 0.0013738 0.00134808 9.99118 -0.268421 11 1 
198.667 1.20488 9.99031 0.00129204 0.001265 9.99031 -0.211023 11 1 
200 1.2049 9.98894 0.00141961 0.00139296 9.98894 -0.188772 11 1 
201.333 1.20488 9.98772 0.00140859 0.00140786 9.98773 -0.223392 11 1 
202.667 1.20488 9.98378 0.00124589 0.00120222 9.98378 -0.217547 11 1 
204 1.20487 9.98318 0.00137481 0.00133925 9.98318 -0.232386 11 1 
205.333 1.2049 9.9847 0.00135049 0.00134701 9.9847 -0.185733 11 1 
206.667 1.20496 9.98424 0.00138799 0.00136835 9.98425 -0.0698479 11 1 
208 1.20493 9.98478 0.00149976 0.00145585 9.98478 -0.120637 11 1 
209.333 1.20493 9.98291 0.00142819 0.00140423 9.98292 -0.126866 11 1 
210.667 1.20495 9.97809 0.00142358 0.00142693 9.97809 -0.0811236 11 1 
212 1.20495 9.97492 0.00141698 0.00138959 9.97492 -0.0989159 11 1 
213.333 1.20496 9.97355 0.00139912 0.00137449 9.97355 -0.0672446 11 1 
213.333 1.20496 9.97355 0.00139912 0.00137449 9.97355 -0.0672446 11 1 
214.667 1.20499 9.97287 0.00141692 0.0014289 9.97287 -0.0116837 11 1 
216 1.205 9.97331 0.00144397 0.00145068 9.97331 0.00904822 11 1 
217.333 1.205 9.97432 0.00146185 0.00141782 9.97432 0.0032616 11 1 
218.667 1.20504 9.97193 0.0014624 0.00144875 9.97193 0.0750088 11 1 
220 1.20506 9.96864 0.00150045 0.00153547 9.96864 0.100242 11 1 
221.333 1.20505 9.96532 0.00154249 0.00151682 9.96532 0.0956023 11 1 
222.667 1.20507 9.96001 0.00151308 0.00146964 9.96002 0.122905 11 1 
224 1.20506 9.95875 0.00144044 0.00146344 9.95875 0.105355 11 1 
225.333 1.20511 9.95837 0.00145951 0.00148831 9.95837 0.19372 11 1 
226.667 1.20516 9.95684 0.00151761 0.00148129 9.95684 0.288965 11 1 
228 1.20514 9.95685 0.00158554 0.00156184 9.95685 0.261612 11 1 
229.333 1.20517 9.95137 0.00156945 0.00161636 9.95137 0.299234 11 1 
230.667 1.20519 9.94528 0.00146066 0.00149514 9.94528 0.338443 11 1 
232 1.20518 9.94287 0.00144157 0.00142365 9.94288 0.321316 11 1 
233.333 1.20524 9.94025 0.00150037 0.0014877 9.94025 0.43869 11 1 
234.667 1.20531 9.93863 0.00164286 0.00167363 9.93863 0.551628 11 1 
234.667 1.20531 9.93863 0.00164286 0.00167363 9.93863 0.551628 11 1 
236 1.20526 9.93672 0.00162654 0.00166779 9.93673 0.469614 11 1 
237.333 1.2053 9.92989 0.00156203 0.00156477 9.92989 0.541756 11 1 
238.667 1.20536 9.9229 0.00147856 0.00148078 9.9229 0.655847 11 1 
240 1.20535 9.92021 0.00145958 0.00151121 9.92021 0.639406 11 1 
241.333 1.20543 9.91489 0.00156343 0.0015862 9.91489 0.779944 11 1 
242.667 1.20544 9.91323 0.00162279 0.00162079 9.91323 0.791221 11 1 
244 1.20549 9.90719 0.00157195 0.00157997 9.90719 0.886203 11 1 
245.333 1.20552 9.89914 0.00146143 0.00149903 9.89914 0.941303 11 1 
246.667 1.20554 9.8931 0.00156071 0.00161417 9.8931 0.982537 11 1 
248 1.20565 9.88535 0.00147968 0.00149454 9.88535 1.17662 11 1 
249.333 1.20565 9.88115 0.00160793 0.00165509 9.88115 1.17176 11 1 
250.667 1.20571 9.87269 0.00165572 0.00172385 9.87269 1.27786 11 1 
252 1.20575 9.86545 0.00139838 0.00142858 9.86545 1.35445 11 1 
253.333 1.20585 9.8537 0.00151553 0.00155739 9.8537 1.54146 11 1 
254.667 1.20589 9.84588 0.00152706 0.00159448 9.84588 1.60951 11 1 
256 1.20594 9.8376 0.00149169 0.00154944 9.83761 1.69027 11 1 
256 1.20594 9.8376 0.00149169 0.00154944 9.83761 1.69027 13 1 
257.333 1.20608 9.8246 0.00156613 0.00161087 9.8246 1.94748 13 1 
258.667 1.20609 9.81514 0.00142772 0.00148525 9.81514 1.97445 13 1 
260 1.20616 9.80178 0.00141253 0.00144863 9.80178 2.10345 13 1 
261.333 1.20632 9.78612 0.00153517 0.00154783 9.78612 2.37815 13 1 
262.667 1.20642 9.77028 0.00149239 0.00155212 9.77028 2.57246 13 1 
264 1.20643 9.76006 0.00142755 0.00149806 9.76006 2.58296 13 1 
265.333 1.20661 9.74234 0.00140291 0.00145617 9.74235 2.90238 13 1 
266.667 1.20684 9.71668 0.00141069 0.00150279 9.71668 3.3291 13 1 
268 1.20677 9.7009 0.00137611 0.00149713 9.7009 3.20543 13 1 
269.333 1.20697 9.67872 0.00138103 0.00145715 9.67872 3.55803 13 1 
270.667 1.20737 9.64679 0.00134243 0.00141639 9.64679 4.28801 13 1 
272 1.20721 9.63385 0.00132393 0.00143693 9.63386 3.99811 13 1 
273.333 1.20748 9.60111 0.00133115 0.00141759 9.60112 4.48024 13 1 
274.667 1.20801 9.55738 0.00127388 0.0013509 9.55739 5.43697 13 1 
276 1.20786 9.53501 0.00125687 0.00137207 9.53502 5.16738 13 1 
277.333 1.20817 9.48733 0.00123699 0.00134403 9.48734 5.72558 13 1 
277.333 1.20817 9.48733 0.00123699 0.00134403 9.48734 5.72558 13 1 
278.667 1.20867 9.44101 0.00123898 0.00130988 9.44103 6.62153 13 1 
280 1.20877 9.39838 0.00121904 0.00130676 9.3984 6.81769 13 1 
281.333 1.20908 9.33816 0.00117558 0.00129428 9.33818 7.36236 13 1 
282.667 1.20947 9.29103 0.00114278 0.00124978 9.29103 8.06484 13 1 
284 1.20999 9.24336 0.00112087 0.00121467 9.24336 9.01259 13 1 
285.333 1.21053 9.18005 0.00109608 0.00120646 9.18011 9.98292 13 1 
286.667 1.2108 9.09172 0.00106263 0.00117434 9.0919 10.471 13 1 
288 1.21111 8.98511 0.00104951 0.00115868 8.98526 11.0368 13 1 
289.333 1.21172 8.89934 0.00102133 0.00115432 8.89937 12.1402 13 1 
290.667 1.21255 8.81911 0.000973837 0.00111857 8.81913 13.6431 13 1 
292 1.21318 8.72081 0.000959861 0.00109159 8.72086 14.771 13 1 
293.333 1.21354 8.61834 0.000939485 0.00106734 8.61844 15.4322 13 1 
294.667 1.21422 8.49462 0.000913192 0.00105311 8.49483 16.6474 13 1 
296 1.21507 8.36613 0.000877853 0.0010143 8.36627 18.1882 13 1 
297.333 1.21559 8.25474 0.000884151 0.00100021 8.2548 19.133 13 1 
298.667 1.20956 8.07387 0.000842032 0.00095677 8.07401 8.23525 13 1 
298.667 1.20956 8.07387 0.000842032 0.00095677 8.07401 8.23525 14 1 
300 1.19937 8.02041 0.000771815 0.000893233 8.02052 -10.1642 14 1 
301.333 1.19569 8.03562 0.00078449 0.000896643 8.03569 -16.8086 14 1 
302.667 1.19651 7.92635 0.000723027 0.000835724 7.92645 -15.3302 14 1 
304 1.19717 7.80769 0.000693406 0.000822673 7.8078 -14.1468 14 1 
305.333 1.1976 7.6898 0.000673047 0.000805415 7.69001 -13.3714 14 1 
306.667 1.19812 7.58663 0.000593696 0.000717646 7.58679 -12.4201 14 1 
308 1.19856 7.47958 0.000593748 0.00071618 7.47964 -11.6373 14 1 
309.333 1.19899 7.39005 0.000541002 0.000677088 7.39009 -10.8631 14 1 
310.667 1.19948 7.31634 0.000506704 0.000659505 7.31637 -9.96628 14 1 
312 1.19991 7.23962 0.000497869 0.000635781 7.23963 -9.20162 14 1 
313.333 1.20028 7.17731 0.000443043 0.000573003 7.17732 -8.53127 14 1 
314.667 1.20064 7.11642 0.000439412 0.000597445 7.11644 -7.88154 14 1 
316 1.20087 7.04783 0.000385217 0.000543073 7.04788 -7.46746 14 1 
317.333 1.2011 6.99181 0.000349489 0.000481648 6.99184 -7.05044 14 1 
318.667 1.20145 6.94447 0.000358356 0.000505957 6.9445 -6.42019 14 1 
320 1.20167 6.89217 0.000314457 0.000480848 6.89221 -6.01481 14 1 
320 1.20167 6.89217 0.000314457 0.000480848 6.89221 -6.01481 14 1 
321.333 1.20175 6.84151 0.000275561 0.000419953 6.84156 -5.87499 14 1 
322.667 1.20195 6.79755 0.0002758 0.000407279 6.7976 -5.51747 14 1 
324 1.20217 6.75418 0.000271039 0.000419666 6.75421 -5.108 14 1 
325.333 1.20225 6.71881 0.000241426 0.000402239 6.71883 -4.96114 14 1 
326.667 1.20239 6.69437 0.000214323 0.000363314 6.69438 -4.71593 14 1 
328 1.20261 6.66786 0.000202055 0.000338698 6.66787 -4.32422 14 1 
329.333 1.20271 6.64163 0.00018968 0.000340771 6.64164 -4.13353 14 1 
330.667 1.20275 6.61976 0.000176844 0.000348678 6.61976 -4.06379 14 1 
332 1.20285 6.60444 0.000167246 0.000319383 6.60444 -3.88093 14 1 
333.333 1.20306 6.60109 0.000145353 0.000279092 6.60109 -3.50589 14 1 
334.667 1.20322 6.59174 0.00014371 0.000306267 6.59174 -3.22199 14 1 
336 1.20319 6.57161 0.000131621 0.000301129 6.57161 -3.26656 14 1 
337.333 1.20321 6.5606 9.60288e-05 0.000224456 6.5606 -3.22988 14 1 
338.667 1.20339 6.55797 9.29159e-05 0.000218135 6.55797 -2.91277 14 1 
340 1.20355 6.55759 0.000130501 0.000290016 6.55759 -2.62567 14 1 
341.333 1.20357 6.54923 0.000126372 0.000279609 6.54924 -2.58557 14 1 
341.333 1.20357 6.54923 0.000126372 0.000279609 6.54924 -2.58557 15 1 
342.667 1.20352 6.52755 7.03596e-05 0.000202061 6.52755 -2.67117 15 1 
344 1.20361 6.5179 7.08066e-05 0.000220908 6.5179 -2.50219 15 1 
345.333 1.20377 6.52034 0.000121629 0.000292291 6.52034 -2.22646 15 1 
346.667 1.20379 6.51236 0.000127075 0.000277911 6.51236 -2.19099 15 1 
348 1.20379 6.49702 8.36988e-05 0.000217767 6.49703 -2.18181 15 1 
349.333 1.20382 6.4795 6.78608e-05 0.000221395 6.47951 -2.13736 15 1 
350.667 1.20386 6.47044 0.000110928 0.000272337 6.47045 -2.05089 15 1 
352 1.20397 6.47039 0.000154412 0.000292097 6.47039 -1.85756 15 1 
353.333 1.20398 6.45866 0.000109546 0.000242663 6.45867 -1.84713 15 1 
354.667 1.20395 6.44874 5.86058e-05 0.000203221 6.44874 -1.89732 15 1 
356 1.20402 6.45344 9.81205e-05 0.000236559 6.45344 -1.76951 15 1 
357.333 1.20407 6.45284 0.000144024 0.000270902 6.45284 -1.68023 15 1 
358.667 1.2041 6.44383 0.000103777 0.00023289 6.44383 -1.62656 15 1 
360 1.20413 6.4324 4.83092e-05 0.000186088 6.4324 -1.57924 15 1 
361.333 1.20412 6.42527 5.61119e-05 0.000186819 6.42527 -1.58377 15 1 
362.667 1.20416 6.43161 9.51854e-05 0.000216311 6.43161 -1.5189 15 1 
362.667 1.20416 6.43161 9.51854e-05 0.000216311 6.43161 -1.5189 15 1 
364 1.20421 6.44027 8.69383e-05 0.000216271 6.44027 -1.42658 15 1 
365.333 1.20424 6.44256 1.98423e-05 0.000160906 6.44256 -1.37512 15 1 
366.667 1.20425 6.4404 -2.92891e-05 0.000109612 6.4404 -1.34799 15 1 
368 1.20427 6.43903 -4.11886e-05 9.21255e-05 6.43903 -1.30986 15 1 
369.333 1.20432 6.45348 -4.28239e-05 0.000101702 6.45349 -1.22999 15 1 
370.667 1.20434 6.47324 -2.90516e-05 0.000130698 6.47325 -1.19144 15 1 
372 1.20436 6.47485 1.70652e-05 0.000170945 6.47485 -1.15116 15 1 
373.333 1.2044 6.46401 7.48632e-05 0.000215766 6.46401 -1.07522 15 1 
374.667 1.20441 6.45372 0.000105497 0.000244774 6.45372 -1.05875 15 1 
376 1.20444 6.45636 0.000101489 0.000238987 6.45636 -1.01421 15 1 
377.333 1.20448 6.47123 0.000122189 0.000245843 6.47123 -0.940136 15 1 
378.667 1.20448 6.46926 0.000193139 0.00029818 6.46926 -0.93389 15 1 
380 1.2045 6.44026 0.000297329 0.000401016 6.44028 -0.91112 15 1 
381.333 1.20451 6.40292 0.000348541 0.000455033 6.40294 -0.888288 15 1 
382.667 1.2045 6.37328 0.000304431 0.000385763 6.37329 -0.89504 15 1 
384 1.20453 6.3626 0.000252434 0.000316787 6.3626 -0.841987 15 1 
384 1.20453 6.3626 0.000252434 0.000316787 6.3626 -0.841987 15 1 
385.333 1.20457 6.36521 0.000259007 0.000344788 6.36521 -0.777269 15 1 
386.667 1.20459 6.36353 0.000306045 0.000398405 6.36353 -0.737398 15 1 
388 1.20462 6.35062 0.000374714 0.000445986 6.35062 -0.680392 15 1 
389.333 1.20465 6.32631 0.00040089 0.000475225 6.32632 -0.637612 15 1 
390.667 1.20466 6.2965 0.00035189 0.000437673 6.29651 -0.605545 15 1 
392 1.20471 6.27042 0.000333601 0.000396936 6.27042 -0.52269 15 1 
393.333 1.20478 6.25664 0.000343941 0.000386719 6.25664 -0.389992 15 1 
394.667 1.20486 6.26401 0.000308458 0.000353229 6.26401 -0.248221 15 1 
396 1.20496 6.29552 0.000256714 0.000288844 6.29554 -0.0749058 15 1 
397.333 1.20508 6.35281 0.000242456 0.000261886 6.35286 0.141701 15 1 
398.667 1.2052 6.43685 0.000235559 0.000258385 6.43694 0.370427 15 1 
400 1.20535 6.54502 0.000220783 0.000231801 6.54516 0.638375 15 1 
401.333 1.20552 6.67648 0.000216998 0.000223287 6.67666 0.947616 15 1 
402.667 1.20569 6.82866 0.000212956 0.000235436 6.82889 1.24014 15 1 
404 1.20583 6.99627 0.000199768 0.00021225 6.99654 1.50669 15 1 
405.333 1.20597 7.17563 0.000223617 0.000221447 7.17593 1.74372 15 1 
405.333 1.20597 7.17563 0.000223617 0.000221447 7.17593 1.74372 15 1 
406.667 1.20608 7.36323 0.00028814 0.000305092 7.36354 1.95012 15 1 
408 1.20618 7.55506 0.000313094 0.00034308 7.55536 2.13571 15 1 
409.333 1.20625 7.74718 0.00032093 0.000327105 7.74747 2.26269 15 1 
410.667 1.20629 7.93555 0.000363284 0.000355156 7.93582 2.32906 15 1 
412 1.20632 8.11776 0.000416441 0.000439392 8.11801 2.38241 15 1 
413.333 1.20633 8.29239 0.000457952 0.000493767 8.29261 2.40283 15 1 
414.667 1.20631 8.45617 0.000471658 0.000473185 8.45635 2.36201 15 1 
416 1.20627 8.60781 0.000498168 0.000487163 8.60796 2.30147 15 1 
417.333 1.20623 8.74786 0.000567136 0.000587603 8.74798 2.22441 15 1 
418.667 1.20618 8.87556 0.000615904 0.000647513 8.87566 2.12394 15 1 
420 1.20613 8.99045 0.000636185 0.000634769 8.99053 2.03923 15 1 
421.333 1.20608 9.09237 0.000654325 0.000636028 9.09243 1.95048 15 1 
422.667 1.20602 9.18232 0.000674222 0.000691107 9.18237 1.83809 15 1 
424 1.20596 9.26153 0.000698693 0.000738035 9.26157 1.73272 15 1 
425.333 1.2059 9.33099 0.000722531 0.000732745 9.33102 1.63209 15 1 
426.667 1.20585 9.39158 0.000752252 0.000745079 9.39161 1.52886 15 1 
426.667 1.20585 9.39158 0.000752252 0.000745079 9.39161 1.52886 20 1 
428 1.2058 9.44499 0.000789254 0.000808235 9.44501 1.44227 20 1 
429.333 1.20576 9.49248 0.000795759 0.000830873 9.49249 1.36529 20 1 
430.667 1.20572 9.53392 0.000777772 0.00079369 9.53393 1.29596 20 1 
432 1.20567 9.57024 0.000794717 0.000795161 9.57025 1.21754 20 1 
433.333 1.20563 9.60379 0.000840512 0.000844838 9.60379 1.1422 20 1 
434.667 1.20561 9.63487 0.000881186 0.000894486 9.63488 1.10698 20 1 
436 1.20558 9.66212 0.00087888 0.000885364 9.66213 1.05544 20 1 
437.333 1.20554 9.68677 0.000854849 0.000842074 9.68678 0.971472 20 1 
438.667 1.20551 9.70904 0.000874308 0.000863203 9.70904 0.919669 20 1 
440 1.2055 9.72929 0.000925787 0.000938474 9.72929 0.895377 20 1 
441.333 1.20548 9.7488 0.00094023 0.000938133 9.7488 0.862004 20 1 
442.667 1.20547 9.76645 0.000917354 0.000887204 9.76645 0.842149 20 1 
444 1.20545 9.78176 0.000909118 0.000894864 9.78176 0.805562 20 1 
445.333 1.20541 9.79517 0.000936068 0.000933453 9.79517 0.738643 20 1 
446.667 1.20539 9.80835 0.000956294 0.00093031 9.80835 0.711035 20 1 
448 1.20539 9.82098 0.000962089 0.000922185 9.82098 0.701534 20 1 
448 1.20539 9.82098 0.000962089 0.000922185 9.82098 0.701534 20 1 
449.333 1.20538 9.83177 0.000962024 0.000941403 9.83177 0.692287 20 1 
450.667 1.20538 9.8411 0.000944935 0.000929986 9.8411 0.68701 20 1 
452 1.20535 9.84956 0.000947329 0.000909856 9.84956 0.632455 20 1 
453.333 1.20532 9.85767 0.000984182 0.00093915 9.85767 0.57408 20 1 
454.667 1.20532 9.86576 0.000980008 0.000944023 9.86576 0.579848 20 1 
456 1.20532 9.87362 0.000920083 0.000887854 9.87362 0.586714 20 1 
457.333 1.20531 9.87968 0.000905521 0.000874294 9.87968 0.564412 20 1 
458.667 1.2053 9.88508 0.000924197 0.00087265 9.88508 0.544566 20 1 
460 1.20529 9.8912 0.000921693 0.000864344 9.8912 0.515823 20 1 
461.333 1.20528 9.89725 0.000917109 0.00089269 9.89725 0.497776 20 1 
462.667 1.20527 9.90293 0.000912758 0.000878701 9.90293 0.484745 20 1 
464 1.20525 9.90754 0.000893102 0.000807164 9.90754 0.459782 20 1 
465.333 1.20526 9.91204 0.000875197 0.000797012 9.91204 0.471284 20 1 
466.667 1.20526 9.91694 0.000864821 0.00083057 9.91694 0.47391 20 1 
468 1.20524 9.92129 0.000863035 0.000806204 9.92129 0.435722 20 1 
469.333 1.20524 9.92618 0.000854316 0.000751709 9.92618 0.43916 20 1 
469.333 1.20524 9.92618 0.000854316 0.000751709 9.92618 0.43916 20 1 
470.667 1.20525 9.93011 0.000859662 0.000777527 9.93011 0.447008 20 1 
472 1.20522 9.93215 0.000865795 0.000810544 9.93215 0.399396 20 1 
473.333 1.20522 9.93648 0.000854217 0.000764274 9.93648 0.403937 20 1 
474.667 1.20524 9.94066 0.00084453 0.00073579 9.94066 0.429737 20 1 
476 1.20522 9.94334 0.000843798 0.000765388 9.94334 0.394411 20 1 
477.333 1.20521 9.94604 0.00083498 0.000765509 9.94604 0.379097 20 1 
478.667 1.20521 9.94781 0.000831421 0.000733253 9.94781 0.376748 20 1 
480 1.20521 9.95123 0.000844423 0.000725665 9.95123 0.371783 20 1 
481.333 1.20522 9.95438 0.000833622 0.000725037 9.95438 0.402671 20 1 
482.667 1.20523 9.95636 0.000808481 0.000709132 9.95636 0.414066 20 1 
484 1.2052 9.95839 0.000808019 0.000684699 9.95839 0.366064 20 1 
485.333 1.20518 9.95899 0.000853793 0.000708765 9.95899 0.32854 20 1 
486.667 1.20519 9.96141 0.000869072 0.000730457 9.96141 0.334512 20 1 
488 1.20518 9.96377 0.000858843 0.000716 9.96377 0.329602 20 1 
489.333 1.2052 9.96483 0.000836963 0.000679772 9.96483 0.353793 20 1 
490.667 1.20522 9.96801 0.000815804 0.000666712 9.96801 0.399121 20 1 
490.667 1.20522 9.96801 0.000815804 0.000666712 9.96801 0.399121 20 1 
492 1.2052 9.96856 0.000790809 0.000642427 9.96856 0.362581 20 1 
493.333 1.20518 9.96903 0.000786357 0.000617256 9.96903 0.32998 20 1 
494.667 1.20519 9.97185 0.00082399 0.000646807 9.97185 0.337364 20 1 
496 1.20517 9.97185 0.000858754 0.000683138 9.97185 0.307813 20 1 
497.333 1.20517 9.97349 0.000858876 0.000670515 9.97349 0.30294 20 1 
498.667 1.20518 9.97457 0.000846036 0.00063968 9.97457 0.316464 20 1 
500 1.20518 9.97568 0.000822155 0.00062102 9.97568 0.327995 20 1 
501.333 1.20519 9.97832 0.000774808 0.000574711 9.97832 0.343414 20 1 
502.667 1.20519 9.97828 0.000802192 0.000576647 9.97828 0.348901 20 1 
504 1.20519 9.97999 0.000825199 0.000592307 9.97999 0.346477 20 1 
505.333 1.20516 9.98007 0.000822823 0.000593643 9.98007 0.293977 20 1 
506.667 1.20515 9.97997 0.000821814 0.000575546 9.97997 0.276917 20 1 
508 1.20516 9.98232 0.000851503 0.000599549 9.98232 0.29059 20 1 
509.333 1.20516 9.98284 0.000848945 0.000598966 9.98284 0.295201 20 1 
510.667 1.2052 9.98497 0.000802343 0.000528113 9.98497 0.353772 20 1 
512 1.20519 9.98554 0.000797523 0.000511071 9.98554 0.349763 20 1 
512 1.20519 9.98554 0.000797523 0.000511071 9.98554 0.349763 21 1 
513.333 1.20517 9.98528 0.000809141 0.000537209 9.98528 0.310981 21 1 
514.667 1.20517 9.98698 0.000824914 0.000537513 9.98698 0.312196 21 1 
516 1.20515 9.98646 0.000832387 0.000513593 9.98646 0.273184 21 1 
517.333 1.20514 9.98749 0.000850384 0.0005358 9.98749 0.261041 21 1 
518.667 1.20517 9.98884 0.000827953 0.000524223 9.98884 0.307102 21 1 
520 1.2052 9.98952 0.00080887 0.000484524 9.98952 0.35448 21 1 
521.333 1.2052 9.99169 0.000820922 0.000469998 9.99169 0.364716 21 1 
522.667 1.20516 9.9901 0.000826008 0.000481338 9.9901 0.293239 21 1 
524 1.20515 9.99101 0.000815204 0.000479346 9.99101 0.271073 21 1 
525.333 1.20515 9.99184 0.000824718 0.000450241 9.99184 0.279091 21 1 
526.667 1.20516 9.99132 0.000868596 0.000475963 9.99132 0.286288 21 1 
528 1.2052 9.99456 0.00085011 0.00048587 9.99456 0.359938 21 1 
529.333 1.20519 9.99334 0.000798196 0.000422182 9.99334 0.34931 21 1 
530.667 1.20517 9.99498 0.000799045 0.000389865 9.99498 0.312914 21 1 
532 1.20516 9.99434 0.000827177 0.000418373 9.99434 0.28275 21 1 
533.333 1.20517 9.99425 0.000847611 0.000442647 9.99425 0.301143 21 1 
533.333 1.20517 9.99425 0.000847611 0.000442647 9.99425 0.301143 21 1 
534.667 1.20517 9.99665 0.000875436 0.000453544 9.99665 0.310423 21 1 
536 1.20515 9.99381 0.000862267 0.00042 9.99381 0.264575 21 1 
537.333 1.20521 9.99855 0.000812034 0.000372232 9.99855 0.375652 21 1 
538.667 1.20519 9.99679 0.000800561 0.000368017 9.99679 0.346487 21 1 
540 1.20515 9.99631 0.000835659 0.000380172 9.99631 0.266696 21 1 
541.333 1.20518 9.9991 0.000852134 0.000380735 9.9991 0.33257 21 1 
542.667 1.20517 9.99566 0.000841747 0.000376747 9.99566 0.314187 21 1 
544 1.20517 10.0004 0.000833024 0.000364211 10.0004 0.314132 21 1 
545.333 1.20517 9.99717 0.000837035 0.000358658 9.99717 0.303116 21 1 
546.667 1.20519 9.99909 0.000842071 0.00035189 9.99909 0.345922 21 1 
548 1.20518 10.0007 0.000837854 0.000343493 10.0007 0.321588 21 1 
549.333 1.20516 9.99662 0.000841574 0.000349966 9.99662 0.287732 21 1 
550.667 1.20521 10.0028 0.000827516 0.000329196 10.0028 0.379515 21 1 
552 1.20515 9.99764 0.00082367 0.000319452 9.99764 0.279169 21 1 
553.333 1.20517 10.0005 0.000825574 0.000315914 10.0005 0.312845 21 1 
554.667 1.20521 10.0021 0.000828963 0.000313097 10.0021 0.373098 21 1 
554.667 1.20521 10.0021 0.000828963 0.000313097 10.0021 0.373098 22 1 
556 1.20517 9.99833 0.000823686 0.000312115 9.99833 0.300537 22 1 
557.333 1.20519 10.0037 0.000825923 0.00030941 10.0037 0.337607 22 1 
558.667 1.20517 9.99864 0.000842987 0.000309048 9.99864 0.309225 22 1 
560 1.20519 10.002 0.000818997 0.000289551 10.002 0.336484 22 1 
561.333 1.20518 10.0018 0.000794813 0.000276904 10.0018 0.316223 22 1 
562.667 1.20519 9.99993 0.000816143 0.000284642 9.99993 0.342897 22 1 
564 1.20523 10.0053 0.000821168 0.000276618 10.0053 0.411384 22 1 
565.333 1.20514 9.99868 0.000801503 0.000264713 9.99868 0.248693 22 1 
566.667 1.20516 10.0031 0.000801584 0.00026754 10.0031 0.295656 22 1 
568 1.20522 10.0031 0.000799444 0.000259157 10.0031 0.390052 22 1 
569.333 1.20519 10.0013 0.000790429 0.000247202 10.0013 0.352048 22 1 
570.667 1.20518 10.0043 0.000790777 0.000249429 10.0043 0.330511 22 1 
572 1.20517 9.99957 0.000780536 0.000236022 9.99957 0.312104 22 1 
573.333 1.20521 10.0052 0.000775716 0.000226235 10.0052 0.385826 22 1 
574.667 1.20518 10.0024 0.000787926 0.000242415 10.0024 0.3194 22 1 
576 1.20518 10.0024 0.000784567 0.000244747 10.0024 0.316247 22 1 
576 1.20518 10.0024 0.000784567 0.000244747 10.0024 0.316247 22 1 
577.333 1.20521 10.0053 0.000753332 0.000210961 10.0053 0.374579 22 1 
578.667 1.20518 10.0002 0.000745919 0.000199424 10.0002 0.327 22 1 
580 1.20521 10.0062 0.000761461 0.000211666 10.0062 0.377693 22 1 
581.333 1.20518 10.0019 0.000742436 0.000193044 10.0019 0.323956 22 1 
582.667 1.2052 10.0038 0.00073534 0.000196265 10.0038 0.354068 22 1 
584 1.2052 10.0045 0.000754526 0.000219657 10.0045 0.361746 22 1 
585.333 1.20518 10.0011 0.000743026 0.000201255 10.0011 0.316794 22 1 
586.667 1.20521 10.0071 0.000714961 0.000169899 10.0071 0.387272 22 1 
588 1.20517 10.0016 0.000717778 0.000179633 10.0016 0.31556 22 1 
589.333 1.2052 10.0057 0.000725301 0.000192326 10.0057 0.368993 22 1 
590.667 1.20521 10.0039 0.00069683 0.000163873 10.0039 0.37443 22 1 
592 1.20519 10.0023 0.000678609 0.000147687 10.0023 0.340902 22 1 
593.333 1.2052 10.0066 0.000687383 0.000160586 10.0066 0.370079 22 1 
594.667 1.20519 10.002 0.000697424 0.000167628 10.002 0.342806 22 1 
596 1.20522 10.0071 0.000708777 0.000178446 10.0071 0.403984 22 1 
597.333 1.20516 10.0023 0.000664823 0.000143402 10.0023 0.296569 22 1 
597.333 1.20516 10.0023 0.000664823 0.000143402 10.0023 0.296569 24 1 
598.667 1.20519 10.0042 0.000634165 0.000116861 10.0042 0.336942 24 1 
600 1.20525 10.0068 0.000670834 0.000153637 10.0068 0.447641 24 1 
601.333 1.20521 10.0033 0.000685608 0.000172926 10.0033 0.379983 24 1 
602.667 1.20518 10.0066 0.000654319 0.00014163 10.0066 0.326281 24 1 
604 1.20516 10.0016 0.000615727 0.000104771 10.0016 0.290257 24 1 
605.333 1.20525 10.0072 0.000610932 0.000112162 10.0072 0.447832 24 1 
606.667 1.20522 10.0044 0.000625814 0.000130575 10.0044 0.399884 24 1 
608 1.20518 10.0047 0.00064053 0.00014033 10.0047 0.333263 24 1 
609.333 1.20521 10.007 0.000625371 0.00012974 10.007 0.387722 24 1 
610.667 1.20519 10.0027 0.000594325 0.000106164 10.0027 0.344015 24 1 
612 1.20519 10.0074 0.000592227 0.000109643 10.0074 0.349808 24 1 
613.333 1.2052 10.0031 0.000598703 0.000122956 10.0031 0.364647 24 1 
614.667 1.20527 10.0083 0.000599 0.000122479 10.0083 0.486977 24 1 
616 1.20519 10.0042 0.000574146 0.000101658 10.0042 0.34392 24 1 
617.333 1.20516 10.0038 0.000553578 9.01348e-05 10.0038 0.286791 24 1 
618.667 1.20523 10.0075 0.00055541 9.33113e-05 10.0075 0.418479 24 1 
618.667 1.20523 10.0075 0.00055541 9.33113e-05 10.0075 0.418479 24 1 
620 1.20523 10.0048 0.000554005 9.7624e-05 10.0048 0.417144 24 1 
621.333 1.20522 10.0088 0.000562422 0.000114319 10.0088 0.40537 24 1 
622.667 1.20517 10.0026 0.000552087 0.000104184 10.0026 0.314928 24 1 
624 1.20522 10.0074 0.000532429 8.80985e-05 10.0074 0.39674 24 1 
625.333 1.2052 10.0043 0.000521202 8.58549e-05 10.0043 0.369071 24 1 
626.667 1.20523 10.0069 0.000505867 7.28114e-05 10.0069 0.419798 24 1 
628 1.20523 10.0073 0.000512254 7.93845e-05 10.0073 0.423611 24 1 
629.333 1.20517 10.0042 0.000517967 9.4645e-05 10.0042 0.313815 24 1 
630.667 1.20519 10.0075 0.000498842 8.73322e-05 10.0075 0.35213 24 1 
632 1.20523 10.0045 0.000479858 6.82631e-05 10.0045 0.418583 24 1 
633.333 1.20527 10.0097 0.00048414 7.44225e-05 10.0097 0.487698 24 1 
634.667 1.20518 10.0039 0.000490229 8.88694e-05 10.0039 0.325276 24 1 
636 1.20521 10.0076 0.000468232 6.81846e-05 10.0076 0.370613 24 1 
637.333 1.20522 10.0054 0.000431874 4.38002e-05 10.0054 0.40182 24 1 
638.667 1.20521 10.0064 0.000414299 3.8238e-05 10.0064 0.385834 24 1 
640 1.20522 10.0074 0.000441319 5.44696e-05 10.0074 0.396707 24 1 
640 1.20522 10.0074 0.000441319 5.44696e-05 10.0074 0.396707 24 1 
641.333 1.20523 10.0059 0.000472261 8.96751e-05 10.0059 0.41708 24 1 
642.667 1.20522 10.0087 0.000464358 0.00010196 10.0087 0.404999 24 1 
644 1.20517 10.0036 0.000423545 6.22145e-05 10.0036 0.304211 24 1 
645.333 1.20526 10.0099 0.000371789 1.20515e-05 10.0099 0.464836 24 1 
646.667 1.20525 10.0051 0.000359631 9.73579e-06 10.0051 0.454815 24 1 
648 1.20522 10.0085 0.00038881 3.92881e-05 10.0085 0.389219 24 1 
649.333 1.20515 10.0034 0.000412298 6.85758e-05 10.0034 0.275978 24 1 
650.667 1.20526 10.0093 0.000397207 6.6899e-05 10.0093 0.464468 24 1 
652 1.20526 10.0068 0.000353107 2.55989e-05 10.0068 0.468072 24 1 
653.333 1.20521 10.0078 0.000343894 1.59786e-05 10.0078 0.383153 24 1 
654.667 1.20519 10.0061 0.000358452 3.98332e-05 10.0061 0.349822 24 1 
656 1.20523 10.0073 0.000353006 4.38809e-05 10.0073 0.408058 24 1 
657.333 1.20522 10.0073 0.000327637 1.95876e-05 10.0073 0.392749 24 1 
658.667 1.20523 10.0065 0.000289388 -1.13236e-05 10.0065 0.419341 24 1 
660 1.20528 10.0086 0.000293331 2.65137e-06 10.0086 0.505716 24 1 
661.333 1.20521 10.0059 0.000326828 3.5468e-05 10.0059 0.383897 24 1 
661.333 1.20521 10.0059 0.000326828 3.5468e-05 10.0059 0.383897 24 1 
662.667 1.20518 10.0075 0.000314747 2.4698e-05 10.0075 0.32339 24 1 
664 1.20522 10.007 0.000275792 -3.69105e-06 10.007 0.406131 24 1 
665.333 1.20527 10.0097 0.000255204 -1.80451e-05 10.0097 0.488718 24 1 
666.667 1.20519 10.0053 0.000263064 -4.12968e-06 10.0053 0.34849 24 1 
668 1.20521 10.0072 0.000269977 1.42299e-05 10.0072 0.385061 24 1 
669.333 1.20528 10.0073 0.000260286 4.18818e-08 10.0073 0.506668 24 1 
670.667 1.20525 10.0085 0.000230588 -2.91107e-05 10.0085 0.450764 24 1 
672 1.20515 10.0053 0.000193633 -4.88531e-05 10.0053 0.273279 24 1 
673.333 1.20524 10.0089 0.000207496 -3.12965e-05 10.0089 0.435204 24 1 
674.667 1.20531 10.0092 0.00023546 -3.84732e-06 10.0092 0.5646 24 1 
676 1.2052 10.0067 0.00023176 -3.72861e-07 10.0067 0.352771 24 1 
677.333 1.20513 10.0047 0.000208903 -2.28398e-05 10.0047 0.23036 24 1 
678.667 1.20531 10.0092 0.000163748 -6.54861e-05 10.0092 0.554328 24 1 
680 1.20534 10.0093 0.000136008 -8.03942e-05 10.0093 0.620701 24 1 
681.333 1.20514 10.0055 0.000153674 -5.5699e-05 10.0055 0.24912 24 1 
682.667 1.20512 10.0051 0.000184477 -2.57048e-05 10.0051 0.215126 24 1 
682.667 1.20512 10.0051 0.000184477 -2.57048e-05 10.0051 0.215126 31 1 
684 1.20534 10.0108 0.000180618 -2.61653e-05 10.0108 0.618289 31 1 
685.333 1.20533 10.0102 0.000152409 -4.88715e-05 10.0102 0.597184 31 1 
686.667 1.2051 10.0044 0.000135177 -6.67201e-05 10.0044 0.18892 31 1 
688 1.20515 10.0052 0.000112218 -8.19557e-05 10.0052 0.268155 31 1 
689.333 1.20539 10.0109 0.000101379 -8.16242e-05 10.0109 0.707177 31 1 
690.667 1.20532 10.0091 0.00010211 -7.90274e-05 10.0091 0.577843 31 1 
692 1.20508 10.0039 9.6589e-05 -8.62475e-05 10.0039 0.143275 31 1 
693.333 1.20517 10.0063 0.000111636 -6.51483e-05 10.0063 0.314673 31 1 
694.667 1.2054 10.0114 0.00013375 -3.89164e-05 10.0114 0.71879 31 1 
696 1.20528 10.0082 0.00012096 -4.90782e-05 10.0082 0.509843 31 1 
697.333 1.20511 10.0029 6.7184e-05 -9.27689e-05 10.0029 0.195783 31 1 
698.667 1.20527 10.0055 2.10979e-05 -0.000135372 10.0055 0.483037 31 1 
700 1.20543 10.0096 1.49534e-05 -0.000140476 10.0096 0.774085 31 1 
701.333 1.20527 10.0064 6.00574e-05 -9.36549e-05 10.0064 0.488744 31 1 
702.667 1.20513 10.004 0.000114264 -3.4925e-05 10.004 0.238224 31 1 
704 1.20527 10.0082 0.000107438 -3.78619e-05 10.0082 0.494951 31 1 
704 1.20527 10.0082 0.000107438 -3.78619e-05 10.0082 0.494951 31 1 
705.333 1.20536 10.0102 5.63146e-05 -8.3913e-05 10.0102 0.642899 31 1 
706.667 1.20519 10.0059 1.63878e-05 -0.000114665 10.0059 0.35192 31 1 
708 1.20517 10.0044 1.42321e-05 -0.000112569 10.0044 0.309685 31 1 
709.333 1.20538 10.0078 3.21337e-05 -9.50088e-05 10.0078 0.680506 31 1 
710.667 1.20539 10.0069 5.00828e-05 -7.4799e-05 10.0069 0.698625 31 1 
712 1.2052 10.0026 3.61097e-05 -8.41561e-05 10.0026 0.358865 31 1 
713.333 1.20522 10.005 -1.1169e-05 -0.000123954 10.005 0.405846 31 1 
714.667 1.20538 10.0113 -4.21304e-05 -0.000146329 10.0113 0.69253 31 1 
716 1.20528 10.0098 -5.25663e-05 -0.000151295 10.0098 0.504932 31 1 
717.333 1.20508 10.0036 -4.18543e-05 -0.000139293 10.0036 0.137279 31 1 
718.667 1.20522 10.0054 -2.32307e-05 -0.000122692 10.0054 0.389666 31 1 
720 1.20548 10.011 -2.89849e-05 -0.000125626 10.011 0.869283 31 1 
721.333 1.20533 10.0082 -5.08991e-05 -0.000141773 10.0082 0.603171 31 1 
722.667 1.20503 10.0028 -7.26511e-05 -0.000157552 10.0028 0.0468261 31 1 
724 1.20517 10.0065 -9.22504e-05 -0.000175647 10.0065 0.307075 31 1 
725.333 1.20549 10.0127 -0.000102214 -0.000188809 10.0127 0.877875 31 1 
725.333 1.20549 10.0127 -0.000102214 -0.000188809 10.0127 0.877875 31 1 
726.667 1.20534 10.0088 -9.60407e-05 -0.00018517 10.0088 0.618021 31 1 
728 1.20501 10.0022 -8.84269e-05 -0.000174852 10.0022 0.0233142 31 1 
729.333 1.20512 10.0071 -8.57218e-05 -0.000168092 10.0071 0.219708 31 1 
730.667 1.20545 10.0146 -9.07029e-05 -0.000169474 10.0146 0.810865 31 1 
732 1.20537 10.0096 -0.00011553 -0.000188708 10.0096 0.662408 31 1 
733.333 1.20505 10.0011 -0.000140118 -0.000208804 10.0011 0.08191 31 1 
734.667 1.20513 10.0052 -0.000139571 -0.000197205 10.0052 0.234966 31 1 
736 1.20546 10.0147 -0.000121139 -0.00017297 10.0147 0.824798 31 1 
737.333 1.20537 10.0112 -0.000109829 -0.000163568 10.0112 0.668983 31 1 
738.667 1.20503 10.001 -0.000124645 -0.000184543 10.001 0.0520332 31 1 
740 1.20509 10.0042 -0.000160167 -0.000227706 10.0042 0.154648 31 1 
741.333 1.20544 10.0153 -0.000180846 -0.000247292 10.0153 0.800568 31 1 
742.667 1.20543 10.0133 -0.00017499 -0.000235647 10.0133 0.775102 31 1 
744 1.20505 10.002 -0.00016252 -0.000216212 10.002 0.0947103 31 1 
745.333 1.20501 10.0023 -0.000145535 -0.000194841 10.0023 0.0159613 31 1 
746.667 1.20538 10.0135 -0.000150032 -0.000194674 10.0135 0.68839 31 1 
746.667 1.20538 10.0135 -0.000150032 -0.000194674 10.0135 0.68839 31 1 
748 1.20549 10.015 -0.000158085 -0.000201355 10.015 0.877194 31 1 
749.333 1.20512 10.0048 -0.000155318 -0.000196997 10.0048 0.225542 31 1 
750.667 1.20495 10.0022 -0.000159824 -0.000199446 10.0022 -0.084176 31 1 
752 1.20529 10.0114 -0.000148426 -0.000193921 10.0114 0.514855 31 1 
753.333 1.2055 10.015 -0.000147487 -0.000197172 10.015 0.905126 31 1 
754.667 1.2052 10.0069 -0.000165305 -0.000214503 10.0069 0.361792 31 1 
756 1.20495 10.0024 -0.000160096 -0.000202418 10.0024 -0.0814692 31 1 
757.333 1.20523 10.0092 -0.000154299 -0.00018691 10.0092 0.409166 31 1 
758.667 1.2055 10.0147 -0.000160847 -0.000192402 10.0147 0.904429 31 1 
760 1.20525 10.0096 -0.000158418 -0.000193355 10.0096 0.45986 31 1 
761.333 1.20495 10.003 -0.00018124 -0.000221963 10.003 -0.08207 31 1 
762.667 1.20516 10.0066 -0.000194652 -0.000238623 10.0066 0.294874 31 1 
764 1.20548 10.0146 -0.000172175 -0.00021046 10.0146 0.861346 31 1 
765.333 1.20533 10.0126 -0.000161359 -0.000193605 10.0126 0.599024 31 1 
766.667 1.20502 10.0033 -0.000154232 -0.000185537 10.0033 0.0323049 31 1 
768 1.20508 10.0035 -0.000168926 -0.00020038 10.0035 0.143023 31 1 
768 1.20508 10.0035 -0.000168926 -0.00020038 10.0035 0.143023 32 1 
769.333 1.20537 10.0134 -0.000187366 -0.000221334 10.0134 0.67288 32 1 
770.667 1.20541 10.0145 -0.000158485 -0.000192521 10.0145 0.733615 32 1 
772 1.20514 10.005 -0.000141048 -0.00017168 10.005 0.254709 32 1 
773.333 1.20501 10.0029 -0.000151262 -0.000185176 10.0029 0.0159308 32 1 
774.667 1.20525 10.0113 -0.000177131 -0.000208791 10.0113 0.458658 32 1 
776 1.20547 10.0147 -0.000208298 -0.000236206 10.0147 0.85498 32 1 
777.333 1.20524 10.0085 -0.000176809 -0.000204544 10.0085 0.438814 32 1 
778.667 1.20496 10.0035 -0.000148649 -0.000169642 10.0035 -0.0685527 32 1 
780 1.20516 10.0069 -0.000156643 -0.000176106 10.0069 0.289169 32 1 
781.333 1.20546 10.0138 -0.000169685 -0.000192919 10.0138 0.824086 32 1 
782.667 1.20532 10.0129 -0.000200182 -0.000223541 10.0129 0.584253 32 1 
784 1.20505 10.0044 -0.000198635 -0.000222989 10.0044 0.0868549 32 1 
785.333 1.20507 10.0034 -0.000162002 -0.000185664 10.0034 0.119262 32 1 
786.667 1.20531 10.0122 -0.000136199 -0.00015027 10.0122 0.551484 32 1 
788 1.20543 10.0147 -0.000154633 -0.000160767 10.0147 0.77484 32 1 
789.333 1.20522 10.0074 -0.000208683 -0.00021418 10.0074 0.397727 32 1 
790.667 1.20499 10.0031 -0.000224709 -0.000232 10.0031 -0.0235613 32 1 
792 1.20517 10.0076 -0.000189203 -0.000202967 10.0076 0.304629 32 1 
793.333 1.20544 10.0139 -0.000157205 -0.000176279 10.0139 0.793616 32 1 
794.667 1.20533 10.0128 -0.00016755 -0.000184047 10.0128 0.589934 32 1 
796 1.20509 10.0051 -0.000208921 -0.000219794 10.0051 0.157217 32 1 
797.333 1.20507 10.0036 -0.000239384 -0.000247659 10.0036 0.130439 32 1 
798.667 1.20527 10.011 -0.00023355 -0.000240934 10.011 0.47864 32 1 
800 1.2054 10.0156 -0.000219223 -0.000225654 10.0156 0.71802 32 1 
