48.905;r ;Density                 ;Velocity u              ;Velocity v              ;Velocity w              ;|Velocity|              ;Pressure                ;Distribution            ;Levels                  ;
0 1.20275 10.0007 6.47351e-05 0.000108295 10.0007 -4.07036 1 1 
1.33334 1.20274 10.0011 1.66758e-05 5.59951e-05 10.0011 -4.08919 1 1 
2.66666 1.20273 10.0016 -6.76487e-05 -3.65469e-05 10.0016 -4.09632 1 1 
4 1.20272 10.0015 -0.000141169 -0.000121317 10.0015 -4.11603 1 1 
5.33334 1.20272 10.0014 -0.000188235 -0.000146342 10.0014 -4.11223 1 1 
6.66666 1.20275 10.002 -0.00024948 -0.000175009 10.002 -4.07163 1 1 
8 1.20274 10.002 -0.000307987 -0.000226178 10.002 -4.08297 1 1 
9.33334 1.20278 10.0013 -0.000339521 -0.000229128 10.0013 -4.00099 1 1 
10.6667 1.20285 10.002 -0.000375322 -0.000213545 10.002 -3.8752 1 1 
12 1.20289 10.0025 -0.00041218 -0.000205269 10.0025 -3.80322 1 1 
13.3333 1.20298 10.0013 -0.000433555 -0.000171643 10.0013 -3.64784 1 1 
14.6667 1.20306 10.0009 -0.000417827 -9.38417e-05 10.001 -3.50992 1 1 
16 1.20312 10.0011 -0.000402935 9.11183e-07 10.0012 -3.39786 1 1 
17.3333 1.2032 10.001 -0.000384336 0.000104609 10.001 -3.25536 1 1 
18.6667 1.20326 10 -0.000361453 0.000208936 10.0001 -3.14595 1 1 
20 1.20332 9.99916 -0.000250026 0.000415376 9.99917 -3.0354 1 1 
21.3333 1.20337 9.99952 -0.000164499 0.000600369 9.99953 -2.94758 1 1 
21.3333 1.20337 9.99952 -0.000164499 0.000600369 9.99953 -2.94758 1 1 
22.6667 1.20338 9.99846 -6.70299e-05 0.000785695 9.99846 -2.91741 1 1 
24 1.2034 9.99704 8.25154e-05 0.00103962 9.99704 -2.89558 1 1 
25.3333 1.20341 9.99664 0.000188629 0.00124686 9.99665 -2.87524 1 1 
26.6667 1.20338 9.99586 0.000320164 0.00145814 9.99586 -2.92857 1 1 
28 1.20337 9.99411 0.00046501 0.00169942 9.99411 -2.95029 1 1 
29.3333 1.20335 9.9929 0.000622609 0.00194506 9.9929 -2.974 1 1 
30.6667 1.20328 9.99285 0.000763651 0.00215638 9.99285 -3.10461 1 1 
32 1.20323 9.99199 0.000916935 0.00238158 9.99199 -3.20262 1 1 
33.3333 1.20316 9.99025 0.00104484 0.00257589 9.99026 -3.31515 1 1 
34.6667 1.20308 9.98934 0.00118143 0.00277791 9.98936 -3.47022 1 1 
36 1.20302 9.98962 0.00128774 0.00292664 9.98963 -3.58504 1 1 
37.3333 1.20294 9.98841 0.00137516 0.00304228 9.98843 -3.7165 1 1 
38.6667 1.20287 9.98755 0.00148014 0.00319195 9.98756 -3.84914 1 1 
40 1.20281 9.98839 0.00155986 0.00330312 9.98841 -3.94743 1 1 
41.3333 1.20274 9.98781 0.00156641 0.00331971 9.98782 -4.07409 1 1 
42.6667 1.2027 9.98671 0.00159822 0.0033692 9.98672 -4.15843 1 1 
42.6667 1.2027 9.98671 0.00159822 0.0033692 9.98672 -4.15843 2 1 
44 1.20267 9.98674 0.00163459 0.00343107 9.98675 -4.21607 2 1 
45.3333 1.20261 9.98731 0.00159536 0.00338278 9.98732 -4.3247 2 1 
46.6667 1.20259 9.98683 0.00156526 0.00335512 9.98684 -4.35616 2 1 
48 1.20258 9.98651 0.00153882 0.00333836 9.98651 -4.371 2 1 
49.3333 1.20256 9.98706 0.00148053 0.00327595 9.98706 -4.40452 2 1 
50.6667 1.20257 9.9872 0.00142206 0.00322009 9.9872 -4.39682 2 1 
52 1.20258 9.98531 0.00132716 0.00312591 9.98531 -4.367 2 1 
53.3333 1.20262 9.98488 0.00129024 0.00312336 9.98488 -4.29669 2 1 
54.6667 1.20266 9.98672 0.00122546 0.00306952 9.98672 -4.22234 2 1 
56 1.2027 9.98581 0.0011241 0.00298123 9.98582 -4.15629 2 1 
57.3333 1.20277 9.98404 0.00110121 0.00300894 9.98405 -4.03228 2 1 
58.6667 1.20284 9.98451 0.00103684 0.00299933 9.98452 -3.90032 2 1 
60 1.2029 9.98472 0.000979307 0.00299345 9.98473 -3.79447 2 1 
61.3333 1.20299 9.98287 0.000951026 0.00303002 9.98288 -3.63566 2 1 
62.6667 1.20307 9.98211 0.000974505 0.00314897 9.98212 -3.48426 2 1 
64 1.20315 9.98198 0.000982551 0.00324294 9.98199 -3.3473 2 1 
64 1.20315 9.98198 0.000982551 0.00324294 9.98199 -3.3473 2 1 
65.3333 1.20322 9.98187 0.000997966 0.00334828 9.98189 -3.21083 2 1 
66.6667 1.2033 9.98018 0.00106209 0.00352153 9.98019 -3.06279 2 1 
68 1.20338 9.97961 0.00116123 0.00373409 9.97962 -2.93416 2 1 
69.3333 1.20345 9.97989 0.00123119 0.00389982 9.9799 -2.79931 2 1 
70.6667 1.20352 9.97802 0.00133021 0.00410378 9.97803 -2.68167 2 1 
72 1.20358 9.97695 0.00146116 0.0043762 9.97695 -2.56745 2 1 
73.3333 1.20366 9.97715 0.00158661 0.00461241 9.97715 -2.42516 2 1 
74.6667 1.20367 9.97699 0.00168671 0.00480984 9.97699 -2.39342 2 1 
76 1.20371 9.97508 0.00179743 0.00504768 9.97508 -2.33172 2 1 
77.3333 1.20374 9.97451 0.00194445 0.00531762 9.97451 -2.27892 2 1 
78.6667 1.20373 9.97527 0.00204792 0.00550607 9.97527 -2.29637 2 1 
80 1.20376 9.97382 0.00216157 0.00571528 9.97383 -2.2382 2 1 
81.3333 1.20375 9.97184 0.00228608 0.00596196 9.97184 -2.26125 2 1 
82.6667 1.20371 9.97177 0.00239639 0.0061771 9.97177 -2.3244 2 1 
84 1.20371 9.97193 0.00241217 0.0062444 9.97193 -2.3288 2 1 
85.3333 1.20366 9.97104 0.00246967 0.00637519 9.97104 -2.42732 2 1 
85.3333 1.20366 9.97104 0.00246967 0.00637519 9.97104 -2.42732 3 1 
86.6667 1.20362 9.97008 0.002563 0.00658271 9.97009 -2.49613 3 1 
88 1.20361 9.97055 0.00253792 0.00660178 9.97056 -2.51305 3 1 
89.3333 1.20356 9.97011 0.00254664 0.00663069 9.97012 -2.60168 3 1 
90.6667 1.2035 9.96867 0.00260267 0.00675917 9.96868 -2.70503 3 1 
92 1.20345 9.96836 0.00258202 0.00679978 9.96836 -2.79544 3 1 
93.3333 1.20339 9.96864 0.00251768 0.00675106 9.96864 -2.90355 3 1 
94.6667 1.20335 9.96814 0.00246342 0.00672148 9.96815 -2.97904 3 1 
96 1.20334 9.96671 0.00244172 0.0067557 9.96671 -2.98982 3 1 
97.3333 1.20332 9.96727 0.00238389 0.00671285 9.96728 -3.03234 3 1 
98.6667 1.20329 9.96786 0.00224426 0.00657801 9.96786 -3.08659 3 1 
100 1.20327 9.96645 0.0022323 0.00659206 9.96646 -3.13299 3 1 
101.333 1.20326 9.966 0.0021575 0.00656273 9.966 -3.14918 3 1 
102.667 1.20328 9.96657 0.00203643 0.00646158 9.96657 -3.10811 3 1 
104 1.20329 9.96695 0.00202445 0.00645435 9.96696 -3.0871 3 1 
105.333 1.20333 9.96629 0.00198445 0.00648907 9.96629 -3.00924 3 1 
106.667 1.20337 9.9666 0.0019023 0.00643611 9.9666 -2.94487 3 1 
106.667 1.20337 9.9666 0.0019023 0.00643611 9.9666 -2.94487 3 1 
108 1.20338 9.96681 0.00179886 0.00635492 9.96682 -2.92557 3 1 
109.333 1.20344 9.96519 0.00176377 0.00639008 9.96519 -2.81164 3 1 
110.667 1.20351 9.96391 0.0017193 0.00642252 9.96391 -2.68959 3 1 
112 1.20355 9.96475 0.00170837 0.00645273 9.96475 -2.62401 3 1 
113.333 1.20362 9.96536 0.00167992 0.00647631 9.96537 -2.48379 3 1 
114.667 1.20368 9.96493 0.00169783 0.006591 9.96494 -2.38931 3 1 
116 1.20372 9.96499 0.00176584 0.00672736 9.96499 -2.30459 3 1 
117.333 1.20383 9.96381 0.00175343 0.00677749 9.96381 -2.11235 3 1 
118.667 1.20385 9.96378 0.00179635 0.00689996 9.96378 -2.08599 3 1 
120 1.20389 9.96207 0.00185848 0.00708658 9.96208 -2.00406 3 1 
121.333 1.20396 9.96114 0.00190254 0.00722151 9.96114 -1.88394 3 1 
122.667 1.20397 9.96254 0.00197885 0.00734853 9.96254 -1.85356 3 1 
124 1.20403 9.96135 0.0020771 0.00755647 9.96136 -1.74986 3 1 
125.333 1.20404 9.96126 0.0021785 0.00778365 9.96126 -1.73007 3 1 
126.667 1.20405 9.96099 0.00225593 0.00792105 9.961 -1.70733 3 1 
128 1.20407 9.96041 0.00236228 0.00809151 9.96041 -1.6835 3 1 
128 1.20407 9.96041 0.00236228 0.00809151 9.96041 -1.6835 3 1 
129.333 1.20407 9.95904 0.0024209 0.00828094 9.95904 -1.67656 3 1 
130.667 1.20408 9.95801 0.00252125 0.0084747 9.95802 -1.66492 3 1 
132 1.20407 9.9595 0.00262115 0.00863946 9.95951 -1.68726 3 1 
133.333 1.20406 9.95941 0.00270712 0.0088192 9.95942 -1.70143 3 1 
134.667 1.20404 9.95851 0.00273027 0.00895798 9.95851 -1.7353 3 1 
136 1.20404 9.95751 0.00276358 0.0090578 9.95751 -1.73293 3 1 
137.333 1.20402 9.95736 0.00290392 0.0092638 9.95737 -1.76517 3 1 
138.667 1.204 9.9573 0.00300482 0.00944664 9.95731 -1.8071 3 1 
140 1.20398 9.95725 0.00301885 0.0095488 9.95726 -1.83378 3 1 
141.333 1.20397 9.9575 0.00304798 0.00962558 9.9575 -1.85456 3 1 
142.667 1.20398 9.95739 0.00315689 0.00977056 9.95739 -1.85027 3 1 
144 1.20396 9.95675 0.0031205 0.00982663 9.95675 -1.8734 3 1 
145.333 1.20396 9.95547 0.00305854 0.00981959 9.95547 -1.87699 3 1 
146.667 1.20398 9.95619 0.00306788 0.00988537 9.9562 -1.85092 3 1 
148 1.20397 9.95672 0.00310675 0.00997985 9.95673 -1.85292 3 1 
149.333 1.20397 9.95565 0.00303678 0.00998173 9.95566 -1.85425 3 1 
149.333 1.20397 9.95565 0.00303678 0.00998173 9.95566 -1.85425 3 1 
150.667 1.20399 9.95542 0.00299311 0.00998573 9.95543 -1.81717 3 1 
152 1.20401 9.95571 0.0030432 0.0100812 9.95572 -1.79146 3 1 
153.333 1.20402 9.95533 0.0030721 0.0101499 9.95534 -1.76897 3 1 
154.667 1.20404 9.95464 0.00299529 0.0101262 9.95465 -1.72574 3 1 
156 1.20408 9.95472 0.00297538 0.0101583 9.95473 -1.66965 3 1 
157.333 1.20409 9.95532 0.00302066 0.0102342 9.95532 -1.6397 3 1 
158.667 1.20411 9.9544 0.00298069 0.0102516 9.9544 -1.59904 3 1 
160 1.20415 9.9531 0.00296187 0.0102957 9.9531 -1.53605 3 1 
161.333 1.20415 9.95385 0.00297119 0.0103582 9.95386 -1.52773 3 1 
162.667 1.20418 9.95322 0.00303191 0.0104489 9.95323 -1.48984 3 1 
164 1.20421 9.95133 0.00303489 0.0105067 9.95134 -1.43093 3 1 
165.333 1.20422 9.95241 0.00301718 0.010568 9.95242 -1.40549 3 1 
166.667 1.20426 9.95246 0.00307762 0.0106873 9.95246 -1.3298 3 1 
168 1.20426 9.95129 0.00310601 0.0107593 9.95129 -1.33674 3 1 
169.333 1.20427 9.9507 0.00310455 0.0108492 9.9507 -1.32339 3 1 
170.667 1.20432 9.95125 0.00316664 0.0109976 9.95126 -1.23094 3 1 
170.667 1.20432 9.95125 0.00316664 0.0109976 9.95126 -1.23094 11 1 
172 1.20431 9.95208 0.0032466 0.0111328 9.95209 -1.24155 11 1 
173.333 1.20432 9.94989 0.00330912 0.0112724 9.94989 -1.22023 11 1 
174.667 1.20435 9.94932 0.00330686 0.0113857 9.94932 -1.16966 11 1 
176 1.20436 9.94942 0.00334465 0.0115011 9.94943 -1.15792 11 1 
177.333 1.20436 9.94827 0.00341992 0.0116299 9.94828 -1.14743 11 1 
178.667 1.20439 9.94731 0.00342746 0.0117211 9.94732 -1.10927 11 1 
180 1.20441 9.94739 0.00346044 0.0118546 9.9474 -1.07281 11 1 
181.333 1.20441 9.94915 0.00353715 0.0119874 9.94916 -1.07276 11 1 
182.667 1.20442 9.94856 0.00362288 0.0121478 9.94857 -1.04832 11 1 
184 1.20445 9.94655 0.00361903 0.0122455 9.94656 -0.995992 11 1 
185.333 1.20444 9.94612 0.00362518 0.0123005 9.94613 -1.00758 11 1 
186.667 1.20444 9.94433 0.00365922 0.0123892 9.94434 -1.003 11 1 
188 1.20447 9.9433 0.00366428 0.0124828 9.94331 -0.951253 11 1 
189.333 1.20448 9.94557 0.00368543 0.0125842 9.94558 -0.944129 11 1 
190.667 1.2045 9.94571 0.00371654 0.01265 9.94572 -0.903797 11 1 
192 1.20451 9.94382 0.00378832 0.0128129 9.94383 -0.882824 11 1 
192 1.20451 9.94382 0.00378832 0.0128129 9.94383 -0.882824 11 1 
193.333 1.20451 9.94279 0.00378801 0.0128621 9.9428 -0.889848 11 1 
194.667 1.20452 9.94129 0.00369427 0.0128401 9.9413 -0.871776 11 1 
196 1.20452 9.94041 0.00380829 0.0130239 9.94042 -0.861883 11 1 
197.333 1.20454 9.94103 0.00387375 0.013145 9.94104 -0.837571 11 1 
198.667 1.20457 9.9402 0.00372331 0.0130833 9.94021 -0.778031 11 1 
200 1.20458 9.93976 0.00387242 0.013293 9.93977 -0.759168 11 1 
201.333 1.20456 9.93841 0.00389703 0.0134009 9.93843 -0.787133 11 1 
202.667 1.20459 9.93385 0.00371746 0.0132659 9.93386 -0.743508 11 1 
204 1.20459 9.93379 0.00380542 0.0134409 9.93379 -0.73996 11 1 
205.333 1.2046 9.93607 0.00384422 0.0135432 9.93608 -0.725263 11 1 
206.667 1.20466 9.93555 0.00388797 0.0136546 9.93556 -0.615723 11 1 
208 1.20465 9.93603 0.00395074 0.0137866 9.93604 -0.638841 11 1 
209.333 1.20465 9.93426 0.00389845 0.0138114 9.93427 -0.629181 11 1 
210.667 1.20469 9.9299 0.00398075 0.0139708 9.92992 -0.557939 11 1 
212 1.20468 9.92706 0.00394136 0.0139611 9.92707 -0.569728 11 1 
213.333 1.2047 9.92541 0.00388519 0.0140066 9.92542 -0.533493 11 1 
213.333 1.2047 9.92541 0.00388519 0.0140066 9.92542 -0.533493 11 1 
214.667 1.20474 9.92522 0.00399722 0.0142235 9.92523 -0.461408 11 1 
216 1.20476 9.92607 0.00405701 0.0143748 9.92609 -0.436393 11 1 
217.333 1.20477 9.9266 0.0040313 0.0143862 9.92661 -0.414538 11 1 
218.667 1.20483 9.92487 0.00405023 0.0145025 9.92488 -0.315186 11 1 
220 1.20484 9.92214 0.00417363 0.0147273 9.92216 -0.289761 11 1 
221.333 1.20484 9.91797 0.00418984 0.0147625 9.91798 -0.297429 11 1 
222.667 1.20486 9.91286 0.00410479 0.0147473 9.91287 -0.247836 11 1 
224 1.20487 9.91234 0.00414101 0.0149134 9.91236 -0.235129 11 1 
225.333 1.20492 9.91209 0.00419008 0.015045 9.9121 -0.149305 11 1 
226.667 1.20497 9.91058 0.0042127 0.0150875 9.91059 -0.0585615 11 1 
228 1.20497 9.91032 0.00430238 0.0152674 9.91034 -0.0549655 11 1 
229.333 1.205 9.90501 0.00437949 0.0154849 9.90502 -0.00132717 11 1 
230.667 1.20502 9.8993 0.00425965 0.015434 9.89931 0.0359064 11 1 
232 1.205 9.89663 0.00418008 0.0153709 9.89664 0.00767256 11 1 
233.333 1.20506 9.89411 0.00432299 0.0156033 9.89412 0.103275 11 1 
234.667 1.20514 9.89263 0.00448001 0.0158656 9.89264 0.255862 11 1 
234.667 1.20514 9.89263 0.00448001 0.0158656 9.89264 0.255862 11 1 
236 1.20511 9.89056 0.0044114 0.0158895 9.89057 0.200005 11 1 
237.333 1.20514 9.88414 0.00433522 0.015852 9.88415 0.256325 11 1 
238.667 1.2052 9.87775 0.00433567 0.0159214 9.87777 0.365432 11 1 
240 1.20518 9.87508 0.00428632 0.0159753 9.87509 0.332895 11 1 
241.333 1.20527 9.86975 0.00431583 0.0160727 9.86976 0.488978 11 1 
242.667 1.20529 9.86835 0.00443718 0.0162654 9.86836 0.531917 11 1 
244 1.20535 9.86229 0.00444737 0.0163621 9.86231 0.628604 11 1 
245.333 1.20537 9.85424 0.00423529 0.0162376 9.85426 0.666409 11 1 
246.667 1.20539 9.84821 0.00430796 0.0164115 9.84823 0.695531 11 1 
248 1.2055 9.8406 0.00429738 0.0164559 9.84062 0.904341 11 1 
249.333 1.20551 9.8371 0.00439883 0.0166436 9.83711 0.922842 11 1 
250.667 1.20557 9.82879 0.00434871 0.0166885 9.8288 1.03364 11 1 
252 1.20561 9.82141 0.00414087 0.0165395 9.82143 1.10678 11 1 
253.333 1.20573 9.80991 0.00432497 0.0168446 9.80992 1.3174 11 1 
254.667 1.20577 9.80216 0.00426834 0.0168569 9.80217 1.38845 11 1 
256 1.2058 9.79371 0.00417624 0.0168251 9.79373 1.4451 11 1 
256 1.2058 9.79371 0.00417624 0.0168251 9.79373 1.4451 13 1 
257.333 1.20595 9.78083 0.00432443 0.0170727 9.78085 1.71748 13 1 
258.667 1.20597 9.7717 0.00417851 0.0170191 9.77171 1.75946 13 1 
260 1.20605 9.75811 0.00404944 0.0169392 9.75813 1.89186 13 1 
261.333 1.2062 9.74243 0.00418725 0.0171133 9.74245 2.17292 13 1 
262.667 1.20631 9.72688 0.00423224 0.0172971 9.72689 2.366 13 1 
264 1.20631 9.7166 0.00413132 0.0172738 9.71661 2.37257 13 1 
265.333 1.20649 9.69878 0.00399955 0.0171743 9.6988 2.69263 13 1 
266.667 1.20673 9.6731 0.00407524 0.0173854 9.67312 3.13175 13 1 
268 1.20667 9.65727 0.00409262 0.0175136 9.65729 3.02157 13 1 
269.333 1.20686 9.6348 0.00400571 0.0174451 9.63481 3.35664 13 1 
270.667 1.20725 9.60241 0.00391398 0.0174306 9.60243 4.06001 13 1 
272 1.2071 9.58936 0.00395968 0.0175944 9.58938 3.78409 13 1 
273.333 1.20737 9.55706 0.00393459 0.0176014 9.55709 4.27539 13 1 
274.667 1.20789 9.5131 0.00375178 0.0174545 9.51313 5.22074 13 1 
276 1.20775 9.48996 0.00372578 0.0175029 9.49 4.96038 13 1 
277.333 1.20806 9.4424 0.00375999 0.0176081 9.44243 5.52112 13 1 
277.333 1.20806 9.4424 0.00375999 0.0176081 9.44243 5.52112 13 1 
278.667 1.20854 9.39606 0.00367366 0.0175464 9.3961 6.39242 13 1 
280 1.20864 9.35293 0.00356864 0.0175266 9.35297 6.58214 13 1 
281.333 1.20895 9.29255 0.00356125 0.0176506 9.29258 7.1359 13 1 
282.667 1.20934 9.24508 0.00350446 0.0176697 9.2451 7.83338 13 1 
284 1.20985 9.19701 0.00338578 0.0175905 9.19704 8.76884 13 1 
285.333 1.21038 9.13376 0.00334308 0.0175787 9.13383 9.72605 13 1 
286.667 1.21066 9.04526 0.00331758 0.0175117 9.04546 10.218 13 1 
288 1.21097 8.93824 0.00321967 0.0174032 8.93841 10.78 13 1 
289.333 1.21157 8.85219 0.00316165 0.0174738 8.85224 11.8613 13 1 
290.667 1.2124 8.77184 0.00316892 0.0175712 8.77188 13.3615 13 1 
292 1.21302 8.67351 0.00308621 0.0174585 8.67357 14.4858 13 1 
293.333 1.21337 8.57067 0.00300034 0.0173872 8.5708 15.1252 13 1 
294.667 1.21404 8.44658 0.0030052 0.0174172 8.4468 16.3233 13 1 
296 1.21489 8.31798 0.00292318 0.0173927 8.31815 17.8566 13 1 
297.333 1.2154 8.20618 0.0028662 0.0172955 8.20626 18.7901 13 1 
298.667 1.20946 8.02529 0.00278095 0.0169874 8.02546 8.04754 13 1 
298.667 1.20946 8.02529 0.00278095 0.0169874 8.02546 8.04754 14 1 
300 1.19941 7.97034 0.00261304 0.0169162 7.97046 -10.1056 14 1 
301.333 1.19576 7.98337 0.00253023 0.0169372 7.98347 -16.6831 14 1 
302.667 1.19657 7.87324 0.00237476 0.016763 7.87336 -15.228 14 1 
304 1.19723 7.75393 0.00222588 0.0166534 7.75406 -14.0432 14 1 
305.333 1.19765 7.63565 0.00212467 0.0165228 7.63589 -13.2737 14 1 
306.667 1.19816 7.53153 0.00192281 0.0162979 7.53172 -12.3523 14 1 
308 1.19858 7.42334 0.00180468 0.016209 7.42342 -11.5889 14 1 
309.333 1.19901 7.33239 0.00169331 0.0162154 7.33246 -10.8131 14 1 
310.667 1.19951 7.25687 0.00155074 0.0161812 7.25692 -9.911 14 1 
312 1.19993 7.17868 0.00145997 0.0161212 7.17872 -9.16279 14 1 
313.333 1.20028 7.11476 0.00132341 0.0159748 7.11478 -8.52294 14 1 
314.667 1.20063 7.05159 0.00117121 0.015886 7.05164 -7.89071 14 1 
316 1.20086 6.98095 0.00104296 0.0157811 6.98102 -7.47801 14 1 
317.333 1.2011 6.92322 0.000919495 0.015591 6.92328 -7.04904 14 1 
318.667 1.20145 6.87388 0.000744471 0.0153922 6.87392 -6.41372 14 1 
320 1.20166 6.81878 0.000611218 0.0153348 6.81884 -6.03421 14 1 
320 1.20166 6.81878 0.000611218 0.0153348 6.81884 -6.03421 14 1 
321.333 1.20173 6.76498 0.00047811 0.0152774 6.76504 -5.91327 14 1 
322.667 1.20193 6.71871 0.000285515 0.015118 6.71878 -5.54409 14 1 
324 1.20216 6.67287 0.000190992 0.0150846 6.67292 -5.12973 14 1 
325.333 1.20224 6.63331 7.48905e-05 0.0151558 6.63334 -4.99403 14 1 
326.667 1.20236 6.6042 -0.000132786 0.0151421 6.60423 -4.7627 14 1 
328 1.20257 6.57376 -0.000202802 0.0152014 6.57379 -4.38973 14 1 
329.333 1.20267 6.54344 -0.000234921 0.0153356 6.54346 -4.20166 14 1 
330.667 1.20272 6.51669 -0.000451474 0.0153181 6.51671 -4.11182 14 1 
332 1.20282 6.49658 -0.00065878 0.0152747 6.4966 -3.93126 14 1 
333.333 1.20302 6.48843 -0.00073903 0.0153544 6.48845 -3.58403 14 1 
334.667 1.20317 6.47341 -0.000912897 0.0153492 6.47343 -3.31395 14 1 
336 1.20314 6.44806 -0.00118495 0.0151702 6.44807 -3.36532 14 1 
337.333 1.20316 6.43303 -0.00132722 0.0150689 6.43305 -3.33164 14 1 
338.667 1.20334 6.42544 -0.001398 0.0150783 6.42546 -3.00509 14 1 
340 1.20349 6.41847 -0.00154397 0.0150241 6.41849 -2.72938 14 1 
341.333 1.2035 6.40421 -0.00166935 0.0149537 6.40423 -2.70663 14 1 
341.333 1.2035 6.40421 -0.00166935 0.0149537 6.40423 -2.70663 15 1 
342.667 1.20346 6.37834 -0.00172815 0.0149608 6.37836 -2.78416 15 1 
344 1.20355 6.36475 -0.00187397 0.0148984 6.36477 -2.61668 15 1 
345.333 1.2037 6.3619 -0.0021195 0.0146877 6.36192 -2.35283 15 1 
346.667 1.20372 6.34759 -0.00227673 0.0145238 6.34761 -2.31089 15 1 
348 1.20372 6.32596 -0.00229849 0.0145125 6.32598 -2.30434 15 1 
349.333 1.20374 6.30304 -0.00230905 0.0145927 6.30307 -2.28282 15 1 
350.667 1.20378 6.29034 -0.00230033 0.0147082 6.29037 -2.21057 15 1 
352 1.20388 6.2862 -0.0022248 0.0148268 6.28622 -2.02368 15 1 
353.333 1.20389 6.26522 -0.00226573 0.0148765 6.26524 -2.00505 15 1 
354.667 1.20387 6.24121 -0.00260821 0.0146935 6.24124 -2.04149 15 1 
356 1.20393 6.23155 -0.00314331 0.014276 6.23158 -1.93294 15 1 
357.333 1.20396 6.22003 -0.00359781 0.0139046 6.22006 -1.87286 15 1 
358.667 1.20398 6.20666 -0.00375699 0.013899 6.20668 -1.8368 15 1 
360 1.204 6.19283 -0.00360937 0.0142415 6.19285 -1.80425 15 1 
361.333 1.204 6.17638 -0.00333635 0.0146953 6.1764 -1.80735 15 1 
362.667 1.20403 6.1676 -0.00317057 0.0150348 6.16763 -1.74666 15 1 
362.667 1.20403 6.1676 -0.00317057 0.0150348 6.16763 -1.74666 15 1 
364 1.20406 6.16096 -0.00322659 0.015185 6.16098 -1.69023 15 1 
365.333 1.20408 6.15123 -0.00341472 0.0151928 6.15125 -1.66511 15 1 
366.667 1.20409 6.14267 -0.00356593 0.0152034 6.14269 -1.63701 15 1 
368 1.2041 6.13356 -0.00365187 0.0153039 6.13358 -1.6179 15 1 
369.333 1.20413 6.12872 -0.00375028 0.015445 6.12874 -1.56958 15 1 
370.667 1.20414 6.12602 -0.00388861 0.015528 6.12604 -1.55435 15 1 
372 1.20414 6.12014 -0.004023 0.0155604 6.12016 -1.54873 15 1 
373.333 1.20418 6.11726 -0.00410647 0.0156385 6.11729 -1.48991 15 1 
374.667 1.20418 6.1143 -0.00415409 0.0158037 6.11432 -1.48208 15 1 
376 1.20418 6.11114 -0.00421261 0.0159474 6.11116 -1.47874 15 1 
377.333 1.20421 6.1129 -0.00429322 0.0160183 6.11292 -1.43466 15 1 
378.667 1.20421 6.11191 -0.00437275 0.0160785 6.11193 -1.42276 15 1 
380 1.20423 6.1098 -0.0044293 0.0161918 6.10982 -1.3857 15 1 
381.333 1.20425 6.11137 -0.00449147 0.016306 6.1114 -1.34919 15 1 
382.667 1.20425 6.11091 -0.00459147 0.0163497 6.11094 -1.3609 15 1 
384 1.20425 6.11129 -0.00468349 0.0163761 6.11131 -1.34789 15 1 
384 1.20425 6.11129 -0.00468349 0.0163761 6.11131 -1.34789 15 1 
385.333 1.20426 6.11306 -0.00474549 0.0164714 6.11308 -1.33855 15 1 
386.667 1.20426 6.11181 -0.00479496 0.0165828 6.11184 -1.3395 15 1 
388 1.20428 6.11219 -0.00483234 0.0166615 6.11222 -1.29855 15 1 
389.333 1.2043 6.11391 -0.00490475 0.0166978 6.11394 -1.26888 15 1 
390.667 1.20429 6.11387 -0.00502325 0.0167018 6.1139 -1.2744 15 1 
392 1.20429 6.11403 -0.00509594 0.0167488 6.11405 -1.27809 15 1 
393.333 1.20429 6.11306 -0.00512392 0.0168328 6.11308 -1.27464 15 1 
394.667 1.2043 6.11193 -0.0051807 0.0168612 6.11196 -1.26698 15 1 
396 1.20431 6.11228 -0.00525506 0.0168595 6.1123 -1.25475 15 1 
397.333 1.20431 6.11132 -0.00532057 0.0168964 6.11135 -1.24447 15 1 
398.667 1.2043 6.10958 -0.00539561 0.0169451 6.1096 -1.2557 15 1 
400 1.20429 6.10753 -0.00546933 0.0169639 6.10756 -1.27779 15 1 
401.333 1.2043 6.10517 -0.00550921 0.0170052 6.10519 -1.2637 15 1 
402.667 1.20431 6.10429 -0.00554407 0.0170844 6.10432 -1.23811 15 1 
404 1.20431 6.10221 -0.00562216 0.0171187 6.10224 -1.25536 15 1 
405.333 1.20429 6.09825 -0.00570495 0.0171467 6.09827 -1.28233 15 1 
405.333 1.20429 6.09825 -0.00570495 0.0171467 6.09827 -1.28233 15 1 
406.667 1.20429 6.09585 -0.00577205 0.017216 6.09588 -1.27886 15 1 
408 1.2043 6.09358 -0.00587551 0.017246 6.09361 -1.26385 15 1 
409.333 1.2043 6.09041 -0.00599097 0.0172299 6.09044 -1.26334 15 1 
410.667 1.20429 6.08726 -0.00605293 0.0172832 6.08729 -1.28295 15 1 
412 1.20428 6.08352 -0.00607845 0.0174269 6.08355 -1.30079 15 1 
413.333 1.20428 6.08045 -0.00614004 0.0175197 6.08048 -1.3035 15 1 
414.667 1.20427 6.07726 -0.0062649 0.0174873 6.07729 -1.3108 15 1 
416 1.20427 6.07279 -0.00638382 0.0174852 6.07282 -1.31832 15 1 
417.333 1.20427 6.06974 -0.00644555 0.0175827 6.06977 -1.31515 15 1 
418.667 1.20426 6.06686 -0.00650231 0.0176672 6.06689 -1.32764 15 1 
420 1.20425 6.06219 -0.00659473 0.0177063 6.06222 -1.35311 15 1 
421.333 1.20425 6.05827 -0.00671128 0.017741 6.0583 -1.36141 15 1 
422.667 1.20425 6.055 -0.00682574 0.0177647 6.05503 -1.35959 15 1 
424 1.20424 6.05148 -0.00691761 0.0178045 6.05151 -1.36984 15 1 
425.333 1.20423 6.04795 -0.00699849 0.0179034 6.04798 -1.39677 15 1 
426.667 1.20421 6.04362 -0.00707181 0.0180252 6.04365 -1.42822 15 1 
426.667 1.20421 6.04362 -0.00707181 0.0180252 6.04365 -1.42822 20 1 
428 1.2042 6.04001 -0.00714394 0.0180915 6.04004 -1.44376 20 1 
429.333 1.2042 6.03756 -0.0072502 0.0181257 6.03759 -1.43755 20 1 
430.667 1.20421 6.03454 -0.00738051 0.018191 6.03458 -1.42941 20 1 
432 1.2042 6.03147 -0.00750412 0.0182705 6.03151 -1.44561 20 1 
433.333 1.20418 6.02839 -0.00760387 0.018349 6.02843 -1.48052 20 1 
434.667 1.20417 6.02533 -0.00768336 0.0184455 6.02536 -1.50512 20 1 
436 1.20416 6.02313 -0.00778466 0.0185209 6.02317 -1.51732 20 1 
437.333 1.20415 6.02085 -0.00790725 0.0185797 6.02088 -1.52659 20 1 
438.667 1.20415 6.01868 -0.00800483 0.0186798 6.01871 -1.53233 20 1 
440 1.20414 6.01699 -0.00809424 0.0188125 6.01703 -1.54674 20 1 
441.333 1.20413 6.01473 -0.00819972 0.0189087 6.01476 -1.57557 20 1 
442.667 1.20412 6.01311 -0.00830583 0.018966 6.01315 -1.59671 20 1 
444 1.20412 6.01239 -0.00841532 0.0190408 6.01243 -1.59716 20 1 
445.333 1.20412 6.01101 -0.00853986 0.0191475 6.01105 -1.59607 20 1 
446.667 1.20411 6.00991 -0.00866844 0.0192396 6.00994 -1.6093 20 1 
448 1.20409 6.00921 -0.00877938 0.0193194 6.00925 -1.63515 20 1 
448 1.20409 6.00921 -0.00877938 0.0193194 6.00925 -1.63515 20 1 
449.333 1.20408 6.00807 -0.00887637 0.0194167 6.00811 -1.66862 20 1 
450.667 1.20406 6.00754 -0.00898052 0.0195218 6.00758 -1.69322 20 1 
452 1.20406 6.00769 -0.00908153 0.0196293 6.00773 -1.69943 20 1 
453.333 1.20406 6.00784 -0.00918771 0.0197293 6.00787 -1.69729 20 1 
454.667 1.20406 6.00824 -0.00931707 0.0198016 6.00828 -1.70009 20 1 
456 1.20405 6.00881 -0.00943673 0.01989 6.00885 -1.71952 20 1 
457.333 1.20403 6.00946 -0.00952559 0.0199953 6.0095 -1.75124 20 1 
458.667 1.20402 6.01033 -0.00962285 0.0200748 6.01037 -1.77555 20 1 
460 1.20402 6.01169 -0.00973467 0.0201657 6.01174 -1.7792 20 1 
461.333 1.20402 6.0137 -0.00985027 0.0202737 6.01374 -1.77638 20 1 
462.667 1.20401 6.01565 -0.00996077 0.0203393 6.01569 -1.79428 20 1 
464 1.20399 6.01754 -0.0100457 0.0204047 6.01758 -1.82255 20 1 
465.333 1.20398 6.02001 -0.0101221 0.0205354 6.02006 -1.8417 20 1 
466.667 1.20397 6.02272 -0.0102106 0.0206729 6.02277 -1.85561 20 1 
468 1.20397 6.02603 -0.0103088 0.0207427 6.02607 -1.85564 20 1 
469.333 1.20398 6.02996 -0.0104089 0.0207887 6.03001 -1.84886 20 1 
469.333 1.20398 6.02996 -0.0104089 0.0207887 6.03001 -1.84886 20 1 
470.667 1.20397 6.03322 -0.0104982 0.0208911 6.03326 -1.86289 20 1 
472 1.20395 6.03647 -0.0105792 0.0210205 6.03652 -1.89067 20 1 
473.333 1.20394 6.04067 -0.0106603 0.0211186 6.04071 -1.91163 20 1 
474.667 1.20393 6.04475 -0.0107366 0.0212051 6.0448 -1.92462 20 1 
476 1.20393 6.04885 -0.0108089 0.0212997 6.0489 -1.93359 20 1 
477.333 1.20393 6.05355 -0.0108765 0.0213898 6.0536 -1.93735 20 1 
478.667 1.20393 6.05827 -0.0109351 0.0214852 6.05832 -1.93756 20 1 
480 1.20392 6.06285 -0.0109875 0.0215829 6.0629 -1.9455 20 1 
481.333 1.20391 6.0674 -0.0110428 0.021679 6.06745 -1.96335 20 1 
482.667 1.2039 6.07194 -0.0110948 0.0217611 6.07199 -1.98259 20 1 
484 1.20389 6.07659 -0.0111426 0.0218117 6.07664 -2.00199 20 1 
485.333 1.20389 6.08136 -0.011198 0.02186 6.08141 -2.01169 20 1 
486.667 1.20389 6.08627 -0.0112485 0.0219352 6.08632 -2.00761 20 1 
488 1.20389 6.09107 -0.0112877 0.0219982 6.09112 -2.00989 20 1 
489.333 1.20388 6.09561 -0.0113236 0.0220367 6.09566 -2.02401 20 1 
490.667 1.20387 6.10006 -0.0113461 0.0220994 6.10011 -2.04715 20 1 
490.667 1.20387 6.10006 -0.0113461 0.0220994 6.10011 -2.04715 20 1 
492 1.20385 6.10421 -0.011359 0.0221822 6.10426 -2.07591 20 1 
493.333 1.20384 6.10845 -0.0113994 0.0222175 6.1085 -2.0864 20 1 
494.667 1.20385 6.1135 -0.0114737 0.02221 6.11355 -2.07473 20 1 
496 1.20386 6.11843 -0.0115404 0.0222131 6.11848 -2.06513 20 1 
497.333 1.20385 6.12227 -0.0115609 0.022242 6.12232 -2.082 20 1 
498.667 1.20382 6.1257 -0.0115466 0.0222812 6.12575 -2.12355 20 1 
500 1.20381 6.12936 -0.0115598 0.0223238 6.12941 -2.15206 20 1 
501.333 1.20381 6.13332 -0.0116146 0.0223567 6.13337 -2.15469 20 1 
502.667 1.20381 6.13751 -0.0116891 0.0223561 6.13756 -2.14344 20 1 
504 1.20382 6.14158 -0.0117742 0.0223282 6.14163 -2.1295 20 1 
505.333 1.20381 6.14512 -0.0118389 0.0223178 6.14517 -2.14246 20 1 
506.667 1.20379 6.14815 -0.0118495 0.0223457 6.14821 -2.18191 20 1 
508 1.20377 6.15104 -0.0118176 0.0224029 6.15109 -2.21648 20 1 
509.333 1.20377 6.15407 -0.0117963 0.0224448 6.15412 -2.22979 20 1 
510.667 1.20377 6.15728 -0.0118147 0.0224548 6.15734 -2.21774 20 1 
512 1.20378 6.16061 -0.0118587 0.0224801 6.16066 -2.20066 20 1 
512 1.20378 6.16061 -0.0118587 0.0224801 6.16066 -2.20066 21 1 
513.333 1.20378 6.16372 -0.0119157 0.0225239 6.16377 -2.20361 21 1 
514.667 1.20376 6.16642 -0.0119603 0.0225356 6.16647 -2.23146 21 1 
516 1.20374 6.16894 -0.0119571 0.0225299 6.169 -2.26982 21 1 
517.333 1.20373 6.17156 -0.0119353 0.0225392 6.17161 -2.29184 21 1 
518.667 1.20373 6.17426 -0.0119171 0.0225425 6.17432 -2.29159 21 1 
520 1.20374 6.17692 -0.0118954 0.0225418 6.17697 -2.27703 21 1 
521.333 1.20375 6.17948 -0.0118912 0.0225676 6.17953 -2.26608 21 1 
522.667 1.20374 6.18176 -0.011919 0.0225951 6.18182 -2.28377 21 1 
524 1.20371 6.18371 -0.0119292 0.0226011 6.18376 -2.32206 21 1 
525.333 1.2037 6.18572 -0.0118794 0.0226006 6.18577 -2.35308 21 1 
526.667 1.20369 6.18806 -0.0118189 0.0225904 6.18811 -2.35726 21 1 
528 1.20371 6.19059 -0.0117938 0.0225445 6.19064 -2.33807 21 1 
529.333 1.20371 6.19283 -0.011762 0.0224822 6.19288 -2.3219 21 1 
530.667 1.20371 6.19414 -0.0117046 0.02245 6.19419 -2.33166 21 1 
532 1.20369 6.19486 -0.0116741 0.0224427 6.19492 -2.36791 21 1 
533.333 1.20367 6.19577 -0.0116415 0.0224573 6.19582 -2.40264 21 1 
533.333 1.20367 6.19577 -0.0116415 0.0224573 6.19582 -2.40264 21 1 
534.667 1.20366 6.19689 -0.011566 0.0224822 6.19694 -2.41808 21 1 
536 1.20367 6.19832 -0.0114821 0.0224523 6.19837 -2.40773 21 1 
537.333 1.20368 6.19993 -0.0114255 0.0223751 6.19998 -2.37622 21 1 
538.667 1.20369 6.20085 -0.0113744 0.022306 6.2009 -2.36753 21 1 
540 1.20368 6.20053 -0.0113088 0.0222421 6.20058 -2.39312 21 1 
541.333 1.20365 6.19968 -0.0112442 0.0222061 6.19973 -2.43091 21 1 
542.667 1.20364 6.19928 -0.0111736 0.0222276 6.19933 -2.46062 21 1 
544 1.20364 6.19929 -0.0111079 0.0222692 6.19934 -2.45902 21 1 
545.333 1.20365 6.19951 -0.0110541 0.022276 6.19956 -2.44063 21 1 
546.667 1.20366 6.19969 -0.0110098 0.0222279 6.19974 -2.41988 21 1 
548 1.20366 6.19946 -0.0109609 0.022147 6.19951 -2.41487 21 1 
549.333 1.20365 6.19864 -0.010882 0.0220445 6.19869 -2.43984 21 1 
550.667 1.20363 6.19697 -0.010774 0.021959 6.19702 -2.46916 21 1 
552 1.20362 6.19489 -0.0106666 0.0219579 6.19494 -2.4998 21 1 
553.333 1.20361 6.19351 -0.0106039 0.0220327 6.19356 -2.50368 21 1 
554.667 1.20363 6.19319 -0.0106247 0.0221373 6.19324 -2.47136 21 1 
554.667 1.20363 6.19319 -0.0106247 0.0221373 6.19324 -2.47136 22 1 
556 1.20364 6.19359 -0.0107045 0.0222518 6.19364 -2.44784 22 1 
557.333 1.20365 6.19446 -0.0107771 0.0223224 6.19451 -2.43833 22 1 
558.667 1.20364 6.19538 -0.0107788 0.0222808 6.19543 -2.46278 22 1 
560 1.20361 6.19569 -0.0106546 0.0221284 6.19574 -2.50575 22 1 
561.333 1.2036 6.19543 -0.010439 0.0219193 6.19548 -2.52531 22 1 
562.667 1.2036 6.19474 -0.0102123 0.0217122 6.19478 -2.52976 22 1 
564 1.20362 6.19339 -0.0100662 0.0215929 6.19344 -2.49998 22 1 
565.333 1.20364 6.19202 -0.0100812 0.0216279 6.19206 -2.45952 22 1 
566.667 1.20364 6.19127 -0.0102545 0.0218183 6.19132 -2.44832 22 1 
568 1.20364 6.19179 -0.0105053 0.0220822 6.19184 -2.46415 22 1 
569.333 1.20361 6.19401 -0.010708 0.0223009 6.19406 -2.50649 22 1 
570.667 1.2036 6.19747 -0.010743 0.02237 6.19752 -2.53222 22 1 
572 1.2036 6.20154 -0.0105748 0.0222167 6.20159 -2.53229 22 1 
573.333 1.20361 6.20494 -0.0102677 0.0218703 6.20499 -2.51184 22 1 
574.667 1.20363 6.20661 -0.00995665 0.0214648 6.20666 -2.46682 22 1 
576 1.20365 6.20655 -0.00976979 0.021126 6.2066 -2.44593 22 1 
576 1.20365 6.20655 -0.00976979 0.021126 6.2066 -2.44593 22 1 
577.333 1.20364 6.20488 -0.00975998 0.0209665 6.20493 -2.45505 22 1 
578.667 1.20362 6.20307 -0.00990836 0.0210586 6.20312 -2.48417 22 1 
580 1.20361 6.20311 -0.0101738 0.0213635 6.20316 -2.51658 22 1 
581.333 1.20361 6.2059 -0.010484 0.0217895 6.20595 -2.51867 22 1 
582.667 1.20362 6.21188 -0.0107234 0.022204 6.21193 -2.5008 22 1 
584 1.20363 6.22027 -0.0108112 0.022412 6.22033 -2.46588 22 1 
585.333 1.20365 6.22921 -0.0107035 0.0222786 6.22926 -2.43876 22 1 
586.667 1.20365 6.2366 -0.0104048 0.0217909 6.23665 -2.43915 22 1 
588 1.20364 6.24054 -0.00998489 0.0210514 6.24058 -2.45843 22 1 
589.333 1.20362 6.24056 -0.00953486 0.020226 6.2406 -2.49729 22 1 
590.667 1.20361 6.23729 -0.0091805 0.0195347 6.23733 -2.51357 22 1 
592 1.20362 6.23217 -0.00903721 0.0192286 6.23221 -2.49495 22 1 
593.333 1.20364 6.22741 -0.00920002 0.0194574 6.22745 -2.4623 22 1 
594.667 1.20366 6.2257 -0.00971929 0.0202337 6.22574 -2.42633 22 1 
596 1.20366 6.22943 -0.010488 0.0213606 6.22948 -2.41198 22 1 
597.333 1.20366 6.23934 -0.0112629 0.0224301 6.2394 -2.41938 22 1 
597.333 1.20366 6.23934 -0.0112629 0.0224301 6.2394 -2.41938 24 1 
598.667 1.20364 6.2544 -0.0117267 0.0229955 6.25446 -2.44948 24 1 
600 1.20362 6.27134 -0.0116281 0.0227434 6.27139 -2.48592 24 1 
601.333 1.20362 6.28567 -0.0109189 0.0216374 6.28572 -2.49425 24 1 
602.667 1.20363 6.29344 -0.00978946 0.0199569 6.29348 -2.47053 24 1 
604 1.20366 6.29234 -0.00863304 0.0182715 6.29238 -2.42242 24 1 
605.333 1.20368 6.28372 -0.00787311 0.0171692 6.28375 -2.37748 24 1 
606.667 1.20369 6.27114 -0.0077697 0.0169732 6.27117 -2.35868 24 1 
608 1.20368 6.25929 -0.00831273 0.0176684 6.25932 -2.37571 24 1 
609.333 1.20366 6.25303 -0.00928179 0.0189309 6.25307 -2.4252 24 1 
610.667 1.20363 6.25487 -0.0103682 0.0203514 6.25492 -2.47541 24 1 
612 1.20362 6.26529 -0.0112456 0.0215188 6.26534 -2.49909 24 1 
613.333 1.20363 6.2822 -0.011534 0.0219198 6.28225 -2.47699 24 1 
614.667 1.20367 6.29958 -0.0107608 0.0208576 6.29963 -2.407 24 1 
616 1.20372 6.30755 -0.00863033 0.017839 6.30758 -2.31954 24 1 
617.333 1.20375 6.29534 -0.00536739 0.0131736 6.29536 -2.25799 24 1 
618.667 1.20375 6.25592 -0.00174549 0.00793106 6.25595 -2.25464 24 1 
618.667 1.20375 6.25592 -0.00174549 0.00793106 6.25595 -2.25464 24 1 
620 1.20372 6.18963 0.00128428 0.00344006 6.18969 -2.3131 24 1 
621.333 1.20367 6.10437 0.00306559 0.0006704 6.10446 -2.40458 24 1 
622.667 1.20362 6.01124 0.00341981 -0.000100852 6.01133 -2.48416 24 1 
624 1.20361 5.92069 0.00259317 0.000830416 5.92077 -2.5166 24 1 
625.333 1.20362 5.84004 0.000994392 0.00290047 5.84011 -2.49825 24 1 
626.667 1.20364 5.77275 -0.0010029 0.00557059 5.7728 -2.45851 24 1 
628 1.20366 5.72001 -0.00309137 0.00843659 5.72004 -2.42764 24 1 
629.333 1.20365 5.68099 -0.00508377 0.0112219 5.68102 -2.4327 24 1 
630.667 1.20363 5.65465 -0.00689094 0.013768 5.65468 -2.47916 24 1 
632 1.20359 5.63985 -0.0084861 0.0159956 5.63988 -2.54101 24 1 
633.333 1.20356 5.63493 -0.00987579 0.0178891 5.63497 -2.60166 24 1 
634.667 1.20354 5.63903 -0.0110748 0.0194863 5.63907 -2.64417 24 1 
636 1.20353 5.65089 -0.0121005 0.0208479 5.65094 -2.65243 24 1 
637.333 1.20355 5.66958 -0.0129415 0.0220414 5.66965 -2.61986 24 1 
638.667 1.20359 5.69409 -0.0136105 0.0230924 5.69416 -2.55117 24 1 
640 1.20363 5.7231 -0.0141637 0.0240165 5.72318 -2.47343 24 1 
640 1.20363 5.7231 -0.0141637 0.0240165 5.72318 -2.47343 24 1 
641.333 1.20367 5.75584 -0.0146325 0.024823 5.75593 -2.40235 24 1 
642.667 1.2037 5.79109 -0.0150366 0.025498 5.79118 -2.34922 24 1 
644 1.20371 5.82857 -0.0153861 0.0260522 5.82866 -2.33453 24 1 
645.333 1.20369 5.8678 -0.0156633 0.0265077 5.8679 -2.36034 24 1 
646.667 1.20367 5.90863 -0.015854 0.0268866 5.90873 -2.39943 24 1 
648 1.20366 5.95144 -0.015974 0.0271814 5.95155 -2.4148 24 1 
649.333 1.20368 5.99616 -0.0160572 0.0274083 5.99627 -2.38999 24 1 
650.667 1.20371 6.0431 -0.0161078 0.0275795 6.04321 -2.32516 24 1 
652 1.20376 6.09129 -0.0161386 0.0276991 6.0914 -2.23416 24 1 
653.333 1.20382 6.14036 -0.0161521 0.0278075 6.14047 -2.13839 24 1 
654.667 1.20386 6.18969 -0.0161338 0.0279113 6.1898 -2.05849 24 1 
656 1.20389 6.23904 -0.0160729 0.0280142 6.23915 -2.00854 24 1 
657.333 1.2039 6.28849 -0.015985 0.0280944 6.2886 -1.99526 24 1 
658.667 1.20389 6.33765 -0.0159084 0.028142 6.33776 -2.01043 24 1 
660 1.20388 6.38718 -0.0158274 0.0281481 6.38729 -2.03082 24 1 
661.333 1.20387 6.43686 -0.015745 0.0281215 6.43697 -2.04408 24 1 
661.333 1.20387 6.43686 -0.015745 0.0281215 6.43697 -2.04408 24 1 
662.667 1.20387 6.48732 -0.0156612 0.0280886 6.48742 -2.04659 24 1 
664 1.20388 6.53845 -0.0155506 0.0280514 6.53855 -2.02304 24 1 
665.333 1.20391 6.5903 -0.015427 0.0280229 6.5904 -1.9662 24 1 
666.667 1.20395 6.64276 -0.0153049 0.0279967 6.64287 -1.89449 24 1 
668 1.20399 6.69516 -0.0152196 0.0279683 6.69526 -1.82616 24 1 
669.333 1.20401 6.74763 -0.0151485 0.0279001 6.74773 -1.77959 24 1 
670.667 1.20403 6.79963 -0.0150703 0.0278426 6.79973 -1.75456 24 1 
672 1.20403 6.85158 -0.0149831 0.0277863 6.85168 -1.75439 24 1 
673.333 1.20402 6.90345 -0.0148497 0.0277265 6.90354 -1.76802 24 1 
674.667 1.20402 6.95513 -0.0147068 0.0276736 6.95522 -1.77631 24 1 
676 1.20401 7.00715 -0.0145821 0.0275935 7.00725 -1.79268 24 1 
677.333 1.20401 7.05927 -0.0144764 0.0274934 7.05936 -1.79479 24 1 
678.667 1.20401 7.11149 -0.0143783 0.0273557 7.11158 -1.78667 24 1 
680 1.20401 7.16374 -0.0142831 0.0272205 7.16383 -1.78138 24 1 
681.333 1.20402 7.21593 -0.0141618 0.0270837 7.21602 -1.77712 24 1 
682.667 1.20403 7.26833 -0.0140109 0.0269396 7.26841 -1.7571 24 1 
682.667 1.20403 7.26833 -0.0140109 0.0269396 7.26841 -1.7571 31 1 
684 1.20405 7.32051 -0.0138927 0.0268036 7.32059 -1.71059 31 1 
685.333 1.20407 7.37283 -0.013795 0.0266359 7.37291 -1.68366 31 1 
686.667 1.20408 7.42445 -0.0137126 0.026448 7.42453 -1.66232 31 1 
688 1.20408 7.47531 -0.0136308 0.0262715 7.47539 -1.65567 31 1 
689.333 1.20407 7.52602 -0.0135281 0.0261048 7.5261 -1.67834 31 1 
690.667 1.20406 7.57605 -0.013412 0.0259298 7.57613 -1.69568 31 1 
692 1.20405 7.62601 -0.0132776 0.0257476 7.62608 -1.71064 31 1 
693.333 1.20405 7.67542 -0.0131605 0.0255863 7.67549 -1.71297 31 1 
694.667 1.20405 7.72485 -0.0130388 0.0253943 7.72492 -1.72042 31 1 
696 1.20405 7.77393 -0.0129205 0.0251965 7.774 -1.7169 31 1 
697.333 1.20406 7.82245 -0.0128401 0.0249927 7.82252 -1.70021 31 1 
698.667 1.20405 7.87066 -0.0127705 0.0247839 7.87072 -1.71796 31 1 
700 1.20404 7.91804 -0.0126874 0.024569 7.9181 -1.7296 31 1 
701.333 1.20404 7.96542 -0.0125946 0.0243603 7.96549 -1.73178 31 1 
702.667 1.20405 8.01282 -0.0125238 0.0241714 8.01288 -1.71316 31 1 
704 1.20407 8.0599 -0.0124529 0.0239692 8.05996 -1.68354 31 1 
704 1.20407 8.0599 -0.0124529 0.0239692 8.05996 -1.68354 31 1 
705.333 1.20407 8.10652 -0.0124047 0.0237985 8.10658 -1.67592 31 1 
706.667 1.20407 8.15211 -0.012374 0.0236318 8.15217 -1.68416 31 1 
708 1.20404 8.19741 -0.0123221 0.0234707 8.19747 -1.72833 31 1 
709.333 1.20403 8.24266 -0.0122573 0.0232981 8.24272 -1.74979 31 1 
710.667 1.20403 8.28794 -0.0122016 0.0231438 8.288 -1.74509 31 1 
712 1.20404 8.33337 -0.0121631 0.0230292 8.33342 -1.74157 31 1 
713.333 1.20404 8.37835 -0.0121326 0.0229075 8.3784 -1.72957 31 1 
714.667 1.20404 8.42337 -0.0121149 0.0227731 8.42342 -1.72668 31 1 
716 1.20404 8.46773 -0.0121043 0.0226652 8.46779 -1.73239 31 1 
717.333 1.20403 8.51194 -0.0120826 0.0225396 8.512 -1.76125 31 1 
718.667 1.20402 8.55626 -0.0120791 0.0224248 8.55631 -1.77711 31 1 
720 1.20402 8.60073 -0.0120919 0.0222973 8.60078 -1.76269 31 1 
721.333 1.20403 8.6455 -0.0120983 0.0221457 8.64555 -1.74597 31 1 
722.667 1.20405 8.68981 -0.0120981 0.0220091 8.68986 -1.72377 31 1 
724 1.20405 8.73377 -0.0120941 0.021866 8.73382 -1.71718 31 1 
725.333 1.20404 8.77748 -0.0121196 0.0217238 8.77752 -1.72729 31 1 
725.333 1.20404 8.77748 -0.0121196 0.0217238 8.77752 -1.72729 31 1 
726.667 1.20404 8.82115 -0.0121309 0.0215536 8.82119 -1.74202 31 1 
728 1.20404 8.86478 -0.0121081 0.0213989 8.86483 -1.73445 31 1 
729.333 1.20406 8.90786 -0.0121 0.0211975 8.90791 -1.70301 31 1 
730.667 1.20406 8.95046 -0.0120798 0.0209983 8.95051 -1.69017 31 1 
732 1.20406 8.99266 -0.0120182 0.0208297 8.9927 -1.69559 31 1 
733.333 1.20406 9.03436 -0.0119652 0.0206144 9.03441 -1.70304 31 1 
734.667 1.20406 9.07521 -0.011935 0.0203959 9.07525 -1.7049 31 1 
736 1.20405 9.11489 -0.0118992 0.0201477 9.11493 -1.70743 31 1 
737.333 1.20406 9.15442 -0.011828 0.0198829 9.15446 -1.70503 31 1 
738.667 1.20406 9.19331 -0.0117675 0.0196729 9.19335 -1.6924 31 1 
740 1.20406 9.23115 -0.0117056 0.0194697 9.23119 -1.68977 31 1 
741.333 1.20406 9.2683 -0.0116404 0.019229 9.26834 -1.7022 31 1 
742.667 1.20406 9.3045 -0.0115927 0.0189725 9.30454 -1.69873 31 1 
744 1.20406 9.33967 -0.0115463 0.0187475 9.33971 -1.70123 31 1 
745.333 1.20404 9.374 -0.0115117 0.0184671 9.37404 -1.73094 31 1 
746.667 1.20404 9.40756 -0.0114612 0.0181993 9.40759 -1.73006 31 1 
746.667 1.20404 9.40756 -0.0114612 0.0181993 9.40759 -1.73006 31 1 
748 1.20406 9.44048 -0.0114125 0.0179646 9.44052 -1.70151 31 1 
749.333 1.20406 9.47221 -0.0113383 0.0176951 9.47225 -1.70179 31 1 
750.667 1.20405 9.50241 -0.0112513 0.0174279 9.50244 -1.71719 31 1 
752 1.20405 9.5314 -0.0112148 0.0171177 9.53143 -1.70953 31 1 
753.333 1.20405 9.55947 -0.0111347 0.0168316 9.5595 -1.71227 31 1 
754.667 1.20405 9.58622 -0.0110411 0.0165076 9.58625 -1.71715 31 1 
756 1.20407 9.61132 -0.0109422 0.0161328 9.61135 -1.68808 31 1 
757.333 1.20407 9.63498 -0.010838 0.0158326 9.63501 -1.68547 31 1 
758.667 1.20405 9.6569 -0.0107463 0.0155564 9.65692 -1.71518 31 1 
760 1.20404 9.6772 -0.0106361 0.0152424 9.67722 -1.72821 31 1 
761.333 1.20405 9.69673 -0.0105467 0.0149231 9.69675 -1.7243 31 1 
762.667 1.20404 9.71528 -0.0104945 0.0146304 9.7153 -1.72673 31 1 
764 1.20404 9.73276 -0.0104781 0.014393 9.73277 -1.72729 31 1 
765.333 1.20405 9.74964 -0.0104171 0.0141479 9.74966 -1.71446 31 1 
766.667 1.20404 9.76527 -0.0103671 0.0138921 9.76529 -1.73236 31 1 
768 1.20402 9.78022 -0.0104022 0.0136768 9.78024 -1.77127 31 1 
768 1.20402 9.78022 -0.0104022 0.0136768 9.78024 -1.77127 32 1 
769.333 1.20401 9.79478 -0.0104647 0.0135059 9.7948 -1.79683 32 1 
770.667 1.20399 9.80896 -0.0104136 0.0133475 9.80898 -1.81731 32 1 
772 1.20399 9.82274 -0.0103816 0.0131687 9.82276 -1.82902 32 1 
773.333 1.20398 9.83653 -0.010506 0.0130198 9.83655 -1.83954 32 1 
774.667 1.20398 9.85006 -0.0105748 0.0128153 9.85008 -1.83773 32 1 
776 1.20398 9.86252 -0.010611 0.0125985 9.86253 -1.84202 32 1 
777.333 1.20396 9.87492 -0.0106772 0.0124233 9.87494 -1.87581 32 1 
778.667 1.20396 9.8865 -0.0107031 0.0122588 9.88651 -1.88477 32 1 
780 1.20396 9.89711 -0.0106274 0.0120564 9.89712 -1.87861 32 1 
781.333 1.20396 9.90726 -0.0105893 0.0118035 9.90728 -1.87639 32 1 
782.667 1.20396 9.91641 -0.0105853 0.0116294 9.91642 -1.87301 32 1 
784 1.20397 9.92408 -0.0104987 0.0113178 9.92409 -1.85228 32 1 
785.333 1.20397 9.93033 -0.0104889 0.0109702 9.93034 -1.85624 32 1 
786.667 1.20396 9.93629 -0.0104686 0.0107248 9.9363 -1.87716 32 1 
788 1.20399 9.941 -0.0103403 0.0104671 9.94101 -1.83073 32 1 
789.333 1.20401 9.94476 -0.0102631 0.0102756 9.94477 -1.79346 32 1 
790.667 1.20401 9.94771 -0.0102618 0.0100107 9.94772 -1.78491 32 1 
792 1.20402 9.94906 -0.0102578 0.00979146 9.94907 -1.77001 32 1 
793.333 1.20403 9.94945 -0.0101652 0.00951618 9.94946 -1.76101 32 1 
794.667 1.20402 9.94955 -0.010232 0.00937781 9.94956 -1.77689 32 1 
796 1.20402 9.94952 -0.0102531 0.00930213 9.94953 -1.77842 32 1 
797.333 1.20404 9.94892 -0.0101935 0.00909154 9.94893 -1.7299 32 1 
798.667 1.20404 9.94894 -0.0104584 0.00920609 9.94895 -1.73876 32 1 
800 1.20402 9.94935 -0.0106464 0.0093578 9.94936 -1.77606 32 1 
