5.43388;r ;Density                 ;Velocity u              ;Velocity v              ;Velocity w              ;|Velocity|              ;Pressure                ;Distribution            ;Levels                  ;
0 1.205 9.99999 -9.2534e-06 -9.74458e-06 9.99999 -0.0083356 1 1 
1.33334 1.205 9.99996 -6.71298e-06 -6.91171e-06 9.99996 0.00237669 1 1 
2.66666 1.205 9.99999 -2.17869e-06 -2.27622e-06 9.99999 0.00700326 1 1 
4 1.205 10.0001 -2.82768e-06 -2.98971e-06 10.0001 -0.00240643 1 1 
5.33334 1.205 9.99999 2.819e-09 2.41126e-07 9.99999 -0.00357998 1 1 
6.66666 1.205 9.99992 4.66807e-07 4.86618e-07 9.99992 0.00703062 1 1 
8 1.205 10.0001 -1.00081e-06 -1.04337e-06 10.0001 -0.00530055 1 1 
9.33334 1.205 9.99996 1.49993e-06 1.54783e-06 9.99996 -0.00686417 1 1 
10.6667 1.205 9.99985 -3.32225e-06 -3.33588e-06 9.99985 0.00877203 1 1 
12 1.205 10.0001 2.95937e-06 3.06364e-06 10.0001 -0.00372208 1 1 
13.3333 1.205 10.0002 1.35777e-06 1.16429e-06 10.0002 -0.00633027 1 1 
14.6667 1.20501 9.99976 -4.20237e-06 -4.23358e-06 9.99976 0.0134207 1 1 
16 1.205 9.99987 3.42261e-06 3.71029e-06 9.99987 -0.00472045 1 1 
17.3333 1.20499 10.0002 -3.12719e-06 -3.10001e-06 10.0002 -0.012441 1 1 
18.6667 1.20501 9.99983 2.76547e-06 2.51292e-06 9.99983 0.0193607 1 1 
20 1.205 9.99994 1.23723e-06 1.19846e-06 9.99994 -0.00571117 1 1 
21.3333 1.20499 10.0001 -3.36961e-06 -3.11236e-06 10.0001 -0.0135801 1 1 
21.3333 1.20499 10.0001 -3.36961e-06 -3.11236e-06 10.0001 -0.0135801 1 1 
22.6667 1.20501 9.99987 9.97648e-07 8.98921e-07 9.99987 0.0187806 1 1 
24 1.205 10 -6.92958e-07 -1.00464e-06 10 -0.00307775 1 1 
25.3333 1.20499 10.0001 2.17894e-06 2.4002e-06 10.0001 -0.0167326 1 1 
26.6667 1.20501 10 -9.19725e-07 -8.85336e-07 10 0.0135788 1 1 
28 1.205 9.9998 1.26751e-06 1.23847e-06 9.9998 0.00428534 1 1 
29.3333 1.20499 9.99994 -3.34728e-06 -3.26518e-06 9.99994 -0.0158052 1 1 
30.6667 1.205 10.0003 5.17704e-07 4.58445e-07 10.0003 0.00434911 1 1 
32 1.20501 10 8.91623e-07 1.05782e-06 10 0.0169043 1 1 
33.3333 1.20499 9.99987 7.56191e-07 6.82048e-07 9.99987 -0.0149805 1 1 
34.6667 1.20499 10 8.01109e-07 5.28921e-07 10 -0.0104048 1 1 
36 1.20501 10.0002 -3.72052e-06 -3.81921e-06 10.0002 0.0227586 1 1 
37.3333 1.205 10 1.51054e-06 1.97789e-06 10 -0.00363754 1 1 
38.6667 1.20499 9.99967 -1.08654e-06 -1.12623e-06 9.99967 -0.0129657 1 1 
40 1.205 10 -4.75195e-07 -6.01101e-07 10 0.00843531 1 1 
41.3333 1.205 10.0001 -8.70047e-07 -8.13539e-07 10.0001 0.00820317 1 1 
42.6667 1.20499 10.0001 -7.8566e-08 -2.12724e-07 10.0001 -0.0097654 1 1 
42.6667 1.20499 10.0001 -7.8566e-08 -2.12724e-07 10.0001 -0.0097654 2 1 
44 1.205 9.99987 1.29849e-06 1.07093e-06 9.99987 -0.000120932 2 1 
45.3333 1.205 9.9999 -1.67582e-06 -1.58659e-06 9.9999 0.00332918 2 1 
46.6667 1.205 10.0001 -2.27082e-06 -1.43012e-06 10.0001 0.00159105 2 1 
48 1.205 9.99992 2.14517e-06 1.4808e-06 9.99992 0.000682519 2 1 
49.3333 1.20499 10.0001 2.3875e-07 -2.89088e-07 10.0001 -0.0109428 2 1 
50.6667 1.20501 10 1.86119e-06 2.22573e-06 10 0.00951295 2 1 
52 1.205 10.0002 2.57181e-06 2.96505e-06 10.0002 -0.000872681 2 1 
53.3333 1.20499 9.99998 -3.65688e-07 -5.10043e-07 9.99998 -0.0108633 2 1 
54.6667 1.205 9.99957 -1.23947e-06 -1.49241e-06 9.99957 0.00820676 2 1 
56 1.205 10.0003 -1.1263e-06 -2.4461e-07 10.0003 -0.00207554 2 1 
57.3333 1.205 10 4.19812e-06 3.79542e-06 10 -0.000725971 2 1 
58.6667 1.205 9.9998 -2.17768e-06 -2.9533e-06 9.9998 -0.00167141 2 1 
60 1.205 10.0002 -1.34526e-06 -2.92459e-07 10.0002 0.000569722 2 1 
61.3333 1.205 10 1.2977e-07 1.17239e-07 10 0.00597838 2 1 
62.6667 1.205 9.9999 -5.04791e-06 -5.41954e-06 9.9999 -0.00659417 2 1 
64 1.20501 9.99986 -2.54981e-06 -2.07345e-06 9.99986 0.0141424 2 1 
64 1.20501 9.99986 -2.54981e-06 -2.07345e-06 9.99986 0.0141424 2 1 
65.3333 1.205 10.0002 2.06551e-06 2.25095e-06 10.0002 -0.00393941 2 1 
66.6667 1.205 9.99995 1.05789e-06 9.79038e-07 9.99995 -0.00334775 2 1 
68 1.205 10.0001 -2.13348e-06 -3.09373e-06 10.0001 0.00235802 2 1 
69.3333 1.205 10.0002 4.88906e-06 6.23429e-06 10.0002 -0.00532712 2 1 
70.6667 1.205 9.99963 -6.49306e-08 2.38007e-07 9.99963 0.00445692 2 1 
72 1.20499 10.0002 -2.48095e-06 -3.69447e-06 10.0002 -0.0113077 2 1 
73.3333 1.20501 10 4.80936e-06 5.87445e-06 10 0.0110536 2 1 
74.6667 1.205 10 -2.17238e-06 -2.10622e-06 10 -0.0079242 2 1 
76 1.205 10 -2.4345e-06 -2.91746e-06 10 -0.00807636 2 1 
77.3333 1.20501 9.99975 2.66526e-06 2.12357e-06 9.99975 0.0240568 2 1 
78.6667 1.205 9.99999 -5.89195e-06 -5.29789e-06 9.99999 -0.00605109 2 1 
80 1.205 9.99977 -2.11728e-06 -2.31663e-06 9.99977 -0.000367731 2 1 
81.3333 1.205 10.0003 4.02229e-06 2.24e-06 10.0003 0.000773236 2 1 
82.6667 1.205 10.0004 -7.21353e-06 -6.1437e-06 10.0004 -0.00354034 2 1 
84 1.20501 9.99968 -6.14916e-07 -1.13035e-06 9.99968 0.00921182 2 1 
85.3333 1.205 9.99973 5.79872e-06 5.16281e-06 9.99973 -0.0040011 2 1 
85.3333 1.205 9.99973 5.79872e-06 5.16281e-06 9.99973 -0.0040011 3 1 
86.6667 1.205 10 -4.63506e-06 -4.52036e-06 10 0.00725432 3 1 
88 1.205 10.0003 -2.54988e-06 -3.68956e-06 10.0003 -0.00133462 3 1 
89.3333 1.20499 9.99986 5.8692e-06 6.75209e-06 9.99986 -0.0147554 3 1 
90.6667 1.205 10.0001 -5.26105e-06 -6.38424e-06 10.0001 -0.00516395 3 1 
92 1.20502 9.99985 -3.14386e-06 -1.17205e-06 9.99985 0.0273044 3 1 
93.3333 1.205 9.99961 1.81717e-06 3.75905e-06 9.99961 0.00711958 3 1 
94.6667 1.20498 10.0004 -1.14378e-05 -1.18747e-05 10.0004 -0.0317685 3 1 
96 1.20501 10.0001 2.21008e-06 4.91191e-06 10.0001 0.022869 3 1 
97.3333 1.205 9.99969 2.8124e-06 1.61879e-06 9.99969 0.00755611 3 1 
98.6667 1.20499 9.99977 -9.59009e-07 -2.80517e-07 9.99977 -0.0201662 3 1 
100 1.20501 10.0004 1.24402e-06 1.75313e-06 10.0004 0.01441 3 1 
101.333 1.205 10.0002 -4.72163e-06 -5.13812e-06 10.0002 -0.00305793 3 1 
102.667 1.20499 9.99973 8.21432e-06 8.39369e-06 9.99973 -0.0211286 3 1 
104 1.20501 9.99988 2.74067e-06 -6.81247e-07 9.99988 0.0104211 3 1 
105.333 1.20501 9.99987 6.47475e-06 7.60297e-06 9.99987 0.0097477 3 1 
106.667 1.205 10.0002 2.05851e-06 9.99022e-07 10.0002 -0.00818812 3 1 
106.667 1.205 10.0002 2.05851e-06 9.99022e-07 10.0002 -0.00818812 3 1 
108 1.20499 10.0005 -2.3354e-06 -3.17838e-06 10.0005 -0.0142617 3 1 
109.333 1.205 9.99996 1.17959e-05 1.24235e-05 9.99996 -0.00889715 3 1 
110.667 1.205 9.9998 -8.00526e-06 -1.0352e-05 9.9998 0.00481282 3 1 
112 1.205 10.0004 4.15511e-06 5.61167e-06 10.0004 -0.00616743 3 1 
113.333 1.20501 9.99936 2.83514e-06 2.07962e-06 9.99936 0.0205072 3 1 
114.667 1.20501 9.99957 -6.56438e-06 -5.64042e-06 9.99957 0.0128914 3 1 
116 1.20503 9.99932 1.22605e-05 1.14744e-05 9.99932 0.048044 3 1 
117.333 1.20514 9.99458 -8.88358e-07 -1.71712e-06 9.99458 0.247113 3 1 
118.667 1.20534 9.98734 7.45704e-06 1.01744e-05 9.98734 0.607518 3 1 
120 1.20586 9.96896 7.89008e-06 4.05005e-06 9.96896 1.5444 3 1 
121.333 1.20677 9.93663 1.37528e-07 7.51495e-07 9.93663 3.19313 3 1 
122.667 1.20793 9.89666 6.80675e-06 7.15902e-06 9.89666 5.29641 3 1 
124 1.20883 9.86582 3.99539e-06 2.89126e-06 9.86582 6.92489 3 1 
125.333 1.20849 9.87838 1.50829e-05 1.45408e-05 9.87838 6.30967 3 1 
126.667 1.20663 9.94113 1.83511e-06 -8.80948e-07 9.94113 2.95049 3 1 
128 1.20421 10.0217 3.39631e-06 5.74527e-06 10.0217 -1.43047 3 1 
128 1.20421 10.0217 3.39631e-06 5.74527e-06 10.0217 -1.43047 3 1 
129.333 1.20293 10.0649 1.38086e-05 1.19296e-05 10.0649 -3.74052 3 1 
130.667 1.20382 10.0359 6.5517e-06 7.36472e-06 10.0359 -2.13808 3 1 
132 1.20588 9.96936 1.89517e-05 1.85034e-05 9.96936 1.5885 3 1 
133.333 1.2067 9.94335 7.2285e-06 3.88497e-06 9.94335 3.06301 3 1 
134.667 1.20521 9.98913 1.44199e-05 1.69059e-05 9.98913 0.384878 3 1 
136 1.20369 10.0363 2.64281e-05 2.36259e-05 10.0363 -2.36684 3 1 
137.333 1.20448 10.0129 1.8706e-05 1.87119e-05 10.0129 -0.933747 3 1 
138.667 1.20614 9.96247 3.93974e-05 3.94137e-05 9.96247 2.05992 3 1 
140 1.20572 9.97413 8.02474e-05 7.95289e-05 9.97413 1.3015 3 1 
141.333 1.20419 10.0194 0.000146974 0.00014565 10.0194 -1.46836 3 1 
142.667 1.20464 10.0067 0.000256152 0.000253651 10.0067 -0.650381 3 1 
144 1.20604 9.96574 0.000456282 0.000456249 9.96574 1.87915 3 1 
145.333 1.20562 9.97613 0.000746348 0.000740595 9.97613 1.12436 3 1 
146.667 1.20482 9.9992 0.00113968 0.00113907 9.9992 -0.320107 3 1 
148 1.20561 9.97788 0.00162446 0.00162034 9.97788 1.09959 3 1 
149.333 1.20615 9.96172 0.00210497 0.00209941 9.96172 2.07113 3 1 
149.333 1.20615 9.96172 0.00210497 0.00209941 9.96172 2.07113 3 1 
150.667 1.20576 9.97088 0.00251875 0.00251842 9.97088 1.38043 3 1 
152 1.20592 9.96779 0.00277379 0.00277222 9.96779 1.6574 3 1 
153.333 1.20591 9.96902 0.00282368 0.00282914 9.96902 1.64511 3 1 
154.667 1.20574 9.97254 0.00267247 0.00267805 9.97254 1.32817 3 1 
156 1.20623 9.95994 0.0023901 0.00240225 9.95994 2.22575 3 1 
157.333 1.20586 9.97078 0.00209957 0.00211812 9.97078 1.55848 3 1 
158.667 1.20524 9.98696 0.00190147 0.00192033 9.98696 0.433226 3 1 
160 1.206 9.96782 0.00187229 0.00189196 9.96782 1.80254 3 1 
161.333 1.20594 9.96975 0.00193918 0.00195427 9.96975 1.70045 3 1 
162.667 1.20512 9.99135 0.00196924 0.00198176 9.99135 0.225108 3 1 
164 1.20544 9.98476 0.00189366 0.00189493 9.98476 0.797041 3 1 
165.333 1.20546 9.98369 0.00164344 0.00164887 9.98369 0.83791 3 1 
166.667 1.20513 9.99154 0.00126407 0.00127368 9.99154 0.233179 3 1 
168 1.20517 9.99242 0.000925213 0.000922908 9.99242 0.303249 3 1 
169.333 1.20504 9.99565 0.000668571 0.000682141 9.99565 0.0649889 3 1 
170.667 1.20505 9.99501 0.000519063 0.00054151 9.99501 0.0930545 3 1 
170.667 1.20505 9.99501 0.000519063 0.00054151 9.99501 0.0930545 11 1 
172 1.20499 9.99675 0.000453591 0.000465112 9.99675 -0.0149993 11 1 
173.333 1.20489 9.99853 0.000387189 0.00039976 9.99853 -0.191792 11 1 
174.667 1.2048 10.0024 0.000368393 0.000387645 10.0024 -0.35679 11 1 
176 1.20462 10.0065 0.000385804 0.000402277 10.0065 -0.68236 11 1 
177.333 1.20492 9.99807 0.000481847 0.000484978 9.99807 -0.135932 11 1 
178.667 1.20492 9.99886 0.000720104 0.000737865 9.99886 -0.143942 11 1 
180 1.20467 10.0038 0.00103345 0.00105195 10.0038 -0.59061 11 1 
181.333 1.2049 9.99746 0.00134582 0.00134375 9.99746 -0.18427 11 1 
182.667 1.20497 9.99638 0.00157535 0.00159017 9.99638 -0.0528243 11 1 
184 1.20487 9.99974 0.00165446 0.00167004 9.99974 -0.230606 11 1 
185.333 1.20484 9.99943 0.00160186 0.00159915 9.99943 -0.287367 11 1 
186.667 1.20489 9.99751 0.00149466 0.00149361 9.99751 -0.20063 11 1 
188 1.20499 9.99514 0.00141117 0.00143181 9.99514 -0.0201011 11 1 
189.333 1.20496 9.9955 0.00139927 0.00141162 9.9955 -0.0725379 11 1 
190.667 1.20488 9.9972 0.00137465 0.00137873 9.9972 -0.219052 11 1 
192 1.20494 9.99582 0.0014578 0.00148875 9.99582 -0.105681 11 1 
192 1.20494 9.99582 0.0014578 0.00148875 9.99582 -0.105681 11 1 
193.333 1.20492 9.99638 0.00152252 0.00153493 9.99638 -0.141008 11 1 
194.667 1.20484 9.99685 0.00145541 0.00146625 9.99685 -0.284654 11 1 
196 1.20491 9.99455 0.00158107 0.00160504 9.99455 -0.171227 11 1 
197.333 1.20488 9.99549 0.00161479 0.00162625 9.99549 -0.21506 11 1 
198.667 1.20489 9.99583 0.0015508 0.00155928 9.99583 -0.200581 11 1 
200 1.20491 9.99563 0.00165957 0.00167746 9.99563 -0.168271 11 1 
201.333 1.20483 9.99608 0.00154784 0.00157796 9.99608 -0.298357 11 1 
202.667 1.20487 9.99305 0.00135692 0.00136066 9.99305 -0.241741 11 1 
204 1.20487 9.99311 0.00141077 0.00141354 9.99312 -0.232123 11 1 
205.333 1.20481 9.99403 0.00139435 0.00142522 9.99403 -0.335443 11 1 
206.667 1.2049 9.99047 0.00144591 0.00147551 9.99047 -0.184688 11 1 
208 1.20492 9.99071 0.00160479 0.00161469 9.99071 -0.139583 11 1 
209.333 1.20486 9.99267 0.00154101 0.00155651 9.99267 -0.261371 11 1 
210.667 1.20482 9.99189 0.00146677 0.00151503 9.99189 -0.321607 11 1 
212 1.20483 9.98986 0.00135204 0.00137353 9.98986 -0.302406 11 1 
213.333 1.20489 9.98681 0.00123947 0.0012425 9.98681 -0.195513 11 1 
213.333 1.20489 9.98681 0.00123947 0.0012425 9.98681 -0.195513 11 1 
214.667 1.20488 9.986 0.00124764 0.00130313 9.986 -0.211127 11 1 
216 1.20484 9.98623 0.0012374 0.0012914 9.98623 -0.280931 11 1 
217.333 1.20488 9.98575 0.00129392 0.00128613 9.98575 -0.212441 11 1 
218.667 1.20494 9.98422 0.00129054 0.00130832 9.98422 -0.105878 11 1 
220 1.20491 9.98325 0.00126613 0.00135134 9.98325 -0.156502 11 1 
221.333 1.20486 9.98242 0.00126201 0.00129259 9.98242 -0.250073 11 1 
222.667 1.20488 9.97709 0.00112698 0.00110699 9.9771 -0.220428 11 1 
224 1.2049 9.97564 0.00102968 0.00109408 9.97564 -0.18486 11 1 
225.333 1.20494 9.97543 0.00100123 0.00110422 9.97543 -0.108395 11 1 
226.667 1.20501 9.97337 0.00104942 0.00107625 9.97337 0.019997 11 1 
228 1.20497 9.97572 0.00117187 0.00117751 9.97572 -0.0622024 11 1 
229.333 1.20499 9.97039 0.00114563 0.00121683 9.97039 -0.0179566 11 1 
230.667 1.20503 9.96301 0.00105957 0.00114895 9.96301 0.0583502 11 1 
232 1.20497 9.96202 0.00101554 0.00105237 9.96202 -0.0591384 11 1 
233.333 1.20503 9.96046 0.00107699 0.00109736 9.96046 0.0474431 11 1 
234.667 1.20513 9.95987 0.0011662 0.00122278 9.95987 0.235263 11 1 
234.667 1.20513 9.95987 0.0011662 0.00122278 9.95987 0.235263 11 1 
236 1.20507 9.9595 0.00113593 0.00120808 9.9595 0.133111 11 1 
237.333 1.20513 9.95286 0.00109271 0.00113814 9.95286 0.226324 11 1 
238.667 1.20519 9.94482 0.00103363 0.00106514 9.94482 0.345931 11 1 
240 1.20512 9.94209 0.00107489 0.00111883 9.94209 0.212602 11 1 
241.333 1.20522 9.93844 0.00119589 0.00122996 9.93844 0.388362 11 1 
242.667 1.20527 9.94014 0.00128597 0.00130783 9.94014 0.478714 11 1 
244 1.20529 9.93538 0.00116683 0.00119413 9.93538 0.529664 11 1 
245.333 1.20532 9.92495 0.00100452 0.00104461 9.92495 0.578798 11 1 
246.667 1.20536 9.91852 0.00102793 0.00106112 9.91852 0.648643 11 1 
248 1.20544 9.91299 0.00097279 0.000988464 9.91299 0.789389 11 1 
249.333 1.20543 9.91134 0.00112002 0.00116654 9.91134 0.771012 11 1 
250.667 1.20552 9.90478 0.00120639 0.00126093 9.90478 0.941829 11 1 
252 1.20554 9.89783 0.000993245 0.00101555 9.89783 0.979678 11 1 
253.333 1.20562 9.88535 0.00105021 0.00107239 9.88535 1.11375 11 1 
254.667 1.20568 9.87884 0.00104971 0.00107652 9.87884 1.22641 11 1 
256 1.20572 9.87304 0.000946721 0.000974731 9.87304 1.30831 11 1 
256 1.20572 9.87304 0.000946721 0.000974731 9.87304 1.30831 13 1 
257.333 1.20587 9.86147 0.00102244 0.00106317 9.86147 1.56317 13 1 
258.667 1.20589 9.85304 0.000916131 0.000949022 9.85304 1.60509 13 1 
260 1.20596 9.84043 0.000894557 0.000912278 9.84043 1.72962 13 1 
261.333 1.20608 9.8268 0.00103489 0.00107473 9.8268 1.9508 13 1 
262.667 1.20617 9.81349 0.000961605 0.00101206 9.81349 2.12018 13 1 
264 1.20621 9.80419 0.000886612 0.000901247 9.80419 2.18494 13 1 
265.333 1.20638 9.78766 0.000851939 0.000850927 9.78766 2.49393 13 1 
266.667 1.2066 9.76398 0.000855627 0.00088682 9.76399 2.88986 13 1 
268 1.20654 9.75073 0.000877131 0.00091994 9.75074 2.7763 13 1 
269.333 1.20673 9.73059 0.000815317 0.000821879 9.73059 3.12887 13 1 
270.667 1.20712 9.70019 0.000796321 0.00080179 9.70019 3.82875 13 1 
272 1.20695 9.6897 0.000765971 0.000808271 9.6897 3.52553 13 1 
273.333 1.20723 9.65891 0.000727448 0.000759939 9.65891 4.0319 13 1 
274.667 1.20777 9.61718 0.000713955 0.000725158 9.61719 4.9945 13 1 
276 1.20762 9.59763 0.00068205 0.000703373 9.59764 4.73317 13 1 
277.333 1.20792 9.55311 0.000685667 0.000705029 9.55312 5.2764 13 1 
277.333 1.20792 9.55311 0.000685667 0.000705029 9.55312 5.2764 13 1 
278.667 1.20838 9.50937 0.000668939 0.000673333 9.50939 6.11295 13 1 
280 1.20851 9.46842 0.000626634 0.000634913 9.46843 6.33917 13 1 
281.333 1.20882 9.41068 0.000612614 0.000628884 9.41069 6.89903 13 1 
282.667 1.20918 9.36728 0.000561004 0.000565434 9.36729 7.54612 13 1 
284 1.20975 9.32342 0.000533819 0.000533777 9.32342 8.58848 13 1 
285.333 1.2103 9.26349 0.000509171 0.000522695 9.26355 9.57937 13 1 
286.667 1.21052 9.17686 0.000470031 0.000462927 9.17704 9.97168 13 1 
288 1.21085 9.07184 0.000492487 0.000460604 9.07199 10.5646 13 1 
289.333 1.21147 8.99078 0.000459804 0.000452142 8.99081 11.6813 13 1 
290.667 1.21229 8.91546 0.000410467 0.000421683 8.91548 13.1607 13 1 
292 1.21294 8.82076 0.000379056 0.000373401 8.8208 14.3503 13 1 
293.333 1.21333 8.72231 0.000353739 0.000336732 8.72241 15.0516 13 1 
294.667 1.21399 8.60142 0.000326554 0.000325233 8.60162 16.2364 13 1 
296 1.21488 8.47596 0.000279832 0.000278259 8.47611 17.8441 13 1 
297.333 1.2154 8.37042 0.000304173 0.000280535 8.37047 18.7929 13 1 
298.667 1.20911 8.1924 0.000277356 0.000256402 8.19254 7.41854 13 1 
298.667 1.20911 8.1924 0.000277356 0.000256402 8.19254 7.41854 14 1 
300 1.1986 8.14509 0.000216267 0.000205603 8.14519 -11.5614 14 1 
301.333 1.19483 8.16965 0.000220487 0.000197696 8.16973 -18.3763 14 1 
302.667 1.19568 8.06583 0.000155865 0.000126335 8.06592 -16.8402 14 1 
304 1.19636 7.95308 0.000109043 8.99173e-05 7.95318 -15.5999 14 1 
305.333 1.19679 7.83962 9.46056e-05 7.27084e-05 7.83982 -14.8345 14 1 
306.667 1.1973 7.74233 1.87771e-05 -1.62967e-05 7.74247 -13.9062 14 1 
308 1.19776 7.64559 1.77184e-05 -1.95212e-05 7.64564 -13.0841 14 1 
309.333 1.19821 7.56455 -2.90492e-05 -6.61722e-05 7.56457 -12.2567 14 1 
310.667 1.19872 7.49666 -9.41239e-05 -0.000130822 7.49667 -11.3403 14 1 
312 1.19917 7.42952 -9.7581e-05 -0.000140335 7.42953 -10.5277 14 1 
313.333 1.19957 7.37554 -0.000183807 -0.000234261 7.37554 -9.81526 14 1 
314.667 1.19993 7.31543 -0.000198471 -0.000235874 7.31545 -9.1544 14 1 
316 1.20017 7.2519 -0.000256199 -0.000286364 7.25194 -8.72815 14 1 
317.333 1.20041 7.21142 -0.000352284 -0.000393074 7.21145 -8.28759 14 1 
318.667 1.20078 7.17902 -0.000358307 -0.000399466 7.17905 -7.63042 14 1 
320 1.20102 7.13104 -0.000443903 -0.000472906 7.13108 -7.19685 14 1 
320 1.20102 7.13104 -0.000443903 -0.000472906 7.13108 -7.19685 14 1 
321.333 1.20111 7.07883 -0.000467956 -0.000497423 7.07888 -7.0329 14 1 
322.667 1.20133 7.04176 -0.000482676 -0.000526703 7.04179 -6.63221 14 1 
324 1.20159 7.01518 -0.000521966 -0.000567671 7.01519 -6.16065 14 1 
325.333 1.20169 6.99238 -0.0005011 -0.000532373 6.99238 -5.98225 14 1 
326.667 1.20185 6.97489 -0.000526736 -0.000555491 6.97489 -5.68229 14 1 
328 1.20212 6.96299 -0.00051871 -0.000562904 6.96299 -5.20516 14 1 
329.333 1.20227 6.96226 -0.000539306 -0.00058194 6.96226 -4.93145 14 1 
330.667 1.20238 6.96448 -0.000560304 -0.000583443 6.96449 -4.73371 14 1 
332 1.20254 6.96131 -0.000551766 -0.000572315 6.96131 -4.4367 14 1 
333.333 1.20279 6.97078 -0.00057981 -0.00061999 6.97079 -3.99861 14 1 
334.667 1.20301 6.99118 -0.000567405 -0.000609985 6.99119 -3.59954 14 1 
336 1.20307 7.01286 -0.000602454 -0.000623105 7.01288 -3.48896 14 1 
337.333 1.20319 7.05182 -0.000652542 -0.000681216 7.05184 -3.27247 14 1 
338.667 1.2035 7.11283 -0.000660981 -0.000711527 7.11286 -2.71287 14 1 
340 1.20377 7.18698 -0.000646999 -0.000677528 7.18704 -2.2197 14 1 
341.333 1.20389 7.26878 -0.000638928 -0.000653458 7.26886 -2.00508 14 1 
341.333 1.20389 7.26878 -0.000638928 -0.000653458 7.26886 -2.00508 15 1 
342.667 1.20398 7.35713 -0.000686771 -0.000725633 7.35721 -1.84596 15 1 
344 1.20422 7.46577 -0.000681313 -0.000724097 7.46587 -1.41436 15 1 
345.333 1.20451 7.59704 -0.000638213 -0.000659531 7.59718 -0.888713 15 1 
346.667 1.20467 7.73178 -0.000651751 -0.000675296 7.73196 -0.593018 15 1 
348 1.2048 7.8701 -0.000710715 -0.00075167 7.87027 -0.36175 15 1 
349.333 1.20493 8.01944 -0.00071782 -0.000754656 8.01962 -0.133943 15 1 
350.667 1.20506 8.17731 -0.000661926 -0.000686559 8.17751 0.10017 15 1 
352 1.20522 8.33822 -0.000637964 -0.000666629 8.33841 0.403513 15 1 
353.333 1.20527 8.48214 -0.000677239 -0.000708935 8.4823 0.493286 15 1 
354.667 1.20528 8.61419 -0.000735901 -0.000764206 8.61433 0.505032 15 1 
356 1.20532 8.74623 -0.000647877 -0.00067322 8.74634 0.583846 15 1 
357.333 1.20531 8.8645 -0.000575148 -0.00059566 8.86459 0.563071 15 1 
358.667 1.20534 8.97178 -0.000638578 -0.00066387 8.97186 0.620331 15 1 
360 1.20536 9.06699 -0.000701549 -0.000735101 9.06705 0.65257 15 1 
361.333 1.20533 9.15012 -0.000716992 -0.000738124 9.15016 0.594771 15 1 
362.667 1.20533 9.2298 -0.000616479 -0.000642539 9.22983 0.594275 15 1 
362.667 1.20533 9.2298 -0.000616479 -0.000642539 9.22983 0.594275 15 1 
364 1.20532 9.3011 -0.000600454 -0.000648883 9.30113 0.572214 15 1 
365.333 1.20532 9.36532 -0.00066092 -0.000696545 9.36534 0.575951 15 1 
366.667 1.20527 9.41866 -0.000678795 -0.000703466 9.41868 0.479206 15 1 
368 1.20521 9.46708 -0.000661639 -0.000704412 9.4671 0.384737 15 1 
369.333 1.20526 9.51487 -0.000587182 -0.000633045 9.51488 0.467216 15 1 
370.667 1.20526 9.55448 -0.000588631 -0.000628113 9.55449 0.472947 15 1 
372 1.20521 9.5896 -0.000646095 -0.000686412 9.58961 0.383247 15 1 
373.333 1.20519 9.6205 -0.000668222 -0.000708447 9.62051 0.348181 15 1 
374.667 1.20521 9.6515 -0.000584036 -0.000631234 9.65151 0.37653 15 1 
376 1.2052 9.67816 -0.000518585 -0.000568564 9.67817 0.356811 15 1 
377.333 1.20517 9.70057 -0.000593679 -0.000637281 9.70057 0.310429 15 1 
378.667 1.20517 9.7233 -0.000652022 -0.00069629 9.7233 0.310531 15 1 
380 1.20517 9.73971 -0.000619218 -0.000675414 9.73971 0.306214 15 1 
381.333 1.20518 9.76108 -0.000576021 -0.000633718 9.76108 0.330061 15 1 
382.667 1.20515 9.77618 -0.000582635 -0.000622436 9.77618 0.266339 15 1 
384 1.20516 9.79157 -0.000621024 -0.000663874 9.79157 0.282888 15 1 
384 1.20516 9.79157 -0.000621024 -0.000663874 9.79157 0.282888 15 1 
385.333 1.20517 9.80833 -0.000665021 -0.000730276 9.80834 0.314738 15 1 
386.667 1.2051 9.81391 -0.000668508 -0.0007321 9.81391 0.181545 15 1 
388 1.20516 9.83254 -0.000631957 -0.00068579 9.83254 0.297365 15 1 
389.333 1.20519 9.84226 -0.000620521 -0.000685891 9.84226 0.341745 15 1 
390.667 1.20514 9.85105 -0.000687321 -0.000757555 9.85105 0.258668 15 1 
392 1.20515 9.86432 -0.000720274 -0.000782558 9.86433 0.277491 15 1 
393.333 1.20513 9.86446 -0.000652542 -0.000719477 9.86446 0.236722 15 1 
394.667 1.20518 9.88128 -0.000646344 -0.000715651 9.88128 0.320448 15 1 
396 1.20516 9.88538 -0.000692027 -0.000755982 9.88538 0.296093 15 1 
397.333 1.20517 9.89218 -0.000721249 -0.000790057 9.89218 0.314297 15 1 
398.667 1.20515 9.90271 -0.000720062 -0.000791861 9.90271 0.279031 15 1 
400 1.20509 9.89844 -0.00068113 -0.000743031 9.89844 0.159463 15 1 
401.333 1.20522 9.91547 -0.000666673 -0.000731087 9.91547 0.390447 15 1 
402.667 1.20519 9.91559 -0.000675232 -0.000758839 9.91559 0.341405 15 1 
404 1.20515 9.91981 -0.000717431 -0.000801371 9.91981 0.274481 15 1 
405.333 1.20518 9.9283 -0.000720748 -0.000788885 9.9283 0.327586 15 1 
405.333 1.20518 9.9283 -0.000720748 -0.000788885 9.9283 0.327586 15 1 
406.667 1.20513 9.92374 -0.00064141 -0.000715267 9.92374 0.242583 15 1 
408 1.2052 9.93942 -0.000641878 -0.000728042 9.93942 0.360653 15 1 
409.333 1.20515 9.93439 -0.000721566 -0.000798213 9.93439 0.269507 15 1 
410.667 1.20516 9.94106 -0.000710067 -0.000782775 9.94106 0.293401 15 1 
412 1.20515 9.94507 -0.000657509 -0.000745471 9.94507 0.272456 15 1 
413.333 1.20517 9.94214 -0.000656975 -0.000748679 9.94214 0.3068 15 1 
414.667 1.20527 9.95726 -0.000694901 -0.000777996 9.95726 0.491717 15 1 
416 1.20513 9.94771 -0.00072712 -0.000816329 9.94771 0.226214 15 1 
417.333 1.20517 9.95822 -0.000671293 -0.000767816 9.95822 0.303235 15 1 
418.667 1.20519 9.95766 -0.000618166 -0.000699104 9.95766 0.342158 15 1 
420 1.20513 9.95527 -0.000647228 -0.000727496 9.95527 0.240357 15 1 
421.333 1.20518 9.96655 -0.000689952 -0.000785706 9.96655 0.32894 15 1 
422.667 1.20519 9.95936 -0.000696434 -0.00077195 9.95936 0.335569 15 1 
424 1.20523 9.97242 -0.000655714 -0.000723414 9.97242 0.417285 15 1 
425.333 1.20514 9.96426 -0.000673752 -0.000767561 9.96426 0.250215 15 1 
426.667 1.20523 9.97087 -0.000731264 -0.000822984 9.97087 0.409058 15 1 
426.667 1.20523 9.97087 -0.000731264 -0.000822984 9.97087 0.409058 20 1 
428 1.20519 9.97218 -0.000675335 -0.000749112 9.97218 0.34656 20 1 
429.333 1.2051 9.96804 -0.000610068 -0.000695966 9.96804 0.175919 20 1 
430.667 1.20522 9.98034 -0.000603288 -0.000706064 9.98034 0.400714 20 1 
432 1.20519 9.97156 -0.000642758 -0.000724073 9.97156 0.340021 20 1 
433.333 1.20519 9.98104 -0.000702916 -0.00078036 9.98104 0.344603 20 1 
434.667 1.20518 9.975 -0.000658527 -0.000760029 9.975 0.327159 20 1 
436 1.20527 9.98332 -0.00063818 -0.000729376 9.98332 0.484248 20 1 
437.333 1.20513 9.97924 -0.000687761 -0.000771771 9.97924 0.242101 20 1 
438.667 1.20512 9.97927 -0.000659324 -0.000759019 9.97927 0.217159 20 1 
440 1.20532 9.98944 -0.000616737 -0.000711136 9.98944 0.577669 20 1 
441.333 1.20521 9.98113 -0.000595256 -0.000683092 9.98113 0.386968 20 1 
442.667 1.20505 9.98514 -0.000601228 -0.000692674 9.98514 0.0965195 20 1 
444 1.20516 9.98221 -0.000657521 -0.000747714 9.98221 0.281403 20 1 
445.333 1.20542 9.99481 -0.000668692 -0.000762217 9.99481 0.753406 20 1 
446.667 1.20514 9.98502 -0.000612393 -0.000702563 9.98502 0.255979 20 1 
448 1.20503 9.98627 -0.000624396 -0.000710171 9.98627 0.0499801 20 1 
448 1.20503 9.98627 -0.000624396 -0.000710171 9.98627 0.0499801 20 1 
449.333 1.20532 9.99091 -0.00066441 -0.000760258 9.99091 0.583003 20 1 
450.667 1.20537 9.99432 -0.000626424 -0.000728485 9.99432 0.675378 20 1 
452 1.20501 9.98782 -0.000606522 -0.000698686 9.98782 0.0173485 20 1 
453.333 1.20505 9.98797 -0.000603759 -0.000690645 9.98797 0.0860698 20 1 
454.667 1.20545 9.99954 -0.000611554 -0.000705908 9.99954 0.815565 20 1 
456 1.20531 9.99396 -0.000616922 -0.000707357 9.99396 0.554222 20 1 
457.333 1.20494 9.98849 -0.000597191 -0.000679915 9.98849 -0.115431 20 1 
458.667 1.20515 9.99184 -0.000606741 -0.000701898 9.99184 0.266266 20 1 
460 1.20556 10.0038 -0.000610594 -0.000715301 10.0038 1.0159 20 1 
461.333 1.20527 9.99551 -0.000614657 -0.000709844 9.99551 0.479349 20 1 
462.667 1.20492 9.99023 -0.000585084 -0.000681683 9.99023 -0.140808 20 1 
464 1.20521 9.99608 -0.000533812 -0.000640573 9.99608 0.375456 20 1 
465.333 1.2055 10.0041 -0.000535532 -0.000638909 10.0041 0.902487 20 1 
466.667 1.20519 9.99658 -0.000536068 -0.000634035 9.99658 0.344369 20 1 
468 1.205 9.9932 -0.000539401 -0.000640196 9.9932 0.00878853 20 1 
469.333 1.20528 9.99973 -0.000541106 -0.00064955 9.99973 0.502383 20 1 
469.333 1.20528 9.99973 -0.000541106 -0.00064955 9.99973 0.502383 20 1 
470.667 1.20538 10.003 -0.000562181 -0.000670234 10.003 0.683238 20 1 
472 1.20515 9.99703 -0.000578281 -0.000677736 9.99703 0.265822 20 1 
473.333 1.20516 9.998 -0.00051886 -0.000623937 9.998 0.288714 20 1 
474.667 1.20538 10.0035 -0.00049036 -0.000605188 10.0035 0.685037 20 1 
476 1.20526 10.0011 -0.000474157 -0.000584404 10.0011 0.473334 20 1 
477.333 1.20504 9.99663 -0.000492188 -0.000599181 9.99663 0.0704678 20 1 
478.667 1.20528 10.0022 -0.000572447 -0.000684273 10.0022 0.498019 20 1 
480 1.20552 10.0078 -0.000602487 -0.000713198 10.0078 0.930152 20 1 
481.333 1.20518 10.0004 -0.000657756 -0.00075332 10.0004 0.319595 20 1 
482.667 1.20489 9.99352 -0.000688873 -0.00077706 9.99352 -0.203979 20 1 
484 1.20528 10.0036 -0.00066511 -0.000756044 10.0036 0.506634 20 1 
485.333 1.20567 10.0136 -0.000673676 -0.000761396 10.0136 1.20478 20 1 
486.667 1.20527 10.0029 -0.000677269 -0.000765174 10.0029 0.479889 20 1 
488 1.20476 9.99047 -0.000718249 -0.00080788 9.99047 -0.432411 20 1 
489.333 1.20514 10.0012 -0.000774878 -0.000861884 10.0012 0.252944 20 1 
490.667 1.20575 10.017 -0.000810426 -0.000891965 10.017 1.36154 20 1 
490.667 1.20575 10.017 -0.000810426 -0.000891965 10.017 1.36154 20 1 
492 1.20544 10.0088 -0.000870415 -0.000942965 10.0088 0.790411 20 1 
493.333 1.20473 9.9902 -0.000902069 -0.000967615 9.9902 -0.494295 20 1 
494.667 1.20489 9.99486 -0.000904594 -0.000965655 9.99486 -0.195019 20 1 
496 1.20565 10.0156 -0.000934961 -0.000989738 10.0156 1.18063 20 1 
497.333 1.20568 10.016 -0.000946564 -0.000996371 10.016 1.22409 20 1 
498.667 1.20488 9.99483 -0.0009253 -0.000970611 9.99483 -0.214852 20 1 
500 1.20463 9.98818 -0.000925227 -0.000963625 9.98818 -0.669084 20 1 
501.333 1.20537 10.008 -0.000921774 -0.000953627 10.008 0.667897 20 1 
502.667 1.20583 10.0209 -0.000955686 -0.000987887 10.0209 1.49881 20 1 
504 1.20523 10.0049 -0.00104583 -0.00108519 10.0049 0.414998 20 1 
505.333 1.20458 9.98697 -0.00111017 -0.00115748 9.98697 -0.757321 20 1 
506.667 1.20494 9.99676 -0.00115225 -0.00120635 9.99676 -0.112971 20 1 
508 1.20569 10.0176 -0.00112643 -0.00119063 10.0176 1.23865 20 1 
509.333 1.2056 10.0152 -0.00103757 -0.00110863 10.0152 1.07978 20 1 
510.667 1.2048 9.99358 -0.000948023 -0.00101757 9.99358 -0.356001 20 1 
512 1.20457 9.98673 -0.000873013 -0.000940329 9.98673 -0.783019 20 1 
512 1.20457 9.98673 -0.000873013 -0.000940329 9.98673 -0.783019 21 1 
513.333 1.20525 10.0056 -0.000897558 -0.000960916 10.0056 0.45958 21 1 
514.667 1.20579 10.0213 -0.000978968 -0.00103996 10.0213 1.42232 21 1 
516 1.20537 10.0092 -0.00107337 -0.0011338 10.0092 0.659351 21 1 
517.333 1.20463 9.98799 -0.00116826 -0.00122524 9.98799 -0.672577 21 1 
518.667 1.20466 9.98976 -0.00117461 -0.00122903 9.98976 -0.608575 21 1 
520 1.20542 10.0111 -0.00111812 -0.00116959 10.0111 0.767208 21 1 
521.333 1.2058 10.0211 -0.0010198 -0.0010642 10.0211 1.43733 21 1 
522.667 1.20526 10.0067 -0.000893284 -0.000932058 10.0067 0.468144 21 1 
524 1.20463 9.98813 -0.000759486 -0.000799043 9.98813 -0.671394 21 1 
525.333 1.20479 9.99211 -0.000603968 -0.00064634 9.99211 -0.381624 21 1 
526.667 1.20549 10.0138 -0.000420741 -0.000468378 10.0138 0.887663 21 1 
528 1.2058 10.0225 -0.000213292 -0.00027167 10.0225 1.44298 21 1 
529.333 1.20529 10.0065 -3.79576e-05 -0.000106349 10.0065 0.517562 21 1 
530.667 1.20459 9.98718 7.62178e-05 1.21573e-06 9.98718 -0.737372 21 1 
532 1.20462 9.98787 8.99091e-05 1.13225e-05 9.98787 -0.686338 21 1 
533.333 1.20529 10.0071 -3.83279e-05 -0.000115028 10.0071 0.515571 21 1 
533.333 1.20529 10.0071 -3.83279e-05 -0.000115028 10.0071 0.515571 21 1 
534.667 1.2057 10.0204 -0.000247744 -0.000318043 10.0204 1.2685 21 1 
536 1.20535 10.0095 -0.000493892 -0.000555487 10.0095 0.633274 21 1 
537.333 1.20457 9.98588 -0.000704827 -0.000755814 9.98588 -0.771082 21 1 
538.667 1.2042 9.97502 -0.000836839 -0.000878645 9.97502 -1.44161 21 1 
540 1.2046 9.98676 -0.000907757 -0.000942876 9.98676 -0.730902 21 1 
541.333 1.20522 10.0058 -0.000924275 -0.000953526 10.0058 0.391225 21 1 
542.667 1.20534 10.0096 -0.000952282 -0.000977066 10.0096 0.615644 21 1 
544 1.20478 9.99198 -0.0010282 -0.00105072 9.99198 -0.399952 21 1 
545.333 1.20406 9.96947 -0.00117252 -0.00119421 9.96947 -1.70386 21 1 
546.667 1.20387 9.9635 -0.00137547 -0.00139431 9.9635 -2.03757 21 1 
548 1.20434 9.97816 -0.00157619 -0.00159255 9.97816 -1.19298 21 1 
549.333 1.20497 9.99828 -0.00175125 -0.00176637 9.99828 -0.0462662 21 1 
550.667 1.20518 10.0043 -0.00184756 -0.0018594 10.0043 0.322338 21 1 
552 1.20475 9.99027 -0.00183773 -0.00184679 9.99027 -0.458636 21 1 
553.333 1.20407 9.96887 -0.0017356 -0.00174283 9.96887 -1.68083 21 1 
554.667 1.20375 9.95828 -0.00154533 -0.00155105 9.95828 -2.25052 21 1 
554.667 1.20375 9.95828 -0.00154533 -0.00155105 9.95828 -2.25052 22 1 
556 1.20405 9.96793 -0.00131707 -0.00132079 9.96793 -1.70772 22 1 
557.333 1.20477 9.9916 -0.00106784 -0.00106959 9.9916 -0.407381 22 1 
558.667 1.20544 10.0125 -0.000821344 -0.000822767 10.0125 0.798811 22 1 
560 1.2056 10.0176 -0.00061002 -0.000611295 10.0176 1.08916 22 1 
561.333 1.2052 10.0049 -0.000426144 -0.000426468 10.0049 0.36889 22 1 
562.667 1.20457 9.9834 -0.000291495 -0.000291729 9.9834 -0.778097 22 1 
564 1.20409 9.96803 -0.000189014 -0.000189488 9.96803 -1.6351 22 1 
565.333 1.20408 9.9678 -0.000114905 -0.000114818 9.9678 -1.66201 22 1 
566.667 1.20454 9.98273 -7.50275e-05 -7.48329e-05 9.98273 -0.833642 22 1 
568 1.20521 10.0056 -4.12284e-05 -4.12169e-05 10.0056 0.387841 22 1 
569.333 1.20581 10.0257 -2.6012e-05 -2.63347e-05 10.0257 1.45682 22 1 
570.667 1.20607 10.0343 -1.41561e-05 -1.43064e-05 10.0343 1.93644 22 1 
572 1.20592 10.029 -7.36317e-06 -7.1257e-06 10.029 1.662 22 1 
573.333 1.20544 10.0128 -7.84636e-06 -7.91376e-06 10.0128 0.793991 22 1 
574.667 1.20482 9.99148 2.9365e-07 2.22009e-07 9.99148 -0.334034 22 1 
576 1.20423 9.97134 -3.3612e-06 -3.28715e-06 9.97134 -1.39472 22 1 
576 1.20423 9.97134 -3.3612e-06 -3.28715e-06 9.97134 -1.39472 22 1 
577.333 1.2038 9.95666 -1.48384e-06 -1.47863e-06 9.95666 -2.1659 22 1 
578.667 1.20359 9.94944 6.17725e-07 6.33941e-07 9.94944 -2.55148 22 1 
580 1.20358 9.94912 -3.36549e-06 -3.67336e-06 9.94912 -2.57353 22 1 
581.333 1.20371 9.95369 2.78624e-06 2.81739e-06 9.95369 -2.33434 22 1 
582.667 1.20391 9.96118 -5.74801e-07 -2.29122e-07 9.96118 -1.96453 22 1 
584 1.20415 9.96965 -2.28984e-06 -2.31989e-06 9.96965 -1.53155 22 1 
585.333 1.20438 9.97764 1.80797e-06 1.62302e-06 9.97764 -1.11709 22 1 
586.667 1.20456 9.98447 -5.23223e-08 -5.7853e-09 9.98447 -0.798903 22 1 
588 1.20471 9.98952 5.45546e-07 5.72152e-07 9.98952 -0.523411 22 1 
589.333 1.20482 9.99318 -1.52892e-06 -1.69597e-06 9.99318 -0.31911 22 1 
590.667 1.20488 9.99608 7.07268e-07 8.04355e-07 9.99608 -0.21527 22 1 
592 1.20494 9.99764 9.37251e-07 1.04744e-06 9.99764 -0.115876 22 1 
593.333 1.20497 9.99857 -2.31874e-06 -2.48063e-06 9.99857 -0.0497419 22 1 
594.667 1.20497 9.99942 1.72202e-06 1.73071e-06 9.99942 -0.0479908 22 1 
596 1.20499 9.99956 -3.4501e-07 -2.66414e-07 9.99956 -0.0217359 22 1 
597.333 1.205 9.99976 7.90351e-08 -1.89675e-08 9.99976 0.00658053 22 1 
597.333 1.205 9.99976 7.90351e-08 -1.89675e-08 9.99976 0.00658053 24 1 
598.667 1.20499 10.0001 5.24337e-07 5.86433e-07 10.0001 -0.0131272 24 1 
600 1.205 9.99991 -1.59033e-06 -1.56586e-06 9.99991 -0.00428738 24 1 
601.333 1.20501 9.9999 1.62089e-06 1.55899e-06 9.9999 0.00907781 24 1 
602.667 1.20499 10.0001 -8.84314e-07 -8.13566e-07 10.0001 -0.0113618 24 1 
604 1.205 9.99988 -4.32547e-08 -5.44542e-08 9.99988 -0.00174802 24 1 
605.333 1.205 9.99995 1.05449e-06 9.51569e-07 9.99995 0.00528528 24 1 
606.667 1.205 10.0002 -1.19068e-06 -1.11358e-06 10.0002 -0.00483402 24 1 
608 1.205 9.99995 7.04701e-07 7.96582e-07 9.99995 0.00532663 24 1 
609.333 1.205 9.99998 -9.30809e-07 -1.05287e-06 9.99998 0.00467436 24 1 
610.667 1.205 10.0001 9.66916e-07 9.46056e-07 10.0001 -0.00735867 24 1 
612 1.205 9.99987 1.4673e-07 2.64858e-07 9.99987 0.0024183 24 1 
613.333 1.205 9.99994 -2.04603e-06 -2.135e-06 9.99994 -0.000238596 24 1 
614.667 1.205 10.0001 3.43153e-06 3.39196e-06 10.0001 -0.00783429 24 1 
616 1.205 9.99992 -1.81861e-06 -1.734e-06 9.99992 0.00890036 24 1 
617.333 1.205 10 -1.40979e-06 -1.46141e-06 10 0.00123395 24 1 
618.667 1.205 10.0001 2.56729e-06 2.57704e-06 10.0001 -0.00512837 24 1 
618.667 1.205 10.0001 2.56729e-06 2.57704e-06 10.0001 -0.00512837 24 1 
620 1.205 9.9999 -2.64375e-06 -2.57484e-06 9.9999 0.00419481 24 1 
621.333 1.205 9.99999 2.38208e-06 2.32557e-06 9.99999 -0.00191931 24 1 
622.667 1.205 10 1.23532e-07 8.16262e-08 10 -0.00259309 24 1 
624 1.205 9.99998 -3.09838e-06 -3.06162e-06 9.99998 0.00169505 24 1 
625.333 1.205 9.99997 3.46671e-06 3.48304e-06 9.99997 0.00341397 24 1 
626.667 1.205 10.0001 -1.63541e-06 -1.64822e-06 10.0001 -0.00450251 24 1 
628 1.205 9.99996 -6.92771e-07 -6.9922e-07 9.99996 0.000880741 24 1 
629.333 1.205 9.99994 2.56116e-06 2.57485e-06 9.99994 0.00460332 24 1 
630.667 1.205 10.0001 -3.00004e-06 -3.00716e-06 10.0001 -0.0076211 24 1 
632 1.205 9.99994 1.57393e-06 1.56879e-06 9.99994 0.00411175 24 1 
633.333 1.205 9.99996 6.35082e-07 6.40808e-07 9.99996 0.00301389 24 1 
634.667 1.205 10.0001 -2.24649e-06 -2.25598e-06 10.0001 -0.00648812 24 1 
636 1.205 9.99995 2.49539e-06 2.51535e-06 9.99995 0.00351809 24 1 
637.333 1.205 9.99997 -1.27468e-06 -1.28621e-06 9.99997 0.00200936 24 1 
638.667 1.205 10.0001 -7.3721e-07 -7.52971e-07 10.0001 -0.00456496 24 1 
640 1.205 9.99998 2.18418e-06 2.21598e-06 9.99998 0.0025 24 1 
640 1.205 9.99998 2.18418e-06 2.21598e-06 9.99998 0.0025 24 1 
641.333 1.205 9.99997 -1.87856e-06 -1.90397e-06 9.99997 0.00128571 24 1 
642.667 1.205 10 1.72991e-07 1.65036e-07 10 -0.0034919 24 1 
644 1.205 9.99997 1.16757e-06 1.20255e-06 9.99997 0.00370284 24 1 
645.333 1.205 10 -1.06374e-06 -1.07896e-06 10 -0.00295132 24 1 
646.667 1.205 9.99998 3.81617e-07 3.87266e-07 9.99998 0.000849468 24 1 
648 1.205 9.99997 -3.37779e-07 -3.41793e-07 9.99997 0.00320738 24 1 
649.333 1.205 10.0001 4.02812e-07 3.7556e-07 10.0001 -0.00647878 24 1 
650.667 1.205 9.99992 5.6029e-07 5.88642e-07 9.99992 0.00478933 24 1 
652 1.205 9.99998 -1.65131e-06 -1.64468e-06 9.99998 0.00102524 24 1 
653.333 1.205 10.0001 9.03e-07 8.8339e-07 10.0001 -0.00499818 24 1 
654.667 1.205 9.99996 1.1467e-06 1.14688e-06 9.99996 0.00365855 24 1 
656 1.205 9.99998 -1.73756e-06 -1.74164e-06 9.99998 0.00031207 24 1 
657.333 1.205 10 1.48277e-07 1.67832e-07 10 -0.00261197 24 1 
658.667 1.205 9.99998 1.17048e-06 1.18586e-06 9.99998 0.00199975 24 1 
660 1.205 10 -5.63798e-07 -5.90038e-07 10 2.94137e-05 24 1 
661.333 1.205 10 -4.89116e-07 -4.99974e-07 10 -0.0018222 24 1 
661.333 1.205 10 -4.89116e-07 -4.99974e-07 10 -0.0018222 24 1 
662.667 1.205 9.99997 2.76786e-07 2.91637e-07 9.99997 0.00241639 24 1 
664 1.205 10 4.21989e-07 4.24515e-07 10 -0.00110318 24 1 
665.333 1.205 10 -2.17857e-07 -2.28134e-07 10 -0.00147963 24 1 
666.667 1.205 9.99996 -4.16226e-07 -4.16004e-07 9.99996 0.00275636 24 1 
668 1.205 10 3.54336e-07 3.6884e-07 10 -0.00122579 24 1 
669.333 1.205 10 1.23007e-07 1.23937e-07 10 -0.00118591 24 1 
670.667 1.205 9.99998 -2.55364e-07 -2.70377e-07 9.99998 0.0017947 24 1 
672 1.205 10 1.76785e-07 1.74812e-07 10 -0.000572277 24 1 
673.333 1.205 10 -5.90754e-08 -4.95489e-08 10 -0.000726389 24 1 
674.667 1.205 9.99999 -1.85038e-07 -1.84673e-07 9.99999 0.000946057 24 1 
676 1.205 10 1.96933e-07 1.93582e-07 10 -6.40337e-05 24 1 
677.333 1.205 10 2.20768e-08 2.45993e-08 10 -0.000871032 24 1 
678.667 1.205 9.99999 -2.66494e-08 -2.62943e-08 9.99999 0.000665195 24 1 
680 1.205 9.99999 1.25922e-07 1.23166e-07 9.99999 0.000297982 24 1 
681.333 1.205 10 -2.19215e-07 -2.19107e-07 10 -0.000795233 24 1 
682.667 1.205 9.99999 -1.98126e-07 -1.96717e-07 9.99999 0.000578726 24 1 
682.667 1.205 9.99999 -1.98126e-07 -1.96717e-07 9.99999 0.000578726 31 1 
684 1.205 10 2.91899e-07 2.9195e-07 10 5.89454e-05 31 1 
685.333 1.205 10 1.87803e-07 1.87175e-07 10 -0.000663488 31 1 
686.667 1.205 9.99999 -2.07191e-07 -2.07243e-07 9.99999 0.000516958 31 1 
688 1.205 9.99999 -1.29045e-07 -1.28796e-07 9.99999 0.000186641 31 1 
689.333 1.205 10 9.67102e-08 9.66836e-08 10 -0.000451326 31 1 
690.667 1.205 10 7.09486e-08 7.09388e-08 10 0.000115115 31 1 
692 1.205 10 -2.4182e-08 -2.41167e-08 10 0.000153277 31 1 
693.333 1.205 10 -2.7375e-08 -2.73923e-08 10 -8.38533e-05 31 1 
694.667 1.205 10 -8.67466e-10 -8.82043e-10 10 -3.01373e-05 31 1 
696 1.205 10 4.56965e-09 4.56479e-09 10 2.15289e-05 31 1 
697.333 1.205 10 1.18663e-09 1.18669e-09 10 9.34422e-06 31 1 
698.667 1.205 10 -1.64058e-11 -1.64423e-11 10 -6.1892e-06 31 1 
700 1.205 10 -5.39519e-15 -6.88605e-14 10 8.75958e-13 31 1 
701.333 1.205 10 -2.70717e-14 -6.29226e-14 10 1.63109e-12 31 1 
702.667 1.205 10 -2.20596e-14 -6.41676e-14 10 7.85341e-13 31 1 
704 1.205 10 1.08542e-15 -8.25879e-14 10 1.0874e-12 31 1 
704 1.205 10 1.08542e-15 -8.25879e-14 10 1.0874e-12 31 1 
705.333 1.205 10 -4.02245e-15 -8.36414e-14 10 3.8663e-12 31 1 
706.667 1.205 10 -3.06791e-14 -7.22444e-14 10 3.65486e-12 31 1 
708 1.205 10 -3.22754e-14 -6.62427e-14 10 1.63109e-12 31 1 
709.333 1.205 10 -5.29941e-15 -6.43272e-14 10 2.74869e-12 31 1 
710.667 1.205 10 2.49966e-14 -4.35446e-14 10 3.95691e-12 31 1 
712 1.205 10 3.51166e-14 -9.54533e-15 10 3.05075e-12 31 1 
713.333 1.205 10 8.39606e-15 -4.45023e-14 10 4.53082e-13 31 1 
714.667 1.205 10 -1.11735e-15 -7.36172e-14 10 4.53082e-13 31 1 
716 1.205 10 5.49096e-15 -4.20442e-14 10 2.17479e-12 31 1 
717.333 1.205 10 -5.36326e-15 -4.91632e-14 10 3.50383e-12 31 1 
718.667 1.205 10 -1.88353e-15 -5.99217e-14 10 5.31616e-12 31 1 
720 1.205 10 5.55481e-15 -5.02806e-14 10 4.40999e-12 31 1 
721.333 1.205 10 -1.4334e-14 -4.43108e-14 10 1.0874e-12 31 1 
722.667 1.205 10 -1.88672e-14 -2.4837e-14 10 -3.02054e-14 31 1 
724 1.205 10 3.8309e-15 -3.18603e-14 10 3.23198e-12 31 1 
725.333 1.205 10 1.28974e-14 -6.03686e-14 10 7.43054e-12 31 1 
725.333 1.205 10 1.28974e-14 -6.03686e-14 10 7.43054e-12 31 1 
726.667 1.205 10 1.07585e-14 -3.20838e-14 10 5.07451e-12 31 1 
728 1.205 10 2.84125e-15 -1.03434e-14 10 -1.72171e-12 31 1 
729.333 1.205 10 7.59796e-15 -4.03202e-14 10 -2.92993e-12 31 1 
730.667 1.205 10 1.96972e-14 -3.97137e-14 10 -1.60089e-12 31 1 
732 1.205 10 3.02322e-14 -4.06395e-14 10 6.94725e-13 31 1 
733.333 1.205 10 1.81968e-14 -5.01848e-14 10 4.71205e-12 31 1 
734.667 1.205 10 -4.8844e-15 -3.32969e-14 10 3.77568e-12 31 1 
736 1.205 10 -9.96035e-15 -2.60821e-14 10 2.26541e-12 31 1 
737.333 1.205 10 -3.57551e-15 -3.69363e-14 10 2.53726e-12 31 1 
738.667 1.205 10 -2.64971e-15 -3.38716e-14 10 2.08418e-12 31 1 
740 1.205 10 -1.30889e-14 -2.21235e-14 10 1.81233e-12 31 1 
741.333 1.205 10 -1.75583e-15 -1.85799e-14 10 2.62787e-12 31 1 
742.667 1.205 10 1.27378e-14 -4.17568e-14 10 4.77246e-12 31 1 
744 1.205 10 2.98491e-14 -7.16698e-14 10 4.92349e-12 31 1 
745.333 1.205 10 3.18923e-14 -6.08794e-14 10 3.38301e-12 31 1 
746.667 1.205 10 9.48148e-15 -4.99614e-14 10 3.41321e-12 31 1 
746.667 1.205 10 9.48148e-15 -4.99614e-14 10 3.41321e-12 31 1 
748 1.205 10 5.77828e-15 -6.0656e-14 10 3.14137e-12 31 1 
749.333 1.205 10 -1.49405e-14 -3.63616e-14 10 -2.11438e-13 31 1 
750.667 1.205 10 -2.32408e-14 -2.67844e-14 10 2.11438e-13 31 1 
752 1.205 10 -6.44869e-15 -3.368e-14 10 3.8663e-12 31 1 
753.333 1.205 10 -1.92822e-14 -3.64574e-14 10 4.68184e-12 31 1 
754.667 1.205 10 -7.88527e-15 -2.09103e-14 10 2.99034e-12 31 1 
756 1.205 10 -1.11735e-15 -2.56032e-14 10 6.34314e-13 31 1 
757.333 1.205 10 -2.36558e-14 -5.91874e-14 10 -5.73903e-13 31 1 
758.667 1.205 10 -1.63452e-14 -6.74558e-14 10 5.73903e-13 31 1 
760 1.205 10 -1.24824e-14 -4.89079e-14 10 2.99034e-12 31 1 
761.333 1.205 10 -2.22192e-14 -2.78379e-14 10 2.29561e-12 31 1 
762.667 1.205 10 -4.02245e-15 -4.15014e-14 10 1.23842e-12 31 1 
764 1.205 10 9.09839e-15 -5.13022e-14 10 1.6613e-12 31 1 
765.333 1.205 10 5.65058e-15 -3.85644e-14 10 6.94725e-13 31 1 
766.667 1.205 10 3.8309e-16 -5.13341e-14 10 9.06163e-13 31 1 
768 1.205 10 -1.21312e-14 -3.98733e-14 10 4.01732e-12 31 1 
768 1.205 10 -1.21312e-14 -3.98733e-14 10 4.01732e-12 32 1 
769.333 1.205 10 3.32011e-15 -2.58267e-14 10 4.77246e-12 32 1 
770.667 1.205 10 -7.05524e-15 -4.20761e-14 10 4.16835e-12 32 1 
772 1.205 10 -1.51959e-14 -2.87956e-14 10 3.20178e-12 32 1 
773.333 1.205 10 -4.75671e-15 -3.39354e-14 10 1.38945e-12 32 1 
774.667 1.205 10 6.09752e-15 -5.63462e-14 10 1.99356e-12 32 1 
776 1.205 10 -9.25802e-16 -6.32737e-14 10 3.50383e-12 32 1 
777.333 1.205 10 5.07594e-15 -4.1246e-14 10 4.71205e-12 32 1 
778.667 1.205 10 1.90268e-14 -3.24669e-14 10 3.80589e-12 32 1 
780 1.205 10 -1.03434e-14 -3.83409e-14 10 1.35924e-12 32 1 
781.333 1.205 10 -1.04711e-14 -2.67205e-14 10 1.60089e-12 32 1 
782.667 1.205 10 -9.86457e-15 -2.24746e-14 10 2.80911e-12 32 1 
784 1.205 10 -2.0623e-14 -3.91391e-14 10 2.53726e-12 32 1 
785.333 1.205 10 -1.8516e-14 -3.6202e-14 10 2.62787e-12 32 1 
786.667 1.205 10 4.05437e-15 -3.02641e-14 10 3.05075e-12 32 1 
788 1.205 10 5.55481e-15 -7.43834e-15 10 3.83609e-12 32 1 
789.333 1.205 10 -6.32099e-15 -5.10787e-15 10 4.53082e-12 32 1 
790.667 1.205 10 1.34082e-15 -2.4007e-14 10 2.68828e-12 32 1 
792 1.205 10 -8.90685e-15 -4.01287e-14 10 1.0874e-12 32 1 
793.333 1.205 10 2.9051e-15 -4.02883e-14 10 2.80911e-12 32 1 
794.667 1.205 10 1.27696e-16 -1.40147e-14 10 2.96013e-12 32 1 
796 1.205 10 -1.19396e-14 -2.70079e-14 10 -3.02054e-13 32 1 
797.333 1.205 10 -6.12944e-15 -4.73116e-14 10 -3.02054e-12 32 1 
798.667 1.205 10 3.32012e-15 -3.89794e-14 10 -2.47685e-12 32 1 
800 1.205 10 2.04953e-14 -2.56032e-14 10 -1.0874e-12 32 1 
