72.4518;r ;Density                 ;Velocity u              ;Velocity v              ;Velocity w              ;|Velocity|              ;Pressure                ;Distribution            ;Levels                  ;
0 1.20596 9.99228 0.000151188 0.000310691 9.99228 1.73494 1 1 
1.33334 1.20589 9.99314 0.000399641 0.000653207 9.99315 1.61289 1 1 
2.66666 1.20572 9.99365 0.000836632 0.00124791 9.99366 1.30192 1 1 
4 1.20557 9.99368 0.001231 0.00181332 9.99369 1.02556 1 1 
5.33334 1.20546 9.99409 0.00149269 0.00217897 9.99411 0.830686 1 1 
6.66666 1.2053 9.99352 0.00165782 0.0023472 9.99355 0.543916 1 1 
8 1.20515 9.99349 0.00183084 0.00254516 9.99353 0.267072 1 1 
9.33334 1.205 9.99378 0.00180759 0.00244706 9.99382 0.0066059 1 1 
10.6667 1.20482 9.99345 0.00171987 0.00222273 9.99349 -0.322431 1 1 
12 1.20469 9.99389 0.00161929 0.0019965 9.99392 -0.55503 1 1 
13.3333 1.20456 9.99405 0.00134552 0.00149634 9.99408 -0.795284 1 1 
14.6667 1.20441 9.99397 0.0010492 0.000971809 9.99399 -1.07269 1 1 
16 1.20436 9.99441 0.000689976 0.000381031 9.99442 -1.1595 1 1 
17.3333 1.20431 9.9946 0.000233208 -0.00038261 9.99461 -1.24651 1 1 
18.6667 1.20425 9.99492 -0.000147662 -0.00100695 9.99492 -1.34876 1 1 
20 1.20429 9.99522 -0.000607338 -0.00172729 9.99522 -1.28858 1 1 
21.3333 1.20433 9.99485 -0.00114825 -0.00257178 9.99485 -1.20348 1 1 
21.3333 1.20433 9.99485 -0.00114825 -0.00257178 9.99485 -1.20348 1 1 
22.6667 1.20442 9.99519 -0.00155674 -0.00317906 9.9952 -1.04417 1 1 
24 1.20455 9.99561 -0.0019924 -0.00382898 9.99564 -0.810982 1 1 
25.3333 1.20468 9.99459 -0.0024233 -0.00446701 9.99463 -0.569611 1 1 
26.6667 1.2049 9.9945 -0.00275265 -0.00488757 9.99454 -0.179517 1 1 
28 1.20512 9.99484 -0.00308475 -0.00531466 9.9949 0.221144 1 1 
29.3333 1.20531 9.99383 -0.00327349 -0.00555066 9.9939 0.560195 1 1 
30.6667 1.20558 9.99298 -0.00337024 -0.00560947 9.99306 1.04826 1 1 
32 1.20585 9.99258 -0.00345682 -0.00564513 9.99266 1.54018 1 1 
33.3333 1.20608 9.9922 -0.00335877 -0.00538156 9.99228 1.94502 1 1 
34.6667 1.20632 9.99093 -0.0031898 -0.00502169 9.99101 2.38351 1 1 
36 1.20653 9.98912 -0.00298451 -0.00465453 9.98919 2.76393 1 1 
37.3333 1.20674 9.98868 -0.00259819 -0.00397119 9.98874 3.14084 1 1 
38.6667 1.20692 9.9882 -0.00221372 -0.0032894 9.98825 3.47153 1 1 
40 1.20702 9.98558 -0.00179255 -0.00260807 9.98562 3.65375 1 1 
41.3333 1.20714 9.98388 -0.00122205 -0.0016874 9.98391 3.87054 1 1 
42.6667 1.20723 9.98375 -0.000667312 -0.000797754 9.98376 4.03415 1 1 
42.6667 1.20723 9.98375 -0.000667312 -0.000797754 9.98376 4.03415 2 1 
44 1.20724 9.98184 -8.1976e-05 0.000132593 9.98185 4.053 2 1 
45.3333 1.20726 9.97971 0.000552197 0.00114305 9.97971 4.07907 2 1 
46.6667 1.20723 9.97883 0.00117329 0.0020859 9.97883 4.01973 2 1 
48 1.20714 9.97846 0.0018451 0.00310733 9.97846 3.86492 2 1 
49.3333 1.20707 9.97721 0.00245425 0.00405076 9.97723 3.7337 2 1 
50.6667 1.20692 9.97546 0.00300732 0.00485611 9.9755 3.4683 2 1 
52 1.20673 9.97546 0.00359598 0.0057106 9.97551 3.12825 2 1 
53.3333 1.20656 9.97572 0.00403993 0.00635306 9.97578 2.8237 2 1 
54.6667 1.20635 9.97418 0.00434092 0.00676171 9.97426 2.4362 2 1 
56 1.20613 9.9739 0.00462068 0.00715748 9.974 2.04626 2 1 
57.3333 1.20591 9.97492 0.00472992 0.00726075 9.97502 1.63532 2 1 
58.6667 1.20565 9.97422 0.00469055 0.00713068 9.97433 1.18214 2 1 
60 1.20548 9.97376 0.00457354 0.00692052 9.97387 0.863784 2 1 
61.3333 1.20528 9.97463 0.00429473 0.00643549 9.97473 0.505335 2 1 
62.6667 1.20504 9.9754 0.00395734 0.00585153 9.97549 0.0755813 2 1 
64 1.20491 9.97493 0.00350318 0.00512153 9.975 -0.157244 2 1 
64 1.20491 9.97493 0.00350318 0.00512153 9.975 -0.157244 2 1 
65.3333 1.20479 9.97528 0.00292316 0.00420212 9.97533 -0.382373 2 1 
66.6667 1.20465 9.97691 0.00236588 0.00333027 9.97695 -0.640189 2 1 
68 1.20455 9.9774 0.00168276 0.00227477 9.97743 -0.809267 2 1 
69.3333 1.20449 9.97621 0.000900229 0.00107205 9.97622 -0.92614 2 1 
70.6667 1.20447 9.97732 0.000209148 2.36283e-05 9.97732 -0.950048 2 1 
72 1.20447 9.97933 -0.000539344 -0.00111783 9.97933 -0.964435 2 1 
73.3333 1.20447 9.97774 -0.00131291 -0.00228553 9.97774 -0.959676 2 1 
74.6667 1.20455 9.97722 -0.00200709 -0.0032989 9.97724 -0.808252 2 1 
76 1.20466 9.97892 -0.00266754 -0.00429661 9.97895 -0.62222 2 1 
77.3333 1.20474 9.97889 -0.00321577 -0.00512043 9.97893 -0.463951 2 1 
78.6667 1.20489 9.97736 -0.0037061 -0.00580206 9.97741 -0.190531 2 1 
80 1.20506 9.977 -0.00411078 -0.00639388 9.97707 0.105351 2 1 
81.3333 1.20521 9.97826 -0.00429258 -0.00666338 9.97834 0.379054 2 1 
82.6667 1.20541 9.97729 -0.00440437 -0.00679339 9.97738 0.735637 2 1 
84 1.20558 9.97459 -0.00444997 -0.00682967 9.97468 1.04031 2 1 
85.3333 1.20574 9.97524 -0.00424559 -0.00649604 9.97533 1.3362 2 1 
85.3333 1.20574 9.97524 -0.00424559 -0.00649604 9.97533 1.3362 3 1 
86.6667 1.20594 9.97602 -0.00396207 -0.00604669 9.97611 1.69813 3 1 
88 1.20609 9.9736 -0.00361589 -0.00549117 9.97368 1.97419 3 1 
89.3333 1.20625 9.97219 -0.0030581 -0.00459931 9.97225 2.2528 3 1 
90.6667 1.2064 9.97295 -0.00244826 -0.00366574 9.973 2.52012 3 1 
92 1.20651 9.97174 -0.00177806 -0.00264225 9.97178 2.71876 3 1 
93.3333 1.20662 9.96926 -0.000987245 -0.00139412 9.96928 2.92025 3 1 
94.6667 1.20668 9.96888 -0.000176011 -0.000135564 9.96889 3.03206 3 1 
96 1.20672 9.96923 0.000697581 0.00119066 9.96923 3.10865 3 1 
97.3333 1.20675 9.96794 0.00154941 0.0025017 9.96794 3.15876 3 1 
98.6667 1.20672 9.96574 0.0023476 0.00377218 9.96575 3.1014 3 1 
100 1.20667 9.96592 0.00320375 0.00507794 9.96593 3.025 3 1 
101.333 1.20659 9.96621 0.00391145 0.00614566 9.96623 2.87791 3 1 
102.667 1.20647 9.96389 0.00455658 0.00717607 9.96392 2.64884 3 1 
104 1.20637 9.96369 0.00519174 0.00818186 9.96374 2.4685 3 1 
105.333 1.20622 9.96498 0.00563049 0.00882423 9.96504 2.20359 3 1 
106.667 1.20601 9.96408 0.00600517 0.00937946 9.96415 1.83241 3 1 
106.667 1.20601 9.96408 0.00600517 0.00937946 9.96415 1.83241 3 1 
108 1.20588 9.96227 0.00625909 0.00985345 9.96234 1.58206 3 1 
109.333 1.2057 9.96235 0.00634512 0.00997764 9.96243 1.26774 3 1 
110.667 1.20548 9.96327 0.00637665 0.00998591 9.96335 0.858444 3 1 
112 1.20531 9.96252 0.00625708 0.00986745 9.96259 0.56303 3 1 
113.333 1.20515 9.96155 0.00593001 0.00941935 9.96161 0.262156 3 1 
114.667 1.20496 9.96354 0.00558664 0.00888534 9.9636 -0.0721516 3 1 
116 1.20481 9.96468 0.00513758 0.00820019 9.96472 -0.338996 3 1 
117.333 1.20468 9.96177 0.00450579 0.00731794 9.9618 -0.586477 3 1 
118.667 1.20455 9.96262 0.00389372 0.00643051 9.96264 -0.816163 3 1 
120 1.20449 9.96423 0.00318929 0.00535853 9.96424 -0.926867 3 1 
121.333 1.2044 9.96311 0.00244007 0.00426312 9.96312 -1.08111 3 1 
122.667 1.20436 9.96305 0.00173475 0.00328263 9.96305 -1.1551 3 1 
124 1.2044 9.96381 0.000992675 0.00217425 9.96381 -1.08837 3 1 
125.333 1.20439 9.9654 0.000330452 0.00116723 9.9654 -1.10768 3 1 
126.667 1.20444 9.96401 -0.000291504 0.00033419 9.96402 -1.01208 3 1 
128 1.20452 9.96245 -0.000894146 -0.000516411 9.96247 -0.862191 3 1 
128 1.20452 9.96245 -0.000894146 -0.000516411 9.96247 -0.862191 3 1 
129.333 1.2046 9.96376 -0.00138589 -0.00126918 9.96378 -0.72071 3 1 
130.667 1.20472 9.96404 -0.00175668 -0.00179267 9.96407 -0.508879 3 1 
132 1.20483 9.96259 -0.00209904 -0.00220886 9.96262 -0.300011 3 1 
133.333 1.20497 9.96223 -0.00230251 -0.00249164 9.96227 -0.0485046 3 1 
134.667 1.20511 9.96345 -0.002365 -0.00259705 9.9635 0.194567 3 1 
136 1.20523 9.96168 -0.00233814 -0.00249243 9.96173 0.423862 3 1 
137.333 1.20538 9.95924 -0.00219521 -0.00219539 9.95928 0.684206 3 1 
138.667 1.20552 9.95973 -0.00192393 -0.00180956 9.95976 0.937909 3 1 
140 1.20562 9.96064 -0.00150982 -0.0011825 9.96067 1.12586 3 1 
141.333 1.20573 9.95865 -0.0010578 -0.000397903 9.95868 1.31713 3 1 
142.667 1.20584 9.95656 -0.000532606 0.000419698 9.95658 1.52084 3 1 
144 1.2059 9.95735 0.000113502 0.0013674 9.95736 1.6343 3 1 
145.333 1.20594 9.95632 0.000818613 0.00245003 9.95633 1.69871 3 1 
146.667 1.20598 9.95355 0.00145934 0.00348967 9.95355 1.76636 3 1 
148 1.206 9.95328 0.00215446 0.00451858 9.95328 1.80332 3 1 
149.333 1.20597 9.95446 0.00288039 0.00559504 9.95446 1.75996 3 1 
149.333 1.20597 9.95446 0.00288039 0.00559504 9.95446 1.75996 3 1 
150.667 1.20593 9.95251 0.00352352 0.00661933 9.95251 1.67968 3 1 
152 1.20589 9.9496 0.0040998 0.00753069 9.9496 1.60695 3 1 
153.333 1.20583 9.95054 0.00469777 0.00838964 9.95056 1.4978 3 1 
154.667 1.20573 9.95123 0.00521029 0.00917849 9.95124 1.32511 3 1 
156 1.20564 9.9483 0.00558087 0.00980641 9.94832 1.14848 3 1 
157.333 1.20555 9.94704 0.00591493 0.0103046 9.94706 0.993183 3 1 
158.667 1.20545 9.94896 0.00619116 0.0107171 9.94899 0.817069 3 1 
160 1.20533 9.94806 0.00634613 0.0109873 9.94809 0.594798 3 1 
161.333 1.2052 9.94511 0.00636355 0.0110644 9.94513 0.369819 3 1 
162.667 1.20512 9.94509 0.00636652 0.0110503 9.94511 0.21542 3 1 
164 1.20501 9.94659 0.00626244 0.0109016 9.94661 0.0214266 3 1 
165.333 1.20489 9.94529 0.00599638 0.0105808 9.94531 -0.204249 3 1 
166.667 1.20483 9.94207 0.00570371 0.0101918 9.94208 -0.306924 3 1 
168 1.20474 9.944 0.00539536 0.00973042 9.94401 -0.46631 3 1 
169.333 1.20465 9.94535 0.00499661 0.00919799 9.94535 -0.624763 3 1 
170.667 1.20463 9.94186 0.00454276 0.00862011 9.94186 -0.65966 3 1 
170.667 1.20463 9.94186 0.00454276 0.00862011 9.94186 -0.65966 11 1 
172 1.2046 9.94186 0.00413659 0.00805812 9.94187 -0.716037 11 1 
173.333 1.20458 9.94353 0.00376172 0.00754356 9.94353 -0.753659 11 1 
174.667 1.20458 9.94196 0.00330003 0.00698666 9.94197 -0.76695 11 1 
176 1.20459 9.93841 0.00287911 0.00647198 9.93841 -0.732081 11 1 
177.333 1.20463 9.93907 0.00256995 0.0060715 9.93907 -0.660852 11 1 
178.667 1.20466 9.94075 0.00224931 0.00568794 9.94076 -0.605923 11 1 
180 1.20471 9.93753 0.00192722 0.00535716 9.93753 -0.515156 11 1 
181.333 1.2048 9.9369 0.0016971 0.00513659 9.9369 -0.370017 11 1 
182.667 1.20488 9.93962 0.00157476 0.00503692 9.93963 -0.214455 11 1 
184 1.20496 9.93767 0.00139649 0.00490384 9.93767 -0.0765777 11 1 
185.333 1.20503 9.93269 0.00124984 0.00481011 9.9327 0.0587607 11 1 
186.667 1.20514 9.93148 0.00122665 0.0048629 9.93149 0.254588 11 1 
188 1.20524 9.93328 0.00122931 0.0049406 9.93328 0.434648 11 1 
189.333 1.2053 9.93184 0.00124925 0.00504949 9.93184 0.541984 11 1 
190.667 1.2054 9.92832 0.00135516 0.00525211 9.92832 0.715974 11 1 
192 1.20548 9.92897 0.00155724 0.00558065 9.92897 0.861952 11 1 
192 1.20548 9.92897 0.00155724 0.00558065 9.92897 0.861952 11 1 
193.333 1.2055 9.92843 0.00167029 0.00574639 9.92843 0.907167 11 1 
194.667 1.20553 9.92238 0.00169229 0.0058606 9.92238 0.949902 11 1 
196 1.20555 9.92014 0.00194891 0.00622823 9.92014 0.997734 11 1 
197.333 1.20556 9.92299 0.00217026 0.00649837 9.92299 1.00277 11 1 
198.667 1.20554 9.92013 0.00217353 0.00657752 9.92013 0.972865 11 1 
200 1.20551 9.91538 0.00243063 0.00693278 9.91539 0.917157 11 1 
201.333 1.20545 9.91499 0.002621 0.00721546 9.915 0.812737 11 1 
202.667 1.20538 9.91217 0.00263869 0.00724671 9.91217 0.695636 11 1 
204 1.20529 9.90812 0.00283396 0.00753748 9.90813 0.526065 11 1 
205.333 1.20523 9.90775 0.00298862 0.00780798 9.90776 0.41003 11 1 
206.667 1.2052 9.90938 0.00318447 0.00808894 9.90938 0.354438 11 1 
208 1.20508 9.90876 0.00337423 0.00836936 9.90877 0.139875 11 1 
209.333 1.205 9.9035 0.0033924 0.00854925 9.90351 -0.00364318 11 1 
210.667 1.20498 9.90006 0.00353922 0.00884755 9.90007 -0.0348921 11 1 
212 1.20492 9.8991 0.00366157 0.00904461 9.89911 -0.150157 11 1 
213.333 1.20488 9.89541 0.0037202 0.00925807 9.89542 -0.223838 11 1 
213.333 1.20488 9.89541 0.0037202 0.00925807 9.89542 -0.223838 11 1 
214.667 1.2049 9.89327 0.00383051 0.0095494 9.89328 -0.184959 11 1 
216 1.20493 9.89563 0.00392846 0.00975755 9.89564 -0.128511 11 1 
217.333 1.20495 9.89627 0.00400878 0.00988954 9.89628 -0.0871202 11 1 
218.667 1.20503 9.89183 0.0040134 0.0100574 9.89184 0.0491931 11 1 
220 1.20511 9.8889 0.00404877 0.0102326 9.88891 0.195361 11 1 
221.333 1.20518 9.88675 0.00410133 0.0102579 9.88676 0.330916 11 1 
222.667 1.20527 9.88046 0.00402757 0.0101878 9.88046 0.493213 11 1 
224 1.20536 9.87721 0.00387249 0.0101164 9.87722 0.641709 11 1 
225.333 1.20549 9.87738 0.00374576 0.00995623 9.87739 0.882245 11 1 
226.667 1.20561 9.8759 0.00368987 0.00976174 9.87591 1.10314 11 1 
228 1.20567 9.87266 0.00358723 0.00961778 9.87267 1.21091 11 1 
229.333 1.20574 9.86596 0.00339842 0.00942478 9.86597 1.34456 11 1 
230.667 1.2058 9.86049 0.00319694 0.00908407 9.8605 1.44348 11 1 
232 1.2058 9.8562 0.00306832 0.00877037 9.8562 1.44375 11 1 
233.333 1.20584 9.85101 0.00295498 0.00857941 9.85102 1.51493 11 1 
234.667 1.20589 9.84813 0.00287958 0.0084396 9.84813 1.60729 11 1 
234.667 1.20589 9.84813 0.00287958 0.0084396 9.84813 1.60729 11 1 
236 1.20581 9.84511 0.00274556 0.00822594 9.84513 1.46362 11 1 
237.333 1.20577 9.8365 0.00253585 0.0079508 9.83652 1.38343 11 1 
238.667 1.20575 9.82813 0.00231452 0.00774769 9.82814 1.34718 11 1 
240 1.20566 9.82498 0.00222291 0.00773393 9.82499 1.18703 11 1 
241.333 1.20565 9.81887 0.00230047 0.00787073 9.81888 1.17615 11 1 
242.667 1.20558 9.81501 0.00234906 0.00802162 9.81502 1.04309 11 1 
244 1.20555 9.80811 0.00229969 0.00812569 9.80812 0.999835 11 1 
245.333 1.20552 9.80043 0.00224692 0.00827212 9.80044 0.946479 11 1 
246.667 1.2055 9.79365 0.00241285 0.00868623 9.79365 0.901906 11 1 
248 1.20558 9.78506 0.00241234 0.00890258 9.78506 1.04046 11 1 
249.333 1.20559 9.78096 0.00265506 0.00938756 9.78096 1.0572 11 1 
250.667 1.20568 9.77268 0.00286104 0.00983489 9.77269 1.22151 11 1 
252 1.20576 9.76466 0.00277028 0.00993503 9.76467 1.36943 11 1 
253.333 1.20593 9.75262 0.0029869 0.0103552 9.75263 1.67173 11 1 
254.667 1.20605 9.74464 0.00313934 0.0106618 9.74465 1.89863 11 1 
256 1.20619 9.73594 0.00321255 0.0108537 9.73595 2.14511 11 1 
256 1.20619 9.73594 0.00321255 0.0108537 9.73595 2.14511 13 1 
257.333 1.20643 9.72223 0.00334922 0.0110665 9.72224 2.57787 13 1 
258.667 1.20654 9.71165 0.00327578 0.0110226 9.71166 2.78709 13 1 
260 1.20672 9.69744 0.00332808 0.0110323 9.69745 3.09968 13 1 
261.333 1.20695 9.6807 0.00344178 0.0110688 9.6807 3.52553 13 1 
262.667 1.20711 9.66352 0.00332605 0.0109138 9.66352 3.81267 13 1 
264 1.20716 9.65167 0.00325008 0.0107334 9.65168 3.90564 13 1 
265.333 1.20737 9.6324 0.00318848 0.010539 9.63241 4.27308 13 1 
266.667 1.20759 9.60519 0.00310276 0.0103771 9.6052 4.67731 13 1 
268 1.2075 9.58761 0.0029894 0.0101678 9.58763 4.50768 13 1 
269.333 1.20765 9.56384 0.00297273 0.0100041 9.56385 4.78229 13 1 
270.667 1.20797 9.53035 0.00287104 0.00985853 9.53037 5.37144 13 1 
272 1.20773 9.51537 0.00275923 0.00976615 9.51539 4.93554 13 1 
273.333 1.20791 9.48141 0.00274672 0.00974047 9.48145 5.25935 13 1 
274.667 1.20835 9.43675 0.00272094 0.00977352 9.43679 6.05383 13 1 
276 1.20813 9.41287 0.00268487 0.00986447 9.41292 5.65482 13 1 
277.333 1.20835 9.36456 0.00267611 0.00996952 9.3646 6.0592 13 1 
277.333 1.20835 9.36456 0.00267611 0.00996952 9.3646 6.0592 13 1 
278.667 1.20878 9.31773 0.00277386 0.010186 9.31777 6.82195 13 1 
280 1.20886 9.27433 0.00285357 0.010475 9.27436 6.96379 13 1 
281.333 1.20913 9.21357 0.00288092 0.010751 9.21359 7.46406 13 1 
282.667 1.20951 9.16565 0.00295897 0.0110427 9.16566 8.14413 13 1 
284 1.21006 9.11747 0.00306339 0.0113358 9.11748 9.13468 13 1 
285.333 1.21062 9.05406 0.00311082 0.0115481 9.05411 10.1539 13 1 
286.667 1.21093 8.96551 0.00314271 0.0116545 8.96566 10.7064 13 1 
288 1.2113 8.85906 0.003204 0.0117912 8.85919 11.382 13 1 
289.333 1.21197 8.77344 0.00322944 0.0119767 8.77347 12.59 13 1 
290.667 1.21284 8.69267 0.0032286 0.0120699 8.69269 14.162 13 1 
292 1.2135 8.59384 0.00323934 0.0120761 8.59387 15.353 13 1 
293.333 1.21391 8.49126 0.00320484 0.0120539 8.49134 16.1011 13 1 
294.667 1.21462 8.36757 0.00315291 0.011955 8.36775 17.3738 13 1 
296 1.21548 8.23866 0.00311944 0.0118832 8.23879 18.9229 13 1 
297.333 1.21601 8.12659 0.00309436 0.0117934 8.12665 19.8868 13 1 
298.667 1.21023 7.94657 0.00298239 0.0115085 7.94671 9.44298 13 1 
298.667 1.21023 7.94657 0.00298239 0.0115085 7.94671 9.44298 14 1 
300 1.20039 7.88899 0.00286702 0.011378 7.8891 -8.32868 14 1 
301.333 1.1968 7.89847 0.00279189 0.0112712 7.89856 -14.8121 14 1 
302.667 1.19759 7.78799 0.00264017 0.0110302 7.78811 -13.3908 14 1 
304 1.19821 7.66829 0.00254798 0.0108974 7.66843 -12.2618 14 1 
305.333 1.1986 7.54929 0.00245396 0.0107466 7.54954 -11.5683 14 1 
306.667 1.19908 7.4446 0.00228408 0.010539 7.4448 -10.6908 14 1 
308 1.19948 7.33624 0.00219238 0.010445 7.33633 -9.96193 14 1 
309.333 1.19987 7.24429 0.00207142 0.0103943 7.24436 -9.26132 14 1 
310.667 1.20033 7.16756 0.00198184 0.0103809 7.16761 -8.43163 14 1 
312 1.20073 7.08902 0.00192275 0.0103543 7.08905 -7.71283 14 1 
313.333 1.20107 7.02434 0.00181773 0.0102771 7.02436 -7.09637 14 1 
314.667 1.2014 6.96019 0.00175399 0.0103161 6.96022 -6.49809 14 1 
316 1.20163 6.88887 0.00162619 0.0102554 6.88894 -6.09363 14 1 
317.333 1.20186 6.83017 0.00153631 0.0101608 6.83022 -5.66603 14 1 
318.667 1.20221 6.7799 0.00152153 0.0101853 6.77994 -5.04002 14 1 
320 1.20244 6.72424 0.00146557 0.0102265 6.72429 -4.62989 14 1 
320 1.20244 6.72424 0.00146557 0.0102265 6.72429 -4.62989 14 1 
321.333 1.20253 6.66965 0.00139065 0.0102227 6.6697 -4.45468 14 1 
322.667 1.20275 6.62216 0.00133403 0.010222 6.62222 -4.06138 14 1 
324 1.20299 6.5751 0.00129002 0.0102444 6.57514 -3.62854 14 1 
325.333 1.20309 6.5344 0.0012455 0.0103025 6.53442 -3.44164 14 1 
326.667 1.20325 6.50405 0.00121961 0.0103824 6.50407 -3.15521 14 1 
328 1.20348 6.47228 0.00118654 0.0104194 6.4723 -2.7479 14 1 
329.333 1.2036 6.44047 0.00111435 0.0104317 6.44048 -2.53497 14 1 
330.667 1.20366 6.41202 0.00105359 0.0104769 6.41203 -2.42775 14 1 
332 1.20376 6.39023 0.00101089 0.010494 6.39023 -2.23201 14 1 
333.333 1.20397 6.38062 0.00095319 0.0104732 6.38063 -1.86552 14 1 
334.667 1.20412 6.36417 0.000894387 0.0104785 6.36417 -1.58105 14 1 
336 1.2041 6.33714 0.000826775 0.010463 6.33715 -1.62601 14 1 
337.333 1.20412 6.32059 0.000741575 0.010394 6.3206 -1.59438 14 1 
338.667 1.20429 6.31171 0.000673116 0.0103302 6.31172 -1.28076 14 1 
340 1.20444 6.3033 0.000645816 0.0103219 6.30331 -1.01599 14 1 
341.333 1.20445 6.2877 0.000591923 0.0102977 6.28771 -0.992603 14 1 
341.333 1.20445 6.2877 0.000591923 0.0102977 6.28771 -0.992603 15 1 
342.667 1.20441 6.26072 0.000482033 0.0102141 6.26074 -1.07429 15 1 
344 1.20449 6.24575 0.000415437 0.0101779 6.24576 -0.922019 15 1 
345.333 1.20463 6.24132 0.000422303 0.0102038 6.24133 -0.662842 15 1 
346.667 1.20466 6.22585 0.000403398 0.0101944 6.22586 -0.615152 15 1 
348 1.20466 6.20353 0.000331248 0.0101532 6.20355 -0.607673 15 1 
349.333 1.20468 6.17995 0.000288241 0.0101944 6.17997 -0.573862 15 1 
350.667 1.20474 6.16641 0.000301359 0.0102784 6.16643 -0.476996 15 1 
352 1.20485 6.16145 0.00029081 0.0102678 6.16146 -0.279629 15 1 
353.333 1.20486 6.13949 0.00020982 0.0102448 6.1395 -0.257477 15 1 
354.667 1.20484 6.11415 0.000153936 0.0103193 6.11417 -0.281147 15 1 
356 1.20491 6.10325 0.000186479 0.0104387 6.10326 -0.15715 15 1 
357.333 1.20496 6.09099 0.000213428 0.0105127 6.091 -0.0747909 15 1 
358.667 1.205 6.07718 0.000170049 0.0105641 6.07719 -0.000325703 15 1 
360 1.20504 6.06279 0.000107218 0.0106074 6.0628 0.0696708 15 1 
361.333 1.20505 6.04533 0.00010234 0.0106822 6.04534 0.0818713 15 1 
362.667 1.20508 6.0352 0.00014331 0.0108104 6.03522 0.148285 15 1 
362.667 1.20508 6.0352 0.00014331 0.0108104 6.03522 0.148285 15 1 
364 1.20512 6.02732 0.000139898 0.0109187 6.02734 0.219343 15 1 
365.333 1.20514 6.0166 7.62566e-05 0.0109502 6.01661 0.260592 15 1 
366.667 1.20517 6.00715 4.65113e-05 0.0109943 6.00716 0.30624 15 1 
368 1.20519 5.9971 6.59049e-05 0.0111049 5.99711 0.343813 15 1 
369.333 1.20522 5.99111 6.07544e-05 0.0112238 5.99112 0.394905 15 1 
370.667 1.20523 5.98726 1.37129e-05 0.0112846 5.98727 0.411098 15 1 
372 1.20524 5.98039 -3.28512e-05 0.0113114 5.9804 0.434023 15 1 
373.333 1.20528 5.97651 -4.42441e-05 0.0113621 5.97652 0.50833 15 1 
374.667 1.20529 5.9724 -3.40746e-05 0.0114764 5.97241 0.522259 15 1 
376 1.2053 5.96799 -5.00354e-05 0.0115668 5.968 0.534042 15 1 
377.333 1.20532 5.96842 -0.000101752 0.0115812 5.96843 0.58322 15 1 
378.667 1.20533 5.96604 -0.000146408 0.011593 5.96605 0.591213 15 1 
380 1.20535 5.96252 -0.000156775 0.0116699 5.96253 0.62991 15 1 
381.333 1.20537 5.96271 -0.00017069 0.0117555 5.96272 0.676975 15 1 
382.667 1.20537 5.96093 -0.000218656 0.0117675 5.96095 0.673067 15 1 
384 1.20539 5.96011 -0.000264278 0.0117669 5.96012 0.699594 15 1 
384 1.20539 5.96011 -0.000264278 0.0117669 5.96012 0.699594 15 1 
385.333 1.20541 5.96076 -0.000295163 0.0118284 5.96077 0.737731 15 1 
386.667 1.20542 5.95818 -0.000319204 0.0118906 5.9582 0.752795 15 1 
388 1.20543 5.95693 -0.000321499 0.0119251 5.95694 0.781938 15 1 
389.333 1.20545 5.957 -0.000356015 0.0119283 5.95701 0.806443 15 1 
390.667 1.20545 5.95545 -0.000424353 0.0119146 5.95547 0.817082 15 1 
392 1.20546 5.95421 -0.000422547 0.0119578 5.95422 0.831271 15 1 
393.333 1.20547 5.95189 -0.000392359 0.0120268 5.9519 0.850564 15 1 
394.667 1.20548 5.94924 -0.000417448 0.0120108 5.94925 0.873754 15 1 
396 1.20549 5.94787 -0.000451162 0.0119726 5.94788 0.890306 15 1 
397.333 1.2055 5.94528 -0.000464988 0.0119827 5.94529 0.903481 15 1 
398.667 1.20551 5.94205 -0.000480989 0.0120003 5.94206 0.913111 15 1 
400 1.20551 5.93841 -0.000483332 0.0120044 5.93843 0.912413 15 1 
401.333 1.20551 5.93419 -0.000467627 0.0120236 5.9342 0.925895 15 1 
402.667 1.20552 5.9314 -0.000480904 0.0120502 5.93142 0.945622 15 1 
404 1.20552 5.92756 -0.000524868 0.0120255 5.92757 0.938358 15 1 
405.333 1.20552 5.92206 -0.000539416 0.0120282 5.92207 0.930497 15 1 
405.333 1.20552 5.92206 -0.000539416 0.0120282 5.92207 0.930497 15 1 
406.667 1.20553 5.91816 -0.000530623 0.0120903 5.91818 0.950966 15 1 
408 1.20554 5.91416 -0.000562253 0.0121099 5.91418 0.97289 15 1 
409.333 1.20554 5.90907 -0.000615822 0.0120727 5.90908 0.969309 15 1 
410.667 1.20552 5.90412 -0.000641542 0.0120826 5.90413 0.947042 15 1 
412 1.20552 5.89891 -0.000639956 0.0121743 5.89892 0.940852 15 1 
413.333 1.20553 5.89457 -0.000638218 0.0122448 5.89458 0.962262 15 1 
414.667 1.20554 5.89004 -0.000674914 0.0122264 5.89005 0.969772 15 1 
416 1.20553 5.88403 -0.000716214 0.0122323 5.88404 0.956502 15 1 
417.333 1.20553 5.8795 -0.000706781 0.0123288 5.87951 0.952934 15 1 
418.667 1.20553 5.87542 -0.000684167 0.0124229 5.87544 0.950338 15 1 
420 1.20552 5.8698 -0.000692159 0.0124762 5.86982 0.941502 15 1 
421.333 1.20552 5.86501 -0.000704258 0.0125473 5.86503 0.940045 15 1 
422.667 1.20552 5.86087 -0.000685203 0.0126401 5.86089 0.942796 15 1 
424 1.20552 5.85664 -0.000651015 0.0127384 5.85666 0.940057 15 1 
425.333 1.20552 5.85269 -0.000635766 0.0128597 5.8527 0.930512 15 1 
426.667 1.20551 5.84817 -0.000612625 0.0130146 5.84819 0.921259 15 1 
426.667 1.20551 5.84817 -0.000612625 0.0130146 5.84819 0.921259 20 1 
428 1.20551 5.84433 -0.00056952 0.0131423 5.84434 0.918095 20 1 
429.333 1.20551 5.84147 -0.00055023 0.0132401 5.84148 0.914908 20 1 
430.667 1.2055 5.83812 -0.000543242 0.0133693 5.83813 0.908772 20 1 
432 1.2055 5.83515 -0.000518485 0.013523 5.83517 0.903605 20 1 
433.333 1.2055 5.83262 -0.000493911 0.0136641 5.83263 0.901974 20 1 
434.667 1.2055 5.83017 -0.000476863 0.0138147 5.83018 0.903257 20 1 
436 1.2055 5.82835 -0.000454967 0.0139752 5.82837 0.896698 20 1 
437.333 1.20549 5.82638 -0.000414692 0.0141486 5.82639 0.879575 20 1 
438.667 1.20548 5.82471 -0.000359127 0.0143407 5.82473 0.869731 20 1 
440 1.20548 5.82382 -0.000319062 0.0145473 5.82384 0.871848 20 1 
441.333 1.20548 5.82258 -0.000293106 0.0147334 5.8226 0.871038 20 1 
442.667 1.20548 5.82187 -0.000259961 0.0148983 5.82189 0.86254 20 1 
444 1.20547 5.82173 -0.000222294 0.0150982 5.82175 0.850396 20 1 
445.333 1.20546 5.82101 -0.000171193 0.0153505 5.82103 0.836574 20 1 
446.667 1.20546 5.82096 -0.000115573 0.015585 5.82098 0.828361 20 1 
448 1.20546 5.82155 -8.40724e-05 0.0157652 5.82157 0.825186 20 1 
448 1.20546 5.82155 -8.40724e-05 0.0157652 5.82157 0.825186 20 1 
449.333 1.20545 5.82174 -8.11268e-05 0.015924 5.82176 0.815257 20 1 
450.667 1.20544 5.82224 -7.03174e-05 0.0161157 5.82226 0.79991 20 1 
452 1.20543 5.823 -1.30976e-05 0.0163607 5.82302 0.782326 20 1 
453.333 1.20543 5.82377 5.36418e-05 0.0166134 5.8238 0.768546 20 1 
454.667 1.20542 5.82517 8.779e-05 0.0168287 5.8252 0.767234 20 1 
456 1.20542 5.82688 0.000136951 0.0170739 5.8269 0.765621 20 1 
457.333 1.20541 5.8285 0.000221797 0.0173345 5.82853 0.747866 20 1 
458.667 1.2054 5.83008 0.000273453 0.0175381 5.8301 0.723325 20 1 
460 1.20539 5.83183 0.000301417 0.0177496 5.83186 0.711741 20 1 
461.333 1.20539 5.83424 0.000357918 0.0180207 5.83427 0.709268 20 1 
462.667 1.20539 5.83674 0.000426143 0.0182631 5.83677 0.700518 20 1 
464 1.20538 5.8392 0.000476915 0.0184573 5.83923 0.689961 20 1 
465.333 1.20538 5.84199 0.000508015 0.0186913 5.84202 0.680028 20 1 
466.667 1.20537 5.84464 0.000547282 0.0189639 5.84467 0.662614 20 1 
468 1.20536 5.84761 0.000598538 0.0192005 5.84765 0.651784 20 1 
469.333 1.20536 5.85115 0.000648061 0.019415 5.85118 0.648791 20 1 
469.333 1.20536 5.85115 0.000648061 0.019415 5.85118 0.648791 20 1 
470.667 1.20535 5.85405 0.000707485 0.0196953 5.85408 0.63322 20 1 
472 1.20534 5.85699 0.000789794 0.0200287 5.85703 0.616314 20 1 
473.333 1.20534 5.86086 0.00086365 0.0203276 5.86089 0.610436 20 1 
474.667 1.20533 5.86441 0.000889458 0.0205735 5.86445 0.603411 20 1 
476 1.20533 5.86758 0.000860884 0.0207639 5.86761 0.589004 20 1 
477.333 1.20532 5.87091 0.000831785 0.020946 5.87095 0.571606 20 1 
478.667 1.20531 5.87407 0.000862506 0.0211891 5.87411 0.55401 20 1 
480 1.2053 5.87724 0.000935467 0.0214969 5.87728 0.53856 20 1 
481.333 1.20529 5.88069 0.00100817 0.0218339 5.88073 0.528943 20 1 
482.667 1.20529 5.88431 0.00107585 0.0221657 5.88435 0.522007 20 1 
484 1.20528 5.88787 0.00114168 0.0224542 5.88791 0.50761 20 1 
485.333 1.20527 5.89109 0.00115631 0.0226696 5.89113 0.483931 20 1 
486.667 1.20526 5.89403 0.00110434 0.0228206 5.89407 0.461618 20 1 
488 1.20525 5.89689 0.00105164 0.022965 5.89694 0.447353 20 1 
489.333 1.20524 5.89993 0.0011183 0.0232532 5.89998 0.439743 20 1 
490.667 1.20524 5.90328 0.00137373 0.0237728 5.90332 0.432253 20 1 
490.667 1.20524 5.90328 0.00137373 0.0237728 5.90332 0.432253 20 1 
492 1.20523 5.90641 0.00171316 0.0243835 5.90646 0.41758 20 1 
493.333 1.20522 5.90934 0.00189759 0.0247965 5.90939 0.39772 20 1 
494.667 1.20521 5.9127 0.00178159 0.0248822 5.91275 0.380419 20 1 
496 1.2052 5.916 0.00146088 0.0247652 5.91605 0.367148 20 1 
497.333 1.2052 5.9188 0.00115794 0.0246669 5.91885 0.352583 20 1 
498.667 1.20519 5.92175 0.00103993 0.0247665 5.9218 0.339779 20 1 
500 1.20518 5.92508 0.00112442 0.0251056 5.92513 0.333067 20 1 
501.333 1.20518 5.9284 0.00133968 0.0255713 5.92845 0.324004 20 1 
502.667 1.20517 5.93153 0.0015647 0.0260103 5.93159 0.307678 20 1 
504 1.20516 5.93454 0.00169929 0.0263462 5.9346 0.289155 20 1 
505.333 1.20515 5.93736 0.00172504 0.0265901 5.93742 0.271044 20 1 
506.667 1.20514 5.94021 0.00168483 0.0267737 5.94027 0.253436 20 1 
508 1.20513 5.94317 0.00161751 0.0269347 5.94324 0.242741 20 1 
509.333 1.20513 5.94603 0.0015315 0.0270771 5.94609 0.236335 20 1 
510.667 1.20512 5.94862 0.00144215 0.0271928 5.94868 0.222382 20 1 
512 1.20511 5.95103 0.00135929 0.0273169 5.9511 0.202379 20 1 
512 1.20511 5.95103 0.00135929 0.0273169 5.9511 0.202379 21 1 
513.333 1.2051 5.9533 0.00126835 0.0274636 5.95336 0.182846 21 1 
514.667 1.20509 5.95538 0.00116545 0.027569 5.95545 0.165483 21 1 
516 1.20508 5.95739 0.00106268 0.0276467 5.95745 0.15099 21 1 
517.333 1.20508 5.95926 0.000949635 0.0277361 5.95932 0.137017 21 1 
518.667 1.20507 5.96077 0.000831245 0.0278127 5.96083 0.121025 21 1 
520 1.20506 5.96198 0.000718911 0.0278729 5.96205 0.105557 21 1 
521.333 1.20505 5.96314 0.000601738 0.027932 5.96321 0.0907905 21 1 
522.667 1.20504 5.96408 0.000465499 0.027976 5.96414 0.0743749 21 1 
524 1.20503 5.96464 0.000332614 0.0280024 5.9647 0.0571327 21 1 
525.333 1.20502 5.96495 0.000233921 0.0280331 5.96502 0.0404917 21 1 
526.667 1.20501 5.965 0.000126233 0.0280854 5.96507 0.0239387 21 1 
528 1.20501 5.96495 -1.75733e-05 0.02812 5.96501 0.0106162 21 1 
529.333 1.205 5.96475 -0.000137864 0.0281312 5.96482 9.70509e-05 21 1 
530.667 1.20499 5.96409 -0.000228397 0.0281649 5.96416 -0.0169108 21 1 
532 1.20498 5.9632 -0.000335963 0.0282143 5.96327 -0.0362758 21 1 
533.333 1.20497 5.96227 -0.000432755 0.0282721 5.96233 -0.0518936 21 1 
533.333 1.20497 5.96227 -0.000432755 0.0282721 5.96233 -0.0518936 21 1 
534.667 1.20496 5.961 -0.000502025 0.0283518 5.96107 -0.0694584 21 1 
536 1.20495 5.95965 -0.000570299 0.0284244 5.95972 -0.0829971 21 1 
537.333 1.20495 5.95843 -0.000651961 0.0285079 5.9585 -0.0891531 21 1 
538.667 1.20494 5.95691 -0.000708263 0.0286338 5.95697 -0.103841 21 1 
540 1.20493 5.95495 -0.00073377 0.0287748 5.95502 -0.12763 21 1 
541.333 1.20492 5.953 -0.000753006 0.0289348 5.95307 -0.146477 21 1 
542.667 1.20491 5.95141 -0.000758196 0.0291295 5.95148 -0.157229 21 1 
544 1.20491 5.94985 -0.000761496 0.0293493 5.94992 -0.166759 21 1 
545.333 1.2049 5.94804 -0.000747238 0.0295718 5.94812 -0.17901 21 1 
546.667 1.20489 5.94619 -0.000716292 0.0298238 5.94627 -0.19225 21 1 
548 1.20489 5.94456 -0.000664503 0.0301329 5.94464 -0.206996 21 1 
549.333 1.20488 5.94322 -0.000600898 0.0304578 5.9433 -0.220051 21 1 
550.667 1.20487 5.94195 -0.000533517 0.03078 5.94203 -0.230297 21 1 
552 1.20487 5.94059 -0.000442564 0.0311346 5.94067 -0.241748 21 1 
553.333 1.20486 5.93956 -0.000341389 0.0315352 5.93964 -0.25101 21 1 
554.667 1.20486 5.93893 -0.000240898 0.0319321 5.93901 -0.257892 21 1 
554.667 1.20486 5.93893 -0.000240898 0.0319321 5.93901 -0.257892 22 1 
556 1.20485 5.93835 -0.000129608 0.0323481 5.93844 -0.268471 22 1 
557.333 1.20485 5.93802 -3.4786e-06 0.0327806 5.93811 -0.277324 22 1 
558.667 1.20484 5.93794 0.000118395 0.033211 5.93803 -0.285574 22 1 
560 1.20484 5.93796 0.000244106 0.0336547 5.93806 -0.296775 22 1 
561.333 1.20483 5.93836 0.000374982 0.0341104 5.93845 -0.302801 22 1 
562.667 1.20483 5.93915 0.000505409 0.0345662 5.93925 -0.307687 22 1 
564 1.20482 5.94004 0.000637318 0.0350067 5.94014 -0.316629 22 1 
565.333 1.20482 5.94104 0.000767288 0.0354512 5.94115 -0.327187 22 1 
566.667 1.20481 5.94232 0.000889469 0.0358922 5.94243 -0.336693 22 1 
568 1.20481 5.94393 0.00101322 0.0363253 5.94405 -0.344393 22 1 
569.333 1.20481 5.94578 0.00113616 0.036749 5.9459 -0.352224 22 1 
570.667 1.2048 5.94775 0.00125514 0.0371781 5.94787 -0.35903 22 1 
572 1.2048 5.94982 0.00137223 0.0375826 5.94994 -0.366423 22 1 
573.333 1.20479 5.95196 0.0014762 0.0379717 5.95208 -0.378024 22 1 
574.667 1.20478 5.95437 0.00158168 0.0383777 5.9545 -0.388811 22 1 
576 1.20478 5.95694 0.00167958 0.0387551 5.95706 -0.395475 22 1 
576 1.20478 5.95694 0.00167958 0.0387551 5.95706 -0.395475 22 1 
577.333 1.20478 5.95943 0.00177044 0.0391263 5.95956 -0.405181 22 1 
578.667 1.20477 5.96202 0.00187783 0.0394913 5.96215 -0.413486 22 1 
580 1.20477 5.96475 0.00197812 0.0398562 5.96488 -0.418618 22 1 
581.333 1.20476 5.96741 0.00207156 0.040189 5.96755 -0.426239 22 1 
582.667 1.20476 5.96993 0.00215716 0.0405259 5.97007 -0.435159 22 1 
584 1.20475 5.97244 0.00224579 0.0408686 5.97258 -0.443979 22 1 
585.333 1.20475 5.97495 0.00233661 0.0411898 5.97509 -0.449006 22 1 
586.667 1.20475 5.97735 0.00242186 0.0415339 5.9775 -0.455106 22 1 
588 1.20474 5.97953 0.00251663 0.0418659 5.97967 -0.464991 22 1 
589.333 1.20474 5.98163 0.00259389 0.0421846 5.98178 -0.471948 22 1 
590.667 1.20474 5.98363 0.00266352 0.0424821 5.98378 -0.475598 22 1 
592 1.20473 5.98544 0.00274797 0.0427955 5.98559 -0.482223 22 1 
593.333 1.20473 5.98698 0.0028363 0.0431126 5.98713 -0.491352 22 1 
594.667 1.20472 5.98815 0.00291058 0.0434093 5.98831 -0.500115 22 1 
596 1.20472 5.98919 0.00297335 0.0437286 5.98935 -0.509124 22 1 
597.333 1.20471 5.99008 0.00303264 0.0440458 5.99024 -0.517161 22 1 
597.333 1.20471 5.99008 0.00303264 0.0440458 5.99024 -0.517161 24 1 
598.667 1.20471 5.99079 0.00308673 0.0443588 5.99095 -0.52547 24 1 
600 1.2047 5.99113 0.00314259 0.0446724 5.9913 -0.532977 24 1 
601.333 1.2047 5.99127 0.0031945 0.0449858 5.99144 -0.545706 24 1 
602.667 1.20469 5.99113 0.00323636 0.0452824 5.9913 -0.560124 24 1 
604 1.20468 5.99064 0.0032702 0.0455765 5.99082 -0.569189 24 1 
605.333 1.20468 5.99009 0.00330225 0.0458728 5.99027 -0.577916 24 1 
606.667 1.20468 5.9893 0.00331136 0.0461875 5.98948 -0.586531 24 1 
608 1.20467 5.98807 0.00331784 0.0465277 5.98825 -0.596858 24 1 
609.333 1.20466 5.98678 0.00332514 0.0468827 5.98697 -0.610939 24 1 
610.667 1.20466 5.98552 0.00332768 0.0472207 5.9857 -0.622875 24 1 
612 1.20465 5.98407 0.00332485 0.0475451 5.98426 -0.633035 24 1 
613.333 1.20464 5.98244 0.0033204 0.0478677 5.98263 -0.642219 24 1 
614.667 1.20464 5.98067 0.00331469 0.0481948 5.98087 -0.650991 24 1 
616 1.20463 5.9787 0.00329669 0.048528 5.97889 -0.659297 24 1 
617.333 1.20463 5.97672 0.00327595 0.0489055 5.97692 -0.669615 24 1 
618.667 1.20462 5.97489 0.0032351 0.0493202 5.97509 -0.680494 24 1 
618.667 1.20462 5.97489 0.0032351 0.0493202 5.97509 -0.680494 24 1 
620 1.20462 5.973 0.003187 0.049717 5.97321 -0.686082 24 1 
621.333 1.20462 5.97127 0.00314626 0.0501227 5.97148 -0.695332 24 1 
622.667 1.20461 5.96971 0.0031099 0.0505295 5.96992 -0.705117 24 1 
624 1.20461 5.96828 0.00308547 0.0509221 5.9685 -0.710272 24 1 
625.333 1.2046 5.96687 0.00306601 0.0512903 5.9671 -0.717012 24 1 
626.667 1.2046 5.96554 0.00303112 0.0516867 5.96576 -0.725271 24 1 
628 1.2046 5.96435 0.00298105 0.0521153 5.96458 -0.729815 24 1 
629.333 1.20459 5.96347 0.00292936 0.0525856 5.9637 -0.735741 24 1 
630.667 1.20459 5.96296 0.00288144 0.0530899 5.9632 -0.742697 24 1 
632 1.20459 5.96302 0.00283977 0.0535841 5.96326 -0.748141 24 1 
633.333 1.20458 5.96344 0.00281124 0.0540494 5.96368 -0.751197 24 1 
634.667 1.20458 5.96408 0.00278594 0.0544816 5.96433 -0.752589 24 1 
636 1.20458 5.96506 0.00277376 0.0548815 5.96531 -0.753689 24 1 
637.333 1.20458 5.96633 0.00276963 0.0552885 5.96659 -0.753868 24 1 
638.667 1.20458 5.96781 0.0027726 0.0557349 5.96807 -0.754026 24 1 
640 1.20458 5.96954 0.00277294 0.0562116 5.96981 -0.756646 24 1 
640 1.20458 5.96954 0.00277294 0.0562116 5.96981 -0.756646 24 1 
641.333 1.20458 5.97173 0.00274885 0.0567212 5.972 -0.759753 24 1 
642.667 1.20458 5.97453 0.00272763 0.0572199 5.9748 -0.755507 24 1 
644 1.20459 5.97792 0.00272191 0.0576649 5.9782 -0.745956 24 1 
645.333 1.20459 5.98166 0.0027374 0.058086 5.98194 -0.739225 24 1 
646.667 1.20459 5.98552 0.00280828 0.0584566 5.98581 -0.734507 24 1 
648 1.2046 5.98931 0.00289439 0.0588076 5.9896 -0.730466 24 1 
649.333 1.2046 5.99324 0.00297421 0.0591587 5.99354 -0.72735 24 1 
650.667 1.2046 5.99744 0.00305147 0.0595406 5.99773 -0.720613 24 1 
652 1.20461 6.00181 0.00309591 0.0599865 6.00211 -0.708492 24 1 
653.333 1.20461 6.00657 0.00314101 0.0604404 6.00687 -0.698608 24 1 
654.667 1.20462 6.01155 0.00320373 0.0608801 6.01185 -0.692345 24 1 
656 1.20462 6.0167 0.00328059 0.0612651 6.01701 -0.686867 24 1 
657.333 1.20462 6.02211 0.00338887 0.061513 6.02242 -0.679943 24 1 
658.667 1.20463 6.02724 0.00351466 0.0617146 6.02756 -0.667363 24 1 
660 1.20464 6.0321 0.00364853 0.0618855 6.03242 -0.65686 24 1 
661.333 1.20464 6.03648 0.00377672 0.0620761 6.0368 -0.647358 24 1 
661.333 1.20464 6.03648 0.00377672 0.0620761 6.0368 -0.647358 24 1 
662.667 1.20464 6.04089 0.00387057 0.0624353 6.04121 -0.643798 24 1 
664 1.20465 6.04524 0.00392493 0.0627973 6.04557 -0.636053 24 1 
665.333 1.20465 6.05007 0.00395001 0.0632395 6.05041 -0.628882 24 1 
666.667 1.20466 6.05534 0.0039963 0.0636502 6.05567 -0.620657 24 1 
668 1.20466 6.06036 0.00408382 0.0638749 6.0607 -0.605218 24 1 
669.333 1.20467 6.06559 0.00420008 0.0640063 6.06593 -0.600663 24 1 
670.667 1.20467 6.07013 0.00436167 0.0640176 6.07047 -0.593786 24 1 
672 1.20468 6.074 0.00451686 0.0639818 6.07433 -0.581009 24 1 
673.333 1.20468 6.07748 0.00461452 0.0640952 6.07782 -0.57086 24 1 
674.667 1.20469 6.08073 0.00467201 0.0643939 6.08107 -0.563994 24 1 
676 1.20469 6.0842 0.00466603 0.0648447 6.08455 -0.551409 24 1 
677.333 1.2047 6.08859 0.0046114 0.0654163 6.08894 -0.543027 24 1 
678.667 1.2047 6.09351 0.00460056 0.0658334 6.09387 -0.533735 24 1 
680 1.20471 6.09892 0.00463301 0.0661506 6.09928 -0.520887 24 1 
681.333 1.20472 6.10428 0.00474204 0.0660982 6.10464 -0.509378 24 1 
682.667 1.20473 6.1089 0.004926 0.0659028 6.10926 -0.49585 24 1 
682.667 1.20473 6.1089 0.004926 0.0659028 6.10926 -0.49585 31 1 
684 1.20473 6.1127 0.00513626 0.0656977 6.11305 -0.485998 31 1 
685.333 1.20474 6.11569 0.00529616 0.0655412 6.11604 -0.475567 31 1 
686.667 1.20475 6.11837 0.00535237 0.0657227 6.11873 -0.460429 31 1 
688 1.20475 6.12129 0.00534664 0.0661282 6.12165 -0.447188 31 1 
689.333 1.20476 6.12502 0.00525506 0.0667363 6.12539 -0.436664 31 1 
690.667 1.20476 6.12981 0.00516012 0.0673343 6.13018 -0.425745 31 1 
692 1.20477 6.13558 0.00515953 0.0677641 6.13596 -0.414987 31 1 
693.333 1.20478 6.14177 0.0052373 0.0678736 6.14215 -0.400021 31 1 
694.667 1.20479 6.14785 0.00540586 0.0676917 6.14823 -0.385435 31 1 
696 1.2048 6.15309 0.00564831 0.0672868 6.15346 -0.369113 31 1 
697.333 1.2048 6.15729 0.00591397 0.0668914 6.15766 -0.354047 31 1 
698.667 1.20481 6.16051 0.00614666 0.0666133 6.16087 -0.342512 31 1 
700 1.20482 6.16304 0.00633187 0.066563 6.1634 -0.329776 31 1 
701.333 1.20483 6.16575 0.00646623 0.0667928 6.16611 -0.313668 31 1 
702.667 1.20484 6.16887 0.00648434 0.0671481 6.16924 -0.292134 31 1 
704 1.20485 6.17289 0.00648989 0.0676071 6.17326 -0.276328 31 1 
704 1.20485 6.17289 0.00648989 0.0676071 6.17326 -0.276328 31 1 
705.333 1.20486 6.17765 0.00645105 0.0679623 6.17803 -0.260514 31 1 
706.667 1.20486 6.18316 0.00646432 0.0682617 6.18354 -0.244434 31 1 
708 1.20487 6.18915 0.00659895 0.0684597 6.18954 -0.226491 31 1 
709.333 1.20489 6.1953 0.00672186 0.0684007 6.19568 -0.204946 31 1 
710.667 1.2049 6.20123 0.00705228 0.0683073 6.20161 -0.182152 31 1 
712 1.20491 6.20633 0.00737729 0.0679404 6.2067 -0.159032 31 1 
713.333 1.20492 6.21042 0.00763162 0.067407 6.2108 -0.142667 31 1 
714.667 1.20493 6.21335 0.00800055 0.0669513 6.21372 -0.126843 31 1 
716 1.20494 6.21565 0.00827951 0.066594 6.21602 -0.108133 31 1 
717.333 1.20495 6.21755 0.00850357 0.0665435 6.21791 -0.081364 31 1 
718.667 1.20497 6.22007 0.00864148 0.0669556 6.22044 -0.0593042 31 1 
720 1.20498 6.22376 0.00859666 0.0677255 6.22413 -0.0377894 31 1 
721.333 1.20499 6.22882 0.00845211 0.0686391 6.22921 -0.0118791 31 1 
722.667 1.205 6.23597 0.00833606 0.0695881 6.23637 0.0015646 31 1 
724 1.20501 6.24446 0.0083673 0.0701177 6.24486 0.0218084 31 1 
725.333 1.20503 6.25354 0.00863236 0.0700738 6.25394 0.0506516 31 1 
725.333 1.20503 6.25354 0.00863236 0.0700738 6.25394 0.0506516 31 1 
726.667 1.20504 6.26205 0.0090614 0.0692403 6.26244 0.0758507 31 1 
728 1.20505 6.26853 0.00964885 0.0678897 6.26891 0.0994666 31 1 
729.333 1.20507 6.2723 0.0102726 0.0663661 6.27266 0.125223 31 1 
730.667 1.20508 6.27405 0.0107302 0.0653002 6.2744 0.148355 31 1 
732 1.2051 6.27448 0.0109747 0.0652629 6.27483 0.173019 31 1 
733.333 1.20511 6.2759 0.01094 0.0661064 6.27626 0.199175 31 1 
734.667 1.20513 6.27988 0.0106785 0.0683039 6.28027 0.229793 31 1 
736 1.20514 6.28793 0.0103318 0.0706475 6.28834 0.255617 31 1 
737.333 1.20516 6.3004 0.0100132 0.0727651 6.30083 0.282093 31 1 
738.667 1.20518 6.31562 0.00995609 0.0738887 6.31606 0.317951 31 1 
740 1.20519 6.33192 0.0102629 0.0729482 6.33235 0.346524 31 1 
741.333 1.20521 6.34591 0.0109264 0.0704399 6.34631 0.371665 31 1 
742.667 1.20522 6.35472 0.0122386 0.0663245 6.35508 0.402904 31 1 
744 1.20524 6.3564 0.0136737 0.061742 6.35671 0.435093 31 1 
745.333 1.20526 6.35003 0.0146865 0.0574317 6.35031 0.466101 31 1 
746.667 1.20528 6.33764 0.0156213 0.0554163 6.3379 0.50204 31 1 
746.667 1.20528 6.33764 0.0156213 0.0554163 6.3379 0.50204 31 1 
748 1.2053 6.32324 0.0156963 0.0560674 6.32351 0.534516 31 1 
749.333 1.20532 6.31113 0.0150651 0.0591175 6.31143 0.569631 31 1 
750.667 1.20533 6.30631 0.0143092 0.0644951 6.30666 0.595495 31 1 
752 1.20535 6.31083 0.0129842 0.070345 6.31124 0.624366 31 1 
753.333 1.20537 6.32618 0.0117507 0.0756429 6.32665 0.660479 31 1 
754.667 1.20539 6.35054 0.0108593 0.0794515 6.35105 0.700268 31 1 
756 1.2054 6.38179 0.0104663 0.0811583 6.38233 0.722178 31 1 
757.333 1.20542 6.41463 0.0108945 0.0794858 6.41515 0.752442 31 1 
758.667 1.20543 6.44244 0.0123095 0.073731 6.44288 0.784937 31 1 
760 1.20545 6.45857 0.0152297 0.063797 6.45891 0.806661 31 1 
761.333 1.20548 6.45267 0.0192285 0.0505209 6.45291 0.871809 31 1 
762.667 1.20551 6.42121 0.0236691 0.0358589 6.42138 0.915559 31 1 
764 1.20552 6.36276 0.0278579 0.0228188 6.36292 0.946953 31 1 
765.333 1.20554 6.28229 0.0307524 0.0143594 6.28246 0.981606 31 1 
766.667 1.20555 6.19111 0.0316638 0.0112308 6.1913 0.99163 31 1 
768 1.20556 6.0997 0.0311791 0.0129348 6.09988 1.00436 31 1 
768 1.20556 6.0997 0.0311791 0.0129348 6.09988 1.00436 32 1 
769.333 1.20558 6.01374 0.0297799 0.0182455 6.01391 1.0504 32 1 
770.667 1.20558 5.9419 0.0277078 0.0251342 5.94207 1.04503 32 1 
772 1.20559 5.88254 0.0255499 0.0321743 5.88272 1.05991 32 1 
773.333 1.20561 5.83418 0.0237374 0.0384372 5.83438 1.09975 32 1 
774.667 1.2056 5.7994 0.0221499 0.0437084 5.79962 1.07741 32 1 
776 1.20561 5.77243 0.0207014 0.0481046 5.77267 1.10357 32 1 
777.333 1.20564 5.7517 0.0198552 0.0520911 5.75198 1.16435 32 1 
778.667 1.20564 5.74023 0.0191612 0.0549685 5.74053 1.1474 32 1 
780 1.20566 5.73138 0.0184762 0.0573902 5.7317 1.18672 32 1 
781.333 1.20569 5.72698 0.0180483 0.0596858 5.72732 1.2424 32 1 
782.667 1.20568 5.72868 0.0175272 0.061475 5.72904 1.23308 32 1 
784 1.20571 5.73027 0.017369 0.0632224 5.73065 1.28354 32 1 
785.333 1.20573 5.73423 0.0173522 0.0650111 5.73462 1.32198 32 1 
786.667 1.20572 5.74079 0.0166396 0.0662181 5.74119 1.3055 32 1 
788 1.20572 5.75238 0.0159235 0.0672056 5.7528 1.30766 32 1 
789.333 1.20577 5.76553 0.0164269 0.0691052 5.76597 1.39485 32 1 
790.667 1.20578 5.78263 0.0174036 0.0716871 5.78311 1.40722 32 1 
792 1.20577 5.79663 0.0172796 0.0733956 5.79712 1.38864 32 1 
793.333 1.20574 5.81527 0.016523 0.0744042 5.81577 1.33001 32 1 
794.667 1.20574 5.839 0.0161925 0.0766886 5.83953 1.33995 32 1 
796 1.20576 5.86594 0.0166814 0.0800563 5.86652 1.36406 32 1 
797.333 1.20571 5.89394 0.0173828 0.0838897 5.89457 1.28308 32 1 
798.667 1.20562 5.92708 0.017716 0.0887252 5.92778 1.12175 32 1 
800 1.20554 5.95075 0.0177611 0.0917449 5.9515 0.9708 32 1 
