50.7163;r ;Density                 ;Velocity u              ;Velocity v              ;Velocity w              ;|Velocity|              ;Pressure                ;Distribution            ;Levels                  ;
0 1.20372 9.99455 -1.21802e-05 7.97802e-05 9.99455 -2.30689 1 1 
1.33334 1.20367 9.9952 2.94029e-05 0.000140681 9.9952 -2.39344 1 1 
2.66666 1.20356 9.99561 0.000147888 0.000292434 9.99561 -2.60878 1 1 
4 1.20345 9.995 0.000269929 0.000447903 9.995 -2.79373 1 1 
5.33334 1.20339 9.9946 0.000340578 0.000566788 9.99461 -2.90769 1 1 
6.66666 1.20329 9.9944 0.000369451 0.00063084 9.9944 -3.08612 1 1 
8 1.2032 9.99389 0.000382584 0.000660612 9.99389 -3.25898 1 1 
9.33334 1.20313 9.99291 0.000374093 0.000656713 9.99292 -3.37276 1 1 
10.6667 1.20304 9.99278 0.000381983 0.000678394 9.99279 -3.54338 1 1 
12 1.20296 9.99333 0.000379548 0.000689896 9.99333 -3.68213 1 1 
13.3333 1.20291 9.99204 0.000355747 0.000651886 9.99204 -3.76597 1 1 
14.6667 1.20285 9.99086 0.000366759 0.000651375 9.99086 -3.87735 1 1 
16 1.20284 9.9912 0.000320328 0.000609932 9.9912 -3.89436 1 1 
17.3333 1.20284 9.99116 0.000235965 0.000512018 9.99116 -3.89425 1 1 
18.6667 1.20285 9.9904 0.000152694 0.00043162 9.9904 -3.89102 1 1 
20 1.20291 9.9903 7.73001e-05 0.000370456 9.9903 -3.77467 1 1 
21.3333 1.20297 9.99052 -5.11931e-05 0.000248333 9.99052 -3.66425 1 1 
21.3333 1.20297 9.99052 -5.11931e-05 0.000248333 9.99052 -3.66425 1 1 
22.6667 1.20305 9.98963 -0.000161357 0.000167391 9.98963 -3.51374 1 1 
24 1.20316 9.98872 -0.000247246 0.000122161 9.98873 -3.31469 1 1 
25.3333 1.20326 9.98838 -0.000358932 5.1443e-05 9.9884 -3.14919 1 1 
26.6667 1.20338 9.98821 -0.000454448 1.22068e-05 9.98823 -2.92699 1 1 
28 1.20353 9.98666 -0.000526359 1.23489e-05 9.98668 -2.65052 1 1 
29.3333 1.20367 9.98484 -0.000525694 9.62372e-05 9.98486 -2.40747 1 1 
30.6667 1.20381 9.98467 -0.00055794 0.000154551 9.98469 -2.1423 1 1 
32 1.20395 9.9836 -0.000585014 0.000216373 9.98363 -1.88851 1 1 
33.3333 1.20407 9.98159 -0.000555348 0.000367899 9.98161 -1.68094 1 1 
34.6667 1.20419 9.98071 -0.000504152 0.000547229 9.98072 -1.46494 1 1 
36 1.20429 9.98002 -0.000455454 0.000687685 9.98003 -1.28396 1 1 
37.3333 1.2044 9.97776 -0.000366083 0.000893947 9.97777 -1.08091 1 1 
38.6667 1.20449 9.97635 -0.000243926 0.00115033 9.97636 -0.924066 1 1 
40 1.2045 9.97609 -9.82442e-05 0.00140581 9.97609 -0.903539 1 1 
41.3333 1.20451 9.97507 1.05282e-05 0.00162512 9.97507 -0.877523 1 1 
42.6667 1.20454 9.97349 0.000155894 0.00188274 9.97349 -0.830165 1 1 
42.6667 1.20454 9.97349 0.000155894 0.00188274 9.97349 -0.830165 2 1 
44 1.20453 9.97177 0.000364484 0.00221541 9.97177 -0.84593 2 1 
45.3333 1.2045 9.97115 0.00052378 0.00247654 9.97116 -0.911078 2 1 
46.6667 1.20444 9.96969 0.000696084 0.00273447 9.96969 -1.00268 2 1 
48 1.20437 9.96863 0.000894473 0.00303211 9.96864 -1.14359 2 1 
49.3333 1.20429 9.96911 0.00103432 0.00325395 9.96912 -1.29069 2 1 
50.6667 1.20417 9.96815 0.00119791 0.0034726 9.96817 -1.4976 2 1 
52 1.20406 9.96556 0.0013657 0.00369657 9.96557 -1.69653 2 1 
53.3333 1.20398 9.9652 0.0015252 0.0039233 9.96522 -1.83927 2 1 
54.6667 1.20384 9.96643 0.00164003 0.00405761 9.96645 -2.0888 2 1 
56 1.20371 9.96558 0.0017173 0.00416252 9.9656 -2.32704 2 1 
57.3333 1.20363 9.96397 0.00181111 0.00428703 9.96399 -2.48009 2 1 
58.6667 1.20353 9.96418 0.00184459 0.00432894 9.9642 -2.65799 2 1 
60 1.20346 9.96502 0.00184636 0.00433701 9.96504 -2.78184 2 1 
61.3333 1.20339 9.96372 0.00182158 0.00430317 9.96374 -2.90425 2 1 
62.6667 1.20331 9.96327 0.00182882 0.00432558 9.96328 -3.05273 2 1 
64 1.2033 9.96403 0.00175489 0.00424361 9.96404 -3.06224 2 1 
64 1.2033 9.96403 0.00175489 0.00424361 9.96404 -3.06224 2 1 
65.3333 1.20328 9.96418 0.00164671 0.00410847 9.96418 -3.10631 2 1 
66.6667 1.20325 9.96282 0.00159368 0.00407514 9.96282 -3.15215 2 1 
68 1.20327 9.96309 0.00152287 0.00401465 9.9631 -3.12289 2 1 
69.3333 1.20329 9.96374 0.00138635 0.00385034 9.96374 -3.08519 2 1 
70.6667 1.20334 9.96264 0.0012828 0.00375778 9.96264 -2.99393 2 1 
72 1.2034 9.96204 0.00119609 0.00371238 9.96204 -2.89083 2 1 
73.3333 1.20346 9.96217 0.00109624 0.00361746 9.96217 -2.78983 2 1 
74.6667 1.20352 9.96295 0.000967693 0.0035066 9.96295 -2.66765 2 1 
76 1.20362 9.96147 0.000867229 0.00345783 9.96148 -2.49982 2 1 
77.3333 1.20369 9.96031 0.000843733 0.00350398 9.96032 -2.35957 2 1 
78.6667 1.20378 9.96148 0.000775112 0.00348175 9.96149 -2.19569 2 1 
80 1.20389 9.96096 0.000753375 0.00351479 9.96097 -2.0129 2 1 
81.3333 1.20395 9.95959 0.000791735 0.00367313 9.95961 -1.89239 2 1 
82.6667 1.20405 9.95937 0.000815649 0.00380399 9.95938 -1.72456 2 1 
84 1.20412 9.9587 0.000825652 0.00386442 9.95871 -1.59283 2 1 
85.3333 1.20416 9.95792 0.000940287 0.00410169 9.95794 -1.50928 2 1 
85.3333 1.20416 9.95792 0.000940287 0.00410169 9.95794 -1.50928 3 1 
86.6667 1.20425 9.95731 0.00105897 0.00439196 9.95731 -1.34688 3 1 
88 1.2043 9.95752 0.00110712 0.00453397 9.95753 -1.26027 3 1 
89.3333 1.20433 9.95751 0.00124158 0.00477418 9.95752 -1.21001 3 1 
90.6667 1.20437 9.95625 0.00139756 0.00508923 9.95626 -1.13123 3 1 
92 1.2044 9.95536 0.00152086 0.00535449 9.95536 -1.08819 3 1 
93.3333 1.20441 9.95553 0.00165583 0.00560057 9.95553 -1.06906 3 1 
94.6667 1.2044 9.95487 0.0017955 0.00586614 9.95487 -1.09072 3 1 
96 1.20441 9.95354 0.00197038 0.0062095 9.95355 -1.06367 3 1 
97.3333 1.20441 9.9545 0.00211517 0.00647036 9.9545 -1.06195 3 1 
98.6667 1.20436 9.95452 0.00217555 0.00663194 9.95453 -1.15033 3 1 
100 1.20434 9.95276 0.00232782 0.00691784 9.95277 -1.19282 3 1 
101.333 1.20432 9.95233 0.00241329 0.00712116 9.95234 -1.22902 3 1 
102.667 1.20427 9.95275 0.00245862 0.00724428 9.95276 -1.31501 3 1 
104 1.20424 9.95364 0.00254442 0.007408 9.95365 -1.37471 3 1 
105.333 1.20421 9.95291 0.00258208 0.00754974 9.95292 -1.42998 3 1 
106.667 1.20415 9.95236 0.0026162 0.00762659 9.95238 -1.53881 3 1 
106.667 1.20415 9.95236 0.0026162 0.00762659 9.95238 -1.53881 3 1 
108 1.20412 9.95265 0.00257939 0.00763263 9.95266 -1.58813 3 1 
109.333 1.20408 9.9513 0.0025775 0.00768434 9.9513 -1.66539 3 1 
110.667 1.20401 9.94994 0.00256968 0.00773128 9.94995 -1.78411 3 1 
112 1.204 9.95084 0.0025016 0.0076791 9.95085 -1.81424 3 1 
113.333 1.20398 9.95136 0.00239822 0.00757966 9.95137 -1.8447 3 1 
114.667 1.20393 9.95111 0.00236795 0.00760981 9.95111 -1.93765 3 1 
116 1.20391 9.95119 0.00231245 0.00757324 9.9512 -1.97643 3 1 
117.333 1.2039 9.94983 0.00216658 0.00741915 9.94983 -1.98029 3 1 
118.667 1.20386 9.95039 0.0021165 0.00739775 9.95039 -2.0642 3 1 
120 1.20388 9.94888 0.00204253 0.00737859 9.94888 -2.02605 3 1 
121.333 1.20387 9.94757 0.00192801 0.00727205 9.94757 -2.03224 3 1 
122.667 1.20386 9.94968 0.00187758 0.00722792 9.94968 -2.05625 3 1 
124 1.20391 9.94927 0.00184868 0.00725938 9.94927 -1.96728 3 1 
125.333 1.2039 9.94898 0.00179528 0.00727941 9.94898 -1.99034 3 1 
126.667 1.20393 9.94852 0.0017049 0.00723082 9.94852 -1.92876 3 1 
128 1.20396 9.94811 0.00170246 0.00727651 9.94811 -1.8731 3 1 
128 1.20396 9.94811 0.00170246 0.00727651 9.94811 -1.8731 3 1 
129.333 1.20398 9.9474 0.00168587 0.00736213 9.94741 -1.85044 3 1 
130.667 1.20403 9.94681 0.0016619 0.00740989 9.94682 -1.75298 3 1 
132 1.20406 9.94817 0.00166452 0.00747301 9.94818 -1.69279 3 1 
133.333 1.20411 9.94832 0.00173638 0.00764343 9.94833 -1.61576 3 1 
134.667 1.20414 9.94759 0.00175414 0.00777239 9.94759 -1.55131 3 1 
136 1.20418 9.94639 0.00174948 0.00784821 9.9464 -1.48523 3 1 
137.333 1.20421 9.94644 0.00184504 0.00805102 9.94644 -1.42148 3 1 
138.667 1.20424 9.94649 0.00194177 0.00824475 9.94649 -1.36402 3 1 
140 1.20427 9.94613 0.00198701 0.00839539 9.94614 -1.31921 3 1 
141.333 1.2043 9.94642 0.00201191 0.00853197 9.94643 -1.26111 3 1 
142.667 1.20433 9.94653 0.00213633 0.00875463 9.94653 -1.2113 3 1 
144 1.20433 9.94561 0.00221833 0.00895124 9.94561 -1.21432 3 1 
145.333 1.20434 9.94393 0.00228036 0.00909508 9.94394 -1.19855 3 1 
146.667 1.20435 9.94466 0.00233628 0.00926117 9.94466 -1.17687 3 1 
148 1.20434 9.94525 0.00244394 0.00946298 9.94526 -1.19545 3 1 
149.333 1.20432 9.94377 0.00251594 0.00961973 9.94378 -1.22264 3 1 
149.333 1.20432 9.94377 0.00251594 0.00961973 9.94378 -1.22264 3 1 
150.667 1.20432 9.94323 0.0025549 0.00974343 9.94323 -1.22398 3 1 
152 1.2043 9.94383 0.00260133 0.00990529 9.94384 -1.25659 3 1 
153.333 1.20427 9.94346 0.00269145 0.0100849 9.94347 -1.32155 3 1 
154.667 1.20424 9.94226 0.00273396 0.0102075 9.94227 -1.37002 3 1 
156 1.20423 9.94218 0.00274895 0.0103083 9.94218 -1.3975 3 1 
157.333 1.2042 9.94304 0.00281869 0.0104369 9.94305 -1.45073 3 1 
158.667 1.20417 9.94231 0.0028869 0.0105669 9.94232 -1.49365 3 1 
160 1.20416 9.94103 0.00294395 0.010691 9.94103 -1.51397 3 1 
161.333 1.20412 9.94211 0.00290667 0.0107366 9.94212 -1.58206 3 1 
162.667 1.20411 9.94195 0.00290479 0.0107906 9.94196 -1.61374 3 1 
164 1.2041 9.94008 0.0029293 0.0108668 9.94009 -1.62436 3 1 
165.333 1.20408 9.94107 0.00291318 0.0109355 9.94107 -1.65694 3 1 
166.667 1.2041 9.94135 0.00288804 0.0109999 9.94136 -1.62852 3 1 
168 1.20407 9.9406 0.0028787 0.0110341 9.9406 -1.67529 3 1 
169.333 1.20407 9.94026 0.00290923 0.0111291 9.94026 -1.68721 3 1 
170.667 1.20411 9.94109 0.00292345 0.0112259 9.9411 -1.61526 3 1 
170.667 1.20411 9.94109 0.00292345 0.0112259 9.9411 -1.61526 11 1 
172 1.20409 9.94224 0.00288977 0.0112518 9.94225 -1.64013 11 1 
173.333 1.2041 9.94014 0.00292951 0.0113497 9.94015 -1.62076 11 1 
174.667 1.20413 9.93962 0.00296836 0.0114814 9.93962 -1.56297 11 1 
176 1.20415 9.93998 0.00294386 0.0115299 9.93998 -1.54304 11 1 
177.333 1.20415 9.939 0.00293055 0.0115623 9.93901 -1.54075 11 1 
178.667 1.20416 9.93803 0.0029773 0.0116723 9.93804 -1.5115 11 1 
180 1.20419 9.93826 0.00303594 0.0118296 9.93827 -1.4666 11 1 
181.333 1.20419 9.94017 0.00300555 0.0118646 9.94018 -1.45424 11 1 
182.667 1.20421 9.9394 0.00303761 0.0119622 9.93941 -1.42445 11 1 
184 1.20424 9.93718 0.00309878 0.0121181 9.93718 -1.37641 11 1 
185.333 1.20423 9.93687 0.00309948 0.0121812 9.93688 -1.39922 11 1 
186.667 1.20422 9.93531 0.00305786 0.0122011 9.93532 -1.40916 11 1 
188 1.20424 9.9341 0.00310304 0.0123241 9.93411 -1.37504 11 1 
189.333 1.20423 9.93617 0.00322674 0.0125317 9.93618 -1.38537 11 1 
190.667 1.20425 9.93665 0.00324171 0.0126036 9.93666 -1.35685 11 1 
192 1.20426 9.93511 0.00326676 0.0127408 9.93512 -1.34474 11 1 
192 1.20426 9.93511 0.00326676 0.0127408 9.93512 -1.34474 11 1 
193.333 1.20424 9.93408 0.00333164 0.0128772 9.93409 -1.37056 11 1 
194.667 1.20423 9.93258 0.00326752 0.0129155 9.93259 -1.38532 11 1 
196 1.20422 9.93168 0.00329511 0.0130424 9.93169 -1.41119 11 1 
197.333 1.20421 9.93217 0.00338129 0.0131991 9.93218 -1.41889 11 1 
198.667 1.20423 9.93137 0.00336293 0.0132839 9.93138 -1.38253 11 1 
200 1.20424 9.93134 0.0035092 0.0135089 9.93135 -1.37638 11 1 
201.333 1.20422 9.93046 0.00346721 0.013561 9.93047 -1.4152 11 1 
202.667 1.20423 9.92609 0.00335534 0.0135105 9.9261 -1.39343 11 1 
204 1.20422 9.92626 0.00348965 0.0137679 9.92627 -1.41549 11 1 
205.333 1.20422 9.9288 0.00342499 0.0137924 9.92881 -1.41626 11 1 
206.667 1.20426 9.92815 0.00345418 0.0138978 9.92816 -1.32776 11 1 
208 1.20424 9.92853 0.00363572 0.0141616 9.92854 -1.37716 11 1 
209.333 1.20423 9.92707 0.00355199 0.0141679 9.92708 -1.38315 11 1 
210.667 1.20427 9.92296 0.00350631 0.0141932 9.92297 -1.32435 11 1 
212 1.20425 9.92012 0.00352123 0.0142331 9.92013 -1.35829 11 1 
213.333 1.20425 9.91855 0.00353324 0.0143666 9.91856 -1.34985 11 1 
213.333 1.20425 9.91855 0.00353324 0.0143666 9.91856 -1.34985 11 1 
214.667 1.20428 9.91857 0.00352042 0.0144662 9.91858 -1.29816 11 1 
216 1.20429 9.91959 0.00352883 0.0145504 9.9196 -1.29147 11 1 
217.333 1.20428 9.92017 0.0036214 0.014681 9.92018 -1.29481 11 1 
218.667 1.20433 9.91873 0.00360405 0.0147852 9.91875 -1.21604 11 1 
220 1.20433 9.91639 0.00357121 0.0148551 9.91641 -1.20549 11 1 
221.333 1.20431 9.91218 0.00363776 0.0149274 9.91219 -1.24563 11 1 
222.667 1.20431 9.90675 0.00364469 0.0150218 9.90676 -1.2394 11 1 
224 1.2043 9.90625 0.00356438 0.0150922 9.90626 -1.25526 11 1 
225.333 1.20434 9.90624 0.00355247 0.0151543 9.90625 -1.18922 11 1 
226.667 1.20438 9.90493 0.00369932 0.0153191 9.90494 -1.12198 11 1 
228 1.20437 9.90503 0.00376537 0.0154933 9.90504 -1.13961 11 1 
229.333 1.20439 9.90009 0.00367842 0.0155576 9.9001 -1.09926 11 1 
230.667 1.2044 9.8945 0.00360903 0.0155639 9.89452 -1.0792 11 1 
232 1.20437 9.89188 0.00365874 0.0156567 9.89189 -1.13035 11 1 
233.333 1.20442 9.88957 0.00370858 0.0158155 9.88958 -1.05203 11 1 
234.667 1.20449 9.88828 0.00381892 0.0160244 9.8883 -0.921348 11 1 
234.667 1.20449 9.88828 0.00381892 0.0160244 9.8883 -0.921348 11 1 
236 1.20444 9.88616 0.00391198 0.016213 9.88617 -1.00478 11 1 
237.333 1.20447 9.87976 0.00384622 0.016206 9.87978 -0.959838 11 1 
238.667 1.20453 9.87382 0.00370267 0.0161406 9.87383 -0.847696 11 1 
240 1.20451 9.87158 0.00372482 0.0162771 9.87159 -0.881298 11 1 
241.333 1.20459 9.86625 0.00389671 0.0165475 9.86626 -0.738418 11 1 
242.667 1.2046 9.86493 0.0039263 0.0166597 9.86495 -0.715426 11 1 
244 1.20465 9.85919 0.00387993 0.0166873 9.8592 -0.638933 11 1 
245.333 1.20466 9.8513 0.0038426 0.0167467 9.85132 -0.616081 11 1 
246.667 1.20467 9.84548 0.00395813 0.0169899 9.84549 -0.588253 11 1 
248 1.20479 9.83822 0.00380744 0.0168978 9.83823 -0.384075 11 1 
249.333 1.20479 9.83476 0.0039713 0.0171475 9.83478 -0.388114 11 1 
250.667 1.20483 9.8263 0.00408607 0.0173827 9.82632 -0.300954 11 1 
252 1.20487 9.8191 0.00379338 0.0171608 9.81911 -0.243047 11 1 
253.333 1.20497 9.80788 0.00386514 0.0173396 9.80789 -0.0500704 11 1 
254.667 1.205 9.80019 0.00393179 0.017477 9.8002 -0.00373343 11 1 
256 1.20502 9.79179 0.00389364 0.0175128 9.79181 0.032416 11 1 
256 1.20502 9.79179 0.00389364 0.0175128 9.79181 0.032416 13 1 
257.333 1.20516 9.77917 0.00390713 0.0176162 9.77919 0.291379 13 1 
258.667 1.20518 9.77029 0.00377704 0.0175713 9.77031 0.318885 13 1 
260 1.20524 9.75668 0.00379996 0.0176661 9.7567 0.430487 13 1 
261.333 1.20538 9.74098 0.0038809 0.0177905 9.741 0.691087 13 1 
262.667 1.20548 9.72553 0.00378389 0.0178199 9.72554 0.869334 13 1 
264 1.20547 9.71514 0.00377414 0.0179017 9.71515 0.855363 13 1 
265.333 1.20564 9.69738 0.0037416 0.01793 9.6974 1.14751 13 1 
266.667 1.20587 9.67211 0.00368915 0.0180102 9.67213 1.56762 13 1 
268 1.2058 9.65648 0.00365859 0.0180706 9.6565 1.45371 13 1 
269.333 1.20599 9.63411 0.00371288 0.0181464 9.63413 1.78719 13 1 
270.667 1.20637 9.60204 0.00361691 0.0181348 9.60206 2.48121 13 1 
272 1.20621 9.58908 0.00353361 0.0181658 9.5891 2.19132 13 1 
273.333 1.20648 9.55664 0.00359293 0.0182772 9.55667 2.66863 13 1 
274.667 1.20699 9.51292 0.00356025 0.0183127 9.51295 3.60192 13 1 
276 1.20684 9.49014 0.00345982 0.0182894 9.49017 3.3315 13 1 
277.333 1.20715 9.44268 0.00343377 0.0183249 9.44272 3.87909 13 1 
277.333 1.20715 9.44268 0.00343377 0.0183249 9.44272 3.87909 13 1 
278.667 1.20762 9.39642 0.00347925 0.018387 9.39646 4.73721 13 1 
280 1.20773 9.35339 0.0034203 0.018391 9.35343 4.92312 13 1 
281.333 1.20803 9.29329 0.00332965 0.0184081 9.29332 5.47523 13 1 
282.667 1.20841 9.2461 0.00335829 0.0185192 9.24612 6.16353 13 1 
284 1.20892 9.19798 0.00338215 0.0186031 9.198 7.08758 13 1 
285.333 1.20945 9.13479 0.00327981 0.0185329 9.13486 8.0337 13 1 
286.667 1.20971 9.04668 0.00321842 0.0184183 9.04688 8.51353 13 1 
288 1.21002 8.93988 0.00320153 0.0183753 8.94006 9.06777 13 1 
289.333 1.21061 8.85376 0.0031083 0.0183811 8.85382 10.1383 13 1 
290.667 1.21143 8.77333 0.00307273 0.0184093 8.77337 11.6185 13 1 
292 1.21205 8.67503 0.00308477 0.018396 8.6751 12.7325 13 1 
293.333 1.2124 8.57243 0.00301778 0.0183603 8.57256 13.3745 13 1 
294.667 1.21307 8.4487 0.00295054 0.0183097 8.44893 14.5681 13 1 
296 1.21391 8.32025 0.00289812 0.0183064 8.32042 16.0906 13 1 
297.333 1.21442 8.20837 0.00286096 0.018229 8.20846 17.0164 13 1 
298.667 1.20847 8.02764 0.00275845 0.0178814 8.0278 6.26553 13 1 
298.667 1.20847 8.02764 0.00275845 0.0178814 8.0278 6.26553 14 1 
300 1.19842 7.97306 0.00266366 0.0178656 7.97319 -11.892 14 1 
301.333 1.19478 7.98618 0.00261472 0.0179134 7.98628 -18.4685 14 1 
302.667 1.19557 7.87605 0.00247556 0.0177583 7.87617 -17.0239 14 1 
304 1.19622 7.75699 0.00238166 0.0177025 7.75713 -15.8562 14 1 
305.333 1.19665 7.63887 0.00227197 0.017543 7.63911 -15.0859 14 1 
306.667 1.19716 7.53492 0.00212362 0.0173565 7.53511 -14.1541 14 1 
308 1.19758 7.4271 0.00207136 0.0173283 7.42719 -13.3935 14 1 
309.333 1.19801 7.3363 0.00193869 0.0173014 7.33637 -12.6273 14 1 
310.667 1.1985 7.26075 0.00184753 0.0173098 7.2608 -11.7335 14 1 
312 1.19891 7.18279 0.00176145 0.0172502 7.18283 -10.9926 14 1 
313.333 1.19927 7.11918 0.00158402 0.0170481 7.11921 -10.3498 14 1 
314.667 1.19962 7.05624 0.00151328 0.0170338 7.05629 -9.71118 14 1 
316 1.19985 6.9858 0.0013772 0.0169105 6.98587 -9.30699 14 1 
317.333 1.20008 6.92818 0.00123028 0.0166723 6.92824 -8.89184 14 1 
318.667 1.20043 6.87902 0.00117333 0.0165829 6.87907 -8.2553 14 1 
320 1.20065 6.82433 0.00103871 0.0165235 6.82439 -7.86479 14 1 
320 1.20065 6.82433 0.00103871 0.0165235 6.82439 -7.86479 14 1 
321.333 1.20071 6.77092 0.000910531 0.0164592 6.77099 -7.74071 14 1 
322.667 1.20091 6.72475 0.000868788 0.0164501 6.72482 -7.3801 14 1 
324 1.20114 6.67887 0.000762683 0.0164003 6.67893 -6.97717 14 1 
325.333 1.20121 6.63942 0.000627991 0.0164365 6.63946 -6.84352 14 1 
326.667 1.20135 6.61068 0.000575078 0.0165801 6.61071 -6.60039 14 1 
328 1.20156 6.5807 0.000473568 0.0166134 6.58074 -6.21572 14 1 
329.333 1.20166 6.55053 0.000337287 0.0166273 6.55056 -6.0358 14 1 
330.667 1.2017 6.52372 0.000269805 0.0167518 6.52375 -5.96324 14 1 
332 1.2018 6.50384 0.000138879 0.0167917 6.50386 -5.77922 14 1 
333.333 1.202 6.49612 -2.04453e-05 0.0167766 6.49614 -5.4138 14 1 
334.667 1.20216 6.48133 -5.66531e-05 0.0168955 6.48135 -5.13799 14 1 
336 1.20212 6.4561 -0.000168439 0.0169018 6.45612 -5.1944 14 1 
337.333 1.20214 6.4413 -0.000391735 0.0167423 6.44132 -5.1608 14 1 
338.667 1.20233 6.43403 -0.000458411 0.0167506 6.43405 -4.8287 14 1 
340 1.20248 6.42737 -0.000457133 0.0168448 6.42739 -4.54529 14 1 
341.333 1.2025 6.41337 -0.00063102 0.0167262 6.41339 -4.51717 14 1 
341.333 1.2025 6.41337 -0.00063102 0.0167262 6.41339 -4.51717 15 1 
342.667 1.20245 6.38769 -0.00081605 0.01658 6.38772 -4.59883 15 1 
344 1.20255 6.3742 -0.000868582 0.0165833 6.37423 -4.4328 15 1 
345.333 1.2027 6.37151 -0.000993283 0.0164905 6.37153 -4.15326 15 1 
346.667 1.20273 6.35754 -0.00123483 0.0162463 6.35757 -4.09788 15 1 
348 1.20273 6.33639 -0.00139886 0.0160854 6.33641 -4.0954 15 1 
349.333 1.20275 6.31395 -0.00149677 0.0160602 6.31398 -4.07225 15 1 
350.667 1.2028 6.30181 -0.0016218 0.0160053 6.30184 -3.9808 15 1 
352 1.20291 6.29818 -0.00169825 0.0159224 6.29821 -3.7809 15 1 
353.333 1.20292 6.2774 -0.00173821 0.0159578 6.27743 -3.76437 15 1 
354.667 1.20289 6.2535 -0.00188125 0.0160031 6.25353 -3.80233 15 1 
356 1.20296 6.24433 -0.00209852 0.015917 6.24436 -3.68962 15 1 
357.333 1.203 6.23359 -0.00224454 0.0158193 6.23362 -3.61917 15 1 
358.667 1.20303 6.22082 -0.00230023 0.0158699 6.22084 -3.56397 15 1 
360 1.20305 6.20737 -0.00235096 0.015976 6.20739 -3.51521 15 1 
361.333 1.20306 6.19122 -0.00237221 0.0161077 6.19124 -3.51313 15 1 
362.667 1.20309 6.18254 -0.0022973 0.0163489 6.18256 -3.44646 15 1 
362.667 1.20309 6.18254 -0.0022973 0.0163489 6.18256 -3.44646 15 1 
364 1.20313 6.1759 -0.00225574 0.0166038 6.17593 -3.37935 15 1 
365.333 1.20315 6.16644 -0.00248013 0.0165733 6.16647 -3.34864 15 1 
366.667 1.20316 6.15837 -0.00297148 0.0162155 6.1584 -3.3151 15 1 
368 1.20318 6.14957 -0.00346845 0.0158615 6.1496 -3.28168 15 1 
369.333 1.20322 6.14474 -0.00370148 0.0158335 6.14477 -3.22019 15 1 
370.667 1.20323 6.14194 -0.00361773 0.0161208 6.14196 -3.19948 15 1 
372 1.20324 6.13602 -0.00338173 0.0165115 6.13604 -3.18494 15 1 
373.333 1.20328 6.13328 -0.00318471 0.0168486 6.1333 -3.10594 15 1 
374.667 1.2033 6.13051 -0.00313153 0.0170794 6.13053 -3.0758 15 1 
376 1.2033 6.12721 -0.00321655 0.0171547 6.12724 -3.06231 15 1 
377.333 1.20333 6.1284 -0.00335985 0.0171213 6.12842 -3.02182 15 1 
378.667 1.20333 6.12672 -0.0034861 0.0170963 6.12674 -3.01203 15 1 
380 1.20336 6.12412 -0.00356479 0.0171538 6.12414 -2.96072 15 1 
381.333 1.20339 6.12536 -0.00363469 0.0172284 6.12539 -2.90072 15 1 
382.667 1.2034 6.1245 -0.00374432 0.0172271 6.12452 -2.89566 15 1 
384 1.20341 6.12435 -0.00386023 0.0171917 6.12438 -2.87089 15 1 
384 1.20341 6.12435 -0.00386023 0.0171917 6.12438 -2.87089 15 1 
385.333 1.20343 6.12558 -0.00395579 0.0172167 6.12561 -2.84344 15 1 
386.667 1.20344 6.1238 -0.00403429 0.0172608 6.12382 -2.8255 15 1 
388 1.20346 6.12354 -0.00408226 0.0172869 6.12357 -2.77993 15 1 
389.333 1.20348 6.12443 -0.00413847 0.017295 6.12445 -2.75366 15 1 
390.667 1.20348 6.12358 -0.00422035 0.0172892 6.12361 -2.75112 15 1 
392 1.20349 6.12326 -0.00425861 0.0173238 6.12329 -2.72922 15 1 
393.333 1.20351 6.12198 -0.00426937 0.017379 6.12201 -2.69217 15 1 
394.667 1.20353 6.12024 -0.00431314 0.0173734 6.12027 -2.66417 15 1 
396 1.20353 6.11963 -0.00435912 0.0173491 6.11966 -2.65505 15 1 
397.333 1.20354 6.11776 -0.00437786 0.0173806 6.11779 -2.64556 15 1 
398.667 1.20354 6.11546 -0.00439652 0.0174373 6.11548 -2.63067 15 1 
400 1.20355 6.11308 -0.00442509 0.0174528 6.11311 -2.61431 15 1 
401.333 1.20357 6.11013 -0.00444709 0.0174621 6.11016 -2.5785 15 1 
402.667 1.20359 6.10825 -0.00447422 0.0174997 6.10828 -2.55529 15 1 
404 1.20357 6.1052 -0.00451975 0.0175147 6.10523 -2.5778 15 1 
405.333 1.20357 6.10077 -0.00453744 0.0175545 6.1008 -2.58334 15 1 
405.333 1.20357 6.10077 -0.00453744 0.0175545 6.1008 -2.58334 15 1 
406.667 1.2036 6.09828 -0.00452585 0.0176539 6.09831 -2.53331 15 1 
408 1.20362 6.09574 -0.00456628 0.0177014 6.09576 -2.48597 15 1 
409.333 1.20362 6.09192 -0.0046572 0.0176596 6.09195 -2.4854 15 1 
410.667 1.20361 6.08811 -0.00472109 0.0176585 6.08814 -2.50725 15 1 
412 1.20362 6.08412 -0.00473975 0.0177595 6.08415 -2.49948 15 1 
413.333 1.20364 6.0812 -0.00476607 0.0178367 6.08122 -2.45662 15 1 
414.667 1.20365 6.07803 -0.0048379 0.0178081 6.07805 -2.43295 15 1 
416 1.20365 6.07314 -0.00490609 0.0178103 6.07317 -2.44215 15 1 
417.333 1.20364 6.06962 -0.00493184 0.017892 6.06965 -2.44758 15 1 
418.667 1.20365 6.06679 -0.0049637 0.017946 6.06682 -2.4385 15 1 
420 1.20367 6.06273 -0.00502766 0.0179609 6.06276 -2.41064 15 1 
421.333 1.20369 6.05939 -0.00510527 0.0179855 6.05942 -2.36954 15 1 
422.667 1.2037 6.05623 -0.005179 0.0179975 6.05626 -2.35409 15 1 
424 1.20369 6.05255 -0.0052408 0.0180122 6.05258 -2.3739 15 1 
425.333 1.20367 6.04912 -0.00530317 0.0180754 6.04915 -2.39393 15 1 
426.667 1.20368 6.04542 -0.00535726 0.0181587 6.04545 -2.38476 15 1 
426.667 1.20368 6.04542 -0.00535726 0.0181587 6.04545 -2.38476 20 1 
428 1.2037 6.04264 -0.00539665 0.0181997 6.04267 -2.35179 20 1 
429.333 1.20371 6.04068 -0.00545491 0.018228 6.04071 -2.32422 20 1 
430.667 1.20372 6.03773 -0.00552973 0.0182914 6.03776 -2.31716 20 1 
432 1.20371 6.03488 -0.00560113 0.0183582 6.03491 -2.32553 20 1 
433.333 1.20371 6.03256 -0.00566085 0.0184121 6.03259 -2.32353 20 1 
434.667 1.20373 6.03044 -0.00571239 0.0184769 6.03047 -2.29534 20 1 
436 1.20374 6.02886 -0.00579248 0.0185126 6.02889 -2.27801 20 1 
437.333 1.20373 6.02674 -0.0058954 0.0185261 6.02678 -2.28937 20 1 
438.667 1.20373 6.02472 -0.00597246 0.0185799 6.02475 -2.29293 20 1 
440 1.20374 6.02359 -0.0060382 0.0186658 6.02362 -2.27515 20 1 
441.333 1.20375 6.0221 -0.00611116 0.0187235 6.02213 -2.2558 20 1 
442.667 1.20376 6.02102 -0.00617552 0.0187577 6.02105 -2.24643 20 1 
444 1.20376 6.02039 -0.00624086 0.0188132 6.02043 -2.24476 20 1 
445.333 1.20376 6.01903 -0.00632677 0.0188864 6.01907 -2.24168 20 1 
446.667 1.20377 6.01831 -0.0064259 0.0189281 6.01834 -2.22716 20 1 
448 1.20378 6.01827 -0.00651984 0.0189485 6.01831 -2.20515 20 1 
448 1.20378 6.01827 -0.00651984 0.0189485 6.01831 -2.20515 20 1 
449.333 1.20378 6.0176 -0.00661299 0.0189774 6.01763 -2.19679 20 1 
450.667 1.20378 6.01704 -0.00671447 0.0190156 6.01707 -2.20815 20 1 
452 1.20377 6.01685 -0.00679653 0.0190707 6.01689 -2.21658 20 1 
453.333 1.20378 6.01681 -0.00686404 0.0191296 6.01684 -2.20454 20 1 
454.667 1.20379 6.01736 -0.00694963 0.0191618 6.0174 -2.17733 20 1 
456 1.20381 6.0181 -0.00703283 0.0192038 6.01814 -2.15563 20 1 
457.333 1.20381 6.01862 -0.00710072 0.0192524 6.01865 -2.15701 20 1 
458.667 1.2038 6.01907 -0.00719046 0.0192635 6.0191 -2.16589 20 1 
460 1.20381 6.01987 -0.00728978 0.0192894 6.01991 -2.15559 20 1 
461.333 1.20382 6.02141 -0.00738065 0.0193403 6.02145 -2.13627 20 1 
462.667 1.20382 6.02288 -0.00746727 0.0193414 6.02291 -2.1283 20 1 
464 1.20382 6.02418 -0.00753902 0.0193346 6.02422 -2.12738 20 1 
465.333 1.20382 6.026 -0.00760615 0.019393 6.02603 -2.12427 20 1 
466.667 1.20383 6.02786 -0.00768499 0.0194621 6.0279 -2.11532 20 1 
468 1.20384 6.03015 -0.00776699 0.0194714 6.03019 -2.09728 20 1 
469.333 1.20385 6.03295 -0.00783217 0.0194736 6.03299 -2.08075 20 1 
469.333 1.20385 6.03295 -0.00783217 0.0194736 6.03299 -2.08075 20 1 
470.667 1.20385 6.03505 -0.00787976 0.0195384 6.03509 -2.08203 20 1 
472 1.20385 6.03733 -0.00793935 0.0196066 6.03737 -2.08167 20 1 
473.333 1.20386 6.04067 -0.00803266 0.019619 6.04071 -2.06001 20 1 
474.667 1.20387 6.04383 -0.00813603 0.0196177 6.04386 -2.03922 20 1 
476 1.20387 6.04665 -0.00821896 0.0196408 6.04668 -2.03324 20 1 
477.333 1.20387 6.04977 -0.00827184 0.0196842 6.04981 -2.03628 20 1 
478.667 1.20387 6.05301 -0.00830439 0.0197418 6.05304 -2.03515 20 1 
480 1.20388 6.05645 -0.00834461 0.019787 6.05649 -2.01865 20 1 
481.333 1.2039 6.06023 -0.00840674 0.0198127 6.06027 -1.99407 20 1 
482.667 1.20391 6.06402 -0.00847397 0.0198233 6.06406 -1.97109 20 1 
484 1.20391 6.06769 -0.0085304 0.0198224 6.06773 -1.96432 20 1 
485.333 1.20391 6.07124 -0.00857463 0.0198371 6.07128 -1.96969 20 1 
486.667 1.20391 6.07494 -0.00860859 0.0198783 6.07498 -1.96404 20 1 
488 1.20392 6.07893 -0.00864051 0.0198953 6.07897 -1.94807 20 1 
489.333 1.20393 6.08309 -0.00868351 0.0198745 6.08313 -1.92538 20 1 
490.667 1.20395 6.08742 -0.0087321 0.0198671 6.08746 -1.90533 20 1 
490.667 1.20395 6.08742 -0.0087321 0.0198671 6.08746 -1.90533 20 1 
492 1.20395 6.09138 -0.00876547 0.0198884 6.09142 -1.89938 20 1 
493.333 1.20395 6.09514 -0.00878173 0.0199004 6.09518 -1.89733 20 1 
494.667 1.20395 6.09967 -0.00878203 0.0199065 6.09971 -1.88917 20 1 
496 1.20397 6.10429 -0.00877821 0.0199122 6.10433 -1.86921 20 1 
497.333 1.20398 6.10838 -0.00878812 0.0198886 6.10842 -1.85085 20 1 
498.667 1.20398 6.11248 -0.00881172 0.019836 6.11252 -1.84006 20 1 
500 1.20399 6.11668 -0.00884711 0.0198051 6.11672 -1.82438 20 1 
501.333 1.20399 6.12078 -0.0088521 0.019821 6.12082 -1.81767 20 1 
502.667 1.204 6.12479 -0.00881487 0.0198407 6.12483 -1.8148 20 1 
504 1.204 6.12882 -0.00878818 0.0198237 6.12885 -1.79854 20 1 
505.333 1.20402 6.13284 -0.00880403 0.0197718 6.13288 -1.77723 20 1 
506.667 1.20403 6.13667 -0.00883644 0.0197016 6.13671 -1.75751 20 1 
508 1.20403 6.14019 -0.00883673 0.0196527 6.14022 -1.75013 20 1 
509.333 1.20403 6.14324 -0.00881217 0.01961 6.14328 -1.75167 20 1 
510.667 1.20403 6.14599 -0.00878979 0.0195516 6.14603 -1.74994 20 1 
512 1.20404 6.1489 -0.00878134 0.0195027 6.14894 -1.73672 20 1 
512 1.20404 6.1489 -0.00878134 0.0195027 6.14894 -1.73672 21 1 
513.333 1.20406 6.15196 -0.00880804 0.0194568 6.152 -1.70421 21 1 
514.667 1.20407 6.15478 -0.00885551 0.0193696 6.15482 -1.6797 21 1 
516 1.20407 6.15715 -0.00887555 0.0192596 6.15718 -1.67897 21 1 
517.333 1.20407 6.15905 -0.00886735 0.0191768 6.15909 -1.68858 21 1 
518.667 1.20406 6.16071 -0.00884609 0.0190977 6.16075 -1.69569 21 1 
520 1.20407 6.16242 -0.00881675 0.0190119 6.16246 -1.67627 21 1 
521.333 1.20409 6.16439 -0.00880884 0.0189471 6.16442 -1.63993 21 1 
522.667 1.2041 6.16618 -0.00884187 0.0188854 6.16622 -1.61884 21 1 
524 1.2041 6.16742 -0.00886922 0.0188108 6.16746 -1.62293 21 1 
525.333 1.20409 6.16854 -0.00885333 0.0187234 6.16858 -1.64149 21 1 
526.667 1.20409 6.16989 -0.00883436 0.0186343 6.16992 -1.64204 21 1 
528 1.20411 6.17159 -0.00884305 0.0185238 6.17162 -1.61246 21 1 
529.333 1.20413 6.17336 -0.00884065 0.0184033 6.1734 -1.57537 21 1 
530.667 1.20414 6.17452 -0.00881192 0.0183162 6.17456 -1.56125 21 1 
532 1.20413 6.17531 -0.00880692 0.0182461 6.17534 -1.57425 21 1 
533.333 1.20412 6.17633 -0.00880465 0.0181908 6.17636 -1.58605 21 1 
533.333 1.20412 6.17633 -0.00880465 0.0181908 6.17636 -1.58605 21 1 
534.667 1.20413 6.17763 -0.00877559 0.0181293 6.17766 -1.57858 21 1 
536 1.20414 6.17934 -0.00874444 0.0180237 6.17938 -1.54755 21 1 
537.333 1.20416 6.18125 -0.00871882 0.0179066 6.18129 -1.5119 21 1 
538.667 1.20417 6.18256 -0.00867087 0.0178099 6.18259 -1.50179 21 1 
540 1.20416 6.183 -0.00860133 0.0177116 6.18303 -1.51531 21 1 
541.333 1.20416 6.18343 -0.00853858 0.0176067 6.18346 -1.52337 21 1 
542.667 1.20417 6.18451 -0.00847841 0.0175274 6.18454 -1.50177 21 1 
544 1.20419 6.18574 -0.00842923 0.0174523 6.18577 -1.46512 21 1 
545.333 1.2042 6.18647 -0.00837935 0.0173448 6.1865 -1.4395 21 1 
546.667 1.20421 6.18664 -0.00830726 0.0172357 6.18667 -1.43581 21 1 
548 1.2042 6.18644 -0.00821126 0.017138 6.18646 -1.45003 21 1 
549.333 1.20419 6.18621 -0.00810774 0.0170224 6.18624 -1.45578 21 1 
550.667 1.2042 6.18594 -0.00801303 0.0168875 6.18597 -1.44015 21 1 
552 1.20422 6.18536 -0.0079281 0.0167823 6.18539 -1.41099 21 1 
553.333 1.20423 6.18483 -0.0078597 0.0167161 6.18486 -1.38231 21 1 
554.667 1.20424 6.18418 -0.00781353 0.0166445 6.18421 -1.36927 21 1 
554.667 1.20424 6.18418 -0.00781353 0.0166445 6.18421 -1.36927 22 1 
556 1.20424 6.18306 -0.00775118 0.0165759 6.18308 -1.37366 22 1 
557.333 1.20423 6.18188 -0.00766029 0.0164796 6.1819 -1.38221 22 1 
558.667 1.20424 6.1806 -0.00756222 0.016313 6.18063 -1.37731 22 1 
560 1.20425 6.1789 -0.00745534 0.0161233 6.17893 -1.3613 22 1 
561.333 1.20426 6.17697 -0.00736251 0.0159674 6.177 -1.34518 22 1 
562.667 1.20426 6.17487 -0.00730004 0.0158797 6.1749 -1.33544 22 1 
564 1.20426 6.17273 -0.00728189 0.0158696 6.17276 -1.33165 22 1 
565.333 1.20427 6.17107 -0.00730812 0.0159275 6.1711 -1.32473 22 1 
566.667 1.20427 6.17037 -0.00736013 0.0160022 6.17039 -1.31816 22 1 
568 1.20428 6.17064 -0.00740472 0.016001 6.17067 -1.30697 22 1 
569.333 1.20429 6.17134 -0.00738915 0.0158753 6.17137 -1.28824 22 1 
570.667 1.20429 6.17161 -0.00728489 0.0156293 6.17163 -1.27859 22 1 
572 1.20429 6.17085 -0.00711366 0.0153139 6.17088 -1.2813 22 1 
573.333 1.20429 6.16906 -0.0069521 0.0150187 6.16909 -1.28683 22 1 
574.667 1.20429 6.16687 -0.00687883 0.0148564 6.16689 -1.28106 22 1 
576 1.2043 6.16526 -0.00693631 0.0148724 6.16528 -1.26519 22 1 
576 1.2043 6.16526 -0.00693631 0.0148724 6.16528 -1.26519 22 1 
577.333 1.20431 6.16492 -0.0071165 0.0150444 6.16495 -1.24635 22 1 
578.667 1.20432 6.16635 -0.00733474 0.0153075 6.16638 -1.22004 22 1 
580 1.20434 6.1696 -0.00751134 0.0154997 6.16963 -1.19917 22 1 
581.333 1.20433 6.17367 -0.00757183 0.0154874 6.17369 -1.20124 22 1 
582.667 1.20432 6.17751 -0.00747387 0.0152419 6.17753 -1.21968 22 1 
584 1.20432 6.18057 -0.00726503 0.0148063 6.18059 -1.2301 22 1 
585.333 1.20433 6.18252 -0.00702278 0.0143307 6.18254 -1.2137 22 1 
586.667 1.20435 6.18342 -0.00683855 0.013972 6.18344 -1.17844 22 1 
588 1.20436 6.18368 -0.00677262 0.0138267 6.1837 -1.14776 22 1 
589.333 1.20437 6.18385 -0.00684287 0.013881 6.18387 -1.13471 22 1 
590.667 1.20437 6.18487 -0.00705302 0.0141047 6.18489 -1.14079 22 1 
592 1.20436 6.18786 -0.00734882 0.0144518 6.18788 -1.15735 22 1 
593.333 1.20436 6.19346 -0.00765727 0.0148017 6.19348 -1.16314 22 1 
594.667 1.20437 6.20179 -0.0078925 0.0150355 6.20181 -1.14615 22 1 
596 1.20439 6.21189 -0.00795721 0.0150336 6.21191 -1.11012 22 1 
597.333 1.2044 6.22178 -0.00779373 0.0147173 6.2218 -1.08019 22 1 
597.333 1.2044 6.22178 -0.00779373 0.0147173 6.2218 -1.08019 24 1 
598.667 1.2044 6.22943 -0.00740533 0.0140762 6.22945 -1.0829 24 1 
600 1.20439 6.23334 -0.00688914 0.0132278 6.23335 -1.10717 24 1 
601.333 1.20438 6.23334 -0.00638433 0.0123648 6.23335 -1.12508 24 1 
602.667 1.20438 6.23039 -0.00606097 0.0117033 6.2304 -1.1152 24 1 
604 1.2044 6.2262 -0.0060599 0.0115161 6.22622 -1.08261 24 1 
605.333 1.20442 6.2232 -0.00644141 0.0119333 6.22322 -1.04933 24 1 
606.667 1.20443 6.22379 -0.00715542 0.0128642 6.2238 -1.03404 24 1 
608 1.20442 6.2297 -0.0079882 0.0140076 6.22972 -1.05127 24 1 
609.333 1.2044 6.24151 -0.00866019 0.014915 6.24154 -1.08178 24 1 
610.667 1.20439 6.2577 -0.00889563 0.0151914 6.25772 -1.0961 24 1 
612 1.2044 6.27458 -0.0085497 0.0146256 6.2746 -1.08237 24 1 
613.333 1.20442 6.28777 -0.0076965 0.0133478 6.28779 -1.04337 24 1 
614.667 1.20444 6.29381 -0.00661501 0.0117292 6.29382 -1.00645 24 1 
616 1.20445 6.29168 -0.0057204 0.0103194 6.29169 -1.00111 24 1 
617.333 1.20443 6.28398 -0.00533622 0.00961374 6.28399 -1.03113 24 1 
618.667 1.20441 6.27503 -0.00555399 0.00972568 6.27504 -1.0698 24 1 
618.667 1.20441 6.27503 -0.00555399 0.00972568 6.27504 -1.0698 24 1 
620 1.2044 6.269 -0.00622327 0.0104733 6.26902 -1.08864 24 1 
621.333 1.2044 6.26905 -0.00708881 0.0115422 6.26907 -1.08248 24 1 
622.667 1.20442 6.27581 -0.00788783 0.0125976 6.27582 -1.05321 24 1 
624 1.20444 6.28781 -0.00829428 0.0131833 6.28783 -1.01561 24 1 
625.333 1.20445 6.30089 -0.00790133 0.012655 6.30091 -1.00046 24 1 
626.667 1.20444 6.3076 -0.0063329 0.0103754 6.30761 -1.01523 24 1 
628 1.20443 6.29917 -0.00356066 0.00623571 6.29918 -1.03713 24 1 
629.333 1.20442 6.2682 -0.000116306 0.00103327 6.26822 -1.04258 24 1 
630.667 1.20443 6.21273 0.00311433 -0.0038967 6.21277 -1.02895 24 1 
632 1.20444 6.13721 0.00535041 -0.00736274 6.13729 -1.01249 24 1 
633.333 1.20444 6.04989 0.00623919 -0.00882106 6.04998 -1.01558 24 1 
634.667 1.20442 5.96037 0.00586138 -0.00839203 5.96046 -1.05408 24 1 
636 1.20438 5.87683 0.00452933 -0.00660884 5.8769 -1.11778 24 1 
637.333 1.20435 5.80484 0.00262636 -0.00410054 5.80488 -1.18197 24 1 
638.667 1.20432 5.74711 0.000498478 -0.00131754 5.74714 -1.22223 24 1 
640 1.20432 5.70405 -0.00161818 0.00145595 5.70406 -1.22831 24 1 
640 1.20432 5.70405 -0.00161818 0.00145595 5.70406 -1.22831 24 1 
641.333 1.20433 5.6746 -0.00357297 0.00407097 5.67461 -1.21803 24 1 
642.667 1.20433 5.65678 -0.00527889 0.00643637 5.65679 -1.21794 24 1 
644 1.20431 5.64895 -0.00672346 0.0085209 5.64896 -1.24913 24 1 
645.333 1.20428 5.64953 -0.00793474 0.0103193 5.64954 -1.30026 24 1 
646.667 1.20426 5.65741 -0.00895769 0.0118214 5.65743 -1.34159 24 1 
648 1.20425 5.67208 -0.0098408 0.0130806 5.67211 -1.34923 24 1 
649.333 1.20427 5.69268 -0.0106208 0.0141435 5.69271 -1.31426 24 1 
650.667 1.20431 5.7183 -0.011304 0.0150589 5.71834 -1.2554 24 1 
652 1.20433 5.74751 -0.0118789 0.0158705 5.74756 -1.20548 24 1 
653.333 1.20434 5.77927 -0.0123294 0.0166141 5.77932 -1.19895 24 1 
654.667 1.20432 5.81323 -0.012656 0.0172845 5.81328 -1.22646 24 1 
656 1.2043 5.84936 -0.0128923 0.0178358 5.84942 -1.25628 24 1 
657.333 1.2043 5.88819 -0.0130892 0.0182762 5.88825 -1.26037 24 1 
658.667 1.20432 5.92936 -0.0132786 0.0185972 5.92943 -1.2203 24 1 
660 1.20436 5.9726 -0.0134558 0.0188455 5.97267 -1.14728 24 1 
661.333 1.20441 6.01704 -0.0135969 0.0190673 6.01711 -1.07085 24 1 
661.333 1.20441 6.01704 -0.0135969 0.0190673 6.01711 -1.07085 24 1 
662.667 1.20443 6.0618 -0.0136735 0.0192888 6.06187 -1.03567 24 1 
664 1.20442 6.10678 -0.0136744 0.019508 6.10685 -1.04647 24 1 
665.333 1.2044 6.15195 -0.0136154 0.0196741 6.15202 -1.08189 24 1 
666.667 1.20439 6.1979 -0.0135345 0.0198029 6.19797 -1.11079 24 1 
668 1.20439 6.24484 -0.0134626 0.0198551 6.24491 -1.0981 24 1 
669.333 1.20442 6.29303 -0.0134169 0.0198448 6.2931 -1.04293 24 1 
670.667 1.20447 6.34188 -0.0133915 0.0198374 6.34195 -0.963621 24 1 
672 1.2045 6.39081 -0.0133691 0.0198256 6.39087 -0.905713 24 1 
673.333 1.20451 6.43937 -0.0133139 0.0198407 6.43943 -0.889506 24 1 
674.667 1.20449 6.48717 -0.0132063 0.0198734 6.48723 -0.914277 24 1 
676 1.20447 6.53503 -0.0130755 0.0199032 6.53509 -0.966079 24 1 
677.333 1.20444 6.58321 -0.0129157 0.0199122 6.58327 -1.00297 24 1 
678.667 1.20444 6.63226 -0.0127593 0.019882 6.63233 -1.0027 24 1 
680 1.20447 6.68221 -0.0126654 0.0198175 6.68228 -0.960297 24 1 
681.333 1.2045 6.73278 -0.0126105 0.019711 6.73285 -0.897318 24 1 
682.667 1.20454 6.7834 -0.0125694 0.0196063 6.78346 -0.838192 24 1 
682.667 1.20454 6.7834 -0.0125694 0.0196063 6.78346 -0.838192 31 1 
684 1.20455 6.83334 -0.0125246 0.0195251 6.8334 -0.814572 31 1 
685.333 1.20453 6.88284 -0.0124379 0.0194721 6.8829 -0.8486 31 1 
686.667 1.2045 6.93169 -0.0122905 0.0194308 6.93175 -0.906981 31 1 
688 1.20447 6.98053 -0.0121267 0.019389 6.98059 -0.966336 31 1 
689.333 1.20444 7.02994 -0.0119814 0.0193274 7.03 -1.00582 31 1 
690.667 1.20445 7.08011 -0.0118529 0.0191805 7.08017 -0.998207 31 1 
692 1.20447 7.13099 -0.0117708 0.0190175 7.13105 -0.948573 31 1 
693.333 1.20451 7.18198 -0.011716 0.0188611 7.18204 -0.887135 31 1 
694.667 1.20453 7.23249 -0.0116473 0.0187072 7.23255 -0.855002 31 1 
696 1.20452 7.28208 -0.0115554 0.0185896 7.28214 -0.859791 31 1 
697.333 1.2045 7.33079 -0.0114431 0.0184821 7.33084 -0.907904 31 1 
698.667 1.20445 7.37896 -0.0113243 0.0183522 7.37901 -0.989255 31 1 
700 1.20441 7.42692 -0.0111804 0.0182081 7.42697 -1.06045 31 1 
701.333 1.20439 7.4752 -0.0110194 0.0180671 7.47525 -1.09375 31 1 
702.667 1.2044 7.524 -0.0109035 0.0178833 7.52405 -1.08142 31 1 
704 1.20442 7.573 -0.0107999 0.0176994 7.57305 -1.04456 31 1 
704 1.20442 7.573 -0.0107999 0.0176994 7.57305 -1.04456 31 1 
705.333 1.20444 7.62186 -0.0107267 0.0175197 7.6219 -1.00559 31 1 
706.667 1.20445 7.66975 -0.0106843 0.01732 7.66979 -0.989057 31 1 
708 1.20444 7.71671 -0.0106097 0.0171469 7.71675 -1.01397 31 1 
709.333 1.20441 7.76293 -0.0105126 0.0169885 7.76298 -1.05903 31 1 
710.667 1.20439 7.80867 -0.01038 0.0168481 7.80871 -1.10399 31 1 
712 1.20436 7.85415 -0.0102507 0.0167026 7.85419 -1.156 31 1 
713.333 1.20434 7.89915 -0.010153 0.0165067 7.89919 -1.19808 31 1 
714.667 1.20432 7.94402 -0.0100917 0.0163305 7.94406 -1.2197 31 1 
716 1.20432 7.98891 -0.0100289 0.0161345 7.98894 -1.22523 31 1 
717.333 1.20432 8.0339 -0.00995903 0.0159014 8.03394 -1.22334 31 1 
718.667 1.20433 8.07868 -0.00989401 0.0157226 8.07872 -1.20934 31 1 
720 1.20434 8.1227 -0.00983483 0.0155548 8.12273 -1.18389 31 1 
721.333 1.20434 8.16639 -0.00982093 0.01539 8.16643 -1.18643 31 1 
722.667 1.20433 8.20931 -0.00978013 0.0152295 8.20934 -1.21027 31 1 
724 1.2043 8.25147 -0.00973485 0.0150927 8.2515 -1.26478 31 1 
725.333 1.20426 8.29313 -0.00969235 0.0149598 8.29316 -1.33808 31 1 
725.333 1.20426 8.29313 -0.00969235 0.0149598 8.29316 -1.33808 31 1 
726.667 1.20422 8.33476 -0.00962607 0.0148686 8.33479 -1.39998 31 1 
728 1.20421 8.37694 -0.00956775 0.0147711 8.37698 -1.42863 31 1 
729.333 1.20421 8.41915 -0.0095575 0.0146054 8.41918 -1.42129 31 1 
730.667 1.20422 8.46185 -0.00956221 0.0144483 8.46187 -1.41489 31 1 
732 1.20423 8.50421 -0.0095669 0.0143289 8.50424 -1.3957 31 1 
733.333 1.20423 8.54644 -0.00958588 0.0142416 8.54647 -1.39432 31 1 
734.667 1.20422 8.58827 -0.00958412 0.0141773 8.58831 -1.41211 31 1 
736 1.20421 8.62959 -0.00958942 0.0141172 8.62962 -1.43193 31 1 
737.333 1.20419 8.67127 -0.00957698 0.0140399 8.6713 -1.47153 31 1 
738.667 1.20417 8.71226 -0.0095628 0.0139397 8.71229 -1.50382 31 1 
740 1.20415 8.7532 -0.00960405 0.0138364 8.75323 -1.53935 31 1 
741.333 1.20413 8.79453 -0.00963066 0.0137296 8.79456 -1.57714 31 1 
742.667 1.20412 8.8359 -0.00965416 0.0136001 8.83593 -1.59745 31 1 
744 1.20411 8.87696 -0.00964867 0.0134741 8.87699 -1.6082 31 1 
745.333 1.20411 8.91806 -0.00961721 0.013334 8.91809 -1.59848 31 1 
746.667 1.20413 8.95942 -0.00962931 0.0131773 8.95945 -1.57702 31 1 
746.667 1.20413 8.95942 -0.00962931 0.0131773 8.95945 -1.57702 31 1 
748 1.20414 9.00009 -0.00963296 0.0129645 9.00012 -1.55054 31 1 
749.333 1.20415 9.04001 -0.00963721 0.0128057 9.04004 -1.54349 31 1 
750.667 1.20414 9.0796 -0.00957003 0.0125838 9.07962 -1.55764 31 1 
752 1.20413 9.11809 -0.00949558 0.0123387 9.11811 -1.57207 31 1 
753.333 1.20411 9.15534 -0.00943884 0.0121996 9.15537 -1.60366 31 1 
754.667 1.2041 9.19211 -0.00936535 0.0120339 9.19213 -1.62826 31 1 
756 1.20408 9.22853 -0.009305 0.0117687 9.22855 -1.65722 31 1 
757.333 1.20407 9.26401 -0.00925296 0.0114896 9.26403 -1.68501 31 1 
758.667 1.20406 9.29863 -0.00913529 0.0113291 9.29865 -1.69465 31 1 
760 1.20405 9.33317 -0.00908579 0.0110676 9.33319 -1.71447 31 1 
761.333 1.20405 9.36676 -0.0090659 0.010772 9.36678 -1.71621 31 1 
762.667 1.20406 9.39954 -0.00897053 0.0105315 9.39956 -1.70361 31 1 
764 1.20406 9.43179 -0.00889886 0.0102841 9.43181 -1.69883 31 1 
765.333 1.20406 9.46281 -0.00886064 0.0100918 9.46282 -1.70527 31 1 
766.667 1.20405 9.49256 -0.00878212 0.0097603 9.49258 -1.72147 31 1 
768 1.20403 9.52111 -0.00872979 0.00939258 9.52112 -1.74614 31 1 
768 1.20403 9.52111 -0.00872979 0.00939258 9.52112 -1.74614 32 1 
769.333 1.20401 9.54819 -0.00869572 0.00919504 9.54821 -1.79035 32 1 
770.667 1.204 9.57452 -0.00857796 0.00899118 9.57453 -1.81502 32 1 
772 1.204 9.59977 -0.00841433 0.00872014 9.59978 -1.80829 32 1 
773.333 1.20399 9.62388 -0.00829496 0.00834731 9.62389 -1.82351 32 1 
774.667 1.20399 9.64622 -0.00830385 0.00802493 9.64623 -1.82505 32 1 
776 1.204 9.66687 -0.0081833 0.00775601 9.66688 -1.80767 32 1 
777.333 1.20399 9.687 -0.00801686 0.00748493 9.68701 -1.82402 32 1 
778.667 1.204 9.70557 -0.00812208 0.00716515 9.70558 -1.81111 32 1 
780 1.20403 9.72285 -0.00800952 0.0068697 9.72286 -1.76105 32 1 
781.333 1.20403 9.7393 -0.00776103 0.0067383 9.73931 -1.74596 32 1 
782.667 1.20404 9.75541 -0.0076805 0.00656497 9.75542 -1.74022 32 1 
784 1.20407 9.77028 -0.00772396 0.00630189 9.77029 -1.68471 32 1 
785.333 1.20408 9.78382 -0.00787113 0.00582959 9.78382 -1.66698 32 1 
786.667 1.20405 9.7969 -0.00791249 0.00563082 9.7969 -1.71666 32 1 
788 1.20405 9.80942 -0.00776047 0.00571024 9.80942 -1.72123 32 1 
789.333 1.20407 9.82175 -0.007588 0.005602 9.82176 -1.6729 32 1 
790.667 1.20408 9.83401 -0.00770377 0.0052726 9.83402 -1.66666 32 1 
792 1.20408 9.84542 -0.00781643 0.00510776 9.84543 -1.66218 32 1 
793.333 1.2041 9.85589 -0.00773206 0.00504211 9.85589 -1.62679 32 1 
794.667 1.20411 9.86619 -0.00764856 0.00484178 9.86619 -1.61431 32 1 
796 1.20412 9.87567 -0.00757023 0.00470625 9.87568 -1.59245 32 1 
797.333 1.20415 9.88378 -0.00741129 0.00451725 9.88378 -1.53417 32 1 
798.667 1.20421 9.89045 -0.00707675 0.00413933 9.89045 -1.43429 32 1 
800 1.20424 9.89341 -0.00682307 0.00385041 9.89342 -1.37393 32 1 
