38.0372;r ;Density                 ;Velocity u              ;Velocity v              ;Velocity w              ;|Velocity|              ;Pressure                ;Distribution            ;Levels                  ;
0 1.20487 10.0014 -4.70843e-05 1.58787e-05 10.0014 -0.23234 1 1 
2 1.20487 10.0012 -4.92349e-05 1.36542e-05 10.0012 -0.23275 1 1 
4 1.20487 10.001 -0.000106471 5.06898e-05 10.001 -0.231657 1 1 
6 1.20487 10.001 -0.000153928 7.40859e-05 10.001 -0.229004 1 1 
8 1.20487 10.0009 -0.000193073 9.8243e-05 10.0009 -0.22898 1 1 
10 1.20487 10.0007 -0.000233616 0.00012036 10.0007 -0.232409 1 1 
12 1.20487 10.0004 -0.000288065 0.000150516 10.0004 -0.234995 1 1 
14 1.20487 10.0003 -0.000336806 0.000175008 10.0003 -0.233279 1 1 
16 1.20487 10.0003 -0.000372662 0.000195358 10.0003 -0.231264 1 1 
18 1.20487 10.0001 -0.000420003 0.000228486 10.0001 -0.233931 1 1 
20 1.20487 9.99993 -0.000455288 0.000257233 9.99993 -0.235603 1 1 
22 1.20487 9.99992 -0.00051824 0.000283551 9.99992 -0.233325 1 1 
24 1.20487 9.99989 -0.000558978 0.000303935 9.99989 -0.233853 1 1 
26 1.20487 9.99984 -0.000594136 0.000330527 9.99984 -0.234655 1 1 
28 1.20487 9.99984 -0.000631437 0.000365263 9.99984 -0.234102 1 1 
30 1.20487 9.99984 -0.000682278 0.000399104 9.99984 -0.234686 1 1 
32 1.20487 9.99985 -0.000719581 0.000414283 9.99985 -0.234343 1 1 
32 1.20487 9.99985 -0.000719581 0.000414283 9.99985 -0.234343 1 1 
34 1.20487 9.99989 -0.00075844 0.000445865 9.99989 -0.234081 1 1 
36 1.20487 9.99994 -0.000813872 0.00049081 9.99994 -0.234335 1 1 
38 1.20487 9.99994 -0.000840903 0.000513163 9.99994 -0.23471 1 1 
40 1.20487 9.99998 -0.000877596 0.000535731 9.99998 -0.234709 1 1 
42 1.20487 10 -0.000905814 0.000561026 10 -0.234207 1 1 
44 1.20487 10 -0.000958523 0.000591582 10 -0.235156 1 1 
46 1.20487 10.0001 -0.00101526 0.000629945 10.0001 -0.235006 1 1 
48 1.20487 10.0001 -0.00105058 0.000658393 10.0001 -0.234371 1 1 
50 1.20487 10.0002 -0.00108952 0.000672684 10.0002 -0.235499 1 1 
52 1.20487 10.0002 -0.00112469 0.000713479 10.0002 -0.235736 1 1 
54 1.20487 10.0002 -0.00116374 0.000742352 10.0002 -0.23542 1 1 
56 1.20487 10.0002 -0.00120266 0.000772911 10.0002 -0.235662 1 1 
58 1.20487 10.0002 -0.00125236 0.000804188 10.0002 -0.236033 1 1 
60 1.20487 10.0002 -0.00129167 0.000833883 10.0002 -0.235849 1 1 
62 1.20487 10.0002 -0.00132728 0.00085536 10.0002 -0.236069 1 1 
64 1.20487 10.0003 -0.00137913 0.00089917 10.0003 -0.236981 1 1 
64 1.20487 10.0003 -0.00137913 0.00089917 10.0003 -0.236981 2 1 
66 1.20487 10.0003 -0.00141625 0.000923249 10.0003 -0.236353 2 1 
68 1.20487 10.0003 -0.00147435 0.00095117 10.0003 -0.237589 2 1 
70 1.20487 10.0003 -0.0015215 0.0010032 10.0003 -0.237643 2 1 
72 1.20487 10.0003 -0.0015629 0.00102102 10.0003 -0.237568 2 1 
74 1.20487 10.0003 -0.00158824 0.00104797 10.0003 -0.238067 2 1 
76 1.20487 10.0003 -0.00163027 0.0010759 10.0003 -0.237512 2 1 
78 1.20487 10.0004 -0.00167268 0.00111052 10.0004 -0.238919 2 1 
80 1.20487 10.0004 -0.00170816 0.00114356 10.0004 -0.237992 2 1 
82 1.20487 10.0004 -0.00177403 0.00118071 10.0004 -0.239522 2 1 
84 1.20487 10.0004 -0.00181174 0.00119428 10.0004 -0.23946 2 1 
86 1.20487 10.0004 -0.00184739 0.00121927 10.0004 -0.239178 2 1 
88 1.20487 10.0004 -0.00187138 0.0012547 10.0004 -0.240513 2 1 
90 1.20487 10.0003 -0.00190684 0.00128144 10.0003 -0.239858 2 1 
92 1.20487 10.0004 -0.00196779 0.00131599 10.0004 -0.241453 2 1 
94 1.20487 10.0003 -0.00202962 0.00134326 10.0003 -0.240754 2 1 
96 1.20487 10.0004 -0.00207607 0.00137582 10.0004 -0.241646 2 1 
96 1.20487 10.0004 -0.00207607 0.00137582 10.0004 -0.241646 2 1 
98 1.20487 10.0004 -0.00210668 0.00140401 10.0004 -0.241711 2 1 
100 1.20487 10.0004 -0.0021352 0.00144095 10.0004 -0.242423 2 1 
102 1.20487 10.0004 -0.00216677 0.0014797 10.0004 -0.242038 2 1 
104 1.20487 10.0004 -0.00222771 0.00151781 10.0004 -0.24288 2 1 
106 1.20486 10.0004 -0.00226775 0.00154265 10.0004 -0.243889 2 1 
108 1.20487 10.0004 -0.00229893 0.0015613 10.0004 -0.243482 2 1 
110 1.20486 10.0004 -0.00232974 0.00160147 10.0004 -0.243764 2 1 
112 1.20486 10.0004 -0.00238531 0.00163312 10.0004 -0.244001 2 1 
114 1.20486 10.0005 -0.00240305 0.00166184 10.0005 -0.244739 2 1 
116 1.20486 10.0005 -0.00246023 0.00170761 10.0005 -0.244102 2 1 
118 1.20486 10.0005 -0.00248643 0.00173301 10.0005 -0.245091 2 1 
120 1.20486 10.0005 -0.0025357 0.00176333 10.0005 -0.245203 2 1 
122 1.20486 10.0005 -0.0025934 0.00181741 10.0005 -0.245935 2 1 
124 1.20486 10.0005 -0.00262539 0.00185041 10.0005 -0.245204 2 1 
126 1.20486 10.0006 -0.00266778 0.00188011 10.0006 -0.245909 2 1 
128 1.20486 10.0006 -0.00270226 0.00191625 10.0006 -0.245882 2 1 
128 1.20486 10.0006 -0.00270226 0.00191625 10.0006 -0.245882 10 1 
130 1.20486 10.0006 -0.00274302 0.00193551 10.0006 -0.246034 10 1 
132 1.20486 10.0006 -0.00277833 0.00198092 10.0006 -0.247015 10 1 
134 1.20486 10.0006 -0.00282743 0.002003 10.0006 -0.246754 10 1 
136 1.20486 10.0006 -0.00283512 0.00202638 10.0006 -0.24707 10 1 
138 1.20486 10.0007 -0.00289498 0.00205693 10.0007 -0.247413 10 1 
140 1.20486 10.0007 -0.00292509 0.00209652 10.0007 -0.247361 10 1 
142 1.20486 10.0007 -0.00296421 0.00212278 10.0007 -0.248041 10 1 
144 1.20486 10.0007 -0.00301945 0.0021529 10.0007 -0.248518 10 1 
146 1.20486 10.0007 -0.00308772 0.00220288 10.0007 -0.247993 10 1 
148 1.20486 10.0007 -0.00312246 0.0022219 10.0007 -0.249259 10 1 
150 1.20486 10.0007 -0.00314562 0.00226272 10.0007 -0.249436 10 1 
152 1.20486 10.0008 -0.00319082 0.00229674 10.0008 -0.248756 10 1 
154 1.20486 10.0008 -0.00321594 0.00232106 10.0008 -0.249399 10 1 
156 1.20486 10.0008 -0.00326179 0.00234747 10.0008 -0.249479 10 1 
158 1.20486 10.0008 -0.00330814 0.00238286 10.0008 -0.24975 10 1 
160 1.20486 10.0008 -0.00334218 0.00241931 10.0008 -0.249867 10 1 
160 1.20486 10.0008 -0.00334218 0.00241931 10.0008 -0.249867 10 1 
162 1.20486 10.0009 -0.00343249 0.00246268 10.0009 -0.250186 10 1 
164 1.20486 10.0009 -0.00343851 0.00248897 10.0009 -0.250032 10 1 
166 1.20486 10.0009 -0.00352065 0.00253268 10.0009 -0.249776 10 1 
168 1.20486 10.0009 -0.00357106 0.00256687 10.0009 -0.25144 10 1 
170 1.20486 10.0009 -0.00360406 0.00259226 10.0009 -0.250796 10 1 
172 1.20486 10.0009 -0.00365061 0.00263621 10.0009 -0.250889 10 1 
174 1.20486 10.001 -0.00365588 0.00266208 10.001 -0.250369 10 1 
176 1.20486 10.0009 -0.00371383 0.00269397 10.0009 -0.250731 10 1 
178 1.20486 10.001 -0.00374798 0.00272277 10.001 -0.252227 10 1 
180 1.20486 10.001 -0.00381438 0.00274289 10.001 -0.250494 10 1 
182 1.20486 10.001 -0.00382187 0.00274899 10.001 -0.252031 10 1 
184 1.20486 10.001 -0.00390821 0.00278478 10.001 -0.25213 10 1 
186 1.20486 10.001 -0.00392651 0.00281328 10.001 -0.252215 10 1 
188 1.20486 10.0011 -0.0039462 0.00281993 10.0011 -0.252656 10 1 
190 1.20486 10.0011 -0.00399044 0.00283707 10.0011 -0.251982 10 1 
192 1.20486 10.0011 -0.00405658 0.00286144 10.0011 -0.252534 10 1 
194 1.20486 10.0011 -0.00413175 0.00288834 10.0011 -0.251875 10 1 
196 1.20486 10.001 -0.0041524 0.00292652 10.001 -0.253373 10 1 
198 1.20486 10.001 -0.00419039 0.00297268 10.001 -0.253907 10 1 
200 1.20486 10.001 -0.00420618 0.00299165 10.001 -0.253078 10 1 
202 1.20486 10.0012 -0.00426006 0.00302538 10.0012 -0.252963 10 1 
204 1.20486 10.0013 -0.00430732 0.00304626 10.0013 -0.252506 10 1 
206 1.20486 10.0013 -0.00437829 0.00307743 10.0013 -0.253046 10 1 
208 1.20486 10.0012 -0.00439806 0.00310733 10.0012 -0.253668 10 1 
210 1.20486 10.0012 -0.00442162 0.00311802 10.0012 -0.254361 10 1 
212 1.20486 10.0011 -0.00444009 0.00312591 10.0011 -0.254432 10 1 
214 1.20486 10.0011 -0.00450046 0.00315957 10.0011 -0.253644 10 1 
216 1.20486 10.0013 -0.00454213 0.00317586 10.0013 -0.255015 10 1 
218 1.20486 10.0013 -0.00454976 0.00319407 10.0013 -0.253036 10 1 
220 1.20486 10.0013 -0.0045884 0.00322819 10.0013 -0.253352 10 1 
222 1.20486 10.0013 -0.00462328 0.00323713 10.0013 -0.25457 10 1 
224 1.20486 10.0013 -0.00467356 0.00326072 10.0013 -0.255652 10 1 
224 1.20486 10.0013 -0.00467356 0.00326072 10.0013 -0.255652 10 1 
226 1.20486 10.0012 -0.0047728 0.00330313 10.0012 -0.255418 10 1 
228 1.20486 10.0012 -0.00478973 0.00331622 10.0012 -0.253636 10 1 
230 1.20486 10.0014 -0.0047989 0.00331402 10.0014 -0.256025 10 1 
232 1.20486 10.0014 -0.00487768 0.00334692 10.0014 -0.253647 10 1 
234 1.20486 10.0013 -0.00493335 0.00337862 10.0013 -0.254382 10 1 
236 1.20486 10.0014 -0.00495971 0.00341096 10.0014 -0.257366 10 1 
238 1.20486 10.0014 -0.004973 0.0034011 10.0014 -0.253486 10 1 
240 1.20486 10.0014 -0.00500246 0.00342869 10.0014 -0.254222 10 1 
242 1.20486 10.0014 -0.00503284 0.00344153 10.0014 -0.257598 10 1 
244 1.20486 10.0015 -0.00510195 0.00346041 10.0015 -0.255505 10 1 
246 1.20486 10.0014 -0.00508613 0.00349838 10.0015 -0.254411 10 1 
248 1.20486 10.0015 -0.00516614 0.00351166 10.0015 -0.256332 10 1 
250 1.20486 10.0015 -0.00515517 0.00352292 10.0015 -0.256014 10 1 
252 1.20486 10.0016 -0.00520977 0.0035009 10.0016 -0.254349 10 1 
254 1.20486 10.0015 -0.00526549 0.00355026 10.0016 -0.255 10 1 
256 1.20486 10.0015 -0.00531303 0.00355124 10.0015 -0.256953 10 1 
256 1.20486 10.0015 -0.00531303 0.00355124 10.0015 -0.256953 11 1 
258 1.20486 10.0015 -0.00533727 0.00353121 10.0015 -0.25549 11 1 
260 1.20486 10.0016 -0.00541 0.00356983 10.0016 -0.25577 11 1 
262 1.20486 10.0016 -0.00545273 0.00359758 10.0016 -0.256978 11 1 
264 1.20486 10.0016 -0.00544659 0.00358813 10.0016 -0.256153 11 1 
266 1.20486 10.0016 -0.00549547 0.00355959 10.0016 -0.256541 11 1 
268 1.20486 10.0016 -0.00546538 0.00359415 10.0016 -0.255866 11 1 
270 1.20486 10.0017 -0.00557313 0.003624 10.0017 -0.255546 11 1 
272 1.20486 10.0017 -0.00551967 0.00357507 10.0017 -0.257282 11 1 
274 1.20486 10.0017 -0.00557022 0.00359085 10.0017 -0.256516 11 1 
276 1.20486 10.0018 -0.00562943 0.00364525 10.0018 -0.256037 11 1 
278 1.20486 10.0017 -0.00562361 0.00361678 10.0017 -0.256336 11 1 
280 1.20486 10.0018 -0.00566215 0.00361601 10.0018 -0.257375 11 1 
282 1.20486 10.0018 -0.00567663 0.00365061 10.0018 -0.258818 11 1 
284 1.20486 10.0019 -0.00570316 0.00364447 10.0019 -0.261183 11 1 
286 1.20486 10.002 -0.00569747 0.00364229 10.002 -0.257184 11 1 
288 1.20485 10.0024 -0.00575052 0.00365989 10.0024 -0.263376 11 1 
288 1.20485 10.0024 -0.00575052 0.00365989 10.0024 -0.263376 11 1 
290 1.20485 10.0022 -0.00575951 0.00365491 10.0023 -0.267425 11 1 
292 1.20484 10.0028 -0.00576061 0.00362025 10.0029 -0.283482 11 1 
294 1.20482 10.0048 -0.00581801 0.00364317 10.0049 -0.318133 11 1 
296 1.20476 10.0124 -0.0058226 0.00362575 10.0124 -0.428575 11 1 
298 1.20467 10.0277 -0.00592782 0.0035283 10.0673 -0.599325 11 1 
300 1.20449 10.0464 -0.00617206 0.00327122 10.0964 -0.922157 11 1 
302 1.20437 10.056 -0.00639617 0.00287303 10.0875 -1.14173 11 1 
304 1.20441 10.0507 -0.00662858 0.00252745 10.0775 -1.07209 11 1 
306 1.20448 10.0419 -0.00682194 0.00224071 10.0626 -0.938183 11 1 
308 1.20454 10.0338 -0.00697337 0.00199321 10.0508 -0.834028 11 1 
310 1.20457 10.0276 -0.00706215 0.00182455 10.0373 -0.768686 11 1 
312 1.20461 10.0224 -0.00723789 0.00165182 10.0317 -0.709308 11 1 
314 1.20463 10.0178 -0.00737743 0.00151281 10.0262 -0.667951 11 1 
316 1.20466 10.0152 -0.00744788 0.00138346 10.0232 -0.606454 11 1 
318 1.20468 10.0127 -0.00752986 0.00125408 10.018 -0.573787 11 1 
320 1.20469 10.0094 -0.0076329 0.00114578 10.0144 -0.557023 11 1 
320 1.20469 10.0094 -0.0076329 0.00114578 10.0144 -0.557023 15 1 
322 1.20471 10.0071 -0.00770848 0.00104984 10.0119 -0.530501 15 1 
324 1.20472 10.006 -0.00775704 0.00094348 10.0105 -0.506036 15 1 
326 1.20473 10.0047 -0.0078596 0.000846351 10.0084 -0.484648 15 1 
328 1.20474 10.0032 -0.00796871 0.000764967 10.0068 -0.4688 15 1 
330 1.20474 10.0017 -0.00804576 0.000679735 10.0048 -0.461005 15 1 
332 1.20476 10.0008 -0.00809646 0.000608963 10.0039 -0.442221 15 1 
334 1.20476 10.0005 -0.00818017 0.000533585 10.0031 -0.427568 15 1 
336 1.20477 9.99953 -0.0082369 0.000440151 10.002 -0.419587 15 1 
338 1.20477 9.99862 -0.0082597 0.000366114 10.0009 -0.408793 15 1 
340 1.20478 9.99821 -0.00833718 0.00030457 10.0005 -0.399701 15 1 
342 1.20478 9.99788 -0.00839996 0.000241036 9.99997 -0.391402 15 1 
344 1.20479 9.99772 -0.00844544 0.000172442 9.99979 -0.379553 15 1 
346 1.20479 9.99729 -0.00852933 0.000107151 9.9991 -0.373117 15 1 
348 1.2048 9.99663 -0.00856573 5.2467e-05 9.99834 -0.369057 15 1 
350 1.2048 9.99636 -0.00857599 3.70666e-07 9.99788 -0.362497 15 1 
352 1.2048 9.99616 -0.0086557 -5.92181e-05 9.99763 -0.355151 15 1 
354 1.20481 9.99586 -0.00871274 -0.000110179 9.99724 -0.35026 15 1 
356 1.20481 9.99569 -0.00871059 -0.000153837 9.99704 -0.346427 15 1 
358 1.20481 9.99546 -0.00875732 -0.000212552 9.99671 -0.339884 15 1 
360 1.20482 9.99539 -0.00882792 -0.000268923 9.99665 -0.333021 15 1 
362 1.20482 9.99537 -0.00885112 -0.000324635 9.99656 -0.330187 15 1 
364 1.20482 9.99506 -0.00888725 -0.000375926 9.99624 -0.325445 15 1 
366 1.20482 9.99487 -0.00894597 -0.000420725 9.99596 -0.320793 15 1 
368 1.20482 9.99476 -0.00895822 -0.000493002 9.99582 -0.31787 15 1 
370 1.20483 9.99455 -0.00897062 -0.000574606 9.9955 -0.313502 15 1 
372 1.20483 9.99436 -0.00902669 -0.000632303 9.9953 -0.310395 15 1 
374 1.20483 9.99412 -0.00906495 -0.000695296 9.99498 -0.309359 15 1 
376 1.20483 9.99399 -0.00905457 -0.000783606 9.99484 -0.305718 15 1 
378 1.20483 9.994 -0.00908141 -0.000877188 9.99482 -0.302008 15 1 
380 1.20483 9.99389 -0.00914533 -0.000943612 9.99471 -0.30033 15 1 
382 1.20484 9.99379 -0.00915942 -0.000990676 9.99458 -0.297197 15 1 
384 1.20484 9.99375 -0.00914029 -0.00108489 9.99454 -0.294623 15 1 
384 1.20484 9.99375 -0.00914029 -0.00108489 9.99454 -0.294623 16 1 
386 1.20484 9.99364 -0.0091776 -0.00117576 9.99442 -0.291709 16 1 
388 1.20484 9.99364 -0.00923945 -0.00119321 9.99442 -0.287198 16 1 
390 1.20484 9.99362 -0.0092541 -0.00124068 9.99436 -0.284793 16 1 
392 1.20484 9.99342 -0.00925785 -0.00133083 9.99415 -0.282056 16 1 
394 1.20485 9.99334 -0.00930576 -0.00136186 9.99402 -0.278125 16 1 
396 1.20485 9.9933 -0.00937776 -0.00137423 9.99396 -0.274557 16 1 
398 1.20485 9.9932 -0.00942843 -0.00140965 9.99383 -0.271955 16 1 
400 1.20485 9.99313 -0.00940648 -0.00146636 9.99374 -0.269238 16 1 
402 1.20485 9.99299 -0.00941203 -0.0015267 9.99355 -0.265897 16 1 
404 1.20485 9.99298 -0.00950935 -0.00155866 9.99354 -0.263029 16 1 
406 1.20486 9.99303 -0.00951002 -0.00162118 9.9936 -0.261246 16 1 
408 1.20486 9.99284 -0.00945463 -0.00171982 9.99339 -0.258527 16 1 
410 1.20486 9.99269 -0.00951388 -0.00176112 9.99322 -0.255581 16 1 
412 1.20486 9.99274 -0.00956183 -0.00180447 9.99328 -0.253145 16 1 
414 1.20486 9.99267 -0.00954659 -0.00190829 9.99321 -0.25082 16 1 
416 1.20486 9.99254 -0.00955155 -0.00198746 9.99306 -0.248893 16 1 
416 1.20486 9.99254 -0.00955155 -0.00198746 9.99306 -0.248893 16 1 
418 1.20486 9.99244 -0.00951914 -0.00205575 9.99292 -0.246901 16 1 
420 1.20487 9.99235 -0.00952518 -0.00215245 9.99285 -0.243615 16 1 
422 1.20487 9.99228 -0.00957967 -0.00222825 9.99277 -0.241412 16 1 
424 1.20487 9.99211 -0.00951942 -0.00231017 9.99257 -0.240695 16 1 
426 1.20487 9.99194 -0.00946953 -0.00241766 9.99239 -0.238024 16 1 
428 1.20487 9.99195 -0.00951609 -0.00249523 9.99242 -0.233732 16 1 
430 1.20487 9.99192 -0.00952768 -0.00256727 9.99234 -0.232402 16 1 
432 1.20487 9.99177 -0.00949363 -0.00266842 9.99218 -0.231535 16 1 
434 1.20487 9.99171 -0.0094582 -0.00276038 9.99213 -0.227012 16 1 
436 1.20488 9.9917 -0.00945967 -0.00281873 9.99211 -0.223476 16 1 
438 1.20488 9.9916 -0.00952202 -0.00286208 9.99199 -0.222701 16 1 
440 1.20488 9.99146 -0.0094979 -0.0029353 9.99185 -0.219735 16 1 
442 1.20488 9.99142 -0.00941867 -0.00301462 9.99179 -0.215548 16 1 
444 1.20488 9.99145 -0.00943838 -0.00303757 9.99181 -0.21372 16 1 
446 1.20488 9.99134 -0.00944612 -0.00305889 9.99169 -0.212165 16 1 
448 1.20488 9.9912 -0.00938062 -0.00314338 9.99154 -0.208464 16 1 
448 1.20488 9.9912 -0.00938062 -0.00314338 9.99154 -0.208464 17 1 
450 1.20489 9.99119 -0.00935731 -0.00318753 9.99151 -0.205063 17 1 
452 1.20489 9.9911 -0.009358 -0.00319451 9.99142 -0.203715 17 1 
454 1.20489 9.99098 -0.00933835 -0.00327542 9.99129 -0.200974 17 1 
456 1.20489 9.99098 -0.0093155 -0.00337334 9.99128 -0.19673 17 1 
458 1.20489 9.99092 -0.00928597 -0.00341408 9.99121 -0.194496 17 1 
460 1.20489 9.99084 -0.00927884 -0.00347208 9.99113 -0.192851 17 1 
462 1.2049 9.99086 -0.00927274 -0.00358989 9.99113 -0.189459 17 1 
464 1.2049 9.99084 -0.00924349 -0.00369167 9.99111 -0.185911 17 1 
466 1.2049 9.99079 -0.0092486 -0.00376007 9.99106 -0.183994 17 1 
468 1.2049 9.99072 -0.00926188 -0.0038567 9.991 -0.182654 17 1 
470 1.2049 9.99069 -0.00919343 -0.0039939 9.99097 -0.179615 17 1 
472 1.2049 9.99074 -0.00915956 -0.00408335 9.99103 -0.176231 17 1 
474 1.2049 9.99069 -0.00919585 -0.00413581 9.99099 -0.174716 17 1 
476 1.2049 9.99048 -0.00917323 -0.00425108 9.9908 -0.172856 17 1 
478 1.20491 9.99038 -0.00910416 -0.00437284 9.99069 -0.170061 17 1 
480 1.20491 9.9903 -0.00909929 -0.0044125 9.99061 -0.167314 17 1 
480 1.20491 9.9903 -0.00909929 -0.0044125 9.99061 -0.167314 17 1 
482 1.20491 9.99015 -0.00911685 -0.00445343 9.99047 -0.165212 17 1 
484 1.20491 9.99001 -0.00907715 -0.0045577 9.99034 -0.163401 17 1 
486 1.20491 9.98988 -0.00899996 -0.0046417 9.99018 -0.160608 17 1 
488 1.20491 9.98971 -0.00898115 -0.00467684 9.99 -0.157458 17 1 
490 1.20491 9.98953 -0.00898206 -0.00471723 9.98982 -0.15541 17 1 
492 1.20492 9.98933 -0.00888802 -0.00477919 9.98961 -0.153096 17 1 
494 1.20492 9.98915 -0.00881441 -0.00483459 9.9894 -0.149917 17 1 
496 1.20492 9.98898 -0.00880217 -0.00486626 9.98922 -0.147285 17 1 
498 1.20492 9.98881 -0.00874548 -0.00490736 9.98904 -0.145162 17 1 
500 1.20492 9.9887 -0.00867041 -0.00498279 9.98893 -0.142224 17 1 
502 1.20492 9.98857 -0.00864404 -0.00504303 9.98878 -0.139713 17 1 
504 1.20492 9.98838 -0.00859694 -0.00507732 9.98858 -0.137616 17 1 
506 1.20493 9.98832 -0.00855393 -0.00513695 9.98852 -0.13444 17 1 
508 1.20493 9.98838 -0.00852622 -0.00521245 9.98857 -0.13187 17 1 
510 1.20493 9.98842 -0.00845907 -0.00527327 9.98861 -0.130083 17 1 
512 1.20493 9.98845 -0.00842201 -0.00532822 9.98863 -0.127623 17 1 
512 1.20493 9.98845 -0.00842201 -0.00532822 9.98863 -0.127623 25 1 
514 1.20493 9.98843 -0.00838227 -0.00540573 9.9886 -0.124459 25 1 
516 1.20493 9.98837 -0.00829925 -0.00548986 9.98855 -0.121915 25 1 
518 1.20493 9.98831 -0.00824353 -0.00555534 9.98849 -0.120367 25 1 
520 1.20493 9.98825 -0.00818026 -0.00562297 9.98842 -0.11836 25 1 
522 1.20494 9.98818 -0.00810152 -0.00570039 9.98837 -0.115261 25 1 
524 1.20494 9.98815 -0.00803837 -0.00576876 9.98834 -0.112884 25 1 
526 1.20494 9.98812 -0.00796546 -0.00582652 9.9883 -0.111324 25 1 
528 1.20494 9.98806 -0.00789419 -0.00590082 9.98823 -0.108862 25 1 
530 1.20494 9.98789 -0.0078532 -0.00598109 9.98807 -0.106503 25 1 
532 1.20494 9.98768 -0.00778597 -0.00604901 9.98786 -0.104914 25 1 
534 1.20494 9.98749 -0.00770719 -0.00611434 9.98766 -0.102977 25 1 
536 1.20494 9.98733 -0.00765896 -0.00616891 9.9875 -0.100864 25 1 
538 1.20494 9.98716 -0.00759945 -0.00621946 9.98732 -0.09976 25 1 
540 1.20495 9.98697 -0.00750674 -0.00629516 9.98713 -0.0981184 25 1 
542 1.20495 9.98679 -0.00741901 -0.00636873 9.98694 -0.0955317 25 1 
544 1.20495 9.98659 -0.0073448 -0.00642238 9.98675 -0.0936261 25 1 
544 1.20495 9.98659 -0.0073448 -0.00642238 9.98675 -0.0936261 25 1 
546 1.20495 9.98641 -0.00726839 -0.00648351 9.98657 -0.0928022 25 1 
548 1.20495 9.98623 -0.00718466 -0.00654821 9.98639 -0.0907449 25 1 
550 1.20495 9.98605 -0.00711398 -0.0065953 9.9862 -0.0880856 25 1 
552 1.20495 9.98604 -0.00706037 -0.0066393 9.98619 -0.0870937 25 1 
554 1.20495 9.98623 -0.00697633 -0.00670594 9.98638 -0.0854673 25 1 
556 1.20495 9.98634 -0.00688439 -0.00676692 9.9865 -0.0826447 25 1 
558 1.20496 9.98629 -0.00679358 -0.00680255 9.98644 -0.0809043 25 1 
560 1.20496 9.98615 -0.00669616 -0.00683815 9.98628 -0.079237 25 1 
562 1.20496 9.98596 -0.00661604 -0.00687991 9.98609 -0.0772722 25 1 
564 1.20496 9.98584 -0.00654739 -0.00690862 9.98597 -0.075402 25 1 
566 1.20496 9.98586 -0.00648439 -0.00693782 9.98598 -0.0738546 25 1 
568 1.20496 9.98604 -0.00642052 -0.00698469 9.98616 -0.0726058 25 1 
570 1.20496 9.98632 -0.00632835 -0.00703347 9.98645 -0.0712079 25 1 
572 1.20496 9.98656 -0.0062344 -0.0070479 9.98668 -0.0697862 25 1 
574 1.20496 9.98658 -0.00615187 -0.00705573 9.9867 -0.0679751 25 1 
576 1.20496 9.98634 -0.00606372 -0.00707587 9.98646 -0.0681293 25 1 
576 1.20496 9.98634 -0.00606372 -0.00707587 9.98646 -0.0681293 26 1 
578 1.20496 9.986 -0.00598761 -0.00707309 9.98611 -0.0674526 26 1 
580 1.20496 9.98583 -0.00591127 -0.00707857 9.98595 -0.0653946 26 1 
582 1.20496 9.98578 -0.00581937 -0.00712577 9.98591 -0.0646607 26 1 
584 1.20496 9.98579 -0.00573411 -0.00719166 9.98593 -0.0645874 26 1 
586 1.20496 9.98619 -0.00567971 -0.00724342 9.98632 -0.0641913 26 1 
588 1.20497 9.98691 -0.00562088 -0.0072703 9.98704 -0.0625582 26 1 
590 1.20497 9.98747 -0.0055313 -0.00728528 9.9876 -0.0616697 26 1 
592 1.20497 9.98723 -0.00542562 -0.00733162 9.98736 -0.0604087 26 1 
594 1.20497 9.98613 -0.00531467 -0.00738905 9.98626 -0.0608006 26 1 
596 1.20497 9.9848 -0.00525095 -0.00742935 9.98493 -0.0604952 26 1 
598 1.20497 9.984 -0.0052351 -0.00744864 9.98412 -0.0594083 26 1 
600 1.20497 9.98405 -0.00520239 -0.00747928 9.98417 -0.0592066 26 1 
602 1.20497 9.98493 -0.0051495 -0.00754761 9.98505 -0.0584962 26 1 
604 1.20497 9.98629 -0.00510702 -0.00759721 9.98642 -0.0572063 26 1 
606 1.20497 9.98757 -0.00504218 -0.00761077 9.98769 -0.0563895 26 1 
608 1.20497 9.98834 -0.00494801 -0.00759907 9.98846 -0.0564807 26 1 
608 1.20497 9.98834 -0.00494801 -0.00759907 9.98846 -0.0564807 26 1 
610 1.20497 9.98812 -0.00485209 -0.00760316 9.98825 -0.054986 26 1 
612 1.20497 9.98674 -0.00472543 -0.00761995 9.98686 -0.0538373 26 1 
614 1.20497 9.98441 -0.00464881 -0.00760368 9.98452 -0.0535655 26 1 
616 1.20497 9.98192 -0.00465638 -0.00757667 9.98204 -0.0534503 26 1 
618 1.20497 9.98051 -0.00466385 -0.00755606 9.98062 -0.052743 26 1 
620 1.20497 9.98106 -0.00461818 -0.00754722 9.98117 -0.0525518 26 1 
622 1.20497 9.98347 -0.00455511 -0.00754218 9.98357 -0.0509053 26 1 
624 1.20497 9.98686 -0.00452319 -0.00750329 9.98696 -0.0491482 26 1 
626 1.20497 9.98998 -0.00446119 -0.00745464 9.99008 -0.0485142 26 1 
628 1.20497 9.99181 -0.00433473 -0.00740733 9.9919 -0.0479623 26 1 
630 1.20497 9.99163 -0.00418123 -0.00737648 9.99171 -0.0467626 26 1 
632 1.20498 9.98905 -0.00405257 -0.00735094 9.98913 -0.0448723 26 1 
634 1.20498 9.98455 -0.00396416 -0.00730511 9.98463 -0.0443247 26 1 
636 1.20498 9.97943 -0.0039141 -0.0072665 9.97951 -0.0440105 26 1 
638 1.20498 9.97534 -0.00389901 -0.00724783 9.97541 -0.0436654 26 1 
640 1.20498 9.97377 -0.00389191 -0.00723782 9.97383 -0.0432113 26 1 
642 1.20498 9.97533 -0.00391337 -0.00721252 9.9754 -0.0424628 26 1 
644 1.20498 9.97975 -0.00390134 -0.00720075 9.97982 -0.0419337 26 1 
646 1.20498 9.98615 -0.00385278 -0.00718777 9.98621 -0.0415668 26 1 
648 1.20498 9.99283 -0.00378144 -0.00715037 9.99289 -0.0408581 26 1 
650 1.20498 9.9979 -0.00366898 -0.0071243 9.99796 -0.0400065 26 1 
652 1.20498 9.99974 -0.0035009 -0.00710876 9.99981 -0.0390803 26 1 
654 1.20498 9.99713 -0.00333059 -0.00709438 9.99719 -0.0374726 26 1 
656 1.20498 9.98979 -0.00318312 -0.00706844 9.98986 -0.0369003 26 1 
658 1.20498 9.9783 -0.00305107 -0.00703294 9.97837 -0.0363012 26 1 
660 1.20498 9.96403 -0.00298667 -0.00697689 9.96409 -0.0361147 26 1 
662 1.20498 9.94898 -0.00297705 -0.00688517 9.94904 -0.0374082 26 1 
664 1.20498 9.93508 -0.00299564 -0.00679089 9.93514 -0.0375444 26 1 
666 1.20498 9.92398 -0.00304574 -0.00668534 9.92404 -0.0388158 26 1 
668 1.20498 9.91665 -0.00313284 -0.00655067 9.91671 -0.0389855 26 1 
670 1.20498 9.91336 -0.00317879 -0.00642283 9.91341 -0.0388049 26 1 
672 1.20498 9.91404 -0.00324317 -0.00626984 9.91408 -0.038933 26 1 
672 1.20498 9.91404 -0.00324317 -0.00626984 9.91408 -0.038933 27 1 
674 1.20498 9.91846 -0.00331654 -0.00605131 9.91849 -0.0384443 27 1 
676 1.20498 9.92598 -0.00334996 -0.00576952 9.92601 -0.0364187 27 1 
678 1.20498 9.93552 -0.00336915 -0.00544508 9.93553 -0.0318919 27 1 
680 1.20498 9.94583 -0.00334518 -0.00511621 9.94584 -0.0290274 27 1 
682 1.20499 9.95566 -0.00332433 -0.00480289 9.95566 -0.0266232 27 1 
684 1.20499 9.96429 -0.00331903 -0.00453002 9.96429 -0.0244427 27 1 
686 1.20499 9.97146 -0.00331957 -0.00434056 9.97146 -0.0232547 27 1 
688 1.20499 9.97722 -0.00331779 -0.00421297 9.97722 -0.0237167 27 1 
690 1.20499 9.98183 -0.00335737 -0.00412591 9.98183 -0.0233122 27 1 
692 1.20499 9.98553 -0.00340787 -0.004069 9.98554 -0.021852 27 1 
694 1.20499 9.98845 -0.00345372 -0.00402806 9.98846 -0.0221335 27 1 
696 1.20499 9.9907 -0.00351219 -0.00398162 9.99071 -0.0215595 27 1 
698 1.20499 9.99243 -0.00357162 -0.00393961 9.99243 -0.0204617 27 1 
700 1.20499 9.99375 -0.00365395 -0.00388368 9.99375 -0.0195203 27 1 
702 1.20499 9.99478 -0.0037204 -0.00382272 9.99478 -0.0197842 27 1 
704 1.20499 9.99556 -0.00379976 -0.00375285 9.99557 -0.0185905 27 1 
704 1.20499 9.99556 -0.00379976 -0.00375285 9.99557 -0.0185905 31 1 
706 1.20499 9.99618 -0.00389055 -0.00367412 9.99618 -0.0167871 31 1 
708 1.20499 9.99664 -0.00396457 -0.00362079 9.99665 -0.0172103 31 1 
710 1.20499 9.99694 -0.0040463 -0.00355493 9.99695 -0.0168583 31 1 
712 1.20499 9.99719 -0.00411156 -0.00350521 9.9972 -0.0150916 31 1 
714 1.20499 9.99742 -0.00414941 -0.00349516 9.99742 -0.0153483 31 1 
716 1.20499 9.99756 -0.00418678 -0.00347018 9.99756 -0.015156 31 1 
718 1.20499 9.99768 -0.00421538 -0.00343605 9.99768 -0.0138354 31 1 
720 1.20499 9.99777 -0.00423858 -0.00340827 9.99777 -0.0132373 31 1 
722 1.20499 9.9978 -0.0042561 -0.00336424 9.9978 -0.0133509 31 1 
724 1.20499 9.99781 -0.00428294 -0.00330068 9.99782 -0.0129172 31 1 
726 1.20499 9.99778 -0.00431964 -0.00324418 9.99779 -0.0111098 31 1 
728 1.20499 9.99777 -0.00433358 -0.00318645 9.99778 -0.0116252 31 1 
730 1.20499 9.99775 -0.0043292 -0.00314419 9.99775 -0.0111288 31 1 
732 1.20499 9.99768 -0.00434575 -0.0030946 9.99768 -0.0092902 31 1 
734 1.20499 9.99767 -0.00436072 -0.00306994 9.99768 -0.00953335 31 1 
736 1.205 9.9977 -0.00433432 -0.00305349 9.9977 -0.00858829 31 1 
738 1.205 9.99767 -0.00432566 -0.00301524 9.99767 -0.00703652 31 1 
740 1.205 9.99767 -0.00432464 -0.00300357 9.99768 -0.00653499 31 1 
742 1.205 9.99773 -0.00430132 -0.00298754 9.99773 -0.00586372 31 1 
744 1.205 9.99777 -0.0042935 -0.002961 9.99777 -0.00474404 31 1 
746 1.205 9.99779 -0.00426589 -0.00293457 9.9978 -0.00287412 31 1 
748 1.205 9.99786 -0.0042662 -0.00290082 9.99786 -0.00270291 31 1 
750 1.205 9.99791 -0.00426568 -0.00286726 9.99791 -0.0023476 31 1 
752 1.205 9.99793 -0.00425541 -0.00284074 9.99794 -0.000139689 31 1 
752 1.205 9.99793 -0.00425541 -0.00284074 9.99794 -0.000139689 31 1 
754 1.205 9.99797 -0.00425519 -0.00279655 9.99798 0.000108038 31 1 
756 1.205 9.99801 -0.00425953 -0.00275953 9.99802 0.000251068 31 1 
758 1.205 9.99801 -0.00426992 -0.00275221 9.99802 0.00175203 31 1 
760 1.205 9.998 -0.00426872 -0.00272903 9.998 0.00272584 31 1 
762 1.205 9.99804 -0.00426056 -0.00271416 9.99804 0.00260355 31 1 
764 1.205 9.99803 -0.00427065 -0.00271187 9.99804 0.003339 31 1 
766 1.205 9.99798 -0.00428817 -0.0027154 9.99798 0.00490233 31 1 
768 1.205 9.998 -0.00428177 -0.00270101 9.998 0.00457577 31 1 
770 1.205 9.99796 -0.00428955 -0.00269723 9.99796 0.00505306 31 1 
772 1.205 9.99792 -0.00429803 -0.00270538 9.99792 0.00644831 31 1 
774 1.205 9.99791 -0.00429696 -0.00269234 9.99791 0.00712321 31 1 
776 1.205 9.99785 -0.00431742 -0.00267193 9.99785 0.00686551 31 1 
778 1.205 9.99781 -0.00431852 -0.00266958 9.99782 0.00736178 31 1 
780 1.20501 9.99777 -0.00431916 -0.0026622 9.99777 0.00920108 31 1 
782 1.20501 9.99769 -0.00433373 -0.00263046 9.99769 0.00951422 31 1 
784 1.205 9.99764 -0.00434547 -0.00260657 9.99764 0.00829819 31 1 
786 1.20501 9.99764 -0.00433359 -0.0025886 9.99764 0.0102711 31 1 
788 1.20501 9.99745 -0.00436481 -0.00255946 9.99746 0.0146135 31 1 
790 1.205 9.9975 -0.00436764 -0.00254574 9.9975 0.00752041 31 1 
792 1.20501 9.99732 -0.00432736 -0.00251213 9.99732 0.014561 31 1 
794 1.20501 9.99721 -0.00434795 -0.00247521 9.99721 0.0154424 31 1 
796 1.20501 9.99703 -0.00436579 -0.00243483 9.99703 0.0152068 31 1 
798 1.20502 9.99599 -0.00440467 -0.00235522 9.99599 0.0363115 31 1 
800 1.20502 9.99546 -0.00437429 -0.00231428 9.99546 0.0429108 31 1 
