2.71694;r ;Density                 ;Velocity u              ;Velocity v              ;Velocity w              ;|Velocity|              ;Pressure                ;Distribution            ;Levels                  ;
0 1.205 10 8.10874e-15 3.00087e-15 10 -4.16835e-12 1 1 
2 1.205 10 4.34169e-15 2.33047e-15 10 -5.67862e-12 1 1 
4 1.205 10 8.33221e-15 -1.30889e-15 10 -5.43698e-12 1 1 
6 1.205 10 2.19e-14 -7.11909e-15 10 -5.95047e-12 1 1 
8 1.205 10 2.00803e-14 -9.13032e-15 10 -8.18567e-12 1 1 
10 1.205 10 7.24679e-15 -2.58586e-15 10 -6.34314e-12 1 1 
12 1.205 10 -1.0535e-15 -1.08542e-15 10 -3.8965e-12 1 1 
14 1.205 10 8.10874e-15 -1.40466e-14 10 -2.62787e-12 1 1 
16 1.205 10 1.42382e-14 -1.27697e-14 10 -3.47363e-12 1 1 
18 1.205 10 1.25143e-14 2.42624e-15 10 -4.86308e-12 1 1 
20 1.205 10 2.34004e-14 4.53323e-15 10 -5.07451e-12 1 1 
22 1.205 10 3.72236e-14 3.51166e-15 10 -4.92349e-12 1 1 
24 1.205 10 3.19242e-14 1.04073e-14 10 -4.13815e-12 1 1 
26 1.205 10 1.20354e-14 7.6618e-15 10 -4.62143e-12 1 1 
28 1.205 10 8.90685e-15 9.03454e-15 10 -4.80266e-12 1 1 
30 1.205 10 3.35204e-15 1.50682e-14 10 -4.01732e-12 1 1 
32 1.205 10 1.36636e-14 1.45574e-14 10 -5.37657e-12 1 1 
32 1.205 10 1.36636e-14 1.45574e-14 10 -5.37657e-12 1 1 
34 1.205 10 2.62417e-14 1.03754e-14 10 -5.89006e-12 1 1 
36 1.205 10 2.08146e-14 1.27698e-16 10 -5.82965e-12 1 1 
38 1.205 10 2.83487e-14 -6.16137e-15 10 -6.46396e-12 1 1 
40 1.205 10 2.47412e-14 -5.39519e-15 10 -5.49739e-12 1 1 
42 1.205 10 9.54533e-15 6.06559e-15 10 -5.40677e-12 1 1 
44 1.205 10 -1.5962e-16 5.65058e-15 10 -5.28595e-12 1 1 
46 1.205 10 -1.27058e-14 1.14289e-14 10 -3.50383e-12 1 1 
48 1.205 10 -1.21631e-14 1.56109e-14 10 -2.92993e-12 1 1 
50 1.205 10 -5.07595e-15 1.04073e-14 10 -3.38301e-12 1 1 
52 1.205 10 -7.88527e-15 1.81968e-14 10 -3.65486e-12 1 1 
54 1.205 10 -1.04711e-14 1.57386e-14 10 -3.74547e-12 1 1 
56 1.205 10 -1.28974e-14 2.01122e-14 10 -6.34314e-12 1 1 
58 1.205 10 -9.06647e-15 3.39993e-14 10 -8.18567e-12 1 1 
60 1.205 10 -6.51253e-15 1.95376e-14 10 -5.13492e-12 1 1 
62 1.205 10 -8.843e-15 9.60918e-15 10 -3.44342e-12 1 1 
64 1.205 10 4.85248e-15 1.06627e-14 10 -3.29239e-12 1 1 
64 1.205 10 4.85248e-15 1.06627e-14 10 -3.29239e-12 2 1 
66 1.205 10 1.35039e-14 4.46939e-16 10 -4.53082e-12 2 1 
68 1.205 10 8.26836e-15 6.79985e-15 10 -5.73903e-12 2 1 
70 1.205 10 5.23557e-15 1.02477e-14 10 -5.31616e-12 2 1 
72 1.205 10 5.10787e-16 1.66644e-14 10 -3.95691e-12 2 1 
74 1.205 10 -6.38484e-15 2.46135e-14 10 -3.23198e-12 2 1 
76 1.205 10 -4.40554e-15 1.24185e-14 10 -3.62465e-12 2 1 
78 1.205 10 8.52376e-15 1.0535e-14 10 -3.8663e-12 2 1 
80 1.205 10 1.66963e-14 2.18681e-14 10 -3.02054e-12 2 1 
82 1.205 10 -9.57727e-17 2.74548e-14 10 -1.81233e-12 2 1 
84 1.205 10 -9.19417e-15 1.14927e-14 10 -1.54048e-12 2 1 
86 1.205 10 -6.12944e-15 4.27784e-15 10 -2.26541e-12 2 1 
88 1.205 10 -7.62988e-15 2.91787e-14 10 -1.20822e-12 2 1 
90 1.205 10 -7.69373e-15 2.49009e-14 10 1.20822e-13 2 1 
92 1.205 10 -4.66093e-15 1.29612e-14 10 -1.81233e-13 2 1 
94 1.205 10 2.20277e-15 1.28335e-14 10 -5.73903e-13 2 1 
96 1.205 10 -2.52201e-15 7.62988e-15 10 -2.71849e-13 2 1 
96 1.205 10 -2.52201e-15 7.62988e-15 10 -2.71849e-13 2 1 
98 1.205 10 -1.48447e-14 3.8309e-15 10 8.75958e-13 2 1 
100 1.205 10 -5.45697e-12 5.00222e-12 10 3.69714e-08 2 1 
102 1.205 10 -2.17551e-09 1.93359e-09 10 1.81818e-08 2 1 
104 1.205 10 -1.76078e-09 3.88945e-09 10 -7.86687e-07 2 1 
106 1.205 10 7.38237e-09 -3.80487e-09 10 1.98886e-06 2 1 
108 1.205 10 9.83709e-09 -1.73741e-08 10 -2.73166e-06 2 1 
110 1.205 10 4.24663e-10 4.87883e-09 10 1.11528e-06 2 1 
112 1.205 10 -1.41063e-08 3.00515e-08 10 1.13791e-06 2 1 
114 1.205 10 -1.66328e-08 -1.71385e-08 10 -6.58973e-07 2 1 
116 1.205 10 3.82581e-08 -5.27795e-08 10 2.63817e-07 2 1 
118 1.205 10 -1.62627e-08 2.55039e-08 10 -2.99874e-06 2 1 
120 1.205 10 -8.22283e-08 7.16294e-08 10 3.39791e-06 2 1 
122 1.205 10 7.10193e-08 -4.04843e-08 10 1.49419e-06 2 1 
124 1.205 10 9.46666e-08 -3.06372e-08 10 -5.04827e-06 2 1 
126 1.205 10 -1.23671e-07 1.15392e-07 10 4.87916e-06 2 1 
128 1.205 10 -1.84104e-09 -3.59878e-08 10 -1.62595e-06 2 1 
128 1.205 10 -1.84104e-09 -3.59878e-08 10 -1.62595e-06 10 1 
130 1.205 10 2.27369e-07 -2.37437e-07 10 -1.42305e-06 10 1 
132 1.205 10 -2.81511e-07 2.54417e-07 10 -4.36487e-06 10 1 
134 1.205 10 -1.58773e-07 1.59327e-07 10 6.45003e-06 10 1 
136 1.205 10 7.11196e-07 -7.14322e-07 10 1.68271e-05 10 1 
138 1.205 10 -3.75487e-07 3.25993e-07 10 -3.5691e-05 10 1 
140 1.205 10 -9.47169e-07 1.01666e-06 10 1.30214e-06 10 1 
142 1.205 10 1.2063e-06 -1.06244e-06 10 4.27627e-05 10 1 
144 1.205 10 4.80386e-07 -6.07243e-07 10 -3.17147e-05 10 1 
146 1.205 10 -1.63242e-06 1.57113e-06 10 -1.75881e-05 10 1 
148 1.205 10 4.15347e-07 -3.9797e-07 10 5.54715e-05 10 1 
150 1.205 10 1.09965e-06 -1.21075e-06 10 -3.27365e-05 10 1 
152 1.205 10 -1.01843e-06 1.08281e-06 10 -3.19291e-05 10 1 
154 1.205 10 1.13119e-07 2.63262e-08 10 4.84676e-05 10 1 
156 1.205 10 1.20801e-06 -1.15369e-06 10 -3.79058e-06 10 1 
158 1.205 10 -1.028e-06 1.07139e-06 10 -2.68813e-05 10 1 
160 1.205 10 -8.49976e-07 6.31591e-07 10 -1.11439e-05 10 1 
160 1.205 10 -8.49976e-07 6.31591e-07 10 -1.11439e-05 10 1 
162 1.205 10 1.02186e-06 -1.14468e-06 10 6.41339e-05 10 1 
164 1.205 10 -6.2274e-08 4.02133e-07 10 -3.71024e-05 10 1 
166 1.205 10 -4.77826e-07 3.36803e-07 10 -5.3263e-05 10 1 
168 1.205 10 8.90581e-07 -1.09164e-06 10 0.000114941 10 1 
170 1.205 10 -4.22486e-07 8.01536e-07 10 -4.03095e-05 10 1 
172 1.205 10 -1.15434e-06 9.41362e-07 10 -0.00013521 10 1 
174 1.205 10 1.07951e-06 -1.51023e-06 10 0.00021726 10 1 
176 1.205 10 9.48955e-07 -5.64974e-07 10 -8.54332e-05 10 1 
178 1.205 10 -9.73635e-07 1.18938e-06 10 -0.000214424 10 1 
180 1.205 9.99999 2.93483e-07 -2.96087e-07 9.99999 0.000401084 10 1 
182 1.205 10 7.98932e-07 -6.43702e-07 10 -0.00021829 10 1 
184 1.205 10 -2.11046e-06 1.72391e-06 10 -0.000191026 10 1 
186 1.205 9.99999 -9.70754e-07 9.76265e-07 9.99999 0.000469786 10 1 
188 1.205 10 2.75016e-06 -2.29214e-06 10 -0.000416122 10 1 
190 1.205 10 1.03031e-06 -1.39676e-06 10 -1.46258e-05 10 1 
192 1.205 9.99999 -2.05822e-06 1.79645e-06 9.99999 0.000534469 10 1 
194 1.205 10 -7.48178e-07 1.17164e-06 10 -0.000529619 10 1 
196 1.205 10 7.85392e-07 -1.08346e-06 10 5.07721e-05 10 1 
198 1.205 10 9.80038e-07 -1.15899e-06 10 0.000247688 10 1 
200 1.205 10 7.91988e-08 3.27138e-07 10 -0.000268277 10 1 
202 1.205 9.99999 -1.54399e-06 1.39685e-06 9.99999 0.000299365 10 1 
204 1.205 10 -3.22369e-07 1.34907e-07 10 -0.000306614 10 1 
206 1.205 10 1.72939e-06 -1.1081e-06 10 -0.000147827 10 1 
208 1.205 9.99997 1.80878e-07 2.6234e-07 9.99997 0.000800999 10 1 
210 1.205 10 -8.39516e-07 1.77004e-07 10 -0.000202951 10 1 
212 1.205 10 2.54101e-07 -4.82447e-07 10 -0.000506265 10 1 
214 1.205 10 8.81703e-07 2.92725e-07 10 3.88641e-05 10 1 
216 1.205 9.99999 -6.9203e-07 3.20699e-07 9.99999 -9.78105e-05 10 1 
218 1.205 9.99998 -2.29346e-06 9.54689e-07 9.99998 0.000513278 10 1 
220 1.205 10 5.59377e-07 -2.7842e-07 10 -2.01963e-05 10 1 
222 1.205 10 3.24266e-06 -2.8065e-06 10 -0.00147478 10 1 
224 1.205 9.99998 4.16392e-07 -4.89414e-07 9.99998 0.000485542 10 1 
224 1.205 9.99998 4.16392e-07 -4.89414e-07 9.99998 0.000485542 10 1 
226 1.205 9.99997 -3.26223e-06 2.07152e-06 9.99997 0.00132915 10 1 
228 1.205 10 -2.01901e-07 -5.37082e-07 10 -0.000866956 10 1 
230 1.205 10 2.77483e-06 -1.97208e-06 10 -0.000504591 10 1 
232 1.205 9.99999 2.02013e-07 5.12955e-09 9.99999 0.000341662 10 1 
234 1.205 9.99996 -2.95615e-07 2.90747e-08 9.99996 0.000702725 10 1 
236 1.205 10 -6.46151e-07 1.56293e-06 10 8.65302e-06 10 1 
238 1.205 10 -9.60876e-07 1.9494e-06 10 -0.000861143 10 1 
240 1.205 9.99994 4.14429e-06 -3.96264e-06 9.99994 0.000988411 10 1 
242 1.205 9.99997 9.94765e-07 -1.54916e-06 9.99997 0.000660227 10 1 
244 1.205 10.0001 -5.37207e-06 4.97438e-06 10.0001 -0.00167946 10 1 
246 1.205 10 1.23469e-06 -8.14838e-07 10 -0.000417047 10 1 
248 1.205 9.99996 5.13006e-06 -3.86299e-06 9.99996 0.000612633 10 1 
250 1.205 9.99994 -4.51713e-07 8.14864e-07 9.99994 0.000596252 10 1 
252 1.205 10.0001 -2.38618e-06 1.71975e-06 10.0001 -0.00155321 10 1 
254 1.205 10 1.0657e-06 2.81791e-07 10 -0.000426583 10 1 
256 1.205 9.9999 2.96457e-06 -2.27327e-06 9.9999 0.000953379 10 1 
256 1.205 9.9999 2.96457e-06 -2.27327e-06 9.9999 0.000953379 11 1 
258 1.205 9.99999 3.35834e-06 -4.29486e-06 9.99999 0.00128945 11 1 
260 1.205 10.0001 2.03997e-06 9.72209e-08 10.0001 -0.00124071 11 1 
262 1.205 9.99997 -2.14964e-06 4.90546e-06 9.99997 -0.00130474 11 1 
264 1.205 9.99993 -7.33999e-08 4.39293e-07 9.99993 0.00110979 11 1 
266 1.205 10 6.43372e-06 -5.26555e-06 10 0.000683449 11 1 
268 1.205 10.0001 2.56539e-06 -1.52813e-06 10.0001 -0.00224157 11 1 
270 1.205 9.99993 -2.99577e-06 3.25491e-06 9.99993 -0.000803606 11 1 
272 1.205 9.99997 8.2003e-07 6.85148e-07 9.99997 -6.44423e-05 11 1 
274 1.205 10.0002 4.63452e-06 -2.96037e-06 10.0002 -0.0020209 11 1 
276 1.205 10 2.97726e-06 -2.2185e-06 10 -0.00268631 11 1 
278 1.205 9.99989 -8.04896e-07 1.98331e-06 9.99989 -0.000514683 11 1 
280 1.205 10.0002 3.37604e-07 1.70158e-06 10.0002 -0.00138454 11 1 
282 1.205 10.0001 4.93281e-06 -3.68693e-06 10.0002 -0.00479968 11 1 
284 1.205 9.99997 2.53448e-06 -2.71923e-06 9.99998 -0.00823919 11 1 
286 1.205 10.0001 -4.05358e-07 3.22179e-08 10.0001 -0.0012831 11 1 
288 1.205 10.0006 1.75345e-06 -3.16952e-06 10.0006 -0.00732289 11 1 
288 1.205 10.0006 1.75345e-06 -3.16952e-06 10.0006 -0.00732289 11 1 
290 1.20499 10.0002 -3.37721e-07 -2.12586e-06 10.0002 -0.0141691 11 1 
292 1.20498 10.0005 1.62981e-07 -1.54786e-06 10.0006 -0.028626 11 1 
294 1.20497 10.0027 2.98658e-06 -4.86354e-06 10.0028 -0.0606758 11 1 
296 1.20491 10.0103 2.2942e-06 -4.09328e-06 10.0103 -0.171563 11 1 
298 1.20481 10.0258 3.97116e-06 -2.5928e-06 10.0653 -0.348366 11 1 
300 1.20463 10.0444 6.93277e-06 -4.44055e-06 10.0945 -0.668092 11 1 
302 1.20451 10.054 5.47618e-06 -4.52995e-06 10.0858 -0.89106 11 1 
304 1.20455 10.0474 4.17978e-06 -1.88872e-06 10.0744 -0.819847 11 1 
306 1.20462 10.0369 6.72787e-06 -1.83284e-06 10.0576 -0.683055 11 1 
308 1.20468 10.0292 8.8457e-06 -5.67362e-06 10.0462 -0.578249 11 1 
310 1.20471 10.0253 7.61449e-06 -7.58842e-06 10.0348 -0.515786 11 1 
312 1.20474 10.0212 6.12065e-06 -5.40167e-06 10.0304 -0.46802 11 1 
314 1.20477 10.0167 4.69387e-06 -2.89828e-06 10.0247 -0.420219 11 1 
316 1.20482 10.0104 3.70666e-06 -3.33972e-06 10.0179 -0.327177 11 1 
318 1.20484 9.99046 7.04452e-06 -7.25687e-06 9.99523 -0.28365 11 1 
320 1.20484 9.95575 9.18098e-06 -7.3351e-06 9.9601 -0.28279 11 1 
320 1.20484 9.95575 9.18098e-06 -7.3351e-06 9.9601 -0.28279 15 1 
322 1.20486 9.92747 6.50622e-06 -2.8573e-06 9.93074 -0.251728 15 1 
324 1.20491 9.92441 4.01214e-06 -1.18371e-06 9.92684 -0.169136 15 1 
326 1.20496 9.94096 4.97419e-06 -1.99303e-06 9.94137 -0.0806768 15 1 
328 1.20498 9.96137 5.19352e-06 -1.94041e-06 9.96178 -0.0323664 15 1 
330 1.20499 9.97613 5.26593e-06 -2.03913e-06 9.97627 -0.0220053 15 1 
332 1.20499 9.98541 6.26873e-06 -2.29571e-07 9.98552 -0.0143532 15 1 
334 1.205 9.99107 8.34698e-08 3.64124e-06 9.99116 -0.00872195 15 1 
336 1.20499 9.99427 -1.90642e-06 2.13785e-06 9.99433 -0.0106609 15 1 
338 1.205 9.99636 3.29246e-06 -1.312e-06 9.99643 -0.00620101 15 1 
340 1.205 9.9977 -2.79932e-06 2.35136e-06 9.99775 -0.00331027 15 1 
342 1.205 9.99841 -5.10213e-06 3.51563e-06 9.99845 -0.00461338 15 1 
344 1.205 9.99898 3.28058e-07 6.67991e-07 9.999 -0.00213579 15 1 
346 1.205 9.99932 -2.99129e-06 2.87243e-06 9.99934 -0.00105981 15 1 
348 1.205 9.99943 -7.34779e-06 6.93416e-06 9.99944 -0.00210289 15 1 
350 1.205 9.9996 -5.00423e-06 4.71878e-06 9.99961 -0.00176874 15 1 
352 1.205 9.99973 -9.62405e-07 -6.06757e-07 9.99974 -0.000485217 15 1 
354 1.205 9.99977 4.84928e-07 -4.92728e-07 9.99977 5.52982e-06 15 1 
356 1.205 9.99981 -1.46881e-06 2.02318e-06 9.99981 -0.00130999 15 1 
358 1.205 9.99987 -3.53443e-06 2.92488e-06 9.99988 -0.000850158 15 1 
360 1.205 9.99991 -1.22236e-06 1.34902e-06 9.99992 0.000226575 15 1 
362 1.205 9.99986 3.22648e-06 -2.01177e-06 9.99987 -0.00100061 15 1 
364 1.205 9.9999 1.07568e-06 -6.80797e-07 9.99991 -0.00060027 15 1 
366 1.205 9.99995 -9.28878e-07 1.74213e-06 9.99995 0.000206257 15 1 
368 1.205 9.99994 2.41387e-06 -5.91506e-07 9.99994 -0.000619261 15 1 
370 1.205 9.99994 8.00093e-07 -5.79341e-07 9.99994 -0.000327354 15 1 
372 1.205 9.99997 5.40429e-07 4.05649e-07 9.99997 2.73494e-05 15 1 
374 1.205 9.99994 3.86659e-06 -1.76119e-06 9.99994 -0.000662339 15 1 
376 1.205 9.99995 -6.53381e-09 -1.02571e-06 9.99995 -0.000720574 15 1 
378 1.205 9.99999 -1.73364e-06 7.52654e-07 9.99999 0.000179057 15 1 
380 1.205 9.99999 2.02055e-06 -2.8158e-07 9.99999 -5.83342e-05 15 1 
382 1.205 9.99996 -2.26581e-07 -4.9331e-08 9.99996 -0.000774389 15 1 
384 1.205 9.99998 -8.47176e-07 -5.35147e-08 9.99998 -4.81042e-05 15 1 
384 1.205 9.99998 -8.47176e-07 -5.35147e-08 9.99998 -4.81042e-05 16 1 
386 1.205 9.99998 2.96873e-06 -1.65655e-06 9.99998 -5.27986e-06 16 1 
388 1.205 9.99998 3.34257e-08 -5.9561e-08 9.99998 -0.000867337 16 1 
390 1.205 10 -2.41027e-06 1.82277e-06 10 0.000215686 16 1 
392 1.205 10 9.25789e-07 1.20468e-07 10 0.000240725 16 1 
394 1.205 9.99998 8.5618e-07 -1.04987e-06 9.99998 -0.00076129 16 1 
396 1.205 9.99999 -5.36042e-07 -6.53301e-07 9.99999 -0.000297022 16 1 
398 1.205 10 -6.3299e-08 3.28524e-07 10 -2.12696e-05 16 1 
400 1.205 9.99999 -8.54065e-07 1.17649e-06 9.99999 -0.000299577 16 1 
402 1.205 10 -4.34904e-07 -2.58104e-07 10 0.000122503 16 1 
404 1.205 10 1.29453e-06 -1.17751e-06 10 -0.000270146 16 1 
406 1.205 9.99999 6.0532e-07 2.18977e-07 9.99999 -0.00040126 16 1 
408 1.205 10 -8.89137e-07 5.06916e-07 10 0.000103416 16 1 
410 1.205 10 1.16997e-08 -4.18917e-07 10 3.2169e-05 16 1 
412 1.205 9.99999 5.66586e-07 -1.36752e-08 9.99999 -0.000229833 16 1 
414 1.205 9.99999 -6.83045e-07 4.74e-07 9.99999 -0.000249161 16 1 
416 1.205 10 1.04468e-07 -5.63628e-07 10 -3.02132e-05 16 1 
416 1.205 10 1.04468e-07 -5.63628e-07 10 -3.02132e-05 16 1 
418 1.205 10 7.79573e-07 -2.49726e-07 10 1.07891e-06 16 1 
420 1.205 10 -1.0654e-06 1.10434e-06 10 -8.56125e-05 16 1 
422 1.205 10 -9.15437e-07 3.75321e-07 10 -0.00013363 16 1 
424 1.205 10 7.48661e-07 -4.98116e-07 10 -9.17916e-05 16 1 
426 1.205 10 4.53161e-07 -1.87707e-07 10 -5.83775e-05 16 1 
428 1.205 10 2.6344e-07 -4.92261e-07 10 -5.24591e-05 16 1 
430 1.205 10 7.24248e-07 -5.44978e-07 10 -2.29182e-05 16 1 
432 1.205 10 -5.38965e-07 7.70675e-07 10 -7.62875e-05 16 1 
434 1.205 10 -1.10069e-06 7.19376e-07 10 2.22824e-05 16 1 
436 1.205 10 6.53923e-07 -9.44296e-07 10 -5.10407e-05 16 1 
438 1.205 10 4.74945e-07 -3.16501e-07 10 9.87312e-06 16 1 
440 1.205 10 -1.19987e-06 1.25646e-06 10 4.23757e-05 16 1 
442 1.205 10 -2.56214e-08 1.79671e-09 10 -3.38746e-05 16 1 
444 1.205 10 1.36159e-06 -1.20025e-06 10 -2.32549e-06 16 1 
446 1.205 10 -1.00074e-07 2.26273e-07 10 2.82858e-05 16 1 
448 1.205 10 -8.45423e-07 8.48799e-07 10 -1.57198e-05 16 1 
448 1.205 10 -8.45423e-07 8.48799e-07 10 -1.57198e-05 17 1 
450 1.205 10 3.77167e-07 -4.014e-07 10 -7.13281e-07 17 1 
452 1.205 10 4.23355e-07 -4.96805e-07 10 9.65694e-06 17 1 
454 1.205 10 -4.69868e-07 3.77387e-07 10 -1.25636e-06 17 1 
456 1.205 10 -2.59664e-07 1.85253e-07 10 -6.27176e-06 17 1 
458 1.205 10 2.00475e-07 -2.49873e-07 10 -1.82125e-06 17 1 
460 1.205 10 1.79275e-08 3.71529e-09 10 1.27571e-05 17 1 
462 1.205 10 -6.02952e-08 1.40535e-07 10 -1.46971e-05 17 1 
464 1.205 10 1.06288e-07 -3.94407e-08 10 9.3066e-06 17 1 
466 1.205 10 9.79016e-08 -6.72753e-08 10 2.98406e-06 17 1 
468 1.205 10 -1.38557e-08 1.71112e-08 10 -1.30705e-05 17 1 
470 1.205 10 -5.7461e-08 4.08018e-08 10 1.17979e-05 17 1 
472 1.205 10 -3.63179e-08 1.70385e-08 10 -7.10114e-06 17 1 
474 1.205 10 4.09818e-09 -2.40289e-08 10 6.71397e-06 17 1 
476 1.205 10 1.70276e-08 -3.51374e-08 10 -6.72132e-06 17 1 
478 1.205 10 -3.03771e-09 3.29237e-10 10 5.55335e-06 17 1 
480 1.205 10 -1.55333e-08 2.47564e-08 10 -7.28022e-06 17 1 
480 1.205 10 -1.55333e-08 2.47564e-08 10 -7.28022e-06 17 1 
482 1.205 10 -3.05954e-09 1.03282e-08 10 5.34625e-06 17 1 
484 1.205 10 8.03084e-09 -7.74844e-09 10 3.32051e-07 17 1 
486 1.205 10 5.82259e-09 -7.31961e-09 10 -2.73814e-06 17 1 
488 1.205 10 5.7662e-10 -5.65706e-10 10 2.5332e-06 17 1 
490 1.205 10 -1.19962e-09 1.60617e-09 10 -2.89981e-06 17 1 
492 1.205 10 -5.02041e-10 7.34872e-10 10 2.03212e-06 17 1 
494 1.205 10 -3.36513e-11 6.36646e-11 10 -6.3857e-07 17 1 
496 1.205 10 3.45608e-11 -3.22871e-11 10 -7.80095e-08 17 1 
498 1.205 10 6.37384e-12 -6.81827e-12 10 4.30446e-08 17 1 
500 1.205 10 3.77663e-14 1.19077e-14 10 -4.10794e-12 17 1 
502 1.205 10 2.26981e-14 9.51341e-15 10 -3.8663e-12 17 1 
504 1.205 10 2.5284e-14 1.15566e-14 10 -3.56424e-12 17 1 
506 1.205 10 3.20838e-14 3.06472e-15 10 -4.95369e-12 17 1 
508 1.205 10 1.8516e-14 -4.21399e-15 10 -5.73903e-12 17 1 
510 1.205 10 9.03454e-15 -9.44956e-15 10 -4.01732e-12 17 1 
512 1.205 10 2.05911e-14 3.19245e-17 10 -3.68506e-12 17 1 
512 1.205 10 2.05911e-14 3.19245e-17 10 -3.68506e-12 25 1 
514 1.205 10 1.02157e-14 7.18294e-15 10 -4.04753e-12 25 1 
516 1.205 10 1.11735e-15 5.90597e-15 10 -3.65486e-12 25 1 
518 1.205 10 -9.8965e-16 1.77179e-14 10 -3.44342e-12 25 1 
520 1.205 10 3.22434e-15 3.07111e-14 10 -4.01732e-12 25 1 
522 1.205 10 3.09665e-15 4.04799e-14 10 -4.95369e-12 25 1 
524 1.205 10 -1.91545e-16 2.20277e-14 10 -4.56102e-12 25 1 
526 1.205 10 1.13331e-14 2.26662e-14 10 -5.5578e-12 25 1 
528 1.205 10 2.19958e-14 2.57309e-14 10 -7.15869e-12 25 1 
530 1.205 10 2.64013e-14 1.93141e-14 10 -6.28273e-12 25 1 
532 1.205 10 3.35204e-14 1.89949e-14 10 -5.22554e-12 25 1 
534 1.205 10 1.90587e-14 1.25143e-14 10 -5.34636e-12 25 1 
536 1.205 10 7.31064e-15 1.50363e-14 10 -5.92027e-12 25 1 
538 1.205 10 1.76222e-14 1.14608e-14 10 -5.22554e-12 25 1 
540 1.205 10 2.55074e-14 1.27058e-14 10 -4.65164e-12 25 1 
542 1.205 10 1.30251e-14 5.52288e-15 10 -4.16835e-12 25 1 
544 1.205 10 4.69285e-15 7.72565e-15 10 -3.50383e-12 25 1 
544 1.205 10 4.69285e-15 7.72565e-15 10 -3.50383e-12 25 1 
546 1.205 10 2.49328e-14 1.47809e-14 10 -4.10794e-12 25 1 
548 1.205 10 2.99449e-14 8.7153e-15 10 -3.95691e-12 25 1 
550 1.205 10 2.04634e-14 1.63133e-14 10 -2.89972e-12 25 1 
552 1.205 10 2.46455e-14 2.29854e-14 10 -2.89972e-12 25 1 
554 1.205 10 2.80933e-14 2.71036e-14 10 -3.23198e-12 25 1 
556 1.205 10 2.21873e-14 1.57386e-14 10 -3.47363e-12 25 1 
558 1.205 10 1.76541e-14 7.98105e-15 10 -3.83609e-12 25 1 
560 1.205 10 1.90907e-14 -5.96982e-15 10 -3.53404e-12 25 1 
562 1.205 10 1.29612e-14 -1.4749e-14 10 -3.8965e-12 25 1 
564 1.205 10 1.13012e-14 1.05988e-14 10 -4.53082e-12 25 1 
566 1.205 10 1.48767e-14 2.19958e-14 10 -4.10794e-12 25 1 
568 1.205 10 2.84764e-14 2.107e-14 10 -3.77568e-12 25 1 
570 1.205 10 3.29777e-14 8.07682e-15 10 -4.25897e-12 25 1 
572 1.205 10 2.51243e-14 3.47974e-15 10 -4.31938e-12 25 1 
574 1.205 10 2.84125e-14 7.08717e-15 10 -3.3528e-12 25 1 
576 1.205 10 3.05195e-14 3.41589e-15 10 -3.50383e-12 25 1 
576 1.205 10 3.05195e-14 3.41589e-15 10 -3.50383e-12 26 1 
578 1.205 10 1.96972e-14 7.66181e-16 10 -3.50383e-12 26 1 
580 1.205 10 1.22908e-14 5.96982e-15 10 -3.80589e-12 26 1 
582 1.205 10 1.51321e-14 2.36877e-14 10 -4.50061e-12 26 1 
584 1.205 10 1.34401e-14 3.99691e-14 10 -4.59123e-12 26 1 
586 1.205 10 2.19638e-14 3.88517e-14 10 -4.53082e-12 26 1 
588 1.205 10 3.70959e-14 3.49251e-14 10 -4.77246e-12 26 1 
590 1.205 10 3.72875e-14 3.76705e-14 10 -4.04753e-12 26 1 
592 1.205 10 2.37516e-14 3.73513e-14 10 -4.25897e-12 26 1 
594 1.205 10 2.29216e-14 1.94099e-14 10 -4.77246e-12 26 1 
596 1.205 10 2.50605e-14 6.83178e-15 10 -4.71205e-12 26 1 
598 1.205 10 3.58189e-14 2.36558e-14 10 -4.50061e-12 26 1 
600 1.205 10 3.47974e-14 3.26265e-14 10 -3.47363e-12 26 1 
602 1.205 10 3.25627e-14 3.45739e-14 10 -4.34958e-12 26 1 
604 1.205 10 3.13176e-14 4.05756e-14 10 -4.13815e-12 26 1 
606 1.205 10 2.6114e-14 3.86921e-14 10 -4.62143e-12 26 1 
608 1.205 10 2.55393e-14 3.40631e-14 10 -5.89006e-12 26 1 
608 1.205 10 2.55393e-14 3.40631e-14 10 -5.89006e-12 26 1 
610 1.205 10 3.22434e-14 3.28181e-14 10 -5.40677e-12 26 1 
612 1.205 10 4.24911e-14 4.10226e-14 10 -4.28917e-12 26 1 
614 1.205 10 3.4095e-14 4.66412e-14 10 -4.28917e-12 26 1 
616 1.205 10 3.45739e-14 3.94902e-14 10 -3.44342e-12 26 1 
618 1.205 10 3.71917e-14 3.42866e-14 10 -3.3528e-12 26 1 
620 1.205 10 2.9913e-14 4.16611e-14 10 -4.74225e-12 26 1 
622 1.205 10 2.87637e-14 5.41434e-14 10 -5.04431e-12 26 1 
624 1.205 10 3.68405e-14 4.297e-14 10 -5.95047e-12 26 1 
626 1.205 10 3.31692e-14 3.33288e-14 10 -6.1317e-12 26 1 
628 1.205 10 3.04237e-14 3.53081e-14 10 -4.89328e-12 26 1 
630 1.205 10 3.89475e-14 3.38077e-14 10 -4.01732e-12 26 1 
632 1.205 10 4.58431e-14 2.28896e-14 10 -5.28595e-12 26 1 
634 1.205 10 4.78224e-14 2.30173e-14 10 -5.19534e-12 26 1 
636 1.205 10 4.10545e-14 3.13176e-14 10 -4.01732e-12 26 1 
638 1.205 10 4.18845e-14 2.36558e-14 10 -3.17157e-12 26 1 
640 1.205 10 4.463e-14 1.45894e-14 10 -2.50705e-12 26 1 
642 1.205 10 3.75428e-14 2.82848e-14 10 -3.80589e-12 26 1 
644 1.205 10 3.25307e-14 4.16291e-14 10 -5.5276e-12 26 1 
646 1.205 10 2.79975e-14 2.1485e-14 10 -6.25253e-12 26 1 
648 1.205 10 3.2403e-14 1.12054e-14 10 -5.31616e-12 26 1 
650 1.205 10 3.64255e-14 1.96334e-14 10 -4.74225e-12 26 1 
652 1.205 10 3.17326e-14 2.70398e-14 10 -5.13492e-12 26 1 
654 1.205 10 3.33608e-14 1.13969e-14 10 -5.16513e-12 26 1 
656 1.205 10 3.46697e-14 2.23469e-15 10 -4.9839e-12 26 1 
658 1.205 10 2.79656e-14 1.2195e-14 10 -2.50705e-12 26 1 
660 1.205 10 3.00726e-14 1.78137e-14 10 -2.41644e-12 26 1 
662 1.205 10 5.36646e-14 2.50924e-14 10 -4.86308e-12 26 1 
664 1.205 10 5.73358e-14 1.53236e-14 10 -4.86308e-12 26 1 
666 1.205 10 4.09268e-14 3.25627e-15 10 -4.86308e-12 26 1 
668 1.205 10 2.16446e-14 2.58586e-15 10 -4.40999e-12 26 1 
670 1.205 10 1.76222e-14 1.67602e-14 10 -3.68506e-12 26 1 
672 1.205 10 3.5787e-14 2.8221e-14 10 -3.05075e-12 26 1 
672 1.205 10 3.5787e-14 2.8221e-14 10 -3.05075e-12 27 1 
674 1.205 10 3.21796e-14 1.86118e-14 10 -2.89972e-12 27 1 
676 1.205 10 2.93383e-14 7.94912e-15 10 -3.92671e-12 27 1 
678 1.205 10 2.74867e-14 6.16137e-15 10 -3.44342e-12 27 1 
680 1.205 10 2.5284e-14 2.28577e-14 10 -2.80911e-12 27 1 
682 1.205 10 3.58509e-14 3.09026e-14 10 -3.17157e-12 27 1 
684 1.205 10 2.72633e-14 2.59544e-14 10 -3.05075e-12 27 1 
686 1.205 10 2.26023e-14 2.01122e-14 10 -2.41644e-12 27 1 
688 1.205 10 2.5699e-14 1.20673e-14 10 -1.6915e-12 27 1 
690 1.205 10 2.85402e-14 2.28577e-14 10 -2.08418e-12 27 1 
692 1.205 10 2.11338e-14 2.79975e-14 10 -4.4704e-12 27 1 
694 1.205 10 2.57628e-14 1.72071e-14 10 -5.70883e-12 27 1 
696 1.205 10 3.83409e-14 2.42624e-14 10 -3.92671e-12 27 1 
698 1.205 10 3.46058e-14 3.92987e-14 10 -2.68828e-12 27 1 
700 1.205 10 2.87956e-14 5.03125e-14 10 -3.44342e-12 27 1 
702 1.205 10 1.56109e-14 3.64255e-14 10 -5.19534e-12 27 1 
704 1.205 10 2.34962e-14 2.05592e-14 10 -5.19534e-12 27 1 
704 1.205 10 2.34962e-14 2.05592e-14 10 -5.19534e-12 31 1 
706 1.205 10 3.13176e-14 1.51321e-14 10 -4.74225e-12 31 1 
708 1.205 10 1.57067e-14 1.16523e-14 10 -5.58801e-12 31 1 
710 1.205 10 1.90268e-14 3.64893e-14 10 -5.19534e-12 31 1 
712 1.205 10 3.64574e-14 3.48612e-14 10 -3.74547e-12 31 1 
714 1.205 10 5.02487e-14 4.56516e-15 10 -3.68506e-12 31 1 
716 1.205 10 2.99449e-14 8.93877e-16 10 -4.13815e-12 31 1 
718 1.205 10 1.42382e-14 1.75902e-14 10 -4.10794e-12 31 1 
720 1.205 10 1.78137e-14 2.6114e-14 10 -4.22876e-12 31 1 
722 1.205 10 1.48767e-14 1.75264e-14 10 -5.58801e-12 31 1 
724 1.205 10 1.58025e-14 1.71433e-14 10 -5.22554e-12 31 1 
726 1.205 10 1.12692e-14 5.71443e-15 10 -2.65808e-12 31 1 
728 1.205 10 1.4334e-14 -3.09665e-15 10 -9.96779e-13 31 1 
730 1.205 10 8.04489e-15 1.34082e-14 10 -1.75192e-12 31 1 
732 1.205 10 -4.15014e-15 6.44868e-15 10 -3.38301e-12 31 1 
734 1.205 10 -6.12944e-15 3.60743e-15 10 -3.26219e-12 31 1 
736 1.205 10 -6.64023e-15 1.39828e-14 10 -3.98712e-12 31 1 
738 1.205 10 5.17172e-15 1.8516e-14 10 -4.65164e-12 31 1 
740 1.205 10 2.23789e-14 2.01761e-14 10 -5.10472e-12 31 1 
742 1.205 10 1.00561e-14 4.59708e-15 10 -5.34636e-12 31 1 
744 1.205 10 1.178e-14 7.47026e-15 10 -4.4704e-12 31 1 
746 1.205 10 1.33762e-14 1.58982e-14 10 -4.74225e-12 31 1 
748 1.205 10 2.52201e-15 2.01122e-15 10 -6.37335e-12 31 1 
750 1.205 10 1.93461e-14 1.46851e-15 10 -5.76924e-12 31 1 
752 1.205 10 1.78137e-14 8.20452e-15 10 -4.19856e-12 31 1 
752 1.205 10 1.78137e-14 8.20452e-15 10 -4.19856e-12 31 1 
754 1.205 10 1.47171e-14 1.29612e-14 10 -4.37979e-12 31 1 
756 1.205 10 1.6856e-14 6.76793e-15 10 -3.56424e-12 31 1 
758 1.205 10 7.34256e-15 5.84213e-15 10 -4.19856e-12 31 1 
760 1.205 10 2.25704e-14 1.70475e-14 10 -4.53082e-12 31 1 
762 1.205 10 4.07672e-14 1.31847e-14 10 -3.92671e-12 31 1 
764 1.205 10 2.75187e-14 -4.56516e-15 10 -3.3226e-12 31 1 
766 1.205 10 1.2227e-14 -1.66006e-14 10 -2.205e-12 31 1 
768 1.205 10 1.30889e-14 -1.8516e-15 10 -3.68506e-12 31 1 
770 1.205 10 2.26981e-14 -6.38483e-17 10 -3.65486e-12 31 1 
772 1.205 10 4.06076e-14 7.40641e-15 10 -3.29239e-12 31 1 
774 1.205 10 3.92348e-14 3.74471e-14 10 -5.0141e-12 31 1 
776 1.205 10 2.01122e-14 3.96179e-14 10 -5.22554e-12 31 1 
778 1.205 10 2.92106e-14 3.6649e-14 10 -4.89328e-12 31 1 
780 1.205 10 5.43669e-14 4.53643e-14 10 -3.80589e-12 31 1 
782 1.205 10 6.19329e-14 3.17326e-14 10 -3.05075e-12 31 1 
784 1.205 10 4.74713e-14 1.20354e-14 10 -4.10794e-12 31 1 
786 1.205 10 4.32892e-14 1.8963e-14 10 -3.44342e-12 31 1 
788 1.205 10 4.04479e-14 2.04953e-14 10 -2.47685e-12 31 1 
790 1.205 10 1.75264e-14 6.41676e-15 10 -3.62465e-12 31 1 
792 1.205 10 2.74548e-14 5.42711e-15 10 -3.71527e-12 31 1 
794 1.205 10 4.94825e-14 1.57386e-14 10 -2.80911e-12 31 1 
796 1.205 10 4.03841e-14 1.71433e-14 10 -3.23198e-12 31 1 
798 1.205 10 2.36558e-14 7.56603e-15 10 -3.05075e-12 31 1 
800 1.205 10 2.07507e-14 2.49009e-15 10 -2.47685e-12 31 1 
