78.7913;r ;Density                 ;Velocity u              ;Velocity v              ;Velocity w              ;|Velocity|              ;Pressure                ;Distribution            ;Levels                  ;
0 1.20419 10.0015 -6.36951e-05 1.2619e-05 10.0015 -1.45463 1 1 
2 1.20419 10.0013 -3.05927e-05 4.10814e-06 10.0013 -1.45471 1 1 
4 1.20419 10.0012 -7.89051e-05 9.4093e-06 10.0012 -1.45501 1 1 
6 1.2042 10.0013 -0.000111045 -5.85671e-06 10.0013 -1.45397 1 1 
8 1.20419 10.0014 -0.000140276 -1.60573e-05 10.0014 -1.45504 1 1 
10 1.20419 10.0012 -0.000158085 -3.01851e-05 10.0012 -1.46111 1 1 
12 1.20419 10.001 -0.000193657 -4.17859e-05 10.001 -1.46611 1 1 
14 1.20419 10.001 -0.000229525 -5.31996e-05 10.001 -1.46623 1 1 
16 1.20419 10.0011 -0.000251082 -6.41582e-05 10.0011 -1.4665 1 1 
18 1.20419 10.0011 -0.000269807 -6.2198e-05 10.0011 -1.47195 1 1 
20 1.20418 10.001 -0.000290258 -6.56271e-05 10.001 -1.47556 1 1 
22 1.20418 10.0011 -0.000336633 -7.01702e-05 10.0011 -1.47495 1 1 
24 1.20418 10.0012 -0.00036358 -7.30603e-05 10.0012 -1.47748 1 1 
26 1.20418 10.0012 -0.000395499 -7.89274e-05 10.0012 -1.4799 1 1 
28 1.20418 10.0013 -0.000411404 -8.36217e-05 10.0013 -1.48015 1 1 
30 1.20418 10.0014 -0.000445614 -9.0664e-05 10.0014 -1.4817 1 1 
32 1.20418 10.0015 -0.000471584 -0.000106402 10.0015 -1.48236 1 1 
32 1.20418 10.0015 -0.000471584 -0.000106402 10.0015 -1.48236 1 1 
34 1.20418 10.0016 -0.000495171 -0.000106926 10.0016 -1.48242 1 1 
36 1.20418 10.0018 -0.000526367 -9.99806e-05 10.0018 -1.48255 1 1 
38 1.20418 10.0018 -0.000536733 -0.000112905 10.0018 -1.4827 1 1 
40 1.20418 10.0019 -0.0005681 -0.000126801 10.0019 -1.48278 1 1 
42 1.20418 10.0021 -0.000596182 -0.000130149 10.0021 -1.48199 1 1 
44 1.20418 10.0021 -0.000636426 -0.000129344 10.0021 -1.48213 1 1 
46 1.20418 10.0023 -0.000688473 -0.000110677 10.0023 -1.48159 1 1 
48 1.20418 10.0024 -0.000728048 -0.000107943 10.0024 -1.48107 1 1 
50 1.20418 10.0025 -0.000759012 -0.000129347 10.0025 -1.48151 1 1 
52 1.20418 10.0026 -0.000770494 -0.000119287 10.0026 -1.48101 1 1 
54 1.20418 10.0027 -0.000800787 -0.000114149 10.0027 -1.48094 1 1 
56 1.20418 10.0028 -0.000815126 -0.000123091 10.0028 -1.48139 1 1 
58 1.20418 10.0029 -0.000843272 -0.00013577 10.0029 -1.48123 1 1 
60 1.20418 10.003 -0.000858551 -0.000139127 10.003 -1.48102 1 1 
62 1.20418 10.0031 -0.000891806 -0.000148593 10.0031 -1.48164 1 1 
64 1.20418 10.0032 -0.000937081 -0.000143367 10.0032 -1.48268 1 1 
64 1.20418 10.0032 -0.000937081 -0.000143367 10.0032 -1.48268 2 1 
66 1.20418 10.0033 -0.000970307 -0.000157314 10.0033 -1.48205 2 1 
68 1.20418 10.0034 -0.00101822 -0.000166512 10.0034 -1.48311 2 1 
70 1.20418 10.0035 -0.00106063 -0.000147232 10.0035 -1.48342 2 1 
72 1.20418 10.0036 -0.00110059 -0.000165348 10.0036 -1.48325 2 1 
74 1.20418 10.0037 -0.00111585 -0.000176544 10.0037 -1.48313 2 1 
76 1.20418 10.0038 -0.00114747 -0.000188421 10.0038 -1.48238 2 1 
78 1.20418 10.0039 -0.00118149 -0.000192252 10.0039 -1.48378 2 1 
80 1.20418 10.004 -0.00121171 -0.000206574 10.004 -1.48209 2 1 
82 1.20418 10.0041 -0.00126328 -0.000210994 10.0041 -1.48268 2 1 
84 1.20418 10.0042 -0.00130343 -0.000238725 10.0042 -1.48238 2 1 
86 1.20418 10.0043 -0.00133698 -0.000255415 10.0043 -1.48143 2 1 
88 1.20418 10.0044 -0.00135987 -0.000265752 10.0044 -1.48147 2 1 
90 1.20418 10.0044 -0.00139186 -0.000284811 10.0044 -1.48023 2 1 
92 1.20418 10.0046 -0.00145835 -0.000298506 10.0046 -1.48123 2 1 
94 1.20418 10.0046 -0.00151592 -0.000323026 10.0046 -1.47957 2 1 
96 1.20418 10.0048 -0.00156962 -0.00033797 10.0048 -1.47936 2 1 
96 1.20418 10.0048 -0.00156962 -0.00033797 10.0048 -1.47936 2 1 
98 1.20418 10.0049 -0.00160005 -0.000356355 10.0049 -1.47866 2 1 
100 1.20418 10.005 -0.00163501 -0.00036583 10.005 -1.47874 2 1 
102 1.20418 10.0051 -0.00166725 -0.000380174 10.0051 -1.47714 2 1 
104 1.20418 10.0052 -0.00173006 -0.00038507 10.0052 -1.47699 2 1 
106 1.20418 10.0053 -0.00176789 -0.000404621 10.0053 -1.47713 2 1 
108 1.20418 10.0054 -0.00180513 -0.000432492 10.0054 -1.47584 2 1 
110 1.20418 10.0055 -0.00183319 -0.000438429 10.0055 -1.47459 2 1 
112 1.20418 10.0056 -0.0018897 -0.000453161 10.0056 -1.47325 2 1 
114 1.20418 10.0058 -0.00190668 -0.000473976 10.0058 -1.47294 2 1 
116 1.20419 10.0058 -0.00196428 -0.000476768 10.0058 -1.47078 2 1 
118 1.20419 10.0059 -0.00199296 -0.000496635 10.0059 -1.46976 2 1 
120 1.20419 10.006 -0.00203689 -0.000517281 10.006 -1.46803 2 1 
122 1.20419 10.0061 -0.00208962 -0.000508082 10.0061 -1.46727 2 1 
124 1.20419 10.0062 -0.00212452 -0.00051729 10.0062 -1.46431 2 1 
126 1.20419 10.0063 -0.00216122 -0.000533886 10.0063 -1.46266 2 1 
128 1.20419 10.0064 -0.00218784 -0.000547408 10.0064 -1.46101 2 1 
128 1.20419 10.0064 -0.00218784 -0.000547408 10.0064 -1.46101 10 1 
130 1.20419 10.0065 -0.00222485 -0.000571087 10.0065 -1.45878 10 1 
132 1.20419 10.0066 -0.00225825 -0.000569249 10.0066 -1.4571 10 1 
134 1.20419 10.0067 -0.00230843 -0.000597564 10.0067 -1.45477 10 1 
136 1.2042 10.0068 -0.00231611 -0.000625095 10.0068 -1.4532 10 1 
138 1.2042 10.0068 -0.0023806 -0.000636786 10.0068 -1.45121 10 1 
140 1.2042 10.0069 -0.00240704 -0.000642408 10.0069 -1.44875 10 1 
142 1.2042 10.007 -0.00245326 -0.000670604 10.007 -1.4478 10 1 
144 1.2042 10.0071 -0.00250098 -0.00069588 10.0071 -1.44623 10 1 
146 1.2042 10.0071 -0.00256384 -0.0006917 10.0071 -1.44365 10 1 
148 1.2042 10.0073 -0.00259647 -0.000719638 10.0073 -1.44287 10 1 
150 1.2042 10.0073 -0.00261147 -0.000733659 10.0073 -1.44167 10 1 
152 1.2042 10.0075 -0.00264143 -0.000744997 10.0075 -1.43933 10 1 
154 1.2042 10.0076 -0.00265528 -0.000765147 10.0076 -1.43798 10 1 
156 1.2042 10.0076 -0.00269731 -0.000794478 10.0076 -1.43673 10 1 
158 1.20421 10.0077 -0.0027344 -0.000820886 10.0077 -1.4357 10 1 
160 1.20421 10.0078 -0.00275292 -0.000836678 10.0078 -1.43428 10 1 
160 1.20421 10.0078 -0.00275292 -0.000836678 10.0078 -1.43428 10 1 
162 1.20421 10.0079 -0.00282975 -0.000836775 10.0079 -1.4328 10 1 
164 1.20421 10.008 -0.00283405 -0.00087481 10.008 -1.43163 10 1 
166 1.20421 10.0081 -0.00290354 -0.000881723 10.0081 -1.43004 10 1 
168 1.20421 10.0081 -0.00295008 -0.000886747 10.0081 -1.43023 10 1 
170 1.20421 10.0082 -0.00298079 -0.000902106 10.0082 -1.4282 10 1 
172 1.20421 10.0083 -0.00302815 -0.00091655 10.0083 -1.42714 10 1 
174 1.20421 10.0084 -0.00301949 -0.000938079 10.0084 -1.42502 10 1 
176 1.20421 10.0085 -0.00307342 -0.000948466 10.0085 -1.4238 10 1 
178 1.20421 10.0086 -0.00310735 -0.000970175 10.0086 -1.42404 10 1 
180 1.20421 10.0087 -0.00316997 -0.000994001 10.0087 -1.42112 10 1 
182 1.20421 10.0087 -0.00317602 -0.0010195 10.0087 -1.42105 10 1 
184 1.20421 10.0088 -0.00325861 -0.00102064 10.0088 -1.41969 10 1 
186 1.20421 10.0089 -0.00327898 -0.001046 10.0089 -1.41893 10 1 
188 1.20421 10.009 -0.00328821 -0.00108647 10.009 -1.41805 10 1 
190 1.20422 10.0091 -0.00332847 -0.00110895 10.0091 -1.41588 10 1 
192 1.20422 10.0092 -0.00337945 -0.00112913 10.0092 -1.41513 10 1 
194 1.20422 10.0092 -0.00344817 -0.00115422 10.0092 -1.41356 10 1 
196 1.20422 10.0092 -0.00345045 -0.00115996 10.0092 -1.41384 10 1 
198 1.20422 10.0092 -0.00348421 -0.00116052 10.0092 -1.41284 10 1 
200 1.20422 10.0094 -0.00349764 -0.00118949 10.0094 -1.41107 10 1 
202 1.20422 10.0095 -0.00354646 -0.00120826 10.0095 -1.40994 10 1 
204 1.20422 10.0097 -0.00357631 -0.0012255 10.0097 -1.40781 10 1 
206 1.20422 10.0098 -0.00365305 -0.0012386 10.0098 -1.40685 10 1 
208 1.20422 10.0098 -0.00367203 -0.00126367 10.0098 -1.40663 10 1 
210 1.20422 10.0098 -0.00368643 -0.00130379 10.0098 -1.40584 10 1 
212 1.20422 10.0098 -0.0037106 -0.00131932 10.0098 -1.40419 10 1 
214 1.20422 10.0099 -0.0037895 -0.0013229 10.0099 -1.4021 10 1 
216 1.20422 10.0101 -0.0038226 -0.00136401 10.0101 -1.40213 10 1 
218 1.20423 10.0102 -0.00381573 -0.0013863 10.0102 -1.39847 10 1 
220 1.20423 10.0103 -0.00385445 -0.00137339 10.0103 -1.39701 10 1 
222 1.20423 10.0103 -0.00389966 -0.00141041 10.0103 -1.39694 10 1 
224 1.20423 10.0103 -0.00391418 -0.0014695 10.0103 -1.39646 10 1 
224 1.20423 10.0103 -0.00391418 -0.0014695 10.0103 -1.39646 10 1 
226 1.20423 10.0104 -0.00399489 -0.00146071 10.0104 -1.39442 10 1 
228 1.20423 10.0104 -0.00402268 -0.00146541 10.0104 -1.39128 10 1 
230 1.20423 10.0107 -0.00402246 -0.00152172 10.0107 -1.39255 10 1 
232 1.20423 10.0107 -0.00406851 -0.00155456 10.0107 -1.38881 10 1 
234 1.20423 10.0106 -0.00412764 -0.00153982 10.0106 -1.3878 10 1 
236 1.20423 10.0108 -0.00417673 -0.00153008 10.0108 -1.38961 10 1 
238 1.20423 10.0108 -0.00418407 -0.00160879 10.0108 -1.3847 10 1 
240 1.20423 10.0108 -0.00419842 -0.00163397 10.0108 -1.38386 10 1 
242 1.20423 10.0109 -0.00425593 -0.00163288 10.0109 -1.38585 10 1 
244 1.20423 10.0111 -0.00434375 -0.00164827 10.0111 -1.38286 10 1 
246 1.20424 10.0111 -0.00430494 -0.00167851 10.0111 -1.38095 10 1 
248 1.20424 10.0112 -0.00436628 -0.00170472 10.0112 -1.38154 10 1 
250 1.20424 10.0113 -0.00436485 -0.00170351 10.0113 -1.38029 10 1 
252 1.20424 10.0115 -0.00440721 -0.00177558 10.0115 -1.37794 10 1 
254 1.20424 10.0115 -0.00443259 -0.00178737 10.0115 -1.37771 10 1 
256 1.20424 10.0116 -0.00447361 -0.00182256 10.0116 -1.37843 10 1 
256 1.20424 10.0116 -0.00447361 -0.00182256 10.0116 -1.37843 11 1 
258 1.20424 10.0117 -0.00451071 -0.00186057 10.0117 -1.3763 11 1 
260 1.20424 10.0118 -0.00457448 -0.00187 10.0118 -1.3761 11 1 
262 1.20424 10.0119 -0.00459466 -0.00189079 10.0119 -1.37641 11 1 
264 1.20424 10.0121 -0.00458893 -0.00192599 10.0121 -1.37494 11 1 
266 1.20424 10.0122 -0.00464414 -0.00198254 10.0122 -1.37483 11 1 
268 1.20424 10.0123 -0.00462839 -0.00198934 10.0123 -1.37383 11 1 
270 1.20424 10.0124 -0.00472674 -0.00200613 10.0124 -1.37288 11 1 
272 1.20424 10.0125 -0.0046763 -0.00207916 10.0125 -1.37428 11 1 
274 1.20424 10.0127 -0.00472327 -0.00210056 10.0127 -1.37346 11 1 
276 1.20424 10.0128 -0.0047974 -0.00207559 10.0128 -1.37268 11 1 
278 1.20424 10.0128 -0.0047928 -0.0021344 10.0129 -1.37279 11 1 
280 1.20424 10.013 -0.00481693 -0.00216381 10.013 -1.37381 11 1 
282 1.20424 10.013 -0.00484433 -0.00216834 10.013 -1.37544 11 1 
284 1.20424 10.0133 -0.00489425 -0.00220422 10.0133 -1.37759 11 1 
286 1.20424 10.0134 -0.00488959 -0.00223356 10.0134 -1.37362 11 1 
288 1.20424 10.0139 -0.00493018 -0.00224723 10.014 -1.38001 11 1 
288 1.20424 10.0139 -0.00493018 -0.00224723 10.014 -1.38001 11 1 
290 1.20423 10.0139 -0.00496465 -0.00228802 10.0139 -1.38417 11 1 
292 1.20422 10.0145 -0.00498781 -0.00234944 10.0147 -1.40034 11 1 
294 1.20421 10.0166 -0.0050549 -0.00235914 10.0168 -1.4351 11 1 
296 1.20414 10.0243 -0.00505162 -0.00241851 10.0243 -1.54565 11 1 
298 1.20405 10.0398 -0.00505153 -0.00255199 10.0793 -1.71623 11 1 
300 1.20387 10.0586 -0.00499545 -0.00281622 10.1084 -2.03865 11 1 
302 1.20375 10.0683 -0.0048094 -0.00320154 10.0997 -2.25848 11 1 
304 1.20379 10.0631 -0.00468076 -0.00353633 10.0899 -2.18985 11 1 
306 1.20386 10.0546 -0.0045966 -0.00381699 10.0751 -2.05661 11 1 
308 1.20392 10.0465 -0.00450719 -0.00407871 10.0635 -1.9532 11 1 
310 1.20395 10.0405 -0.00440767 -0.00427111 10.0501 -1.88888 11 1 
312 1.20399 10.0355 -0.00440215 -0.00447069 10.0448 -1.83034 11 1 
314 1.20401 10.0311 -0.00438267 -0.00463408 10.0394 -1.78959 11 1 
316 1.20404 10.0286 -0.00429727 -0.00479719 10.0366 -1.72902 11 1 
318 1.20406 10.0262 -0.00423057 -0.00496465 10.0316 -1.69744 11 1 
320 1.20407 10.0231 -0.00421349 -0.00511257 10.0281 -1.68151 11 1 
320 1.20407 10.0231 -0.00421349 -0.00511257 10.0281 -1.68151 15 1 
322 1.20408 10.021 -0.00418894 -0.00524781 10.0258 -1.65591 15 1 
324 1.2041 10.02 -0.00410788 -0.00540201 10.0246 -1.63273 15 1 
326 1.20411 10.0189 -0.00409179 -0.00554697 10.0226 -1.61237 15 1 
328 1.20412 10.0176 -0.00410479 -0.00567213 10.0212 -1.59753 15 1 
330 1.20412 10.0163 -0.00407704 -0.00580657 10.0194 -1.59086 15 1 
332 1.20413 10.0156 -0.00402238 -0.00593205 10.0186 -1.57315 15 1 
334 1.20414 10.0154 -0.00401255 -0.00605537 10.018 -1.55975 15 1 
336 1.20414 10.0146 -0.00398621 -0.00619642 10.0171 -1.55277 15 1 
338 1.20415 10.0138 -0.00391956 -0.00632668 10.0161 -1.54316 15 1 
340 1.20415 10.0136 -0.00390043 -0.00644505 10.0158 -1.53568 15 1 
342 1.20415 10.0134 -0.00388695 -0.00655516 10.0155 -1.52842 15 1 
344 1.20416 10.0134 -0.00386279 -0.00666933 10.0155 -1.51792 15 1 
346 1.20416 10.0131 -0.00386127 -0.00678764 10.0149 -1.5127 15 1 
348 1.20416 10.0126 -0.00382789 -0.00689927 10.0143 -1.50977 15 1 
350 1.20417 10.0125 -0.00378129 -0.00700459 10.014 -1.50471 15 1 
352 1.20417 10.0125 -0.00378171 -0.00711962 10.0139 -1.49844 15 1 
354 1.20417 10.0123 -0.00376254 -0.00722269 10.0137 -1.49518 15 1 
356 1.20417 10.0123 -0.00369297 -0.00732027 10.0137 -1.4927 15 1 
358 1.20418 10.0122 -0.00367512 -0.00742963 10.0135 -1.48783 15 1 
360 1.20418 10.0123 -0.00366681 -0.00754017 10.0136 -1.48236 15 1 
362 1.20418 10.0124 -0.00361129 -0.00764432 10.0136 -1.48105 15 1 
364 1.20418 10.0123 -0.00358939 -0.00773791 10.0134 -1.47783 15 1 
366 1.20418 10.0122 -0.00358694 -0.00783223 10.0133 -1.47467 15 1 
368 1.20418 10.0123 -0.00352926 -0.00796147 10.0133 -1.47379 15 1 
370 1.20419 10.0122 -0.00348703 -0.00809303 10.0132 -1.47077 15 1 
372 1.20419 10.0122 -0.00348709 -0.00820153 10.0132 -1.47023 15 1 
374 1.20419 10.0121 -0.0034442 -0.00832465 10.013 -1.4707 15 1 
376 1.20419 10.0121 -0.00335871 -0.00847675 10.013 -1.46965 15 1 
378 1.20419 10.0123 -0.00333339 -0.00861388 10.0131 -1.46786 15 1 
380 1.20419 10.0123 -0.00333655 -0.00871543 10.0131 -1.46832 15 1 
382 1.20419 10.0124 -0.00327391 -0.00881731 10.0131 -1.46787 15 1 
384 1.20419 10.0124 -0.00318042 -0.00897348 10.0132 -1.46706 15 1 
384 1.20419 10.0124 -0.00318042 -0.00897348 10.0132 -1.46706 16 1 
386 1.20419 10.0125 -0.00315348 -0.00912219 10.0133 -1.4676 16 1 
388 1.20419 10.0126 -0.00314562 -0.00919072 10.0134 -1.46478 16 1 
390 1.20419 10.0127 -0.00308188 -0.00929249 10.0135 -1.46567 16 1 
392 1.20419 10.0126 -0.00302296 -0.00943312 10.0134 -1.46502 16 1 
394 1.20419 10.0127 -0.0030203 -0.00949903 10.0134 -1.46385 16 1 
396 1.20419 10.0128 -0.00304028 -0.00955042 10.0135 -1.46374 16 1 
398 1.20419 10.0128 -0.0030379 -0.00963977 10.0134 -1.46323 16 1 
400 1.20419 10.0129 -0.00295896 -0.00976045 10.0135 -1.46413 16 1 
402 1.20419 10.0129 -0.00290373 -0.0098712 10.0134 -1.46318 16 1 
404 1.20419 10.0129 -0.00293655 -0.00993638 10.0135 -1.46391 16 1 
406 1.20419 10.013 -0.00286553 -0.0100353 10.0136 -1.46512 16 1 
408 1.20419 10.013 -0.00274268 -0.010176 10.0136 -1.46549 16 1 
410 1.20419 10.0131 -0.00274354 -0.0102543 10.0136 -1.46637 16 1 
412 1.20419 10.0131 -0.00272682 -0.0103311 10.0137 -1.46746 16 1 
414 1.20419 10.0131 -0.00264395 -0.0104844 10.0136 -1.46885 16 1 
416 1.20419 10.0131 -0.0025861 -0.0106251 10.0136 -1.47073 16 1 
416 1.20419 10.0131 -0.0025861 -0.0106251 10.0136 -1.47073 16 1 
418 1.20418 10.0131 -0.00249958 -0.0107387 10.0136 -1.47263 16 1 
420 1.20418 10.0131 -0.00244825 -0.0108612 10.0136 -1.47302 16 1 
422 1.20418 10.0131 -0.0024473 -0.0109741 10.0136 -1.4753 16 1 
424 1.20418 10.0131 -0.00233233 -0.0111027 10.0136 -1.47866 16 1 
426 1.20418 10.013 -0.00222355 -0.0112565 10.0135 -1.48068 16 1 
428 1.20418 10.0131 -0.0022227 -0.0113791 10.0135 -1.48085 16 1 
430 1.20418 10.0131 -0.00217835 -0.0114991 10.0135 -1.48387 16 1 
432 1.20418 10.0131 -0.00209196 -0.0116445 10.0135 -1.48809 16 1 
434 1.20418 10.0131 -0.0020031 -0.0117714 10.0135 -1.48807 16 1 
436 1.20418 10.0131 -0.00195289 -0.0118626 10.0135 -1.48981 16 1 
438 1.20417 10.0132 -0.00196273 -0.0119272 10.0135 -1.49399 16 1 
440 1.20417 10.0132 -0.00187212 -0.0120245 10.0136 -1.49621 16 1 
442 1.20417 10.0131 -0.00173595 -0.0121526 10.0135 -1.49719 16 1 
444 1.20417 10.0131 -0.00170446 -0.0122165 10.0135 -1.50052 16 1 
446 1.20417 10.0131 -0.00167567 -0.0122669 10.0135 -1.50449 16 1 
448 1.20417 10.0131 -0.00157016 -0.0123762 10.0135 -1.50559 16 1 
448 1.20417 10.0131 -0.00157016 -0.0123762 10.0135 -1.50559 17 1 
450 1.20417 10.0131 -0.00147794 -0.012473 10.0135 -1.5079 17 1 
452 1.20416 10.0131 -0.00141108 -0.0125267 10.0134 -1.51212 17 1 
454 1.20416 10.0131 -0.00134284 -0.0126293 10.0134 -1.51535 17 1 
456 1.20416 10.0131 -0.00128983 -0.0127611 10.0134 -1.51631 17 1 
458 1.20416 10.0131 -0.00120367 -0.0128359 10.0134 -1.51978 17 1 
460 1.20416 10.0131 -0.00112834 -0.0129287 10.0134 -1.52377 17 1 
462 1.20416 10.0132 -0.00106653 -0.0130709 10.0134 -1.52612 17 1 
464 1.20415 10.0132 -0.000981225 -0.0132112 10.0135 -1.52816 17 1 
466 1.20415 10.0132 -0.000920231 -0.0133177 10.0135 -1.53171 17 1 
468 1.20415 10.0132 -0.000840839 -0.0134319 10.0135 -1.5366 17 1 
470 1.20415 10.0132 -0.000693658 -0.0136039 10.0135 -1.53851 17 1 
472 1.20415 10.0133 -0.000597788 -0.0137184 10.0136 -1.54164 17 1 
474 1.20414 10.0133 -0.000559692 -0.0137729 10.0136 -1.54494 17 1 
476 1.20414 10.0132 -0.00043191 -0.0138867 10.0135 -1.5491 17 1 
478 1.20414 10.0132 -0.000291704 -0.0140584 10.0135 -1.55182 17 1 
480 1.20414 10.013 -0.000223392 -0.0141518 10.0134 -1.55413 17 1 
480 1.20414 10.013 -0.000223392 -0.0141518 10.0134 -1.55413 17 1 
482 1.20414 10.0129 -0.000166754 -0.0141932 10.0132 -1.55887 17 1 
484 1.20414 10.0128 -4.57065e-05 -0.0142856 10.0131 -1.56141 17 1 
486 1.20413 10.0127 9.29162e-05 -0.0143998 10.013 -1.56483 17 1 
488 1.20413 10.0125 0.00014429 -0.0144621 10.0128 -1.56696 17 1 
490 1.20413 10.0124 0.000182486 -0.0144978 10.0127 -1.57019 17 1 
492 1.20413 10.0122 0.000313672 -0.0145881 10.0125 -1.57399 17 1 
494 1.20413 10.0121 0.000425213 -0.0147005 10.0124 -1.5758 17 1 
496 1.20413 10.012 0.000467281 -0.0147682 10.0122 -1.57838 17 1 
498 1.20412 10.0119 0.000547387 -0.0148035 10.0121 -1.58233 17 1 
500 1.20412 10.0118 0.000644558 -0.014882 10.012 -1.58473 17 1 
502 1.20412 10.0118 0.000701921 -0.014969 10.012 -1.58688 17 1 
504 1.20412 10.0118 0.000782112 -0.0150354 10.012 -1.59052 17 1 
506 1.20412 10.0117 0.000861154 -0.0151246 10.0119 -1.59193 17 1 
508 1.20412 10.0117 0.000966521 -0.0152173 10.0119 -1.59515 17 1 
510 1.20412 10.0116 0.00110348 -0.0152724 10.0118 -1.59818 17 1 
512 1.20411 10.0116 0.00118486 -0.0153196 10.0118 -1.60087 17 1 
512 1.20411 10.0116 0.00118486 -0.0153196 10.0118 -1.60087 25 1 
514 1.20411 10.0116 0.00125898 -0.0153982 10.0118 -1.60335 25 1 
516 1.20411 10.0116 0.00140181 -0.0154788 10.0118 -1.60498 25 1 
518 1.20411 10.0116 0.00152658 -0.0155292 10.0118 -1.60893 25 1 
520 1.20411 10.0116 0.00165622 -0.0156027 10.0118 -1.61141 25 1 
522 1.20411 10.0115 0.00181015 -0.0156976 10.0117 -1.61319 25 1 
524 1.20411 10.0115 0.00194612 -0.0157561 10.0117 -1.61595 25 1 
526 1.2041 10.0114 0.00207517 -0.0157765 10.0116 -1.61967 25 1 
528 1.2041 10.0113 0.00218991 -0.0158282 10.0115 -1.62247 25 1 
530 1.2041 10.0112 0.00226732 -0.0159193 10.0114 -1.62462 25 1 
532 1.2041 10.0111 0.00237145 -0.015986 10.0113 -1.62879 25 1 
534 1.2041 10.011 0.00252941 -0.0160584 10.0112 -1.63116 25 1 
536 1.2041 10.0108 0.00267351 -0.0161265 10.011 -1.63384 25 1 
538 1.20409 10.0107 0.00279611 -0.0161833 10.0109 -1.63798 25 1 
540 1.20409 10.0106 0.00290104 -0.0162449 10.0108 -1.64077 25 1 
542 1.20409 10.0106 0.00301839 -0.016295 10.0108 -1.64356 25 1 
544 1.20409 10.0104 0.00313619 -0.0163391 10.0106 -1.64548 25 1 
544 1.20409 10.0104 0.00313619 -0.0163391 10.0106 -1.64548 25 1 
546 1.20409 10.0103 0.00326632 -0.0164084 10.0105 -1.65006 25 1 
548 1.20409 10.0102 0.00342805 -0.0164874 10.0104 -1.65208 25 1 
550 1.20408 10.0101 0.00357938 -0.0165644 10.0103 -1.65336 25 1 
552 1.20408 10.01 0.00371124 -0.0165968 10.0102 -1.65719 25 1 
554 1.20408 10.0099 0.00383217 -0.0166004 10.0101 -1.65945 25 1 
556 1.20408 10.0099 0.00392871 -0.0166054 10.0101 -1.66191 25 1 
558 1.20408 10.0098 0.00401993 -0.0166439 10.01 -1.66281 25 1 
560 1.20408 10.0098 0.00416061 -0.0167328 10.01 -1.66718 25 1 
562 1.20408 10.0098 0.00432169 -0.0167843 10.01 -1.66741 25 1 
564 1.20408 10.0099 0.00444391 -0.0167923 10.01 -1.66923 25 1 
566 1.20407 10.01 0.00454271 -0.0168041 10.0101 -1.67251 25 1 
568 1.20407 10.0099 0.00462091 -0.0168047 10.0101 -1.6726 25 1 
570 1.20407 10.01 0.00469942 -0.0167923 10.0102 -1.6771 25 1 
572 1.20407 10.01 0.00480852 -0.016784 10.0101 -1.67655 25 1 
574 1.20407 10.0101 0.00496877 -0.0168383 10.0102 -1.68052 25 1 
576 1.20407 10.0101 0.0051489 -0.016896 10.0102 -1.68205 25 1 
576 1.20407 10.0101 0.0051489 -0.016896 10.0102 -1.68205 26 1 
578 1.20407 10.01 0.00529034 -0.0168492 10.0101 -1.68263 26 1 
580 1.20407 10.01 0.00539042 -0.0167952 10.0101 -1.68712 26 1 
582 1.20407 10.0099 0.0055181 -0.0167721 10.01 -1.68738 26 1 
584 1.20406 10.0098 0.00567275 -0.0167454 10.01 -1.69142 26 1 
586 1.20406 10.0097 0.00579263 -0.0167207 10.0099 -1.69249 26 1 
588 1.20406 10.0097 0.00597079 -0.0167405 10.0098 -1.69526 26 1 
590 1.20406 10.0095 0.00616994 -0.0167865 10.0096 -1.69753 26 1 
592 1.20406 10.0094 0.00634947 -0.016801 10.0095 -1.69901 26 1 
594 1.20406 10.0094 0.00647165 -0.0167321 10.0095 -1.70373 26 1 
596 1.20406 10.0092 0.00656693 -0.0166653 10.0094 -1.70327 26 1 
598 1.20406 10.0091 0.00668705 -0.0166598 10.0093 -1.70634 26 1 
600 1.20405 10.009 0.00684513 -0.0166796 10.0091 -1.71042 26 1 
602 1.20405 10.0089 0.00695518 -0.0166965 10.009 -1.7118 26 1 
604 1.20405 10.0089 0.00703401 -0.0166798 10.009 -1.7138 26 1 
606 1.20405 10.0088 0.00719311 -0.0166719 10.009 -1.71602 26 1 
608 1.20405 10.0089 0.00730007 -0.0165922 10.009 -1.71969 26 1 
608 1.20405 10.0089 0.00730007 -0.0165922 10.009 -1.71969 26 1 
610 1.20405 10.0089 0.00734156 -0.0164744 10.0091 -1.72067 26 1 
612 1.20405 10.0089 0.00743811 -0.0164071 10.0091 -1.72255 26 1 
614 1.20404 10.009 0.00764642 -0.0163943 10.0091 -1.72607 26 1 
616 1.20404 10.0089 0.00779899 -0.016378 10.009 -1.72651 26 1 
618 1.20404 10.0089 0.00788131 -0.0163031 10.009 -1.72819 26 1 
620 1.20404 10.0089 0.00800522 -0.0162095 10.009 -1.72996 26 1 
622 1.20404 10.0089 0.00815236 -0.0161437 10.009 -1.73115 26 1 
624 1.20404 10.009 0.00823982 -0.0160232 10.0091 -1.73217 26 1 
626 1.20404 10.0091 0.00827945 -0.0159131 10.0092 -1.73354 26 1 
628 1.20404 10.0092 0.00843868 -0.0159032 10.0093 -1.73501 26 1 
630 1.20404 10.0093 0.0086538 -0.0159573 10.0094 -1.73623 26 1 
632 1.20404 10.0094 0.00871568 -0.0159157 10.0095 -1.73664 26 1 
634 1.20404 10.0095 0.00875613 -0.0158082 10.0096 -1.73599 26 1 
636 1.20404 10.0098 0.0088684 -0.0157675 10.0099 -1.74012 26 1 
638 1.20404 10.0098 0.00894857 -0.0157004 10.0098 -1.73843 26 1 
640 1.20404 10.0099 0.00897587 -0.0155943 10.01 -1.74045 26 1 
642 1.20403 10.0102 0.00903222 -0.0154852 10.0103 -1.74444 26 1 
644 1.20404 10.0102 0.00924754 -0.0154863 10.0103 -1.74188 26 1 
646 1.20403 10.0106 0.00944025 -0.0154574 10.0107 -1.74768 26 1 
648 1.20403 10.0107 0.00947588 -0.0153042 10.0107 -1.74597 26 1 
650 1.20403 10.0109 0.009588 -0.0151841 10.011 -1.75013 26 1 
652 1.20403 10.0111 0.00973334 -0.0151232 10.0111 -1.75198 26 1 
654 1.20403 10.011 0.00983676 -0.0150036 10.0111 -1.75027 26 1 
656 1.20403 10.0112 0.0099591 -0.0148784 10.0113 -1.75919 26 1 
658 1.20403 10.0112 0.0101242 -0.0148069 10.0113 -1.75601 26 1 
660 1.20403 10.0113 0.0103307 -0.0147452 10.0113 -1.76037 26 1 
662 1.20402 10.0114 0.0104435 -0.0146103 10.0114 -1.76541 26 1 
664 1.20402 10.0114 0.0105747 -0.0144499 10.0114 -1.76465 26 1 
666 1.20402 10.0114 0.0107522 -0.0143563 10.0115 -1.76888 26 1 
668 1.20402 10.0113 0.0108189 -0.0141698 10.0114 -1.77221 26 1 
670 1.20402 10.0113 0.0110128 -0.0139978 10.0114 -1.77579 26 1 
672 1.20402 10.0113 0.0112171 -0.013858 10.0114 -1.77655 26 1 
672 1.20402 10.0113 0.0112171 -0.013858 10.0114 -1.77655 27 1 
674 1.20401 10.0112 0.0114127 -0.0137402 10.0113 -1.77988 27 1 
676 1.20401 10.0111 0.0116023 -0.0135852 10.0112 -1.78463 27 1 
678 1.20401 10.0111 0.011714 -0.0133505 10.0112 -1.78359 27 1 
680 1.20401 10.0111 0.0118475 -0.0131521 10.0112 -1.78422 27 1 
682 1.20401 10.011 0.011953 -0.0129643 10.0111 -1.78983 27 1 
684 1.20401 10.0109 0.0120564 -0.0127638 10.011 -1.79029 27 1 
686 1.20401 10.0108 0.012205 -0.0125928 10.0109 -1.79038 27 1 
688 1.20401 10.0108 0.0123553 -0.0124294 10.0109 -1.79391 27 1 
690 1.20401 10.0107 0.0124378 -0.0122928 10.0108 -1.79575 27 1 
692 1.20401 10.0106 0.0125049 -0.01208 10.0107 -1.79544 27 1 
694 1.20401 10.0104 0.0125798 -0.0118704 10.0105 -1.7957 27 1 
696 1.204 10.0103 0.0125628 -0.0116729 10.0104 -1.8013 27 1 
698 1.204 10.0102 0.0125596 -0.0115124 10.0103 -1.80061 27 1 
700 1.204 10.01 0.0125819 -0.0113463 10.0101 -1.79892 27 1 
702 1.204 10.0099 0.0126143 -0.0112135 10.01 -1.8066 27 1 
704 1.204 10.0098 0.0126148 -0.0110967 10.0099 -1.8053 27 1 
704 1.204 10.0098 0.0126148 -0.0110967 10.0099 -1.8053 31 1 
706 1.204 10.0098 0.0126083 -0.0109429 10.0099 -1.8036 31 1 
708 1.204 10.0099 0.0126158 -0.0107758 10.01 -1.80906 31 1 
710 1.204 10.0098 0.0125371 -0.010535 10.0099 -1.8119 31 1 
712 1.204 10.01 0.01249 -0.0103129 10.01 -1.81092 31 1 
714 1.204 10.0099 0.0124264 -0.010167 10.01 -1.80982 31 1 
716 1.20399 10.0099 0.0124496 -0.0101214 10.0099 -1.8192 31 1 
718 1.20399 10.0099 0.0124991 -0.00995644 10.0099 -1.81876 31 1 
720 1.204 10.0099 0.0125346 -0.00974516 10.01 -1.81338 31 1 
722 1.20399 10.0102 0.0126225 -0.0095264 10.0103 -1.8245 31 1 
724 1.20399 10.0104 0.012542 -0.00929983 10.0104 -1.82462 31 1 
726 1.20399 10.0105 0.0125549 -0.0090824 10.0106 -1.82138 31 1 
728 1.20399 10.0107 0.0125734 -0.00883869 10.0108 -1.8282 31 1 
730 1.20399 10.0109 0.0125742 -0.00868641 10.0109 -1.83154 31 1 
732 1.20399 10.0109 0.0127569 -0.00852355 10.0109 -1.83069 31 1 
734 1.20399 10.0109 0.0128833 -0.00828899 10.011 -1.82909 31 1 
736 1.20398 10.0111 0.0129081 -0.00798239 10.0112 -1.83795 31 1 
738 1.20398 10.0112 0.0129473 -0.00774426 10.0113 -1.83775 31 1 
740 1.20398 10.0112 0.0130061 -0.00755 10.0113 -1.83362 31 1 
742 1.20398 10.0115 0.0130326 -0.00730838 10.0115 -1.84302 31 1 
744 1.20398 10.0117 0.0131815 -0.00713903 10.0118 -1.84429 31 1 
746 1.20398 10.0119 0.0133614 -0.00687285 10.012 -1.84038 31 1 
748 1.20398 10.0119 0.0135681 -0.00664619 10.012 -1.84254 31 1 
750 1.20398 10.0119 0.0136705 -0.00637983 10.012 -1.85004 31 1 
752 1.20398 10.012 0.01371 -0.00605412 10.012 -1.85034 31 1 
752 1.20398 10.012 0.01371 -0.00605412 10.012 -1.85034 31 1 
754 1.20398 10.0119 0.0137305 -0.00573956 10.012 -1.8446 31 1 
756 1.20397 10.0119 0.0138106 -0.00544932 10.012 -1.85193 31 1 
758 1.20397 10.012 0.0140702 -0.00532514 10.012 -1.85749 31 1 
760 1.20398 10.0119 0.0142977 -0.00504594 10.012 -1.84961 31 1 
762 1.20398 10.0118 0.0144092 -0.00458824 10.0119 -1.85076 31 1 
764 1.20397 10.0119 0.0145751 -0.00435853 10.012 -1.8653 31 1 
766 1.20397 10.0117 0.014871 -0.00426685 10.0117 -1.85592 31 1 
768 1.20398 10.0115 0.0148601 -0.00385871 10.0116 -1.85039 31 1 
770 1.20397 10.0115 0.0148263 -0.00345 10.0115 -1.86716 31 1 
772 1.20397 10.0111 0.015093 -0.00329644 10.0112 -1.86361 31 1 
774 1.20398 10.0107 0.0153766 -0.00305073 10.0108 -1.85105 31 1 
776 1.20397 10.0103 0.0154261 -0.00260693 10.0104 -1.86156 31 1 
778 1.20396 10.0106 0.0155232 -0.00242529 10.0107 -1.8776 31 1 
780 1.20397 10.0101 0.015698 -0.00232834 10.0102 -1.85172 31 1 
782 1.20397 10.0099 0.0158642 -0.0019962 10.01 -1.85499 31 1 
784 1.20396 10.0098 0.0159342 -0.0016404 10.0099 -1.87602 31 1 
786 1.20397 10.0091 0.0159788 -0.00149466 10.0091 -1.85697 31 1 
788 1.20398 10.0086 0.0160798 -0.00135169 10.0086 -1.84747 31 1 
790 1.20397 10.0082 0.0162614 -0.00109738 10.0083 -1.86811 31 1 
792 1.20397 10.0078 0.0162207 -0.000690406 10.0079 -1.8613 31 1 
794 1.20398 10.0068 0.0158126 -0.000248434 10.0069 -1.83599 31 1 
796 1.20397 10.0065 0.0157103 -4.56979e-05 10.0065 -1.8546 31 1 
798 1.20397 10.0064 0.0152521 0.000328728 10.0064 -1.85906 31 1 
800 1.20398 10.0062 0.0147538 0.000625701 10.0062 -1.84641 31 1 
