51.6219;r ;Density                 ;Velocity u              ;Velocity v              ;Velocity w              ;|Velocity|              ;Pressure                ;Distribution            ;Levels                  ;
0 1.20485 10.0014 -8.43949e-05 2.95723e-05 10.0014 -0.265616 1 1 
2 1.20485 10.0011 -7.40429e-05 1.36334e-05 10.0011 -0.265241 1 1 
4 1.20485 10.0009 -0.000136105 3.54107e-05 10.0009 -0.263562 1 1 
6 1.20486 10.0009 -0.000191439 4.13273e-05 10.0009 -0.260278 1 1 
8 1.20486 10.0008 -0.000240597 4.71028e-05 10.0008 -0.259425 1 1 
10 1.20485 10.0005 -0.000284622 4.97787e-05 10.0005 -0.262514 1 1 
12 1.20485 10.0001 -0.000338783 6.26166e-05 10.0001 -0.264726 1 1 
14 1.20485 10 -0.000397852 7.25404e-05 10 -0.262266 1 1 
16 1.20486 9.99996 -0.000441416 7.65861e-05 9.99996 -0.259586 1 1 
18 1.20485 9.99973 -0.000483759 9.24551e-05 9.99973 -0.262147 1 1 
20 1.20485 9.99953 -0.000522349 0.000101901 9.99953 -0.263192 1 1 
22 1.20486 9.99947 -0.000587714 0.000113838 9.99947 -0.260155 1 1 
24 1.20486 9.9994 -0.000631563 0.000125684 9.9994 -0.260365 1 1 
26 1.20486 9.99932 -0.00067228 0.000138173 9.99932 -0.260711 1 1 
28 1.20486 9.99928 -0.000713005 0.000153082 9.99928 -0.259375 1 1 
30 1.20486 9.99923 -0.000764159 0.000169657 9.99923 -0.259665 1 1 
32 1.20486 9.99919 -0.000804547 0.000178864 9.99919 -0.259128 1 1 
32 1.20486 9.99919 -0.000804547 0.000178864 9.99919 -0.259128 1 1 
34 1.20486 9.9992 -0.00085207 0.000204165 9.9992 -0.258332 1 1 
36 1.20486 9.99921 -0.000914931 0.000235078 9.99921 -0.257936 1 1 
38 1.20486 9.99918 -0.000938081 0.000246373 9.99918 -0.257873 1 1 
40 1.20486 9.99916 -0.000979682 0.00025501 9.99916 -0.257673 1 1 
42 1.20486 9.99916 -0.00102239 0.00027121 9.99916 -0.256698 1 1 
44 1.20486 9.99915 -0.00107836 0.000289196 9.99915 -0.25712 1 1 
46 1.20486 9.99915 -0.00113593 0.000317342 9.99915 -0.256696 1 1 
48 1.20486 9.99918 -0.00118426 0.000331764 9.99918 -0.25574 1 1 
50 1.20486 9.99916 -0.00122852 0.000330702 9.99916 -0.256369 1 1 
52 1.20486 9.99912 -0.00126489 0.00035995 9.99912 -0.256158 1 1 
54 1.20486 9.99914 -0.00131783 0.000377107 9.99914 -0.255637 1 1 
56 1.20486 9.99911 -0.00136071 0.000392803 9.99911 -0.255466 1 1 
58 1.20486 9.99909 -0.00141449 0.000407976 9.99909 -0.255299 1 1 
60 1.20486 9.9991 -0.00145031 0.000421348 9.9991 -0.254775 1 1 
62 1.20486 9.99906 -0.00149915 0.000425037 9.99906 -0.254632 1 1 
64 1.20486 9.99905 -0.00155717 0.000456904 9.99905 -0.255156 1 1 
64 1.20486 9.99905 -0.00155717 0.000456904 9.99905 -0.255156 2 1 
66 1.20486 9.99904 -0.0015954 0.000464147 9.99904 -0.254223 2 1 
68 1.20486 9.99901 -0.00165036 0.000472251 9.99901 -0.254945 2 1 
70 1.20486 9.99897 -0.00170644 0.000506975 9.99897 -0.254609 2 1 
72 1.20486 9.99896 -0.0017576 0.000516298 9.99897 -0.254269 2 1 
74 1.20486 9.99897 -0.0017868 0.000528117 9.99897 -0.254307 2 1 
76 1.20486 9.99894 -0.00183383 0.000536513 9.99894 -0.253181 2 1 
78 1.20486 9.99896 -0.00188629 0.000558728 9.99896 -0.25439 2 1 
80 1.20486 9.9989 -0.00193201 0.000579285 9.9989 -0.253181 2 1 
82 1.20486 9.9989 -0.00199949 0.000600296 9.9989 -0.254105 2 1 
84 1.20486 9.99889 -0.00204267 0.000602097 9.99889 -0.253731 2 1 
86 1.20486 9.99888 -0.00208692 0.000618348 9.99888 -0.253094 2 1 
88 1.20486 9.99887 -0.00211479 0.000640286 9.99887 -0.253935 2 1 
90 1.20486 9.99879 -0.00214935 0.000648368 9.99879 -0.253 2 1 
92 1.20486 9.99881 -0.00221984 0.000670019 9.99881 -0.254204 2 1 
94 1.20486 9.99878 -0.00229181 0.000689218 9.99878 -0.253068 2 1 
96 1.20486 9.99882 -0.00235172 0.0007081 9.99882 -0.25382 2 1 
96 1.20486 9.99882 -0.00235172 0.0007081 9.99882 -0.25382 2 1 
98 1.20486 9.99879 -0.00238419 0.000716371 9.99879 -0.25352 2 1 
100 1.20486 9.9988 -0.00243126 0.000746026 9.9988 -0.253807 2 1 
102 1.20486 9.99876 -0.00248124 0.000775 9.99876 -0.253195 2 1 
104 1.20486 9.99871 -0.00255331 0.000796255 9.99871 -0.253915 2 1 
106 1.20486 9.99868 -0.00259987 0.000805441 9.99868 -0.254739 2 1 
108 1.20486 9.99867 -0.00265241 0.000814308 9.99867 -0.25421 2 1 
110 1.20486 9.99868 -0.00269626 0.000846565 9.99868 -0.254258 2 1 
112 1.20486 9.99866 -0.0027622 0.000867055 9.99866 -0.254308 2 1 
114 1.20486 9.99867 -0.00278616 0.000882742 9.99868 -0.255011 2 1 
116 1.20486 9.99865 -0.00286028 0.000915476 9.99865 -0.254473 2 1 
118 1.20486 9.99864 -0.00290475 0.000932896 9.99864 -0.255215 2 1 
120 1.20486 9.99857 -0.00295777 0.000945758 9.99857 -0.255202 2 1 
122 1.20486 9.99855 -0.00301851 0.00098412 9.99855 -0.256107 2 1 
124 1.20486 9.99854 -0.00307571 0.00100827 9.99854 -0.255416 2 1 
126 1.20486 9.99859 -0.00313348 0.00103138 9.99859 -0.255992 2 1 
128 1.20486 9.99858 -0.00316872 0.00105276 9.99858 -0.256129 2 1 
128 1.20486 9.99858 -0.00316872 0.00105276 9.99858 -0.256129 10 1 
130 1.20486 9.99857 -0.00321355 0.00105719 9.99857 -0.256379 10 1 
132 1.20486 9.99855 -0.00326504 0.00109932 9.99855 -0.257154 10 1 
134 1.20486 9.99851 -0.00333031 0.00111652 9.99851 -0.25709 10 1 
136 1.20486 9.99851 -0.00334048 0.00112455 9.99851 -0.257463 10 1 
138 1.20486 9.99853 -0.00341644 0.00114404 9.99853 -0.257871 10 1 
140 1.20486 9.99853 -0.00346718 0.00118093 9.99853 -0.257883 10 1 
142 1.20486 9.99851 -0.00352294 0.00120154 9.99851 -0.258882 10 1 
144 1.20486 9.99851 -0.00358309 0.00122045 9.99851 -0.259361 10 1 
146 1.20486 9.9985 -0.0036687 0.00126211 9.9985 -0.258982 10 1 
148 1.20486 9.99852 -0.00371383 0.00126953 9.99852 -0.260355 10 1 
150 1.20486 9.99851 -0.00374356 0.00130026 9.99851 -0.260664 10 1 
152 1.20486 9.99855 -0.00379668 0.0013312 9.99855 -0.26025 10 1 
154 1.20486 9.99856 -0.0038284 0.00134199 9.99856 -0.261011 10 1 
156 1.20486 9.99852 -0.00388144 0.00135055 9.99852 -0.26138 10 1 
158 1.20486 9.9985 -0.00394554 0.00137613 9.9985 -0.261837 10 1 
160 1.20485 9.99851 -0.00398902 0.00140356 9.99851 -0.262257 10 1 
160 1.20485 9.99851 -0.00398902 0.00140356 9.99851 -0.262257 10 1 
162 1.20485 9.99853 -0.00407494 0.00143021 9.99853 -0.26282 10 1 
164 1.20485 9.99852 -0.00408744 0.00143752 9.99852 -0.262987 10 1 
166 1.20485 9.99851 -0.00417978 0.00147513 9.99851 -0.262942 10 1 
168 1.20485 9.99851 -0.00424273 0.00150271 9.99851 -0.264982 10 1 
170 1.20485 9.99849 -0.00427715 0.00151372 9.99849 -0.264762 10 1 
172 1.20485 9.99851 -0.00434209 0.00154519 9.99851 -0.265064 10 1 
174 1.20485 9.99853 -0.0043637 0.00156423 9.99853 -0.264728 10 1 
176 1.20485 9.9985 -0.00442606 0.00158306 9.99851 -0.265395 10 1 
178 1.20485 9.9985 -0.00445953 0.00159499 9.9985 -0.267338 10 1 
180 1.20485 9.99848 -0.00454166 0.00161648 9.99849 -0.265791 10 1 
182 1.20485 9.99849 -0.00457157 0.00163035 9.9985 -0.267498 10 1 
184 1.20485 9.9985 -0.00466109 0.00166178 9.99851 -0.268034 10 1 
186 1.20485 9.9985 -0.00469015 0.00167461 9.9985 -0.268488 10 1 
188 1.20485 9.99852 -0.004722 0.00167365 9.99852 -0.26924 10 1 
190 1.20485 9.99856 -0.00478664 0.00168748 9.99856 -0.268809 10 1 
192 1.20485 9.99857 -0.00485522 0.00170674 9.99857 -0.26977 10 1 
194 1.20485 9.99847 -0.00494088 0.0017232 9.99847 -0.269456 10 1 
196 1.20485 9.99837 -0.00496775 0.00175379 9.99837 -0.271417 10 1 
198 1.20485 9.99832 -0.00501538 0.00178662 9.99833 -0.272242 10 1 
200 1.20485 9.99836 -0.0050402 0.0017936 9.99836 -0.271874 10 1 
202 1.20485 9.99847 -0.00510646 0.00181884 9.99847 -0.27226 10 1 
204 1.20485 9.99854 -0.0051659 0.001843 9.99855 -0.27203 10 1 
206 1.20485 9.99854 -0.00525074 0.00186988 9.99854 -0.273068 10 1 
208 1.20485 9.9985 -0.00529119 0.00189059 9.9985 -0.274231 10 1 
210 1.20485 9.99847 -0.00533426 0.00189549 9.99847 -0.275212 10 1 
212 1.20485 9.99841 -0.00537399 0.00190942 9.99841 -0.275612 10 1 
214 1.20485 9.9984 -0.00545178 0.00194277 9.99841 -0.275362 10 1 
216 1.20485 9.99854 -0.00551052 0.00195558 9.99854 -0.277129 10 1 
218 1.20485 9.99856 -0.00553422 0.00197518 9.99856 -0.275471 10 1 
220 1.20485 9.99858 -0.00558761 0.00200473 9.99858 -0.276302 10 1 
222 1.20485 9.99854 -0.00563387 0.00200329 9.99854 -0.278023 10 1 
224 1.20485 9.9985 -0.00568804 0.00200216 9.9985 -0.279515 10 1 
224 1.20485 9.9985 -0.00568804 0.00200216 9.9985 -0.279515 10 1 
226 1.20485 9.99847 -0.00579861 0.00204748 9.99847 -0.279702 10 1 
228 1.20485 9.99844 -0.00582458 0.00206546 9.99844 -0.278625 10 1 
230 1.20484 9.99859 -0.00583897 0.00206073 9.99859 -0.281647 10 1 
232 1.20485 9.99853 -0.00591739 0.00208831 9.99854 -0.2796 10 1 
234 1.20484 9.99843 -0.00598966 0.00212857 9.99844 -0.280891 10 1 
236 1.20484 9.99847 -0.00603332 0.00215557 9.99847 -0.284515 10 1 
238 1.20484 9.99843 -0.00606093 0.00213436 9.99843 -0.281164 10 1 
240 1.20484 9.99841 -0.00611348 0.00216892 9.99842 -0.282295 10 1 
242 1.20484 9.99845 -0.00617376 0.00219584 9.99845 -0.286213 10 1 
244 1.20484 9.9985 -0.00625491 0.00220587 9.9985 -0.284747 10 1 
246 1.20484 9.99847 -0.00623643 0.00222557 9.99848 -0.284294 10 1 
248 1.20484 9.99849 -0.00633013 0.00224509 9.99849 -0.286763 10 1 
250 1.20484 9.99856 -0.00632705 0.00227417 9.99856 -0.28716 10 1 
252 1.20484 9.99861 -0.00637988 0.00224372 9.99861 -0.286215 10 1 
254 1.20484 9.99857 -0.00643267 0.00228706 9.99858 -0.287441 10 1 
256 1.20484 9.99857 -0.00649947 0.00229854 9.99858 -0.289979 10 1 
256 1.20484 9.99857 -0.00649947 0.00229854 9.99858 -0.289979 11 1 
258 1.20484 9.99862 -0.0065404 0.00229525 9.99862 -0.289261 11 1 
260 1.20484 9.99864 -0.0066211 0.00231884 9.99865 -0.290355 11 1 
262 1.20484 9.99869 -0.00666841 0.00233864 9.9987 -0.292273 11 1 
264 1.20484 9.99872 -0.00668424 0.00234878 9.99873 -0.2923 11 1 
266 1.20484 9.99874 -0.00675694 0.00233468 9.99874 -0.293634 11 1 
268 1.20484 9.99878 -0.00673463 0.00235739 9.99879 -0.29378 11 1 
270 1.20484 9.99883 -0.00685128 0.00237358 9.99884 -0.294429 11 1 
272 1.20484 9.99882 -0.00681666 0.0023458 9.99883 -0.297094 11 1 
274 1.20484 9.99885 -0.0068891 0.00236655 9.99886 -0.297323 11 1 
276 1.20484 9.99892 -0.00695809 0.0024186 9.99893 -0.297832 11 1 
278 1.20483 9.99889 -0.00696252 0.00239179 9.9989 -0.299122 11 1 
280 1.20483 9.99893 -0.00700771 0.0024068 9.99894 -0.301255 11 1 
282 1.20483 9.99892 -0.00703611 0.00244067 9.99894 -0.303771 11 1 
284 1.20483 9.99908 -0.0070835 0.00242406 9.9991 -0.307204 11 1 
286 1.20483 9.99913 -0.00710467 0.00242192 9.99915 -0.304281 11 1 
288 1.20483 9.99955 -0.00717617 0.00244804 9.99961 -0.311567 11 1 
288 1.20483 9.99955 -0.00717617 0.00244804 9.99961 -0.311567 11 1 
290 1.20482 9.99943 -0.0072019 0.00245367 9.99949 -0.316652 11 1 
292 1.20482 9.99999 -0.00722895 0.00242414 10.0001 -0.333776 11 1 
294 1.2048 10.002 -0.00731554 0.00245217 10.0021 -0.36952 11 1 
296 1.20473 10.0096 -0.0073383 0.0024286 10.0096 -0.480935 11 1 
298 1.20464 10.025 -0.00743964 0.00230042 10.0647 -0.652806 11 1 
300 1.20446 10.0437 -0.00765095 0.00196349 10.0937 -0.976942 11 1 
302 1.20434 10.0534 -0.00782295 0.00145578 10.0848 -1.19777 11 1 
304 1.20437 10.0481 -0.00800932 0.00100533 10.0749 -1.12945 11 1 
306 1.20445 10.0393 -0.00816727 0.000635467 10.06 -0.996618 11 1 
308 1.20451 10.0312 -0.00829153 0.0003161 10.0482 -0.893301 11 1 
310 1.20454 10.025 -0.00835812 8.95038e-05 10.0347 -0.828912 11 1 
312 1.20457 10.0198 -0.00851391 -0.000150034 10.0291 -0.770486 11 1 
314 1.2046 10.0153 -0.00863701 -0.000348669 10.0236 -0.730033 11 1 
316 1.20463 10.0126 -0.00869659 -0.000528557 10.0206 -0.669467 11 1 
318 1.20465 10.0101 -0.00876674 -0.000710197 10.0155 -0.637704 11 1 
320 1.20466 10.0069 -0.00886201 -0.000875076 10.0119 -0.622009 11 1 
320 1.20466 10.0069 -0.00886201 -0.000875076 10.0119 -0.622009 15 1 
322 1.20467 10.0047 -0.00894018 -0.0010241 10.0094 -0.596415 15 1 
324 1.20468 10.0035 -0.00898272 -0.0011858 10.0081 -0.572827 15 1 
326 1.20469 10.0022 -0.00907639 -0.00133206 10.0059 -0.552363 15 1 
328 1.2047 10.0008 -0.00918321 -0.00145669 10.0043 -0.537373 15 1 
330 1.20471 9.99923 -0.0092647 -0.00158448 10.0023 -0.530288 15 1 
332 1.20472 9.99841 -0.00932033 -0.00170059 10.0015 -0.5122 15 1 
334 1.20472 9.99808 -0.00941014 -0.00182659 10.0007 -0.498559 15 1 
336 1.20473 9.99717 -0.00947821 -0.00197077 9.99967 -0.491671 15 1 
338 1.20473 9.99626 -0.0095081 -0.00208619 9.99854 -0.481833 15 1 
340 1.20474 9.99588 -0.0095861 -0.00218753 9.99812 -0.473605 15 1 
342 1.20474 9.99557 -0.00964721 -0.00229008 9.99767 -0.466376 15 1 
344 1.20475 9.99543 -0.00969253 -0.00239519 9.9975 -0.455436 15 1 
346 1.20475 9.99503 -0.0097694 -0.00249751 9.99683 -0.449745 15 1 
348 1.20475 9.99442 -0.00979757 -0.0025925 9.99613 -0.446609 15 1 
350 1.20476 9.99419 -0.0097997 -0.0026901 9.99571 -0.441106 15 1 
352 1.20476 9.99402 -0.00987231 -0.00279697 9.9955 -0.43473 15 1 
354 1.20476 9.99374 -0.00992484 -0.00288798 9.99512 -0.430649 15 1 
356 1.20476 9.9936 -0.00992122 -0.00297538 9.99495 -0.427886 15 1 
358 1.20477 9.9934 -0.0099673 -0.00308213 9.99466 -0.42241 15 1 
360 1.20477 9.99337 -0.010042 -0.00318557 9.99463 -0.416444 15 1 
362 1.20477 9.99337 -0.0100724 -0.00328781 9.99457 -0.414455 15 1 
364 1.20477 9.99309 -0.0101144 -0.00338592 9.99427 -0.410706 15 1 
366 1.20477 9.99293 -0.0101719 -0.00347577 9.99403 -0.407169 15 1 
368 1.20478 9.99285 -0.0101826 -0.00359353 9.99391 -0.405103 15 1 
370 1.20478 9.99266 -0.0101937 -0.00371857 9.99362 -0.401736 15 1 
372 1.20478 9.99255 -0.0102387 -0.00381622 9.99349 -0.39995 15 1 
374 1.20478 9.99235 -0.0102592 -0.00392068 9.99322 -0.399915 15 1 
376 1.20478 9.9922 -0.0102361 -0.00405025 9.99306 -0.397454 15 1 
378 1.20478 9.99221 -0.0102512 -0.00418582 9.99303 -0.394876 15 1 
380 1.20478 9.99217 -0.0102979 -0.00429621 9.99299 -0.394315 15 1 
382 1.20478 9.99212 -0.0102969 -0.00439044 9.99291 -0.392106 15 1 
384 1.20478 9.99209 -0.0102729 -0.00453862 9.99288 -0.390349 15 1 
384 1.20478 9.99209 -0.0102729 -0.00453862 9.99288 -0.390349 16 1 
386 1.20478 9.99201 -0.0103036 -0.00468442 9.99279 -0.388982 16 1 
388 1.20479 9.99207 -0.0103539 -0.00475172 9.99285 -0.38555 16 1 
390 1.20479 9.99209 -0.010363 -0.00484494 9.99284 -0.384153 16 1 
392 1.20479 9.99192 -0.0103631 -0.0049853 9.99266 -0.382488 16 1 
394 1.20479 9.99187 -0.0103939 -0.00506427 9.99256 -0.379955 16 1 
396 1.20479 9.99185 -0.0104459 -0.00512055 9.99252 -0.377971 16 1 
398 1.20479 9.99174 -0.0104848 -0.00520196 9.99238 -0.37607 16 1 
400 1.20479 9.99169 -0.0104461 -0.00531356 9.9923 -0.374777 16 1 
402 1.20479 9.99159 -0.0104224 -0.00542192 9.99216 -0.372856 16 1 
404 1.20479 9.99158 -0.0105033 -0.00548309 9.99216 -0.371092 16 1 
406 1.20479 9.99167 -0.010488 -0.00558284 9.99224 -0.370716 16 1 
408 1.2048 9.9916 -0.0103947 -0.00573612 9.99215 -0.369212 16 1 
410 1.2048 9.99159 -0.010414 -0.00583024 9.99211 -0.368045 16 1 
412 1.2048 9.99163 -0.010431 -0.00591702 9.99217 -0.366869 16 1 
414 1.2048 9.99148 -0.0103841 -0.00606701 9.99203 -0.365967 16 1 
416 1.2048 9.99136 -0.0103508 -0.00619682 9.99188 -0.365911 16 1 
416 1.2048 9.99136 -0.0103508 -0.00619682 9.99188 -0.365911 16 1 
418 1.2048 9.99128 -0.0102958 -0.00630467 9.99176 -0.365 16 1 
420 1.2048 9.99115 -0.0102819 -0.00643446 9.99165 -0.36326 16 1 
422 1.2048 9.99105 -0.0102975 -0.00655757 9.99154 -0.362517 16 1 
424 1.2048 9.99094 -0.0102009 -0.00668938 9.9914 -0.363617 16 1 
426 1.2048 9.9908 -0.0101372 -0.00683402 9.99126 -0.362622 16 1 
428 1.2048 9.99076 -0.0101655 -0.0069475 9.99123 -0.359485 16 1 
430 1.2048 9.9907 -0.0101361 -0.0070582 9.99113 -0.360233 16 1 
432 1.2048 9.99062 -0.0100657 -0.00719221 9.99103 -0.360902 16 1 
434 1.2048 9.99061 -0.0100134 -0.00732481 9.99103 -0.357939 16 1 
436 1.2048 9.9906 -0.00998887 -0.00743105 9.99101 -0.356225 16 1 
438 1.2048 9.9906 -0.0100017 -0.0075038 9.99099 -0.357103 16 1 
440 1.2048 9.99062 -0.00993474 -0.00760119 9.99101 -0.355993 16 1 
442 1.2048 9.99058 -0.00983429 -0.00773202 9.99096 -0.353154 16 1 
444 1.2048 9.99057 -0.00982994 -0.00780161 9.99093 -0.353395 16 1 
446 1.2048 9.99054 -0.00980942 -0.00784539 9.9909 -0.353758 16 1 
448 1.20481 9.99052 -0.00972016 -0.00795978 9.99086 -0.351378 16 1 
448 1.20481 9.99052 -0.00972016 -0.00795978 9.99086 -0.351378 17 1 
450 1.20481 9.99053 -0.0096726 -0.00807315 9.99086 -0.35005 17 1 
452 1.20481 9.99047 -0.00963416 -0.00813335 9.99079 -0.350506 17 1 
454 1.20481 9.99045 -0.00957608 -0.00822944 9.99076 -0.349745 17 1 
456 1.20481 9.9905 -0.00953578 -0.00835534 9.9908 -0.347014 17 1 
458 1.20481 9.99044 -0.00949453 -0.00845209 9.99074 -0.346466 17 1 
460 1.20481 9.99038 -0.00945677 -0.00855892 9.99067 -0.347039 17 1 
462 1.20481 9.99043 -0.00941113 -0.00870718 9.99071 -0.345243 17 1 
464 1.20481 9.99047 -0.00935851 -0.00885347 9.99075 -0.343473 17 1 
466 1.20481 9.99047 -0.00934498 -0.00896819 9.99074 -0.343111 17 1 
468 1.20481 9.99046 -0.00931739 -0.00910218 9.99074 -0.34369 17 1 
470 1.20481 9.99044 -0.00921359 -0.00928385 9.99073 -0.342417 17 1 
472 1.20481 9.99049 -0.00915317 -0.00943056 9.99078 -0.340726 17 1 
474 1.20481 9.99049 -0.00915661 -0.00952632 9.99079 -0.341324 17 1 
476 1.20481 9.99041 -0.00907573 -0.009677 9.99072 -0.341185 17 1 
478 1.20481 9.99036 -0.00896324 -0.00985547 9.99067 -0.340106 17 1 
480 1.20481 9.99024 -0.00892648 -0.00995802 9.99055 -0.339324 17 1 
480 1.20481 9.99024 -0.00892648 -0.00995802 9.99055 -0.339324 17 1 
482 1.20481 9.99011 -0.0089064 -0.0100284 9.99043 -0.339068 17 1 
484 1.20481 9.99004 -0.00882696 -0.0101574 9.99037 -0.338642 17 1 
486 1.20481 9.9899 -0.00872012 -0.0102882 9.9902 -0.337774 17 1 
488 1.20481 9.98971 -0.00868578 -0.0103675 9.99 -0.336689 17 1 
490 1.20481 9.98959 -0.00866855 -0.0104416 9.98989 -0.33624 17 1 
492 1.20481 9.98947 -0.00854872 -0.0105551 9.98976 -0.335585 17 1 
494 1.20482 9.98929 -0.00845339 -0.0106676 9.98956 -0.334019 17 1 
496 1.20482 9.98914 -0.00842593 -0.0107304 9.98939 -0.33293 17 1 
498 1.20482 9.98903 -0.00835266 -0.0107904 9.98926 -0.332045 17 1 
500 1.20482 9.98894 -0.00825084 -0.010901 9.98918 -0.330437 17 1 
502 1.20482 9.98886 -0.00819263 -0.011003 9.98907 -0.329588 17 1 
504 1.20482 9.98878 -0.00812188 -0.0110691 9.98898 -0.328445 17 1 
506 1.20482 9.98878 -0.00805067 -0.0111715 9.98899 -0.326351 17 1 
508 1.20482 9.9888 -0.00797737 -0.0113075 9.989 -0.324964 17 1 
510 1.20482 9.98873 -0.00787922 -0.0114154 9.98892 -0.32445 17 1 
512 1.20482 9.98872 -0.00781943 -0.0115048 9.98891 -0.322976 17 1 
512 1.20482 9.98872 -0.00781943 -0.0115048 9.98891 -0.322976 25 1 
514 1.20482 9.98878 -0.00774676 -0.0116244 9.98896 -0.320228 25 1 
516 1.20482 9.9888 -0.00761927 -0.0117552 9.98899 -0.318995 25 1 
518 1.20482 9.98871 -0.00752785 -0.011848 9.9889 -0.318052 25 1 
520 1.20482 9.98862 -0.00745233 -0.0119366 9.9888 -0.316332 25 1 
522 1.20483 9.98865 -0.00734958 -0.0120625 9.98884 -0.313918 25 1 
524 1.20483 9.98865 -0.00724954 -0.012191 9.98885 -0.31179 25 1 
526 1.20483 9.98857 -0.00713419 -0.0122959 9.98875 -0.311195 25 1 
528 1.20483 9.98845 -0.00702466 -0.0124021 9.98863 -0.308719 25 1 
530 1.20483 9.98833 -0.00696518 -0.0125186 9.98852 -0.306863 25 1 
532 1.20483 9.98813 -0.00687998 -0.0126236 9.98832 -0.306027 25 1 
534 1.20483 9.98785 -0.00677244 -0.0127393 9.98802 -0.303387 25 1 
536 1.20483 9.98765 -0.0067079 -0.0128565 9.98782 -0.301861 25 1 
538 1.20483 9.98749 -0.00664121 -0.012967 9.98766 -0.300147 25 1 
540 1.20483 9.98734 -0.00653449 -0.0130849 9.98751 -0.298455 25 1 
542 1.20484 9.98717 -0.00642092 -0.0132023 9.98734 -0.295415 25 1 
544 1.20484 9.98697 -0.00634045 -0.0133043 9.98713 -0.292361 25 1 
544 1.20484 9.98697 -0.00634045 -0.0133043 9.98713 -0.292361 25 1 
546 1.20484 9.98683 -0.00627375 -0.0133972 9.987 -0.292204 25 1 
548 1.20484 9.98667 -0.00616657 -0.0134828 9.98684 -0.288594 25 1 
550 1.20484 9.98646 -0.00605329 -0.0135683 9.98663 -0.285789 25 1 
552 1.20484 9.98632 -0.00597487 -0.013667 9.98648 -0.283877 25 1 
554 1.20484 9.98631 -0.00588159 -0.0137585 9.98647 -0.280871 25 1 
556 1.20485 9.98629 -0.00576679 -0.0138372 9.98645 -0.277903 25 1 
558 1.20485 9.98615 -0.0056695 -0.0139165 9.9863 -0.273856 25 1 
560 1.20485 9.98608 -0.00559854 -0.0140033 9.98622 -0.272538 25 1 
562 1.20485 9.98603 -0.00554229 -0.0140757 9.98617 -0.268853 25 1 
564 1.20485 9.986 -0.00545622 -0.0141358 9.98614 -0.26571 25 1 
566 1.20485 9.98599 -0.00536002 -0.0142252 9.98612 -0.263843 25 1 
568 1.20486 9.98595 -0.00529816 -0.0143203 9.98608 -0.260097 25 1 
570 1.20486 9.98592 -0.00523461 -0.0143832 9.98606 -0.25855 25 1 
572 1.20486 9.98574 -0.0051517 -0.0144328 9.98588 -0.254566 25 1 
574 1.20486 9.98568 -0.00506193 -0.0145044 9.98581 -0.252456 25 1 
576 1.20486 9.9857 -0.00496829 -0.0145722 9.98583 -0.250647 25 1 
576 1.20486 9.9857 -0.00496829 -0.0145722 9.98583 -0.250647 26 1 
578 1.20486 9.9856 -0.00488529 -0.0146012 9.98573 -0.247103 26 1 
580 1.20486 9.98549 -0.00480979 -0.0146494 9.98562 -0.24628 26 1 
582 1.20487 9.98532 -0.00470907 -0.0147301 9.98546 -0.243364 26 1 
584 1.20487 9.98526 -0.00460916 -0.0147828 9.98539 -0.242244 26 1 
586 1.20487 9.9852 -0.00453343 -0.0148391 9.98534 -0.238867 26 1 
588 1.20487 9.98508 -0.00442897 -0.0149204 9.98522 -0.236352 26 1 
590 1.20487 9.98492 -0.00432969 -0.014985 9.98506 -0.23569 26 1 
592 1.20487 9.98471 -0.00426427 -0.0150274 9.98485 -0.232101 26 1 
594 1.20487 9.9846 -0.00419401 -0.0150798 9.98474 -0.232288 26 1 
596 1.20487 9.98446 -0.00411567 -0.0151513 9.9846 -0.228563 26 1 
598 1.20487 9.9844 -0.00404984 -0.0152205 9.98453 -0.227024 26 1 
600 1.20487 9.98415 -0.00397336 -0.0152719 9.98428 -0.226167 26 1 
602 1.20488 9.98385 -0.00391571 -0.0153186 9.98398 -0.224296 26 1 
604 1.20488 9.98371 -0.00388727 -0.0153424 9.98384 -0.223089 26 1 
606 1.20488 9.98359 -0.00382682 -0.0153667 9.98372 -0.220422 26 1 
608 1.20488 9.98361 -0.00375555 -0.0154097 9.98373 -0.22147 26 1 
608 1.20488 9.98361 -0.00375555 -0.0154097 9.98373 -0.22147 26 1 
610 1.20488 9.9835 -0.00371417 -0.0154464 9.98363 -0.218672 26 1 
612 1.20488 9.98343 -0.00364441 -0.0154788 9.98355 -0.21827 26 1 
614 1.20488 9.98334 -0.00358517 -0.0154824 9.98345 -0.218245 26 1 
616 1.20488 9.98322 -0.00355725 -0.0154727 9.98334 -0.216409 26 1 
618 1.20488 9.98326 -0.00350267 -0.0154643 9.98338 -0.216587 26 1 
620 1.20488 9.98325 -0.00342076 -0.0154521 9.98336 -0.214925 26 1 
622 1.20488 9.98325 -0.00335484 -0.015438 9.98336 -0.215792 26 1 
624 1.20488 9.98326 -0.00330933 -0.0154199 9.98336 -0.214374 26 1 
626 1.20488 9.98331 -0.00326036 -0.0154121 9.98341 -0.214268 26 1 
628 1.20488 9.98341 -0.00321208 -0.0154025 9.9835 -0.215882 26 1 
630 1.20488 9.98346 -0.0031794 -0.0153751 9.98354 -0.214673 26 1 
632 1.20488 9.98358 -0.00315708 -0.0153604 9.98367 -0.216825 26 1 
634 1.20488 9.98369 -0.00311899 -0.0153308 9.98378 -0.216782 26 1 
636 1.20488 9.98389 -0.00307514 -0.0153081 9.98397 -0.218331 26 1 
638 1.20488 9.98398 -0.00303765 -0.0152978 9.98406 -0.218875 26 1 
640 1.20488 9.98402 -0.00299203 -0.0152912 9.9841 -0.219986 26 1 
642 1.20488 9.98411 -0.00297486 -0.0152666 9.98418 -0.223378 26 1 
644 1.20488 9.98418 -0.00295698 -0.0152388 9.98425 -0.223276 26 1 
646 1.20487 9.98455 -0.00292642 -0.0152134 9.98462 -0.227765 26 1 
648 1.20487 9.98482 -0.0028992 -0.0151527 9.98489 -0.229308 26 1 
650 1.20487 9.98493 -0.00282842 -0.0151088 9.985 -0.232011 26 1 
652 1.20487 9.98498 -0.00274496 -0.0150947 9.98506 -0.236516 26 1 
654 1.20487 9.98498 -0.00270231 -0.0151071 9.98505 -0.237688 26 1 
656 1.20487 9.98508 -0.0026813 -0.0151085 9.98516 -0.242543 26 1 
658 1.20486 9.98513 -0.00263455 -0.0150839 9.98521 -0.245012 26 1 
660 1.20486 9.98516 -0.00257908 -0.0150315 9.98524 -0.249116 26 1 
662 1.20486 9.98527 -0.00249643 -0.0149971 9.98535 -0.254156 26 1 
664 1.20486 9.98536 -0.00239275 -0.0149919 9.98545 -0.256078 26 1 
666 1.20485 9.98548 -0.00232175 -0.0149616 9.98557 -0.262541 26 1 
668 1.20485 9.98549 -0.00229095 -0.0148847 9.98558 -0.266183 26 1 
670 1.20485 9.98525 -0.00221311 -0.0148362 9.98534 -0.268952 26 1 
672 1.20485 9.985 -0.00214268 -0.0147904 9.98509 -0.275359 26 1 
672 1.20485 9.985 -0.00214268 -0.0147904 9.98509 -0.275359 27 1 
674 1.20485 9.98489 -0.00205207 -0.0147317 9.98498 -0.278901 27 1 
676 1.20484 9.98497 -0.0019568 -0.0146706 9.98507 -0.283063 27 1 
678 1.20484 9.98516 -0.00190852 -0.014582 9.98526 -0.286616 27 1 
680 1.20484 9.98535 -0.00185596 -0.0145147 9.98546 -0.291897 27 1 
682 1.20484 9.98545 -0.00182021 -0.0144324 9.98556 -0.29571 27 1 
684 1.20483 9.98544 -0.00178156 -0.0143436 9.98555 -0.298438 27 1 
686 1.20483 9.98534 -0.00173346 -0.0142536 9.98544 -0.304898 27 1 
688 1.20483 9.98495 -0.00165401 -0.014182 9.98506 -0.30732 27 1 
690 1.20483 9.9846 -0.00164347 -0.0140983 9.9847 -0.310825 27 1 
692 1.20483 9.98464 -0.00172497 -0.0139585 9.98474 -0.315987 27 1 
694 1.20482 9.98504 -0.00176581 -0.0138843 9.98514 -0.318775 27 1 
696 1.20482 9.98549 -0.00182517 -0.0137994 9.98559 -0.3221 27 1 
698 1.20482 9.98561 -0.00188571 -0.0136724 9.98571 -0.32581 27 1 
700 1.20482 9.98543 -0.00196829 -0.0134733 9.98552 -0.330347 27 1 
702 1.20481 9.98522 -0.00203913 -0.0133304 9.98531 -0.334455 27 1 
704 1.20481 9.98507 -0.00205173 -0.0132738 9.98515 -0.337079 27 1 
704 1.20481 9.98507 -0.00205173 -0.0132738 9.98515 -0.337079 31 1 
706 1.20481 9.98492 -0.00210552 -0.0131721 9.985 -0.341297 31 1 
708 1.20481 9.98466 -0.00218587 -0.0130613 9.98474 -0.343249 31 1 
710 1.20481 9.98459 -0.00232337 -0.0129256 9.98467 -0.346886 31 1 
712 1.20481 9.98515 -0.00246366 -0.0128294 9.98522 -0.351087 31 1 
714 1.20481 9.98621 -0.00257995 -0.0127274 9.98628 -0.352122 31 1 
716 1.2048 9.98733 -0.00265779 -0.0125749 9.9874 -0.355834 31 1 
718 1.2048 9.9879 -0.00266102 -0.0123675 9.98797 -0.357477 31 1 
720 1.2048 9.98764 -0.00265893 -0.0121778 9.98771 -0.361348 31 1 
722 1.2048 9.9866 -0.0026581 -0.0120676 9.98667 -0.364611 31 1 
724 1.2048 9.98531 -0.00275162 -0.0119439 9.98538 -0.366744 31 1 
726 1.20479 9.98445 -0.00276364 -0.0118581 9.98452 -0.371392 31 1 
728 1.20479 9.98446 -0.00277709 -0.0116912 9.98453 -0.371742 31 1 
730 1.20479 9.98542 -0.00283264 -0.0115129 9.98548 -0.374575 31 1 
732 1.20479 9.98702 -0.00285837 -0.0113986 9.98709 -0.37798 31 1 
734 1.20479 9.98898 -0.0029402 -0.0112645 9.98904 -0.380111 31 1 
736 1.20479 9.99059 -0.00295324 -0.0110912 9.99065 -0.381877 31 1 
738 1.20479 9.99125 -0.00283703 -0.0109405 9.99131 -0.382898 31 1 
740 1.20479 9.99068 -0.00276551 -0.0107428 9.99074 -0.387192 31 1 
742 1.20479 9.98885 -0.00279564 -0.0104876 9.9889 -0.387762 31 1 
744 1.20478 9.98634 -0.00278674 -0.0103501 9.98639 -0.389031 31 1 
746 1.20478 9.984 -0.00284149 -0.0102391 9.98405 -0.393999 31 1 
748 1.20478 9.98272 -0.00288285 -0.010156 9.98277 -0.394964 31 1 
750 1.20478 9.98315 -0.00288097 -0.0101119 9.9832 -0.398858 31 1 
752 1.20478 9.98522 -0.0028207 -0.0100879 9.98527 -0.403022 31 1 
752 1.20478 9.98522 -0.0028207 -0.0100879 9.98527 -0.403022 31 1 
754 1.20478 9.98839 -0.00281552 -0.00995051 9.98845 -0.404079 31 1 
756 1.20477 9.99166 -0.00278469 -0.00979547 9.99172 -0.406446 31 1 
758 1.20477 9.99377 -0.00260583 -0.00973559 9.99382 -0.408221 31 1 
760 1.20477 9.99435 -0.00252705 -0.00951353 9.9944 -0.415968 31 1 
762 1.20477 9.99272 -0.00255781 -0.00911481 9.99277 -0.413166 31 1 
764 1.20477 9.98939 -0.00251116 -0.00893973 9.98944 -0.419076 31 1 
766 1.20476 9.98465 -0.00228103 -0.00891155 9.9847 -0.424673 31 1 
768 1.20477 9.97964 -0.00227992 -0.00865578 9.97969 -0.424274 31 1 
770 1.20476 9.97598 -0.00239289 -0.00847378 9.97604 -0.434212 31 1 
772 1.20476 9.97462 -0.00235271 -0.00853098 9.97467 -0.438115 31 1 
774 1.20476 9.97601 -0.00237325 -0.00843307 9.97607 -0.436856 31 1 
776 1.20475 9.97981 -0.00253104 -0.00820924 9.97987 -0.443267 31 1 
778 1.20475 9.98573 -0.00249236 -0.00819586 9.98579 -0.454362 31 1 
780 1.20475 9.99147 -0.00232487 -0.00823847 9.99153 -0.445281 31 1 
782 1.20475 9.99681 -0.00221571 -0.00803214 9.99687 -0.457478 31 1 
784 1.20474 9.99998 -0.00224864 -0.00770005 10 -0.468797 31 1 
786 1.20474 9.99942 -0.00223708 -0.0074608 9.99948 -0.460966 31 1 
788 1.20474 9.99548 -0.00220898 -0.00723533 9.99554 -0.473519 31 1 
790 1.20472 9.98779 -0.00217709 -0.00698321 9.98785 -0.500449 31 1 
792 1.20472 9.97745 -0.00226902 -0.00658527 9.9775 -0.511097 31 1 
794 1.2047 9.9661 -0.00265983 -0.00613187 9.96614 -0.536477 31 1 
796 1.20466 9.9557 -0.00304583 -0.00588773 9.95575 -0.606067 31 1 
798 1.2046 9.95028 -0.00419479 -0.00576366 9.95032 -0.717689 31 1 
800 1.20456 9.9496 -0.00504167 -0.00567067 9.94965 -0.790595 31 1 
