86.9422;r ;Density                 ;Velocity u              ;Velocity v              ;Velocity w              ;|Velocity|              ;Pressure                ;Distribution            ;Levels                  ;
0 1.22156 9.99955 -0.000115526 -3.99831e-06 9.99955 29.905 1 1 
2 1.22158 9.99839 -0.000137019 -4.71971e-05 9.99839 29.9486 1 1 
4 1.22158 9.99774 -0.0003313 -0.000190724 9.99774 29.9519 1 1 
6 1.22158 9.99797 -0.000465418 -0.000291842 9.99797 29.9436 1 1 
8 1.22159 9.9981 -0.000619385 -0.000402348 9.9981 29.9579 1 1 
10 1.22158 9.99819 -0.000770519 -0.000495993 9.99819 29.9444 1 1 
12 1.22158 9.9975 -0.000916929 -0.000595119 9.9975 29.9527 1 1 
14 1.22158 9.99798 -0.0011024 -0.000711431 9.99798 29.9419 1 1 
16 1.22159 9.99796 -0.00121324 -0.00077595 9.99796 29.9606 1 1 
18 1.22158 9.99713 -0.0013539 -0.000860861 9.99713 29.9484 1 1 
20 1.22156 9.99747 -0.00153327 -0.000987932 9.99747 29.9158 1 1 
22 1.22159 9.99755 -0.00167827 -0.0010843 9.99755 29.9599 1 1 
24 1.22158 9.99809 -0.00184296 -0.00120564 9.99809 29.9524 1 1 
26 1.22157 9.99778 -0.00200061 -0.00129811 9.99778 29.9312 1 1 
28 1.22157 9.99715 -0.0021711 -0.00140903 9.99715 29.9317 1 1 
30 1.22156 9.99729 -0.00231785 -0.00151155 9.99729 29.92 1 1 
32 1.22157 9.99663 -0.00250985 -0.00164164 9.99663 29.93 1 1 
32 1.22157 9.99663 -0.00250985 -0.00164164 9.99663 29.93 1 1 
34 1.22156 9.99626 -0.00263587 -0.00171896 9.99626 29.911 1 1 
36 1.22156 9.99549 -0.00282081 -0.00183994 9.99549 29.9075 1 1 
38 1.22155 9.99585 -0.00297058 -0.00196195 9.99585 29.8905 1 1 
40 1.22155 9.99585 -0.00312723 -0.00208158 9.99585 29.895 1 1 
42 1.22155 9.99534 -0.00330463 -0.00220857 9.99535 29.899 1 1 
44 1.22154 9.99483 -0.00346592 -0.00228813 9.99483 29.8759 1 1 
46 1.22154 9.99397 -0.00367316 -0.00242584 9.99397 29.8765 1 1 
48 1.22153 9.99422 -0.00387568 -0.00258503 9.99422 29.8561 1 1 
50 1.22153 9.99475 -0.00403263 -0.00267433 9.99475 29.8598 1 1 
52 1.22153 9.9939 -0.004206 -0.00281455 9.9939 29.8574 1 1 
54 1.22152 9.99293 -0.00440233 -0.00295951 9.99293 29.8356 1 1 
56 1.22152 9.99359 -0.00455617 -0.0030737 9.99359 29.8381 1 1 
58 1.22152 9.99347 -0.00476673 -0.00326456 9.99347 29.8358 1 1 
60 1.2215 9.99313 -0.0049193 -0.00339067 9.99314 29.8119 1 1 
62 1.2215 9.99253 -0.00509883 -0.00354118 9.99253 29.8109 1 1 
64 1.2215 9.99259 -0.00528334 -0.00365316 9.99259 29.8064 1 1 
64 1.2215 9.99259 -0.00528334 -0.00365316 9.99259 29.8064 2 1 
66 1.22151 9.99263 -0.0054765 -0.00380846 9.99263 29.8138 2 1 
68 1.22149 9.9933 -0.00569426 -0.00398256 9.99331 29.776 2 1 
70 1.22149 9.99264 -0.00589561 -0.00413247 9.99264 29.7809 2 1 
72 1.22149 9.99175 -0.00607282 -0.0042913 9.99176 29.7793 2 1 
74 1.22147 9.9917 -0.0062551 -0.00444369 9.9917 29.7461 2 1 
76 1.22148 9.99123 -0.00644045 -0.00462183 9.99123 29.7729 2 1 
78 1.22146 9.99233 -0.00661347 -0.00473905 9.99233 29.7327 2 1 
80 1.22145 9.99194 -0.00681976 -0.00491084 9.99194 29.7205 2 1 
82 1.22145 9.99137 -0.00705609 -0.00511964 9.99137 29.7162 2 1 
84 1.22144 9.9912 -0.00722275 -0.00523183 9.9912 29.7015 2 1 
86 1.22144 9.99075 -0.00739935 -0.00535908 9.99076 29.6982 2 1 
88 1.22142 9.99086 -0.00765412 -0.0055817 9.99087 29.6668 2 1 
90 1.22142 9.99068 -0.00781563 -0.00573967 9.99068 29.6551 2 1 
92 1.22141 9.99018 -0.00804988 -0.00591308 9.99018 29.6365 2 1 
94 1.2214 9.98947 -0.00826786 -0.00608568 9.98948 29.6258 2 1 
96 1.22139 9.98948 -0.00844972 -0.00622351 9.98948 29.6125 2 1 
96 1.22139 9.98948 -0.00844972 -0.00622351 9.98948 29.6125 2 1 
98 1.22138 9.99015 -0.00869505 -0.00641392 9.99015 29.5869 2 1 
100 1.22137 9.99025 -0.00884388 -0.00652317 9.99026 29.5693 2 1 
102 1.22136 9.98982 -0.00901522 -0.00668481 9.98983 29.5443 2 1 
104 1.22135 9.98868 -0.00926447 -0.00687377 9.98869 29.5406 2 1 
106 1.22134 9.9882 -0.009419 -0.00697641 9.98821 29.5178 2 1 
108 1.22134 9.98709 -0.00962443 -0.00714687 9.9871 29.5062 2 1 
110 1.22131 9.9873 -0.00978196 -0.00726977 9.9873 29.4646 2 1 
112 1.2213 9.98775 -0.00998322 -0.00741491 9.98775 29.4386 2 1 
114 1.22131 9.98654 -0.0101693 -0.00755613 9.98654 29.4533 2 1 
116 1.22129 9.98752 -0.0103563 -0.00769238 9.98753 29.4197 2 1 
118 1.22128 9.98747 -0.0105132 -0.00781253 9.98748 29.4089 2 1 
120 1.22128 9.98608 -0.0106948 -0.00794131 9.98609 29.4022 2 1 
122 1.22124 9.986 -0.010891 -0.00807885 9.98601 29.34 2 1 
124 1.22123 9.98452 -0.0110398 -0.00820947 9.98454 29.323 2 1 
126 1.22125 9.98335 -0.0112335 -0.00836339 9.98336 29.3579 2 1 
128 1.22122 9.98456 -0.0113738 -0.00844577 9.98457 29.2902 2 1 
128 1.22122 9.98456 -0.0113738 -0.00844577 9.98457 29.2902 10 1 
130 1.22121 9.98418 -0.01157 -0.00865073 9.98419 29.2846 10 1 
132 1.22121 9.98468 -0.0117119 -0.00872481 9.98469 29.2776 10 1 
134 1.22119 9.98437 -0.0118768 -0.00882044 9.98438 29.2383 10 1 
136 1.22119 9.9821 -0.0120418 -0.008968 9.98211 29.239 10 1 
138 1.22116 9.98172 -0.0122151 -0.0090865 9.98173 29.1889 10 1 
140 1.22116 9.98182 -0.0123512 -0.00918759 9.98183 29.1868 10 1 
142 1.22115 9.98198 -0.0124977 -0.00925896 9.98199 29.1641 10 1 
144 1.22113 9.98196 -0.0126858 -0.0094238 9.98197 29.135 10 1 
146 1.22114 9.98161 -0.0128378 -0.00950726 9.98163 29.1483 10 1 
148 1.22112 9.98007 -0.0130003 -0.0096155 9.98008 29.1162 10 1 
150 1.22108 9.9794 -0.0131406 -0.00973575 9.97941 29.0524 10 1 
152 1.22109 9.97913 -0.0132943 -0.0098497 9.97914 29.0599 10 1 
154 1.22109 9.97866 -0.0133904 -0.00989355 9.97867 29.0563 10 1 
156 1.22106 9.97905 -0.0135709 -0.0100199 9.97907 29.0145 10 1 
158 1.22106 9.97812 -0.0137211 -0.0101272 9.97814 29.0127 10 1 
160 1.22105 9.97622 -0.0138267 -0.0102052 9.97624 28.9975 10 1 
160 1.22105 9.97622 -0.0138267 -0.0102052 9.97624 28.9975 10 1 
162 1.22101 9.97646 -0.0140148 -0.0103424 9.97648 28.9269 10 1 
164 1.22101 9.97537 -0.0141524 -0.0104141 9.97539 28.9255 10 1 
166 1.22104 9.97322 -0.0143566 -0.0105487 9.97324 28.9716 10 1 
168 1.22099 9.97489 -0.0145606 -0.0106934 9.97491 28.8773 10 1 
170 1.22099 9.97287 -0.0146906 -0.0107893 9.97288 28.8838 10 1 
172 1.22098 9.97235 -0.0148453 -0.0108578 9.97237 28.872 10 1 
174 1.22095 9.97358 -0.0149731 -0.0109606 9.9736 28.805 10 1 
176 1.22098 9.97057 -0.0151767 -0.0110617 9.97059 28.8692 10 1 
178 1.22095 9.97024 -0.015308 -0.0111427 9.97025 28.8115 10 1 
180 1.22094 9.96879 -0.0154878 -0.0113114 9.96881 28.7835 10 1 
182 1.22093 9.96578 -0.0156931 -0.0114622 9.9658 28.7678 10 1 
184 1.22089 9.96496 -0.0158971 -0.0115856 9.96498 28.7026 10 1 
186 1.22092 9.96527 -0.0160512 -0.0116773 9.96529 28.7598 10 1 
188 1.22092 9.96476 -0.0161991 -0.0117708 9.96478 28.7603 10 1 
190 1.22089 9.96407 -0.0164248 -0.0119125 9.96409 28.6952 10 1 
192 1.22087 9.9634 -0.0164559 -0.0119004 9.96342 28.6694 10 1 
194 1.22088 9.95963 -0.0167979 -0.0121482 9.95965 28.6761 10 1 
196 1.22087 9.95652 -0.0170237 -0.0122954 9.95654 28.6594 10 1 
198 1.22085 9.95588 -0.0170804 -0.0122526 9.9559 28.6341 10 1 
200 1.22088 9.95409 -0.0173899 -0.0125326 9.95411 28.6742 10 1 
202 1.22085 9.95361 -0.0174646 -0.0125996 9.95363 28.6289 10 1 
204 1.2208 9.95379 -0.0175655 -0.012604 9.95381 28.5356 10 1 
206 1.22085 9.94992 -0.0179255 -0.0128519 9.94994 28.6364 10 1 
208 1.22087 9.94843 -0.0181576 -0.0129804 9.94845 28.6592 10 1 
210 1.22081 9.94866 -0.0182733 -0.0130236 9.94868 28.5507 10 1 
212 1.22086 9.94159 -0.018483 -0.0132139 9.94162 28.64 10 1 
214 1.22081 9.937 -0.0186109 -0.0132827 9.93703 28.5644 10 1 
216 1.22078 9.93352 -0.0188822 -0.0134398 9.93354 28.5048 10 1 
218 1.22084 9.92865 -0.0192105 -0.0136602 9.92868 28.6123 10 1 
220 1.22083 9.93236 -0.0193551 -0.0137765 9.93239 28.5892 10 1 
222 1.22085 9.93187 -0.0194953 -0.0138748 9.9319 28.6337 10 1 
224 1.22084 9.92607 -0.0196733 -0.0138659 9.9261 28.6061 10 1 
224 1.22084 9.92607 -0.0196733 -0.0138659 9.9261 28.6061 10 1 
226 1.22085 9.92081 -0.0199294 -0.0139888 9.92085 28.625 10 1 
228 1.22086 9.91072 -0.0201619 -0.014224 9.91075 28.6516 10 1 
230 1.22085 9.90305 -0.0204403 -0.0144912 9.90308 28.6218 10 1 
232 1.22085 9.90333 -0.0206938 -0.0146013 9.90337 28.6234 10 1 
234 1.2209 9.90015 -0.0208621 -0.0145957 9.90019 28.7104 10 1 
236 1.22097 9.89138 -0.0210473 -0.014746 9.89142 28.8516 10 1 
238 1.22089 9.88817 -0.0212521 -0.0149041 9.8882 28.7001 10 1 
240 1.221 9.87532 -0.0216685 -0.0152374 9.87536 28.8962 10 1 
242 1.22102 9.86607 -0.0219229 -0.0153823 9.86611 28.9274 10 1 
244 1.22094 9.86388 -0.0220514 -0.0154069 9.86392 28.7865 10 1 
246 1.22114 9.85097 -0.022288 -0.0155713 9.85101 29.1508 10 1 
248 1.22116 9.84069 -0.022409 -0.0155793 9.84073 29.1909 10 1 
250 1.22116 9.82724 -0.0227261 -0.0158034 9.82728 29.1813 10 1 
252 1.22121 9.81433 -0.0231241 -0.0161352 9.81437 29.2858 10 1 
254 1.22133 9.80101 -0.0232158 -0.0161211 9.80106 29.4907 10 1 
256 1.2214 9.78566 -0.0234033 -0.016249 9.7857 29.6312 10 1 
256 1.2214 9.78566 -0.0234033 -0.016249 9.7857 29.6312 11 1 
258 1.22145 9.76774 -0.0237038 -0.0164682 9.76778 29.7209 11 1 
260 1.22165 9.74762 -0.0239504 -0.0166281 9.74766 30.0802 11 1 
262 1.22177 9.72386 -0.0242834 -0.0168599 9.72391 30.2941 11 1 
264 1.22175 9.70046 -0.024428 -0.0169018 9.70051 30.2537 11 1 
266 1.22198 9.67562 -0.0245792 -0.0170042 9.67567 30.6731 11 1 
268 1.2224 9.63456 -0.0248595 -0.0172284 9.63462 31.426 11 1 
270 1.22233 9.60514 -0.0251618 -0.0173786 9.60521 31.3073 11 1 
272 1.22257 9.56188 -0.0252721 -0.0174015 9.56194 31.7441 11 1 
274 1.22312 9.50475 -0.0254804 -0.0175618 9.50481 32.7318 11 1 
276 1.22315 9.46297 -0.0257191 -0.0176799 9.46303 32.7882 11 1 
278 1.22355 9.40165 -0.025935 -0.0178192 9.40171 33.5039 11 1 
280 1.22425 9.33716 -0.0261342 -0.0179234 9.33724 34.7772 11 1 
282 1.22473 9.25428 -0.0262157 -0.0179207 9.25449 35.6427 11 1 
284 1.2251 9.13395 -0.0262289 -0.0179589 9.13428 36.3112 11 1 
286 1.22561 9.00973 -0.0263344 -0.0180013 9.00994 37.2192 11 1 
288 1.22645 8.89562 -0.0265288 -0.0180843 8.89573 38.7456 11 1 
288 1.22645 8.89562 -0.0265288 -0.0180843 8.89573 38.7456 11 1 
290 1.22748 8.78595 -0.0266837 -0.018137 8.78609 40.5972 11 1 
292 1.22833 8.64566 -0.0268695 -0.0182905 8.64599 42.1444 11 1 
294 1.22903 8.46361 -0.0268507 -0.0182218 8.46421 43.4038 11 1 
296 1.22994 8.27587 -0.0266989 -0.018089 8.27629 45.0479 11 1 
298 1.22408 8.05221 -0.0261169 -0.0186338 8.11129 34.4718 11 1 
300 1.21394 7.96708 -0.0248587 -0.0204494 8.04349 16.1401 11 1 
302 1.21061 7.93029 -0.0234554 -0.0228708 7.97813 10.1375 11 1 
304 1.21148 7.75789 -0.0220019 -0.0248151 7.79743 11.6984 11 1 
306 1.21249 7.57797 -0.0207571 -0.0262756 7.60744 13.5362 11 1 
308 1.2133 7.41197 -0.0197517 -0.0275186 7.43561 14.9987 11 1 
310 1.21382 7.2731 -0.0190085 -0.0284464 7.28574 15.9379 11 1 
312 1.21444 7.13742 -0.0183629 -0.0295002 7.14961 17.0546 11 1 
314 1.215 7.03045 -0.0179288 -0.0304693 7.04163 18.0563 11 1 
316 1.21545 6.94572 -0.0175017 -0.031366 6.95638 18.8818 11 1 
318 1.21585 6.8496 -0.017047 -0.0322439 6.85688 19.5925 11 1 
320 1.21613 6.77366 -0.0165893 -0.0329806 6.78051 20.1014 11 1 
320 1.21613 6.77366 -0.0165893 -0.0329806 6.78051 20.1014 15 1 
322 1.21643 6.72198 -0.0163943 -0.0337154 6.72867 20.6413 15 1 
324 1.21676 6.66471 -0.0161632 -0.0345401 6.67109 21.2463 15 1 
326 1.21699 6.61034 -0.0157414 -0.0352186 6.61555 21.6634 15 1 
328 1.21715 6.56219 -0.0154101 -0.0359161 6.56719 21.9492 15 1 
330 1.21727 6.51661 -0.0152181 -0.0366715 6.52115 22.1557 15 1 
332 1.21749 6.48584 -0.0149685 -0.0373715 6.49035 22.5559 15 1 
334 1.21772 6.4521 -0.0146344 -0.0380916 6.45613 22.9769 15 1 
336 1.21771 6.40554 -0.0143869 -0.0388835 6.40944 22.9509 15 1 
338 1.21775 6.37271 -0.0142442 -0.0396146 6.37642 23.0232 15 1 
340 1.21797 6.35338 -0.0141815 -0.0404088 6.35702 23.4275 15 1 
342 1.21808 6.33052 -0.0140175 -0.041113 6.33389 23.627 15 1 
344 1.21808 6.29991 -0.0138557 -0.0417246 6.30328 23.6296 15 1 
346 1.21809 6.26823 -0.0138016 -0.042448 6.27137 23.6414 15 1 
348 1.2182 6.25461 -0.0139105 -0.0432466 6.25768 23.8378 15 1 
350 1.21833 6.24814 -0.0139472 -0.0438252 6.25106 24.0771 15 1 
352 1.21831 6.22572 -0.0138565 -0.0443728 6.22861 24.0494 15 1 
354 1.21832 6.20502 -0.0138239 -0.0449984 6.20773 24.0526 15 1 
356 1.2184 6.1956 -0.0139623 -0.045783 6.19824 24.1955 15 1 
358 1.21843 6.18628 -0.0140883 -0.0464742 6.1888 24.2529 15 1 
360 1.21847 6.17947 -0.0140564 -0.0469925 6.18199 24.3217 15 1 
362 1.2185 6.1715 -0.0139852 -0.0475595 6.17386 24.384 15 1 
364 1.21851 6.1596 -0.0140258 -0.0482591 6.16188 24.3975 15 1 
366 1.21852 6.15175 -0.0141187 -0.048867 6.15393 24.4157 15 1 
368 1.21854 6.14811 -0.0140959 -0.0494405 6.15028 24.4541 15 1 
370 1.21859 6.14589 -0.0140013 -0.0499577 6.14797 24.5413 15 1 
372 1.2186 6.14042 -0.013968 -0.0505183 6.14244 24.5605 15 1 
374 1.21858 6.13135 -0.0139707 -0.0511754 6.13327 24.5253 15 1 
376 1.2186 6.12608 -0.0139007 -0.0517724 6.12799 24.5565 15 1 
378 1.21861 6.12334 -0.0138001 -0.0522924 6.1252 24.5811 15 1 
380 1.21863 6.12064 -0.0137379 -0.0528851 6.12246 24.6117 15 1 
382 1.21864 6.11678 -0.0137069 -0.0535385 6.11853 24.6311 15 1 
384 1.21861 6.10779 -0.0135976 -0.054183 6.10953 24.5912 15 1 
384 1.21861 6.10779 -0.0135976 -0.054183 6.10953 24.5912 16 1 
386 1.21862 6.10049 -0.0134253 -0.0547757 6.10219 24.5924 16 1 
388 1.21862 6.09834 -0.0133298 -0.0553803 6.10002 24.6101 16 1 
390 1.21862 6.0938 -0.0133175 -0.056072 6.09544 24.6075 16 1 
392 1.21862 6.08648 -0.0131735 -0.0567234 6.08811 24.6096 16 1 
394 1.21861 6.07809 -0.0129777 -0.057378 6.07968 24.576 16 1 
396 1.21859 6.06941 -0.0128626 -0.0580508 6.071 24.5416 16 1 
398 1.21859 6.06341 -0.012771 -0.0587144 6.06499 24.5382 16 1 
400 1.21859 6.05789 -0.0126067 -0.0593808 6.05944 24.543 16 1 
402 1.21858 6.0493 -0.012491 -0.0601188 6.05083 24.5243 16 1 
404 1.21854 6.03868 -0.0124024 -0.0608174 6.04022 24.4591 16 1 
406 1.21853 6.02942 -0.0122121 -0.0615011 6.03094 24.4323 16 1 
408 1.21853 6.02271 -0.0120476 -0.0621976 6.02422 24.442 16 1 
410 1.21851 6.01475 -0.0120231 -0.0629689 6.01625 24.4048 16 1 
412 1.21849 6.00487 -0.0119775 -0.0637039 6.00638 24.364 16 1 
414 1.21848 5.99558 -0.0118406 -0.0644243 5.99706 24.3402 16 1 
416 1.21846 5.98616 -0.0117509 -0.0651358 5.98763 24.3055 16 1 
416 1.21846 5.98616 -0.0117509 -0.0651358 5.98763 24.3055 16 1 
418 1.21843 5.97692 -0.0117353 -0.0658678 5.97838 24.2666 16 1 
420 1.21841 5.96862 -0.0117582 -0.0665531 5.97008 24.2286 16 1 
422 1.2184 5.95982 -0.0117953 -0.0672649 5.96127 24.2063 16 1 
424 1.21838 5.95026 -0.0118357 -0.067927 5.9517 24.1711 16 1 
426 1.21835 5.94 -0.0119012 -0.0685712 5.94143 24.1082 16 1 
428 1.21832 5.93028 -0.0120209 -0.0691685 5.93171 24.0669 16 1 
430 1.21831 5.92262 -0.0121777 -0.0697835 5.92403 24.0449 16 1 
432 1.21829 5.91453 -0.0123634 -0.0703765 5.91594 24.007 16 1 
434 1.21826 5.90437 -0.012533 -0.070977 5.90577 23.949 16 1 
436 1.21823 5.89463 -0.0127176 -0.0715568 5.89602 23.8946 16 1 
438 1.21821 5.88669 -0.0129224 -0.0721381 5.88807 23.858 16 1 
440 1.21819 5.87952 -0.0131542 -0.0726905 5.8809 23.8163 16 1 
442 1.21816 5.87191 -0.0134174 -0.0732736 5.87327 23.7712 16 1 
444 1.21814 5.86373 -0.0136612 -0.0738304 5.86509 23.7278 16 1 
446 1.2181 5.85593 -0.0138867 -0.0743595 5.85728 23.6708 16 1 
448 1.21808 5.84919 -0.0141362 -0.074893 5.85053 23.6231 16 1 
448 1.21808 5.84919 -0.0141362 -0.074893 5.85053 23.6231 17 1 
450 1.21806 5.84326 -0.0143823 -0.0754376 5.84459 23.5881 17 1 
452 1.21803 5.83746 -0.0146045 -0.0759662 5.83879 23.5418 17 1 
454 1.21801 5.83121 -0.0148521 -0.0765232 5.83253 23.4907 17 1 
456 1.21798 5.82498 -0.0150712 -0.0770564 5.8263 23.4381 17 1 
458 1.21795 5.81955 -0.0152313 -0.0775464 5.82085 23.3868 17 1 
460 1.21792 5.81498 -0.0154136 -0.0780491 5.81628 23.3444 17 1 
462 1.2179 5.81079 -0.0156203 -0.0786012 5.81209 23.3036 17 1 
464 1.21787 5.80606 -0.0157799 -0.0791278 5.80735 23.2543 17 1 
466 1.21784 5.80101 -0.0159022 -0.0796075 5.8023 23.1964 17 1 
468 1.21781 5.79704 -0.0160348 -0.0800973 5.79833 23.147 17 1 
470 1.21779 5.79399 -0.0161617 -0.0806172 5.79527 23.106 17 1 
472 1.21777 5.79074 -0.0162685 -0.0810971 5.79202 23.0589 17 1 
474 1.21774 5.78742 -0.0163924 -0.0815794 5.7887 23.0116 17 1 
476 1.21771 5.78417 -0.0164861 -0.0820505 5.78545 22.9599 17 1 
478 1.21768 5.78116 -0.0165496 -0.0824989 5.78243 22.9055 17 1 
480 1.21766 5.77908 -0.0166308 -0.0829435 5.78035 22.8654 17 1 
480 1.21766 5.77908 -0.0166308 -0.0829435 5.78035 22.8654 17 1 
482 1.21764 5.77725 -0.0167154 -0.0834192 5.77851 22.8256 17 1 
484 1.21761 5.77498 -0.0167678 -0.0838899 5.77624 22.7751 17 1 
486 1.21758 5.77272 -0.0168427 -0.084373 5.77398 22.7256 17 1 
488 1.21756 5.77074 -0.0169239 -0.084859 5.772 22.6796 17 1 
490 1.21753 5.7694 -0.0169589 -0.0853628 5.77066 22.6346 17 1 
492 1.21751 5.76837 -0.0170136 -0.0858872 5.76963 22.591 17 1 
494 1.21748 5.76694 -0.0171225 -0.0864415 5.7682 22.5461 17 1 
496 1.21746 5.76532 -0.0172011 -0.0869919 5.76659 22.4992 17 1 
498 1.21743 5.76402 -0.0172263 -0.0875579 5.76529 22.4484 17 1 
500 1.2174 5.76324 -0.0172986 -0.0881447 5.76451 22.4024 17 1 
502 1.21738 5.7627 -0.0173993 -0.0887784 5.76398 22.3629 17 1 
504 1.21735 5.76162 -0.0174743 -0.0894238 5.7629 22.3149 17 1 
506 1.21732 5.7603 -0.0175369 -0.0900561 5.76158 22.2616 17 1 
508 1.2173 5.75965 -0.0176088 -0.0906785 5.76094 22.2152 17 1 
510 1.21727 5.75908 -0.0176921 -0.0913372 5.76037 22.1715 17 1 
512 1.21725 5.75824 -0.0177789 -0.091984 5.75954 22.1231 17 1 
512 1.21725 5.75824 -0.0177789 -0.091984 5.75954 22.1231 25 1 
514 1.21722 5.75748 -0.0178501 -0.0926108 5.75879 22.0743 25 1 
516 1.21719 5.75671 -0.0179189 -0.0932273 5.75802 22.0261 25 1 
518 1.21717 5.75584 -0.0179852 -0.0938457 5.75716 21.9768 25 1 
520 1.21714 5.75512 -0.0180862 -0.0944589 5.75645 21.9281 25 1 
522 1.21711 5.75457 -0.0181736 -0.0950776 5.75591 21.881 25 1 
524 1.21709 5.75395 -0.0182402 -0.0956858 5.75529 21.8321 25 1 
526 1.21706 5.75309 -0.018313 -0.0962817 5.75443 21.78 25 1 
528 1.21703 5.75234 -0.0183894 -0.0968426 5.75369 21.731 25 1 
530 1.21701 5.7519 -0.0184301 -0.0974051 5.75325 21.685 25 1 
532 1.21698 5.75137 -0.0185054 -0.0979812 5.75273 21.6352 25 1 
534 1.21695 5.75088 -0.0185666 -0.09855 5.75225 21.5867 25 1 
536 1.21693 5.75048 -0.0186397 -0.0991348 5.75186 21.5413 25 1 
538 1.2169 5.75004 -0.0187302 -0.0997695 5.75142 21.4914 25 1 
540 1.21687 5.74974 -0.0187711 -0.100408 5.75113 21.4424 25 1 
542 1.21685 5.74971 -0.0188234 -0.101092 5.7511 21.3985 25 1 
544 1.21682 5.74988 -0.0188533 -0.101755 5.75128 21.3543 25 1 
544 1.21682 5.74988 -0.0188533 -0.101755 5.75128 21.3543 25 1 
546 1.2168 5.75009 -0.0188979 -0.102424 5.75151 21.308 25 1 
548 1.21677 5.75046 -0.018912 -0.103117 5.75189 21.261 25 1 
550 1.21675 5.75118 -0.0189351 -0.103865 5.75262 21.2175 25 1 
552 1.21672 5.75222 -0.0190008 -0.104641 5.75367 21.1754 25 1 
554 1.2167 5.75357 -0.0190864 -0.105432 5.75502 21.135 25 1 
556 1.21668 5.75515 -0.0192438 -0.106242 5.75662 21.0972 25 1 
558 1.21666 5.75672 -0.0193395 -0.10706 5.7582 21.053 25 1 
560 1.21663 5.7585 -0.0194405 -0.107887 5.76 21.008 25 1 
562 1.21661 5.76084 -0.0195018 -0.108632 5.76234 20.9688 25 1 
564 1.21659 5.76339 -0.0196098 -0.109283 5.7649 20.9309 25 1 
566 1.21657 5.76614 -0.0197737 -0.109882 5.76767 20.8922 25 1 
568 1.21655 5.76906 -0.0199499 -0.110491 5.77059 20.8551 25 1 
570 1.21652 5.77218 -0.0201189 -0.111224 5.77373 20.8149 25 1 
572 1.2165 5.7757 -0.0202034 -0.112056 5.77726 20.7743 25 1 
574 1.21648 5.77946 -0.0202874 -0.11294 5.78103 20.7362 25 1 
576 1.21646 5.78328 -0.0203531 -0.113745 5.78487 20.6975 25 1 
576 1.21646 5.78328 -0.0203531 -0.113745 5.78487 20.6975 26 1 
578 1.21644 5.78717 -0.0205085 -0.114469 5.78876 20.6601 26 1 
580 1.21642 5.79124 -0.020694 -0.115093 5.79284 20.6207 26 1 
582 1.2164 5.79554 -0.0209233 -0.115689 5.79714 20.5828 26 1 
584 1.21637 5.79985 -0.0211538 -0.116285 5.80147 20.5427 26 1 
586 1.21635 5.80413 -0.0213244 -0.116903 5.80575 20.4994 26 1 
588 1.21633 5.80846 -0.0215143 -0.117571 5.8101 20.461 26 1 
590 1.21631 5.8128 -0.0216374 -0.118257 5.81444 20.4222 26 1 
592 1.21628 5.81712 -0.0218105 -0.118987 5.81878 20.3824 26 1 
594 1.21626 5.82153 -0.0219635 -0.119701 5.82319 20.3423 26 1 
596 1.21624 5.82558 -0.0221231 -0.120407 5.82725 20.2992 26 1 
598 1.21621 5.82938 -0.0223001 -0.121122 5.83107 20.2514 26 1 
600 1.21619 5.83314 -0.0224734 -0.121824 5.83483 20.209 26 1 
602 1.21617 5.83682 -0.022703 -0.12254 5.83853 20.1695 26 1 
604 1.21614 5.84021 -0.0229128 -0.12325 5.84193 20.127 26 1 
606 1.21612 5.84316 -0.0231729 -0.123977 5.84489 20.0827 26 1 
608 1.21609 5.84587 -0.0234376 -0.124688 5.84761 20.037 26 1 
608 1.21609 5.84587 -0.0234376 -0.124688 5.84761 20.037 26 1 
610 1.21607 5.84832 -0.0237214 -0.125393 5.85006 19.9911 26 1 
612 1.21604 5.85044 -0.0240296 -0.126103 5.8522 19.9446 26 1 
614 1.21602 5.85229 -0.0243362 -0.126791 5.85406 19.9021 26 1 
616 1.21599 5.85391 -0.0247029 -0.127494 5.85569 19.8588 26 1 
618 1.21597 5.85505 -0.0250678 -0.128188 5.85685 19.813 26 1 
620 1.21594 5.85592 -0.0254495 -0.128848 5.85772 19.7665 26 1 
622 1.21592 5.85661 -0.0258138 -0.129481 5.85843 19.7196 26 1 
624 1.21589 5.85706 -0.0262074 -0.130107 5.85889 19.6746 26 1 
626 1.21587 5.85721 -0.0266021 -0.130704 5.85904 19.6318 26 1 
628 1.21584 5.85715 -0.0269934 -0.131265 5.859 19.5881 26 1 
630 1.21582 5.85691 -0.027387 -0.131798 5.85877 19.546 26 1 
632 1.2158 5.85653 -0.0277775 -0.132287 5.8584 19.5033 26 1 
634 1.21577 5.85594 -0.0281284 -0.132715 5.85781 19.4584 26 1 
636 1.21575 5.85523 -0.0284697 -0.133098 5.85711 19.4133 26 1 
638 1.21573 5.85438 -0.028805 -0.133433 5.85627 19.3727 26 1 
640 1.2157 5.85351 -0.0290988 -0.133717 5.8554 19.3351 26 1 
642 1.21568 5.85271 -0.0293964 -0.133952 5.85461 19.2959 26 1 
644 1.21566 5.85171 -0.0296368 -0.134112 5.8536 19.2584 26 1 
646 1.21564 5.85057 -0.0298342 -0.134215 5.85247 19.2184 26 1 
648 1.21562 5.84956 -0.0300177 -0.134228 5.85145 19.1756 26 1 
650 1.2156 5.84838 -0.0301362 -0.13418 5.85028 19.1412 26 1 
652 1.21558 5.84731 -0.0302754 -0.134081 5.84919 19.1066 26 1 
654 1.21556 5.8461 -0.0303467 -0.133895 5.84798 19.07 26 1 
656 1.21554 5.84471 -0.0303842 -0.133661 5.84658 19.0351 26 1 
658 1.21552 5.84344 -0.0304218 -0.133352 5.84531 18.9972 26 1 
660 1.2155 5.84185 -0.0303642 -0.132954 5.8437 18.9631 26 1 
662 1.21548 5.84036 -0.0303626 -0.132537 5.8422 18.928 26 1 
664 1.21546 5.83869 -0.0302839 -0.132037 5.84052 18.8976 26 1 
666 1.21545 5.83685 -0.0302008 -0.131477 5.83866 18.8676 26 1 
668 1.21543 5.83487 -0.0301675 -0.1309 5.83666 18.8322 26 1 
670 1.21541 5.83282 -0.0300096 -0.130199 5.83459 18.7977 26 1 
672 1.21539 5.83052 -0.0299459 -0.129516 5.83228 18.7676 26 1 
672 1.21539 5.83052 -0.0299459 -0.129516 5.83228 18.7676 27 1 
674 1.21537 5.82813 -0.0298785 -0.128797 5.82987 18.7365 27 1 
676 1.21536 5.82581 -0.0297532 -0.128008 5.82752 18.7062 27 1 
678 1.21534 5.82314 -0.0297315 -0.127251 5.82483 18.681 27 1 
680 1.21532 5.82067 -0.0296753 -0.126434 5.82235 18.6481 27 1 
682 1.21531 5.81795 -0.0296132 -0.125593 5.8196 18.6183 27 1 
684 1.21529 5.81542 -0.0296641 -0.12477 5.81705 18.5888 27 1 
686 1.21528 5.81286 -0.0296698 -0.123905 5.81446 18.5617 27 1 
688 1.21526 5.8105 -0.0297613 -0.123045 5.81208 18.5341 27 1 
690 1.21525 5.80827 -0.029897 -0.122191 5.80983 18.5073 27 1 
692 1.21523 5.80628 -0.0299968 -0.121284 5.80782 18.4799 27 1 
694 1.21522 5.80444 -0.0302274 -0.120427 5.80596 18.4535 27 1 
696 1.2152 5.80296 -0.0304021 -0.119489 5.80446 18.427 27 1 
698 1.21519 5.80203 -0.0306108 -0.118556 5.80351 18.402 27 1 
700 1.21518 5.80122 -0.0308993 -0.117601 5.80268 18.3836 27 1 
702 1.21516 5.80087 -0.0311082 -0.116579 5.8023 18.3589 27 1 
704 1.21515 5.80088 -0.0313331 -0.115529 5.80229 18.3312 27 1 
704 1.21515 5.80088 -0.0313331 -0.115529 5.80229 18.3312 31 1 
706 1.21514 5.80122 -0.0316013 -0.114514 5.80261 18.3119 31 1 
708 1.21513 5.8021 -0.0317976 -0.113421 5.80346 18.2933 31 1 
710 1.21511 5.80355 -0.0320911 -0.112337 5.80489 18.2695 31 1 
712 1.2151 5.80538 -0.032221 -0.111238 5.8067 18.252 31 1 
714 1.2151 5.80735 -0.0325359 -0.1101 5.80865 18.2391 31 1 
716 1.21508 5.80999 -0.0325682 -0.108805 5.81125 18.212 31 1 
718 1.21507 5.81287 -0.032693 -0.107516 5.81411 18.1941 31 1 
720 1.21507 5.81619 -0.0327609 -0.106116 5.81739 18.1847 31 1 
722 1.21506 5.81985 -0.0326966 -0.104618 5.82103 18.1654 31 1 
724 1.21504 5.8237 -0.0327179 -0.103093 5.82484 18.1438 31 1 
726 1.21504 5.82772 -0.0325725 -0.101486 5.82883 18.1327 31 1 
728 1.21503 5.83163 -0.032503 -0.0999125 5.83271 18.1213 31 1 
730 1.21502 5.83607 -0.0322887 -0.0982448 5.83711 18.0944 31 1 
732 1.21501 5.84064 -0.032043 -0.0965924 5.84165 18.0843 31 1 
734 1.21501 5.84495 -0.031943 -0.0950049 5.84593 18.0819 31 1 
736 1.215 5.84969 -0.0313122 -0.0930782 5.85064 18.055 31 1 
738 1.21498 5.85457 -0.0312218 -0.0913475 5.85548 18.0337 31 1 
740 1.21499 5.85862 -0.0305356 -0.0892935 5.85949 18.0392 31 1 
742 1.21498 5.86317 -0.0300228 -0.0872671 5.864 18.0188 31 1 
744 1.21496 5.86736 -0.0298356 -0.0854098 5.86817 17.9913 31 1 
746 1.21496 5.87144 -0.029099 -0.0833274 5.87221 17.9878 31 1 
748 1.21495 5.87522 -0.0286253 -0.0811784 5.87595 17.9777 31 1 
750 1.21494 5.87913 -0.0281653 -0.0791719 5.87983 17.9452 31 1 
752 1.21493 5.88367 -0.027845 -0.0773427 5.88433 17.9306 31 1 
752 1.21493 5.88367 -0.027845 -0.0773427 5.88433 17.9306 31 1 
754 1.21494 5.88658 -0.0273326 -0.0752549 5.88721 17.9459 31 1 
756 1.21491 5.89065 -0.0267492 -0.0731306 5.89125 17.9035 31 1 
758 1.21489 5.89477 -0.0264979 -0.0713162 5.89535 17.8689 31 1 
760 1.2149 5.89755 -0.0257043 -0.0687766 5.89809 17.8862 31 1 
762 1.21488 5.90118 -0.025243 -0.0664902 5.90168 17.852 31 1 
764 1.21485 5.90561 -0.0248633 -0.0645055 5.90609 17.7997 31 1 
766 1.21487 5.90736 -0.0241501 -0.0619517 5.9078 17.8238 31 1 
768 1.21485 5.91143 -0.0235525 -0.0594849 5.91184 17.7846 31 1 
770 1.21482 5.91496 -0.0239336 -0.0579715 5.91535 17.7335 31 1 
772 1.21481 5.91812 -0.0234131 -0.0558213 5.91849 17.7232 31 1 
774 1.2148 5.9222 -0.0233392 -0.0538467 5.92255 17.6976 31 1 
776 1.21476 5.92813 -0.023391 -0.0521381 5.92846 17.629 31 1 
778 1.21474 5.93496 -0.0232118 -0.0502401 5.93527 17.5925 31 1 
780 1.21473 5.94122 -0.0229521 -0.0481303 5.94151 17.5795 31 1 
782 1.21468 5.94952 -0.0232836 -0.0466491 5.9498 17.4853 31 1 
784 1.21463 5.9572 -0.0251441 -0.0457741 5.95748 17.3955 31 1 
786 1.21458 5.97172 -0.0246946 -0.0431592 5.97197 17.3043 31 1 
788 1.21457 5.98361 -0.0245684 -0.0410324 5.98384 17.2932 31 1 
790 1.21447 6.00225 -0.0256073 -0.0387838 6.00247 17.0997 31 1 
792 1.21438 6.01983 -0.0280863 -0.0373276 6.02005 16.9451 31 1 
794 1.21432 6.04215 -0.0288431 -0.0355639 6.04237 16.8275 31 1 
796 1.2142 6.07043 -0.0293193 -0.0317602 6.07062 16.6142 31 1 
798 1.21404 6.10138 -0.0334422 -0.0295616 6.10159 16.3347 31 1 
800 1.21391 6.12468 -0.0365395 -0.0296673 6.12491 16.0882 31 1 
