10.8678;r ;Density                 ;Velocity u              ;Velocity v              ;Velocity w              ;|Velocity|              ;Pressure                ;Distribution            ;Levels                  ;
0 1.20457 9.97167 0.000397727 0.000428158 9.97167 -0.778968 1 1 
2 1.20436 9.97439 0.000118917 0.000154991 9.97439 -1.16458 1 1 
4 1.20388 9.99823 -0.000332572 -0.000271265 9.99823 -2.03142 1 1 
6 1.20431 10.0165 -0.000419467 -0.000345248 10.0165 -1.24452 1 1 
8 1.20516 10.009 -0.000981519 -0.000936194 10.009 0.288616 1 1 
10 1.20467 10.0074 -0.00195082 -0.0019111 10.0074 -0.602017 1 1 
12 1.20408 9.99948 -0.00165665 -0.0016127 9.99948 -1.66182 1 1 
14 1.20439 9.98962 -0.000402691 -0.000374234 9.98962 -1.10107 1 1 
16 1.20478 10.0062 0.000349649 0.000357225 10.0062 -0.38898 1 1 
18 1.20528 10.0267 0.000334793 0.000325813 10.0267 0.502962 1 1 
20 1.20556 10.0287 0.000170582 0.000156778 10.0287 1.01858 1 1 
22 1.20504 10.0207 0.00011791 0.000103226 10.0207 0.0766246 1 1 
24 1.20451 10.0074 0.000233948 0.000211135 10.0074 -0.881425 1 1 
26 1.20456 9.99901 0.000651853 0.000616528 9.99901 -0.794221 1 1 
28 1.20485 10.0101 0.00121272 0.0011688 10.0101 -0.272804 1 1 
30 1.20521 10.0275 0.00166627 0.00161516 10.0275 0.372928 1 1 
32 1.2054 10.0336 0.00178448 0.00172765 10.0336 0.722787 1 1 
32 1.2054 10.0336 0.00178448 0.00172765 10.0336 0.722787 1 1 
34 1.20531 10.0273 0.00157306 0.00151674 10.0273 0.562425 1 1 
36 1.20497 10.0213 0.00111384 0.00106816 10.0213 -0.0523965 1 1 
38 1.20476 10.0249 0.000665559 0.000620102 10.0249 -0.435494 1 1 
40 1.20526 10.0293 0.000308951 0.000264345 10.0293 0.465338 1 1 
42 1.20576 10.0424 -0.000107595 -0.00016938 10.0424 1.37223 1 1 
44 1.20577 10.0582 -0.000350033 -0.000413267 10.0582 1.3908 1 1 
46 1.20568 10.0557 -0.000385277 -0.000440553 10.0557 1.21948 1 1 
48 1.20542 10.0414 -2.75358e-06 -6.4471e-05 10.0414 0.76178 1 1 
50 1.20504 10.0316 0.000712623 0.000663886 10.0316 0.074625 1 1 
52 1.20488 10.0317 0.00141575 0.00135778 10.0317 -0.222443 1 1 
54 1.20522 10.0396 0.00206882 0.00200982 10.0396 0.389435 1 1 
56 1.20582 10.0549 0.00249828 0.00243189 10.0549 1.48442 1 1 
58 1.20622 10.0726 0.00270021 0.00263253 10.0726 2.21257 1 1 
60 1.20635 10.0816 0.00269774 0.00263647 10.0816 2.4318 1 1 
62 1.20624 10.0758 0.00253646 0.00246839 10.0758 2.23968 1 1 
64 1.20589 10.0616 0.00216451 0.00210984 10.0616 1.60162 1 1 
64 1.20589 10.0616 0.00216451 0.00210984 10.0616 1.60162 2 1 
66 1.20542 10.0445 0.00174126 0.00167712 10.0445 0.764629 2 1 
68 1.20503 10.0319 0.00134712 0.0013005 10.0319 0.0615583 2 1 
70 1.20478 10.0275 0.00100517 0.00096737 10.0275 -0.392746 2 1 
72 1.20484 10.0286 0.000786202 0.000731551 10.0286 -0.288842 2 1 
74 1.2051 10.0352 0.000597856 0.000539992 10.0352 0.182875 2 1 
76 1.2053 10.0459 0.000476185 0.000413342 10.0459 0.535725 2 1 
78 1.20559 10.0531 0.000396755 0.000337301 10.0531 1.05936 2 1 
80 1.20576 10.0571 0.000385465 0.00032606 10.0571 1.37328 2 1 
82 1.20571 10.0583 0.000372575 0.000324786 10.0583 1.28336 2 1 
84 1.20563 10.0542 0.000431055 0.000377852 10.0542 1.13349 2 1 
86 1.20544 10.0492 0.000476398 0.000410155 10.0492 0.803694 2 1 
88 1.20523 10.0428 0.000438056 0.00038436 10.0428 0.41947 2 1 
90 1.20509 10.034 0.000480881 0.000433191 10.034 0.153639 2 1 
92 1.20494 10.0281 0.000417235 0.000376666 10.0281 -0.115627 2 1 
94 1.20475 10.0245 0.000428344 0.000368633 10.0245 -0.456361 2 1 
96 1.2047 10.0193 0.000532091 0.000464918 10.0193 -0.547222 2 1 
96 1.2047 10.0193 0.000532091 0.000464918 10.0193 -0.547222 2 1 
98 1.2046 10.0184 0.000479258 0.000439329 10.0184 -0.720599 2 1 
100 1.20455 10.0175 0.000499377 0.000450956 10.0175 -0.81337 2 1 
102 1.20458 10.0154 0.000436665 0.000389495 10.0154 -0.750185 2 1 
104 1.20452 10.0158 0.000371215 0.000343474 10.0158 -0.863172 2 1 
106 1.20457 10.0141 0.000433799 0.000392265 10.0141 -0.785554 2 1 
108 1.20455 10.0135 0.000441618 0.000388978 10.0135 -0.818523 2 1 
110 1.20448 10.0154 0.000464997 0.000429431 10.0154 -0.932012 2 1 
112 1.20454 10.0137 0.000416323 0.000370376 10.0137 -0.832053 2 1 
114 1.20453 10.0128 0.00036779 0.000334376 10.0128 -0.84795 2 1 
116 1.2045 10.0158 0.000344444 0.000318968 10.0158 -0.908801 2 1 
118 1.20459 10.0139 0.000371502 0.000337215 10.0139 -0.742364 2 1 
120 1.2046 10.0126 0.000420928 0.000371473 10.0126 -0.718165 2 1 
122 1.20447 10.0156 0.000416836 0.000385996 10.0156 -0.949556 2 1 
124 1.2045 10.0132 0.00038527 0.000355269 10.0132 -0.911863 2 1 
126 1.20456 10.0115 0.000307245 0.000277714 10.0115 -0.793791 2 1 
128 1.20454 10.0137 0.000291593 0.000285308 10.0137 -0.822441 2 1 
128 1.20454 10.0137 0.000291593 0.000285308 10.0137 -0.822441 10 1 
130 1.2046 10.0128 0.000321735 0.000252456 10.0128 -0.726957 10 1 
132 1.20456 10.0141 0.00034857 0.000312946 10.0141 -0.792617 10 1 
134 1.2045 10.0141 0.000379637 0.000371153 10.0141 -0.9046 10 1 
136 1.20454 10.0111 0.000377558 0.000346694 10.0111 -0.834683 10 1 
138 1.20456 10.0114 0.000300755 0.000282262 10.0114 -0.802427 10 1 
140 1.20456 10.0124 0.000265661 0.00024611 10.0124 -0.789595 10 1 
142 1.20457 10.0122 0.000265603 0.000239525 10.0122 -0.782156 10 1 
144 1.20456 10.0125 0.000291384 0.000263796 10.0125 -0.787054 10 1 
146 1.20457 10.0121 0.000317829 0.000305607 10.0121 -0.784394 10 1 
148 1.20457 10.01 0.000318433 0.000304724 10.01 -0.772118 10 1 
150 1.20453 10.011 0.0002837 0.000277947 10.011 -0.853097 10 1 
152 1.20456 10.0108 0.000194985 0.000201815 10.0108 -0.801025 10 1 
154 1.20461 10.0095 0.000217521 0.000211898 10.0095 -0.705488 10 1 
156 1.20458 10.0115 0.000236414 0.000236585 10.0115 -0.750692 10 1 
158 1.20459 10.0108 0.00027215 0.00028189 10.0108 -0.732414 10 1 
160 1.20458 10.0078 0.000269235 0.000261835 10.0078 -0.759564 10 1 
160 1.20458 10.0078 0.000269235 0.000261835 10.0078 -0.759564 10 1 
162 1.20454 10.0085 0.00018194 0.000199052 10.0085 -0.8402 10 1 
164 1.20458 10.0081 0.000170824 0.000196246 10.0081 -0.758069 10 1 
166 1.20466 10.0063 0.000140339 0.000186395 10.0063 -0.622227 10 1 
168 1.20461 10.0093 0.000161774 0.000189165 10.0093 -0.705169 10 1 
170 1.20459 10.0068 0.000157306 0.000178374 10.0068 -0.738303 10 1 
172 1.2046 10.0052 0.000122941 0.000177964 10.0052 -0.727928 10 1 
174 1.2046 10.0069 0.000137359 0.000166908 10.0069 -0.724869 10 1 
176 1.20466 10.0049 0.000126687 0.000166914 10.0049 -0.617553 10 1 
178 1.20465 10.0049 0.000116421 0.000171124 10.0049 -0.636476 10 1 
180 1.20462 10.004 0.000102533 0.000163351 10.004 -0.685177 10 1 
182 1.20463 10.0004 4.27961e-05 0.00011405 10.0004 -0.66179 10 1 
184 1.20462 9.99985 -1.6662e-05 6.06339e-05 9.99985 -0.680403 10 1 
186 1.20466 10.0019 4.16508e-05 0.000104666 10.0019 -0.612927 10 1 
188 1.20471 10.0009 3.00886e-05 0.000107354 10.0009 -0.52929 10 1 
190 1.20467 10.0008 -4.00643e-05 5.52246e-05 10.0008 -0.601175 10 1 
192 1.20466 10.0007 8.26146e-05 0.00017858 10.0007 -0.613682 10 1 
194 1.2047 9.99555 -3.23054e-05 7.09044e-05 9.99555 -0.537239 10 1 
196 1.20471 9.99286 -0.000144965 -3.02125e-05 9.99287 -0.530656 10 1 
198 1.2047 9.99359 -4.69439e-05 9.53608e-05 9.99359 -0.537043 10 1 
200 1.20474 9.99177 -0.000153551 -2.34741e-05 9.99177 -0.466418 10 1 
202 1.20473 9.99119 -7.56383e-05 2.31132e-05 9.99119 -0.483919 10 1 
204 1.20469 9.99274 -2.3413e-05 7.80206e-05 9.99274 -0.564508 10 1 
206 1.20478 9.98901 -0.000228115 -7.33478e-05 9.98901 -0.400074 10 1 
208 1.20482 9.98707 -0.000263847 -2.92844e-05 9.98707 -0.331961 10 1 
210 1.20477 9.98817 -0.000195356 2.11876e-08 9.98817 -0.416793 10 1 
212 1.20485 9.9816 -0.000211348 -7.05954e-05 9.9816 -0.269484 10 1 
214 1.20481 9.9772 -0.000166753 -4.64323e-06 9.9772 -0.349041 10 1 
216 1.20478 9.97419 -0.000255524 -6.08985e-05 9.97419 -0.390726 10 1 
218 1.20488 9.96961 -0.000387193 -0.000161915 9.96961 -0.217185 10 1 
220 1.20487 9.97348 -0.000340944 -0.000167575 9.97348 -0.232405 10 1 
222 1.20492 9.97352 -0.000330176 -0.00015504 9.97352 -0.138367 10 1 
224 1.20494 9.96893 -0.000309133 -2.60919e-05 9.96893 -0.108577 10 1 
224 1.20494 9.96893 -0.000309133 -2.60919e-05 9.96893 -0.108577 10 1 
226 1.20496 9.96407 -0.000360405 -5.83132e-05 9.96407 -0.0700338 10 1 
228 1.205 9.95385 -0.000400924 -0.000187951 9.95385 0.00101763 10 1 
230 1.20498 9.94722 -0.000472655 -0.00029206 9.94722 -0.0295138 10 1 
232 1.205 9.94802 -0.000527817 -0.000254044 9.94803 -0.00359598 10 1 
234 1.20508 9.94546 -0.000536726 -0.000184038 9.94547 0.148791 10 1 
236 1.20519 9.9375 -0.000516976 -0.000208137 9.9375 0.351367 10 1 
238 1.20513 9.93442 -0.000473639 -0.000209161 9.93442 0.239368 10 1 
240 1.20524 9.92227 -0.00064825 -0.000375433 9.92227 0.433022 10 1 
242 1.20528 9.91414 -0.000705862 -0.000382133 9.91414 0.500714 10 1 
244 1.20522 9.91259 -0.000665064 -0.000336277 9.91259 0.390861 10 1 
246 1.20544 9.89979 -0.000724131 -0.000415923 9.89979 0.788423 10 1 
248 1.2055 9.89047 -0.000645805 -0.000269152 9.89047 0.907669 10 1 
250 1.20551 9.8781 -0.000757431 -0.000364744 9.8781 0.926237 10 1 
252 1.20558 9.8658 -0.000978178 -0.000613072 9.8658 1.04028 10 1 
254 1.20571 9.85364 -0.000839019 -0.000449293 9.85364 1.27747 10 1 
256 1.2058 9.83912 -0.000865072 -0.000445348 9.83912 1.44854 10 1 
256 1.2058 9.83912 -0.000865072 -0.000445348 9.83912 1.44854 11 1 
258 1.20588 9.82181 -0.000958928 -0.000542711 9.82181 1.58766 11 1 
260 1.2061 9.80324 -0.00104268 -0.000606629 9.80324 1.98754 11 1 
262 1.20624 9.78057 -0.00118937 -0.000755208 9.78058 2.23795 11 1 
264 1.20623 9.75792 -0.00113623 -0.000661317 9.75793 2.23071 11 1 
266 1.20649 9.73469 -0.00111858 -0.000630302 9.7347 2.68562 11 1 
268 1.20692 9.69478 -0.00121024 -0.000767511 9.69479 3.47601 11 1 
270 1.20686 9.66683 -0.00136311 -0.000825596 9.66685 3.36688 11 1 
272 1.20713 9.62528 -0.00135526 -0.00079648 9.62529 3.8516 11 1 
274 1.20771 9.56902 -0.00141562 -0.000881192 9.56903 4.89581 11 1 
276 1.20776 9.52839 -0.00153789 -0.000942618 9.52839 4.98171 11 1 
278 1.20818 9.4687 -0.00153496 -0.000972781 9.46871 5.7385 11 1 
280 1.2089 9.4056 -0.00158982 -0.00101282 9.40563 7.03953 11 1 
282 1.2094 9.32374 -0.00165103 -0.001012 9.3239 7.93891 11 1 
284 1.20979 9.20461 -0.00170784 -0.00110204 9.20488 8.65792 11 1 
286 1.21031 9.08164 -0.00177649 -0.0011619 9.0818 9.59734 11 1 
288 1.21118 8.96873 -0.00184461 -0.00119347 8.96879 11.1665 11 1 
288 1.21118 8.96873 -0.00184461 -0.00119347 8.96879 11.1665 11 1 
290 1.21224 8.86051 -0.00184647 -0.00120217 8.86059 13.0714 11 1 
292 1.21311 8.72126 -0.00193277 -0.00129839 8.72152 14.6505 11 1 
294 1.21383 8.5398 -0.00197074 -0.00130055 8.54033 15.9496 11 1 
296 1.21477 8.35277 -0.00196402 -0.00128401 8.35312 17.6534 11 1 
298 1.20888 8.12923 -0.00200948 -0.00142901 8.18706 6.99924 11 1 
300 1.19867 8.04712 -0.00192781 -0.00155595 8.12188 -11.4407 11 1 
302 1.19535 8.0144 -0.00191378 -0.00179686 8.0612 -17.4283 11 1 
304 1.19623 7.84398 -0.0019216 -0.00203871 7.88267 -15.8382 11 1 
306 1.19728 7.66598 -0.0018592 -0.00216155 7.69482 -13.9462 11 1 
308 1.19812 7.50206 -0.00186754 -0.00229835 7.5252 -12.4301 11 1 
310 1.19866 7.36613 -0.00187084 -0.00239154 7.37843 -11.4603 11 1 
312 1.1993 7.23366 -0.00189824 -0.00253307 7.2455 -10.2959 11 1 
314 1.19988 7.13071 -0.00195239 -0.00264716 7.14157 -9.2502 11 1 
316 1.20035 7.05067 -0.00200301 -0.00274487 7.06101 -8.40102 11 1 
318 1.20077 6.95922 -0.00203538 -0.00284202 6.96625 -7.64627 11 1 
320 1.20108 6.8888 -0.00202385 -0.00285304 6.89539 -7.08625 11 1 
320 1.20108 6.8888 -0.00202385 -0.00285304 6.89539 -7.08625 15 1 
322 1.20139 6.84314 -0.00211883 -0.00295489 6.84958 -6.51192 15 1 
324 1.20176 6.79189 -0.00220375 -0.00306308 6.79803 -5.85841 15 1 
326 1.20201 6.74429 -0.00222656 -0.00308726 6.74926 -5.39966 15 1 
328 1.20218 6.70351 -0.00224635 -0.00310397 6.70825 -5.09444 15 1 
330 1.20232 6.66535 -0.00231568 -0.00316805 6.66964 -4.8429 15 1 
332 1.20256 6.64211 -0.00236626 -0.00321531 6.64638 -4.40222 15 1 
334 1.2028 6.61697 -0.0023716 -0.00323445 6.62077 -3.96765 15 1 
336 1.20281 6.58096 -0.00239309 -0.00324616 6.58463 -3.95615 15 1 
338 1.20287 6.55854 -0.00241904 -0.00325099 6.562 -3.83913 15 1 
340 1.20312 6.54776 -0.00249378 -0.00332595 6.55114 -3.40158 15 1 
342 1.20325 6.53365 -0.00254178 -0.00335622 6.53674 -3.15691 15 1 
344 1.20327 6.51363 -0.00250292 -0.00327995 6.51671 -3.12757 15 1 
346 1.20328 6.49666 -0.00251194 -0.0032919 6.4995 -3.10437 15 1 
348 1.20342 6.50363 -0.00262895 -0.00342189 6.50637 -2.85617 15 1 
350 1.20358 6.51691 -0.00266473 -0.00343991 6.51939 -2.56086 15 1 
352 1.20359 6.50324 -0.00258541 -0.0033489 6.50562 -2.55401 15 1 
354 1.20361 6.48177 -0.00257566 -0.00337764 6.48393 -2.50214 15 1 
356 1.20372 6.47728 -0.00271506 -0.00355609 6.47939 -2.31951 15 1 
358 1.20376 6.48939 -0.00281134 -0.0036103 6.4914 -2.23135 15 1 
360 1.20384 6.50903 -0.00275288 -0.00347422 6.51098 -2.09306 15 1 
362 1.20392 6.50943 -0.00263549 -0.00336574 6.5112 -1.95636 15 1 
364 1.20395 6.48366 -0.00262972 -0.00338634 6.48542 -1.89512 15 1 
366 1.20399 6.45827 -0.00266994 -0.00339772 6.46007 -1.81842 15 1 
368 1.20406 6.44672 -0.0026025 -0.00333223 6.44858 -1.70621 15 1 
370 1.20415 6.43898 -0.00249731 -0.00323582 6.44072 -1.53933 15 1 
372 1.20421 6.4176 -0.00248014 -0.00314004 6.41918 -1.43411 15 1 
374 1.20423 6.38387 -0.00258118 -0.00311834 6.38514 -1.38596 15 1 
376 1.20431 6.36286 -0.00267889 -0.00306592 6.36393 -1.25448 15 1 
378 1.20441 6.37549 -0.00280815 -0.00296237 6.37624 -1.06162 15 1 
380 1.20456 6.43223 -0.00302703 -0.00288908 6.43283 -0.788003 15 1 
382 1.20473 6.53373 -0.00328176 -0.0028721 6.53417 -0.479557 15 1 
384 1.2049 6.67464 -0.00346268 -0.00282905 6.6751 -0.183417 15 1 
384 1.2049 6.67464 -0.00346268 -0.00282905 6.6751 -0.183417 16 1 
386 1.20511 6.85588 -0.00356933 -0.00274385 6.85634 0.190093 16 1 
388 1.20532 7.07271 -0.00368796 -0.00266533 7.07324 0.577361 16 1 
390 1.20552 7.31099 -0.00377599 -0.00262862 7.31154 0.939587 16 1 
392 1.2057 7.56072 -0.00378229 -0.00259412 7.56127 1.26022 16 1 
394 1.2058 7.81307 -0.00376504 -0.00253231 7.81358 1.44164 16 1 
396 1.20585 8.06001 -0.00374139 -0.00243998 8.06048 1.5323 16 1 
398 1.20588 8.29653 -0.00364391 -0.00232762 8.29694 1.58925 16 1 
400 1.20589 8.51628 -0.00348997 -0.00224082 8.5166 1.60932 16 1 
402 1.20588 8.71275 -0.0034085 -0.0021975 8.713 1.58276 16 1 
404 1.20582 8.88453 -0.00341273 -0.00218562 8.88471 1.47751 16 1 
406 1.20577 9.03438 -0.00328665 -0.0021072 9.03452 1.38332 16 1 
408 1.20573 9.16395 -0.0031132 -0.00199927 9.16404 1.32074 16 1 
410 1.20566 9.27328 -0.00307294 -0.00196454 9.27334 1.19545 16 1 
412 1.20559 9.36454 -0.0030659 -0.00198524 9.36459 1.07344 16 1 
414 1.20554 9.44123 -0.00297191 -0.00193535 9.44127 0.974657 16 1 
416 1.20548 9.50673 -0.00286858 -0.00184097 9.50675 0.872689 16 1 
416 1.20548 9.50673 -0.00286858 -0.00184097 9.50675 0.872689 16 1 
418 1.20543 9.56252 -0.00282719 -0.00182414 9.56254 0.77902 16 1 
420 1.20539 9.61075 -0.00279846 -0.00184767 9.61077 0.701438 16 1 
422 1.20539 9.65313 -0.00277364 -0.00185935 9.65314 0.706788 16 1 
424 1.20538 9.68867 -0.00277293 -0.00187457 9.68867 0.69203 16 1 
426 1.20531 9.71715 -0.00277597 -0.00192018 9.71716 0.55354 16 1 
428 1.20525 9.74207 -0.00272294 -0.00189997 9.74207 0.45994 16 1 
430 1.20526 9.7669 -0.00265379 -0.0018212 9.7669 0.471287 16 1 
432 1.20524 9.78907 -0.00264033 -0.00183423 9.78908 0.441257 16 1 
434 1.20522 9.80672 -0.0026712 -0.00188634 9.80672 0.39085 16 1 
436 1.20522 9.82213 -0.00271818 -0.00193191 9.82213 0.391481 16 1 
438 1.20521 9.83789 -0.00275206 -0.00196766 9.83789 0.37363 16 1 
440 1.20519 9.85262 -0.00271276 -0.00192904 9.85262 0.343187 16 1 
442 1.20519 9.86444 -0.00266598 -0.00191699 9.86444 0.335105 16 1 
444 1.20517 9.87574 -0.00263659 -0.00190445 9.87574 0.307411 16 1 
446 1.20514 9.88533 -0.00267633 -0.0019111 9.88533 0.256247 16 1 
448 1.20515 9.89532 -0.0026755 -0.00192318 9.89532 0.26748 16 1 
448 1.20515 9.89532 -0.0026755 -0.00192318 9.89532 0.26748 17 1 
450 1.20515 9.90476 -0.00263732 -0.00191917 9.90476 0.27993 17 1 
452 1.20515 9.91202 -0.00264566 -0.00191296 9.91202 0.273901 17 1 
454 1.20516 9.91982 -0.00267674 -0.00193843 9.91982 0.295433 17 1 
456 1.20513 9.92442 -0.00267254 -0.00195262 9.92442 0.232196 17 1 
458 1.20511 9.92945 -0.00258821 -0.00187409 9.92945 0.189866 17 1 
460 1.20513 9.93731 -0.00255033 -0.00184617 9.93732 0.232902 17 1 
462 1.20513 9.94241 -0.00257394 -0.00187072 9.94242 0.241819 17 1 
464 1.20513 9.94638 -0.0026083 -0.00190975 9.94638 0.239784 17 1 
466 1.20511 9.94807 -0.0025798 -0.0018934 9.94807 0.193584 17 1 
468 1.2051 9.9515 -0.00253508 -0.0018615 9.9515 0.181824 17 1 
470 1.20513 9.95725 -0.00248239 -0.00183878 9.95725 0.226914 17 1 
472 1.20512 9.95953 -0.00249182 -0.00183256 9.95953 0.210192 17 1 
474 1.20511 9.96299 -0.00254253 -0.00186205 9.963 0.206912 17 1 
476 1.2051 9.96401 -0.002502 -0.00187959 9.96402 0.177195 17 1 
478 1.20508 9.96573 -0.00244713 -0.00184243 9.96573 0.141106 17 1 
480 1.20511 9.97022 -0.00244314 -0.00179403 9.97022 0.202941 17 1 
480 1.20511 9.97022 -0.00244314 -0.00179403 9.97022 0.202941 17 1 
482 1.20512 9.97006 -0.00244317 -0.00182085 9.97006 0.216848 17 1 
484 1.20512 9.97459 -0.00240172 -0.00182286 9.97459 0.224065 17 1 
486 1.2051 9.9744 -0.00240654 -0.00180177 9.9744 0.171923 17 1 
488 1.20506 9.97495 -0.00242259 -0.00179541 9.97495 0.114275 17 1 
490 1.20508 9.97891 -0.0023774 -0.00178956 9.97892 0.140666 17 1 
492 1.2051 9.97691 -0.00234251 -0.00178279 9.97691 0.179709 17 1 
494 1.20515 9.9838 -0.00235881 -0.00176746 9.9838 0.270792 17 1 
496 1.20507 9.98024 -0.00233558 -0.00174001 9.98024 0.125901 17 1 
498 1.20504 9.98081 -0.00228815 -0.00173485 9.98081 0.0711558 17 1 
500 1.20513 9.98766 -0.00229268 -0.0017396 9.98766 0.227314 17 1 
502 1.2051 9.98204 -0.00230405 -0.00172331 9.98204 0.174315 17 1 
504 1.20511 9.98945 -0.00228448 -0.00170679 9.98946 0.191996 17 1 
506 1.20508 9.9844 -0.00223164 -0.00169026 9.9844 0.151441 17 1 
508 1.20508 9.98635 -0.00222423 -0.00169172 9.98635 0.148634 17 1 
510 1.20508 9.99209 -0.00222601 -0.00165778 9.99209 0.147963 17 1 
512 1.20506 9.98484 -0.00217736 -0.00161975 9.98484 0.107576 17 1 
512 1.20506 9.98484 -0.00217736 -0.00161975 9.98484 0.107576 25 1 
514 1.20516 9.99626 -0.00216133 -0.00164103 9.99626 0.282004 25 1 
516 1.20507 9.98812 -0.00217474 -0.0016405 9.98812 0.124991 25 1 
518 1.20507 9.99032 -0.00218397 -0.00163381 9.99032 0.128496 25 1 
520 1.20513 9.99533 -0.00214874 -0.00160774 9.99534 0.225929 25 1 
522 1.20504 9.98717 -0.00209701 -0.00157113 9.98717 0.0753586 25 1 
524 1.20511 9.99908 -0.00206079 -0.0015468 9.99908 0.206996 25 1 
526 1.20511 9.9912 -0.00203887 -0.00152178 9.9912 0.192151 25 1 
528 1.2051 9.99574 -0.00206758 -0.00153165 9.99574 0.179325 25 1 
530 1.20505 9.99583 -0.00206234 -0.00153711 9.99583 0.0905747 25 1 
532 1.20507 9.99055 -0.00201246 -0.00150564 9.99055 0.118383 25 1 
534 1.2052 10.0034 -0.00199734 -0.0014856 10.0034 0.354783 25 1 
536 1.20507 9.99145 -0.00202408 -0.0015089 9.99145 0.120061 25 1 
538 1.20507 9.99827 -0.00199084 -0.00149293 9.99827 0.121807 25 1 
540 1.20508 9.99666 -0.00191071 -0.00142159 9.99666 0.139822 25 1 
542 1.20508 9.99455 -0.00188006 -0.00138118 9.99455 0.138812 25 1 
544 1.20514 10.004 -0.00189972 -0.00139594 10.004 0.259354 25 1 
544 1.20514 10.004 -0.00189972 -0.00139594 10.004 0.259354 25 1 
546 1.20508 9.99268 -0.00191961 -0.00143338 9.99268 0.152056 25 1 
548 1.20515 10.0037 -0.0019036 -0.00142336 10.0037 0.266274 25 1 
550 1.20505 9.99511 -0.00184437 -0.00135432 9.99511 0.0872467 25 1 
552 1.20505 9.99825 -0.00182538 -0.00134693 9.99825 0.0884 25 1 
554 1.20513 10.0026 -0.00183099 -0.00136158 10.0026 0.233064 25 1 
556 1.20513 9.99547 -0.00179997 -0.0013247 9.99547 0.231267 25 1 
558 1.20516 10.0055 -0.0017712 -0.0013069 10.0055 0.283163 25 1 
560 1.20502 9.9933 -0.00175907 -0.00130599 9.9933 0.0285988 25 1 
562 1.2051 10.0045 -0.001763 -0.00129746 10.0045 0.183556 25 1 
564 1.20513 10.0007 -0.00174621 -0.0012838 10.0007 0.241171 25 1 
566 1.20513 10.0004 -0.00169721 -0.00126563 10.0004 0.235088 25 1 
568 1.20511 10.0028 -0.00168148 -0.00125107 10.0028 0.19138 25 1 
570 1.20505 9.99418 -0.00168878 -0.00124296 9.99418 0.0833099 25 1 
572 1.20516 10.0076 -0.00166368 -0.00123449 10.0076 0.281756 25 1 
574 1.20509 9.99732 -0.00163587 -0.00121626 9.99732 0.154624 25 1 
576 1.20515 10.0068 -0.00161689 -0.00119089 10.0068 0.273371 25 1 
576 1.20515 10.0068 -0.00161689 -0.00119089 10.0068 0.273371 26 1 
578 1.20511 9.99874 -0.00158581 -0.00117737 9.99874 0.191178 26 1 
580 1.20509 10.0015 -0.00157603 -0.00117517 10.0015 0.160692 26 1 
582 1.2051 10.0035 -0.00158967 -0.00117617 10.0035 0.183377 26 1 
584 1.20513 10.0006 -0.00157832 -0.00117244 10.0006 0.238674 26 1 
586 1.20517 10.0078 -0.00153485 -0.00114928 10.0078 0.306683 26 1 
588 1.20505 9.99527 -0.00148765 -0.001101 9.99527 0.084585 26 1 
590 1.20514 10.007 -0.001478 -0.00109733 10.007 0.249575 26 1 
592 1.20511 9.99876 -0.00149183 -0.00112918 9.99876 0.204638 26 1 
594 1.20517 10.0089 -0.00148721 -0.0011165 10.0089 0.304163 26 1 
596 1.20509 10.0003 -0.00144317 -0.0010658 10.0003 0.156929 26 1 
598 1.20512 10.0046 -0.0013745 -0.00102384 10.0046 0.211957 26 1 
600 1.20508 10.0004 -0.00138015 -0.00103881 10.0004 0.138784 26 1 
602 1.20512 10.003 -0.0014322 -0.00107974 10.003 0.225099 26 1 
604 1.20522 10.006 -0.00142533 -0.00108824 10.006 0.398857 26 1 
606 1.20516 10.0037 -0.00137025 -0.00103792 10.0037 0.295333 26 1 
608 1.20503 10.0035 -0.0012868 -0.000950481 10.0035 0.047733 26 1 
608 1.20503 10.0035 -0.0012868 -0.000950481 10.0035 0.047733 26 1 
610 1.20504 10.0006 -0.00123097 -0.000913556 10.0006 0.0699028 26 1 
612 1.20523 10.008 -0.00126612 -0.000956846 10.008 0.419689 26 1 
614 1.20517 10.0025 -0.00133493 -0.00101854 10.0025 0.304308 26 1 
616 1.20507 10.003 -0.00133305 -0.00102631 10.003 0.129439 26 1 
618 1.20512 10.0016 -0.00127806 -0.000983056 10.0016 0.212176 26 1 
620 1.20523 10.0081 -0.00118928 -0.000894178 10.0081 0.413573 26 1 
622 1.20507 10.0029 -0.00113196 -0.000841898 10.0029 0.135047 26 1 
624 1.20501 10.0027 -0.00117379 -0.000895902 10.0027 0.0175528 26 1 
626 1.2052 10.0049 -0.00120192 -0.000926447 10.0049 0.365199 26 1 
628 1.20529 10.0074 -0.00120644 -0.000930755 10.0074 0.530183 26 1 
630 1.20505 10.0005 -0.00116841 -0.000907087 10.0005 0.0874303 26 1 
632 1.205 10.0014 -0.00107646 -0.000817148 10.0014 -0.000458963 26 1 
634 1.20524 10.0077 -0.00104769 -0.000782904 10.0077 0.439576 26 1 
636 1.20525 10.0081 -0.00104727 -0.000801208 10.0081 0.454805 26 1 
638 1.20499 10.0009 -0.00107768 -0.000844352 10.0009 -0.0150574 26 1 
640 1.20504 10.0016 -0.00109997 -0.000858907 10.0016 0.0690552 26 1 
642 1.20534 10.0085 -0.00104287 -0.000807429 10.0085 0.607782 26 1 
644 1.20526 10.0072 -0.0010031 -0.00077639 10.0072 0.469104 26 1 
646 1.20491 9.9993 -0.000959196 -0.000725393 9.9993 -0.16461 26 1 
648 1.20502 10.0022 -0.000939432 -0.000717333 10.0022 0.0305831 26 1 
650 1.20541 10.0113 -0.000971928 -0.000766665 10.0113 0.739646 26 1 
652 1.20531 10.0084 -0.00096578 -0.000755256 10.0084 0.554012 26 1 
654 1.20489 9.9983 -0.000952888 -0.000739936 9.9983 -0.202601 26 1 
656 1.20498 10.0007 -0.00091784 -0.000715815 10.0007 -0.041857 26 1 
658 1.20541 10.0115 -0.000866392 -0.000664033 10.0115 0.746961 26 1 
660 1.20534 10.0097 -0.000855249 -0.000650826 10.0097 0.615858 26 1 
662 1.2049 9.99876 -0.000863786 -0.000672672 9.99876 -0.174052 26 1 
664 1.20497 10.0007 -0.000878889 -0.000693035 10.0007 -0.047669 26 1 
666 1.20543 10.0121 -0.000872544 -0.000687808 10.0121 0.76832 26 1 
668 1.20538 10.0111 -0.000826268 -0.000647921 10.0111 0.686724 26 1 
670 1.20493 9.99949 -0.000775886 -0.000600418 9.99949 -0.125255 26 1 
672 1.20493 9.99935 -0.00076868 -0.000590754 9.99935 -0.125738 26 1 
672 1.20493 9.99935 -0.00076868 -0.000590754 9.99935 -0.125738 27 1 
674 1.20539 10.0112 -0.000788697 -0.000614375 10.0112 0.695692 27 1 
676 1.20546 10.0133 -0.000803859 -0.000642938 10.0133 0.829014 27 1 
678 1.20502 10.0021 -0.000792202 -0.000634811 10.0021 0.0403135 27 1 
680 1.20488 9.99844 -0.000731818 -0.000575984 9.99844 -0.216768 27 1 
682 1.20529 10.0089 -0.000691224 -0.000541637 10.0089 0.523815 27 1 
684 1.2055 10.0142 -0.000704536 -0.000555945 10.0142 0.897698 27 1 
686 1.20514 10.0051 -0.000736015 -0.000588925 10.0051 0.257299 27 1 
688 1.2049 9.99887 -0.000753287 -0.000615537 9.99887 -0.177268 27 1 
690 1.20518 10.0066 -0.00071682 -0.000589005 10.0066 0.333779 27 1 
692 1.20546 10.0139 -0.000647815 -0.000524733 10.0139 0.830702 27 1 
694 1.20525 10.0082 -0.000606301 -0.00048312 10.0082 0.455293 27 1 
696 1.20497 10.0007 -0.000629519 -0.000503075 10.0007 -0.0624376 27 1 
698 1.20514 10.0052 -0.000695677 -0.000572696 10.0052 0.25013 27 1 
700 1.20545 10.0133 -0.000717128 -0.000598469 10.0133 0.808385 27 1 
702 1.20534 10.0107 -0.000650354 -0.000536852 10.0107 0.609609 27 1 
704 1.20502 10.0019 -0.000577545 -0.000475858 10.0019 0.0314352 27 1 
704 1.20502 10.0019 -0.000577545 -0.000475858 10.0019 0.0314352 31 1 
706 1.20504 10.0024 -0.000545233 -0.000444428 10.0024 0.0682472 31 1 
708 1.20538 10.0121 -0.000577429 -0.000474987 10.0121 0.688458 31 1 
710 1.20548 10.0148 -0.000648947 -0.000548778 10.0148 0.86728 31 1 
712 1.20515 10.0058 -0.00064654 -0.000546385 10.0058 0.276194 31 1 
714 1.20496 10.0008 -0.000599236 -0.000507728 10.0008 -0.078899 31 1 
716 1.2052 10.0073 -0.000540382 -0.000456322 10.0073 0.362504 31 1 
718 1.20547 10.0145 -0.000502675 -0.000419949 10.0145 0.847508 31 1 
720 1.20536 10.0116 -0.000533104 -0.000451631 10.0116 0.647391 31 1 
722 1.20507 10.0034 -0.000551421 -0.000469273 10.0034 0.121005 31 1 
724 1.20507 10.0036 -0.000544609 -0.000465397 10.0036 0.119619 31 1 
726 1.20535 10.0119 -0.000525305 -0.000455205 10.0119 0.63916 31 1 
728 1.20546 10.0143 -0.000487001 -0.000424299 10.0143 0.831306 31 1 
730 1.20524 10.0081 -0.000475155 -0.000417173 10.0081 0.425825 31 1 
732 1.20506 10.0032 -0.000470508 -0.000410929 10.0032 0.1041 31 1 
734 1.2052 10.0071 -0.00044463 -0.000381654 10.0071 0.352666 31 1 
736 1.20544 10.0143 -0.000441208 -0.000382088 10.0143 0.786044 31 1 
738 1.20541 10.0136 -0.000453382 -0.000400548 10.0136 0.745384 31 1 
740 1.20516 10.0065 -0.000446896 -0.000405614 10.0065 0.296668 31 1 
742 1.20507 10.0038 -0.000444188 -0.000413144 10.0038 0.123359 31 1 
744 1.20526 10.0091 -0.00039146 -0.00036328 10.0091 0.473075 31 1 
746 1.20546 10.0148 -0.000334481 -0.000306572 10.0148 0.836095 31 1 
748 1.20539 10.0128 -0.000349801 -0.000322746 10.0128 0.699645 31 1 
750 1.20516 10.0061 -0.000377886 -0.000354197 10.0061 0.294562 31 1 
752 1.20512 10.0047 -0.000413196 -0.000395698 10.0047 0.208264 31 1 
752 1.20512 10.0047 -0.000413196 -0.000395698 10.0047 0.208264 31 1 
754 1.20531 10.01 -0.000401788 -0.000391955 10.01 0.556575 31 1 
756 1.20548 10.0141 -0.00032252 -0.000321049 10.0141 0.873008 31 1 
758 1.2054 10.0112 -0.000267038 -0.000271802 10.0112 0.728223 31 1 
760 1.20519 10.0044 -0.000274043 -0.000281032 10.0044 0.343198 31 1 
762 1.20513 10.0029 -0.00032074 -0.000332648 10.0029 0.238449 31 1 
764 1.20529 10.009 -0.000355005 -0.000368208 10.009 0.525722 31 1 
766 1.20545 10.0143 -0.000308582 -0.000321974 10.0143 0.815794 31 1 
768 1.20539 10.0125 -0.000217066 -0.000232768 10.0125 0.712074 31 1 
770 1.20519 10.0056 -0.000177959 -0.000195246 10.0056 0.349985 31 1 
772 1.20512 10.0017 -0.000236734 -0.000255113 10.0017 0.213265 31 1 
774 1.20525 10.0055 -0.000376652 -0.00039465 10.0055 0.453637 31 1 
776 1.20541 10.0121 -0.000490868 -0.000508572 10.0121 0.745455 31 1 
778 1.20539 10.0137 -0.000461881 -0.000475354 10.0137 0.704619 31 1 
780 1.20518 10.0085 -0.000306666 -0.000313476 10.0085 0.32233 31 1 
782 1.20503 10.0022 -0.000143989 -0.000139954 10.0022 0.0531533 31 1 
784 1.20512 10.003 -0.000115863 -0.000103413 10.003 0.210294 31 1 
786 1.20533 10.0113 -0.000276982 -0.000260942 10.0113 0.600753 31 1 
788 1.20546 10.0177 -0.000477588 -0.000464376 10.0177 0.839192 31 1 
790 1.20538 10.0144 -0.000572876 -0.000570175 10.0144 0.681952 31 1 
792 1.20512 10.0042 -0.000449139 -0.000452784 10.0042 0.224037 31 1 
794 1.20491 9.99764 -0.000163523 -0.000172925 9.99764 -0.161309 31 1 
796 1.20494 10.0011 3.0873e-05 1.93766e-05 10.0011 -0.117125 31 1 
798 1.20522 10.0106 9.4037e-05 8.933e-05 10.0106 0.40257 31 1 
800 1.20542 10.0156 0.000110174 0.000109886 10.0156 0.760599 31 1 
