76.0744;r ;Density                 ;Velocity u              ;Velocity v              ;Velocity w              ;|Velocity|              ;Pressure                ;Distribution            ;Levels                  ;
0 1.21198 9.9984 -0.000124485 -2.95128e-05 9.9984 12.6053 1 1 
2 1.21201 9.99634 -0.000147995 -8.50997e-05 9.99634 12.6589 1 1 
4 1.21202 9.99395 -0.000335127 -0.000251047 9.99395 12.684 1 1 
6 1.21203 9.99237 -0.0004629 -0.000375533 9.99237 12.7024 1 1 
8 1.21206 9.9906 -0.000603317 -0.000510739 9.9906 12.7486 1 1 
10 1.21207 9.98884 -0.000732609 -0.00062471 9.98884 12.7655 1 1 
12 1.21209 9.98628 -0.000854673 -0.00074654 9.98628 12.8035 1 1 
14 1.2121 9.98487 -0.00101807 -0.0008906 9.98487 12.8282 1 1 
16 1.21213 9.9829 -0.00111199 -0.000987985 9.9829 12.8849 1 1 
18 1.21215 9.98014 -0.00123293 -0.00110043 9.98014 12.909 1 1 
20 1.21215 9.97855 -0.00138792 -0.00124449 9.97855 12.9155 1 1 
22 1.2122 9.97662 -0.00150943 -0.00135181 9.97662 13.002 1 1 
24 1.21222 9.97518 -0.0016454 -0.00147947 9.97518 13.0364 1 1 
26 1.21223 9.97287 -0.00176414 -0.00157176 9.97287 13.056 1 1 
28 1.21225 9.97023 -0.0018903 -0.00167829 9.97023 13.1002 1 1 
30 1.21227 9.9684 -0.00199202 -0.00177102 9.9684 13.1338 1 1 
32 1.2123 9.9657 -0.00213215 -0.00188797 9.9657 13.1875 1 1 
32 1.2123 9.9657 -0.00213215 -0.00188797 9.9657 13.1875 1 1 
34 1.21231 9.96332 -0.00220564 -0.00195215 9.96332 13.2114 1 1 
36 1.21234 9.96059 -0.00234209 -0.00205467 9.96059 13.2515 1 1 
38 1.21235 9.95895 -0.00244768 -0.00215348 9.95895 13.2813 1 1 
40 1.21238 9.95695 -0.00255499 -0.00225319 9.95695 13.3311 1 1 
42 1.21241 9.95446 -0.0026764 -0.00235956 9.95446 13.3792 1 1 
44 1.21242 9.95199 -0.00277491 -0.00240907 9.95199 13.4035 1 1 
46 1.21245 9.94913 -0.00290291 -0.00250705 9.94913 13.4516 1 1 
48 1.21246 9.94742 -0.00302194 -0.00262933 9.94742 13.477 1 1 
50 1.21249 9.94596 -0.00310516 -0.00267854 9.94596 13.5273 1 1 
52 1.21252 9.94311 -0.00319996 -0.00276389 9.94311 13.5742 1 1 
54 1.21253 9.94018 -0.0033261 -0.00286177 9.94018 13.6037 1 1 
56 1.21256 9.93885 -0.00343166 -0.00294644 9.93885 13.6566 1 1 
58 1.21259 9.93678 -0.00359246 -0.00309559 9.93678 13.7055 1 1 
60 1.2126 9.93449 -0.00368111 -0.00317036 9.93449 13.735 1 1 
62 1.21263 9.93193 -0.00380034 -0.00328864 9.93193 13.7863 1 1 
64 1.21266 9.93003 -0.00392084 -0.00336623 9.93003 13.836 1 1 
64 1.21266 9.93003 -0.00392084 -0.00336623 9.93003 13.836 2 1 
66 1.21269 9.92804 -0.00403735 -0.00347106 9.92804 13.8987 2 1 
68 1.2127 9.92674 -0.00417969 -0.00359618 9.92674 13.9165 2 1 
70 1.21274 9.92419 -0.0043117 -0.00370753 9.92419 13.9756 2 1 
72 1.21277 9.9214 -0.00443055 -0.00382361 9.9214 14.0285 2 1 
74 1.21278 9.91941 -0.00455557 -0.00392584 9.91941 14.0542 2 1 
76 1.21283 9.91699 -0.00466548 -0.00404564 9.917 14.1398 2 1 
78 1.21284 9.91625 -0.00477313 -0.00411744 9.91625 14.1557 2 1 
80 1.21286 9.91406 -0.00492816 -0.00425525 9.91406 14.1989 2 1 
82 1.21289 9.91156 -0.00509137 -0.00441048 9.91156 14.2511 2 1 
84 1.21291 9.90956 -0.00517538 -0.0044622 9.90956 14.2954 2 1 
86 1.21295 9.90738 -0.00529323 -0.00455239 9.90738 14.3508 2 1 
88 1.21296 9.90569 -0.00548801 -0.00472718 9.90569 14.3775 2 1 
90 1.21299 9.90366 -0.00556394 -0.00480642 9.90366 14.4246 2 1 
92 1.21301 9.90132 -0.00571469 -0.0049159 9.90132 14.4655 2 1 
94 1.21304 9.89891 -0.00587319 -0.00505257 9.89892 14.5162 2 1 
96 1.21306 9.8971 -0.00599085 -0.00513928 9.8971 14.5649 2 1 
96 1.21306 9.8971 -0.00599085 -0.00513928 9.8971 14.5649 2 1 
98 1.21308 9.89601 -0.00616786 -0.0052742 9.89601 14.6005 2 1 
100 1.21311 9.89447 -0.00626822 -0.00535585 9.89447 14.6441 2 1 
102 1.21313 9.89227 -0.00640678 -0.00550142 9.89227 14.6812 2 1 
104 1.21316 9.8894 -0.00660874 -0.00565307 9.88941 14.7398 2 1 
106 1.21318 9.88718 -0.00670278 -0.00570999 9.88718 14.7786 2 1 
108 1.21321 9.88441 -0.00685965 -0.00585616 9.88442 14.8288 2 1 
110 1.21322 9.88299 -0.00698691 -0.00597039 9.88299 14.8503 2 1 
112 1.21324 9.8817 -0.00714644 -0.00609134 9.88171 14.8872 2 1 
114 1.21328 9.87891 -0.00728043 -0.00620413 9.87892 14.9623 2 1 
116 1.2133 9.87833 -0.0074337 -0.0063391 9.87833 14.9893 2 1 
118 1.21333 9.8767 -0.00757698 -0.00646182 9.8767 15.0408 2 1 
120 1.21336 9.87382 -0.00772319 -0.006564 9.87383 15.095 2 1 
122 1.21336 9.87224 -0.00788143 -0.00668141 9.87224 15.0926 2 1 
124 1.21338 9.86927 -0.00802237 -0.00682454 9.86928 15.1353 2 1 
126 1.21343 9.86654 -0.00821574 -0.00698523 9.86655 15.2266 2 1 
128 1.21342 9.86624 -0.0083248 -0.00705033 9.86625 15.217 2 1 
128 1.21342 9.86624 -0.0083248 -0.00705033 9.86625 15.217 10 1 
130 1.21345 9.86442 -0.00848708 -0.00724655 9.86443 15.2708 10 1 
132 1.21348 9.86348 -0.00863802 -0.00734743 9.86348 15.3245 10 1 
134 1.2135 9.86178 -0.00880516 -0.00745109 9.86179 15.3482 10 1 
136 1.21353 9.8581 -0.00894317 -0.00758025 9.8581 15.4101 10 1 
138 1.21354 9.85629 -0.00911075 -0.00771135 9.85629 15.4215 10 1 
140 1.21357 9.85493 -0.00926523 -0.00784246 9.85494 15.4794 10 1 
142 1.21359 9.85357 -0.0094095 -0.00791546 9.85358 15.5181 10 1 
144 1.21361 9.85212 -0.00957741 -0.0080821 9.85213 15.5534 10 1 
146 1.21365 9.85035 -0.0097317 -0.00819555 9.85036 15.6316 10 1 
148 1.21367 9.84739 -0.00989461 -0.00831837 9.8474 15.6653 10 1 
150 1.21367 9.84526 -0.0100254 -0.00843456 9.84527 15.6676 10 1 
152 1.21371 9.84354 -0.0101661 -0.00855283 9.84355 15.7397 10 1 
154 1.21375 9.84167 -0.0102666 -0.00862154 9.84168 15.8023 10 1 
156 1.21376 9.84067 -0.0104488 -0.00876347 9.84068 15.8302 10 1 
158 1.2138 9.8384 -0.0105899 -0.00887614 9.83841 15.8976 10 1 
160 1.21383 9.83513 -0.0106735 -0.00895611 9.83514 15.9497 10 1 
160 1.21383 9.83513 -0.0106735 -0.00895611 9.83514 15.9497 10 1 
162 1.21383 9.83403 -0.0108498 -0.00909947 9.83404 15.9461 10 1 
164 1.21386 9.83162 -0.0109713 -0.00916993 9.83163 16.0091 10 1 
166 1.21392 9.82813 -0.011135 -0.0092863 9.82814 16.1176 10 1 
168 1.21391 9.82852 -0.0112958 -0.00941515 9.82853 16.0899 10 1 
170 1.21395 9.82527 -0.0114064 -0.0095122 9.82528 16.1636 10 1 
172 1.21398 9.82358 -0.0115346 -0.00957398 9.82359 16.2184 10 1 
174 1.21398 9.82363 -0.0116026 -0.00964506 9.82364 16.2147 10 1 
176 1.21405 9.81949 -0.0117551 -0.0097286 9.8195 16.3377 10 1 
178 1.21405 9.81806 -0.0118507 -0.00979835 9.81807 16.3433 10 1 
180 1.21407 9.81547 -0.0119761 -0.0099319 9.81548 16.3785 10 1 
182 1.21409 9.81143 -0.0121177 -0.0100428 9.81144 16.4237 10 1 
184 1.21409 9.80965 -0.0122693 -0.0101426 9.80967 16.4199 10 1 
186 1.21415 9.80894 -0.0123746 -0.0102038 9.80896 16.5344 10 1 
188 1.21419 9.80735 -0.0124567 -0.0102543 9.80736 16.5923 10 1 
190 1.21418 9.80571 -0.0126127 -0.0103453 9.80572 16.5876 10 1 
192 1.2142 9.80415 -0.0125848 -0.0102807 9.80416 16.6214 10 1 
194 1.21424 9.79945 -0.0128583 -0.0104817 9.79946 16.6882 10 1 
196 1.21426 9.79551 -0.0130114 -0.0105916 9.79553 16.7339 10 1 
198 1.21428 9.79403 -0.0130042 -0.0105127 9.79404 16.7696 10 1 
200 1.21434 9.79137 -0.0132531 -0.0107416 9.79138 16.8661 10 1 
202 1.21434 9.78995 -0.013263 -0.0107544 9.78996 16.8767 10 1 
204 1.21433 9.78923 -0.0132885 -0.0107058 9.78924 16.8436 10 1 
206 1.21441 9.78467 -0.013573 -0.0108931 9.78468 17.0024 10 1 
208 1.21446 9.78238 -0.0137208 -0.0109475 9.78239 17.0842 10 1 
210 1.21443 9.78182 -0.013749 -0.0109346 9.78184 17.0399 10 1 
212 1.21452 9.77401 -0.0138853 -0.0110925 9.77403 17.1884 10 1 
214 1.21451 9.76862 -0.0139503 -0.011108 9.76864 17.1727 10 1 
216 1.21451 9.76442 -0.0141405 -0.0111808 9.76444 17.173 10 1 
218 1.2146 9.75879 -0.014375 -0.0113335 9.75881 17.337 10 1 
220 1.21462 9.76181 -0.0144378 -0.0114021 9.76183 17.3743 10 1 
222 1.21468 9.76069 -0.0144857 -0.01143 9.76071 17.4779 10 1 
224 1.21469 9.7542 -0.0145683 -0.0113456 9.75422 17.5111 10 1 
224 1.21469 9.7542 -0.0145683 -0.0113456 9.75422 17.5111 10 1 
226 1.21474 9.74826 -0.0147429 -0.0114106 9.74828 17.587 10 1 
228 1.21478 9.73747 -0.0148938 -0.0115864 9.7375 17.6702 10 1 
230 1.2148 9.72922 -0.0150771 -0.0117798 9.72924 17.7039 10 1 
232 1.21484 9.72886 -0.0152419 -0.0118262 9.72888 17.7657 10 1 
234 1.21491 9.72506 -0.0153204 -0.011758 9.72508 17.908 10 1 
236 1.21502 9.71584 -0.0154139 -0.0118475 9.71586 18.1016 10 1 
238 1.21497 9.71199 -0.0155575 -0.0119667 9.71201 18.0139 10 1 
240 1.21511 9.69861 -0.0158905 -0.0122357 9.69864 18.264 10 1 
242 1.21516 9.68885 -0.0160518 -0.0123175 9.68887 18.3504 10 1 
244 1.21512 9.68613 -0.0161239 -0.0123254 9.68615 18.2735 10 1 
246 1.21534 9.67288 -0.0162917 -0.0124494 9.6729 18.6848 10 1 
248 1.2154 9.66206 -0.0163152 -0.0123806 9.66208 18.779 10 1 
250 1.21542 9.64811 -0.0165631 -0.0125746 9.64813 18.8234 10 1 
252 1.21551 9.63475 -0.0169064 -0.0128715 9.63478 18.9843 10 1 
254 1.21565 9.62111 -0.0169306 -0.0127973 9.62114 19.2426 10 1 
256 1.21576 9.60547 -0.0170942 -0.0129195 9.6055 19.4352 10 1 
256 1.21576 9.60547 -0.0170942 -0.0129195 9.6055 19.4352 11 1 
258 1.21584 9.5873 -0.017353 -0.0131435 9.58732 19.5805 11 1 
260 1.21606 9.56693 -0.0175373 -0.0132635 9.56696 19.98 11 1 
262 1.21621 9.54291 -0.0178026 -0.0134359 9.54294 20.2413 11 1 
264 1.21622 9.51931 -0.0178775 -0.0134282 9.51934 20.2622 11 1 
266 1.21647 9.49431 -0.0179414 -0.0134622 9.49435 20.7224 11 1 
268 1.2169 9.45342 -0.0181487 -0.0136144 9.45345 21.5004 11 1 
270 1.21687 9.42383 -0.0184118 -0.0137383 9.42388 21.4433 11 1 
272 1.21714 9.38074 -0.0184807 -0.0137581 9.38078 21.924 11 1 
274 1.21769 9.32416 -0.0186409 -0.0138923 9.3242 22.9278 11 1 
276 1.21776 9.28251 -0.0188615 -0.0139963 9.28255 23.0388 11 1 
278 1.21817 9.2216 -0.0190486 -0.0141409 9.22164 23.7848 11 1 
280 1.21887 9.15776 -0.0192223 -0.0142417 9.15781 25.0553 11 1 
282 1.21936 9.07595 -0.0193267 -0.0142546 9.07614 25.9391 11 1 
284 1.21975 8.95731 -0.0193963 -0.0143413 8.95761 26.6407 11 1 
286 1.22026 8.83486 -0.0195244 -0.0144196 8.83506 27.566 11 1 
288 1.2211 8.72228 -0.0197057 -0.0145088 8.72236 29.0785 11 1 
288 1.2211 8.72228 -0.0197057 -0.0145088 8.72236 29.0785 11 1 
290 1.22211 8.61398 -0.0198635 -0.0145876 8.61409 30.9025 11 1 
292 1.22296 8.47599 -0.0200676 -0.0147746 8.47629 32.4389 11 1 
294 1.22365 8.29702 -0.0201095 -0.014768 8.29759 33.6955 11 1 
296 1.22455 8.11288 -0.0200529 -0.0147151 8.11327 35.3057 11 1 
298 1.21901 7.89437 -0.0196564 -0.0152169 7.95585 25.3029 11 1 
300 1.20935 7.808 -0.0186413 -0.0166727 7.88761 7.85133 11 1 
302 1.20618 7.76765 -0.0174972 -0.0186042 7.8173 2.12713 11 1 
304 1.20704 7.59634 -0.0163447 -0.0201728 7.63726 3.68225 11 1 
306 1.20805 7.41772 -0.0153552 -0.0213623 7.44809 5.50403 11 1 
308 1.20886 7.25282 -0.01457 -0.0224036 7.27712 6.96591 11 1 
310 1.20939 7.11429 -0.0139881 -0.0232041 7.12725 7.92092 11 1 
312 1.21001 6.97898 -0.0134771 -0.0241219 6.99149 9.0447 11 1 
314 1.21057 6.87158 -0.013144 -0.024986 6.88304 10.0564 11 1 
316 1.21103 6.78593 -0.0128135 -0.0257991 6.79683 10.8962 11 1 
318 1.21144 6.68909 -0.0124542 -0.0265987 6.69654 11.6246 11 1 
320 1.21173 6.61181 -0.0120817 -0.0272706 6.6188 12.1603 11 1 
320 1.21173 6.61181 -0.0120817 -0.0272706 6.6188 12.1603 15 1 
322 1.21204 6.55835 -0.0119343 -0.0279575 6.56517 12.7244 15 1 
324 1.21239 6.49949 -0.0117489 -0.028719 6.50598 13.3502 15 1 
326 1.21264 6.44337 -0.0113999 -0.0293435 6.44865 13.7963 15 1 
328 1.21282 6.39326 -0.0111237 -0.0299766 6.39832 14.116 15 1 
330 1.21295 6.3456 -0.0109693 -0.0306496 6.35019 14.3586 15 1 
332 1.21318 6.31257 -0.0107629 -0.0312645 6.31712 14.7841 15 1 
334 1.21343 6.2766 -0.010482 -0.0318897 6.28066 15.2311 15 1 
336 1.21344 6.2278 -0.0102681 -0.0325773 6.23171 15.2511 15 1 
338 1.2135 6.19237 -0.01015 -0.0332141 6.1961 15.36 15 1 
340 1.21374 6.17026 -0.0100977 -0.033895 6.17391 15.7861 15 1 
342 1.21387 6.14466 -0.00996339 -0.0344924 6.14803 16.0176 15 1 
344 1.21389 6.11142 -0.00981141 -0.0350203 6.11478 16.0611 15 1 
346 1.21392 6.07698 -0.00975647 -0.035681 6.08011 16.1121 15 1 
348 1.21404 6.06027 -0.00985954 -0.0364367 6.06332 16.3373 15 1 
350 1.21419 6.05078 -0.0099075 -0.0369852 6.05368 16.6044 15 1 
352 1.2142 6.02562 -0.00983824 -0.0374699 6.0285 16.6174 15 1 
354 1.21422 6.00209 -0.00982382 -0.0380047 6.00479 16.6572 15 1 
356 1.21432 5.98974 -0.00997147 -0.0386719 5.99236 16.8275 15 1 
358 1.21437 5.97757 -0.0101085 -0.0392296 5.98007 16.9156 15 1 
360 1.21442 5.96803 -0.0101167 -0.0396123 5.97051 17.0171 15 1 
362 1.21448 5.95757 -0.0100969 -0.0400198 5.95989 17.115 15 1 
364 1.2145 5.94326 -0.01019 -0.0405276 5.94551 17.1646 15 1 
366 1.21453 5.93304 -0.0103404 -0.0409426 5.93518 17.2174 15 1 
368 1.21457 5.92719 -0.0103755 -0.0413107 5.92932 17.2896 15 1 
370 1.21464 5.92284 -0.0103547 -0.0416314 5.92488 17.4072 15 1 
372 1.21467 5.91546 -0.0104021 -0.0419876 5.91743 17.4588 15 1 
374 1.21467 5.90463 -0.0104913 -0.0424253 5.9065 17.4591 15 1 
376 1.2147 5.89772 -0.0105033 -0.0427841 5.89958 17.5246 15 1 
378 1.21474 5.89353 -0.0104885 -0.0430571 5.89534 17.584 15 1 
380 1.21477 5.88953 -0.0105158 -0.0433812 5.89129 17.6489 15 1 
382 1.2148 5.88452 -0.0105718 -0.0437593 5.88621 17.704 15 1 
384 1.2148 5.87455 -0.0105554 -0.0441243 5.87623 17.7031 15 1 
384 1.2148 5.87455 -0.0105554 -0.0441243 5.87623 17.7031 16 1 
386 1.21482 5.86638 -0.0104682 -0.0444449 5.86802 17.7398 16 1 
388 1.21485 5.86342 -0.0104526 -0.0447849 5.86504 17.7909 16 1 
390 1.21487 5.85823 -0.0104943 -0.0452043 5.85982 17.8234 16 1 
392 1.21489 5.85037 -0.0104244 -0.045592 5.85194 17.8616 16 1 
394 1.21489 5.84154 -0.0103003 -0.0459847 5.84307 17.8656 16 1 
396 1.21489 5.83256 -0.0102437 -0.0463926 5.83409 17.8701 16 1 
398 1.21491 5.82634 -0.0101872 -0.0467923 5.82785 17.9038 16 1 
400 1.21493 5.82064 -0.0100564 -0.0472001 5.82213 17.9438 16 1 
402 1.21494 5.81204 -0.00997462 -0.0476839 5.8135 17.9629 16 1 
404 1.21493 5.80153 -0.0099267 -0.0481332 5.803 17.9401 16 1 
406 1.21494 5.79248 -0.009783 -0.048569 5.79391 17.9538 16 1 
408 1.21496 5.78605 -0.00964874 -0.0490132 5.78748 17.9985 16 1 
410 1.21496 5.77841 -0.00963709 -0.0495214 5.77982 17.9963 16 1 
412 1.21496 5.76896 -0.00961917 -0.0499976 5.77037 17.9924 16 1 
414 1.21497 5.7602 -0.0095246 -0.050463 5.76158 18.0078 16 1 
416 1.21497 5.75139 -0.0094679 -0.0509248 5.75277 18.0157 16 1 
416 1.21497 5.75139 -0.0094679 -0.0509248 5.75277 18.0157 16 1 
418 1.21498 5.74284 -0.00946464 -0.0514131 5.7442 18.0195 16 1 
420 1.21498 5.73515 -0.00949375 -0.051871 5.73651 18.0199 16 1 
422 1.21498 5.72695 -0.00953871 -0.0523646 5.7283 18.032 16 1 
424 1.21498 5.7181 -0.00958271 -0.0528298 5.71943 18.0338 16 1 
426 1.21497 5.70867 -0.00964596 -0.0533048 5.70998 18.0133 16 1 
428 1.21497 5.6999 -0.00976104 -0.0537607 5.70121 18.0144 16 1 
430 1.21498 5.69319 -0.00991154 -0.0542402 5.69449 18.0295 16 1 
432 1.21498 5.68605 -0.0100844 -0.0546939 5.68734 18.0255 16 1 
434 1.21497 5.67699 -0.0102416 -0.0551518 5.67826 18.0031 16 1 
436 1.21496 5.66851 -0.0104115 -0.0556036 5.66978 17.989 16 1 
438 1.21496 5.66192 -0.0105939 -0.0560725 5.66317 17.996 16 1 
440 1.21496 5.65613 -0.0107809 -0.0565272 5.65737 17.9968 16 1 
442 1.21496 5.64984 -0.0109756 -0.0570216 5.65107 17.989 16 1 
444 1.21495 5.64295 -0.0111586 -0.0575123 5.64417 17.9772 16 1 
446 1.21494 5.63645 -0.0113239 -0.0579799 5.63765 17.9519 16 1 
448 1.21493 5.63103 -0.0115113 -0.0584581 5.63222 17.9407 16 1 
448 1.21493 5.63103 -0.0115113 -0.0584581 5.63222 17.9407 17 1 
450 1.21494 5.62647 -0.011692 -0.0589483 5.62765 17.9467 17 1 
452 1.21493 5.622 -0.0118499 -0.0594232 5.62317 17.9412 17 1 
454 1.21492 5.617 -0.0120319 -0.0599258 5.61816 17.9263 17 1 
456 1.21491 5.61195 -0.012186 -0.0604192 5.6131 17.9066 17 1 
458 1.2149 5.60765 -0.0123096 -0.0608983 5.6088 17.8882 17 1 
460 1.2149 5.60425 -0.0124581 -0.0613966 5.6054 17.8815 17 1 
462 1.2149 5.60129 -0.0126377 -0.0619533 5.60243 17.8795 17 1 
464 1.21489 5.59776 -0.0127736 -0.0625073 5.5989 17.8686 17 1 
466 1.21488 5.59388 -0.0128955 -0.0630372 5.59502 17.8433 17 1 
468 1.21487 5.59104 -0.0130403 -0.0635795 5.59217 17.8219 17 1 
470 1.21486 5.58915 -0.013174 -0.0641558 5.59028 17.8101 17 1 
472 1.21485 5.58725 -0.0132909 -0.0647239 5.58838 17.799 17 1 
474 1.21485 5.58549 -0.0134277 -0.0653186 5.58662 17.7924 17 1 
476 1.21484 5.58393 -0.0135702 -0.0659461 5.58506 17.7806 17 1 
478 1.21483 5.58267 -0.0137066 -0.0665899 5.5838 17.7596 17 1 
480 1.21482 5.58241 -0.0138735 -0.0672847 5.58354 17.7442 17 1 
480 1.21482 5.58241 -0.0138735 -0.0672847 5.58354 17.7442 17 1 
482 1.21482 5.58264 -0.0140327 -0.0680161 5.58377 17.7293 17 1 
484 1.21481 5.58281 -0.0141468 -0.0687153 5.58395 17.7121 17 1 
486 1.2148 5.58332 -0.0142577 -0.0693905 5.58446 17.7018 17 1 
488 1.2148 5.58436 -0.0143535 -0.0700938 5.5855 17.6928 17 1 
490 1.21479 5.58616 -0.0144102 -0.070852 5.58731 17.6795 17 1 
492 1.21478 5.58846 -0.0145195 -0.0716304 5.58961 17.6636 17 1 
494 1.21477 5.5906 -0.0147248 -0.072383 5.59175 17.6473 17 1 
496 1.21476 5.59279 -0.0149089 -0.0730939 5.59395 17.6338 17 1 
498 1.21476 5.59551 -0.0150296 -0.0738147 5.59667 17.6212 17 1 
500 1.21475 5.59881 -0.0151688 -0.0745163 5.59998 17.612 17 1 
502 1.21475 5.60242 -0.0153374 -0.0751436 5.60359 17.6025 17 1 
504 1.21473 5.60557 -0.0155074 -0.0756242 5.60674 17.5795 17 1 
506 1.21472 5.60865 -0.0156689 -0.0760069 5.60982 17.553 17 1 
508 1.21471 5.61263 -0.0158249 -0.0764726 5.6138 17.5412 17 1 
510 1.21471 5.6169 -0.0159615 -0.0771519 5.61807 17.5379 17 1 
512 1.2147 5.62094 -0.0160936 -0.0779569 5.62212 17.5276 17 1 
512 1.2147 5.62094 -0.0160936 -0.0779569 5.62212 17.5276 25 1 
514 1.21469 5.62499 -0.0162615 -0.0787235 5.62618 17.5081 25 1 
516 1.21468 5.62898 -0.0164788 -0.0793275 5.63016 17.4835 25 1 
518 1.21467 5.63289 -0.0167509 -0.079771 5.63408 17.4589 25 1 
520 1.21466 5.63704 -0.0171062 -0.0801401 5.63822 17.4409 25 1 
522 1.21465 5.6414 -0.0174718 -0.0805327 5.64258 17.4301 25 1 
524 1.21464 5.64565 -0.017837 -0.0810103 5.64683 17.4176 25 1 
526 1.21463 5.64947 -0.0182178 -0.0815628 5.65066 17.3959 25 1 
528 1.21462 5.65321 -0.0185798 -0.0821389 5.65439 17.3691 25 1 
530 1.2146 5.65707 -0.0189464 -0.0827562 5.65826 17.3435 25 1 
532 1.21459 5.66075 -0.0193547 -0.083384 5.66194 17.3205 25 1 
534 1.21458 5.66438 -0.019789 -0.0840003 5.66557 17.3046 25 1 
536 1.21457 5.66784 -0.020271 -0.0846309 5.66904 17.2896 25 1 
538 1.21456 5.67088 -0.0207881 -0.0852619 5.67208 17.2611 25 1 
540 1.21454 5.67366 -0.0213146 -0.0858681 5.67487 17.226 25 1 
542 1.21452 5.67644 -0.0218679 -0.0864767 5.67764 17.1968 25 1 
544 1.21451 5.67919 -0.0224497 -0.0870691 5.6804 17.1743 25 1 
544 1.21451 5.67919 -0.0224497 -0.0870691 5.6804 17.1743 25 1 
546 1.2145 5.68172 -0.0230582 -0.0876553 5.68293 17.1545 25 1 
548 1.21448 5.68398 -0.0236844 -0.0882386 5.6852 17.1314 25 1 
550 1.21447 5.68606 -0.0243197 -0.0888035 5.68729 17.1024 25 1 
552 1.21445 5.68796 -0.0249605 -0.0893325 5.68919 17.0658 25 1 
554 1.21443 5.68982 -0.0255903 -0.0898464 5.69106 17.031 25 1 
556 1.21441 5.69171 -0.0262356 -0.090342 5.69295 17.0046 25 1 
558 1.2144 5.69335 -0.0268632 -0.0908183 5.6946 16.9772 25 1 
560 1.21438 5.6949 -0.0275119 -0.0912863 5.69616 16.9463 25 1 
562 1.21436 5.6966 -0.0281386 -0.0917258 5.69787 16.9148 25 1 
564 1.21434 5.6982 -0.0287515 -0.0921554 5.69947 16.8795 25 1 
566 1.21433 5.69972 -0.0293394 -0.0925682 5.701 16.8446 25 1 
568 1.21431 5.70123 -0.0299091 -0.0929532 5.70251 16.8157 25 1 
570 1.21429 5.70276 -0.0304788 -0.0933401 5.70405 16.7852 25 1 
572 1.21427 5.70441 -0.0310145 -0.0937221 5.7057 16.7519 25 1 
574 1.21425 5.70601 -0.0315462 -0.0941096 5.70731 16.7138 25 1 
576 1.21423 5.70747 -0.0320517 -0.0944862 5.70878 16.6719 25 1 
576 1.21423 5.70747 -0.0320517 -0.0944862 5.70878 16.6719 26 1 
578 1.21421 5.70892 -0.0325577 -0.0948702 5.71023 16.6349 26 1 
580 1.21419 5.71055 -0.0330344 -0.0952578 5.71187 16.6028 26 1 
582 1.21418 5.71231 -0.0335052 -0.0956594 5.71364 16.575 26 1 
584 1.21416 5.71393 -0.0339726 -0.0960651 5.71527 16.5403 26 1 
586 1.21413 5.71532 -0.0344066 -0.0964701 5.71666 16.4964 26 1 
588 1.21411 5.71662 -0.0348701 -0.0968981 5.71797 16.4553 26 1 
590 1.21409 5.71788 -0.0352989 -0.0973238 5.71924 16.4165 26 1 
592 1.21407 5.71912 -0.0357474 -0.0977785 5.72049 16.3797 26 1 
594 1.21405 5.7204 -0.0361819 -0.0982378 5.72178 16.3448 26 1 
596 1.21403 5.72133 -0.0366063 -0.0987059 5.72272 16.3044 26 1 
598 1.214 5.72196 -0.0370519 -0.0992053 5.72335 16.259 26 1 
600 1.21398 5.7226 -0.0375021 -0.0997306 5.72401 16.2204 26 1 
602 1.21396 5.72334 -0.0379824 -0.100281 5.72476 16.1853 26 1 
604 1.21394 5.72383 -0.0384467 -0.100842 5.72526 16.147 26 1 
606 1.21392 5.72402 -0.0389235 -0.10141 5.72547 16.1034 26 1 
608 1.21389 5.72413 -0.0394166 -0.101981 5.72559 16.0584 26 1 
608 1.21389 5.72413 -0.0394166 -0.101981 5.72559 16.0584 26 1 
610 1.21387 5.72423 -0.0399233 -0.102568 5.7257 16.0151 26 1 
612 1.21384 5.72429 -0.0404568 -0.103181 5.72577 15.9744 26 1 
614 1.21382 5.72435 -0.0409991 -0.103805 5.72585 15.9384 26 1 
616 1.2138 5.72445 -0.0415955 -0.104454 5.72597 15.8994 26 1 
618 1.21378 5.72439 -0.0421942 -0.105112 5.72592 15.8544 26 1 
620 1.21375 5.72444 -0.0428037 -0.105756 5.72598 15.809 26 1 
622 1.21373 5.72475 -0.043415 -0.106393 5.72631 15.768 26 1 
624 1.21371 5.72532 -0.0440768 -0.107044 5.72689 15.7324 26 1 
626 1.21369 5.726 -0.0447567 -0.107685 5.72759 15.6973 26 1 
628 1.21367 5.72687 -0.0454529 -0.108296 5.72847 15.6548 26 1 
630 1.21364 5.72796 -0.0461732 -0.1089 5.72958 15.6099 26 1 
632 1.21362 5.72941 -0.0469044 -0.109476 5.73105 15.566 26 1 
634 1.2136 5.73124 -0.0476522 -0.110021 5.73289 15.5266 26 1 
636 1.21358 5.73349 -0.0484228 -0.110531 5.73515 15.4919 26 1 
638 1.21356 5.73601 -0.0491962 -0.110995 5.73768 15.461 26 1 
640 1.21354 5.73881 -0.04997 -0.111401 5.7405 15.4254 26 1 
642 1.21352 5.74198 -0.0507369 -0.111751 5.74367 15.3822 26 1 
644 1.21349 5.74521 -0.0514841 -0.112043 5.74691 15.3412 26 1 
646 1.21347 5.74871 -0.0522334 -0.112316 5.75042 15.3013 26 1 
648 1.21345 5.75269 -0.0529809 -0.112546 5.75441 15.2642 26 1 
650 1.21343 5.75685 -0.0537447 -0.11276 5.75857 15.235 26 1 
652 1.21342 5.76135 -0.0545129 -0.112943 5.76308 15.202 26 1 
654 1.2134 5.76597 -0.0552413 -0.113055 5.7677 15.1641 26 1 
656 1.21337 5.77059 -0.0559722 -0.113111 5.77233 15.1263 26 1 
658 1.21335 5.77558 -0.0566386 -0.113042 5.77731 15.0857 26 1 
660 1.21333 5.78035 -0.0572904 -0.11289 5.78208 15.0517 26 1 
662 1.21331 5.78527 -0.057939 -0.112693 5.787 15.0162 26 1 
664 1.2133 5.79005 -0.0585068 -0.112436 5.79177 14.9834 26 1 
666 1.21328 5.79449 -0.0591311 -0.112209 5.7962 14.9516 26 1 
668 1.21326 5.79884 -0.0597677 -0.11197 5.80055 14.9111 26 1 
670 1.21323 5.80304 -0.0603126 -0.111697 5.80474 14.8725 26 1 
672 1.21321 5.8071 -0.0609846 -0.111446 5.8088 14.8364 26 1 
672 1.21321 5.8071 -0.0609846 -0.111446 5.8088 14.8364 27 1 
674 1.21319 5.81108 -0.0615196 -0.111103 5.81277 14.8018 27 1 
676 1.21318 5.81499 -0.0620725 -0.110694 5.81667 14.7699 27 1 
678 1.21316 5.81844 -0.0626423 -0.110196 5.82011 14.739 27 1 
680 1.21314 5.82166 -0.0631275 -0.109594 5.82331 14.7036 27 1 
682 1.21312 5.82428 -0.0636757 -0.108973 5.82592 14.6688 27 1 
684 1.2131 5.82666 -0.0642182 -0.108312 5.82829 14.632 27 1 
686 1.21308 5.82859 -0.0648203 -0.10767 5.8302 14.5979 27 1 
688 1.21306 5.83042 -0.0654789 -0.107054 5.83203 14.5649 27 1 
690 1.21305 5.83208 -0.0661714 -0.106427 5.83367 14.5339 27 1 
692 1.21303 5.83375 -0.0668526 -0.105778 5.83533 14.5026 27 1 
694 1.21301 5.83521 -0.0675581 -0.105069 5.83677 14.4749 27 1 
696 1.213 5.83654 -0.0681957 -0.104226 5.83809 14.4431 27 1 
698 1.21298 5.83771 -0.0688323 -0.103267 5.83925 14.4088 27 1 
700 1.21296 5.83821 -0.069496 -0.102174 5.83973 14.3794 27 1 
702 1.21294 5.83847 -0.0700755 -0.100996 5.83997 14.3449 27 1 
704 1.21292 5.83829 -0.0707362 -0.0998 5.83976 14.3134 27 1 
704 1.21292 5.83829 -0.0707362 -0.0998 5.83976 14.3134 31 1 
706 1.21291 5.83786 -0.0714408 -0.0986685 5.83931 14.2893 31 1 
708 1.2129 5.83728 -0.0721838 -0.097582 5.83872 14.2669 31 1 
710 1.21288 5.83688 -0.0730574 -0.0966371 5.83832 14.2343 31 1 
712 1.21286 5.83666 -0.0738551 -0.0957606 5.83808 14.2042 31 1 
714 1.21285 5.8364 -0.0748195 -0.0948996 5.83781 14.182 31 1 
716 1.21283 5.83685 -0.0756006 -0.0938998 5.83825 14.1472 31 1 
718 1.21282 5.83744 -0.0764065 -0.0928161 5.83883 14.1248 31 1 
720 1.21281 5.83841 -0.0772853 -0.0915665 5.83978 14.1068 31 1 
722 1.2128 5.83941 -0.0779967 -0.0900622 5.84076 14.0803 31 1 
724 1.21278 5.8404 -0.0787721 -0.0884519 5.84173 14.0512 31 1 
726 1.21277 5.8412 -0.0794916 -0.086797 5.8425 14.0328 31 1 
728 1.21276 5.84153 -0.0801881 -0.0851134 5.84281 14.0168 31 1 
730 1.21274 5.84255 -0.0809333 -0.0836434 5.84382 13.9813 31 1 
732 1.21273 5.84359 -0.0817585 -0.0824437 5.84485 13.9676 31 1 
734 1.21273 5.8449 -0.0827879 -0.0816022 5.84615 13.9593 31 1 
736 1.21271 5.84786 -0.0836074 -0.0808225 5.84911 13.9222 31 1 
738 1.2127 5.85154 -0.0849246 -0.080197 5.85279 13.9022 31 1 
740 1.21269 5.85598 -0.0856884 -0.079231 5.85723 13.8986 31 1 
742 1.21268 5.86218 -0.0866253 -0.0781088 5.86342 13.8721 31 1 
744 1.21267 5.86835 -0.0876906 -0.0767086 5.86958 13.8541 31 1 
746 1.21267 5.87502 -0.08785 -0.074583 5.87622 13.847 31 1 
748 1.21266 5.88085 -0.0883638 -0.07209 5.88201 13.8332 31 1 
750 1.21264 5.88622 -0.0885623 -0.0694908 5.88735 13.8008 31 1 
752 1.21263 5.89121 -0.0888301 -0.0669576 5.89231 13.7869 31 1 
752 1.21263 5.89121 -0.0888301 -0.0669576 5.89231 13.7869 31 1 
754 1.21264 5.89414 -0.0892492 -0.0646671 5.89521 13.7964 31 1 
756 1.21262 5.89799 -0.0897742 -0.0629155 5.89905 13.7575 31 1 
758 1.2126 5.90217 -0.090814 -0.0618979 5.90323 13.7334 31 1 
760 1.21261 5.90653 -0.0917522 -0.0608116 5.90759 13.7488 31 1 
762 1.2126 5.91295 -0.0931446 -0.0601801 5.91402 13.7198 31 1 
764 1.21257 5.92197 -0.0946125 -0.0596032 5.92306 13.6719 31 1 
766 1.21258 5.93034 -0.095533 -0.0579214 5.93142 13.6975 31 1 
768 1.21257 5.94179 -0.0962844 -0.0556462 5.94286 13.674 31 1 
770 1.21255 5.95253 -0.0974076 -0.0532788 5.95359 13.6399 31 1 
772 1.21255 5.96199 -0.0970868 -0.0493291 5.96301 13.63 31 1 
774 1.21254 5.96981 -0.0967293 -0.0449767 5.97078 13.6115 31 1 
776 1.21251 5.97651 -0.0963108 -0.040767 5.97743 13.5582 31 1 
778 1.21249 5.98077 -0.0956346 -0.0365099 5.98165 13.535 31 1 
780 1.21249 5.9817 -0.0947783 -0.0328145 5.98255 13.5348 31 1 
782 1.21246 5.98203 -0.0950733 -0.0304775 5.98287 13.4655 31 1 
784 1.21241 5.98147 -0.0970144 -0.0296844 5.98233 13.3836 31 1 
786 1.21237 5.98567 -0.0973597 -0.0282145 5.98653 13.3097 31 1 
788 1.21236 5.98884 -0.0985431 -0.0276782 5.98972 13.2914 31 1 
790 1.21226 6.00076 -0.101279 -0.0277236 6.00168 13.1115 31 1 
792 1.2122 6.01251 -0.105377 -0.0284374 6.0135 12.9997 31 1 
794 1.21212 6.03391 -0.107989 -0.028851 6.03495 12.8566 31 1 
796 1.21199 6.06267 -0.111948 -0.02792 6.06378 12.6281 31 1 
798 1.21179 6.10447 -0.123024 -0.0297539 6.10581 12.2607 31 1 
800 1.2116 6.13808 -0.130494 -0.0321272 6.13959 11.9238 31 1 
