84.2252;r ;Density                 ;Velocity u              ;Velocity v              ;Velocity w              ;|Velocity|              ;Pressure                ;Distribution            ;Levels                  ;
0 1.22074 9.99915 -0.000125767 -1.39109e-05 9.99915 28.4247 1 1 
2 1.22076 9.99763 -0.000154502 -6.43418e-05 9.99763 28.472 1 1 
4 1.22077 9.99628 -0.000358783 -0.000221957 9.99628 28.4837 1 1 
6 1.22077 9.99579 -0.000497811 -0.000334706 9.99579 28.4843 1 1 
8 1.22078 9.99523 -0.000645543 -0.000451691 9.99523 28.5075 1 1 
10 1.22078 9.99463 -0.000787019 -0.000554495 9.99463 28.5042 1 1 
12 1.22079 9.99322 -0.000928403 -0.000669381 9.99322 28.5226 1 1 
14 1.22079 9.99304 -0.00111482 -0.000805399 9.99304 28.5215 1 1 
16 1.22081 9.99232 -0.00124217 -0.000900772 9.99232 28.5491 1 1 
18 1.2208 9.99078 -0.00140834 -0.00101777 9.99078 28.5464 1 1 
20 1.22079 9.99044 -0.00161562 -0.0011719 9.99044 28.5241 1 1 
22 1.22082 9.98983 -0.00179703 -0.00130548 9.98983 28.577 1 1 
24 1.22082 9.98974 -0.00198721 -0.00146125 9.98974 28.578 1 1 
26 1.22081 9.98876 -0.00215055 -0.00157676 9.98876 28.5646 1 1 
28 1.22082 9.98746 -0.00232565 -0.0017178 9.98746 28.5729 1 1 
30 1.22082 9.98695 -0.00247171 -0.00184793 9.98695 28.5683 1 1 
32 1.22083 9.98564 -0.0026531 -0.00199276 9.98564 28.5853 1 1 
32 1.22083 9.98564 -0.0026531 -0.00199276 9.98564 28.5853 1 1 
34 1.22082 9.98462 -0.00278605 -0.00209245 9.98462 28.5731 1 1 
36 1.22082 9.98326 -0.00299495 -0.00224069 9.98326 28.5746 1 1 
38 1.22081 9.98305 -0.00317029 -0.00238244 9.98306 28.5622 1 1 
40 1.22082 9.98246 -0.00335389 -0.00252734 9.98246 28.5705 1 1 
42 1.22082 9.98137 -0.00355112 -0.00268537 9.98138 28.5784 1 1 
44 1.22081 9.9803 -0.00371712 -0.00278946 9.9803 28.5581 1 1 
46 1.22081 9.97886 -0.00392247 -0.00295182 9.97886 28.5609 1 1 
48 1.2208 9.97857 -0.00411645 -0.00313282 9.97858 28.5425 1 1 
50 1.2208 9.97858 -0.00426196 -0.00322951 9.97858 28.5463 1 1 
52 1.2208 9.97724 -0.00443712 -0.0033773 9.97724 28.5426 1 1 
54 1.22079 9.97578 -0.00464651 -0.00353373 9.97578 28.5202 1 1 
56 1.22079 9.9759 -0.00481476 -0.00365971 9.9759 28.5228 1 1 
58 1.22079 9.97534 -0.00505035 -0.00387272 9.97534 28.5193 1 1 
60 1.22077 9.97454 -0.00522661 -0.00402411 9.97455 28.4927 1 1 
62 1.22077 9.97344 -0.00541477 -0.00419585 9.97345 28.4878 1 1 
64 1.22077 9.97307 -0.00560902 -0.00433333 9.97307 28.4797 1 1 
64 1.22077 9.97307 -0.00560902 -0.00433333 9.97307 28.4797 2 1 
66 1.22077 9.97266 -0.00580335 -0.00450382 9.97266 28.4833 2 1 
68 1.22075 9.9729 -0.00601074 -0.00468151 9.97291 28.443 2 1 
70 1.22075 9.97178 -0.00620803 -0.00484345 9.97179 28.4446 2 1 
72 1.22074 9.97046 -0.00638369 -0.00500896 9.97047 28.4383 2 1 
74 1.22072 9.97002 -0.00654736 -0.00514385 9.97002 28.4011 2 1 
76 1.22074 9.96905 -0.00671059 -0.00530593 9.96905 28.4243 2 1 
78 1.22071 9.96969 -0.00687058 -0.00541673 9.96969 28.3817 2 1 
80 1.2207 9.96893 -0.00704991 -0.00556873 9.96893 28.366 2 1 
82 1.2207 9.96792 -0.00725893 -0.00576019 9.96793 28.3583 2 1 
84 1.22069 9.96727 -0.00740615 -0.00586409 9.96727 28.3416 2 1 
86 1.22069 9.96641 -0.00754811 -0.0059637 9.96642 28.3352 2 1 
88 1.22067 9.9661 -0.00776264 -0.00615062 9.9661 28.2996 2 1 
90 1.22066 9.96544 -0.00788836 -0.00627651 9.96545 28.2852 2 1 
92 1.22065 9.96446 -0.0080676 -0.00640026 9.96447 28.2653 2 1 
94 1.22064 9.96336 -0.00823011 -0.00653039 9.96336 28.2533 2 1 
96 1.22063 9.96291 -0.00837156 -0.00664464 9.96292 28.2373 2 1 
96 1.22063 9.96291 -0.00837156 -0.00664464 9.96292 28.2373 2 1 
98 1.22062 9.96312 -0.00857172 -0.00680331 9.96312 28.2079 2 1 
100 1.22061 9.96287 -0.00867411 -0.00687687 9.96287 28.1866 2 1 
102 1.22059 9.96202 -0.00881276 -0.00701649 9.96203 28.1579 2 1 
104 1.22058 9.96043 -0.00902543 -0.00717763 9.96043 28.1503 2 1 
106 1.22057 9.9595 -0.00913709 -0.00723882 9.95951 28.1229 2 1 
108 1.22056 9.95802 -0.00929637 -0.00736711 9.95803 28.106 2 1 
110 1.22053 9.95782 -0.0094064 -0.00745624 9.95782 28.059 2 1 
112 1.22052 9.95779 -0.00956672 -0.00757375 9.9578 28.0275 2 1 
114 1.22052 9.95623 -0.00971241 -0.00767932 9.95624 28.037 2 1 
116 1.2205 9.95689 -0.00983991 -0.00776743 9.95689 27.9976 2 1 
118 1.22049 9.95643 -0.00995133 -0.00785167 9.95644 27.9794 2 1 
120 1.22048 9.95465 -0.010113 -0.00795385 9.95465 27.9651 2 1 
122 1.22044 9.95418 -0.0102674 -0.00804151 9.95419 27.8946 2 1 
124 1.22043 9.95233 -0.0103675 -0.00812329 9.95234 27.8701 2 1 
126 1.22044 9.95073 -0.0105507 -0.00826398 9.95074 27.8969 2 1 
128 1.2204 9.9515 -0.0106663 -0.00831762 9.95151 27.8208 2 1 
128 1.2204 9.9515 -0.0106663 -0.00831762 9.95151 27.8208 10 1 
130 1.2204 9.95072 -0.0108011 -0.00846423 9.95073 27.8075 10 1 
132 1.22039 9.95077 -0.0109211 -0.00852279 9.95078 27.7912 10 1 
134 1.22036 9.95003 -0.01108 -0.00861467 9.95004 27.743 10 1 
136 1.22035 9.94736 -0.0112013 -0.0087158 9.94736 27.7346 10 1 
138 1.22032 9.94647 -0.0113531 -0.00881254 9.94648 27.6751 10 1 
140 1.22032 9.94613 -0.0115027 -0.00892852 9.94614 27.6649 10 1 
142 1.2203 9.94583 -0.0116395 -0.00898716 9.94584 27.6335 10 1 
144 1.22028 9.94532 -0.0118154 -0.00913621 9.94533 27.5942 10 1 
146 1.22028 9.9445 -0.011975 -0.00922713 9.94451 27.5966 10 1 
148 1.22025 9.94242 -0.0121346 -0.00933344 9.94244 27.5542 10 1 
150 1.22021 9.94127 -0.0122702 -0.00944412 9.94128 27.4821 10 1 
152 1.22021 9.94043 -0.012429 -0.00955914 9.94045 27.4792 10 1 
154 1.22021 9.93942 -0.012525 -0.00960882 9.93944 27.4646 10 1 
156 1.22018 9.93936 -0.012722 -0.00975688 9.93937 27.4129 10 1 
158 1.22017 9.93788 -0.0128941 -0.00988189 9.93789 27.3996 10 1 
160 1.22015 9.9355 -0.0129903 -0.00994516 9.93551 27.3727 10 1 
160 1.22015 9.9355 -0.0129903 -0.00994516 9.93551 27.3727 10 1 
162 1.22011 9.93525 -0.0131849 -0.0100884 9.93527 27.2896 10 1 
164 1.2201 9.93366 -0.0133467 -0.010187 9.93367 27.2756 10 1 
166 1.22012 9.93102 -0.013535 -0.010305 9.93104 27.308 10 1 
168 1.22006 9.93215 -0.0137254 -0.0104393 9.93216 27.1985 10 1 
170 1.22005 9.92964 -0.0138885 -0.0105793 9.92965 27.1896 10 1 
172 1.22004 9.92861 -0.0140431 -0.0106557 9.92862 27.1624 10 1 
174 1.21999 9.92938 -0.0141351 -0.0107235 9.9294 27.0806 10 1 
176 1.22002 9.92602 -0.0143529 -0.0108434 9.92603 27.1294 10 1 
178 1.21998 9.92526 -0.0145046 -0.0109512 9.92527 27.0559 10 1 
180 1.21995 9.92336 -0.0146587 -0.0110923 9.92338 27.0108 10 1 
182 1.21993 9.91995 -0.0148659 -0.0112434 9.91996 26.9764 10 1 
184 1.21989 9.91867 -0.0150971 -0.0114022 9.91869 26.8932 10 1 
186 1.21991 9.91853 -0.0152321 -0.0114813 9.91855 26.9329 10 1 
188 1.2199 9.91758 -0.0153644 -0.0115567 9.9176 26.9168 10 1 
190 1.21986 9.91654 -0.0156099 -0.011715 9.91656 26.8373 10 1 
192 1.21983 9.91552 -0.0156388 -0.0116996 9.91554 26.7952 10 1 
194 1.21983 9.91134 -0.0159665 -0.0119357 9.91136 26.7833 10 1 
196 1.21981 9.90789 -0.0162064 -0.012098 9.90791 26.7506 10 1 
198 1.21979 9.90686 -0.0162744 -0.0120739 9.90688 26.7119 10 1 
200 1.2198 9.90474 -0.0165798 -0.0123561 9.90476 26.739 10 1 
202 1.21977 9.90387 -0.0166592 -0.012421 9.90389 26.6798 10 1 
204 1.21971 9.9036 -0.016763 -0.0124224 9.90363 26.5722 10 1 
206 1.21976 9.89939 -0.0171233 -0.0126745 9.89942 26.6572 10 1 
208 1.21976 9.8975 -0.017356 -0.0128058 9.89752 26.6658 10 1 
210 1.2197 9.89742 -0.0174564 -0.0128346 9.89745 26.5477 10 1 
212 1.21974 9.89007 -0.0176678 -0.0130307 9.8901 26.626 10 1 
214 1.21969 9.88512 -0.0178193 -0.0131203 9.88515 26.54 10 1 
216 1.21965 9.88132 -0.0180795 -0.0132572 9.88134 26.4699 10 1 
218 1.21971 9.87605 -0.0183919 -0.0134566 9.87608 26.5637 10 1 
220 1.21969 9.87937 -0.0185525 -0.0135937 9.8794 26.529 10 1 
222 1.21971 9.87858 -0.0186816 -0.0136907 9.8786 26.5631 10 1 
224 1.21969 9.87249 -0.0188201 -0.0136439 9.87251 26.5271 10 1 
224 1.21969 9.87249 -0.0188201 -0.0136439 9.87251 26.5271 10 1 
226 1.21969 9.86696 -0.0190764 -0.0137581 9.86699 26.5358 10 1 
228 1.2197 9.85647 -0.0193101 -0.0139903 9.85651 26.5492 10 1 
230 1.21968 9.84848 -0.0195429 -0.0142195 9.84851 26.5084 10 1 
232 1.21967 9.84846 -0.0197745 -0.0143098 9.84849 26.4996 10 1 
234 1.21971 9.84492 -0.0199474 -0.0143064 9.84495 26.5767 10 1 
236 1.21979 9.83591 -0.0201024 -0.0144389 9.83594 26.7082 10 1 
238 1.2197 9.83235 -0.0202746 -0.014575 9.83238 26.5487 10 1 
240 1.2198 9.81923 -0.0206772 -0.0148834 9.81926 26.731 10 1 
242 1.21981 9.80965 -0.0209096 -0.0149992 9.80969 26.7481 10 1 
244 1.21972 9.80707 -0.0210008 -0.0150054 9.80711 26.5968 10 1 
246 1.21992 9.794 -0.0211891 -0.0151335 9.79404 26.9471 10 1 
248 1.21994 9.78343 -0.0212803 -0.0151003 9.78347 26.9772 10 1 
250 1.21992 9.76966 -0.0215905 -0.0153175 9.7697 26.958 10 1 
252 1.21998 9.75647 -0.0219576 -0.0156225 9.75651 27.0506 10 1 
254 1.22008 9.7428 -0.0220109 -0.0155558 9.74284 27.2397 10 1 
256 1.22015 9.72717 -0.0221923 -0.0156608 9.72721 27.3661 10 1 
256 1.22015 9.72717 -0.0221923 -0.0156608 9.72721 27.3661 11 1 
258 1.22019 9.70902 -0.022463 -0.0158624 9.70906 27.4453 11 1 
260 1.22039 9.68876 -0.0226535 -0.0159803 9.6888 27.7901 11 1 
262 1.2205 9.66483 -0.0229578 -0.0161678 9.66488 27.9905 11 1 
264 1.22047 9.64114 -0.0230876 -0.0161774 9.64118 27.9394 11 1 
266 1.22069 9.61613 -0.0232038 -0.0162452 9.61618 28.3419 11 1 
268 1.2211 9.57494 -0.0234559 -0.0164279 9.57499 29.072 11 1 
270 1.22102 9.54532 -0.0237468 -0.0165459 9.54538 28.945 11 1 
272 1.22126 9.50206 -0.0238396 -0.0165596 9.50212 29.3692 11 1 
274 1.22179 9.44501 -0.0240141 -0.0166914 9.44507 30.3333 11 1 
276 1.22182 9.40317 -0.0242262 -0.0167572 9.40323 30.379 11 1 
278 1.2222 9.3418 -0.0244203 -0.0168626 9.34186 31.0742 11 1 
280 1.22289 9.27743 -0.0245987 -0.0169477 9.2775 32.3169 11 1 
282 1.22336 9.19488 -0.0246706 -0.0169263 9.19509 33.1622 11 1 
284 1.22372 9.07506 -0.024686 -0.0169585 9.07538 33.8163 11 1 
286 1.22421 8.95146 -0.0247839 -0.0169953 8.95167 34.7026 11 1 
288 1.22504 8.8378 -0.0249574 -0.0170496 8.8379 36.1937 11 1 
288 1.22504 8.8378 -0.0249574 -0.0170496 8.8379 36.1937 11 1 
290 1.22604 8.72849 -0.0250976 -0.0170759 8.72862 38.0067 11 1 
292 1.22688 8.58902 -0.0252734 -0.0172156 8.58933 39.5247 11 1 
294 1.22757 8.40803 -0.0252557 -0.0171488 8.40862 40.7581 11 1 
296 1.22846 8.22161 -0.0251154 -0.0170267 8.22202 42.3662 11 1 
298 1.22269 7.99978 -0.0245706 -0.0175539 8.05966 31.9556 11 1 
300 1.21269 7.91435 -0.0233763 -0.0192714 7.99183 13.8865 11 1 
302 1.2094 7.87665 -0.0220496 -0.021557 7.92511 7.94566 11 1 
304 1.21025 7.70487 -0.0206871 -0.0233922 7.74489 9.47682 11 1 
306 1.21125 7.52572 -0.0195262 -0.0247705 7.55551 11.2838 11 1 
308 1.21204 7.36049 -0.0185997 -0.0259492 7.38438 12.7218 11 1 
310 1.21255 7.22202 -0.0179155 -0.0268302 7.2348 13.6398 11 1 
312 1.21316 7.0868 -0.0173213 -0.0278389 7.09912 14.7308 11 1 
314 1.2137 6.97999 -0.0169318 -0.0287794 6.9913 15.7083 11 1 
316 1.21414 6.89522 -0.0165546 -0.0296556 6.90599 16.5123 11 1 
318 1.21452 6.79922 -0.0161508 -0.030509 6.80658 17.2037 11 1 
320 1.2148 6.72312 -0.0157385 -0.0312269 6.73005 17.6958 11 1 
320 1.2148 6.72312 -0.0157385 -0.0312269 6.73005 17.6958 15 1 
322 1.21509 6.67107 -0.0155761 -0.03196 6.67783 18.2167 15 1 
324 1.21541 6.61352 -0.0153816 -0.0327853 6.61997 18.8009 15 1 
326 1.21563 6.55876 -0.0150052 -0.0334491 6.56402 19.199 15 1 
328 1.21578 6.51016 -0.0147097 -0.0340902 6.5152 19.4686 15 1 
330 1.21589 6.46414 -0.0145416 -0.0347543 6.46872 19.662 15 1 
332 1.2161 6.4328 -0.0143137 -0.0353583 6.43734 20.0449 15 1 
334 1.21632 6.39846 -0.014007 -0.0359964 6.40252 20.447 15 1 
336 1.2163 6.35131 -0.0137841 -0.0367183 6.35522 20.4085 15 1 
338 1.21633 6.31769 -0.0136614 -0.0373876 6.32143 20.4653 15 1 
340 1.21654 6.29749 -0.0136093 -0.0381145 6.30115 20.8495 15 1 
342 1.21664 6.27376 -0.013456 -0.0387638 6.27715 21.0322 15 1 
344 1.21664 6.24231 -0.013295 -0.039346 6.24569 21.0218 15 1 
346 1.21664 6.20969 -0.0132355 -0.0400698 6.21284 21.0203 15 1 
348 1.21674 6.19497 -0.0133369 -0.0408922 6.19804 21.199 15 1 
350 1.21686 6.18737 -0.0133696 -0.0415037 6.1903 21.4199 15 1 
352 1.21684 6.16393 -0.0132765 -0.042074 6.16683 21.3793 15 1 
354 1.21683 6.14216 -0.0132357 -0.0427193 6.14488 21.3683 15 1 
356 1.2169 6.13156 -0.0133593 -0.0435277 6.1342 21.4931 15 1 
358 1.21692 6.12108 -0.0134704 -0.0442526 6.1236 21.5334 15 1 
360 1.21695 6.11313 -0.0134298 -0.0448199 6.11564 21.5863 15 1 
362 1.21698 6.10404 -0.0133501 -0.0454442 6.1064 21.6336 15 1 
364 1.21698 6.09108 -0.0133797 -0.0462113 6.09336 21.6323 15 1 
366 1.21698 6.08211 -0.0134647 -0.046897 6.08429 21.6355 15 1 
368 1.21699 6.07737 -0.0134402 -0.0475485 6.07954 21.6592 15 1 
370 1.21703 6.07406 -0.0133573 -0.0481382 6.07614 21.7301 15 1 
372 1.21703 6.06754 -0.01334 -0.0487626 6.06955 21.7333 15 1 
374 1.21701 6.0575 -0.0133615 -0.0494688 6.05942 21.6838 15 1 
376 1.21701 6.05128 -0.0133138 -0.0501031 6.05319 21.7012 15 1 
378 1.21702 6.04765 -0.0132511 -0.0506491 6.0495 21.7124 15 1 
380 1.21703 6.04411 -0.0132362 -0.0512551 6.04593 21.7289 15 1 
382 1.21703 6.03945 -0.0132575 -0.0519125 6.04119 21.7346 15 1 
384 1.217 6.02971 -0.0132056 -0.0525574 6.03145 21.6827 15 1 
384 1.217 6.02971 -0.0132056 -0.0525574 6.03145 21.6827 16 1 
386 1.217 6.02171 -0.0130939 -0.0531468 6.0234 21.6715 16 1 
388 1.217 6.01883 -0.0130593 -0.0537472 6.0205 21.6771 16 1 
390 1.21699 6.01358 -0.013108 -0.0544319 6.01522 21.6634 16 1 
392 1.21699 6.00558 -0.0130344 -0.0550796 6.0072 21.6548 16 1 
394 1.21696 5.99649 -0.0129107 -0.055728 5.99807 21.6113 16 1 
396 1.21694 5.98715 -0.0128627 -0.0563912 5.98873 21.5684 16 1 
398 1.21693 5.9805 -0.012833 -0.0570391 5.98207 21.557 16 1 
400 1.21693 5.97431 -0.0127339 -0.0576797 5.97587 21.5537 16 1 
402 1.21692 5.96513 -0.0126879 -0.0583744 5.96666 21.5281 16 1 
404 1.21688 5.95394 -0.0126776 -0.0590139 5.95548 21.458 16 1 
406 1.21686 5.94413 -0.0125744 -0.0596255 5.94564 21.4273 16 1 
408 1.21687 5.93691 -0.0124999 -0.0602329 5.93842 21.4332 16 1 
410 1.21684 5.92842 -0.0125667 -0.0608921 5.92992 21.3918 16 1 
412 1.21682 5.91804 -0.0126231 -0.0614937 5.91953 21.3471 16 1 
414 1.2168 5.90829 -0.0125923 -0.0620693 5.90977 21.3213 16 1 
416 1.21679 5.89846 -0.0126044 -0.0626459 5.89992 21.2876 16 1 
416 1.21679 5.89846 -0.0126044 -0.0626459 5.89992 21.2876 16 1 
418 1.21677 5.88892 -0.012682 -0.0632643 5.89038 21.2518 16 1 
420 1.21675 5.88036 -0.0127907 -0.0638498 5.88182 21.2173 16 1 
422 1.21674 5.87133 -0.0129063 -0.064467 5.87277 21.1971 16 1 
424 1.21672 5.86163 -0.0130211 -0.0650442 5.86306 21.1628 16 1 
426 1.21668 5.8513 -0.013151 -0.0656162 5.85272 21.1023 16 1 
428 1.21666 5.84166 -0.0133196 -0.0661484 5.84308 21.0673 16 1 
430 1.21666 5.83419 -0.0135103 -0.0667007 5.83559 21.0527 16 1 
432 1.21664 5.82635 -0.0137218 -0.0672252 5.82775 21.0209 16 1 
434 1.21661 5.81657 -0.0139042 -0.0677448 5.81796 20.9694 16 1 
436 1.21658 5.8073 -0.0140891 -0.068239 5.80869 20.9233 16 1 
438 1.21657 5.79993 -0.0142813 -0.0687353 5.8013 20.8952 16 1 
440 1.21655 5.79342 -0.0144842 -0.0691984 5.79478 20.8634 16 1 
442 1.21653 5.78654 -0.014694 -0.0696865 5.78788 20.83 16 1 
444 1.21651 5.77912 -0.0148773 -0.0701557 5.78046 20.7965 16 1 
446 1.21649 5.77211 -0.0150407 -0.0706074 5.77344 20.7455 16 1 
448 1.21646 5.76618 -0.0152226 -0.071065 5.76749 20.7044 16 1 
448 1.21646 5.76618 -0.0152226 -0.071065 5.76749 20.7044 17 1 
450 1.21645 5.76116 -0.0153946 -0.0715365 5.76246 20.6812 17 1 
452 1.21643 5.75635 -0.0155453 -0.0719957 5.75765 20.6491 17 1 
454 1.21641 5.75111 -0.0157267 -0.0724863 5.7524 20.6112 17 1 
456 1.21639 5.7459 -0.015885 -0.0729551 5.74718 20.5701 17 1 
458 1.21636 5.7414 -0.0159993 -0.0733906 5.74267 20.5274 17 1 
460 1.21635 5.73771 -0.0161438 -0.0738397 5.73898 20.4921 17 1 
462 1.21633 5.7344 -0.0163167 -0.074335 5.73566 20.4612 17 1 
464 1.21631 5.73047 -0.0164481 -0.0748048 5.73173 20.4255 17 1 
466 1.21628 5.72616 -0.0165587 -0.0752407 5.72741 20.38 17 1 
468 1.21626 5.72276 -0.0166959 -0.0757059 5.724 20.3393 17 1 
470 1.21624 5.72009 -0.0168348 -0.0762245 5.72133 20.305 17 1 
472 1.21622 5.71718 -0.0169654 -0.0767273 5.71842 20.2661 17 1 
474 1.2162 5.71416 -0.0171209 -0.077249 5.7154 20.23 17 1 
476 1.21618 5.7112 -0.0172582 -0.0777818 5.71243 20.1916 17 1 
478 1.21615 5.70839 -0.0173829 -0.0783173 5.70962 20.1486 17 1 
480 1.21614 5.7064 -0.0175418 -0.0788766 5.70763 20.1149 17 1 
480 1.21614 5.7064 -0.0175418 -0.0788766 5.70763 20.1149 17 1 
482 1.21612 5.70465 -0.0177096 -0.0794817 5.70588 20.0798 17 1 
484 1.21609 5.70249 -0.0178382 -0.0800892 5.70372 20.0364 17 1 
486 1.21607 5.70041 -0.0179859 -0.0807118 5.70164 19.9974 17 1 
488 1.21605 5.69868 -0.0181451 -0.0813442 5.69991 19.9645 17 1 
490 1.21604 5.69759 -0.0182646 -0.0819994 5.69882 19.9321 17 1 
492 1.21602 5.69677 -0.0184032 -0.0826764 5.69801 19.8974 17 1 
494 1.21599 5.69556 -0.0185864 -0.0833668 5.6968 19.8586 17 1 
496 1.21597 5.69422 -0.0187238 -0.0840248 5.69547 19.82 17 1 
498 1.21595 5.69328 -0.0187979 -0.0846679 5.69453 19.7818 17 1 
500 1.21593 5.69289 -0.0189135 -0.0853125 5.69414 19.7499 17 1 
502 1.21592 5.69276 -0.0190608 -0.0859906 5.69402 19.7233 17 1 
504 1.2159 5.6921 -0.0191854 -0.0866646 5.69337 19.6869 17 1 
506 1.21588 5.6912 -0.0192789 -0.0873017 5.69247 19.6439 17 1 
508 1.21586 5.69101 -0.0193558 -0.0879211 5.69229 19.6081 17 1 
510 1.21584 5.69098 -0.0194284 -0.0885723 5.69227 19.5782 17 1 
512 1.21582 5.69077 -0.019503 -0.0892059 5.69207 19.5472 17 1 
512 1.21582 5.69077 -0.019503 -0.0892059 5.69207 19.5472 25 1 
514 1.2158 5.69066 -0.0195629 -0.0898101 5.69196 19.5152 25 1 
516 1.21579 5.69053 -0.0196135 -0.0904046 5.69184 19.4804 25 1 
518 1.21576 5.69036 -0.0196554 -0.0910117 5.69166 19.4427 25 1 
520 1.21574 5.6904 -0.01974 -0.0916297 5.69172 19.4069 25 1 
522 1.21573 5.69074 -0.0198283 -0.0922755 5.69206 19.3753 25 1 
524 1.21571 5.69113 -0.0199046 -0.092949 5.69246 19.3441 25 1 
526 1.21569 5.69142 -0.0199918 -0.093651 5.69276 19.3111 25 1 
528 1.21567 5.69194 -0.0200738 -0.0943339 5.69329 19.2798 25 1 
530 1.21566 5.69288 -0.0201247 -0.0950168 5.69424 19.2484 25 1 
532 1.21564 5.6939 -0.0201953 -0.095712 5.69526 19.2124 25 1 
534 1.21562 5.69517 -0.0202363 -0.0964251 5.69654 19.1797 25 1 
536 1.2156 5.69678 -0.0203045 -0.0971818 5.69816 19.152 25 1 
538 1.21559 5.69849 -0.0204443 -0.0979673 5.69988 19.1196 25 1 
540 1.21557 5.70047 -0.0206039 -0.0987231 5.70187 19.0869 25 1 
542 1.21555 5.7028 -0.0207898 -0.099509 5.70421 19.0582 25 1 
544 1.21553 5.7054 -0.020923 -0.100278 5.70681 19.0286 25 1 
544 1.21553 5.7054 -0.020923 -0.100278 5.70681 19.0286 25 1 
546 1.21552 5.70811 -0.0210458 -0.101002 5.70954 18.9983 25 1 
548 1.2155 5.71103 -0.0211745 -0.101622 5.71246 18.9696 25 1 
550 1.21549 5.7143 -0.0213695 -0.102154 5.71574 18.944 25 1 
552 1.21547 5.71783 -0.0216108 -0.102668 5.71927 18.9148 25 1 
554 1.21545 5.72161 -0.021805 -0.10328 5.72306 18.8834 25 1 
556 1.21544 5.72563 -0.0219802 -0.104028 5.72709 18.8553 25 1 
558 1.21542 5.72968 -0.0220732 -0.104835 5.73115 18.8257 25 1 
560 1.21541 5.73394 -0.0222211 -0.105635 5.73542 18.7984 25 1 
562 1.21539 5.73862 -0.0224 -0.106327 5.74011 18.7755 25 1 
564 1.21538 5.74332 -0.0226466 -0.106921 5.74481 18.7495 25 1 
566 1.21536 5.74797 -0.0229332 -0.107463 5.74947 18.7184 25 1 
568 1.21535 5.75261 -0.0232121 -0.107987 5.75412 18.6889 25 1 
570 1.21533 5.75732 -0.0234967 -0.108578 5.75883 18.6603 25 1 
572 1.21532 5.76226 -0.02373 -0.109225 5.76378 18.635 25 1 
574 1.2153 5.76719 -0.0239849 -0.109947 5.76872 18.6104 25 1 
576 1.21529 5.7719 -0.0242116 -0.110681 5.77345 18.5798 25 1 
576 1.21529 5.7719 -0.0242116 -0.110681 5.77345 18.5798 26 1 
578 1.21527 5.77641 -0.0244795 -0.111449 5.77796 18.5487 26 1 
580 1.21525 5.78091 -0.0247377 -0.112218 5.78247 18.519 26 1 
582 1.21524 5.78544 -0.0250262 -0.113008 5.78701 18.4954 26 1 
584 1.21523 5.78973 -0.0253461 -0.113807 5.79132 18.4703 26 1 
586 1.21521 5.79366 -0.0256604 -0.114612 5.79526 18.439 26 1 
588 1.21519 5.79731 -0.0260496 -0.115442 5.79892 18.4081 26 1 
590 1.21517 5.80066 -0.0264086 -0.116263 5.80229 18.3755 26 1 
592 1.21516 5.80381 -0.0268316 -0.117114 5.80545 18.3451 26 1 
594 1.21514 5.80692 -0.0272475 -0.117949 5.80857 18.3198 26 1 
596 1.21513 5.80951 -0.0276895 -0.118786 5.81118 18.2932 26 1 
598 1.21511 5.81166 -0.028165 -0.11963 5.81333 18.2587 26 1 
600 1.21509 5.81357 -0.028639 -0.12046 5.81527 18.2262 26 1 
602 1.21507 5.81538 -0.0291583 -0.121287 5.81709 18.1963 26 1 
604 1.21506 5.81689 -0.0296437 -0.122089 5.81862 18.166 26 1 
606 1.21504 5.81803 -0.0301662 -0.122884 5.81977 18.1364 26 1 
608 1.21502 5.81898 -0.0306913 -0.123653 5.82074 18.1064 26 1 
608 1.21502 5.81898 -0.0306913 -0.123653 5.82074 18.1064 26 1 
610 1.21501 5.81975 -0.0312172 -0.124397 5.82152 18.0752 26 1 
612 1.21499 5.8203 -0.0317356 -0.125119 5.82208 18.0419 26 1 
614 1.21497 5.82071 -0.0322154 -0.125785 5.82251 18.0123 26 1 
616 1.21496 5.82107 -0.0327213 -0.126431 5.82289 17.9837 26 1 
618 1.21494 5.8212 -0.0331877 -0.12704 5.82303 17.9543 26 1 
620 1.21492 5.82128 -0.0336468 -0.127606 5.82312 17.9256 26 1 
622 1.21491 5.82135 -0.0340583 -0.128123 5.8232 17.8967 26 1 
624 1.21489 5.82137 -0.034461 -0.128607 5.82323 17.8688 26 1 
626 1.21488 5.82126 -0.0348243 -0.129037 5.82313 17.8419 26 1 
628 1.21486 5.82113 -0.0351482 -0.129413 5.823 17.8134 26 1 
630 1.21485 5.82097 -0.0354509 -0.129751 5.82285 17.787 26 1 
632 1.21483 5.8208 -0.0357327 -0.130037 5.82269 17.7615 26 1 
634 1.21482 5.82055 -0.0359626 -0.130264 5.82244 17.7359 26 1 
636 1.21481 5.82027 -0.0361662 -0.130438 5.82216 17.7106 26 1 
638 1.21479 5.81985 -0.0363484 -0.130563 5.82174 17.6887 26 1 
640 1.21478 5.81935 -0.0364821 -0.130644 5.82124 17.6673 26 1 
642 1.21477 5.8189 -0.0366257 -0.130695 5.82079 17.6429 26 1 
644 1.21476 5.81817 -0.0367265 -0.130698 5.82006 17.6211 26 1 
646 1.21474 5.81728 -0.0368003 -0.130672 5.81916 17.5991 26 1 
648 1.21473 5.81644 -0.0368775 -0.130585 5.81832 17.5757 26 1 
650 1.21472 5.81534 -0.036916 -0.130465 5.81721 17.5596 26 1 
652 1.21471 5.81422 -0.0369999 -0.130327 5.81609 17.5413 26 1 
654 1.2147 5.81288 -0.0370545 -0.130136 5.81474 17.5201 26 1 
656 1.21469 5.81128 -0.037127 -0.129943 5.81313 17.5018 26 1 
658 1.21468 5.80981 -0.0372191 -0.12971 5.81165 17.4821 26 1 
660 1.21467 5.808 -0.0372741 -0.129438 5.80984 17.4673 26 1 
662 1.21466 5.80629 -0.0374328 -0.129194 5.80812 17.4496 26 1 
664 1.21465 5.80443 -0.0375486 -0.128903 5.80625 17.4334 26 1 
666 1.21464 5.80246 -0.0377089 -0.12861 5.80428 17.4173 26 1 
668 1.21463 5.80057 -0.0379514 -0.12832 5.80237 17.397 26 1 
670 1.21462 5.79883 -0.03811 -0.127953 5.80063 17.3807 26 1 
672 1.21462 5.79713 -0.0384201 -0.127633 5.79892 17.3702 26 1 
672 1.21462 5.79713 -0.0384201 -0.127633 5.79892 17.3702 27 1 
674 1.21461 5.7956 -0.038736 -0.127292 5.79738 17.3573 27 1 
676 1.2146 5.7944 -0.0390308 -0.126901 5.79617 17.3433 27 1 
678 1.2146 5.79319 -0.0394409 -0.126538 5.79494 17.3325 27 1 
680 1.21459 5.79252 -0.0398101 -0.126104 5.79426 17.3151 27 1 
682 1.21458 5.79195 -0.0401875 -0.125625 5.79369 17.3022 27 1 
684 1.21457 5.79194 -0.0406399 -0.125131 5.79367 17.291 27 1 
686 1.21457 5.79219 -0.0410375 -0.124562 5.79389 17.2828 27 1 
688 1.21456 5.7929 -0.0414829 -0.123968 5.79459 17.2732 27 1 
690 1.21456 5.79392 -0.0419188 -0.123332 5.7956 17.2638 27 1 
692 1.21455 5.79535 -0.0422923 -0.122629 5.79701 17.2536 27 1 
694 1.21455 5.79706 -0.0427529 -0.121952 5.79871 17.2442 27 1 
696 1.21454 5.79924 -0.0431207 -0.121185 5.80087 17.2336 27 1 
698 1.21454 5.80201 -0.043484 -0.1204 5.80363 17.2239 27 1 
700 1.21453 5.80491 -0.0438763 -0.119543 5.80651 17.2215 27 1 
702 1.21453 5.80824 -0.0441373 -0.118564 5.80981 17.2129 27 1 
704 1.21452 5.81181 -0.0443647 -0.117473 5.81335 17.2008 27 1 
704 1.21452 5.81181 -0.0443647 -0.117473 5.81335 17.2008 31 1 
706 1.21452 5.81552 -0.0445939 -0.116351 5.81704 17.1957 31 1 
708 1.21452 5.81949 -0.0447066 -0.115091 5.82098 17.1908 31 1 
710 1.21451 5.8237 -0.0448665 -0.113813 5.82516 17.1807 31 1 
712 1.21451 5.82799 -0.0448565 -0.112517 5.82942 17.1762 31 1 
714 1.21451 5.83204 -0.0450088 -0.111194 5.83343 17.1765 31 1 
716 1.2145 5.83639 -0.0448996 -0.10977 5.83775 17.1609 31 1 
718 1.2145 5.84062 -0.0448547 -0.108387 5.84195 17.1532 31 1 
720 1.2145 5.84494 -0.0447738 -0.106917 5.84624 17.154 31 1 
722 1.21449 5.84926 -0.0445417 -0.105324 5.85053 17.1454 31 1 
724 1.21449 5.85343 -0.044368 -0.103671 5.85466 17.1337 31 1 
726 1.21448 5.85737 -0.044067 -0.101904 5.85856 17.1312 31 1 
728 1.21448 5.86071 -0.0438416 -0.100125 5.86187 17.1283 31 1 
730 1.21447 5.86427 -0.0435179 -0.0982686 5.86538 17.1082 31 1 
732 1.21447 5.86764 -0.0432334 -0.0964642 5.86872 17.1055 31 1 
734 1.21447 5.87048 -0.043182 -0.0947991 5.87152 17.1112 31 1 
736 1.21446 5.87362 -0.0426854 -0.0928818 5.87463 17.0903 31 1 
738 1.21445 5.8767 -0.042778 -0.0912279 5.87767 17.074 31 1 
740 1.21446 5.87895 -0.0422963 -0.0892864 5.87989 17.0799 31 1 
742 1.21445 5.88175 -0.041968 -0.0873497 5.88266 17.0616 31 1 
744 1.21444 5.88412 -0.0419745 -0.0855395 5.88499 17.0442 31 1 
746 1.21444 5.88636 -0.0413793 -0.083407 5.88719 17.0511 31 1 
748 1.21444 5.88802 -0.0410873 -0.0811441 5.88881 17.0465 31 1 
750 1.21442 5.88958 -0.0407802 -0.0790097 5.89034 17.014 31 1 
752 1.21441 5.89156 -0.0406113 -0.0770438 5.89228 16.9989 31 1 
752 1.21441 5.89156 -0.0406113 -0.0770438 5.89228 16.9989 31 1 
754 1.21442 5.89185 -0.04036 -0.074954 5.89255 17.0161 31 1 
756 1.2144 5.89341 -0.0401089 -0.0729901 5.89408 16.9803 31 1 
758 1.21439 5.89524 -0.0402502 -0.0715117 5.89588 16.9542 31 1 
760 1.2144 5.89605 -0.0399614 -0.0695193 5.89666 16.9764 31 1 
762 1.21438 5.89803 -0.0400038 -0.0678766 5.89862 16.9444 31 1 
764 1.21435 5.90129 -0.0401046 -0.0665291 5.90186 16.8929 31 1 
766 1.21437 5.90243 -0.0398304 -0.0645109 5.90298 16.9193 31 1 
768 1.21435 5.90629 -0.039578 -0.062405 5.90681 16.8885 31 1 
770 1.21433 5.90978 -0.0402308 -0.0610542 5.91028 16.8473 31 1 
772 1.21432 5.91295 -0.0398881 -0.0588584 5.91343 16.8408 31 1 
774 1.21431 5.91689 -0.039948 -0.0567443 5.91734 16.8149 31 1 
776 1.21427 5.92264 -0.0401712 -0.0549052 5.92308 16.7463 31 1 
778 1.21425 5.92928 -0.0402051 -0.0529947 5.9297 16.7168 31 1 
780 1.21425 5.93567 -0.040274 -0.0511396 5.93607 16.715 31 1 
782 1.21421 5.94432 -0.0410522 -0.0501763 5.94471 16.6338 31 1 
784 1.21416 5.95291 -0.0434288 -0.050012 5.95332 16.5492 31 1 
786 1.21411 5.96873 -0.0435502 -0.0482438 5.96913 16.4611 31 1 
788 1.21411 5.98255 -0.0439966 -0.0469012 5.98294 16.4549 31 1 
790 1.21401 6.00388 -0.0453981 -0.0451009 6.00426 16.2707 31 1 
792 1.21393 6.02421 -0.0480347 -0.0437332 6.0246 16.1343 31 1 
794 1.21387 6.0495 -0.0487841 -0.0416936 6.04987 16.0283 31 1 
796 1.21376 6.08009 -0.0490713 -0.0372093 6.08044 15.8272 31 1 
798 1.21361 6.1131 -0.0535501 -0.0342515 6.11347 15.5547 31 1 
800 1.21347 6.1376 -0.0569973 -0.0340069 6.138 15.3066 31 1 
