127.696;r ;Density                 ;Velocity u              ;Velocity v              ;Velocity w              ;|Velocity|              ;Pressure                ;Distribution            ;Levels                  ;
0 1.22136 9.99947 -9.26325e-05 3.33568e-06 9.99947 29.5431 1 1 
2 1.22138 9.99826 -9.08439e-05 -3.42856e-05 9.99826 29.589 1 1 
4 1.22138 9.99751 -0.000291401 -0.000176224 9.99751 29.5943 1 1 
6 1.22138 9.99768 -0.000393256 -0.000261604 9.99768 29.5878 1 1 
8 1.22139 9.99771 -0.000511718 -0.000354713 9.99771 29.6053 1 1 
10 1.22139 9.99771 -0.000613946 -0.000429837 9.99771 29.5958 1 1 
12 1.22139 9.99693 -0.000710302 -0.000511102 9.99693 29.6103 1 1 
14 1.22139 9.99732 -0.000855848 -0.00061889 9.99732 29.6032 1 1 
16 1.2214 9.99724 -0.000921457 -0.000676592 9.99724 29.6271 1 1 
18 1.2214 9.99624 -0.00102064 -0.000755676 9.99624 29.6213 1 1 
20 1.22138 9.99649 -0.00118099 -0.00087433 9.99649 29.5949 1 1 
22 1.22141 9.99648 -0.00131244 -0.000963929 9.99648 29.6459 1 1 
24 1.22141 9.99691 -0.00145195 -0.001076 9.99691 29.6452 1 1 
26 1.22141 9.99653 -0.0015689 -0.00114516 9.99653 29.6323 1 1 
28 1.22141 9.99579 -0.0016988 -0.00122876 9.99579 29.6405 1 1 
30 1.22141 9.99584 -0.00180868 -0.00130914 9.99584 29.6369 1 1 
32 1.22142 9.99504 -0.0019503 -0.00141186 9.99504 29.6568 1 1 
32 1.22142 9.99504 -0.0019503 -0.00141186 9.99504 29.6568 1 1 
34 1.22141 9.99451 -0.0020256 -0.00145994 9.99451 29.647 1 1 
36 1.22142 9.99366 -0.00217218 -0.00154696 9.99366 29.6528 1 1 
38 1.22141 9.9939 -0.00228506 -0.00163909 9.9939 29.6454 1 1 
40 1.22142 9.9938 -0.00240282 -0.001737 9.9938 29.6609 1 1 
42 1.22143 9.99317 -0.0025452 -0.00184097 9.99317 29.6755 1 1 
44 1.22142 9.99251 -0.00267081 -0.00188622 9.99251 29.6621 1 1 
46 1.22143 9.99151 -0.00282706 -0.0019896 9.99151 29.6753 1 1 
48 1.22142 9.9916 -0.00297681 -0.00211851 9.9916 29.6668 1 1 
50 1.22143 9.99208 -0.00308053 -0.00215817 9.99208 29.6824 1 1 
52 1.22144 9.99111 -0.00318862 -0.00222997 9.99111 29.6917 1 1 
54 1.22143 9.99 -0.0033236 -0.00232247 9.99 29.6814 1 1 
56 1.22144 9.99061 -0.0034275 -0.00239464 9.99061 29.6972 1 1 
58 1.22145 9.99039 -0.00359263 -0.00253041 9.99039 29.708 1 1 
60 1.22144 9.98995 -0.00370131 -0.00260044 9.98995 29.6973 1 1 
62 1.22145 9.98919 -0.00383926 -0.00272025 9.98919 29.7103 1 1 
64 1.22145 9.98916 -0.00398078 -0.00280118 9.98916 29.718 1 1 
64 1.22145 9.98916 -0.00398078 -0.00280118 9.98916 29.718 2 1 
66 1.22146 9.98916 -0.00411317 -0.00289226 9.98916 29.7391 2 1 
68 1.22145 9.98968 -0.00425978 -0.0030013 9.98968 29.7159 2 1 
70 1.22146 9.98894 -0.00439944 -0.00310724 9.98894 29.7357 2 1 
72 1.22147 9.98797 -0.00452759 -0.00321536 9.98797 29.7498 2 1 
74 1.22146 9.98779 -0.00464265 -0.00328101 9.98779 29.7318 2 1 
76 1.22149 9.98715 -0.00476051 -0.00338147 9.98715 29.7766 2 1 
78 1.22147 9.98811 -0.00488321 -0.00345293 9.98811 29.7529 2 1 
80 1.22147 9.98763 -0.00502637 -0.00356217 9.98763 29.7572 2 1 
82 1.22148 9.98694 -0.00517395 -0.00368819 9.98694 29.7719 2 1 
84 1.22149 9.98658 -0.00527523 -0.00375248 9.98659 29.7773 2 1 
86 1.2215 9.98603 -0.00540123 -0.00383722 9.98603 29.7943 2 1 
88 1.22149 9.98601 -0.00558751 -0.00397525 9.98602 29.782 2 1 
90 1.22149 9.98558 -0.00567539 -0.00403192 9.98558 29.7911 2 1 
92 1.2215 9.9849 -0.0058454 -0.00412943 9.98491 29.7957 2 1 
94 1.2215 9.98405 -0.00601025 -0.0042419 9.98405 29.8076 2 1 
96 1.22151 9.98388 -0.00612982 -0.00431401 9.98388 29.8181 2 1 
96 1.22151 9.98388 -0.00612982 -0.00431401 9.98388 29.8181 2 1 
98 1.22151 9.98437 -0.00630572 -0.00444279 9.98437 29.8165 2 1 
100 1.22151 9.98431 -0.00639598 -0.00450692 9.98431 29.8217 2 1 
102 1.22151 9.98372 -0.00652624 -0.00462819 9.98372 29.8206 2 1 
104 1.22152 9.98233 -0.00672368 -0.00475212 9.98233 29.8425 2 1 
106 1.22152 9.98164 -0.0068175 -0.00477898 9.98165 29.846 2 1 
108 1.22153 9.98043 -0.00697751 -0.00490038 9.98043 29.8598 2 1 
110 1.22152 9.98049 -0.00711439 -0.00500095 9.9805 29.8428 2 1 
112 1.22152 9.98071 -0.00727196 -0.00510466 9.98071 29.8443 2 1 
114 1.22155 9.97929 -0.00739897 -0.00519204 9.9793 29.8865 2 1 
116 1.22154 9.98017 -0.00754805 -0.00530017 9.98018 29.8793 2 1 
118 1.22155 9.97999 -0.00767586 -0.0053872 9.97999 29.8962 2 1 
120 1.22156 9.97839 -0.00781444 -0.00545864 9.9784 29.9178 2 1 
122 1.22154 9.97817 -0.00797289 -0.00555058 9.97817 29.8832 2 1 
124 1.22155 9.97661 -0.00809809 -0.00565441 9.97661 29.8937 2 1 
126 1.22159 9.97523 -0.00827588 -0.00579118 9.97524 29.958 2 1 
128 1.22156 9.97627 -0.00839112 -0.00584209 9.97627 29.9187 2 1 
128 1.22156 9.97627 -0.00839112 -0.00584209 9.97627 29.9187 10 1 
130 1.22158 9.97575 -0.00854875 -0.00600609 9.97576 29.9423 10 1 
132 1.22159 9.97608 -0.00868141 -0.00607142 9.97608 29.9658 10 1 
134 1.22158 9.97562 -0.00885085 -0.00616394 9.97563 29.9566 10 1 
136 1.2216 9.97317 -0.00899298 -0.00627691 9.97318 29.9872 10 1 
138 1.22159 9.97269 -0.00914089 -0.00637233 9.97269 29.9669 10 1 
140 1.22161 9.97269 -0.0092964 -0.00649534 9.9727 29.9963 10 1 
142 1.22161 9.97262 -0.00943997 -0.0065567 9.97262 30.0044 10 1 
144 1.22161 9.97245 -0.00959083 -0.00667807 9.97246 30.0048 10 1 
146 1.22164 9.97199 -0.00975063 -0.006768 9.972 30.05 10 1 
148 1.22164 9.97025 -0.00993125 -0.00689404 9.97026 30.0505 10 1 
150 1.22162 9.96942 -0.0100604 -0.00699716 9.96943 30.0178 10 1 
152 1.22164 9.96903 -0.0102043 -0.00710142 9.96904 30.0573 10 1 
154 1.22166 9.96843 -0.0103194 -0.00717145 9.96844 30.0865 10 1 
156 1.22165 9.96865 -0.0105077 -0.00730602 9.96866 30.0774 10 1 
158 1.22167 9.96754 -0.0106582 -0.00740301 9.96755 30.1088 10 1 
160 1.22168 9.9655 -0.0107564 -0.00746947 9.96551 30.1266 10 1 
160 1.22168 9.9655 -0.0107564 -0.00746947 9.96551 30.1266 10 1 
162 1.22166 9.96564 -0.0109495 -0.00760988 9.96565 30.0884 10 1 
164 1.22168 9.96442 -0.0111058 -0.00769557 9.96443 30.1208 10 1 
166 1.22172 9.96205 -0.0113002 -0.00782565 9.96206 30.2019 10 1 
168 1.22169 9.96367 -0.0114839 -0.00796254 9.96368 30.1417 10 1 
170 1.22171 9.9615 -0.0116292 -0.00807563 9.96151 30.1822 10 1 
172 1.22172 9.96076 -0.0117882 -0.00814705 9.96077 30.2054 10 1 
174 1.22171 9.96193 -0.0118759 -0.0082126 9.96194 30.1741 10 1 
176 1.22176 9.95881 -0.0120702 -0.00831207 9.95882 30.2736 10 1 
178 1.22175 9.95831 -0.0122239 -0.00841815 9.95833 30.2524 10 1 
180 1.22175 9.95672 -0.0123796 -0.00856614 9.95673 30.2602 10 1 
182 1.22176 9.95356 -0.0125571 -0.00870136 9.95357 30.2796 10 1 
184 1.22175 9.95263 -0.0127685 -0.0088517 9.95265 30.2504 10 1 
186 1.2218 9.95281 -0.0129035 -0.00892261 9.95282 30.3449 10 1 
188 1.22182 9.95213 -0.0130007 -0.0089593 9.95214 30.3837 10 1 
190 1.22181 9.95133 -0.013233 -0.00911028 9.95134 30.3555 10 1 
192 1.22181 9.95051 -0.0132593 -0.00910887 9.95052 30.3671 10 1 
194 1.22184 9.9466 -0.013559 -0.0093264 9.94661 30.4126 10 1 
196 1.22185 9.94339 -0.0137692 -0.00946793 9.94341 30.4341 10 1 
198 1.22186 9.94265 -0.0138298 -0.00942789 9.94266 30.4469 10 1 
200 1.2219 9.9407 -0.0140959 -0.00967143 9.94071 30.5276 10 1 
202 1.2219 9.94004 -0.0141311 -0.00970784 9.94006 30.5219 10 1 
204 1.22187 9.94011 -0.014213 -0.00970236 9.94013 30.4672 10 1 
206 1.22195 9.93611 -0.0145551 -0.00993844 9.93612 30.6089 10 1 
208 1.22198 9.93445 -0.0147607 -0.0100431 9.93447 30.6735 10 1 
210 1.22194 9.93457 -0.0148462 -0.0100555 9.93459 30.6058 10 1 
212 1.22202 9.92735 -0.0150241 -0.0102256 9.92737 30.7375 10 1 
214 1.222 9.92261 -0.0151314 -0.0102909 9.92263 30.7047 10 1 
216 1.22199 9.91901 -0.0153697 -0.0104185 9.91903 30.6881 10 1 
218 1.22207 9.91399 -0.0156445 -0.0105891 9.91401 30.8393 10 1 
220 1.22208 9.91759 -0.0157687 -0.0106894 9.91761 30.8597 10 1 
222 1.22213 9.91697 -0.0158787 -0.0107668 9.91699 30.9493 10 1 
224 1.22214 9.91099 -0.0159904 -0.0107038 9.91101 30.9666 10 1 
224 1.22214 9.91099 -0.0159904 -0.0107038 9.91101 30.9666 10 1 
226 1.22218 9.90558 -0.0162107 -0.0108024 9.9056 31.0314 10 1 
228 1.22222 9.89527 -0.0164203 -0.0110347 9.89529 31.1039 10 1 
230 1.22223 9.88747 -0.0166326 -0.0112454 9.88749 31.1204 10 1 
232 1.22226 9.88766 -0.0168277 -0.0112956 9.88768 31.17 10 1 
234 1.22233 9.88427 -0.0169769 -0.0112663 9.88429 31.3049 10 1 
236 1.22244 9.87536 -0.0171071 -0.0113865 9.87538 31.495 10 1 
238 1.22238 9.87193 -0.0172479 -0.0115048 9.87196 31.3913 10 1 
240 1.22252 9.8589 -0.0176268 -0.0118056 9.85892 31.6367 10 1 
242 1.22256 9.84949 -0.0178353 -0.0119107 9.84951 31.7171 10 1 
244 1.22251 9.84713 -0.0179008 -0.011889 9.84715 31.6243 10 1 
246 1.22274 9.83408 -0.0180865 -0.0120124 9.83411 32.0401 10 1 
248 1.22279 9.82355 -0.0181574 -0.0119854 9.82358 32.1313 10 1 
250 1.22281 9.80992 -0.0184232 -0.0121898 9.80995 32.1733 10 1 
252 1.2229 9.79685 -0.0187728 -0.0124894 9.79688 32.3305 10 1 
254 1.22304 9.78329 -0.0188148 -0.0124117 9.78332 32.5858 10 1 
256 1.22315 9.76774 -0.0189612 -0.0124915 9.76777 32.7776 10 1 
256 1.22315 9.76774 -0.0189612 -0.0124915 9.76777 32.7776 11 1 
258 1.22323 9.74961 -0.0192066 -0.0126752 9.74964 32.9197 11 1 
260 1.22345 9.72938 -0.0194015 -0.0127978 9.72941 33.3327 11 1 
262 1.2236 9.7054 -0.0196936 -0.0129967 9.70543 33.6013 11 1 
264 1.22361 9.68174 -0.019782 -0.0130123 9.68178 33.6144 11 1 
266 1.22387 9.65676 -0.0198682 -0.0130793 9.6568 34.0875 11 1 
268 1.22432 9.61543 -0.0201044 -0.013251 9.61547 34.8931 11 1 
270 1.22428 9.58576 -0.0203832 -0.0133645 9.5858 34.8298 11 1 
272 1.22456 9.54228 -0.0204481 -0.0133628 9.54233 35.3224 11 1 
274 1.22513 9.48497 -0.0206161 -0.0135029 9.48502 36.3659 11 1 
276 1.2252 9.443 -0.0208279 -0.0136011 9.44304 36.4803 11 1 
278 1.22562 9.38136 -0.0209946 -0.0137104 9.3814 37.2497 11 1 
280 1.22636 9.31664 -0.0211434 -0.0137878 9.3167 38.5766 11 1 
282 1.22687 9.23354 -0.0212167 -0.0137787 9.23374 39.4993 11 1 
284 1.22727 9.11298 -0.0212441 -0.0138287 9.11329 40.2257 11 1 
286 1.2278 8.98852 -0.021337 -0.0138771 8.98872 41.1904 11 1 
288 1.22868 8.87408 -0.0215027 -0.0139513 8.87417 42.7718 11 1 
288 1.22868 8.87408 -0.0215027 -0.0139513 8.87417 42.7718 11 1 
290 1.22974 8.7641 -0.0216347 -0.0139971 8.76422 44.6774 11 1 
292 1.23062 8.62359 -0.021806 -0.0141419 8.62389 46.2784 11 1 
294 1.23135 8.44128 -0.0218037 -0.0141019 8.44186 47.593 11 1 
296 1.23229 8.25331 -0.0216877 -0.0140044 8.25371 49.2909 11 1 
298 1.2265 8.02963 -0.0212407 -0.0144805 8.08899 38.8255 11 1 
300 1.21642 7.9433 -0.0202103 -0.0159524 8.0201 20.6296 11 1 
302 1.21314 7.90482 -0.0190537 -0.0179229 7.95284 14.708 11 1 
304 1.21404 7.73138 -0.0178539 -0.0195246 7.77104 16.3269 11 1 
306 1.21509 7.55038 -0.0167967 -0.0207189 7.57989 18.2227 11 1 
308 1.21593 7.38324 -0.0159307 -0.0217394 7.4069 19.7456 11 1 
310 1.21649 7.24304 -0.0152552 -0.0224932 7.25564 20.745 11 1 
312 1.21714 7.10588 -0.0146569 -0.0233646 7.11803 21.9192 11 1 
314 1.21772 6.99732 -0.0142324 -0.0241728 7.00846 22.9772 11 1 
316 1.21821 6.91093 -0.0138063 -0.0249306 6.92153 23.861 11 1 
318 1.21864 6.81309 -0.0133516 -0.0256752 6.82031 24.6318 11 1 
320 1.21895 6.73544 -0.0128774 -0.0262919 6.74222 25.2009 11 1 
320 1.21895 6.73544 -0.0128774 -0.0262919 6.74222 25.2009 15 1 
322 1.21928 6.68196 -0.0126349 -0.0269209 6.68858 25.8 15 1 
324 1.21965 6.62284 -0.012353 -0.0276339 6.62914 26.4631 15 1 
326 1.21991 6.56666 -0.0118965 -0.0282155 6.57178 26.9388 15 1 
328 1.22011 6.51665 -0.0115065 -0.0288034 6.52155 27.2841 15 1 
330 1.22025 6.46918 -0.0112352 -0.0294313 6.47363 27.5511 15 1 
332 1.22051 6.43657 -0.010899 -0.0300163 6.44099 28.0112 15 1 
334 1.22077 6.40093 -0.0104852 -0.0306235 6.40486 28.4908 15 1 
336 1.22079 6.35239 -0.0101535 -0.0312983 6.35618 28.5245 15 1 
338 1.22086 6.3176 -0.00991199 -0.0319039 6.32121 28.6559 15 1 
340 1.22112 6.29634 -0.00973732 -0.0325546 6.29988 29.1182 15 1 
342 1.22126 6.27159 -0.00945159 -0.0331251 6.27486 29.3769 15 1 
344 1.2213 6.23913 -0.00915169 -0.033635 6.24239 29.4401 15 1 
346 1.22134 6.20558 -0.00896005 -0.0342738 6.20861 29.5116 15 1 
348 1.22148 6.1902 -0.00893799 -0.0350061 6.19316 29.7662 15 1 
350 1.22164 6.18213 -0.00884578 -0.0355298 6.18494 30.064 15 1 
352 1.22166 6.15811 -0.0086166 -0.0360016 6.1609 30.0973 15 1 
354 1.2217 6.13595 -0.00843766 -0.0365397 6.13855 30.1616 15 1 
356 1.22181 6.12523 -0.00842447 -0.0372281 6.12776 30.3634 15 1 
358 1.22187 6.11469 -0.00839903 -0.0378171 6.1171 30.4798 15 1 
360 1.22195 6.10681 -0.0082212 -0.0382373 6.10921 30.609 15 1 
362 1.22202 6.09796 -0.00801596 -0.0386991 6.1002 30.7335 15 1 
364 1.22206 6.08526 -0.00792515 -0.0392856 6.08743 30.8095 15 1 
366 1.2221 6.07674 -0.00787354 -0.039778 6.07881 30.8892 15 1 
368 1.22216 6.07261 -0.00770075 -0.0402358 6.07467 30.9908 15 1 
370 1.22224 6.07001 -0.00745733 -0.040643 6.07198 31.1407 15 1 
372 1.22229 6.06423 -0.00728665 -0.0410982 6.06613 31.2215 15 1 
374 1.2223 6.05495 -0.00714993 -0.0416258 6.05675 31.2498 15 1 
376 1.22235 6.04961 -0.00693617 -0.0420747 6.05141 31.346 15 1 
378 1.2224 6.04696 -0.00669188 -0.0424251 6.0487 31.436 15 1 
380 1.22246 6.04444 -0.00648499 -0.042833 6.04614 31.5316 15 1 
382 1.2225 6.0408 -0.00631513 -0.0432993 6.04243 31.6156 15 1 
384 1.22252 6.0321 -0.00606222 -0.0437582 6.03373 31.641 15 1 
384 1.22252 6.0321 -0.00606222 -0.0437582 6.03373 31.641 16 1 
386 1.22255 6.02521 -0.00573918 -0.0441649 6.02679 31.7076 16 1 
388 1.2226 6.02359 -0.0054823 -0.0445753 6.02516 31.7916 16 1 
390 1.22264 6.01967 -0.0053096 -0.0450604 6.0212 31.8566 16 1 
392 1.22267 6.01295 -0.00500318 -0.0455129 6.01446 31.925 16 1 
394 1.22269 6.00517 -0.00463966 -0.0459781 6.00664 31.9569 16 1 
396 1.22271 5.99721 -0.00434368 -0.0464693 5.99869 31.9891 16 1 
398 1.22275 5.99204 -0.00405763 -0.0469461 5.99349 32.0526 16 1 
400 1.22279 5.98736 -0.00367859 -0.0474152 5.98879 32.1248 16 1 
402 1.22281 5.9797 -0.00334156 -0.047946 5.98112 32.1738 16 1 
404 1.22281 5.97008 -0.00303267 -0.0484455 5.9715 32.1767 16 1 
406 1.22284 5.96191 -0.00262016 -0.0489292 5.9633 32.2181 16 1 
408 1.22288 5.9564 -0.00220892 -0.0494237 5.95778 32.2953 16 1 
410 1.2229 5.94969 -0.00192493 -0.0499924 5.95106 32.3255 16 1 
412 1.22291 5.94115 -0.00161968 -0.0505364 5.94251 32.3525 16 1 
414 1.22294 5.93329 -0.00121776 -0.0510708 5.93463 32.3968 16 1 
416 1.22295 5.92539 -0.000840629 -0.0516048 5.92672 32.4312 16 1 
416 1.22295 5.92539 -0.000840629 -0.0516048 5.92672 32.4312 16 1 
418 1.22297 5.91781 -0.000514844 -0.0521756 5.91913 32.4624 16 1 
420 1.22299 5.91127 -0.00021392 -0.0527248 5.9126 32.4951 16 1 
422 1.22302 5.90431 7.43419e-05 -0.0533219 5.90562 32.5429 16 1 
424 1.22304 5.8967 0.000382014 -0.0538824 5.89799 32.577 16 1 
426 1.22304 5.88848 0.000686406 -0.0544387 5.88976 32.5835 16 1 
428 1.22306 5.88094 0.000954184 -0.0549634 5.88223 32.6127 16 1 
430 1.22308 5.87556 0.00118718 -0.0555122 5.87683 32.6617 16 1 
432 1.2231 5.86981 0.00140502 -0.056037 5.87106 32.6949 16 1 
434 1.22311 5.8621 0.00164651 -0.056561 5.86334 32.709 16 1 
436 1.22312 5.85488 0.00188436 -0.0570663 5.85611 32.7279 16 1 
438 1.22314 5.8495 0.00210332 -0.0575781 5.85072 32.764 16 1 
440 1.22316 5.84492 0.00231708 -0.058062 5.84613 32.7945 16 1 
442 1.22317 5.83989 0.00249953 -0.0585822 5.84108 32.8224 16 1 
444 1.22319 5.83432 0.0026969 -0.0590915 5.8355 32.852 16 1 
446 1.2232 5.82914 0.00290382 -0.0595781 5.83031 32.8672 16 1 
448 1.22321 5.82496 0.00308496 -0.0600705 5.82612 32.8917 16 1 
448 1.22321 5.82496 0.00308496 -0.0600705 5.82612 32.8917 17 1 
450 1.22323 5.82156 0.00325412 -0.0605758 5.82271 32.9296 17 1 
452 1.22325 5.81826 0.0034259 -0.0610743 5.8194 32.9566 17 1 
454 1.22326 5.81448 0.00355734 -0.0616021 5.81561 32.9791 17 1 
456 1.22327 5.81069 0.00370427 -0.062114 5.81181 33.0008 17 1 
458 1.22328 5.80761 0.00389238 -0.0625862 5.80872 33.0226 17 1 
460 1.2233 5.80532 0.00403901 -0.0630807 5.80642 33.0515 17 1 
462 1.22332 5.80334 0.00414927 -0.0636218 5.80443 33.0818 17 1 
464 1.22333 5.80073 0.00429306 -0.0641477 5.80182 33.1046 17 1 
466 1.22334 5.79774 0.00446337 -0.0646264 5.79883 33.1188 17 1 
468 1.22335 5.79576 0.00462163 -0.0651213 5.79684 33.141 17 1 
470 1.22336 5.79456 0.00477659 -0.0656509 5.79564 33.1708 17 1 
472 1.22338 5.79308 0.00494665 -0.0661485 5.79415 33.1941 17 1 
474 1.22339 5.79149 0.00509889 -0.0666451 5.79255 33.2168 17 1 
476 1.2234 5.78989 0.0052863 -0.067135 5.79096 33.2355 17 1 
478 1.22341 5.78852 0.00549957 -0.0676035 5.78958 33.2517 17 1 
480 1.22343 5.788 0.0057016 -0.0680621 5.78906 33.2805 17 1 
480 1.22343 5.788 0.0057016 -0.0680621 5.78906 33.2805 17 1 
482 1.22344 5.78771 0.00589742 -0.0685431 5.78876 33.3085 17 1 
484 1.22345 5.78698 0.00613723 -0.0690003 5.78803 33.3258 17 1 
486 1.22346 5.78625 0.00636121 -0.0694459 5.78729 33.3444 17 1 
488 1.22347 5.78582 0.00659745 -0.0698676 5.78686 33.3667 17 1 
490 1.22349 5.78601 0.00688424 -0.0702896 5.78705 33.3899 17 1 
492 1.2235 5.78652 0.00716245 -0.0707117 5.78756 33.414 17 1 
494 1.22351 5.78662 0.00739859 -0.0711367 5.78766 33.4359 17 1 
496 1.22352 5.78655 0.00767999 -0.0715346 5.78759 33.4554 17 1 
498 1.22353 5.78683 0.00802986 -0.0719164 5.78787 33.472 17 1 
500 1.22354 5.78763 0.0083427 -0.07229 5.78866 33.4933 17 1 
502 1.22356 5.7887 0.0086268 -0.0726869 5.78973 33.5207 17 1 
504 1.22357 5.78923 0.00895104 -0.0730742 5.79026 33.5394 17 1 
506 1.22358 5.78955 0.00929864 -0.0734298 5.79058 33.5522 17 1 
508 1.22359 5.79058 0.00964791 -0.0737549 5.79161 33.5722 17 1 
510 1.2236 5.79172 0.00999557 -0.0741094 5.79275 33.5949 17 1 
512 1.22361 5.79263 0.0103436 -0.0744557 5.79366 33.6131 17 1 
512 1.22361 5.79263 0.0103436 -0.0744557 5.79366 33.6131 25 1 
514 1.22362 5.79365 0.0107078 -0.0747772 5.79468 33.6303 25 1 
516 1.22363 5.79466 0.0110815 -0.075078 5.7957 33.6475 25 1 
518 1.22364 5.79563 0.0114669 -0.0753755 5.79666 33.6636 25 1 
520 1.22365 5.79676 0.0118413 -0.0756603 5.79779 33.6806 25 1 
522 1.22366 5.7981 0.0122152 -0.0759516 5.79913 33.699 25 1 
524 1.22367 5.79939 0.0125954 -0.0762299 5.80042 33.7155 25 1 
526 1.22367 5.80044 0.0129803 -0.0764975 5.80147 33.7283 25 1 
528 1.22368 5.80164 0.0133538 -0.0767551 5.80267 33.7434 25 1 
530 1.22369 5.80313 0.0137639 -0.0770226 5.80416 33.7608 25 1 
532 1.2237 5.80456 0.0141431 -0.0772971 5.80559 33.7738 25 1 
534 1.22371 5.80601 0.0145433 -0.0775574 5.80704 33.7883 25 1 
536 1.22372 5.80754 0.0149531 -0.0778136 5.80857 33.8051 25 1 
538 1.22372 5.80901 0.0153458 -0.0781015 5.81004 33.8167 25 1 
540 1.22373 5.81057 0.0157641 -0.0783609 5.8116 33.8287 25 1 
542 1.22374 5.81232 0.0161531 -0.0786539 5.81335 33.8451 25 1 
544 1.22375 5.81417 0.0165568 -0.0789413 5.8152 33.8601 25 1 
544 1.22375 5.81417 0.0165568 -0.0789413 5.8152 33.8601 25 1 
546 1.22375 5.81595 0.0169468 -0.0792484 5.81698 33.8725 25 1 
548 1.22376 5.8177 0.0173566 -0.079559 5.81874 33.8844 25 1 
550 1.22377 5.81965 0.0177487 -0.0798914 5.82068 33.8987 25 1 
552 1.22377 5.8217 0.0181357 -0.0802336 5.82274 33.9121 25 1 
554 1.22378 5.82389 0.0185285 -0.0806041 5.82493 33.9252 25 1 
556 1.22379 5.82615 0.018883 -0.0809885 5.82719 33.941 25 1 
558 1.2238 5.82825 0.0192646 -0.0813756 5.8293 33.9513 25 1 
560 1.2238 5.83042 0.019612 -0.0817912 5.83147 33.961 25 1 
562 1.22381 5.83295 0.0199642 -0.0822168 5.834 33.9762 25 1 
564 1.22382 5.83546 0.0202948 -0.0826633 5.83652 33.99 25 1 
566 1.22382 5.83792 0.0206265 -0.0831295 5.83898 34.0005 25 1 
568 1.22383 5.84035 0.0209493 -0.0835969 5.84142 34.0115 25 1 
570 1.22384 5.84279 0.0212503 -0.0840934 5.84386 34.0215 25 1 
572 1.22384 5.84549 0.0215633 -0.0845977 5.84657 34.0327 25 1 
574 1.22385 5.84827 0.0218452 -0.0851301 5.84935 34.0453 25 1 
576 1.22385 5.85094 0.0221322 -0.0856579 5.85204 34.0552 25 1 
576 1.22385 5.85094 0.0221322 -0.0856579 5.85204 34.0552 26 1 
578 1.22386 5.85357 0.0223818 -0.0862077 5.85467 34.0637 26 1 
580 1.22386 5.8563 0.0226352 -0.0867548 5.85741 34.0717 26 1 
582 1.22387 5.85925 0.022867 -0.0873142 5.86036 34.0831 26 1 
584 1.22388 5.86221 0.0230747 -0.0878642 5.86333 34.0932 26 1 
586 1.22388 5.86511 0.0232864 -0.0883867 5.86623 34.0997 26 1 
588 1.22388 5.86805 0.0234436 -0.088888 5.86918 34.1089 26 1 
590 1.22389 5.87101 0.0236284 -0.0893541 5.87214 34.1162 26 1 
592 1.22389 5.87405 0.0237685 -0.089819 5.87519 34.1226 26 1 
594 1.2239 5.87734 0.0239137 -0.0902433 5.87849 34.132 26 1 
596 1.2239 5.88046 0.0240553 -0.0906416 5.88161 34.1405 26 1 
598 1.2239 5.8835 0.0241782 -0.0910383 5.88465 34.1438 26 1 
600 1.22391 5.88671 0.0243243 -0.0913919 5.88787 34.15 26 1 
602 1.22391 5.89008 0.0244257 -0.0917341 5.89124 34.159 26 1 
604 1.22391 5.89347 0.0245745 -0.0920264 5.89463 34.1648 26 1 
606 1.22392 5.89672 0.0246924 -0.0923054 5.89788 34.17 26 1 
608 1.22392 5.90006 0.0248289 -0.0925266 5.90122 34.1763 26 1 
608 1.22392 5.90006 0.0248289 -0.0925266 5.90122 34.1763 26 1 
610 1.22392 5.90349 0.0249574 -0.0927218 5.90465 34.1826 26 1 
612 1.22393 5.90689 0.0250915 -0.0928892 5.90805 34.1874 26 1 
614 1.22393 5.91029 0.0252651 -0.0929946 5.91145 34.1948 26 1 
616 1.22393 5.91374 0.0254154 -0.0930825 5.9149 34.2013 26 1 
618 1.22394 5.91702 0.025604 -0.0931373 5.91817 34.2063 26 1 
620 1.22394 5.92028 0.0258044 -0.0931486 5.92143 34.2122 26 1 
622 1.22394 5.92358 0.026048 -0.0931176 5.92473 34.2189 26 1 
624 1.22395 5.9268 0.0262716 -0.0930671 5.92794 34.2263 26 1 
626 1.22395 5.92983 0.0265364 -0.0929707 5.93096 34.2334 26 1 
628 1.22396 5.93273 0.0268289 -0.0928253 5.93386 34.2382 26 1 
630 1.22396 5.9355 0.0271344 -0.0926437 5.93663 34.245 26 1 
632 1.22396 5.93818 0.0274505 -0.0924096 5.9393 34.2528 26 1 
634 1.22397 5.94063 0.0278083 -0.0921289 5.94174 34.2599 26 1 
636 1.22397 5.94286 0.0281884 -0.0918074 5.94397 34.266 26 1 
638 1.22397 5.94481 0.0285756 -0.0914393 5.9459 34.2733 26 1 
640 1.22398 5.94651 0.0290149 -0.0910149 5.94759 34.2807 26 1 
642 1.22398 5.9481 0.0294695 -0.0905552 5.94917 34.2862 26 1 
644 1.22399 5.94927 0.0299776 -0.0900484 5.95034 34.2948 26 1 
646 1.22399 5.95007 0.0305227 -0.0895081 5.95113 34.3028 26 1 
648 1.22399 5.95074 0.0310805 -0.0888988 5.95179 34.3063 26 1 
650 1.224 5.95096 0.031712 -0.0882546 5.95199 34.3154 26 1 
652 1.224 5.95096 0.0323381 -0.0875819 5.95199 34.3226 26 1 
654 1.224 5.95057 0.0330264 -0.0868458 5.95158 34.3273 26 1 
656 1.22401 5.94981 0.0337663 -0.0860795 5.95082 34.3342 26 1 
658 1.22401 5.94892 0.0344791 -0.08528 5.94991 34.3399 26 1 
660 1.22402 5.94748 0.0353155 -0.0844095 5.94846 34.3474 26 1 
662 1.22402 5.94593 0.0361216 -0.0835246 5.9469 34.3504 26 1 
664 1.22402 5.94395 0.0369724 -0.0826023 5.94492 34.3575 26 1 
666 1.22403 5.9417 0.0378837 -0.0815966 5.94265 34.3639 26 1 
668 1.22403 5.93916 0.038761 -0.0806089 5.9401 34.3675 26 1 
670 1.22403 5.93645 0.0397283 -0.0795376 5.93737 34.3718 26 1 
672 1.22403 5.93333 0.0407121 -0.0784427 5.93425 34.3796 26 1 
672 1.22403 5.93333 0.0407121 -0.0784427 5.93425 34.3796 27 1 
674 1.22404 5.92999 0.0416635 -0.0773534 5.93089 34.3836 27 1 
676 1.22404 5.92658 0.0427508 -0.0761741 5.92748 34.3864 27 1 
678 1.22404 5.92266 0.0438005 -0.0750175 5.92354 34.3962 27 1 
680 1.22404 5.91885 0.0448514 -0.0738211 5.91972 34.3977 27 1 
682 1.22405 5.91458 0.0460021 -0.0725661 5.91545 34.4031 27 1 
684 1.22405 5.91028 0.0470602 -0.0713365 5.91113 34.4087 27 1 
686 1.22405 5.90569 0.0482175 -0.070057 5.90654 34.4142 27 1 
688 1.22405 5.90099 0.0493553 -0.0687458 5.90182 34.4178 27 1 
690 1.22406 5.89608 0.0504809 -0.0674407 5.8969 34.423 27 1 
692 1.22406 5.89106 0.0516673 -0.0660653 5.89188 34.428 27 1 
694 1.22406 5.88574 0.0527512 -0.0647595 5.88656 34.4333 27 1 
696 1.22407 5.88035 0.0538888 -0.0633863 5.88115 34.4371 27 1 
698 1.22407 5.87498 0.0550104 -0.0620054 5.87577 34.4407 27 1 
700 1.22407 5.86928 0.0560366 -0.0606639 5.87007 34.4497 27 1 
702 1.22407 5.86355 0.0570969 -0.059261 5.86433 34.4531 27 1 
704 1.22407 5.85775 0.0581499 -0.0578519 5.85852 34.4542 27 1 
704 1.22407 5.85775 0.0581499 -0.0578519 5.85852 34.4542 31 1 
706 1.22408 5.85175 0.0590645 -0.0564991 5.85252 34.4636 31 1 
708 1.22408 5.84584 0.0600005 -0.0551108 5.8466 34.4698 31 1 
710 1.22408 5.84001 0.0608419 -0.0536905 5.84076 34.4702 31 1 
712 1.22409 5.83414 0.0616873 -0.0523226 5.83488 34.4782 31 1 
714 1.22409 5.82807 0.0623267 -0.0509419 5.8288 34.49 31 1 
716 1.22409 5.82229 0.0631285 -0.049512 5.82301 34.4874 31 1 
718 1.2241 5.81656 0.0636761 -0.0481557 5.81728 34.4922 31 1 
720 1.2241 5.81099 0.0642559 -0.0467628 5.8117 34.5069 31 1 
722 1.22411 5.80574 0.0648156 -0.0453591 5.80644 34.5093 31 1 
724 1.22411 5.80065 0.0652431 -0.0439372 5.80134 34.51 31 1 
726 1.22411 5.79581 0.0657027 -0.0425093 5.79649 34.5234 31 1 
728 1.22412 5.79099 0.0659989 -0.0411001 5.79166 34.5337 31 1 
730 1.22412 5.78673 0.0664222 -0.0395895 5.78739 34.5281 31 1 
732 1.22412 5.78296 0.0667169 -0.0381263 5.78362 34.5367 31 1 
734 1.22413 5.77912 0.0669199 -0.0366543 5.77977 34.5572 31 1 
736 1.22413 5.77591 0.0675293 -0.0349432 5.77655 34.5538 31 1 
738 1.22413 5.77357 0.0675918 -0.0333984 5.77419 34.5493 31 1 
740 1.22414 5.77048 0.0680949 -0.0316521 5.7711 34.5796 31 1 
742 1.22414 5.76839 0.0685346 -0.0298763 5.76901 34.5775 31 1 
744 1.22414 5.76683 0.068719 -0.0282019 5.76743 34.5638 31 1 
746 1.22415 5.76522 0.0692389 -0.0263875 5.76582 34.591 31 1 
748 1.22416 5.76396 0.0699245 -0.024255 5.76455 34.6028 31 1 
750 1.22415 5.76331 0.0704633 -0.0222458 5.7639 34.5826 31 1 
752 1.22415 5.76344 0.0708161 -0.0204059 5.76402 34.5889 31 1 
752 1.22415 5.76344 0.0708161 -0.0204059 5.76402 34.5889 31 1 
754 1.22417 5.76221 0.0715796 -0.0181624 5.76279 34.6256 31 1 
756 1.22415 5.76279 0.0724718 -0.0158227 5.76337 34.5945 31 1 
758 1.22415 5.76374 0.0728681 -0.0139138 5.76431 34.5813 31 1 
760 1.22417 5.76344 0.0740168 -0.0111431 5.76403 34.6268 31 1 
762 1.22416 5.76471 0.0748867 -0.00864923 5.7653 34.6025 31 1 
764 1.22413 5.76719 0.0754957 -0.00653281 5.76777 34.5621 31 1 
766 1.22416 5.76711 0.0766005 -0.00374912 5.76771 34.61 31 1 
768 1.22415 5.76993 0.0778556 -0.000875558 5.77054 34.5823 31 1 
770 1.22412 5.77257 0.078248 0.00124796 5.77318 34.5371 31 1 
772 1.22413 5.7747 0.079293 0.00396327 5.77533 34.5493 31 1 
774 1.22412 5.77793 0.080329 0.00685147 5.77857 34.5375 31 1 
776 1.22408 5.78304 0.0814439 0.00969373 5.7837 34.4684 31 1 
778 1.22407 5.78899 0.0826784 0.0126953 5.78967 34.4405 31 1 
780 1.22407 5.79434 0.0839052 0.015856 5.79503 34.4462 31 1 
782 1.22402 5.80166 0.0846104 0.0182501 5.80237 34.3559 31 1 
784 1.22397 5.80794 0.0842211 0.0203768 5.80864 34.2619 31 1 
786 1.22392 5.8217 0.0859601 0.0239107 5.82244 34.1734 31 1 
788 1.22392 5.83247 0.0876273 0.0271747 5.83325 34.1747 31 1 
790 1.22381 5.85022 0.0883491 0.0305616 5.85102 33.9769 31 1 
792 1.22372 5.867 0.0878825 0.0332273 5.8678 33.8149 31 1 
794 1.22366 5.88777 0.0893927 0.0365194 5.88862 33.7127 31 1 
796 1.22355 5.91487 0.0922245 0.0421576 5.91579 33.5054 31 1 
798 1.22341 5.94133 0.0935526 0.0473798 5.94231 33.2514 31 1 
800 1.22329 5.96097 0.0934158 0.0489548 5.96195 33.0301 31 1 
