135.847;r ;Density                 ;Velocity u              ;Velocity v              ;Velocity w              ;|Velocity|              ;Pressure                ;Distribution            ;Levels                  ;
0 1.22299 9.99933 -8.69452e-05 8.50278e-06 9.99933 32.498 1 1 
2 1.22302 9.99799 -7.77735e-05 -2.09306e-05 9.99799 32.5449 1 1 
4 1.22302 9.99703 -0.000252407 -0.000144716 9.99703 32.5534 1 1 
6 1.22302 9.99695 -0.000334979 -0.000223493 9.99695 32.5498 1 1 
8 1.22303 9.99676 -0.000436849 -0.000312666 9.99676 32.5706 1 1 
10 1.22303 9.9965 -0.000529568 -0.000386598 9.9965 32.5645 1 1 
12 1.22304 9.99545 -0.000626926 -0.000472765 9.99545 32.5822 1 1 
14 1.22304 9.99561 -0.00077418 -0.000578727 9.99561 32.5795 1 1 
16 1.22305 9.99523 -0.000841158 -0.000627784 9.99523 32.6066 1 1 
18 1.22305 9.99404 -0.000940056 -0.000696026 9.99404 32.6052 1 1 
20 1.22304 9.99399 -0.00108711 -0.000804795 9.99399 32.5827 1 1 
22 1.22307 9.99373 -0.00119863 -0.00088433 9.99373 32.638 1 1 
24 1.22307 9.99391 -0.00131383 -0.000979171 9.99392 32.642 1 1 
26 1.22307 9.9932 -0.00141436 -0.00104392 9.9932 32.6331 1 1 
28 1.22307 9.99224 -0.00153457 -0.0011317 9.99224 32.6467 1 1 
30 1.22307 9.99196 -0.0016385 -0.00121061 9.99196 32.647 1 1 
32 1.22309 9.99092 -0.00177799 -0.0013034 9.99093 32.6715 1 1 
32 1.22309 9.99092 -0.00177799 -0.0013034 9.99093 32.6715 1 1 
34 1.22309 9.99014 -0.0018541 -0.00134533 9.99014 32.6667 1 1 
36 1.22309 9.98896 -0.00199949 -0.00143314 9.98896 32.6767 1 1 
38 1.22309 9.98901 -0.00210218 -0.00151142 9.98901 32.6747 1 1 
40 1.2231 9.98854 -0.00220569 -0.00159397 9.98854 32.6939 1 1 
42 1.22311 9.98766 -0.00232964 -0.00169238 9.98766 32.7137 1 1 
44 1.22311 9.98674 -0.00242829 -0.00172872 9.98674 32.7047 1 1 
46 1.22312 9.98545 -0.00256602 -0.00182054 9.98545 32.7215 1 1 
48 1.22311 9.98539 -0.00270713 -0.00194319 9.98539 32.718 1 1 
50 1.22312 9.98554 -0.00279678 -0.00197942 9.98554 32.7371 1 1 
52 1.22313 9.98437 -0.00289666 -0.00204454 9.98437 32.7504 1 1 
54 1.22313 9.98302 -0.00303708 -0.00212757 9.98302 32.744 1 1 
56 1.22314 9.9833 -0.00314162 -0.00219127 9.9833 32.7632 1 1 
58 1.22315 9.98291 -0.00329588 -0.00232061 9.98291 32.7782 1 1 
60 1.22314 9.98221 -0.00338949 -0.0023841 9.98221 32.7705 1 1 
62 1.22315 9.98123 -0.00350378 -0.00248652 9.98123 32.7868 1 1 
64 1.22316 9.98101 -0.003621 -0.00255514 9.98101 32.7987 1 1 
64 1.22316 9.98101 -0.003621 -0.00255514 9.98101 32.7987 2 1 
66 1.22317 9.98069 -0.00374241 -0.00265112 9.98069 32.8227 2 1 
68 1.22316 9.98105 -0.00388392 -0.0027535 9.98105 32.8039 2 1 
70 1.22317 9.98 -0.00402738 -0.00284603 9.98 32.8274 2 1 
72 1.22318 9.97878 -0.004155 -0.00294474 9.97878 32.8456 2 1 
74 1.22318 9.97843 -0.00425271 -0.00299805 9.97843 32.8323 2 1 
76 1.2232 9.97754 -0.00435485 -0.00309051 9.97754 32.881 2 1 
78 1.22319 9.9783 -0.00446564 -0.00316076 9.9783 32.8624 2 1 
80 1.2232 9.97758 -0.00459513 -0.00327655 9.97759 32.8717 2 1 
82 1.22321 9.97664 -0.00473806 -0.00340701 9.97664 32.8912 2 1 
84 1.22322 9.97606 -0.00484279 -0.00346011 9.97606 32.9024 2 1 
86 1.22323 9.97521 -0.00496818 -0.00352676 9.97521 32.9249 2 1 
88 1.22322 9.97495 -0.00514822 -0.00365595 9.97496 32.9182 2 1 
90 1.22323 9.97435 -0.0052317 -0.00371726 9.97435 32.9332 2 1 
92 1.22324 9.97338 -0.00538254 -0.00381325 9.97338 32.943 2 1 
94 1.22325 9.97235 -0.00551453 -0.00391675 9.97236 32.9614 2 1 
96 1.22326 9.97193 -0.00561462 -0.00398618 9.97193 32.9773 2 1 
96 1.22326 9.97193 -0.00561462 -0.00398618 9.97193 32.9773 2 1 
98 1.22326 9.97216 -0.00577326 -0.00409461 9.97216 32.9815 2 1 
100 1.22327 9.97189 -0.00584943 -0.00412943 9.9719 32.993 2 1 
102 1.22327 9.97102 -0.00598752 -0.0042473 9.97102 32.997 2 1 
104 1.22328 9.96946 -0.00619052 -0.00438143 9.96946 33.0247 2 1 
106 1.22329 9.96854 -0.00628031 -0.0044146 9.96855 33.033 2 1 
108 1.2233 9.9671 -0.00643257 -0.00454159 9.9671 33.052 2 1 
110 1.22329 9.96695 -0.00654748 -0.0046343 9.96695 33.0404 2 1 
112 1.2233 9.96692 -0.0066827 -0.0047178 9.96693 33.0464 2 1 
114 1.22332 9.96532 -0.00679391 -0.00478237 9.96532 33.0932 2 1 
116 1.22332 9.96597 -0.00691781 -0.0048655 9.96597 33.0904 2 1 
118 1.22333 9.96557 -0.0070261 -0.00494312 9.96557 33.1116 2 1 
120 1.22335 9.96381 -0.00716024 -0.00502249 9.96381 33.1374 2 1 
122 1.22333 9.96335 -0.00731506 -0.00512163 9.96336 33.1068 2 1 
124 1.22334 9.96155 -0.00742495 -0.00522327 9.96156 33.1215 2 1 
126 1.22337 9.95996 -0.00759951 -0.00535227 9.95997 33.1898 2 1 
128 1.22336 9.96078 -0.00771378 -0.00538411 9.96079 33.1543 2 1 
128 1.22336 9.96078 -0.00771378 -0.00538411 9.96079 33.1543 10 1 
130 1.22337 9.96009 -0.00785371 -0.00552374 9.9601 33.1825 10 1 
132 1.22339 9.96019 -0.00797283 -0.00558047 9.96019 33.21 10 1 
134 1.22338 9.95955 -0.00811919 -0.00566361 9.95955 33.2048 10 1 
136 1.2234 9.95692 -0.00822615 -0.00575787 9.95693 33.2398 10 1 
138 1.22339 9.95615 -0.00834578 -0.00583852 9.95616 33.2234 10 1 
140 1.22341 9.95597 -0.0084687 -0.00593487 9.95597 33.2577 10 1 
142 1.22342 9.95566 -0.00859423 -0.00597177 9.95567 33.27 10 1 
144 1.22342 9.9553 -0.00875157 -0.00609826 9.9553 33.2754 10 1 
146 1.22345 9.95464 -0.0089031 -0.00618903 9.95464 33.3254 10 1 
148 1.22345 9.95267 -0.00905386 -0.00628864 9.95268 33.3301 10 1 
150 1.22344 9.9517 -0.00916448 -0.00637731 9.9517 33.3026 10 1 
152 1.22346 9.95104 -0.00928727 -0.00647248 9.95105 33.3462 10 1 
154 1.22348 9.95025 -0.00935731 -0.00650371 9.95026 33.3804 10 1 
156 1.22348 9.95028 -0.00951209 -0.00659828 9.95029 33.3764 10 1 
158 1.2235 9.94895 -0.00964572 -0.00667777 9.94896 33.4121 10 1 
160 1.22351 9.94675 -0.00971402 -0.00673374 9.94676 33.4347 10 1 
160 1.22351 9.94675 -0.00971402 -0.00673374 9.94676 33.4347 10 1 
162 1.22349 9.94664 -0.00986992 -0.00685869 9.94665 33.4005 10 1 
164 1.22351 9.94527 -0.00999014 -0.00692026 9.94527 33.4371 10 1 
166 1.22356 9.94276 -0.010158 -0.00702918 9.94277 33.5224 10 1 
168 1.22353 9.94413 -0.0103115 -0.00714303 9.94414 33.4662 10 1 
170 1.22355 9.94184 -0.0104084 -0.00721189 9.94185 33.5115 10 1 
172 1.22357 9.9409 -0.0105372 -0.00725064 9.94091 33.538 10 1 
174 1.22355 9.94189 -0.010619 -0.00731212 9.9419 33.5101 10 1 
176 1.22361 9.93863 -0.0107902 -0.00740251 9.93863 33.6134 10 1 
178 1.2236 9.93793 -0.0108945 -0.00747876 9.93794 33.5952 10 1 
180 1.22361 9.93625 -0.0110167 -0.00761032 9.93626 33.6069 10 1 
182 1.22362 9.9329 -0.0111666 -0.00772561 9.93291 33.6294 10 1 
184 1.2236 9.93183 -0.011313 -0.00781668 9.93184 33.6038 10 1 
186 1.22366 9.9319 -0.0113991 -0.00784986 9.93191 33.7016 10 1 
188 1.22368 9.93102 -0.0114837 -0.0078905 9.93103 33.7426 10 1 
190 1.22367 9.93015 -0.0116879 -0.00803179 9.93016 33.7185 10 1 
192 1.22368 9.92916 -0.0116771 -0.00800054 9.92917 33.7331 10 1 
194 1.2237 9.92512 -0.0119507 -0.0081854 9.92513 33.7812 10 1 
196 1.22372 9.92182 -0.012129 -0.00830288 9.92184 33.806 10 1 
198 1.22372 9.9209 -0.012133 -0.00823385 9.92091 33.8217 10 1 
200 1.22377 9.91887 -0.0123507 -0.00844323 9.91888 33.9056 10 1 
202 1.22377 9.91806 -0.0123633 -0.00846386 9.91807 33.9026 10 1 
204 1.22374 9.91801 -0.0124234 -0.00845218 9.91802 33.8513 10 1 
206 1.22382 9.91392 -0.0127214 -0.00865491 9.91393 33.9956 10 1 
208 1.22386 9.91211 -0.0128717 -0.00869804 9.91212 34.0619 10 1 
210 1.22382 9.91214 -0.0129185 -0.0086931 9.91216 33.9973 10 1 
212 1.2239 9.90481 -0.0130644 -0.00887133 9.90482 34.1313 10 1 
214 1.22388 9.89996 -0.0131277 -0.00889628 9.89997 34.1008 10 1 
216 1.22387 9.89624 -0.0133372 -0.0089835 9.89626 34.0863 10 1 
218 1.22396 9.89109 -0.013597 -0.00915739 9.89111 34.239 10 1 
220 1.22397 9.89458 -0.0136713 -0.00924225 9.8946 34.2606 10 1 
222 1.22402 9.89387 -0.0137252 -0.00927052 9.89388 34.3511 10 1 
224 1.22403 9.88783 -0.0138102 -0.00917722 9.88784 34.37 10 1 
224 1.22403 9.88783 -0.0138102 -0.00917722 9.88784 34.37 10 1 
226 1.22406 9.88234 -0.0139955 -0.00926714 9.88235 34.4358 10 1 
228 1.22411 9.87194 -0.0141625 -0.00947808 9.87195 34.5086 10 1 
230 1.22411 9.86401 -0.0143567 -0.00966184 9.86403 34.5257 10 1 
232 1.22414 9.86409 -0.0145266 -0.00970202 9.8641 34.5753 10 1 
234 1.22422 9.86062 -0.0146246 -0.00966821 9.86064 34.71 10 1 
236 1.22432 9.85166 -0.014709 -0.00975943 9.85167 34.8993 10 1 
238 1.22426 9.84819 -0.0148222 -0.00984145 9.84821 34.796 10 1 
240 1.2244 9.83511 -0.0151644 -0.0101284 9.83513 35.0405 10 1 
242 1.22444 9.82563 -0.0153305 -0.0102311 9.82565 35.1199 10 1 
244 1.22439 9.82317 -0.0153634 -0.0101909 9.82319 35.0269 10 1 
246 1.22462 9.81005 -0.0155254 -0.0102995 9.81007 35.4408 10 1 
248 1.22467 9.79951 -0.0155671 -0.0102608 9.79953 35.531 10 1 
250 1.22469 9.78583 -0.0157934 -0.0104381 9.78585 35.5714 10 1 
252 1.22478 9.77273 -0.0161108 -0.0107176 9.77275 35.7274 10 1 
254 1.22492 9.75917 -0.0161201 -0.0106448 9.75919 35.9813 10 1 
256 1.22503 9.74359 -0.0162325 -0.0107313 9.74361 36.1711 10 1 
256 1.22503 9.74359 -0.0162325 -0.0107313 9.74361 36.1711 11 1 
258 1.2251 9.72546 -0.0164477 -0.0108967 9.72548 36.3122 11 1 
260 1.22533 9.70516 -0.0166239 -0.0110021 9.70519 36.7221 11 1 
262 1.22548 9.68119 -0.0168836 -0.0111877 9.68122 36.9884 11 1 
264 1.22548 9.65754 -0.0169417 -0.0111896 9.65756 37.0003 11 1 
266 1.22574 9.63256 -0.0170116 -0.0112504 9.63259 37.4703 11 1 
268 1.22619 9.59133 -0.0172233 -0.0114232 9.59136 38.2721 11 1 
270 1.22615 9.56165 -0.0174689 -0.0115403 9.56169 38.2069 11 1 
272 1.22642 9.51828 -0.0175128 -0.0115384 9.51832 38.6971 11 1 
274 1.227 9.46105 -0.0176652 -0.0116703 9.46108 39.7343 11 1 
276 1.22706 9.41913 -0.0178563 -0.0117595 9.41916 39.8461 11 1 
278 1.22748 9.35765 -0.0179891 -0.0118561 9.35768 40.6116 11 1 
280 1.22821 9.29304 -0.0181123 -0.0119265 9.29309 41.9302 11 1 
282 1.22872 9.21022 -0.0181752 -0.0119231 9.21041 42.8478 11 1 
284 1.22912 9.08995 -0.0181977 -0.0119857 9.09025 43.5698 11 1 
286 1.22965 8.96585 -0.0182819 -0.0120481 8.96603 44.5285 11 1 
288 1.23052 8.85172 -0.0184294 -0.0121274 8.8518 46.1006 11 1 
288 1.23052 8.85172 -0.0184294 -0.0121274 8.8518 46.1006 11 1 
290 1.23157 8.74197 -0.0185395 -0.0121711 8.74207 47.9953 11 1 
292 1.23245 8.60193 -0.018693 -0.0123039 8.60223 49.5887 11 1 
294 1.23318 8.42015 -0.0186941 -0.0122711 8.42071 50.8951 11 1 
296 1.23411 8.2328 -0.0186017 -0.0122004 8.23319 52.5818 11 1 
298 1.22834 8.00994 -0.0182307 -0.0126476 8.0696 42.1575 11 1 
300 1.2183 7.92363 -0.017317 -0.0139286 8.00082 24.0251 11 1 
302 1.21503 7.88496 -0.0162876 -0.0156304 7.93321 18.116 11 1 
304 1.21592 7.7119 -0.0152248 -0.0170084 7.75172 19.7266 11 1 
306 1.21697 7.53131 -0.0142742 -0.0180306 7.56093 21.6138 11 1 
308 1.21781 7.36459 -0.0134939 -0.0189204 7.38832 23.1294 11 1 
310 1.21835 7.22468 -0.012876 -0.0195878 7.23733 24.1223 11 1 
312 1.219 7.08785 -0.0123299 -0.020364 7.10004 25.2892 11 1 
314 1.21958 6.97952 -0.0119417 -0.0210782 6.99069 26.3405 11 1 
316 1.22007 6.89328 -0.0115484 -0.0217427 6.90391 27.2177 11 1 
318 1.22049 6.79566 -0.0111223 -0.0223976 6.80289 27.9823 11 1 
320 1.2208 6.71811 -0.0106692 -0.0229364 6.72491 28.5458 11 1 
320 1.2208 6.71811 -0.0106692 -0.0229364 6.72491 28.5458 15 1 
322 1.22113 6.66468 -0.0104289 -0.0234944 6.67131 29.139 15 1 
324 1.2215 6.60564 -0.0101528 -0.0241205 6.61196 29.796 15 1 
326 1.22176 6.5495 -0.00971607 -0.0246185 6.55463 30.2659 15 1 
328 1.22194 6.4995 -0.00933414 -0.0251242 6.50441 30.6059 15 1 
330 1.22209 6.45204 -0.00906208 -0.0256772 6.45648 30.8678 15 1 
332 1.22234 6.41938 -0.0087314 -0.0261922 6.4238 31.3219 15 1 
334 1.2226 6.38372 -0.00832771 -0.0267112 6.38764 31.7954 15 1 
336 1.22262 6.33515 -0.00799385 -0.0272815 6.33894 31.8246 15 1 
338 1.22269 6.30029 -0.00773642 -0.0278007 6.3039 31.9507 15 1 
340 1.22294 6.27893 -0.00753979 -0.0283803 6.28246 32.4066 15 1 
342 1.22308 6.25407 -0.00724769 -0.0288885 6.25734 32.6596 15 1 
344 1.22311 6.22153 -0.00693818 -0.0293256 6.22478 32.7176 15 1 
346 1.22315 6.18785 -0.00672506 -0.0298757 6.19087 32.7838 15 1 
348 1.22329 6.1723 -0.00666551 -0.0305243 6.17524 33.0322 15 1 
350 1.22345 6.16402 -0.00653321 -0.0309833 6.16682 33.3236 15 1 
352 1.22346 6.13986 -0.00626836 -0.03138 6.14263 33.3515 15 1 
354 1.2235 6.11752 -0.00606154 -0.0318399 6.12011 33.4104 15 1 
356 1.22361 6.10659 -0.0060149 -0.0324466 6.1091 33.6058 15 1 
358 1.22367 6.09583 -0.00595261 -0.032957 6.09823 33.716 15 1 
360 1.22373 6.08775 -0.0057417 -0.033307 6.09013 33.8391 15 1 
362 1.2238 6.07868 -0.00550235 -0.0337026 6.08091 33.9577 15 1 
364 1.22384 6.06578 -0.00537519 -0.0342228 6.06793 34.0276 15 1 
366 1.22388 6.05704 -0.00528814 -0.0346583 6.05909 34.1012 15 1 
368 1.22393 6.05267 -0.0050816 -0.0350547 6.05471 34.1964 15 1 
370 1.22401 6.04984 -0.00480963 -0.035399 6.05179 34.3398 15 1 
372 1.22405 6.04385 -0.00461577 -0.035788 6.04572 34.4145 15 1 
374 1.22407 6.03436 -0.0044591 -0.0362464 6.03614 34.4367 15 1 
376 1.22412 6.02883 -0.00422589 -0.0366356 6.0306 34.5266 15 1 
378 1.22416 6.02597 -0.00395707 -0.0369375 6.02769 34.6102 15 1 
380 1.22421 6.02325 -0.00372342 -0.0372982 6.02493 34.6995 15 1 
382 1.22425 6.01942 -0.00353343 -0.0377154 6.02103 34.7772 15 1 
384 1.22426 6.01054 -0.00327306 -0.0381219 6.01213 34.7964 15 1 
384 1.22426 6.01054 -0.00327306 -0.0381219 6.01213 34.7964 16 1 
386 1.2243 6.00346 -0.00295022 -0.0384763 6.00501 34.857 16 1 
388 1.22434 6.00165 -0.0026916 -0.0388357 6.00318 34.9347 16 1 
390 1.22437 5.99754 -0.00251272 -0.0392624 5.99904 34.9935 16 1 
392 1.22441 5.99065 -0.00220924 -0.0396565 5.99213 35.0558 16 1 
394 1.22442 5.98272 -0.00185679 -0.040058 5.98416 35.0818 16 1 
396 1.22444 5.97463 -0.00157767 -0.0404766 5.97607 35.108 16 1 
398 1.22447 5.96933 -0.00131372 -0.0408742 5.97074 35.1656 16 1 
400 1.22451 5.96452 -0.000966962 -0.0412662 5.96592 35.2318 16 1 
402 1.22453 5.95676 -0.000664497 -0.0417224 5.95814 35.2749 16 1 
404 1.22453 5.94704 -0.000392068 -0.0421523 5.94842 35.272 16 1 
406 1.22455 5.93877 -2.03904e-05 -0.0425587 5.94012 35.3074 16 1 
408 1.22459 5.93316 0.000348858 -0.0429636 5.9345 35.3785 16 1 
410 1.2246 5.92637 0.000584451 -0.0434257 5.9277 35.4026 16 1 
412 1.22461 5.91773 0.000827095 -0.0438554 5.91906 35.4234 16 1 
414 1.22463 5.90978 0.00115756 -0.0442665 5.91109 35.4615 16 1 
416 1.22465 5.9018 0.00146508 -0.0446735 5.9031 35.4897 16 1 
416 1.22465 5.9018 0.00146508 -0.0446735 5.9031 35.4897 16 1 
418 1.22466 5.89414 0.00172521 -0.0451135 5.89542 35.5145 16 1 
420 1.22468 5.88752 0.00195436 -0.0455336 5.8888 35.5407 16 1 
422 1.2247 5.88046 0.00216175 -0.0459866 5.88173 35.5819 16 1 
424 1.22471 5.87276 0.0023853 -0.0463899 5.874 35.6093 16 1 
426 1.22471 5.86445 0.00260756 -0.0467807 5.86568 35.6094 16 1 
428 1.22473 5.85681 0.00279267 -0.0471429 5.85804 35.6321 16 1 
430 1.22475 5.85133 0.00294523 -0.0475291 5.85254 35.6743 16 1 
432 1.22477 5.84547 0.00308656 -0.0478919 5.84667 35.7007 16 1 
434 1.22477 5.83768 0.00325767 -0.0482473 5.83886 35.708 16 1 
436 1.22478 5.83039 0.00342958 -0.0485767 5.83157 35.7202 16 1 
438 1.22479 5.82494 0.00358644 -0.0489056 5.8261 35.7496 16 1 
440 1.22481 5.8203 0.00374393 -0.0492068 5.82145 35.7733 16 1 
442 1.22482 5.81524 0.00387921 -0.0495482 5.81637 35.7944 16 1 
444 1.22483 5.80964 0.00403329 -0.049885 5.81076 35.8172 16 1 
446 1.22483 5.80445 0.0042108 -0.0501972 5.80555 35.8258 16 1 
448 1.22484 5.80027 0.0043804 -0.0505054 5.80136 35.8436 16 1 
448 1.22484 5.80027 0.0043804 -0.0505054 5.80136 35.8436 17 1 
450 1.22486 5.79688 0.00455283 -0.0508205 5.79795 35.8749 17 1 
452 1.22487 5.7936 0.00473525 -0.0511299 5.79467 35.8953 17 1 
454 1.22488 5.78984 0.00489028 -0.0514749 5.79089 35.9111 17 1 
456 1.22489 5.78608 0.0050705 -0.0518117 5.78712 35.9261 17 1 
458 1.2249 5.78301 0.00530678 -0.052113 5.78404 35.9412 17 1 
460 1.22491 5.78074 0.00551308 -0.0524368 5.78177 35.9634 17 1 
462 1.22492 5.77877 0.00569778 -0.0528075 5.77978 35.987 17 1 
464 1.22493 5.77617 0.00592319 -0.053172 5.77718 36.0028 17 1 
466 1.22494 5.7732 0.00618462 -0.053499 5.7742 36.0101 17 1 
468 1.22494 5.77122 0.00644308 -0.0538479 5.77222 36.0254 17 1 
470 1.22496 5.77003 0.00670463 -0.0542402 5.77102 36.0482 17 1 
472 1.22497 5.76858 0.00698495 -0.054608 5.76956 36.0645 17 1 
474 1.22498 5.76703 0.00725159 -0.0549781 5.768 36.0801 17 1 
476 1.22498 5.76549 0.00755234 -0.0553455 5.76645 36.0917 17 1 
478 1.22499 5.76419 0.00787748 -0.0556971 5.76515 36.1007 17 1 
480 1.225 5.76377 0.00819228 -0.0560483 5.76473 36.1223 17 1 
480 1.225 5.76377 0.00819228 -0.0560483 5.76473 36.1223 17 1 
482 1.22501 5.7636 0.00850067 -0.0564332 5.76454 36.1433 17 1 
484 1.22502 5.76301 0.00884883 -0.0568054 5.76396 36.1537 17 1 
486 1.22502 5.76244 0.00917978 -0.0571735 5.76338 36.1654 17 1 
488 1.22503 5.76219 0.00952011 -0.0575301 5.76313 36.1807 17 1 
490 1.22504 5.76257 0.00990327 -0.0578992 5.7635 36.1972 17 1 
492 1.22505 5.76327 0.0102716 -0.0582785 5.7642 36.2146 17 1 
494 1.22506 5.76358 0.0105878 -0.0586704 5.76451 36.2298 17 1 
496 1.22507 5.76371 0.0109361 -0.0590491 5.76463 36.2428 17 1 
498 1.22507 5.76418 0.0113369 -0.0594212 5.7651 36.253 17 1 
500 1.22508 5.76516 0.0116844 -0.0597941 5.76608 36.2681 17 1 
502 1.22509 5.7664 0.0119894 -0.0601964 5.76731 36.2893 17 1 
504 1.2251 5.76708 0.012323 -0.060598 5.76799 36.302 17 1 
506 1.2251 5.76752 0.012664 -0.060975 5.76844 36.309 17 1 
508 1.22511 5.76863 0.0129929 -0.0613317 5.76955 36.3232 17 1 
510 1.22512 5.76984 0.0133074 -0.0617234 5.77076 36.3401 17 1 
512 1.22513 5.77078 0.013613 -0.062117 5.7717 36.3528 17 1 
512 1.22513 5.77078 0.013613 -0.062117 5.7717 36.3528 25 1 
514 1.22513 5.7718 0.0139141 -0.0624978 5.77272 36.3646 25 1 
516 1.22514 5.77278 0.0142133 -0.0628676 5.7737 36.3763 25 1 
518 1.22514 5.77368 0.0145111 -0.063238 5.77459 36.3869 25 1 
520 1.22515 5.77472 0.0147873 -0.0635976 5.77563 36.3986 25 1 
522 1.22516 5.77593 0.0150482 -0.0639632 5.77684 36.4119 25 1 
524 1.22517 5.77705 0.0153035 -0.0643153 5.77796 36.4232 25 1 
526 1.22517 5.7779 0.0155523 -0.0646458 5.77881 36.4308 25 1 
528 1.22517 5.77886 0.0157816 -0.0649614 5.77976 36.4406 25 1 
530 1.22518 5.78006 0.0160383 -0.0652753 5.78097 36.4528 25 1 
532 1.22519 5.78115 0.0162596 -0.065583 5.78206 36.4606 25 1 
534 1.22519 5.78223 0.0164949 -0.0658639 5.78313 36.47 25 1 
536 1.2252 5.78334 0.0167398 -0.0661275 5.78424 36.4816 25 1 
538 1.2252 5.78433 0.0169673 -0.0663988 5.78523 36.4879 25 1 
540 1.2252 5.78537 0.0172185 -0.0666246 5.78627 36.4944 25 1 
542 1.22521 5.78654 0.0174501 -0.0668649 5.78744 36.5055 25 1 
544 1.22522 5.78777 0.0177028 -0.0670829 5.78866 36.5151 25 1 
544 1.22522 5.78777 0.0177028 -0.0670829 5.78866 36.5151 25 1 
546 1.22522 5.78887 0.0179492 -0.067293 5.78976 36.5221 25 1 
548 1.22522 5.7899 0.0182201 -0.0674906 5.79079 36.5284 25 1 
550 1.22523 5.79106 0.0184855 -0.0676903 5.79195 36.5369 25 1 
552 1.22523 5.79229 0.0187615 -0.0678757 5.79317 36.5444 25 1 
554 1.22524 5.79359 0.0190479 -0.0680661 5.79448 36.5516 25 1 
556 1.22524 5.79493 0.019315 -0.0682532 5.79581 36.5616 25 1 
558 1.22524 5.79607 0.0196283 -0.0684266 5.79695 36.5661 25 1 
560 1.22525 5.79724 0.0199299 -0.0686067 5.79812 36.57 25 1 
562 1.22525 5.79873 0.0202482 -0.0687785 5.79961 36.5792 25 1 
564 1.22526 5.80018 0.0205616 -0.0689586 5.80106 36.5872 25 1 
566 1.22526 5.80154 0.0208984 -0.0691397 5.80243 36.5919 25 1 
568 1.22526 5.80285 0.0212393 -0.0693109 5.80374 36.5971 25 1 
570 1.22526 5.80415 0.0215775 -0.0694949 5.80503 36.6015 25 1 
572 1.22527 5.80568 0.021944 -0.0696842 5.80656 36.607 25 1 
574 1.22527 5.80725 0.022307 -0.0698948 5.80814 36.6142 25 1 
576 1.22527 5.80869 0.0226888 -0.0700957 5.80958 36.6185 25 1 
576 1.22527 5.80869 0.0226888 -0.0700957 5.80958 36.6185 26 1 
578 1.22527 5.81004 0.0230623 -0.0703074 5.81093 36.6216 26 1 
580 1.22528 5.81145 0.0234632 -0.0705182 5.81235 36.6243 26 1 
582 1.22528 5.81304 0.0238642 -0.0707487 5.81394 36.6301 26 1 
584 1.22528 5.81459 0.0242655 -0.0709843 5.81549 36.6348 26 1 
586 1.22528 5.81601 0.0246904 -0.0712162 5.81692 36.6358 26 1 
588 1.22528 5.81743 0.025096 -0.0714597 5.81834 36.6397 26 1 
590 1.22529 5.8188 0.0255491 -0.0717046 5.81971 36.6415 26 1 
592 1.22529 5.82019 0.025978 -0.071972 5.8211 36.6424 26 1 
594 1.22529 5.82176 0.0264198 -0.072225 5.82268 36.6462 26 1 
596 1.22529 5.82309 0.0268714 -0.0724831 5.82401 36.6492 26 1 
598 1.22529 5.82428 0.0273223 -0.0727617 5.82521 36.6467 26 1 
600 1.22529 5.82558 0.0277962 -0.0730274 5.82651 36.6472 26 1 
602 1.22529 5.82697 0.0282241 -0.0733124 5.82791 36.6503 26 1 
604 1.22529 5.82834 0.0286989 -0.0735805 5.82928 36.65 26 1 
606 1.22529 5.82953 0.0291477 -0.0738667 5.83047 36.649 26 1 
608 1.22529 5.83076 0.0296052 -0.0741369 5.83171 36.6487 26 1 
608 1.22529 5.83076 0.0296052 -0.0741369 5.83171 36.6487 26 1 
610 1.22529 5.83206 0.0300434 -0.0744146 5.83301 36.6484 26 1 
612 1.22529 5.83332 0.0304843 -0.0746921 5.83427 36.6464 26 1 
614 1.22529 5.83459 0.0309529 -0.0749448 5.83555 36.6468 26 1 
616 1.22529 5.83594 0.0313839 -0.0752181 5.8369 36.6462 26 1 
618 1.22529 5.83716 0.0318304 -0.075486 5.83812 36.6441 26 1 
620 1.22529 5.83843 0.0322656 -0.0757328 5.8394 36.6427 26 1 
622 1.22529 5.83984 0.0327114 -0.0759703 5.84081 36.6418 26 1 
624 1.22529 5.84128 0.0331165 -0.0762245 5.84226 36.6418 26 1 
626 1.22529 5.84268 0.0335348 -0.076463 5.84366 36.6417 26 1 
628 1.22528 5.84413 0.0339451 -0.0766763 5.84511 36.6394 26 1 
630 1.22528 5.84565 0.0343347 -0.076878 5.84663 36.6391 26 1 
632 1.22529 5.8473 0.0347017 -0.0770554 5.84828 36.6401 26 1 
634 1.22529 5.84897 0.0350657 -0.0772007 5.84995 36.6404 26 1 
636 1.22529 5.85071 0.0354072 -0.0773124 5.85169 36.6399 26 1 
638 1.22529 5.85247 0.0357186 -0.0773901 5.85344 36.6405 26 1 
640 1.22529 5.8543 0.0360456 -0.0774317 5.85528 36.6419 26 1 
642 1.22529 5.85639 0.0363441 -0.0774555 5.85736 36.6415 26 1 
644 1.22529 5.85844 0.0366499 -0.0774475 5.85941 36.644 26 1 
646 1.22529 5.8605 0.0369518 -0.0774153 5.86148 36.6464 26 1 
648 1.22529 5.86284 0.0372296 -0.0773303 5.8638 36.6445 26 1 
650 1.22529 5.86513 0.0375333 -0.0772216 5.86609 36.6484 26 1 
652 1.22529 5.86764 0.0377976 -0.0770788 5.8686 36.6504 26 1 
654 1.22529 5.87014 0.0380884 -0.0768695 5.8711 36.6509 26 1 
656 1.22529 5.87271 0.0384009 -0.0766404 5.87366 36.6536 26 1 
658 1.22529 5.87551 0.0386617 -0.0763758 5.87645 36.6554 26 1 
660 1.2253 5.87815 0.0390119 -0.0760343 5.87908 36.6594 26 1 
662 1.2253 5.88105 0.0393152 -0.0756654 5.88199 36.6592 26 1 
664 1.2253 5.88385 0.039645 -0.0752654 5.88478 36.6636 26 1 
666 1.2253 5.8867 0.0400321 -0.0747883 5.88761 36.6675 26 1 
668 1.2253 5.88953 0.0403827 -0.0743124 5.89044 36.6688 26 1 
670 1.2253 5.89247 0.0408047 -0.0737475 5.89337 36.6711 26 1 
672 1.22531 5.89522 0.0412558 -0.0731408 5.89611 36.6773 26 1 
672 1.22531 5.89522 0.0412558 -0.0731408 5.89611 36.6773 27 1 
674 1.22531 5.89794 0.0416674 -0.0725334 5.89882 36.6794 27 1 
676 1.22531 5.90075 0.0422031 -0.0718171 5.90163 36.6804 27 1 
678 1.22531 5.90317 0.0427065 -0.0710846 5.90404 36.6885 27 1 
680 1.22531 5.90581 0.0432145 -0.0702944 5.90666 36.6884 27 1 
682 1.22531 5.90805 0.0438365 -0.0694269 5.90889 36.6921 27 1 
684 1.22532 5.91028 0.0443834 -0.0685523 5.91112 36.6957 27 1 
686 1.22532 5.91222 0.0450325 -0.0675971 5.91304 36.6995 27 1 
688 1.22532 5.91403 0.0456907 -0.0665779 5.91484 36.7012 27 1 
690 1.22532 5.91556 0.0463649 -0.0655251 5.91636 36.7044 27 1 
692 1.22532 5.91689 0.047132 -0.0643714 5.91768 36.707 27 1 
694 1.22532 5.9178 0.0478409 -0.0632388 5.91858 36.7102 27 1 
696 1.22532 5.91848 0.0486517 -0.0619999 5.91925 36.7115 27 1 
698 1.22532 5.91901 0.0495034 -0.0606951 5.91977 36.7119 27 1 
700 1.22533 5.919 0.0503236 -0.059393 5.91975 36.7181 27 1 
702 1.22533 5.91874 0.05124 -0.0579683 5.91947 36.7183 27 1 
704 1.22533 5.91814 0.0522167 -0.0564832 5.91887 36.7155 27 1 
704 1.22533 5.91814 0.0522167 -0.0564832 5.91887 36.7155 31 1 
706 1.22533 5.91706 0.0531313 -0.0550013 5.91778 36.721 31 1 
708 1.22533 5.91576 0.0541545 -0.0534274 5.91647 36.7224 31 1 
710 1.22533 5.91419 0.0551734 -0.0517542 5.91489 36.7176 31 1 
712 1.22533 5.91222 0.0562666 -0.0500881 5.91292 36.7202 31 1 
714 1.22533 5.90967 0.0572717 -0.0483295 5.91036 36.7259 31 1 
716 1.22533 5.90701 0.0584956 -0.0464871 5.90768 36.7167 31 1 
718 1.22533 5.90395 0.0595698 -0.0446313 5.90462 36.7146 31 1 
720 1.22533 5.9006 0.0607587 -0.0427071 5.90127 36.7222 31 1 
722 1.22533 5.8971 0.0620023 -0.0407072 5.89775 36.7162 31 1 
724 1.22532 5.89326 0.0632255 -0.0386476 5.89391 36.7087 31 1 
726 1.22533 5.88919 0.0645381 -0.0365538 5.88984 36.7139 31 1 
728 1.22533 5.8846 0.0657545 -0.0344392 5.88524 36.7154 31 1 
730 1.22532 5.88004 0.0671644 -0.0322181 5.88069 36.7007 31 1 
732 1.22532 5.8755 0.068459 -0.0300437 5.87614 36.6995 31 1 
734 1.22532 5.87028 0.0697471 -0.0278103 5.87092 36.7115 31 1 
736 1.22532 5.86522 0.0714024 -0.0254046 5.86587 36.6972 31 1 
738 1.22531 5.86059 0.0725775 -0.023129 5.86124 36.6814 31 1 
740 1.22532 5.85459 0.0741365 -0.0207245 5.85525 36.7045 31 1 
742 1.22531 5.84925 0.0756342 -0.0183045 5.84991 36.6902 31 1 
744 1.2253 5.84401 0.0768606 -0.0160451 5.84468 36.6646 31 1 
746 1.22531 5.83822 0.0783498 -0.0137206 5.8389 36.6841 31 1 
748 1.22531 5.83252 0.0799707 -0.0111052 5.83321 36.6836 31 1 
750 1.22529 5.82714 0.0813638 -0.00872594 5.82784 36.6503 31 1 
752 1.22529 5.82221 0.0824911 -0.00658594 5.82292 36.648 31 1 
752 1.22529 5.82221 0.0824911 -0.00658594 5.82292 36.648 31 1 
754 1.2253 5.81569 0.0839722 -0.00411274 5.81642 36.6745 31 1 
756 1.22528 5.81089 0.0854304 -0.00167918 5.81163 36.6289 31 1 
758 1.22527 5.80628 0.0862952 0.000225735 5.80703 36.6055 31 1 
760 1.22529 5.80034 0.0878645 0.00292609 5.80111 36.6426 31 1 
762 1.22527 5.79605 0.0890269 0.00519731 5.79684 36.6042 31 1 
764 1.22524 5.79302 0.0897626 0.00699233 5.79382 36.552 31 1 
766 1.22526 5.78752 0.0909152 0.00933266 5.78833 36.5929 31 1 
768 1.22524 5.78515 0.0921267 0.0116854 5.78599 36.5533 31 1 
770 1.2252 5.78287 0.0923783 0.0132195 5.78371 36.4951 31 1 
772 1.22521 5.78032 0.0930519 0.0151749 5.78117 36.5001 31 1 
774 1.2252 5.77923 0.0937187 0.0173007 5.78009 36.4801 31 1 
776 1.22515 5.78046 0.094376 0.0193154 5.78134 36.3989 31 1 
778 1.22513 5.78298 0.0950613 0.0214088 5.78388 36.3614 31 1 
780 1.22513 5.78538 0.0955956 0.0235986 5.78629 36.3622 31 1 
782 1.22508 5.79029 0.0955894 0.0249777 5.7912 36.2639 31 1 
784 1.22502 5.79446 0.0946045 0.0262224 5.79535 36.1606 31 1 
786 1.22497 5.8067 0.0955636 0.0287362 5.80762 36.0658 31 1 
788 1.22497 5.81616 0.0965527 0.0311222 5.81711 36.0656 31 1 
790 1.22485 5.83304 0.0966026 0.0336112 5.834 35.8608 31 1 
792 1.22476 5.84917 0.0955436 0.0354552 5.85012 35.6943 31 1 
794 1.22471 5.86915 0.0964651 0.0380109 5.87012 35.5955 31 1 
796 1.22459 5.89578 0.0988924 0.0428145 5.89682 35.3889 31 1 
798 1.22446 5.92061 0.100323 0.0476306 5.92171 35.1488 31 1 
800 1.22434 5.93887 0.10047 0.0492559 5.93998 34.9404 31 1 
