70.6405;r ;Density                 ;Velocity u              ;Velocity v              ;Velocity w              ;|Velocity|              ;Pressure                ;Distribution            ;Levels                  ;
0 1.20838 9.99922 -9.92541e-05 -9.19674e-06 9.99922 6.0997 1 1 
2 1.2084 9.99783 -0.000100114 -4.51831e-05 9.99783 6.14475 1 1 
4 1.20841 9.99684 -0.000240607 -0.000171051 9.99684 6.15331 1 1 
6 1.20841 9.99671 -0.000324821 -0.000256229 9.99671 6.15238 1 1 
8 1.20842 9.99646 -0.00042318 -0.000352483 9.99646 6.17429 1 1 
10 1.20841 9.99619 -0.000520712 -0.000434984 9.99619 6.16748 1 1 
12 1.20842 9.99504 -0.00061408 -0.000524513 9.99504 6.18438 1 1 
14 1.20842 9.99512 -0.000748266 -0.00063289 9.99512 6.1832 1 1 
16 1.20844 9.99461 -0.000815715 -0.000698905 9.99461 6.2098 1 1 
18 1.20843 9.99337 -0.000915594 -0.000784152 9.99337 6.20432 1 1 
20 1.20842 9.99332 -0.00105403 -0.000907804 9.99332 6.1788 1 1 
22 1.20845 9.99295 -0.0011589 -0.000999421 9.99295 6.23462 1 1 
24 1.20846 9.99317 -0.00127564 -0.00110732 9.99317 6.24101 1 1 
26 1.20845 9.99238 -0.00138006 -0.00118415 9.99238 6.23162 1 1 
28 1.20846 9.99127 -0.00150954 -0.00129245 9.99127 6.24525 1 1 
30 1.20846 9.99094 -0.0016096 -0.00138174 9.99094 6.24586 1 1 
32 1.20847 9.98978 -0.0017364 -0.00148307 9.98978 6.26775 1 1 
32 1.20847 9.98978 -0.0017364 -0.00148307 9.98978 6.26775 1 1 
34 1.20847 9.98891 -0.00181183 -0.00154753 9.98891 6.26049 1 1 
36 1.20847 9.98763 -0.00195879 -0.00166207 9.98763 6.2692 1 1 
38 1.20847 9.98762 -0.00206265 -0.0017598 9.98762 6.26978 1 1 
40 1.20848 9.98706 -0.00217705 -0.00186937 9.98706 6.29207 1 1 
42 1.20849 9.98589 -0.00230775 -0.00198923 9.98589 6.31219 1 1 
44 1.20849 9.98485 -0.00240224 -0.00203676 9.98486 6.3036 1 1 
46 1.2085 9.98349 -0.00254745 -0.0021469 9.98349 6.32042 1 1 
48 1.2085 9.98329 -0.00269224 -0.0022921 9.98329 6.32087 1 1 
50 1.20851 9.98322 -0.00277251 -0.00233912 9.98322 6.34433 1 1 
52 1.20852 9.98189 -0.002874 -0.00242943 9.98189 6.3607 1 1 
54 1.20852 9.98038 -0.00302522 -0.00255163 9.98038 6.35919 1 1 
56 1.20853 9.98025 -0.00313357 -0.0026401 9.98026 6.38212 1 1 
58 1.20854 9.97961 -0.00329704 -0.00279408 9.97961 6.39926 1 1 
60 1.20854 9.97869 -0.0034066 -0.00289062 9.97869 6.39486 1 1 
62 1.20855 9.97749 -0.00353226 -0.0030197 9.97749 6.41948 1 1 
64 1.20857 9.97701 -0.00365784 -0.00310455 9.97701 6.44175 1 1 
64 1.20857 9.97701 -0.00365784 -0.00310455 9.97701 6.44175 2 1 
66 1.20858 9.97642 -0.00378365 -0.00322264 9.97643 6.47206 2 1 
68 1.20858 9.97653 -0.0039163 -0.00334593 9.97653 6.45958 2 1 
70 1.20859 9.97508 -0.0040549 -0.00347238 9.97508 6.4918 2 1 
72 1.20861 9.97345 -0.00419272 -0.00360902 9.97345 6.51838 2 1 
74 1.20861 9.97279 -0.00430712 -0.00370125 9.97279 6.51232 2 1 
76 1.20864 9.97159 -0.00441938 -0.00382642 9.97159 6.56867 2 1 
78 1.20863 9.97195 -0.00454965 -0.00392425 9.97195 6.56298 2 1 
80 1.20865 9.97082 -0.0046937 -0.00404947 9.97082 6.5845 2 1 
82 1.20866 9.96954 -0.00484625 -0.00419636 9.96955 6.61185 2 1 
84 1.20867 9.96848 -0.00495872 -0.00428445 9.96848 6.63217 2 1 
86 1.20869 9.96718 -0.00507554 -0.00437368 9.96718 6.66865 2 1 
88 1.2087 9.9666 -0.0052398 -0.00451815 9.9666 6.67648 2 1 
90 1.20871 9.96558 -0.00531787 -0.00461035 9.96558 6.70408 2 1 
92 1.20872 9.96417 -0.00546692 -0.00472689 9.96418 6.72489 2 1 
94 1.20874 9.9626 -0.00560126 -0.00483843 9.9626 6.75474 2 1 
96 1.20876 9.96168 -0.00571706 -0.00493152 9.96169 6.78635 2 1 
96 1.20876 9.96168 -0.00571706 -0.00493152 9.96169 6.78635 2 1 
98 1.20877 9.96144 -0.00588456 -0.00506595 9.96145 6.8043 2 1 
100 1.20878 9.96066 -0.00595259 -0.00511853 9.96067 6.82858 2 1 
102 1.20879 9.95937 -0.00608258 -0.00525665 9.95937 6.84766 2 1 
104 1.20882 9.95735 -0.00627436 -0.00540559 9.95735 6.8923 2 1 
106 1.20883 9.95592 -0.0063282 -0.00543094 9.95592 6.91959 2 1 
108 1.20885 9.95386 -0.00646528 -0.00555865 9.95387 6.95276 2 1 
110 1.20885 9.9531 -0.0065778 -0.00566082 9.9531 6.95591 2 1 
112 1.20886 9.95254 -0.00668731 -0.00574299 9.95254 6.98048 2 1 
114 1.2089 9.95045 -0.00678833 -0.00582735 9.95046 7.04442 2 1 
116 1.20891 9.95055 -0.00692194 -0.00594137 9.95055 7.05898 2 1 
118 1.20893 9.94947 -0.00700847 -0.00601146 9.94947 7.09747 2 1 
120 1.20895 9.9471 -0.00710628 -0.00607147 9.94711 7.14163 2 1 
122 1.20895 9.94603 -0.00724034 -0.00616653 9.94604 7.13218 2 1 
124 1.20897 9.94351 -0.00732441 -0.00625895 9.94352 7.16824 2 1 
126 1.20902 9.94125 -0.00746406 -0.00637335 9.94125 7.25767 2 1 
128 1.20901 9.9415 -0.00753961 -0.00640777 9.94151 7.24621 2 1 
128 1.20901 9.9415 -0.00753961 -0.00640777 9.94151 7.24621 10 1 
130 1.20904 9.94021 -0.00764398 -0.00654938 9.94022 7.2959 10 1 
132 1.20907 9.93952 -0.00772816 -0.00659253 9.93952 7.34506 10 1 
134 1.20908 9.93806 -0.00784282 -0.00665307 9.93806 7.36328 10 1 
136 1.20911 9.93471 -0.00791003 -0.00671966 9.93472 7.41953 10 1 
138 1.20911 9.93325 -0.00802023 -0.00679905 9.93326 7.42925 10 1 
140 1.20915 9.93223 -0.00814175 -0.006905 9.93224 7.49105 10 1 
142 1.20917 9.93114 -0.0082154 -0.00691629 9.93115 7.53134 10 1 
144 1.20919 9.93004 -0.00830257 -0.00700382 9.93005 7.563 10 1 
146 1.20923 9.9285 -0.00842275 -0.00708705 9.9285 7.63612 10 1 
148 1.20925 9.92572 -0.00853202 -0.0071678 9.92572 7.6709 10 1 
150 1.20925 9.92389 -0.00858084 -0.0072154 9.9239 7.67645 10 1 
152 1.20929 9.92238 -0.00869031 -0.0073108 9.92239 7.74732 10 1 
154 1.20932 9.92073 -0.00875 -0.00735321 9.92074 7.80742 10 1 
156 1.20934 9.9199 -0.00883895 -0.00741516 9.91991 7.8313 10 1 
158 1.20937 9.91773 -0.00892418 -0.00747205 9.91774 7.89561 10 1 
160 1.2094 9.91457 -0.00898307 -0.00752765 9.91458 7.94703 10 1 
160 1.2094 9.91457 -0.00898307 -0.00752765 9.91458 7.94703 10 1 
162 1.2094 9.9136 -0.00910284 -0.00762742 9.91361 7.94679 10 1 
164 1.20944 9.91135 -0.00916826 -0.00765221 9.91136 8.01699 10 1 
166 1.2095 9.90797 -0.00930515 -0.0077425 9.90797 8.13052 10 1 
168 1.20949 9.90844 -0.00942255 -0.0078402 9.90844 8.1029 10 1 
170 1.20953 9.90513 -0.00948233 -0.00790711 9.90514 8.17631 10 1 
172 1.20956 9.90332 -0.00956466 -0.00793407 9.90333 8.23627 10 1 
174 1.20956 9.90333 -0.00958748 -0.00796227 9.90334 8.24295 10 1 
176 1.20964 9.89911 -0.00972222 -0.00803818 9.89911 8.37644 10 1 
178 1.20965 9.89745 -0.00979751 -0.00810409 9.89746 8.39033 10 1 
180 1.20967 9.89466 -0.0098676 -0.00819223 9.89467 8.4337 10 1 
182 1.2097 9.89036 -0.00999012 -0.00829019 9.89037 8.48973 10 1 
184 1.20971 9.88826 -0.0101544 -0.00842078 9.88827 8.50166 10 1 
186 1.20978 9.88726 -0.0102229 -0.00846224 9.88727 8.63714 10 1 
188 1.20983 9.88537 -0.0102682 -0.00848316 9.88538 8.71683 10 1 
190 1.20983 9.88346 -0.010456 -0.00862685 9.88347 8.73182 10 1 
192 1.20986 9.88139 -0.0104288 -0.00860144 9.8814 8.78401 10 1 
194 1.20991 9.87609 -0.0106463 -0.00876621 9.8761 8.86889 10 1 
196 1.20995 9.87151 -0.0108065 -0.00888727 9.87152 8.93368 10 1 
198 1.20998 9.86945 -0.0108159 -0.0088508 9.86946 8.99297 10 1 
200 1.21005 9.86632 -0.0110213 -0.00906637 9.86633 9.1206 10 1 
202 1.21007 9.86432 -0.0110207 -0.00908528 9.86433 9.16288 10 1 
204 1.21007 9.863 -0.0110929 -0.00910401 9.86301 9.15741 10 1 
206 1.21017 9.85772 -0.0113862 -0.00933921 9.85773 9.34214 10 1 
208 1.21023 9.85472 -0.0115126 -0.00939647 9.85473 9.44971 10 1 
210 1.21022 9.85344 -0.011538 -0.00937855 9.85345 9.43102 10 1 
212 1.21032 9.84491 -0.0116399 -0.00951317 9.84493 9.60873 10 1 
214 1.21033 9.83893 -0.0116457 -0.00951252 9.83895 9.62409 10 1 
216 1.21034 9.83403 -0.0118064 -0.00959701 9.83404 9.6531 10 1 
218 1.21045 9.82759 -0.0120232 -0.00974768 9.82761 9.84434 10 1 
220 1.21048 9.82966 -0.0120747 -0.00982239 9.82968 9.90703 10 1 
222 1.21056 9.82777 -0.0121391 -0.00990125 9.82778 10.0418 10 1 
224 1.2106 9.8206 -0.0122315 -0.00984796 9.82061 10.1099 10 1 
224 1.2106 9.8206 -0.0122315 -0.00984796 9.82061 10.1099 10 1 
226 1.21066 9.81388 -0.0123977 -0.00991687 9.8139 10.22 10 1 
228 1.21072 9.80228 -0.0125647 -0.0101446 9.80229 10.3342 10 1 
230 1.21075 9.79303 -0.0127635 -0.0103932 9.79305 10.3927 10 1 
232 1.2108 9.79174 -0.0129165 -0.0104477 9.79176 10.4824 10 1 
234 1.2109 9.78697 -0.0130129 -0.0104057 9.78699 10.6586 10 1 
236 1.21103 9.77681 -0.0131334 -0.0105495 9.77683 10.8909 10 1 
238 1.211 9.77212 -0.0132667 -0.0106998 9.77214 10.8397 10 1 
240 1.21116 9.75781 -0.0135982 -0.0109975 9.75783 11.1258 10 1 
242 1.21123 9.74697 -0.0137823 -0.0111205 9.74699 11.2468 10 1 
244 1.2112 9.74312 -0.0138442 -0.0111437 9.74314 11.2009 10 1 
246 1.21145 9.72885 -0.0139984 -0.0112905 9.72887 11.6496 10 1 
248 1.21152 9.71707 -0.0140439 -0.0112734 9.71709 11.785 10 1 
250 1.21157 9.70219 -0.0143017 -0.0115014 9.70221 11.8714 10 1 
252 1.21168 9.68779 -0.0146627 -0.0118511 9.68781 12.0691 10 1 
254 1.21184 9.67293 -0.0147184 -0.0118502 9.67295 12.3587 10 1 
256 1.21197 9.65612 -0.0148643 -0.0119789 9.65614 12.5825 10 1 
256 1.21197 9.65612 -0.0148643 -0.0119789 9.65614 12.5825 11 1 
258 1.21207 9.63681 -0.0150752 -0.0121806 9.63684 12.7641 11 1 
260 1.21231 9.61546 -0.0152845 -0.012369 9.61549 13.2066 11 1 
262 1.21248 9.59041 -0.0156045 -0.0126426 9.59044 13.509 11 1 
264 1.21251 9.56568 -0.0157109 -0.0126984 9.56571 13.5654 11 1 
266 1.21278 9.53959 -0.0158394 -0.0128319 9.53961 14.0594 11 1 
268 1.21323 9.49743 -0.0161141 -0.0130981 9.49746 14.8712 11 1 
270 1.21322 9.46671 -0.0164021 -0.0132794 9.46674 14.8459 11 1 
272 1.2135 9.42247 -0.0164865 -0.0133393 9.42251 15.3613 11 1 
274 1.21408 9.3647 -0.0166772 -0.0135417 9.36473 16.4045 11 1 
276 1.21416 9.32192 -0.0169266 -0.0137001 9.32195 16.551 11 1 
278 1.21459 9.25975 -0.0171278 -0.0138755 9.25979 17.3309 11 1 
280 1.21532 9.19461 -0.0173104 -0.0140217 9.19466 18.639 11 1 
282 1.21583 9.11144 -0.0174155 -0.0140714 9.11163 19.5595 11 1 
284 1.21624 8.99134 -0.0174853 -0.0141725 8.99164 20.297 11 1 
286 1.21677 8.86738 -0.0176202 -0.0142786 8.86757 21.2594 11 1 
288 1.21763 8.75327 -0.0178066 -0.014403 8.75335 22.8096 11 1 
288 1.21763 8.75327 -0.0178066 -0.014403 8.75335 22.8096 11 1 
290 1.21866 8.64351 -0.0179641 -0.0145003 8.64362 24.6719 11 1 
292 1.21953 8.50381 -0.0181584 -0.0146948 8.50411 26.2451 11 1 
294 1.22025 8.32297 -0.0181903 -0.0146958 8.32353 27.5381 11 1 
296 1.22116 8.13684 -0.0181218 -0.014638 8.13723 29.1877 11 1 
298 1.21562 7.91608 -0.0177218 -0.0150766 7.9772 19.1829 11 1 
300 1.20595 7.82825 -0.0166935 -0.0163766 7.90738 1.71571 11 1 
302 1.2028 7.78663 -0.0155322 -0.0181139 7.836 -3.98127 11 1 
304 1.20368 7.6134 -0.014381 -0.0195052 7.65408 -2.3888 11 1 
306 1.20471 7.43272 -0.0133824 -0.020537 7.46292 -0.532687 11 1 
308 1.20553 7.26569 -0.0125853 -0.0214239 7.28987 0.963093 11 1 
310 1.20608 7.12512 -0.0119855 -0.0220834 7.13801 1.95202 11 1 
312 1.20672 6.9877 -0.0114528 -0.022847 7.00013 3.11149 11 1 
314 1.2073 6.87835 -0.0110926 -0.0235635 6.88974 4.16143 11 1 
316 1.20779 6.79082 -0.0107419 -0.0242246 6.80164 5.04071 11 1 
318 1.20821 6.692 -0.0103626 -0.0248582 6.69938 5.80676 11 1 
320 1.20853 6.61284 -0.00996803 -0.0253541 6.61977 6.37696 11 1 
320 1.20853 6.61284 -0.00996803 -0.0253541 6.61977 6.37696 15 1 
322 1.20886 6.55754 -0.00979113 -0.025871 6.5643 6.9752 15 1 
324 1.20923 6.4969 -0.00958434 -0.0264481 6.50333 7.63848 15 1 
326 1.2095 6.43908 -0.0092278 -0.0268762 6.44431 8.12547 15 1 
328 1.2097 6.38727 -0.00893782 -0.0272982 6.39228 8.48539 15 1 
330 1.20985 6.33792 -0.00876007 -0.0277517 6.34246 8.76448 15 1 
332 1.21011 6.30324 -0.00853497 -0.0281369 6.30775 9.2251 15 1 
334 1.21038 6.26571 -0.0082299 -0.0285142 6.26972 9.7095 15 1 
336 1.21041 6.21539 -0.00798445 -0.0289508 6.21926 9.77135 15 1 
338 1.21049 6.1786 -0.00782903 -0.0293667 6.18229 9.92408 15 1 
340 1.21075 6.15522 -0.0077409 -0.0298427 6.15883 10.3911 15 1 
342 1.2109 6.12831 -0.00757284 -0.03024 6.13165 10.6591 15 1 
344 1.21094 6.09379 -0.00737101 -0.03056 6.09711 10.737 15 1 
346 1.21099 6.05815 -0.00724967 -0.0310043 6.06124 10.8244 15 1 
348 1.21114 6.04046 -0.00727585 -0.0315525 6.04348 11.0898 15 1 
350 1.21131 6.03013 -0.00724869 -0.0319277 6.033 11.3988 15 1 
352 1.21134 6.00408 -0.0070999 -0.0322468 6.00692 11.4521 15 1 
354 1.21138 5.97972 -0.00699702 -0.0326422 5.98238 11.5293 15 1 
356 1.2115 5.9666 -0.00703447 -0.0331869 5.96918 11.7342 15 1 
358 1.21156 5.95371 -0.00705331 -0.0336522 5.95617 11.8569 15 1 
360 1.21164 5.94359 -0.00694547 -0.0339747 5.94603 11.9961 15 1 
362 1.21172 5.93258 -0.0068062 -0.0343503 5.93487 12.1336 15 1 
364 1.21177 5.91771 -0.00677276 -0.034849 5.91992 12.2203 15 1 
366 1.21181 5.90691 -0.00678522 -0.03528 5.90901 12.3041 15 1 
368 1.21187 5.90047 -0.00667547 -0.0356685 5.90256 12.4067 15 1 
370 1.21195 5.89564 -0.00651017 -0.0360108 5.89763 12.5594 15 1 
372 1.212 5.88777 -0.00642542 -0.0363975 5.88969 12.6493 15 1 
374 1.21202 5.87647 -0.00638883 -0.0368661 5.87829 12.6878 15 1 
376 1.21208 5.86906 -0.00627951 -0.0372702 5.87088 12.788 15 1 
378 1.21213 5.86427 -0.00614923 -0.0375897 5.86603 12.8775 15 1 
380 1.21218 5.85965 -0.00606088 -0.0379519 5.86137 12.9694 15 1 
382 1.21223 5.854 -0.00601655 -0.038363 5.85564 13.0527 15 1 
384 1.21224 5.84338 -0.00591559 -0.0387577 5.84501 13.0843 15 1 
384 1.21224 5.84338 -0.00591559 -0.0387577 5.84501 13.0843 16 1 
386 1.21228 5.83456 -0.0057571 -0.0390936 5.83615 13.1559 16 1 
388 1.21233 5.83094 -0.00566406 -0.0394289 5.83251 13.2408 16 1 
390 1.21237 5.82499 -0.0056308 -0.039823 5.82652 13.3054 16 1 
392 1.2124 5.81624 -0.00550306 -0.0401836 5.81776 13.3731 16 1 
394 1.21242 5.80644 -0.00534606 -0.0405547 5.80791 13.4047 16 1 
396 1.21244 5.79651 -0.00527262 -0.040943 5.79798 13.437 16 1 
398 1.21247 5.78937 -0.00520157 -0.0413022 5.79082 13.4995 16 1 
400 1.21251 5.78275 -0.00504685 -0.0416455 5.78418 13.5687 16 1 
402 1.21254 5.77321 -0.00493774 -0.0420455 5.77461 13.6146 16 1 
404 1.21254 5.76173 -0.00486741 -0.0424144 5.76314 13.6177 16 1 
406 1.21256 5.75173 -0.00470254 -0.0427749 5.75311 13.6604 16 1 
408 1.21261 5.74441 -0.0045266 -0.0431582 5.74579 13.7378 16 1 
410 1.21262 5.73586 -0.00446025 -0.043618 5.73722 13.7676 16 1 
412 1.21263 5.72536 -0.00437916 -0.0440598 5.72671 13.7892 16 1 
414 1.21265 5.71545 -0.00421102 -0.04449 5.71678 13.8231 16 1 
416 1.21267 5.70553 -0.00406653 -0.0449159 5.70685 13.849 16 1 
416 1.21267 5.70553 -0.00406653 -0.0449159 5.70685 13.849 16 1 
418 1.21268 5.69604 -0.00395922 -0.0453647 5.69735 13.8779 16 1 
420 1.2127 5.68762 -0.00387574 -0.0457876 5.68894 13.9125 16 1 
422 1.21273 5.67875 -0.00380742 -0.0462468 5.68005 13.9597 16 1 
424 1.21274 5.66915 -0.00373513 -0.0466771 5.67043 13.9874 16 1 
426 1.21274 5.65891 -0.00366282 -0.0471124 5.66018 13.9837 16 1 
428 1.21275 5.64941 -0.0036277 -0.0475368 5.65069 14.0021 16 1 
430 1.21277 5.64219 -0.0036234 -0.0479916 5.64345 14.0429 16 1 
432 1.21279 5.63476 -0.00363792 -0.0484285 5.636 14.0736 16 1 
434 1.2128 5.62553 -0.00363426 -0.0488768 5.62676 14.0871 16 1 
436 1.21281 5.61688 -0.00365186 -0.0493282 5.61811 14.0999 16 1 
438 1.21282 5.61011 -0.00370031 -0.0497853 5.61132 14.1231 16 1 
440 1.21283 5.60431 -0.00374474 -0.0502035 5.60552 14.1406 16 1 
442 1.21284 5.59837 -0.0037842 -0.050657 5.59956 14.1624 16 1 
444 1.21286 5.59216 -0.00382407 -0.0511347 5.59334 14.1912 16 1 
446 1.21286 5.58655 -0.00387442 -0.0516145 5.58771 14.2049 16 1 
448 1.21287 5.58208 -0.00396754 -0.0521293 5.58324 14.2221 16 1 
448 1.21287 5.58208 -0.00396754 -0.0521293 5.58324 14.2221 17 1 
450 1.21289 5.57858 -0.00405736 -0.0526867 5.57973 14.2471 17 1 
452 1.2129 5.5754 -0.00412396 -0.0532513 5.57654 14.2615 17 1 
454 1.2129 5.57204 -0.00421737 -0.053831 5.57317 14.275 17 1 
456 1.21291 5.56898 -0.00427079 -0.0543842 5.57011 14.2919 17 1 
458 1.21292 5.56686 -0.00425968 -0.054947 5.56798 14.3101 17 1 
460 1.21293 5.56572 -0.00425662 -0.0555815 5.56684 14.3324 17 1 
462 1.21295 5.56501 -0.0043158 -0.0562633 5.56612 14.3531 17 1 
464 1.21295 5.56386 -0.00438929 -0.0568727 5.56497 14.3653 17 1 
466 1.21296 5.56248 -0.00446782 -0.0574145 5.56358 14.3695 17 1 
468 1.21296 5.56217 -0.00455477 -0.0580106 5.56327 14.3809 17 1 
470 1.21297 5.56271 -0.004632 -0.0586557 5.5638 14.3994 17 1 
472 1.21298 5.56309 -0.00470663 -0.0591661 5.56418 14.4122 17 1 
474 1.21299 5.56353 -0.00480193 -0.0595053 5.56461 14.4247 17 1 
476 1.21299 5.56409 -0.00487997 -0.0597924 5.56517 14.4327 17 1 
478 1.21299 5.56496 -0.00491738 -0.0601967 5.56603 14.4372 17 1 
480 1.213 5.56673 -0.00497182 -0.0608418 5.5678 14.4535 17 1 
480 1.213 5.56673 -0.00497182 -0.0608418 5.5678 14.4535 17 1 
482 1.21301 5.56879 -0.00504841 -0.0616406 5.56986 14.4684 17 1 
484 1.21301 5.57047 -0.00514839 -0.0623604 5.57153 14.4725 17 1 
486 1.21301 5.57212 -0.00533607 -0.0628707 5.57318 14.4768 17 1 
488 1.21302 5.57406 -0.0055836 -0.0631996 5.57512 14.483 17 1 
490 1.21302 5.57655 -0.00583234 -0.0634824 5.5776 14.4911 17 1 
492 1.21303 5.57935 -0.00610468 -0.0638355 5.58039 14.4998 17 1 
494 1.21303 5.58164 -0.00641714 -0.0642915 5.58268 14.5066 17 1 
496 1.21303 5.58367 -0.00667457 -0.0648001 5.58471 14.5097 17 1 
498 1.21303 5.58589 -0.0068736 -0.0653263 5.58692 14.5098 17 1 
500 1.21304 5.58846 -0.00712542 -0.0658522 5.5895 14.5146 17 1 
502 1.21304 5.59114 -0.00744156 -0.0664106 5.59218 14.5255 17 1 
504 1.21304 5.59307 -0.00777235 -0.0669661 5.5941 14.5275 17 1 
506 1.21304 5.59458 -0.00809986 -0.0674664 5.59561 14.5196 17 1 
508 1.21304 5.5965 -0.00844469 -0.0679263 5.59754 14.5164 17 1 
510 1.21304 5.59839 -0.00878854 -0.0683707 5.59942 14.5178 17 1 
512 1.21304 5.59989 -0.00914956 -0.0687966 5.60092 14.5192 17 1 
512 1.21304 5.59989 -0.00914956 -0.0687966 5.60092 14.5192 25 1 
514 1.21304 5.60138 -0.00953527 -0.0691988 5.60241 14.5217 25 1 
516 1.21304 5.60267 -0.00992618 -0.0695731 5.60371 14.5222 25 1 
518 1.21304 5.60369 -0.0103123 -0.0699144 5.60472 14.5163 25 1 
520 1.21303 5.60471 -0.01071 -0.07021 5.60574 14.5081 25 1 
522 1.21303 5.60585 -0.0110808 -0.0704626 5.60688 14.503 25 1 
524 1.21303 5.60694 -0.0114561 -0.0706983 5.60796 14.4998 25 1 
526 1.21303 5.60775 -0.0118569 -0.070907 5.60878 14.4957 25 1 
528 1.21302 5.6087 -0.012252 -0.0710812 5.60973 14.4912 25 1 
530 1.21302 5.60983 -0.0126348 -0.0712538 5.61085 14.4854 25 1 
532 1.21301 5.61085 -0.0129986 -0.0713846 5.61186 14.4735 25 1 
534 1.21301 5.61191 -0.0133504 -0.0714807 5.61292 14.4644 25 1 
536 1.21301 5.61314 -0.0137051 -0.0715764 5.61415 14.4613 25 1 
538 1.213 5.61432 -0.0140578 -0.0716763 5.61533 14.4546 25 1 
540 1.213 5.61555 -0.0144148 -0.0717643 5.61655 14.4456 25 1 
542 1.21299 5.61696 -0.0147599 -0.0718509 5.61796 14.4375 25 1 
544 1.21299 5.61842 -0.0151156 -0.0719326 5.61941 14.4269 25 1 
544 1.21299 5.61842 -0.0151156 -0.0719326 5.61941 14.4269 25 1 
546 1.21298 5.6198 -0.0154471 -0.0720084 5.62079 14.4132 25 1 
548 1.21297 5.62114 -0.015792 -0.0721062 5.62213 14.4008 25 1 
550 1.21297 5.62271 -0.0161448 -0.072212 5.62369 14.393 25 1 
552 1.21297 5.62436 -0.0165066 -0.0723301 5.62534 14.3876 25 1 
554 1.21296 5.62605 -0.0168796 -0.072482 5.62703 14.3815 25 1 
556 1.21296 5.6277 -0.017259 -0.0726416 5.62868 14.3723 25 1 
558 1.21295 5.62902 -0.0176438 -0.0728168 5.63 14.3536 25 1 
560 1.21294 5.63033 -0.0180325 -0.0729988 5.63131 14.334 25 1 
562 1.21293 5.63195 -0.0184323 -0.0732036 5.63293 14.3254 25 1 
564 1.21293 5.63359 -0.0188512 -0.0734407 5.63458 14.3198 25 1 
566 1.21292 5.63504 -0.0192807 -0.073713 5.63603 14.3125 25 1 
568 1.21292 5.63628 -0.0197377 -0.0740105 5.63727 14.2992 25 1 
570 1.2129 5.63738 -0.0202056 -0.074334 5.63838 14.2776 25 1 
572 1.21289 5.63867 -0.0206646 -0.0746775 5.63967 14.2601 25 1 
574 1.21289 5.64016 -0.0211356 -0.075048 5.64116 14.2518 25 1 
576 1.21289 5.64156 -0.0216422 -0.0754512 5.64257 14.2484 25 1 
576 1.21289 5.64156 -0.0216422 -0.0754512 5.64257 14.2484 26 1 
578 1.21288 5.64284 -0.0221729 -0.0758783 5.64386 14.2394 26 1 
580 1.21287 5.64405 -0.0227283 -0.0763375 5.64508 14.22 26 1 
582 1.21286 5.64538 -0.0232804 -0.07681 5.64642 14.1983 26 1 
584 1.21285 5.64687 -0.0238384 -0.0772879 5.64792 14.1817 26 1 
586 1.21285 5.64856 -0.0244031 -0.0777774 5.64961 14.1741 26 1 
588 1.21285 5.65042 -0.025002 -0.0782965 5.65149 14.1747 26 1 
590 1.21284 5.65235 -0.0256357 -0.0788534 5.65342 14.1657 26 1 
592 1.21283 5.65437 -0.0262795 -0.0794201 5.65546 14.1442 26 1 
594 1.21282 5.65675 -0.0269325 -0.0799678 5.65785 14.1261 26 1 
596 1.21281 5.65942 -0.0275623 -0.0804786 5.66053 14.1131 26 1 
598 1.21281 5.66228 -0.0282157 -0.0809924 5.6634 14.1066 26 1 
600 1.21281 5.6656 -0.0289141 -0.0815151 5.66673 14.1027 26 1 
602 1.2128 5.66923 -0.0296469 -0.0820446 5.67038 14.0924 26 1 
604 1.21279 5.67294 -0.0303834 -0.0825562 5.67409 14.0735 26 1 
606 1.21278 5.6769 -0.0310928 -0.0830097 5.67806 14.054 26 1 
608 1.21278 5.68128 -0.0318086 -0.0834213 5.68245 14.0465 26 1 
608 1.21278 5.68128 -0.0318086 -0.0834213 5.68245 14.0465 26 1 
610 1.21277 5.6861 -0.0325319 -0.0838095 5.68727 14.0435 26 1 
612 1.21277 5.69095 -0.0332785 -0.0841841 5.69213 14.0359 26 1 
614 1.21276 5.69589 -0.0340334 -0.0845399 5.69708 14.0192 26 1 
616 1.21275 5.70098 -0.0347971 -0.084871 5.70218 13.9989 26 1 
618 1.21274 5.70619 -0.0355446 -0.0851831 5.7074 13.9849 26 1 
620 1.21274 5.71173 -0.0362599 -0.0854576 5.71294 13.9788 26 1 
622 1.21274 5.71746 -0.0369838 -0.0857444 5.71867 13.9724 26 1 
624 1.21273 5.72323 -0.0377452 -0.0860441 5.72446 13.9583 26 1 
626 1.21272 5.7289 -0.0385029 -0.0863111 5.73012 13.9407 26 1 
628 1.21271 5.73468 -0.0392472 -0.0865 5.73591 13.9229 26 1 
630 1.2127 5.74046 -0.0399594 -0.0866195 5.74169 13.9136 26 1 
632 1.2127 5.74619 -0.0406494 -0.0866976 5.74742 13.9075 26 1 
634 1.21269 5.75154 -0.0413441 -0.0867751 5.75277 13.8969 26 1 
636 1.21268 5.75646 -0.0420632 -0.0868819 5.7577 13.8779 26 1 
638 1.21267 5.76113 -0.0427967 -0.0870332 5.76236 13.8587 26 1 
640 1.21267 5.76576 -0.0435672 -0.0872122 5.767 13.8472 26 1 
642 1.21266 5.77065 -0.0443302 -0.0873892 5.77189 13.8421 26 1 
644 1.21266 5.77527 -0.045111 -0.0875431 5.77651 13.8391 26 1 
646 1.21265 5.77955 -0.0458864 -0.0876496 5.7808 13.8237 26 1 
648 1.21264 5.78367 -0.0466529 -0.0876741 5.78492 13.801 26 1 
650 1.21263 5.78732 -0.0474378 -0.0876424 5.78857 13.7887 26 1 
652 1.21263 5.79085 -0.0482141 -0.087577 5.7921 13.7836 26 1 
654 1.21263 5.79399 -0.0490322 -0.0875087 5.79524 13.7813 26 1 
656 1.21263 5.79657 -0.0499233 -0.087485 5.79782 13.7762 26 1 
658 1.21262 5.79918 -0.0508429 -0.0874766 5.80043 13.7597 26 1 
660 1.21261 5.80144 -0.0518608 -0.0875 5.80269 13.7429 26 1 
662 1.2126 5.804 -0.0528583 -0.0874988 5.80526 13.7301 26 1 
664 1.2126 5.80677 -0.0538211 -0.0874049 5.80803 13.7307 26 1 
666 1.2126 5.8093 -0.0548181 -0.0872243 5.81056 13.7362 26 1 
668 1.2126 5.81155 -0.0557644 -0.0868808 5.81281 13.7296 26 1 
670 1.21259 5.81313 -0.0566845 -0.0864531 5.81438 13.7174 26 1 
672 1.21259 5.81412 -0.0577265 -0.0859962 5.81537 13.701 26 1 
672 1.21259 5.81412 -0.0577265 -0.0859962 5.81537 13.701 27 1 
674 1.21258 5.81474 -0.058689 -0.0855142 5.81598 13.6914 27 1 
676 1.21258 5.81544 -0.0598041 -0.0851083 5.81667 13.6937 27 1 
678 1.21259 5.81609 -0.0609605 -0.0847274 5.81732 13.7024 27 1 
680 1.21259 5.81695 -0.0621353 -0.0844301 5.81818 13.7066 27 1 
682 1.21258 5.81797 -0.0634252 -0.0841891 5.81921 13.6984 27 1 
684 1.21258 5.81939 -0.0646383 -0.0838627 5.82063 13.684 27 1 
686 1.21257 5.82122 -0.0659413 -0.0834531 5.82246 13.6769 27 1 
688 1.21257 5.82357 -0.0671532 -0.0828138 5.8248 13.6806 27 1 
690 1.21258 5.82604 -0.0683738 -0.0819665 5.82726 13.6923 27 1 
692 1.21259 5.82843 -0.0695961 -0.0809681 5.82964 13.7011 27 1 
694 1.21259 5.83021 -0.0707952 -0.0798605 5.83141 13.7044 27 1 
696 1.21258 5.83168 -0.0720226 -0.0787568 5.83287 13.6943 27 1 
698 1.21258 5.83307 -0.0732696 -0.0777561 5.83425 13.6897 27 1 
700 1.21258 5.83453 -0.0746017 -0.0769407 5.8357 13.6981 27 1 
702 1.21259 5.8367 -0.0759117 -0.0763908 5.83788 13.7132 27 1 
704 1.2126 5.83962 -0.077378 -0.076047 5.84081 13.7278 27 1 
704 1.2126 5.83962 -0.077378 -0.076047 5.84081 13.7278 31 1 
706 1.2126 5.84367 -0.0788903 -0.0757592 5.84486 13.732 31 1 
708 1.2126 5.84882 -0.0804489 -0.0753336 5.85003 13.7319 31 1 
710 1.2126 5.85559 -0.08202 -0.0746574 5.8568 13.7263 31 1 
712 1.21261 5.86315 -0.0834139 -0.0735358 5.86435 13.7454 31 1 
714 1.21263 5.87067 -0.0847736 -0.0719009 5.87185 13.776 31 1 
716 1.21263 5.87764 -0.0858009 -0.0697472 5.8788 13.7894 31 1 
718 1.21264 5.88273 -0.0867776 -0.0673092 5.88386 13.8015 31 1 
720 1.21264 5.88633 -0.0877998 -0.0648273 5.88744 13.8041 31 1 
722 1.21265 5.8883 -0.0887828 -0.0626744 5.88939 13.8109 31 1 
724 1.21265 5.89005 -0.0901104 -0.061164 5.89114 13.8224 31 1 
726 1.21267 5.892 -0.0916445 -0.0603203 5.8931 13.8577 31 1 
728 1.21269 5.89499 -0.0934566 -0.0599243 5.89611 13.8937 31 1 
730 1.21269 5.90073 -0.0954292 -0.0596877 5.90187 13.8914 31 1 
732 1.2127 5.9083 -0.0974234 -0.0592538 5.90946 13.9066 31 1 
734 1.21271 5.9181 -0.0994092 -0.0583059 5.91928 13.9241 31 1 
736 1.21271 5.93011 -0.100825 -0.0564158 5.93129 13.9322 31 1 
738 1.21274 5.9411 -0.102132 -0.0535351 5.94226 13.979 31 1 
740 1.21276 5.95007 -0.102564 -0.0495957 5.95119 14.02 31 1 
742 1.21277 5.95563 -0.102828 -0.0452164 5.95671 14.0362 31 1 
744 1.21278 5.95554 -0.103085 -0.0407682 5.95659 14.0517 31 1 
746 1.21278 5.95161 -0.10276 -0.0364946 5.95262 14.0594 31 1 
748 1.2128 5.94317 -0.103243 -0.0331707 5.94416 14.0842 31 1 
750 1.21281 5.93298 -0.103786 -0.0309195 5.93397 14.1043 31 1 
752 1.21283 5.92221 -0.104718 -0.0296149 5.92321 14.1438 31 1 
752 1.21283 5.92221 -0.104718 -0.0296149 5.92321 14.1438 31 1 
754 1.21286 5.9108 -0.106178 -0.0291348 5.91183 14.1928 31 1 
756 1.21286 5.90207 -0.107662 -0.0291948 5.90312 14.1933 31 1 
758 1.21286 5.89564 -0.10954 -0.0296282 5.89674 14.2059 31 1 
760 1.21289 5.89212 -0.11116 -0.0299404 5.89325 14.2465 31 1 
762 1.2129 5.89206 -0.113043 -0.0305991 5.89322 14.27 31 1 
764 1.21291 5.89617 -0.114805 -0.0313227 5.89737 14.2834 31 1 
766 1.21295 5.90155 -0.11609 -0.0314485 5.90278 14.3559 31 1 
768 1.21297 5.91163 -0.117498 -0.0317861 5.91289 14.3876 31 1 
770 1.21298 5.92359 -0.119375 -0.0325735 5.92488 14.409 31 1 
772 1.213 5.93773 -0.120225 -0.0325131 5.93903 14.4486 31 1 
774 1.21302 5.95428 -0.121303 -0.0325192 5.95561 14.4883 31 1 
776 1.21303 5.97406 -0.122661 -0.0329201 5.97541 14.5069 31 1 
778 1.21306 5.99561 -0.12344 -0.0325889 5.99698 14.5531 31 1 
780 1.21309 6.01827 -0.123837 -0.0321609 6.01963 14.6132 31 1 
782 1.2131 6.04297 -0.124986 -0.0322552 6.04435 14.6343 31 1 
784 1.21311 6.06905 -0.126961 -0.0326252 6.07048 14.6433 31 1 
786 1.21311 6.10023 -0.127219 -0.0318056 6.10165 14.6524 31 1 
788 1.21315 6.12971 -0.127705 -0.0310529 6.13114 14.7201 31 1 
790 1.2131 6.16698 -0.129244 -0.0304855 6.16842 14.6318 31 1 
792 1.2131 6.2017 -0.131495 -0.0300507 6.20318 14.6311 31 1 
794 1.21308 6.24376 -0.132024 -0.0290798 6.24523 14.6024 31 1 
796 1.21303 6.28939 -0.132774 -0.026455 6.29087 14.5105 31 1 
798 1.21292 6.34303 -0.138561 -0.025697 6.34463 14.3017 31 1 
800 1.21278 6.38111 -0.1429 -0.0264405 6.38281 14.046 31 1 
