24.4525;r ;Density                 ;Velocity u              ;Velocity v              ;Velocity w              ;|Velocity|              ;Pressure                ;Distribution            ;Levels                  ;
0 1.20396 9.99884 -6.49518e-05 -2.22629e-05 9.99884 -1.87298 1 1 
2 1.20399 9.99802 -9.27254e-05 -5.08917e-05 9.99802 -1.828 1 1 
4 1.20401 9.99783 -0.0001595 -0.00010553 9.99783 -1.78626 1 1 
6 1.20404 9.9982 -0.000221634 -0.000168638 9.9982 -1.73994 1 1 
8 1.20403 9.99844 -0.000292539 -0.000241205 9.99844 -1.75487 1 1 
10 1.204 9.9987 -0.000392367 -0.000309638 9.9987 -1.81152 1 1 
12 1.20399 9.99919 -0.000489823 -0.000401718 9.99919 -1.81792 1 1 
14 1.20397 10.0007 -0.000628345 -0.000516412 10.0007 -1.85828 1 1 
16 1.20399 9.99983 -0.000670466 -0.000566202 9.99983 -1.826 1 1 
18 1.204 9.99848 -0.000772624 -0.000669499 9.99848 -1.81512 1 1 
20 1.20399 9.99924 -0.000925132 -0.000810935 9.99924 -1.82949 1 1 
22 1.20402 10.0002 -0.00100698 -0.000878454 10.0002 -1.77647 1 1 
24 1.204 10.0021 -0.00108447 -0.000957113 10.0021 -1.81261 1 1 
26 1.20398 10.0021 -0.00119732 -0.00106127 10.0021 -1.83635 1 1 
28 1.20399 10.0012 -0.00134198 -0.00118848 10.0012 -1.82985 1 1 
30 1.20397 10.0014 -0.0014287 -0.00128061 10.0014 -1.85895 1 1 
32 1.20397 10.0003 -0.00158947 -0.00143637 10.0003 -1.85696 1 1 
32 1.20397 10.0003 -0.00158947 -0.00143637 10.0003 -1.85696 1 1 
34 1.20396 10.0004 -0.0017085 -0.00155886 10.0004 -1.88388 1 1 
36 1.20395 10.0009 -0.00181098 -0.00163542 10.0009 -1.90316 1 1 
38 1.20394 10.0009 -0.00186151 -0.00171099 10.0009 -1.91743 1 1 
40 1.20395 10.0004 -0.00194356 -0.00180773 10.0004 -1.89352 1 1 
42 1.20396 10.001 -0.00201067 -0.00187987 10.001 -1.87264 1 1 
44 1.20396 10.0011 -0.00208272 -0.00193536 10.0011 -1.87712 1 1 
46 1.20395 10.0003 -0.00229967 -0.00212614 10.0003 -1.8929 1 1 
48 1.20393 10.0003 -0.00241231 -0.00224172 10.0003 -1.92842 1 1 
50 1.20395 10.0006 -0.0024499 -0.00227082 10.0006 -1.89385 1 1 
52 1.20394 10.0009 -0.0026382 -0.00246869 10.0009 -1.90837 1 1 
54 1.20392 9.99999 -0.00276346 -0.00257895 10 -1.95778 1 1 
56 1.20392 9.99932 -0.00273871 -0.00254205 9.99932 -1.94842 1 1 
58 1.20391 9.99954 -0.00291113 -0.00271735 9.99954 -1.96085 1 1 
60 1.20391 10.0005 -0.0030718 -0.00287689 10.0005 -1.97714 1 1 
62 1.20392 10.0005 -0.00302809 -0.0028451 10.0005 -1.94675 1 1 
64 1.20393 10.0011 -0.00307759 -0.0028536 10.0011 -1.93697 1 1 
64 1.20393 10.0011 -0.00307759 -0.0028536 10.0011 -1.93697 2 1 
66 1.20395 10.0007 -0.0033283 -0.00311446 10.0007 -1.88939 2 1 
68 1.20394 10.0013 -0.00345951 -0.00324471 10.0013 -1.91429 2 1 
70 1.20392 10.0015 -0.0034926 -0.00329956 10.0015 -1.95329 2 1 
72 1.20391 9.9995 -0.00363853 -0.00348005 9.9995 -1.96492 2 1 
74 1.20389 9.99875 -0.00371286 -0.00354548 9.99876 -2.01244 2 1 
76 1.20389 9.99908 -0.00363928 -0.00349549 9.99908 -1.99935 2 1 
78 1.20389 10.0005 -0.00372367 -0.00356937 10.0005 -2.0078 2 1 
80 1.2039 10.0004 -0.00394682 -0.00379476 10.0004 -1.98557 2 1 
82 1.20391 10.0001 -0.00396389 -0.00380485 10.0002 -1.96425 2 1 
84 1.20392 10.0003 -0.00394884 -0.00378123 10.0003 -1.95864 2 1 
86 1.20393 10.0006 -0.00424814 -0.00406354 10.0006 -1.94099 2 1 
88 1.20392 10.0004 -0.00447373 -0.00429492 10.0004 -1.94654 2 1 
90 1.20392 9.99909 -0.004317 -0.0041618 9.99909 -1.95709 2 1 
92 1.20389 9.99874 -0.00443877 -0.00426912 9.99874 -2.01127 2 1 
94 1.20388 9.99828 -0.00475967 -0.00456497 9.99829 -2.02079 2 1 
96 1.2039 9.99799 -0.0046927 -0.00449069 9.998 -1.98708 2 1 
96 1.2039 9.99799 -0.0046927 -0.00449069 9.998 -1.98708 2 1 
98 1.20389 9.99944 -0.00455829 -0.00434496 9.99945 -2.01389 2 1 
100 1.20389 10.0002 -0.0047366 -0.00452389 10.0002 -2.00325 2 1 
102 1.20393 9.99939 -0.005044 -0.00483991 9.99939 -1.93439 2 1 
104 1.20393 9.99853 -0.00502528 -0.00480704 9.99853 -1.9252 2 1 
106 1.20391 9.99863 -0.0049495 -0.00473427 9.99863 -1.9642 2 1 
108 1.20391 9.99773 -0.00539182 -0.00517077 9.99774 -1.96325 2 1 
110 1.2039 9.99823 -0.00566353 -0.00543153 9.99823 -1.99309 2 1 
112 1.2039 9.99839 -0.00547901 -0.00526005 9.9984 -1.98335 2 1 
114 1.20393 9.9971 -0.00541313 -0.00519182 9.9971 -1.93379 2 1 
116 1.20393 9.9989 -0.00580205 -0.00554055 9.99891 -1.94115 2 1 
118 1.20392 9.99908 -0.00591012 -0.0056402 9.99908 -1.94755 2 1 
120 1.20392 9.99747 -0.00552329 -0.00526259 9.99747 -1.9421 2 1 
122 1.20393 9.99774 -0.00533175 -0.00507654 9.99774 -1.93965 2 1 
124 1.20394 9.99685 -0.00564835 -0.00541913 9.99685 -1.9182 2 1 
126 1.20396 9.99613 -0.00602915 -0.0057792 9.99614 -1.887 2 1 
128 1.20395 9.9971 -0.00587981 -0.00559731 9.9971 -1.90537 2 1 
128 1.20395 9.9971 -0.00587981 -0.00559731 9.9971 -1.90537 10 1 
130 1.20397 9.99625 -0.00560789 -0.00540108 9.99625 -1.86429 10 1 
132 1.20395 9.99725 -0.00555703 -0.00535952 9.99725 -1.895 10 1 
134 1.20395 9.99627 -0.00554449 -0.00534422 9.99627 -1.90192 10 1 
136 1.20398 9.99275 -0.00514663 -0.00495507 9.99275 -1.84708 10 1 
138 1.20395 9.99307 -0.00470615 -0.00448223 9.99308 -1.89593 10 1 
140 1.20398 9.99382 -0.0048021 -0.00458553 9.99382 -1.83703 10 1 
142 1.20401 9.99404 -0.00559961 -0.00534173 9.99405 -1.78824 10 1 
144 1.204 9.99466 -0.0064739 -0.00622467 9.99466 -1.81151 10 1 
146 1.20402 9.99389 -0.00675823 -0.0064992 9.99389 -1.77084 10 1 
148 1.20403 9.99099 -0.00636787 -0.0061054 9.99099 -1.75929 10 1 
150 1.204 9.99023 -0.00569179 -0.00544367 9.99023 -1.80903 10 1 
152 1.20402 9.98997 -0.00521088 -0.00496054 9.98997 -1.7741 10 1 
154 1.20404 9.98924 -0.00495457 -0.00469573 9.98924 -1.72754 10 1 
156 1.20405 9.99091 -0.00496015 -0.00469779 9.99091 -1.71877 10 1 
158 1.20406 9.99114 -0.00500518 -0.00473731 9.99115 -1.6907 10 1 
160 1.20407 9.98921 -0.00499768 -0.00473597 9.98921 -1.68289 10 1 
160 1.20407 9.98921 -0.00499768 -0.00473597 9.98921 -1.68289 10 1 
162 1.20406 9.9894 -0.00506338 -0.00479465 9.9894 -1.70285 10 1 
164 1.20409 9.98804 -0.00510859 -0.00481786 9.98805 -1.64301 10 1 
166 1.20415 9.98575 -0.00519248 -0.00486553 9.98575 -1.54166 10 1 
168 1.20411 9.98779 -0.00525591 -0.00493034 9.9878 -1.61262 10 1 
170 1.20411 9.98575 -0.00524691 -0.00494723 9.98575 -1.61391 10 1 
172 1.20411 9.98473 -0.00524886 -0.00490157 9.98474 -1.59962 10 1 
174 1.20412 9.98547 -0.00515752 -0.00483976 9.98547 -1.59256 10 1 
176 1.20419 9.98232 -0.00516657 -0.00482222 9.98233 -1.45928 10 1 
178 1.20418 9.9823 -0.00519864 -0.00484856 9.9823 -1.47446 10 1 
180 1.20418 9.9812 -0.00527333 -0.00493954 9.9812 -1.47241 10 1 
182 1.20419 9.97814 -0.00536298 -0.00502413 9.97814 -1.45722 10 1 
184 1.20418 9.97714 -0.00543814 -0.00508367 9.97714 -1.47965 10 1 
186 1.20424 9.97729 -0.00540272 -0.00504875 9.97729 -1.37457 10 1 
188 1.20426 9.97665 -0.00535914 -0.00499988 9.97665 -1.32771 10 1 
190 1.20425 9.97626 -0.00545365 -0.00506037 9.97627 -1.34812 10 1 
192 1.20425 9.97545 -0.00531931 -0.00493697 9.97545 -1.3476 10 1 
194 1.20428 9.97187 -0.00544824 -0.00503492 9.97188 -1.30606 10 1 
196 1.2043 9.96894 -0.00553704 -0.00509504 9.96895 -1.26553 10 1 
198 1.2043 9.96783 -0.0054363 -0.00496122 9.96784 -1.26229 10 1 
200 1.20435 9.96626 -0.00558264 -0.00512707 9.96626 -1.17943 10 1 
202 1.20437 9.96632 -0.0055196 -0.00511389 9.96633 -1.14358 10 1 
204 1.20435 9.96696 -0.00550988 -0.00507597 9.96696 -1.17981 10 1 
206 1.20442 9.9629 -0.00571709 -0.00523257 9.9629 -1.05061 10 1 
208 1.20444 9.96107 -0.00574018 -0.00519711 9.96107 -1.00754 10 1 
210 1.20439 9.96115 -0.00562574 -0.00508237 9.96115 -1.09519 10 1 
212 1.20446 9.9539 -0.00563191 -0.00514236 9.9539 -0.972533 10 1 
214 1.20445 9.94979 -0.00561388 -0.00511464 9.94979 -0.991941 10 1 
216 1.20446 9.94679 -0.00572361 -0.00516115 9.9468 -0.972576 10 1 
218 1.20456 9.94234 -0.00589962 -0.00530784 9.94235 -0.793484 10 1 
220 1.20455 9.94616 -0.00587515 -0.00533528 9.94617 -0.804367 10 1 
222 1.20459 9.9458 -0.00583109 -0.00530767 9.9458 -0.733287 10 1 
224 1.20462 9.94031 -0.00579428 -0.00514424 9.94031 -0.691371 10 1 
224 1.20462 9.94031 -0.00579428 -0.00514424 9.94031 -0.691371 10 1 
226 1.20464 9.93484 -0.00584793 -0.00513959 9.93485 -0.648478 10 1 
228 1.20467 9.92458 -0.0059207 -0.00529497 9.92458 -0.600776 10 1 
230 1.20468 9.91728 -0.00600368 -0.00541684 9.91729 -0.573632 10 1 
232 1.20472 9.9184 -0.00605066 -0.0053942 9.9184 -0.51024 10 1 
234 1.20479 9.9154 -0.00602549 -0.0052755 9.91541 -0.384685 10 1 
236 1.20488 9.90688 -0.00601202 -0.00529604 9.90688 -0.21199 10 1 
238 1.20483 9.90397 -0.00602502 -0.00533751 9.90398 -0.31293 10 1 
240 1.20496 9.89115 -0.00623911 -0.00554017 9.89116 -0.0647677 10 1 
242 1.20501 9.88218 -0.00631318 -0.00557892 9.88218 0.0129448 10 1 
244 1.20494 9.88006 -0.00622619 -0.00546523 9.88007 -0.101836 10 1 
246 1.20515 9.8674 -0.00624419 -0.00547848 9.8674 0.27053 10 1 
248 1.20519 9.85755 -0.00615942 -0.00534124 9.85756 0.343113 10 1 
250 1.20523 9.8449 -0.0062844 -0.00546448 9.8449 0.418107 10 1 
252 1.20533 9.83251 -0.00654085 -0.00570815 9.83251 0.595288 10 1 
254 1.20545 9.81916 -0.00643983 -0.00555878 9.81916 0.816169 10 1 
256 1.20553 9.80374 -0.00646906 -0.00559181 9.80375 0.966029 10 1 
256 1.20553 9.80374 -0.00646906 -0.00559181 9.80375 0.966029 11 1 
258 1.2056 9.78625 -0.00654874 -0.00567971 9.78626 1.09134 11 1 
260 1.20582 9.76657 -0.00657985 -0.00567492 9.76658 1.48329 11 1 
262 1.20595 9.74301 -0.00669773 -0.00574886 9.74302 1.7206 11 1 
264 1.20597 9.72042 -0.00666938 -0.00568475 9.72043 1.74338 11 1 
266 1.20624 9.6965 -0.00666397 -0.00570327 9.69651 2.2358 11 1 
268 1.20667 9.65571 -0.00679586 -0.00584599 9.65572 3.01367 11 1 
270 1.20661 9.62616 -0.00698357 -0.00593247 9.62617 2.90153 11 1 
272 1.20686 9.58319 -0.00693867 -0.00588224 9.58321 3.36527 11 1 
274 1.20743 9.52652 -0.00694826 -0.00592065 9.52653 4.38892 11 1 
276 1.20748 9.48555 -0.00704212 -0.00594047 9.48557 4.4882 11 1 
278 1.2079 9.42454 -0.00706817 -0.00597149 9.42455 5.23525 11 1 
280 1.20861 9.35984 -0.00711404 -0.00599742 9.35987 6.51364 11 1 
282 1.2091 9.27697 -0.00713248 -0.00597267 9.27714 7.39708 11 1 
284 1.2095 9.15733 -0.00714664 -0.00602696 9.15761 8.13318 11 1 
286 1.21005 9.03397 -0.00719857 -0.00606063 9.03414 9.11741 11 1 
288 1.2109 8.91961 -0.0072618 -0.00608452 8.91967 10.6521 11 1 
288 1.2109 8.91961 -0.0072618 -0.00608452 8.91967 10.6521 11 1 
290 1.21192 8.80975 -0.0072649 -0.0060703 8.80984 12.4912 11 1 
292 1.21279 8.66956 -0.00732089 -0.00613545 8.66983 14.0751 11 1 
294 1.21349 8.48671 -0.00729702 -0.00609827 8.48725 15.3405 11 1 
296 1.21438 8.29746 -0.00722329 -0.00602169 8.29782 16.9481 11 1 
298 1.2086 8.07381 -0.00708108 -0.00620392 8.13245 6.50766 11 1 
300 1.1986 7.99057 -0.00664546 -0.00667341 8.06642 -11.5595 11 1 
302 1.19533 7.95439 -0.00619929 -0.00735237 8.00184 -17.4709 11 1 
304 1.19616 7.78053 -0.00577044 -0.00790451 7.81974 -15.9594 11 1 
306 1.19719 7.59969 -0.0053257 -0.00825175 7.62889 -14.1097 11 1 
308 1.19802 7.43331 -0.00498948 -0.00856728 7.45672 -12.6001 11 1 
310 1.19855 7.29359 -0.00473654 -0.00879992 7.30605 -11.6521 11 1 
312 1.19919 7.15758 -0.0045472 -0.00911851 7.16957 -10.4939 11 1 
314 1.19979 7.05099 -0.00446547 -0.00943328 7.06199 -9.40366 11 1 
316 1.20026 6.96568 -0.00436338 -0.00970854 6.97614 -8.56058 11 1 
318 1.20063 6.86812 -0.0042007 -0.00994419 6.87523 -7.88906 11 1 
320 1.20093 6.79205 -0.00400185 -0.0100803 6.79872 -7.3444 11 1 
320 1.20093 6.79205 -0.00400185 -0.0100803 6.79872 -7.3444 15 1 
322 1.20127 6.74081 -0.00396389 -0.010301 6.74732 -6.73213 15 1 
324 1.20162 6.68333 -0.00393679 -0.0105725 6.68952 -6.11001 15 1 
326 1.20186 6.62899 -0.00381939 -0.0107478 6.63401 -5.67068 15 1 
328 1.20204 6.58115 -0.00372415 -0.010913 6.58595 -5.34125 15 1 
330 1.20215 6.53522 -0.00369 -0.0111101 6.53956 -5.14781 15 1 
332 1.20236 6.50397 -0.00362793 -0.0112821 6.50828 -4.77044 15 1 
334 1.20262 6.47047 -0.00352693 -0.0114348 6.4743 -4.30361 15 1 
336 1.20263 6.42443 -0.00346429 -0.0115953 6.42812 -4.28046 15 1 
338 1.20268 6.39207 -0.00344852 -0.0117574 6.39557 -4.19847 15 1 
340 1.20291 6.37356 -0.00348571 -0.0119628 6.37699 -3.77016 15 1 
342 1.20304 6.35159 -0.00345843 -0.0120875 6.35475 -3.54879 15 1 
344 1.20302 6.32107 -0.00334245 -0.0121022 6.32422 -3.57165 15 1 
346 1.20303 6.28959 -0.00327736 -0.0122107 6.2925 -3.56085 15 1 
348 1.20317 6.27733 -0.00333848 -0.0124357 6.28017 -3.30173 15 1 
350 1.20332 6.27193 -0.00334956 -0.0125531 6.27461 -3.0411 15 1 
352 1.20328 6.24999 -0.00327067 -0.0126094 6.25264 -3.11083 15 1 
354 1.20329 6.23122 -0.00325289 -0.012779 6.2337 -3.09315 15 1 
356 1.20341 6.2249 -0.00333498 -0.0130418 6.22728 -2.87631 15 1 
358 1.20344 6.21792 -0.00336263 -0.0131624 6.22019 -2.81295 15 1 
360 1.20346 6.21318 -0.00325941 -0.0131355 6.21544 -2.77822 15 1 
362 1.20352 6.20833 -0.00314351 -0.0131845 6.21043 -2.66764 15 1 
364 1.20357 6.19992 -0.00315771 -0.0133591 6.20195 -2.58499 15 1 
366 1.20357 6.19468 -0.0032212 -0.0135248 6.19661 -2.58804 15 1 
368 1.20357 6.19349 -0.00316095 -0.013631 6.1954 -2.59114 15 1 
370 1.20363 6.19506 -0.00304633 -0.0136874 6.19688 -2.47199 15 1 
372 1.20368 6.19424 -0.00302819 -0.0137685 6.196 -2.38736 15 1 
374 1.20368 6.1893 -0.00306115 -0.0139123 6.19096 -2.39022 15 1 
376 1.20369 6.18805 -0.00302438 -0.0140046 6.1897 -2.35849 15 1 
378 1.20372 6.19047 -0.00296858 -0.0140438 6.19208 -2.31179 15 1 
380 1.20377 6.19387 -0.00297515 -0.0141213 6.19543 -2.22284 15 1 
382 1.2038 6.19556 -0.00300574 -0.0142267 6.19705 -2.16981 15 1 
384 1.20377 6.19123 -0.00296085 -0.0142769 6.19271 -2.22811 15 1 
384 1.20377 6.19123 -0.00296085 -0.0142769 6.19271 -2.22811 16 1 
386 1.20376 6.18907 -0.00284848 -0.0142705 6.19051 -2.2314 16 1 
388 1.20381 6.1933 -0.00280074 -0.0142898 6.19472 -2.15794 16 1 
390 1.20384 6.19533 -0.00283278 -0.0143841 6.19672 -2.09652 16 1 
392 1.20385 6.19385 -0.0028317 -0.0144817 6.19521 -2.07432 16 1 
394 1.20384 6.19181 -0.00280893 -0.0145843 6.19313 -2.09317 16 1 
396 1.20385 6.19071 -0.00281182 -0.0146544 6.19203 -2.07767 16 1 
398 1.20387 6.19141 -0.00276586 -0.0146607 6.19271 -2.04595 16 1 
400 1.20387 6.19087 -0.0026523 -0.0146771 6.19215 -2.04276 16 1 
402 1.20388 6.18833 -0.00262494 -0.0147854 6.18959 -2.01436 16 1 
404 1.2039 6.18616 -0.00270203 -0.0149093 6.18743 -1.98552 16 1 
406 1.20389 6.18551 -0.00268432 -0.0149924 6.18675 -2.00637 16 1 
408 1.20386 6.18635 -0.00259219 -0.01502 6.18758 -2.06102 16 1 
410 1.20386 6.18667 -0.00255672 -0.0150362 6.18788 -2.05578 16 1 
412 1.20392 6.18563 -0.00253197 -0.0150378 6.18683 -1.95116 16 1 
414 1.20395 6.18264 -0.00250846 -0.015075 6.18383 -1.90362 16 1 
416 1.20391 6.17768 -0.00257606 -0.0151939 6.17885 -1.96093 16 1 
416 1.20391 6.17768 -0.00257606 -0.0151939 6.17885 -1.96093 16 1 
418 1.2039 6.1767 -0.00270207 -0.0153812 6.17786 -1.98511 16 1 
420 1.20392 6.18337 -0.00283087 -0.0155253 6.18454 -1.95408 16 1 
422 1.20393 6.19248 -0.00292115 -0.015552 6.19361 -1.93516 16 1 
424 1.20392 6.19886 -0.00291354 -0.0154255 6.19996 -1.95035 16 1 
426 1.20391 6.20106 -0.00282326 -0.0152428 6.20212 -1.96057 16 1 
428 1.20393 6.19933 -0.00276107 -0.0151244 6.20039 -1.93255 16 1 
430 1.20395 6.19469 -0.00282478 -0.0151257 6.19573 -1.90264 16 1 
432 1.20395 6.18986 -0.0030331 -0.0152052 6.19087 -1.90036 16 1 
434 1.20394 6.191 -0.0032947 -0.0152909 6.19197 -1.92261 16 1 
436 1.20394 6.20094 -0.00353054 -0.015389 6.20189 -1.91755 16 1 
438 1.20398 6.21523 -0.0036783 -0.0154013 6.21612 -1.84741 16 1 
440 1.204 6.22876 -0.00370151 -0.0151594 6.2296 -1.81309 16 1 
442 1.20397 6.23624 -0.00370098 -0.0146939 6.237 -1.86258 16 1 
444 1.20395 6.23231 -0.00374993 -0.014218 6.23299 -1.8927 16 1 
446 1.20396 6.21994 -0.00382254 -0.013926 6.22057 -1.8766 16 1 
448 1.20397 6.20953 -0.00392099 -0.0138732 6.21015 -1.85805 16 1 
448 1.20397 6.20953 -0.00392099 -0.0138732 6.21015 -1.85805 17 1 
450 1.20401 6.2056 -0.00409122 -0.0138699 6.20619 -1.79614 17 1 
452 1.20405 6.20463 -0.00439006 -0.0136768 6.20517 -1.70748 17 1 
454 1.20403 6.2053 -0.00481034 -0.0132739 6.20575 -1.74541 17 1 
456 1.20398 6.20826 -0.00521181 -0.0127316 6.20863 -1.83757 17 1 
458 1.20405 6.20781 -0.00544558 -0.0121044 6.20811 -1.71758 17 1 
460 1.20413 6.19716 -0.00552148 -0.0114164 6.19741 -1.57776 17 1 
462 1.20403 6.17499 -0.0055034 -0.0106619 6.17518 -1.75648 17 1 
464 1.20395 6.14023 -0.00546965 -0.00990012 6.1404 -1.89145 17 1 
466 1.20408 6.09354 -0.00554866 -0.00929456 6.09367 -1.66308 17 1 
468 1.20412 6.04212 -0.00584364 -0.00897377 6.04223 -1.58907 17 1 
470 1.20396 5.99392 -0.00631422 -0.00893347 5.994 -1.87521 17 1 
472 1.20395 5.95729 -0.00690112 -0.00901315 5.95735 -1.89913 17 1 
474 1.20412 5.94459 -0.00755544 -0.00918095 5.94463 -1.59502 17 1 
476 1.20416 5.9582 -0.00824441 -0.00946925 5.95824 -1.52534 17 1 
478 1.20409 5.99015 -0.00895056 -0.00984952 5.9902 -1.64604 17 1 
480 1.2041 6.04318 -0.00964916 -0.0102382 6.04324 -1.62209 17 1 
480 1.2041 6.04318 -0.00964916 -0.0102382 6.04324 -1.62209 17 1 
482 1.20419 6.12444 -0.0102196 -0.0105717 6.12453 -1.45542 17 1 
484 1.20436 6.22478 -0.0106085 -0.0107778 6.2249 -1.1587 17 1 
486 1.20446 6.33313 -0.0108889 -0.0108938 6.33327 -0.979522 17 1 
488 1.20435 6.45387 -0.011148 -0.0109962 6.45404 -1.17211 17 1 
490 1.20437 6.59076 -0.011385 -0.0111439 6.59094 -1.1341 17 1 
492 1.2047 6.73766 -0.0116113 -0.0113005 6.73786 -0.546344 17 1 
494 1.20484 6.88919 -0.0118209 -0.0114119 6.88941 -0.28679 17 1 
496 1.20466 7.0417 -0.0119316 -0.011455 7.04192 -0.613645 17 1 
498 1.2046 7.19567 -0.0119332 -0.011446 7.1959 -0.713872 17 1 
500 1.20477 7.35928 -0.0119456 -0.011417 7.35951 -0.406438 17 1 
502 1.20495 7.52894 -0.0120177 -0.0114499 7.52916 -0.0868947 17 1 
504 1.20501 7.69021 -0.0120557 -0.011478 7.69043 0.00900143 17 1 
506 1.20485 7.84395 -0.0120054 -0.0114059 7.84416 -0.278973 17 1 
508 1.2047 8.00004 -0.0118864 -0.0112463 8.00024 -0.54981 17 1 
510 1.20486 8.15841 -0.0117491 -0.0110971 8.15859 -0.25745 17 1 
512 1.20508 8.3136 -0.0116423 -0.0109887 8.31377 0.144257 17 1 
512 1.20508 8.3136 -0.0116423 -0.0109887 8.31377 0.144257 25 1 
514 1.20503 8.45877 -0.0115609 -0.0108837 8.45892 0.0556482 25 1 
516 1.20482 8.5917 -0.0114365 -0.0107584 8.59184 -0.31858 25 1 
518 1.2047 8.72054 -0.0112632 -0.0106118 8.72067 -0.549737 25 1 
520 1.20478 8.84951 -0.0111153 -0.0104612 8.84963 -0.390909 25 1 
522 1.20495 8.97307 -0.0109989 -0.0103332 8.97317 -0.0841847 25 1 
524 1.20491 9.08438 -0.0108173 -0.0101632 9.08446 -0.164432 25 1 
526 1.2047 9.18229 -0.0105751 -0.00991568 9.18237 -0.546207 25 1 
528 1.20458 9.27384 -0.0103506 -0.00967771 9.27391 -0.767142 25 1 
530 1.20464 9.36389 -0.0101662 -0.00951007 9.36395 -0.641647 25 1 
532 1.2048 9.44763 -0.00996833 -0.00934256 9.44768 -0.356176 25 1 
534 1.2048 9.51868 -0.00977084 -0.00915437 9.51872 -0.360114 25 1 
536 1.20463 9.57575 -0.0095998 -0.00899244 9.57578 -0.674296 25 1 
538 1.2045 9.62426 -0.00941889 -0.00882899 9.62429 -0.911316 25 1 
540 1.20449 9.67019 -0.00923522 -0.0086521 9.67021 -0.917735 25 1 
542 1.20461 9.71026 -0.009059 -0.00847648 9.71027 -0.700655 25 1 
544 1.20468 9.7413 -0.00890198 -0.00831655 9.74131 -0.579713 25 1 
544 1.20468 9.7413 -0.00890198 -0.00831655 9.74131 -0.579713 25 1 
546 1.20455 9.76407 -0.00879483 -0.0082074 9.76408 -0.815312 25 1 
548 1.20443 9.78063 -0.00871164 -0.0081082 9.78064 -1.0359 25 1 
550 1.20443 9.79754 -0.00863727 -0.00800451 9.79755 -1.02067 25 1 
552 1.20452 9.81504 -0.00855375 -0.00792788 9.81505 -0.858772 25 1 
554 1.2046 9.82915 -0.00849843 -0.00789758 9.82916 -0.715143 25 1 
556 1.20453 9.83934 -0.00847943 -0.00785905 9.83935 -0.849444 25 1 
558 1.20441 9.84571 -0.00844109 -0.00778259 9.84572 -1.06064 25 1 
560 1.2044 9.85349 -0.00841422 -0.00773161 9.85349 -1.08873 25 1 
562 1.20444 9.86512 -0.00843605 -0.00769833 9.86513 -1.01457 25 1 
564 1.20451 9.8748 -0.00844084 -0.00765625 9.87481 -0.882898 25 1 
566 1.20451 9.88164 -0.00839225 -0.00758879 9.88164 -0.884543 25 1 
568 1.20443 9.88682 -0.00832062 -0.00748626 9.88683 -1.03233 25 1 
570 1.20441 9.89136 -0.00825995 -0.00738347 9.89136 -1.06344 25 1 
572 1.20445 9.89883 -0.00826509 -0.00733717 9.89884 -0.990841 25 1 
574 1.2045 9.90615 -0.00829186 -0.00733403 9.90616 -0.894711 25 1 
576 1.20451 9.91028 -0.00830288 -0.00732349 9.91029 -0.882681 25 1 
576 1.20451 9.91028 -0.00830288 -0.00732349 9.91029 -0.882681 26 1 
578 1.20443 9.91297 -0.00828889 -0.00726842 9.91297 -1.03013 26 1 
580 1.20438 9.91514 -0.00823961 -0.00719738 9.91515 -1.11984 26 1 
582 1.20443 9.91933 -0.00814718 -0.00711763 9.91934 -1.0296 26 1 
584 1.2045 9.92529 -0.00808538 -0.00704284 9.9253 -0.911301 26 1 
586 1.20453 9.92909 -0.00809938 -0.00703609 9.9291 -0.855819 26 1 
588 1.2045 9.93086 -0.00810611 -0.0070327 9.93086 -0.897006 26 1 
590 1.20443 9.93112 -0.00804437 -0.00696371 9.93113 -1.03162 26 1 
592 1.20441 9.93187 -0.0079591 -0.00686949 9.93188 -1.06377 26 1 
594 1.20446 9.93573 -0.00791847 -0.00679706 9.93574 -0.975972 26 1 
596 1.20451 9.93943 -0.00793594 -0.00678058 9.93943 -0.87931 26 1 
598 1.20455 9.94065 -0.00794542 -0.00676579 9.94066 -0.821313 26 1 
600 1.20449 9.94173 -0.00795926 -0.00675079 9.94174 -0.917585 26 1 
602 1.20444 9.94233 -0.00797459 -0.00671559 9.94233 -1.00571 26 1 
604 1.20447 9.94311 -0.007907 -0.00660184 9.94311 -0.964363 26 1 
606 1.2045 9.9462 -0.00780451 -0.00647329 9.94621 -0.911632 26 1 
608 1.20454 9.94892 -0.00776736 -0.0064161 9.94893 -0.823033 26 1 
608 1.20454 9.94892 -0.00776736 -0.0064161 9.94893 -0.823033 26 1 
610 1.20456 9.95067 -0.0077993 -0.00639558 9.95067 -0.791961 26 1 
612 1.20452 9.95167 -0.00781822 -0.00637976 9.95168 -0.865189 26 1 
614 1.20449 9.95149 -0.00778947 -0.00635172 9.9515 -0.912572 26 1 
616 1.20449 9.95317 -0.00774777 -0.00629023 9.95318 -0.913616 26 1 
618 1.20452 9.95568 -0.00769387 -0.00620435 9.95569 -0.873399 26 1 
620 1.20457 9.95761 -0.00761392 -0.00612252 9.95761 -0.777854 26 1 
622 1.2046 9.95945 -0.00758632 -0.00608997 9.95946 -0.729016 26 1 
624 1.20456 9.96025 -0.00761416 -0.00610519 9.96026 -0.792733 26 1 
626 1.20453 9.96083 -0.00759246 -0.00609702 9.96084 -0.844031 26 1 
628 1.20453 9.96226 -0.00750828 -0.00601903 9.96227 -0.840479 26 1 
630 1.20457 9.96375 -0.00741707 -0.00591602 9.96376 -0.78028 26 1 
632 1.20461 9.96557 -0.00735317 -0.0058662 9.96558 -0.703753 26 1 
634 1.20461 9.9671 -0.00733389 -0.00586845 9.96711 -0.710503 26 1 
636 1.20461 9.96721 -0.00732635 -0.00585578 9.96722 -0.705745 26 1 
638 1.20459 9.96675 -0.0072932 -0.00582495 9.96675 -0.743321 26 1 
640 1.20455 9.96632 -0.00725291 -0.00579963 9.96633 -0.806312 26 1 
642 1.20458 9.96747 -0.00721641 -0.00576515 9.96747 -0.756619 26 1 
644 1.20462 9.96912 -0.00713051 -0.00569014 9.96913 -0.682958 26 1 
646 1.20467 9.97045 -0.00704459 -0.00563412 9.97046 -0.593762 26 1 
648 1.2047 9.972 -0.00700387 -0.00560676 9.972 -0.544493 26 1 
650 1.20468 9.97053 -0.00698305 -0.00557133 9.97053 -0.57643 26 1 
652 1.20462 9.96878 -0.00694234 -0.00553294 9.96879 -0.682539 26 1 
654 1.20457 9.9682 -0.00689624 -0.00551318 9.96821 -0.774913 26 1 
656 1.20461 9.96896 -0.00687651 -0.00549789 9.96896 -0.708896 26 1 
658 1.2047 9.97252 -0.00683911 -0.00545793 9.97252 -0.545636 26 1 
660 1.20479 9.97471 -0.00680401 -0.00544828 9.97472 -0.376307 26 1 
662 1.20481 9.97565 -0.0067864 -0.00543266 9.97565 -0.348551 26 1 
664 1.20475 9.97458 -0.00673612 -0.00538415 9.97458 -0.45192 26 1 
666 1.20467 9.97073 -0.00665915 -0.00533081 9.97074 -0.598089 26 1 
668 1.20463 9.96975 -0.00657556 -0.00524854 9.96975 -0.675802 26 1 
670 1.20468 9.97155 -0.00653271 -0.00519839 9.97156 -0.586133 26 1 
672 1.2048 9.97495 -0.00653354 -0.0052269 9.97495 -0.369074 26 1 
672 1.2048 9.97495 -0.00653354 -0.0052269 9.97495 -0.369074 27 1 
674 1.20493 9.97967 -0.00658671 -0.00529126 9.97967 -0.133059 27 1 
676 1.20495 9.9804 -0.0066177 -0.00530554 9.9804 -0.0986454 27 1 
678 1.20487 9.97804 -0.00652405 -0.00521426 9.97805 -0.237753 27 1 
680 1.20474 9.97499 -0.00636783 -0.00507291 9.97499 -0.465519 27 1 
682 1.20468 9.97252 -0.00620197 -0.00491353 9.97252 -0.581328 27 1 
684 1.20476 9.97549 -0.00616688 -0.0048793 9.97549 -0.430274 27 1 
686 1.20492 9.9805 -0.0062405 -0.00496281 9.98051 -0.140083 27 1 
688 1.20509 9.98468 -0.00632285 -0.00505905 9.98468 0.157741 27 1 
690 1.20516 9.98805 -0.00637758 -0.0051109 9.98805 0.286425 27 1 
692 1.20509 9.98476 -0.00631252 -0.00505043 9.98477 0.163345 27 1 
694 1.20494 9.97936 -0.00618164 -0.00493362 9.97937 -0.10272 27 1 
696 1.20484 9.976 -0.00600747 -0.00476449 9.976 -0.285352 27 1 
698 1.20482 9.97465 -0.00588326 -0.00464508 9.97465 -0.317551 27 1 
700 1.20494 9.98028 -0.00585167 -0.0046168 9.98029 -0.109929 27 1 
702 1.20515 9.9872 -0.00584058 -0.00461246 9.9872 0.264595 27 1 
704 1.2053 9.99282 -0.00589048 -0.00467183 9.99282 0.550597 27 1 
704 1.2053 9.99282 -0.00589048 -0.00467183 9.99282 0.550597 31 1 
706 1.20536 9.99613 -0.00587213 -0.00466794 9.99614 0.648321 31 1 
708 1.20528 9.99223 -0.0057874 -0.00458205 9.99224 0.509269 31 1 
710 1.20515 9.9882 -0.00567296 -0.0044712 9.98821 0.26902 31 1 
712 1.20502 9.98401 -0.0055158 -0.00433176 9.98401 0.0376071 31 1 
714 1.20498 9.97992 -0.00543285 -0.00425088 9.97992 -0.0449674 31 1 
716 1.20507 9.98364 -0.00545284 -0.00425626 9.98365 0.133259 31 1 
718 1.20523 9.98727 -0.00554767 -0.00436344 9.98727 0.411047 31 1 
720 1.2054 9.9932 -0.00570302 -0.00452591 9.9932 0.730274 31 1 
722 1.20553 9.99987 -0.00582724 -0.00464747 9.99987 0.955828 31 1 
724 1.2055 9.99847 -0.00588121 -0.00470284 9.99847 0.899871 31 1 
726 1.20541 9.99845 -0.00581325 -0.00463925 9.99846 0.74453 31 1 
728 1.20531 9.99473 -0.00562462 -0.00445585 9.99474 0.5542 31 1 
730 1.20524 9.99093 -0.00538782 -0.00422073 9.99093 0.437814 31 1 
732 1.20532 9.99465 -0.00514185 -0.00396631 9.99466 0.580659 31 1 
734 1.20547 9.99543 -0.00497875 -0.00381262 9.99543 0.850435 31 1 
736 1.2057 10.0023 -0.00497641 -0.00381727 10.0023 1.26254 31 1 
738 1.20591 10.0102 -0.00513586 -0.00395639 10.0102 1.63739 31 1 
740 1.20601 10.0131 -0.00535378 -0.00417448 10.0131 1.81906 31 1 
742 1.20606 10.0208 -0.00555524 -0.00438065 10.0208 1.90718 31 1 
744 1.20601 10.0196 -0.00565434 -0.00447249 10.0196 1.82237 31 1 
746 1.20595 10.0163 -0.00564256 -0.004457 10.0164 1.71284 31 1 
748 1.20591 10.0155 -0.00556068 -0.00436563 10.0155 1.64584 31 1 
750 1.20586 10.0075 -0.00548561 -0.00428806 10.0075 1.55973 31 1 
752 1.20592 10.0091 -0.00539091 -0.00420568 10.0091 1.66394 31 1 
752 1.20592 10.0091 -0.00539091 -0.00420568 10.0091 1.66394 31 1 
754 1.20605 10.0137 -0.00527135 -0.00407464 10.0137 1.89708 31 1 
756 1.20624 10.0217 -0.00516475 -0.00395708 10.0217 2.24405 31 1 
758 1.20648 10.0379 -0.00506624 -0.00387323 10.0379 2.67626 31 1 
760 1.20662 10.0416 -0.00503543 -0.00384547 10.0416 2.92128 31 1 
762 1.2067 10.0437 -0.00506168 -0.00385807 10.0437 3.07908 31 1 
764 1.20671 10.0416 -0.00507778 -0.00385576 10.0416 3.09166 31 1 
766 1.20665 10.0334 -0.00500056 -0.00378398 10.0334 2.97315 31 1 
768 1.20665 10.0374 -0.004877 -0.00366882 10.0374 2.97655 31 1 
770 1.20661 10.0351 -0.00472451 -0.00350037 10.0351 2.90522 31 1 
772 1.20658 10.0366 -0.00454788 -0.00331571 10.0366 2.85505 31 1 
774 1.20659 10.0412 -0.00434084 -0.00311773 10.0412 2.8765 31 1 
776 1.20659 10.0375 -0.0041256 -0.00289014 10.0375 2.86325 31 1 
778 1.20666 10.0439 -0.00392622 -0.00268116 10.0439 2.99454 31 1 
780 1.20669 10.0399 -0.00377323 -0.0025258 10.0399 3.05254 31 1 
782 1.20673 10.0373 -0.00368987 -0.00244043 10.0373 3.13327 31 1 
784 1.20675 10.0397 -0.00361196 -0.00235179 10.0397 3.16046 31 1 
786 1.20666 10.0337 -0.00351766 -0.00224872 10.0337 3.00109 31 1 
788 1.20664 10.0413 -0.003495 -0.00219991 10.0413 2.96007 31 1 
790 1.20652 10.0382 -0.00346502 -0.00218952 10.0382 2.74134 31 1 
792 1.20636 10.0311 -0.00342959 -0.00214909 10.0311 2.46404 31 1 
794 1.20625 10.0266 -0.00342857 -0.00210448 10.0266 2.26553 31 1 
796 1.20607 10.0107 -0.00339619 -0.00206599 10.0107 1.92576 31 1 
798 1.20595 10.0119 -0.00339727 -0.00199898 10.0119 1.72097 31 1 
800 1.20594 10.0194 -0.00340341 -0.00194528 10.0194 1.69477 31 1 
