135.847;r ;Density                 ;Velocity u              ;Velocity v              ;Velocity w              ;|Velocity|              ;Pressure                ;Distribution            ;Levels                  ;
0 1.19006 10.0007 5.09114e-05 0.00114078 10.0007 -26.9905 1 1 
4 1.19006 10.0004 -0.000128254 -0.000153091 10.0004 -26.9906 1 1 
8 1.19005 10.0003 -0.000327872 -5.70508e-06 10.0003 -27.0026 1 1 
12 1.19005 10.0006 -0.00057052 -0.000857404 10.0006 -26.9978 1 1 
16 1.19006 10.0012 -0.000802745 -0.00183025 10.0012 -26.986 1 1 
20 1.19005 10.0015 -0.00104806 -0.00227095 10.0015 -27.0065 1 1 
24 1.19005 10.0008 -0.00128086 -0.00267115 10.0008 -27.0083 1 1 
28 1.19005 10.0013 -0.00149587 -0.00225181 10.0013 -27.0115 1 1 
32 1.19005 10.0026 -0.00170154 -0.00153294 10.0026 -27.0059 1 1 
36 1.19005 10.0028 -0.00193151 -0.00138235 10.0028 -26.9967 1 1 
40 1.19004 10.0028 -0.00217328 -0.00170717 10.0028 -27.0127 1 1 
44 1.19005 10.0028 -0.00239193 -0.00253612 10.0028 -27.011 1 1 
48 1.19005 10.003 -0.00264383 -0.00241918 10.003 -27.0094 1 1 
52 1.19005 10.003 -0.00287703 -0.00211196 10.003 -27.0105 1 1 
56 1.19004 10.0029 -0.00314217 -0.00194373 10.0029 -27.0229 1 1 
60 1.19005 10.0023 -0.00335484 -0.00167164 10.0023 -27.0096 1 1 
64 1.19005 10.0029 -0.00358408 -0.00140257 10.0029 -27.0073 1 1 
64 1.19005 10.0029 -0.00358408 -0.00140257 10.0029 -27.0073 2 1 
68 1.19004 10.0038 -0.00382106 -0.00180407 10.0038 -27.0178 2 1 
72 1.19005 10.0026 -0.00406206 -0.00152996 10.0026 -26.9998 2 1 
76 1.19004 10.0029 -0.00430015 -0.00146432 10.0029 -27.0192 2 1 
80 1.19004 10.0035 -0.00453995 -0.00180397 10.0035 -27.016 2 1 
84 1.19006 10.0034 -0.00473752 -0.00175653 10.0034 -26.9925 2 1 
88 1.19005 10.0045 -0.00498025 -0.00300406 10.0045 -27.0116 2 1 
92 1.19005 10.0043 -0.00521709 -0.00286843 10.0043 -27.0059 2 1 
96 1.19005 10.0033 -0.0053784 -0.00246779 10.0033 -26.9964 2 1 
100 1.19004 10.0039 -0.00562371 -0.00221354 10.0039 -27.0131 2 1 
104 1.19006 10.0038 -0.00582606 -0.00111193 10.0038 -26.9931 2 1 
108 1.19006 10.0027 -0.00605774 -0.00140154 10.0027 -26.9839 2 1 
112 1.19004 10.0034 -0.00630387 -0.0021315 10.0034 -27.0183 2 1 
116 1.19006 10.0042 -0.00649232 -0.00328267 10.0042 -26.9943 2 1 
120 1.19008 10.0039 -0.00672377 -0.00400479 10.0039 -26.9532 2 1 
124 1.19005 10.0046 -0.006974 -0.00371884 10.0046 -26.9949 2 1 
128 1.19007 10.0031 -0.00713876 -0.00238338 10.0031 -26.9759 2 1 
128 1.19007 10.0031 -0.00713876 -0.00238338 10.0031 -26.9759 10 1 
132 1.19008 10.0016 -0.00735931 -0.00171807 10.0016 -26.9494 10 1 
136 1.19006 10.0024 -0.00754068 -0.000999269 10.0024 -26.9914 10 1 
140 1.19008 10.0007 -0.00779491 -0.00221836 10.0007 -26.9489 10 1 
144 1.19009 10.0001 -0.00803603 -0.00339282 10.0001 -26.9221 10 1 
148 1.19008 10.0012 -0.00822733 -0.00313521 10.0012 -26.9503 10 1 
152 1.19011 9.99926 -0.00844117 -0.00229424 9.99926 -26.9037 10 1 
156 1.19012 9.9987 -0.00870266 -0.00166626 9.9987 -26.8839 10 1 
160 1.1901 9.99814 -0.00888517 -0.00147515 9.99815 -26.9049 10 1 
160 1.1901 9.99814 -0.00888517 -0.00147515 9.99815 -26.9049 10 1 
164 1.19015 9.99462 -0.0089957 -0.00212895 9.99463 -26.8316 10 1 
168 1.19014 9.99366 -0.00921624 -0.00140696 9.99367 -26.8327 10 1 
172 1.19014 9.99233 -0.00938987 -0.00119702 9.99234 -26.8347 10 1 
176 1.19019 9.9885 -0.00962086 6.59821e-05 9.9885 -26.7478 10 1 
180 1.19019 9.98681 -0.00978595 0.000225643 9.98681 -26.7567 10 1 
184 1.19021 9.98325 -0.0099841 -0.00030633 9.98326 -26.7148 10 1 
188 1.19024 9.97904 -0.010257 -0.00166304 9.97905 -26.6598 10 1 
192 1.19025 9.97683 -0.0104276 -0.0020468 9.97684 -26.6424 10 1 
196 1.19029 9.97272 -0.0105797 -0.00130376 9.97273 -26.5667 10 1 
200 1.19033 9.96915 -0.0107684 0.00149833 9.96916 -26.5062 10 1 
204 1.19038 9.96412 -0.0109301 0.00253504 9.96413 -26.4044 10 1 
208 1.19042 9.95781 -0.0111634 0.00421708 9.95782 -26.3373 10 1 
212 1.19049 9.94882 -0.0113213 0.00294165 9.94883 -26.2082 10 1 
216 1.19054 9.93688 -0.01164 -0.00229474 9.93689 -26.1177 10 1 
220 1.19056 9.9259 -0.0118502 -0.00347684 9.92591 -26.0754 10 1 
224 1.19071 9.91164 -0.0120715 -0.0009095 9.91166 -25.8152 10 1 
224 1.19071 9.91164 -0.0120715 -0.0009095 9.91166 -25.8152 10 1 
228 1.19076 9.90081 -0.0121257 0.00534261 9.90083 -25.7184 10 1 
232 1.19089 9.88647 -0.0124218 0.0116935 9.88649 -25.4924 10 1 
236 1.19107 9.86571 -0.0126819 0.0085133 9.86573 -25.159 10 1 
240 1.19116 9.8431 -0.0127134 0.00745437 9.84312 -24.9934 10 1 
244 1.19139 9.81065 -0.0133279 0.0054352 9.81068 -24.5887 10 1 
248 1.19163 9.77498 -0.0135807 0.00834678 9.77502 -24.1525 10 1 
252 1.19189 9.73153 -0.0139856 0.0158267 9.73158 -23.6723 10 1 
256 1.19222 9.67741 -0.0142902 0.0232676 9.67749 -23.0831 10 1 
256 1.19222 9.67741 -0.0142902 0.0232676 9.67749 -23.0831 11 1 
260 1.19266 9.61129 -0.01439 0.0279804 9.61138 -22.2918 11 1 
264 1.19322 9.52764 -0.0148048 0.0357863 9.52779 -21.2702 11 1 
268 1.19386 9.42436 -0.0151628 0.0588221 9.42463 -20.1154 11 1 
272 1.19476 9.28693 -0.0155234 0.0809847 9.28746 -18.4977 11 1 
276 1.19583 9.10838 -0.0158236 0.133089 9.10972 -16.558 11 1 
280 1.1971 8.88415 -0.0160796 0.210871 8.88717 -14.2775 11 1 
284 1.19886 8.58028 -0.0162371 0.30548 8.58706 -11.0933 11 1 
288 1.20087 8.18016 -0.0163067 0.533717 8.20157 -7.4515 11 1 
292 1.20101 7.62052 -0.0162401 0.688995 7.65466 -7.21303 11 1 
296 1.19679 6.82135 -0.0160366 0.343836 6.84344 -14.8207 11 1 
300 1.18987 5.98511 -0.0156925 -0.444798 6.03069 -27.3328 11 1 
304 1.18451 5.37523 -0.0151135 -0.982505 5.47154 -37.0117 11 1 
308 1.18273 4.94394 -0.014354 -0.861225 5.02401 -40.2163 11 1 
312 1.18324 4.54037 -0.013566 -0.53653 4.57565 -39.2964 11 1 
316 1.18424 4.16166 -0.012803 -0.32356 4.1769 -37.5032 11 1 
320 1.18529 3.85443 -0.0121121 -0.189344 3.86101 -35.61 11 1 
320 1.18529 3.85443 -0.0121121 -0.189344 3.86101 -35.61 15 1 
324 1.18609 3.60102 -0.0114524 -0.0984046 3.6038 -34.158 15 1 
328 1.18659 3.37574 -0.0108913 -0.0461473 3.37703 -33.2545 15 1 
332 1.18707 3.18064 -0.0103279 -0.0197112 3.18126 -32.3894 15 1 
336 1.18752 3.01786 -0.00960615 0.000327799 3.01824 -31.5769 15 1 
340 1.18787 2.87286 -0.00882911 0.0159752 2.87336 -30.9481 15 1 
344 1.18814 2.7354 -0.00817975 0.0286617 2.73605 -30.4539 15 1 
348 1.18841 2.60554 -0.00756384 0.0399229 2.60628 -29.964 15 1 
352 1.18866 2.48502 -0.00691874 0.0491374 2.4859 -29.5226 15 1 
356 1.18886 2.37873 -0.00638524 0.05464 2.37972 -29.1568 15 1 
360 1.18907 2.29219 -0.00605716 0.0593048 2.29326 -28.7801 15 1 
364 1.18925 2.22306 -0.00605423 0.0624881 2.22417 -28.4526 15 1 
368 1.1894 2.1711 -0.00626137 0.0643613 2.17222 -28.1684 15 1 
372 1.18957 2.13942 -0.00650386 0.0645217 2.14051 -27.8698 15 1 
376 1.18971 2.12603 -0.00685449 0.0639548 2.12707 -27.6187 15 1 
380 1.18984 2.13061 -0.00733838 0.0628995 2.13161 -27.3784 15 1 
384 1.18998 2.15155 -0.00782359 0.0614223 2.15249 -27.1308 15 1 
384 1.18998 2.15155 -0.00782359 0.0614223 2.15249 -27.1308 16 1 
388 1.19009 2.18351 -0.00824454 0.060037 2.18441 -26.9349 16 1 
392 1.19019 2.22561 -0.00864964 0.0591256 2.22649 -26.7556 16 1 
396 1.19029 2.27787 -0.00901117 0.0580154 2.27872 -26.5698 16 1 
400 1.19038 2.33715 -0.00930968 0.0569806 2.33797 -26.4073 16 1 
404 1.19046 2.40126 -0.00957641 0.0564399 2.40207 -26.2711 16 1 
408 1.19052 2.4694 -0.00976022 0.0561511 2.47019 -26.147 16 1 
412 1.19059 2.54052 -0.00985766 0.0557319 2.54129 -26.0341 16 1 
416 1.19064 2.61385 -0.00992922 0.0555179 2.61461 -25.9385 16 1 
420 1.19069 2.68874 -0.0100001 0.0557517 2.68948 -25.8514 16 1 
424 1.19073 2.764 -0.0100374 0.0561396 2.76473 -25.7787 16 1 
428 1.19076 2.83918 -0.0100145 0.0564493 2.83989 -25.7242 16 1 
432 1.19079 2.91458 -0.00995763 0.0568392 2.91529 -25.6733 16 1 
436 1.19081 2.98957 -0.00992312 0.0574833 2.99026 -25.6341 16 1 
440 1.19082 3.06366 -0.00991673 0.0584286 3.06436 -25.6041 16 1 
444 1.19084 3.13703 -0.00990839 0.059369 3.13773 -25.5762 16 1 
448 1.19085 3.20942 -0.00988998 0.0600554 3.21011 -25.5654 16 1 
448 1.19085 3.20942 -0.00988998 0.0600554 3.21011 -25.5654 17 1 
452 1.19085 3.28071 -0.00988983 0.0608463 3.2814 -25.5596 17 1 
456 1.19085 3.35101 -0.0099336 0.0619951 3.3517 -25.551 17 1 
460 1.19085 3.42017 -0.0100073 0.063037 3.42087 -25.5533 17 1 
464 1.19085 3.48822 -0.010121 0.0638196 3.48891 -25.5615 17 1 
468 1.19084 3.55508 -0.0102592 0.0646072 3.55577 -25.5716 17 1 
472 1.19083 3.62061 -0.010409 0.0655072 3.6213 -25.5878 17 1 
476 1.19082 3.68501 -0.010604 0.0663486 3.6857 -25.607 17 1 
480 1.19081 3.74852 -0.0108754 0.0670119 3.74921 -25.6265 17 1 
484 1.1908 3.81072 -0.0111414 0.0676081 3.81141 -25.6502 17 1 
488 1.19078 3.8715 -0.0114359 0.0682483 3.87219 -25.6809 17 1 
492 1.19077 3.93134 -0.0117596 0.06877 3.93203 -25.7107 17 1 
496 1.19075 3.99014 -0.0120783 0.0691794 3.99082 -25.7409 17 1 
500 1.19073 4.04775 -0.0124387 0.0696448 4.04843 -25.778 17 1 
504 1.19071 4.10431 -0.0128184 0.0700537 4.10499 -25.812 17 1 
508 1.19069 4.15973 -0.0131838 0.0703762 4.1604 -25.8491 17 1 
512 1.19066 4.21395 -0.0135316 0.0706675 4.21461 -25.8936 17 1 
512 1.19066 4.21395 -0.0135316 0.0706675 4.21461 -25.8936 25 1 
516 1.19064 4.26739 -0.0138712 0.0709815 4.26805 -25.9314 25 1 
520 1.19062 4.31984 -0.0142142 0.0712964 4.3205 -25.9705 25 1 
524 1.1906 4.37107 -0.0145552 0.0715281 4.37172 -26.0151 25 1 
528 1.19057 4.42133 -0.0148248 0.0717518 4.42198 -26.0587 25 1 
532 1.19055 4.47065 -0.0150714 0.0720233 4.4713 -26.1014 25 1 
536 1.19053 4.51899 -0.0152893 0.0722192 4.51963 -26.1444 25 1 
540 1.1905 4.56643 -0.0154566 0.0723941 4.56707 -26.1878 25 1 
544 1.19048 4.61281 -0.0155789 0.0726296 4.61344 -26.2291 25 1 
548 1.19045 4.65816 -0.0156331 0.0728143 4.65879 -26.2731 25 1 
552 1.19043 4.70258 -0.0156158 0.0729408 4.7032 -26.3146 25 1 
556 1.19041 4.74621 -0.0155344 0.0731005 4.74683 -26.3537 25 1 
560 1.19039 4.78878 -0.0154039 0.0732256 4.78939 -26.393 25 1 
564 1.19037 4.83027 -0.0152097 0.0733259 4.83088 -26.4303 25 1 
568 1.19035 4.87089 -0.0149367 0.0734205 4.87149 -26.4676 25 1 
572 1.19033 4.91047 -0.0145617 0.0734583 4.91107 -26.5029 25 1 
576 1.19031 4.9491 -0.0141205 0.073465 4.94969 -26.5357 25 1 
576 1.19031 4.9491 -0.0141205 0.073465 4.94969 -26.5357 26 1 
580 1.19029 4.98683 -0.0135982 0.0734476 4.98742 -26.5658 26 1 
584 1.19028 5.02336 -0.012979 0.0734386 5.02394 -26.5959 26 1 
588 1.19026 5.05886 -0.0122758 0.073321 5.05943 -26.6252 26 1 
592 1.19025 5.09351 -0.0114698 0.0731361 5.09407 -26.6496 26 1 
596 1.19023 5.12711 -0.0105625 0.0729766 5.12766 -26.6738 26 1 
600 1.19022 5.15963 -0.00959952 0.0726834 5.16017 -26.6958 26 1 
604 1.19021 5.19104 -0.00853505 0.0723755 5.19157 -26.7145 26 1 
608 1.1902 5.22154 -0.00735643 0.0719938 5.22206 -26.7351 26 1 
608 1.1902 5.22154 -0.00735643 0.0719938 5.22206 -26.7351 26 1 
612 1.19019 5.25094 -0.00609415 0.0715243 5.25145 -26.75 26 1 
616 1.19018 5.27951 -0.0047177 0.0710522 5.28 -26.7639 26 1 
620 1.19018 5.30693 -0.00326511 0.0704515 5.30742 -26.7763 26 1 
624 1.19017 5.33332 -0.00168955 0.0698538 5.33379 -26.7865 26 1 
628 1.19017 5.35881 -2.31628e-05 0.0691633 5.35926 -26.7949 26 1 
632 1.19016 5.38345 0.00172777 0.0684149 5.3839 -26.8014 26 1 
636 1.19016 5.40701 0.00359445 0.0676034 5.40744 -26.805 26 1 
640 1.19016 5.42973 0.0055568 0.0667495 5.43015 -26.8082 26 1 
644 1.19016 5.45157 0.00762377 0.0658572 5.45199 -26.8084 26 1 
648 1.19016 5.47237 0.00975474 0.0648388 5.47278 -26.8069 26 1 
652 1.19016 5.49268 0.0120802 0.0638812 5.49308 -26.8052 26 1 
656 1.19016 5.51191 0.0144193 0.0627308 5.51229 -26.7981 26 1 
660 1.19017 5.53057 0.0168772 0.0616084 5.53095 -26.7947 26 1 
664 1.19017 5.54823 0.0194854 0.0604943 5.5486 -26.7834 26 1 
668 1.19018 5.56545 0.0221406 0.0591807 5.56581 -26.7761 26 1 
672 1.19018 5.58208 0.0249056 0.0578468 5.58244 -26.7662 26 1 
672 1.19018 5.58208 0.0249056 0.0578468 5.58244 -26.7662 27 1 
676 1.19019 5.5977 0.0278208 0.0565024 5.59806 -26.7481 27 1 
680 1.1902 5.61342 0.0308226 0.0551354 5.61378 -26.7414 27 1 
684 1.19021 5.62779 0.0339116 0.0535647 5.62816 -26.7227 27 1 
688 1.19021 5.64238 0.0370799 0.052005 5.64275 -26.7089 27 1 
692 1.19022 5.65591 0.0404598 0.0503948 5.65629 -26.6876 27 1 
696 1.19023 5.66973 0.043855 0.0486586 5.67012 -26.679 27 1 
700 1.19024 5.68282 0.0473735 0.0468878 5.68322 -26.6533 27 1 
704 1.19026 5.69548 0.0510787 0.0451819 5.6959 -26.6298 27 1 
704 1.19026 5.69548 0.0510787 0.0451819 5.6959 -26.6298 31 1 
708 1.19026 5.70812 0.0547343 0.0430725 5.70855 -26.6219 31 1 
712 1.19027 5.72052 0.058587 0.0409482 5.72097 -26.599 31 1 
716 1.19029 5.73255 0.0626544 0.0389526 5.73303 -26.5707 31 1 
720 1.1903 5.74436 0.0667 0.0368458 5.74487 -26.5574 31 1 
724 1.1903 5.7576 0.0708004 0.0344062 5.75815 -26.5565 31 1 
728 1.19032 5.76883 0.0751779 0.0319941 5.76942 -26.5074 31 1 
732 1.19033 5.78103 0.0796665 0.0300154 5.78166 -26.5006 31 1 
736 1.19031 5.79506 0.0840789 0.0266345 5.79574 -26.5266 31 1 
740 1.19035 5.80662 0.0887648 0.0244605 5.80736 -26.4614 31 1 
744 1.19035 5.81979 0.0937075 0.02169 5.82059 -26.4617 31 1 
748 1.19032 5.83502 0.0983586 0.0188287 5.83589 -26.516 31 1 
752 1.19034 5.85016 0.10392 0.0162819 5.85111 -26.4796 31 1 
756 1.19036 5.86434 0.108723 0.0129919 5.86537 -26.4457 31 1 
760 1.19029 5.88423 0.11413 0.0099607 5.88535 -26.5677 31 1 
764 1.19028 5.90446 0.119519 0.00725964 5.90569 -26.5835 31 1 
768 1.1903 5.92663 0.124 0.00340615 5.92794 -26.5488 31 1 
772 1.19023 5.95133 0.130959 0.00200163 5.95279 -26.6809 31 1 
776 1.19012 5.9795 0.139121 0.00186907 5.98114 -26.8769 31 1 
780 1.19005 6.0194 0.144124 -0.00326258 6.02115 -27.0114 31 1 
784 1.18998 6.06445 0.148684 -0.00658903 6.06632 -27.1249 31 1 
788 1.18971 6.13031 0.157445 -0.00591424 6.13239 -27.6119 31 1 
792 1.18947 6.20264 0.16896 -0.000222692 6.20504 -28.0462 31 1 
796 1.18905 6.3174 0.179743 0.00891264 6.32014 -28.8187 31 1 
800 1.18866 6.40071 0.184059 0.0134209 6.40358 -29.5184 31 1 
