0,1.20373,10.0001,-0.000190923,-0.0010051,10.0001,-2.28816,1,1,
4,1.20369,10.0009,-0.000309596,-0.000272652,10.0009,-2.35917,1,1,
8,1.20364,10.0006,-0.000368771,-0.00198895,10.0006,-2.46331,1,1,
12,1.20363,9.99938,-0.000411313,-0.00214885,9.99939,-2.48133,1,1,
16,1.20364,9.99808,-0.000695752,-0.00207366,9.99808,-2.4502,1,1,
20,1.20366,9.99579,-0.000917165,-0.00204383,9.99579,-2.41999,1,1,
24,1.20367,9.99512,-0.00112451,-0.00240613,9.99512,-2.4042,1,1,
28,1.20366,9.99637,-0.00159465,-0.00306201,9.99637,-2.42531,1,1,
32,1.20365,9.99668,-0.0017531,-0.00210235,9.99668,-2.43594,1,1,
36,1.20364,9.99682,-0.00165173,-0.00219164,9.99682,-2.44778,1,1,
40,1.20369,9.99652,-0.00221735,-0.00300386,9.99652,-2.37458,1,1,
44,1.20374,9.99516,-0.00275744,-0.0046135,9.99516,-2.28234,1,1,
48,1.20373,9.99381,-0.00179205,-0.00355309,9.99381,-2.29927,1,1,
52,1.20373,9.99352,-0.000322948,-0.00184966,9.99352,-2.29324,1,1,
56,1.20371,9.9951,-0.00058379,-0.00101143,9.9951,-2.33381,1,1,
60,1.2037,9.9947,-0.00200077,-0.00256639,9.9947,-2.34904,1,1,
64,1.20368,9.99224,-0.00250919,-0.0031926,9.99224,-2.38259,1,1,
64,1.20368,9.99224,-0.00250919,-0.0031926,9.99224,-2.38259,2,1,
68,1.20365,9.98973,-0.00146862,-0.00350742,9.98973,-2.43927,2,1,
72,1.2037,9.98669,-0.000153572,-0.00233684,9.98669,-2.35484,2,1,
76,1.2037,9.98714,0.00041185,-0.0017035,9.98714,-2.3437,2,1,
80,1.2037,9.98875,0.000401789,-0.000999713,9.98875,-2.35506,2,1,
84,1.20374,9.98855,0.000237054,-7.98522e-05,9.98855,-2.27717,2,1,
88,1.20375,9.98862,8.72036e-05,-0.000669095,9.98862,-2.25021,2,1,
92,1.20376,9.98701,5.92713e-05,-0.00099584,9.98701,-2.24135,2,1,
96,1.20374,9.98509,0.000197312,-0.00172602,9.98509,-2.27439,2,1,
100,1.20372,9.98469,0.000238947,-0.00131665,9.98469,-2.3073,2,1,
104,1.20376,9.9833,0.000261619,0.000116194,9.9833,-2.24774,2,1,
108,1.20374,9.98171,0.000196747,0.000519363,9.98171,-2.27154,2,1,
112,1.20369,9.98167,0.000159518,9.86284e-05,9.98167,-2.36675,2,1,
116,1.20372,9.9811,0.000190453,-0.00125731,9.9811,-2.30905,2,1,
120,1.20378,9.98041,2.08229e-05,-0.0027366,9.98041,-2.19885,2,1,
124,1.20377,9.98089,-0.000139788,-0.00290264,9.98089,-2.22109,2,1,
128,1.20376,9.97798,-0.00011355,-0.00128982,9.97798,-2.24721,2,1,
128,1.20376,9.97798,-0.00011355,-0.00128982,9.97798,-2.24721,10,1,
132,1.20376,9.9745,-6.03433e-05,0.000196462,9.9745,-2.23958,10,1,
136,1.20377,9.97456,9.23583e-05,0.00122909,9.97456,-2.22724,10,1,
140,1.20379,9.97291,9.92127e-05,-0.000251301,9.97291,-2.17667,10,1,
144,1.20378,9.97199,3.22473e-05,-0.00221782,9.97199,-2.19987,10,1,
148,1.20375,9.97247,-2.44067e-05,-0.00272336,9.97247,-2.26512,10,1,
152,1.20378,9.96899,-0.000158755,-0.00287324,9.96899,-2.20626,10,1,
156,1.20381,9.96545,-0.000291169,-0.00155182,9.96545,-2.15279,10,1,
160,1.2038,9.96379,-0.000279655,-0.000902217,9.96379,-2.17472,10,1,
160,1.2038,9.96379,-0.000279655,-0.000902217,9.96379,-2.17472,10,1,
164,1.20384,9.96183,-0.000154464,-0.00199738,9.96183,-2.09471,10,1,
168,1.20384,9.96245,-0.000123467,-0.00203247,9.96246,-2.09538,10,1,
172,1.20383,9.96054,-8.88015e-05,-0.00283298,9.96054,-2.10912,10,1,
176,1.20389,9.95318,-0.000149052,-0.000629226,9.95318,-2.01171,10,1,
180,1.20388,9.94825,-0.000141509,5.30097e-05,9.94825,-2.01704,10,1,
184,1.20391,9.94553,-5.42327e-05,-0.000863107,9.94553,-1.96004,10,1,
188,1.20394,9.94505,-0.000123885,-0.0038256,9.94506,-1.90747,10,1,
192,1.20393,9.94362,-0.000160344,-0.00542979,9.94362,-1.92997,10,1,
196,1.20395,9.93535,-0.000274256,-0.00430547,9.93536,-1.89347,10,1,
200,1.20398,9.92791,-0.000451268,-0.000390995,9.92792,-1.84384,10,1,
204,1.20407,9.92302,-0.00046584,0.000484055,9.92303,-1.68367,10,1,
208,1.20413,9.92015,-0.000465094,0.00134581,9.92016,-1.5694,10,1,
212,1.20418,9.9134,-0.000389292,-0.0010093,9.91341,-1.47528,10,1,
216,1.20419,9.89979,-0.000571424,-0.00647983,9.8998,-1.46199,10,1,
220,1.20421,9.88646,-0.000567747,-0.00747935,9.88647,-1.42235,10,1,
224,1.20443,9.87247,-0.000562764,-0.00479431,9.87248,-1.0226,10,1,
224,1.20443,9.87247,-0.000562764,-0.00479431,9.87248,-1.0226,10,1,
228,1.20458,9.86488,-0.000432114,0.00118493,9.86488,-0.759522,10,1,
232,1.20474,9.85367,-0.000579173,0.00678267,9.85368,-0.460655,10,1,
236,1.20491,9.83327,-0.000834962,0.00251351,9.83328,-0.171086,10,1,
240,1.20497,9.80953,-0.000920358,0.000738171,9.80955,-0.0624683,10,1,
244,1.20521,9.77647,-0.00170016,-0.00182434,9.77649,0.386592,10,1,
248,1.20553,9.7422,-0.00195751,0.000488759,9.74223,0.953365,10,1,
252,1.20586,9.70164,-0.0021781,0.00782527,9.70167,1.55791,10,1,
256,1.20621,9.65011,-0.00218505,0.0153222,9.65017,2.18347,10,1,
256,1.20621,9.65011,-0.00218505,0.0153222,9.65017,2.18347,11,1,
260,1.20664,9.58666,-0.0019198,0.0194539,9.58672,2.96572,11,1,
264,1.20724,9.50725,-0.00205365,0.0269417,9.50735,4.0516,11,1,
268,1.20801,9.41026,-0.00228918,0.0496629,9.41047,5.42866,11,1,
272,1.20909,9.28078,-0.00276363,0.0709199,9.28122,7.38345,11,1,
276,1.21032,9.11042,-0.0033084,0.122138,9.11159,9.61766,11,1,
280,1.21168,8.89292,-0.00384771,0.199536,8.89565,12.0602,11,1,
284,1.21346,8.59419,-0.00430581,0.294066,8.60054,15.279,11,1,
288,1.21546,8.19819,-0.00464027,0.523987,8.21892,18.8924,11,1,
292,1.21556,7.6425,-0.00476649,0.680353,7.67573,19.066,11,1,
296,1.21127,6.84761,-0.00475988,0.332258,6.86917,11.3266,11,1,
300,1.20428,6.01767,-0.00477,-0.465469,6.06518,-1.29595,11,1,
304,1.19897,5.42001,-0.00480734,-1.01059,5.52055,-10.8906,11,1,
308,1.19741,5.00816,-0.00500338,-0.885839,5.09148,-13.7054,11,1,
312,1.19824,4.62852,-0.00534862,-0.553626,4.66508,-12.2139,11,1,
316,1.19951,4.27481,-0.00572458,-0.33583,4.29043,-9.92001,11,1,
320,1.20072,3.99123,-0.00600399,-0.199796,3.9979,-7.72923,11,1,
320,1.20072,3.99123,-0.00600399,-0.199796,3.9979,-7.72923,15,1,
324,1.20156,3.75994,-0.0060251,-0.107169,3.76264,-6.20929,15,1,
328,1.20204,3.55814,-0.00587678,-0.0524764,3.55926,-5.33992,15,1,
332,1.20256,3.3909,-0.00562853,-0.0223556,3.39135,-4.40618,15,1,
336,1.20317,3.26347,-0.00526181,0.0038307,3.26367,-3.30556,15,1,
340,1.2038,3.16336,-0.00495675,0.0344983,3.16384,-2.17274,15,1,
344,1.2044,3.0742,-0.00488607,0.0750494,3.07549,-1.08318,15,1,
348,1.20495,2.98109,-0.00495638,0.106367,2.98333,-0.0899094,15,1,
352,1.20533,2.87387,-0.00508461,0.100451,2.87604,0.603397,15,1,
356,1.20549,2.75933,-0.00528314,0.0588241,2.76041,0.888626,15,1,
360,1.2055,2.66313,-0.00557756,0.0101699,2.66346,0.90221,15,1,
364,1.2054,2.61294,-0.00599342,-0.0284709,2.61324,0.717512,15,1,
368,1.20527,2.62941,-0.00636623,-0.0541502,2.63023,0.478588,15,1,
372,1.20519,2.71912,-0.00650053,-0.0688661,2.72063,0.346292,15,1,
376,1.20517,2.87252,-0.00645257,-0.0715007,2.87451,0.30057,15,1,
380,1.20521,3.07874,-0.00631725,-0.0605591,3.08087,0.385081,15,1,
384,1.20534,3.32772,-0.0060543,-0.0359815,3.32974,0.608991,15,1,
384,1.20534,3.32772,-0.0060543,-0.0359815,3.32974,0.608991,16,1,
388,1.20549,3.60765,-0.00566142,0.00111509,3.60964,0.882043,16,1,
392,1.20566,3.91225,-0.00525696,0.0486676,3.91463,1.2,16,1,
396,1.20586,4.23833,-0.00485517,0.103037,4.24168,1.56113,16,1,
400,1.20606,4.58099,-0.00444577,0.161497,4.58589,1.92162,16,1,
404,1.20625,4.93586,-0.00406053,0.221414,4.94278,2.25591,16,1,
408,1.20641,5.29942,-0.00368268,0.279031,5.30857,2.55434,16,1,
412,1.20656,5.66799,-0.00333912,0.330396,5.67927,2.81025,16,1,
416,1.20667,6.03816,-0.00299083,0.372873,6.05117,3.01703,16,1,
420,1.20676,6.40615,-0.00265824,0.404122,6.42025,3.182,16,1,
424,1.20683,6.76744,-0.00241239,0.422038,6.78178,3.30159,16,1,
428,1.20686,7.11804,-0.00220373,0.425075,7.13176,3.36221,16,1,
432,1.20686,7.45511,-0.00194016,0.413043,7.46745,3.3626,16,1,
436,1.20683,7.77542,-0.00163207,0.387361,7.78584,3.29736,16,1,
440,1.20676,8.07546,-0.00136172,0.350786,8.08373,3.18133,16,1,
444,1.20668,8.35381,-0.0011699,0.305308,8.35995,3.04044,16,1,
448,1.2066,8.60965,-0.00101045,0.252707,8.61382,2.89031,16,1,
448,1.2066,8.60965,-0.00101045,0.252707,8.61382,2.89031,17,1,
452,1.20652,8.84045,-0.000858966,0.197441,8.84302,2.75113,17,1,
456,1.20644,9.04452,-0.00071724,0.144267,9.04594,2.59803,17,1,
460,1.20633,9.22117,-0.000493552,0.0972333,9.22188,2.40585,17,1,
464,1.20623,9.36937,-0.000268818,0.0599896,9.36969,2.21377,17,1,
468,1.20613,9.49,-0.000146132,0.0357529,9.49014,2.04439,17,1,
472,1.20606,9.58558,-3.32331e-05,0.0233845,9.58565,1.90859,17,1,
476,1.20601,9.66062,5.55274e-05,0.0186701,9.66066,1.82187,17,1,
480,1.20597,9.72103,0.000154137,0.0168393,9.72106,1.74561,17,1,
484,1.20591,9.7695,0.000289079,0.0150552,9.76952,1.63923,17,1,
488,1.20584,9.80808,0.000327907,0.0127891,9.8081,1.5169,17,1,
492,1.20579,9.83998,0.00027135,0.0102112,9.83998,1.43256,17,1,
496,1.20578,9.86594,0.000269934,0.0073284,9.86595,1.41157,17,1,
500,1.20578,9.88703,0.000287563,0.00457736,9.88704,1.41329,17,1,
504,1.20577,9.9046,0.000288786,0.00285144,9.90461,1.39768,17,1,
508,1.20574,9.91899,0.000316636,0.00230522,9.91899,1.33021,17,1,
512,1.20568,9.93136,0.000341436,0.00216775,9.93136,1.22909,17,1,
512,1.20568,9.93136,0.000341436,0.00216775,9.93136,1.22909,25,1,
516,1.20565,9.94228,0.00035337,0.0014985,9.94229,1.18222,25,1,
520,1.20566,9.95107,0.000330259,0.00107899,9.95107,1.1961,25,1,
524,1.20567,9.95839,0.000321061,0.000580845,9.95839,1.21193,25,1,
528,1.20567,9.96507,0.000345991,0.000427046,9.96507,1.20835,25,1,
532,1.20565,9.97049,0.000347659,0.000611024,9.97049,1.16625,25,1,
536,1.20561,9.97604,0.000363981,0.000688927,9.97604,1.10866,25,1,
540,1.2056,9.98104,0.000373307,0.000733334,9.98104,1.07796,25,1,
544,1.2056,9.98526,0.000365602,0.000891886,9.98526,1.0806,25,1,
548,1.2056,9.98928,0.00040872,0.00110771,9.98928,1.08907,25,1,
552,1.20559,9.99116,0.000406013,0.000670335,9.99116,1.06359,25,1,
556,1.20558,9.994,0.000382565,0.000604983,9.994,1.05036,25,1,
560,1.20558,9.99749,0.000413493,0.000681278,9.99749,1.05092,25,1,
564,1.20557,9.9996,0.000431751,0.00103422,9.9996,1.02941,25,1,
568,1.20557,10.0022,0.000427397,0.00112285,10.0022,1.03094,25,1,
572,1.20558,10.003,0.00041299,0.000761528,10.003,1.05355,25,1,
576,1.20561,10.0036,0.000392545,0.000626988,10.0036,1.09654,25,1,
576,1.20561,10.0036,0.000392545,0.000626988,10.0036,1.09654,26,1,
580,1.20562,10.004,0.000446111,0.000846909,10.004,1.12073,26,1,
584,1.20559,10.003,0.000520128,0.00124575,10.003,1.07047,26,1,
588,1.20557,10.0046,0.000530888,0.00131163,10.0046,1.02846,26,1,
592,1.20557,10.0068,0.000478186,0.00109935,10.0068,1.03482,26,1,
596,1.2056,10.0092,0.000397007,0.000752299,10.0092,1.07945,26,1,
600,1.20561,10.0113,0.000380493,0.000803929,10.0113,1.09704,26,1,
604,1.20557,10.0101,0.000426801,0.00061783,10.0101,1.03415,26,1,
608,1.20554,10.0097,0.000452383,0.000927504,10.0097,0.972665,26,1,
608,1.20554,10.0097,0.000452383,0.000927504,10.0097,0.972665,26,1,
612,1.20549,10.0099,0.000431033,0.00147028,10.0099,0.894083,26,1,
616,1.20544,10.0113,0.000416833,0.00129217,10.0113,0.800142,26,1,
620,1.20543,10.0145,0.000467976,0.000808571,10.0145,0.778726,26,1,
624,1.20545,10.0137,0.000526178,0.000917075,10.0137,0.805334,26,1,
628,1.20548,10.0141,0.000508718,0.00115125,10.0141,0.87023,26,1,
632,1.20549,10.0156,0.000435567,0.00107642,10.0156,0.87874,26,1,
636,1.20544,10.0156,0.000368572,0.0007486,10.0156,0.803491,26,1,
640,1.20542,10.0173,0.000377411,0.000577792,10.0173,0.765827,26,1,
644,1.20539,10.0144,0.000487093,0.000734624,10.0144,0.713398,26,1,
648,1.20536,10.0135,0.000659232,0.00139516,10.0135,0.647761,26,1,
652,1.20532,10.0133,0.00073781,0.00191235,10.0133,0.577749,26,1,
656,1.20534,10.0133,0.000604531,0.00193006,10.0133,0.616101,26,1,
660,1.20545,10.0184,0.000371885,0.000922711,10.0184,0.816261,26,1,
664,1.20552,10.0186,0.000274713,-0.000482785,10.0186,0.941376,26,1,
668,1.20551,10.0192,0.000358595,-0.00032748,10.0192,0.925262,26,1,
672,1.20538,10.0145,0.000522546,0.00133911,10.0145,0.680913,26,1,
672,1.20538,10.0145,0.000522546,0.00133911,10.0145,0.680913,27,1,
676,1.20525,10.0109,0.000663457,0.0025423,10.0109,0.447753,27,1,
680,1.20526,10.0121,0.000672409,0.00186011,10.0121,0.469285,27,1,
684,1.20537,10.0137,0.00053292,0.000506729,10.0137,0.664258,27,1,
688,1.20549,10.0198,0.000311654,0.000131439,10.0198,0.893515,27,1,
692,1.2055,10.0181,0.000183129,0.000198923,10.0181,0.909874,27,1,
696,1.20543,10.0165,0.00025217,0.000668134,10.0165,0.77547,27,1,
700,1.20532,10.0137,0.000446149,0.00135179,10.0137,0.58307,27,1,
704,1.20531,10.0119,0.000568594,0.00137548,10.0119,0.552304,27,1,
704,1.20531,10.0119,0.000568594,0.00137548,10.0119,0.552304,31,1,
708,1.20535,10.0138,0.000475012,0.000639777,10.0138,0.638341,31,1,
712,1.20537,10.0147,0.000293714,0.000134663,10.0147,0.671337,31,1,
716,1.20544,10.0184,0.000198298,0.000717898,10.0184,0.790969,31,1,
720,1.20545,10.0158,0.000206842,0.00120671,10.0158,0.820866,31,1,
724,1.20539,10.0151,0.000274645,0.000513322,10.0151,0.703625,31,1,
728,1.20532,10.0134,0.000326048,0.000329128,10.0134,0.574985,31,1,
732,1.20533,10.0136,0.000315273,0.000857434,10.0136,0.587501,31,1,
736,1.20536,10.0156,0.000252857,0.000908884,10.0156,0.649596,31,1,
740,1.2054,10.0158,0.000186004,0.000167262,10.0158,0.728935,31,1,
744,1.20544,10.0165,0.000155212,0.000108046,10.0165,0.789253,31,1,
748,1.20539,10.014,0.000150281,0.000640495,10.014,0.704155,31,1,
752,1.20534,10.0146,0.000154838,0.000817721,10.0146,0.618338,31,1,
756,1.20534,10.0146,0.000181117,0.000315219,10.0146,0.613071,31,1,
760,1.20539,10.016,0.00021285,0.000441017,10.016,0.702426,31,1,
764,1.20538,10.0146,0.000195913,0.000872305,10.0146,0.695511,31,1,
768,1.20536,10.0142,0.000153873,0.00071832,10.0142,0.646803,31,1,
772,1.20537,10.0151,9.12268e-05,0.000196853,10.0151,0.663318,31,1,
776,1.2054,10.0161,5.38512e-05,0.000282885,10.0161,0.724324,31,1,
780,1.20539,10.0159,8.42797e-05,-0.000224547,10.0159,0.70609,31,1,
784,1.20536,10.0147,0.000120501,0.000111092,10.0147,0.641403,31,1,
788,1.20535,10.0143,0.000129274,0.00164694,10.0143,0.624929,31,1,
792,1.20535,10.0147,0.000124427,0.0014426,10.0147,0.634278,31,1,
796,1.20537,10.0166,0.000108159,0.000218828,10.0166,0.672477,31,1,
800,1.20537,10.0157,9.24286e-05,-0.00132827,10.0157,0.669916,31,1,
