73.3574;r ;Density                 ;Velocity u              ;Velocity v              ;Velocity w              ;|Velocity|              ;Pressure                ;Distribution            ;Levels                  ;
0 1.2131 9.99955 0.000116695 9.19542e-05 9.99955 14.6351 1 1 
4 1.21312 9.99977 4.82028e-05 0.000162095 9.99977 14.6635 1 1 
8 1.21315 9.99724 -9.7844e-05 0.000147465 9.99724 14.7254 1 1 
12 1.21314 9.99487 -0.000250316 0.000164903 9.99487 14.7067 1 1 
16 1.21318 9.99187 -0.000283482 0.000232035 9.99187 14.7772 1 1 
20 1.21323 9.98874 -0.000462921 0.000168886 9.98874 14.8616 1 1 
24 1.21322 9.9869 -0.000479169 0.000291747 9.9869 14.8538 1 1 
28 1.21328 9.98234 -0.000649197 0.000237542 9.98234 14.9489 1 1 
32 1.21328 9.98099 -0.000749493 0.000280883 9.98099 14.9529 1 1 
36 1.21333 9.97761 -0.000774771 0.000357401 9.97761 15.0493 1 1 
40 1.21337 9.97522 -0.000946697 0.000358195 9.97522 15.1116 1 1 
44 1.21339 9.97196 -0.00103789 0.000389321 9.97196 15.1531 1 1 
48 1.21342 9.96821 -0.00116471 0.000415629 9.96821 15.2105 1 1 
52 1.21344 9.96575 -0.00127334 0.000411161 9.96576 15.2443 1 1 
56 1.2135 9.96119 -0.00137542 0.00045391 9.96119 15.3608 1 1 
60 1.21351 9.95977 -0.00147096 0.000528362 9.95977 15.3708 1 1 
64 1.21357 9.95499 -0.00162997 0.000475637 9.955 15.4824 1 1 
64 1.21357 9.95499 -0.00162997 0.000475637 9.955 15.4824 2 1 
68 1.21358 9.95333 -0.0016448 0.000639151 9.95333 15.4994 2 1 
72 1.21362 9.95027 -0.00175214 0.000672145 9.95027 15.5788 2 1 
76 1.21367 9.94681 -0.00194029 0.000621368 9.94681 15.6551 2 1 
80 1.2137 9.94363 -0.0019529 0.000773627 9.94364 15.7167 2 1 
84 1.21375 9.94103 -0.00206427 0.000783581 9.94103 15.8033 2 1 
88 1.21378 9.93947 -0.00220345 0.000826958 9.93947 15.853 2 1 
92 1.21384 9.93603 -0.00217223 0.000994639 9.93604 15.9725 2 1 
96 1.21385 9.93507 -0.00240136 0.000902514 9.93507 15.9926 2 1 
100 1.21393 9.92953 -0.0023625 0.00106767 9.92953 16.1328 2 1 
104 1.21397 9.92578 -0.00255796 0.00108506 9.92578 16.199 2 1 
108 1.214 9.92224 -0.00264275 0.00112448 9.92224 16.2509 2 1 
112 1.21405 9.91953 -0.00271898 0.00116853 9.91953 16.353 2 1 
116 1.2141 9.91708 -0.00290239 0.0012145 9.91708 16.4404 2 1 
120 1.21414 9.91559 -0.00293197 0.00126834 9.91559 16.5027 2 1 
124 1.21421 9.91203 -0.0031187 0.00125757 9.91203 16.6267 2 1 
128 1.21425 9.90748 -0.0031667 0.00135006 9.90749 16.713 2 1 
128 1.21425 9.90748 -0.0031667 0.00135006 9.90749 16.713 10 1 
132 1.21424 9.90626 -0.00333777 0.00134308 9.90627 16.6861 10 1 
136 1.21432 9.89973 -0.00337516 0.0014555 9.89973 16.8318 10 1 
140 1.21435 9.89783 -0.00358231 0.00145567 9.89783 16.8811 10 1 
144 1.21435 9.89573 -0.00364191 0.00159196 9.89573 16.8941 10 1 
148 1.21443 9.89116 -0.00371459 0.00151276 9.89117 17.0357 10 1 
152 1.21442 9.89146 -0.00393523 0.00159831 9.89146 17.0219 10 1 
156 1.21443 9.88837 -0.00390485 0.00182462 9.88838 17.039 10 1 
160 1.21452 9.88287 -0.00417694 0.00179265 9.88287 17.1908 10 1 
160 1.21452 9.88287 -0.00417694 0.00179265 9.88287 17.1908 10 1 
164 1.21447 9.88295 -0.00417705 0.00183503 9.88296 17.1109 10 1 
168 1.21454 9.87769 -0.00437608 0.00192004 9.87769 17.2284 10 1 
172 1.21456 9.87488 -0.00450485 0.00207769 9.87488 17.2638 10 1 
176 1.21453 9.87636 -0.00446341 0.00215947 9.87637 17.2073 10 1 
180 1.21463 9.86853 -0.00455467 0.00240244 9.86854 17.3883 10 1 
184 1.2146 9.86649 -0.00477326 0.00239085 9.8665 17.3452 10 1 
188 1.21463 9.86322 -0.00484206 0.00261605 9.86322 17.4005 10 1 
192 1.21466 9.85623 -0.00483785 0.00274874 9.85623 17.4533 10 1 
196 1.21467 9.85383 -0.00523218 0.00255921 9.85384 17.4621 10 1 
200 1.2147 9.85053 -0.00505195 0.00293982 9.85053 17.5282 10 1 
204 1.21477 9.84702 -0.00533284 0.00300709 9.84703 17.6531 10 1 
208 1.21483 9.84338 -0.00551612 0.00312637 9.84338 17.7569 10 1 
212 1.21481 9.83872 -0.0054542 0.00335432 9.83873 17.7219 10 1 
216 1.2149 9.82867 -0.00594476 0.00317232 9.82868 17.8903 10 1 
220 1.21495 9.81555 -0.00592667 0.00332251 9.81556 17.9752 10 1 
224 1.21493 9.80739 -0.00587289 0.0036181 9.8074 17.9334 10 1 
224 1.21493 9.80739 -0.00587289 0.0036181 9.8074 17.9334 10 1 
228 1.21508 9.79811 -0.00634832 0.00332524 9.79812 18.2124 10 1 
232 1.21514 9.79157 -0.00638274 0.00359381 9.79158 18.3077 10 1 
236 1.21521 9.78076 -0.0064245 0.00393856 9.78077 18.4354 10 1 
240 1.21531 9.76987 -0.00672301 0.00377327 9.76988 18.6197 10 1 
244 1.21549 9.74681 -0.00667485 0.00421071 9.74682 18.9565 10 1 
248 1.21561 9.71842 -0.00718404 0.00406756 9.71844 19.1676 10 1 
252 1.21562 9.70455 -0.00741937 0.00404079 9.70456 19.1781 10 1 
256 1.21608 9.6635 -0.00737706 0.00454161 9.66351 20.0195 10 1 
256 1.21608 9.6635 -0.00737706 0.00454161 9.66351 20.0195 11 1 
260 1.21619 9.62553 -0.00764472 0.00454665 9.62556 20.207 11 1 
264 1.21636 9.58631 -0.00774167 0.00462348 9.58634 20.5195 11 1 
268 1.21711 9.51469 -0.00804333 0.00483735 9.51474 21.8734 11 1 
272 1.21761 9.43421 -0.00837616 0.00487003 9.4343 22.7813 11 1 
276 1.21785 9.33985 -0.00851469 0.00495252 9.34 23.21 11 1 
280 1.2189 9.18271 -0.00875365 0.00508089 9.18285 25.1098 11 1 
284 1.22009 9.02966 -0.00888979 0.00528461 9.02976 27.2601 11 1 
288 1.22098 8.86234 -0.00901299 0.00544342 8.86247 28.8658 11 1 
292 1.22137 8.72798 -0.0093474 0.0055543 8.72827 29.5613 11 1 
296 1.21784 8.97876 -0.00957013 0.00593004 8.98005 23.1853 11 1 
300 1.2124 9.37635 -0.0100469 0.00620619 9.37743 13.3708 11 1 
304 1.20982 9.41301 -0.0102934 0.00650043 9.41375 8.71212 11 1 
308 1.20987 9.16858 -0.0102844 0.00666768 9.16967 8.78877 11 1 
312 1.21079 8.86641 -0.0103675 0.00676261 8.86722 10.4548 11 1 
316 1.21164 8.59372 -0.0104059 0.0069838 8.59434 11.9953 11 1 
320 1.21229 8.37359 -0.0105239 0.00721096 8.37402 13.1691 11 1 
320 1.21229 8.37359 -0.0105239 0.00721096 8.37402 13.1691 15 1 
324 1.21283 8.18798 -0.0106597 0.00756691 8.1883 14.1466 15 1 
328 1.21326 8.03085 -0.010883 0.00780079 8.03109 14.9136 15 1 
332 1.21365 7.89555 -0.0110818 0.00811506 7.89574 15.619 15 1 
336 1.21389 7.77155 -0.0112496 0.00863208 7.77166 16.0549 15 1 
340 1.21402 7.66339 -0.0114901 0.00909719 7.66349 16.2951 15 1 
344 1.21427 7.57566 -0.0117117 0.00952125 7.57575 16.7515 15 1 
348 1.21447 7.4967 -0.0119756 0.00995187 7.49679 17.1035 15 1 
352 1.21456 7.42169 -0.0121889 0.0104598 7.42176 17.2636 15 1 
356 1.21463 7.35218 -0.0123467 0.0110574 7.35224 17.3965 15 1 
360 1.21471 7.29015 -0.0125622 0.0116203 7.29019 17.5366 15 1 
364 1.21483 7.23948 -0.0128004 0.0120739 7.23953 17.7502 15 1 
368 1.21489 7.1923 -0.0129881 0.0125452 7.19235 17.8616 15 1 
372 1.2149 7.14359 -0.013118 0.0131535 7.14364 17.8822 15 1 
376 1.21496 7.10026 -0.0132569 0.0137798 7.1003 17.9899 15 1 
380 1.21499 7.06116 -0.0134883 0.0142571 7.06121 18.0423 15 1 
384 1.215 7.02492 -0.0137533 0.0147038 7.02497 18.0578 15 1 
384 1.215 7.02492 -0.0137533 0.0147038 7.02497 18.0578 16 1 
388 1.21503 6.99238 -0.0139786 0.0152646 6.99243 18.1165 16 1 
392 1.21505 6.95961 -0.0141914 0.0158468 6.95967 18.1505 16 1 
396 1.21505 6.92778 -0.0144632 0.0163636 6.92783 18.1537 16 1 
400 1.21504 6.89938 -0.0148139 0.0168778 6.89943 18.1336 16 1 
404 1.21504 6.87287 -0.0151435 0.0174135 6.87293 18.1401 16 1 
408 1.21506 6.84837 -0.0153982 0.0179894 6.84843 18.1729 16 1 
412 1.21506 6.82458 -0.0156219 0.0185814 6.82465 18.1635 16 1 
416 1.21504 6.80065 -0.0158851 0.0192029 6.80071 18.1341 16 1 
420 1.21503 6.77832 -0.0161669 0.0198594 6.77838 18.1123 16 1 
424 1.21503 6.75831 -0.0164315 0.0205201 6.75838 18.1116 16 1 
428 1.21502 6.73951 -0.0166206 0.0212003 6.73958 18.1042 16 1 
432 1.215 6.72065 -0.0168303 0.0219689 6.72072 18.0711 16 1 
436 1.21499 6.70226 -0.0171035 0.0227245 6.70233 18.0528 16 1 
440 1.21498 6.68535 -0.0173501 0.0234513 6.68543 18.0194 16 1 
444 1.21495 6.66936 -0.0175829 0.0242216 6.66944 17.9809 16 1 
448 1.21495 6.65451 -0.0178282 0.0250047 6.65459 17.9713 16 1 
448 1.21495 6.65451 -0.0178282 0.0250047 6.65459 17.9713 17 1 
452 1.21493 6.64044 -0.0180474 0.0257687 6.64053 17.9421 17 1 
456 1.21491 6.62644 -0.0183163 0.0265439 6.62653 17.9009 17 1 
460 1.21489 6.6133 -0.0186232 0.0273278 6.61339 17.858 17 1 
464 1.21486 6.60124 -0.0188721 0.0281124 6.60134 17.8115 17 1 
468 1.21485 6.59021 -0.0191464 0.0289077 6.59031 17.7899 17 1 
472 1.21483 6.5806 -0.01949 0.02971 6.58071 17.7618 17 1 
476 1.21481 6.57136 -0.0198325 0.0305297 6.57147 17.7122 17 1 
480 1.21478 6.56212 -0.0201935 0.0313674 6.56223 17.6637 17 1 
484 1.21475 6.55485 -0.0205676 0.0322535 6.55496 17.6173 17 1 
488 1.21474 6.54919 -0.0209574 0.03319 6.54932 17.5874 17 1 
492 1.21471 6.54403 -0.021378 0.034142 6.54416 17.5472 17 1 
496 1.21469 6.53994 -0.0218239 0.035089 6.54008 17.5007 17 1 
500 1.21467 6.53644 -0.0223063 0.0360586 6.53658 17.4614 17 1 
504 1.21463 6.53333 -0.0228002 0.0370735 6.53348 17.3921 17 1 
508 1.2146 6.53198 -0.0233109 0.0380938 6.53214 17.3408 17 1 
512 1.21458 6.53201 -0.023859 0.0390978 6.53217 17.3112 17 1 
512 1.21458 6.53201 -0.023859 0.0390978 6.53217 17.3112 25 1 
516 1.21455 6.53208 -0.0244448 0.0401494 6.53225 17.2487 25 1 
520 1.21451 6.53258 -0.0250456 0.0412065 6.53276 17.1848 25 1 
524 1.21448 6.53385 -0.0256449 0.0422805 6.53404 17.1255 25 1 
528 1.21444 6.53633 -0.0262758 0.0433822 6.53653 17.0583 25 1 
532 1.21441 6.53959 -0.0269176 0.0445027 6.5398 16.9993 25 1 
536 1.21437 6.5427 -0.0275374 0.04565 6.54292 16.9273 25 1 
540 1.21433 6.54585 -0.0281848 0.0468204 6.54607 16.8455 25 1 
544 1.21428 6.5492 -0.0288296 0.0479993 6.54944 16.7651 25 1 
548 1.21424 6.55327 -0.029465 0.0492102 6.55353 16.6822 25 1 
552 1.21419 6.5579 -0.0300625 0.0504954 6.55816 16.6079 25 1 
556 1.21415 6.56219 -0.030687 0.0517569 6.56246 16.5192 25 1 
560 1.21409 6.56601 -0.0313031 0.0530726 6.5663 16.4228 25 1 
564 1.21404 6.57038 -0.0319177 0.0543822 6.57069 16.3291 25 1 
568 1.21398 6.57508 -0.0325454 0.0557064 6.57539 16.2291 25 1 
572 1.21393 6.58014 -0.033158 0.0570676 6.58048 16.1333 25 1 
576 1.21388 6.5852 -0.0338005 0.0584153 6.58555 16.0369 25 1 
576 1.21388 6.5852 -0.0338005 0.0584153 6.58555 16.0369 26 1 
580 1.21382 6.59004 -0.0344557 0.0597982 6.5904 15.928 26 1 
584 1.21376 6.59535 -0.0351319 0.0611595 6.59572 15.8281 26 1 
588 1.21371 6.60132 -0.0358298 0.0625574 6.60171 15.7243 26 1 
592 1.21365 6.60751 -0.0365577 0.0639302 6.60792 15.6155 26 1 
596 1.21358 6.61402 -0.0372623 0.06534 6.61445 15.5066 26 1 
600 1.21352 6.62083 -0.0379925 0.0667651 6.62128 15.392 26 1 
604 1.21346 6.62805 -0.0387404 0.0682229 6.62852 15.2854 26 1 
608 1.2134 6.63642 -0.0394888 0.0696242 6.6369 15.1745 26 1 
608 1.2134 6.63642 -0.0394888 0.0696242 6.6369 15.1745 26 1 
612 1.21334 6.64505 -0.0402547 0.0710192 6.64555 15.068 26 1 
616 1.21328 6.65426 -0.0410169 0.0724957 6.65478 14.9537 26 1 
620 1.21322 6.66372 -0.0417951 0.0738914 6.66426 14.8385 26 1 
624 1.21315 6.67377 -0.0425762 0.0753439 6.67433 14.7261 26 1 
628 1.21309 6.68466 -0.0433398 0.0767604 6.68524 14.6136 26 1 
632 1.21303 6.69588 -0.044146 0.0781698 6.69648 14.505 26 1 
636 1.21297 6.70772 -0.0449391 0.0795788 6.70834 14.3895 26 1 
640 1.2129 6.71972 -0.0457106 0.0810158 6.72036 14.2737 26 1 
644 1.21284 6.73215 -0.0464818 0.0824639 6.73282 14.1618 26 1 
648 1.21278 6.74532 -0.0472365 0.0838256 6.74601 14.0546 26 1 
652 1.21272 6.7588 -0.0479757 0.0852979 6.75951 13.9412 26 1 
656 1.21266 6.77216 -0.0487526 0.0866469 6.77289 13.8327 26 1 
660 1.21259 6.78619 -0.0494988 0.0880219 6.78695 13.7151 26 1 
664 1.21253 6.80001 -0.0501917 0.0893876 6.80079 13.6048 26 1 
668 1.21247 6.81411 -0.0509558 0.0907574 6.8149 13.4994 26 1 
672 1.21241 6.8289 -0.0515949 0.0921094 6.82971 13.388 26 1 
672 1.21241 6.8289 -0.0515949 0.0921094 6.82971 13.388 27 1 
676 1.21236 6.84312 -0.0522768 0.0934506 6.84396 13.2878 27 1 
680 1.21229 6.85806 -0.0530326 0.0948432 6.85892 13.1715 27 1 
684 1.21223 6.87244 -0.0536032 0.0960319 6.87332 13.0674 27 1 
688 1.21217 6.8876 -0.0543224 0.097451 6.8885 12.9589 27 1 
692 1.21212 6.9027 -0.0548867 0.098625 6.90363 12.8612 27 1 
696 1.21206 6.91832 -0.0554817 0.100039 6.91927 12.7586 27 1 
700 1.21201 6.93405 -0.0561798 0.101288 6.93502 12.6599 27 1 
704 1.21195 6.94985 -0.0567258 0.102483 6.95084 12.5526 27 1 
704 1.21195 6.94985 -0.0567258 0.102483 6.95084 12.5526 31 1 
708 1.2119 6.96571 -0.0572195 0.103751 6.96672 12.458 31 1 
712 1.21184 6.98205 -0.0577462 0.104824 6.98308 12.3621 31 1 
716 1.21179 6.99818 -0.0581308 0.106126 6.99923 12.2666 31 1 
720 1.21174 7.01439 -0.0585778 0.107466 7.01546 12.1787 31 1 
724 1.21168 7.03114 -0.0591256 0.108376 7.03222 12.0712 31 1 
728 1.21164 7.04684 -0.0594631 0.10953 7.04795 11.9949 31 1 
732 1.21158 7.06399 -0.0598101 0.111062 7.06512 11.8909 31 1 
736 1.21154 7.08058 -0.0602689 0.111596 7.08172 11.806 31 1 
740 1.21149 7.09703 -0.0604599 0.11305 7.09819 11.7279 31 1 
744 1.21143 7.11488 -0.060703 0.11424 7.11606 11.6124 31 1 
748 1.21139 7.13148 -0.061203 0.115519 7.13268 11.5448 31 1 
752 1.21133 7.15018 -0.0607176 0.116828 7.1514 11.4305 31 1 
756 1.21128 7.1673 -0.0614667 0.11766 7.16853 11.3514 31 1 
760 1.21121 7.18795 -0.0623553 0.118911 7.18921 11.2233 31 1 
764 1.21117 7.20819 -0.0624032 0.11989 7.20947 11.1425 31 1 
768 1.21111 7.22833 -0.0628536 0.121128 7.22962 11.0447 31 1 
772 1.21102 7.25026 -0.0628392 0.124184 7.2516 10.8661 31 1 
776 1.21094 7.27377 -0.0624148 0.127268 7.27515 10.7221 31 1 
780 1.21082 7.30688 -0.0637544 0.127295 7.30828 10.5173 31 1 
784 1.21074 7.33911 -0.0664102 0.12896 7.34056 10.3749 31 1 
788 1.2105 7.38842 -0.0667976 0.133846 7.38995 9.93173 31 1 
792 1.21029 7.44313 -0.0668045 0.141745 7.44482 9.55675 31 1 
796 1.20994 7.52433 -0.0687183 0.152033 7.52625 8.92584 31 1 
800 1.2096 7.58432 -0.0701409 0.157096 7.58636 8.30429 31 1 
