2.71694;r ;Density                 ;Velocity u              ;Velocity v              ;Velocity w              ;|Velocity|              ;Pressure                ;Distribution            ;Levels                  ;
0 1.205 10 -1.30889e-14 9.00262e-15 10 -3.68506e-12 1 1 
4 1.205 10 -1.57067e-14 5.13979e-15 10 -3.68506e-12 1 1 
8 1.205 10 -1.21312e-14 -1.14927e-15 10 -4.07773e-12 1 1 
12 1.205 10 -4.53323e-15 2.36239e-15 10 -3.8663e-12 1 1 
16 1.205 10 1.88353e-15 9.28994e-15 10 -3.62465e-12 1 1 
20 1.205 10 6.38477e-17 4.46939e-15 10 -3.98712e-12 1 1 
24 1.205 10 -2.04315e-15 -6.70408e-16 10 -2.96013e-12 1 1 
28 1.205 10 -6.44869e-15 6.28906e-15 10 -2.53726e-12 1 1 
32 1.205 10 -1.40466e-15 1.1812e-15 10 -2.71849e-12 1 1 
36 1.205 10 1.02157e-14 -7.40641e-15 10 -2.205e-12 1 1 
40 1.205 10 4.43746e-15 -7.69373e-15 10 -2.29561e-12 1 1 
44 1.205 10 -3.41589e-15 -3.38396e-15 10 -2.2352e-12 1 1 
48 1.205 10 -2.84125e-15 -7.6618e-16 10 -1.54048e-12 1 1 
52 1.205 10 -3.99052e-15 -7.6618e-16 10 -1.29883e-12 1 1 
56 1.205 10 -3.57551e-15 9.8965e-15 10 -1.90294e-12 1 1 
60 1.205 10 -2.2347e-16 7.6618e-15 10 -2.14459e-12 1 1 
64 1.205 10 3.32012e-15 -1.69198e-15 10 -1.90294e-12 1 1 
64 1.205 10 3.32012e-15 -1.69198e-15 10 -1.90294e-12 2 1 
68 1.205 10 3.41589e-15 -5.84213e-15 10 -2.47685e-12 2 1 
72 1.205 10 -5.87405e-15 -2.58586e-15 10 -3.02054e-12 2 1 
76 1.205 10 -6.32099e-15 -2.36239e-15 10 -2.08418e-12 2 1 
80 1.205 10 1.75583e-15 -2.52201e-15 10 -1.32904e-12 2 1 
84 1.205 10 8.52376e-15 -1.44617e-14 10 -1.44986e-12 2 1 
88 1.205 10 7.82143e-15 -2.39751e-14 10 -7.55136e-13 2 1 
92 1.205 10 -4.82055e-15 -1.2195e-14 10 -1.05719e-12 2 1 
96 1.205 10 -1.9793e-14 3.44781e-15 10 -2.32582e-12 2 1 
100 1.205 9.99999 3.89508e-09 3.89508e-09 9.99999 0.000302685 2 1 
104 1.205 9.99998 8.7249e-09 -1.64471e-09 9.99998 -0.000488356 2 1 
108 1.205 10 1.18219e-07 1.84242e-07 10 -0.000898482 2 1 
112 1.205 10.0001 5.34545e-08 9.97015e-08 10.0001 0.00112329 2 1 
116 1.205 9.99998 -3.98978e-07 -4.40464e-07 9.99998 0.00314325 2 1 
120 1.205 9.99986 -1.94733e-06 -1.97314e-06 9.99986 -0.0034713 2 1 
124 1.205 9.99971 3.6703e-06 3.62236e-06 9.99971 8.96256e-05 2 1 
128 1.205 9.99949 2.64179e-06 2.52668e-06 9.99949 0.00402481 2 1 
128 1.205 9.99949 2.64179e-06 2.52668e-06 9.99949 0.00402481 10 1 
132 1.20499 10.0002 -9.72089e-06 -9.76228e-06 10.0002 -0.0253211 10 1 
136 1.20502 10.0005 5.98831e-06 5.92041e-06 10.0005 0.0370184 10 1 
140 1.205 10.0006 3.77426e-06 3.98734e-06 10.0006 -0.000194582 10 1 
144 1.20498 9.99977 -1.04828e-05 -9.86763e-06 9.99977 -0.0409675 10 1 
148 1.20502 9.99894 8.17091e-06 8.18478e-06 9.99894 0.0388509 10 1 
152 1.20499 10.0011 2.8376e-06 1.16002e-06 10.0011 -0.0126596 10 1 
156 1.20499 10.0004 -7.55281e-06 -7.60132e-06 10.0004 -0.0201468 10 1 
160 1.20502 9.99862 3.94064e-06 4.96573e-06 9.99862 0.0397964 10 1 
160 1.20502 9.99862 3.94064e-06 4.96573e-06 9.99862 0.0397964 10 1 
164 1.20499 10.001 -5.92367e-07 1.37342e-06 10.001 -0.023257 10 1 
168 1.20501 10.0001 -3.58275e-06 -4.00928e-06 10.0001 0.021689 10 1 
172 1.205 9.99886 4.10782e-08 -2.96987e-06 9.99886 -0.00503584 10 1 
176 1.20497 10.0007 4.72521e-06 6.4885e-06 10.0007 -0.0534805 10 1 
180 1.20501 9.9999 7.5261e-06 7.67244e-06 9.9999 0.0245954 10 1 
184 1.20501 9.99945 -1.49236e-05 -1.6936e-05 9.99945 0.0222082 10 1 
188 1.20502 9.99984 -1.48261e-06 1.23128e-06 9.99984 0.0403111 10 1 
192 1.20498 10.0014 9.99218e-06 1.28044e-05 10.0014 -0.0393654 10 1 
196 1.20499 9.99971 -2.67343e-06 -4.42389e-06 9.99971 -0.0184059 10 1 
200 1.20507 9.99663 3.93473e-06 -3.29659e-07 9.99663 0.121583 10 1 
204 1.20539 9.98657 -7.46415e-06 -6.6473e-06 9.98657 0.709537 10 1 
208 1.2063 9.95046 9.9364e-06 8.93019e-06 9.95046 2.35145 10 1 
212 1.20765 9.90553 -6.66523e-06 -5.51478e-06 9.90553 4.78042 10 1 
216 1.20791 9.90116 -3.09572e-05 -1.46745e-05 9.90116 5.25964 10 1 
220 1.20552 9.96815 1.41023e-05 1.70622e-05 9.96815 0.936339 10 1 
224 1.2037 10.02 2.05883e-05 9.52501e-06 10.02 -2.3486 10 1 
224 1.2037 10.02 2.05883e-05 9.52501e-06 10.02 -2.3486 10 1 
228 1.20552 9.97048 -1.24876e-05 -1.98185e-06 9.97048 0.933647 10 1 
232 1.20658 9.93881 -4.55643e-05 -1.9103e-05 9.93881 2.85706 10 1 
236 1.20533 9.96322 -1.66061e-05 -1.41944e-05 9.96322 0.59297 10 1 
240 1.20505 9.96847 3.73388e-05 2.16295e-05 9.96847 0.0887882 10 1 
244 1.20581 9.94537 5.1095e-05 5.13848e-05 9.94537 1.46233 10 1 
248 1.20612 9.92067 2.06875e-05 3.09597e-05 9.92067 2.01548 10 1 
252 1.20585 9.92306 6.13093e-05 6.84049e-05 9.92306 1.53374 10 1 
256 1.20608 9.90769 0.000265364 0.000270469 9.90769 1.95502 10 1 
256 1.20608 9.90769 0.000265364 0.000270469 9.90769 1.95502 11 1 
260 1.20624 9.88732 0.000382028 0.000373623 9.88733 2.23449 11 1 
264 1.20632 9.86304 0.000445298 0.000434163 9.86305 2.37626 11 1 
268 1.20714 9.80612 0.000625825 0.000616102 9.80614 3.87323 11 1 
272 1.20757 9.75174 0.000781312 0.00075773 9.75179 4.64229 11 1 
276 1.20755 9.698 0.000907875 0.0008732 9.69811 4.60794 11 1 
280 1.20856 9.57561 0.000972878 0.000938993 9.5757 6.43344 11 1 
284 1.20963 9.4609 0.00097604 0.000931934 9.46094 8.35561 11 1 
288 1.2105 9.3555 0.000998605 0.000935458 9.35554 9.93913 11 1 
292 1.21098 9.28412 0.000951635 0.000893931 9.28437 10.8063 11 1 
296 1.20731 9.56783 0.000857316 0.000809647 9.56906 4.1693 11 1 
300 1.20187 10.0017 0.000688881 0.000639971 10.0028 -5.65337 11 1 
304 1.19952 10.1462 0.000564809 0.000520797 10.1465 -9.89384 11 1 
308 1.19958 10.0949 0.00049522 0.000460343 10.0951 -9.79238 11 1 
312 1.20067 9.98516 0.000286559 0.000255397 9.9854 -7.81741 11 1 
316 1.20173 9.79097 0.000125962 9.98825e-05 9.79149 -5.90235 11 1 
320 1.20229 9.56029 4.94905e-05 2.47415e-05 9.56078 -4.89537 11 1 
320 1.20229 9.56029 4.94905e-05 2.47415e-05 9.56078 -4.89537 15 1 
324 1.20298 9.40783 -6.11582e-05 -8.23007e-05 9.40803 -3.65626 15 1 
328 1.20368 9.41889 -0.000157936 -0.000180968 9.41889 -2.39282 15 1 
332 1.20408 9.51558 -0.000318653 -0.000342524 9.51565 -1.65881 15 1 
336 1.20415 9.58143 -0.000394118 -0.000407576 9.5815 -1.52732 15 1 
340 1.20411 9.65177 -0.0004402 -0.000455364 9.6518 -1.605 15 1 
344 1.20437 9.72797 -0.000635906 -0.00065587 9.728 -1.13221 15 1 
348 1.20455 9.7741 -0.000714612 -0.000723952 9.77411 -0.813713 15 1 
352 1.20455 9.8342 -0.000821442 -0.000818219 9.83421 -0.808799 15 1 
356 1.20447 9.84976 -0.000921841 -0.000927787 9.84977 -0.960762 15 1 
360 1.20489 9.88416 -0.000872994 -0.000883278 9.88417 -0.195751 15 1 
364 1.2048 9.90655 -0.000915536 -0.000914897 9.90656 -0.366673 15 1 
368 1.20431 9.91564 -0.000892617 -0.000896441 9.91564 -1.24929 15 1 
372 1.20452 9.93839 -0.000759164 -0.000761502 9.9384 -0.860673 15 1 
376 1.20518 9.95178 -0.000648056 -0.000643347 9.95178 0.324587 15 1 
380 1.20517 9.96352 -0.00051 -0.000504716 9.96352 0.315394 15 1 
384 1.20427 9.94484 -0.000379297 -0.000377536 9.94485 -1.32029 15 1 
384 1.20427 9.94484 -0.000379297 -0.000377536 9.94485 -1.32029 16 1 
388 1.20424 9.95916 -0.000257893 -0.000254944 9.95916 -1.3803 16 1 
392 1.2051 9.97992 -0.000163274 -0.000156018 9.97992 0.175188 16 1 
396 1.20555 9.99222 -8.61594e-05 -8.57019e-05 9.99222 0.988304 16 1 
400 1.20483 9.97863 -2.84041e-05 -3.1031e-05 9.97863 -0.313723 16 1 
404 1.20417 9.96054 -2.74025e-05 -2.48795e-05 9.96054 -1.49458 16 1 
408 1.2044 9.96934 -2.2111e-05 -2.05316e-05 9.96934 -1.07589 16 1 
412 1.20516 9.9979 2.01609e-06 -3.03055e-07 9.9979 0.293827 16 1 
416 1.20571 10.011 -1.0032e-07 1.59699e-07 10.011 1.28737 16 1 
420 1.20534 9.99973 -3.66257e-06 -2.93535e-06 9.99973 0.619486 16 1 
424 1.20449 9.97676 1.099e-05 9.18127e-06 9.97676 -0.927762 16 1 
428 1.20391 9.95811 -2.0029e-06 -1.15666e-06 9.95811 -1.96903 16 1 
432 1.20377 9.95301 -1.23067e-05 -9.98541e-06 9.95301 -2.2301 16 1 
436 1.20398 9.96255 2.23372e-06 1.9125e-06 9.96255 -1.84143 16 1 
440 1.20438 9.97685 1.60617e-06 5.03775e-07 9.97685 -1.125 16 1 
444 1.20466 9.98704 6.7407e-07 4.18284e-07 9.98704 -0.621763 16 1 
448 1.20484 9.9942 2.56774e-06 2.78093e-06 9.9942 -0.297395 16 1 
448 1.20484 9.9942 2.56774e-06 2.78093e-06 9.9942 -0.297395 17 1 
452 1.20495 9.99752 -1.76392e-06 -1.39873e-06 9.99752 -0.0918775 17 1 
456 1.20497 9.99899 2.12994e-06 2.19342e-06 9.99899 -0.0581942 17 1 
460 1.20499 9.99975 2.28168e-07 8.52287e-09 9.99975 -0.0139748 17 1 
464 1.205 9.99975 -5.08436e-06 -5.21564e-06 9.99975 0.00755396 17 1 
468 1.20499 10.0001 -9.13014e-08 -1.43746e-08 10.0001 -0.00928049 17 1 
472 1.205 10.0001 3.44178e-06 3.502e-06 10.0001 0.000612409 17 1 
476 1.205 9.99992 7.10841e-07 6.82782e-07 9.99992 0.00426502 17 1 
480 1.205 9.99997 -1.02389e-06 -1.04871e-06 9.99997 -0.0015296 17 1 
484 1.205 10 -4.36583e-07 -4.32377e-07 10 -0.000785819 17 1 
488 1.205 10 8.20962e-08 9.07509e-08 10 0.00032413 17 1 
492 1.205 9.99999 7.87542e-08 8.22651e-08 9.99999 0.000228824 17 1 
496 1.205 10 1.72713e-09 1.72719e-09 10 -0.000117911 17 1 
500 1.205 10 -2.80933e-15 -1.2195e-14 10 -2.65808e-12 17 1 
504 1.205 10 9.8965e-16 -5.90597e-15 10 -2.05397e-12 17 1 
508 1.205 10 4.40554e-15 -4.78863e-15 10 -1.99356e-12 17 1 
512 1.205 10 8.07682e-15 -6.48061e-15 10 -2.47685e-12 17 1 
512 1.205 10 8.07682e-15 -6.48061e-15 10 -2.47685e-12 25 1 
516 1.205 10 8.07682e-15 -9.44956e-15 10 -3.05075e-12 25 1 
520 1.205 10 3.8309e-16 -8.01297e-15 10 -2.50705e-12 25 1 
524 1.205 10 -2.9051e-15 -7.82143e-15 10 -1.93315e-12 25 1 
528 1.205 10 -1.11735e-15 -1.22589e-14 10 -2.2352e-12 25 1 
532 1.205 10 -5.23557e-15 -7.31064e-15 10 -2.17479e-12 25 1 
536 1.205 10 -3.16049e-15 4.40554e-15 10 -1.87274e-12 25 1 
540 1.205 10 2.55393e-15 1.095e-14 10 -2.02376e-12 25 1 
544 1.205 10 -2.55393e-16 -3.19242e-16 10 -1.54048e-12 25 1 
548 1.205 10 -1.5994e-14 -6.64023e-15 10 -2.08418e-12 25 1 
552 1.205 10 -1.71433e-14 -4.78863e-15 10 -3.29239e-12 25 1 
556 1.205 10 -1.17481e-14 -2.96895e-15 10 -2.71849e-12 25 1 
560 1.205 10 -8.7153e-15 -1.37274e-15 10 -1.96335e-12 25 1 
564 1.205 10 3.44781e-15 -7.08717e-15 10 -1.87274e-12 25 1 
568 1.205 10 4.18207e-15 -2.87318e-15 10 -1.14781e-12 25 1 
572 1.205 10 5.36326e-15 5.04402e-15 10 -3.3226e-13 25 1 
576 1.205 10 4.69286e-15 5.42711e-15 10 -1.0874e-12 25 1 
576 1.205 10 4.69286e-15 5.42711e-15 10 -1.0874e-12 26 1 
580 1.205 10 1.18758e-14 5.39519e-15 10 -2.62787e-12 26 1 
584 1.205 10 6.51253e-15 4.72478e-15 10 -2.92993e-12 26 1 
588 1.205 10 -6.9914e-15 2.107e-15 10 -2.86952e-12 26 1 
592 1.205 10 -5.36326e-15 5.10787e-16 10 -2.17479e-12 26 1 
596 1.205 10 -4.85248e-15 -8.61953e-16 10 -2.08418e-12 26 1 
600 1.205 10 -4.46939e-16 2.13892e-15 10 -2.62787e-12 26 1 
604 1.205 10 3.41589e-15 2.49009e-15 10 -1.84253e-12 26 1 
608 1.205 10 3.19242e-16 -2.61778e-15 10 -1.54048e-12 26 1 
608 1.205 10 3.19242e-16 -2.61778e-15 10 -1.54048e-12 26 1 
612 1.205 10 2.87318e-15 -1.18119e-14 10 -9.06163e-13 26 1 
616 1.205 10 8.17259e-15 -9.60918e-15 10 -1.35924e-12 26 1 
620 1.205 10 8.14067e-15 3.63936e-15 10 -2.29561e-12 26 1 
624 1.205 10 1.43659e-14 1.11096e-14 10 -2.35602e-12 26 1 
628 1.205 10 1.13969e-14 9.06647e-15 10 -2.92993e-12 26 1 
632 1.205 10 2.61778e-15 2.29854e-15 10 -3.05075e-12 26 1 
636 1.205 10 7.15102e-15 -4.21399e-15 10 -3.26219e-12 26 1 
640 1.205 10 1.35678e-14 -9.16224e-15 10 -2.96013e-12 26 1 
644 1.205 10 1.28654e-14 -4.78863e-16 10 -1.84253e-12 26 1 
648 1.205 10 1.02157e-15 8.93877e-16 10 -1.51027e-12 26 1 
652 1.205 10 -9.44956e-15 -1.28654e-14 10 -2.17479e-12 26 1 
656 1.205 10 -6.48061e-15 -7.02332e-15 10 -1.99356e-12 26 1 
660 1.205 10 -2.87318e-15 -4.56516e-15 10 -9.96779e-13 26 1 
664 1.205 10 5.68251e-15 -7.21487e-15 10 -1.99356e-12 26 1 
668 1.205 10 3.51166e-15 -7.27871e-15 10 -3.26219e-12 26 1 
672 1.205 10 4.24592e-15 -1.72391e-14 10 -2.41644e-12 26 1 
672 1.205 10 4.24592e-15 -1.72391e-14 10 -2.41644e-12 27 1 
676 1.205 10 1.4302e-14 -1.58663e-14 10 -1.75192e-12 27 1 
680 1.205 10 5.23557e-15 -9.60918e-15 10 -2.205e-12 27 1 
684 1.205 10 -4.50131e-15 -9.06647e-15 10 -2.14459e-12 27 1 
688 1.205 10 1.59621e-16 -1.14927e-14 10 -2.89972e-12 27 1 
692 1.205 10 -1.88353e-15 -7.69373e-15 10 -2.86952e-12 27 1 
696 1.205 10 -1.29293e-14 -9.89649e-16 10 -2.41644e-12 27 1 
700 1.205 10 -1.3887e-14 -4.21399e-15 10 -2.32582e-12 27 1 
704 1.205 10 -7.59796e-15 -9.8965e-16 10 -2.41644e-12 27 1 
704 1.205 10 -7.59796e-15 -9.8965e-16 10 -2.41644e-12 31 1 
708 1.205 10 -1.27697e-15 1.08542e-15 10 -2.86952e-12 31 1 
712 1.205 10 2.80933e-15 5.10787e-16 10 -2.86952e-12 31 1 
716 1.205 10 3.63936e-15 7.7895e-15 10 -2.65808e-12 31 1 
720 1.205 10 4.15015e-16 3.44781e-15 10 -2.99034e-12 31 1 
724 1.205 10 -1.9793e-15 -1.30889e-15 10 -2.7789e-12 31 1 
728 1.205 10 -2.52201e-15 1.94737e-15 10 -2.41644e-12 31 1 
732 1.205 10 3.25627e-15 1.08542e-15 10 -2.74869e-12 31 1 
736 1.205 10 6.89562e-15 2.64971e-15 10 -2.96013e-12 31 1 
740 1.205 10 -5.10787e-16 6.67215e-15 10 -2.65808e-12 31 1 
744 1.205 10 -1.59621e-15 7.34256e-16 10 -2.29561e-12 31 1 
748 1.205 10 -2.80933e-15 -2.74548e-15 10 -3.23198e-12 31 1 
752 1.205 10 -1.75583e-15 -1.91545e-16 10 -3.65486e-12 31 1 
756 1.205 10 -1.21312e-15 7.82143e-15 10 -3.29239e-12 31 1 
760 1.205 10 -8.30028e-16 1.02796e-14 10 -2.74869e-12 31 1 
764 1.205 10 4.62901e-15 6.0656e-15 10 -3.26219e-12 31 1 
768 1.205 10 -6.51253e-15 1.62813e-15 10 -3.41321e-12 31 1 
772 1.205 10 -5.55481e-15 -6.41676e-15 10 -2.71849e-12 31 1 
776 1.205 10 2.01122e-15 -6.70408e-15 10 -2.89972e-12 31 1 
780 1.205 10 -6.67215e-15 -1.66006e-15 10 -2.59767e-12 31 1 
784 1.205 10 -1.33443e-14 1.18119e-15 10 -2.29561e-12 31 1 
788 1.205 10 -9.25801e-15 1.14927e-15 10 -2.56746e-12 31 1 
792 1.205 10 -6.41676e-15 -7.6618e-16 10 -3.08095e-12 31 1 
796 1.205 10 -4.30976e-15 3.25627e-15 10 -3.53404e-12 31 1 
800 1.205 10 0 8.55568e-15 10 -3.50383e-12 31 1 
