67.9236;r ;Density                 ;Velocity u              ;Velocity v              ;Velocity w              ;|Velocity|              ;Pressure                ;Distribution            ;Levels                  ;
0 1.21013 10.0002 0.000135466 7.44736e-05 10.0002 9.26174 1 1 
4 1.21014 10.0009 7.56846e-05 0.000153387 10.0009 9.28229 1 1 
8 1.21016 9.99946 -4.64667e-05 0.000135584 9.99946 9.32632 1 1 
12 1.21014 9.99819 -0.000175509 0.000152567 9.99819 9.28847 1 1 
16 1.21017 9.99624 -0.000180524 0.00021592 9.99624 9.33872 1 1 
20 1.21021 9.99418 -0.000332358 0.000161684 9.99418 9.40168 1 1 
24 1.21019 9.99352 -0.000321758 0.000291207 9.99352 9.37044 1 1 
28 1.21023 9.99012 -0.000467077 0.000229298 9.99012 9.44032 1 1 
32 1.21021 9.98987 -0.000527403 0.000287511 9.98987 9.41927 1 1 
36 1.21025 9.98756 -0.000519727 0.000375833 9.98756 9.48747 1 1 
40 1.21027 9.98628 -0.0006804 0.000347099 9.98628 9.51992 1 1 
44 1.21028 9.98402 -0.000741069 0.000360873 9.98403 9.53059 1 1 
48 1.21029 9.98131 -0.000813197 0.000417813 9.98131 9.55891 1 1 
52 1.2103 9.98009 -0.00090797 0.0004058 9.98009 9.5653 1 1 
56 1.21034 9.97661 -0.00102145 0.000389676 9.97661 9.65322 1 1 
60 1.21033 9.9762 -0.00110362 0.00043044 9.9762 9.63398 1 1 
64 1.21038 9.9726 -0.00125249 0.000356534 9.9726 9.71682 1 1 
64 1.21038 9.9726 -0.00125249 0.000356534 9.9726 9.71682 2 1 
68 1.21037 9.97203 -0.00128054 0.000469605 9.97203 9.70488 2 1 
72 1.2104 9.96999 -0.00140097 0.000444029 9.96999 9.75232 2 1 
76 1.21042 9.96773 -0.00159155 0.000351537 9.96773 9.79543 2 1 
80 1.21044 9.96574 -0.00160326 0.000464204 9.96574 9.82269 2 1 
84 1.21047 9.96428 -0.0017164 0.000431882 9.96428 9.87343 2 1 
88 1.21047 9.96406 -0.00187256 0.000422543 9.96406 9.88608 2 1 
92 1.21052 9.96202 -0.00185814 0.000531678 9.96202 9.96738 2 1 
96 1.21051 9.96228 -0.00208463 0.000388925 9.96228 9.94807 2 1 
100 1.21056 9.95807 -0.00203727 0.000519135 9.95807 10.0469 2 1 
104 1.21057 9.95589 -0.00223547 0.000504943 9.95589 10.0694 2 1 
108 1.21058 9.9538 -0.002303 0.000529373 9.9538 10.0752 2 1 
112 1.21061 9.95241 -0.00233165 0.000558802 9.95241 10.1343 2 1 
116 1.21064 9.95142 -0.0024921 0.000562331 9.95142 10.1832 2 1 
120 1.21065 9.95133 -0.00251089 0.000596116 9.95133 10.2047 2 1 
124 1.2107 9.94898 -0.00264688 0.000614474 9.94898 10.2877 2 1 
128 1.21073 9.94571 -0.0026393 0.000687917 9.94571 10.3414 2 1 
128 1.21073 9.94571 -0.0026393 0.000687917 9.94571 10.3414 10 1 
132 1.2107 9.94574 -0.00278797 0.000611712 9.94574 10.2886 10 1 
136 1.21076 9.94018 -0.00279913 0.000719092 9.94018 10.4113 10 1 
140 1.21078 9.93913 -0.00295142 0.000748264 9.93913 10.4454 10 1 
144 1.21079 9.93795 -0.00295566 0.000846751 9.93796 10.4518 10 1 
148 1.21086 9.93413 -0.00299878 0.00070336 9.93413 10.5919 10 1 
152 1.21086 9.93481 -0.00320078 0.00076163 9.93482 10.5802 10 1 
156 1.21087 9.93209 -0.00313766 0.00095636 9.9321 10.6038 10 1 
160 1.21096 9.92698 -0.00338055 0.000855207 9.92699 10.7702 10 1 
160 1.21096 9.92698 -0.00338055 0.000855207 9.92699 10.7702 10 1 
164 1.21093 9.92728 -0.00338481 0.000828505 9.92729 10.7134 10 1 
168 1.21101 9.9221 -0.00358368 0.000850732 9.92211 10.8579 10 1 
172 1.21105 9.91942 -0.00368812 0.000928199 9.91942 10.926 10 1 
176 1.21104 9.92105 -0.00362894 0.000937095 9.92105 10.906 10 1 
180 1.21116 9.91311 -0.00370605 0.00115302 9.91312 11.1243 10 1 
184 1.21116 9.91072 -0.0038627 0.00112658 9.91073 11.1185 10 1 
188 1.21121 9.90716 -0.00385738 0.00130896 9.90716 11.214 10 1 
192 1.21126 9.89999 -0.00382324 0.00140934 9.89999 11.3117 10 1 
196 1.21129 9.89739 -0.00418623 0.00121162 9.89739 11.3654 10 1 
200 1.21136 9.8938 -0.0039282 0.00156243 9.8938 11.479 10 1 
204 1.21145 9.88983 -0.0041488 0.00158175 9.88984 11.6532 10 1 
208 1.21154 9.88578 -0.00430481 0.00169397 9.88579 11.8046 10 1 
212 1.21154 9.88085 -0.00416078 0.00195495 9.88087 11.8154 10 1 
216 1.21166 9.87039 -0.00453938 0.00178087 9.87039 12.0305 10 1 
220 1.21174 9.85666 -0.00446695 0.00191074 9.85666 12.166 10 1 
224 1.21174 9.848 -0.00435597 0.00223692 9.84801 12.1774 10 1 
224 1.21174 9.848 -0.00435597 0.00223692 9.84801 12.1774 10 1 
228 1.21192 9.83827 -0.00472156 0.00198717 9.83828 12.5076 10 1 
232 1.212 9.83103 -0.00467691 0.00221979 9.83104 12.6517 10 1 
236 1.2121 9.81946 -0.00469328 0.00251761 9.81947 12.827 10 1 
240 1.21223 9.80801 -0.00496267 0.00236573 9.80802 13.0595 10 1 
244 1.21245 9.78446 -0.004839 0.00282005 9.78447 13.4484 10 1 
248 1.21259 9.75542 -0.00528539 0.00264953 9.75543 13.7163 10 1 
252 1.21263 9.74088 -0.00549602 0.0025862 9.74089 13.7826 10 1 
256 1.21313 9.699 -0.00541059 0.00309262 9.69901 14.6795 10 1 
256 1.21313 9.699 -0.00541059 0.00309262 9.69901 14.6795 11 1 
260 1.21326 9.66012 -0.00562457 0.00308796 9.66015 14.9241 11 1 
264 1.21347 9.62025 -0.0056854 0.00311387 9.62028 15.2933 11 1 
268 1.21425 9.54779 -0.00595523 0.00330082 9.54783 16.7079 11 1 
272 1.21479 9.46633 -0.00626505 0.00330109 9.46641 17.6802 11 1 
276 1.21506 9.37117 -0.00640385 0.00331853 9.37132 18.1716 11 1 
280 1.21615 9.21324 -0.00664728 0.0034056 9.21338 20.1351 11 1 
284 1.21738 9.05942 -0.00679868 0.00356738 9.05953 22.3525 11 1 
288 1.2183 8.89161 -0.00696411 0.00364123 8.89174 24.0257 11 1 
292 1.21873 8.75633 -0.00732458 0.00362841 8.75661 24.7912 11 1 
296 1.21524 9.00505 -0.00756083 0.00388789 9.00632 18.4928 11 1 
300 1.20985 9.4002 -0.00803314 0.00401666 9.40127 8.76166 11 1 
304 1.20731 9.43546 -0.00830603 0.0041796 9.43619 4.18108 11 1 
308 1.20739 9.1908 -0.00836968 0.00428555 9.19188 4.32503 11 1 
312 1.20835 8.88868 -0.00852039 0.00432565 8.88948 6.05033 11 1 
316 1.20923 8.61605 -0.00861363 0.00446933 8.61665 7.64417 11 1 
320 1.20991 8.39592 -0.00877753 0.00460279 8.39634 8.86616 11 1 
320 1.20991 8.39592 -0.00877753 0.00460279 8.39634 8.86616 15 1 
324 1.21047 8.21013 -0.00894152 0.0048522 8.21045 9.88869 15 1 
328 1.21092 8.05275 -0.00919113 0.00497398 8.05298 10.6992 15 1 
332 1.21134 7.91711 -0.00941092 0.00515596 7.91728 11.4482 15 1 
336 1.2116 7.79258 -0.00958654 0.00552392 7.79269 11.9267 15 1 
340 1.21176 7.68363 -0.00983085 0.0058287 7.68373 12.2047 15 1 
344 1.21203 7.59485 -0.0100669 0.00608428 7.59493 12.695 15 1 
348 1.21224 7.51464 -0.0103541 0.0063312 7.51472 13.0817 15 1 
352 1.21235 7.43826 -0.0105935 0.00664861 7.43832 13.2792 15 1 
356 1.21245 7.36732 -0.010787 0.00704109 7.36738 13.4508 15 1 
360 1.21255 7.30379 -0.0110503 0.00739719 7.30383 13.629 15 1 
364 1.21268 7.25157 -0.0113374 0.00766074 7.25161 13.8787 15 1 
368 1.21276 7.20282 -0.0115697 0.00796133 7.20286 14.0253 15 1 
372 1.2128 7.15255 -0.01174 0.00840431 7.15259 14.0835 15 1 
376 1.21288 7.10765 -0.0119136 0.00887358 7.10768 14.2323 15 1 
380 1.21293 7.06686 -0.0121641 0.00921997 7.0669 14.3268 15 1 
384 1.21296 7.02884 -0.0124331 0.00956164 7.02888 14.3824 15 1 
384 1.21296 7.02884 -0.0124331 0.00956164 7.02888 14.3824 16 1 
388 1.21302 6.99448 -0.0126475 0.0100431 6.99452 14.4798 16 1 
392 1.21306 6.95997 -0.0128268 0.0105684 6.96001 14.5546 16 1 
396 1.21308 6.92656 -0.0130464 0.0110473 6.9266 14.6015 16 1 
400 1.2131 6.89675 -0.0133316 0.0115342 6.89679 14.6265 16 1 
404 1.21313 6.86903 -0.0135907 0.0120655 6.86908 14.6763 16 1 
408 1.21317 6.84356 -0.0137617 0.0126517 6.84361 14.7498 16 1 
412 1.21318 6.81916 -0.0138997 0.0132581 6.8192 14.7808 16 1 
416 1.21319 6.79501 -0.0140733 0.0138947 6.79506 14.7942 16 1 
420 1.2132 6.77292 -0.0142625 0.0145688 6.77296 14.8183 16 1 
424 1.21323 6.75346 -0.014433 0.0152457 6.75351 14.8635 16 1 
428 1.21325 6.73544 -0.0145271 0.0159429 6.73549 14.899 16 1 
432 1.21325 6.71747 -0.0146453 0.016719 6.71752 14.9077 16 1 
436 1.21327 6.70002 -0.0148298 0.0174791 6.70008 14.9324 16 1 
440 1.21327 6.68409 -0.0150022 0.0181952 6.68414 14.9444 16 1 
444 1.21328 6.66899 -0.0151701 0.0189401 6.66904 14.9508 16 1 
448 1.2133 6.65496 -0.0153624 0.0196858 6.65501 14.984 16 1 
448 1.2133 6.65496 -0.0153624 0.0196858 6.65501 14.984 17 1 
452 1.2133 6.64157 -0.0155339 0.020407 6.64163 14.9973 17 1 
456 1.2133 6.6281 -0.015763 0.0211179 6.62816 15.0003 17 1 
460 1.21331 6.6153 -0.0160446 0.0218196 6.61536 15.0041 17 1 
464 1.21331 6.60322 -0.0162756 0.0224934 6.60329 15.0036 17 1 
468 1.21332 6.5918 -0.0165452 0.0231563 6.59187 15.0248 17 1 
472 1.21332 6.58141 -0.0168833 0.0238223 6.58148 15.0361 17 1 
476 1.21332 6.57109 -0.0172269 0.024493 6.57117 15.0268 17 1 
480 1.21332 6.5605 -0.0175858 0.0251777 6.56058 15.0224 17 1 
484 1.21332 6.55159 -0.017963 0.025899 6.55167 15.0213 17 1 
488 1.21332 6.54399 -0.0183528 0.0266743 6.54407 15.0332 17 1 
492 1.21332 6.53651 -0.0187626 0.0274708 6.5366 15.0288 17 1 
496 1.21331 6.52984 -0.0191859 0.0282846 6.52993 15.0169 17 1 
500 1.21331 6.5235 -0.01962 0.0291377 6.52359 15.0154 17 1 
504 1.2133 6.51737 -0.0200461 0.0300638 6.51748 14.9866 17 1 
508 1.21329 6.51268 -0.020452 0.0310197 6.51279 14.9761 17 1 
512 1.2133 6.50899 -0.0208708 0.0319779 6.5091 14.9831 17 1 
512 1.2133 6.50899 -0.0208708 0.0319779 6.5091 14.9831 25 1 
516 1.21328 6.50496 -0.0213061 0.0329999 6.50508 14.9524 25 1 
520 1.21326 6.50105 -0.0217383 0.0340317 6.50117 14.9204 25 1 
524 1.21325 6.49774 -0.0221661 0.0350842 6.49787 14.8968 25 1 
528 1.21323 6.49547 -0.0226211 0.0361548 6.49561 14.8699 25 1 
532 1.21322 6.49392 -0.0230974 0.0372398 6.49407 14.8514 25 1 
536 1.2132 6.49216 -0.0235648 0.0383474 6.49231 14.8164 25 1 
540 1.21318 6.49044 -0.0240749 0.0394644 6.49061 14.7721 25 1 
544 1.21315 6.48918 -0.024623 0.0405705 6.48935 14.7278 25 1 
548 1.21313 6.48888 -0.0251922 0.0416824 6.48906 14.6851 25 1 
552 1.21311 6.48956 -0.0257619 0.0428452 6.48976 14.6516 25 1 
556 1.21308 6.49034 -0.0263998 0.0439638 6.49055 14.6032 25 1 
560 1.21306 6.49119 -0.0270447 0.0451285 6.4914 14.5498 25 1 
564 1.21303 6.49324 -0.0277226 0.0462674 6.49346 14.4993 25 1 
568 1.213 6.49623 -0.0284411 0.0474072 6.49646 14.4466 25 1 
572 1.21297 6.50024 -0.0291615 0.0485679 6.50049 14.3956 25 1 
576 1.21294 6.50485 -0.029929 0.0496978 6.50511 14.341 25 1 
576 1.21294 6.50485 -0.029929 0.0496978 6.50511 14.341 26 1 
580 1.2129 6.50977 -0.0306923 0.0508685 6.51004 14.2732 26 1 
584 1.21287 6.51569 -0.0314831 0.0520018 6.51598 14.2142 26 1 
588 1.21284 6.52282 -0.0322945 0.0531769 6.52312 14.1566 26 1 
592 1.2128 6.53053 -0.0331429 0.0543052 6.53084 14.0965 26 1 
596 1.21277 6.53891 -0.0339838 0.0554488 6.53924 14.035 26 1 
600 1.21273 6.54764 -0.0348235 0.0566104 6.54798 13.9655 26 1 
604 1.2127 6.55692 -0.0356706 0.0578078 6.55727 13.8998 26 1 
608 1.21266 6.56738 -0.036503 0.0589634 6.56774 13.832 26 1 
608 1.21266 6.56738 -0.036503 0.0589634 6.56774 13.832 26 1 
612 1.21262 6.57812 -0.037354 0.0600967 6.57851 13.7689 26 1 
616 1.21258 6.58961 -0.0382167 0.0612973 6.59 13.6973 26 1 
620 1.21254 6.60117 -0.0390965 0.0624084 6.60158 13.6249 26 1 
624 1.2125 6.61333 -0.0399702 0.0635736 6.61375 13.5541 26 1 
628 1.21247 6.62622 -0.0408162 0.0646887 6.62666 13.4877 26 1 
632 1.21243 6.63939 -0.0417167 0.0658084 6.63984 13.4283 26 1 
636 1.2124 6.65309 -0.0426134 0.0669034 6.65356 13.3587 26 1 
640 1.21235 6.66673 -0.0435108 0.0680327 6.66722 13.2835 26 1 
644 1.21231 6.68083 -0.0444205 0.0691866 6.68134 13.2064 26 1 
648 1.21227 6.69562 -0.0453118 0.070228 6.69614 13.1377 26 1 
652 1.21224 6.71102 -0.0462183 0.0713789 6.71156 13.0705 26 1 
656 1.21221 6.72651 -0.0471421 0.0724134 6.72707 13.0152 26 1 
660 1.21217 6.74282 -0.0480748 0.07348 6.74339 12.9502 26 1 
664 1.21213 6.75921 -0.0489855 0.0745469 6.7598 12.878 26 1 
668 1.21209 6.7758 -0.0499259 0.0756396 6.77642 12.8092 26 1 
672 1.21205 6.7934 -0.0507524 0.0766756 6.79403 12.7321 26 1 
672 1.21205 6.7934 -0.0507524 0.0766756 6.79403 12.7321 27 1 
676 1.21202 6.81059 -0.0516031 0.0777277 6.81124 12.6729 27 1 
680 1.21198 6.82849 -0.0524966 0.078753 6.82915 12.6103 27 1 
684 1.21195 6.84596 -0.0532553 0.0796745 6.84664 12.552 27 1 
688 1.21191 6.86387 -0.0541128 0.0807864 6.86456 12.4851 27 1 
692 1.21188 6.88165 -0.0548319 0.0817021 6.88236 12.4181 27 1 
696 1.21184 6.89979 -0.0555873 0.0829 6.90052 12.3483 27 1 
700 1.2118 6.91801 -0.0564191 0.0838739 6.91875 12.2796 27 1 
704 1.21176 6.93661 -0.0571329 0.0848652 6.93737 12.2054 27 1 
704 1.21176 6.93661 -0.0571329 0.0848652 6.93737 12.2054 31 1 
708 1.21173 6.95524 -0.0577817 0.0859389 6.95602 12.1527 31 1 
712 1.21169 6.97456 -0.0584831 0.0868457 6.97535 12.0854 31 1 
716 1.21166 6.99371 -0.0590541 0.0879729 6.99452 12.0233 31 1 
720 1.21163 7.0128 -0.0596704 0.0891708 7.01363 11.9674 31 1 
724 1.21158 7.03238 -0.0604036 0.0900078 7.03322 11.8885 31 1 
728 1.21155 7.05126 -0.0609497 0.0910558 7.05211 11.8267 31 1 
732 1.2115 7.07168 -0.0615144 0.0924792 7.07256 11.7427 31 1 
736 1.21147 7.09152 -0.0622349 0.093034 7.09241 11.6885 31 1 
740 1.21144 7.11255 -0.0626879 0.0944173 7.11346 11.6278 31 1 
744 1.2114 7.13549 -0.0632785 0.0957563 7.13642 11.5509 31 1 
748 1.21138 7.15773 -0.0640482 0.0969883 7.15868 11.5275 31 1 
752 1.21133 7.1837 -0.0639654 0.0984926 7.18467 11.4288 31 1 
756 1.2113 7.20865 -0.0650879 0.0994669 7.20964 11.3704 31 1 
760 1.21125 7.23766 -0.0661657 0.100546 7.23867 11.2894 31 1 
764 1.21122 7.26658 -0.0663282 0.101476 7.2676 11.2344 31 1 
768 1.21118 7.29536 -0.0669355 0.10263 7.2964 11.1607 31 1 
772 1.21111 7.32521 -0.0671192 0.105265 7.32628 11.0339 31 1 
776 1.21106 7.35585 -0.066738 0.107564 7.35695 10.9442 31 1 
780 1.21097 7.39405 -0.0678467 0.107077 7.39515 10.7844 31 1 
784 1.21092 7.42921 -0.0701225 0.10813 7.43034 10.6863 31 1 
788 1.21071 7.47973 -0.0702884 0.112173 7.48093 10.3202 31 1 
792 1.21054 7.53355 -0.06993 0.118425 7.53484 10.0131 31 1 
796 1.21023 7.61229 -0.0711443 0.126884 7.61374 9.44267 31 1 
800 1.20991 7.67056 -0.0721167 0.131293 7.6721 8.8628 31 1 
