76.0744;r ;Density                 ;Velocity u              ;Velocity v              ;Velocity w              ;|Velocity|              ;Pressure                ;Distribution            ;Levels                  ;
0 1.21553 9.99889 8.02335e-05 7.54209e-05 9.99889 19.023 1 1 
4 1.21555 9.9986 -1.79324e-05 0.000118849 9.9986 19.0566 1 1 
8 1.21559 9.99506 -0.000219574 6.82303e-05 9.99506 19.1283 1 1 
12 1.21559 9.99175 -0.000417087 5.56221e-05 9.99175 19.1199 1 1 
16 1.21563 9.98779 -0.000495746 0.000103721 9.98779 19.2028 1 1 
20 1.21568 9.98367 -0.000714061 2.94341e-05 9.98367 19.298 1 1 
24 1.21568 9.98093 -0.000755353 0.000132555 9.98093 19.2965 1 1 
28 1.21574 9.97559 -0.000939455 7.19217e-05 9.97559 19.395 1 1 
32 1.21574 9.97345 -0.00104657 0.000145092 9.97345 19.3988 1 1 
36 1.21579 9.9692 -0.00108065 0.000238771 9.9692 19.4916 1 1 
40 1.21582 9.96616 -0.00127028 0.000208807 9.96616 19.5459 1 1 
44 1.21584 9.96241 -0.00136117 0.000237178 9.96242 19.5739 1 1 
48 1.21586 9.95814 -0.00146651 0.000325338 9.95814 19.6123 1 1 
52 1.21586 9.95531 -0.00158058 0.000342926 9.95531 19.6214 1 1 
56 1.21591 9.95059 -0.00171581 0.000334896 9.9506 19.7064 1 1 
60 1.21589 9.94904 -0.00181505 0.000405966 9.94904 19.6774 1 1 
64 1.21593 9.94417 -0.00196811 0.000397972 9.94417 19.7457 1 1 
64 1.21593 9.94417 -0.00196811 0.000397972 9.94417 19.7457 2 1 
68 1.21591 9.94254 -0.00201124 0.000552549 9.94254 19.7139 2 1 
72 1.21593 9.93968 -0.00215593 0.000541366 9.93968 19.7369 2 1 
76 1.21594 9.9366 -0.00235038 0.000492748 9.93661 19.752 2 1 
80 1.21593 9.93377 -0.00236782 0.000671096 9.93378 19.7485 2 1 
84 1.21594 9.93151 -0.00250663 0.000680695 9.93151 19.7645 2 1 
88 1.21593 9.93063 -0.00265809 0.000733308 9.93064 19.7399 2 1 
92 1.21595 9.92796 -0.00262204 0.000926502 9.92796 19.7829 2 1 
96 1.21592 9.92746 -0.00285381 0.000857556 9.92746 19.7239 2 1 
100 1.21595 9.92257 -0.00281943 0.00105019 9.92257 19.7835 2 1 
104 1.21594 9.91978 -0.00300591 0.00110799 9.91978 19.7687 2 1 
108 1.21593 9.91701 -0.00306329 0.00119823 9.91701 19.7389 2 1 
112 1.21594 9.91487 -0.00310727 0.00130025 9.91487 19.7589 2 1 
116 1.21594 9.91328 -0.00326892 0.00139933 9.91328 19.7673 2 1 
120 1.21594 9.91275 -0.00327583 0.00150554 9.91275 19.7551 2 1 
124 1.21597 9.90971 -0.00342512 0.00155176 9.90971 19.807 2 1 
128 1.21598 9.90577 -0.00344879 0.00168682 9.90577 19.8252 2 1 
128 1.21598 9.90577 -0.00344879 0.00168682 9.90577 19.8252 10 1 
132 1.21593 9.90536 -0.00362417 0.00170651 9.90536 19.7347 10 1 
136 1.21597 9.89933 -0.00365426 0.00185816 9.89933 19.8205 10 1 
140 1.21597 9.89772 -0.0038362 0.00189543 9.89773 19.8172 10 1 
144 1.21595 9.89604 -0.00389373 0.00205623 9.89604 19.7847 10 1 
148 1.21601 9.89184 -0.00398163 0.00202436 9.89185 19.8861 10 1 
152 1.21598 9.89228 -0.00419038 0.00215079 9.89228 19.837 10 1 
156 1.21597 9.88934 -0.00414985 0.00236203 9.88935 19.8232 10 1 
160 1.21604 9.88403 -0.0044539 0.00233071 9.88403 19.9479 10 1 
160 1.21604 9.88403 -0.0044539 0.00233071 9.88403 19.9479 10 1 
164 1.21599 9.88421 -0.0044764 0.0024465 9.88422 19.8442 10 1 
168 1.21604 9.87898 -0.00466501 0.0025609 9.87898 19.9422 10 1 
172 1.21605 9.87624 -0.00480718 0.0026544 9.87624 19.9601 10 1 
176 1.21601 9.87778 -0.00482058 0.00274255 9.87779 19.887 10 1 
180 1.2161 9.87004 -0.00494005 0.00309251 9.87005 20.0532 10 1 
184 1.21607 9.86809 -0.00513916 0.00310954 9.8681 19.9952 10 1 
188 1.21609 9.86483 -0.00522 0.00326217 9.86483 20.0342 10 1 
192 1.21611 9.85799 -0.00528422 0.00341141 9.85799 20.0715 10 1 
196 1.21611 9.85585 -0.00569643 0.00334088 9.85585 20.0645 10 1 
200 1.21613 9.85271 -0.00547544 0.00375303 9.85271 20.1118 10 1 
204 1.21619 9.84941 -0.00577369 0.00377421 9.84941 20.2176 10 1 
208 1.21624 9.84612 -0.00601778 0.0039417 9.84612 20.3015 10 1 
212 1.21621 9.8417 -0.00593509 0.00429859 9.84171 20.2432 10 1 
216 1.21629 9.83194 -0.00635991 0.00416671 9.83195 20.3872 10 1 
220 1.21632 9.81923 -0.00635611 0.00430201 9.81924 20.4469 10 1 
224 1.21628 9.81142 -0.00633427 0.00466982 9.81143 20.3781 10 1 
224 1.21628 9.81142 -0.00633427 0.00466982 9.81143 20.3781 10 1 
228 1.21642 9.80258 -0.00678017 0.00448155 9.80259 20.6294 10 1 
232 1.21646 9.79649 -0.00680949 0.00473537 9.79651 20.6939 10 1 
236 1.21651 9.78606 -0.00692942 0.00501938 9.78607 20.7878 10 1 
240 1.21659 9.77561 -0.00730018 0.0048648 9.77562 20.9361 10 1 
244 1.21676 9.75318 -0.00728766 0.00532474 9.75319 21.2369 10 1 
248 1.21685 9.72536 -0.00784941 0.00513704 9.72537 21.411 10 1 
252 1.21684 9.71201 -0.00815045 0.00506835 9.71202 21.3814 10 1 
256 1.21728 9.67161 -0.00814733 0.00558549 9.67162 22.1826 10 1 
256 1.21728 9.67161 -0.00814733 0.00558549 9.67162 22.1826 11 1 
260 1.21736 9.63429 -0.00843438 0.00561927 9.63432 22.328 11 1 
264 1.21751 9.59571 -0.00855145 0.00571775 9.59574 22.5981 11 1 
268 1.21824 9.5247 -0.00886651 0.00593387 9.52475 23.9102 11 1 
272 1.21872 9.4449 -0.00921078 0.00596806 9.44498 24.7737 11 1 
276 1.21893 9.35119 -0.00937042 0.00609024 9.35135 25.1551 11 1 
280 1.21995 9.19473 -0.00963611 0.0062359 9.19487 27.0103 11 1 
284 1.22112 9.04237 -0.00978796 0.00640594 9.04248 29.1179 11 1 
288 1.22199 8.87569 -0.00991853 0.00655296 8.87583 30.6804 11 1 
292 1.22235 8.74179 -0.0102806 0.00668444 8.74207 31.3327 11 1 
296 1.21879 8.99257 -0.0105342 0.00705704 8.99385 24.9052 11 1 
300 1.21332 9.39022 -0.0110432 0.00734718 9.3913 15.0359 11 1 
304 1.21072 9.42752 -0.0113118 0.00766062 9.42826 10.3302 11 1 
308 1.21074 9.18402 -0.0112982 0.00781891 9.18511 10.3655 11 1 
312 1.21164 8.88264 -0.0113625 0.00791167 8.88344 11.9903 11 1 
316 1.21247 8.61045 -0.0113763 0.00815766 8.61107 13.4898 11 1 
320 1.2131 8.39052 -0.0114633 0.00842775 8.39095 14.6233 11 1 
320 1.2131 8.39052 -0.0114633 0.00842775 8.39095 14.6233 15 1 
324 1.21362 8.2049 -0.0115643 0.0088382 8.20523 15.5611 15 1 
328 1.21402 8.04769 -0.0117467 0.00913213 8.04793 16.2904 15 1 
332 1.21439 7.91227 -0.0119095 0.00951177 7.91245 16.96 15 1 
336 1.21461 7.78814 -0.012048 0.0100976 7.78825 17.36 15 1 
340 1.21472 7.67979 -0.0122619 0.0106308 7.6799 17.5622 15 1 
344 1.21495 7.59185 -0.0124613 0.0111137 7.59194 17.9811 15 1 
348 1.21513 7.51267 -0.01271 0.0116013 7.51276 18.2982 15 1 
352 1.2152 7.43745 -0.0129133 0.0121695 7.43752 18.4246 15 1 
356 1.21526 7.36785 -0.013066 0.0128343 7.36791 18.5238 15 1 
360 1.21531 7.30584 -0.0132791 0.0134678 7.30589 18.6297 15 1 
364 1.21541 7.25534 -0.0135102 0.0139995 7.2554 18.8084 15 1 
368 1.21545 7.20847 -0.013682 0.0145585 7.20853 18.884 15 1 
372 1.21545 7.16021 -0.0137949 0.0152606 7.16027 18.869 15 1 
376 1.21549 7.11747 -0.013915 0.0159875 7.11752 18.9425 15 1 
380 1.2155 7.079 -0.014121 0.0165703 7.07905 18.9604 15 1 
384 1.21549 7.0434 -0.0143526 0.0171255 7.04345 18.9404 15 1 
384 1.21549 7.0434 -0.0143526 0.0171255 7.04345 18.9404 16 1 
388 1.2155 7.01144 -0.0145404 0.017793 7.0115 18.9636 16 1 
392 1.2155 6.97918 -0.0147089 0.0184894 6.97924 18.9622 16 1 
396 1.21548 6.94777 -0.0149281 0.0191276 6.94784 18.9306 16 1 
400 1.21545 6.91967 -0.0152264 0.0197601 6.91974 18.8756 16 1 
404 1.21543 6.89343 -0.0155056 0.0204031 6.89349 18.8468 16 1 
408 1.21543 6.86923 -0.0157183 0.0210793 6.8693 18.8443 16 1 
412 1.21541 6.84585 -0.0159082 0.0217638 6.84592 18.7997 16 1 
416 1.21537 6.82249 -0.0161522 0.0224625 6.82257 18.7354 16 1 
420 1.21534 6.80088 -0.0164231 0.0231835 6.80095 18.6782 16 1 
424 1.21532 6.78163 -0.0166784 0.0238963 6.78171 18.6409 16 1 
428 1.2153 6.76348 -0.0168642 0.0246103 6.76356 18.5977 16 1 
432 1.21526 6.74507 -0.0170796 0.0254006 6.74515 18.5305 16 1 
436 1.21523 6.72683 -0.0173677 0.0261677 6.72691 18.4785 16 1 
440 1.21519 6.70975 -0.0176355 0.0268976 6.70984 18.4102 16 1 
444 1.21515 6.69326 -0.017894 0.0276648 6.69336 18.3345 16 1 
448 1.21512 6.67764 -0.0181687 0.0284451 6.67774 18.2874 16 1 
448 1.21512 6.67764 -0.0181687 0.0284451 6.67774 18.2874 17 1 
452 1.21509 6.66269 -0.0184187 0.0291993 6.66279 18.2226 17 1 
456 1.21505 6.64771 -0.0187281 0.029958 6.64782 18.1498 17 1 
460 1.21501 6.63352 -0.019082 0.0307171 6.63363 18.0763 17 1 
464 1.21496 6.62035 -0.0193751 0.0314825 6.62046 17.9955 17 1 
468 1.21493 6.60822 -0.0196781 0.0322721 6.60833 17.9366 17 1 
472 1.2149 6.59762 -0.0200339 0.0330857 6.59774 17.8741 17 1 
476 1.21485 6.58753 -0.0203795 0.0339307 6.58766 17.7969 17 1 
480 1.21481 6.57758 -0.020745 0.034795 6.57771 17.7243 17 1 
484 1.21477 6.56959 -0.0211323 0.0357033 6.56973 17.6523 17 1 
488 1.21474 6.56325 -0.0215439 0.0366619 6.56339 17.5924 17 1 
492 1.2147 6.5575 -0.0219831 0.0376529 6.55764 17.5198 17 1 
496 1.21466 6.55312 -0.0224371 0.0386602 6.55328 17.4455 17 1 
500 1.21463 6.54971 -0.0229179 0.0397174 6.54987 17.3861 17 1 
504 1.21458 6.54704 -0.0233981 0.0408414 6.54721 17.3019 17 1 
508 1.21454 6.54634 -0.0238861 0.0419842 6.54652 17.2339 17 1 
512 1.21451 6.54709 -0.0243942 0.0431172 6.54728 17.1838 17 1 
512 1.21451 6.54709 -0.0243942 0.0431172 6.54728 17.1838 25 1 
516 1.21447 6.548 -0.0249282 0.0442983 6.54819 17.1021 25 1 
520 1.21442 6.54939 -0.0254827 0.0454736 6.5496 17.0235 25 1 
524 1.21439 6.5517 -0.0260518 0.0466502 6.55191 16.9545 25 1 
528 1.21434 6.55526 -0.0266746 0.0478291 6.55548 16.8778 25 1 
532 1.21431 6.55968 -0.0273257 0.0490066 6.55993 16.8082 25 1 
536 1.21426 6.56413 -0.0279677 0.0502004 6.56438 16.7257 25 1 
540 1.21421 6.56885 -0.0286571 0.0514115 6.56911 16.6354 25 1 
544 1.21416 6.57406 -0.0293577 0.0526208 6.57434 16.5515 25 1 
548 1.21412 6.58014 -0.0300723 0.0538425 6.58043 16.4663 25 1 
552 1.21407 6.58686 -0.0307701 0.0551176 6.58717 16.3879 25 1 
556 1.21402 6.5933 -0.0314967 0.0563668 6.59362 16.292 25 1 
560 1.21396 6.59939 -0.0322178 0.0576686 6.59972 16.1899 25 1 
564 1.21391 6.60604 -0.0329242 0.0589718 6.60639 16.095 25 1 
568 1.21386 6.61302 -0.0336348 0.0603004 6.61338 15.9959 25 1 
572 1.2138 6.6203 -0.0343176 0.0616731 6.62068 15.9022 25 1 
576 1.21375 6.62737 -0.0350069 0.0630437 6.62777 15.8052 25 1 
576 1.21375 6.62737 -0.0350069 0.0630437 6.62777 15.8052 26 1 
580 1.21369 6.63408 -0.0356891 0.0644579 6.63449 15.6926 26 1 
584 1.21363 6.64099 -0.0363584 0.0658762 6.64141 15.5894 26 1 
588 1.21357 6.64836 -0.0370353 0.0673357 6.64881 15.4869 26 1 
592 1.21352 6.65567 -0.0377252 0.0687847 6.65613 15.3829 26 1 
596 1.21346 6.66298 -0.038377 0.0702802 6.66346 15.2784 26 1 
600 1.2134 6.67023 -0.0390511 0.0717933 6.67074 15.1663 26 1 
604 1.21334 6.67748 -0.0397252 0.0733532 6.678 15.0613 26 1 
608 1.21328 6.68556 -0.0403976 0.0748611 6.6861 14.9529 26 1 
608 1.21328 6.68556 -0.0403976 0.0748611 6.6861 14.9529 26 1 
612 1.21322 6.6936 -0.0410895 0.0763744 6.69416 14.8509 26 1 
616 1.21316 6.70207 -0.0417909 0.077979 6.70265 14.743 26 1 
620 1.2131 6.71059 -0.0425105 0.0795047 6.71119 14.633 26 1 
624 1.21304 6.71958 -0.0432272 0.0811034 6.72021 14.5263 26 1 
628 1.21298 6.72936 -0.0439313 0.0826706 6.73001 14.4217 26 1 
632 1.21293 6.73947 -0.0446808 0.0842229 6.74015 14.3245 26 1 
636 1.21287 6.75018 -0.0454273 0.0857705 6.75088 14.2213 26 1 
640 1.21281 6.76097 -0.046162 0.0873373 6.76169 14.1132 26 1 
644 1.21275 6.77213 -0.0468986 0.0889289 6.77288 14.0068 26 1 
648 1.2127 6.78401 -0.0476132 0.0904438 6.78478 13.9049 26 1 
652 1.21264 6.79636 -0.0483015 0.0920769 6.79716 13.8014 26 1 
656 1.21259 6.80867 -0.0490465 0.0935833 6.80949 13.7069 26 1 
660 1.21253 6.82178 -0.049766 0.0951034 6.82262 13.6026 26 1 
664 1.21247 6.83467 -0.0504241 0.0966207 6.83554 13.5013 26 1 
668 1.21242 6.84794 -0.05116 0.0981546 6.84884 13.4005 26 1 
672 1.21236 6.86194 -0.0517449 0.0996682 6.86286 13.2942 26 1 
672 1.21236 6.86194 -0.0517449 0.0996682 6.86286 13.2942 27 1 
676 1.21231 6.8754 -0.0523621 0.10115 6.87635 13.2019 27 1 
680 1.21225 6.88976 -0.0530499 0.102694 6.89073 13.0934 27 1 
684 1.2122 6.90329 -0.0535296 0.103985 6.90429 12.9962 27 1 
688 1.21214 6.91763 -0.0541728 0.105536 6.91865 12.8924 27 1 
692 1.21208 6.93166 -0.0546269 0.106813 6.9327 12.7963 27 1 
696 1.21203 6.94615 -0.0551171 0.108336 6.94722 12.6967 27 1 
700 1.21198 6.96058 -0.0557057 0.109708 6.96167 12.6003 27 1 
704 1.21192 6.97493 -0.0561488 0.111009 6.97604 12.4931 27 1 
704 1.21192 6.97493 -0.0561488 0.111009 6.97604 12.4931 31 1 
708 1.21186 6.98934 -0.056558 0.112381 6.99048 12.393 31 1 
712 1.21181 7.00415 -0.0569977 0.113556 7.0053 12.2919 31 1 
716 1.21175 7.01905 -0.0573107 0.114981 7.02023 12.1945 31 1 
720 1.2117 7.03409 -0.0576923 0.116447 7.03529 12.102 31 1 
724 1.21164 7.05004 -0.0581813 0.117497 7.05126 11.9906 31 1 
728 1.21159 7.06476 -0.058432 0.118731 7.066 11.9069 31 1 
732 1.21153 7.08113 -0.0587167 0.120343 7.0824 11.7906 31 1 
736 1.21147 7.09704 -0.0590618 0.120866 7.09832 11.6924 31 1 
740 1.21143 7.11231 -0.0591582 0.122348 7.11361 11.6103 31 1 
744 1.21136 7.12912 -0.0592872 0.12349 7.13044 11.487 31 1 
748 1.21131 7.14455 -0.0597239 0.124846 7.1459 11.403 31 1 
752 1.21125 7.16217 -0.0591648 0.126226 7.16353 11.2851 31 1 
756 1.2112 7.17801 -0.0597912 0.127113 7.17939 11.197 31 1 
760 1.21112 7.19796 -0.0606536 0.128546 7.19937 11.0537 31 1 
764 1.21107 7.21746 -0.0606709 0.129565 7.21888 10.967 31 1 
768 1.21102 7.23701 -0.0610612 0.130797 7.23845 10.8651 31 1 
772 1.21091 7.2584 -0.0608856 0.133876 7.2599 10.6702 31 1 
776 1.21082 7.28059 -0.0603334 0.137099 7.28214 10.5053 31 1 
780 1.2107 7.31272 -0.0616061 0.137123 7.31428 10.2895 31 1 
784 1.21061 7.34339 -0.0641881 0.138819 7.34499 10.133 31 1 
788 1.21035 7.39121 -0.0645603 0.143895 7.39291 9.66826 31 1 
792 1.21013 7.44388 -0.0646508 0.152344 7.44575 9.26415 31 1 
796 1.20976 7.52357 -0.0670328 0.163832 7.52571 8.59224 31 1 
800 1.2094 7.58373 -0.0688501 0.169631 7.58603 7.94768 31 1 
