38.0372;r ;Density                 ;Velocity u              ;Velocity v              ;Velocity w              ;|Velocity|              ;Pressure                ;Distribution            ;Levels                  ;
0 1.20523 10.0014 0.000189411 5.84217e-05 10.0014 0.418111 1 1 
4 1.20523 10.0035 0.000124944 4.09131e-05 10.0035 0.414129 1 1 
8 1.20523 10.005 8.05021e-05 -6.62588e-05 10.005 0.414394 1 1 
12 1.20518 10.0069 -1.48168e-05 -0.000192148 10.0069 0.330622 1 1 
16 1.20519 10.0079 8.97066e-06 -0.000246884 10.0079 0.334656 1 1 
20 1.2052 10.0085 -0.000142496 -0.000430303 10.0085 0.370301 1 1 
24 1.20516 10.0104 -8.52917e-05 -0.000456443 10.0104 0.29503 1 1 
28 1.20517 10.01 -0.000167844 -0.000645078 10.01 0.307237 1 1 
32 1.20514 10.0131 -0.000196003 -0.000727103 10.0131 0.248518 1 1 
36 1.20515 10.0135 -0.000203936 -0.000821211 10.0135 0.276522 1 1 
40 1.20514 10.0152 -0.000351844 -0.00102112 10.0152 0.261501 1 1 
44 1.20512 10.0165 -0.000397649 -0.00117262 10.0165 0.215058 1 1 
48 1.2051 10.0164 -0.000475646 -0.00133371 10.0164 0.180189 1 1 
52 1.20507 10.0176 -0.000572936 -0.00154061 10.0176 0.134956 1 1 
56 1.20509 10.0169 -0.000665325 -0.00172623 10.0169 0.156431 1 1 
60 1.20504 10.0194 -0.000693519 -0.00183317 10.0194 0.0634713 1 1 
64 1.20505 10.0192 -0.000837495 -0.00210436 10.0192 0.0959725 1 1 
64 1.20505 10.0192 -0.000837495 -0.00210436 10.0192 0.0959725 2 1 
68 1.20502 10.0218 -0.000868548 -0.00219208 10.0218 0.0411954 2 1 
72 1.20502 10.0227 -0.000993416 -0.0024172 10.0227 0.0425934 2 1 
76 1.20501 10.0239 -0.00117601 -0.00272038 10.0239 0.0262553 2 1 
80 1.20499 10.0248 -0.00121011 -0.00285401 10.0248 -0.0155774 2 1 
84 1.20498 10.0259 -0.00131878 -0.00307274 10.0259 -0.03661 2 1 
88 1.20494 10.0291 -0.00146712 -0.00327082 10.0291 -0.107332 2 1 
92 1.20494 10.0299 -0.0014535 -0.00338911 10.0299 -0.10736 2 1 
96 1.2049 10.0329 -0.00169038 -0.00374046 10.0329 -0.180851 2 1 
100 1.20493 10.032 -0.00164087 -0.0037677 10.032 -0.121727 2 1 
104 1.20491 10.0328 -0.00182889 -0.00396653 10.0328 -0.160381 2 1 
108 1.20487 10.0339 -0.00188206 -0.00412991 10.0339 -0.227343 2 1 
112 1.20486 10.0357 -0.00187615 -0.00426587 10.0357 -0.244355 2 1 
116 1.20485 10.0376 -0.0020325 -0.00441638 10.0376 -0.277897 2 1 
120 1.20482 10.0407 -0.00202749 -0.00456288 10.0407 -0.316834 2 1 
124 1.20484 10.0411 -0.00208724 -0.00469289 10.0411 -0.286586 2 1 
128 1.20483 10.0406 -0.00204146 -0.00476495 10.0406 -0.310769 2 1 
128 1.20483 10.0406 -0.00204146 -0.00476495 10.0406 -0.310769 10 1 
132 1.20475 10.0442 -0.00216679 -0.00494086 10.0442 -0.448322 10 1 
136 1.20478 10.0416 -0.00206097 -0.00490651 10.0416 -0.39441 10 1 
140 1.20477 10.0429 -0.00210075 -0.00500193 10.0429 -0.419484 10 1 
144 1.20473 10.0448 -0.00212668 -0.00506403 10.0448 -0.490365 10 1 
148 1.20475 10.0439 -0.00213008 -0.00525628 10.0439 -0.445204 10 1 
152 1.2047 10.0471 -0.00214376 -0.00516591 10.0471 -0.533479 10 1 
156 1.20468 10.0478 -0.00198003 -0.00508814 10.0478 -0.578985 10 1 
160 1.20473 10.0462 -0.00225005 -0.00535414 10.0463 -0.493442 10 1 
160 1.20473 10.0462 -0.00225005 -0.00535414 10.0463 -0.493442 10 1 
164 1.20465 10.0494 -0.00212028 -0.00538983 10.0495 -0.634447 10 1 
168 1.20468 10.0469 -0.00208521 -0.00534117 10.0469 -0.57834 10 1 
172 1.20467 10.0467 -0.00215246 -0.00537532 10.0467 -0.598505 10 1 
176 1.20461 10.0516 -0.00214207 -0.00550032 10.0516 -0.709856 10 1 
180 1.20467 10.0471 -0.00203475 -0.00528917 10.0471 -0.591555 10 1 
184 1.20461 10.0467 -0.00199881 -0.00537065 10.0467 -0.697234 10 1 
188 1.20462 10.0453 -0.00202872 -0.00540262 10.0453 -0.691588 10 1 
192 1.20462 10.0412 -0.00199491 -0.00543409 10.0412 -0.689117 10 1 
196 1.20459 10.042 -0.00217379 -0.00559843 10.042 -0.73812 10 1 
200 1.2046 10.0415 -0.00179557 -0.00533454 10.0415 -0.717621 10 1 
204 1.20464 10.0406 -0.00204743 -0.00554849 10.0406 -0.64415 10 1 
208 1.20467 10.0399 -0.00217305 -0.00557481 10.0399 -0.598557 10 1 
212 1.20462 10.0381 -0.00184182 -0.00530928 10.0381 -0.692736 10 1 
216 1.20468 10.0299 -0.00213538 -0.00560139 10.0299 -0.582952 10 1 
220 1.2047 10.0184 -0.00210846 -0.00572054 10.0184 -0.539217 10 1 
224 1.20465 10.0122 -0.00190688 -0.00548251 10.0122 -0.63492 10 1 
224 1.20465 10.0122 -0.00190688 -0.00548251 10.0122 -0.63492 10 1 
228 1.20477 10.0051 -0.0020763 -0.00573218 10.0052 -0.4118 10 1 
232 1.2048 10.0018 -0.00201469 -0.00571625 10.0018 -0.358154 10 1 
236 1.20484 9.99444 -0.0021481 -0.00578528 9.99446 -0.282928 10 1 
240 1.20492 9.98574 -0.00240751 -0.00614086 9.98575 -0.148508 10 1 
244 1.20508 9.96502 -0.00208462 -0.0056951 9.96504 0.149168 10 1 
248 1.20518 9.93905 -0.00244069 -0.00597893 9.93907 0.323638 10 1 
252 1.20515 9.92783 -0.00275391 -0.00639046 9.92784 0.279087 10 1 
256 1.2056 9.88919 -0.00261586 -0.00608391 9.8892 1.08177 10 1 
256 1.2056 9.88919 -0.00261586 -0.00608391 9.8892 1.08177 11 1 
260 1.20568 9.85248 -0.0023947 -0.00579976 9.85251 1.23307 11 1 
264 1.20582 9.81553 -0.00186437 -0.00534909 9.81556 1.48121 11 1 
268 1.20655 9.74697 -0.00188237 -0.00516775 9.74702 2.7958 11 1 
272 1.20704 9.66998 -0.00242678 -0.00566405 9.67006 3.68099 11 1 
276 1.20725 9.58073 -0.0028953 -0.00617365 9.58088 4.05851 11 1 
280 1.20827 9.42865 -0.00314783 -0.00630896 9.42878 5.90706 11 1 
284 1.20944 9.28083 -0.00299069 -0.00602347 9.28092 8.02712 11 1 
288 1.21031 9.12043 -0.00277062 -0.00563404 9.12055 9.59607 11 1 
292 1.21068 8.98905 -0.00283589 -0.00557857 8.98929 10.2556 11 1 
296 1.20715 9.23417 -0.00287983 -0.00547356 9.23534 3.87758 11 1 
300 1.20175 9.62508 -0.00317172 -0.00566578 9.62607 -5.87187 11 1 
304 1.19922 9.66458 -0.00333149 -0.00570476 9.66526 -10.4489 11 1 
308 1.19927 9.43109 -0.00342768 -0.0055628 9.43208 -10.3502 11 1 
312 1.20018 9.14036 -0.00359822 -0.00547175 9.14109 -8.69828 11 1 
316 1.20103 8.87764 -0.00364362 -0.00531289 8.87819 -7.17733 11 1 
320 1.20166 8.66663 -0.00372414 -0.00519219 8.667 -6.02553 11 1 
320 1.20166 8.66663 -0.00372414 -0.00519219 8.667 -6.02553 15 1 
324 1.2022 8.48833 -0.00377807 -0.00500397 8.48862 -5.05746 15 1 
328 1.20262 8.33713 -0.00392603 -0.00494712 8.33734 -4.29746 15 1 
332 1.203 8.20685 -0.00401441 -0.00486233 8.20701 -3.60483 15 1 
336 1.20324 8.08655 -0.00402017 -0.00462913 8.08664 -3.18087 15 1 
340 1.20337 7.98102 -0.0040755 -0.00445815 7.98111 -2.94711 15 1 
344 1.20362 7.89511 -0.00411654 -0.00430662 7.89518 -2.49472 15 1 
348 1.20381 7.81732 -0.00419199 -0.00416596 7.81739 -2.15396 15 1 
352 1.20389 7.74293 -0.00420667 -0.00396783 7.74298 -2.00687 15 1 
356 1.20396 7.67347 -0.00415676 -0.00370076 7.67351 -1.87768 15 1 
360 1.20404 7.61118 -0.0041717 -0.00346625 7.61121 -1.73799 15 1 
364 1.20415 7.56006 -0.00421552 -0.00331541 7.56009 -1.52678 15 1 
368 1.20422 7.51213 -0.00421313 -0.00312899 7.51216 -1.41494 15 1 
372 1.20423 7.46261 -0.00414645 -0.00281295 7.46264 -1.39252 15 1 
376 1.20429 7.41859 -0.00405693 -0.00247162 7.41861 -1.27772 15 1 
380 1.20433 7.37882 -0.00404116 -0.0022538 7.37884 -1.2072 15 1 
384 1.20435 7.34191 -0.00406108 -0.00205879 7.34193 -1.16888 15 1 
384 1.20435 7.34191 -0.00406108 -0.00205879 7.34193 -1.16888 16 1 
388 1.2044 7.30845 -0.00405321 -0.00175707 7.30848 -1.08212 16 1 
392 1.20444 7.27463 -0.00402319 -0.00144588 7.27466 -1.01763 16 1 
396 1.20445 7.24193 -0.0040389 -0.00122795 7.24195 -0.985301 16 1 
400 1.20446 7.21259 -0.00411689 -0.00102916 7.21261 -0.974795 16 1 
404 1.20448 7.18515 -0.00415644 -0.000756076 7.18517 -0.943871 16 1 
408 1.20451 7.16004 -0.00409085 -0.000444307 7.16006 -0.879525 16 1 
412 1.20454 7.13609 -0.00399749 -0.000156021 7.13611 -0.837668 16 1 
416 1.20455 7.11239 -0.00395786 0.000108321 7.1124 -0.805431 16 1 
420 1.20457 7.09051 -0.0039403 0.000388828 7.09052 -0.768788 16 1 
424 1.20459 7.07083 -0.00389545 0.000667324 7.07085 -0.733406 16 1 
428 1.2046 7.05238 -0.00376305 0.000962128 7.05239 -0.719912 16 1 
432 1.2046 7.03389 -0.0036355 0.00130886 7.0339 -0.719977 16 1 
436 1.20462 7.01608 -0.00358618 0.00162424 7.01609 -0.683241 16 1 
440 1.20464 7.00012 -0.00353149 0.00187982 7.00013 -0.646009 16 1 
444 1.20465 6.9848 -0.00346226 0.00214885 6.98481 -0.625259 16 1 
448 1.20467 6.97054 -0.00338556 0.00244066 6.97055 -0.594892 16 1 
448 1.20467 6.97054 -0.00338556 0.00244066 6.97055 -0.594892 17 1 
452 1.20467 6.95762 -0.00327291 0.00272875 6.95763 -0.591222 17 1 
456 1.20467 6.94551 -0.00321885 0.00299259 6.94552 -0.588198 17 1 
460 1.20469 6.93491 -0.00322372 0.00324647 6.93492 -0.566985 17 1 
464 1.2047 6.92495 -0.00317341 0.00347266 6.92496 -0.548028 17 1 
468 1.20471 6.9157 -0.00312832 0.00369103 6.9157 -0.516654 17 1 
472 1.20472 6.9077 -0.00312379 0.00391606 6.90771 -0.504089 17 1 
476 1.20472 6.89984 -0.00312776 0.00415928 6.89985 -0.508562 17 1 
480 1.20472 6.89198 -0.00314586 0.00442702 6.89199 -0.497912 17 1 
484 1.20474 6.88553 -0.00315826 0.00470316 6.88554 -0.474318 17 1 
488 1.20476 6.88068 -0.00318704 0.00498444 6.88068 -0.433497 17 1 
492 1.20477 6.87624 -0.00324147 0.00526795 6.87625 -0.419339 17 1 
496 1.20477 6.87337 -0.0033329 0.00554349 6.87337 -0.42251 17 1 
500 1.20478 6.87221 -0.0034329 0.00585076 6.87221 -0.403208 17 1 
504 1.20478 6.87293 -0.00349538 0.00625157 6.87294 -0.388986 17 1 
508 1.2048 6.87749 -0.00356953 0.00664388 6.8775 -0.360668 17 1 
512 1.20482 6.8842 -0.00366389 0.00697172 6.88421 -0.326338 17 1 
512 1.20482 6.8842 -0.00366389 0.00697172 6.88421 -0.326338 25 1 
516 1.20482 6.891 -0.00377942 0.00731969 6.891 -0.316874 25 1 
520 1.20484 6.89789 -0.00389836 0.00768619 6.89789 -0.297823 25 1 
524 1.20485 6.90646 -0.00400917 0.00806077 6.90646 -0.278927 25 1 
528 1.20485 6.91866 -0.00412585 0.00842479 6.91866 -0.26728 25 1 
532 1.20488 6.9354 -0.00425011 0.00875893 6.93541 -0.224264 25 1 
536 1.20489 6.9577 -0.00437079 0.00913814 6.95771 -0.192035 25 1 
540 1.20488 6.98619 -0.00452142 0.00949651 6.98621 -0.210317 25 1 
544 1.20488 7.0193 -0.00467428 0.00980144 7.01932 -0.219281 25 1 
548 1.20491 7.05323 -0.00474153 0.0101401 7.05325 -0.169828 25 1 
552 1.20494 7.08509 -0.00476939 0.0104905 7.08511 -0.108642 25 1 
556 1.20494 7.11171 -0.00482381 0.0107976 7.11172 -0.11198 25 1 
560 1.20492 7.13195 -0.00488577 0.011081 7.13197 -0.139068 25 1 
564 1.20493 7.14833 -0.0049758 0.0113308 7.14834 -0.13317 25 1 
568 1.20492 7.16521 -0.0050749 0.011588 7.16522 -0.137957 25 1 
572 1.20492 7.18679 -0.00512142 0.0119198 7.1868 -0.144982 25 1 
576 1.20494 7.21517 -0.00519 0.0122575 7.21519 -0.113732 25 1 
576 1.20494 7.21517 -0.00519 0.0122575 7.21519 -0.113732 26 1 
580 1.20495 7.25284 -0.00530172 0.0125507 7.25288 -0.08872 26 1 
584 1.20495 7.30209 -0.0054339 0.0127926 7.30213 -0.0910622 26 1 
588 1.20495 7.36286 -0.00557732 0.0130045 7.36291 -0.096715 26 1 
592 1.20495 7.43412 -0.00572048 0.013176 7.43419 -0.0869517 26 1 
596 1.20497 7.51607 -0.00586388 0.0132636 7.51615 -0.048071 26 1 
600 1.205 7.60836 -0.00600183 0.0133239 7.60845 0.00464549 26 1 
604 1.20503 7.70962 -0.00613282 0.0133711 7.70973 0.0582526 26 1 
608 1.20505 7.81856 -0.00627624 0.0133437 7.81868 0.0821839 26 1 
608 1.20505 7.81856 -0.00627624 0.0133437 7.81868 0.0821839 26 1 
612 1.20505 7.93448 -0.00645792 0.0132853 7.93461 0.0889311 26 1 
616 1.20506 8.05654 -0.0066654 0.0132078 8.05668 0.116469 26 1 
620 1.20508 8.18398 -0.00690948 0.0130464 8.18413 0.137721 26 1 
624 1.20509 8.31521 -0.00712228 0.0128408 8.31536 0.1626 26 1 
628 1.20513 8.44778 -0.00724616 0.0126555 8.44793 0.227116 26 1 
632 1.20515 8.57983 -0.00731853 0.0125094 8.57998 0.272495 26 1 
636 1.20514 8.71059 -0.00746069 0.0123092 8.71073 0.254733 26 1 
640 1.20513 8.8379 -0.00770046 0.0120071 8.83803 0.228575 26 1 
644 1.20512 8.96023 -0.00786791 0.011649 8.96035 0.22354 26 1 
648 1.20512 9.07624 -0.00786253 0.0113399 9.07634 0.211752 26 1 
652 1.2051 9.1846 -0.0078086 0.0110791 9.18469 0.174845 26 1 
656 1.20508 9.28561 -0.0077345 0.0108252 9.28569 0.151711 26 1 
660 1.20508 9.37816 -0.00766185 0.0105198 9.37822 0.137628 26 1 
664 1.20505 9.46258 -0.00766002 0.0100594 9.46263 0.0947393 26 1 
668 1.20504 9.53725 -0.00765695 0.0095517 9.53729 0.0673158 26 1 
672 1.20503 9.60136 -0.00762111 0.00911159 9.6014 0.0627663 26 1 
672 1.20503 9.60136 -0.00762111 0.00911159 9.6014 0.0627663 27 1 
676 1.20501 9.6561 -0.00751443 0.00879658 9.65612 0.0131565 27 1 
680 1.20498 9.70259 -0.00738423 0.00853408 9.70261 -0.0402672 27 1 
684 1.20497 9.74165 -0.00729138 0.00824411 9.74167 -0.0483676 27 1 
688 1.20497 9.77442 -0.00722488 0.00797954 9.77443 -0.0519194 27 1 
692 1.20496 9.80285 -0.00718691 0.00776814 9.80286 -0.0785352 27 1 
696 1.20493 9.82678 -0.0071614 0.00758354 9.82679 -0.118326 27 1 
700 1.20492 9.84732 -0.0071054 0.00744331 9.84733 -0.140366 27 1 
704 1.20491 9.86556 -0.00699416 0.00733053 9.86557 -0.15439 27 1 
704 1.20491 9.86556 -0.00699416 0.00733053 9.86557 -0.15439 31 1 
708 1.20492 9.88271 -0.00689692 0.00717123 9.88272 -0.149947 31 1 
712 1.20492 9.89744 -0.00683557 0.00699898 9.89745 -0.147793 31 1 
716 1.20491 9.90911 -0.00674596 0.00687107 9.90911 -0.161124 31 1 
720 1.2049 9.91882 -0.00666009 0.00673337 9.91882 -0.185512 31 1 
724 1.20489 9.92825 -0.00661397 0.00655255 9.92825 -0.191928 31 1 
728 1.2049 9.93662 -0.0065712 0.00636182 9.93662 -0.173984 31 1 
732 1.20489 9.94272 -0.0065169 0.00617534 9.94272 -0.201808 31 1 
736 1.20486 9.94813 -0.0064139 0.00605782 9.94813 -0.261885 31 1 
740 1.20484 9.95144 -0.00632067 0.00594311 9.95144 -0.297591 31 1 
744 1.20486 9.95599 -0.00626316 0.00576681 9.956 -0.255081 31 1 
748 1.20489 9.96123 -0.00623483 0.00555621 9.96124 -0.202002 31 1 
752 1.20489 9.96521 -0.00621868 0.00534819 9.96522 -0.195337 31 1 
756 1.20488 9.96767 -0.00615468 0.00516659 9.96767 -0.224758 31 1 
760 1.20484 9.96799 -0.00601592 0.00506628 9.96799 -0.28033 31 1 
764 1.20481 9.96969 -0.00587178 0.00494675 9.96969 -0.335817 31 1 
768 1.20481 9.97225 -0.00575811 0.0047901 9.97226 -0.345279 31 1 
772 1.20485 9.97422 -0.005679 0.00462588 9.97423 -0.27254 31 1 
776 1.20487 9.97617 -0.00563979 0.00441573 9.97617 -0.236505 31 1 
780 1.20484 9.97766 -0.00556405 0.00426278 9.97766 -0.283907 31 1 
784 1.20482 9.9775 -0.00541864 0.00418611 9.9775 -0.332081 31 1 
788 1.20481 9.97765 -0.005268 0.00405942 9.97765 -0.347293 31 1 
792 1.20482 9.97913 -0.00515279 0.00386808 9.97913 -0.319722 31 1 
796 1.20485 9.98066 -0.00501654 0.00373282 9.98066 -0.267789 31 1 
800 1.20487 9.98149 -0.00494558 0.00367181 9.98149 -0.241597 31 1 
