32.6033;r ;Density                 ;Velocity u              ;Velocity v              ;Velocity w              ;|Velocity|              ;Pressure                ;Distribution            ;Levels                  ;
0 1.20622 10.0007 0.00021149 5.31047e-05 10.0007 2.19626 1 1 
4 1.20621 10.0023 0.000113887 -2.47592e-05 10.0023 2.17716 1 1 
8 1.20621 10.0018 -2.59166e-05 -0.000283479 10.0018 2.18709 1 1 
12 1.20618 10.0016 -0.000193993 -0.00052165 10.0016 2.12906 1 1 
16 1.2062 10.001 -0.000222747 -0.000682287 10.001 2.16625 1 1 
20 1.20623 9.99956 -0.000394906 -0.000990402 9.99956 2.2275 1 1 
24 1.20618 10.0001 -0.000376805 -0.00108732 10.0001 2.13644 1 1 
28 1.20619 9.99873 -0.000554984 -0.00136327 9.99873 2.1485 1 1 
32 1.20615 10.0005 -0.000661503 -0.00156051 10.0005 2.08358 1 1 
36 1.20618 9.99894 -0.000727646 -0.00175725 9.99894 2.13066 1 1 
40 1.20619 9.99821 -0.00089705 -0.00197916 9.99821 2.15618 1 1 
44 1.20617 9.99753 -0.000977109 -0.00214889 9.99753 2.12205 1 1 
48 1.20617 9.99669 -0.00104986 -0.00228658 9.99669 2.10557 1 1 
52 1.20614 9.99739 -0.0011341 -0.00247776 9.99739 2.05866 1 1 
56 1.20615 9.99509 -0.00127019 -0.00271122 9.99509 2.08131 1 1 
60 1.20612 9.99584 -0.00131815 -0.00281047 9.99585 2.02074 1 1 
64 1.20614 9.99426 -0.00142863 -0.00300426 9.99426 2.06245 1 1 
64 1.20614 9.99426 -0.00142863 -0.00300426 9.99426 2.06245 2 1 
68 1.2061 9.99563 -0.00145283 -0.00306266 9.99563 1.99573 2 1 
72 1.20609 9.99547 -0.00157284 -0.00326636 9.99547 1.96569 2 1 
76 1.20606 9.99515 -0.0016408 -0.00343926 9.99515 1.91634 2 1 
80 1.20603 9.99472 -0.00155715 -0.00340123 9.99472 1.86866 2 1 
84 1.20602 9.995 -0.00159904 -0.00352998 9.995 1.83642 2 1 
88 1.20597 9.99636 -0.00164536 -0.00360832 9.99636 1.75114 2 1 
92 1.20597 9.99592 -0.00153878 -0.00359349 9.99593 1.74889 2 1 
96 1.20592 9.99862 -0.00174311 -0.00386837 9.99862 1.67027 2 1 
100 1.20595 9.99666 -0.00161821 -0.00380728 9.99666 1.70946 2 1 
104 1.2059 9.99642 -0.00168804 -0.00388423 9.99642 1.63407 2 1 
108 1.20585 9.99644 -0.00173129 -0.00398317 9.99644 1.5277 2 1 
112 1.20582 9.99664 -0.00175119 -0.0040729 9.99664 1.48597 2 1 
116 1.2058 9.99697 -0.0017863 -0.00407115 9.99698 1.44051 2 1 
120 1.20576 9.99852 -0.00169085 -0.00415057 9.99852 1.36876 2 1 
124 1.20575 9.9975 -0.00182248 -0.00430238 9.99751 1.34644 2 1 
128 1.20572 9.99613 -0.00171886 -0.00427453 9.99613 1.30083 2 1 
128 1.20572 9.99613 -0.00171886 -0.00427453 9.99613 1.30083 10 1 
132 1.20564 9.99917 -0.00171559 -0.00433118 9.99917 1.16069 10 1 
136 1.20566 9.9958 -0.00169112 -0.00437543 9.9958 1.19899 10 1 
140 1.20564 9.99565 -0.00181281 -0.00452815 9.99565 1.15644 10 1 
144 1.2056 9.99557 -0.00168602 -0.00443833 9.99558 1.08065 10 1 
148 1.20561 9.994 -0.00163121 -0.00454409 9.99401 1.09807 10 1 
152 1.20552 9.99749 -0.00182318 -0.00459877 9.9975 0.937076 10 1 
156 1.20546 9.99689 -0.00167118 -0.00453627 9.9969 0.829397 10 1 
160 1.2055 9.99377 -0.00173683 -0.00464379 9.99377 0.902046 10 1 
160 1.2055 9.99377 -0.00173683 -0.00464379 9.99377 0.902046 10 1 
164 1.20542 9.9962 -0.00165313 -0.00471081 9.9962 0.767577 10 1 
168 1.20545 9.99307 -0.00181552 -0.00480691 9.99307 0.80526 10 1 
172 1.20542 9.9924 -0.00174558 -0.00470937 9.9924 0.750945 10 1 
176 1.20534 9.99621 -0.00149187 -0.00466424 9.99622 0.617489 10 1 
180 1.20539 9.99115 -0.00158598 -0.0046694 9.99115 0.711919 10 1 
184 1.20531 9.99212 -0.00189973 -0.00506416 9.99213 0.565102 10 1 
188 1.20529 9.99108 -0.00182255 -0.00499112 9.99108 0.521447 10 1 
192 1.20527 9.98617 -0.00154039 -0.0047975 9.98617 0.493477 10 1 
196 1.20524 9.98633 -0.00186141 -0.00511497 9.98633 0.430962 10 1 
200 1.20523 9.98514 -0.00173312 -0.00506443 9.98514 0.407995 10 1 
204 1.20524 9.98356 -0.00178042 -0.00508336 9.98357 0.43169 10 1 
208 1.20526 9.98132 -0.00133911 -0.00461317 9.98133 0.461005 10 1 
212 1.20519 9.97795 -0.000643317 -0.00399665 9.97796 0.348522 10 1 
216 1.20523 9.97007 -0.00102959 -0.00431321 9.97008 0.4183 10 1 
220 1.20522 9.95926 -0.00135971 -0.00481992 9.95927 0.405225 10 1 
224 1.20515 9.95397 -0.00152281 -0.00506909 9.95397 0.269736 10 1 
224 1.20515 9.95397 -0.00152281 -0.00506909 9.95397 0.269736 10 1 
228 1.20526 9.94769 -0.0017683 -0.00543965 9.94769 0.464931 10 1 
232 1.20526 9.94354 -0.00137166 -0.00503065 9.94355 0.472344 10 1 
236 1.20528 9.93509 -0.00101035 -0.00460064 9.93511 0.499044 10 1 
240 1.20533 9.92619 -0.00106793 -0.00481842 9.9262 0.588367 10 1 
244 1.20547 9.90611 -0.000893708 -0.00454464 9.90612 0.842196 10 1 
248 1.20554 9.88103 -0.00134853 -0.00492048 9.88104 0.97234 10 1 
252 1.20548 9.86964 -0.00152571 -0.00523679 9.86965 0.873686 10 1 
256 1.2059 9.83135 -0.00138433 -0.00497715 9.83136 1.61743 10 1 
256 1.2059 9.83135 -0.00138433 -0.00497715 9.83136 1.61743 11 1 
260 1.20596 9.79614 -0.00160823 -0.00516034 9.79616 1.72951 11 1 
264 1.20607 9.75965 -0.00166995 -0.00530541 9.75968 1.94181 11 1 
268 1.20677 9.69104 -0.00187865 -0.00533353 9.69109 3.19247 11 1 
272 1.20722 9.61366 -0.00212293 -0.00553037 9.61374 4.00633 11 1 
276 1.2074 9.52371 -0.00221707 -0.00562687 9.52386 4.34173 11 1 
280 1.2084 9.37114 -0.0023865 -0.00565233 9.37127 6.14767 11 1 
284 1.20953 9.22232 -0.00246101 -0.00563225 9.22241 8.19031 11 1 
288 1.21036 9.061 -0.00257487 -0.00563008 9.06112 9.68767 11 1 
292 1.21071 8.92997 -0.00286841 -0.00581032 8.93023 10.3196 11 1 
296 1.20717 9.17757 -0.00298243 -0.00578626 9.17876 3.92405 11 1 
300 1.20174 9.57122 -0.00325775 -0.00601619 9.57223 -5.89532 11 1 
304 1.19915 9.61102 -0.00337593 -0.006084 9.61172 -10.5625 11 1 
308 1.19917 9.3765 -0.00343721 -0.00594836 9.37752 -10.5232 11 1 
312 1.20005 9.08478 -0.00359283 -0.00588799 9.08553 -8.93218 11 1 
316 1.20086 8.82122 -0.00363656 -0.00577696 8.82178 -7.47372 11 1 
320 1.20148 8.60997 -0.0037154 -0.00570214 8.61035 -6.36329 11 1 
320 1.20148 8.60997 -0.0037154 -0.00570214 8.61035 -6.36329 15 1 
324 1.20199 8.43194 -0.00376712 -0.00555615 8.43223 -5.4345 15 1 
328 1.20239 8.28144 -0.00390767 -0.00553589 8.28164 -4.71166 15 1 
332 1.20275 8.15181 -0.00399334 -0.00549795 8.15197 -4.06596 15 1 
336 1.20294 8.03201 -0.00400725 -0.00533221 8.03211 -3.71723 15 1 
340 1.20304 7.92781 -0.00407316 -0.00523685 7.92789 -3.54651 15 1 
344 1.20327 7.84385 -0.0041214 -0.00515821 7.84391 -3.12534 15 1 
348 1.20345 7.76826 -0.0041972 -0.00508588 7.76832 -2.80529 15 1 
352 1.20352 7.69631 -0.00421937 -0.00497085 7.69636 -2.67312 15 1 
356 1.20358 7.62909 -0.0041755 -0.00479244 7.62914 -2.56764 15 1 
360 1.20363 7.56904 -0.00418389 -0.00463867 7.56907 -2.47299 15 1 
364 1.20372 7.52047 -0.0042213 -0.00456875 7.5205 -2.3124 15 1 
368 1.20376 7.47538 -0.00421386 -0.00446963 7.47541 -2.23457 15 1 
372 1.20377 7.42892 -0.00415309 -0.00425251 7.42894 -2.2262 15 1 
376 1.20381 7.38808 -0.00408204 -0.0040245 7.3881 -2.14187 15 1 
380 1.20383 7.35141 -0.00409133 -0.00392453 7.35143 -2.12123 15 1 
384 1.20383 7.31778 -0.00413392 -0.00384352 7.3178 -2.1197 15 1 
384 1.20383 7.31778 -0.00413392 -0.00384352 7.3178 -2.1197 16 1 
388 1.20386 7.28807 -0.00413085 -0.00364572 7.28809 -2.06666 16 1 
392 1.20387 7.25801 -0.00409103 -0.00343592 7.25803 -2.04134 16 1 
396 1.20386 7.22911 -0.00408465 -0.00330154 7.22913 -2.06372 16 1 
400 1.20383 7.20367 -0.00413658 -0.0031682 7.20368 -2.1082 16 1 
404 1.20384 7.18032 -0.00415107 -0.00296144 7.18034 -2.09328 16 1 
408 1.20386 7.15952 -0.00407858 -0.00273957 7.15954 -2.05769 16 1 
412 1.20385 7.13998 -0.00397828 -0.00255223 7.14 -2.07922 16 1 
416 1.20383 7.1212 -0.00391049 -0.00236922 7.12121 -2.11642 16 1 
420 1.20381 7.10491 -0.00385488 -0.0021554 7.10493 -2.14716 16 1 
424 1.20382 7.09169 -0.00376433 -0.00192488 7.0917 -2.13097 16 1 
428 1.20383 7.07975 -0.0035643 -0.00165704 7.07976 -2.12011 16 1 
432 1.20382 7.06744 -0.00334467 -0.00133163 7.06745 -2.13507 16 1 
436 1.20382 7.05485 -0.00320503 -0.00103132 7.05486 -2.1235 16 1 
440 1.2038 7.04318 -0.00307308 -0.000782558 7.04319 -2.15849 16 1 
444 1.20378 7.03216 -0.00293734 -0.000500616 7.03217 -2.20109 16 1 
448 1.20378 7.02199 -0.00278897 -0.000211237 7.022 -2.19984 16 1 
448 1.20378 7.02199 -0.00278897 -0.000211237 7.022 -2.19984 17 1 
452 1.20378 7.01319 -0.00260004 2.22316e-05 7.0132 -2.21185 17 1 
456 1.20377 7.00446 -0.00246215 0.000235519 7.00447 -2.21741 17 1 
460 1.20377 6.99681 -0.00236065 0.000484494 6.99682 -2.22325 17 1 
464 1.20378 6.9904 -0.00222157 0.000725427 6.99041 -2.20972 17 1 
468 1.2038 6.98587 -0.00212515 0.000907515 6.98587 -2.16076 17 1 
472 1.2038 6.98402 -0.00207393 0.00103531 6.98403 -2.15909 17 1 
476 1.20378 6.98292 -0.0019936 0.0012046 6.98293 -2.2086 17 1 
480 1.20375 6.9818 -0.00187907 0.00145085 6.98181 -2.26084 17 1 
484 1.20375 6.98217 -0.00174734 0.00171344 6.98217 -2.24907 17 1 
488 1.20379 6.98468 -0.0016749 0.00192477 6.98469 -2.18191 17 1 
492 1.20382 6.98966 -0.00168171 0.00205627 6.98966 -2.13629 17 1 
496 1.20384 7.00029 -0.0017208 0.00219366 7.00029 -2.09727 17 1 
500 1.20384 7.01899 -0.00172511 0.00244245 7.01899 -2.08787 17 1 
504 1.20383 7.04545 -0.00164084 0.00278735 7.04546 -2.10471 17 1 
508 1.20386 7.07696 -0.00157377 0.00308101 7.07697 -2.06511 17 1 
512 1.2039 7.10687 -0.00152045 0.00332398 7.10688 -1.99517 17 1 
512 1.2039 7.10687 -0.00152045 0.00332398 7.10688 -1.99517 25 1 
516 1.20391 7.12791 -0.00145476 0.003656 7.12792 -1.97192 25 1 
520 1.2039 7.13824 -0.00136005 0.00405526 7.13824 -1.98849 25 1 
524 1.20389 7.14158 -0.00125007 0.00443181 7.14158 -2.00596 25 1 
528 1.20391 7.1453 -0.00121307 0.00472545 7.1453 -1.97679 25 1 
532 1.20395 7.15686 -0.00123821 0.00496487 7.15686 -1.90447 25 1 
536 1.20397 7.18055 -0.00129247 0.0052505 7.18056 -1.85739 25 1 
540 1.20398 7.21898 -0.00133999 0.00553551 7.219 -1.84821 25 1 
544 1.20397 7.27407 -0.00133623 0.00582268 7.27411 -1.85448 25 1 
548 1.20399 7.34707 -0.00127077 0.00613049 7.34713 -1.82609 25 1 
552 1.20403 7.43771 -0.00130088 0.00636553 7.4378 -1.74475 25 1 
556 1.20409 7.54324 -0.0014383 0.00648527 7.54335 -1.64919 25 1 
560 1.20415 7.66113 -0.00154641 0.00651864 7.66126 -1.54367 25 1 
564 1.20419 7.79066 -0.00164599 0.00650441 7.79081 -1.45638 25 1 
568 1.20423 7.92981 -0.00173784 0.0065615 7.92998 -1.38257 25 1 
572 1.20429 8.076 -0.00183266 0.00667179 8.07618 -1.27673 25 1 
576 1.20434 8.22616 -0.00197939 0.00669661 8.22635 -1.18519 25 1 
576 1.20434 8.22616 -0.00197939 0.00669661 8.22635 -1.18519 26 1 
580 1.20438 8.37783 -0.00216743 0.00661253 8.37801 -1.11924 26 1 
584 1.20442 8.53005 -0.00233479 0.0064979 8.53022 -1.0448 26 1 
588 1.20445 8.68142 -0.00245481 0.00645903 8.68159 -0.994447 26 1 
592 1.20446 8.82862 -0.00251386 0.00650343 8.82877 -0.972956 26 1 
596 1.20448 8.96793 -0.00256961 0.00649496 8.96806 -0.940046 26 1 
600 1.20451 9.09797 -0.00268656 0.00638841 9.09808 -0.890718 26 1 
604 1.20453 9.21819 -0.00284981 0.00621951 9.21828 -0.852402 26 1 
608 1.20453 9.32894 -0.00300474 0.00602288 9.32901 -0.850731 26 1 
608 1.20453 9.32894 -0.00300474 0.00602288 9.32901 -0.850731 26 1 
612 1.20452 9.42827 -0.00306757 0.00593736 9.42833 -0.862154 26 1 
616 1.20452 9.51427 -0.00302664 0.00597013 9.51431 -0.871705 26 1 
620 1.20449 9.58815 -0.00298534 0.00594663 9.58819 -0.91535 26 1 
624 1.20448 9.65171 -0.00308335 0.00574086 9.65173 -0.938803 26 1 
628 1.20451 9.70522 -0.00327573 0.00544294 9.70523 -0.882973 26 1 
632 1.20455 9.74862 -0.00342683 0.00519551 9.74863 -0.806594 26 1 
636 1.20456 9.78429 -0.00351031 0.0050158 9.7843 -0.798285 26 1 
640 1.20451 9.81396 -0.00354917 0.00485881 9.81397 -0.878369 26 1 
644 1.20447 9.8389 -0.00354819 0.00477213 9.8389 -0.955902 26 1 
648 1.20448 9.86033 -0.00351795 0.00479368 9.86033 -0.935818 26 1 
652 1.20453 9.87907 -0.0035438 0.00479914 9.87907 -0.851752 26 1 
656 1.20456 9.89704 -0.00365458 0.00472505 9.89705 -0.790943 26 1 
660 1.20456 9.91239 -0.00386506 0.00455883 9.91239 -0.791981 26 1 
664 1.20455 9.92279 -0.00402338 0.00443164 9.9228 -0.811767 26 1 
668 1.20454 9.93 -0.00401901 0.00441944 9.93 -0.832796 26 1 
672 1.20451 9.93643 -0.00391184 0.00450732 9.93643 -0.885812 26 1 
672 1.20451 9.93643 -0.00391184 0.00450732 9.93643 -0.885812 27 1 
676 1.20451 9.94398 -0.0038524 0.00453643 9.94398 -0.892283 27 1 
680 1.20456 9.95067 -0.00391038 0.00442187 9.95068 -0.786028 27 1 
684 1.20463 9.95653 -0.00403527 0.004227 9.95653 -0.675083 27 1 
688 1.2046 9.96102 -0.004142 0.0040061 9.96102 -0.719394 27 1 
692 1.20454 9.96369 -0.00415189 0.00384077 9.96369 -0.832094 27 1 
696 1.20453 9.96478 -0.0040767 0.00379348 9.96478 -0.850756 27 1 
700 1.20454 9.9657 -0.00396914 0.00374905 9.9657 -0.823064 27 1 
704 1.20456 9.96901 -0.00390244 0.00360718 9.96901 -0.791024 27 1 
704 1.20456 9.96901 -0.00390244 0.00360718 9.96901 -0.791024 31 1 
708 1.2046 9.97266 -0.00390462 0.00341163 9.97266 -0.724931 31 1 
712 1.20462 9.97511 -0.00395448 0.00317575 9.97511 -0.692119 31 1 
716 1.20459 9.97636 -0.00392119 0.0030044 9.97637 -0.740114 31 1 
720 1.20456 9.97635 -0.00381736 0.00288465 9.97635 -0.79687 31 1 
724 1.20456 9.97489 -0.00372497 0.00278053 9.97489 -0.797674 31 1 
728 1.20458 9.97495 -0.00368091 0.00263502 9.97495 -0.764697 31 1 
732 1.20459 9.97739 -0.0036345 0.00249822 9.97739 -0.745885 31 1 
736 1.20459 9.97884 -0.00355374 0.0023788 9.97884 -0.745059 31 1 
740 1.20458 9.97898 -0.00350034 0.00221811 9.97898 -0.764309 31 1 
744 1.20456 9.97694 -0.00344564 0.00209525 9.97694 -0.796862 31 1 
748 1.20458 9.97624 -0.00339641 0.00196625 9.97624 -0.753255 31 1 
752 1.20461 9.97736 -0.00336017 0.00182359 9.97736 -0.712226 31 1 
756 1.20458 9.97682 -0.00335431 0.00165592 9.97682 -0.75756 31 1 
760 1.20456 9.97691 -0.00328804 0.00154928 9.97691 -0.797057 31 1 
764 1.20455 9.97664 -0.00314642 0.00151305 9.97664 -0.816651 31 1 
768 1.20457 9.97555 -0.00310541 0.00139167 9.97555 -0.77642 31 1 
772 1.20461 9.97537 -0.00310394 0.00122136 9.97537 -0.707249 31 1 
776 1.2046 9.97588 -0.00303255 0.00112697 9.97588 -0.719785 31 1 
780 1.20455 9.97549 -0.00296737 0.00103067 9.97549 -0.805449 31 1 
784 1.20455 9.97681 -0.00291176 0.000916783 9.97681 -0.811368 31 1 
788 1.20458 9.97603 -0.00277471 0.000884966 9.97603 -0.760268 31 1 
792 1.20459 9.97335 -0.00269722 0.000793287 9.97335 -0.747287 31 1 
796 1.20461 9.97599 -0.00267953 0.000654322 9.97599 -0.702581 31 1 
800 1.20463 9.97866 -0.00265261 0.000589151 9.97866 -0.663342 31 1 
