97.8099;r ;Density                 ;Velocity u              ;Velocity v              ;Velocity w              ;|Velocity|              ;Pressure                ;Distribution            ;Levels                  ;
0 1.21554 10.0024 0.00013361 0.000267215 10.0024 19.0452 1 1 
4 1.21554 10.0051 0.000129296 0.00040239 10.0051 19.0393 1 1 
8 1.21554 10.0073 5.53617e-05 0.000630395 10.0073 19.0345 1 1 
12 1.21549 10.0096 -3.29977e-05 0.00085039 10.0096 18.9492 1 1 
16 1.21549 10.0114 -7.36059e-06 0.00114569 10.0114 18.9478 1 1 
20 1.2155 10.0131 -0.00012468 0.00130437 10.0131 18.962 1 1 
24 1.21545 10.016 -7.95161e-05 0.00163102 10.016 18.8812 1 1 
28 1.21546 10.0163 -0.000188628 0.00179557 10.0163 18.8969 1 1 
32 1.21542 10.0197 -0.000223922 0.00208023 10.0197 18.8165 1 1 
36 1.21543 10.021 -0.000181784 0.00239417 10.021 18.8305 1 1 
40 1.21542 10.0233 -0.000291133 0.00259563 10.0233 18.8147 1 1 
44 1.21539 10.0249 -0.000326857 0.00284606 10.0249 18.7702 1 1 
48 1.21538 10.0258 -0.00038405 0.00314808 10.0258 18.7407 1 1 
52 1.21535 10.0279 -0.000427534 0.00338983 10.0279 18.6898 1 1 
56 1.21536 10.0281 -0.000484324 0.00361912 10.0281 18.7219 1 1 
60 1.21532 10.0313 -0.000533958 0.0039054 10.0313 18.6429 1 1 
64 1.21534 10.031 -0.000654618 0.00410384 10.031 18.6694 1 1 
64 1.21534 10.031 -0.000654618 0.00410384 10.031 18.6694 2 1 
68 1.2153 10.0339 -0.000621313 0.00447957 10.0339 18.6022 2 1 
72 1.21529 10.0354 -0.000689015 0.00469933 10.0354 18.5898 2 1 
76 1.21528 10.0366 -0.000849522 0.00485768 10.0366 18.573 2 1 
80 1.21527 10.038 -0.000843741 0.00525021 10.038 18.5448 2 1 
84 1.21526 10.0399 -0.00092002 0.00548404 10.0399 18.5398 2 1 
88 1.21524 10.0431 -0.00104513 0.00570685 10.0431 18.4871 2 1 
92 1.21525 10.0444 -0.00100969 0.00607527 10.0444 18.5054 2 1 
96 1.2152 10.048 -0.00122767 0.00621572 10.048 18.4265 2 1 
100 1.21522 10.0471 -0.00116909 0.00658779 10.0471 18.4655 2 1 
104 1.2152 10.0482 -0.00135874 0.00679176 10.0482 18.4255 2 1 
108 1.21517 10.0495 -0.00143577 0.00705073 10.0495 18.3691 2 1 
112 1.21517 10.0515 -0.00148068 0.00736101 10.0515 18.3639 2 1 
116 1.21516 10.0537 -0.00164901 0.00762479 10.0538 18.3462 2 1 
120 1.21513 10.057 -0.00168271 0.00787038 10.057 18.3045 2 1 
124 1.21515 10.0581 -0.00185101 0.0080963 10.0581 18.3259 2 1 
128 1.21514 10.058 -0.00186693 0.00845401 10.058 18.3172 2 1 
128 1.21514 10.058 -0.00186693 0.00845401 10.058 18.3172 10 1 
132 1.21507 10.0615 -0.0020399 0.0086547 10.0615 18.1946 10 1 
136 1.2151 10.0594 -0.00208942 0.00896539 10.0594 18.2488 10 1 
140 1.21509 10.0617 -0.00229015 0.00919484 10.0617 18.2191 10 1 
144 1.21505 10.0637 -0.00235949 0.00956063 10.0637 18.1569 10 1 
148 1.21509 10.0633 -0.00244859 0.00970094 10.0633 18.2262 10 1 
152 1.21505 10.0674 -0.00268293 0.00996058 10.0675 18.1486 10 1 
156 1.21502 10.0683 -0.00267405 0.0103535 10.0683 18.1006 10 1 
160 1.21507 10.0667 -0.00299996 0.0105237 10.0667 18.1974 10 1 
160 1.21507 10.0667 -0.00299996 0.0105237 10.0667 18.1974 10 1 
164 1.215 10.0703 -0.00305685 0.0107793 10.0703 18.0699 10 1 
168 1.21504 10.0689 -0.00329819 0.0110357 10.0689 18.1389 10 1 
172 1.21504 10.0697 -0.00348236 0.0113201 10.0697 18.1307 10 1 
176 1.21498 10.0747 -0.00350136 0.0116057 10.0747 18.0265 10 1 
180 1.21506 10.0704 -0.00362936 0.0121015 10.0704 18.168 10 1 
184 1.21501 10.0719 -0.00386427 0.0122803 10.0719 18.0846 10 1 
188 1.21502 10.0721 -0.00398076 0.0126423 10.0721 18.0977 10 1 
192 1.21503 10.0686 -0.00404103 0.0130151 10.0686 18.1118 10 1 
196 1.21501 10.0699 -0.00452189 0.0130402 10.0699 18.078 10 1 
200 1.21502 10.0703 -0.00440562 0.0135508 10.0703 18.1018 10 1 
204 1.21507 10.0702 -0.00476944 0.0137499 10.0703 18.1838 10 1 
208 1.2151 10.0702 -0.00508708 0.014049 10.0702 18.2474 10 1 
212 1.21506 10.0692 -0.00509429 0.0144814 10.0692 18.1678 10 1 
216 1.21512 10.063 -0.00562823 0.0144598 10.063 18.2876 10 1 
220 1.21515 10.0537 -0.0057297 0.0147514 10.0537 18.3348 10 1 
224 1.2151 10.0493 -0.0057699 0.0152803 10.0494 18.2459 10 1 
224 1.2151 10.0493 -0.0057699 0.0152803 10.0494 18.2459 10 1 
228 1.21523 10.0437 -0.00629884 0.0152302 10.0437 18.478 10 1 
232 1.21526 10.0407 -0.00641326 0.0156386 10.0407 18.5295 10 1 
236 1.2153 10.0337 -0.00656055 0.0161772 10.0337 18.6082 10 1 
240 1.21538 10.0267 -0.0069585 0.016211 10.0268 18.7419 10 1 
244 1.21554 10.0082 -0.00698451 0.0168757 10.0082 19.0326 10 1 
248 1.21564 9.98388 -0.00755616 0.0169346 9.98391 19.2101 10 1 
252 1.2156 9.97429 -0.00789348 0.0171026 9.97432 19.1548 10 1 
256 1.21605 9.93777 -0.00790755 0.0178607 9.93779 19.9508 10 1 
256 1.21605 9.93777 -0.00790755 0.0178607 9.93779 19.9508 11 1 
260 1.21613 9.90413 -0.00822564 0.0180761 9.90417 20.1006 11 1 
264 1.21626 9.87033 -0.00840653 0.0183436 9.87037 20.34 11 1 
268 1.21699 9.80435 -0.00877304 0.0187582 9.80441 21.6544 11 1 
272 1.21748 9.72971 -0.00917522 0.0189603 9.7298 22.5335 11 1 
276 1.21767 9.6425 -0.00938721 0.0192151 9.64266 22.8818 11 1 
280 1.21869 9.4927 -0.00970567 0.0194977 9.49286 24.7227 11 1 
284 1.21987 9.34807 -0.00992278 0.0197903 9.34819 26.8535 11 1 
288 1.22074 9.19106 -0.0101086 0.019979 9.19121 28.4221 11 1 
292 1.2211 9.06224 -0.0105301 0.0202674 9.06251 29.0777 11 1 
296 1.21752 9.30778 -0.0108216 0.0208693 9.30895 22.6208 11 1 
300 1.21206 9.698 -0.0113798 0.0215693 9.699 12.7575 11 1 
304 1.2095 9.73973 -0.0117067 0.0221475 9.74043 8.1369 11 1 
308 1.20955 9.51128 -0.0117578 0.0222024 9.51229 8.22715 11 1 
312 1.21047 9.22597 -0.0118818 0.0221783 9.22671 9.87359 11 1 
316 1.21131 8.96877 -0.0119444 0.0223974 8.96934 11.3944 11 1 
320 1.21194 8.76321 -0.0120791 0.0226712 8.7636 12.5425 11 1 
320 1.21194 8.76321 -0.0120791 0.0226712 8.7636 12.5425 15 1 
324 1.21247 8.58995 -0.0122169 0.0231577 8.59026 13.5005 15 1 
328 1.21289 8.44372 -0.0124355 0.0235078 8.44396 14.2471 15 1 
332 1.21327 8.31828 -0.012627 0.0239946 8.31847 14.9324 15 1 
336 1.21349 8.20243 -0.0127876 0.0247553 8.20256 15.3413 15 1 
340 1.21361 8.10129 -0.013022 0.0254865 8.10141 15.5501 15 1 
344 1.21385 8.01935 -0.0132384 0.0261344 8.01946 15.9872 15 1 
348 1.21404 7.94495 -0.0135005 0.0268012 7.94507 16.3204 15 1 
352 1.21411 7.87375 -0.0137108 0.0275697 7.87386 16.4573 15 1 
356 1.21417 7.80714 -0.0138702 0.0284533 7.80724 16.5671 15 1 
360 1.21424 7.7472 -0.0140828 0.029303 7.7473 16.6868 15 1 
364 1.21435 7.6981 -0.014317 0.0300293 7.69819 16.886 15 1 
368 1.2144 7.65186 -0.0144876 0.0307689 7.65197 16.9803 15 1 
372 1.2144 7.60359 -0.0145995 0.0316607 7.6037 16.9769 15 1 
376 1.21445 7.56012 -0.0147073 0.0326025 7.56022 17.0643 15 1 
380 1.21447 7.52048 -0.0148927 0.0334078 7.52059 17.1011 15 1 
384 1.21447 7.48348 -0.0150984 0.0341862 7.4836 17.1021 15 1 
384 1.21447 7.48348 -0.0150984 0.0341862 7.4836 17.1021 16 1 
388 1.21449 7.44985 -0.015254 0.0350749 7.44998 17.1457 16 1 
392 1.2145 7.41562 -0.0153828 0.0360243 7.41574 17.1616 16 1 
396 1.21449 7.38204 -0.0155631 0.036943 7.38217 17.1469 16 1 
400 1.21447 7.35173 -0.0158164 0.0378657 7.35186 17.1115 16 1 
404 1.21447 7.32303 -0.0160289 0.0387758 7.32317 17.1042 16 1 
408 1.21448 7.29608 -0.0161619 0.0397342 7.29623 17.1244 16 1 
412 1.21447 7.26953 -0.0162681 0.0407279 7.26969 17.101 16 1 
416 1.21444 7.24246 -0.0164254 0.0417582 7.24262 17.0563 16 1 
420 1.21442 7.21671 -0.0166011 0.0428278 7.21687 17.0201 16 1 
424 1.21442 7.1931 -0.0167576 0.0439136 7.19327 17.0076 16 1 
428 1.21441 7.17049 -0.0168451 0.0450082 7.17067 16.9914 16 1 
432 1.21438 7.14757 -0.0169766 0.046224 7.14775 16.9479 16 1 
436 1.21437 7.1249 -0.0171851 0.0474301 7.12509 16.9187 16 1 
440 1.21434 7.10366 -0.0173815 0.0486085 7.10386 16.8754 16 1 
444 1.21432 7.08338 -0.0175676 0.0498306 7.0836 16.8262 16 1 
448 1.21431 7.06423 -0.0177771 0.0510723 7.06445 16.8075 16 1 
448 1.21431 7.06423 -0.0177771 0.0510723 7.06445 16.8075 17 1 
452 1.21428 7.04591 -0.0179585 0.0522748 7.04614 16.7696 17 1 
456 1.21426 7.02766 -0.0182036 0.0534904 7.02791 16.7221 17 1 
460 1.21423 7.01027 -0.0184919 0.0547027 7.01052 16.6748 17 1 
464 1.2142 6.99407 -0.0187204 0.0559244 6.99433 16.6215 17 1 
468 1.21419 6.97887 -0.0189645 0.0571507 6.97914 16.5921 17 1 
472 1.21417 6.96518 -0.0192747 0.0584055 6.96547 16.5567 17 1 
476 1.21414 6.95199 -0.0195745 0.0596943 6.95228 16.5032 17 1 
480 1.21411 6.93895 -0.0198962 0.0610165 6.93925 16.4524 17 1 
484 1.21408 6.92804 -0.0202377 0.0624029 6.92836 16.4045 17 1 
488 1.21406 6.91895 -0.0206033 0.0638563 6.91928 16.3719 17 1 
492 1.21404 6.91058 -0.0209899 0.0653767 6.91093 16.3264 17 1 
496 1.21401 6.90358 -0.0213884 0.0669107 6.90394 16.2762 17 1 
500 1.21399 6.89767 -0.0218278 0.0685349 6.89805 16.2381 17 1 
504 1.21395 6.89264 -0.0222674 0.0702377 6.89303 16.1746 17 1 
508 1.21393 6.88982 -0.0227292 0.0719858 6.89024 16.1283 17 1 
512 1.21391 6.88869 -0.0232104 0.0737408 6.88913 16.1022 17 1 
512 1.21391 6.88869 -0.0232104 0.0737408 6.88913 16.1022 25 1 
516 1.21388 6.88796 -0.0237189 0.0755809 6.88842 16.0418 25 1 
520 1.21385 6.88801 -0.024249 0.0774588 6.88849 15.9823 25 1 
524 1.21382 6.88921 -0.0247793 0.0793704 6.88971 15.9318 25 1 
528 1.21379 6.89196 -0.0253497 0.081315 6.89248 15.8757 25 1 
532 1.21376 6.89572 -0.025957 0.0832802 6.89627 15.828 25 1 
536 1.21373 6.89958 -0.0265421 0.0852822 6.90016 15.7666 25 1 
540 1.21369 6.90375 -0.027183 0.0873411 6.90435 15.6955 25 1 
544 1.21365 6.90845 -0.0278297 0.089402 6.90909 15.6296 25 1 
548 1.21362 6.91419 -0.0284951 0.0915135 6.91485 15.5619 25 1 
552 1.21358 6.92072 -0.0291695 0.0936801 6.92141 15.5027 25 1 
556 1.21354 6.92722 -0.0298694 0.0958435 6.92795 15.4274 25 1 
560 1.2135 6.93362 -0.0305925 0.0980812 6.93438 15.3445 25 1 
564 1.21345 6.94094 -0.0313173 0.100302 6.94174 15.2704 25 1 
568 1.21341 6.94899 -0.0320771 0.102548 6.94982 15.191 25 1 
572 1.21337 6.95761 -0.0328381 0.104813 6.95848 15.1169 25 1 
576 1.21333 6.96636 -0.0336259 0.107042 6.96727 15.0398 25 1 
576 1.21333 6.96636 -0.0336259 0.107042 6.96727 15.0398 26 1 
580 1.21327 6.97503 -0.034449 0.10931 6.97597 14.9454 26 1 
584 1.21323 6.98427 -0.0352814 0.111563 6.98525 14.8619 26 1 
588 1.21318 6.99421 -0.0361431 0.113818 6.99523 14.78 26 1 
592 1.21314 7.00441 -0.0370517 0.116066 7.00547 14.6951 26 1 
596 1.21309 7.01479 -0.0379357 0.118315 7.01589 14.6098 26 1 
600 1.21304 7.02531 -0.0388778 0.120571 7.02646 14.5168 26 1 
604 1.21299 7.03608 -0.0398255 0.122877 7.03727 14.4285 26 1 
608 1.21294 7.04781 -0.0407802 0.12512 7.04904 14.3372 26 1 
608 1.21294 7.04781 -0.0407802 0.12512 7.04904 14.3372 26 1 
612 1.21289 7.05971 -0.0417533 0.127375 7.06098 14.2541 26 1 
616 1.21284 7.07207 -0.0427225 0.129711 7.07339 14.1648 26 1 
620 1.21279 7.08461 -0.0437139 0.131952 7.08598 14.0728 26 1 
624 1.21274 7.09757 -0.0446782 0.134291 7.09898 13.9839 26 1 
628 1.21269 7.11119 -0.0456276 0.136586 7.11265 13.8958 26 1 
632 1.21265 7.12517 -0.0465879 0.138884 7.12668 13.8123 26 1 
636 1.2126 7.13957 -0.0475281 0.141215 7.14112 13.7284 26 1 
640 1.21255 7.15407 -0.0484454 0.143552 7.15567 13.642 26 1 
644 1.21251 7.16881 -0.0493375 0.14592 7.17047 13.5567 26 1 
648 1.21246 7.18403 -0.0502059 0.148213 7.18574 13.48 26 1 
652 1.21242 7.19949 -0.050998 0.150634 7.20125 13.3981 26 1 
656 1.21238 7.21472 -0.051819 0.152941 7.21653 13.3243 26 1 
660 1.21233 7.23045 -0.0525916 0.155309 7.23232 13.2449 26 1 
664 1.21229 7.24565 -0.0532666 0.157627 7.24756 13.1722 26 1 
668 1.21225 7.26103 -0.054014 0.159988 7.26299 13.1006 26 1 
672 1.21221 7.27669 -0.0545983 0.162335 7.27871 13.0245 26 1 
672 1.21221 7.27669 -0.0545983 0.162335 7.27871 13.0245 27 1 
676 1.21218 7.29154 -0.0551494 0.164587 7.29361 12.9666 27 1 
680 1.21214 7.30696 -0.0558198 0.16707 7.30909 12.8888 27 1 
684 1.2121 7.32119 -0.0562189 0.169058 7.32336 12.8258 27 1 
688 1.21206 7.33597 -0.0568172 0.171502 7.3382 12.7555 27 1 
692 1.21203 7.34997 -0.057222 0.173536 7.35224 12.6941 27 1 
696 1.21199 7.36421 -0.0576268 0.175769 7.36653 12.6264 27 1 
700 1.21196 7.37809 -0.05814 0.177989 7.38047 12.5636 27 1 
704 1.21192 7.39136 -0.0584779 0.17998 7.39379 12.4995 27 1 
704 1.21192 7.39136 -0.0584779 0.17998 7.39379 12.4995 31 1 
708 1.21188 7.40435 -0.0588204 0.182002 7.40682 12.4316 31 1 
712 1.21184 7.41724 -0.0591594 0.183773 7.41975 12.3634 31 1 
716 1.21181 7.42956 -0.0593603 0.18581 7.43212 12.3018 31 1 
720 1.21178 7.44158 -0.0596095 0.187909 7.44419 12.2381 31 1 
724 1.21173 7.45427 -0.059983 0.189627 7.45693 12.1498 31 1 
728 1.2117 7.46504 -0.0600545 0.191418 7.46774 12.1025 31 1 
732 1.21165 7.47683 -0.0602272 0.193734 7.47959 12.0198 31 1 
736 1.21161 7.48848 -0.0603939 0.194672 7.49126 11.9349 31 1 
740 1.21158 7.49888 -0.0603474 0.196956 7.50171 11.8857 31 1 
744 1.21153 7.51027 -0.0602255 0.198645 7.51314 11.7892 31 1 
748 1.21148 7.5208 -0.0605157 0.200991 7.52373 11.7029 31 1 
752 1.21143 7.53283 -0.0597061 0.202935 7.5358 11.607 31 1 
756 1.21139 7.54288 -0.0599892 0.204572 7.5459 11.5505 31 1 
760 1.21131 7.55707 -0.0606605 0.207318 7.56016 11.3908 31 1 
764 1.21126 7.57084 -0.0605232 0.209311 7.57397 11.2998 31 1 
768 1.21121 7.58458 -0.0607289 0.211344 7.58777 11.2211 31 1 
772 1.2111 7.60077 -0.0602232 0.215797 7.60408 11.0116 31 1 
776 1.21099 7.61747 -0.059687 0.221656 7.62093 10.8204 31 1 
780 1.21085 7.64467 -0.0610737 0.223872 7.6482 10.5744 31 1 
784 1.21076 7.67241 -0.0639102 0.228351 7.67608 10.4051 31 1 
788 1.21049 7.71662 -0.0645842 0.236867 7.72054 9.9123 31 1 
792 1.21022 7.76649 -0.0654333 0.251503 7.77087 9.43664 31 1 
796 1.20981 7.84401 -0.0691796 0.271923 7.84908 8.69171 31 1 
800 1.20943 7.90267 -0.0716706 0.282261 7.9081 8.00754 31 1 
