122.262;r ;Density                 ;Velocity u              ;Velocity v              ;Velocity w              ;|Velocity|              ;Pressure                ;Distribution            ;Levels                  ;
0 1.20245 10.0022 0.000153419 0.000401833 10.0022 -4.61239 1 1 
4 1.20245 10.0045 0.000130362 0.0004934 10.0045 -4.61286 1 1 
8 1.20245 10.0062 5.4375e-05 0.000827141 10.0062 -4.6091 1 1 
12 1.20241 10.008 -3.69004e-05 0.00111698 10.008 -4.68555 1 1 
16 1.20241 10.0093 -4.90807e-06 0.00151162 10.0093 -4.6772 1 1 
20 1.20242 10.0104 -0.000122035 0.00175597 10.0104 -4.65186 1 1 
24 1.20239 10.0128 -7.94242e-05 0.00217126 10.0128 -4.72143 1 1 
28 1.2024 10.0126 -0.00018678 0.00242225 10.0126 -4.69558 1 1 
32 1.20236 10.0154 -0.000217972 0.00278385 10.0155 -4.7639 1 1 
36 1.20238 10.0162 -0.000179687 0.00317692 10.0162 -4.73876 1 1 
40 1.20237 10.018 -0.00029533 0.0034744 10.018 -4.74263 1 1 
44 1.20236 10.0191 -0.000320294 0.00381121 10.0191 -4.77593 1 1 
48 1.20235 10.0195 -0.000353411 0.00420075 10.0195 -4.79357 1 1 
52 1.20232 10.0212 -0.000385448 0.00455172 10.0212 -4.83242 1 1 
56 1.20235 10.0209 -0.000435655 0.00490523 10.0209 -4.78889 1 1 
60 1.20231 10.0236 -0.000461633 0.00529522 10.0236 -4.85485 1 1 
64 1.20233 10.023 -0.000552664 0.00559003 10.023 -4.81701 1 1 
64 1.20233 10.023 -0.000552664 0.00559003 10.023 -4.81701 2 1 
68 1.2023 10.0254 -0.000509902 0.00608432 10.0254 -4.87213 2 1 
72 1.2023 10.0266 -0.000568454 0.00644298 10.0266 -4.87205 2 1 
76 1.2023 10.0274 -0.000699784 0.00671237 10.0274 -4.87507 2 1 
80 1.20229 10.0284 -0.000658245 0.00720791 10.0284 -4.88983 2 1 
84 1.2023 10.0299 -0.00071404 0.00757975 10.0299 -4.88157 2 1 
88 1.20228 10.0327 -0.000813106 0.0079565 10.0327 -4.91989 2 1 
92 1.20229 10.0336 -0.000737039 0.00845792 10.0336 -4.8873 2 1 
96 1.20226 10.0369 -0.00091651 0.00871874 10.0369 -4.95039 2 1 
100 1.20229 10.0356 -0.00082714 0.00924799 10.0356 -4.89682 2 1 
104 1.20228 10.0363 -0.000970551 0.00963637 10.0363 -4.92073 2 1 
108 1.20225 10.0372 -0.000992791 0.0100454 10.0372 -4.96057 2 1 
112 1.20226 10.0387 -0.000991013 0.0104976 10.0387 -4.94973 2 1 
116 1.20226 10.0406 -0.00111299 0.0109428 10.0406 -4.95004 2 1 
120 1.20225 10.0434 -0.00108498 0.0114002 10.0434 -4.9749 2 1 
124 1.20227 10.044 -0.00119281 0.0118022 10.044 -4.93713 2 1 
128 1.20227 10.0435 -0.00116318 0.0123253 10.0435 -4.92883 2 1 
128 1.20227 10.0435 -0.00116318 0.0123253 10.0435 -4.92883 10 1 
132 1.20221 10.0466 -0.00128063 0.0127202 10.0466 -5.03324 10 1 
136 1.20225 10.044 -0.00125277 0.0132523 10.0441 -4.96225 10 1 
140 1.20225 10.0458 -0.0013747 0.0136931 10.0458 -4.97546 10 1 
144 1.20222 10.0474 -0.00138095 0.0142645 10.0474 -5.0205 10 1 
148 1.20227 10.0465 -0.00139579 0.0146488 10.0465 -4.93639 10 1 
152 1.20223 10.0501 -0.001539 0.0151683 10.0501 -4.998 10 1 
156 1.20222 10.0504 -0.00143638 0.0158255 10.0504 -5.02924 10 1 
160 1.20228 10.0484 -0.00167237 0.0162436 10.0484 -4.91775 10 1 
160 1.20228 10.0484 -0.00167237 0.0162436 10.0484 -4.91775 10 1 
164 1.20222 10.0516 -0.00162977 0.0167401 10.0516 -5.02858 10 1 
168 1.20226 10.0496 -0.00175528 0.0172934 10.0496 -4.94683 10 1 
172 1.20226 10.0499 -0.00183989 0.0178774 10.0499 -4.94082 10 1 
176 1.20222 10.0545 -0.00178561 0.0184278 10.0545 -5.02973 10 1 
180 1.2023 10.0498 -0.00184392 0.0191702 10.0499 -4.87467 10 1 
184 1.20226 10.0508 -0.00199974 0.0196325 10.0508 -4.94263 10 1 
188 1.20228 10.0506 -0.00204658 0.0202833 10.0506 -4.91555 10 1 
192 1.20229 10.0467 -0.00202384 0.0209254 10.0467 -4.88658 10 1 
196 1.20228 10.0475 -0.00240007 0.0212359 10.0476 -4.90459 10 1 
200 1.20231 10.0475 -0.00215707 0.0221287 10.0475 -4.86346 10 1 
204 1.20236 10.047 -0.00239016 0.0227408 10.047 -4.76564 10 1 
208 1.20241 10.0466 -0.0025736 0.0234048 10.0466 -4.68488 10 1 
212 1.20237 10.0451 -0.00244386 0.0241971 10.0451 -4.74501 10 1 
216 1.20245 10.0385 -0.00285255 0.0245783 10.0385 -4.60614 10 1 
220 1.20249 10.0287 -0.00281906 0.0252653 10.0288 -4.53846 10 1 
224 1.20245 10.0239 -0.00272261 0.0261295 10.0239 -4.60346 10 1 
224 1.20245 10.0239 -0.00272261 0.0261295 10.0239 -4.60346 10 1 
228 1.20259 10.0178 -0.0031306 0.0264549 10.0179 -4.3498 10 1 
232 1.20263 10.0144 -0.00314199 0.0272623 10.0144 -4.2747 10 1 
236 1.20269 10.0068 -0.00317032 0.0281888 10.0069 -4.17078 10 1 
240 1.20278 9.99943 -0.00346556 0.0285385 9.99948 -4.01113 10 1 
244 1.20295 9.98041 -0.00340955 0.0295821 9.98047 -3.69459 10 1 
248 1.20307 9.95564 -0.00390891 0.0300195 9.9557 -3.49073 10 1 
252 1.20305 9.94564 -0.00415828 0.030548 9.94569 -3.5136 10 1 
256 1.20351 9.90868 -0.0041043 0.0316376 9.90874 -2.69558 10 1 
256 1.20351 9.90868 -0.0041043 0.0316376 9.90874 -2.69558 11 1 
260 1.20361 9.87463 -0.00439198 0.0321653 9.87471 -2.51569 11 1 
264 1.20376 9.84039 -0.00452303 0.0327853 9.84047 -2.2436 11 1 
268 1.2045 9.77392 -0.00482132 0.0335488 9.77402 -0.911268 11 1 
272 1.205 9.69889 -0.00518266 0.0340525 9.69902 -0.00831157 11 1 
276 1.20521 9.6112 -0.00537049 0.0345871 9.6114 0.372737 11 1 
280 1.20623 9.46102 -0.00564622 0.0351639 9.46121 2.23012 11 1 
284 1.20742 9.31591 -0.00583175 0.0357137 9.31606 4.37093 11 1 
288 1.2083 9.15838 -0.00602308 0.0360584 9.15857 5.95774 11 1 
292 1.20868 9.02956 -0.00641039 0.0366874 9.02988 6.64324 11 1 
296 1.20516 9.27598 -0.00664376 0.0377112 9.27721 0.290992 11 1 
300 1.19978 9.66721 -0.00710406 0.039038 9.66827 -9.43469 11 1 
304 1.19726 9.70872 -0.00738532 0.0400392 9.70948 -13.9773 11 1 
308 1.19733 9.47936 -0.00750346 0.040052 9.48042 -13.8542 11 1 
312 1.19825 9.19314 -0.00770601 0.0399742 9.19394 -12.1873 11 1 
316 1.19911 8.9353 -0.00782903 0.0402535 8.93593 -10.6441 11 1 
320 1.19976 8.72944 -0.00802046 0.0406393 8.7299 -9.46867 11 1 
320 1.19976 8.72944 -0.00802046 0.0406393 8.7299 -9.46867 15 1 
324 1.2003 8.55618 -0.00820113 0.0413242 8.55656 -8.48121 15 1 
328 1.20074 8.41031 -0.00846943 0.0418667 8.41061 -7.702 15 1 
332 1.20113 8.28543 -0.00869477 0.0426214 8.28569 -6.98325 15 1 
336 1.20138 8.17045 -0.00886871 0.0437424 8.17066 -6.53713 15 1 
340 1.20152 8.07048 -0.00910957 0.0448699 8.07068 -6.28869 15 1 
344 1.20178 7.98996 -0.00933777 0.0458845 7.99016 -5.81442 15 1 
348 1.20199 7.91724 -0.0096055 0.0469457 7.91745 -5.44223 15 1 
352 1.20209 7.84794 -0.00981338 0.0481363 7.84814 -5.26424 15 1 
356 1.20217 7.78346 -0.00996558 0.0494743 7.78366 -5.1129 15 1 
360 1.20226 7.72587 -0.0101735 0.0507696 7.72607 -4.95173 15 1 
364 1.20239 7.67933 -0.0104136 0.0519033 7.67954 -4.71106 15 1 
368 1.20247 7.63587 -0.0106043 0.0530217 7.63609 -4.57368 15 1 
372 1.20249 7.59062 -0.0107428 0.0543049 7.59084 -4.53297 15 1 
376 1.20256 7.55042 -0.0108818 0.0556577 7.55064 -4.40179 15 1 
380 1.20261 7.51426 -0.0111068 0.0568682 7.51449 -4.32109 15 1 
384 1.20263 7.48094 -0.0113588 0.0580399 7.4812 -4.27589 15 1 
384 1.20263 7.48094 -0.0113588 0.0580399 7.4812 -4.27589 16 1 
388 1.20268 7.45111 -0.0115642 0.0593026 7.45138 -4.18795 16 1 
392 1.20272 7.42077 -0.0117378 0.0606496 7.42104 -4.12667 16 1 
396 1.20273 7.39114 -0.0119594 0.0620015 7.39143 -4.09583 16 1 
400 1.20274 7.36487 -0.0122624 0.0633793 7.36517 -4.08521 16 1 
404 1.20276 7.34034 -0.0125368 0.0647027 7.34066 -4.04691 16 1 
408 1.2028 7.31779 -0.0127347 0.0660928 7.31812 -3.98069 16 1 
412 1.20281 7.29596 -0.0129088 0.0675492 7.2963 -3.95659 16 1 
416 1.20281 7.2739 -0.0131357 0.0690683 7.27425 -3.95359 16 1 
420 1.20282 7.2535 -0.0133868 0.0706203 7.25387 -3.94103 16 1 
424 1.20284 7.23547 -0.0136157 0.072183 7.23586 -3.9051 16 1 
428 1.20286 7.21869 -0.0137761 0.0737453 7.21909 -3.87244 16 1 
432 1.20286 7.20167 -0.0139729 0.0754537 7.20209 -3.86593 16 1 
436 1.20287 7.18486 -0.0142434 0.0771467 7.1853 -3.84475 16 1 
440 1.20288 7.16932 -0.0144966 0.0787976 7.16978 -3.83729 16 1 
444 1.20288 7.15447 -0.0147376 0.0804887 7.15495 -3.83504 16 1 
448 1.2029 7.14045 -0.0150011 0.0822051 7.14095 -3.8019 16 1 
448 1.2029 7.14045 -0.0150011 0.0822051 7.14095 -3.8019 17 1 
452 1.2029 7.12679 -0.0152367 0.0838634 7.12732 -3.78854 17 1 
456 1.20291 7.11283 -0.0155401 0.0855502 7.11338 -3.78352 17 1 
460 1.20291 7.09929 -0.0158848 0.0872357 7.09985 -3.77751 17 1 
464 1.20291 7.08656 -0.0161736 0.0889453 7.08714 -3.77659 17 1 
468 1.20292 7.0744 -0.0164793 0.0906484 7.07501 -3.75114 17 1 
472 1.20293 7.06325 -0.0168513 0.0923855 7.06389 -3.73145 17 1 
476 1.20294 7.05216 -0.0172118 0.0941624 7.05282 -3.72883 17 1 
480 1.20294 7.04065 -0.0175917 0.0959737 7.04134 -3.72338 17 1 
484 1.20294 7.03083 -0.018 0.0978535 7.03155 -3.71348 17 1 
488 1.20296 7.02229 -0.01843 0.0998024 7.02303 -3.68771 17 1 
492 1.20297 7.01393 -0.0188879 0.10183 7.01471 -3.67406 17 1 
496 1.20297 7.00644 -0.0193645 0.103852 7.00724 -3.66475 17 1 
500 1.20298 6.99947 -0.0198836 0.105998 7.0003 -3.64274 17 1 
504 1.20298 6.9929 -0.0203996 0.10823 6.99378 -3.6447 17 1 
508 1.20299 6.988 -0.0209402 0.110532 6.98891 -3.6286 17 1 
512 1.20301 6.98432 -0.0214986 0.112856 6.98527 -3.59138 17 1 
512 1.20301 6.98432 -0.0214986 0.112856 6.98527 -3.59138 25 1 
516 1.20301 6.98051 -0.0220776 0.115301 6.9815 -3.5888 25 1 
520 1.20302 6.97708 -0.0226783 0.117825 6.97812 -3.58393 25 1 
524 1.20302 6.97451 -0.0232718 0.120431 6.97559 -3.56933 25 1 
528 1.20303 6.97321 -0.0239101 0.123108 6.97434 -3.55862 25 1 
532 1.20304 6.97275 -0.0245923 0.125839 6.97393 -3.5381 25 1 
536 1.20304 6.97218 -0.0252469 0.128624 6.97341 -3.53179 25 1 
540 1.20304 6.97183 -0.0259666 0.131521 6.97312 -3.53325 25 1 
544 1.20305 6.97191 -0.0266946 0.134424 6.97326 -3.5295 25 1 
548 1.20305 6.97289 -0.0274513 0.137416 6.9743 -3.52627 25 1 
552 1.20305 6.97458 -0.0282299 0.140488 6.97606 -3.51336 25 1 
556 1.20305 6.97616 -0.0290447 0.143578 6.97769 -3.51661 25 1 
560 1.20305 6.97756 -0.0299013 0.14682 6.97916 -3.52624 25 1 
564 1.20305 6.97987 -0.0307699 0.150057 6.98155 -3.52677 25 1 
568 1.20305 6.98291 -0.031681 0.153393 6.98467 -3.53113 25 1 
572 1.20305 6.9866 -0.0326013 0.156789 6.98843 -3.5303 25 1 
576 1.20304 6.99045 -0.0335409 0.160171 6.99237 -3.53156 25 1 
576 1.20304 6.99045 -0.0335409 0.160171 6.99237 -3.53156 26 1 
580 1.20304 6.99423 -0.0345055 0.163669 6.99623 -3.54871 26 1 
584 1.20303 6.99863 -0.0354694 0.16717 7.00072 -3.55594 26 1 
588 1.20303 7.00373 -0.0364419 0.170719 7.00591 -3.55866 26 1 
592 1.20303 7.00908 -0.0374476 0.174316 7.01135 -3.56514 26 1 
596 1.20302 7.01457 -0.0384114 0.177958 7.01693 -3.57209 26 1 
600 1.20302 7.02013 -0.0394254 0.181669 7.02259 -3.58397 26 1 
604 1.20301 7.026 -0.0404391 0.185495 7.02857 -3.59277 26 1 
608 1.20301 7.03288 -0.041463 0.189297 7.03555 -3.60185 26 1 
608 1.20301 7.03288 -0.041463 0.189297 7.03555 -3.60185 26 1 
612 1.20301 7.04004 -0.0425173 0.193182 7.04282 -3.60269 26 1 
616 1.203 7.0478 -0.0435794 0.197197 7.0507 -3.61003 26 1 
620 1.203 7.05592 -0.0446799 0.201144 7.05893 -3.61921 26 1 
624 1.20299 7.0647 -0.0457652 0.205248 7.06783 -3.62538 26 1 
628 1.20299 7.07451 -0.0468692 0.209305 7.07776 -3.62871 26 1 
632 1.20299 7.08501 -0.0479892 0.213383 7.08838 -3.62963 26 1 
636 1.20299 7.09623 -0.0491231 0.217528 7.09973 -3.62833 26 1 
640 1.20299 7.10783 -0.0502405 0.221633 7.11146 -3.63047 26 1 
644 1.20299 7.12014 -0.0513594 0.225799 7.1239 -3.63489 26 1 
648 1.20299 7.13326 -0.0524642 0.229841 7.13715 -3.6252 26 1 
652 1.20299 7.14697 -0.0535342 0.234026 7.151 -3.62394 26 1 
656 1.203 7.161 -0.054633 0.238031 7.16516 -3.61617 26 1 
660 1.203 7.17564 -0.0557194 0.242142 7.17994 -3.61075 26 1 
664 1.20301 7.19034 -0.0567166 0.246101 7.19478 -3.60291 26 1 
668 1.20301 7.20556 -0.057797 0.250135 7.21013 -3.59321 26 1 
672 1.20301 7.22144 -0.0587379 0.254136 7.22615 -3.58685 26 1 
672 1.20301 7.22144 -0.0587379 0.254136 7.22615 -3.58685 27 1 
676 1.20303 7.23705 -0.0596122 0.257965 7.24189 -3.56365 27 1 
680 1.20303 7.25337 -0.0606433 0.262155 7.25836 -3.55994 27 1 
684 1.20304 7.26915 -0.0613664 0.265675 7.27427 -3.54299 27 1 
688 1.20304 7.28559 -0.0622887 0.269793 7.29085 -3.53156 27 1 
692 1.20306 7.30179 -0.062988 0.273395 7.30718 -3.51306 27 1 
696 1.20306 7.31836 -0.0636749 0.277154 7.32389 -3.49824 27 1 
700 1.20307 7.33509 -0.0644543 0.281025 7.34075 -3.48235 27 1 
704 1.20308 7.35134 -0.0650235 0.284587 7.35714 -3.45984 27 1 
704 1.20308 7.35134 -0.0650235 0.284587 7.35714 -3.45984 31 1 
708 1.20309 7.36741 -0.0655826 0.288143 7.37334 -3.44669 31 1 
712 1.2031 7.38406 -0.0661485 0.29138 7.39011 -3.43586 31 1 
716 1.20311 7.40008 -0.0665431 0.29493 7.40625 -3.40769 31 1 
720 1.20313 7.41624 -0.0669798 0.298538 7.42255 -3.38576 31 1 
724 1.20312 7.43305 -0.0675596 0.30176 7.43949 -3.38973 31 1 
728 1.20314 7.44844 -0.0678382 0.304937 7.45499 -3.35189 31 1 
732 1.20315 7.46461 -0.0682289 0.30871 7.4713 -3.33818 31 1 
736 1.20315 7.48115 -0.0685894 0.310825 7.48792 -3.34393 31 1 
740 1.20317 7.49695 -0.068854 0.314614 7.50387 -3.30516 31 1 
744 1.20318 7.51286 -0.0689584 0.317536 7.51989 -3.29126 31 1 
748 1.20317 7.52925 -0.0695212 0.321464 7.53644 -3.30215 31 1 
752 1.20317 7.54668 -0.0691729 0.324405 7.55397 -3.30716 31 1 
756 1.2032 7.56191 -0.0697413 0.327459 7.56932 -3.24766 31 1 
760 1.20316 7.58174 -0.070737 0.331986 7.58934 -3.3187 31 1 
764 1.20316 7.60093 -0.0709259 0.335335 7.60866 -3.33225 31 1 
768 1.20318 7.61989 -0.0717356 0.338576 7.62776 -3.28691 31 1 
772 1.20312 7.64164 -0.0716816 0.344304 7.64974 -3.38738 31 1 
776 1.20307 7.66314 -0.0718742 0.35327 7.67162 -3.48084 31 1 
780 1.20299 7.69414 -0.073976 0.35773 7.70282 -3.62175 31 1 
784 1.20297 7.72681 -0.0775933 0.365391 7.73585 -3.67222 31 1 
788 1.2028 7.77266 -0.07921 0.377456 7.78224 -3.98008 31 1 
792 1.2026 7.82292 -0.0814722 0.398318 7.83351 -4.34063 31 1 
796 1.20227 7.89793 -0.0867054 0.427038 7.91 -4.92288 31 1 
800 1.20198 7.9529 -0.0893644 0.440583 7.96565 -5.46313 31 1 
