48.905;r ;Density                 ;Velocity u              ;Velocity v              ;Velocity w              ;|Velocity|              ;Pressure                ;Distribution            ;Levels                  ;
0 1.20164 9.99974 9.83198e-05 -2.74477e-05 9.99974 -6.07222 1 1 
4 1.20165 9.99982 2.04943e-05 -6.01104e-05 9.99982 -6.04806 1 1 
8 1.20165 9.99893 -0.000188461 -0.000310686 9.99893 -6.04328 1 1 
12 1.20162 9.99929 -0.000407888 -0.000498351 9.99929 -6.09603 1 1 
16 1.20165 9.99856 -0.000494607 -0.000637088 9.99856 -6.04696 1 1 
20 1.20169 9.99671 -0.000704998 -0.000876255 9.99671 -5.98325 1 1 
24 1.20166 9.99691 -0.000812366 -0.000999887 9.99691 -6.03069 1 1 
28 1.20169 9.99578 -0.00101222 -0.00123438 9.99578 -5.9824 1 1 
32 1.20171 9.99614 -0.00116328 -0.00137678 9.99614 -5.94802 1 1 
36 1.20173 9.9957 -0.00123036 -0.00146125 9.9957 -5.91282 1 1 
40 1.20176 9.99355 -0.00144041 -0.00169886 9.99355 -5.8437 1 1 
44 1.20178 9.99092 -0.00157014 -0.00185129 9.99092 -5.8144 1 1 
48 1.20179 9.98985 -0.00170826 -0.0019705 9.98985 -5.79348 1 1 
52 1.20183 9.98745 -0.00181158 -0.00212048 9.98745 -5.71718 1 1 
56 1.20188 9.98477 -0.00196183 -0.00225158 9.98477 -5.64283 1 1 
60 1.2019 9.98465 -0.00213277 -0.00241579 9.98465 -5.60507 1 1 
64 1.20196 9.98129 -0.00228679 -0.00262103 9.98129 -5.49092 1 1 
64 1.20196 9.98129 -0.00228679 -0.00262103 9.98129 -5.49092 2 1 
68 1.20198 9.97974 -0.00236315 -0.00267552 9.97975 -5.4576 2 1 
72 1.20202 9.97784 -0.00251489 -0.00283156 9.97784 -5.38923 2 1 
76 1.20206 9.9752 -0.00271504 -0.00311816 9.9752 -5.31202 2 1 
80 1.2021 9.97245 -0.00281272 -0.00320843 9.97245 -5.24472 2 1 
84 1.20211 9.97233 -0.00293508 -0.00333505 9.97233 -5.21763 2 1 
88 1.20216 9.97181 -0.00312231 -0.00353471 9.97181 -5.12768 2 1 
92 1.20223 9.97028 -0.00324149 -0.00370679 9.97028 -5.01094 2 1 
96 1.20224 9.97025 -0.00347832 -0.00399751 9.97025 -4.98635 2 1 
100 1.20231 9.96527 -0.0035176 -0.00402317 9.96527 -4.85092 2 1 
104 1.20232 9.96238 -0.00380656 -0.00427927 9.96239 -4.83578 2 1 
108 1.20233 9.96111 -0.00395661 -0.00454137 9.96111 -4.82141 2 1 
112 1.20239 9.95975 -0.00411053 -0.00478161 9.95976 -4.72229 2 1 
116 1.20243 9.95972 -0.00438515 -0.00494091 9.95972 -4.64679 2 1 
120 1.20247 9.95988 -0.00449216 -0.00515584 9.95988 -4.56293 2 1 
124 1.20254 9.95623 -0.00470137 -0.00545671 9.95623 -4.44249 2 1 
128 1.20255 9.9538 -0.00486358 -0.00562708 9.9538 -4.42772 2 1 
128 1.20255 9.9538 -0.00486358 -0.00562708 9.9538 -4.42772 10 1 
132 1.20255 9.95249 -0.00503853 -0.00580576 9.95249 -4.42729 10 1 
136 1.20264 9.94682 -0.00519343 -0.00605278 9.94683 -4.26693 10 1 
140 1.20265 9.94743 -0.00550167 -0.00638642 9.94744 -4.23812 10 1 
144 1.20269 9.94576 -0.00557198 -0.00655857 9.94576 -4.17239 10 1 
148 1.20277 9.94235 -0.0057458 -0.00690893 9.94236 -4.02531 10 1 
152 1.20277 9.94393 -0.00606146 -0.00715117 9.94394 -4.02235 10 1 
156 1.20282 9.93973 -0.00612598 -0.00735131 9.93974 -3.92873 10 1 
160 1.20291 9.93458 -0.00647247 -0.00772447 9.93458 -3.77893 10 1 
160 1.20291 9.93458 -0.00647247 -0.00772447 9.93458 -3.77893 10 1 
164 1.2029 9.93537 -0.00662345 -0.00803443 9.93537 -3.80053 10 1 
168 1.203 9.92976 -0.00686844 -0.0082657 9.92977 -3.61217 10 1 
172 1.20304 9.9268 -0.00708975 -0.00858634 9.92681 -3.53989 10 1 
176 1.20302 9.92928 -0.0071894 -0.00889102 9.92929 -3.56979 10 1 
180 1.20319 9.921 -0.00738027 -0.00898841 9.921 -3.27345 10 1 
184 1.20319 9.91852 -0.00776648 -0.00945453 9.91853 -3.26456 10 1 
188 1.20323 9.91484 -0.00788643 -0.00958103 9.91485 -3.20442 10 1 
192 1.20334 9.9038 -0.00804705 -0.00987383 9.90381 -2.98975 10 1 
196 1.20335 9.90254 -0.00853405 -0.0104033 9.90255 -2.98715 10 1 
200 1.20342 9.90239 -0.0085712 -0.0105099 9.9024 -2.85225 10 1 
204 1.2036 9.89571 -0.00895133 -0.0107999 9.89572 -2.53405 10 1 
208 1.20367 9.88926 -0.00921347 -0.011034 9.88927 -2.39964 10 1 
212 1.20366 9.88199 -0.00932507 -0.0111923 9.88201 -2.42787 10 1 
216 1.20385 9.86468 -0.00975303 -0.0115794 9.8647 -2.07327 10 1 
220 1.20395 9.84953 -0.00987122 -0.0118322 9.84954 -1.89306 10 1 
224 1.20392 9.84101 -0.0099507 -0.0118881 9.84102 -1.95391 10 1 
224 1.20392 9.84101 -0.0099507 -0.0118881 9.84102 -1.95391 10 1 
228 1.20423 9.8262 -0.0104019 -0.0123689 9.82622 -1.39211 10 1 
232 1.20438 9.81619 -0.0105295 -0.0123865 9.81621 -1.12034 10 1 
236 1.20447 9.79832 -0.0107895 -0.0124838 9.79835 -0.956727 10 1 
240 1.20469 9.77417 -0.0108785 -0.0126874 9.7742 -0.553402 10 1 
244 1.20498 9.74006 -0.0110516 -0.0127452 9.74009 -0.0394787 10 1 
248 1.20523 9.69705 -0.0117886 -0.0133011 9.69708 0.41618 10 1 
252 1.20535 9.66596 -0.0118791 -0.0134334 9.66599 0.627709 10 1 
256 1.20599 9.61115 -0.0119062 -0.0131682 9.61119 1.79158 10 1 
256 1.20599 9.61115 -0.0119062 -0.0131682 9.61119 1.79158 11 1 
260 1.20643 9.54384 -0.0122722 -0.0134537 9.54391 2.58837 11 1 
264 1.20664 9.47494 -0.0124681 -0.0136149 9.47501 2.9591 11 1 
268 1.20774 9.36551 -0.0128303 -0.0135739 9.36562 4.94452 11 1 
272 1.20882 9.22573 -0.0131576 -0.013839 9.22594 6.90711 11 1 
276 1.20941 9.05228 -0.0133149 -0.013821 9.05277 7.96938 11 1 
280 1.21082 8.80552 -0.0136075 -0.0137153 8.80606 10.51 11 1 
284 1.213 8.5261 -0.0136651 -0.0135446 8.52653 14.451 11 1 
288 1.21529 8.14952 -0.0137448 -0.0133224 8.15055 18.5916 11 1 
292 1.21774 7.60821 -0.0137299 -0.0129861 7.6115 23.0048 11 1 
296 1.2113 6.93869 -0.0130681 -0.0120109 6.94236 11.3839 11 1 
300 1.19872 6.44445 -0.0130046 -0.0115314 6.44619 -11.3396 11 1 
304 1.19502 6.06892 -0.0130849 -0.0111791 6.07151 -18.0235 11 1 
308 1.19696 5.61349 -0.0126624 -0.0103633 5.61727 -14.524 11 1 
312 1.19838 5.18894 -0.0125446 -0.00980702 5.19197 -11.9621 11 1 
316 1.1995 4.80707 -0.0123906 -0.00922309 4.8089 -9.93565 11 1 
320 1.20033 4.53099 -0.0124392 -0.00878638 4.53206 -8.42941 11 1 
320 1.20033 4.53099 -0.0124392 -0.00878638 4.53206 -8.42941 15 1 
324 1.20114 4.33377 -0.0127046 -0.00849906 4.33438 -6.96649 15 1 
328 1.20188 4.18484 -0.0128236 -0.00817194 4.18526 -5.6355 15 1 
332 1.20241 4.04325 -0.0128945 -0.00781566 4.04355 -4.67258 15 1 
336 1.20268 3.89948 -0.0129544 -0.00731369 3.89958 -4.18631 15 1 
340 1.20301 3.79094 -0.0130427 -0.00688636 3.79101 -3.60277 15 1 
344 1.20353 3.7175 -0.0131416 -0.00653275 3.7176 -2.64927 15 1 
348 1.2039 3.64237 -0.0133286 -0.00616365 3.64249 -1.98956 15 1 
352 1.2041 3.55608 -0.0133429 -0.00566124 3.5562 -1.63033 15 1 
356 1.20428 3.46712 -0.0131242 -0.00492342 3.46721 -1.30664 15 1 
360 1.20452 3.39402 -0.0129505 -0.00414733 3.39409 -0.868958 15 1 
364 1.20484 3.34486 -0.0128426 -0.0035454 3.34496 -0.286831 15 1 
368 1.20502 3.29139 -0.0127437 -0.00297141 3.29151 0.0347627 15 1 
372 1.20512 3.23042 -0.0125613 -0.00217407 3.23053 0.215794 15 1 
376 1.2053 3.18399 -0.0124336 -0.00143818 3.18406 0.541547 15 1 
380 1.20543 3.14945 -0.0125841 -0.00105428 3.1495 0.783886 15 1 
384 1.20556 3.12564 -0.0127656 -0.000594053 3.12569 1.01784 15 1 
384 1.20556 3.12564 -0.0127656 -0.000594053 3.12569 1.01784 16 1 
388 1.20573 3.11455 -0.0128714 5.56754e-05 3.11459 1.31713 16 1 
392 1.20584 3.10979 -0.0130048 0.000622502 3.10982 1.52347 16 1 
396 1.20592 3.11351 -0.0132492 0.00109612 3.11354 1.66661 16 1 
400 1.20601 3.13019 -0.0135141 0.00166001 3.13023 1.82272 16 1 
404 1.20613 3.15855 -0.0136686 0.00234067 3.15859 2.04834 16 1 
408 1.20627 3.19565 -0.0137541 0.00303803 3.19571 2.2857 16 1 
412 1.20635 3.23806 -0.0138932 0.00367942 3.23813 2.4403 16 1 
416 1.20641 3.28452 -0.0140532 0.00439465 3.2846 2.55205 16 1 
420 1.20648 3.33652 -0.0141761 0.00516907 3.33661 2.67186 16 1 
424 1.20658 3.39494 -0.0142357 0.00587932 3.39505 2.8463 16 1 
428 1.20667 3.45696 -0.0142571 0.00661503 3.45706 3.02245 16 1 
432 1.20674 3.52033 -0.0143121 0.0074328 3.52044 3.15036 16 1 
436 1.20682 3.58587 -0.0144346 0.00814184 3.58599 3.28325 16 1 
440 1.20687 3.65255 -0.0145661 0.00873007 3.65268 3.37389 16 1 
444 1.20691 3.72009 -0.014672 0.00938039 3.72021 3.44369 16 1 
448 1.20698 3.79021 -0.0147199 0.0101167 3.79033 3.57078 16 1 
448 1.20698 3.79021 -0.0147199 0.0101167 3.79033 3.57078 17 1 
452 1.20705 3.86143 -0.0147648 0.010808 3.86156 3.695 17 1 
456 1.2071 3.93208 -0.0149166 0.0113933 3.93221 3.79469 17 1 
460 1.20714 4.00251 -0.0151096 0.0119604 4.00264 3.87197 17 1 
464 1.20718 4.07289 -0.015202 0.0125896 4.07302 3.92947 17 1 
468 1.20722 4.14402 -0.015301 0.0132379 4.14415 4.01264 17 1 
472 1.20727 4.21566 -0.0154618 0.0138596 4.2158 4.09922 17 1 
476 1.2073 4.28631 -0.0155756 0.0144902 4.28645 4.1605 17 1 
480 1.20733 4.35597 -0.0157041 0.0151578 4.3561 4.21205 17 1 
484 1.20737 4.4256 -0.0158898 0.0158043 4.42574 4.27252 17 1 
488 1.2074 4.4952 -0.0160908 0.0164201 4.49534 4.33459 17 1 
492 1.20742 4.56437 -0.0162679 0.0170721 4.5645 4.37068 17 1 
496 1.20744 4.63339 -0.016416 0.0177815 4.63353 4.41114 17 1 
500 1.20747 4.70156 -0.016588 0.0184815 4.7017 4.46818 17 1 
504 1.20749 4.76852 -0.0167762 0.0191793 4.76866 4.5021 17 1 
508 1.20751 4.83599 -0.0169591 0.0198909 4.83613 4.5317 17 1 
512 1.20753 4.90375 -0.0171912 0.0205801 4.90389 4.5621 17 1 
512 1.20753 4.90375 -0.0171912 0.0205801 4.90389 4.5621 25 1 
516 1.20753 4.97047 -0.0174414 0.0212784 4.97061 4.56967 25 1 
520 1.20754 5.03659 -0.0176776 0.021976 5.03673 4.58787 25 1 
524 1.20756 5.10268 -0.0179101 0.022694 5.10282 4.61625 25 1 
528 1.20757 5.16929 -0.0181171 0.0234409 5.16943 4.63762 25 1 
532 1.20759 5.23621 -0.0183606 0.0241908 5.23635 4.67368 25 1 
536 1.2076 5.30239 -0.0186044 0.0249467 5.30254 4.69083 25 1 
540 1.20759 5.36777 -0.0188524 0.0256813 5.36792 4.67129 25 1 
544 1.20758 5.43321 -0.0191113 0.0264253 5.43336 4.65458 25 1 
548 1.20758 5.49941 -0.0193308 0.0271961 5.49956 4.66517 25 1 
552 1.2076 5.56605 -0.0195309 0.0279786 5.5662 4.70105 25 1 
556 1.20761 5.63257 -0.0197533 0.0287401 5.63273 4.71729 25 1 
560 1.20761 5.69879 -0.0199643 0.0294971 5.69895 4.71503 25 1 
564 1.20761 5.76465 -0.0201298 0.0302698 5.76481 4.71829 25 1 
568 1.20761 5.8308 -0.0202876 0.0310522 5.83097 4.70864 25 1 
572 1.20761 5.89783 -0.0204288 0.0318287 5.898 4.70535 25 1 
576 1.20761 5.9648 -0.0205858 0.0325727 5.96498 4.70863 25 1 
576 1.20761 5.9648 -0.0205858 0.0325727 5.96498 4.70863 26 1 
580 1.20761 6.03139 -0.0207456 0.033305 6.03157 4.71315 26 1 
584 1.20762 6.0985 -0.0208671 0.0340368 6.09868 4.72882 26 1 
588 1.20762 6.16634 -0.0209831 0.0347761 6.16653 4.7252 26 1 
592 1.20762 6.23435 -0.0210781 0.0355199 6.23454 4.72491 26 1 
596 1.20763 6.30237 -0.0211467 0.0362385 6.30256 4.74548 26 1 
600 1.20763 6.37076 -0.0212163 0.0369568 6.37096 4.75025 26 1 
604 1.20763 6.43948 -0.0213177 0.0376721 6.43967 4.7425 26 1 
608 1.20762 6.50874 -0.0214154 0.0383117 6.50894 4.735 26 1 
608 1.20762 6.50874 -0.0214154 0.0383117 6.50894 4.735 26 1 
612 1.20763 6.57846 -0.0214786 0.0389574 6.57867 4.74303 26 1 
616 1.20763 6.64861 -0.0215563 0.0396218 6.64881 4.75547 26 1 
620 1.20764 6.71976 -0.021637 0.040249 6.71997 4.76075 26 1 
624 1.20765 6.79128 -0.0217714 0.0408512 6.79149 4.79005 26 1 
628 1.20766 6.86321 -0.0218956 0.0414429 6.86343 4.81153 26 1 
632 1.20766 6.93586 -0.0220078 0.0419878 6.93608 4.81378 26 1 
636 1.20767 7.00893 -0.022115 0.0424578 7.00915 4.81496 26 1 
640 1.20767 7.08257 -0.0222388 0.0429077 7.08279 4.81956 26 1 
644 1.20769 7.15691 -0.0223998 0.0433161 7.15713 4.85522 26 1 
648 1.2077 7.2327 -0.0226019 0.0437071 7.23293 4.88281 26 1 
652 1.20772 7.309 -0.0228843 0.0440689 7.30923 4.90407 26 1 
656 1.20773 7.3855 -0.0230759 0.0443401 7.38572 4.93377 26 1 
660 1.20774 7.46304 -0.0232598 0.0444987 7.46326 4.95075 26 1 
664 1.20776 7.54098 -0.0234995 0.0446126 7.54121 4.97749 26 1 
668 1.20777 7.62019 -0.0237896 0.0447311 7.62042 5.00875 26 1 
672 1.2078 7.70029 -0.024113 0.0448556 7.70051 5.06177 26 1 
672 1.2078 7.70029 -0.024113 0.0448556 7.70051 5.06177 27 1 
676 1.20782 7.78113 -0.0244827 0.0449214 7.78136 5.09516 27 1 
680 1.20783 7.86307 -0.0248186 0.0448389 7.86329 5.1036 27 1 
684 1.20785 7.94515 -0.0250537 0.0446706 7.94537 5.14637 27 1 
688 1.20787 8.02868 -0.0253239 0.0444805 8.02891 5.18837 27 1 
692 1.2079 8.11335 -0.0256662 0.044317 8.11357 5.24383 27 1 
696 1.20793 8.19913 -0.0260498 0.04414 8.19935 5.28672 27 1 
700 1.20795 8.28495 -0.026397 0.0438404 8.28517 5.32669 27 1 
704 1.20797 8.37056 -0.0266948 0.0434473 8.37078 5.36951 27 1 
704 1.20797 8.37056 -0.0266948 0.0434473 8.37078 5.36951 31 1 
708 1.20798 8.45787 -0.0269683 0.0432489 8.45808 5.38869 31 1 
712 1.20802 8.54573 -0.0273916 0.0429663 8.54595 5.45703 31 1 
716 1.20805 8.63488 -0.0277751 0.0424981 8.63509 5.50353 31 1 
720 1.20807 8.72388 -0.0279566 0.0420282 8.72409 5.55232 31 1 
724 1.2081 8.81212 -0.0281364 0.041449 8.81232 5.60811 31 1 
728 1.20812 8.89995 -0.0282874 0.0409246 8.90015 5.62986 31 1 
732 1.20815 8.98664 -0.0284442 0.0404425 8.98684 5.68752 31 1 
736 1.20816 9.07357 -0.0286785 0.0398339 9.07376 5.71372 31 1 
740 1.20818 9.15891 -0.0287828 0.0391528 9.15909 5.74164 31 1 
744 1.2082 9.2412 -0.0287058 0.0383963 9.24137 5.7751 31 1 
748 1.20823 9.319 -0.0286316 0.0375222 9.31916 5.83396 31 1 
752 1.20824 9.39493 -0.0284311 0.0368162 9.39508 5.8607 31 1 
756 1.20825 9.46781 -0.0282831 0.0360946 9.46796 5.87133 31 1 
760 1.20829 9.53625 -0.0281263 0.0353876 9.53639 5.93387 31 1 
764 1.2083 9.60036 -0.0279047 0.0346121 9.60049 5.95557 31 1 
768 1.20832 9.65702 -0.0275621 0.0337 9.65714 5.99491 31 1 
772 1.20834 9.70865 -0.0271958 0.0330214 9.70876 6.03729 31 1 
776 1.20838 9.75504 -0.0268176 0.0323622 9.75515 6.10316 31 1 
780 1.20841 9.79629 -0.0263144 0.0315209 9.79639 6.15163 31 1 
784 1.20843 9.83167 -0.0258876 0.0307677 9.83176 6.20062 31 1 
788 1.20847 9.86108 -0.0254116 0.0302973 9.86117 6.27408 31 1 
792 1.20852 9.88416 -0.024692 0.0299008 9.88424 6.35035 31 1 
796 1.2086 9.90066 -0.0236908 0.0292426 9.90074 6.49803 31 1 
800 1.20865 9.9079 -0.023173 0.0287908 9.90797 6.58516 31 1 
