76.0744;r ;Density                 ;Velocity u              ;Velocity v              ;Velocity w              ;|Velocity|              ;Pressure                ;Distribution            ;Levels                  ;
0 1.21584 9.99792 3.13291e-06 2.24954e-05 9.99792 19.5807 1 1 
4 1.21587 9.99641 -0.000127794 5.31267e-05 9.99641 19.6286 1 1 
8 1.2159 9.9924 -0.000480102 -7.31199e-05 9.9924 19.6819 1 1 
12 1.21589 9.9897 -0.000808087 -0.000135343 9.9897 19.6785 1 1 
16 1.21594 9.98624 -0.00102349 -0.000170167 9.98624 19.7658 1 1 
20 1.21599 9.98173 -0.00135422 -0.000298729 9.98173 19.8548 1 1 
24 1.21599 9.97906 -0.00157847 -0.000306323 9.97906 19.8465 1 1 
28 1.21604 9.97537 -0.00187233 -0.00041541 9.97537 19.9333 1 1 
32 1.21607 9.97342 -0.00213523 -0.00043369 9.97342 19.9877 1 1 
36 1.21609 9.97095 -0.00232641 -0.000403311 9.97095 20.0374 1 1 
40 1.21614 9.967 -0.00264857 -0.00051084 9.967 20.115 1 1 
44 1.21615 9.96277 -0.00287028 -0.000532516 9.96278 20.1435 1 1 
48 1.21616 9.96043 -0.00312389 -0.000520529 9.96043 20.1541 1 1 
52 1.21619 9.95681 -0.00336074 -0.000575349 9.95681 20.2162 1 1 
56 1.21622 9.95284 -0.00363023 -0.000610419 9.95284 20.2614 1 1 
60 1.21622 9.95139 -0.00389673 -0.00063245 9.95139 20.2584 1 1 
64 1.21626 9.94699 -0.00414682 -0.000663098 9.94699 20.3302 1 1 
64 1.21626 9.94699 -0.00414682 -0.000663098 9.94699 20.3302 2 1 
68 1.21625 9.94489 -0.00436425 -0.00063849 9.94489 20.3162 2 1 
72 1.21625 9.94245 -0.00464553 -0.000687794 9.94245 20.3276 2 1 
76 1.21627 9.93903 -0.00495161 -0.000781766 9.93903 20.3512 2 1 
80 1.21628 9.93567 -0.00516053 -0.000714402 9.93567 20.3784 2 1 
84 1.21627 9.93469 -0.00540256 -0.000730836 9.93469 20.3596 2 1 
88 1.21629 9.93302 -0.00564432 -0.000707748 9.93302 20.3857 2 1 
92 1.21631 9.931 -0.00582203 -0.000635872 9.931 20.4245 2 1 
96 1.21628 9.93056 -0.00614556 -0.000744547 9.93057 20.371 2 1 
100 1.21632 9.92481 -0.00626116 -0.000608695 9.92481 20.4458 2 1 
104 1.21631 9.92114 -0.00659926 -0.000634775 9.92114 20.4235 2 1 
108 1.2163 9.91894 -0.00679472 -0.000607208 9.91894 20.4041 2 1 
112 1.21632 9.91654 -0.00698669 -0.000588196 9.91654 20.45 2 1 
116 1.21632 9.91597 -0.00729245 -0.000545017 9.91597 20.4447 2 1 
120 1.21632 9.91543 -0.00744297 -0.000505327 9.91543 20.4534 2 1 
124 1.21636 9.91036 -0.00770095 -0.000512129 9.91036 20.5264 2 1 
128 1.21635 9.9067 -0.00794021 -0.000467193 9.9067 20.5016 2 1 
128 1.21635 9.9067 -0.00794021 -0.000467193 9.9067 20.5016 10 1 
132 1.21632 9.90459 -0.00819794 -0.000465434 9.90459 20.4487 10 1 
136 1.21637 9.89834 -0.00839711 -0.000429396 9.89835 20.5387 10 1 
140 1.21635 9.89827 -0.00874246 -0.000419237 9.89827 20.505 10 1 
144 1.21636 9.8958 -0.00891839 -0.000357175 9.8958 20.5248 10 1 
148 1.21642 9.89169 -0.00918539 -0.000466464 9.8917 20.6193 10 1 
152 1.21638 9.89241 -0.0095155 -0.000360465 9.89242 20.5535 10 1 
156 1.21639 9.88732 -0.00963406 -0.000200056 9.88733 20.5756 10 1 
160 1.21644 9.88147 -0.0100737 -0.000291796 9.88147 20.6544 10 1 
160 1.21644 9.88147 -0.0100737 -0.000291796 9.88147 20.6544 10 1 
164 1.21639 9.88143 -0.010254 -0.000264306 9.88144 20.5685 10 1 
168 1.21646 9.87512 -0.010516 -0.000102128 9.87512 20.7012 10 1 
172 1.21646 9.87189 -0.0108175 -9.74469e-05 9.8719 20.7046 10 1 
176 1.21641 9.87379 -0.010984 -3.63345e-05 9.87379 20.6044 10 1 
180 1.21653 9.86468 -0.011203 0.000278878 9.86468 20.8293 10 1 
184 1.21649 9.8614 -0.0115982 0.000207522 9.86141 20.7604 10 1 
188 1.21649 9.85724 -0.0117394 0.000434647 9.85725 20.7458 10 1 
192 1.21656 9.84611 -0.0119499 0.000551183 9.84612 20.8838 10 1 
196 1.21652 9.84414 -0.0124659 0.000460895 9.84415 20.8102 10 1 
200 1.21655 9.84309 -0.0124933 0.000766608 9.8431 20.8712 10 1 
204 1.21669 9.83603 -0.0128699 0.000881754 9.83604 21.1123 10 1 
208 1.21672 9.82897 -0.0131933 0.00106419 9.82898 21.161 10 1 
212 1.21666 9.8211 -0.0133758 0.00127685 9.82111 21.0523 10 1 
216 1.21681 9.80343 -0.0137907 0.00124171 9.80345 21.3265 10 1 
220 1.21686 9.78768 -0.0139211 0.00132414 9.78769 21.413 10 1 
224 1.21677 9.77847 -0.0141232 0.00158472 9.77849 21.2631 10 1 
224 1.21677 9.77847 -0.0141232 0.00158472 9.77849 21.2631 10 1 
228 1.21703 9.76315 -0.0146706 0.00146934 9.76316 21.7369 10 1 
232 1.21713 9.75289 -0.0148072 0.00181548 9.7529 21.9135 10 1 
236 1.21717 9.73474 -0.0151968 0.00199387 9.73477 21.9874 10 1 
240 1.21734 9.70959 -0.0155014 0.00201074 9.70962 22.2982 10 1 
244 1.21757 9.67424 -0.0158153 0.00223906 9.67427 22.7133 10 1 
248 1.21777 9.63058 -0.0166463 0.00193309 9.63062 23.0692 10 1 
252 1.21784 9.59862 -0.0169275 0.00198876 9.59865 23.1895 10 1 
256 1.21843 9.54267 -0.0171609 0.00247364 9.54271 24.2575 10 1 
256 1.21843 9.54267 -0.0171609 0.00247364 9.54271 24.2575 11 1 
260 1.21881 9.47396 -0.0175469 0.00248794 9.47404 24.9467 11 1 
264 1.21897 9.40235 -0.0177864 0.00258976 9.40242 25.2293 11 1 
268 1.22002 9.28944 -0.0183345 0.00275261 9.28956 27.1315 11 1 
272 1.22105 9.14605 -0.0187448 0.00269959 9.14627 28.9906 11 1 
276 1.22159 8.9681 -0.0188772 0.00287704 8.96862 29.9714 11 1 
280 1.22297 8.71644 -0.0192131 0.00297596 8.717 32.4496 11 1 
284 1.22511 8.43027 -0.0192941 0.00309913 8.43075 36.3245 11 1 
288 1.22736 8.04365 -0.0193318 0.00325652 8.04476 40.3911 11 1 
292 1.22976 7.48997 -0.0191918 0.00326164 7.49345 44.7154 11 1 
296 1.22322 6.80626 -0.0182313 0.00339187 6.81014 32.9058 11 1 
300 1.21044 6.29679 -0.0180264 0.00354916 6.2987 9.82718 11 1 
304 1.20658 5.90492 -0.0180612 0.00385864 5.90776 2.84484 11 1 
308 1.20843 5.4323 -0.0174059 0.00420472 5.43645 6.19819 11 1 
312 1.20977 4.99179 -0.0170622 0.00442096 4.99512 8.61841 11 1 
316 1.2108 4.59375 -0.0167145 0.00481005 4.59582 10.4814 11 1 
320 1.21154 4.29998 -0.0165365 0.00535814 4.30124 11.8132 11 1 
320 1.21154 4.29998 -0.0165365 0.00535814 4.30124 11.8132 15 1 
324 1.21225 4.08569 -0.0166462 0.00598711 4.08646 13.0978 15 1 
328 1.21289 3.91934 -0.0166957 0.006476 3.9199 14.2568 15 1 
332 1.21333 3.75936 -0.0167564 0.00699686 3.75978 15.0465 15 1 
336 1.21351 3.59647 -0.0168217 0.007843 3.59665 15.3658 15 1 
340 1.21373 3.46713 -0.0169557 0.00865196 3.46729 15.7739 15 1 
344 1.21416 3.37278 -0.0172001 0.00938373 3.37297 16.5535 15 1 
348 1.21445 3.27712 -0.0175197 0.010132 3.27737 17.0716 15 1 
352 1.21458 3.16977 -0.0175906 0.0109705 3.17003 17.299 15 1 
356 1.21467 3.06069 -0.0174697 0.0120194 3.0609 17.4701 15 1 
360 1.21482 2.97042 -0.0174992 0.0131174 2.97061 17.7382 15 1 
364 1.21505 2.90695 -0.0177354 0.0141066 2.90717 18.1537 15 1 
368 1.21515 2.8431 -0.0181554 0.015236 2.84334 18.3346 15 1 
372 1.21519 2.77818 -0.0186061 0.0166799 2.7784 18.404 15 1 
376 1.21531 2.73428 -0.0192539 0.018086 2.73445 18.6163 15 1 
380 1.21536 2.70754 -0.0203266 0.0192454 2.7077 18.7151 15 1 
384 1.2154 2.69617 -0.0214364 0.020451 2.69634 18.792 15 1 
384 1.2154 2.69617 -0.0214364 0.020451 2.69634 18.792 16 1 
388 1.2155 2.70189 -0.0224833 0.0218068 2.70207 18.9597 16 1 
392 1.21555 2.7177 -0.0236699 0.0230629 2.71791 19.0645 16 1 
396 1.21558 2.74331 -0.0250609 0.0241999 2.74355 19.1044 16 1 
400 1.21559 2.78095 -0.0264773 0.0253435 2.78123 19.1338 16 1 
404 1.21563 2.82897 -0.0277355 0.0265089 2.82928 19.2088 16 1 
408 1.21568 2.88463 -0.0288856 0.0276591 2.88497 19.2912 16 1 
412 1.21569 2.9444 -0.0300664 0.0287891 2.94477 19.3162 16 1 
416 1.2157 3.00664 -0.0312407 0.0299925 3.00704 19.3202 16 1 
420 1.21569 3.07212 -0.0323623 0.0312198 3.07254 19.3174 16 1 
424 1.2157 3.14129 -0.033381 0.0323539 3.14173 19.3305 16 1 
428 1.2157 3.21155 -0.0343088 0.0335371 3.212 19.3304 16 1 
432 1.21568 3.28137 -0.0352133 0.0348424 3.28184 19.2977 16 1 
436 1.21568 3.35184 -0.0361383 0.036088 3.35232 19.2843 16 1 
440 1.21565 3.42146 -0.0370679 0.0372431 3.42196 19.2366 16 1 
444 1.21561 3.48965 -0.0379799 0.0384385 3.49015 19.1673 16 1 
448 1.2156 3.55809 -0.0388464 0.0396803 3.5586 19.1385 16 1 
448 1.2156 3.55809 -0.0388464 0.0396803 3.5586 19.1385 17 1 
452 1.21557 3.62565 -0.0397245 0.0408802 3.62617 19.0848 17 1 
456 1.21552 3.69106 -0.0407363 0.042006 3.6916 19.0023 17 1 
460 1.21547 3.75448 -0.0418018 0.0431114 3.75503 18.9197 17 1 
464 1.21543 3.8161 -0.0427994 0.0442567 3.81666 18.8319 17 1 
468 1.21538 3.87691 -0.0438592 0.0453864 3.87748 18.7573 17 1 
472 1.21534 3.9366 -0.0450447 0.0464496 3.93719 18.6732 17 1 
476 1.21528 3.99374 -0.046241 0.0475006 3.99435 18.5682 17 1 
480 1.21522 4.04847 -0.0474748 0.0485885 4.0491 18.4609 17 1 
484 1.21516 4.10203 -0.0487756 0.0496814 4.10266 18.3542 17 1 
488 1.2151 4.15431 -0.0500994 0.0507391 4.15497 18.2495 17 1 
492 1.21504 4.20498 -0.0514341 0.0518267 4.20565 18.1327 17 1 
496 1.21498 4.25448 -0.0527772 0.0529653 4.25518 18.018 17 1 
500 1.21491 4.30224 -0.0541746 0.0541109 4.30295 17.9058 17 1 
504 1.21484 4.34804 -0.05559 0.0552902 4.34878 17.7681 17 1 
508 1.21477 4.39352 -0.056955 0.0565341 4.39429 17.645 17 1 
512 1.21471 4.43871 -0.0583155 0.0578334 4.4395 17.5363 17 1 
512 1.21471 4.43871 -0.0583155 0.0578334 4.4395 17.5363 25 1 
516 1.21463 4.48252 -0.05967 0.0592053 4.48333 17.4027 25 1 
520 1.21456 4.52523 -0.0610165 0.06063 4.52608 17.2721 25 1 
524 1.21449 4.56716 -0.0623637 0.0621254 4.56804 17.1443 25 1 
528 1.21442 4.60892 -0.0636514 0.0636869 4.60983 17.0075 25 1 
532 1.21435 4.65093 -0.0649146 0.0653342 4.65187 16.8804 25 1 
536 1.21427 4.69239 -0.0661692 0.0670715 4.69336 16.7496 25 1 
540 1.2142 4.73303 -0.067399 0.0688701 4.73403 16.6135 25 1 
544 1.21413 4.77357 -0.0686048 0.0707404 4.7746 16.4833 25 1 
548 1.21405 4.81461 -0.0697731 0.0726777 4.81568 16.3543 25 1 
552 1.21398 4.85577 -0.0708884 0.0746932 4.85688 16.2249 25 1 
556 1.21391 4.89665 -0.0720135 0.0767239 4.8978 16.0882 25 1 
560 1.21383 4.93733 -0.0731355 0.0788104 4.93852 15.9536 25 1 
564 1.21376 4.97812 -0.0742296 0.0809089 4.97936 15.8229 25 1 
568 1.21369 5.0192 -0.0753092 0.0830599 5.02047 15.6927 25 1 
572 1.21362 5.06081 -0.0763641 0.085217 5.06212 15.5717 25 1 
576 1.21355 5.10217 -0.0774309 0.0873522 5.10353 15.4449 25 1 
576 1.21355 5.10217 -0.0774309 0.0873522 5.10353 15.4449 26 1 
580 1.21348 5.14312 -0.0784726 0.0895282 5.14452 15.3085 26 1 
584 1.21341 5.18435 -0.0795123 0.0916791 5.18579 15.1855 26 1 
588 1.21334 5.2259 -0.0805475 0.0938247 5.22738 15.0635 26 1 
592 1.21327 5.26728 -0.0815534 0.0959166 5.26881 14.9409 26 1 
596 1.2132 5.30868 -0.0825661 0.0980382 5.31025 14.8203 26 1 
600 1.21314 5.34984 -0.0835593 0.10008 5.35145 14.6965 26 1 
604 1.21307 5.3907 -0.0845568 0.102138 5.39235 14.5781 26 1 
608 1.21301 5.43188 -0.0855271 0.104112 5.43357 14.4614 26 1 
608 1.21301 5.43188 -0.0855271 0.104112 5.43357 14.4614 26 1 
612 1.21294 5.47271 -0.0864792 0.106023 5.47444 14.3499 26 1 
616 1.21288 5.5134 -0.0874157 0.107981 5.51516 14.2333 26 1 
620 1.21282 5.55365 -0.0883294 0.109789 5.55545 14.1202 26 1 
624 1.21276 5.59372 -0.089223 0.111622 5.59557 14.0083 26 1 
628 1.2127 5.63356 -0.0900504 0.113365 5.63544 13.8994 26 1 
632 1.21264 5.6732 -0.090909 0.115065 5.67511 13.7977 26 1 
636 1.21258 5.71258 -0.0917172 0.116674 5.71452 13.6915 26 1 
640 1.21252 5.7513 -0.0924617 0.118268 5.75328 13.5826 26 1 
644 1.21246 5.78978 -0.0931886 0.119843 5.79179 13.4751 26 1 
648 1.21241 5.82798 -0.0938608 0.121269 5.83001 13.3753 26 1 
652 1.21235 5.86605 -0.094462 0.122774 5.86811 13.2726 26 1 
656 1.2123 5.90342 -0.0950802 0.124097 5.9055 13.1769 26 1 
660 1.21224 5.94071 -0.0956208 0.125397 5.94282 13.0752 26 1 
664 1.21218 5.97742 -0.0960705 0.126703 5.97955 12.9724 26 1 
668 1.21213 6.01379 -0.0965502 0.127922 6.01594 12.8733 26 1 
672 1.21207 6.05022 -0.0968831 0.129108 6.05239 12.7738 26 1 
672 1.21207 6.05022 -0.0968831 0.129108 6.05239 12.7738 27 1 
676 1.21202 6.08596 -0.0971685 0.130224 6.08814 12.6815 27 1 
680 1.21197 6.12184 -0.0974855 0.13141 6.12404 12.581 27 1 
684 1.21191 6.15683 -0.0975725 0.132358 6.15904 12.4875 27 1 
688 1.21186 6.19205 -0.0977905 0.133435 6.19428 12.3861 27 1 
692 1.21181 6.22669 -0.0977664 0.134356 6.22891 12.2945 27 1 
696 1.21175 6.26165 -0.0977492 0.135392 6.26389 12.199 27 1 
700 1.21171 6.29605 -0.0977624 0.136294 6.29829 12.1123 27 1 
704 1.21165 6.33037 -0.0975944 0.137227 6.33262 12.0103 27 1 
704 1.21165 6.33037 -0.0975944 0.137227 6.33262 12.0103 31 1 
708 1.2116 6.36426 -0.0973621 0.138027 6.36651 11.9185 31 1 
712 1.21155 6.39831 -0.0971094 0.138842 6.40056 11.8276 31 1 
716 1.2115 6.43219 -0.0967227 0.139769 6.43444 11.734 31 1 
720 1.21145 6.46585 -0.0963266 0.14067 6.46811 11.6519 31 1 
724 1.21139 6.50017 -0.0960155 0.141437 6.50243 11.5506 31 1 
728 1.21135 6.53317 -0.095429 0.142071 6.53542 11.4718 31 1 
732 1.2113 6.5672 -0.0948334 0.143312 6.56945 11.3746 31 1 
736 1.21124 6.60113 -0.0942986 0.143452 6.60337 11.2788 31 1 
740 1.21121 6.63418 -0.0934602 0.144423 6.63642 11.2136 31 1 
744 1.21115 6.66836 -0.092609 0.145327 6.67059 11.1099 31 1 
748 1.2111 6.70205 -0.0921733 0.146107 6.70429 11.0223 31 1 
752 1.21106 6.73659 -0.0905456 0.147158 6.73881 10.9372 31 1 
756 1.21101 6.77012 -0.0900977 0.147547 6.77233 10.8561 31 1 
760 1.21094 6.80692 -0.0899066 0.148553 6.80914 10.7316 31 1 
764 1.2109 6.84337 -0.0889141 0.14939 6.84559 10.6608 31 1 
768 1.21086 6.87977 -0.0881669 0.149988 6.88198 10.5841 31 1 
772 1.21077 6.91706 -0.0867045 0.152755 6.9193 10.4232 31 1 
776 1.21068 6.95639 -0.085111 0.155905 6.95867 10.2532 31 1 
780 1.21059 7.00393 -0.0855355 0.155633 7.0062 10.0899 31 1 
784 1.21051 7.05166 -0.0869856 0.157191 7.05397 9.9563 31 1 
788 1.21027 7.11519 -0.0856799 0.162464 7.11759 9.52431 31 1 
792 1.21007 7.18265 -0.0850896 0.171818 7.18526 9.16587 31 1 
796 1.20971 7.27905 -0.0873123 0.185482 7.28202 8.51498 31 1 
800 1.20937 7.34705 -0.0887634 0.192649 7.35022 7.89794 31 1 
