130.413;r ;Density                 ;Velocity u              ;Velocity v              ;Velocity w              ;|Velocity|              ;Pressure                ;Distribution            ;Levels                  ;
0 1.20528 9.99966 -0.000177629 0.000497404 9.99966 0.507043 1 1 
4 1.20527 9.9991 -0.000275742 0.000908001 9.9991 0.490685 1 1 
8 1.20526 9.99856 -0.00060894 0.000715313 9.99856 0.469035 1 1 
12 1.20526 9.99948 -0.000898471 0.000909204 9.99948 0.464182 1 1 
16 1.20526 10.0005 -0.00123853 0.000844057 10.0005 0.474425 1 1 
20 1.20526 10.0006 -0.00150614 0.00120589 10.0006 0.467374 1 1 
24 1.20525 10.0012 -0.00180198 0.00112214 10.0012 0.446063 1 1 
28 1.20525 10.0026 -0.00209533 0.00111564 10.0026 0.452332 1 1 
32 1.20526 10.0041 -0.00234263 0.00129816 10.0041 0.470664 1 1 
36 1.20525 10.0049 -0.00263959 0.00175096 10.0049 0.459995 1 1 
40 1.20525 10.0044 -0.00291913 0.00155798 10.0044 0.444904 1 1 
44 1.20525 10.0041 -0.0032566 0.00137622 10.0041 0.446299 1 1 
48 1.20525 10.0052 -0.00356682 0.00148629 10.0052 0.444847 1 1 
52 1.20525 10.006 -0.00390494 0.00167031 10.006 0.453833 1 1 
56 1.20525 10.0066 -0.00416828 0.00201493 10.0066 0.45868 1 1 
60 1.20525 10.0074 -0.00449029 0.00210535 10.0074 0.451978 1 1 
64 1.20525 10.0085 -0.00478437 0.00240257 10.0085 0.456822 1 1 
64 1.20525 10.0085 -0.00478437 0.00240257 10.0085 0.456822 2 1 
68 1.20527 10.0082 -0.00510932 0.00282859 10.0082 0.479549 2 1 
72 1.20525 10.008 -0.00542948 0.00358783 10.008 0.453873 2 1 
76 1.20525 10.0084 -0.0057516 0.00378178 10.0084 0.445816 2 1 
80 1.20527 10.0088 -0.00608651 0.00377609 10.0088 0.487577 2 1 
84 1.20527 10.0106 -0.00638677 0.00346336 10.0106 0.48186 2 1 
88 1.20527 10.0113 -0.00674177 0.00348048 10.0113 0.481979 2 1 
92 1.20528 10.0103 -0.00706231 0.00469663 10.0103 0.503462 2 1 
96 1.20527 10.0103 -0.00742232 0.00547628 10.0103 0.495353 2 1 
100 1.20527 10.0104 -0.00769271 0.00571581 10.0104 0.495884 2 1 
104 1.20529 10.0096 -0.00799723 0.00598169 10.0096 0.524012 2 1 
108 1.20528 10.0107 -0.00830605 0.00652198 10.0107 0.50901 2 1 
112 1.20529 10.0122 -0.00865033 0.00729326 10.0122 0.527562 2 1 
116 1.20532 10.0126 -0.00902022 0.00726197 10.0126 0.576761 2 1 
120 1.20532 10.0139 -0.00931944 0.0067316 10.0139 0.570587 2 1 
124 1.20533 10.0123 -0.00964192 0.00696978 10.0123 0.587169 2 1 
128 1.20533 10.0096 -0.00992419 0.00736325 10.0096 0.59604 2 1 
128 1.20533 10.0096 -0.00992419 0.00736325 10.0096 0.59604 10 1 
132 1.20532 10.0096 -0.010258 0.00825634 10.0097 0.572315 10 1 
136 1.20535 10.0091 -0.0106017 0.00954003 10.0091 0.625863 10 1 
140 1.20537 10.0102 -0.011011 0.00967435 10.0102 0.661421 10 1 
144 1.20536 10.0123 -0.0112981 0.00996536 10.0123 0.656086 10 1 
148 1.2054 10.0107 -0.0116021 0.0106419 10.0107 0.727977 10 1 
152 1.2054 10.0098 -0.0119883 0.0106686 10.0099 0.718745 10 1 
156 1.2054 10.0079 -0.0123362 0.0109298 10.0079 0.716228 10 1 
160 1.20544 10.0045 -0.0126814 0.0109924 10.0045 0.786796 10 1 
160 1.20544 10.0045 -0.0126814 0.0109924 10.0045 0.786796 10 1 
164 1.20544 10.0047 -0.0130102 0.0115947 10.0047 0.796577 10 1 
168 1.20547 10.0037 -0.0133549 0.0131843 10.0037 0.843825 10 1 
172 1.20549 10.0022 -0.0137491 0.0143746 10.0022 0.889837 10 1 
176 1.20551 10.0016 -0.0141688 0.0143733 10.0016 0.912547 10 1 
180 1.20554 9.99771 -0.0145119 0.0140623 9.99773 0.980758 10 1 
184 1.20556 9.99392 -0.0148699 0.0138175 9.99394 1.01114 10 1 
188 1.20558 9.99136 -0.0152698 0.0148478 9.99139 1.05538 10 1 
192 1.20564 9.98639 -0.0156839 0.0168644 9.98642 1.15443 10 1 
196 1.20565 9.98411 -0.0162026 0.0162593 9.98414 1.18082 10 1 
200 1.20569 9.98331 -0.0165107 0.0160699 9.98334 1.25476 10 1 
204 1.20581 9.9777 -0.0169208 0.0186574 9.97773 1.45818 10 1 
208 1.20586 9.96935 -0.0171666 0.0219861 9.96939 1.5584 10 1 
212 1.20585 9.95976 -0.0176249 0.0221016 9.9598 1.52664 10 1 
216 1.20595 9.94547 -0.0182947 0.0181102 9.94551 1.71822 10 1 
220 1.20605 9.93233 -0.0188252 0.017425 9.93237 1.90364 10 1 
224 1.20606 9.92644 -0.0192043 0.0224542 9.92649 1.9214 10 1 
224 1.20606 9.92644 -0.0192043 0.0224542 9.92649 1.9214 10 1 
228 1.20626 9.91839 -0.0194555 0.026507 9.91844 2.28039 10 1 
232 1.2065 9.90276 -0.0200213 0.0268178 9.90282 2.70214 10 1 
236 1.20653 9.87966 -0.0203741 0.0293394 9.87973 2.76631 10 1 
240 1.20663 9.84928 -0.0211107 0.0339183 9.84939 2.93663 10 1 
244 1.20698 9.81139 -0.02165 0.0378062 9.8115 3.57602 10 1 
248 1.20721 9.77567 -0.0221941 0.0420446 9.77579 3.98773 10 1 
252 1.2074 9.73928 -0.022784 0.0498827 9.73945 4.329 10 1 
256 1.20801 9.67824 -0.0232031 0.0597038 9.67848 5.43608 10 1 
256 1.20801 9.67824 -0.0232031 0.0597038 9.67848 5.43608 11 1 
260 1.20847 9.60326 -0.0239637 0.0720827 9.6036 6.27012 11 1 
264 1.20878 9.52207 -0.0244234 0.102476 9.52274 6.81897 11 1 
268 1.20976 9.40325 -0.0249966 0.149 9.4046 8.60058 11 1 
272 1.21096 9.24405 -0.0255112 0.210335 9.24689 10.772 11 1 
276 1.21156 9.06536 -0.0258222 0.310428 9.07136 11.8546 11 1 
280 1.2124 8.86606 -0.0263621 0.469217 8.87939 13.3707 11 1 
284 1.21401 8.68328 -0.0267234 0.708965 8.71397 16.2693 11 1 
288 1.21487 8.50747 -0.026811 0.954368 8.56203 17.8312 11 1 
292 1.21381 7.98882 -0.0266502 0.863809 8.04343 15.9179 11 1 
296 1.21023 6.9219 -0.0263139 0.226168 6.95717 9.43808 11 1 
300 1.20503 5.74279 -0.0259776 -0.603855 5.81254 0.049171 11 1 
304 1.20133 4.92276 -0.0254149 -1.13041 5.06662 -6.62716 11 1 
308 1.19994 4.54355 -0.0246582 -1.16387 4.69405 -9.13749 11 1 
312 1.19962 4.37826 -0.0237918 -0.88646 4.47127 -9.70887 11 1 
316 1.20018 4.18966 -0.0228694 -0.592396 4.23388 -8.71405 11 1 
320 1.20113 3.93836 -0.0220294 -0.354809 3.95688 -6.9876 11 1 
320 1.20113 3.93836 -0.0220294 -0.354809 3.95688 -6.9876 15 1 
324 1.20162 3.64062 -0.0211101 -0.155492 3.64683 -6.10302 15 1 
328 1.20198 3.33472 -0.0200324 -0.021054 3.33744 -5.44898 15 1 
332 1.2027 3.07412 -0.0190745 0.044304 3.07652 -4.15066 15 1 
336 1.20327 2.84702 -0.0182701 0.0763053 2.84982 -3.12505 15 1 
340 1.2035 2.63088 -0.0175416 0.0955858 2.63459 -2.70469 15 1 
344 1.2038 2.44504 -0.0170735 0.107191 2.44916 -2.16591 15 1 
348 1.20422 2.30293 -0.0169355 0.115922 2.30712 -1.41298 15 1 
352 1.20451 2.18904 -0.0171112 0.119024 2.19333 -0.882469 15 1 
356 1.20468 2.09115 -0.0177341 0.114353 2.09514 -0.575988 15 1 
360 1.20493 2.02565 -0.0188199 0.11022 2.02922 -0.128908 15 1 
364 1.20522 2.00056 -0.0202748 0.111037 2.00402 0.399412 15 1 
368 1.20541 1.99877 -0.0219389 0.109459 2.00211 0.734491 15 1 
372 1.20556 2.0131 -0.0236545 0.104293 2.01613 1.01378 15 1 
376 1.20577 2.04861 -0.0254307 0.10194 2.05146 1.38361 15 1 
380 1.20596 2.10241 -0.027216 0.102287 2.10522 1.72642 15 1 
384 1.2061 2.16633 -0.0289215 0.101182 2.16905 1.97857 15 1 
384 1.2061 2.16633 -0.0289215 0.101182 2.16905 1.97857 16 1 
388 1.20622 2.23658 -0.0305276 0.0990394 2.23916 2.2089 16 1 
392 1.20636 2.31368 -0.0320049 0.0987962 2.3162 2.45738 16 1 
396 1.20648 2.39655 -0.0333289 0.100285 2.39907 2.67136 16 1 
400 1.20657 2.48199 -0.0346385 0.101087 2.48448 2.84171 16 1 
404 1.20667 2.56825 -0.0359483 0.100973 2.57067 3.01568 16 1 
408 1.20676 2.65486 -0.0371252 0.101487 2.65724 3.17437 16 1 
412 1.20682 2.7417 -0.0381758 0.103079 2.74408 3.29348 16 1 
416 1.20688 2.82883 -0.0392217 0.104981 2.83122 3.40162 16 1 
420 1.20695 2.91558 -0.0403028 0.106401 2.91796 3.5221 16 1 
424 1.20701 3.0003 -0.0413642 0.107421 3.00266 3.62946 16 1 
428 1.20704 3.08233 -0.042374 0.108804 3.08468 3.69342 16 1 
432 1.20708 3.16368 -0.0433181 0.110843 3.16605 3.75201 16 1 
436 1.20712 3.24505 -0.0442759 0.113035 3.24745 3.8363 16 1 
440 1.20716 3.32399 -0.0452903 0.114828 3.3264 3.90588 16 1 
444 1.20718 3.39965 -0.0463122 0.116274 3.40206 3.94436 16 1 
448 1.2072 3.47396 -0.0473155 0.117956 3.47638 3.98239 16 1 
448 1.2072 3.47396 -0.0473155 0.117956 3.47638 3.98239 17 1 
452 1.20723 3.5477 -0.0482809 0.12017 3.55016 4.03299 17 1 
456 1.20726 3.61989 -0.0492606 0.122335 3.62238 4.07777 17 1 
460 1.20727 3.68978 -0.0503115 0.123978 3.69229 4.1071 17 1 
464 1.20729 3.75777 -0.0514009 0.125616 3.7603 4.13667 17 1 
468 1.20731 3.82451 -0.0524419 0.127454 3.82706 4.16966 17 1 
472 1.20732 3.89016 -0.0534658 0.129263 3.89274 4.19536 17 1 
476 1.20734 3.95443 -0.0545074 0.131103 3.95705 4.21845 17 1 
480 1.20735 4.01715 -0.0556112 0.132899 4.0198 4.24417 17 1 
484 1.20736 4.07839 -0.0567095 0.134439 4.08106 4.26841 17 1 
488 1.20737 4.13827 -0.0577793 0.135966 4.14096 4.28625 17 1 
492 1.20738 4.19711 -0.0588188 0.137695 4.19983 4.30043 17 1 
496 1.20739 4.25501 -0.059841 0.139515 4.25777 4.32067 17 1 
500 1.2074 4.31168 -0.0609166 0.141218 4.31447 4.34146 17 1 
504 1.20741 4.3669 -0.0619908 0.142697 4.36971 4.35506 17 1 
508 1.20742 4.42096 -0.0630139 0.14429 4.42381 4.3657 17 1 
512 1.20742 4.47413 -0.0639851 0.146064 4.47701 4.37835 17 1 
512 1.20742 4.47413 -0.0639851 0.146064 4.47701 4.37835 25 1 
516 1.20743 4.52655 -0.0649611 0.147843 4.52947 4.39388 25 1 
520 1.20744 4.57788 -0.0659563 0.149554 4.58083 4.40626 25 1 
524 1.20744 4.62784 -0.06695 0.151186 4.63083 4.41496 25 1 
528 1.20745 4.67681 -0.0678591 0.152814 4.67983 4.42396 25 1 
532 1.20745 4.72506 -0.0687364 0.154558 4.72811 4.43247 25 1 
536 1.20746 4.77251 -0.0696034 0.156324 4.7756 4.44089 25 1 
540 1.20746 4.81895 -0.0704468 0.158035 4.82208 4.45015 25 1 
544 1.20747 4.86419 -0.0712528 0.159679 4.86736 4.45897 25 1 
548 1.20747 4.90851 -0.0720047 0.161267 4.91172 4.46332 25 1 
552 1.20747 4.95209 -0.0726861 0.162914 4.95533 4.46895 25 1 
556 1.20748 4.99501 -0.0733312 0.164649 4.99829 4.47745 25 1 
560 1.20748 5.03696 -0.0739572 0.166312 5.04027 4.48841 25 1 
564 1.20749 5.07776 -0.0745329 0.167854 5.0811 4.49573 25 1 
568 1.20749 5.11765 -0.0750397 0.169391 5.12103 4.4992 25 1 
572 1.2075 5.15697 -0.0754586 0.171002 5.16038 4.50918 25 1 
576 1.2075 5.1956 -0.0758331 0.172668 5.19904 4.52223 25 1 
576 1.2075 5.1956 -0.0758331 0.172668 5.19904 4.52223 26 1 
580 1.20751 5.23321 -0.0761428 0.174253 5.23669 4.53265 26 1 
584 1.20751 5.26976 -0.0763679 0.175787 5.27326 4.54224 26 1 
588 1.20752 5.30558 -0.0765103 0.177309 5.30912 4.55405 26 1 
592 1.20753 5.34082 -0.0765662 0.178869 5.34439 4.56833 26 1 
596 1.20754 5.3753 -0.0765273 0.180488 5.37889 4.58313 26 1 
600 1.20755 5.40886 -0.0764282 0.181981 5.41248 4.6001 26 1 
604 1.20756 5.44145 -0.0762486 0.183503 5.4451 4.61713 26 1 
608 1.20756 5.47341 -0.0759313 0.184947 5.47709 4.63232 26 1 
608 1.20756 5.47341 -0.0759313 0.184947 5.47709 4.63232 26 1 
612 1.20758 5.50467 -0.0755506 0.186404 5.50836 4.65418 26 1 
616 1.20759 5.53537 -0.0750478 0.187954 5.53909 4.67553 26 1 
620 1.2076 5.56507 -0.0744482 0.189337 5.56881 4.69851 26 1 
624 1.20761 5.594 -0.0737308 0.190738 5.59776 4.72261 26 1 
628 1.20763 5.62227 -0.0728982 0.19205 5.62604 4.7477 26 1 
632 1.20764 5.65001 -0.0719732 0.193363 5.65379 4.77419 26 1 
636 1.20766 5.67701 -0.0709067 0.194629 5.68081 4.80594 26 1 
640 1.20768 5.70326 -0.069718 0.195806 5.70706 4.83718 26 1 
644 1.20769 5.72884 -0.0684201 0.196891 5.73264 4.86656 26 1 
648 1.20771 5.75357 -0.0669792 0.197789 5.75738 4.90287 26 1 
652 1.20773 5.77812 -0.0653992 0.198783 5.78193 4.93722 26 1 
656 1.20776 5.80173 -0.0636913 0.199435 5.80552 4.97693 26 1 
660 1.20778 5.82486 -0.0618716 0.200075 5.82864 5.01383 26 1 
664 1.2078 5.84712 -0.0598435 0.200518 5.85088 5.05699 26 1 
668 1.20782 5.86901 -0.0577682 0.200751 5.87274 5.09768 26 1 
672 1.20785 5.89052 -0.0555258 0.20079 5.89422 5.13978 26 1 
672 1.20785 5.89052 -0.0555258 0.20079 5.89422 5.13978 27 1 
676 1.20787 5.9111 -0.0530685 0.200654 5.91476 5.19283 27 1 
680 1.2079 5.93173 -0.0505908 0.200436 5.93535 5.23361 27 1 
684 1.20793 5.95106 -0.0478501 0.199731 5.95462 5.28513 27 1 
688 1.20795 5.97063 -0.045105 0.198977 5.97413 5.33418 27 1 
692 1.20798 5.98929 -0.0421012 0.197952 5.99272 5.38957 27 1 
696 1.20801 6.00812 -0.0390106 0.196709 6.01148 5.43573 27 1 
700 1.20804 6.02623 -0.0358228 0.195252 6.02951 5.49603 27 1 
704 1.20807 6.04387 -0.032495 0.193793 6.04707 5.55392 27 1 
704 1.20807 6.04387 -0.032495 0.193793 6.04707 5.55392 31 1 
708 1.2081 6.06136 -0.0290192 0.191664 6.06447 5.60152 31 1 
712 1.20813 6.07869 -0.0254988 0.189496 6.08171 5.65933 31 1 
716 1.20817 6.09563 -0.02164 0.187359 6.09856 5.72378 31 1 
720 1.2082 6.11225 -0.0178632 0.184944 6.11508 5.77792 31 1 
724 1.20822 6.12998 -0.0140812 0.182348 6.13272 5.8168 31 1 
728 1.20827 6.14591 -0.00983547 0.179537 6.14856 5.90074 31 1 
732 1.20829 6.16255 -0.00577075 0.177243 6.16512 5.94803 31 1 
736 1.2083 6.18049 -0.00147874 0.173322 6.18293 5.96672 31 1 
740 1.20836 6.19647 0.00279216 0.171042 6.19885 6.06292 31 1 
744 1.20838 6.21337 0.00751878 0.167797 6.21566 6.10652 31 1 
748 1.20838 6.23192 0.0116545 0.165023 6.23413 6.09938 31 1 
752 1.20841 6.25046 0.0168268 0.162441 6.25261 6.16617 31 1 
756 1.20846 6.26765 0.0214705 0.158999 6.26971 6.24359 31 1 
760 1.20842 6.28987 0.0259262 0.156698 6.29189 6.17376 31 1 
764 1.20843 6.31203 0.0304448 0.154764 6.31402 6.19385 31 1 
768 1.20847 6.33506 0.0344327 0.151559 6.33698 6.27124 31 1 
772 1.20842 6.36076 0.0405507 0.151177 6.3627 6.17802 31 1 
776 1.20835 6.38882 0.0462456 0.154189 6.39088 6.04382 31 1 
780 1.2083 6.42727 0.0491178 0.15194 6.42929 5.95242 31 1 
784 1.20825 6.4703 0.0508142 0.153282 6.47235 5.87745 31 1 
788 1.20804 6.53053 0.0561539 0.158582 6.53274 5.48871 31 1 
792 1.20784 6.59609 0.0598517 0.17319 6.59871 5.12109 31 1 
796 1.20748 6.69526 0.059537 0.194665 6.69847 4.47075 31 1 
800 1.20714 6.76617 0.0594937 0.203564 6.76962 3.87231 31 1 
