59.7727;r ;Density                 ;Velocity u              ;Velocity v              ;Velocity w              ;|Velocity|              ;Pressure                ;Distribution            ;Levels                  ;
0 1.20651 9.99816 -0.000164741 0.000629616 9.99816 2.73194 1 1 
4 1.20651 9.9963 -0.000208671 0.000656192 9.9963 2.72976 1 1 
8 1.20651 9.99324 -0.000469957 0.000272102 9.99324 2.735 1 1 
12 1.20653 9.99177 -0.000681117 0.000163542 9.99177 2.75643 1 1 
16 1.20655 9.99035 -0.000950337 -0.000125555 9.99035 2.79409 1 1 
20 1.20656 9.98809 -0.00114802 3.40007e-05 9.98809 2.8128 1 1 
24 1.20656 9.98619 -0.00137198 -0.000324101 9.98619 2.81498 1 1 
28 1.20658 9.9852 -0.001585 -0.000605559 9.9852 2.84519 1 1 
32 1.2066 9.98444 -0.0017393 -0.000688879 9.98444 2.8861 1 1 
36 1.2066 9.98292 -0.00195125 -0.000531968 9.98292 2.89384 1 1 
40 1.2066 9.98002 -0.00214323 -0.00100739 9.98002 2.89659 1 1 
44 1.20662 9.97741 -0.00238814 -0.00149909 9.97741 2.9184 1 1 
48 1.20663 9.97624 -0.00259547 -0.00174162 9.97624 2.93636 1 1 
52 1.20664 9.97484 -0.00283778 -0.00187175 9.97484 2.95915 1 1 
56 1.20665 9.97305 -0.00299939 -0.00182175 9.97306 2.97809 1 1 
60 1.20665 9.97166 -0.00320045 -0.00205598 9.97166 2.98888 1 1 
64 1.20667 9.97051 -0.00335296 -0.00214203 9.97051 3.00849 1 1 
64 1.20667 9.97051 -0.00335296 -0.00214203 9.97051 3.00849 2 1 
68 1.20668 9.96807 -0.00355437 -0.00204483 9.96807 3.04089 2 1 
72 1.20667 9.96572 -0.00376033 -0.00163754 9.96572 3.0249 2 1 
76 1.20668 9.9639 -0.00395088 -0.00186709 9.9639 3.02694 2 1 
80 1.2067 9.96227 -0.00418105 -0.0023709 9.96227 3.07789 2 1 
84 1.20671 9.9619 -0.00442589 -0.00314708 9.9619 3.08025 2 1 
88 1.20671 9.96052 -0.00471581 -0.00362092 9.96053 3.08623 2 1 
92 1.20672 9.95758 -0.0049424 -0.00294819 9.95758 3.11194 2 1 
96 1.20672 9.95545 -0.00519268 -0.00264668 9.95545 3.10638 2 1 
100 1.20672 9.9536 -0.00531213 -0.00275792 9.9536 3.11003 2 1 
104 1.20674 9.95079 -0.00541524 -0.00295266 9.9508 3.14195 2 1 
108 1.20673 9.95005 -0.00552564 -0.00291444 9.95005 3.12847 2 1 
112 1.20674 9.94957 -0.00567984 -0.00258829 9.94957 3.14218 2 1 
116 1.20676 9.94805 -0.0058589 -0.00303989 9.94805 3.18674 2 1 
120 1.20676 9.94741 -0.0059686 -0.00411937 9.94741 3.18205 2 1 
124 1.20677 9.94392 -0.00614274 -0.00439436 9.94393 3.19874 2 1 
128 1.20677 9.93944 -0.00626807 -0.00446473 9.93945 3.20386 2 1 
128 1.20677 9.93944 -0.00626807 -0.00446473 9.93945 3.20386 10 1 
132 1.20676 9.9375 -0.00641158 -0.00414502 9.9375 3.17559 10 1 
136 1.20678 9.93507 -0.00657526 -0.00351859 9.93508 3.22252 10 1 
140 1.2068 9.93433 -0.00682444 -0.00395812 9.93433 3.25312 10 1 
144 1.2068 9.93449 -0.00692136 -0.00419442 9.9345 3.24523 10 1 
148 1.20683 9.93096 -0.0070176 -0.0041418 9.93096 3.31405 10 1 
152 1.20683 9.92833 -0.00723136 -0.00471148 9.92833 3.30121 10 1 
156 1.20682 9.92456 -0.00740201 -0.00499059 9.92456 3.29461 10 1 
160 1.20686 9.91932 -0.00751696 -0.00557981 9.91933 3.36255 10 1 
160 1.20686 9.91932 -0.00751696 -0.00557981 9.91933 3.36255 10 1 
164 1.20687 9.91743 -0.00761799 -0.00571896 9.91743 3.37179 10 1 
168 1.20689 9.91451 -0.00780031 -0.00474626 9.91452 3.41639 10 1 
172 1.20692 9.91118 -0.00800022 -0.00419481 9.91118 3.45984 10 1 
176 1.20693 9.90863 -0.00817715 -0.00494089 9.90864 3.48031 10 1 
180 1.20696 9.90287 -0.00831544 -0.00599711 9.90287 3.54495 10 1 
184 1.20698 9.89717 -0.00851991 -0.00687862 9.89718 3.57638 10 1 
188 1.20701 9.89272 -0.00870208 -0.00650402 9.89272 3.62471 10 1 
192 1.20706 9.8859 -0.00886385 -0.00523314 9.8859 3.72272 10 1 
196 1.20707 9.88174 -0.00918239 -0.00659735 9.88175 3.74687 10 1 
200 1.20712 9.87896 -0.00930591 -0.00754647 9.87897 3.82145 10 1 
204 1.20723 9.87142 -0.009473 -0.00572203 9.87142 4.02125 10 1 
208 1.20728 9.8612 -0.00948149 -0.00323131 9.86121 4.12142 10 1 
212 1.20727 9.84976 -0.00975857 -0.00379763 9.84977 4.09764 10 1 
216 1.20737 9.83369 -0.0102389 -0.00838902 9.8337 4.28741 10 1 
220 1.20747 9.81875 -0.0105388 -0.00983516 9.81877 4.46684 10 1 
224 1.20749 9.8109 -0.0107005 -0.00570185 9.81091 4.48975 10 1 
224 1.20749 9.8109 -0.0107005 -0.00570185 9.81091 4.48975 10 1 
228 1.20768 9.80104 -0.0107586 -0.00233268 9.80104 4.84633 10 1 
232 1.20791 9.78367 -0.0110992 -0.00265015 9.78368 5.26005 10 1 
236 1.20795 9.75878 -0.0112234 -0.000945958 9.75879 5.33223 10 1 
240 1.20805 9.72681 -0.0117163 0.0029296 9.72684 5.50741 10 1 
244 1.20839 9.68727 -0.0120036 0.00634022 9.6873 6.13203 10 1 
248 1.20862 9.64976 -0.0123498 0.00990849 9.64978 6.53908 10 1 
252 1.20881 9.61196 -0.0127488 0.0169181 9.612 6.88491 10 1 
256 1.20941 9.54995 -0.0129621 0.0259537 9.55002 7.97449 10 1 
256 1.20941 9.54995 -0.0129621 0.0259537 9.55002 7.97449 11 1 
260 1.20987 9.474 -0.0135454 0.0376357 9.47412 8.79569 11 1 
264 1.21017 9.3919 -0.0138502 0.0670557 9.39224 9.34311 11 1 
268 1.21114 9.27285 -0.0142607 0.11239 9.27368 11.0914 11 1 
272 1.21232 9.11408 -0.0146479 0.172493 9.11613 13.2169 11 1 
276 1.21291 8.93619 -0.0148748 0.270695 8.94094 14.286 11 1 
280 1.21374 8.73805 -0.0153057 0.426482 8.74933 15.7806 11 1 
284 1.21531 8.55618 -0.0156137 0.661962 8.58348 18.6184 11 1 
288 1.21616 8.3817 -0.0157387 0.90376 8.43144 20.1625 11 1 
292 1.21515 7.8718 -0.0157441 0.817115 7.92201 18.3403 11 1 
296 1.21169 6.82309 -0.0156626 0.193095 6.85702 12.0848 11 1 
300 1.20666 5.66162 -0.0156034 -0.621344 5.73324 2.9979 11 1 
304 1.20308 4.85143 -0.015423 -1.1385 4.99878 -3.46332 11 1 
308 1.20175 4.47455 -0.0151373 -1.17099 4.62893 -5.87498 11 1 
312 1.20146 4.30883 -0.0147628 -0.896808 4.40523 -6.39541 11 1 
316 1.20201 4.12076 -0.0143323 -0.605034 4.16743 -5.39389 11 1 
320 1.20296 3.87017 -0.0139246 -0.368355 3.89018 -3.6802 11 1 
320 1.20296 3.87017 -0.0139246 -0.368355 3.89018 -3.6802 15 1 
324 1.20346 3.57213 -0.013408 -0.169166 3.579 -2.78526 15 1 
328 1.20383 3.265 -0.0127843 -0.0339935 3.2678 -2.11882 15 1 
332 1.20454 3.00245 -0.012219 0.03291 3.00469 -0.830235 15 1 
336 1.20511 2.77226 -0.0116968 0.0671866 2.77486 0.192379 15 1 
340 1.20535 2.55136 -0.0112115 0.0888614 2.55493 0.630686 15 1 
344 1.20566 2.35888 -0.0109216 0.102541 2.36295 1.18751 15 1 
348 1.20608 2.20755 -0.0108369 0.112927 2.2118 1.9501 15 1 
352 1.20638 2.08152 -0.0108972 0.116707 2.08595 2.49089 15 1 
356 1.20656 1.9696 -0.0112214 0.11161 1.9737 2.81041 15 1 
360 1.20681 1.88966 -0.01187 0.106673 1.89325 3.26721 15 1 
364 1.20711 1.85059 -0.0128469 0.106469 1.85401 3.80548 15 1 
368 1.2073 1.83614 -0.0140829 0.103382 1.83933 4.15922 15 1 
372 1.20747 1.84011 -0.0154271 0.0963866 1.84287 4.46631 15 1 
376 1.2077 1.86789 -0.0168235 0.0921154 1.87038 4.86929 15 1 
380 1.20791 1.91596 -0.0181945 0.090186 1.91832 5.24715 15 1 
384 1.20806 1.97558 -0.019474 0.0864655 1.97774 5.53579 15 1 
384 1.20806 1.97558 -0.019474 0.0864655 1.97774 5.53579 16 1 
388 1.20821 2.04284 -0.0206298 0.0818644 2.04478 5.80669 16 1 
392 1.20838 2.11814 -0.0215958 0.0794723 2.11997 6.09944 16 1 
396 1.20852 2.2 -0.0223364 0.0789019 2.20176 6.35922 16 1 
400 1.20864 2.28493 -0.0229614 0.0777108 2.2866 6.5782 16 1 
404 1.20877 2.37113 -0.0235057 0.0759001 2.37269 6.80393 16 1 
408 1.20888 2.45795 -0.0238434 0.0750447 2.45944 7.01349 16 1 
412 1.20898 2.54509 -0.0239961 0.0754784 2.54655 7.18006 16 1 
416 1.20906 2.63254 -0.0240769 0.0763967 2.63398 7.33416 16 1 
420 1.20915 2.71959 -0.0241073 0.0769476 2.72099 7.50004 16 1 
424 1.20924 2.80445 -0.0240646 0.0771725 2.80581 7.65135 16 1 
428 1.2093 2.88653 -0.023942 0.0779001 2.88786 7.75833 16 1 
432 1.20935 2.96783 -0.0237496 0.0794978 2.96916 7.85859 16 1 
436 1.20942 3.04895 -0.0235383 0.0812725 3.05028 7.98148 16 1 
440 1.20948 3.12731 -0.0233563 0.0824863 3.12864 8.08746 16 1 
444 1.20952 3.20223 -0.0231845 0.083347 3.20353 8.16024 16 1 
448 1.20956 3.27565 -0.0230175 0.0846185 3.27695 8.23062 16 1 
448 1.20956 3.27565 -0.0230175 0.0846185 3.27695 8.23062 17 1 
452 1.2096 3.34831 -0.0228453 0.0865121 3.34962 8.31087 17 1 
456 1.20964 3.41919 -0.0226918 0.08824 3.42052 8.38284 17 1 
460 1.20967 3.48761 -0.0226196 0.0893754 3.48894 8.43854 17 1 
464 1.2097 3.55404 -0.0225946 0.090547 3.55537 8.49418 17 1 
468 1.20974 3.61921 -0.0225865 0.0920194 3.62055 8.55445 17 1 
472 1.20977 3.68327 -0.0226073 0.0934686 3.68462 8.60961 17 1 
476 1.2098 3.74601 -0.0226677 0.0948671 3.74737 8.66459 17 1 
480 1.20983 3.80724 -0.0227901 0.0960868 3.80861 8.72538 17 1 
484 1.20986 3.86714 -0.0229606 0.096944 3.86851 8.78572 17 1 
488 1.2099 3.92588 -0.0231585 0.097703 3.92724 8.84261 17 1 
492 1.20993 3.98384 -0.0233668 0.0984965 3.9852 8.90057 17 1 
496 1.20997 4.04124 -0.0235999 0.0991209 4.0426 8.97052 17 1 
500 1.21001 4.09777 -0.0238869 0.0992524 4.09911 9.04992 17 1 
504 1.21005 4.15341 -0.0242249 0.0988157 4.15472 9.12729 17 1 
508 1.2101 4.20838 -0.0245525 0.0981891 4.20966 9.20893 17 1 
512 1.21015 4.26306 -0.0249019 0.0974622 4.26431 9.29797 17 1 
512 1.21015 4.26306 -0.0249019 0.0974622 4.26431 9.29797 25 1 
516 1.2102 4.31762 -0.0252833 0.096349 4.31883 9.3937 25 1 
520 1.21026 4.37176 -0.0256973 0.0947531 4.37292 9.49308 25 1 
524 1.21031 4.42531 -0.026157 0.0927842 4.42641 9.59183 25 1 
528 1.21037 4.4786 -0.0265922 0.0906657 4.47965 9.69755 25 1 
532 1.21043 4.53203 -0.0270521 0.0885366 4.53303 9.80674 25 1 
536 1.21049 4.5856 -0.0275195 0.0863882 4.58655 9.91936 25 1 
540 1.21056 4.63902 -0.0280029 0.0842175 4.63993 10.0388 25 1 
544 1.21062 4.69219 -0.0285114 0.0821624 4.69305 10.155 25 1 
548 1.21069 4.74531 -0.0290121 0.0803959 4.74613 10.2687 25 1 
552 1.21075 4.79875 -0.0295056 0.0791606 4.79955 10.38 25 1 
556 1.21081 4.85253 -0.0300079 0.0785481 4.85331 10.4951 25 1 
560 1.21088 4.90639 -0.0305444 0.078484 4.90717 10.6133 25 1 
564 1.21094 4.96022 -0.0310861 0.0790522 4.961 10.7217 25 1 
568 1.211 5.01412 -0.0316276 0.0803799 5.01492 10.8289 25 1 
572 1.21105 5.06862 -0.0321704 0.0826347 5.06945 10.9345 25 1 
576 1.21111 5.12355 -0.0327105 0.0857318 5.12443 11.0388 25 1 
576 1.21111 5.12355 -0.0327105 0.0857318 5.12443 11.0388 26 1 
580 1.21117 5.17836 -0.0332619 0.089462 5.1793 11.1411 26 1 
584 1.21122 5.23316 -0.0338141 0.0938308 5.23417 11.2345 26 1 
588 1.21127 5.28808 -0.0343561 0.0988376 5.28917 11.3269 26 1 
592 1.21132 5.34317 -0.0348847 0.104394 5.34436 11.4144 26 1 
596 1.21137 5.39829 -0.0353822 0.110287 5.3996 11.497 26 1 
600 1.21141 5.45293 -0.0358612 0.116238 5.45435 11.581 26 1 
604 1.21145 5.50727 -0.0363138 0.122186 5.5088 11.6584 26 1 
608 1.2115 5.56123 -0.0367394 0.127869 5.56288 11.7379 26 1 
608 1.2115 5.56123 -0.0367394 0.127869 5.56288 11.7379 26 1 
612 1.21154 5.6149 -0.0371356 0.133126 5.61665 11.8158 26 1 
616 1.21158 5.6683 -0.0374809 0.137966 5.67016 11.8884 26 1 
620 1.21162 5.72072 -0.0378132 0.141847 5.72266 11.9624 26 1 
624 1.21166 5.77289 -0.0381303 0.14479 5.77488 12.0289 26 1 
628 1.2117 5.82473 -0.0383697 0.146607 5.82676 12.1025 26 1 
632 1.21174 5.87648 -0.038641 0.147121 5.8785 12.174 26 1 
636 1.21178 5.92843 -0.0388798 0.146294 5.93041 12.2436 26 1 
640 1.21182 5.98012 -0.0390932 0.143881 5.98203 12.3172 26 1 
644 1.21185 6.03248 -0.0393637 0.139953 6.03429 12.3797 26 1 
648 1.21189 6.08551 -0.0395902 0.1342 6.08717 12.4528 26 1 
652 1.21193 6.13973 -0.0398854 0.126954 6.14123 12.5224 26 1 
656 1.21197 6.19523 -0.0401672 0.117938 6.19654 12.5924 26 1 
660 1.21201 6.25178 -0.0404745 0.107278 6.25289 12.6635 26 1 
664 1.21204 6.31013 -0.0408514 0.0952262 6.31104 12.7233 26 1 
668 1.21209 6.36983 -0.0412316 0.0816376 6.37055 12.7974 26 1 
672 1.21212 6.43162 -0.0416362 0.0671795 6.43218 12.8599 26 1 
672 1.21212 6.43162 -0.0416362 0.0671795 6.43218 12.8599 27 1 
676 1.21216 6.49472 -0.0420518 0.0516867 6.49514 12.9316 27 1 
680 1.2122 6.55882 -0.0425219 0.0355396 6.55913 13.0036 27 1 
684 1.21223 6.62416 -0.0429109 0.019202 6.62441 13.0647 27 1 
688 1.21227 6.68989 -0.0433221 0.00256874 6.69012 13.139 27 1 
692 1.21231 6.75652 -0.0436958 -0.0136363 6.75676 13.2007 27 1 
696 1.21235 6.82236 -0.0440674 -0.0290706 6.82265 13.2838 27 1 
700 1.21239 6.88798 -0.0444395 -0.0440368 6.88835 13.3433 27 1 
704 1.21243 6.95303 -0.0447715 -0.0573735 6.95349 13.4132 27 1 
704 1.21243 6.95303 -0.0447715 -0.0573735 6.95349 13.4132 31 1 
708 1.21248 7.01638 -0.0450159 -0.0696825 7.01695 13.5086 31 1 
712 1.21251 7.07945 -0.0452926 -0.0805425 7.08012 13.5588 31 1 
716 1.21256 7.14005 -0.0454752 -0.0892831 7.14082 13.6517 31 1 
720 1.2126 7.20011 -0.045553 -0.0962098 7.20095 13.7262 31 1 
724 1.21265 7.25715 -0.0458969 -0.100415 7.25805 13.8192 31 1 
728 1.21269 7.31459 -0.0461567 -0.102778 7.31551 13.8824 31 1 
732 1.21273 7.37074 -0.0464035 -0.102081 7.37165 13.9664 31 1 
736 1.2128 7.42489 -0.0466881 -0.0986622 7.42575 14.0905 31 1 
740 1.21282 7.48282 -0.0468506 -0.0915354 7.48358 14.1223 31 1 
744 1.21289 7.53919 -0.047492 -0.0809351 7.53983 14.2442 31 1 
748 1.21296 7.59698 -0.0480124 -0.0671493 7.59749 14.3751 31 1 
752 1.21298 7.65932 -0.0484137 -0.0488543 7.65971 14.4054 31 1 
756 1.21304 7.72364 -0.0500066 -0.0282284 7.72394 14.5146 31 1 
760 1.21311 7.7922 -0.0512702 -0.00340677 7.79248 14.6509 31 1 
764 1.21316 7.86334 -0.0518275 0.0243616 7.86367 14.743 31 1 
768 1.2132 7.93699 -0.0533904 0.0540516 7.9375 14.814 31 1 
772 1.21326 8.01309 -0.054855 0.0858089 8.01392 14.9246 31 1 
776 1.21335 8.08984 -0.0552251 0.117853 8.09109 15.0749 31 1 
780 1.21337 8.17011 -0.0569289 0.149836 8.17192 15.1097 31 1 
784 1.21343 8.24748 -0.0593522 0.182842 8.24999 15.2225 31 1 
788 1.21348 8.32784 -0.0593056 0.21719 8.33118 15.3158 31 1 
792 1.21352 8.40557 -0.0571702 0.254303 8.40995 15.3848 31 1 
796 1.21355 8.47956 -0.0524367 0.292034 8.48511 15.4515 31 1 
800 1.21353 8.51945 -0.0490295 0.309721 8.52555 15.4163 31 1 
