146.715;r ;Density                 ;Velocity u              ;Velocity v              ;Velocity w              ;|Velocity|              ;Pressure                ;Distribution            ;Levels                  ;
0 1.20476 9.99906 -0.000161382 0.000517171 9.99906 -0.4266 1 1 
4 1.20476 9.99802 -0.000244595 0.000976133 9.99802 -0.436714 1 1 
8 1.20475 9.99651 -0.000547431 0.000843332 9.99651 -0.446717 1 1 
12 1.20476 9.99646 -0.000806829 0.00111493 9.99646 -0.441293 1 1 
16 1.20477 9.99645 -0.00111692 0.0011101 9.99645 -0.420863 1 1 
20 1.20477 9.99567 -0.00135445 0.00152847 9.99567 -0.417518 1 1 
24 1.20476 9.99531 -0.00161994 0.00151767 9.99531 -0.429057 1 1 
28 1.20477 9.99571 -0.00188313 0.00159323 9.99572 -0.413384 1 1 
32 1.20479 9.99624 -0.00209838 0.00183435 9.99624 -0.38555 1 1 
36 1.20479 9.99607 -0.0023648 0.00234972 9.99607 -0.386922 1 1 
40 1.20478 9.99459 -0.00261807 0.00223962 9.99459 -0.393353 1 1 
44 1.20479 9.99336 -0.00292397 0.00212686 9.99336 -0.382808 1 1 
48 1.20479 9.99344 -0.00320226 0.00229142 9.99345 -0.374991 1 1 
52 1.2048 9.99331 -0.00351648 0.00254273 9.99331 -0.358131 1 1 
56 1.20481 9.99285 -0.00375429 0.00296602 9.99285 -0.344933 1 1 
60 1.20481 9.99276 -0.00403925 0.00311344 9.99276 -0.342413 1 1 
64 1.20482 9.99281 -0.00430131 0.0034731 9.99281 -0.329355 1 1 
64 1.20482 9.99281 -0.00430131 0.0034731 9.99281 -0.329355 2 1 
68 1.20483 9.99155 -0.00459903 0.00398396 9.99155 -0.299159 2 1 
72 1.20482 9.99043 -0.00488085 0.00481952 9.99043 -0.316397 2 1 
76 1.20483 9.98976 -0.00516507 0.00505782 9.98977 -0.316038 2 1 
80 1.20485 9.98925 -0.00547269 0.00512213 9.98925 -0.266966 2 1 
84 1.20485 9.99009 -0.00574388 0.00490917 9.99009 -0.265022 2 1 
88 1.20486 9.98981 -0.00605744 0.00499103 9.98981 -0.25705 2 1 
92 1.20487 9.98787 -0.00634191 0.00623231 9.98787 -0.228107 2 1 
96 1.20487 9.98682 -0.00667667 0.00708817 9.98683 -0.229211 2 1 
100 1.20488 9.98603 -0.00692003 0.00742569 9.98603 -0.221956 2 1 
104 1.2049 9.98418 -0.00718742 0.00773887 9.98419 -0.186691 2 1 
108 1.20489 9.98441 -0.00746185 0.00830543 9.98441 -0.194512 2 1 
112 1.20491 9.98488 -0.00778312 0.00917208 9.98489 -0.170435 2 1 
116 1.20494 9.98433 -0.00811574 0.00923238 9.98434 -0.115649 2 1 
120 1.20494 9.98465 -0.00836795 0.00875275 9.98466 -0.115045 2 1 
124 1.20495 9.9821 -0.00866145 0.00904438 9.98211 -0.0924627 2 1 
128 1.20496 9.97856 -0.00891996 0.00953389 9.97857 -0.078398 2 1 
128 1.20496 9.97856 -0.00891996 0.00953389 9.97857 -0.078398 10 1 
132 1.20495 9.97761 -0.00921048 0.0104964 9.97762 -0.09657 10 1 
136 1.20498 9.97613 -0.00951531 0.0118162 9.97614 -0.0373056 10 1 
140 1.205 9.97626 -0.00990754 0.012003 9.97628 0.00336217 10 1 
144 1.205 9.97742 -0.0101683 0.012382 9.97744 0.00337168 10 1 
148 1.20504 9.97488 -0.0104333 0.0131193 9.9749 0.0804531 10 1 
152 1.20504 9.97312 -0.0107934 0.0131842 9.97314 0.0764512 10 1 
156 1.20504 9.97024 -0.0111192 0.013515 9.97026 0.0788874 10 1 
160 1.20509 9.96595 -0.0114289 0.0136588 9.96597 0.154317 10 1 
160 1.20509 9.96595 -0.0114289 0.0136588 9.96597 0.154317 10 1 
164 1.20509 9.96515 -0.0117143 0.0143278 9.96516 0.169212 10 1 
168 1.20512 9.96327 -0.0120229 0.0159767 9.96329 0.220545 10 1 
172 1.20515 9.96088 -0.0123851 0.0172397 9.96091 0.271394 10 1 
176 1.20517 9.95931 -0.0127568 0.0173328 9.95933 0.298938 10 1 
180 1.2052 9.95452 -0.0130467 0.0171108 9.95455 0.370102 10 1 
184 1.20522 9.9498 -0.0133697 0.0169357 9.94983 0.404473 10 1 
188 1.20525 9.94631 -0.0137309 0.0180377 9.94634 0.45368 10 1 
192 1.20531 9.94044 -0.0140872 0.0201454 9.94047 0.555124 10 1 
196 1.20532 9.93723 -0.0145558 0.0196374 9.93727 0.584419 10 1 
200 1.20537 9.93546 -0.0148286 0.0195112 9.9355 0.662408 10 1 
204 1.20548 9.92895 -0.0151887 0.022176 9.92898 0.866352 10 1 
208 1.20554 9.91972 -0.0153825 0.0255923 9.91977 0.967993 10 1 
212 1.20552 9.9092 -0.0157977 0.0258048 9.90925 0.941187 10 1 
216 1.20563 9.89403 -0.0164186 0.0219092 9.89407 1.13272 10 1 
220 1.20573 9.88002 -0.0168934 0.0213018 9.88006 1.31689 10 1 
224 1.20574 9.87316 -0.017223 0.0264118 9.87321 1.33808 10 1 
224 1.20574 9.87316 -0.017223 0.0264118 9.87321 1.33808 10 1 
228 1.20594 9.86422 -0.0174326 0.0305576 9.86428 1.69508 10 1 
232 1.20617 9.84776 -0.0179455 0.0309582 9.84783 2.11193 10 1 
236 1.20621 9.82382 -0.0182471 0.0335423 9.82391 2.17792 10 1 
240 1.2063 9.79264 -0.0189395 0.0381871 9.79276 2.3484 10 1 
244 1.20665 9.75401 -0.019436 0.0421544 9.75413 2.9787 10 1 
248 1.20687 9.71753 -0.0199305 0.0464485 9.71767 3.38577 10 1 
252 1.20706 9.68042 -0.0204695 0.0543209 9.68061 3.72562 10 1 
256 1.20767 9.61886 -0.0208465 0.0641708 9.61912 4.81889 10 1 
256 1.20767 9.61886 -0.0208465 0.0641708 9.61912 4.81889 11 1 
260 1.20812 9.5434 -0.0215529 0.0765761 9.54377 5.64109 11 1 
264 1.20842 9.46172 -0.0219564 0.106849 9.46243 6.18321 11 1 
268 1.2094 9.34274 -0.0224866 0.153129 9.34416 7.94127 11 1 
272 1.21058 9.18373 -0.0229685 0.214108 9.18666 10.0814 11 1 
276 1.21117 9.00531 -0.0232545 0.313514 9.01144 11.1494 11 1 
280 1.212 8.80635 -0.0237691 0.471181 8.81987 12.6458 11 1 
284 1.21358 8.62382 -0.0241201 0.709161 8.65471 15.4996 11 1 
288 1.21443 8.44818 -0.0242176 0.952809 8.50293 17.0379 11 1 
292 1.21339 7.93236 -0.0240937 0.863053 7.98713 15.1586 11 1 
296 1.20986 6.87225 -0.0238038 0.230185 6.90738 8.78175 11 1 
300 1.20475 5.70008 -0.0235029 -0.59382 5.7687 -0.460102 11 1 
304 1.20111 4.88403 -0.0229913 -1.11665 5.02568 -7.02866 11 1 
308 1.19974 4.50572 -0.022304 -1.15003 4.65393 -9.49671 11 1 
312 1.19943 4.34 -0.0215105 -0.874926 4.43145 -10.0595 11 1 
316 1.19997 4.15146 -0.0206639 -0.583353 4.19477 -9.0804 11 1 
320 1.20091 3.90096 -0.0198911 -0.347834 3.91898 -7.38026 11 1 
320 1.20091 3.90096 -0.0198911 -0.347834 3.91898 -7.38026 15 1 
324 1.2014 3.60449 -0.0190355 -0.15034 3.61049 -6.51151 15 1 
328 1.20175 3.29994 -0.0180314 -0.0172606 3.30262 -5.8711 15 1 
332 1.20246 3.04031 -0.0171323 0.0473725 3.04275 -4.59367 15 1 
336 1.20302 2.81378 -0.0163576 0.0790045 2.81666 -3.5847 15 1 
340 1.20324 2.59785 -0.0156365 0.0980413 2.60167 -3.1741 15 1 
344 1.20353 2.41176 -0.0151428 0.109496 2.41601 -2.64657 15 1 
348 1.20394 2.26884 -0.0149416 0.118158 2.27319 -1.90698 15 1 
352 1.20423 2.15349 -0.0150144 0.12128 2.15797 -1.3877 15 1 
356 1.2044 2.05345 -0.0154901 0.116762 2.05764 -1.09073 15 1 
360 1.20464 1.98517 -0.0163871 0.112887 1.98894 -0.654562 15 1 
364 1.20492 1.95665 -0.0176174 0.114004 1.96035 -0.138357 15 1 
368 1.2051 1.95086 -0.0190346 0.112725 1.95445 0.186043 15 1 
372 1.20525 1.96082 -0.0204961 0.107865 1.96408 0.455701 15 1 
376 1.20545 1.99174 -0.0220187 0.105855 1.99482 0.815344 15 1 
380 1.20564 2.04077 -0.0235566 0.106544 2.04383 1.14795 15 1 
384 1.20577 2.09984 -0.0250253 0.10575 2.1028 1.39094 15 1 
384 1.20577 2.09984 -0.0250253 0.10575 2.1028 1.39094 16 1 
388 1.20589 2.16526 -0.0264038 0.103897 2.16808 1.61328 16 1 
392 1.20603 2.23769 -0.0276619 0.103934 2.24046 1.85443 16 1 
396 1.20614 2.31602 -0.02877 0.105664 2.31879 2.06148 16 1 
400 1.20623 2.39705 -0.0298586 0.106663 2.39979 2.2257 16 1 
404 1.20633 2.4791 -0.0309413 0.106737 2.48176 2.39432 16 1 
408 1.20641 2.5617 -0.0318839 0.107444 2.56432 2.5482 16 1 
412 1.20647 2.64475 -0.0326925 0.109216 2.64737 2.66303 16 1 
416 1.20653 2.72833 -0.0334834 0.111293 2.73097 2.76739 16 1 
420 1.2066 2.81177 -0.0342901 0.112923 2.8144 2.88418 16 1 
424 1.20665 2.89339 -0.0350577 0.114195 2.896 2.9878 16 1 
428 1.20669 2.97252 -0.03576 0.115857 2.97513 3.04857 16 1 
432 1.20672 3.05121 -0.0363834 0.118207 3.05385 3.10422 16 1 
436 1.20676 3.13016 -0.0370028 0.120768 3.13283 3.18493 16 1 
440 1.2068 3.20686 -0.037657 0.122991 3.20956 3.2507 16 1 
444 1.20682 3.28047 -0.0383026 0.124924 3.28317 3.28555 16 1 
448 1.20684 3.35289 -0.0389201 0.12714 3.35562 3.31981 16 1 
448 1.20684 3.35289 -0.0389201 0.12714 3.35562 3.31981 17 1 
452 1.20686 3.42492 -0.039491 0.129927 3.42771 3.36611 17 1 
456 1.20689 3.49558 -0.0400668 0.132718 3.49842 3.40614 17 1 
460 1.2069 3.56406 -0.0407021 0.135037 3.56694 3.43065 17 1 
464 1.20691 3.63077 -0.0413687 0.137393 3.63368 3.45505 17 1 
468 1.20693 3.69633 -0.0419914 0.139968 3.6993 3.48236 17 1 
472 1.20694 3.76091 -0.0426037 0.14254 3.76392 3.50208 17 1 
476 1.20695 3.82422 -0.043237 0.145167 3.82729 3.51882 17 1 
480 1.20696 3.88606 -0.0439327 0.14777 3.88919 3.53798 17 1 
484 1.20697 3.94649 -0.0446382 0.150129 3.94966 3.55513 17 1 
488 1.20697 4.00562 -0.0453327 0.152482 4.00883 3.56548 17 1 
492 1.20698 4.06379 -0.0460194 0.155036 4.06706 3.57209 17 1 
496 1.20698 4.1211 -0.0467101 0.157667 4.12443 3.58445 17 1 
500 1.20699 4.17724 -0.0474713 0.160192 4.18064 3.59705 17 1 
504 1.20699 4.232 -0.0482595 0.162484 4.23544 3.602 17 1 
508 1.207 4.28567 -0.0490268 0.164877 4.28916 3.60402 17 1 
512 1.207 4.33854 -0.0497804 0.167425 4.3421 3.60813 17 1 
512 1.207 4.33854 -0.0497804 0.167425 4.3421 3.60813 25 1 
516 1.207 4.39076 -0.0505671 0.169963 4.39439 3.61462 25 1 
520 1.207 4.44198 -0.0513995 0.172423 4.44566 3.61806 25 1 
524 1.207 4.49194 -0.0522639 0.174778 4.49568 3.61772 25 1 
528 1.207 4.54102 -0.0530792 0.177101 4.54482 3.61784 25 1 
532 1.207 4.58951 -0.053904 0.179512 4.59337 3.61744 25 1 
536 1.207 4.63733 -0.05475 0.181916 4.64126 3.61682 25 1 
540 1.207 4.68429 -0.0556006 0.184245 4.68828 3.61754 25 1 
544 1.207 4.73023 -0.0564439 0.186468 4.73427 3.61742 25 1 
548 1.207 4.77538 -0.0572686 0.188601 4.77948 3.61328 25 1 
552 1.207 4.81997 -0.0580551 0.190754 4.82412 3.61044 25 1 
556 1.207 4.86408 -0.058826 0.192962 4.86829 3.61037 25 1 
560 1.207 4.90741 -0.0596071 0.195064 4.91168 3.61311 25 1 
564 1.207 4.94978 -0.0603509 0.197 4.9541 3.612 25 1 
568 1.207 4.99143 -0.0610488 0.198901 4.9958 3.60753 25 1 
572 1.207 5.0327 -0.0616791 0.200825 5.03711 3.60936 25 1 
576 1.207 5.07348 -0.0622743 0.202774 5.07794 3.61433 25 1 
576 1.207 5.07348 -0.0622743 0.202774 5.07794 3.61433 26 1 
580 1.207 5.11343 -0.0628118 0.204599 5.11794 3.61706 26 1 
584 1.207 5.15253 -0.0632674 0.206346 5.15708 3.61875 26 1 
588 1.20701 5.19107 -0.0636473 0.208024 5.19565 3.62326 26 1 
592 1.20701 5.2292 -0.0639396 0.209712 5.23383 3.62984 26 1 
596 1.20701 5.26675 -0.0641346 0.211423 5.27141 3.63708 26 1 
600 1.20702 5.30353 -0.0642585 0.21297 5.30822 3.64724 26 1 
604 1.20702 5.33951 -0.0642881 0.214522 5.34423 3.65678 26 1 
608 1.20703 5.37501 -0.0641732 0.215941 5.37976 3.66479 26 1 
608 1.20703 5.37501 -0.0641732 0.215941 5.37976 3.66479 26 1 
612 1.20704 5.40988 -0.0639783 0.217371 5.41465 3.67975 26 1 
616 1.20704 5.44434 -0.0636477 0.218853 5.44914 3.69371 26 1 
620 1.20705 5.47791 -0.063199 0.220128 5.48272 3.70943 26 1 
624 1.20706 5.51077 -0.0626133 0.22143 5.5156 3.72657 26 1 
628 1.20707 5.54305 -0.0618942 0.22261 5.54789 3.74427 26 1 
632 1.20708 5.57485 -0.0610703 0.223765 5.5797 3.76258 26 1 
636 1.2071 5.60595 -0.0600849 0.224893 5.61081 3.78707 26 1 
640 1.20711 5.6363 -0.05896 0.225911 5.64116 3.81072 26 1 
644 1.20712 5.66605 -0.0577093 0.226841 5.67091 3.83069 26 1 
648 1.20714 5.69489 -0.0563029 0.22761 5.69974 3.85956 26 1 
652 1.20715 5.72352 -0.0547551 0.228499 5.72837 3.88522 26 1 
656 1.20717 5.75122 -0.0530619 0.229033 5.75605 3.91455 26 1 
660 1.20718 5.77833 -0.0512565 0.229669 5.78314 3.94284 26 1 
664 1.2072 5.80454 -0.0492271 0.230074 5.80934 3.9759 26 1 
668 1.20722 5.83029 -0.0471663 0.230389 5.83505 4.00563 26 1 
672 1.20723 5.85555 -0.0449259 0.230537 5.86028 4.03625 26 1 
672 1.20723 5.85555 -0.0449259 0.230537 5.86028 4.03625 27 1 
676 1.20726 5.87979 -0.0424712 0.2306 5.88449 4.07806 27 1 
680 1.20727 5.90392 -0.0400132 0.230684 5.90858 4.10654 27 1 
684 1.20729 5.92667 -0.0372832 0.230332 5.93129 4.14359 27 1 
688 1.20731 5.94947 -0.0345737 0.230069 5.95404 4.17975 27 1 
692 1.20734 5.9712 -0.0315971 0.229606 5.97571 4.22023 27 1 
696 1.20735 5.99286 -0.0285645 0.229026 5.99732 4.2508 27 1 
700 1.20738 6.01373 -0.0254382 0.228341 6.01814 4.29275 27 1 
704 1.2074 6.03382 -0.0221693 0.22782 6.03818 4.33563 27 1 
704 1.2074 6.03382 -0.0221693 0.22782 6.03818 4.33563 31 1 
708 1.20742 6.05351 -0.0188169 0.22668 6.05781 4.36593 31 1 
712 1.20744 6.07298 -0.0153842 0.225571 6.07721 4.4 31 1 
716 1.20746 6.09166 -0.0116815 0.224656 6.09584 4.44833 31 1 
720 1.20748 6.10984 -0.0080348 0.223521 6.11395 4.48327 31 1 
724 1.20749 6.12889 -0.00443698 0.222302 6.13295 4.49672 31 1 
728 1.20752 6.14587 -0.000402114 0.220943 6.14986 4.55988 31 1 
732 1.20754 6.16309 0.00349876 0.220145 6.16705 4.58838 31 1 
736 1.20753 6.18152 0.00750061 0.217669 6.18538 4.57876 31 1 
740 1.20757 6.19793 0.0115219 0.217089 6.20176 4.64874 31 1 
744 1.20759 6.21444 0.0159362 0.21532 6.21822 4.67939 31 1 
748 1.20757 6.23271 0.0197945 0.214372 6.23645 4.64016 31 1 
752 1.20759 6.25064 0.0246004 0.213269 6.25435 4.6758 31 1 
756 1.20762 6.26665 0.0288243 0.211325 6.2703 4.74091 31 1 
760 1.20757 6.28754 0.032861 0.210926 6.29119 4.64546 31 1 
764 1.20756 6.30816 0.0370443 0.210884 6.31182 4.627 31 1 
768 1.2076 6.3291 0.0406127 0.209058 6.33271 4.68896 31 1 
772 1.20754 6.35278 0.0461316 0.209981 6.35644 4.58109 31 1 
776 1.20745 6.37797 0.0513084 0.215741 6.38185 4.42333 31 1 
780 1.20738 6.41292 0.0537702 0.215397 6.41679 4.3013 31 1 
784 1.20733 6.4531 0.0550665 0.219835 6.45711 4.20925 31 1 
788 1.20714 6.50792 0.059897 0.227474 6.51221 3.85713 31 1 
792 1.20692 6.56743 0.0632793 0.246534 6.57244 3.47133 31 1 
796 1.20656 6.65913 0.0634422 0.272257 6.6651 2.8173 31 1 
800 1.20625 6.72491 0.0639696 0.280762 6.73118 2.25878 31 1 
