103.244;r ;Density                 ;Velocity u              ;Velocity v              ;Velocity w              ;|Velocity|              ;Pressure                ;Distribution            ;Levels                  ;
0 1.21917 10.0006 -0.000176106 0.000526166 10.0006 25.6026 1 1 
4 1.21916 10.0008 -0.000267734 0.000898631 10.0008 25.5762 1 1 
8 1.21914 10.0018 -0.000587065 0.00071879 10.0018 25.5342 1 1 
12 1.21912 10.0043 -0.000865461 0.000908056 10.0043 25.5095 1 1 
16 1.21912 10.0068 -0.00119097 0.000849541 10.0068 25.5 1 1 
20 1.2191 10.0085 -0.00144099 0.00122021 10.0085 25.4717 1 1 
24 1.21908 10.0106 -0.00172359 0.0011561 10.0106 25.4284 1 1 
28 1.21907 10.0135 -0.00200351 0.001155 10.0135 25.4128 1 1 
32 1.21907 10.0166 -0.00223021 0.00133215 10.0166 25.4089 1 1 
36 1.21905 10.0189 -0.00250966 0.00179851 10.0189 25.3759 1 1 
40 1.21903 10.0199 -0.00277491 0.00163798 10.0199 25.3379 1 1 
44 1.21902 10.0212 -0.00308774 0.00145708 10.0212 25.3147 1 1 
48 1.219 10.0238 -0.00337179 0.00156951 10.0238 25.2883 1 1 
52 1.21899 10.0262 -0.00369643 0.00179116 10.0262 25.2739 1 1 
56 1.21898 10.0282 -0.00394705 0.00215963 10.0282 25.254 1 1 
60 1.21896 10.0307 -0.00424188 0.00223296 10.0307 25.2206 1 1 
64 1.21895 10.0333 -0.00451958 0.00252744 10.0333 25.1992 1 1 
64 1.21895 10.0333 -0.00451958 0.00252744 10.0333 25.1992 2 1 
68 1.21895 10.0345 -0.00483936 0.00298124 10.0345 25.1963 2 1 
72 1.21892 10.0359 -0.00514176 0.00374086 10.0359 25.1432 2 1 
76 1.2189 10.0378 -0.00543802 0.00388034 10.0378 25.1074 2 1 
80 1.21891 10.0398 -0.00576916 0.00387999 10.0398 25.1221 2 1 
84 1.21889 10.0432 -0.00606414 0.00360684 10.0432 25.0879 2 1 
88 1.21887 10.0455 -0.00639433 0.00361635 10.0455 25.059 2 1 
92 1.21887 10.046 -0.00670164 0.00477508 10.046 25.0515 2 1 
96 1.21885 10.0475 -0.00706775 0.0055553 10.0475 25.0145 2 1 
100 1.21883 10.0493 -0.00733565 0.00581539 10.0493 24.9856 2 1 
104 1.21883 10.05 -0.00763247 0.00604012 10.05 24.983 2 1 
108 1.21881 10.0528 -0.00795031 0.00652382 10.0528 24.9366 2 1 
112 1.2188 10.0558 -0.00829918 0.00728339 10.0558 24.9248 2 1 
116 1.21881 10.0578 -0.00866014 0.00725408 10.0578 24.9444 2 1 
120 1.21879 10.0606 -0.00895089 0.00670101 10.0606 24.9058 2 1 
124 1.21878 10.0606 -0.00927789 0.00690829 10.0606 24.8898 2 1 
128 1.21877 10.0596 -0.00956367 0.00728259 10.0596 24.8669 2 1 
128 1.21877 10.0596 -0.00956367 0.00728259 10.0596 24.8669 10 1 
132 1.21874 10.0612 -0.00990431 0.0081479 10.0612 24.8101 10 1 
136 1.21875 10.0622 -0.0102684 0.00937475 10.0622 24.8314 10 1 
140 1.21875 10.0648 -0.0107148 0.00945713 10.0648 24.8347 10 1 
144 1.21873 10.0685 -0.0110362 0.00968627 10.0685 24.7955 10 1 
148 1.21875 10.0685 -0.0113715 0.0102989 10.0685 24.8343 10 1 
152 1.21873 10.0693 -0.0118079 0.0102393 10.0693 24.7909 10 1 
156 1.2187 10.0689 -0.0122016 0.0104239 10.069 24.7545 10 1 
160 1.21873 10.0672 -0.0125782 0.0104151 10.0672 24.7914 10 1 
160 1.21873 10.0672 -0.0125782 0.0104151 10.0672 24.7914 10 1 
164 1.21871 10.0689 -0.0129495 0.0109643 10.0689 24.7657 10 1 
168 1.21872 10.0696 -0.0133576 0.0124662 10.0696 24.779 10 1 
172 1.21872 10.0697 -0.0137942 0.0135721 10.0697 24.7891 10 1 
176 1.21872 10.0707 -0.0142507 0.0134877 10.0707 24.7751 10 1 
180 1.21874 10.0684 -0.0146617 0.0131103 10.0684 24.8097 10 1 
184 1.21873 10.0663 -0.0150815 0.012776 10.0663 24.8033 10 1 
188 1.21873 10.0653 -0.0155193 0.0136949 10.0654 24.8086 10 1 
192 1.21877 10.0619 -0.015994 0.0155875 10.062 24.8723 10 1 
196 1.21876 10.0613 -0.0166028 0.0149112 10.0613 24.8613 10 1 
200 1.21878 10.0622 -0.0169675 0.0146254 10.0622 24.8962 10 1 
204 1.21888 10.0582 -0.0174225 0.0170684 10.0582 25.0657 10 1 
208 1.21891 10.0514 -0.017751 0.0203027 10.0514 25.1291 10 1 
212 1.21887 10.0434 -0.0182998 0.0203642 10.0435 25.0531 10 1 
216 1.21896 10.0307 -0.0190232 0.0162201 10.0307 25.2089 10 1 
220 1.21904 10.0191 -0.0196097 0.0153459 10.0191 25.36 10 1 
224 1.21903 10.0148 -0.0200933 0.0202596 10.0148 25.3334 10 1 
224 1.21903 10.0148 -0.0200933 0.0202596 10.0148 25.3334 10 1 
228 1.21921 10.0083 -0.0204498 0.0241653 10.0084 25.6587 10 1 
232 1.21942 9.99417 -0.0210946 0.0242232 9.99423 26.051 10 1 
236 1.21943 9.9726 -0.0215451 0.026565 9.97268 26.0716 10 1 
240 1.21951 9.94377 -0.0224192 0.031063 9.94386 26.2009 10 1 
244 1.21985 9.90724 -0.023076 0.0348167 9.90735 26.8175 10 1 
248 1.22006 9.87292 -0.023718 0.0388378 9.87304 27.1968 10 1 
252 1.22022 9.83797 -0.0244548 0.0465338 9.83812 27.4985 10 1 
256 1.22083 9.77804 -0.0250407 0.0562338 9.77826 28.5942 10 1 
256 1.22083 9.77804 -0.0250407 0.0562338 9.77826 28.5942 11 1 
260 1.22128 9.70415 -0.0259386 0.0684088 9.70446 29.41 11 1 
264 1.22157 9.62411 -0.0265308 0.0988128 9.62474 29.9279 11 1 
268 1.22256 9.50599 -0.0272648 0.14563 9.50729 31.7195 11 1 
272 1.22378 9.34696 -0.0279296 0.207413 9.34971 33.9175 11 1 
276 1.22437 9.16837 -0.0283643 0.308403 9.17426 34.9866 11 1 
280 1.22521 8.96916 -0.029042 0.468788 8.98234 36.5014 11 1 
284 1.22684 8.78675 -0.0295292 0.711173 8.81731 39.4551 11 1 
288 1.22771 8.61163 -0.0296997 0.959115 8.66609 41.0226 11 1 
292 1.22658 8.08907 -0.0295803 0.866519 8.14354 38.9771 11 1 
296 1.22282 7.01143 -0.0292797 0.219883 7.04696 32.1901 11 1 
300 1.21739 5.82172 -0.0290105 -0.62124 5.89333 22.3801 11 1 
304 1.21352 4.99693 -0.0285254 -1.15448 5.14441 15.3805 11 1 
308 1.21204 4.6194 -0.0278555 -1.18761 4.77347 12.7099 11 1 
312 1.21168 4.45916 -0.0270967 -0.905206 4.55437 12.0628 11 1 
316 1.21222 4.27543 -0.0262922 -0.605878 4.32073 13.0483 11 1 
320 1.21319 4.0285 -0.025596 -0.364136 4.04748 14.7973 11 1 
320 1.21319 4.0285 -0.025596 -0.364136 4.04748 14.7973 15 1 
324 1.21368 3.73539 -0.0248603 -0.161476 3.74171 15.6774 15 1 
328 1.21404 3.43508 -0.0240064 -0.0248629 3.43774 16.3231 15 1 
332 1.21476 3.18179 -0.0233403 0.0415454 3.18404 17.6377 15 1 
336 1.21534 2.96439 -0.0229267 0.0742006 2.96697 18.6697 15 1 
340 1.21556 2.76043 -0.0226702 0.093985 2.76384 19.077 15 1 
344 1.21586 2.58866 -0.0227283 0.105799 2.59242 19.6073 15 1 
348 1.21627 2.46187 -0.0231571 0.114412 2.46565 20.3571 15 1 
352 1.21656 2.3644 -0.0239184 0.11741 2.36823 20.8749 15 1 
356 1.21671 2.28311 -0.0251084 0.112672 2.28667 21.159 15 1 
360 1.21695 2.23306 -0.0267255 0.108163 2.23621 21.583 15 1 
364 1.21723 2.22197 -0.0286785 0.108368 2.22502 22.0865 15 1 
368 1.21739 2.23284 -0.0308126 0.106359 2.23577 22.3868 15 1 
372 1.21752 2.25801 -0.0329737 0.100831 2.26067 22.6224 15 1 
376 1.2177 2.30241 -0.0351674 0.097892 2.30491 22.9454 15 1 
380 1.21787 2.36365 -0.0373437 0.0976366 2.36612 23.2385 15 1 
384 1.21798 2.43391 -0.0394181 0.0960817 2.43629 23.4362 15 1 
384 1.21798 2.43391 -0.0394181 0.0960817 2.43629 23.4362 16 1 
388 1.21807 2.50913 -0.0413743 0.0934407 2.51138 23.6064 16 1 
392 1.21817 2.58973 -0.0431727 0.0925585 2.59192 23.7915 16 1 
396 1.21825 2.67494 -0.0447771 0.0934515 2.67712 23.9408 16 1 
400 1.21831 2.7617 -0.0463254 0.093732 2.76384 24.0443 16 1 
404 1.21837 2.84815 -0.0478383 0.0930042 2.85023 24.149 16 1 
408 1.21842 2.93383 -0.0491834 0.0927946 2.93586 24.237 16 1 
412 1.21844 3.01868 -0.0503624 0.0936877 3.0207 24.2841 16 1 
416 1.21846 3.10279 -0.0514934 0.0949281 3.10481 24.3193 16 1 
420 1.21849 3.18559 -0.0526268 0.0956506 3.18759 24.3669 16 1 
424 1.21851 3.26553 -0.0537181 0.0959546 3.26749 24.4012 16 1 
428 1.2185 3.34199 -0.0547361 0.0966656 3.34394 24.3906 16 1 
432 1.21849 3.41703 -0.0556707 0.0980838 3.41899 24.3743 16 1 
436 1.2185 3.49143 -0.0566067 0.0996967 3.4934 24.3853 16 1 
440 1.2185 3.56287 -0.0575965 0.100964 3.56485 24.3818 16 1 
444 1.21848 3.63063 -0.0585987 0.101921 3.63261 24.3464 16 1 
448 1.21846 3.69671 -0.0595927 0.103157 3.6987 24.3105 16 1 
448 1.21846 3.69671 -0.0595927 0.103157 3.6987 24.3105 17 1 
452 1.21845 3.76196 -0.0605639 0.104982 3.76398 24.2884 17 1 
456 1.21843 3.82551 -0.0615645 0.106786 3.82755 24.2612 17 1 
460 1.21841 3.88671 -0.0626605 0.108054 3.88877 24.2183 17 1 
464 1.21838 3.94605 -0.0638213 0.109293 3.94813 24.1758 17 1 
468 1.21836 4.00427 -0.0649671 0.110717 4.00638 24.1375 17 1 
472 1.21834 4.06161 -0.0661239 0.112062 4.06375 24.0923 17 1 
476 1.21831 4.11783 -0.0673277 0.113365 4.11999 24.0446 17 1 
480 1.21829 4.1728 -0.0686285 0.114517 4.17498 23.9996 17 1 
484 1.21826 4.22667 -0.0699564 0.115307 4.22887 23.9539 17 1 
488 1.21823 4.27965 -0.0712878 0.115977 4.28185 23.902 17 1 
492 1.2182 4.33203 -0.0726167 0.116739 4.33425 23.8462 17 1 
496 1.21817 4.38393 -0.0739596 0.117482 4.38617 23.7966 17 1 
500 1.21815 4.4351 -0.0753797 0.11797 4.43735 23.7482 17 1 
504 1.21812 4.48535 -0.0768256 0.118128 4.48759 23.6927 17 1 
508 1.21808 4.53496 -0.0782408 0.118311 4.53721 23.6339 17 1 
512 1.21805 4.58419 -0.0796235 0.118617 4.58645 23.5774 17 1 
512 1.21805 4.58419 -0.0796235 0.118617 4.58645 23.5774 25 1 
516 1.21802 4.63317 -0.0810237 0.118859 4.63544 23.5244 25 1 
520 1.21799 4.68156 -0.0824573 0.118976 4.68383 23.468 25 1 
524 1.21796 4.72905 -0.0839016 0.118997 4.73132 23.4081 25 1 
528 1.21793 4.77602 -0.0852726 0.119021 4.77829 23.3484 25 1 
532 1.21789 4.8227 -0.0866088 0.11918 4.82497 23.2885 25 1 
536 1.21786 4.86898 -0.0879402 0.119398 4.87126 23.2285 25 1 
540 1.21783 4.91464 -0.0892531 0.119595 4.91693 23.169 25 1 
544 1.21779 4.95946 -0.0905307 0.119798 4.96175 23.1097 25 1 
548 1.21776 5.00368 -0.091754 0.120022 5.00598 23.0454 25 1 
552 1.21772 5.04747 -0.0928992 0.120393 5.04978 22.9825 25 1 
556 1.21769 5.09087 -0.0940037 0.120928 5.0932 22.9226 25 1 
560 1.21766 5.13354 -0.0950918 0.121476 5.13588 22.865 25 1 
564 1.21763 5.17529 -0.0961317 0.121998 5.17764 22.8042 25 1 
568 1.21759 5.21631 -0.0970952 0.122586 5.21868 22.7392 25 1 
572 1.21756 5.25695 -0.0979657 0.123333 5.25933 22.6812 25 1 
576 1.21753 5.29706 -0.0987849 0.124188 5.29946 22.6265 25 1 
576 1.21753 5.29706 -0.0987849 0.124188 5.29946 22.6265 26 1 
580 1.2175 5.33627 -0.0995474 0.125025 5.33869 22.5692 26 1 
584 1.21746 5.37451 -0.100233 0.125838 5.37694 22.512 26 1 
588 1.21743 5.41216 -0.100834 0.126684 5.4146 22.4566 26 1 
592 1.2174 5.4493 -0.101343 0.127578 5.45176 22.4051 26 1 
596 1.21738 5.48575 -0.101776 0.128522 5.48822 22.3545 26 1 
600 1.21735 5.52138 -0.102153 0.129347 5.52385 22.3055 26 1 
604 1.21732 5.55605 -0.102468 0.130146 5.55853 22.2583 26 1 
608 1.2173 5.59019 -0.102659 0.130869 5.59268 22.2089 26 1 
608 1.2173 5.59019 -0.102659 0.130869 5.59268 22.2089 26 1 
612 1.21727 5.62369 -0.102784 0.13152 5.62618 22.1669 26 1 
616 1.21725 5.65669 -0.102817 0.132223 5.65919 22.1246 26 1 
620 1.21723 5.68873 -0.102768 0.132714 5.69122 22.0845 26 1 
624 1.21721 5.72009 -0.102635 0.133114 5.72257 22.0456 26 1 
628 1.21718 5.75084 -0.102399 0.133387 5.75331 22.0078 26 1 
632 1.21716 5.78115 -0.10209 0.133588 5.78361 21.9728 26 1 
636 1.21715 5.81082 -0.101673 0.133667 5.81326 21.9419 26 1 
640 1.21713 5.83981 -0.10116 0.133613 5.84223 21.9105 26 1 
644 1.21711 5.86818 -0.100576 0.133429 5.87057 21.8792 26 1 
648 1.2171 5.89584 -0.0998849 0.133015 5.8982 21.8524 26 1 
652 1.21708 5.92345 -0.0990486 0.132652 5.92578 21.8244 26 1 
656 1.21707 5.95013 -0.0981532 0.132024 5.95242 21.8034 26 1 
660 1.21706 5.97652 -0.0971474 0.131308 5.97876 21.7762 26 1 
664 1.21704 6.00208 -0.095979 0.13053 6.00427 21.7562 26 1 
668 1.21703 6.02735 -0.0947672 0.129535 6.02949 21.7339 26 1 
672 1.21702 6.05239 -0.0934043 0.128482 6.05449 21.7112 26 1 
672 1.21702 6.05239 -0.0934043 0.128482 6.05449 21.7112 27 1 
676 1.21701 6.07655 -0.0918527 0.127353 6.07859 21.6982 27 1 
680 1.217 6.10084 -0.0902897 0.12622 6.10282 21.6723 27 1 
684 1.21699 6.1238 -0.0884674 0.124844 6.12572 21.6572 27 1 
688 1.21698 6.14715 -0.0866289 0.123507 6.14901 21.6347 27 1 
692 1.21697 6.16956 -0.0845583 0.122115 6.17136 21.6214 27 1 
696 1.21696 6.19222 -0.0823496 0.120756 6.19395 21.5958 27 1 
700 1.21695 6.21402 -0.0800719 0.119358 6.21569 21.5847 27 1 
704 1.21694 6.23545 -0.0776268 0.118067 6.23706 21.566 27 1 
704 1.21694 6.23545 -0.0776268 0.118067 6.23706 21.566 31 1 
708 1.21693 6.25668 -0.0749807 0.116517 6.25823 21.5399 31 1 
712 1.21692 6.27756 -0.0722731 0.115109 6.27904 21.5265 31 1 
716 1.21691 6.29816 -0.0692272 0.113896 6.29957 21.5089 31 1 
720 1.2169 6.31815 -0.0662362 0.112702 6.31951 21.4882 31 1 
724 1.21688 6.33919 -0.0631856 0.111472 6.3405 21.4529 31 1 
728 1.21688 6.35839 -0.0596766 0.110279 6.35963 21.4562 31 1 
732 1.21686 6.37838 -0.0563504 0.109739 6.37959 21.4237 31 1 
736 1.21683 6.39915 -0.0527115 0.107991 6.40029 21.3715 31 1 
740 1.21684 6.41776 -0.0490735 0.107608 6.41886 21.3891 31 1 
744 1.21682 6.43773 -0.0450333 0.106815 6.43879 21.3415 31 1 
748 1.21678 6.45848 -0.041599 0.106183 6.4595 21.2722 31 1 
752 1.21677 6.47937 -0.0369462 0.106047 6.48036 21.263 31 1 
756 1.21676 6.49916 -0.033014 0.105291 6.5001 21.245 31 1 
760 1.21669 6.52327 -0.0293745 0.105038 6.5242 21.1105 31 1 
764 1.21666 6.54726 -0.0254935 0.104972 6.54817 21.0681 31 1 
768 1.21666 6.57207 -0.0220672 0.104601 6.57296 21.0538 31 1 
772 1.21656 6.59893 -0.0167285 0.106553 6.59983 20.8839 31 1 
776 1.21645 6.62838 -0.011714 0.109697 6.62931 20.6856 31 1 
780 1.21636 6.668 -0.00954536 0.108457 6.66892 20.5248 31 1 
784 1.21628 6.71079 -0.00851325 0.10973 6.71173 20.3727 31 1 
788 1.216 6.77216 -0.00392367 0.114806 6.77318 19.8674 31 1 
792 1.21576 6.83934 -0.000824378 0.12546 6.84056 19.4304 31 1 
796 1.21534 6.94114 -0.00218366 0.140974 6.94269 18.6835 31 1 
800 1.21496 7.01441 -0.00334095 0.148361 7.01611 17.9951 31 1 
