43.4711;r ;Density                 ;Velocity u              ;Velocity v              ;Velocity w              ;|Velocity|              ;Pressure                ;Distribution            ;Levels                  ;
0 1.20333 10.0002 -0.000145656 0.000495069 10.0002 -3.01715 1 1 
4 1.20332 9.99995 -0.000144471 0.000107961 9.99995 -3.04342 1 1 
8 1.2033 10 -0.000368272 -0.000527494 10 -3.07727 1 1 
12 1.20329 10.0015 -0.000538413 -0.00121792 10.0015 -3.08014 1 1 
16 1.2033 10.0032 -0.000772264 -0.00200655 10.0032 -3.07702 1 1 
20 1.20328 10.0042 -0.000946431 -0.00237029 10.0042 -3.11173 1 1 
24 1.20325 10.0055 -0.00112819 -0.0031909 10.0055 -3.15716 1 1 
28 1.20326 10.0074 -0.00130283 -0.00393659 10.0074 -3.15095 1 1 
32 1.20327 10.0094 -0.00141163 -0.00453713 10.0094 -3.12471 1 1 
36 1.20326 10.0109 -0.00160242 -0.0048295 10.0109 -3.14904 1 1 
40 1.20323 10.0112 -0.00177893 -0.00578552 10.0112 -3.19213 1 1 
44 1.20323 10.0115 -0.00198339 -0.00681395 10.0115 -3.20547 1 1 
48 1.20323 10.0128 -0.00217181 -0.00759594 10.0128 -3.20179 1 1 
52 1.20323 10.0141 -0.00241919 -0.00809183 10.0141 -3.19126 1 1 
56 1.20323 10.0151 -0.00257571 -0.0086293 10.0151 -3.20221 1 1 
60 1.20321 10.0165 -0.0027639 -0.00948103 10.0165 -3.22995 1 1 
64 1.20321 10.0179 -0.00294655 -0.0101682 10.0179 -3.23404 1 1 
64 1.20321 10.0179 -0.00294655 -0.0101682 10.0179 -3.23404 2 1 
68 1.20323 10.0179 -0.00316393 -0.0103737 10.0179 -3.20347 2 1 
72 1.20322 10.0178 -0.003352 -0.010358 10.0178 -3.22189 2 1 
76 1.2032 10.0184 -0.00352156 -0.0110113 10.0185 -3.24334 2 1 
80 1.20322 10.0194 -0.00369216 -0.0118925 10.0194 -3.2193 2 1 
84 1.20321 10.0215 -0.003864 -0.0129917 10.0215 -3.23014 2 1 
88 1.20322 10.0222 -0.00411744 -0.0138724 10.0222 -3.22398 2 1 
92 1.20323 10.0214 -0.00432432 -0.0135672 10.0214 -3.19595 2 1 
96 1.20322 10.0217 -0.00455627 -0.0136629 10.0217 -3.21078 2 1 
100 1.20322 10.022 -0.0047492 -0.0142101 10.022 -3.22312 2 1 
104 1.20323 10.0211 -0.00497092 -0.0148956 10.0211 -3.196 2 1 
108 1.20323 10.0225 -0.00514846 -0.0151987 10.0225 -3.19936 2 1 
112 1.20324 10.024 -0.00535053 -0.0152604 10.024 -3.17274 2 1 
116 1.20327 10.0243 -0.00564311 -0.016096 10.0243 -3.12658 2 1 
120 1.20326 10.0257 -0.00582789 -0.0175581 10.0257 -3.13939 2 1 
124 1.20327 10.0242 -0.00602395 -0.018167 10.0242 -3.12332 2 1 
128 1.20328 10.0216 -0.00618168 -0.0185585 10.0216 -3.10313 2 1 
128 1.20328 10.0216 -0.00618168 -0.0185585 10.0216 -3.10313 10 1 
132 1.20328 10.0213 -0.00639497 -0.018571 10.0213 -3.11093 10 1 
136 1.20331 10.0206 -0.00662178 -0.0183264 10.0206 -3.04994 10 1 
140 1.20333 10.0217 -0.00692592 -0.0190018 10.0218 -3.01361 10 1 
144 1.20333 10.0239 -0.00706633 -0.0194982 10.0239 -3.01949 10 1 
148 1.20337 10.0223 -0.00722103 -0.0196266 10.0223 -2.94306 10 1 
152 1.20337 10.0215 -0.00752518 -0.0203763 10.0215 -2.94342 10 1 
156 1.20337 10.0196 -0.00774516 -0.020852 10.0197 -2.94158 10 1 
160 1.20341 10.0165 -0.0078673 -0.0216147 10.0165 -2.87721 10 1 
160 1.20341 10.0165 -0.0078673 -0.0216147 10.0165 -2.87721 10 1 
164 1.20341 10.017 -0.00803592 -0.0218733 10.0171 -2.87891 10 1 
168 1.20342 10.0164 -0.0083013 -0.0211069 10.0165 -2.84587 10 1 
172 1.20344 10.0153 -0.00845281 -0.0207958 10.0153 -2.81911 10 1 
176 1.20344 10.0153 -0.0085539 -0.0215962 10.0153 -2.81724 10 1 
180 1.20347 10.0121 -0.00874551 -0.0226497 10.0122 -2.76968 10 1 
184 1.20347 10.0089 -0.00899193 -0.0237338 10.0089 -2.76053 10 1 
188 1.20349 10.0069 -0.0090561 -0.0237453 10.0069 -2.73181 10 1 
192 1.20354 10.0023 -0.00914253 -0.0228236 10.0023 -2.64359 10 1 
196 1.20355 10.0001 -0.00949607 -0.0243387 10.0001 -2.62145 10 1 
200 1.20359 9.99899 -0.00955015 -0.0254219 9.99903 -2.53969 10 1 
204 1.20372 9.99276 -0.00955531 -0.0239242 9.9928 -2.31685 10 1 
208 1.20379 9.98403 -0.00953941 -0.0216506 9.98406 -2.18542 10 1 
212 1.20379 9.9739 -0.00985381 -0.0223726 9.97394 -2.17937 10 1 
216 1.20393 9.95857 -0.0102058 -0.0272952 9.95862 -1.94103 10 1 
220 1.20406 9.94444 -0.0103482 -0.0291451 9.94449 -1.7026 10 1 
224 1.2041 9.93768 -0.0105432 -0.0251354 9.93772 -1.62348 10 1 
224 1.2041 9.93768 -0.0105432 -0.0251354 9.93772 -1.62348 10 1 
228 1.20434 9.92844 -0.0106231 -0.0219736 9.92847 -1.19536 10 1 
232 1.20461 9.91141 -0.0108021 -0.0228537 9.91145 -0.708831 10 1 
236 1.20468 9.88702 -0.0108108 -0.0217342 9.88706 -0.582159 10 1 
240 1.20481 9.8554 -0.0114191 -0.0182056 9.85545 -0.349808 10 1 
244 1.20519 9.81597 -0.0117427 -0.0151637 9.81601 0.351413 10 1 
248 1.20546 9.77887 -0.0118919 -0.0118841 9.77888 0.821974 10 1 
252 1.20568 9.74199 -0.0122339 -0.00489626 9.74201 1.2197 10 1 
256 1.20632 9.68046 -0.0125881 0.00421786 9.68049 2.38276 10 1 
256 1.20632 9.68046 -0.0125881 0.00421786 9.68049 2.38276 11 1 
260 1.20681 9.60429 -0.0130861 0.015655 9.60435 3.26224 11 1 
264 1.20713 9.52207 -0.0131268 0.0452239 9.52227 3.84671 11 1 
268 1.20814 9.40287 -0.0135714 0.0910219 9.40347 5.66266 11 1 
272 1.20936 9.24321 -0.0141016 0.151813 9.24487 7.87132 11 1 
276 1.20997 9.0639 -0.0141326 0.251569 9.06805 8.98352 11 1 
280 1.21083 8.86472 -0.014348 0.40991 8.87508 10.5261 11 1 
284 1.21245 8.68263 -0.0147695 0.649027 8.70861 13.463 11 1 
288 1.21334 8.50825 -0.0149802 0.894386 8.5563 15.0593 11 1 
292 1.21229 7.99307 -0.014891 0.806597 8.04177 13.1666 11 1 
296 1.20871 6.93104 -0.0148752 0.173173 6.9651 6.70243 11 1 
300 1.20351 5.75588 -0.0149203 -0.653802 5.83122 -2.6828 11 1 
304 1.19981 4.93786 -0.0145326 -1.1789 5.09242 -9.37328 11 1 
308 1.19842 4.55898 -0.0140081 -1.21215 4.7211 -11.8877 11 1 
312 1.19811 4.39335 -0.0136405 -0.934625 4.49573 -12.442 11 1 
316 1.19867 4.20421 -0.0131565 -0.639067 4.25498 -11.4265 11 1 
320 1.19964 3.95159 -0.0124844 -0.397775 3.97409 -9.67893 11 1 
320 1.19964 3.95159 -0.0124844 -0.397775 3.97409 -9.67893 15 1 
324 1.20014 3.65178 -0.0117845 -0.192693 3.65972 -8.77066 15 1 
328 1.20052 3.3445 -0.0112359 -0.0523619 3.34748 -8.09277 15 1 
332 1.20125 3.08499 -0.0108634 0.0180972 3.08701 -6.77506 15 1 
336 1.20183 2.86186 -0.0105349 0.0552332 2.86405 -5.72892 15 1 
340 1.20208 2.65254 -0.0102519 0.0788528 2.65553 -5.27574 15 1 
344 1.2024 2.47607 -0.0101477 0.0929562 2.4794 -4.69258 15 1 
348 1.20285 2.34424 -0.0101967 0.102523 2.34757 -3.89214 15 1 
352 1.20317 2.24032 -0.0103327 0.104883 2.24366 -3.31262 15 1 
356 1.20336 2.15159 -0.0106351 0.0980369 2.15451 -2.95639 15 1 
360 1.20363 2.09391 -0.0111158 0.0910212 2.0963 -2.46857 15 1 
364 1.20394 2.07527 -0.0117461 0.088595 2.0774 -1.91311 15 1 
368 1.20414 2.07911 -0.0124692 0.0836154 2.08099 -1.55991 15 1 
372 1.2043 2.09871 -0.0131941 0.075063 2.10024 -1.26236 15 1 
376 1.20452 2.13943 -0.0139177 0.0693318 2.14075 -0.866486 15 1 
380 1.20473 2.1986 -0.0146249 0.0662749 2.19981 -0.490218 15 1 
384 1.20489 2.26804 -0.0152978 0.0618835 2.26912 -0.200357 15 1 
384 1.20489 2.26804 -0.0152978 0.0618835 2.26912 -0.200357 16 1 
388 1.20504 2.34377 -0.0159375 0.0567145 2.34471 0.0674417 16 1 
392 1.20519 2.42628 -0.0164874 0.0536263 2.42715 0.349447 16 1 
396 1.20533 2.51472 -0.0169042 0.0523068 2.51555 0.593558 16 1 
400 1.20544 2.60611 -0.0172965 0.0502064 2.60688 0.792299 16 1 
404 1.20555 2.6988 -0.0177034 0.0469959 2.6995 0.995621 16 1 
408 1.20566 2.79239 -0.0179956 0.0441514 2.79302 1.18709 16 1 
412 1.20574 2.88685 -0.0181625 0.0421369 2.88744 1.34368 16 1 
416 1.20583 2.98234 -0.0182971 0.0401264 2.98289 1.49289 16 1 
420 1.20592 3.07821 -0.0184144 0.0371875 3.0787 1.65647 16 1 
424 1.206 3.17274 -0.0184819 0.0334764 3.17318 1.8101 16 1 
428 1.20606 3.26536 -0.0184874 0.0301179 3.26574 1.91906 16 1 
432 1.20612 3.35804 -0.0184242 0.0277144 3.3584 2.01742 16 1 
436 1.20618 3.45132 -0.0183229 0.0257811 3.45165 2.13944 16 1 
440 1.20624 3.54267 -0.0182149 0.0238344 3.54298 2.24583 16 1 
444 1.20628 3.63143 -0.0180886 0.022336 3.63171 2.31663 16 1 
448 1.20632 3.7196 -0.0179425 0.0223023 3.71986 2.38332 16 1 
448 1.20632 3.7196 -0.0179425 0.0223023 3.71986 2.38332 17 1 
452 1.20636 3.80781 -0.0177544 0.0241619 3.80808 2.4645 17 1 
456 1.20641 3.89507 -0.0175364 0.0272526 3.89535 2.54176 17 1 
460 1.20644 3.98075 -0.0173573 0.0311602 3.98106 2.59958 17 1 
464 1.20647 4.06524 -0.0171962 0.0364974 4.06557 2.65441 17 1 
468 1.2065 4.14916 -0.0170116 0.0434373 4.14956 2.70781 17 1 
472 1.20652 4.23271 -0.0168127 0.05149 4.23318 2.74554 17 1 
476 1.20654 4.31556 -0.0166119 0.060421 4.31614 2.77517 17 1 
480 1.20655 4.39761 -0.016431 0.0697843 4.39832 2.80585 17 1 
484 1.20657 4.47906 -0.0162438 0.0790343 4.4799 2.83628 17 1 
488 1.20658 4.56012 -0.0160509 0.0881138 4.56111 2.86051 17 1 
492 1.20659 4.64103 -0.0158309 0.0968709 4.64218 2.88068 17 1 
496 1.20661 4.72195 -0.0155783 0.104771 4.72325 2.90488 17 1 
500 1.20662 4.80274 -0.0153373 0.111121 4.80416 2.92714 17 1 
504 1.20663 4.88342 -0.0151052 0.115531 4.88493 2.94331 17 1 
508 1.20664 4.9645 -0.0148451 0.11812 4.96604 2.95514 17 1 
512 1.20664 5.04644 -0.0145714 0.118829 5.04797 2.96708 17 1 
512 1.20664 5.04644 -0.0145714 0.118829 5.04797 2.96708 25 1 
516 1.20665 5.1296 -0.0143086 0.117215 5.13107 2.98412 25 1 
520 1.20666 5.21399 -0.0140573 0.113034 5.21535 3.00028 25 1 
524 1.20667 5.2995 -0.0138349 0.10634 5.30071 3.0158 25 1 
528 1.20668 5.38661 -0.0136028 0.0973873 5.38764 3.03255 25 1 
532 1.20669 5.47573 -0.0133792 0.0864871 5.47656 3.04638 25 1 
536 1.20669 5.56664 -0.0131721 0.073722 5.56729 3.05894 25 1 
540 1.2067 5.65896 -0.0129675 0.0592752 5.65943 3.0736 25 1 
544 1.20671 5.75231 -0.0127831 0.043539 5.75263 3.08734 25 1 
548 1.20671 5.84669 -0.0125883 0.0270362 5.84692 3.09125 25 1 
552 1.20671 5.94197 -0.0123804 0.0103564 5.94214 3.09206 25 1 
556 1.20672 6.03754 -0.0121861 -0.00609982 6.03771 3.0998 25 1 
560 1.20672 6.13286 -0.0119868 -0.0220369 6.13306 3.10673 25 1 
564 1.20672 6.22738 -0.0117726 -0.0370145 6.22764 3.10677 25 1 
568 1.20672 6.32104 -0.0115639 -0.0504151 6.32139 3.10329 25 1 
572 1.20672 6.41387 -0.0113567 -0.061611 6.41431 3.10801 25 1 
576 1.20672 6.50546 -0.0111605 -0.0702622 6.50597 3.11266 25 1 
576 1.20672 6.50546 -0.0111605 -0.0702622 6.50597 3.11266 26 1 
580 1.20672 6.59546 -0.010983 -0.0761911 6.59603 3.10568 26 1 
584 1.20672 6.68394 -0.0108138 -0.0789556 6.68453 3.10003 26 1 
588 1.20671 6.77185 -0.0106733 -0.0779355 6.77242 3.09107 26 1 
592 1.2067 6.85995 -0.0105665 -0.0727205 6.86046 3.07876 26 1 
596 1.2067 6.94853 -0.0104968 -0.0630702 6.94894 3.06946 26 1 
600 1.20669 7.03824 -0.0105114 -0.0487751 7.03855 3.06131 26 1 
604 1.20669 7.12991 -0.0106087 -0.0296393 7.13012 3.05368 26 1 
608 1.20668 7.22489 -0.0107538 -0.00566474 7.22506 3.0306 26 1 
608 1.20668 7.22489 -0.0107538 -0.00566474 7.22506 3.0306 26 1 
612 1.20667 7.32384 -0.0109379 0.0229481 7.32406 3.0079 26 1 
616 1.20665 7.42669 -0.0111605 0.0557839 7.42711 2.98579 26 1 
620 1.20663 7.53348 -0.0114407 0.0920556 7.5343 2.9527 26 1 
624 1.20662 7.64371 -0.0118187 0.131011 7.64511 2.92804 26 1 
628 1.2066 7.75709 -0.0122462 0.171714 7.75931 2.89715 26 1 
632 1.20659 7.87251 -0.0126499 0.212913 7.87576 2.86746 26 1 
636 1.20657 7.98866 -0.0130168 0.25342 7.9931 2.83567 26 1 
640 1.20655 8.10452 -0.0133239 0.292264 8.11025 2.79224 26 1 
644 1.20653 8.21907 -0.0135799 0.328769 8.22615 2.75888 26 1 
648 1.2065 8.33229 -0.0138677 0.362364 8.34071 2.71541 26 1 
652 1.20648 8.44341 -0.014221 0.392267 8.45308 2.67929 26 1 
656 1.20647 8.55171 -0.0145659 0.417795 8.56248 2.64684 26 1 
660 1.20645 8.6566 -0.0148206 0.438602 8.66827 2.61113 26 1 
664 1.20643 8.75736 -0.0149247 0.45485 8.76971 2.59044 26 1 
668 1.20641 8.85374 -0.0149334 0.46667 8.86655 2.54969 26 1 
672 1.20639 8.94452 -0.0149002 0.473861 8.95755 2.51758 26 1 
672 1.20639 8.94452 -0.0149002 0.473861 8.95755 2.51758 27 1 
676 1.20637 9.0297 -0.0149135 0.475545 9.04265 2.47969 27 1 
680 1.20635 9.10956 -0.014959 0.471067 9.12212 2.43171 27 1 
684 1.20633 9.18358 -0.0149492 0.460701 9.19547 2.4014 27 1 
688 1.2063 9.252 -0.0149293 0.445111 9.263 2.35664 27 1 
692 1.20629 9.31429 -0.0148697 0.425332 9.32425 2.32592 27 1 
696 1.20626 9.37173 -0.0147579 0.401633 9.38054 2.27751 27 1 
700 1.20623 9.42562 -0.0146037 0.373766 9.4332 2.23067 27 1 
704 1.20621 9.47625 -0.0145072 0.341919 9.48256 2.19184 27 1 
704 1.20621 9.47625 -0.0145072 0.341919 9.48256 2.19184 31 1 
708 1.20618 9.52471 -0.0144263 0.307307 9.52979 2.12622 31 1 
712 1.20616 9.57019 -0.0142855 0.271687 9.57414 2.09533 31 1 
716 1.20613 9.61405 -0.0140557 0.236017 9.61702 2.03359 31 1 
720 1.20609 9.65676 -0.0137174 0.200781 9.65892 1.97491 31 1 
724 1.20608 9.69843 -0.0134708 0.166685 9.69992 1.94178 31 1 
728 1.20604 9.73903 -0.0132864 0.135063 9.74001 1.88347 31 1 
732 1.20603 9.77608 -0.0131609 0.107029 9.7767 1.8518 31 1 
736 1.206 9.80956 -0.0130676 0.0832882 9.80993 1.80174 31 1 
740 1.20598 9.8384 -0.0128145 0.0655974 9.83863 1.77159 31 1 
744 1.20596 9.86401 -0.0124957 0.054645 9.86418 1.7268 31 1 
748 1.20593 9.88669 -0.0122521 0.0494617 9.88682 1.67179 31 1 
752 1.20592 9.90586 -0.0120781 0.0481462 9.90599 1.66573 31 1 
756 1.20589 9.92341 -0.0120121 0.0485765 9.92354 1.60276 31 1 
760 1.20587 9.9382 -0.0120636 0.0487871 9.93833 1.57769 31 1 
764 1.20587 9.95066 -0.0120389 0.0477593 9.95078 1.57057 31 1 
768 1.20585 9.9613 -0.0118091 0.0459902 9.96141 1.52867 31 1 
772 1.20583 9.97037 -0.0116993 0.0438186 9.97047 1.50381 31 1 
776 1.20581 9.97847 -0.0116657 0.0412697 9.97857 1.46761 31 1 
780 1.20582 9.98463 -0.0114461 0.0391534 9.98472 1.48032 31 1 
784 1.2058 9.99012 -0.0113256 0.0373759 9.99019 1.44773 31 1 
788 1.20578 9.99499 -0.011357 0.0358862 9.99506 1.4137 31 1 
792 1.20581 9.99779 -0.0112122 0.034486 9.99786 1.45852 31 1 
796 1.20579 10.0004 -0.0109347 0.0331635 10.0005 1.42005 31 1 
800 1.20576 10.0021 -0.0108207 0.0328056 10.0022 1.3643 31 1 
