77.8857;r ;Density                 ;Velocity u              ;Velocity v              ;Velocity w              ;|Velocity|              ;Pressure                ;Distribution            ;Levels                  ;
0 1.20604 9.99608 -0.000122372 -0.00308652 9.99608 1.88514 1 1 
1.33334 1.206 9.99664 1.46837e-06 -0.00241741 9.99664 1.81495 1 1 
2.66666 1.20591 9.99707 0.000245585 -0.000811452 9.99707 1.65038 1 1 
4 1.20584 9.99722 0.00044268 0.000284601 9.99723 1.51734 1 1 
5.33334 1.20578 9.99771 0.000560983 0.00124538 9.99771 1.41119 1 1 
6.66666 1.20569 9.99773 0.000695265 0.00342924 9.99774 1.24806 1 1 
8 1.20562 9.99776 0.000820938 0.00532813 9.99777 1.11752 1 1 
9.33334 1.20555 9.99812 0.000898472 0.00761172 9.99814 0.988824 1 1 
10.6667 1.20545 9.99836 0.000991605 0.0108054 9.99839 0.805752 1 1 
12 1.20538 9.99871 0.00104272 0.0133274 9.99874 0.686425 1 1 
13.3333 1.20531 9.99891 0.00107035 0.0163163 9.99895 0.566249 1 1 
14.6667 1.20523 9.99924 0.00111053 0.0194514 9.99929 0.41999 1 1 
16 1.2052 9.99993 0.00108274 0.0215699 9.99999 0.35925 1 1 
17.3333 1.20517 10 0.00104447 0.0240015 10.0001 0.305171 1 1 
18.6667 1.20514 10.0002 0.00101778 0.0259147 10.0003 0.255544 1 1 
20 1.20515 10.0009 0.0009156 0.0268778 10.001 0.2739 1 1 
21.3333 1.20517 10.001 0.000802338 0.0280351 10.0011 0.300087 1 1 
21.3333 1.20517 10.001 0.000802338 0.0280351 10.0011 0.300087 1 1 
22.6667 1.20521 10.001 0.00068302 0.0280908 10.0011 0.379409 1 1 
24 1.20528 10.0014 0.00051541 0.0274643 10.0015 0.50006 1 1 
25.3333 1.20534 10.0015 0.000347814 0.0267935 10.0016 0.609945 1 1 
26.6667 1.20544 10.0015 0.000146479 0.0247663 10.0016 0.803639 1 1 
28 1.20556 10.0015 -6.36003e-05 0.0225741 10.0016 1.01622 1 1 
29.3333 1.20566 10.0015 -0.000237459 0.0202329 10.0016 1.19363 1 1 
30.6667 1.2058 10.0016 -0.000460748 0.0165973 10.0017 1.44015 1 1 
32 1.20594 10.0012 -0.000674884 0.0132104 10.0012 1.69281 1 1 
33.3333 1.20606 10.001 -0.000828989 0.00965281 10.001 1.91988 1 1 
34.6667 1.20619 10.0012 -0.00100697 0.00550252 10.0012 2.1562 1 1 
36 1.2063 10.0005 -0.00115596 0.00203885 10.0005 2.35141 1 1 
37.3333 1.20642 9.99987 -0.00125414 -0.00178713 9.9999 2.56394 1 1 
38.6667 1.20653 9.99991 -0.00135269 -0.00555238 9.99994 2.76622 1 1 
40 1.20659 9.99924 -0.00140202 -0.00833888 9.99926 2.87071 1 1 
41.3333 1.20666 9.99823 -0.00143363 -0.0115717 9.99826 2.99473 1 1 
42.6667 1.20673 9.99774 -0.0014562 -0.0142764 9.99778 3.12288 1 1 
42.6667 1.20673 9.99774 -0.0014562 -0.0142764 9.99778 3.12288 2 1 
44 1.20675 9.99747 -0.00142031 -0.016168 9.99751 3.16146 2 1 
45.3333 1.20676 9.99681 -0.00138746 -0.018342 9.99686 3.18509 2 1 
46.6667 1.20676 9.99574 -0.00133829 -0.0195966 9.9958 3.18265 2 1 
48 1.20674 9.99549 -0.00123721 -0.0203466 9.99556 3.14427 2 1 
49.3333 1.20671 9.99572 -0.00114951 -0.021154 9.99579 3.08993 2 1 
50.6667 1.20664 9.9948 -0.0010329 -0.020714 9.99487 2.95577 2 1 
52 1.20656 9.99411 -0.000873686 -0.0199455 9.99418 2.81436 2 1 
53.3333 1.20648 9.99469 -0.000737078 -0.0189848 9.99476 2.68123 2 1 
54.6667 1.20637 9.99466 -0.000578797 -0.0168872 9.99472 2.46842 2 1 
56 1.20625 9.99395 -0.000415913 -0.0147877 9.99401 2.2636 2 1 
57.3333 1.20615 9.99398 -0.000275132 -0.012172 9.99404 2.0688 2 1 
58.6667 1.20601 9.99457 -0.000120244 -0.00883671 9.99461 1.82861 2 1 
60 1.2059 9.99461 -1.2102e-05 -0.00605705 9.99465 1.63318 2 1 
61.3333 1.2058 9.99417 7.28037e-05 -0.00265263 9.9942 1.44214 2 1 
62.6667 1.20568 9.99466 0.000177068 0.00103973 9.99469 1.22447 2 1 
64 1.20559 9.99551 0.000213299 0.00397999 9.99553 1.06753 2 1 
64 1.20559 9.99551 0.000213299 0.00397999 9.99553 1.06753 2 1 
65.3333 1.20551 9.9953 0.000218134 0.00735666 9.99532 0.922157 2 1 
66.6667 1.20543 9.99534 0.000238752 0.0106181 9.99536 0.785163 2 1 
68 1.20538 9.99636 0.000206215 0.0133182 9.99638 0.684431 2 1 
69.3333 1.20533 9.99667 0.000143163 0.016289 9.9967 0.588191 2 1 
70.6667 1.20531 9.99646 5.91218e-05 0.0185706 9.9965 0.561153 2 1 
72 1.20531 9.99705 -5.5558e-05 0.02045 9.9971 0.562234 2 1 
73.3333 1.2053 9.99759 -0.000172759 0.0223384 9.99765 0.539976 2 1 
74.6667 1.20533 9.9975 -0.000341033 0.0232419 9.99757 0.603645 2 1 
76 1.2054 9.99733 -0.000530556 0.0240275 9.99741 0.716158 2 1 
77.3333 1.20545 9.99779 -0.000692497 0.0243263 9.99787 0.807503 2 1 
78.6667 1.20552 9.99819 -0.000897374 0.023599 9.99826 0.945113 2 1 
80 1.20562 9.9974 -0.00111804 0.022987 9.99748 1.11323 2 1 
81.3333 1.20572 9.99725 -0.00129599 0.0216249 9.99732 1.29559 2 1 
82.6667 1.20583 9.99803 -0.00149506 0.0193932 9.99809 1.49808 2 1 
84 1.20593 9.99743 -0.00169255 0.0176374 9.9975 1.67588 2 1 
85.3333 1.20604 9.99645 -0.00185964 0.0152141 9.9965 1.8819 2 1 
85.3333 1.20604 9.99645 -0.00185964 0.0152141 9.9965 1.8819 3 1 
86.6667 1.20617 9.99679 -0.00202795 0.0121057 9.99683 2.10574 3 1 
88 1.20626 9.99682 -0.00216794 0.00950263 9.99685 2.28124 3 1 
89.3333 1.20637 9.99577 -0.00229565 0.00656236 9.9958 2.46769 3 1 
90.6667 1.20647 9.99514 -0.00240912 0.00340066 9.99516 2.64899 3 1 
92 1.20655 9.99533 -0.00247338 0.000501513 9.99534 2.79434 3 1 
93.3333 1.20663 9.99502 -0.00253707 -0.00251074 9.99504 2.93888 3 1 
94.6667 1.20668 9.99376 -0.00258962 -0.00512541 9.99378 3.03695 3 1 
96 1.20672 9.99345 -0.00258428 -0.00752211 9.99347 3.10308 3 1 
97.3333 1.20676 9.99384 -0.00256755 -0.00962734 9.99386 3.1712 3 1 
98.6667 1.20676 9.99292 -0.0025382 -0.0109328 9.99296 3.17142 3 1 
100 1.20674 9.99197 -0.00247971 -0.0123105 9.99202 3.13493 3 1 
101.333 1.20672 9.992 -0.00239708 -0.0130286 9.99205 3.09876 3 1 
102.667 1.20666 9.99191 -0.00228469 -0.0128838 9.99197 3.00471 3 1 
104 1.2066 9.99144 -0.00219703 -0.0129654 9.9915 2.89034 3 1 
105.333 1.20653 9.99098 -0.00209452 -0.0119972 9.99103 2.76345 3 1 
106.667 1.20644 9.99121 -0.00193356 -0.0102594 9.99127 2.59885 3 1 
106.667 1.20644 9.99121 -0.00193356 -0.0102594 9.99127 2.59885 3 1 
108 1.20635 9.9915 -0.00183166 -0.00899126 9.99155 2.44169 3 1 
109.333 1.20625 9.99059 -0.00175708 -0.00672841 9.99063 2.26087 3 1 
110.667 1.20614 9.9905 -0.00161058 -0.00405269 9.99053 2.06313 3 1 
112 1.20605 9.99152 -0.00151734 -0.00200028 9.99155 1.89792 3 1 
113.333 1.20594 9.99111 -0.00148606 0.000964787 9.99114 1.7059 3 1 
114.667 1.20584 9.99075 -0.00140957 0.00390048 9.99077 1.5187 3 1 
116 1.20577 9.99149 -0.00135581 0.00632005 9.9915 1.39167 3 1 
117.333 1.20568 9.99172 -0.00134791 0.00946282 9.99173 1.23346 3 1 
118.667 1.2056 9.99154 -0.00136116 0.0121804 9.99156 1.09265 3 1 
120 1.20557 9.99159 -0.00139122 0.0142791 9.99161 1.03635 3 1 
121.333 1.20554 9.99222 -0.00142827 0.0165154 9.99225 0.967305 3 1 
122.667 1.2055 9.99265 -0.00152667 0.0180225 9.99268 0.908881 3 1 
124 1.20551 9.99209 -0.00166045 0.0191082 9.99212 0.919291 3 1 
125.333 1.20553 9.9922 -0.00176173 0.0201461 9.99225 0.956072 3 1 
126.667 1.20555 9.99317 -0.00189759 0.0203779 9.99322 1.00179 3 1 
128 1.20559 9.99272 -0.00210031 0.0203381 9.99278 1.07004 3 1 
128 1.20559 9.99272 -0.00210031 0.0203381 9.99278 1.07004 3 1 
129.333 1.20565 9.99212 -0.00226779 0.0199473 9.99217 1.18214 3 1 
130.667 1.20573 9.99289 -0.00241737 0.0188099 9.99295 1.32507 3 1 
132 1.2058 9.99295 -0.00261939 0.0175001 9.993 1.44518 3 1 
133.333 1.20587 9.99192 -0.00282415 0.0159078 9.99197 1.58 3 1 
134.667 1.20598 9.99148 -0.00298368 0.013926 9.99152 1.77019 3 1 
136 1.20607 9.99172 -0.00313227 0.0118441 9.99175 1.93396 3 1 
137.333 1.20614 9.99148 -0.0033192 0.00952111 9.99151 2.06743 3 1 
138.667 1.20624 9.99045 -0.00347245 0.00710929 9.99047 2.24055 3 1 
140 1.20633 9.98992 -0.0035504 0.00485462 9.98994 2.40863 3 1 
141.333 1.20639 9.99016 -0.00365248 0.00280982 9.99017 2.51189 3 1 
142.667 1.20645 9.98927 -0.00376411 0.000709113 9.98928 2.61247 3 1 
144 1.20652 9.98764 -0.00378689 -0.00111521 9.98765 2.74545 3 1 
145.333 1.20655 9.98789 -0.00376752 -0.00249324 9.98789 2.80171 3 1 
146.667 1.20655 9.98821 -0.00379088 -0.00374611 9.98822 2.80472 3 1 
148 1.20659 9.98619 -0.00378258 -0.00452083 9.98619 2.86666 3 1 
149.333 1.20659 9.98545 -0.00368817 -0.00465173 9.98546 2.87247 3 1 
149.333 1.20659 9.98545 -0.00368817 -0.00465173 9.98546 2.87247 3 1 
150.667 1.20654 9.98619 -0.00359517 -0.00445742 9.9862 2.79085 3 1 
152 1.20653 9.98488 -0.00353702 -0.00399476 9.98489 2.75909 3 1 
153.333 1.20651 9.98353 -0.00342423 -0.00328482 9.98355 2.72191 3 1 
154.667 1.20644 9.98375 -0.00325466 -0.00200492 9.98377 2.60125 3 1 
156 1.20638 9.98359 -0.00314012 -0.000265305 9.98361 2.48439 3 1 
157.333 1.20633 9.98241 -0.00305438 0.00154333 9.98244 2.40551 3 1 
158.667 1.20627 9.98173 -0.00290379 0.00360846 9.98175 2.29558 3 1 
160 1.20619 9.98236 -0.00276466 0.00580056 9.98238 2.14246 3 1 
161.333 1.20613 9.98193 -0.00270666 0.00778 9.98194 2.03399 3 1 
162.667 1.20608 9.98006 -0.0026478 0.0099751 9.98008 1.95718 3 1 
164 1.20601 9.98016 -0.00254258 0.0125533 9.98018 1.82093 3 1 
165.333 1.20595 9.98103 -0.00250917 0.0148184 9.98105 1.72072 3 1 
166.667 1.20594 9.97952 -0.00256198 0.0165558 9.97954 1.69676 3 1 
168 1.2059 9.97848 -0.00257442 0.0181068 9.9785 1.6167 3 1 
169.333 1.20585 9.97921 -0.00258722 0.0193659 9.97923 1.54365 3 1 
170.667 1.20587 9.97847 -0.00272015 0.0200653 9.97849 1.58024 3 1 
170.667 1.20587 9.97847 -0.00272015 0.0200653 9.97849 1.58024 11 1 
172 1.20588 9.97703 -0.00288006 0.0206232 9.97705 1.58617 11 1 
173.333 1.20586 9.97709 -0.00297573 0.0210855 9.97712 1.54861 11 1 
174.667 1.2059 9.97687 -0.00313967 0.0210351 9.9769 1.62202 11 1 
176 1.20595 9.97536 -0.00339835 0.0200969 9.97538 1.71043 11 1 
177.333 1.20595 9.97395 -0.00360637 0.0193353 9.97398 1.72126 11 1 
178.667 1.20599 9.97362 -0.00376954 0.0182589 9.97364 1.79377 11 1 
180 1.20607 9.97326 -0.00402525 0.0164248 9.97328 1.93851 11 1 
181.333 1.20612 9.97161 -0.00431564 0.0146482 9.97163 2.01433 11 1 
182.667 1.20614 9.97021 -0.00450107 0.0130686 9.97023 2.05665 11 1 
184 1.20622 9.96951 -0.00468472 0.0110502 9.96953 2.19776 11 1 
185.333 1.20629 9.9682 -0.00496285 0.0086116 9.96821 2.32578 11 1 
186.667 1.2063 9.96669 -0.00518002 0.00685462 9.9667 2.34938 11 1 
188 1.20635 9.96575 -0.00527895 0.00514413 9.96576 2.43352 11 1 
189.333 1.20643 9.96446 -0.00543068 0.00296683 9.96447 2.58024 11 1 
190.667 1.20645 9.96244 -0.00563615 0.000721844 9.96244 2.61101 11 1 
192 1.20644 9.96073 -0.00570437 -0.00128216 9.96073 2.60936 11 1 
192 1.20644 9.96073 -0.00570437 -0.00128216 9.96073 2.60936 11 1 
193.333 1.20651 9.95895 -0.00571188 -0.00229621 9.95895 2.72633 11 1 
194.667 1.20654 9.95685 -0.00580588 -0.00306343 9.95685 2.78106 11 1 
196 1.2065 9.95568 -0.00587984 -0.00358314 9.95568 2.70511 11 1 
197.333 1.20653 9.95466 -0.00582861 -0.00370246 9.95466 2.75676 11 1 
198.667 1.20659 9.95258 -0.00577155 -0.00433818 9.95258 2.87185 11 1 
200 1.20653 9.95075 -0.0057973 -0.00365346 9.95075 2.76915 11 1 
201.333 1.20649 9.94838 -0.0057433 -0.00231894 9.94839 2.69221 11 1 
202.667 1.20656 9.94485 -0.0055954 -0.00228118 9.94485 2.81964 11 1 
204 1.20654 9.94293 -0.00552073 -0.00134909 9.94293 2.77799 11 1 
205.333 1.20646 9.94142 -0.00550881 0.00114669 9.94142 2.63296 11 1 
206.667 1.2065 9.93848 -0.00540477 0.00368036 9.93848 2.71024 11 1 
208 1.20652 9.93711 -0.00527474 0.00636261 9.93712 2.74984 11 1 
209.333 1.20645 9.93572 -0.00523979 0.00876759 9.93573 2.61698 11 1 
210.667 1.20644 9.93119 -0.00520603 0.0103508 9.93119 2.60941 11 1 
212 1.20649 9.92685 -0.00510733 0.0117436 9.92686 2.68668 11 1 
213.333 1.20645 9.92436 -0.00507051 0.0140679 9.92437 2.61421 11 1 
213.333 1.20645 9.92436 -0.00507051 0.0140679 9.92437 2.61421 11 1 
214.667 1.20641 9.92232 -0.00513139 0.0175864 9.92233 2.54473 11 1 
216 1.20647 9.91911 -0.00514854 0.0207031 9.91913 2.66027 11 1 
217.333 1.20651 9.91513 -0.00515126 0.0222497 9.91515 2.71857 11 1 
218.667 1.20645 9.91211 -0.00523796 0.0229726 9.91214 2.61296 11 1 
220 1.20647 9.90708 -0.00533262 0.023801 9.90711 2.66325 11 1 
221.333 1.20656 9.90171 -0.00536098 0.0244886 9.90174 2.81744 11 1 
222.667 1.20655 9.89973 -0.00542919 0.0257768 9.89976 2.80554 11 1 
224 1.20657 9.89633 -0.00561774 0.0269243 9.89637 2.83946 11 1 
225.333 1.20668 9.88953 -0.00580683 0.0256386 9.88956 3.03595 11 1 
226.667 1.20672 9.88394 -0.00594315 0.0240691 9.88397 3.10492 11 1 
228 1.20672 9.8799 -0.00607716 0.023613 9.87993 3.09977 11 1 
229.333 1.20683 9.87386 -0.00625237 0.0232768 9.87389 3.30567 11 1 
230.667 1.20694 9.86724 -0.00639764 0.0230814 9.86727 3.50516 11 1 
232 1.20694 9.86226 -0.00656059 0.0210385 9.86228 3.51054 11 1 
233.333 1.20702 9.85535 -0.00685019 0.0189733 9.85537 3.64817 11 1 
234.667 1.20716 9.84645 -0.00707276 0.0177892 9.84647 3.89998 11 1 
234.667 1.20716 9.84645 -0.00707276 0.0177892 9.84647 3.89998 11 1 
236 1.20719 9.83963 -0.00714544 0.0166958 9.83965 3.94842 11 1 
237.333 1.20723 9.83261 -0.00728765 0.0171274 9.83263 4.02818 11 1 
238.667 1.20737 9.82351 -0.0075425 0.0171017 9.82353 4.27529 11 1 
240 1.20743 9.81347 -0.00773952 0.0161684 9.81348 4.39786 11 1 
241.333 1.20744 9.80395 -0.00786878 0.0163742 9.80397 4.3998 11 1 
242.667 1.20752 9.79522 -0.00801306 0.0169494 9.79524 4.54581 11 1 
244 1.20765 9.7835 -0.00821311 0.0177805 9.78352 4.79416 11 1 
245.333 1.20767 9.7709 -0.00836304 0.0199324 9.77093 4.81819 11 1 
246.667 1.20766 9.7596 -0.00846652 0.022894 9.75963 4.79625 11 1 
248 1.20781 9.74559 -0.0086165 0.0243372 9.74563 5.07506 11 1 
249.333 1.20791 9.73037 -0.00874316 0.025677 9.73041 5.25861 11 1 
250.667 1.20785 9.71765 -0.00882776 0.028435 9.7177 5.15225 11 1 
252 1.20797 9.70292 -0.00892588 0.0318073 9.70298 5.36673 11 1 
253.333 1.20819 9.68309 -0.00907092 0.0350185 9.68316 5.76448 11 1 
254.667 1.20816 9.66395 -0.00916835 0.0388042 9.66404 5.7105 11 1 
256 1.20818 9.64674 -0.0092255 0.042659 9.64684 5.73529 11 1 
256 1.20818 9.64674 -0.0092255 0.042659 9.64684 5.73529 13 1 
257.333 1.2085 9.62475 -0.00932149 0.0456447 9.62486 6.31282 13 1 
258.667 1.20865 9.60006 -0.00939419 0.0502576 9.60019 6.58926 13 1 
260 1.20856 9.57946 -0.00941621 0.0567168 9.57964 6.42721 13 1 
261.333 1.20886 9.55268 -0.00947249 0.063232 9.55289 6.96319 13 1 
262.667 1.20924 9.51865 -0.00960375 0.0683702 9.5189 7.66373 13 1 
264 1.20916 9.49252 -0.00967693 0.0760996 9.49284 7.51983 13 1 
265.333 1.20934 9.46185 -0.00967724 0.0878791 9.46227 7.84794 13 1 
266.667 1.20992 9.41922 -0.00974358 0.0980657 9.41974 8.87956 13 1 
268 1.21 9.38349 -0.00986758 0.109288 9.38414 9.02357 13 1 
269.333 1.21003 9.34447 -0.00990262 0.125835 9.34534 9.08522 13 1 
270.667 1.21062 9.29234 -0.00994081 0.144151 9.29348 10.1528 13 1 
272 1.21096 9.24459 -0.0100776 0.162146 9.24603 10.7724 13 1 
273.333 1.21095 9.19871 -0.0102048 0.18974 9.2007 10.7498 13 1 
274.667 1.21143 9.14351 -0.0102672 0.225016 9.14632 11.6119 13 1 
276 1.21209 9.07988 -0.0103811 0.25741 9.08358 12.8007 13 1 
277.333 1.21214 9.01456 -0.0105314 0.289499 9.01927 12.9024 13 1 
277.333 1.21214 9.01456 -0.0105314 0.289499 9.01927 12.9024 13 1 
278.667 1.21225 8.9528 -0.010626 0.336419 8.95921 13.0933 13 1 
280 1.21305 8.88895 -0.0107305 0.397654 8.89793 14.5453 13 1 
281.333 1.21357 8.81966 -0.0108474 0.450145 8.83123 15.4828 13 1 
282.667 1.21342 8.74927 -0.010918 0.510461 8.7643 15.2002 13 1 
284 1.21371 8.68466 -0.0109718 0.58464 8.70444 15.73 13 1 
285.333 1.2146 8.62058 -0.011051 0.664572 8.64634 17.3389 13 1 
286.667 1.21478 8.55451 -0.0111195 0.748245 8.58735 17.6703 13 1 
288 1.21445 8.49411 -0.0111756 0.826364 8.53438 17.0715 13 1 
289.333 1.21507 8.43697 -0.01125 0.92277 8.48759 18.1819 13 1 
290.667 1.2158 8.38146 -0.0113052 1.02216 8.44376 19.5152 13 1 
292 1.21546 8.33171 -0.0113331 1.1061 8.40501 18.8947 13 1 
293.333 1.21538 8.28219 -0.0113784 1.19849 8.36871 18.7413 13 1 
294.667 1.2162 8.24071 -0.0114264 1.30632 8.34396 20.2341 13 1 
296 1.21649 8.17194 -0.0114222 1.37442 8.28703 20.7466 13 1 
297.333 1.21502 7.73024 -0.0113276 1.09186 7.81859 18.0913 13 1 
298.667 1.21122 6.72758 -0.0112365 0.257009 6.77534 11.237 13 1 
298.667 1.21122 6.72758 -0.0112365 0.257009 6.77534 11.237 14 1 
300 1.20626 5.62512 -0.0112583 -0.74739 5.72403 2.26692 14 1 
301.333 1.20264 4.88155 -0.0113532 -1.44587 5.11171 -4.26572 14 1 
302.667 1.20102 4.56812 -0.0114329 -1.70901 4.87898 -7.18031 14 1 
304 1.20042 4.50373 -0.0114754 -1.68331 4.80855 -8.28151 14 1 
305.333 1.2003 4.48919 -0.0114716 -1.57655 4.75845 -8.48599 14 1 
306.667 1.20057 4.47792 -0.011421 -1.47169 4.71396 -8.00527 14 1 
308 1.20066 4.46735 -0.0114206 -1.37114 4.67347 -7.84546 14 1 
309.333 1.20049 4.44695 -0.0114528 -1.26954 4.62506 -8.14918 14 1 
310.667 1.20067 4.41224 -0.011416 -1.16734 4.5644 -7.81267 14 1 
312 1.20096 4.36848 -0.011329 -1.06426 4.49659 -7.30239 14 1 
313.333 1.20084 4.32159 -0.0112853 -0.951037 4.42542 -7.51024 14 1 
314.667 1.20093 4.26717 -0.0112895 -0.856931 4.35254 -7.35084 14 1 
316 1.20136 4.20711 -0.0112962 -0.780219 4.27909 -6.56771 14 1 
317.333 1.20144 4.14643 -0.0113048 -0.68839 4.20348 -6.43244 14 1 
318.667 1.20141 4.07758 -0.0113037 -0.605522 4.12249 -6.49338 14 1 
320 1.20176 4.00172 -0.011278 -0.542639 4.03851 -5.85006 14 1 
320 1.20176 4.00172 -0.011278 -0.542639 4.03851 -5.85006 14 1 
321.333 1.20203 3.92732 -0.0112386 -0.480335 3.95677 -5.36586 14 1 
322.667 1.20199 3.85203 -0.0111977 -0.419512 3.87497 -5.43832 14 1 
324 1.20217 3.77558 -0.0111259 -0.374566 3.79425 -5.11198 14 1 
325.333 1.20252 3.70306 -0.0110484 -0.335816 3.71838 -4.47703 14 1 
326.667 1.20258 3.63087 -0.0110048 -0.2971 3.64311 -4.36771 14 1 
328 1.20259 3.55679 -0.0109533 -0.266816 3.5669 -4.34945 14 1 
329.333 1.20286 3.48842 -0.0108743 -0.242343 3.49693 -3.86502 14 1 
330.667 1.20307 3.42525 -0.0108202 -0.218591 3.43231 -3.49234 14 1 
332 1.20306 3.35988 -0.0108015 -0.199047 3.36586 -3.50869 14 1 
333.333 1.20315 3.2958 -0.0107747 -0.184406 3.30104 -3.34284 14 1 
334.667 1.20338 3.23898 -0.0107362 -0.169107 3.24347 -2.92973 14 1 
336 1.20347 3.18338 -0.0107262 -0.154479 3.1872 -2.76884 14 1 
337.333 1.20346 3.12536 -0.010737 -0.144199 3.12876 -2.77508 14 1 
338.667 1.2036 3.07321 -0.0107337 -0.135023 3.07624 -2.5309 14 1 
340 1.20377 3.02693 -0.01073 -0.124074 3.02953 -2.23061 14 1 
341.333 1.20379 2.97678 -0.0107447 -0.114605 2.97905 -2.19209 14 1 
341.333 1.20379 2.97678 -0.0107447 -0.114605 2.97905 -2.19209 15 1 
342.667 1.20381 2.92533 -0.0107546 -0.107817 2.92737 -2.15152 15 1 
344 1.20395 2.88196 -0.0107532 -0.100515 2.88376 -1.89751 15 1 
345.333 1.20405 2.8428 -0.0107458 -0.0925325 2.84435 -1.70814 15 1 
346.667 1.20406 2.79875 -0.0107383 -0.0866042 2.80014 -1.69638 15 1 
348 1.20411 2.75326 -0.0107473 -0.0816093 2.75452 -1.60711 15 1 
349.333 1.20422 2.71457 -0.0107606 -0.0756262 2.71567 -1.40478 15 1 
350.667 1.20428 2.67956 -0.0107692 -0.0705192 2.68054 -1.29843 15 1 
352 1.2043 2.64117 -0.0107767 -0.0669251 2.64206 -1.2615 15 1 
353.333 1.20437 2.60183 -0.0107725 -0.0627819 2.60264 -1.13961 15 1 
354.667 1.20444 2.56627 -0.0107671 -0.0583703 2.56698 -1.00443 15 1 
356 1.20447 2.53265 -0.0107697 -0.0553049 2.5333 -0.950382 15 1 
357.333 1.20451 2.49845 -0.0107559 -0.0526916 2.49905 -0.879703 15 1 
358.667 1.20458 2.4646 -0.0107337 -0.0490872 2.46514 -0.750858 15 1 
360 1.20463 2.43163 -0.0107254 -0.0454117 2.4321 -0.666697 15 1 
361.333 1.20465 2.39878 -0.0107051 -0.0428117 2.39921 -0.628806 15 1 
362.667 1.2047 2.36672 -0.0106672 -0.0400738 2.3671 -0.542878 15 1 
362.667 1.2047 2.36672 -0.0106672 -0.0400738 2.3671 -0.542878 15 1 
364 1.20476 2.33622 -0.0106446 -0.0361565 2.33654 -0.43272 15 1 
365.333 1.20479 2.30594 -0.0106322 -0.0323747 2.30621 -0.374895 15 1 
366.667 1.20482 2.275 -0.0106068 -0.0294262 2.27523 -0.329678 15 1 
368 1.20487 2.2449 -0.0105765 -0.0259644 2.2451 -0.242012 15 1 
369.333 1.20491 2.21658 -0.0105581 -0.0217533 2.21673 -0.160306 15 1 
370.667 1.20494 2.18887 -0.0105482 -0.0180453 2.18899 -0.115507 15 1 
372 1.20497 2.16129 -0.0105386 -0.014772 2.16138 -0.0547345 15 1 
373.333 1.20502 2.13459 -0.0105258 -0.0109433 2.13467 0.0301262 15 1 
374.667 1.20505 2.10862 -0.0105163 -0.00702865 2.10868 0.0865601 15 1 
376 1.20507 2.08307 -0.0105277 -0.00375653 2.08312 0.126539 15 1 
377.333 1.20511 2.05872 -0.0105507 -0.000390502 2.05877 0.197672 15 1 
378.667 1.20515 2.03532 -0.0105659 0.00352333 2.03537 0.273407 15 1 
380 1.20518 2.01157 -0.0105912 0.00710679 2.01163 0.31636 15 1 
381.333 1.2052 1.9879 -0.0106443 0.0101984 1.98798 0.361141 15 1 
382.667 1.20524 1.96563 -0.0107095 0.01357 1.96573 0.430671 15 1 
384 1.20527 1.94441 -0.0107864 0.0171783 1.94454 0.489503 15 1 
384 1.20527 1.94441 -0.0107864 0.0171783 1.94454 0.489503 15 1 
385.333 1.20529 1.9231 -0.0108908 0.020365 1.92326 0.530724 15 1 
386.667 1.20532 1.90175 -0.0110201 0.0232041 1.90194 0.584309 15 1 
388 1.20536 1.88122 -0.0111743 0.0261549 1.88146 0.643601 15 1 
389.333 1.20538 1.86171 -0.0113547 0.0291084 1.862 0.687085 15 1 
390.667 1.2054 1.84273 -0.0115569 0.0317118 1.84306 0.731124 15 1 
392 1.20544 1.82399 -0.0117811 0.0340901 1.82437 0.789543 15 1 
393.333 1.20547 1.80572 -0.0120203 0.0364177 1.80615 0.840589 15 1 
394.667 1.20549 1.7882 -0.0122655 0.0385999 1.78868 0.877684 15 1 
396 1.20551 1.77147 -0.0125214 0.0406146 1.772 0.9246 15 1 
397.333 1.20554 1.75535 -0.0127812 0.0425217 1.75593 0.981388 15 1 
398.667 1.20557 1.73967 -0.0130316 0.0442393 1.74031 1.02575 15 1 
400 1.20559 1.72461 -0.0132819 0.0458166 1.72529 1.06424 15 1 
401.333 1.20562 1.71044 -0.0135388 0.047434 1.71118 1.11611 15 1 
402.667 1.20565 1.69693 -0.0137892 0.0489933 1.69772 1.16914 15 1 
404 1.20567 1.68382 -0.0140291 0.0502801 1.68465 1.2086 15 1 
405.333 1.20569 1.67152 -0.014271 0.0515257 1.6724 1.25197 15 1 
405.333 1.20569 1.67152 -0.014271 0.0515257 1.6724 1.25197 15 1 
406.667 1.20572 1.66026 -0.0145173 0.0529755 1.66119 1.30799 15 1 
408 1.20575 1.64945 -0.01476 0.0543519 1.65043 1.35582 15 1 
409.333 1.20577 1.63898 -0.0149974 0.0554748 1.64 1.39372 15 1 
410.667 1.2058 1.62953 -0.0152345 0.0566773 1.63061 1.44234 15 1 
412 1.20583 1.62109 -0.0154788 0.0580849 1.62223 1.49735 15 1 
413.333 1.20585 1.613 -0.0157247 0.0594187 1.61419 1.54114 15 1 
414.667 1.20588 1.60525 -0.0159643 0.0606424 1.6065 1.58149 15 1 
416 1.2059 1.59835 -0.0162048 0.0620498 1.59965 1.6316 15 1 
417.333 1.20593 1.59217 -0.0164544 0.0636506 1.59355 1.68125 15 1 
418.667 1.20595 1.58634 -0.0167061 0.0652201 1.58778 1.72187 15 1 
420 1.20598 1.58091 -0.0169485 0.0668729 1.58243 1.76492 15 1 
421.333 1.206 1.57606 -0.0171913 0.0688249 1.57767 1.81363 15 1 
422.667 1.20603 1.57158 -0.0174395 0.0708953 1.5733 1.85654 15 1 
424 1.20605 1.56738 -0.0176745 0.0729247 1.56919 1.89471 15 1 
425.333 1.20607 1.56368 -0.0178943 0.0751302 1.56561 1.93853 15 1 
426.667 1.2061 1.56044 -0.0181097 0.0775706 1.56249 1.98443 15 1 
426.667 1.2061 1.56044 -0.0181097 0.0775706 1.56249 1.98443 20 1 
428 1.20612 1.55727 -0.0183056 0.0799658 1.55945 2.02307 20 1 
429.333 1.20614 1.55426 -0.0184703 0.0822653 1.55657 2.05987 20 1 
430.667 1.20616 1.55173 -0.0186107 0.084636 1.55417 2.10239 20 1 
432 1.20619 1.54946 -0.0187157 0.0870009 1.55204 2.14363 20 1 
433.333 1.20621 1.54713 -0.0187716 0.0891819 1.54984 2.17902 20 1 
434.667 1.20623 1.54488 -0.0187846 0.0912127 1.54771 2.21578 20 1 
436 1.20625 1.54283 -0.0187611 0.0931478 1.54578 2.25526 20 1 
437.333 1.20627 1.54076 -0.0187062 0.0948907 1.54381 2.29084 20 1 
438.667 1.20629 1.53855 -0.0186304 0.0963835 1.5417 2.32315 20 1 
440 1.20631 1.53632 -0.0185494 0.097725 1.53955 2.35791 20 1 
441.333 1.20632 1.53392 -0.0184841 0.0989871 1.53724 2.39294 20 1 
442.667 1.20634 1.53106 -0.018444 0.100123 1.53446 2.42315 20 1 
444 1.20636 1.52769 -0.0184294 0.101171 1.53117 2.45175 20 1 
445.333 1.20637 1.52386 -0.0184384 0.102312 1.52743 2.48277 20 1 
446.667 1.20639 1.51933 -0.0184756 0.103589 1.52299 2.51271 20 1 
448 1.20641 1.51385 -0.0185469 0.104896 1.51762 2.53858 20 1 
448 1.20641 1.51385 -0.0185469 0.104896 1.51762 2.53858 20 1 
449.333 1.20642 1.5076 -0.0186508 0.106218 1.51149 2.56409 20 1 
450.667 1.20644 1.50087 -0.0188027 0.107581 1.50487 2.5922 20 1 
452 1.20645 1.49365 -0.0190201 0.108861 1.49777 2.61941 20 1 
453.333 1.20646 1.48607 -0.0193088 0.109897 1.49029 2.64397 20 1 
454.667 1.20648 1.47858 -0.0196838 0.110677 1.48289 2.67029 20 1 
456 1.20649 1.47145 -0.0201623 0.111131 1.47582 2.69881 20 1 
457.333 1.20651 1.46478 -0.0207437 0.11109 1.46917 2.72551 20 1 
458.667 1.20652 1.45889 -0.0214307 0.110542 1.46327 2.75181 20 1 
460 1.20654 1.45415 -0.0222365 0.109576 1.45848 2.78141 20 1 
461.333 1.20656 1.45059 -0.0231646 0.108143 1.45483 2.81199 20 1 
462.667 1.20657 1.4482 -0.0242083 0.106159 1.45232 2.84064 20 1 
464 1.20659 1.44724 -0.0253664 0.103728 1.4512 2.87047 20 1 
465.333 1.20661 1.44788 -0.0266457 0.100998 1.45167 2.90348 20 1 
466.667 1.20663 1.45 -0.0280465 0.0979661 1.4536 2.93599 20 1 
468 1.20664 1.45352 -0.029557 0.0946032 1.45692 2.96701 20 1 
469.333 1.20666 1.45853 -0.0311643 0.0910541 1.46173 3 20 1 
469.333 1.20666 1.45853 -0.0311643 0.0910541 1.46173 3 20 1 
470.667 1.20668 1.46504 -0.0328638 0.0874279 1.46804 3.03469 20 1 
472 1.2067 1.47291 -0.0346473 0.0837174 1.47572 3.06813 20 1 
473.333 1.20672 1.48204 -0.0364959 0.0799616 1.48467 3.10097 20 1 
474.667 1.20674 1.4924 -0.0383881 0.0762553 1.49487 3.13541 20 1 
476 1.20676 1.50391 -0.0403133 0.0726408 1.50623 3.17014 20 1 
477.333 1.20677 1.51641 -0.0422621 0.0691194 1.5186 3.2032 20 1 
478.667 1.20679 1.52983 -0.0442083 0.0657524 1.53191 3.23663 20 1 
480 1.20681 1.54411 -0.0461438 0.0625903 1.54611 3.27159 20 1 
481.333 1.20683 1.55914 -0.0480652 0.0596192 1.56106 3.30556 20 1 
482.667 1.20685 1.57479 -0.0499555 0.0568671 1.57666 3.33822 20 1 
484 1.20687 1.59101 -0.0517997 0.0543931 1.59283 3.37175 20 1 
485.333 1.20689 1.60772 -0.0535928 0.0521939 1.60951 3.40581 20 1 
486.667 1.2069 1.62484 -0.0553255 0.0502638 1.62662 3.43874 20 1 
488 1.20692 1.64233 -0.0569861 0.0486498 1.6441 3.47168 20 1 
489.333 1.20694 1.66008 -0.0585736 0.0473747 1.66185 3.50571 20 1 
490.667 1.20696 1.67798 -0.0600905 0.0464272 1.67977 3.53877 20 1 
490.667 1.20696 1.67798 -0.0600905 0.0464272 1.67977 3.53877 20 1 
492 1.20698 1.69602 -0.0615528 0.0458065 1.69783 3.57044 20 1 
493.333 1.20699 1.71419 -0.0629874 0.0455632 1.71603 3.60303 20 1 
494.667 1.20701 1.7324 -0.0644154 0.0457152 1.73428 3.63615 20 1 
496 1.20703 1.75059 -0.065855 0.0462279 1.75252 3.66755 20 1 
497.333 1.20705 1.76869 -0.0673248 0.0471275 1.77069 3.69774 20 1 
498.667 1.20706 1.78662 -0.0688109 0.0485223 1.78869 3.72843 20 1 
500 1.20708 1.80419 -0.0702728 0.0504718 1.80636 3.75866 20 1 
501.333 1.2071 1.82116 -0.0716508 0.0529833 1.82344 3.78674 20 1 
502.667 1.20711 1.83722 -0.0728591 0.0561514 1.83963 3.81393 20 1 
504 1.20713 1.85208 -0.0738047 0.060075 1.85464 3.84124 20 1 
505.333 1.20714 1.86548 -0.074394 0.0647129 1.8682 3.86683 20 1 
506.667 1.20715 1.87727 -0.0745416 0.0699283 1.88017 3.89022 20 1 
508 1.20717 1.88746 -0.0741848 0.0755757 1.89055 3.91316 20 1 
509.333 1.20718 1.89622 -0.0733019 0.0814207 1.8995 3.93581 20 1 
510.667 1.20719 1.90382 -0.0719146 0.0871213 1.90728 3.95634 20 1 
512 1.2072 1.91076 -0.070079 0.0923422 1.91438 3.9753 20 1 
512 1.2072 1.91076 -0.070079 0.0923422 1.91438 3.9753 21 1 
513.333 1.20721 1.91764 -0.0678945 0.0967903 1.92137 3.99503 21 1 
514.667 1.20722 1.92499 -0.0655023 0.100226 1.92878 4.01437 21 1 
516 1.20723 1.93327 -0.0630544 0.102499 1.93707 4.03147 21 1 
517.333 1.20724 1.94296 -0.0607042 0.103555 1.94671 4.04798 21 1 
518.667 1.20725 1.95439 -0.0585868 0.10342 1.95805 4.06529 21 1 
520 1.20726 1.96777 -0.05683 0.102199 1.9713 4.08163 21 1 
521.333 1.20727 1.98319 -0.0555267 0.100085 1.98656 4.09648 21 1 
522.667 1.20728 2.00068 -0.0547254 0.0972622 2.00389 4.11203 21 1 
524 1.20729 2.02019 -0.05445 0.0938862 2.02322 4.12804 21 1 
525.333 1.20729 2.04161 -0.0546967 0.0901294 2.04448 4.14238 21 1 
526.667 1.2073 2.06483 -0.0554561 0.0861837 2.06756 4.15602 21 1 
528 1.20731 2.08974 -0.0566895 0.0821854 2.09235 4.17087 21 1 
529.333 1.20732 2.11618 -0.0583533 0.0781789 2.11869 4.18537 21 1 
530.667 1.20732 2.14402 -0.0603958 0.0742363 2.14645 4.19797 21 1 
532 1.20733 2.17314 -0.0627699 0.0704754 2.17552 4.21075 21 1 
533.333 1.20734 2.20342 -0.0654278 0.0669453 2.20577 4.22485 21 1 
533.333 1.20734 2.20342 -0.0654278 0.0669453 2.20577 4.22485 21 1 
534.667 1.20735 2.23478 -0.0683215 0.063617 2.23712 4.23808 21 1 
536 1.20735 2.26711 -0.0714094 0.0604955 2.26945 4.25007 21 1 
537.333 1.20736 2.3003 -0.0746387 0.057643 2.30267 4.26319 21 1 
538.667 1.20737 2.33428 -0.077988 0.0550723 2.33669 4.27703 21 1 
540 1.20737 2.36897 -0.0814151 0.0527341 2.37142 4.28911 21 1 
541.333 1.20738 2.40429 -0.0848834 0.0506343 2.4068 4.3011 21 1 
542.667 1.20739 2.44021 -0.0883795 0.0487898 2.44279 4.31531 21 1 
544 1.2074 2.47666 -0.0918762 0.0471705 2.47931 4.32941 21 1 
545.333 1.2074 2.51354 -0.0953521 0.0457775 2.51627 4.34201 21 1 
546.667 1.20741 2.55082 -0.0987869 0.0446215 2.55362 4.35568 21 1 
548 1.20742 2.58848 -0.102177 0.0436729 2.59136 4.3711 21 1 
549.333 1.20743 2.62647 -0.1055 0.0429011 2.62944 4.3856 21 1 
550.667 1.20744 2.66471 -0.108751 0.0423385 2.66776 4.39945 21 1 
552 1.20744 2.70316 -0.111934 0.0420073 2.7063 4.41505 21 1 
553.333 1.20745 2.74182 -0.115022 0.0418558 2.74503 4.43101 21 1 
554.667 1.20746 2.78063 -0.118029 0.041859 2.78393 4.44548 21 1 
554.667 1.20746 2.78063 -0.118029 0.041859 2.78393 4.44548 22 1 
556 1.20747 2.81957 -0.120943 0.0420728 2.82295 4.46051 22 1 
557.333 1.20748 2.8586 -0.123767 0.0425066 2.86205 4.47734 22 1 
558.667 1.20749 2.89766 -0.126504 0.0431129 2.9012 4.4931 22 1 
560 1.2075 2.93675 -0.129135 0.043896 2.94037 4.50708 22 1 
561.333 1.2075 2.97586 -0.131684 0.0448889 2.97955 4.52215 22 1 
562.667 1.20751 3.01494 -0.134133 0.0461031 3.0187 4.53802 22 1 
564 1.20752 3.05396 -0.136498 0.0475074 3.0578 4.55193 22 1 
565.333 1.20753 3.0929 -0.138773 0.0491054 3.09682 4.56484 22 1 
566.667 1.20754 3.13175 -0.140956 0.0509383 3.13574 4.57944 22 1 
568 1.20754 3.17049 -0.143066 0.052991 3.17456 4.59365 22 1 
569.333 1.20755 3.2091 -0.145081 0.0552423 3.21325 4.6054 22 1 
570.667 1.20756 3.24754 -0.147022 0.0577268 3.25177 4.61719 22 1 
572 1.20756 3.2858 -0.148878 0.0604569 3.29011 4.63017 22 1 
573.333 1.20757 3.32387 -0.150668 0.0633898 3.32827 4.64195 22 1 
574.667 1.20758 3.36175 -0.152377 0.0665419 3.36623 4.65212 22 1 
576 1.20758 3.3994 -0.154017 0.0699486 3.40398 4.66385 22 1 
576 1.20758 3.3994 -0.154017 0.0699486 3.40398 4.66385 22 1 
577.333 1.20759 3.43681 -0.155593 0.0735854 3.44148 4.67609 22 1 
578.667 1.20759 3.47395 -0.157096 0.0774179 3.47872 4.68601 22 1 
580 1.2076 3.51081 -0.158544 0.0814644 3.51569 4.69558 22 1 
581.333 1.20761 3.54739 -0.159924 0.0857715 3.55239 4.70682 22 1 
582.667 1.20761 3.58367 -0.161263 0.0902783 3.58878 4.71793 22 1 
584 1.20762 3.61963 -0.162544 0.0949389 3.62487 4.72679 22 1 
585.333 1.20762 3.65525 -0.163767 0.0998318 3.66063 4.73652 22 1 
586.667 1.20763 3.69051 -0.164952 0.104926 3.69603 4.7477 22 1 
588 1.20763 3.72543 -0.166092 0.110164 3.7311 4.75661 22 1 
589.333 1.20764 3.75997 -0.167195 0.115555 3.7658 4.76445 22 1 
590.667 1.20764 3.79412 -0.168248 0.121107 3.80012 4.77404 22 1 
592 1.20765 3.82787 -0.169291 0.126801 3.83406 4.78357 22 1 
593.333 1.20765 3.86123 -0.170284 0.132581 3.8676 4.79052 22 1 
594.667 1.20766 3.89417 -0.171244 0.138456 3.90074 4.79763 22 1 
596 1.20766 3.9267 -0.172197 0.144428 3.93348 4.80641 22 1 
597.333 1.20767 3.95884 -0.173112 0.150445 3.96583 4.81364 22 1 
597.333 1.20767 3.95884 -0.173112 0.150445 3.96583 4.81364 24 1 
598.667 1.20767 3.99053 -0.174012 0.156479 3.99774 4.81906 24 1 
600 1.20767 4.02179 -0.174889 0.162539 4.02923 4.82563 24 1 
601.333 1.20768 4.05267 -0.175762 0.168606 4.06034 4.8329 24 1 
602.667 1.20768 4.08313 -0.17661 0.174617 4.09104 4.83852 24 1 
604 1.20768 4.11317 -0.177458 0.180562 4.12133 4.84368 24 1 
605.333 1.20769 4.14284 -0.178298 0.186448 4.15124 4.85008 24 1 
606.667 1.20769 4.1721 -0.179119 0.19223 4.18076 4.85674 24 1 
608 1.20769 4.20101 -0.179949 0.197865 4.20992 4.86172 24 1 
609.333 1.20769 4.22958 -0.180765 0.203332 4.23873 4.86696 24 1 
610.667 1.2077 4.2578 -0.181577 0.208655 4.26719 4.87418 24 1 
612 1.2077 4.2857 -0.182385 0.213742 4.29533 4.88049 24 1 
613.333 1.2077 4.31333 -0.183191 0.218581 4.3232 4.88554 24 1 
614.667 1.20771 4.34069 -0.183961 0.223185 4.35078 4.89256 24 1 
616 1.20771 4.36779 -0.184741 0.227505 4.37808 4.90068 24 1 
617.333 1.20772 4.39473 -0.185512 0.231484 4.40523 4.90624 24 1 
618.667 1.20772 4.42147 -0.186242 0.23513 4.43214 4.91214 24 1 
618.667 1.20772 4.42147 -0.186242 0.23513 4.43214 4.91214 24 1 
620 1.20772 4.44803 -0.186968 0.238446 4.45887 4.92055 24 1 
621.333 1.20773 4.47455 -0.187674 0.241332 4.48553 4.9272 24 1 
622.667 1.20773 4.50099 -0.188349 0.243823 4.5121 4.93313 24 1 
624 1.20774 4.52738 -0.188988 0.24586 4.53859 4.94111 24 1 
625.333 1.20774 4.55385 -0.189623 0.247464 4.56513 4.94875 24 1 
626.667 1.20774 4.58036 -0.190219 0.24856 4.59168 4.95548 24 1 
628 1.20775 4.60695 -0.190781 0.249142 4.6183 4.96206 24 1 
629.333 1.20775 4.63376 -0.191334 0.249208 4.6451 4.969 24 1 
630.667 1.20776 4.66077 -0.191864 0.248721 4.67208 4.97623 24 1 
632 1.20776 4.688 -0.192367 0.247664 4.69924 4.98314 24 1 
633.333 1.20776 4.71557 -0.192871 0.245987 4.72672 4.98919 24 1 
634.667 1.20777 4.74352 -0.193363 0.243748 4.75454 4.99637 24 1 
636 1.20777 4.77181 -0.193861 0.24086 4.78268 5.00485 24 1 
637.333 1.20777 4.8006 -0.194384 0.237319 4.81128 5.01054 24 1 
638.667 1.20778 4.82987 -0.194932 0.233148 4.84035 5.01656 24 1 
640 1.20778 4.85962 -0.195502 0.228319 4.86987 5.02533 24 1 
640 1.20778 4.85962 -0.195502 0.228319 4.86987 5.02533 24 1 
641.333 1.20779 4.88998 -0.196142 0.222825 4.89998 5.03226 24 1 
642.667 1.20779 4.92096 -0.196851 0.216632 4.93069 5.03808 24 1 
644 1.20779 4.95252 -0.197586 0.209813 4.96196 5.04714 24 1 
645.333 1.2078 4.98475 -0.198459 0.202328 4.99389 5.05586 24 1 
646.667 1.2078 5.0177 -0.199439 0.194157 5.02654 5.06186 24 1 
648 1.20781 5.05123 -0.200463 0.185375 5.05975 5.06993 24 1 
649.333 1.20781 5.08553 -0.20168 0.175986 5.09373 5.07889 24 1 
650.667 1.20782 5.12051 -0.202978 0.165999 5.1284 5.08673 24 1 
652 1.20782 5.1561 -0.204405 0.155432 5.16367 5.0942 24 1 
653.333 1.20782 5.19239 -0.205964 0.144392 5.19966 5.10278 24 1 
654.667 1.20783 5.22932 -0.207624 0.132866 5.23631 5.11163 24 1 
656 1.20783 5.26674 -0.209463 0.120895 5.27347 5.1203 24 1 
657.333 1.20784 5.30479 -0.211326 0.108584 5.31127 5.12699 24 1 
658.667 1.20784 5.34333 -0.213333 0.0959905 5.34959 5.13558 24 1 
660 1.20785 5.38218 -0.215396 0.0831171 5.38824 5.14618 24 1 
661.333 1.20785 5.42151 -0.217463 0.0701096 5.4274 5.15215 24 1 
661.333 1.20785 5.42151 -0.217463 0.0701096 5.4274 5.15215 24 1 
662.667 1.20786 5.46111 -0.219597 0.0570067 5.46686 5.16018 24 1 
664 1.20786 5.50083 -0.221722 0.0438824 5.50647 5.17169 24 1 
665.333 1.20787 5.54073 -0.223817 0.0308248 5.54629 5.17876 24 1 
666.667 1.20787 5.58073 -0.225881 0.0178578 5.58623 5.18322 24 1 
668 1.20788 5.62055 -0.227841 0.0051262 5.62603 5.19468 24 1 
669.333 1.20788 5.66033 -0.229774 -0.00736519 5.6658 5.20301 24 1 
670.667 1.20788 5.69995 -0.231547 -0.0195009 5.70544 5.20615 24 1 
672 1.20789 5.73919 -0.233232 -0.0312723 5.74471 5.21468 24 1 
673.333 1.20789 5.77809 -0.234839 -0.0425891 5.78367 5.2223 24 1 
674.667 1.20789 5.81663 -0.236272 -0.0534094 5.82227 5.22441 24 1 
676 1.20789 5.85465 -0.23762 -0.0637346 5.86036 5.2267 24 1 
677.333 1.2079 5.89209 -0.238845 -0.0734597 5.89789 5.2318 24 1 
678.667 1.2079 5.92898 -0.239957 -0.0826104 5.93488 5.23249 24 1 
680 1.20789 5.96526 -0.240963 -0.0911097 5.97125 5.22907 24 1 
681.333 1.2079 6.00073 -0.241841 -0.0989632 6.00681 5.2292 24 1 
682.667 1.20789 6.03554 -0.242663 -0.106107 6.04172 5.22468 24 1 
682.667 1.20789 6.03554 -0.242663 -0.106107 6.04172 5.22468 31 1 
684 1.20789 6.06955 -0.2434 -0.112527 6.07583 5.21575 31 1 
685.333 1.20788 6.10262 -0.244047 -0.118231 6.10898 5.20742 31 1 
686.667 1.20788 6.13486 -0.24467 -0.123132 6.14129 5.19573 31 1 
688 1.20787 6.16617 -0.245229 -0.127275 6.17267 5.18039 31 1 
689.333 1.20786 6.19647 -0.245777 -0.130587 6.20304 5.16279 31 1 
690.667 1.20785 6.22573 -0.246278 -0.133079 6.23235 5.14235 31 1 
692 1.20783 6.25406 -0.246782 -0.134724 6.26073 5.11585 31 1 
693.333 1.20782 6.28119 -0.247273 -0.135449 6.28789 5.08871 31 1 
694.667 1.2078 6.30726 -0.247757 -0.135301 6.31399 5.05692 31 1 
696 1.20778 6.33237 -0.248195 -0.134215 6.33911 5.01705 31 1 
697.333 1.20776 6.3562 -0.248656 -0.132173 6.36295 4.97855 31 1 
698.667 1.20773 6.37903 -0.249086 -0.129105 6.38577 4.93313 31 1 
700 1.2077 6.40095 -0.249511 -0.125117 6.40767 4.87863 31 1 
701.333 1.20767 6.42172 -0.249993 -0.119988 6.42843 4.82443 31 1 
702.667 1.20764 6.44158 -0.250505 -0.11388 6.44827 4.76277 31 1 
704 1.2076 6.46077 -0.251104 -0.106681 6.46743 4.69182 31 1 
704 1.2076 6.46077 -0.251104 -0.106681 6.46743 4.69182 31 1 
705.333 1.20756 6.47901 -0.251756 -0.0984065 6.48566 4.61971 31 1 
706.667 1.20751 6.49668 -0.252489 -0.0889755 6.50331 4.53947 31 1 
708 1.20746 6.51397 -0.253242 -0.0783921 6.5206 4.44989 31 1 
709.333 1.20741 6.53085 -0.254089 -0.0666625 6.53749 4.357 31 1 
710.667 1.20736 6.54759 -0.254936 -0.0537211 6.55426 4.25619 31 1 
712 1.2073 6.56449 -0.255843 -0.0396077 6.57122 4.14561 31 1 
713.333 1.20723 6.58152 -0.256785 -0.024337 6.58833 4.03213 31 1 
714.667 1.20716 6.59898 -0.257595 -0.00790524 6.60589 3.90994 31 1 
716 1.20709 6.61713 -0.258351 0.00987291 6.62419 3.77723 31 1 
717.333 1.20702 6.63617 -0.258864 0.0285305 6.64342 3.643 31 1 
718.667 1.20694 6.65631 -0.259237 0.0486587 6.6638 3.50308 31 1 
720 1.20686 6.67769 -0.259211 0.0696649 6.68546 3.35257 31 1 
721.333 1.20677 6.70054 -0.259016 0.0917887 6.70865 3.20155 31 1 
722.667 1.20669 6.72486 -0.258362 0.114851 6.73337 3.04846 31 1 
724 1.2066 6.75094 -0.25741 0.138813 6.75993 2.88514 31 1 
725.333 1.20651 6.77882 -0.255789 0.163797 6.78834 2.72338 31 1 
725.333 1.20651 6.77882 -0.255789 0.163797 6.78834 2.72338 31 1 
726.667 1.20642 6.80861 -0.253603 0.189394 6.81874 2.56441 31 1 
728 1.20633 6.84003 -0.251129 0.215906 6.85087 2.4007 31 1 
729.333 1.20624 6.8734 -0.247587 0.242919 6.885 2.23284 31 1 
730.667 1.20615 6.90812 -0.244031 0.270454 6.92059 2.07773 31 1 
732 1.20606 6.94417 -0.239372 0.298413 6.95759 1.91836 31 1 
733.333 1.20597 6.98159 -0.234231 0.326647 6.99603 1.75635 31 1 
734.667 1.20589 7.0195 -0.228732 0.355303 7.03508 1.61114 31 1 
736 1.20581 7.05803 -0.22244 0.384095 7.07481 1.464 31 1 
737.333 1.20573 7.09656 -0.216177 0.412957 7.11466 1.31778 31 1 
738.667 1.20566 7.1345 -0.209372 0.441892 7.15401 1.18658 31 1 
740 1.20559 7.1718 -0.202289 0.470623 7.19279 1.05891 31 1 
741.333 1.20552 7.20821 -0.195302 0.499358 7.23079 0.937086 31 1 
742.667 1.20546 7.2431 -0.188414 0.528116 7.26737 0.83351 31 1 
744 1.20541 7.27674 -0.181617 0.556352 7.30276 0.733358 31 1 
745.333 1.20536 7.30827 -0.175378 0.584475 7.33613 0.648949 31 1 
746.667 1.20532 7.33779 -0.169699 0.612186 7.36757 0.577015 31 1 
746.667 1.20532 7.33779 -0.169699 0.612186 7.36757 0.577015 31 1 
748 1.20529 7.36553 -0.164781 0.639019 7.39726 0.515199 31 1 
749.333 1.20527 7.39086 -0.160725 0.665759 7.42464 0.478701 31 1 
750.667 1.20525 7.41412 -0.157642 0.691054 7.44992 0.457252 31 1 
752 1.20524 7.43516 -0.155958 0.715899 7.47306 0.442238 31 1 
753.333 1.20525 7.45419 -0.155388 0.739764 7.49419 0.450529 31 1 
754.667 1.20527 7.47105 -0.156236 0.762174 7.51311 0.489679 31 1 
756 1.20529 7.48641 -0.158521 0.784181 7.5306 0.52643 31 1 
757.333 1.20532 7.50038 -0.162252 0.804996 7.54667 0.584094 31 1 
758.667 1.20537 7.5126 -0.167372 0.825052 7.56099 0.675692 31 1 
760 1.20542 7.52381 -0.173994 0.843668 7.57425 0.761547 31 1 
761.333 1.20547 7.53431 -0.18211 0.861305 7.58678 0.855579 31 1 
762.667 1.20554 7.54386 -0.191083 0.877856 7.59832 0.983511 31 1 
764 1.20562 7.55231 -0.201322 0.893251 7.60871 1.11747 31 1 
765.333 1.20568 7.56045 -0.212317 0.907566 7.61873 1.22516 31 1 
766.667 1.20575 7.56756 -0.224209 0.920015 7.62759 1.36265 31 1 
768 1.20584 7.57428 -0.236499 0.930616 7.63589 1.51477 31 1 
768 1.20584 7.57428 -0.236499 0.930616 7.63589 1.51477 32 1 
769.333 1.20591 7.58054 -0.249155 0.938633 7.64346 1.63975 32 1 
770.667 1.20597 7.58671 -0.262517 0.9448 7.65078 1.75962 32 1 
772 1.20606 7.59202 -0.275465 0.947904 7.65691 1.9077 32 1 
773.333 1.20613 7.59643 -0.288502 0.948757 7.66188 2.037 32 1 
774.667 1.20617 7.60203 -0.301701 0.94568 7.66758 2.11179 32 1 
776 1.20624 7.60662 -0.314407 0.939796 7.67193 2.24882 32 1 
777.333 1.20632 7.61107 -0.326252 0.930362 7.67572 2.38337 32 1 
778.667 1.20634 7.6172 -0.336977 0.917669 7.68076 2.42327 32 1 
780 1.2064 7.62191 -0.346879 0.901747 7.68401 2.52722 32 1 
781.333 1.20647 7.62791 -0.355039 0.883059 7.68817 2.64814 32 1 
782.667 1.20649 7.63528 -0.36124 0.861828 7.69335 2.69639 32 1 
784 1.20653 7.64231 -0.365602 0.837382 7.69782 2.75836 32 1 
785.333 1.20658 7.6498 -0.367931 0.810185 7.70245 2.86261 32 1 
786.667 1.20662 7.65881 -0.368196 0.781141 7.70839 2.91913 32 1 
788 1.20664 7.66789 -0.366467 0.752327 7.71445 2.96167 32 1 
789.333 1.20668 7.67685 -0.361941 0.721621 7.72018 3.04117 32 1 
790.667 1.20672 7.68687 -0.357397 0.689819 7.72702 3.10962 32 1 
792 1.20677 7.69205 -0.348612 0.656426 7.72884 3.19632 32 1 
793.333 1.20675 7.69977 -0.342247 0.622518 7.73344 3.15771 32 1 
794.667 1.20677 7.70909 -0.335249 0.582851 7.73935 3.20579 32 1 
796 1.20686 7.71738 -0.32722 0.545083 7.74453 3.36344 32 1 
797.333 1.20685 7.72518 -0.330386 0.50175 7.74964 3.33836 32 1 
798.667 1.20671 7.74305 -0.333776 0.4518 7.76455 3.08535 32 1 
800 1.2066 7.7589 -0.334201 0.429908 7.77906 2.8854 32 1 
