43.4711;r ;Density                 ;Velocity u              ;Velocity v              ;Velocity w              ;|Velocity|              ;Pressure                ;Distribution            ;Levels                  ;
0 1.20403 10.0007 3.98727e-05 0.00133517 10.0007 -1.74772 1 1 
1.33334 1.20404 10.0005 1.75206e-05 0.00132164 10.0005 -1.73369 1 1 
2.66666 1.20406 10.0005 -3.67129e-05 0.000956216 10.0005 -1.70223 1 1 
4 1.20407 10.0004 -6.99989e-05 0.000673848 10.0004 -1.68547 1 1 
5.33334 1.20408 9.99995 -9.78924e-05 0.000413023 9.99995 -1.66028 1 1 
6.66666 1.20411 9.99981 -0.000149951 -0.000291798 9.99981 -1.60275 1 1 
8 1.20413 9.99985 -0.000198572 -0.000980005 9.99985 -1.56641 1 1 
9.33334 1.20415 9.99965 -0.000229507 -0.00190173 9.99965 -1.52943 1 1 
10.6667 1.20419 9.99937 -0.000276191 -0.00310471 9.99938 -1.45456 1 1 
12 1.20423 9.9993 -0.000330055 -0.00409907 9.99931 -1.39453 1 1 
13.3333 1.20426 9.99916 -0.000366866 -0.00558486 9.99917 -1.34348 1 1 
14.6667 1.20429 9.99867 -0.000388287 -0.00716284 9.99868 -1.28077 1 1 
16 1.20432 9.99845 -0.000403163 -0.00816075 9.99846 -1.23345 1 1 
17.3333 1.20434 9.99864 -0.000441648 -0.00933288 9.99865 -1.19503 1 1 
18.6667 1.20435 9.99832 -0.0004565 -0.0103573 9.99833 -1.17087 1 1 
20 1.20437 9.99757 -0.000434732 -0.0108417 9.99758 -1.14422 1 1 
21.3333 1.20438 9.9976 -0.000426909 -0.0113286 9.99761 -1.1268 1 1 
21.3333 1.20438 9.9976 -0.000426909 -0.0113286 9.99761 -1.1268 1 1 
22.6667 1.20435 9.99786 -0.000414344 -0.0114917 9.99788 -1.16759 1 1 
24 1.20434 9.99719 -0.00036715 -0.0114729 9.9972 -1.1862 1 1 
25.3333 1.20434 9.99671 -0.000317283 -0.0111942 9.99672 -1.18684 1 1 
26.6667 1.2043 9.99709 -0.000267299 -0.0103469 9.9971 -1.26742 1 1 
28 1.20426 9.99717 -0.000208773 -0.009599 9.99718 -1.34272 1 1 
29.3333 1.20424 9.99671 -0.000140902 -0.00861499 9.99672 -1.37761 1 1 
30.6667 1.20419 9.99664 -6.57995e-05 -0.00689956 9.99664 -1.46466 1 1 
32 1.20413 9.9969 -8.31005e-06 -0.00563138 9.9969 -1.57142 1 1 
33.3333 1.20409 9.99648 5.79348e-05 -0.00436268 9.99648 -1.64393 1 1 
34.6667 1.20405 9.99626 0.000137716 -0.00249223 9.99626 -1.71383 1 1 
36 1.204 9.99711 0.000193464 -0.000827963 9.99712 -1.80672 1 1 
37.3333 1.20395 9.99723 0.000246094 0.000640693 9.99723 -1.90362 1 1 
38.6667 1.20392 9.99638 0.00031561 0.00210512 9.99638 -1.95718 1 1 
40 1.20389 9.99675 0.000361781 0.00357346 9.99675 -2.00734 1 1 
41.3333 1.20384 9.9977 0.000395738 0.0049532 9.9977 -2.0988 1 1 
42.6667 1.20381 9.99731 0.000430117 0.00592386 9.99732 -2.14336 1 1 
42.6667 1.20381 9.99731 0.000430117 0.00592386 9.99732 -2.14336 2 1 
44 1.20381 9.99689 0.000454816 0.00673739 9.9969 -2.15313 2 1 
45.3333 1.20378 9.99771 0.000465445 0.00805041 9.99772 -2.20535 2 1 
46.6667 1.20377 9.99824 0.000453063 0.00841593 9.99825 -2.22652 2 1 
48 1.20378 9.99755 0.000441859 0.00840884 9.99756 -2.20875 2 1 
49.3333 1.20377 9.99734 0.000445548 0.00904838 9.99735 -2.21849 2 1 
50.6667 1.20378 9.99831 0.000413294 0.00895123 9.99832 -2.21244 2 1 
52 1.2038 9.99813 0.000372477 0.00836816 9.99814 -2.16783 2 1 
53.3333 1.20382 9.99725 0.000354074 0.00803222 9.99726 -2.1277 2 1 
54.6667 1.20384 9.99796 0.000316234 0.00743186 9.99797 -2.10014 2 1 
56 1.20386 9.99861 0.000266585 0.00656663 9.99862 -2.05769 2 1 
57.3333 1.2039 9.99774 0.000218944 0.00530091 9.99774 -1.98184 2 1 
58.6667 1.20393 9.99742 0.000180933 0.00427401 9.99743 -1.92419 2 1 
60 1.20395 9.99812 0.000146316 0.00346184 9.99813 -1.8915 2 1 
61.3333 1.20399 9.99806 0.00010807 0.00179786 9.99806 -1.81796 2 1 
62.6667 1.20403 9.99736 7.68682e-05 0.000251724 9.99736 -1.75224 2 1 
64 1.20405 9.99735 7.19907e-05 -0.000488612 9.99735 -1.72324 2 1 
64 1.20405 9.99735 7.19907e-05 -0.000488612 9.99735 -1.72324 2 1 
65.3333 1.20408 9.99796 5.95768e-05 -0.00189077 9.99796 -1.67041 2 1 
66.6667 1.20411 9.99736 5.70012e-05 -0.00343636 9.99736 -1.61472 2 1 
68 1.20412 9.99664 7.8083e-05 -0.00426429 9.99664 -1.59349 2 1 
69.3333 1.20413 9.99755 0.000101705 -0.00505849 9.99755 -1.56658 2 1 
70.6667 1.20415 9.99775 0.000128383 -0.00605708 9.99775 -1.53299 2 1 
72 1.20415 9.99677 0.000169654 -0.00712597 9.99677 -1.52735 2 1 
73.3333 1.20415 9.99666 0.000226982 -0.00773998 9.99667 -1.53108 2 1 
74.6667 1.20415 9.99734 0.000287925 -0.00794227 9.99734 -1.53211 2 1 
76 1.20415 9.99705 0.000335559 -0.00825578 9.99706 -1.53809 2 1 
77.3333 1.20413 9.99631 0.000383823 -0.00822813 9.99632 -1.57972 2 1 
78.6667 1.2041 9.99667 0.000469838 -0.00747189 9.99667 -1.62328 2 1 
80 1.2041 9.99704 0.000536013 -0.0076332 9.99705 -1.6289 2 1 
81.3333 1.20406 9.99657 0.000615011 -0.00737568 9.99658 -1.69475 2 1 
82.6667 1.20402 9.99639 0.000729552 -0.00593205 9.9964 -1.7783 2 1 
84 1.20401 9.99703 0.000821348 -0.00519239 9.99703 -1.78316 2 1 
85.3333 1.20398 9.99709 0.000909439 -0.00435987 9.99709 -1.83932 2 1 
85.3333 1.20398 9.99709 0.000909439 -0.00435987 9.99709 -1.83932 3 1 
86.6667 1.20392 9.99651 0.00100986 -0.00295245 9.99651 -1.95473 3 1 
88 1.2039 9.99655 0.001091 -0.00177385 9.99656 -1.98621 3 1 
89.3333 1.20389 9.99706 0.00114202 -0.000601228 9.99706 -2.0137 3 1 
90.6667 1.20383 9.99706 0.00118385 0.000452015 9.99707 -2.11683 3 1 
92 1.20379 9.99659 0.00121752 0.00169685 9.9966 -2.18181 3 1 
93.3333 1.20379 9.99683 0.00125003 0.00290719 9.99683 -2.19356 3 1 
94.6667 1.20376 9.9976 0.00126932 0.00354693 9.9976 -2.24803 3 1 
96 1.20371 9.99756 0.0012944 0.00458782 9.99757 -2.32822 3 1 
97.3333 1.20371 9.99703 0.00131994 0.00589056 9.99704 -2.32612 3 1 
98.6667 1.20372 9.99758 0.00132279 0.00656485 9.99758 -2.31536 3 1 
100 1.20367 9.99817 0.00133088 0.00696779 9.99818 -2.39445 3 1 
101.333 1.20367 9.99706 0.00134068 0.00714678 9.99707 -2.39775 3 1 
102.667 1.20371 9.99682 0.00133151 0.00689899 9.99683 -2.33749 3 1 
104 1.20368 9.99827 0.00131353 0.00677823 9.99828 -2.37929 3 1 
105.333 1.20368 9.99818 0.00129653 0.00638266 9.99819 -2.38792 3 1 
106.667 1.20372 9.99732 0.00127132 0.00614783 9.99733 -2.31331 3 1 
106.667 1.20372 9.99732 0.00127132 0.00614783 9.99733 -2.31331 3 1 
108 1.20372 9.99801 0.00125527 0.00610949 9.99801 -2.30655 3 1 
109.333 1.20372 9.99826 0.00122446 0.00515964 9.99826 -2.30705 3 1 
110.667 1.20375 9.99748 0.0011953 0.00431256 9.99748 -2.24997 3 1 
112 1.20378 9.99755 0.00120521 0.00369109 9.99755 -2.20519 3 1 
113.333 1.20379 9.99813 0.00118939 0.00229326 9.99814 -2.18266 3 1 
114.667 1.2038 9.99838 0.00115765 0.000961997 9.99839 -2.17107 3 1 
116 1.20383 9.99757 0.00116432 0.00032843 9.99757 -2.11582 3 1 
117.333 1.20386 9.99734 0.00118173 -0.000450018 9.99735 -2.06809 3 1 
118.667 1.20384 9.99834 0.0011773 -0.00121871 9.99834 -2.09642 3 1 
120 1.20385 9.99779 0.00117887 -0.0017562 9.99779 -2.07052 3 1 
121.333 1.20389 9.99706 0.00120826 -0.00251107 9.99706 -2.01099 3 1 
122.667 1.20387 9.99787 0.00122882 -0.00321903 9.99787 -2.0445 3 1 
124 1.20386 9.99789 0.00124421 -0.00395594 9.9979 -2.06117 3 1 
125.333 1.20388 9.99676 0.00127428 -0.00415754 9.99677 -2.01886 3 1 
126.667 1.20386 9.9968 0.0013424 -0.00391803 9.9968 -2.05211 3 1 
128 1.20384 9.99742 0.00138327 -0.00404134 9.99743 -2.09772 3 1 
128 1.20384 9.99742 0.00138327 -0.00404134 9.99743 -2.09772 3 1 
129.333 1.20384 9.9971 0.00141323 -0.00403229 9.9971 -2.08877 3 1 
130.667 1.20383 9.9966 0.00149342 -0.00345425 9.9966 -2.10746 3 1 
132 1.2038 9.99683 0.00156038 -0.00321264 9.99683 -2.16723 3 1 
133.333 1.20378 9.99706 0.00160154 -0.00299996 9.99706 -2.21191 3 1 
134.667 1.20377 9.99621 0.00166507 -0.00227415 9.99621 -2.2172 3 1 
136 1.20375 9.99555 0.00174818 -0.00161541 9.99555 -2.25814 3 1 
137.333 1.20371 9.99637 0.0018061 -0.00118379 9.99637 -2.33284 3 1 
138.667 1.2037 9.99679 0.00186046 -0.00070689 9.99679 -2.33945 3 1 
140 1.2037 9.99584 0.00193394 7.18007e-05 9.99584 -2.34501 3 1 
141.333 1.20366 9.99579 0.00199049 0.00112997 9.99579 -2.42828 3 1 
142.667 1.20364 9.99645 0.00202101 0.00139877 9.99645 -2.45998 3 1 
144 1.20366 9.99547 0.002059 0.00180445 9.99547 -2.42375 3 1 
145.333 1.20362 9.99514 0.00210915 0.00262897 9.99514 -2.48546 3 1 
146.667 1.20359 9.99636 0.00214199 0.00254402 9.99636 -2.54925 3 1 
148 1.20362 9.99567 0.00216969 0.00269884 9.99567 -2.48685 3 1 
149.333 1.20361 9.99498 0.00220085 0.00336927 9.99498 -2.50245 3 1 
149.333 1.20361 9.99498 0.00220085 0.00336927 9.99498 -2.50245 3 1 
150.667 1.20357 9.99545 0.0022253 0.00367671 9.99545 -2.57932 3 1 
152 1.2036 9.99495 0.0022498 0.00367147 9.99496 -2.52704 3 1 
153.333 1.20362 9.99477 0.00227024 0.00349843 9.99477 -2.49299 3 1 
154.667 1.20358 9.99451 0.00228301 0.00358073 9.99451 -2.55829 3 1 
156 1.20359 9.99396 0.00228746 0.00373231 9.99396 -2.54677 3 1 
157.333 1.20363 9.99427 0.00230881 0.00354493 9.99427 -2.47893 3 1 
158.667 1.20362 9.99401 0.0023251 0.00355399 9.99401 -2.49819 3 1 
160 1.20359 9.99352 0.00232872 0.00337751 9.99352 -2.54333 3 1 
161.333 1.20362 9.99347 0.00234843 0.00242693 9.99347 -2.4889 3 1 
162.667 1.20365 9.9926 0.0023672 0.00195173 9.9926 -2.44161 3 1 
164 1.20361 9.99208 0.00236749 0.00256456 9.99208 -2.51375 3 1 
165.333 1.20361 9.99231 0.00238357 0.00274318 9.99231 -2.50549 3 1 
166.667 1.20366 9.99177 0.0024214 0.00225547 9.99177 -2.41293 3 1 
168 1.20363 9.99142 0.00242801 0.00190424 9.99142 -2.47116 3 1 
169.333 1.2036 9.99111 0.00242915 0.00176104 9.99111 -2.53394 3 1 
170.667 1.20365 9.99011 0.00246326 0.00130734 9.99011 -2.44078 3 1 
170.667 1.20365 9.99011 0.00246326 0.00130734 9.99011 -2.44078 11 1 
172 1.20365 9.99033 0.00249563 0.00108244 9.99033 -2.44197 11 1 
173.333 1.20359 9.99068 0.00250909 0.00131876 9.99068 -2.54974 11 1 
174.667 1.20361 9.9893 0.00253253 0.00160028 9.9893 -2.50732 11 1 
176 1.20364 9.98865 0.00259141 0.00105443 9.98865 -2.46206 11 1 
177.333 1.20358 9.98878 0.00263344 0.0011459 9.98878 -2.56681 11 1 
178.667 1.20356 9.98801 0.00264712 0.00136968 9.98801 -2.59882 11 1 
180 1.2036 9.98757 0.00269171 0.00104474 9.98757 -2.52224 11 1 
181.333 1.20358 9.98762 0.00274793 0.00101187 9.98762 -2.55786 11 1 
182.667 1.20353 9.98707 0.00275429 0.00135322 9.98707 -2.65917 11 1 
184 1.20355 9.98581 0.00276202 0.0015787 9.98582 -2.61585 11 1 
185.333 1.20357 9.98524 0.00282683 0.00145325 9.98524 -2.57668 11 1 
186.667 1.20352 9.98556 0.00286421 0.00195839 9.98556 -2.6822 11 1 
188 1.20351 9.98478 0.00285725 0.0024811 9.98478 -2.69975 11 1 
189.333 1.20355 9.98306 0.00290887 0.00252472 9.98306 -2.61349 11 1 
190.667 1.20353 9.98239 0.00298289 0.00214199 9.98239 -2.66161 11 1 
192 1.20348 9.98191 0.00300878 0.00156098 9.98191 -2.741 11 1 
192 1.20348 9.98191 0.00300878 0.00156098 9.98191 -2.741 11 1 
193.333 1.20353 9.97942 0.00299975 0.00219325 9.97942 -2.65942 11 1 
194.667 1.20355 9.97721 0.00306102 0.00302313 9.97721 -2.62807 11 1 
196 1.20349 9.97769 0.00312408 0.00342756 9.97769 -2.73396 11 1 
197.333 1.20352 9.97731 0.00307785 0.00380792 9.97731 -2.68162 11 1 
198.667 1.20359 9.97456 0.00307601 0.00339436 9.97457 -2.54624 11 1 
200 1.20353 9.9732 0.00316277 0.0041856 9.9732 -2.648 11 1 
201.333 1.20351 9.97171 0.00317864 0.00477247 9.97171 -2.69979 11 1 
202.667 1.20361 9.96762 0.00312736 0.00352918 9.96762 -2.51102 11 1 
204 1.20361 9.96529 0.00317053 0.00341937 9.96529 -2.51664 11 1 
205.333 1.20355 9.96453 0.00322072 0.00457699 9.96453 -2.6231 11 1 
206.667 1.20363 9.96189 0.00317172 0.00514488 9.96189 -2.46726 11 1 
208 1.20369 9.96012 0.00314273 0.00593999 9.96012 -2.36409 11 1 
209.333 1.20364 9.95877 0.00321654 0.00638787 9.95878 -2.45512 11 1 
210.667 1.20368 9.95469 0.00324892 0.005432 9.95469 -2.3931 11 1 
212 1.20376 9.95019 0.0031789 0.00418015 9.9502 -2.2471 11 1 
213.333 1.20373 9.94713 0.00317254 0.00443967 9.94713 -2.28653 11 1 
213.333 1.20373 9.94713 0.00317254 0.00443967 9.94713 -2.28653 11 1 
214.667 1.20372 9.94532 0.00322906 0.00612212 9.94532 -2.30934 11 1 
216 1.20382 9.94263 0.00319624 0.00732619 9.94263 -2.12731 11 1 
217.333 1.20387 9.93826 0.00311272 0.0070757 9.93827 -2.03912 11 1 
218.667 1.20382 9.93484 0.00312926 0.00645549 9.93485 -2.13576 11 1 
220 1.20387 9.9301 0.00319074 0.00620351 9.9301 -2.0457 11 1 
221.333 1.20396 9.92481 0.00315685 0.00596759 9.92481 -1.87206 11 1 
222.667 1.20394 9.92245 0.00312993 0.0070901 9.92245 -1.91752 11 1 
224 1.20395 9.91909 0.00315974 0.00869721 9.9191 -1.89886 11 1 
225.333 1.20406 9.91286 0.00312351 0.00779708 9.91286 -1.69688 11 1 
226.667 1.20407 9.90723 0.00301576 0.00689624 9.90723 -1.6712 11 1 
228 1.20403 9.90265 0.00303006 0.00773375 9.90265 -1.74299 11 1 
229.333 1.20414 9.89686 0.00312041 0.00896313 9.89686 -1.5613 11 1 
230.667 1.20423 9.89092 0.0030984 0.0105053 9.89093 -1.39199 11 1 
232 1.20419 9.88585 0.00299223 0.0100926 9.88586 -1.4694 11 1 
233.333 1.20423 9.87865 0.00292639 0.00986574 9.87866 -1.39145 11 1 
234.667 1.20436 9.87039 0.00295274 0.0106242 9.87039 -1.1593 11 1 
234.667 1.20436 9.87039 0.00295274 0.0106242 9.87039 -1.1593 11 1 
236 1.20436 9.86424 0.00295021 0.0111592 9.86425 -1.16305 11 1 
237.333 1.20437 9.85694 0.00290422 0.0130915 9.85695 -1.14477 11 1 
238.667 1.2045 9.84809 0.00290599 0.0143898 9.8481 -0.911478 11 1 
240 1.20456 9.83903 0.00287408 0.0144774 9.83904 -0.788963 11 1 
241.333 1.20455 9.82961 0.00276684 0.0152504 9.82962 -0.811731 11 1 
242.667 1.20463 9.8207 0.00276872 0.0161084 9.82071 -0.667345 11 1 
244 1.20479 9.80982 0.00279477 0.0172392 9.80984 -0.375938 11 1 
245.333 1.20482 9.79804 0.00270184 0.0194881 9.79806 -0.325889 11 1 
246.667 1.20481 9.78651 0.00258798 0.0221673 9.78654 -0.338611 11 1 
248 1.205 9.77261 0.00257419 0.0232266 9.77264 -0.0040641 11 1 
249.333 1.20514 9.75831 0.002576 0.0242373 9.75834 0.25026 11 1 
250.667 1.2051 9.74588 0.00244247 0.0264943 9.74592 0.176608 11 1 
252 1.20524 9.73087 0.00234509 0.029351 9.73092 0.426935 11 1 
253.333 1.20549 9.71156 0.0023545 0.0323535 9.71162 0.893151 11 1 
254.667 1.20549 9.69314 0.00229968 0.0360391 9.69321 0.887226 11 1 
256 1.20551 9.67565 0.00212786 0.0397033 9.67573 0.926466 11 1 
256 1.20551 9.67565 0.00212786 0.0397033 9.67573 0.926466 13 1 
257.333 1.20585 9.65353 0.00202839 0.0427628 9.65363 1.53583 13 1 
258.667 1.20603 9.62958 0.00205212 0.0477095 9.62971 1.85258 13 1 
260 1.20594 9.60935 0.00198715 0.0543023 9.60951 1.69494 13 1 
261.333 1.20623 9.58214 0.00182184 0.060969 9.58234 2.21953 13 1 
262.667 1.20662 9.54818 0.00173654 0.0666475 9.54841 2.92909 13 1 
264 1.20654 9.52277 0.00171961 0.0745922 9.52307 2.78486 13 1 
265.333 1.20671 9.49226 0.00160917 0.0861703 9.49266 3.08937 13 1 
266.667 1.20728 9.44951 0.00145654 0.0965371 9.45001 4.1101 13 1 
268 1.20735 9.41431 0.00138313 0.108025 9.41494 4.25381 13 1 
269.333 1.20738 9.37577 0.0013438 0.124207 9.37661 4.30771 13 1 
270.667 1.20797 9.32358 0.00120048 0.141779 9.32467 5.36134 13 1 
272 1.20831 9.2761 0.001041 0.159434 9.27749 5.98321 13 1 
273.333 1.20831 9.23097 0.000976507 0.186778 9.23289 5.9787 13 1 
274.667 1.20879 9.17601 0.000893846 0.221168 9.17871 6.85182 13 1 
276 1.20946 9.11238 0.000704499 0.252554 9.11593 8.05565 13 1 
277.333 1.20953 9.04768 0.000558788 0.284143 9.05219 8.18887 13 1 
277.333 1.20953 9.04768 0.000558788 0.284143 9.05219 8.18887 13 1 
278.667 1.20966 8.98655 0.000527227 0.330742 8.99271 8.41747 13 1 
280 1.21048 8.92274 0.000423597 0.391349 8.9314 9.89771 13 1 
281.333 1.21102 8.85368 0.00021709 0.4432 8.86484 10.8705 13 1 
282.667 1.21089 8.7841 7.99557e-05 0.503574 8.79866 10.6379 13 1 
284 1.21121 8.72004 4.58709e-05 0.578137 8.7393 11.2162 13 1 
285.333 1.21212 8.65616 -6.13995e-05 0.658224 8.68133 12.865 13 1 
286.667 1.21233 8.59075 -0.000244261 0.742204 8.62292 13.2345 13 1 
288 1.21201 8.53112 -0.000345225 0.82113 8.57071 12.6648 13 1 
289.333 1.21264 8.47432 -0.000403388 0.918561 8.52425 13.7998 13 1 
290.667 1.21339 8.41946 -0.000544478 1.0188 8.48107 15.1529 13 1 
292 1.21305 8.37086 -0.000720644 1.10369 8.44351 14.5407 13 1 
293.333 1.21297 8.32231 -0.000851661 1.19736 8.40826 14.3985 13 1 
294.667 1.2138 8.28163 -0.00097165 1.30636 8.38439 15.9026 13 1 
296 1.21409 8.21385 -0.00111085 1.37499 8.32844 16.4195 13 1 
297.333 1.21261 7.77117 -0.00123706 1.09113 7.8591 13.742 13 1 
298.667 1.20877 6.76416 -0.00135262 0.252231 6.81201 6.81635 13 1 
298.667 1.20877 6.76416 -0.00135262 0.252231 6.81201 6.81635 14 1 
300 1.20375 5.65698 -0.00149164 -0.757562 5.75728 -2.24963 14 1 
301.333 1.2001 4.91091 -0.00164112 -1.46026 5.14406 -8.85045 14 1 
302.667 1.19847 4.59723 -0.0018016 -1.72534 4.91197 -11.7935 14 1 
304 1.19786 4.53379 -0.00202302 -1.70012 4.84258 -12.9021 14 1 
305.333 1.19775 4.52041 -0.0022721 -1.59357 4.79352 -13.1027 14 1 
306.667 1.19802 4.51039 -0.00243232 -1.48892 4.75017 -12.6089 14 1 
308 1.19811 4.5012 -0.00246004 -1.38833 4.71086 -12.4362 14 1 
309.333 1.19795 4.48236 -0.00240735 -1.28627 4.6637 -12.7342 14 1 
310.667 1.19814 4.44938 -0.00242721 -1.18313 4.60434 -12.3902 14 1 
312 1.19843 4.40736 -0.00271128 -1.07904 4.53786 -11.8656 14 1 
313.333 1.19832 4.36219 -0.00324386 -0.965056 4.46808 -12.0633 14 1 
314.667 1.19842 4.30942 -0.0037052 -0.870409 4.39661 -11.893 14 1 
316 1.19886 4.25094 -0.00382013 -0.793136 4.32453 -11.0903 14 1 
317.333 1.19894 4.1921 -0.00365316 -0.699909 4.25041 -10.9395 14 1 
318.667 1.19892 4.12559 -0.00345143 -0.61462 4.1713 -10.9892 14 1 
320 1.19928 4.05243 -0.00338311 -0.548697 4.08956 -10.3305 14 1 
320 1.19928 4.05243 -0.00338311 -0.548697 4.08956 -10.3305 14 1 
321.333 1.19956 3.98088 -0.00344593 -0.483054 4.01026 -9.83185 14 1 
322.667 1.19952 3.90842 -0.00356657 -0.418829 3.93095 -9.89279 14 1 
324 1.19971 3.83464 -0.00369882 -0.37068 3.85263 -9.552 14 1 
325.333 1.20007 3.76468 -0.00383136 -0.328874 3.77913 -8.90146 14 1 
326.667 1.20014 3.69514 -0.00396768 -0.287239 3.70639 -8.77984 14 1 
328 1.20016 3.62378 -0.0040996 -0.254115 3.63278 -8.74922 14 1 
329.333 1.20043 3.55817 -0.00421744 -0.226777 3.56547 -8.25043 14 1 
330.667 1.20065 3.49793 -0.00433074 -0.200283 3.50374 -7.86362 14 1 
332 1.20064 3.43572 -0.00445352 -0.178149 3.44041 -7.86608 14 1 
333.333 1.20075 3.37493 -0.00457767 -0.161026 3.37884 -7.68542 14 1 
334.667 1.20098 3.32154 -0.00469473 -0.143526 3.3247 -7.2564 14 1 
336 1.20108 3.26957 -0.00481888 -0.127013 3.27209 -7.07948 14 1 
337.333 1.20109 3.21546 -0.00495249 -0.11512 3.21757 -7.06776 14 1 
338.667 1.20124 3.16747 -0.00508773 -0.104768 3.16925 -6.80031 14 1 
340 1.20142 3.12551 -0.00523027 -0.0930601 3.12693 -6.47293 14 1 
341.333 1.20145 3.07984 -0.00538474 -0.0830073 3.081 -6.41096 14 1 
341.333 1.20145 3.07984 -0.00538474 -0.0830073 3.081 -6.41096 15 1 
342.667 1.20148 3.03302 -0.0055455 -0.0758348 3.034 -6.35345 15 1 
344 1.20163 2.99428 -0.00571058 -0.0684244 2.9951 -6.08314 15 1 
345.333 1.20175 2.95976 -0.005874 -0.0603552 2.96041 -5.87588 15 1 
346.667 1.20176 2.92045 -0.00603804 -0.0541446 2.92098 -5.84604 15 1 
348 1.20183 2.8798 -0.00621802 -0.0488005 2.88025 -5.73332 15 1 
349.333 1.20196 2.84603 -0.0064061 -0.0424905 2.84638 -5.49862 15 1 
350.667 1.20203 2.81589 -0.00659212 -0.0369272 2.81617 -5.36029 15 1 
352 1.20206 2.78213 -0.00677964 -0.0326185 2.78236 -5.30148 15 1 
353.333 1.20214 2.7471 -0.00696345 -0.0275236 2.74727 -5.166 15 1 
354.667 1.20222 2.71573 -0.00714611 -0.0220201 2.71585 -5.01962 15 1 
356 1.20226 2.68645 -0.00733099 -0.0177914 2.68654 -4.95328 15 1 
357.333 1.20231 2.65681 -0.00750347 -0.0140085 2.65688 -4.86387 15 1 
358.667 1.20239 2.62778 -0.00767534 -0.00930935 2.62783 -4.70524 15 1 
360 1.20246 2.59991 -0.00787337 -0.00469998 2.59995 -4.58551 15 1 
361.333 1.2025 2.57244 -0.00807676 -0.00139414 2.57248 -4.51632 15 1 
362.667 1.20256 2.54593 -0.00826622 0.00176183 2.54596 -4.40735 15 1 
362.667 1.20256 2.54593 -0.00826622 0.00176183 2.54596 -4.40735 15 1 
364 1.20263 2.52107 -0.00846894 0.00578288 2.5211 -4.28206 15 1 
365.333 1.20267 2.49662 -0.0086918 0.00934779 2.49667 -4.21468 15 1 
366.667 1.2027 2.47186 -0.00890735 0.0116668 2.47193 -4.15844 15 1 
368 1.20276 2.4483 -0.00911768 0.0139781 2.44837 -4.05101 15 1 
369.333 1.20282 2.42676 -0.00934437 0.0166204 2.42686 -3.93999 15 1 
370.667 1.20286 2.40599 -0.0095886 0.0184829 2.4061 -3.86171 15 1 
372 1.20291 2.38536 -0.00984136 0.0196056 2.38547 -3.77058 15 1 
373.333 1.20297 2.36564 -0.0100912 0.0209635 2.36577 -3.66281 15 1 
374.667 1.20301 2.34702 -0.0103369 0.0223047 2.34717 -3.5913 15 1 
376 1.20304 2.32952 -0.0105999 0.023147 2.32967 -3.54208 15 1 
377.333 1.20308 2.31401 -0.0108755 0.0243585 2.31418 -3.46195 15 1 
378.667 1.20313 2.30039 -0.0111394 0.0266692 2.30058 -3.37249 15 1 
380 1.20317 2.28745 -0.0114144 0.0295601 2.28768 -3.312 15 1 
381.333 1.2032 2.27539 -0.0117231 0.0329615 2.27567 -3.24735 15 1 
382.667 1.20325 2.2651 -0.012042 0.0375289 2.26545 -3.15556 15 1 
384 1.2033 2.25584 -0.0123595 0.0430629 2.2563 -3.07465 15 1 
384 1.2033 2.25584 -0.0123595 0.0430629 2.2563 -3.07465 15 1 
385.333 1.20333 2.24619 -0.0126772 0.048607 2.24676 -3.01331 15 1 
386.667 1.20337 2.23593 -0.0129755 0.0538097 2.23663 -2.93806 15 1 
388 1.20342 2.22566 -0.0132317 0.0587661 2.22649 -2.85234 15 1 
389.333 1.20346 2.21524 -0.0134345 0.0631236 2.2162 -2.77927 15 1 
390.667 1.2035 2.20391 -0.0135837 0.0663053 2.20497 -2.70455 15 1 
392 1.20355 2.1914 -0.0136926 0.0681315 2.19252 -2.61432 15 1 
393.333 1.2036 2.17821 -0.0137649 0.0684441 2.17935 -2.53298 15 1 
394.667 1.20363 2.16487 -0.0138004 0.0669516 2.16596 -2.47043 15 1 
396 1.20367 2.15107 -0.0138032 0.0636861 2.15207 -2.40069 15 1 
397.333 1.20371 2.13564 -0.0137482 0.0590973 2.13652 -2.32107 15 1 
398.667 1.20375 2.11695 -0.0136059 0.0539148 2.1177 -2.25454 15 1 
400 1.20379 2.09365 -0.0133796 0.0491829 2.0943 -2.19311 15 1 
401.333 1.20383 2.06513 -0.0130969 0.04574 2.06572 -2.1152 15 1 
402.667 1.20387 2.03153 -0.0128154 0.0437064 2.0321 -2.03687 15 1 
404 1.2039 1.99443 -0.0126355 0.043051 1.99501 -1.97866 15 1 
405.333 1.20394 1.95696 -0.0126725 0.0442793 1.95758 -1.92313 15 1 
405.333 1.20394 1.95696 -0.0126725 0.0442793 1.95758 -1.92313 15 1 
406.667 1.20397 1.9222 -0.013002 0.0479214 1.92291 -1.86005 15 1 
408 1.204 1.89236 -0.0136506 0.054047 1.89323 -1.81178 15 1 
409.333 1.20402 1.86963 -0.0146098 0.0628807 1.87078 -1.77719 15 1 
410.667 1.20404 1.85598 -0.0158365 0.0750173 1.8576 -1.72613 15 1 
412 1.20408 1.85173 -0.0172603 0.0904958 1.85406 -1.65898 15 1 
413.333 1.20412 1.85584 -0.0187922 0.108661 1.85918 -1.59684 15 1 
414.667 1.20415 1.86741 -0.0203482 0.128908 1.87207 -1.53134 15 1 
416 1.2042 1.88553 -0.0218609 0.150883 1.89184 -1.44633 15 1 
417.333 1.20425 1.90833 -0.0232735 0.173903 1.91659 -1.35695 15 1 
418.667 1.20429 1.93357 -0.0245386 0.197099 1.94402 -1.27915 15 1 
420 1.20433 1.95965 -0.025621 0.220024 1.97247 -1.20148 15 1 
421.333 1.20438 1.98532 -0.0265081 0.2424 2.00063 -1.1195 15 1 
422.667 1.20442 2.00915 -0.0271881 0.263628 2.027 -1.04926 15 1 
424 1.20445 2.02999 -0.0276312 0.283271 2.05032 -0.990875 15 1 
425.333 1.20449 2.04709 -0.027808 0.301412 2.06984 -0.927001 15 1 
426.667 1.20452 2.0589 -0.0276662 0.318189 2.08403 -0.858156 15 1 
426.667 1.20452 2.0589 -0.0276662 0.318189 2.08403 -0.858156 20 1 
428 1.20456 2.0626 -0.0270944 0.333828 2.09014 -0.797292 20 1 
429.333 1.20459 2.055 -0.0259848 0.34923 2.08519 -0.737665 20 1 
430.667 1.20463 2.03351 -0.0242849 0.365383 2.06684 -0.66766 20 1 
432 1.20467 1.99733 -0.0220033 0.381722 2.03426 -0.598459 20 1 
433.333 1.2047 1.94987 -0.0192693 0.395173 1.99019 -0.539415 20 1 
434.667 1.20473 1.89957 -0.0163442 0.400227 1.94174 -0.479886 20 1 
436 1.20477 1.85721 -0.0135537 0.39034 1.89809 -0.417562 20 1 
437.333 1.2048 1.83177 -0.011221 0.360718 1.86739 -0.366157 20 1 
438.667 1.20482 1.82757 -0.00957623 0.31067 1.8547 -0.327869 20 1 
440 1.20484 1.84343 -0.00869135 0.243816 1.86091 -0.292003 20 1 
441.333 1.20486 1.87382 -0.00851315 0.16614 1.88288 -0.258995 20 1 
442.667 1.20487 1.91182 -0.00894629 0.0836327 1.91534 -0.234799 20 1 
444 1.20488 1.95202 -0.00994113 0.00104597 1.9535 -0.210829 20 1 
445.333 1.2049 1.99136 -0.0115105 -0.0784211 1.99412 -0.178213 20 1 
446.667 1.20492 2.02866 -0.0136909 -0.152909 2.03536 -0.143089 20 1 
448 1.20494 2.06398 -0.0164712 -0.221321 2.07654 -0.109553 20 1 
448 1.20494 2.06398 -0.0164712 -0.221321 2.07654 -0.109553 20 1 
449.333 1.20496 2.09829 -0.0197347 -0.282995 2.11786 -0.0691911 20 1 
450.667 1.20499 2.13267 -0.0232848 -0.337728 2.15975 -0.0178673 20 1 
452 1.20502 2.16769 -0.0269125 -0.385909 2.20229 0.0372238 20 1 
453.333 1.20505 2.20364 -0.0304418 -0.428244 2.24548 0.094079 20 1 
454.667 1.20509 2.2408 -0.0337469 -0.465426 2.28937 0.158881 20 1 
456 1.20513 2.27911 -0.036758 -0.498181 2.33384 0.229345 20 1 
457.333 1.20517 2.31831 -0.0394503 -0.527232 2.3786 0.298632 20 1 
458.667 1.2052 2.35831 -0.0418314 -0.553125 2.42358 0.369942 20 1 
460 1.20525 2.39912 -0.0439172 -0.576222 2.46879 0.447311 20 1 
461.333 1.20529 2.44056 -0.0457302 -0.596826 2.51407 0.525103 20 1 
462.667 1.20533 2.48255 -0.0473035 -0.615104 2.55935 0.600095 20 1 
464 1.20538 2.52523 -0.0486736 -0.631024 2.60472 0.677531 20 1 
465.333 1.20542 2.5688 -0.0498712 -0.644475 2.65034 0.758089 20 1 
466.667 1.20546 2.61332 -0.0509235 -0.655423 2.69625 0.834859 20 1 
468 1.2055 2.65886 -0.0518572 -0.663807 2.74252 0.905912 20 1 
469.333 1.20554 2.70566 -0.0526928 -0.66942 2.78933 0.975173 20 1 
469.333 1.20554 2.70566 -0.0526928 -0.66942 2.78933 0.975173 20 1 
470.667 1.20558 2.75394 -0.0534501 -0.672092 2.83687 1.04305 20 1 
472 1.20561 2.80381 -0.0541536 -0.671783 2.88529 1.10793 20 1 
473.333 1.20565 2.85535 -0.0548271 -0.66844 2.93469 1.17153 20 1 
474.667 1.20568 2.90864 -0.0554857 -0.661982 2.98516 1.2348 20 1 
476 1.20572 2.96358 -0.0561407 -0.652431 3.0367 1.29337 20 1 
477.333 1.20574 3.02001 -0.0567973 -0.63989 3.08922 1.34336 20 1 
478.667 1.20577 3.0778 -0.0574525 -0.624459 3.14268 1.38744 20 1 
480 1.20579 3.13686 -0.0581089 -0.606272 3.19709 1.42982 20 1 
481.333 1.20581 3.19695 -0.0587716 -0.585532 3.25232 1.46956 20 1 
482.667 1.20583 3.25776 -0.0594424 -0.562426 3.30816 1.50521 20 1 
484 1.20585 3.31901 -0.0601262 -0.537136 3.36441 1.53808 20 1 
485.333 1.20587 3.38048 -0.0608334 -0.509909 3.42096 1.56679 20 1 
486.667 1.20588 3.44199 -0.0615752 -0.481023 3.47769 1.58862 20 1 
488 1.20589 3.50333 -0.062367 -0.450731 3.53449 1.60597 20 1 
489.333 1.2059 3.56436 -0.0632272 -0.419286 3.59125 1.62148 20 1 
490.667 1.2059 3.62501 -0.0641703 -0.38699 3.64797 1.63204 20 1 
490.667 1.2059 3.62501 -0.0641703 -0.38699 3.64797 1.63204 20 1 
492 1.20591 3.68527 -0.065214 -0.354174 3.70466 1.63619 20 1 
493.333 1.20591 3.74509 -0.0663674 -0.321158 3.76131 1.63752 20 1 
494.667 1.20591 3.80446 -0.067626 -0.288285 3.81793 1.63637 20 1 
496 1.2059 3.86343 -0.0689849 -0.255937 3.87454 1.6301 20 1 
497.333 1.2059 3.92197 -0.0704398 -0.22444 3.93114 1.61974 20 1 
498.667 1.20589 3.98009 -0.0719799 -0.194051 3.98768 1.6074 20 1 
500 1.20588 4.03783 -0.0735908 -0.165051 4.04419 1.59125 20 1 
501.333 1.20587 4.09525 -0.0752585 -0.137751 4.10068 1.56962 20 1 
502.667 1.20586 4.1524 -0.0769628 -0.112373 4.15718 1.546 20 1 
504 1.20584 4.20932 -0.0786878 -0.0890615 4.21367 1.5233 20 1 
505.333 1.20583 4.26606 -0.080422 -0.0679752 4.27015 1.50007 20 1 
506.667 1.20582 4.32265 -0.0821452 -0.0492252 4.32664 1.47594 20 1 
508 1.2058 4.37917 -0.0838412 -0.0328422 4.38315 1.45256 20 1 
509.333 1.20579 4.43562 -0.0855001 -0.0188346 4.43966 1.4293 20 1 
510.667 1.20578 4.49199 -0.0871064 -0.00718914 4.49614 1.40391 20 1 
512 1.20576 4.54836 -0.0886436 0.00214591 4.55264 1.37822 20 1 
512 1.20576 4.54836 -0.0886436 0.00214591 4.55264 1.37822 21 1 
513.333 1.20575 4.60484 -0.0901025 0.00925232 4.60926 1.35701 21 1 
514.667 1.20574 4.66147 -0.09148 0.0142565 4.66601 1.3402 21 1 
516 1.20573 4.71825 -0.0927718 0.0173069 4.72291 1.32543 21 1 
517.333 1.20573 4.77522 -0.0939688 0.0185385 4.77997 1.3136 21 1 
518.667 1.20572 4.83239 -0.0950584 0.0181035 4.83721 1.3051 21 1 
520 1.20572 4.88977 -0.0960375 0.0162122 4.89465 1.29839 21 1 
521.333 1.20572 4.9474 -0.0969005 0.0130725 4.95231 1.29378 21 1 
522.667 1.20572 5.00533 -0.0976306 0.00882879 5.01026 1.29378 21 1 
524 1.20572 5.06354 -0.0982276 0.00362041 5.06847 1.2981 21 1 
525.333 1.20572 5.12197 -0.0986899 -0.00234885 5.12689 1.30393 21 1 
526.667 1.20573 5.18062 -0.0990081 -0.00887041 5.18552 1.31209 21 1 
528 1.20573 5.23944 -0.0991766 -0.0158061 5.24432 1.32455 21 1 
529.333 1.20574 5.2984 -0.0991917 -0.0230633 5.30325 1.34018 21 1 
530.667 1.20575 5.35745 -0.0990478 -0.0305286 5.36225 1.35745 21 1 
532 1.20576 5.41646 -0.0987437 -0.0380718 5.42122 1.37624 21 1 
533.333 1.20577 5.47529 -0.0982757 -0.0456025 5.48 1.39596 21 1 
533.333 1.20577 5.47529 -0.0982757 -0.0456025 5.48 1.39596 21 1 
534.667 1.20578 5.5339 -0.0976392 -0.0531075 5.53855 1.41496 21 1 
536 1.20579 5.59223 -0.0968408 -0.0605864 5.59681 1.43375 21 1 
537.333 1.2058 5.65013 -0.0958815 -0.0680059 5.65464 1.45389 21 1 
538.667 1.20582 5.70751 -0.0947668 -0.075356 5.71194 1.47374 21 1 
540 1.20583 5.76429 -0.0935059 -0.0826751 5.76864 1.49094 21 1 
541.333 1.20583 5.82042 -0.0921092 -0.0900356 5.82469 1.50581 21 1 
542.667 1.20584 5.8759 -0.0905883 -0.0975319 5.88008 1.52046 21 1 
544 1.20585 5.93068 -0.0889549 -0.105234 5.9348 1.53408 21 1 
545.333 1.20585 5.98473 -0.0872287 -0.113185 5.98879 1.54403 21 1 
546.667 1.20586 6.03808 -0.0854281 -0.121476 6.0421 1.55115 21 1 
548 1.20586 6.09085 -0.0835678 -0.13023 6.09484 1.55614 21 1 
549.333 1.20586 6.1431 -0.0816713 -0.139509 6.1471 1.55749 21 1 
550.667 1.20586 6.1949 -0.0797637 -0.149328 6.19893 1.55509 21 1 
552 1.20586 6.24635 -0.0778653 -0.15975 6.25046 1.5507 21 1 
553.333 1.20586 6.29761 -0.0759948 -0.170834 6.30183 1.54493 21 1 
554.667 1.20585 6.3488 -0.0741711 -0.182559 6.35318 1.53657 21 1 
554.667 1.20585 6.3488 -0.0741711 -0.182559 6.35318 1.53657 22 1 
556 1.20585 6.4 -0.0724053 -0.194882 6.40458 1.52654 22 1 
557.333 1.20584 6.45125 -0.0707095 -0.20778 6.45608 1.51538 22 1 
558.667 1.20583 6.50262 -0.0690899 -0.221189 6.50775 1.50126 22 1 
560 1.20582 6.55416 -0.0675537 -0.235014 6.55964 1.48426 22 1 
561.333 1.20581 6.60586 -0.0661005 -0.249169 6.61173 1.46589 22 1 
562.667 1.2058 6.65767 -0.0647296 -0.263524 6.66397 1.44737 22 1 
564 1.20579 6.7095 -0.0634459 -0.277925 6.71627 1.42726 22 1 
565.333 1.20578 6.76129 -0.062239 -0.292247 6.76854 1.40494 22 1 
566.667 1.20577 6.81289 -0.0611008 -0.306357 6.82065 1.38346 22 1 
568 1.20575 6.86421 -0.0600213 -0.320119 6.8725 1.36175 22 1 
569.333 1.20574 6.91516 -0.0589908 -0.333395 6.92397 1.33765 22 1 
570.667 1.20573 6.9656 -0.0580025 -0.346073 6.97492 1.31243 22 1 
572 1.20571 7.01541 -0.0570465 -0.358079 7.02524 1.28778 22 1 
573.333 1.2057 7.06455 -0.0561101 -0.369349 7.07485 1.26351 22 1 
574.667 1.20569 7.11301 -0.0551822 -0.37982 7.12376 1.23737 22 1 
576 1.20567 7.16083 -0.05425 -0.389451 7.17199 1.21061 22 1 
576 1.20567 7.16083 -0.05425 -0.389451 7.17199 1.21061 22 1 
577.333 1.20566 7.20799 -0.0533022 -0.398236 7.21953 1.18444 22 1 
578.667 1.20564 7.25452 -0.0523281 -0.406183 7.26639 1.15714 22 1 
580 1.20563 7.30047 -0.0513123 -0.413283 7.31264 1.12946 22 1 
581.333 1.20561 7.34592 -0.0502285 -0.419557 7.35833 1.10269 22 1 
582.667 1.2056 7.39086 -0.0490595 -0.425091 7.40348 1.0763 22 1 
584 1.20558 7.43526 -0.0477763 -0.429937 7.44805 1.04788 22 1 
585.333 1.20556 7.47901 -0.0463539 -0.43411 7.49193 1.01791 22 1 
586.667 1.20555 7.52186 -0.0447658 -0.437658 7.53487 0.988294 22 1 
588 1.20553 7.56347 -0.0429838 -0.440648 7.57653 0.956587 22 1 
589.333 1.20551 7.60328 -0.0409881 -0.443101 7.61638 0.923647 22 1 
590.667 1.20549 7.64059 -0.0387547 -0.444983 7.6537 0.891675 22 1 
592 1.20548 7.67461 -0.0363033 -0.446248 7.6877 0.859444 22 1 
593.333 1.20546 7.70477 -0.0336618 -0.446712 7.71781 0.825073 22 1 
594.667 1.20544 7.73101 -0.0308919 -0.44598 7.74393 0.789792 22 1 
596 1.20542 7.75398 -0.0281155 -0.443404 7.7667 0.75786 22 1 
597.333 1.2054 7.7753 -0.0254717 -0.437974 7.78769 0.726288 22 1 
597.333 1.2054 7.7753 -0.0254717 -0.437974 7.78769 0.726288 24 1 
598.667 1.20538 7.79753 -0.0231174 -0.428324 7.80937 0.694119 24 1 
600 1.20537 7.82379 -0.0212139 -0.412862 7.83479 0.667245 24 1 
601.333 1.20536 7.85711 -0.0198709 -0.389998 7.86695 0.644231 24 1 
602.667 1.20534 7.89951 -0.0191339 -0.358412 7.90785 0.621347 24 1 
604 1.20533 7.95138 -0.0190255 -0.317452 7.95797 0.596107 24 1 
605.333 1.20531 8.01123 -0.019521 -0.267377 8.01597 0.568582 24 1 
606.667 1.2053 8.07588 -0.0206048 -0.209433 8.07889 0.538894 24 1 
608 1.20528 8.14134 -0.0223332 -0.145783 8.14292 0.506032 24 1 
609.333 1.20526 8.20376 -0.0247665 -0.0792612 8.20439 0.473163 24 1 
610.667 1.20524 8.26044 -0.0279584 -0.0130002 8.26068 0.43705 24 1 
612 1.20522 8.31028 -0.0319346 0.0499346 8.31067 0.396772 24 1 
613.333 1.2052 8.35377 -0.0365837 0.106807 8.35474 0.357301 24 1 
614.667 1.20518 8.39249 -0.0416657 0.155421 8.39431 0.322758 24 1 
616 1.20517 8.42829 -0.0468767 0.194336 8.43105 0.300853 24 1 
617.333 1.20516 8.4629 -0.0518839 0.222972 8.46653 0.289098 24 1 
618.667 1.20516 8.49768 -0.0564087 0.241494 8.50199 0.28569 24 1 
618.667 1.20516 8.49768 -0.0564087 0.241494 8.50199 0.28569 24 1 
620 1.20516 8.53346 -0.060294 0.250619 8.5382 0.2924 24 1 
621.333 1.20517 8.57062 -0.0634951 0.251427 8.57554 0.305373 24 1 
622.667 1.20518 8.60915 -0.0660431 0.245215 8.614 0.32589 24 1 
624 1.20519 8.6489 -0.0679775 0.233312 8.6535 0.350879 24 1 
625.333 1.20521 8.68961 -0.0693196 0.217021 8.69384 0.377158 24 1 
626.667 1.20522 8.73095 -0.0700971 0.197603 8.73473 0.401068 24 1 
628 1.20523 8.77256 -0.0703429 0.176114 8.77587 0.420586 24 1 
629.333 1.20524 8.814 -0.0701062 0.153434 8.81684 0.441392 24 1 
630.667 1.20525 8.85488 -0.069469 0.130372 8.85729 0.45854 24 1 
632 1.20526 8.89485 -0.0685359 0.107651 8.89688 0.470915 24 1 
633.333 1.20527 8.93371 -0.0673908 0.0858326 8.93542 0.481383 24 1 
634.667 1.20527 8.97138 -0.0660806 0.0652354 8.97283 0.487758 24 1 
636 1.20527 9.00765 -0.0646293 0.0460905 9.00891 0.49193 24 1 
637.333 1.20527 9.04255 -0.0631095 0.0285866 9.04365 0.492078 24 1 
638.667 1.20527 9.07615 -0.0616199 0.0128429 9.07714 0.490702 24 1 
640 1.20527 9.10861 -0.0601761 -0.00109788 9.10952 0.487167 24 1 
640 1.20527 9.10861 -0.0601761 -0.00109788 9.10952 0.487167 24 1 
641.333 1.20527 9.14012 -0.0587338 -0.0133215 9.14097 0.479868 24 1 
642.667 1.20526 9.17078 -0.0573092 -0.0239404 9.17158 0.474228 24 1 
644 1.20526 9.20082 -0.0559974 -0.033078 9.2016 0.466649 24 1 
645.333 1.20525 9.23031 -0.0548253 -0.0408139 9.23107 0.457214 24 1 
646.667 1.20525 9.25929 -0.053696 -0.047272 9.26003 0.447273 24 1 
648 1.20524 9.28781 -0.052542 -0.0526603 9.28854 0.437738 24 1 
649.333 1.20524 9.3158 -0.0514436 -0.057173 9.31652 0.430393 24 1 
650.667 1.20523 9.3432 -0.0504886 -0.0610703 9.34391 0.418614 24 1 
652 1.20522 9.36995 -0.0496195 -0.064542 9.37066 0.405226 24 1 
653.333 1.20522 9.3961 -0.0487273 -0.0676062 9.3968 0.392571 24 1 
654.667 1.20521 9.42148 -0.0478365 -0.0702219 9.42218 0.379617 24 1 
656 1.2052 9.4459 -0.0470686 -0.0725091 9.4466 0.369928 24 1 
657.333 1.2052 9.46957 -0.0463773 -0.074845 9.47026 0.359597 24 1 
658.667 1.20519 9.49245 -0.0455954 -0.0773212 9.49314 0.349333 24 1 
660 1.20519 9.51428 -0.044708 -0.0796426 9.51497 0.337382 24 1 
661.333 1.20518 9.53482 -0.0439222 -0.0815357 9.5355 0.324774 24 1 
661.333 1.20518 9.53482 -0.0439222 -0.0815357 9.5355 0.324774 24 1 
662.667 1.20518 9.55426 -0.0433186 -0.0832356 9.55494 0.316188 24 1 
664 1.20517 9.57303 -0.0426529 -0.085158 9.57371 0.305965 24 1 
665.333 1.20516 9.59097 -0.0417592 -0.0870188 9.59165 0.297291 24 1 
666.667 1.20516 9.60781 -0.0408476 -0.0879853 9.60848 0.288013 24 1 
668 1.20515 9.62351 -0.0401817 -0.087819 9.62416 0.276917 24 1 
669.333 1.20515 9.63839 -0.0396184 -0.0871405 9.63902 0.268413 24 1 
670.667 1.20514 9.65291 -0.0388443 -0.086302 9.65352 0.259219 24 1 
672 1.20514 9.66679 -0.037892 -0.0847427 9.66737 0.253211 24 1 
673.333 1.20514 9.67959 -0.0370888 -0.0818272 9.68013 0.245739 24 1 
674.667 1.20513 9.69123 -0.0365487 -0.0776975 9.69171 0.236115 24 1 
676 1.20513 9.70224 -0.0360068 -0.0729496 9.70268 0.22748 24 1 
677.333 1.20512 9.71311 -0.035269 -0.0677302 9.7135 0.218013 24 1 
678.667 1.20512 9.72347 -0.0345136 -0.0614311 9.72381 0.211877 24 1 
680 1.20511 9.73334 -0.0339969 -0.0535032 9.73362 0.199237 24 1 
681.333 1.2051 9.74332 -0.0336665 -0.0440805 9.74354 0.184113 24 1 
682.667 1.2051 9.75422 -0.0332673 -0.0336596 9.7544 0.172491 24 1 
682.667 1.2051 9.75422 -0.0332673 -0.0336596 9.7544 0.172491 31 1 
684 1.20509 9.76641 -0.0326574 -0.0223389 9.76655 0.157424 31 1 
685.333 1.20508 9.77951 -0.0319827 -0.00957059 9.77962 0.145414 31 1 
686.667 1.20507 9.79348 -0.031417 0.00520093 9.79357 0.132229 31 1 
688 1.20507 9.80834 -0.0309043 0.0215207 9.80845 0.118769 31 1 
689.333 1.20506 9.82417 -0.0302736 0.0385138 9.82433 0.104024 31 1 
690.667 1.20505 9.84082 -0.029468 0.0559167 9.84105 0.0879512 31 1 
692 1.20505 9.85761 -0.0286299 0.0737056 9.85795 0.0825829 31 1 
693.333 1.20504 9.87425 -0.0279172 0.0913506 9.87473 0.07476 31 1 
694.667 1.20504 9.89039 -0.0273344 0.108217 9.89104 0.0674198 31 1 
696 1.20504 9.90583 -0.0268057 0.12367 9.90665 0.0644968 31 1 
697.333 1.20503 9.92044 -0.0262911 0.137032 9.92143 0.0597464 31 1 
698.667 1.20503 9.93356 -0.0258184 0.147993 9.93471 0.0586067 31 1 
700 1.20503 9.94485 -0.0254747 0.156522 9.94612 0.0533966 31 1 
701.333 1.20503 9.95411 -0.0252862 0.16238 9.95547 0.0527428 31 1 
702.667 1.20503 9.96143 -0.0251604 0.165265 9.96284 0.0536902 31 1 
704 1.20503 9.96692 -0.0250363 0.165168 9.96833 0.0512453 31 1 
704 1.20503 9.96692 -0.0250363 0.165168 9.96833 0.0512453 31 1 
705.333 1.20503 9.97057 -0.0249503 0.162565 9.97194 0.0553284 31 1 
706.667 1.20503 9.97265 -0.0249419 0.158113 9.97394 0.0530463 31 1 
708 1.20503 9.97306 -0.0249842 0.152309 9.97427 0.0497782 31 1 
709.333 1.20503 9.97198 -0.0250486 0.14587 9.97309 0.0469608 31 1 
710.667 1.20502 9.96968 -0.0251353 0.139678 9.97071 0.0433938 31 1 
712 1.20502 9.96614 -0.0251965 0.134377 9.9671 0.0446671 31 1 
713.333 1.20502 9.96165 -0.0252364 0.130036 9.96255 0.0386532 31 1 
714.667 1.20502 9.95623 -0.0252914 0.126636 9.95709 0.0345553 31 1 
716 1.20502 9.95017 -0.0253623 0.124011 9.951 0.0271052 31 1 
717.333 1.20501 9.94394 -0.0253819 0.121511 9.94474 0.0136704 31 1 
718.667 1.205 9.93782 -0.0253652 0.118716 9.93859 0.00654891 31 1 
720 1.205 9.93229 -0.0253397 0.115689 9.93302 -0.00461981 31 1 
721.333 1.20499 9.92731 -0.0252685 0.112344 9.92801 -0.0132188 31 1 
722.667 1.20499 9.92305 -0.0251146 0.108745 9.92371 -0.0252534 31 1 
724 1.20498 9.91951 -0.0248659 0.105233 9.92012 -0.0376894 31 1 
725.333 1.20498 9.91645 -0.0245755 0.102011 9.91703 -0.0426538 31 1 
725.333 1.20498 9.91645 -0.0245755 0.102011 9.91703 -0.0426538 31 1 
726.667 1.20497 9.91402 -0.0242081 0.0991954 9.91456 -0.053218 31 1 
728 1.20497 9.91184 -0.0237711 0.096858 9.91236 -0.0562639 31 1 
729.333 1.20497 9.91005 -0.0233015 0.0947705 9.91055 -0.0583651 31 1 
730.667 1.20496 9.90891 -0.0227672 0.0925428 9.90938 -0.0633398 31 1 
732 1.20496 9.90844 -0.0221766 0.0898573 9.90888 -0.0638306 31 1 
733.333 1.20497 9.90879 -0.0215849 0.0864313 9.90919 -0.0601261 31 1 
734.667 1.20497 9.90989 -0.0210401 0.0824405 9.91026 -0.0476881 31 1 
736 1.20498 9.91188 -0.0205247 0.0781474 9.91221 -0.0438174 31 1 
737.333 1.20498 9.91434 -0.0201009 0.073365 9.91464 -0.0370208 31 1 
738.667 1.20499 9.91727 -0.0198011 0.0683489 9.91752 -0.0238127 31 1 
740 1.20499 9.92063 -0.0195989 0.0634798 9.92085 -0.0211781 31 1 
741.333 1.20499 9.92379 -0.0194622 0.0583869 9.92398 -0.0129968 31 1 
742.667 1.205 9.92672 -0.0193542 0.0531011 9.92688 -0.00537508 31 1 
744 1.205 9.92941 -0.0192493 0.0481087 9.92955 -0.00714829 31 1 
745.333 1.20499 9.93199 -0.0190989 0.0432174 9.9321 -0.0120565 31 1 
746.667 1.20499 9.93455 -0.0188919 0.038631 9.93464 -0.0126478 31 1 
746.667 1.20499 9.93455 -0.0188919 0.038631 9.93464 -0.0126478 31 1 
748 1.20499 9.93733 -0.018637 0.0351693 9.93741 -0.0139349 31 1 
749.333 1.20498 9.94025 -0.0183829 0.0327964 9.94032 -0.0274327 31 1 
750.667 1.20498 9.9429 -0.0181601 0.0312155 9.94297 -0.0349476 31 1 
752 1.20498 9.94568 -0.0180087 0.0307835 9.94575 -0.0418231 31 1 
753.333 1.20497 9.94859 -0.0179307 0.0310479 9.94866 -0.0558675 31 1 
754.667 1.20497 9.95135 -0.0179225 0.0311797 9.95142 -0.0605774 31 1 
756 1.20496 9.95405 -0.0179762 0.0313376 9.95411 -0.0650507 31 1 
757.333 1.20496 9.95676 -0.0180532 0.0313706 9.95683 -0.0741466 31 1 
758.667 1.20496 9.95941 -0.018133 0.0308945 9.95947 -0.0777879 31 1 
760 1.20496 9.9618 -0.0181978 0.0301207 9.96186 -0.0720366 31 1 
761.333 1.20496 9.96408 -0.0182029 0.0292593 9.96414 -0.0636415 31 1 
762.667 1.20497 9.96617 -0.0181476 0.0282789 9.96622 -0.0577401 31 1 
764 1.20497 9.96796 -0.0180843 0.0274159 9.96801 -0.0475707 31 1 
765.333 1.20498 9.96953 -0.0179718 0.0268325 9.96958 -0.0372471 31 1 
766.667 1.20499 9.971 -0.017786 0.0262702 9.97105 -0.0266441 31 1 
768 1.205 9.97233 -0.0176298 0.0258733 9.97238 -0.00699734 31 1 
768 1.205 9.97233 -0.0176298 0.0258733 9.97238 -0.00699734 32 1 
769.333 1.20501 9.97345 -0.0174838 0.0258048 9.9735 0.0124986 32 1 
770.667 1.20501 9.97458 -0.0173116 0.025654 9.97463 0.0241577 32 1 
772 1.20502 9.97557 -0.0171931 0.0255333 9.97562 0.0296185 32 1 
773.333 1.20502 9.97634 -0.0170974 0.025615 9.97639 0.0376162 32 1 
774.667 1.20503 9.97707 -0.0169872 0.025591 9.97711 0.0493359 32 1 
776 1.20503 9.97784 -0.0168807 0.0252944 9.97789 0.052609 32 1 
777.333 1.20503 9.97849 -0.0168063 0.0251579 9.97853 0.0568147 32 1 
778.667 1.20503 9.979 -0.01676 0.0250263 9.97905 0.0545128 32 1 
780 1.20502 9.97943 -0.0166974 0.0245381 9.97948 0.0382936 32 1 
781.333 1.20502 9.9797 -0.0166245 0.0241888 9.97974 0.0295735 32 1 
782.667 1.20501 9.98007 -0.0165345 0.0239569 9.98012 0.0223016 32 1 
784 1.20501 9.98042 -0.0164659 0.0234554 9.98046 0.0117077 32 1 
785.333 1.205 9.98064 -0.0164181 0.0229801 9.98068 0.0042132 32 1 
786.667 1.205 9.98071 -0.0163233 0.0228014 9.98075 -0.00277189 32 1 
788 1.20499 9.98077 -0.0162388 0.0226195 9.98081 -0.0162328 32 1 
789.333 1.20499 9.98096 -0.0161543 0.0224253 9.981 -0.0233067 32 1 
790.667 1.20499 9.98094 -0.0160726 0.022343 9.98098 -0.0139923 32 1 
792 1.20499 9.98091 -0.0160038 0.0223684 9.98095 -0.00963281 32 1 
793.333 1.205 9.9809 -0.0159305 0.0224337 9.98094 -0.000171801 32 1 
794.667 1.20501 9.98089 -0.015855 0.02246 9.98092 0.0128655 32 1 
796 1.20501 9.98095 -0.0158051 0.0224469 9.98098 0.0230131 32 1 
797.333 1.20502 9.98095 -0.0157399 0.0224453 9.98099 0.0384452 32 1 
798.667 1.20503 9.98115 -0.0157034 0.0223324 9.98119 0.045803 32 1 
800 1.20503 9.98134 -0.0157308 0.0222112 9.98138 0.046116 32 1 
