94.1873;r ;Density                 ;Velocity u              ;Velocity v              ;Velocity w              ;|Velocity|              ;Pressure                ;Distribution            ;Levels                  ;
0 1.20841 9.99671 -0.000223889 -0.00271637 9.99671 6.16579 1 1 
1.33334 1.20839 9.99669 -0.000160628 -0.00310886 9.99669 6.12386 1 1 
2.66666 1.20833 9.99622 -2.0925e-05 -0.00359392 9.99623 6.00836 1 1 
4 1.20828 9.99572 7.64803e-05 -0.00434217 9.99573 5.92927 1 1 
5.33334 1.20825 9.99542 0.000128708 -0.00462639 9.99543 5.86872 1 1 
6.66666 1.20817 9.99477 0.000230777 -0.00366577 9.99478 5.73116 1 1 
8 1.20811 9.9943 0.000316588 -0.00293659 9.99432 5.62065 1 1 
9.33334 1.20805 9.99388 0.000399584 -0.00131368 9.99389 5.50078 1 1 
10.6667 1.20795 9.99339 0.000528179 0.00116278 9.99341 5.32771 1 1 
12 1.20788 9.99331 0.000604535 0.00331285 9.99333 5.20391 1 1 
13.3333 1.2078 9.99288 0.000684518 0.0064521 9.9929 5.05508 1 1 
14.6667 1.20771 9.99244 0.000778474 0.00968704 9.99246 4.89489 1 1 
16 1.20766 9.99261 0.000799567 0.0124337 9.99264 4.81157 1 1 
17.3333 1.20761 9.99235 0.000825685 0.0159003 9.99239 4.70936 1 1 
18.6667 1.20756 9.99197 0.000835711 0.0187649 9.99201 4.62771 1 1 
20 1.20755 9.99198 0.000778676 0.0212173 9.99203 4.61224 1 1 
21.3333 1.20754 9.99171 0.000726414 0.0239767 9.99177 4.59074 1 1 
21.3333 1.20754 9.99171 0.000726414 0.0239767 9.99177 4.59074 1 1 
22.6667 1.20756 9.99149 0.000632292 0.0256506 9.99155 4.63057 1 1 
24 1.20761 9.99115 0.000504531 0.0270828 9.99123 4.7116 1 1 
25.3333 1.20765 9.99062 0.00038361 0.0282899 9.99071 4.79051 1 1 
26.6667 1.20774 9.9905 0.000177719 0.0281473 9.99058 4.95697 1 1 
28 1.20784 9.98997 -4.11903e-05 0.0280789 9.99006 5.13765 1 1 
29.3333 1.20794 9.98914 -0.000242056 0.0274279 9.98923 5.30904 1 1 
30.6667 1.20807 9.98884 -0.000531846 0.0255014 9.98892 5.55367 1 1 
32 1.20821 9.98821 -0.00082856 0.0236973 9.98828 5.79462 1 1 
33.3333 1.20834 9.98734 -0.00110153 0.021112 9.9874 6.04005 1 1 
34.6667 1.20849 9.98675 -0.00140591 0.0179152 9.9868 6.3052 1 1 
36 1.20861 9.98585 -0.00168037 0.0150625 9.9859 6.51929 1 1 
37.3333 1.20875 9.98499 -0.00195581 0.0112816 9.98503 6.76539 1 1 
38.6667 1.20888 9.98414 -0.00222919 0.0075054 9.98417 7.0134 1 1 
40 1.20897 9.98296 -0.00243372 0.00419625 9.98299 7.17371 1 1 
41.3333 1.20907 9.98195 -0.00265439 6.27546e-05 9.98197 7.34993 1 1 
42.6667 1.20917 9.98077 -0.00286792 -0.00361275 9.98079 7.52329 1 1 
42.6667 1.20917 9.98077 -0.00286792 -0.00361275 9.98079 7.52329 2 1 
44 1.20923 9.97954 -0.00302081 -0.00708542 9.97956 7.63769 2 1 
45.3333 1.20929 9.97864 -0.00318409 -0.0109612 9.97867 7.73965 2 1 
46.6667 1.20931 9.97729 -0.00331773 -0.0139658 9.97732 7.78563 2 1 
48 1.20933 9.976 -0.00340924 -0.0169769 9.97604 7.81648 2 1 
49.3333 1.20934 9.9754 -0.0035037 -0.0200435 9.97545 7.84712 2 1 
50.6667 1.2093 9.97441 -0.00352998 -0.0219076 9.97447 7.77399 2 1 
52 1.20926 9.97318 -0.00352373 -0.0237431 9.97326 7.68583 2 1 
53.3333 1.20921 9.97248 -0.00351523 -0.0250819 9.97256 7.60896 2 1 
54.6667 1.20913 9.97195 -0.00343984 -0.0253565 9.97204 7.45422 2 1 
56 1.20903 9.97129 -0.00335451 -0.0256112 9.97139 7.28782 2 1 
57.3333 1.20893 9.97035 -0.00325513 -0.0248202 9.97044 7.10641 2 1 
58.6667 1.20882 9.96979 -0.00310167 -0.0232742 9.96988 6.89434 2 1 
60 1.20872 9.96981 -0.00297575 -0.0218912 9.96989 6.7181 2 1 
61.3333 1.2086 9.96912 -0.00283639 -0.0193728 9.96919 6.5081 2 1 
62.6667 1.20848 9.96833 -0.0026509 -0.0164446 9.96839 6.28113 2 1 
64 1.20839 9.96843 -0.00249852 -0.0136033 9.96848 6.1178 2 1 
64 1.20839 9.96843 -0.00249852 -0.0136033 9.96848 6.1178 2 1 
65.3333 1.20829 9.96834 -0.00233202 -0.00983057 9.96837 5.93613 2 1 
66.6667 1.20819 9.96777 -0.00215239 -0.00603451 9.9678 5.76204 2 1 
68 1.20812 9.96748 -0.0020006 -0.00210142 9.9675 5.62859 2 1 
69.3333 1.20804 9.96749 -0.00183289 0.00249733 9.9675 5.48757 2 1 
70.6667 1.20799 9.96746 -0.00170558 0.00653057 9.96747 5.40472 2 1 
72 1.20796 9.96699 -0.00161309 0.0106286 9.96701 5.34966 2 1 
73.3333 1.20793 9.96657 -0.00150291 0.0148866 9.9666 5.28449 2 1 
74.6667 1.20793 9.96674 -0.00145294 0.0184235 9.96678 5.29395 2 1 
76 1.20796 9.96631 -0.00143684 0.0220111 9.96636 5.33886 2 1 
77.3333 1.20799 9.96555 -0.00141814 0.0249234 9.96562 5.39491 2 1 
78.6667 1.20805 9.96556 -0.00144926 0.0271069 9.96564 5.50209 2 1 
80 1.20811 9.96513 -0.00149246 0.0293931 9.96523 5.61709 2 1 
81.3333 1.2082 9.96429 -0.00156026 0.0304633 9.96439 5.77343 2 1 
82.6667 1.20831 9.96394 -0.00168154 0.0308018 9.96403 5.97152 2 1 
84 1.2084 9.96347 -0.00179167 0.0313487 9.96357 6.13519 2 1 
85.3333 1.20851 9.96265 -0.00194063 0.0306194 9.96275 6.33506 2 1 
85.3333 1.20851 9.96265 -0.00194063 0.0306194 9.96275 6.33506 3 1 
86.6667 1.20864 9.96182 -0.00213983 0.0292255 9.96191 6.5699 3 1 
88 1.20875 9.96116 -0.00230822 0.0279037 9.96124 6.76998 3 1 
89.3333 1.20887 9.96056 -0.00250386 0.0256428 9.96063 6.98334 3 1 
90.6667 1.20898 9.95943 -0.00273723 0.0229798 9.95949 7.19014 3 1 
92 1.20909 9.95837 -0.00294609 0.0201196 9.95842 7.38312 3 1 
93.3333 1.2092 9.95794 -0.00316508 0.0167245 9.95797 7.58554 3 1 
94.6667 1.20928 9.9569 -0.00339914 0.0132754 9.95692 7.73458 3 1 
96 1.20935 9.95561 -0.00362847 0.00953166 9.95563 7.86511 3 1 
97.3333 1.20943 9.95497 -0.00384489 0.00586909 9.95499 8.00468 3 1 
98.6667 1.20947 9.95425 -0.00403517 0.00244701 9.95426 8.07868 3 1 
100 1.2095 9.9532 -0.00424425 -0.00142098 9.95322 8.1204 3 1 
101.333 1.20951 9.95194 -0.00442831 -0.00454351 9.95196 8.15024 3 1 
102.667 1.2095 9.95121 -0.00454553 -0.00732587 9.95124 8.13228 3 1 
104 1.20948 9.95098 -0.00469766 -0.0105475 9.95102 8.10001 3 1 
105.333 1.20944 9.94977 -0.00482809 -0.0125202 9.94982 8.0264 3 1 
106.667 1.20939 9.94868 -0.00487545 -0.0140571 9.94873 7.92255 3 1 
106.667 1.20939 9.94868 -0.00487545 -0.0140571 9.94873 7.92255 3 1 
108 1.20934 9.94876 -0.00495912 -0.0159322 9.94881 7.83552 3 1 
109.333 1.20926 9.94795 -0.00503279 -0.0165368 9.948 7.69558 3 1 
110.667 1.20917 9.94676 -0.00503932 -0.0168487 9.94681 7.53707 3 1 
112 1.2091 9.94669 -0.00506481 -0.0172559 9.94674 7.41405 3 1 
113.333 1.20901 9.9464 -0.0050682 -0.0164133 9.94645 7.24478 3 1 
114.667 1.20892 9.94578 -0.00503657 -0.0155867 9.94581 7.07254 3 1 
116 1.20885 9.94523 -0.00501153 -0.0145217 9.94526 6.94796 3 1 
117.333 1.20876 9.94496 -0.00493374 -0.0123587 9.94498 6.7871 3 1 
118.667 1.20868 9.94505 -0.00486099 -0.0104952 9.94507 6.64007 3 1 
120 1.20862 9.94443 -0.00481051 -0.00837795 9.94444 6.54637 3 1 
121.333 1.20857 9.94396 -0.00469997 -0.00557795 9.94397 6.43968 3 1 
122.667 1.20852 9.94437 -0.00460466 -0.00322276 9.94438 6.35586 3 1 
124 1.20849 9.944 -0.00454516 -0.000647586 9.94401 6.3059 3 1 
125.333 1.20847 9.9433 -0.00444537 0.00227722 9.94331 6.27154 3 1 
126.667 1.20847 9.94355 -0.00433937 0.00481442 9.94356 6.26981 3 1 
128 1.20847 9.94351 -0.00426239 0.00750836 9.94352 6.27302 3 1 
128 1.20847 9.94351 -0.00426239 0.00750836 9.94352 6.27302 3 1 
129.333 1.20849 9.94293 -0.00417864 0.0101122 9.94295 6.29715 3 1 
130.667 1.20852 9.94273 -0.00408988 0.0123957 9.94275 6.3668 3 1 
132 1.20856 9.94271 -0.00400645 0.0147332 9.94274 6.429 3 1 
133.333 1.20859 9.94248 -0.00394835 0.0167761 9.94252 6.49048 3 1 
134.667 1.20865 9.94181 -0.00390702 0.0185887 9.94184 6.59396 3 1 
136 1.20871 9.94136 -0.00385273 0.0202981 9.9414 6.70094 3 1 
137.333 1.20876 9.94166 -0.00383492 0.0215982 9.9417 6.7904 3 1 
138.667 1.20882 9.94126 -0.00384846 0.0226479 9.9413 6.8928 3 1 
140 1.20888 9.94023 -0.00384692 0.0235022 9.94027 7.0072 3 1 
141.333 1.20893 9.94025 -0.00386547 0.0241403 9.94029 7.09594 3 1 
142.667 1.20897 9.94036 -0.00392301 0.0244128 9.9404 7.17225 3 1 
144 1.20903 9.93922 -0.00398502 0.0243997 9.93925 7.27288 3 1 
145.333 1.20906 9.93878 -0.00404151 0.0242986 9.93881 7.33474 3 1 
146.667 1.20907 9.9393 -0.0041272 0.0238964 9.93934 7.36037 3 1 
148 1.20911 9.93856 -0.00424455 0.0232796 9.93859 7.42504 3 1 
149.333 1.20913 9.93773 -0.00435467 0.0226621 9.93776 7.45206 3 1 
149.333 1.20913 9.93773 -0.00435467 0.0226621 9.93776 7.45206 3 1 
150.667 1.20911 9.93794 -0.00444801 0.0218361 9.93797 7.42314 3 1 
152 1.20912 9.93775 -0.0045735 0.0207542 9.93777 7.43269 3 1 
153.333 1.20911 9.93729 -0.00472252 0.0194616 9.93732 7.43122 3 1 
154.667 1.20908 9.937 -0.00484629 0.0181353 9.93702 7.37151 3 1 
156 1.20905 9.93704 -0.00498087 0.0167821 9.93706 7.31882 3 1 
157.333 1.20903 9.93717 -0.00515236 0.0151652 9.93719 7.28393 3 1 
158.667 1.209 9.93681 -0.00532506 0.013485 9.93682 7.22124 3 1 
160 1.20895 9.93693 -0.00548 0.011753 9.93695 7.12667 3 1 
161.333 1.20891 9.93735 -0.00565343 0.00974355 9.93737 7.05869 3 1 
162.667 1.20888 9.93693 -0.00586605 0.00781958 9.93694 7.00156 3 1 
164 1.20881 9.9369 -0.00605393 0.00623701 9.93691 6.88981 3 1 
165.333 1.20877 9.93766 -0.0062227 0.00458106 9.93767 6.80343 3 1 
166.667 1.20874 9.93777 -0.00642679 0.00272834 9.93778 6.76378 3 1 
168 1.20869 9.93778 -0.00663373 0.00108822 9.93778 6.6596 3 1 
169.333 1.20863 9.93826 -0.00679312 -0.000390612 9.93826 6.55331 3 1 
170.667 1.20861 9.93847 -0.00695579 -0.00190067 9.93848 6.52842 3 1 
170.667 1.20861 9.93847 -0.00695579 -0.00190067 9.93848 6.52842 11 1 
172 1.20858 9.93887 -0.00714506 -0.0031172 9.93887 6.4608 11 1 
173.333 1.20851 9.93948 -0.00729418 -0.00392123 9.93949 6.33988 11 1 
174.667 1.20849 9.93958 -0.00740526 -0.00458739 9.93959 6.30369 11 1 
176 1.20847 9.93991 -0.00751874 -0.00543311 9.93992 6.27612 11 1 
177.333 1.20841 9.94035 -0.00762997 -0.00571197 9.94036 6.16785 11 1 
178.667 1.20837 9.94045 -0.00768458 -0.00572431 9.94046 6.09504 11 1 
180 1.20837 9.94107 -0.0077091 -0.00576769 9.94107 6.08577 11 1 
181.333 1.20833 9.94174 -0.00775743 -0.00537424 9.94175 6.01987 11 1 
182.667 1.20827 9.94181 -0.00777185 -0.0044725 9.94181 5.90616 11 1 
184 1.20825 9.9418 -0.00773121 -0.00344059 9.94181 5.87327 11 1 
185.333 1.20824 9.94232 -0.00768545 -0.00235449 9.94233 5.84619 11 1 
186.667 1.20817 9.94301 -0.00764825 -0.000545538 9.94302 5.72365 11 1 
188 1.20812 9.94319 -0.00756463 0.00157158 9.9432 5.64218 11 1 
189.333 1.20812 9.94307 -0.00744212 0.00357707 9.94307 5.63144 11 1 
190.667 1.20807 9.94332 -0.0073465 0.00558229 9.94332 5.53675 11 1 
192 1.20799 9.94363 -0.00724289 0.00770049 9.94364 5.4045 11 1 
192 1.20799 9.94363 -0.00724289 0.00770049 9.94364 5.4045 11 1 
193.333 1.20798 9.94291 -0.00709885 0.010483 9.94292 5.37525 11 1 
194.667 1.20795 9.94239 -0.00695188 0.0132736 9.9424 5.32372 11 1 
196 1.20786 9.94337 -0.00685034 0.0160201 9.94339 5.16693 11 1 
197.333 1.20783 9.94349 -0.00675159 0.0186608 9.94351 5.1046 11 1 
198.667 1.20783 9.94222 -0.00660908 0.0205644 9.94225 5.11989 11 1 
200 1.20776 9.94229 -0.00650518 0.0230965 9.94232 4.9812 11 1 
201.333 1.20769 9.94196 -0.00644726 0.0256249 9.942 4.85182 11 1 
202.667 1.20771 9.93948 -0.00637982 0.026613 9.93952 4.89731 11 1 
204 1.20768 9.93851 -0.00630263 0.0278328 9.93855 4.83784 11 1 
205.333 1.2076 9.93865 -0.00628899 0.0297513 9.9387 4.69364 11 1 
206.667 1.20762 9.93695 -0.00632725 0.0311953 9.937 4.72642 11 1 
208 1.20763 9.93586 -0.00634851 0.0323856 9.93592 4.75217 11 1 
209.333 1.20757 9.93533 -0.00638668 0.0328446 9.93539 4.65067 11 1 
210.667 1.20757 9.93249 -0.00650746 0.032187 9.93255 4.64689 11 1 
212 1.20761 9.92895 -0.00665931 0.0311368 9.929 4.71827 11 1 
213.333 1.20759 9.92666 -0.00678891 0.0305626 9.92671 4.68311 11 1 
213.333 1.20759 9.92666 -0.00678891 0.0305626 9.92671 4.68311 11 1 
214.667 1.20758 9.92549 -0.00696817 0.0306469 9.92554 4.65436 11 1 
216 1.20764 9.92304 -0.00722154 0.03017 9.92309 4.77045 11 1 
217.333 1.20768 9.91901 -0.00747346 0.028476 9.91905 4.84437 11 1 
218.667 1.20765 9.91609 -0.00770601 0.0262018 9.91613 4.78798 11 1 
220 1.20769 9.91202 -0.00797759 0.0239912 9.91205 4.85293 11 1 
221.333 1.20777 9.90697 -0.00828112 0.0217717 9.907 4.99999 11 1 
222.667 1.20777 9.90431 -0.00855028 0.0204584 9.90434 5.00419 11 1 
224 1.20779 9.90099 -0.00883821 0.0193252 9.90101 5.04054 11 1 
225.333 1.20788 9.89472 -0.00919332 0.0163861 9.89474 5.20863 11 1 
226.667 1.20791 9.88885 -0.00952475 0.0135414 9.88887 5.25638 11 1 
228 1.2079 9.8844 -0.00974808 0.0121903 9.88441 5.23676 11 1 
229.333 1.20799 9.87859 -0.00998993 0.0113048 9.8786 5.39785 11 1 
230.667 1.20807 9.87193 -0.0102774 0.0107016 9.87194 5.53786 11 1 
232 1.20805 9.86628 -0.0105293 0.00895563 9.86629 5.5031 11 1 
233.333 1.2081 9.85921 -0.0107787 0.00745036 9.85922 5.59323 11 1 
234.667 1.2082 9.85067 -0.0109865 0.00685636 9.85068 5.78006 11 1 
234.667 1.2082 9.85067 -0.0109865 0.00685636 9.85068 5.78006 11 1 
236 1.2082 9.84365 -0.0111091 0.00659143 9.84366 5.78233 11 1 
237.333 1.20822 9.83609 -0.0112153 0.00786063 9.8361 5.81533 11 1 
238.667 1.20833 9.82699 -0.0113664 0.00877284 9.827 6.01114 11 1 
240 1.20838 9.81718 -0.0115392 0.00890869 9.81719 6.10215 11 1 
241.333 1.20837 9.80736 -0.0116376 0.0102132 9.80737 6.0824 11 1 
242.667 1.20844 9.79824 -0.0116322 0.0119554 9.79825 6.20848 11 1 
244 1.20857 9.78675 -0.0116713 0.0138906 9.78677 6.44618 11 1 
245.333 1.20859 9.77415 -0.0117472 0.017095 9.77417 6.47762 11 1 
246.667 1.20858 9.76237 -0.0117371 0.021383 9.7624 6.46639 11 1 
248 1.20874 9.74838 -0.0116973 0.0242632 9.74842 6.75642 11 1 
249.333 1.20886 9.73323 -0.0117119 0.0269774 9.73328 6.96338 11 1 
250.667 1.20881 9.72013 -0.0117508 0.031304 9.72019 6.88497 11 1 
252 1.20894 9.70496 -0.0117131 0.0364223 9.70504 7.12007 11 1 
253.333 1.20918 9.68501 -0.0116942 0.0413461 9.68511 7.54347 11 1 
254.667 1.20916 9.66575 -0.0117473 0.0468363 9.66588 7.52171 11 1 
256 1.20919 9.64795 -0.011792 0.0525759 9.6481 7.56601 11 1 
256 1.20919 9.64795 -0.011792 0.0525759 9.6481 7.56601 13 1 
257.333 1.20951 9.62551 -0.0118126 0.0574962 9.6257 8.15183 13 1 
258.667 1.20968 9.60056 -0.0118742 0.0638418 9.60078 8.4468 13 1 
260 1.20959 9.57953 -0.0119797 0.0718865 9.57981 8.29945 13 1 
261.333 1.20989 9.55221 -0.0120599 0.0798545 9.55256 8.83052 13 1 
262.667 1.21028 9.51779 -0.0121709 0.086296 9.51819 9.53064 13 1 
264 1.2102 9.49135 -0.0123326 0.0949912 9.49185 9.39354 13 1 
265.333 1.21038 9.46014 -0.0124882 0.10723 9.46077 9.7187 13 1 
266.667 1.21095 9.41706 -0.01264 0.117643 9.41782 10.7419 13 1 
268 1.21103 9.38103 -0.0128651 0.128691 9.38194 10.8866 13 1 
269.333 1.21107 9.3417 -0.01309 0.144543 9.34285 10.9605 13 1 
270.667 1.21166 9.28918 -0.0132623 0.161802 9.29062 12.0356 13 1 
272 1.21201 9.241 -0.0134547 0.178408 9.24275 12.6673 13 1 
273.333 1.21202 9.19487 -0.0137292 0.204281 9.19718 12.6817 13 1 
274.667 1.21252 9.13924 -0.0139736 0.237611 9.14238 13.5889 13 1 
276 1.2132 9.07509 -0.0141665 0.26798 9.07912 14.8124 13 1 
277.333 1.21329 9.00938 -0.0143956 0.298051 9.01438 14.9731 13 1 
277.333 1.21329 9.00938 -0.0143956 0.298051 9.01438 14.9731 13 1 
278.667 1.21343 8.9473 -0.0146254 0.342856 8.95395 15.2322 13 1 
280 1.21427 8.88299 -0.0148063 0.402273 8.89219 16.7452 13 1 
281.333 1.21482 8.81314 -0.0149762 0.45335 8.82489 17.7307 13 1 
282.667 1.2147 8.74239 -0.0151649 0.512329 8.75754 17.5142 13 1 
284 1.21503 8.67735 -0.015341 0.585401 8.6972 18.1141 13 1 
285.333 1.21594 8.61263 -0.0154737 0.664737 8.63844 19.7606 13 1 
286.667 1.21615 8.54604 -0.0155772 0.748193 8.57891 20.1413 13 1 
288 1.21585 8.48525 -0.0156633 0.826119 8.52555 19.59 13 1 
289.333 1.21648 8.42756 -0.0157257 0.922857 8.47824 20.7361 13 1 
290.667 1.21722 8.37149 -0.0157632 1.02298 8.43397 22.0755 13 1 
292 1.21688 8.32133 -0.015798 1.10759 8.39493 21.4585 13 1 
293.333 1.2168 8.27137 -0.0158303 1.20062 8.35832 21.3049 13 1 
294.667 1.21761 8.22936 -0.0158351 1.30923 8.33323 22.7752 13 1 
296 1.21788 8.16005 -0.0157879 1.37808 8.27592 23.2654 13 1 
297.333 1.21641 7.71812 -0.0156384 1.0962 7.80717 20.6095 13 1 
298.667 1.21263 6.71565 -0.0154888 0.262554 6.76355 13.7791 13 1 
298.667 1.21263 6.71565 -0.0154888 0.262554 6.76355 13.7791 14 1 
300 1.20768 5.61331 -0.0154877 -0.740458 5.71139 4.83712 14 1 
301.333 1.20408 4.86923 -0.0155712 -1.43816 5.09777 -1.66503 14 1 
302.667 1.20248 4.55434 -0.0156219 -1.70156 4.8635 -4.55652 14 1 
304 1.20188 4.48782 -0.015624 -1.67702 4.79144 -5.64285 14 1 
305.333 1.20177 4.47098 -0.0155629 -1.57187 4.7397 -5.83281 14 1 
306.667 1.20205 4.45742 -0.0154418 -1.46882 4.69358 -5.3342 14 1 
308 1.20215 4.44456 -0.0153909 -1.37007 4.65137 -5.15346 14 1 
309.333 1.20199 4.42188 -0.0153705 -1.27027 4.60116 -5.44189 14 1 
310.667 1.20218 4.38515 -0.0152437 -1.1698 4.53885 -5.09209 14 1 
312 1.20247 4.33974 -0.0150372 -1.06802 4.46958 -4.56265 14 1 
313.333 1.20237 4.29166 -0.0148756 -0.955538 4.39719 -4.75346 14 1 
314.667 1.20246 4.23692 -0.01477 -0.861233 4.32375 -4.5804 14 1 
316 1.20291 4.17772 -0.0146692 -0.782949 4.25072 -3.77929 14 1 
317.333 1.20299 4.11892 -0.0145732 -0.688119 4.17633 -3.62357 14 1 
318.667 1.20297 4.05266 -0.0144615 -0.601142 4.09721 -3.66579 14 1 
320 1.20334 3.97974 -0.0143164 -0.533648 4.01554 -3.00354 14 1 
320 1.20334 3.97974 -0.0143164 -0.533648 4.01554 -3.00354 14 1 
321.333 1.20362 3.90812 -0.0141594 -0.46692 3.93611 -2.49944 14 1 
322.667 1.20359 3.8349 -0.0140027 -0.402698 3.85617 -2.55245 14 1 
324 1.20378 3.75974 -0.0138024 -0.355835 3.77669 -2.20789 14 1 
325.333 1.20414 3.68776 -0.013598 -0.316648 3.70147 -1.55812 14 1 
326.667 1.2042 3.61551 -0.0134398 -0.278921 3.62637 -1.43623 14 1 
328 1.20422 3.54117 -0.0132698 -0.250708 3.55015 -1.40396 14 1 
329.333 1.2045 3.47264 -0.0130664 -0.229024 3.48029 -0.907724 14 1 
330.667 1.20471 3.40937 -0.0129026 -0.208468 3.41584 -0.526138 14 1 
332 1.20471 3.34402 -0.0127869 -0.192197 3.34963 -0.531435 14 1 
333.333 1.2048 3.28016 -0.0126645 -0.180601 3.28522 -0.353956 14 1 
334.667 1.20504 3.22374 -0.0125455 -0.16804 3.22819 0.067907 14 1 
336 1.20513 3.1686 -0.0124809 -0.155863 3.17251 0.238842 14 1 
337.333 1.20514 3.11108 -0.012448 -0.147735 3.11466 0.245553 14 1 
338.667 1.20528 3.05935 -0.0124048 -0.14044 3.06264 0.499672 14 1 
340 1.20545 3.01335 -0.0123773 -0.131146 3.01627 0.808558 14 1 
341.333 1.20548 2.96345 -0.0123855 -0.123096 2.96607 0.85928 14 1 
341.333 1.20548 2.96345 -0.0123855 -0.123096 2.96607 0.85928 15 1 
342.667 1.2055 2.91212 -0.0124006 -0.117453 2.91455 0.911289 15 1 
344 1.20565 2.86863 -0.0124246 -0.111036 2.87084 1.17277 15 1 
345.333 1.20576 2.82915 -0.012464 -0.103702 2.83111 1.37133 15 1 
346.667 1.20577 2.78456 -0.0125135 -0.0982097 2.78636 1.39366 15 1 
348 1.20582 2.73822 -0.0125755 -0.0934358 2.73987 1.48985 15 1 
349.333 1.20594 2.6984 -0.0126324 -0.087441 2.69988 1.69896 15 1 
350.667 1.206 2.66201 -0.0126793 -0.0821416 2.66333 1.81445 15 1 
352 1.20603 2.62191 -0.0127216 -0.0782601 2.62314 1.85787 15 1 
353.333 1.2061 2.58058 -0.0127517 -0.0736931 2.58169 1.98486 15 1 
354.667 1.20618 2.54271 -0.0127931 -0.0685852 2.5437 2.12815 15 1 
356 1.20621 2.50643 -0.0128646 -0.0644516 2.50732 2.18977 15 1 
357.333 1.20625 2.46932 -0.0129385 -0.0603993 2.47012 2.26597 15 1 
358.667 1.20633 2.43257 -0.0130257 -0.0551714 2.43326 2.40258 15 1 
360 1.20638 2.39694 -0.0131476 -0.0500073 2.39753 2.49569 15 1 
361.333 1.20641 2.36185 -0.013274 -0.0463096 2.36237 2.54052 15 1 
362.667 1.20646 2.32802 -0.013405 -0.0429427 2.32848 2.63484 15 1 
362.667 1.20646 2.32802 -0.013405 -0.0429427 2.32848 2.63484 15 1 
364 1.20653 2.29611 -0.0135736 -0.0388483 2.2965 2.75556 15 1 
365.333 1.20656 2.26461 -0.0137692 -0.035261 2.26495 2.82249 15 1 
366.667 1.20659 2.23252 -0.0139668 -0.0327551 2.23283 2.87646 15 1 
368 1.20665 2.20127 -0.0141785 -0.0298962 2.20154 2.97423 15 1 
369.333 1.2067 2.17169 -0.0144206 -0.0264032 2.17192 3.06555 15 1 
370.667 1.20673 2.14258 -0.0146781 -0.0234923 2.14279 3.11947 15 1 
372 1.20677 2.11346 -0.0149367 -0.0210572 2.11364 3.19017 15 1 
373.333 1.20682 2.08506 -0.0151923 -0.0180651 2.08521 3.28522 15 1 
374.667 1.20686 2.05724 -0.0154475 -0.0149709 2.05738 3.35224 15 1 
376 1.20688 2.02978 -0.0157126 -0.0125298 2.02991 3.40299 15 1 
377.333 1.20693 2.00353 -0.0159773 -0.00999928 2.00364 3.48503 15 1 
378.667 1.20698 1.97827 -0.0162231 -0.00688872 1.97837 3.57347 15 1 
380 1.20701 1.9528 -0.0164666 -0.00409089 1.9529 3.62989 15 1 
381.333 1.20704 1.92758 -0.0167261 -0.00177453 1.92767 3.68743 15 1 
382.667 1.20709 1.90397 -0.0169822 0.00085664 1.90407 3.77188 15 1 
384 1.20713 1.88172 -0.0172305 0.00378083 1.88183 3.84766 15 1 
384 1.20713 1.88172 -0.0172305 0.00378083 1.88183 3.84766 15 1 
385.333 1.20716 1.85971 -0.0174843 0.00634285 1.85982 3.9046 15 1 
386.667 1.2072 1.83799 -0.0177399 0.00864449 1.83811 3.97518 15 1 
388 1.20724 1.81742 -0.0179947 0.0111724 1.81757 4.05475 15 1 
389.333 1.20728 1.79817 -0.0182478 0.0138225 1.79834 4.11778 15 1 
390.667 1.20731 1.77972 -0.0184956 0.0162778 1.77991 4.17983 15 1 
392 1.20736 1.76178 -0.0187465 0.0187 1.762 4.25832 15 1 
393.333 1.2074 1.74451 -0.0189957 0.0212596 1.74476 4.33045 15 1 
394.667 1.20743 1.72811 -0.0192342 0.0238478 1.7284 4.38662 15 1 
396 1.20747 1.71261 -0.0194765 0.0264623 1.71295 4.4529 15 1 
397.333 1.20751 1.69782 -0.0197203 0.0291844 1.6982 4.53078 15 1 
398.667 1.20754 1.68349 -0.0199529 0.0319024 1.68393 4.59471 15 1 
400 1.20757 1.66974 -0.020183 0.0346264 1.67025 4.65038 15 1 
401.333 1.20761 1.65684 -0.0204247 0.0375431 1.65741 4.7199 15 1 
402.667 1.20765 1.64453 -0.020667 0.0405662 1.64518 4.79078 15 1 
404 1.20768 1.63248 -0.0208971 0.0434357 1.63321 4.84552 15 1 
405.333 1.20771 1.62105 -0.0211292 0.0463371 1.62187 4.90264 15 1 
405.333 1.20771 1.62105 -0.0211292 0.0463371 1.62187 4.90264 15 1 
406.667 1.20775 1.61044 -0.0213705 0.0495287 1.61136 4.97302 15 1 
408 1.20779 1.60001 -0.0216118 0.0527299 1.60104 5.03401 15 1 
409.333 1.20781 1.5896 -0.0218465 0.0557177 1.59075 5.08228 15 1 
410.667 1.20785 1.57983 -0.0220832 0.0588048 1.5811 5.14048 15 1 
412 1.20788 1.57066 -0.0223332 0.0621284 1.57207 5.20511 15 1 
413.333 1.20791 1.56142 -0.0225856 0.0653803 1.56298 5.25601 15 1 
414.667 1.20793 1.55209 -0.0228294 0.068478 1.5538 5.30127 15 1 
416 1.20797 1.54315 -0.0230782 0.0716941 1.54501 5.35675 15 1 
417.333 1.208 1.5345 -0.0233409 0.07501 1.53654 5.41072 15 1 
418.667 1.20802 1.52574 -0.0236038 0.0781539 1.52796 5.45257 15 1 
420 1.20804 1.51696 -0.0238594 0.0812089 1.51936 5.49618 15 1 
421.333 1.20807 1.50834 -0.0241219 0.0843777 1.51092 5.54587 15 1 
422.667 1.20809 1.49967 -0.0243975 0.0874554 1.50245 5.58739 15 1 
424 1.20811 1.49087 -0.0246664 0.0902674 1.49384 5.62174 15 1 
425.333 1.20813 1.48222 -0.024935 0.0930296 1.48538 5.66204 15 1 
426.667 1.20816 1.47368 -0.0252216 0.0958194 1.47704 5.70364 15 1 
426.667 1.20816 1.47368 -0.0252216 0.0958194 1.47704 5.70364 20 1 
428 1.20818 1.46491 -0.0255101 0.0983765 1.46847 5.73532 20 1 
429.333 1.20819 1.45606 -0.0257999 0.100657 1.4598 5.76476 20 1 
430.667 1.20821 1.44748 -0.0261098 0.102859 1.45141 5.80058 20 1 
432 1.20823 1.43905 -0.0264354 0.104946 1.44316 5.83366 20 1 
433.333 1.20824 1.43052 -0.0267666 0.106751 1.4348 5.85963 20 1 
434.667 1.20826 1.42212 -0.0271162 0.108315 1.42654 5.88783 20 1 
436 1.20828 1.41404 -0.02749 0.109727 1.41861 5.91901 20 1 
437.333 1.20829 1.40617 -0.027884 0.110908 1.41086 5.94554 20 1 
438.667 1.20831 1.39852 -0.0282939 0.111782 1.40331 5.96985 20 1 
440 1.20832 1.3913 -0.0287224 0.11243 1.39618 5.99828 20 1 
441.333 1.20834 1.3845 -0.0291751 0.112906 1.38945 6.02695 20 1 
442.667 1.20835 1.37801 -0.0296482 0.113092 1.38301 6.051 20 1 
444 1.20836 1.37199 -0.0301365 0.112949 1.37701 6.07536 20 1 
445.333 1.20838 1.36665 -0.0306329 0.112608 1.37167 6.1035 20 1 
446.667 1.20839 1.36188 -0.0311411 0.112088 1.36689 6.13073 20 1 
448 1.20841 1.35754 -0.0316569 0.111279 1.36251 6.15497 20 1 
448 1.20841 1.35754 -0.0316569 0.111279 1.36251 6.15497 20 1 
449.333 1.20842 1.35381 -0.0321703 0.110201 1.35871 6.1803 20 1 
450.667 1.20844 1.35086 -0.0326825 0.108963 1.35568 6.20796 20 1 
452 1.20845 1.34851 -0.0331965 0.107547 1.35323 6.2343 20 1 
453.333 1.20847 1.34667 -0.0337103 0.105909 1.35128 6.259 20 1 
454.667 1.20848 1.34553 -0.0342282 0.10414 1.35002 6.28561 20 1 
456 1.2085 1.34506 -0.0347616 0.102289 1.34942 6.31333 20 1 
457.333 1.20851 1.34506 -0.0353074 0.100284 1.34928 6.33923 20 1 
458.667 1.20852 1.34559 -0.0358692 0.0981826 1.34967 6.36505 20 1 
460 1.20854 1.34677 -0.0364567 0.0961111 1.35071 6.39319 20 1 
461.333 1.20856 1.34842 -0.0370704 0.0940575 1.35223 6.42178 20 1 
462.667 1.20857 1.35038 -0.0376994 0.0919585 1.35406 6.44875 20 1 
464 1.20859 1.35277 -0.0383381 0.0898848 1.35632 6.4764 20 1 
465.333 1.2086 1.35566 -0.0389827 0.0879518 1.35909 6.5065 20 1 
466.667 1.20862 1.35888 -0.0396274 0.0861277 1.36221 6.53643 20 1 
468 1.20863 1.36235 -0.0402634 0.0843467 1.36558 6.5651 20 1 
469.333 1.20865 1.36616 -0.0408752 0.0826719 1.3693 6.5949 20 1 
469.333 1.20865 1.36616 -0.0408752 0.0826719 1.3693 6.5949 20 1 
470.667 1.20867 1.37036 -0.0414588 0.0811584 1.37342 6.62626 20 1 
472 1.20869 1.37487 -0.0420134 0.0797643 1.37785 6.65715 20 1 
473.333 1.2087 1.37967 -0.0425331 0.0784742 1.38258 6.68717 20 1 
474.667 1.20872 1.3848 -0.0430042 0.0773198 1.38765 6.71797 20 1 
476 1.20874 1.39027 -0.0434312 0.0763108 1.39307 6.7491 20 1 
477.333 1.20875 1.39604 -0.0438174 0.0754269 1.39879 6.7786 20 1 
478.667 1.20877 1.40212 -0.0441494 0.0746752 1.40483 6.80737 20 1 
480 1.20879 1.40855 -0.0444272 0.0740812 1.41122 6.83693 20 1 
481.333 1.2088 1.41526 -0.044662 0.0736323 1.4179 6.86582 20 1 
482.667 1.20882 1.42226 -0.0448494 0.073332 1.42487 6.89244 20 1 
484 1.20883 1.42953 -0.0449849 0.0731878 1.43213 6.91811 20 1 
485.333 1.20884 1.43707 -0.0450708 0.0731914 1.43966 6.94397 20 1 
486.667 1.20886 1.44485 -0.0451139 0.0733515 1.44743 6.96819 20 1 
488 1.20887 1.4529 -0.0451167 0.0736751 1.45548 6.99041 20 1 
489.333 1.20888 1.46117 -0.0450764 0.0741455 1.46376 7.01254 20 1 
490.667 1.20889 1.4696 -0.0449949 0.0747517 1.4722 7.03386 20 1 
490.667 1.20889 1.4696 -0.0449949 0.0747517 1.4722 7.03386 20 1 
492 1.2089 1.47823 -0.0448738 0.0754932 1.48085 7.05278 20 1 
493.333 1.20891 1.4871 -0.0447229 0.0763752 1.48974 7.07066 20 1 
494.667 1.20892 1.49614 -0.0445367 0.0773926 1.49881 7.08884 20 1 
496 1.20893 1.50531 -0.044316 0.078508 1.50802 7.10555 20 1 
497.333 1.20894 1.51464 -0.0440735 0.0797048 1.51739 7.11962 20 1 
498.667 1.20895 1.52415 -0.0438069 0.081003 1.52695 7.1333 20 1 
500 1.20896 1.53384 -0.0435204 0.0824041 1.53668 7.14726 20 1 
501.333 1.20896 1.54369 -0.0432204 0.0838536 1.54658 7.15899 20 1 
502.667 1.20897 1.55372 -0.0429141 0.0853268 1.55666 7.1686 20 1 
504 1.20897 1.56394 -0.0426123 0.0868597 1.56694 7.17846 20 1 
505.333 1.20898 1.57436 -0.0423228 0.0884437 1.57742 7.18773 20 1 
506.667 1.20898 1.58501 -0.0420581 0.0900245 1.58813 7.19409 20 1 
508 1.20899 1.59595 -0.0418287 0.0915907 1.59913 7.1991 20 1 
509.333 1.20899 1.60717 -0.0416508 0.0931634 1.61042 7.20488 20 1 
510.667 1.20899 1.61868 -0.0415433 0.0947323 1.622 7.20904 20 1 
512 1.20899 1.63053 -0.0415153 0.0962627 1.63391 7.21031 20 1 
512 1.20899 1.63053 -0.0415153 0.0962627 1.63391 7.21031 21 1 
513.333 1.20899 1.64281 -0.0415798 0.0977356 1.64626 7.21196 21 1 
514.667 1.20899 1.65553 -0.0417647 0.0991706 1.65905 7.21416 21 1 
516 1.20899 1.66868 -0.0420811 0.100566 1.67226 7.21356 21 1 
517.333 1.20899 1.68232 -0.0425407 0.101881 1.68596 7.21148 21 1 
518.667 1.20899 1.69652 -0.0431615 0.103097 1.70023 7.21103 21 1 
520 1.20899 1.7113 -0.0439572 0.104225 1.71507 7.21022 21 1 
521.333 1.20899 1.7267 -0.0449497 0.10528 1.73053 7.20705 21 1 
522.667 1.20899 1.74275 -0.046147 0.10623 1.74664 7.2043 21 1 
524 1.20899 1.75947 -0.0475531 0.10704 1.76342 7.20336 21 1 
525.333 1.20899 1.77689 -0.0491829 0.107734 1.78089 7.20113 21 1 
526.667 1.20898 1.79505 -0.0510361 0.108331 1.7991 7.19759 21 1 
528 1.20898 1.81393 -0.0531097 0.108823 1.81804 7.19619 21 1 
529.333 1.20898 1.83352 -0.0553971 0.109197 1.83768 7.19559 21 1 
530.667 1.20898 1.85379 -0.057869 0.109461 1.858 7.19296 21 1 
532 1.20898 1.87474 -0.0605034 0.109653 1.879 7.19055 21 1 
533.333 1.20898 1.8963 -0.0632775 0.109799 1.90061 7.1906 21 1 
533.333 1.20898 1.8963 -0.0632775 0.109799 1.90061 7.1906 21 1 
534.667 1.20898 1.91843 -0.0661505 0.109888 1.9228 7.19027 21 1 
536 1.20898 1.94107 -0.0690796 0.10991 1.9455 7.18788 21 1 
537.333 1.20898 1.96418 -0.072016 0.109898 1.96866 7.18696 21 1 
538.667 1.20898 1.9877 -0.0749304 0.109885 1.99223 7.18778 21 1 
540 1.20898 2.01157 -0.0777883 0.109848 2.01615 7.18645 21 1 
541.333 1.20898 2.03576 -0.0805344 0.109766 2.04039 7.18422 21 1 
542.667 1.20898 2.06026 -0.0831634 0.109657 2.06494 7.18442 21 1 
544 1.20898 2.08504 -0.0856545 0.109517 2.08976 7.1846 21 1 
545.333 1.20898 2.11006 -0.087984 0.109341 2.11481 7.18232 21 1 
546.667 1.20898 2.13533 -0.0901438 0.109126 2.14009 7.18061 21 1 
548 1.20898 2.16086 -0.0921457 0.108849 2.16564 7.18106 21 1 
549.333 1.20898 2.18666 -0.0940035 0.108507 2.19145 7.18004 21 1 
550.667 1.20897 2.21272 -0.0957037 0.108115 2.2175 7.17733 21 1 
552 1.20897 2.23904 -0.0972843 0.107682 2.24382 7.17656 21 1 
553.333 1.20897 2.26566 -0.0987571 0.107189 2.27042 7.17664 21 1 
554.667 1.20897 2.2926 -0.100138 0.106634 2.29733 7.17461 21 1 
554.667 1.20897 2.2926 -0.100138 0.106634 2.29733 7.17461 22 1 
556 1.20897 2.31986 -0.101445 0.106052 2.32457 7.17236 22 1 
557.333 1.20897 2.34744 -0.102698 0.105458 2.35212 7.1723 22 1 
558.667 1.20897 2.37534 -0.103928 0.104843 2.37999 7.17164 22 1 
560 1.20897 2.40358 -0.105121 0.104215 2.40821 7.16885 22 1 
561.333 1.20897 2.43218 -0.10631 0.1036 2.43678 7.16723 22 1 
562.667 1.20897 2.46112 -0.107505 0.103033 2.4657 7.16712 22 1 
564 1.20897 2.49038 -0.108719 0.10251 2.49493 7.16515 22 1 
565.333 1.20896 2.51997 -0.109938 0.102032 2.5245 7.16164 22 1 
566.667 1.20896 2.54987 -0.11117 0.101637 2.55438 7.16019 22 1 
568 1.20896 2.58007 -0.11245 0.101339 2.58458 7.15927 22 1 
569.333 1.20896 2.61056 -0.113741 0.10114 2.61507 7.15568 22 1 
570.667 1.20896 2.64131 -0.115061 0.101059 2.64582 7.15172 22 1 
572 1.20896 2.6723 -0.116393 0.10111 2.67681 7.14962 22 1 
573.333 1.20896 2.70351 -0.117762 0.101294 2.70804 7.14684 22 1 
574.667 1.20895 2.73495 -0.119144 0.10162 2.7395 7.14158 22 1 
576 1.20895 2.76657 -0.120526 0.102112 2.77115 7.13727 22 1 
576 1.20895 2.76657 -0.120526 0.102112 2.77115 7.13727 22 1 
577.333 1.20895 2.79834 -0.121943 0.102767 2.80295 7.13431 22 1 
578.667 1.20895 2.83025 -0.123361 0.103571 2.83491 7.12907 22 1 
580 1.20894 2.8623 -0.124777 0.104542 2.867 7.12227 22 1 
581.333 1.20894 2.89445 -0.126178 0.1057 2.8992 7.11727 22 1 
582.667 1.20894 2.92667 -0.127602 0.107018 2.93148 7.11252 22 1 
584 1.20893 2.95897 -0.129014 0.108489 2.96385 7.10471 22 1 
585.333 1.20893 2.99132 -0.130393 0.110125 2.99626 7.09648 22 1 
586.667 1.20893 3.02369 -0.131782 0.11193 3.02871 7.09014 22 1 
588 1.20892 3.05608 -0.133142 0.113888 3.06118 7.08257 22 1 
589.333 1.20892 3.08848 -0.134496 0.115974 3.09366 7.07225 22 1 
590.667 1.20891 3.12086 -0.135798 0.118196 3.12613 7.06271 22 1 
592 1.20891 3.1532 -0.137102 0.120552 3.15857 7.0543 22 1 
593.333 1.2089 3.18551 -0.138387 0.123016 3.19097 7.04295 22 1 
594.667 1.20889 3.21777 -0.139626 0.125572 3.22333 7.02986 22 1 
596 1.20889 3.24999 -0.140844 0.128219 3.25565 7.01849 22 1 
597.333 1.20888 3.28213 -0.142041 0.130948 3.2879 7.00736 22 1 
597.333 1.20888 3.28213 -0.142041 0.130948 3.2879 7.00736 24 1 
598.667 1.20887 3.31421 -0.143215 0.133721 3.32008 6.99271 24 1 
600 1.20886 3.3462 -0.144337 0.13653 3.35219 6.97752 24 1 
601.333 1.20886 3.37812 -0.145439 0.13938 3.38422 6.96464 24 1 
602.667 1.20885 3.40998 -0.146524 0.142233 3.41618 6.94992 24 1 
604 1.20884 3.44174 -0.147582 0.145061 3.44805 6.93289 24 1 
605.333 1.20883 3.47344 -0.148591 0.14787 3.47986 6.91692 24 1 
606.667 1.20882 3.50506 -0.149582 0.15065 3.51158 6.90273 24 1 
608 1.20881 3.5366 -0.150566 0.153342 3.54322 6.88647 24 1 
609.333 1.2088 3.5681 -0.151497 0.155955 3.57482 6.86851 24 1 
610.667 1.20879 3.59954 -0.152394 0.158477 3.60635 6.8533 24 1 
612 1.20879 3.63089 -0.153291 0.160877 3.63779 6.83861 24 1 
613.333 1.20878 3.66224 -0.154172 0.163131 3.66921 6.82131 24 1 
614.667 1.20877 3.69356 -0.154986 0.16524 3.70061 6.80472 24 1 
616 1.20876 3.72482 -0.155802 0.167183 3.73193 6.79108 24 1 
617.333 1.20875 3.75609 -0.15661 0.168929 3.76325 6.77617 24 1 
618.667 1.20874 3.78738 -0.157365 0.170482 3.79459 6.75909 24 1 
618.667 1.20874 3.78738 -0.157365 0.170482 3.79459 6.75909 24 1 
620 1.20873 3.81863 -0.158087 0.171819 3.82587 6.74473 24 1 
621.333 1.20873 3.84993 -0.158818 0.172924 3.85719 6.73128 24 1 
622.667 1.20872 3.88128 -0.159518 0.173793 3.88855 6.71556 24 1 
624 1.20871 3.91264 -0.160184 0.174404 3.9199 6.70016 24 1 
625.333 1.2087 3.94408 -0.160826 0.174763 3.95133 6.68637 24 1 
626.667 1.20869 3.97558 -0.161461 0.174851 3.98281 6.67235 24 1 
628 1.20869 4.00714 -0.162063 0.174658 4.01432 6.65659 24 1 
629.333 1.20868 4.03881 -0.16263 0.174184 4.04594 6.64102 24 1 
630.667 1.20867 4.07057 -0.163205 0.173441 4.07764 6.62726 24 1 
632 1.20866 4.10243 -0.163762 0.172399 4.10942 6.61243 24 1 
633.333 1.20865 4.13438 -0.1643 0.171063 4.14128 6.59609 24 1 
634.667 1.20864 4.1665 -0.164815 0.169465 4.1733 6.58054 24 1 
636 1.20864 4.19873 -0.165317 0.167579 4.20542 6.56645 24 1 
637.333 1.20863 4.23103 -0.165837 0.165402 4.2376 6.55111 24 1 
638.667 1.20862 4.26356 -0.166341 0.162982 4.27 6.53319 24 1 
640 1.20861 4.29617 -0.166801 0.160296 4.30248 6.51842 24 1 
640 1.20861 4.29617 -0.166801 0.160296 4.30248 6.51842 24 1 
641.333 1.2086 4.32884 -0.167353 0.157353 4.33502 6.50469 24 1 
642.667 1.20859 4.36178 -0.167884 0.154185 4.36782 6.48642 24 1 
644 1.20858 4.39479 -0.168343 0.1508 4.40068 6.47032 24 1 
645.333 1.20858 4.42785 -0.168943 0.147208 4.43359 6.45739 24 1 
646.667 1.20857 4.46117 -0.169499 0.143422 4.46676 6.44042 24 1 
648 1.20856 4.4945 -0.170029 0.139498 4.49995 6.42365 24 1 
649.333 1.20855 4.52792 -0.170717 0.135397 4.53322 6.40975 24 1 
650.667 1.20854 4.56153 -0.171311 0.131213 4.5667 6.39458 24 1 
652 1.20853 4.59513 -0.172043 0.126899 4.60017 6.3788 24 1 
653.333 1.20852 4.62881 -0.172772 0.122527 4.63371 6.3637 24 1 
654.667 1.20851 4.66263 -0.17349 0.118122 4.66741 6.34894 24 1 
656 1.20851 4.69636 -0.174369 0.113669 4.70104 6.33507 24 1 
657.333 1.2085 4.73019 -0.175191 0.109258 4.73476 6.31923 24 1 
658.667 1.20849 4.76409 -0.176106 0.104884 4.76856 6.30372 24 1 
660 1.20848 4.79786 -0.177108 0.100543 4.80224 6.29129 24 1 
661.333 1.20847 4.8317 -0.178109 0.096332 4.836 6.2756 24 1 
661.333 1.20847 4.8317 -0.178109 0.096332 4.836 6.2756 24 1 
662.667 1.20847 4.86552 -0.179183 0.0922422 4.86976 6.25963 24 1 
664 1.20846 4.89917 -0.180319 0.0882777 4.90335 6.24749 24 1 
665.333 1.20845 4.93288 -0.18146 0.0845532 4.93701 6.23211 24 1 
666.667 1.20844 4.96646 -0.182688 0.080993 4.97056 6.2166 24 1 
668 1.20843 4.99984 -0.183969 0.0777001 5.00391 6.20396 24 1 
669.333 1.20843 5.03325 -0.185226 0.0746696 5.0373 6.189 24 1 
670.667 1.20842 5.06643 -0.186629 0.0719345 5.07048 6.17529 24 1 
672 1.20841 5.09941 -0.187987 0.0695302 5.10345 6.16259 24 1 
673.333 1.2084 5.13232 -0.189366 0.0674682 5.13637 6.14828 24 1 
674.667 1.2084 5.16497 -0.190834 0.0657607 5.16904 6.13594 24 1 
676 1.20839 5.19736 -0.192231 0.0644826 5.20144 6.12478 24 1 
677.333 1.20838 5.22964 -0.193726 0.0635827 5.23376 6.11048 24 1 
678.667 1.20838 5.26155 -0.195157 0.0631197 5.26571 6.09921 24 1 
680 1.20837 5.29323 -0.196658 0.0631176 5.29743 6.08869 24 1 
681.333 1.20836 5.32469 -0.198113 0.0635232 5.32893 6.07568 24 1 
682.667 1.20836 5.35577 -0.199552 0.0644561 5.36006 6.06486 24 1 
682.667 1.20836 5.35577 -0.199552 0.0644561 5.36006 6.06486 31 1 
684 1.20835 5.38656 -0.200961 0.0658325 5.39091 6.055 31 1 
685.333 1.20835 5.41702 -0.202357 0.0676646 5.42143 6.0438 31 1 
686.667 1.20834 5.44713 -0.20372 0.0700083 5.45161 6.03227 31 1 
688 1.20833 5.47686 -0.205002 0.0728515 5.48142 6.02219 31 1 
689.333 1.20833 5.50623 -0.20629 0.076107 5.51086 6.01158 31 1 
690.667 1.20832 5.53519 -0.207492 0.0798644 5.53991 6.00049 31 1 
692 1.20832 5.56375 -0.208648 0.0840933 5.56856 5.98951 31 1 
693.333 1.20831 5.59189 -0.209652 0.0887454 5.59679 5.97921 31 1 
694.667 1.2083 5.61955 -0.210675 0.0938211 5.62456 5.96942 31 1 
696 1.2083 5.64679 -0.211562 0.0993282 5.65191 5.95726 31 1 
697.333 1.20829 5.67352 -0.212343 0.10527 5.67876 5.9462 31 1 
698.667 1.20829 5.69971 -0.213049 0.111546 5.70507 5.93617 31 1 
700 1.20828 5.72544 -0.213643 0.118152 5.73094 5.92391 31 1 
701.333 1.20827 5.7506 -0.214091 0.12515 5.75625 5.91277 31 1 
702.667 1.20827 5.77521 -0.214478 0.132436 5.78101 5.90182 31 1 
704 1.20826 5.7993 -0.214767 0.139957 5.80526 5.88958 31 1 
704 1.20826 5.7993 -0.214767 0.139957 5.80526 5.88958 31 1 
705.333 1.20825 5.82273 -0.214905 0.147803 5.82887 5.87817 31 1 
706.667 1.20825 5.84558 -0.214963 0.155884 5.85191 5.86554 31 1 
708 1.20824 5.8678 -0.214867 0.164103 5.87432 5.85308 31 1 
709.333 1.20823 5.88936 -0.214777 0.172526 5.89609 5.84144 31 1 
710.667 1.20823 5.91034 -0.21444 0.181171 5.91728 5.82738 31 1 
712 1.20822 5.93064 -0.214097 0.189912 5.93782 5.8143 31 1 
713.333 1.20821 5.95025 -0.213752 0.198721 5.95768 5.80206 31 1 
714.667 1.2082 5.96917 -0.213128 0.207634 5.97685 5.78719 31 1 
716 1.2082 5.98739 -0.212622 0.216678 5.99534 5.77163 31 1 
717.333 1.20819 6.0049 -0.211912 0.225663 6.01312 5.7573 31 1 
718.667 1.20818 6.02176 -0.211101 0.234788 6.03027 5.74125 31 1 
720 1.20817 6.03789 -0.210497 0.24392 6.04672 5.72455 31 1 
721.333 1.20816 6.05328 -0.209611 0.252889 6.06242 5.70762 31 1 
722.667 1.20815 6.06789 -0.208828 0.261931 6.07736 5.68995 31 1 
724 1.20814 6.08179 -0.208184 0.270796 6.09158 5.67103 31 1 
725.333 1.20813 6.09505 -0.207053 0.279699 6.10518 5.65095 31 1 
725.333 1.20813 6.09505 -0.207053 0.279699 6.10518 5.65095 31 1 
726.667 1.20812 6.10764 -0.206455 0.288523 6.11813 5.63344 31 1 
728 1.20811 6.11951 -0.205588 0.297112 6.13035 5.61496 31 1 
729.333 1.2081 6.13058 -0.204632 0.305709 6.14179 5.59404 31 1 
730.667 1.20809 6.14092 -0.204263 0.313935 6.1525 5.57515 31 1 
732 1.20808 6.15049 -0.203229 0.3222 6.16243 5.55762 31 1 
733.333 1.20807 6.15959 -0.202553 0.330123 6.17191 5.53727 31 1 
734.667 1.20806 6.16791 -0.202064 0.33781 6.1806 5.52352 31 1 
736 1.20805 6.17569 -0.201174 0.345521 6.18876 5.50782 31 1 
737.333 1.20804 6.18288 -0.200883 0.352609 6.19632 5.49174 31 1 
738.667 1.20804 6.18919 -0.200401 0.359592 6.20299 5.48374 31 1 
740 1.20803 6.1951 -0.199833 0.366138 6.20924 5.46939 31 1 
741.333 1.20802 6.20054 -0.199707 0.372411 6.21504 5.4591 31 1 
742.667 1.20802 6.20555 -0.199314 0.378509 6.22039 5.45657 31 1 
744 1.20802 6.21026 -0.19904 0.38391 6.22541 5.45006 31 1 
745.333 1.20802 6.21433 -0.199024 0.38904 6.22979 5.44672 31 1 
746.667 1.20801 6.21802 -0.198864 0.393689 6.23376 5.44366 31 1 
746.667 1.20801 6.21802 -0.198864 0.393689 6.23376 5.44366 31 1 
748 1.20801 6.2217 -0.198781 0.397924 6.2377 5.43953 31 1 
749.333 1.20802 6.22498 -0.198942 0.40174 6.24122 5.44665 31 1 
750.667 1.20802 6.22842 -0.198848 0.404951 6.24485 5.44667 31 1 
752 1.20802 6.23147 -0.199106 0.407791 6.2481 5.4466 31 1 
753.333 1.20802 6.2345 -0.199312 0.409919 6.25127 5.45187 31 1 
754.667 1.20802 6.23758 -0.199451 0.411696 6.25447 5.45692 31 1 
756 1.20802 6.24082 -0.19977 0.412754 6.2578 5.45804 31 1 
757.333 1.20803 6.24417 -0.199916 0.413472 6.2612 5.46553 31 1 
758.667 1.20803 6.24753 -0.200415 0.413582 6.26459 5.47285 31 1 
760 1.20803 6.25153 -0.200464 0.412808 6.26856 5.46928 31 1 
761.333 1.20804 6.2551 -0.200845 0.412129 6.2721 5.48373 31 1 
762.667 1.20803 6.25977 -0.201093 0.410199 6.27667 5.48208 31 1 
764 1.20804 6.26442 -0.201317 0.40817 6.28121 5.4879 31 1 
765.333 1.20804 6.26925 -0.20124 0.405431 6.28588 5.49723 31 1 
766.667 1.20804 6.27526 -0.20168 0.402075 6.2917 5.49184 31 1 
768 1.20805 6.28118 -0.201586 0.398381 6.2974 5.50273 31 1 
768 1.20805 6.28118 -0.201586 0.398381 6.2974 5.50273 32 1 
769.333 1.20805 6.28736 -0.201558 0.393696 6.30331 5.50937 32 1 
770.667 1.20804 6.29553 -0.201546 0.3891 6.31122 5.49542 32 1 
772 1.20805 6.30336 -0.201545 0.383179 6.31871 5.51638 32 1 
773.333 1.20806 6.31155 -0.201385 0.377365 6.32657 5.52724 32 1 
774.667 1.20804 6.32246 -0.201013 0.370375 6.33708 5.49422 32 1 
776 1.20806 6.3325 -0.201215 0.362833 6.34672 5.52446 32 1 
777.333 1.20807 6.34376 -0.200793 0.354746 6.35754 5.54262 32 1 
778.667 1.20805 6.35806 -0.200772 0.345994 6.37139 5.50002 32 1 
780 1.20806 6.37108 -0.200618 0.336242 6.38391 5.53064 32 1 
781.333 1.20807 6.38651 -0.200396 0.326548 6.39885 5.5475 32 1 
782.667 1.20805 6.40465 -0.200573 0.315202 6.41646 5.51252 32 1 
784 1.20806 6.42266 -0.200799 0.302947 6.4339 5.53581 32 1 
785.333 1.20808 6.44153 -0.201357 0.289141 6.45218 5.56806 32 1 
786.667 1.20806 6.46196 -0.201217 0.275071 6.47201 5.53239 32 1 
788 1.20804 6.48607 -0.202713 0.25982 6.49555 5.49451 32 1 
789.333 1.20808 6.51006 -0.203237 0.242786 6.5189 5.57086 32 1 
790.667 1.20808 6.5388 -0.202627 0.22543 6.547 5.55747 32 1 
792 1.20807 6.56422 -0.204134 0.203609 6.57175 5.53885 32 1 
793.333 1.20805 6.59144 -0.204374 0.181916 6.59835 5.50498 32 1 
794.667 1.20802 6.62595 -0.20624 0.154511 6.6322 5.45645 32 1 
796 1.20808 6.6581 -0.207218 0.125373 6.66372 5.56329 32 1 
797.333 1.20808 6.68825 -0.206324 0.0920089 6.69328 5.56794 32 1 
798.667 1.208 6.71705 -0.200113 0.0559117 6.72139 5.42703 32 1 
800 1.20796 6.73249 -0.194144 0.0407303 6.73646 5.34054 32 1 
