70.6405;r ;Density                 ;Velocity u              ;Velocity v              ;Velocity w              ;|Velocity|              ;Pressure                ;Distribution            ;Levels                  ;
0 1.20456 9.99921 0.000108225 0.00138366 9.99921 -0.786401 1 1 
1.33334 1.20455 9.99941 4.30679e-05 0.00292941 9.99942 -0.812745 1 1 
2.66666 1.20453 9.99969 -0.000100582 0.00566705 9.99969 -0.840773 1 1 
4 1.20451 9.99943 -0.000216437 0.00835542 9.99944 -0.89268 1 1 
5.33334 1.20449 9.99916 -0.000323912 0.0100042 9.99918 -0.923968 1 1 
6.66666 1.20451 9.99903 -0.000474191 0.0106008 9.99905 -0.880178 1 1 
8 1.20453 9.99841 -0.00059687 0.0113695 9.99843 -0.846842 1 1 
9.33334 1.20457 9.99813 -0.000735713 0.01087 9.99816 -0.768768 1 1 
10.6667 1.20464 9.99792 -0.000913706 0.0097856 9.99795 -0.657856 1 1 
12 1.20469 9.99705 -0.00104477 0.00867259 9.99708 -0.55744 1 1 
13.3333 1.20478 9.99656 -0.00118806 0.00615413 9.99659 -0.390456 1 1 
14.6667 1.20487 9.99623 -0.0013422 0.00369563 9.99626 -0.232881 1 1 
16 1.20494 9.99537 -0.00144882 0.00120753 9.99539 -0.101096 1 1 
17.3333 1.20505 9.99452 -0.0015697 -0.00230285 9.99455 0.0836714 1 1 
18.6667 1.20513 9.99381 -0.00166904 -0.00518771 9.99384 0.226966 1 1 
20 1.2052 9.99317 -0.00172799 -0.00818209 9.9932 0.354498 1 1 
21.3333 1.20528 9.99223 -0.00179205 -0.0116135 9.99226 0.508102 1 1 
21.3333 1.20528 9.99223 -0.00179205 -0.0116135 9.99226 0.508102 1 1 
22.6667 1.20533 9.99098 -0.00179922 -0.0141378 9.99102 0.590828 1 1 
24 1.20537 9.99043 -0.0017899 -0.0168716 9.99047 0.670225 1 1 
25.3333 1.20541 9.98984 -0.00179237 -0.0192742 9.98989 0.744756 1 1 
26.6667 1.20541 9.98848 -0.00171451 -0.0206077 9.98853 0.736651 1 1 
28 1.20541 9.98774 -0.00162823 -0.0222436 9.9878 0.732576 1 1 
29.3333 1.20539 9.98745 -0.00156261 -0.0230629 9.98751 0.701239 1 1 
30.6667 1.20534 9.98652 -0.00143274 -0.0229002 9.98659 0.609312 1 1 
32 1.20529 9.98564 -0.00129159 -0.0229307 9.98571 0.52412 1 1 
33.3333 1.20521 9.98512 -0.0011499 -0.0218261 9.98519 0.383272 1 1 
34.6667 1.20512 9.98477 -0.000996247 -0.0202336 9.98484 0.22058 1 1 
36 1.20505 9.98425 -0.000868227 -0.0187287 9.98431 0.0907878 1 1 
37.3333 1.20494 9.98345 -0.000711169 -0.0160199 9.98351 -0.0997539 1 1 
38.6667 1.20484 9.98332 -0.000556375 -0.0132819 9.98337 -0.297904 1 1 
40 1.20474 9.98324 -0.000461234 -0.0105364 9.98329 -0.465688 1 1 
41.3333 1.20463 9.98249 -0.00034346 -0.00693449 9.98252 -0.660846 1 1 
42.6667 1.20454 9.98242 -0.000230981 -0.00365284 9.98245 -0.832295 1 1 
42.6667 1.20454 9.98242 -0.000230981 -0.00365284 9.98245 -0.832295 2 1 
44 1.20444 9.98273 -0.000166954 -4.98537e-06 9.98276 -1.01584 2 1 
45.3333 1.20433 9.98224 -0.00010303 0.00415178 9.98227 -1.21232 2 1 
46.6667 1.20426 9.98203 -7.28639e-05 0.00753985 9.98205 -1.32941 2 1 
48 1.20419 9.98242 -6.43353e-05 0.0114205 9.98244 -1.46636 2 1 
49.3333 1.2041 9.98241 -6.0037e-05 0.0153978 9.98245 -1.62792 2 1 
50.6667 1.20406 9.98203 -0.00011684 0.0184224 9.98207 -1.69859 2 1 
52 1.20403 9.98189 -0.000186219 0.0216898 9.98195 -1.74383 2 1 
53.3333 1.20401 9.98236 -0.000266149 0.0243672 9.98242 -1.78181 2 1 
54.6667 1.20401 9.98223 -0.00040356 0.0262399 9.9823 -1.77999 2 1 
56 1.20403 9.98131 -0.000535412 0.0281132 9.9814 -1.74551 2 1 
57.3333 1.20409 9.98154 -0.000685089 0.028725 9.98164 -1.63773 2 1 
58.6667 1.20415 9.98201 -0.000878089 0.0288029 9.98211 -1.52787 2 1 
60 1.20421 9.98095 -0.00104843 0.0287651 9.98105 -1.42889 2 1 
61.3333 1.20432 9.98025 -0.00122757 0.027339 9.98034 -1.23577 2 1 
62.6667 1.20442 9.98074 -0.00142228 0.0256963 9.98083 -1.04197 2 1 
64 1.20451 9.98039 -0.00159349 0.0237689 9.98047 -0.879091 2 1 
64 1.20451 9.98039 -0.00159349 0.0237689 9.98047 -0.879091 2 1 
65.3333 1.20464 9.97918 -0.00177706 0.0206939 9.97925 -0.655607 2 1 
66.6667 1.20476 9.97864 -0.00193908 0.0178683 9.97869 -0.437125 2 1 
68 1.20487 9.97886 -0.00208247 0.0145651 9.97891 -0.23652 2 1 
69.3333 1.20499 9.9782 -0.00225152 0.0105153 9.97824 -0.0118795 2 1 
70.6667 1.20511 9.97662 -0.00237703 0.00689921 9.97665 0.192746 2 1 
72 1.20521 9.97644 -0.00246774 0.00287323 9.97646 0.385049 2 1 
73.3333 1.20531 9.97645 -0.0025768 -0.0012784 9.97647 0.559776 2 1 
74.6667 1.20539 9.97482 -0.00265102 -0.00499675 9.97484 0.707741 2 1 
76 1.20548 9.97377 -0.00269442 -0.0088322 9.9738 0.858512 2 1 
77.3333 1.20552 9.97393 -0.00272211 -0.0118912 9.97396 0.933356 2 1 
78.6667 1.20554 9.97314 -0.00271901 -0.014553 9.97318 0.967889 2 1 
80 1.20558 9.97156 -0.00272056 -0.0175331 9.97161 1.04438 2 1 
81.3333 1.20557 9.97117 -0.00267813 -0.0190909 9.97123 1.02136 2 1 
82.6667 1.20551 9.97135 -0.00259922 -0.020057 9.97141 0.929474 2 1 
84 1.20549 9.97019 -0.00255781 -0.0212572 9.97027 0.894125 2 1 
85.3333 1.20544 9.96892 -0.00247658 -0.0209971 9.96899 0.802232 2 1 
85.3333 1.20544 9.96892 -0.00247658 -0.0209971 9.96899 0.802232 3 1 
86.6667 1.20535 9.96936 -0.00235588 -0.0202979 9.96943 0.636601 3 1 
88 1.20527 9.96923 -0.00227859 -0.0195722 9.9693 0.48811 3 1 
89.3333 1.20518 9.96769 -0.00218775 -0.0176812 9.96776 0.329309 3 1 
90.6667 1.20508 9.96775 -0.00206619 -0.0155575 9.96781 0.139367 3 1 
92 1.20496 9.96851 -0.00196579 -0.0130447 9.96856 -0.0722192 3 1 
93.3333 1.20485 9.96759 -0.00188117 -0.0100118 9.96763 -0.279295 3 1 
94.6667 1.20474 9.96689 -0.00180056 -0.00692593 9.96692 -0.467291 3 1 
96 1.20462 9.96778 -0.00170899 -0.00322116 9.9678 -0.682026 3 1 
97.3333 1.20452 9.96812 -0.00164319 0.000385185 9.96814 -0.870908 3 1 
98.6667 1.20443 9.96727 -0.00162909 0.00395356 9.96729 -1.02281 3 1 
100 1.20434 9.9672 -0.00159132 0.00789868 9.96722 -1.19946 3 1 
101.333 1.20428 9.96806 -0.00156426 0.010898 9.96808 -1.3082 3 1 
102.667 1.20424 9.96812 -0.00161008 0.0137043 9.96815 -1.38101 3 1 
104 1.20418 9.96758 -0.00165288 0.0168907 9.96762 -1.4848 3 1 
105.333 1.20417 9.96808 -0.00170028 0.0188996 9.96813 -1.49312 3 1 
106.667 1.20419 9.969 -0.00180033 0.0207847 9.96905 -1.46641 3 1 
106.667 1.20419 9.969 -0.00180033 0.0207847 9.96905 -1.46641 3 1 
108 1.20418 9.96857 -0.00190333 0.022696 9.96863 -1.47525 3 1 
109.333 1.20423 9.96777 -0.0020191 0.0232992 9.96784 -1.39759 3 1 
110.667 1.20428 9.96843 -0.0021434 0.0239478 9.9685 -1.29421 3 1 
112 1.20433 9.969 -0.00225935 0.0241467 9.96907 -1.20479 3 1 
113.333 1.20442 9.9679 -0.0024256 0.0231457 9.96796 -1.05138 3 1 
114.667 1.2045 9.96754 -0.00257746 0.0225129 9.96761 -0.905163 3 1 
116 1.20459 9.96818 -0.00269174 0.0213612 9.96824 -0.742381 3 1 
117.333 1.2047 9.96761 -0.00286639 0.0192376 9.96767 -0.543703 3 1 
118.667 1.20478 9.9665 -0.00303138 0.0176829 9.96655 -0.388316 3 1 
120 1.20489 9.96641 -0.00313547 0.01555 9.96645 -0.20016 3 1 
121.333 1.205 9.96663 -0.00327363 0.0126282 9.96666 0.000773236 3 1 
122.667 1.20507 9.96561 -0.00342806 0.0102501 9.96563 0.129637 3 1 
124 1.20516 9.96444 -0.00352639 0.00757991 9.96446 0.284628 3 1 
125.333 1.20525 9.96442 -0.00360418 0.00489398 9.96443 0.445318 3 1 
126.667 1.20529 9.96413 -0.00368231 0.00271601 9.96414 0.520985 3 1 
128 1.20533 9.96269 -0.00375705 0.00043989 9.9627 0.60098 3 1 
128 1.20533 9.96269 -0.00375705 0.00043989 9.9627 0.60098 3 1 
129.333 1.20538 9.962 -0.00378719 -0.00160987 9.96201 0.689375 3 1 
130.667 1.2054 9.96235 -0.00377887 -0.00334167 9.96236 0.71817 3 1 
132 1.20539 9.96144 -0.0038088 -0.00495377 9.96146 0.708776 3 1 
133.333 1.20538 9.95991 -0.00382163 -0.00600249 9.95994 0.689704 3 1 
134.667 1.20537 9.95978 -0.00377582 -0.00684759 9.95981 0.674489 3 1 
136 1.20534 9.95979 -0.00374549 -0.00750057 9.95982 0.606742 3 1 
137.333 1.20527 9.95877 -0.00374135 -0.00751305 9.9588 0.486644 3 1 
138.667 1.20523 9.95811 -0.0036945 -0.00742996 9.95814 0.41302 3 1 
140 1.20518 9.9583 -0.00362404 -0.0070877 9.95833 0.328081 3 1 
141.333 1.20509 9.95815 -0.00360238 -0.00598813 9.95817 0.154151 3 1 
142.667 1.20501 9.95711 -0.00359976 -0.00506696 9.95713 0.0138634 3 1 
144 1.20497 9.95634 -0.00356312 -0.00398313 9.95636 -0.0616458 3 1 
145.333 1.20488 9.95716 -0.00353753 -0.00251436 9.95718 -0.215439 3 1 
146.667 1.20479 9.95733 -0.00357149 -0.00131253 9.95735 -0.383872 3 1 
148 1.20475 9.95557 -0.00359461 0.000208066 9.95558 -0.444825 3 1 
149.333 1.2047 9.95586 -0.00359017 0.00197503 9.95587 -0.539499 3 1 
149.333 1.2047 9.95586 -0.00359017 0.00197503 9.95587 -0.539499 3 1 
150.667 1.20462 9.95701 -0.00364203 0.00339196 9.95702 -0.68208 3 1 
152 1.2046 9.95543 -0.00373724 0.00472851 9.95543 -0.722787 3 1 
153.333 1.20459 9.9547 -0.00379463 0.00584493 9.9547 -0.739772 3 1 
154.667 1.20455 9.95572 -0.00384689 0.00692746 9.95573 -0.815391 3 1 
156 1.20453 9.95536 -0.00397679 0.00798581 9.95537 -0.841342 3 1 
157.333 1.20456 9.95412 -0.00411109 0.00868063 9.95413 -0.792883 3 1 
158.667 1.20457 9.95408 -0.00418928 0.00928412 9.95409 -0.770106 3 1 
160 1.20457 9.95488 -0.00430047 0.00957109 9.95489 -0.77503 3 1 
161.333 1.20461 9.95395 -0.00446835 0.00926622 9.95397 -0.70197 3 1 
162.667 1.20467 9.95208 -0.00458158 0.009119 9.9521 -0.591583 3 1 
164 1.20469 9.95259 -0.00464493 0.00933282 9.95261 -0.560687 3 1 
165.333 1.20473 9.95312 -0.0047702 0.00917415 9.95314 -0.492611 3 1 
166.667 1.20481 9.95095 -0.0048994 0.00860555 9.95096 -0.339763 3 1 
168 1.20485 9.95012 -0.00494575 0.00798734 9.95013 -0.268645 3 1 
169.333 1.20488 9.95103 -0.00498452 0.00736095 9.95105 -0.223205 3 1 
170.667 1.20495 9.94949 -0.00508832 0.00659871 9.9495 -0.0816474 3 1 
170.667 1.20495 9.94949 -0.00508832 0.00659871 9.9495 -0.0816474 11 1 
172 1.20501 9.94769 -0.00514395 0.00608258 9.9477 0.0113524 11 1 
173.333 1.20502 9.94826 -0.00510542 0.00589496 9.94826 0.0298859 11 1 
174.667 1.20507 9.94787 -0.00511999 0.00575357 9.94788 0.126666 11 1 
176 1.20512 9.94554 -0.00516984 0.00520388 9.94555 0.210985 11 1 
177.333 1.20511 9.94416 -0.00511519 0.00534862 9.94417 0.197523 11 1 
178.667 1.20512 9.94434 -0.00503256 0.00562555 9.94435 0.22257 11 1 
180 1.20516 9.94365 -0.00504944 0.00559111 9.94365 0.291654 11 1 
181.333 1.20515 9.9415 -0.00504613 0.00601491 9.9415 0.27523 11 1 
182.667 1.20512 9.94061 -0.0049352 0.0069251 9.94061 0.21569 11 1 
184 1.20513 9.94041 -0.00488341 0.00766966 9.94042 0.243193 11 1 
185.333 1.20514 9.93872 -0.00492734 0.00814271 9.93873 0.247925 11 1 
186.667 1.20508 9.93728 -0.00488859 0.00936278 9.93729 0.146585 11 1 
188 1.20506 9.93721 -0.00477941 0.0105915 9.93722 0.112339 11 1 
189.333 1.20508 9.93612 -0.00479857 0.0111714 9.93613 0.142205 11 1 
190.667 1.20503 9.93378 -0.00488394 0.0113662 9.93379 0.0624188 11 1 
192 1.20499 9.93263 -0.00482817 0.0114677 9.93264 -0.0254382 11 1 
192 1.20499 9.93263 -0.00482817 0.0114677 9.93264 -0.0254382 11 1 
193.333 1.20501 9.93165 -0.0047981 0.0122394 9.93166 0.0166499 11 1 
194.667 1.205 9.92942 -0.00492699 0.0127783 9.92943 0.00159036 11 1 
196 1.20494 9.92828 -0.00501942 0.0129627 9.92829 -0.111009 11 1 
197.333 1.20497 9.9283 -0.00501747 0.0129474 9.92831 -0.0626238 11 1 
198.667 1.20503 9.92677 -0.00508763 0.0117938 9.92678 0.0518578 11 1 
200 1.20498 9.92457 -0.00525688 0.0114876 9.92457 -0.0442778 11 1 
201.333 1.20496 9.92247 -0.00534357 0.0111968 9.92248 -0.0712569 11 1 
202.667 1.20507 9.91981 -0.00538503 0.00900739 9.91981 0.12875 11 1 
204 1.20508 9.91796 -0.00554817 0.00740656 9.91796 0.142293 11 1 
205.333 1.20504 9.91612 -0.00574691 0.00711917 9.91612 0.0686763 11 1 
206.667 1.20514 9.91375 -0.00583103 0.00662159 9.91376 0.251998 11 1 
208 1.20521 9.9131 -0.00593264 0.00618742 9.9131 0.384441 11 1 
209.333 1.20518 9.91134 -0.00612885 0.00544666 9.91135 0.325219 11 1 
210.667 1.20523 9.90655 -0.00624103 0.0039028 9.90655 0.408521 11 1 
212 1.20532 9.90285 -0.00625906 0.00236533 9.90286 0.57611 11 1 
213.333 1.20531 9.90052 -0.00636026 0.00216698 9.90052 0.562448 11 1 
213.333 1.20531 9.90052 -0.00636026 0.00216698 9.90052 0.562448 11 1 
214.667 1.2053 9.89793 -0.00650573 0.00353027 9.89793 0.54491 11 1 
216 1.20539 9.89491 -0.00652714 0.00489275 9.89492 0.712959 11 1 
217.333 1.20544 9.89148 -0.00653792 0.00517321 9.89149 0.793163 11 1 
218.667 1.20538 9.88808 -0.00665993 0.00510042 9.88809 0.682298 11 1 
220 1.2054 9.88266 -0.00672711 0.00556431 9.88267 0.731437 11 1 
221.333 1.20548 9.87778 -0.00668062 0.00636701 9.87779 0.869369 11 1 
222.667 1.20544 9.87604 -0.00668137 0.00831752 9.87604 0.802021 11 1 
224 1.20543 9.87222 -0.00678354 0.0105573 9.87223 0.774313 11 1 
225.333 1.20551 9.86563 -0.00681557 0.0105761 9.86564 0.922573 11 1 
226.667 1.20551 9.86073 -0.00676521 0.0105558 9.86074 0.9246 11 1 
228 1.20546 9.85663 -0.00674812 0.0119548 9.85664 0.828216 11 1 
229.333 1.20553 9.85039 -0.00673965 0.0135324 9.8504 0.960974 11 1 
230.667 1.20561 9.84447 -0.00666107 0.0151916 9.84448 1.10863 11 1 
232 1.20558 9.84017 -0.00661994 0.0149293 9.84019 1.0461 11 1 
233.333 1.20562 9.83312 -0.00671402 0.014586 9.83313 1.11834 11 1 
234.667 1.20574 9.82446 -0.00670072 0.014885 9.82447 1.34116 11 1 
234.667 1.20574 9.82446 -0.00670072 0.014885 9.82447 1.34116 11 1 
236 1.20576 9.81858 -0.00653943 0.0150537 9.8186 1.37394 11 1 
237.333 1.20579 9.81187 -0.00650328 0.0166052 9.81189 1.43411 11 1 
238.667 1.20593 9.80271 -0.00658038 0.0173811 9.80273 1.68212 11 1 
240 1.20601 9.79323 -0.00658059 0.0170649 9.79325 1.83262 11 1 
241.333 1.20603 9.78437 -0.00655796 0.0177875 9.78439 1.86106 11 1 
242.667 1.20613 9.77561 -0.00659569 0.0187733 9.77563 2.03984 11 1 
244 1.2063 9.76397 -0.00665821 0.0198636 9.764 2.34023 11 1 
245.333 1.20634 9.75192 -0.00667334 0.0223426 9.75196 2.4157 11 1 
246.667 1.20635 9.74075 -0.00672218 0.0257581 9.74079 2.43417 11 1 
248 1.20653 9.72662 -0.00684878 0.0275651 9.72667 2.75849 11 1 
249.333 1.20665 9.71165 -0.00691062 0.0293145 9.7117 2.98857 11 1 
250.667 1.20661 9.69927 -0.00696121 0.0326867 9.69933 2.91443 11 1 
252 1.20674 9.6844 -0.00709682 0.0367292 9.68447 3.14684 11 1 
253.333 1.20697 9.66451 -0.00724672 0.0406003 9.6646 3.56333 11 1 
254.667 1.20695 9.6457 -0.00732513 0.0450695 9.64581 3.52209 11 1 
256 1.20696 9.62853 -0.00743319 0.0495633 9.62866 3.54235 11 1 
256 1.20696 9.62853 -0.00743319 0.0495633 9.62866 3.54235 13 1 
257.333 1.20727 9.60641 -0.00761957 0.0530409 9.60656 4.10849 13 1 
258.667 1.20742 9.58193 -0.00773379 0.0579869 9.58212 4.37499 13 1 
260 1.20733 9.56172 -0.00778766 0.0645472 9.56195 4.20693 13 1 
261.333 1.20762 9.53495 -0.00793665 0.0708239 9.53522 4.72632 13 1 
262.667 1.208 9.50091 -0.00812834 0.0754573 9.50122 5.41317 13 1 
264 1.20792 9.47514 -0.00820558 0.0823883 9.47551 5.26909 13 1 
265.333 1.2081 9.44474 -0.00825861 0.0929902 9.44521 5.59957 13 1 
266.667 1.20868 9.40216 -0.00840264 0.101767 9.40272 6.64052 13 1 
268 1.20877 9.36664 -0.00854306 0.111322 9.36732 6.80097 13 1 
269.333 1.20882 9.32794 -0.00857633 0.126096 9.32881 6.89355 13 1 
270.667 1.20942 9.27589 -0.00865054 0.142609 9.27701 7.99166 13 1 
272 1.20979 9.22822 -0.00878998 0.158731 9.2296 8.64385 13 1 
273.333 1.2098 9.18261 -0.00885756 0.184588 9.1845 8.66864 13 1 
274.667 1.2103 9.12751 -0.00888933 0.218352 9.13016 9.57515 13 1 
276 1.21098 9.06387 -0.00898661 0.249557 9.06736 10.8019 13 1 
277.333 1.21106 8.99869 -0.00905851 0.280659 9.00312 10.9448 13 1 
277.333 1.21106 8.99869 -0.00905851 0.280659 9.00312 10.9448 13 1 
278.667 1.21119 8.93708 -0.00907491 0.326925 8.94314 11.184 13 1 
280 1.21201 8.87328 -0.00915357 0.387926 8.88184 12.6653 13 1 
281.333 1.21254 8.80397 -0.00923641 0.440555 8.81507 13.6271 13 1 
282.667 1.21241 8.73369 -0.00926039 0.50124 8.7482 13.379 13 1 
284 1.21272 8.66919 -0.00929676 0.576052 8.68843 13.9401 13 1 
285.333 1.21362 8.60504 -0.00936357 0.656866 8.63026 15.561 13 1 
286.667 1.21381 8.53899 -0.00939994 0.741527 8.57131 15.9043 13 1 
288 1.21348 8.47866 -0.0094272 0.820742 8.51847 15.32 13 1 
289.333 1.2141 8.42154 -0.00948737 0.918273 8.47176 16.4288 13 1 
290.667 1.21483 8.3661 -0.00952897 1.01873 8.4281 17.7527 13 1 
292 1.21448 8.31638 -0.00953352 1.10362 8.3895 17.1284 13 1 
293.333 1.2144 8.26692 -0.00955737 1.19668 8.35334 16.9762 13 1 
294.667 1.21522 8.22546 -0.00959447 1.30499 8.32869 18.4606 13 1 
296 1.21551 8.1567 -0.0095961 1.37354 8.27186 18.9769 13 1 
297.333 1.21405 7.7159 -0.00953516 1.09191 7.80438 16.3498 13 1 
298.667 1.21028 6.715 -0.00947946 0.258647 6.76277 9.54449 13 1 
298.667 1.21028 6.715 -0.00947946 0.258647 6.76277 9.54449 14 1 
300 1.20535 5.61403 -0.00950829 -0.74426 5.7126 0.633826 14 1 
301.333 1.20176 4.87114 -0.00959368 -1.44209 5.10068 -5.84918 14 1 
302.667 1.20017 4.55746 -0.00967149 -1.70563 4.86782 -8.72656 14 1 
304 1.19958 4.49224 -0.00971337 -1.68106 4.79699 -9.79515 14 1 
305.333 1.19948 4.47687 -0.00970267 -1.57565 4.7465 -9.96979 14 1 
306.667 1.19976 4.46495 -0.0096477 -1.47215 4.70177 -9.46027 14 1 
308 1.19987 4.45389 -0.00963298 -1.37288 4.66111 -9.26921 14 1 
309.333 1.19972 4.43308 -0.00963742 -1.2724 4.61251 -9.54475 14 1 
310.667 1.19991 4.39808 -0.00957614 -1.17112 4.55168 -9.18855 14 1 
312 1.20021 4.35414 -0.00946683 -1.0688 4.48373 -8.6588 14 1 
313.333 1.2001 4.30723 -0.00938706 -0.956197 4.41251 -8.84463 14 1 
314.667 1.2002 4.25296 -0.00933488 -0.862453 4.3397 -8.6676 14 1 
316 1.20064 4.1931 -0.00927273 -0.785888 4.26635 -7.8723 14 1 
317.333 1.20072 4.13261 -0.00920627 -0.694016 4.19077 -7.72247 14 1 
318.667 1.2007 4.06398 -0.00912712 -0.610906 4.10983 -7.76719 14 1 
320 1.20106 3.98836 -0.00902372 -0.54762 4.02594 -7.11486 14 1 
320 1.20106 3.98836 -0.00902372 -0.54762 4.02594 -7.11486 14 1 
321.333 1.20133 3.91416 -0.0088947 -0.484789 3.94425 -6.62462 14 1 
322.667 1.2013 3.83902 -0.00874866 -0.423351 3.86245 -6.68686 14 1 
324 1.20148 3.7627 -0.00858762 -0.377766 3.78176 -6.35301 14 1 
325.333 1.20184 3.69029 -0.00843858 -0.338374 3.70589 -5.71557 14 1 
326.667 1.2019 3.61823 -0.00832185 -0.298976 3.63067 -5.60054 14 1 
328 1.20191 3.54434 -0.00819901 -0.267929 3.55456 -5.57416 14 1 
329.333 1.20218 3.47619 -0.00805064 -0.242617 3.48474 -5.08548 14 1 
330.667 1.20239 3.41328 -0.00791757 -0.218045 3.42033 -4.70766 14 1 
332 1.20239 3.34822 -0.00781107 -0.19776 3.35414 -4.71444 14 1 
333.333 1.20249 3.28445 -0.00770182 -0.182498 3.28959 -4.54051 14 1 
334.667 1.20272 3.22797 -0.00759189 -0.166774 3.23235 -4.12064 14 1 
336 1.20281 3.17275 -0.00751283 -0.151903 3.17645 -3.9498 14 1 
337.333 1.20282 3.11515 -0.00744984 -0.141515 3.11842 -3.94466 14 1 
338.667 1.20296 3.06346 -0.00737613 -0.132381 3.06637 -3.6918 14 1 
340 1.20313 3.01765 -0.00730719 -0.121592 3.02015 -3.38211 14 1 
341.333 1.20316 2.96799 -0.00725472 -0.112318 2.97017 -3.33177 14 1 
341.333 1.20316 2.96799 -0.00725472 -0.112318 2.97017 -3.33177 15 1 
342.667 1.20318 2.91704 -0.00720387 -0.105691 2.919 -3.2813 15 1 
344 1.20333 2.87414 -0.00715389 -0.0984721 2.87587 -3.01815 15 1 
345.333 1.20344 2.83538 -0.00710489 -0.0904235 2.83686 -2.81751 15 1 
346.667 1.20345 2.79166 -0.00705244 -0.0842198 2.79297 -2.79501 15 1 
348 1.20351 2.74642 -0.00700443 -0.0787555 2.74758 -2.69619 15 1 
349.333 1.20363 2.70794 -0.00695709 -0.0721509 2.70893 -2.48325 15 1 
350.667 1.20369 2.67304 -0.00690935 -0.0662405 2.6739 -2.3669 15 1 
352 1.20372 2.63465 -0.00686295 -0.0616073 2.63541 -2.32092 15 1 
353.333 1.20379 2.59533 -0.00681058 -0.0562443 2.59597 -2.18927 15 1 
354.667 1.20387 2.55997 -0.0067632 -0.0506448 2.5605 -2.04366 15 1 
356 1.2039 2.52683 -0.00672632 -0.0466604 2.52729 -1.97953 15 1 
357.333 1.20395 2.49337 -0.00667759 -0.04345 2.49379 -1.89955 15 1 
358.667 1.20402 2.46049 -0.00662523 -0.039446 2.46083 -1.76122 15 1 
360 1.20408 2.42864 -0.00659314 -0.03551 2.42893 -1.66729 15 1 
361.333 1.2041 2.39712 -0.00656097 -0.0328254 2.39738 -1.61955 15 1 
362.667 1.20416 2.36666 -0.00651662 -0.0301717 2.36688 -1.52284 15 1 
362.667 1.20416 2.36666 -0.00651662 -0.0301717 2.36688 -1.52284 15 1 
364 1.20422 2.33801 -0.00648977 -0.0264988 2.33819 -1.40162 15 1 
365.333 1.20426 2.3098 -0.00647899 -0.023138 2.30994 -1.33312 15 1 
366.667 1.20429 2.28112 -0.0064567 -0.0207618 2.28125 -1.27666 15 1 
368 1.20435 2.25345 -0.00643078 -0.0179733 2.25355 -1.17763 15 1 
369.333 1.2044 2.22765 -0.00642105 -0.0144812 2.22773 -1.08457 15 1 
370.667 1.20443 2.2025 -0.00642601 -0.0114841 2.20256 -1.02733 15 1 
372 1.20447 2.17746 -0.0064417 -0.00887891 2.17751 -0.953622 15 1 
373.333 1.20453 2.15329 -0.00646678 -0.00565988 2.15333 -0.855975 15 1 
374.667 1.20456 2.12986 -0.00650696 -0.00229932 2.12989 -0.786505 15 1 
376 1.20459 2.10691 -0.00658437 0.000465387 2.10694 -0.733653 15 1 
377.333 1.20464 2.08522 -0.00668611 0.00335967 2.08525 -0.649548 15 1 
378.667 1.20469 2.06455 -0.0067801 0.00683057 2.06459 -0.560328 15 1 
380 1.20472 2.04364 -0.00687816 0.0100171 2.04369 -0.504111 15 1 
381.333 1.20475 2.0229 -0.00698763 0.0127756 2.02298 -0.445818 15 1 
382.667 1.2048 2.00365 -0.00708206 0.0158813 2.00374 -0.362027 15 1 
384 1.20484 1.9855 -0.00715558 0.019315 1.98563 -0.289428 15 1 
384 1.20484 1.9855 -0.00715558 0.019315 1.98563 -0.289428 15 1 
385.333 1.20487 1.9673 -0.00722016 0.0224473 1.96746 -0.235215 15 1 
386.667 1.20491 1.94909 -0.00727356 0.0253744 1.94929 -0.168198 15 1 
388 1.20495 1.9317 -0.00731597 0.0285787 1.93194 -0.095192 15 1 
389.333 1.20498 1.91528 -0.007352 0.0319634 1.91558 -0.0385791 15 1 
390.667 1.20501 1.89931 -0.00738471 0.0351669 1.89967 0.0183351 15 1 
392 1.20505 1.88351 -0.00742002 0.0383036 1.88393 0.0897068 15 1 
393.333 1.20508 1.86809 -0.00745748 0.041529 1.86859 0.153111 15 1 
394.667 1.20511 1.85334 -0.00749963 0.0447169 1.85392 0.202304 15 1 
396 1.20515 1.83929 -0.00755432 0.0478083 1.83995 0.261938 15 1 
397.333 1.20518 1.82573 -0.00761148 0.050814 1.82647 0.330636 15 1 
398.667 1.20521 1.81244 -0.00766241 0.0536156 1.81327 0.385522 15 1 
400 1.20524 1.7996 -0.00771817 0.0562651 1.80051 0.434751 15 1 
401.333 1.20528 1.78741 -0.00778534 0.0589282 1.78842 0.496849 15 1 
402.667 1.20531 1.77559 -0.00785376 0.0614743 1.77669 0.5583 15 1 
404 1.20534 1.76385 -0.00792366 0.0637019 1.76504 0.605874 15 1 
405.333 1.20536 1.7526 -0.00801493 0.0658711 1.75387 0.657279 15 1 
405.333 1.20536 1.7526 -0.00801493 0.0658711 1.75387 0.657279 15 1 
406.667 1.2054 1.74199 -0.00813269 0.06822 1.74337 0.71951 15 1 
408 1.20543 1.73141 -0.00827243 0.070464 1.73289 0.772113 15 1 
409.333 1.20545 1.72079 -0.00843774 0.072453 1.72235 0.814613 15 1 
410.667 1.20548 1.7108 -0.00863764 0.0745288 1.71247 0.867098 15 1 
412 1.20551 1.70146 -0.00888015 0.0767916 1.70324 0.924772 15 1 
413.333 1.20554 1.69211 -0.00915936 0.078938 1.694 0.970609 15 1 
414.667 1.20556 1.68284 -0.00946706 0.0809086 1.68483 1.01252 15 1 
416 1.20559 1.67421 -0.00980591 0.0829321 1.67632 1.06355 15 1 
417.333 1.20562 1.66619 -0.0101788 0.0849392 1.66841 1.11413 15 1 
418.667 1.20564 1.65841 -0.0105742 0.0866504 1.66073 1.15606 15 1 
420 1.20566 1.65101 -0.0109748 0.0881195 1.65342 1.20044 15 1 
421.333 1.20569 1.64422 -0.0113824 0.0894791 1.64672 1.25112 15 1 
422.667 1.20572 1.63786 -0.011796 0.0904837 1.64043 1.29683 15 1 
424 1.20574 1.63183 -0.0121905 0.0909523 1.63443 1.33751 15 1 
425.333 1.20577 1.62637 -0.012557 0.0910779 1.62899 1.38381 15 1 
426.667 1.20579 1.62143 -0.0129065 0.0908983 1.62405 1.43328 15 1 
426.667 1.20579 1.62143 -0.0129065 0.0908983 1.62405 1.43328 20 1 
428 1.20582 1.61663 -0.0132329 0.0901531 1.61922 1.47641 20 1 
429.333 1.20584 1.61207 -0.013537 0.088831 1.61459 1.5183 20 1 
430.667 1.20587 1.60804 -0.013845 0.0871531 1.61048 1.56691 20 1 
432 1.20589 1.6043 -0.0141662 0.0851497 1.60664 1.61494 20 1 
433.333 1.20592 1.60041 -0.0144981 0.082811 1.60263 1.65687 20 1 
434.667 1.20594 1.59634 -0.0148471 0.0803718 1.59845 1.70008 20 1 
436 1.20597 1.59205 -0.0152122 0.0780961 1.59405 1.74686 20 1 
437.333 1.20599 1.58716 -0.0155834 0.0760942 1.58908 1.79069 20 1 
438.667 1.20601 1.58147 -0.0159567 0.0744539 1.58332 1.83177 20 1 
440 1.20604 1.57511 -0.0163413 0.0733222 1.57693 1.87607 20 1 
441.333 1.20606 1.56818 -0.0167641 0.0727387 1.56998 1.92161 20 1 
442.667 1.20609 1.56073 -0.0172494 0.0725421 1.56254 1.96294 20 1 
444 1.20611 1.55322 -0.0178137 0.0726204 1.55504 2.00382 20 1 
445.333 1.20613 1.5462 -0.0184719 0.0729734 1.54806 2.04903 20 1 
446.667 1.20616 1.53993 -0.0192347 0.0734776 1.54183 2.09458 20 1 
448 1.20618 1.53459 -0.0201029 0.0739314 1.53652 2.13725 20 1 
448 1.20618 1.53459 -0.0201029 0.0739314 1.53652 2.13725 20 1 
449.333 1.20621 1.53062 -0.0210627 0.07428 1.53259 2.18099 20 1 
450.667 1.20623 1.52843 -0.0221045 0.0745628 1.53043 2.22813 20 1 
452 1.20626 1.52798 -0.0232195 0.0747298 1.53 2.27442 20 1 
453.333 1.20628 1.52926 -0.0243855 0.0747447 1.5313 2.31857 20 1 
454.667 1.20631 1.5325 -0.0255893 0.0747093 1.53455 2.36509 20 1 
456 1.20634 1.53763 -0.0268278 0.0746825 1.5397 2.41347 20 1 
457.333 1.20636 1.54442 -0.0280819 0.0746286 1.5465 2.45965 20 1 
458.667 1.20639 1.55284 -0.0293438 0.0746288 1.55494 2.50547 20 1 
460 1.20641 1.56293 -0.0306096 0.0748126 1.56505 2.55372 20 1 
461.333 1.20644 1.57438 -0.031872 0.0751674 1.57652 2.60158 20 1 
462.667 1.20647 1.5869 -0.0331188 0.07565 1.58908 2.6467 20 1 
464 1.20649 1.60049 -0.034342 0.0763339 1.60272 2.69163 20 1 
465.333 1.20652 1.6151 -0.0355468 0.0773121 1.61738 2.73793 20 1 
466.667 1.20654 1.63044 -0.0367307 0.0785447 1.63279 2.78297 20 1 
468 1.20656 1.64628 -0.0378895 0.0799556 1.64871 2.82573 20 1 
469.333 1.20659 1.6626 -0.0390107 0.0815965 1.66511 2.86819 20 1 
469.333 1.20659 1.6626 -0.0390107 0.0815965 1.66511 2.86819 20 1 
470.667 1.20661 1.67933 -0.0400916 0.0835057 1.68195 2.91033 20 1 
472 1.20663 1.6963 -0.0411224 0.0856272 1.69903 2.95047 20 1 
473.333 1.20665 1.71338 -0.0420853 0.0879187 1.71623 2.98861 20 1 
474.667 1.20668 1.73053 -0.042963 0.090381 1.73351 3.02623 20 1 
476 1.2067 1.74764 -0.0437492 0.092999 1.75076 3.06321 20 1 
477.333 1.20671 1.76455 -0.0444582 0.0957323 1.7678 3.09776 20 1 
478.667 1.20673 1.78116 -0.0451015 0.0985708 1.78456 3.1305 20 1 
480 1.20675 1.79748 -0.0457228 0.1015 1.80103 3.16312 20 1 
481.333 1.20677 1.81345 -0.046366 0.104482 1.81716 3.19498 20 1 
482.667 1.20679 1.82899 -0.0470429 0.107522 1.83287 3.22485 20 1 
484 1.2068 1.84403 -0.0477418 0.110669 1.84809 3.25329 20 1 
485.333 1.20682 1.85834 -0.0484149 0.113995 1.8626 3.28127 20 1 
486.667 1.20683 1.87153 -0.0489686 0.11764 1.876 3.30804 20 1 
488 1.20685 1.88302 -0.0492702 0.121774 1.88775 3.33299 20 1 
489.333 1.20686 1.89211 -0.0491769 0.126523 1.89714 3.35682 20 1 
490.667 1.20687 1.89815 -0.0485564 0.1319 1.90351 3.37948 20 1 
490.667 1.20687 1.89815 -0.0485564 0.1319 1.90351 3.37948 20 1 
492 1.20688 1.90083 -0.0472989 0.137733 1.90657 3.40032 20 1 
493.333 1.20689 1.9003 -0.0453485 0.143596 1.90642 3.41962 20 1 
494.667 1.2069 1.89718 -0.0427027 0.148834 1.90364 3.43835 20 1 
496 1.20691 1.8926 -0.0394352 0.152602 1.89928 3.45595 20 1 
497.333 1.20692 1.88808 -0.0357167 0.154065 1.89479 3.47102 20 1 
498.667 1.20693 1.88519 -0.0317782 0.152608 1.89169 3.48454 20 1 
500 1.20694 1.8853 -0.027915 0.147886 1.89135 3.49789 20 1 
501.333 1.20694 1.88935 -0.0244344 0.139876 1.89473 3.50973 20 1 
502.667 1.20695 1.89779 -0.0215889 0.128935 1.90237 3.51892 20 1 
504 1.20695 1.91063 -0.0195708 0.115743 1.91438 3.52695 20 1 
505.333 1.20696 1.92751 -0.0184876 0.101037 1.93046 3.53471 20 1 
506.667 1.20696 1.94791 -0.0183463 0.0855194 1.95017 3.54082 20 1 
508 1.20696 1.97126 -0.0190838 0.0698436 1.97296 3.5452 20 1 
509.333 1.20697 1.99693 -0.0206139 0.0545427 1.99824 3.54983 20 1 
510.667 1.20697 2.02441 -0.0228209 0.0399841 2.02546 3.55429 20 1 
512 1.20697 2.05333 -0.0255656 0.0263854 2.05427 3.55652 20 1 
512 1.20697 2.05333 -0.0255656 0.0263854 2.05427 3.55652 21 1 
513.333 1.20697 2.08351 -0.02873 0.0138534 2.08442 3.55815 21 1 
514.667 1.20697 2.11471 -0.032217 0.00246187 2.11569 3.56118 21 1 
516 1.20697 2.14677 -0.0359462 -0.00775776 2.14789 3.5637 21 1 
517.333 1.20697 2.17967 -0.0398266 -0.0168686 2.18095 3.5647 21 1 
518.667 1.20697 2.21336 -0.0437916 -0.0249313 2.21484 3.5665 21 1 
520 1.20698 2.24778 -0.0477992 -0.0319625 2.24947 3.56992 21 1 
521.333 1.20698 2.28289 -0.0518019 -0.0379938 2.28479 3.57223 21 1 
522.667 1.20698 2.31868 -0.0557597 -0.0431135 2.32078 3.5729 21 1 
524 1.20698 2.35506 -0.0596339 -0.047397 2.35736 3.57465 21 1 
525.333 1.20698 2.392 -0.0634082 -0.0508559 2.39447 3.57683 21 1 
526.667 1.20698 2.42946 -0.0670704 -0.0535282 2.4321 3.57702 21 1 
528 1.20698 2.46741 -0.0705909 -0.0554823 2.47018 3.57669 21 1 
529.333 1.20698 2.50575 -0.0739668 -0.0567707 2.50864 3.5779 21 1 
530.667 1.20698 2.54445 -0.0771952 -0.0574164 2.54744 3.57853 21 1 
532 1.20698 2.58345 -0.0802665 -0.0574494 2.58652 3.57671 21 1 
533.333 1.20698 2.62268 -0.0831803 -0.0569038 2.62581 3.57513 21 1 
533.333 1.20698 2.62268 -0.0831803 -0.0569038 2.62581 3.57513 21 1 
534.667 1.20698 2.66211 -0.0859457 -0.0558076 2.66528 3.5749 21 1 
536 1.20698 2.70168 -0.0885618 -0.0542243 2.70488 3.57245 21 1 
537.333 1.20698 2.74135 -0.0910268 -0.0521693 2.74455 3.56758 21 1 
538.667 1.20697 2.78105 -0.0933518 -0.0496325 2.78426 3.56414 21 1 
540 1.20697 2.82076 -0.0955414 -0.0466485 2.82396 3.56136 21 1 
541.333 1.20697 2.86045 -0.0976053 -0.0432765 2.86364 3.55608 21 1 
542.667 1.20697 2.9001 -0.0995464 -0.039548 2.90327 3.55023 21 1 
544 1.20696 2.93965 -0.101383 -0.0354463 2.9428 3.54618 21 1 
545.333 1.20696 2.97904 -0.103122 -0.0309872 2.98217 3.54062 21 1 
546.667 1.20696 3.01828 -0.104762 -0.0262361 3.02138 3.53181 21 1 
548 1.20695 3.05736 -0.106312 -0.0212248 3.06044 3.52383 21 1 
549.333 1.20695 3.09624 -0.107788 -0.0159553 3.09931 3.51768 21 1 
550.667 1.20694 3.13489 -0.109194 -0.0104401 3.13796 3.50931 21 1 
552 1.20694 3.17331 -0.110538 -0.00473841 3.17637 3.49868 21 1 
553.333 1.20693 3.21147 -0.111824 0.00112041 3.21455 3.48964 21 1 
554.667 1.20693 3.24937 -0.113059 0.00712414 3.25246 3.48097 21 1 
554.667 1.20693 3.24937 -0.113059 0.00712414 3.25246 3.48097 22 1 
556 1.20692 3.28702 -0.114252 0.013225 3.29014 3.469 22 1 
557.333 1.20691 3.32439 -0.115402 0.0193958 3.32755 3.45619 22 1 
558.667 1.20691 3.36146 -0.11651 0.0256164 3.36467 3.44521 22 1 
560 1.2069 3.39825 -0.117588 0.0318286 3.40152 3.43283 22 1 
561.333 1.20689 3.4348 -0.118637 0.037988 3.43813 3.4178 22 1 
562.667 1.20688 3.4711 -0.11965 0.0440873 3.47451 3.40399 22 1 
564 1.20688 3.50712 -0.120634 0.0500984 3.51061 3.39191 22 1 
565.333 1.20687 3.54289 -0.121593 0.055949 3.54647 3.37679 22 1 
566.667 1.20686 3.57845 -0.122506 0.0616027 3.58211 3.35977 22 1 
568 1.20685 3.61379 -0.123384 0.0670625 3.61755 3.34547 22 1 
569.333 1.20684 3.64894 -0.124233 0.0722836 3.65278 3.33139 22 1 
570.667 1.20683 3.68393 -0.125032 0.0772041 3.68786 3.31446 22 1 
572 1.20683 3.71877 -0.125782 0.0817867 3.72278 3.29824 22 1 
573.333 1.20682 3.75346 -0.126477 0.0860408 3.75755 3.28519 22 1 
574.667 1.20681 3.78807 -0.127114 0.0899053 3.79223 3.27092 22 1 
576 1.2068 3.82262 -0.1277 0.0933411 3.82684 3.25475 22 1 
576 1.2068 3.82262 -0.1277 0.0933411 3.82684 3.25475 22 1 
577.333 1.20679 3.85711 -0.12821 0.0963378 3.86137 3.2415 22 1 
578.667 1.20679 3.89157 -0.12866 0.0988559 3.89585 3.22993 22 1 
580 1.20678 3.92602 -0.129053 0.100883 3.93032 3.21644 22 1 
581.333 1.20677 3.96052 -0.129364 0.102373 3.96482 3.20269 22 1 
582.667 1.20677 3.99508 -0.129618 0.103325 3.99936 3.19227 22 1 
584 1.20676 4.0297 -0.129818 0.103703 4.03395 3.1828 22 1 
585.333 1.20676 4.06446 -0.129955 0.103471 4.06865 3.17083 22 1 
586.667 1.20675 4.09936 -0.130054 0.102653 4.10347 3.16095 22 1 
588 1.20675 4.13441 -0.130111 0.101231 4.13844 3.15431 22 1 
589.333 1.20674 4.16966 -0.130148 0.0991777 4.17358 3.14625 22 1 
590.667 1.20674 4.20514 -0.130179 0.0964725 4.20895 3.1366 22 1 
592 1.20673 4.24084 -0.130198 0.0931691 4.24453 3.12945 22 1 
593.333 1.20673 4.27678 -0.130242 0.0892587 4.28033 3.12416 22 1 
594.667 1.20673 4.31302 -0.130329 0.0847202 4.31642 3.1167 22 1 
596 1.20672 4.34957 -0.130462 0.0796012 4.35283 3.10981 22 1 
597.333 1.20672 4.38642 -0.130657 0.0739401 4.38953 3.10621 22 1 
597.333 1.20672 4.38642 -0.130657 0.0739401 4.38953 3.10621 24 1 
598.667 1.20672 4.42355 -0.130956 0.0677645 4.42652 3.10202 24 1 
600 1.20671 4.46101 -0.13134 0.0610836 4.46385 3.09543 24 1 
601.333 1.20671 4.49879 -0.131831 0.053989 4.5015 3.09054 24 1 
602.667 1.20671 4.53688 -0.132443 0.0465386 4.53948 3.0884 24 1 
604 1.20671 4.57527 -0.133188 0.0387502 4.57778 3.08485 24 1 
605.333 1.20671 4.61393 -0.134069 0.0307048 4.61636 3.08047 24 1 
606.667 1.2067 4.65287 -0.135069 0.0225083 4.65524 3.0783 24 1 
608 1.2067 4.69204 -0.136213 0.0142211 4.69438 3.07775 24 1 
609.333 1.2067 4.73141 -0.137476 0.00588279 4.73373 3.07546 24 1 
610.667 1.2067 4.77098 -0.138849 -0.0024006 4.7733 3.07286 24 1 
612 1.2067 4.81066 -0.140337 -0.0105127 4.81301 3.0738 24 1 
613.333 1.2067 4.85042 -0.141932 -0.0184085 4.8528 3.07492 24 1 
614.667 1.2067 4.8902 -0.143605 -0.0260224 4.89265 3.07371 24 1 
616 1.2067 4.93 -0.145364 -0.0332424 4.93253 3.07384 24 1 
617.333 1.2067 4.96974 -0.147197 -0.0399843 4.97235 3.07725 24 1 
618.667 1.2067 5.00933 -0.14907 -0.0462138 5.01204 3.07937 24 1 
618.667 1.2067 5.00933 -0.14907 -0.0462138 5.01204 3.07937 24 1 
620 1.2067 5.04877 -0.151005 -0.0518625 5.05159 3.07939 24 1 
621.333 1.20671 5.08802 -0.152962 -0.0568075 5.09094 3.08202 24 1 
622.667 1.20671 5.12699 -0.15494 -0.0610315 5.13003 3.08682 24 1 
624 1.20671 5.1657 -0.156937 -0.0644934 5.16884 3.08814 24 1 
625.333 1.20671 5.2041 -0.158926 -0.0671139 5.20735 3.08896 24 1 
626.667 1.20671 5.24213 -0.160892 -0.0688229 5.24548 3.09381 24 1 
628 1.20671 5.27977 -0.162838 -0.0696262 5.28323 3.09749 24 1 
629.333 1.20671 5.31707 -0.164741 -0.0694718 5.32061 3.0971 24 1 
630.667 1.20672 5.35399 -0.166606 -0.0683009 5.35762 3.09872 24 1 
632 1.20672 5.3904 -0.168411 -0.0660968 5.39411 3.10404 24 1 
633.333 1.20672 5.42645 -0.170174 -0.0628432 5.43023 3.10368 24 1 
634.667 1.20672 5.46214 -0.171902 -0.0585515 5.46599 3.10123 24 1 
636 1.20672 5.49731 -0.173524 -0.053146 5.50122 3.10528 24 1 
637.333 1.20672 5.53214 -0.175123 -0.0466348 5.53613 3.10609 24 1 
638.667 1.20672 5.56665 -0.176684 -0.039048 5.57071 3.10134 24 1 
640 1.20672 5.60072 -0.17813 -0.0303678 5.60485 3.10143 24 1 
640 1.20672 5.60072 -0.17813 -0.0303678 5.60485 3.10143 24 1 
641.333 1.20672 5.63457 -0.179566 -0.0205116 5.6388 3.10205 24 1 
642.667 1.20671 5.66821 -0.180949 -0.00961283 5.67255 3.09766 24 1 
644 1.20671 5.70159 -0.182189 0.00238617 5.70606 3.09348 24 1 
645.333 1.20671 5.73493 -0.183425 0.0155524 5.73956 3.09088 24 1 
646.667 1.20671 5.76827 -0.184557 0.0297413 5.77308 3.08664 24 1 
648 1.20671 5.80159 -0.185523 0.0450505 5.80663 3.08046 24 1 
649.333 1.2067 5.83517 -0.186491 0.0613773 5.84047 3.07342 24 1 
650.667 1.2067 5.86893 -0.187227 0.0787845 5.87454 3.06836 24 1 
652 1.20669 5.90302 -0.187868 0.0971998 5.909 3.0606 24 1 
653.333 1.20669 5.93755 -0.18838 0.116573 5.94395 3.04923 24 1 
654.667 1.20668 5.97255 -0.188657 0.136909 5.97945 3.03959 24 1 
656 1.20668 6.00813 -0.18882 0.158117 6.01558 3.02969 24 1 
657.333 1.20667 6.04431 -0.188747 0.180177 6.05241 3.01694 24 1 
658.667 1.20666 6.08116 -0.188468 0.203029 6.08998 3.00314 24 1 
660 1.20666 6.11866 -0.187944 0.226597 6.12827 2.98953 24 1 
661.333 1.20665 6.1568 -0.1872 0.250792 6.1673 2.97504 24 1 
661.333 1.20665 6.1568 -0.1872 0.250792 6.1673 2.97504 24 1 
662.667 1.20664 6.19552 -0.186177 0.275673 6.207 2.95753 24 1 
664 1.20663 6.23484 -0.184881 0.300962 6.2474 2.93845 24 1 
665.333 1.20662 6.27453 -0.183309 0.326759 6.28824 2.92119 24 1 
666.667 1.20661 6.31454 -0.181453 0.352934 6.32952 2.90126 24 1 
668 1.20659 6.35471 -0.179309 0.379258 6.37102 2.87954 24 1 
669.333 1.20658 6.39486 -0.176936 0.405821 6.4126 2.85646 24 1 
670.667 1.20657 6.43473 -0.174308 0.432418 6.45399 2.83409 24 1 
672 1.20656 6.47419 -0.171487 0.458918 6.49502 2.80882 24 1 
673.333 1.20654 6.51304 -0.168501 0.485296 6.53552 2.78141 24 1 
674.667 1.20653 6.55099 -0.16533 0.51135 6.57519 2.75648 24 1 
676 1.20651 6.58789 -0.162069 0.537024 6.61384 2.73023 24 1 
677.333 1.2065 6.62352 -0.158719 0.562215 6.65127 2.70264 24 1 
678.667 1.20648 6.65775 -0.155311 0.586707 6.68731 2.67342 24 1 
680 1.20647 6.69036 -0.151946 0.610556 6.72174 2.64626 24 1 
681.333 1.20645 6.72137 -0.148661 0.633562 6.75457 2.6186 24 1 
682.667 1.20643 6.75074 -0.14552 0.655609 6.78574 2.5899 24 1 
682.667 1.20643 6.75074 -0.14552 0.655609 6.78574 2.5899 31 1 
684 1.20642 6.77841 -0.142661 0.676742 6.81519 2.56486 31 1 
685.333 1.20641 6.80455 -0.140085 0.69684 6.84307 2.53959 31 1 
686.667 1.20639 6.82912 -0.137937 0.715815 6.86931 2.51655 31 1 
688 1.20638 6.85231 -0.13624 0.733753 6.89414 2.49359 31 1 
689.333 1.20637 6.87428 -0.135107 0.750692 6.91769 2.47073 31 1 
690.667 1.20636 6.89491 -0.134555 0.766498 6.93983 2.45401 31 1 
692 1.20635 6.91464 -0.134671 0.781376 6.96102 2.43489 31 1 
693.333 1.20634 6.93335 -0.135534 0.795309 6.98112 2.41813 31 1 
694.667 1.20633 6.95107 -0.137086 0.808374 7.00018 2.4063 31 1 
696 1.20632 6.96805 -0.139435 0.820619 7.01846 2.39214 31 1 
697.333 1.20632 6.98404 -0.142491 0.832056 7.03569 2.38121 31 1 
698.667 1.20631 6.9993 -0.146267 0.842737 7.05214 2.37035 31 1 
700 1.20631 7.01371 -0.150652 0.852564 7.06767 2.36198 31 1 
701.333 1.2063 7.02725 -0.155665 0.861563 7.08227 2.35631 31 1 
702.667 1.2063 7.04002 -0.161129 0.869531 7.09602 2.3487 31 1 
704 1.2063 7.05186 -0.166988 0.876466 7.10872 2.34525 31 1 
704 1.2063 7.05186 -0.166988 0.876466 7.10872 2.34525 31 1 
705.333 1.2063 7.06278 -0.173227 0.882179 7.12041 2.34375 31 1 
706.667 1.2063 7.07277 -0.179659 0.886462 7.131 2.34233 31 1 
708 1.2063 7.08196 -0.186314 0.889185 7.14063 2.34254 31 1 
709.333 1.2063 7.09035 -0.193142 0.890085 7.14926 2.34745 31 1 
710.667 1.2063 7.09807 -0.200064 0.888881 7.15699 2.35598 31 1 
712 1.20631 7.10539 -0.207079 0.885553 7.16407 2.36214 31 1 
713.333 1.20631 7.11236 -0.214073 0.879709 7.1705 2.3725 31 1 
714.667 1.20632 7.11912 -0.220805 0.87129 7.17643 2.39117 31 1 
716 1.20633 7.12597 -0.227321 0.860177 7.18213 2.40639 31 1 
717.333 1.20634 7.13309 -0.233192 0.846125 7.18776 2.42272 31 1 
718.667 1.20636 7.14041 -0.238424 0.829441 7.1933 2.45151 31 1 
720 1.20637 7.14822 -0.242996 0.809865 7.19902 2.47515 31 1 
721.333 1.20638 7.1564 -0.246517 0.787528 7.20483 2.49719 31 1 
722.667 1.2064 7.16479 -0.249187 0.762855 7.21065 2.5285 31 1 
724 1.20642 7.17355 -0.251084 0.735646 7.21664 2.55751 31 1 
725.333 1.20643 7.18242 -0.251717 0.706492 7.2226 2.58419 31 1 
725.333 1.20643 7.18242 -0.251717 0.706492 7.2226 2.58419 31 1 
726.667 1.20645 7.19139 -0.251634 0.675508 7.2286 2.61405 31 1 
728 1.20646 7.20054 -0.250912 0.643028 7.23475 2.64357 31 1 
729.333 1.20648 7.20974 -0.249209 0.609636 7.24099 2.6721 31 1 
730.667 1.20649 7.21917 -0.247462 0.57529 7.24756 2.69769 31 1 
732 1.20651 7.22898 -0.244823 0.540508 7.25459 2.72228 31 1 
733.333 1.20652 7.23921 -0.241981 0.505463 7.26221 2.75103 31 1 
734.667 1.20653 7.25037 -0.239187 0.470109 7.2709 2.76985 31 1 
736 1.20654 7.26277 -0.235919 0.435041 7.28101 2.7858 31 1 
737.333 1.20656 7.27626 -0.233287 0.400022 7.29242 2.81322 31 1 
738.667 1.20656 7.29137 -0.230612 0.365253 7.30562 2.82515 31 1 
740 1.20657 7.30785 -0.227925 0.331025 7.32039 2.83183 31 1 
741.333 1.20658 7.32562 -0.226056 0.297053 7.33664 2.85041 31 1 
742.667 1.20658 7.34511 -0.224458 0.263739 7.3548 2.85898 31 1 
744 1.20659 7.36566 -0.223109 0.231251 7.37419 2.86755 31 1 
745.333 1.20659 7.38778 -0.222686 0.199565 7.39535 2.8756 31 1 
746.667 1.2066 7.41131 -0.222492 0.169043 7.41807 2.88909 31 1 
746.667 1.2066 7.41131 -0.222492 0.169043 7.41807 2.88909 31 1 
748 1.20661 7.43614 -0.222424 0.139956 7.44225 2.90249 31 1 
749.333 1.20661 7.46266 -0.223003 0.111934 7.46826 2.91026 31 1 
750.667 1.20662 7.49034 -0.223665 0.0854889 7.49555 2.93418 31 1 
752 1.20663 7.5196 -0.224032 0.060711 7.52452 2.95309 31 1 
753.333 1.20664 7.55057 -0.224723 0.037118 7.55528 2.96872 31 1 
754.667 1.20666 7.58288 -0.22531 0.0151953 7.58746 3.00093 31 1 
756 1.20668 7.61653 -0.225241 -0.00488967 7.62103 3.03391 31 1 
757.333 1.20669 7.65195 -0.225152 -0.0238824 7.6564 3.05226 31 1 
758.667 1.20671 7.68787 -0.224804 -0.0407252 7.69231 3.09449 31 1 
760 1.20673 7.72526 -0.224134 -0.0562079 7.7297 3.1281 31 1 
761.333 1.20675 7.76371 -0.222776 -0.0702685 7.76814 3.15443 31 1 
762.667 1.20678 7.80134 -0.221084 -0.08211 7.80576 3.21051 31 1 
764 1.20679 7.84088 -0.219324 -0.0926812 7.84528 3.22466 31 1 
765.333 1.20681 7.87903 -0.216691 -0.101692 7.8834 3.27347 31 1 
766.667 1.20684 7.91663 -0.213731 -0.108549 7.92093 3.3176 31 1 
768 1.20684 7.95441 -0.210152 -0.114737 7.95863 3.32899 31 1 
768 1.20684 7.95441 -0.210152 -0.114737 7.95863 3.32899 32 1 
769.333 1.20687 7.98995 -0.206671 -0.118808 7.99407 3.37956 32 1 
770.667 1.20689 8.02536 -0.202524 -0.121765 8.02935 3.41098 32 1 
772 1.20691 8.05875 -0.198094 -0.123638 8.0626 3.44342 32 1 
773.333 1.20692 8.0904 -0.193655 -0.12356 8.09408 3.47086 32 1 
774.667 1.20694 8.12064 -0.188597 -0.123813 8.12415 3.49928 32 1 
776 1.20696 8.14892 -0.183626 -0.122793 8.15225 3.53437 32 1 
777.333 1.20698 8.1747 -0.178378 -0.120806 8.17784 3.56975 32 1 
778.667 1.20698 8.19985 -0.173296 -0.118375 8.2028 3.57524 32 1 
780 1.20701 8.22221 -0.168295 -0.115832 8.22499 3.62166 32 1 
781.333 1.20703 8.24342 -0.16338 -0.113353 8.24603 3.6575 32 1 
782.667 1.20703 8.26405 -0.158474 -0.110928 8.2665 3.66217 32 1 
784 1.20706 8.28097 -0.153914 -0.10834 8.28328 3.72768 32 1 
785.333 1.20707 8.29749 -0.149319 -0.10596 8.29966 3.74616 32 1 
786.667 1.20708 8.31319 -0.145332 -0.103686 8.31523 3.75391 32 1 
788 1.20711 8.32743 -0.141467 -0.102439 8.32938 3.81511 32 1 
789.333 1.20714 8.34211 -0.136734 -0.101821 8.34395 3.85846 32 1 
790.667 1.20715 8.35639 -0.133023 -0.101948 8.35816 3.88026 32 1 
792 1.20718 8.36798 -0.129988 -0.101907 8.36969 3.93958 32 1 
793.333 1.20719 8.38102 -0.128079 -0.10303 8.3827 3.94959 32 1 
794.667 1.20719 8.39598 -0.125903 -0.106029 8.39766 3.96199 32 1 
796 1.20724 8.41191 -0.124476 -0.110584 8.41362 4.03914 32 1 
797.333 1.20725 8.42712 -0.125583 -0.11693 8.42893 4.06147 32 1 
798.667 1.20715 8.45021 -0.130777 -0.125548 8.45223 3.88441 32 1 
800 1.20706 8.4668 -0.135423 -0.131325 8.46897 3.72069 32 1 
