115.923;r ;Density                 ;Velocity u              ;Velocity v              ;Velocity w              ;|Velocity|              ;Pressure                ;Distribution            ;Levels                  ;
0 1.21301 9.99543 -0.00021953 -0.000539904 9.99543 14.4704 1 1 
1.33334 1.21298 9.99557 0.000565328 0.000697994 9.99557 14.4084 1 1 
2.66666 1.21288 9.99516 0.00218739 0.0032405 9.99517 14.2409 1 1 
4 1.21283 9.99462 0.00366971 0.00553334 9.99464 14.1435 1 1 
5.33334 1.21279 9.99433 0.00468369 0.00708754 9.99436 14.0749 1 1 
6.66666 1.21268 9.99362 0.00553766 0.0084621 9.99366 13.8665 1 1 
8 1.21258 9.99338 0.00637307 0.00978341 9.99343 13.6841 1 1 
9.33334 1.21248 9.99286 0.00679754 0.0104357 9.99292 13.5047 1 1 
10.6667 1.21233 9.99237 0.00718727 0.0110855 9.99244 13.2412 1 1 
12 1.21221 9.99286 0.00739305 0.0114566 9.99293 13.0216 1 1 
13.3333 1.21207 9.99235 0.00712383 0.0111258 9.99242 12.7719 1 1 
14.6667 1.21193 9.99181 0.00686191 0.0108189 9.99188 12.5193 1 1 
16 1.21185 9.99254 0.00633858 0.0100522 9.9926 12.3721 1 1 
17.3333 1.21174 9.99265 0.00552144 0.00884836 9.9927 12.182 1 1 
18.6667 1.21167 9.99224 0.00476853 0.00772702 9.99227 12.0448 1 1 
20 1.21165 9.99248 0.00367566 0.00600991 9.9925 12.0135 1 1 
21.3333 1.21161 9.99286 0.002484 0.00415811 9.99287 11.9483 1 1 
21.3333 1.21161 9.99286 0.002484 0.00415811 9.99287 11.9483 1 1 
22.6667 1.21164 9.99303 0.00140927 0.00246197 9.99304 11.9883 1 1 
24 1.2117 9.99266 1.12283e-06 0.000212558 9.99267 12.1039 1 1 
25.3333 1.21176 9.99243 -0.00132958 -0.00190289 9.99244 12.2101 1 1 
26.6667 1.21189 9.99312 -0.00254319 -0.00386415 9.99314 12.4382 1 1 
28 1.21203 9.99253 -0.0039302 -0.00611478 9.99256 12.6995 1 1 
29.3333 1.21218 9.99143 -0.00504826 -0.00799122 9.99147 12.9603 1 1 
30.6667 1.21237 9.99182 -0.00610505 -0.00981668 9.99188 13.3145 1 1 
32 1.21256 9.99142 -0.00715933 -0.0115907 9.99149 13.6561 1 1 
33.3333 1.21276 9.99013 -0.00775929 -0.0126939 9.99021 14.0249 1 1 
34.6667 1.21299 9.98952 -0.00831792 -0.0137752 9.98961 14.4255 1 1 
36 1.21315 9.98899 -0.00870892 -0.0145493 9.98909 14.7255 1 1 
37.3333 1.21335 9.98789 -0.00864512 -0.0146211 9.98799 15.0822 1 1 
38.6667 1.21355 9.9865 -0.00853787 -0.014663 9.98659 15.4504 1 1 
40 1.21368 9.98538 -0.00813379 -0.0142237 9.98547 15.6821 1 1 
41.3333 1.21382 9.98454 -0.00739476 -0.0132824 9.98461 15.9262 1 1 
42.6667 1.21394 9.98269 -0.00671242 -0.0123989 9.98276 16.1537 1 1 
42.6667 1.21394 9.98269 -0.00671242 -0.0123989 9.98276 16.1537 2 1 
44 1.21404 9.98085 -0.00565741 -0.0109095 9.98089 16.321 2 1 
45.3333 1.21411 9.98058 -0.00436466 -0.00910655 9.98061 16.4614 2 1 
46.6667 1.21413 9.97904 -0.00309279 -0.00728839 9.97906 16.4906 2 1 
48 1.21414 9.97676 -0.00150861 -0.00496321 9.97677 16.5162 2 1 
49.3333 1.21417 9.9763 0.000109477 -0.00263555 9.97631 16.5593 2 1 
50.6667 1.2141 9.97585 0.00176256 -0.000201368 9.97586 16.4292 2 1 
52 1.214 9.97415 0.0036168 0.00254645 9.97417 16.2645 2 1 
53.3333 1.21393 9.97286 0.0052377 0.004916 9.9729 16.1337 2 1 
54.6667 1.2138 9.97298 0.00685012 0.00732732 9.97303 15.8938 2 1 
56 1.21365 9.97306 0.00851524 0.0098356 9.97313 15.625 2 1 
57.3333 1.21349 9.97146 0.00976862 0.0117023 9.97154 15.3277 2 1 
58.6667 1.2133 9.97069 0.0109239 0.0134396 9.97079 14.9987 2 1 
60 1.21315 9.9721 0.011919 0.0149282 9.97222 14.7288 2 1 
61.3333 1.21297 9.97162 0.0125105 0.0158122 9.97174 14.3891 2 1 
62.6667 1.21277 9.97014 0.0130142 0.0165795 9.97027 14.0324 2 1 
64 1.21263 9.97093 0.0131716 0.0167591 9.97106 13.7886 2 1 
64 1.21263 9.97093 0.0131716 0.0167591 9.97106 13.7886 2 1 
65.3333 1.21247 9.97216 0.0129655 0.0164566 9.97227 13.4879 2 1 
66.6667 1.21231 9.97141 0.0127184 0.0161322 9.9715 13.2106 2 1 
68 1.2122 9.97086 0.0120876 0.0151413 9.97094 13.0062 2 1 
69.3333 1.21207 9.97195 0.0112148 0.0138173 9.97201 12.7777 2 1 
70.6667 1.21199 9.9728 0.0103007 0.0124494 9.97284 12.6304 2 1 
72 1.21194 9.97196 0.0090191 0.0105147 9.97199 12.5273 2 1 
73.3333 1.21188 9.97153 0.00764351 0.00843967 9.97155 12.4327 2 1 
74.6667 1.21188 9.97329 0.00619877 0.00624018 9.9733 12.4187 2 1 
76 1.21189 9.97303 0.00453068 0.003732 9.97304 12.4499 2 1 
77.3333 1.21194 9.9715 0.00299142 0.00142141 9.97151 12.5413 2 1 
78.6667 1.21203 9.97256 0.0013651 -0.00106455 9.97258 12.6967 2 1 
80 1.21211 9.97314 -0.000310996 -0.00358693 9.97318 12.8363 2 1 
81.3333 1.21223 9.97172 -0.00169026 -0.00566336 9.97177 13.0606 2 1 
82.6667 1.21241 9.97097 -0.00312715 -0.00790897 9.97104 13.377 2 1 
84 1.21253 9.97153 -0.00445687 -0.00994295 9.97161 13.609 2 1 
85.3333 1.21269 9.97128 -0.00540461 -0.0113679 9.97136 13.8828 2 1 
85.3333 1.21269 9.97128 -0.00540461 -0.0113679 9.97136 13.8828 3 1 
86.6667 1.21289 9.96938 -0.00638965 -0.0129242 9.96947 14.2583 3 1 
88 1.21307 9.96903 -0.00718087 -0.0141447 9.96912 14.5682 3 1 
89.3333 1.21323 9.96976 -0.00755886 -0.0147163 9.96986 14.8733 3 1 
90.6667 1.21341 9.96795 -0.00785603 -0.0152079 9.96804 15.1929 3 1 
92 1.21359 9.96584 -0.00787784 -0.0153121 9.96592 15.5091 3 1 
93.3333 1.21375 9.96644 -0.0075971 -0.0149498 9.96651 15.8079 3 1 
94.6667 1.21387 9.96602 -0.00713614 -0.0142591 9.96607 16.0158 3 1 
96 1.21399 9.96326 -0.00640482 -0.0132103 9.9633 16.2393 3 1 
97.3333 1.2141 9.96245 -0.0055685 -0.0120444 9.96248 16.4376 3 1 
98.6667 1.21414 9.96283 -0.00448566 -0.0104056 9.96285 16.5122 3 1 
100 1.21418 9.96126 -0.0031689 -0.00844416 9.96127 16.5785 3 1 
101.333 1.21419 9.95877 -0.00197847 -0.00673544 9.95878 16.5921 3 1 
102.667 1.21414 9.9585 -0.000529305 -0.00459425 9.95851 16.5133 3 1 
104 1.2141 9.95918 0.00106139 -0.00224234 9.9592 16.4372 3 1 
105.333 1.21401 9.95689 0.00243022 -0.000268408 9.95691 16.2735 3 1 
106.667 1.21388 9.95517 0.00400584 0.00200922 9.95521 16.0415 3 1 
106.667 1.21388 9.95517 0.00400584 0.00200922 9.95521 16.0415 3 1 
108 1.21378 9.95622 0.00554712 0.00423147 9.95627 15.8504 3 1 
109.333 1.21361 9.95557 0.00687139 0.00615284 9.95563 15.5575 3 1 
110.667 1.21343 9.95335 0.0083355 0.00824356 9.95341 15.2326 3 1 
112 1.21328 9.95344 0.00958541 0.00996033 9.95352 14.9614 3 1 
113.333 1.21309 9.95439 0.0105881 0.0113935 9.95447 14.6102 3 1 
114.667 1.2129 9.95379 0.01172 0.0129504 9.95388 14.2603 3 1 
116 1.21273 9.95265 0.0124839 0.0138651 9.95274 13.971 3 1 
117.333 1.21256 9.95273 0.0129517 0.0144212 9.95282 13.6467 3 1 
118.667 1.21238 9.9543 0.0134395 0.0150482 9.95437 13.3316 3 1 
120 1.21226 9.95276 0.0135576 0.0149926 9.95283 13.1179 3 1 
121.333 1.21214 9.95185 0.0134696 0.0146509 9.9519 12.8905 3 1 
122.667 1.21203 9.95448 0.0133098 0.0142956 9.95453 12.7064 3 1 
124 1.21198 9.95414 0.0128542 0.0134178 9.95417 12.6125 3 1 
125.333 1.21193 9.95291 0.0122904 0.0123409 9.95293 12.5204 3 1 
126.667 1.21194 9.95377 0.0116066 0.0111293 9.95379 12.5303 3 1 
128 1.21195 9.95474 0.0107066 0.00966769 9.95476 12.5518 3 1 
128 1.21195 9.95474 0.0107066 0.00966769 9.95476 12.5518 3 1 
129.333 1.21198 9.95375 0.00979334 0.00811383 9.95377 12.6105 3 1 
130.667 1.21208 9.95274 0.00876293 0.00634001 9.95276 12.7817 3 1 
132 1.21217 9.95424 0.00759293 0.00447904 9.95426 12.9458 3 1 
133.333 1.21228 9.95464 0.00644709 0.00270307 9.95467 13.1433 3 1 
134.667 1.21242 9.95264 0.0052327 0.000738595 9.95268 13.3955 3 1 
136 1.21257 9.9518 0.00398279 -0.00122261 9.95185 13.6734 3 1 
137.333 1.21273 9.95286 0.00280169 -0.00292711 9.95291 13.9627 3 1 
138.667 1.21289 9.95178 0.00168042 -0.00461619 9.95184 14.2555 3 1 
140 1.21306 9.94969 0.000645886 -0.0062236 9.94975 14.5577 3 1 
141.333 1.21323 9.95007 -0.000337069 -0.00758972 9.95013 14.8656 3 1 
142.667 1.21339 9.95015 -0.00119906 -0.00869218 9.95021 15.1471 3 1 
144 1.21352 9.9477 -0.00184513 -0.00956173 9.94775 15.3937 3 1 
145.333 1.21365 9.94561 -0.00240173 -0.0102675 9.94566 15.6322 3 1 
146.667 1.21376 9.94615 -0.00286406 -0.0106818 9.94619 15.8316 3 1 
148 1.21385 9.94552 -0.00310406 -0.0107851 9.94555 15.979 3 1 
149.333 1.21391 9.94279 -0.00316896 -0.0107666 9.94281 16.0971 3 1 
149.333 1.21391 9.94279 -0.00316896 -0.0107666 9.94281 16.0971 3 1 
150.667 1.21396 9.94179 -0.0031673 -0.0105219 9.94181 16.1814 3 1 
152 1.21397 9.94195 -0.00302978 -0.00994981 9.94196 16.203 3 1 
153.333 1.21395 9.94022 -0.00269899 -0.00924383 9.94023 16.1739 3 1 
154.667 1.21393 9.93788 -0.00226823 -0.00841459 9.93789 16.1293 3 1 
156 1.21388 9.93799 -0.00175495 -0.00735405 9.938 16.0342 3 1 
157.333 1.21379 9.93812 -0.00113791 -0.00613754 9.93813 15.8792 3 1 
158.667 1.2137 9.93573 -0.000369109 -0.00491583 9.93574 15.7229 3 1 
160 1.2136 9.93438 0.000438766 -0.00361101 9.93441 15.5427 3 1 
161.333 1.21347 9.93555 0.00126825 -0.00213791 9.93558 15.2987 3 1 
162.667 1.21334 9.93444 0.00217912 -0.000697528 9.93448 15.0678 3 1 
164 1.21321 9.93207 0.00312334 0.000598677 9.93211 14.838 3 1 
165.333 1.21308 9.93289 0.00404751 0.00194948 9.93293 14.5884 3 1 
166.667 1.21296 9.93312 0.00498247 0.00334084 9.93316 14.373 3 1 
168 1.21281 9.93175 0.00594766 0.00449423 9.93179 14.1123 3 1 
169.333 1.2127 9.93091 0.00686612 0.00550923 9.93095 13.8989 3 1 
170.667 1.21262 9.93159 0.00772635 0.00656341 9.93163 13.7622 3 1 
170.667 1.21262 9.93159 0.00772635 0.00656341 9.93163 13.7622 11 1 
172 1.21251 9.93235 0.00855058 0.00744502 9.93238 13.5673 11 1 
173.333 1.21243 9.93005 0.00935259 0.00812288 9.93007 13.4259 11 1 
174.667 1.21239 9.92946 0.0100546 0.00869627 9.92948 13.3535 11 1 
176 1.21235 9.93066 0.0106856 0.00920625 9.93067 13.277 11 1 
177.333 1.21232 9.9294 0.0112542 0.00952845 9.92942 13.2287 11 1 
178.667 1.21233 9.92755 0.0117478 0.00965143 9.92756 13.2378 11 1 
180 1.21235 9.92797 0.0121609 0.00975272 9.92799 13.2827 11 1 
181.333 1.21238 9.92932 0.0124787 0.00971097 9.92934 13.3346 11 1 
182.667 1.21243 9.9276 0.0127509 0.00952018 9.92762 13.4254 11 1 
184 1.21251 9.92538 0.0129397 0.00922376 9.9254 13.5664 11 1 
185.333 1.21258 9.92575 0.0129767 0.00892891 9.92578 13.6919 11 1 
186.667 1.21266 9.9244 0.0129187 0.00850789 9.92443 13.8332 11 1 
188 1.21276 9.92187 0.0128543 0.00793856 9.9219 14.0138 11 1 
189.333 1.21285 9.92226 0.0127228 0.0073734 9.92229 14.1863 11 1 
190.667 1.21296 9.92238 0.012444 0.00676957 9.92241 14.38 11 1 
192 1.21306 9.91996 0.0121169 0.0061264 9.92 14.5507 11 1 
192 1.21306 9.91996 0.0121169 0.0061264 9.92 14.5507 11 1 
193.333 1.21314 9.91764 0.0117205 0.00537151 9.91767 14.7106 11 1 
194.667 1.21324 9.9166 0.0111109 0.00459767 9.91662 14.888 11 1 
196 1.21332 9.91557 0.0104956 0.00385241 9.9156 15.0219 11 1 
197.333 1.21338 9.9138 0.00984666 0.00294628 9.91382 15.1451 11 1 
198.667 1.21347 9.91187 0.00909471 0.00198582 9.91188 15.3017 11 1 
200 1.21353 9.91151 0.0083468 0.00127615 9.91152 15.4089 11 1 
201.333 1.21355 9.90964 0.00739101 0.000468661 9.90965 15.4436 11 1 
202.667 1.21358 9.90485 0.00642838 -0.000529958 9.90485 15.5059 11 1 
204 1.2136 9.90403 0.00560977 -0.00127257 9.90404 15.5416 11 1 
205.333 1.21362 9.90488 0.00469981 -0.00202492 9.90489 15.5623 11 1 
206.667 1.21364 9.90251 0.00389561 -0.00283 9.90251 15.5987 11 1 
208 1.2136 9.90109 0.00315075 -0.00344688 9.90109 15.5424 11 1 
209.333 1.21359 9.89984 0.00231251 -0.00407031 9.89984 15.5099 11 1 
210.667 1.21357 9.89609 0.00149526 -0.00458488 9.8961 15.4884 11 1 
212 1.21352 9.89193 0.000804268 -0.00504917 9.89194 15.3888 11 1 
213.333 1.21348 9.88987 0.00032418 -0.00544953 9.88988 15.3256 11 1 
213.333 1.21348 9.88987 0.00032418 -0.00544953 9.88988 15.3256 11 1 
214.667 1.21347 9.88951 -0.000130235 -0.00569442 9.88952 15.2952 11 1 
216 1.21342 9.8887 -0.000499852 -0.00591735 9.88871 15.2025 11 1 
217.333 1.21337 9.88739 -0.000622207 -0.00605684 9.8874 15.1154 11 1 
218.667 1.21337 9.88542 -0.000639532 -0.00600735 9.88543 15.1143 11 1 
220 1.21333 9.88289 -0.000628375 -0.00572421 9.88289 15.0398 11 1 
221.333 1.21327 9.87816 -0.000471568 -0.00536454 9.87816 14.9351 11 1 
222.667 1.21325 9.87278 -0.000122722 -0.0049612 9.87278 14.8991 11 1 
224 1.21322 9.87215 0.000386859 -0.00440545 9.87216 14.8529 11 1 
225.333 1.21322 9.87093 0.00104087 -0.00371388 9.87093 14.8546 11 1 
226.667 1.21323 9.8679 0.0019448 -0.00294608 9.8679 14.8657 11 1 
228 1.21322 9.86704 0.00302761 -0.00200642 9.86705 14.8509 11 1 
229.333 1.21323 9.86239 0.00402445 -0.000921264 9.86239 14.8698 11 1 
230.667 1.21323 9.85601 0.00495943 0.000153203 9.85601 14.8567 11 1 
232 1.21321 9.85229 0.00610931 0.00119847 9.85229 14.8365 11 1 
233.333 1.21328 9.84992 0.00746089 0.00231801 9.84992 14.949 11 1 
234.667 1.21335 9.84743 0.00876035 0.00359136 9.84744 15.0823 11 1 
234.667 1.21335 9.84743 0.00876035 0.00359136 9.84744 15.0823 11 1 
236 1.21331 9.8438 0.00985747 0.00477306 9.8438 15.0169 11 1 
237.333 1.21336 9.83694 0.0110254 0.00571356 9.83695 15.0977 11 1 
238.667 1.21344 9.83061 0.0120748 0.00664924 9.83062 15.2489 11 1 
240 1.21344 9.82724 0.0129787 0.00768306 9.82725 15.2431 11 1 
241.333 1.21353 9.82073 0.0140008 0.00854238 9.82075 15.4098 11 1 
242.667 1.21358 9.81843 0.0149226 0.00921416 9.81845 15.496 11 1 
244 1.21365 9.81202 0.0155239 0.00977012 9.81204 15.6288 11 1 
245.333 1.21369 9.80294 0.0158624 0.0102205 9.80296 15.6941 11 1 
246.667 1.21373 9.79617 0.0163332 0.0105819 9.79619 15.7761 11 1 
248 1.21388 9.78836 0.0165526 0.0105547 9.78838 16.0316 11 1 
249.333 1.2139 9.78337 0.0166585 0.01071 9.78339 16.0705 11 1 
250.667 1.21397 9.77387 0.0165313 0.0105531 9.77389 16.2019 11 1 
252 1.21404 9.76586 0.0161144 0.00986165 9.76588 16.3351 11 1 
253.333 1.21418 9.7538 0.0157956 0.00943054 9.75382 16.5772 11 1 
254.667 1.21422 9.74484 0.0151534 0.00884327 9.74485 16.6562 11 1 
256 1.21427 9.73555 0.0144454 0.00792049 9.73556 16.7427 11 1 
256 1.21427 9.73555 0.0144454 0.00792049 9.73556 16.7427 13 1 
257.333 1.21445 9.72227 0.0137757 0.00701498 9.72228 17.0604 13 1 
258.667 1.21448 9.71185 0.0127254 0.00598843 9.71186 17.1248 13 1 
260 1.21455 9.69693 0.0116951 0.0048727 9.69694 17.2472 13 1 
261.333 1.21471 9.68065 0.0108308 0.00384333 9.68066 17.5454 13 1 
262.667 1.21483 9.6648 0.00987289 0.00272222 9.66481 17.7568 13 1 
264 1.21483 9.65297 0.00874251 0.00168006 9.65298 17.758 13 1 
265.333 1.215 9.63395 0.00777797 0.000667213 9.63395 18.0603 13 1 
266.667 1.21524 9.60808 0.00707044 -0.000238731 9.60809 18.4927 13 1 
268 1.21518 9.5916 0.00631361 -0.000967126 9.59161 18.3929 13 1 
269.333 1.21536 9.56853 0.00562219 -0.0016103 9.56853 18.7086 13 1 
270.667 1.21573 9.53583 0.00504497 -0.00222284 9.53583 19.3759 13 1 
272 1.21558 9.52128 0.00473215 -0.00259874 9.52129 19.1129 13 1 
273.333 1.21584 9.48798 0.00445514 -0.00275971 9.48799 19.5831 13 1 
274.667 1.21634 9.44397 0.00424001 -0.00288653 9.44398 20.4794 13 1 
276 1.2162 9.42046 0.00430403 -0.00281932 9.42047 20.2355 13 1 
277.333 1.21651 9.37301 0.00447095 -0.00262812 9.37303 20.7856 13 1 
277.333 1.21651 9.37301 0.00447095 -0.00262812 9.37303 20.7856 13 1 
278.667 1.21698 9.32585 0.00468888 -0.00235703 9.32587 21.6349 13 1 
280 1.21709 9.28187 0.00498634 -0.00198342 9.28189 21.8309 13 1 
281.333 1.21739 9.22179 0.00546266 -0.00150226 9.2218 22.3772 13 1 
282.667 1.21778 9.17314 0.00597707 -0.000890405 9.17314 23.0886 13 1 
284 1.21829 9.12379 0.00653122 -0.000274359 9.1238 24 13 1 
285.333 1.2188 9.05969 0.00716653 0.000398377 9.05975 24.9305 13 1 
286.667 1.21909 8.97153 0.00779693 0.00102579 8.97169 25.4586 13 1 
288 1.21942 8.86709 0.00840737 0.00163231 8.86724 26.0424 13 1 
289.333 1.22001 8.78156 0.00900332 0.00231768 8.78162 27.1036 13 1 
290.667 1.22082 8.6991 0.00959403 0.00288625 8.69914 28.5795 13 1 
292 1.22142 8.60171 0.010063 0.00329356 8.60185 29.6609 13 1 
293.333 1.22177 8.49629 0.0104682 0.00367624 8.4965 30.2817 13 1 
294.667 1.22242 8.37591 0.0107338 0.00399823 8.37637 31.4632 13 1 
296 1.22324 8.25743 0.010979 0.0040978 8.25782 32.9537 13 1 
297.333 1.22352 8.17136 0.0110505 0.00419916 8.17199 33.4496 13 1 
298.667 1.21697 8.04595 0.01074 0.00472581 8.27383 21.6222 13 1 
298.667 1.21697 8.04595 0.01074 0.00472581 8.27383 21.6222 14 1 
300 1.20607 8.05171 0.0104267 0.00589532 8.33854 1.9362 14 1 
301.333 1.20213 8.07545 0.0100615 0.00713418 8.21804 -5.19014 14 1 
302.667 1.20323 7.91446 0.0095586 0.00812027 8.02551 -3.18915 14 1 
304 1.20429 7.75027 0.00911821 0.00887766 7.82893 -1.28231 14 1 
305.333 1.20501 7.59799 0.00874328 0.0095153 7.65988 0.0267972 14 1 
306.667 1.20571 7.46291 0.00837567 0.00994502 7.49832 1.28308 14 1 
308 1.2063 7.3389 0.00805641 0.0104003 7.37368 2.35 14 1 
309.333 1.20681 7.22829 0.00774074 0.0107714 7.25956 3.26498 14 1 
310.667 1.20742 7.13498 0.0074923 0.0111486 7.16402 4.36451 14 1 
312 1.20788 7.0486 0.00725178 0.0115245 7.06972 5.20763 14 1 
313.333 1.20826 6.96731 0.00696092 0.0118024 6.98715 5.8918 14 1 
314.667 1.20867 6.89025 0.00673396 0.0120882 6.90945 6.62045 14 1 
316 1.20895 6.81825 0.00648332 0.0123581 6.83638 7.14327 14 1 
317.333 1.20924 6.75584 0.00624874 0.0125905 6.77126 7.65109 14 1 
318.667 1.20962 6.70185 0.00607997 0.0128381 6.71665 8.34262 14 1 
320 1.20986 6.64487 0.00590213 0.0130543 6.65853 8.78699 14 1 
320 1.20986 6.64487 0.00590213 0.0130543 6.65853 8.78699 14 1 
321.333 1.20999 6.59036 0.00570383 0.0132077 6.60378 9.01955 14 1 
322.667 1.21023 6.54727 0.00549936 0.0133482 6.55937 9.45554 14 1 
324 1.21049 6.50297 0.00533674 0.0135152 6.51455 9.92362 14 1 
325.333 1.21062 6.46163 0.00522341 0.0136388 6.47268 10.147 14 1 
326.667 1.21077 6.43261 0.00509777 0.0137112 6.44321 10.4218 14 1 
328 1.21099 6.40209 0.00493624 0.0137928 6.41192 10.8217 14 1 
329.333 1.21114 6.36987 0.00481208 0.0138728 6.37953 11.0819 14 1 
330.667 1.21121 6.3414 0.00472621 0.0139331 6.35057 11.2102 14 1 
332 1.21131 6.31762 0.0046118 0.0139625 6.3266 11.4016 14 1 
333.333 1.21151 6.30379 0.00451524 0.0140104 6.31232 11.7662 14 1 
334.667 1.21168 6.28573 0.00446802 0.0141181 6.29402 12.0691 14 1 
336 1.21168 6.25737 0.00439154 0.0142272 6.26544 12.0689 14 1 
337.333 1.21171 6.23712 0.00429044 0.0143003 6.24512 12.1286 14 1 
338.667 1.2119 6.22596 0.00426085 0.0144372 6.23368 12.4559 14 1 
340 1.21205 6.21542 0.00429907 0.0146261 6.22295 12.7395 14 1 
341.333 1.21208 6.19783 0.0043047 0.0147666 6.2051 12.7908 14 1 
341.333 1.21208 6.19783 0.0043047 0.0147666 6.2051 12.7908 15 1 
342.667 1.21207 6.17189 0.0042701 0.0148624 6.17915 12.768 15 1 
344 1.21217 6.15672 0.00428732 0.0150233 6.16387 12.9541 15 1 
345.333 1.21232 6.15151 0.00436582 0.0152219 6.15849 13.2138 15 1 
346.667 1.21236 6.13769 0.00442309 0.0153875 6.14443 13.2911 15 1 
348 1.21239 6.1173 0.00444407 0.0155204 6.12399 13.3421 15 1 
349.333 1.21243 6.09759 0.00451008 0.0157258 6.1042 13.4129 15 1 
350.667 1.21248 6.08686 0.00462083 0.0159697 6.09335 13.5186 15 1 
352 1.21259 6.0822 0.00470551 0.0161883 6.08843 13.7117 15 1 
353.333 1.21263 6.06577 0.00474586 0.0163648 6.07194 13.783 15 1 
354.667 1.21264 6.04624 0.00480616 0.0165739 6.05231 13.7929 15 1 
356 1.2127 6.03681 0.00493058 0.0167997 6.04275 13.9022 15 1 
357.333 1.21275 6.02824 0.00505994 0.0170076 6.03401 14.002 15 1 
358.667 1.21281 6.01845 0.00513216 0.0171596 6.02412 14.1023 15 1 
360 1.21285 6.00757 0.00515803 0.017275 6.0131 14.1821 15 1 
361.333 1.21287 5.99473 0.00523092 0.0174042 6.00016 14.2145 15 1 
362.667 1.21292 5.98635 0.00536319 0.0175783 5.99163 14.2999 15 1 
362.667 1.21292 5.98635 0.00536319 0.0175783 5.99163 14.2999 15 1 
364 1.21297 5.98044 0.00544217 0.0177095 5.98563 14.3916 15 1 
365.333 1.213 5.97296 0.00542536 0.0177982 5.97805 14.4512 15 1 
366.667 1.21304 5.96473 0.00543793 0.0179098 5.96969 14.5139 15 1 
368 1.21307 5.9563 0.00553854 0.0180699 5.96112 14.5774 15 1 
369.333 1.21311 5.9507 0.00562676 0.0182164 5.95546 14.6472 15 1 
370.667 1.21313 5.9461 0.00563688 0.0183192 5.9508 14.6902 15 1 
372 1.21316 5.94038 0.00564148 0.0183983 5.94496 14.7468 15 1 
373.333 1.21321 5.93538 0.00570575 0.0184996 5.93983 14.8322 15 1 
374.667 1.21323 5.9294 0.00579843 0.0186212 5.93381 14.8674 15 1 
376 1.21325 5.92452 0.00586536 0.0187254 5.92887 14.9085 15 1 
377.333 1.21329 5.92215 0.00591785 0.0187966 5.92641 14.975 15 1 
378.667 1.21331 5.91775 0.00597453 0.0188545 5.92192 15.0121 15 1 
380 1.21334 5.91299 0.00605322 0.0189474 5.9171 15.0673 15 1 
381.333 1.21337 5.90944 0.00614758 0.019081 5.91349 15.1226 15 1 
382.667 1.21339 5.90535 0.00622378 0.0191679 5.90936 15.1512 15 1 
384 1.21341 5.90242 0.00630122 0.019238 5.90637 15.1985 15 1 
384 1.21341 5.90242 0.00630122 0.019238 5.90637 15.1985 15 1 
385.333 1.21344 5.89948 0.00639702 0.019367 5.90337 15.2441 15 1 
386.667 1.21346 5.89495 0.00648786 0.0194956 5.89879 15.2817 15 1 
388 1.21349 5.89117 0.00660943 0.0195902 5.89498 15.3322 15 1 
389.333 1.21351 5.88815 0.00674194 0.0196837 5.89191 15.3696 15 1 
390.667 1.21352 5.88478 0.00684428 0.0197765 5.8885 15.3966 15 1 
392 1.21355 5.88105 0.00700186 0.0198711 5.88473 15.4381 15 1 
393.333 1.21357 5.87701 0.00720981 0.0199577 5.88066 15.4826 15 1 
394.667 1.21359 5.87305 0.00737901 0.0200165 5.87665 15.5126 15 1 
396 1.21361 5.86927 0.00754726 0.0200593 5.87284 15.5445 15 1 
397.333 1.21363 5.86567 0.00775794 0.0201217 5.86923 15.5855 15 1 
398.667 1.21364 5.86159 0.0079759 0.0201749 5.8651 15.6079 15 1 
400 1.21365 5.85674 0.00820611 0.0201955 5.86021 15.6265 15 1 
401.333 1.21368 5.85271 0.00845187 0.0202318 5.85614 15.6733 15 1 
402.667 1.2137 5.84923 0.00869734 0.0202793 5.85264 15.7133 15 1 
404 1.2137 5.84476 0.00893549 0.0202513 5.84814 15.7194 15 1 
405.333 1.21371 5.84 0.0092051 0.0202185 5.84332 15.7319 15 1 
405.333 1.21371 5.84 0.0092051 0.0202185 5.84332 15.7319 15 1 
406.667 1.21373 5.83591 0.00949864 0.0202422 5.83919 15.7742 15 1 
408 1.21375 5.83221 0.0097589 0.0202273 5.83546 15.8125 15 1 
409.333 1.21376 5.82815 0.0100043 0.0201324 5.83138 15.8256 15 1 
410.667 1.21377 5.82345 0.0102906 0.0200547 5.82663 15.8351 15 1 
412 1.21378 5.81927 0.0106032 0.0200333 5.82242 15.8611 15 1 
413.333 1.2138 5.81597 0.0109001 0.01998 5.81908 15.8938 15 1 
414.667 1.21381 5.81195 0.0111692 0.0198389 5.81503 15.9159 15 1 
416 1.21382 5.80734 0.0114456 0.0197194 5.81038 15.9327 15 1 
417.333 1.21383 5.80367 0.011752 0.019656 5.80668 15.9525 15 1 
418.667 1.21384 5.80029 0.0120725 0.0195535 5.80326 15.9698 15 1 
420 1.21385 5.79619 0.0123666 0.0193922 5.79912 15.9927 15 1 
421.333 1.21387 5.79224 0.0126392 0.0192557 5.79513 16.0224 15 1 
422.667 1.21388 5.78881 0.0129239 0.0191394 5.79168 16.0402 15 1 
424 1.21389 5.7853 0.013226 0.0189954 5.78813 16.052 15 1 
425.333 1.2139 5.78166 0.01351 0.018837 5.78444 16.0758 15 1 
426.667 1.21391 5.77813 0.0137875 0.018708 5.78088 16.1002 15 1 
426.667 1.21391 5.77813 0.0137875 0.018708 5.78088 16.1002 20 1 
428 1.21392 5.77483 0.0140612 0.0185701 5.77754 16.1168 20 1 
429.333 1.21393 5.77168 0.0143227 0.0184105 5.77436 16.1387 20 1 
430.667 1.21395 5.76851 0.0145902 0.0182734 5.77117 16.162 20 1 
432 1.21395 5.76526 0.014855 0.0181386 5.76788 16.1708 20 1 
433.333 1.21396 5.76215 0.0151068 0.0179739 5.76473 16.1831 20 1 
434.667 1.21398 5.75944 0.0153498 0.0178315 5.76199 16.2148 20 1 
436 1.21399 5.75672 0.0155787 0.0177013 5.75924 16.2365 20 1 
437.333 1.21399 5.75372 0.0158078 0.0175485 5.75622 16.237 20 1 
438.667 1.214 5.75099 0.0160371 0.0173976 5.75346 16.2481 20 1 
440 1.21401 5.74845 0.0162577 0.0172817 5.75089 16.2745 20 1 
441.333 1.21402 5.74579 0.0164636 0.0171579 5.74821 16.2885 20 1 
442.667 1.21402 5.74337 0.0166471 0.0170003 5.74576 16.2947 20 1 
444 1.21403 5.74099 0.0168324 0.0168537 5.74336 16.3121 20 1 
445.333 1.21404 5.73831 0.0170424 0.0167647 5.74065 16.3248 20 1 
446.667 1.21404 5.73584 0.0172222 0.0166541 5.73816 16.3288 20 1 
448 1.21405 5.73373 0.0173695 0.0164998 5.73603 16.3459 20 1 
448 1.21405 5.73373 0.0173695 0.0164998 5.73603 16.3459 20 1 
449.333 1.21406 5.73148 0.0175252 0.0163867 5.73375 16.3679 20 1 
450.667 1.21407 5.7291 0.0176759 0.0163073 5.73136 16.3749 20 1 
452 1.21407 5.72683 0.0178221 0.0161943 5.72906 16.3772 20 1 
453.333 1.21408 5.7246 0.0179637 0.0160746 5.72681 16.3922 20 1 
454.667 1.21409 5.72255 0.0180751 0.015989 5.72474 16.4145 20 1 
456 1.21409 5.72072 0.018181 0.0159185 5.72289 16.4272 20 1 
457.333 1.2141 5.71866 0.0182913 0.0158188 5.72081 16.4331 20 1 
458.667 1.2141 5.71638 0.0183899 0.0157256 5.71851 16.4442 20 1 
460 1.21411 5.71449 0.0184912 0.0156785 5.7166 16.4579 20 1 
461.333 1.21412 5.71291 0.0185768 0.0156233 5.71499 16.4706 20 1 
462.667 1.21413 5.71109 0.0186278 0.015525 5.71317 16.4833 20 1 
464 1.21413 5.70919 0.0186798 0.0154592 5.71124 16.4944 20 1 
465.333 1.21413 5.70737 0.0187435 0.0154381 5.7094 16.4994 20 1 
466.667 1.21414 5.70552 0.0187967 0.0154042 5.70754 16.5032 20 1 
468 1.21415 5.70397 0.0188129 0.0153382 5.70597 16.5192 20 1 
469.333 1.21415 5.70258 0.0188261 0.0153003 5.70457 16.5338 20 1 
469.333 1.21415 5.70258 0.0188261 0.0153003 5.70457 16.5338 20 1 
470.667 1.21415 5.70064 0.0188618 0.0153005 5.7026 16.5307 20 1 
472 1.21415 5.69858 0.0188741 0.0152838 5.70054 16.5329 20 1 
473.333 1.21416 5.69716 0.0188663 0.0152539 5.6991 16.5478 20 1 
474.667 1.21417 5.69568 0.018871 0.015254 5.6976 16.5543 20 1 
476 1.21417 5.69377 0.0188684 0.015255 5.69568 16.5565 20 1 
477.333 1.21417 5.69197 0.0188594 0.0152578 5.69386 16.5666 20 1 
478.667 1.21418 5.69025 0.0188679 0.0152723 5.69213 16.5742 20 1 
480 1.21418 5.68841 0.0188643 0.0152661 5.69027 16.5754 20 1 
481.333 1.21418 5.6867 0.0188473 0.0152734 5.68855 16.5851 20 1 
482.667 1.21419 5.68505 0.0188343 0.0153196 5.68688 16.6022 20 1 
484 1.21419 5.68322 0.0188103 0.0153354 5.68504 16.6081 20 1 
485.333 1.2142 5.68136 0.0187982 0.015342 5.68317 16.61 20 1 
486.667 1.2142 5.67964 0.0187974 0.0153869 5.68144 16.624 20 1 
488 1.21421 5.67798 0.0187703 0.0154427 5.67977 16.6396 20 1 
489.333 1.21422 5.67647 0.0187311 0.0154856 5.67824 16.6475 20 1 
490.667 1.21422 5.67501 0.0187101 0.0155308 5.67677 16.6579 20 1 
490.667 1.21422 5.67501 0.0187101 0.0155308 5.67677 16.6579 20 1 
492 1.21423 5.67334 0.0186922 0.0155993 5.67509 16.6713 20 1 
493.333 1.21423 5.67176 0.0186676 0.0156796 5.6735 16.6777 20 1 
494.667 1.21424 5.67071 0.0186511 0.0157367 5.67244 16.6859 20 1 
496 1.21425 5.6698 0.0186537 0.0158066 5.67152 16.7037 20 1 
497.333 1.21425 5.66853 0.018654 0.015905 5.67025 16.7148 20 1 
498.667 1.21425 5.66736 0.0186468 0.0159948 5.66906 16.7145 20 1 
500 1.21426 5.66669 0.0186602 0.0160773 5.66839 16.7219 20 1 
501.333 1.21427 5.66613 0.0186909 0.0161819 5.66783 16.7369 20 1 
502.667 1.21427 5.66555 0.0187213 0.0162927 5.66724 16.7438 20 1 
504 1.21427 5.66511 0.0187717 0.0163917 5.6668 16.747 20 1 
505.333 1.21428 5.66467 0.0188525 0.0164795 5.66636 16.7544 20 1 
506.667 1.21428 5.66436 0.0189376 0.0165787 5.66603 16.7603 20 1 
508 1.21428 5.66442 0.0190167 0.0167055 5.66609 16.7647 20 1 
509.333 1.21429 5.6645 0.0190934 0.0168334 5.66617 16.7734 20 1 
510.667 1.21429 5.66445 0.0191749 0.0169421 5.66612 16.7818 20 1 
512 1.21429 5.66453 0.0192755 0.0170773 5.6662 16.7854 20 1 
512 1.21429 5.66453 0.0192755 0.0170773 5.6662 16.7854 21 1 
513.333 1.21429 5.6648 0.0193676 0.0172281 5.66646 16.7889 21 1 
514.667 1.2143 5.66515 0.0194518 0.0173293 5.6668 16.7977 21 1 
516 1.21431 5.66552 0.0195402 0.0174162 5.66717 16.8092 21 1 
517.333 1.21431 5.66596 0.0195839 0.0175468 5.66761 16.8153 21 1 
518.667 1.21431 5.66636 0.0196053 0.0177031 5.668 16.8186 21 1 
520 1.21432 5.66672 0.0196639 0.0178628 5.66835 16.827 21 1 
521.333 1.21432 5.66728 0.0197279 0.0180246 5.66892 16.8376 21 1 
522.667 1.21433 5.66793 0.0197661 0.018185 5.66955 16.8443 21 1 
524 1.21433 5.66838 0.0198079 0.0183404 5.67 16.851 21 1 
525.333 1.21433 5.66881 0.0199024 0.0185009 5.67043 16.8593 21 1 
526.667 1.21434 5.66928 0.0200096 0.0186539 5.67088 16.8638 21 1 
528 1.21434 5.66981 0.0200773 0.0187786 5.67141 16.868 21 1 
529.333 1.21434 5.67037 0.0201462 0.0188933 5.67196 16.8774 21 1 
530.667 1.21435 5.67073 0.0202686 0.0190285 5.67231 16.8836 21 1 
532 1.21435 5.67109 0.0204003 0.0191618 5.67267 16.8855 21 1 
533.333 1.21435 5.67153 0.0205031 0.0192812 5.6731 16.8908 21 1 
533.333 1.21435 5.67153 0.0205031 0.0192812 5.6731 16.8908 21 1 
534.667 1.21435 5.67179 0.0205934 0.0193997 5.67336 16.8949 21 1 
536 1.21436 5.67203 0.0207203 0.0195075 5.67359 16.8977 21 1 
537.333 1.21436 5.67242 0.0208562 0.0196093 5.67397 16.9041 21 1 
538.667 1.21436 5.67263 0.0209619 0.0197222 5.67417 16.9091 21 1 
540 1.21436 5.67259 0.0210822 0.0198198 5.67413 16.91 21 1 
541.333 1.21436 5.67261 0.0212381 0.0198993 5.67414 16.9129 21 1 
542.667 1.21437 5.67282 0.021403 0.0199768 5.67435 16.9196 21 1 
544 1.21437 5.67292 0.0215394 0.0200381 5.67443 16.9258 21 1 
545.333 1.21437 5.67273 0.0216727 0.0200881 5.67424 16.9285 21 1 
546.667 1.21437 5.6725 0.0218219 0.0201175 5.674 16.9299 21 1 
548 1.21438 5.67238 0.0219808 0.020132 5.67388 16.9339 21 1 
549.333 1.21438 5.67236 0.0221221 0.0201238 5.67385 16.9406 21 1 
550.667 1.21438 5.67221 0.0222628 0.0200893 5.67369 16.9455 21 1 
552 1.21438 5.67182 0.0224361 0.0200546 5.6733 16.9449 21 1 
553.333 1.21438 5.67152 0.0225909 0.0199963 5.67299 16.9459 21 1 
554.667 1.21438 5.67138 0.0227178 0.0199055 5.67284 16.9503 21 1 
554.667 1.21438 5.67138 0.0227178 0.0199055 5.67284 16.9503 22 1 
556 1.21439 5.67118 0.022864 0.0197926 5.67264 16.952 22 1 
557.333 1.21439 5.67098 0.023027 0.0196576 5.67243 16.9529 22 1 
558.667 1.21439 5.67076 0.0231586 0.0194868 5.6722 16.9529 22 1 
560 1.21438 5.67051 0.0233036 0.0193039 5.67194 16.9509 22 1 
561.333 1.21438 5.67046 0.0234663 0.0191159 5.67188 16.9509 22 1 
562.667 1.21438 5.67058 0.0236173 0.0188933 5.67199 16.9512 22 1 
564 1.21438 5.67069 0.0237449 0.0186318 5.6721 16.9508 22 1 
565.333 1.21438 5.67078 0.0238584 0.0183649 5.67218 16.951 22 1 
566.667 1.21438 5.67103 0.024003 0.0181069 5.67241 16.948 22 1 
568 1.21438 5.67153 0.0241579 0.0178174 5.67291 16.9469 22 1 
569.333 1.21438 5.6722 0.024285 0.0174806 5.67357 16.9501 22 1 
570.667 1.21439 5.67296 0.0244122 0.0171471 5.67432 16.9522 22 1 
572 1.21438 5.67381 0.0245564 0.0168385 5.67516 16.9514 22 1 
573.333 1.21439 5.67483 0.024666 0.0164979 5.67617 16.9518 22 1 
574.667 1.21439 5.67616 0.0247471 0.0161251 5.67749 16.9576 22 1 
576 1.21439 5.67768 0.024834 0.0157573 5.679 16.9614 22 1 
576 1.21439 5.67768 0.024834 0.0157573 5.679 16.9614 22 1 
577.333 1.21439 5.67919 0.0249103 0.015387 5.68049 16.9621 22 1 
578.667 1.21439 5.6809 0.0249898 0.0150314 5.68219 16.9686 22 1 
580 1.2144 5.68289 0.0250425 0.0146748 5.68417 16.9749 22 1 
581.333 1.2144 5.68495 0.0250543 0.0143094 5.68621 16.9762 22 1 
582.667 1.2144 5.68711 0.0250545 0.0139654 5.68837 16.9801 22 1 
584 1.2144 5.68943 0.0250678 0.0136514 5.69067 16.987 22 1 
585.333 1.21441 5.69185 0.025046 0.0133323 5.69308 16.991 22 1 
586.667 1.21441 5.69434 0.0249964 0.0130043 5.69556 16.9916 22 1 
588 1.21441 5.69688 0.024967 0.0127158 5.69809 16.9936 22 1 
589.333 1.21441 5.69946 0.0249225 0.0124713 5.70066 16.9979 22 1 
590.667 1.21441 5.70213 0.0248432 0.0122358 5.70331 16.9969 22 1 
592 1.21441 5.70476 0.0247253 0.0119915 5.70593 16.996 22 1 
593.333 1.21441 5.70739 0.0246004 0.0117782 5.70854 16.9979 22 1 
594.667 1.21441 5.70994 0.0244861 0.0116201 5.71108 16.9952 22 1 
596 1.21441 5.71242 0.0243363 0.0114764 5.71355 16.991 22 1 
597.333 1.21441 5.71493 0.0241433 0.011332 5.71604 16.9907 22 1 
597.333 1.21441 5.71493 0.0241433 0.011332 5.71604 16.9907 24 1 
598.667 1.21441 5.71731 0.0239575 0.0112145 5.71842 16.991 24 1 
600 1.2144 5.7195 0.0237857 0.0111473 5.72059 16.9861 24 1 
601.333 1.2144 5.72157 0.023571 0.0111108 5.72265 16.9809 24 1 
602.667 1.2144 5.72354 0.0233371 0.0110913 5.72461 16.9813 24 1 
604 1.2144 5.72527 0.0231153 0.0111018 5.72632 16.9809 24 1 
605.333 1.2144 5.72684 0.0229192 0.0111554 5.72788 16.9755 24 1 
606.667 1.2144 5.72826 0.022721 0.0112403 5.72929 16.9734 24 1 
608 1.2144 5.72926 0.0225503 0.0113388 5.73028 16.9751 24 1 
609.333 1.2144 5.73002 0.0223871 0.0114525 5.73103 16.9701 24 1 
610.667 1.21439 5.73072 0.0222208 0.011579 5.73172 16.9652 24 1 
612 1.21439 5.73099 0.0220853 0.0117255 5.73198 16.9679 24 1 
613.333 1.21439 5.7309 0.0219685 0.0118923 5.73188 16.966 24 1 
614.667 1.21439 5.73056 0.0218443 0.0120806 5.73153 16.9571 24 1 
616 1.21439 5.72982 0.0217258 0.0122625 5.73077 16.9542 24 1 
617.333 1.21439 5.72883 0.0216575 0.0124672 5.72977 16.9536 24 1 
618.667 1.21438 5.72757 0.0216058 0.0126962 5.72851 16.9456 24 1 
618.667 1.21438 5.72757 0.0216058 0.0126962 5.72851 16.9456 24 1 
620 1.21438 5.72581 0.0215423 0.0129132 5.72674 16.9375 24 1 
621.333 1.21437 5.72379 0.021513 0.013135 5.72471 16.9322 24 1 
622.667 1.21437 5.72148 0.0215366 0.0133493 5.7224 16.9252 24 1 
624 1.21436 5.71886 0.0215783 0.0135625 5.71977 16.9151 24 1 
625.333 1.21436 5.716 0.0216337 0.0137834 5.7169 16.9053 24 1 
626.667 1.21435 5.71286 0.021735 0.0139913 5.71376 16.8976 24 1 
628 1.21435 5.70944 0.0218621 0.0141793 5.71034 16.8878 24 1 
629.333 1.21434 5.70586 0.0220068 0.0143633 5.70675 16.8737 24 1 
630.667 1.21434 5.70213 0.0221789 0.0145606 5.70301 16.8651 24 1 
632 1.21433 5.69833 0.0223641 0.0147311 5.69921 16.8585 24 1 
633.333 1.21433 5.69435 0.0225571 0.0148854 5.69523 16.8458 24 1 
634.667 1.21432 5.69025 0.0227705 0.0150587 5.69113 16.8341 24 1 
636 1.21432 5.68623 0.0229945 0.0152173 5.6871 16.8272 24 1 
637.333 1.21431 5.68222 0.0232118 0.0153489 5.68309 16.8194 24 1 
638.667 1.21431 5.67827 0.0234086 0.0154989 5.67915 16.8096 24 1 
640 1.2143 5.67436 0.0236066 0.0156578 5.67523 16.8024 24 1 
640 1.2143 5.67436 0.0236066 0.0156578 5.67523 16.8024 24 1 
641.333 1.2143 5.67051 0.0238039 0.0157838 5.67138 16.7962 24 1 
642.667 1.21429 5.66683 0.0239793 0.0159043 5.6677 16.7885 24 1 
644 1.21429 5.66334 0.0241185 0.0160479 5.66421 16.7816 24 1 
645.333 1.21429 5.66007 0.0242528 0.0161863 5.66094 16.7771 24 1 
646.667 1.21429 5.65694 0.0243971 0.0162889 5.65781 16.7722 24 1 
648 1.21428 5.65394 0.0244852 0.0164094 5.65481 16.7656 24 1 
649.333 1.21428 5.65128 0.0245502 0.0165476 5.65214 16.7594 24 1 
650.667 1.21428 5.6489 0.024632 0.0166338 5.64976 16.7558 24 1 
652 1.21428 5.64672 0.0246741 0.0167216 5.64757 16.7529 24 1 
653.333 1.21427 5.64479 0.0247002 0.0168562 5.64565 16.7467 24 1 
654.667 1.21427 5.64313 0.0247415 0.0169589 5.64399 16.7423 24 1 
656 1.21427 5.64165 0.0247546 0.0170334 5.6425 16.7424 24 1 
657.333 1.21427 5.6405 0.0247518 0.0171371 5.64136 16.7383 24 1 
658.667 1.21426 5.63965 0.0247414 0.0172707 5.6405 16.7345 24 1 
660 1.21427 5.63878 0.0247484 0.0173684 5.63963 16.7382 24 1 
661.333 1.21427 5.63822 0.0247547 0.017451 5.63907 16.7372 24 1 
661.333 1.21427 5.63822 0.0247547 0.017451 5.63907 16.7372 24 1 
662.667 1.21427 5.63791 0.0247153 0.0175728 5.63875 16.7358 24 1 
664 1.21427 5.63753 0.0247259 0.0177118 5.63837 16.7423 24 1 
665.333 1.21427 5.63761 0.0247092 0.0177975 5.63845 16.7437 24 1 
666.667 1.21427 5.6376 0.0246715 0.0178941 5.63844 16.7472 24 1 
668 1.21428 5.63751 0.0246576 0.0180643 5.63835 16.7542 24 1 
669.333 1.21428 5.6378 0.0245932 0.0181775 5.63864 16.7563 24 1 
670.667 1.21428 5.63802 0.0245482 0.0182547 5.63885 16.7625 24 1 
672 1.21429 5.63803 0.0245274 0.0183919 5.63885 16.7713 24 1 
673.333 1.21428 5.63837 0.0244451 0.0185631 5.6392 16.7702 24 1 
674.667 1.21429 5.63844 0.0244433 0.0186934 5.63926 16.7756 24 1 
676 1.21429 5.63832 0.0244148 0.0188209 5.63914 16.7823 24 1 
677.333 1.21429 5.63849 0.0243689 0.0190219 5.63931 16.7793 24 1 
678.667 1.21429 5.63827 0.0243994 0.0192474 5.63908 16.7817 24 1 
680 1.21429 5.63797 0.0243864 0.019421 5.63878 16.7834 24 1 
681.333 1.21429 5.63755 0.024407 0.019595 5.63836 16.7795 24 1 
682.667 1.21429 5.63697 0.0244659 0.0198417 5.63778 16.7747 24 1 
682.667 1.21429 5.63697 0.0244659 0.0198417 5.63778 16.7747 31 1 
684 1.21429 5.63616 0.0245622 0.0201091 5.63697 16.7735 31 1 
685.333 1.21428 5.63532 0.0246141 0.020282 5.63613 16.7678 31 1 
686.667 1.21428 5.63417 0.0246276 0.0204519 5.63498 16.7627 31 1 
688 1.21428 5.63295 0.0247919 0.0207541 5.63376 16.7563 31 1 
689.333 1.21427 5.63157 0.0248768 0.020991 5.63238 16.7502 31 1 
690.667 1.21427 5.63003 0.0249197 0.0211539 5.63083 16.7447 31 1 
692 1.21427 5.62838 0.0250771 0.0214369 5.62919 16.7383 31 1 
693.333 1.21426 5.6266 0.0252076 0.0217034 5.62741 16.7336 31 1 
694.667 1.21426 5.62473 0.0253248 0.0219598 5.62554 16.7297 31 1 
696 1.21426 5.62276 0.0254443 0.0222023 5.62357 16.7248 31 1 
697.333 1.21426 5.62083 0.0255796 0.0224045 5.62164 16.7206 31 1 
698.667 1.21426 5.61883 0.0257793 0.0225901 5.61965 16.7205 31 1 
700 1.21426 5.61686 0.0259401 0.0227598 5.61767 16.7171 31 1 
701.333 1.21425 5.61479 0.0260846 0.0229263 5.6156 16.7166 31 1 
702.667 1.21425 5.61287 0.0262573 0.0230008 5.61369 16.7166 31 1 
704 1.21425 5.61107 0.0264091 0.0230724 5.61189 16.7155 31 1 
704 1.21425 5.61107 0.0264091 0.0230724 5.61189 16.7155 31 1 
705.333 1.21426 5.6093 0.0265574 0.0231343 5.61012 16.7182 31 1 
706.667 1.21426 5.60767 0.0267213 0.0231783 5.60849 16.7184 31 1 
708 1.21426 5.60616 0.0268391 0.0231049 5.60697 16.7186 31 1 
709.333 1.21426 5.60481 0.0268929 0.0229882 5.60562 16.7221 31 1 
710.667 1.21426 5.60369 0.0271324 0.0230322 5.6045 16.7231 31 1 
712 1.21426 5.60277 0.0272216 0.0228935 5.60358 16.7238 31 1 
713.333 1.21426 5.602 0.02724 0.0225913 5.60281 16.7271 31 1 
714.667 1.21426 5.60163 0.027426 0.0224076 5.60244 16.7275 31 1 
716 1.21426 5.60135 0.0275326 0.0221463 5.60216 16.7293 31 1 
717.333 1.21426 5.60145 0.0275604 0.0217656 5.60225 16.7289 31 1 
718.667 1.21426 5.60184 0.0276294 0.0214229 5.60264 16.7308 31 1 
720 1.21426 5.60269 0.0277685 0.0210655 5.60348 16.7316 31 1 
721.333 1.21426 5.60367 0.0278583 0.0206856 5.60446 16.7333 31 1 
722.667 1.21426 5.60475 0.0278877 0.020249 5.60554 16.7338 31 1 
724 1.21426 5.6064 0.0279734 0.0198356 5.60718 16.7295 31 1 
725.333 1.21426 5.60813 0.028044 0.0194397 5.60891 16.7344 31 1 
725.333 1.21426 5.60813 0.028044 0.0194397 5.60891 16.7344 31 1 
726.667 1.21427 5.61036 0.0280712 0.0190554 5.61114 16.7352 31 1 
728 1.21426 5.61316 0.0281549 0.0186828 5.61394 16.7312 31 1 
729.333 1.21427 5.61569 0.0282546 0.0182887 5.61646 16.739 31 1 
730.667 1.21427 5.61861 0.0282476 0.0178357 5.61938 16.7371 31 1 
732 1.21426 5.62181 0.0281784 0.0173904 5.62257 16.7314 31 1 
733.333 1.21427 5.62493 0.0281386 0.0169763 5.62568 16.7383 31 1 
734.667 1.21427 5.62882 0.0280019 0.0164735 5.62957 16.7367 31 1 
736 1.21427 5.63249 0.0277273 0.0159473 5.63323 16.7372 31 1 
737.333 1.21426 5.63668 0.027586 0.0156095 5.63741 16.7334 31 1 
738.667 1.21427 5.64076 0.0273872 0.0152108 5.64149 16.7368 31 1 
740 1.21427 5.64458 0.0272105 0.0146661 5.6453 16.7353 31 1 
741.333 1.21426 5.64918 0.0269289 0.0144033 5.64989 16.72 31 1 
742.667 1.21426 5.65361 0.0270041 0.0145901 5.65432 16.7265 31 1 
744 1.21426 5.65823 0.0268051 0.0145275 5.65894 16.727 31 1 
745.333 1.21425 5.66301 0.0261618 0.0143048 5.6637 16.7127 31 1 
746.667 1.21425 5.66722 0.026206 0.0147636 5.66792 16.7102 31 1 
746.667 1.21425 5.66722 0.026206 0.0147636 5.66792 16.7102 31 1 
748 1.21425 5.67188 0.0258338 0.0147465 5.67257 16.703 31 1 
749.333 1.21424 5.67639 0.0252683 0.0142508 5.67707 16.6986 31 1 
750.667 1.21424 5.6811 0.0252459 0.014346 5.68177 16.6927 31 1 
752 1.21424 5.68585 0.0249337 0.0140638 5.68652 16.6838 31 1 
753.333 1.21424 5.68979 0.0244312 0.0137429 5.69044 16.6855 31 1 
754.667 1.21423 5.69447 0.0240088 0.013606 5.69511 16.6697 31 1 
756 1.21423 5.69888 0.0236364 0.0137784 5.69952 16.6642 31 1 
757.333 1.21423 5.70306 0.0229902 0.0137665 5.70369 16.6709 31 1 
758.667 1.21422 5.70734 0.0223735 0.013648 5.70796 16.6562 31 1 
760 1.21421 5.7122 0.0219079 0.0140151 5.71282 16.6409 31 1 
761.333 1.21422 5.71554 0.0211888 0.0140268 5.71614 16.6617 31 1 
762.667 1.21421 5.71957 0.02071 0.0140241 5.72017 16.6401 31 1 
764 1.2142 5.7244 0.0204209 0.0141657 5.72499 16.613 31 1 
765.333 1.21421 5.72709 0.0199727 0.0143056 5.72768 16.6444 31 1 
766.667 1.2142 5.73096 0.0196918 0.0142088 5.73154 16.6201 31 1 
768 1.21418 5.73566 0.0191727 0.0141504 5.73623 16.5788 31 1 
768 1.21418 5.73566 0.0191727 0.0141504 5.73623 16.5788 32 1 
769.333 1.2142 5.73725 0.0190934 0.0143308 5.73782 16.6139 32 1 
770.667 1.21418 5.74165 0.0188567 0.0143675 5.74221 16.5768 32 1 
772 1.21416 5.74584 0.018521 0.0142393 5.74639 16.5375 32 1 
773.333 1.21417 5.74725 0.018402 0.0143472 5.74779 16.5622 32 1 
774.667 1.21414 5.75252 0.0181089 0.0143786 5.75307 16.5077 32 1 
776 1.21413 5.75536 0.017676 0.0141758 5.75589 16.4872 32 1 
777.333 1.21413 5.7565 0.0178229 0.014414 5.75703 16.4858 32 1 
778.667 1.21408 5.76195 0.0180725 0.0146808 5.76248 16.4045 32 1 
780 1.21408 5.76495 0.018078 0.0148761 5.76547 16.4005 32 1 
781.333 1.21407 5.76779 0.018184 0.0149045 5.76831 16.3897 32 1 
782.667 1.21401 5.77605 0.0179355 0.0146479 5.77656 16.2777 32 1 
784 1.21403 5.77782 0.0183252 0.0149446 5.77833 16.3092 32 1 
785.333 1.214 5.78188 0.0189755 0.0154921 5.78238 16.2641 32 1 
786.667 1.21394 5.78442 0.0188757 0.0149049 5.78492 16.1513 32 1 
788 1.2139 5.79003 0.0181233 0.0143088 5.79053 16.0837 32 1 
789.333 1.21391 5.80002 0.0187046 0.0149111 5.80052 16.0863 32 1 
790.667 1.21391 5.80589 0.0206348 0.0165318 5.8064 16.0858 32 1 
792 1.21382 5.81242 0.0204897 0.0173039 5.81293 15.9264 32 1 
793.333 1.21377 5.81568 0.0194614 0.0162563 5.81619 15.8441 32 1 
794.667 1.21377 5.82249 0.0191472 0.0156738 5.82299 15.834 32 1 
796 1.21374 5.83088 0.0194022 0.0182757 5.83137 15.794 32 1 
797.333 1.2137 5.83564 0.0185769 0.0208386 5.83614 15.7195 32 1 
798.667 1.21365 5.84066 0.0176405 0.0212388 5.84116 15.6187 32 1 
800 1.21361 5.84457 0.0183371 0.021697 5.84507 15.5592 32 1 
