114.112;r ;Density                 ;Velocity u              ;Velocity v              ;Velocity w              ;|Velocity|              ;Pressure                ;Distribution            ;Levels                  ;
0 1.21191 9.99509 0.000946326 0.00151957 9.99509 12.4853 1 1 
1.33334 1.21183 9.99642 0.000350568 0.000642519 9.99642 12.341 1 1 
2.66666 1.21169 9.99826 -0.000964025 -0.00129688 9.99826 12.0811 1 1 
4 1.21155 9.99845 -0.0020511 -0.00289925 9.99846 11.8396 1 1 
5.33334 1.21148 9.99853 -0.00284574 -0.0040853 9.99854 11.7019 1 1 
6.66666 1.21143 9.9988 -0.00390027 -0.00569974 9.99883 11.6227 1 1 
8 1.21138 9.99839 -0.00487529 -0.00717468 9.99843 11.517 1 1 
9.33334 1.21141 9.99819 -0.00568144 -0.0084736 9.99823 11.5713 1 1 
10.6667 1.21145 9.99813 -0.00666885 -0.0101122 9.99819 11.658 1 1 
12 1.21148 9.99773 -0.00740187 -0.0113503 9.99781 11.7079 1 1 
13.3333 1.21159 9.99725 -0.00802048 -0.012474 9.99735 11.9115 1 1 
14.6667 1.21172 9.99661 -0.00865418 -0.0136422 9.99672 12.1327 1 1 
16 1.21184 9.99626 -0.00882671 -0.014111 9.99638 12.3503 1 1 
17.3333 1.21199 9.99597 -0.00890305 -0.0144733 9.99609 12.6234 1 1 
18.6667 1.21212 9.99458 -0.00887797 -0.0146468 9.99471 12.8588 1 1 
20 1.21229 9.99383 -0.00838011 -0.0141102 9.99395 13.1606 1 1 
21.3333 1.21245 9.99372 -0.00782812 -0.0135421 9.99383 13.461 1 1 
21.3333 1.21245 9.99372 -0.00782812 -0.0135421 9.99383 13.461 1 1 
22.6667 1.21256 9.99213 -0.00699122 -0.01251 9.99223 13.6532 1 1 
24 1.21271 9.99072 -0.00581 -0.0109431 9.9908 13.9239 1 1 
25.3333 1.21285 9.99016 -0.00470771 -0.00947239 9.99022 14.1787 1 1 
26.6667 1.21292 9.98921 -0.00326305 -0.00743807 9.98925 14.2973 1 1 
28 1.213 9.9876 -0.00162871 -0.00513787 9.98763 14.4502 1 1 
29.3333 1.21306 9.98604 -0.000155455 -0.00303731 9.98606 14.5627 1 1 
30.6667 1.21308 9.98557 0.00158444 -0.000455724 9.98558 14.6004 1 1 
32 1.2131 9.98485 0.00327492 0.00203786 9.98486 14.6264 1 1 
33.3333 1.21305 9.98268 0.00475597 0.00424236 9.98269 14.5351 1 1 
34.6667 1.213 9.98163 0.00636853 0.00667809 9.98166 14.4417 1 1 
36 1.21294 9.98201 0.00769595 0.00869993 9.98205 14.3496 1 1 
37.3333 1.21282 9.98056 0.00882884 0.0105123 9.98062 14.1254 1 1 
38.6667 1.2127 9.97904 0.0099416 0.0122779 9.97912 13.9114 1 1 
40 1.21258 9.97922 0.0106311 0.013389 9.97931 13.6923 1 1 
41.3333 1.21242 9.97901 0.011191 0.0144013 9.97912 13.3954 1 1 
42.6667 1.21227 9.97802 0.0116029 0.0151804 9.97814 13.1387 1 1 
42.6667 1.21227 9.97802 0.0116029 0.0151804 9.97814 13.1387 2 1 
44 1.21211 9.97706 0.0115153 0.0152099 9.97718 12.8394 2 1 
45.3333 1.21191 9.97743 0.0113674 0.0151848 9.97755 12.4858 2 1 
46.6667 1.21176 9.97768 0.0109435 0.0147474 9.97778 12.2145 2 1 
48 1.21159 9.9764 0.0100563 0.0136671 9.97649 11.9091 2 1 
49.3333 1.21142 9.97631 0.00914117 0.0125446 9.97639 11.5932 2 1 
50.6667 1.21127 9.97738 0.00794492 0.0109306 9.97744 11.3325 2 1 
52 1.21113 9.97657 0.00647786 0.00894494 9.97661 11.0695 2 1 
53.3333 1.21104 9.97588 0.00501409 0.00696885 9.97591 10.9092 2 1 
54.6667 1.21096 9.97688 0.00329261 0.00452236 9.9769 10.774 2 1 
56 1.21088 9.97698 0.00159397 0.00211342 9.97699 10.6143 2 1 
57.3333 1.21088 9.9761 -1.69688e-05 -0.000216022 9.9761 10.6286 2 1 
58.6667 1.21092 9.97612 -0.00178849 -0.00283811 9.97613 10.6955 2 1 
60 1.21094 9.97696 -0.00326483 -0.00501015 9.97697 10.7292 2 1 
61.3333 1.21102 9.97653 -0.00462685 -0.0071013 9.97656 10.8797 2 1 
62.6667 1.21113 9.97526 -0.00604953 -0.00932332 9.9753 11.0802 2 1 
64 1.21127 9.97558 -0.00704764 -0.0109374 9.97563 11.3279 2 1 
64 1.21127 9.97558 -0.00704764 -0.0109374 9.97563 11.3279 2 1 
65.3333 1.21143 9.97642 -0.00790212 -0.0123946 9.97649 11.6075 2 1 
66.6667 1.21157 9.97453 -0.0086689 -0.0137488 9.97462 11.8659 2 1 
68 1.21176 9.97341 -0.00904879 -0.0145775 9.9735 12.2172 2 1 
69.3333 1.21198 9.97445 -0.00926666 -0.0152158 9.97454 12.607 2 1 
70.6667 1.21215 9.97355 -0.00917749 -0.0153867 9.97365 12.9188 2 1 
72 1.21235 9.97144 -0.00876268 -0.0151052 9.97153 13.2731 2 1 
73.3333 1.21256 9.9707 -0.00820227 -0.0146878 9.97079 13.6555 2 1 
74.6667 1.21273 9.97106 -0.00718279 -0.0135694 9.97113 13.9672 2 1 
76 1.21291 9.96953 -0.00592879 -0.0121206 9.96959 14.2806 2 1 
77.3333 1.21304 9.96686 -0.0046669 -0.0106522 9.96691 14.5217 2 1 
78.6667 1.21315 9.96671 -0.00302509 -0.0085865 9.96674 14.7243 2 1 
80 1.21327 9.96673 -0.00129577 -0.00641612 9.96675 14.9345 2 1 
81.3333 1.2133 9.96403 0.000399836 -0.00421545 9.96404 14.9918 2 1 
82.6667 1.21332 9.96205 0.00233155 -0.00161921 9.96206 15.0295 2 1 
84 1.21334 9.96241 0.00412019 0.000736877 9.96242 15.0657 2 1 
85.3333 1.21328 9.9614 0.00587483 0.0031438 9.96142 14.9512 2 1 
85.3333 1.21328 9.9614 0.00587483 0.0031438 9.96142 14.9512 3 1 
86.6667 1.21322 9.95886 0.00777287 0.00579771 9.95888 14.8425 3 1 
88 1.21314 9.95828 0.00937382 0.00801759 9.95831 14.7031 3 1 
89.3333 1.213 9.95868 0.0108992 0.0102141 9.95872 14.4481 3 1 
90.6667 1.21287 9.95741 0.0123866 0.0124053 9.95746 14.2071 3 1 
92 1.21272 9.95541 0.0135349 0.0141299 9.95548 13.9483 3 1 
93.3333 1.21254 9.95579 0.0145123 0.0156799 9.95588 13.619 3 1 
94.6667 1.21235 9.95658 0.0152019 0.0168613 9.95667 13.2787 3 1 
96 1.21217 9.95448 0.0155946 0.0176187 9.95458 12.9579 3 1 
97.3333 1.21201 9.95393 0.0157457 0.0180415 9.95403 12.6556 3 1 
98.6667 1.21182 9.95568 0.0154314 0.0178279 9.95578 12.3215 3 1 
100 1.21164 9.95494 0.0148979 0.0173479 9.95503 11.9936 3 1 
101.333 1.21153 9.95341 0.0140943 0.0164497 9.95349 11.7893 3 1 
102.667 1.21141 9.95462 0.0128318 0.0148746 9.95469 11.5725 3 1 
104 1.21128 9.95594 0.0115428 0.0133495 9.95599 11.3361 3 1 
105.333 1.21123 9.95472 0.0100478 0.0114559 9.95475 11.2564 3 1 
106.667 1.21119 9.95425 0.00813142 0.00890173 9.95427 11.181 3 1 
106.667 1.21119 9.95425 0.00813142 0.00890173 9.95427 11.181 3 1 
108 1.21115 9.95582 0.00635055 0.00660941 9.95584 11.1106 3 1 
109.333 1.21118 9.95593 0.00447624 0.00410812 9.95594 11.1571 3 1 
110.667 1.2112 9.95411 0.00232588 0.00113665 9.95412 11.2025 3 1 
112 1.21126 9.9545 0.000415847 -0.00146636 9.95451 11.3062 3 1 
113.333 1.21137 9.95605 -0.00154383 -0.0041671 9.95606 11.5038 3 1 
114.667 1.21145 9.95493 -0.0035202 -0.00696301 9.95496 11.6477 3 1 
116 1.21158 9.95335 -0.00517299 -0.00933226 9.95338 11.8766 3 1 
117.333 1.21175 9.95364 -0.00682836 -0.0117477 9.95369 12.1977 3 1 
118.667 1.21187 9.95431 -0.0082367 -0.0137977 9.95438 12.4031 3 1 
120 1.21204 9.95175 -0.00919277 -0.015296 9.95183 12.7083 3 1 
121.333 1.21222 9.9502 -0.0100461 -0.0167307 9.95028 13.0448 3 1 
122.667 1.21235 9.95184 -0.0105347 -0.0175916 9.95192 13.2813 3 1 
124 1.21252 9.95059 -0.0105371 -0.0178321 9.95068 13.59 3 1 
125.333 1.21267 9.94803 -0.0103343 -0.0178645 9.94811 13.8524 3 1 
126.667 1.21279 9.94754 -0.00976577 -0.0173304 9.94761 14.0726 3 1 
128 1.21291 9.94778 -0.00882074 -0.0162339 9.94784 14.2854 3 1 
128 1.21291 9.94778 -0.00882074 -0.0162339 9.94784 14.2854 3 1 
129.333 1.213 9.94544 -0.0076389 -0.0148985 9.94549 14.4464 3 1 
130.667 1.21308 9.94314 -0.00612043 -0.0131099 9.94317 14.5928 3 1 
132 1.21313 9.94408 -0.00438059 -0.010969 9.9441 14.6882 3 1 
133.333 1.21315 9.94354 -0.00242643 -0.00852735 9.94356 14.721 3 1 
134.667 1.21316 9.94079 -0.000241117 -0.00581566 9.9408 14.736 3 1 
136 1.21315 9.93966 0.00196887 -0.00304027 9.93966 14.7206 3 1 
137.333 1.21309 9.9403 0.00426375 -1.90394e-05 9.94031 14.6176 3 1 
138.667 1.21303 9.93904 0.0066393 0.00304342 9.93906 14.4964 3 1 
140 1.21295 9.93706 0.00890672 0.00590106 9.93708 14.3615 3 1 
141.333 1.21285 9.93773 0.0110878 0.00878434 9.93777 14.1708 3 1 
142.667 1.21273 9.93823 0.0131815 0.0115663 9.93828 13.9548 3 1 
144 1.21259 9.93607 0.0150621 0.0139685 9.93613 13.7144 3 1 
145.333 1.21246 9.93479 0.0166772 0.0160776 9.93487 13.4813 3 1 
146.667 1.21233 9.93641 0.0180015 0.0179012 9.9365 13.2449 3 1 
148 1.21219 9.93632 0.0190346 0.0193009 9.93641 12.9783 3 1 
149.333 1.21205 9.93431 0.019773 0.0202212 9.9344 12.7369 3 1 
149.333 1.21205 9.93431 0.019773 0.0202212 9.9344 12.7369 3 1 
150.667 1.21194 9.9346 0.0201039 0.0206917 9.93468 12.5394 3 1 
152 1.21183 9.9358 0.0200829 0.0207901 9.93588 12.3294 3 1 
153.333 1.21171 9.93476 0.0197817 0.0203964 9.93483 12.1283 3 1 
154.667 1.21164 9.93326 0.0190842 0.0194716 9.93332 11.9912 3 1 
156 1.21158 9.93446 0.0180426 0.0182049 9.93451 11.8831 3 1 
157.333 1.21153 9.93538 0.0167296 0.0165872 9.93542 11.7895 3 1 
158.667 1.21151 9.93331 0.0151947 0.0145316 9.93334 11.7547 3 1 
160 1.21151 9.93248 0.0133614 0.0121728 9.9325 11.7614 3 1 
161.333 1.21152 9.93428 0.0113061 0.00964226 9.93429 11.7758 3 1 
162.667 1.21156 9.93331 0.00919575 0.0069317 9.93332 11.8574 3 1 
164 1.21163 9.93093 0.00700258 0.00404025 9.93094 11.9768 3 1 
165.333 1.2117 9.93185 0.00472729 0.00114419 9.93187 12.1035 3 1 
166.667 1.21181 9.93199 0.0024832 -0.00162214 9.932 12.2927 3 1 
168 1.2119 9.93024 0.000366687 -0.00437933 9.93027 12.4555 3 1 
169.333 1.21201 9.92903 -0.0016523 -0.00701723 9.92905 12.657 3 1 
170.667 1.21215 9.92936 -0.00352005 -0.00929476 9.92939 12.9128 3 1 
170.667 1.21215 9.92936 -0.00352005 -0.00929476 9.92939 12.9128 11 1 
172 1.21225 9.92951 -0.00516096 -0.0113554 9.92955 13.0952 11 1 
173.333 1.21237 9.92654 -0.00650957 -0.0131461 9.92658 13.3096 11 1 
174.667 1.2125 9.92547 -0.00763927 -0.0145639 9.92551 13.5484 11 1 
176 1.2126 9.9261 -0.00849322 -0.0155555 9.92614 13.7286 11 1 
177.333 1.21269 9.92397 -0.00898688 -0.0161721 9.92402 13.8872 11 1 
178.667 1.21278 9.92146 -0.00917563 -0.0164291 9.9215 14.0538 11 1 
180 1.21286 9.92153 -0.00905307 -0.0162057 9.92156 14.1967 11 1 
181.333 1.21291 9.92226 -0.00860462 -0.0156129 9.92229 14.2785 11 1 
182.667 1.21294 9.91985 -0.00781055 -0.0146771 9.91987 14.3395 11 1 
184 1.21297 9.9173 -0.00676778 -0.0134236 9.91732 14.3981 11 1 
185.333 1.21297 9.91748 -0.00553152 -0.0117484 9.91749 14.3871 11 1 
186.667 1.21294 9.9158 -0.00404171 -0.0098528 9.9158 14.3411 11 1 
188 1.21291 9.91295 -0.00228474 -0.00780763 9.91296 14.2885 11 1 
189.333 1.21286 9.91338 -0.000366243 -0.00549805 9.91339 14.1965 11 1 
190.667 1.21281 9.91364 0.0015888 -0.00307443 9.91365 14.1024 11 1 
192 1.21273 9.91127 0.00365444 -0.000587054 9.91128 13.9658 11 1 
192 1.21273 9.91127 0.00365444 -0.000587054 9.91128 13.9658 11 1 
193.333 1.21264 9.90916 0.00576756 0.00188378 9.90917 13.8067 11 1 
194.667 1.21256 9.90853 0.00772056 0.00433448 9.90855 13.6638 11 1 
196 1.21247 9.90789 0.00970462 0.00673694 9.90791 13.4887 11 1 
197.333 1.21238 9.90651 0.0116399 0.00886822 9.90654 13.3216 11 1 
198.667 1.21231 9.90516 0.0133594 0.0107477 9.90519 13.2093 11 1 
200 1.21223 9.90537 0.0149748 0.012628 9.90541 13.0672 11 1 
201.333 1.21214 9.90392 0.0162462 0.0141551 9.90396 12.8906 11 1 
202.667 1.21208 9.89964 0.0173132 0.0152109 9.89968 12.7905 11 1 
204 1.21203 9.89953 0.0182863 0.0162141 9.89957 12.7017 11 1 
205.333 1.21199 9.90101 0.0188921 0.0168448 9.90105 12.6297 11 1 
206.667 1.21199 9.89898 0.0193565 0.0170877 9.89902 12.6206 11 1 
208 1.21196 9.89811 0.0195859 0.0171393 9.89814 12.5728 11 1 
209.333 1.21197 9.89747 0.0194285 0.0168077 9.8975 12.5851 11 1 
210.667 1.21199 9.89394 0.0190501 0.0162747 9.89398 12.6345 11 1 
212 1.212 9.88996 0.0184629 0.0154262 9.88999 12.6412 11 1 
213.333 1.21204 9.88831 0.0177353 0.0143034 9.88834 12.7245 11 1 
213.333 1.21204 9.88831 0.0177353 0.0143034 9.88834 12.7245 11 1 
214.667 1.21212 9.88834 0.0167912 0.0130897 9.88837 12.862 11 1 
216 1.21217 9.88759 0.0156518 0.0116194 9.88761 12.947 11 1 
217.333 1.21223 9.88628 0.0144705 0.00995093 9.8863 13.0502 11 1 
218.667 1.21234 9.88449 0.01315 0.00826585 9.88451 13.252 11 1 
220 1.21241 9.88204 0.0116052 0.00657928 9.88206 13.3821 11 1 
221.333 1.21246 9.87706 0.0100467 0.00480279 9.87708 13.4739 11 1 
222.667 1.21254 9.87151 0.00855268 0.00301842 9.87152 13.6253 11 1 
224 1.21262 9.87091 0.00705108 0.00129925 9.87092 13.7561 11 1 
225.333 1.21271 9.8695 0.00557764 -0.000349209 9.8695 13.9219 11 1 
226.667 1.21279 9.86623 0.00432402 -0.00189429 9.86623 14.0789 11 1 
228 1.21285 9.86528 0.00320728 -0.00326131 9.86529 14.1843 11 1 
229.333 1.21292 9.86036 0.00201066 -0.00442253 9.86036 14.299 11 1 
230.667 1.21295 9.85368 0.000868439 -0.00547324 9.85368 14.3632 11 1 
232 1.21297 9.84983 6.84242e-05 -0.00637195 9.84983 14.3982 11 1 
233.333 1.21305 9.84733 -0.000430579 -0.00699542 9.84734 14.535 11 1 
234.667 1.21312 9.84466 -0.000812333 -0.00729773 9.84467 14.665 11 1 
234.667 1.21312 9.84466 -0.000812333 -0.00729773 9.84467 14.665 11 1 
236 1.21307 9.84084 -0.00116767 -0.0074863 9.84084 14.579 11 1 
237.333 1.2131 9.83394 -0.00126292 -0.00762309 9.83394 14.623 11 1 
238.667 1.21315 9.82754 -0.00122761 -0.00749163 9.82754 14.7117 11 1 
240 1.21309 9.82394 -0.00108009 -0.00707134 9.82394 14.6201 11 1 
241.333 1.21314 9.81734 -0.000530992 -0.00649482 9.81735 14.6939 11 1 
242.667 1.21313 9.81527 0.000196999 -0.00576024 9.81527 14.6809 11 1 
244 1.21314 9.80889 0.000849378 -0.00490353 9.80889 14.6996 11 1 
245.333 1.21311 9.79973 0.00152348 -0.00394501 9.79973 14.641 11 1 
246.667 1.21308 9.79306 0.0025789 -0.00277463 9.79306 14.6022 11 1 
248 1.21316 9.78542 0.00363544 -0.00166352 9.78542 14.7416 11 1 
249.333 1.21312 9.78059 0.00483314 -0.000248535 9.78059 14.6657 11 1 
250.667 1.21313 9.7712 0.00601071 0.00111989 9.7712 14.6851 11 1 
252 1.21315 9.76349 0.00710203 0.00216749 9.76349 14.7163 11 1 
253.333 1.21323 9.75174 0.00840195 0.00354609 9.75174 14.8728 11 1 
254.667 1.21324 9.74297 0.0095136 0.00488815 9.74297 14.8781 11 1 
256 1.21325 9.73393 0.0106497 0.0059892 9.73394 14.9046 11 1 
256 1.21325 9.73393 0.0106497 0.0059892 9.73394 14.9046 13 1 
257.333 1.2134 9.72096 0.0117917 0.00710787 9.72097 15.1787 13 1 
258.667 1.21342 9.71071 0.0125884 0.00802448 9.71072 15.215 13 1 
260 1.21349 9.69602 0.0133902 0.00882334 9.69603 15.327 13 1 
261.333 1.21365 9.68012 0.0142356 0.00955629 9.68013 15.6327 13 1 
262.667 1.21378 9.66446 0.014879 0.0100584 9.66448 15.8625 13 1 
264 1.2138 9.65278 0.0152139 0.0104482 9.6528 15.8905 13 1 
265.333 1.21399 9.63395 0.0154419 0.0105553 9.63397 16.2354 13 1 
266.667 1.21426 9.60816 0.0156865 0.01058 9.60819 16.7222 13 1 
268 1.21423 9.59173 0.0157024 0.0105419 9.59175 16.6741 13 1 
269.333 1.21443 9.56863 0.0155504 0.0102804 9.56865 17.04 13 1 
270.667 1.21484 9.53601 0.0152871 0.00980974 9.53604 17.7649 13 1 
272 1.21472 9.52157 0.0150194 0.00934483 9.5216 17.5581 13 1 
273.333 1.21501 9.48821 0.0145729 0.00877558 9.48824 18.0724 13 1 
274.667 1.21552 9.44413 0.0139584 0.00800283 9.44416 19.0061 13 1 
276 1.2154 9.42057 0.013357 0.00731658 9.4206 18.7926 13 1 
277.333 1.21572 9.37307 0.012754 0.00663275 9.3731 19.3637 13 1 
277.333 1.21572 9.37307 0.012754 0.00663275 9.3731 19.3637 13 1 
278.667 1.2162 9.32583 0.0120714 0.00588533 9.32586 20.2293 13 1 
280 1.21631 9.28188 0.0114568 0.00516148 9.28192 20.4327 13 1 
281.333 1.21661 9.2218 0.0109144 0.00452676 9.22183 20.9787 13 1 
282.667 1.21701 9.17312 0.0103222 0.00386187 9.17313 21.6853 13 1 
284 1.21751 9.12384 0.00972159 0.00325282 9.12385 22.5905 13 1 
285.333 1.21802 9.0598 0.00920111 0.00275613 9.05987 23.5148 13 1 
286.667 1.21831 8.97166 0.00873988 0.00232017 8.97184 24.0369 13 1 
288 1.21863 8.86723 0.00832469 0.00193448 8.86739 24.6147 13 1 
289.333 1.21921 8.78187 0.0080664 0.00171131 8.78193 25.6686 13 1 
290.667 1.22003 8.69959 0.00790629 0.00156675 8.69964 27.1435 13 1 
292 1.22063 8.60228 0.00783335 0.00144428 8.60241 28.2245 13 1 
293.333 1.22097 8.49702 0.00777816 0.00145529 8.49723 28.8393 13 1 
294.667 1.22162 8.37677 0.0078308 0.00157904 8.37723 30.0162 13 1 
296 1.22244 8.25843 0.00801118 0.00169069 8.25881 31.5067 13 1 
297.333 1.22272 8.17252 0.00816909 0.00198553 8.17314 32.0022 13 1 
298.667 1.21617 8.04715 0.0079942 0.00269589 8.275 20.1749 13 1 
298.667 1.21617 8.04715 0.0079942 0.00269589 8.275 20.1749 14 1 
300 1.20527 8.05301 0.00771211 0.00404972 8.33982 0.492616 14 1 
301.333 1.20133 8.07693 0.00741205 0.00557865 8.21954 -6.63085 14 1 
302.667 1.20244 7.91606 0.00694528 0.00677444 8.02713 -4.63198 14 1 
304 1.20349 7.75193 0.00660554 0.00772774 7.83062 -2.72633 14 1 
305.333 1.20422 7.59972 0.00635818 0.00855193 7.66163 -1.41791 14 1 
306.667 1.20491 7.46471 0.00617217 0.00914324 7.50012 -0.164185 14 1 
308 1.2055 7.34074 0.00602607 0.00973741 7.37553 0.900553 14 1 
309.333 1.206 7.2302 0.00584905 0.0102505 7.26149 1.81224 14 1 
310.667 1.20661 7.13693 0.00569014 0.0107186 7.16599 2.90879 14 1 
312 1.20707 7.05056 0.00556128 0.0111554 7.0717 3.74655 14 1 
313.333 1.20745 6.96936 0.00540461 0.0114887 6.98922 4.42635 14 1 
314.667 1.20785 6.89241 0.00530306 0.0118273 6.91162 5.14998 14 1 
316 1.20813 6.82045 0.00516704 0.0121195 6.83858 5.66211 14 1 
317.333 1.20841 6.75807 0.00500547 0.0123643 6.77351 6.15753 14 1 
318.667 1.20879 6.70417 0.00492501 0.0126343 6.71898 6.83964 14 1 
320 1.20903 6.64729 0.00487636 0.012877 6.66097 7.27583 14 1 
320 1.20903 6.64729 0.00487636 0.012877 6.66097 7.27583 14 1 
321.333 1.20915 6.59288 0.00482485 0.0130901 6.6063 7.49714 14 1 
322.667 1.20939 6.54988 0.00476856 0.0133044 6.56199 7.92238 14 1 
324 1.20964 6.50568 0.00473271 0.0135372 6.51725 8.38442 14 1 
325.333 1.20976 6.46444 0.00473389 0.0137628 6.47548 8.60456 14 1 
326.667 1.20991 6.43553 0.00473418 0.01394 6.44613 8.87568 14 1 
328 1.21013 6.40511 0.0047244 0.014103 6.41494 9.27361 14 1 
329.333 1.21028 6.37299 0.00473122 0.0142662 6.38265 9.5366 14 1 
330.667 1.21035 6.34464 0.00472391 0.0144226 6.3538 9.66943 14 1 
332 1.21046 6.32095 0.0046704 0.0145222 6.32991 9.86511 14 1 
333.333 1.21067 6.30718 0.00461977 0.0145957 6.3157 10.2358 14 1 
334.667 1.21084 6.28916 0.0046043 0.0147283 6.29744 10.5467 14 1 
336 1.21084 6.26086 0.00453436 0.0148366 6.26891 10.5541 14 1 
337.333 1.21088 6.24067 0.0043905 0.0148538 6.24865 10.6206 14 1 
338.667 1.21106 6.22952 0.00428134 0.0149267 6.23723 10.9544 14 1 
340 1.21123 6.21895 0.00422462 0.015109 6.22648 11.2443 14 1 
341.333 1.21126 6.20137 0.00410184 0.0152452 6.20863 11.3006 14 1 
341.333 1.21126 6.20137 0.00410184 0.0152452 6.20863 11.3006 15 1 
342.667 1.21125 6.17545 0.00393622 0.0153007 6.1827 11.2821 15 1 
344 1.21135 6.16024 0.00384142 0.0154379 6.16738 11.4718 15 1 
345.333 1.2115 6.15499 0.00377567 0.0156031 6.16197 11.7329 15 1 
346.667 1.21154 6.14116 0.00366588 0.0157104 6.1479 11.8105 15 1 
348 1.21157 6.12074 0.00353153 0.015775 6.12742 11.8632 15 1 
349.333 1.21161 6.10098 0.00345713 0.0159035 6.10759 11.9345 15 1 
350.667 1.21166 6.09019 0.00344073 0.0160677 6.09668 12.0379 15 1 
352 1.21177 6.08548 0.00339943 0.0161941 6.09171 12.2293 15 1 
353.333 1.21181 6.06901 0.00331821 0.0162825 6.07517 12.3008 15 1 
354.667 1.21181 6.04943 0.00326127 0.0164186 6.0555 12.3095 15 1 
356 1.21187 6.03991 0.00327859 0.0166091 6.04585 12.4164 15 1 
357.333 1.21193 6.03124 0.0033246 0.0168116 6.03701 12.5159 15 1 
358.667 1.21199 6.02136 0.00332584 0.0169626 6.02702 12.6171 15 1 
360 1.21203 6.01038 0.00329647 0.0170929 6.01591 12.6958 15 1 
361.333 1.21205 5.99742 0.00334623 0.0172607 6.00285 12.7274 15 1 
362.667 1.21209 5.98891 0.003473 0.0174809 5.99419 12.8148 15 1 
362.667 1.21209 5.98891 0.003473 0.0174809 5.99419 12.8148 15 1 
364 1.21215 5.98288 0.00356467 0.0176476 5.98808 12.9079 15 1 
365.333 1.21218 5.97532 0.00358761 0.0177513 5.9804 12.9676 15 1 
366.667 1.21222 5.96698 0.00365196 0.0178881 5.97194 13.0327 15 1 
368 1.21225 5.95843 0.00380168 0.0180781 5.96325 13.0989 15 1 
369.333 1.21229 5.95274 0.00395565 0.0182353 5.95751 13.1689 15 1 
370.667 1.21232 5.94808 0.00405282 0.0183619 5.95277 13.213 15 1 
372 1.21235 5.94227 0.00414026 0.0184862 5.94684 13.2725 15 1 
373.333 1.2124 5.93718 0.00428782 0.0186221 5.94162 13.359 15 1 
374.667 1.21242 5.93112 0.00445627 0.018761 5.93553 13.3939 15 1 
376 1.21244 5.92613 0.0045764 0.0188865 5.93047 13.4359 15 1 
377.333 1.21248 5.92364 0.00469365 0.018979 5.92789 13.5031 15 1 
378.667 1.2125 5.91913 0.00483809 0.0190504 5.92329 13.5391 15 1 
380 1.21253 5.91424 0.00499957 0.019146 5.91834 13.5937 15 1 
381.333 1.21256 5.91056 0.00517026 0.0192577 5.9146 13.6491 15 1 
382.667 1.21257 5.90632 0.00530715 0.0192962 5.91032 13.6765 15 1 
384 1.2126 5.90323 0.00542674 0.0193012 5.90716 13.7225 15 1 
384 1.2126 5.90323 0.00542674 0.0193012 5.90716 13.7225 15 1 
385.333 1.21262 5.90012 0.00558072 0.0193635 5.904 13.768 15 1 
386.667 1.21264 5.89542 0.00574246 0.0194297 5.89925 13.8051 15 1 
388 1.21267 5.89146 0.00591604 0.0194528 5.89526 13.8544 15 1 
389.333 1.21269 5.88827 0.0060828 0.0194646 5.89202 13.8918 15 1 
390.667 1.21271 5.88474 0.00621785 0.0194735 5.88844 13.9197 15 1 
392 1.21273 5.88083 0.00639419 0.0194818 5.8845 13.9616 15 1 
393.333 1.21275 5.87662 0.00661072 0.0194898 5.88027 14.007 15 1 
394.667 1.21277 5.87252 0.00679568 0.0194812 5.8761 14.0394 15 1 
396 1.21279 5.86858 0.00697199 0.0194407 5.87214 14.0737 15 1 
397.333 1.21282 5.86484 0.00717655 0.0194021 5.86838 14.1168 15 1 
398.667 1.21283 5.86061 0.00739538 0.0193691 5.86411 14.1421 15 1 
400 1.21284 5.85563 0.00762381 0.0193138 5.85909 14.164 15 1 
401.333 1.21287 5.85148 0.00783872 0.0192511 5.8549 14.2148 15 1 
402.667 1.21289 5.8479 0.00804177 0.0192006 5.85129 14.2589 15 1 
404 1.2129 5.84332 0.00826462 0.0191061 5.84668 14.2685 15 1 
405.333 1.21291 5.83844 0.00852166 0.0190083 5.84175 14.2836 15 1 
405.333 1.21291 5.83844 0.00852166 0.0190083 5.84175 14.2836 15 1 
406.667 1.21293 5.83426 0.00878205 0.018956 5.83752 14.3293 15 1 
408 1.21296 5.83048 0.0090117 0.0188803 5.83372 14.3714 15 1 
409.333 1.21296 5.82634 0.00922183 0.0187389 5.82955 14.3865 15 1 
410.667 1.21297 5.82155 0.00945062 0.0186078 5.82472 14.3975 15 1 
412 1.21299 5.8173 0.00971218 0.0185373 5.82043 14.4264 15 1 
413.333 1.21301 5.81392 0.00997409 0.0184573 5.81701 14.4609 15 1 
414.667 1.21302 5.80982 0.0101868 0.0182908 5.81287 14.4829 15 1 
416 1.21303 5.8051 0.0103922 0.0181493 5.80812 14.5003 15 1 
417.333 1.21304 5.80133 0.0106409 0.0180772 5.80432 14.5212 15 1 
418.667 1.21305 5.79783 0.0108921 0.0179679 5.80077 14.5382 15 1 
420 1.21306 5.79359 0.0111069 0.017808 5.79649 14.5607 15 1 
421.333 1.21308 5.78949 0.0113149 0.0176856 5.79236 14.5909 15 1 
422.667 1.21309 5.78589 0.0115344 0.0175854 5.78873 14.6082 15 1 
424 1.21309 5.78218 0.0117539 0.0174572 5.78499 14.619 15 1 
425.333 1.21311 5.77832 0.0119556 0.0173187 5.78109 14.6429 15 1 
426.667 1.21312 5.77457 0.0121604 0.0172124 5.7773 14.6677 15 1 
426.667 1.21312 5.77457 0.0121604 0.0172124 5.7773 14.6677 20 1 
428 1.21313 5.77101 0.0123525 0.0170968 5.77371 14.6827 20 1 
429.333 1.21314 5.76761 0.0125104 0.0169576 5.77026 14.7044 20 1 
430.667 1.21315 5.76419 0.0126849 0.0168455 5.76681 14.7293 20 1 
432 1.21316 5.76065 0.0128751 0.0167463 5.76324 14.7375 20 1 
433.333 1.21317 5.75724 0.0130267 0.0166136 5.7598 14.7486 20 1 
434.667 1.21318 5.75425 0.0131644 0.0164945 5.75677 14.7824 20 1 
436 1.2132 5.75123 0.0132979 0.0163999 5.75373 14.8062 20 1 
437.333 1.2132 5.74792 0.0134144 0.0162923 5.75039 14.8055 20 1 
438.667 1.2132 5.74489 0.0135393 0.0161727 5.74733 14.8167 20 1 
440 1.21322 5.74205 0.013661 0.0160892 5.74447 14.8461 20 1 
441.333 1.21323 5.7391 0.0137491 0.0160189 5.74149 14.8611 20 1 
442.667 1.21323 5.73637 0.0138217 0.0159227 5.73874 14.8667 20 1 
444 1.21324 5.73369 0.0138947 0.0158263 5.73603 14.8859 20 1 
445.333 1.21325 5.73072 0.0139754 0.0157775 5.73305 14.9 20 1 
446.667 1.21325 5.72798 0.0140464 0.0157344 5.73029 14.903 20 1 
448 1.21326 5.72561 0.0140987 0.0156684 5.72789 14.9208 20 1 
448 1.21326 5.72561 0.0140987 0.0156684 5.72789 14.9208 20 1 
449.333 1.21327 5.72307 0.0141368 0.0156047 5.72534 14.9448 20 1 
450.667 1.21328 5.72042 0.0141721 0.0155706 5.72267 14.9512 20 1 
452 1.21328 5.7179 0.0142069 0.0155534 5.72013 14.9525 20 1 
453.333 1.21329 5.71543 0.0142333 0.0155207 5.71763 14.9691 20 1 
454.667 1.2133 5.71313 0.0142466 0.0154765 5.71531 14.9922 20 1 
456 1.21331 5.71107 0.0142448 0.0154733 5.71323 15.0035 20 1 
457.333 1.21331 5.7088 0.0142374 0.0154774 5.71094 15.0104 20 1 
458.667 1.21332 5.7063 0.0142381 0.0154501 5.70842 15.0238 20 1 
460 1.21333 5.7042 0.0142344 0.0154463 5.7063 15.0378 20 1 
461.333 1.21333 5.70242 0.0142079 0.0154713 5.70451 15.0507 20 1 
462.667 1.21334 5.70045 0.0141726 0.0154655 5.70252 15.0661 20 1 
464 1.21335 5.69839 0.0141572 0.0154633 5.70044 15.0796 20 1 
465.333 1.21335 5.69643 0.0141392 0.0154852 5.69846 15.0854 20 1 
466.667 1.21336 5.69448 0.0141045 0.0155153 5.6965 15.0919 20 1 
468 1.21337 5.69288 0.0140623 0.0155306 5.69488 15.1116 20 1 
469.333 1.21338 5.69145 0.0140171 0.0155333 5.69343 15.1285 20 1 
469.333 1.21338 5.69145 0.0140171 0.0155333 5.69343 15.1285 20 1 
470.667 1.21338 5.6895 0.0139813 0.0155636 5.69147 15.1279 20 1 
472 1.21338 5.68751 0.0139536 0.0156268 5.68947 15.1342 20 1 
473.333 1.21339 5.68618 0.0139082 0.0156608 5.68813 15.1523 20 1 
474.667 1.21339 5.68481 0.0138514 0.0156813 5.68674 15.161 20 1 
476 1.2134 5.68311 0.0138022 0.0157379 5.68503 15.1671 20 1 
477.333 1.2134 5.68158 0.0137435 0.0158092 5.68348 15.1807 20 1 
478.667 1.21341 5.68016 0.0136826 0.0158636 5.68206 15.1901 20 1 
480 1.21341 5.67874 0.0136426 0.0159237 5.68061 15.1942 20 1 
481.333 1.21342 5.6775 0.0135991 0.0159979 5.67936 15.207 20 1 
482.667 1.21343 5.67635 0.0135414 0.0160711 5.6782 15.225 20 1 
484 1.21343 5.67513 0.0134976 0.0161336 5.67697 15.2319 20 1 
485.333 1.21344 5.67398 0.0134546 0.0162065 5.67581 15.2359 20 1 
486.667 1.21344 5.67301 0.0134186 0.0163005 5.67483 15.2502 20 1 
488 1.21345 5.67218 0.0134045 0.0163744 5.67398 15.265 20 1 
489.333 1.21346 5.67154 0.0133836 0.0164217 5.67333 15.2734 20 1 
490.667 1.21346 5.67102 0.0133817 0.0165109 5.6728 15.2841 20 1 
490.667 1.21346 5.67102 0.0133817 0.0165109 5.6728 15.2841 20 1 
492 1.21347 5.67034 0.0134053 0.0166136 5.67211 15.296 20 1 
493.333 1.21347 5.66979 0.0134303 0.0166756 5.67155 15.3022 20 1 
494.667 1.21348 5.6698 0.0134606 0.0167291 5.67155 15.311 20 1 
496 1.21349 5.66997 0.0135094 0.0167991 5.67171 15.3271 20 1 
497.333 1.21349 5.66979 0.0135891 0.016871 5.67153 15.3371 20 1 
498.667 1.21349 5.66971 0.0136738 0.0169575 5.67143 15.3385 20 1 
500 1.2135 5.6701 0.0137349 0.0170567 5.67182 15.3467 20 1 
501.333 1.2135 5.67058 0.0138052 0.0171542 5.67229 15.3608 20 1 
502.667 1.21351 5.67101 0.0138994 0.0172469 5.67272 15.3692 20 1 
504 1.21351 5.67155 0.0139756 0.0173382 5.67325 15.3753 20 1 
505.333 1.21352 5.67202 0.0140296 0.0174158 5.67371 15.3833 20 1 
506.667 1.21352 5.67255 0.0140938 0.0174926 5.67423 15.3908 20 1 
508 1.21353 5.67338 0.0141605 0.0176133 5.67506 15.3998 20 1 
509.333 1.21353 5.67417 0.0142036 0.0177721 5.67585 15.4115 20 1 
510.667 1.21354 5.67476 0.0142284 0.017909 5.67643 15.4211 20 1 
512 1.21354 5.67537 0.0142763 0.0180447 5.67704 15.4286 20 1 
512 1.21354 5.67537 0.0142763 0.0180447 5.67704 15.4286 21 1 
513.333 1.21355 5.67606 0.0143504 0.0182141 5.67772 15.4368 21 1 
514.667 1.21355 5.67676 0.0144116 0.0183713 5.67842 15.4475 21 1 
516 1.21356 5.67741 0.0144782 0.0184956 5.67906 15.4613 21 1 
517.333 1.21357 5.678 0.0145804 0.0186153 5.67964 15.472 21 1 
518.667 1.21357 5.67842 0.0146889 0.018744 5.68005 15.4774 21 1 
520 1.21357 5.67874 0.0147678 0.0188691 5.68037 15.4853 21 1 
521.333 1.21358 5.6792 0.0148463 0.0189868 5.68083 15.4976 21 1 
522.667 1.21358 5.67962 0.0149533 0.019106 5.68123 15.5064 21 1 
524 1.21359 5.67976 0.0150517 0.0192055 5.68137 15.5117 21 1 
525.333 1.21359 5.67982 0.0151439 0.0192904 5.68143 15.5181 21 1 
526.667 1.21359 5.67985 0.0152417 0.0193855 5.68145 15.5233 21 1 
528 1.2136 5.67987 0.0153486 0.0194794 5.68147 15.526 21 1 
529.333 1.2136 5.67988 0.0154605 0.0195552 5.68147 15.5306 21 1 
530.667 1.2136 5.67967 0.0155613 0.0196134 5.68125 15.5344 21 1 
532 1.2136 5.67943 0.0156436 0.0196572 5.681 15.5357 21 1 
533.333 1.2136 5.67924 0.0157553 0.0197069 5.68081 15.5371 21 1 
533.333 1.2136 5.67924 0.0157553 0.0197069 5.68081 15.5371 21 1 
534.667 1.2136 5.67887 0.0158866 0.0197352 5.68043 15.5363 21 1 
536 1.2136 5.6785 0.0159841 0.0197272 5.68005 15.5379 21 1 
537.333 1.2136 5.67833 0.0160722 0.0197203 5.67988 15.5426 21 1 
538.667 1.21361 5.67803 0.0161919 0.0197174 5.67957 15.5429 21 1 
540 1.2136 5.6775 0.0162966 0.0196713 5.67903 15.5414 21 1 
541.333 1.21361 5.67709 0.0163697 0.0195984 5.67862 15.5445 21 1 
542.667 1.21361 5.67698 0.0164678 0.0195539 5.67849 15.5494 21 1 
544 1.21361 5.67685 0.0165659 0.0194805 5.67836 15.5532 21 1 
545.333 1.21361 5.67649 0.0166652 0.0193535 5.67799 15.5568 21 1 
546.667 1.21361 5.67617 0.0167722 0.0192322 5.67767 15.56 21 1 
548 1.21362 5.67612 0.0168707 0.0191169 5.67761 15.5632 21 1 
549.333 1.21362 5.67628 0.0169588 0.018961 5.67776 15.5705 21 1 
550.667 1.21363 5.67637 0.0170469 0.0187747 5.67784 15.5795 21 1 
552 1.21363 5.67631 0.0171379 0.0186043 5.67778 15.5816 21 1 
553.333 1.21363 5.67648 0.0172322 0.0184195 5.67795 15.5838 21 1 
554.667 1.21363 5.67694 0.017343 0.0181935 5.67839 15.592 21 1 
554.667 1.21363 5.67694 0.017343 0.0181935 5.67839 15.592 22 1 
556 1.21364 5.67739 0.0174444 0.0179693 5.67884 15.5985 22 1 
557.333 1.21364 5.67794 0.0175439 0.017758 5.67938 15.6017 22 1 
558.667 1.21364 5.67858 0.0176388 0.0175064 5.68 15.6043 22 1 
560 1.21364 5.67924 0.0177369 0.0172327 5.68065 15.6077 22 1 
561.333 1.21364 5.68015 0.0178294 0.0169654 5.68156 15.612 22 1 
562.667 1.21364 5.68129 0.0179134 0.0166937 5.68269 15.6137 22 1 
564 1.21365 5.68246 0.0180032 0.0163961 5.68385 15.6162 22 1 
565.333 1.21365 5.68365 0.0180919 0.0160908 5.68503 15.6205 22 1 
566.667 1.21365 5.685 0.0181498 0.0157895 5.68637 15.6193 22 1 
568 1.21365 5.68658 0.018177 0.0154732 5.68794 15.6186 22 1 
569.333 1.21365 5.68832 0.0182121 0.015172 5.68966 15.6242 22 1 
570.667 1.21365 5.69012 0.0182292 0.0148868 5.69144 15.6281 22 1 
572 1.21365 5.69194 0.0182165 0.0145788 5.69325 15.6263 22 1 
573.333 1.21365 5.69384 0.0182052 0.0142709 5.69514 15.6263 22 1 
574.667 1.21365 5.69599 0.0182042 0.0140175 5.69728 15.6326 22 1 
576 1.21366 5.69822 0.0181672 0.0137819 5.6995 15.6343 22 1 
576 1.21366 5.69822 0.0181672 0.0137819 5.6995 15.6343 22 1 
577.333 1.21365 5.70031 0.0180764 0.0135109 5.70157 15.6322 22 1 
578.667 1.21366 5.70247 0.0180061 0.013271 5.70372 15.6373 22 1 
580 1.21366 5.70477 0.0179389 0.0130817 5.70601 15.6416 22 1 
581.333 1.21366 5.70699 0.0178497 0.0128978 5.70821 15.6387 22 1 
582.667 1.21366 5.70914 0.0177298 0.0127184 5.71035 15.6394 22 1 
584 1.21366 5.71124 0.0175942 0.0125857 5.71243 15.644 22 1 
585.333 1.21366 5.71328 0.017455 0.0124858 5.71446 15.6436 22 1 
586.667 1.21366 5.71527 0.0172939 0.012398 5.71643 15.6399 22 1 
588 1.21366 5.71707 0.017115 0.0123399 5.71822 15.6403 22 1 
589.333 1.21366 5.71869 0.0169305 0.0122869 5.71982 15.6416 22 1 
590.667 1.21366 5.72024 0.0167457 0.012257 5.72136 15.6358 22 1 
592 1.21365 5.7216 0.0165685 0.0122994 5.7227 15.6323 22 1 
593.333 1.21365 5.72274 0.0163991 0.0123805 5.72383 15.6328 22 1 
594.667 1.21365 5.72362 0.0162055 0.0124498 5.7247 15.6268 22 1 
596 1.21365 5.72429 0.0160325 0.0125393 5.72536 15.6193 22 1 
597.333 1.21365 5.72483 0.0159194 0.0126813 5.72588 15.6174 22 1 
597.333 1.21365 5.72483 0.0159194 0.0126813 5.72588 15.6174 24 1 
598.667 1.21364 5.72504 0.0158019 0.0128252 5.72608 15.6149 24 1 
600 1.21364 5.72493 0.015681 0.0129492 5.72596 15.6067 24 1 
601.333 1.21364 5.72463 0.0155981 0.0130943 5.72565 15.5999 24 1 
602.667 1.21364 5.72407 0.0155491 0.0132817 5.72508 15.5982 24 1 
604 1.21363 5.72314 0.0154889 0.0134736 5.72414 15.5941 24 1 
605.333 1.21363 5.72202 0.0154371 0.0136451 5.72301 15.5859 24 1 
606.667 1.21363 5.72069 0.015396 0.0138246 5.72167 15.5815 24 1 
608 1.21363 5.71886 0.015405 0.0140383 5.71983 15.5798 24 1 
609.333 1.21362 5.71678 0.0154375 0.014251 5.71775 15.5717 24 1 
610.667 1.21362 5.71467 0.0154749 0.0144335 5.71563 15.564 24 1 
612 1.21362 5.71217 0.0155425 0.014633 5.71312 15.5631 24 1 
613.333 1.21361 5.70932 0.015639 0.0148329 5.71027 15.5566 24 1 
614.667 1.21361 5.70636 0.0157714 0.0150188 5.7073 15.5438 24 1 
616 1.2136 5.70313 0.0159219 0.015203 5.70407 15.5374 24 1 
617.333 1.2136 5.69975 0.0160783 0.0153702 5.70069 15.5322 24 1 
618.667 1.21359 5.6963 0.0162598 0.0155217 5.69723 15.5199 24 1 
618.667 1.21359 5.6963 0.0162598 0.0155217 5.69723 15.5199 24 1 
620 1.21359 5.69257 0.0164843 0.0156789 5.6935 15.5086 24 1 
621.333 1.21358 5.68877 0.0167135 0.015846 5.68969 15.4988 24 1 
622.667 1.21357 5.68492 0.0169156 0.0159829 5.68584 15.4869 24 1 
624 1.21357 5.68108 0.0171359 0.0160995 5.68199 15.4749 24 1 
625.333 1.21356 5.67726 0.0173744 0.0162459 5.67817 15.464 24 1 
626.667 1.21356 5.6734 0.0175848 0.016374 5.67431 15.4533 24 1 
628 1.21355 5.66957 0.0177726 0.0164685 5.67048 15.4423 24 1 
629.333 1.21354 5.66593 0.0179629 0.01659 5.66683 15.4301 24 1 
630.667 1.21354 5.66241 0.0181391 0.0167236 5.66332 15.4223 24 1 
632 1.21353 5.65911 0.0182884 0.0168189 5.66001 15.4158 24 1 
633.333 1.21353 5.65592 0.0184171 0.0169163 5.65682 15.4072 24 1 
634.667 1.21353 5.65288 0.0185208 0.0170366 5.65378 15.4006 24 1 
636 1.21352 5.65014 0.0185865 0.0171345 5.65103 15.3964 24 1 
637.333 1.21352 5.64763 0.0186537 0.0172212 5.64852 15.3933 24 1 
638.667 1.21352 5.64542 0.0187104 0.0173123 5.6463 15.3909 24 1 
640 1.21352 5.64339 0.0187298 0.0173881 5.64427 15.3892 24 1 
640 1.21352 5.64339 0.0187298 0.0173881 5.64427 15.3892 24 1 
641.333 1.21352 5.64155 0.0187277 0.0174688 5.64243 15.3876 24 1 
642.667 1.21352 5.64001 0.0187438 0.0175562 5.64088 15.3875 24 1 
644 1.21352 5.63877 0.0187419 0.0176175 5.63964 15.3886 24 1 
645.333 1.21352 5.63777 0.018695 0.0176778 5.63863 15.3889 24 1 
646.667 1.21352 5.63686 0.0186853 0.0177564 5.63773 15.39 24 1 
648 1.21352 5.6361 0.0186766 0.0178158 5.63696 15.3911 24 1 
649.333 1.21352 5.63564 0.0186432 0.0178751 5.63649 15.3895 24 1 
650.667 1.21352 5.63532 0.018634 0.0179605 5.63617 15.39 24 1 
652 1.21352 5.63506 0.018632 0.0180252 5.63591 15.3924 24 1 
653.333 1.21352 5.63496 0.0186254 0.0180968 5.6358 15.3901 24 1 
654.667 1.21352 5.63492 0.018597 0.0181849 5.63576 15.3867 24 1 
656 1.21352 5.63488 0.0185856 0.0182756 5.63572 15.3876 24 1 
657.333 1.21352 5.63502 0.0186063 0.018372 5.63586 15.3856 24 1 
658.667 1.21352 5.63525 0.018568 0.0184624 5.63608 15.3811 24 1 
660 1.21352 5.63526 0.0185455 0.0185754 5.63609 15.3818 24 1 
661.333 1.21351 5.63537 0.0185699 0.018726 5.63619 15.3791 24 1 
661.333 1.21351 5.63537 0.0185699 0.018726 5.63619 15.3791 24 1 
662.667 1.21351 5.6355 0.0185427 0.0188581 5.63632 15.3747 24 1 
664 1.21351 5.63534 0.0185369 0.019011 5.63616 15.3752 24 1 
665.333 1.21351 5.63543 0.0185329 0.0192013 5.63625 15.3724 24 1 
666.667 1.21351 5.63525 0.0185627 0.0194205 5.63607 15.3723 24 1 
668 1.21351 5.63478 0.0186145 0.0196473 5.6356 15.3724 24 1 
669.333 1.21351 5.63448 0.0186348 0.0198695 5.6353 15.3672 24 1 
670.667 1.21351 5.63395 0.0187263 0.0201828 5.63476 15.3689 24 1 
672 1.21351 5.63305 0.0188317 0.0204769 5.63387 15.3728 24 1 
673.333 1.21351 5.63232 0.0188501 0.0206944 5.63314 15.3649 24 1 
674.667 1.21351 5.63119 0.0189917 0.0210025 5.632 15.366 24 1 
676 1.21351 5.62982 0.0191294 0.0213359 5.63063 15.3694 24 1 
677.333 1.2135 5.62865 0.0191842 0.0215589 5.62947 15.3612 24 1 
678.667 1.2135 5.62703 0.0193323 0.0218171 5.62785 15.3602 24 1 
680 1.2135 5.62535 0.0194804 0.0221648 5.62617 15.3614 24 1 
681.333 1.2135 5.62361 0.0196044 0.0224609 5.62443 15.3567 24 1 
682.667 1.2135 5.62173 0.0196953 0.022687 5.62255 15.351 24 1 
682.667 1.2135 5.62173 0.0196953 0.022687 5.62255 15.351 31 1 
684 1.2135 5.61968 0.019853 0.0229654 5.6205 15.3513 31 1 
685.333 1.2135 5.61775 0.0200486 0.0232656 5.61857 15.3481 31 1 
686.667 1.2135 5.61564 0.0201421 0.0234686 5.61647 15.3447 31 1 
688 1.21349 5.61356 0.020328 0.0236423 5.61439 15.3417 31 1 
689.333 1.21349 5.61151 0.020502 0.0237912 5.61234 15.341 31 1 
690.667 1.21349 5.60951 0.020633 0.0239207 5.61034 15.3404 31 1 
692 1.21349 5.60764 0.0208346 0.0240414 5.60847 15.3382 31 1 
693.333 1.21349 5.60582 0.0209581 0.0240276 5.60665 15.3394 31 1 
694.667 1.21349 5.60413 0.0210739 0.0240226 5.60496 15.3416 31 1 
696 1.21349 5.60261 0.0212532 0.0240537 5.60344 15.3412 31 1 
697.333 1.21349 5.60136 0.0213661 0.0240067 5.60219 15.3423 31 1 
698.667 1.2135 5.60021 0.021431 0.0238843 5.60104 15.3478 31 1 
700 1.2135 5.59931 0.0215205 0.0237478 5.60015 15.3484 31 1 
701.333 1.2135 5.5986 0.0216431 0.0236225 5.59943 15.3502 31 1 
702.667 1.2135 5.59821 0.0217061 0.0234112 5.59903 15.3531 31 1 
704 1.2135 5.59807 0.0217067 0.0231706 5.5989 15.3549 31 1 
704 1.2135 5.59807 0.0217067 0.0231706 5.5989 15.3549 31 1 
705.333 1.2135 5.5982 0.0217441 0.0228723 5.59902 15.3569 31 1 
706.667 1.2135 5.59864 0.0218106 0.0225958 5.59947 15.3569 31 1 
708 1.2135 5.5993 0.0218301 0.0222956 5.60011 15.3581 31 1 
709.333 1.2135 5.60019 0.0217702 0.0219117 5.601 15.3593 31 1 
710.667 1.2135 5.6014 0.0218501 0.0216174 5.60221 15.3564 31 1 
712 1.2135 5.60289 0.0218025 0.0212799 5.6037 15.3556 31 1 
713.333 1.2135 5.60455 0.0217458 0.0209572 5.60535 15.3567 31 1 
714.667 1.2135 5.60653 0.0217856 0.0207173 5.60732 15.3525 31 1 
716 1.2135 5.6086 0.0216947 0.0203736 5.6094 15.352 31 1 
717.333 1.2135 5.61107 0.0216593 0.0200781 5.61186 15.3501 31 1 
718.667 1.2135 5.61372 0.0217021 0.0199228 5.6145 15.3484 31 1 
720 1.2135 5.61668 0.0216432 0.0196472 5.61746 15.3477 31 1 
721.333 1.2135 5.61972 0.0214884 0.0193264 5.62049 15.3501 31 1 
722.667 1.2135 5.62275 0.021352 0.0190459 5.62351 15.3496 31 1 
724 1.2135 5.62616 0.0211627 0.0187818 5.62692 15.3457 31 1 
725.333 1.2135 5.62949 0.0208706 0.018464 5.63024 15.354 31 1 
725.333 1.2135 5.62949 0.0208706 0.018464 5.63024 15.354 31 1 
726.667 1.2135 5.63319 0.0205696 0.0180877 5.63393 15.3561 31 1 
728 1.2135 5.63729 0.0202977 0.0177593 5.63802 15.3542 31 1 
729.333 1.21351 5.64099 0.020078 0.017588 5.64172 15.3673 31 1 
730.667 1.21351 5.64495 0.0198869 0.017393 5.64567 15.3699 31 1 
732 1.21351 5.649 0.0196166 0.0172152 5.64971 15.3682 31 1 
733.333 1.21352 5.65278 0.0193778 0.0173804 5.65349 15.3813 31 1 
734.667 1.21352 5.65727 0.0191983 0.0176606 5.65798 15.3858 31 1 
736 1.21352 5.6613 0.0188312 0.017639 5.662 15.3916 31 1 
737.333 1.21352 5.66558 0.0184998 0.0176541 5.66627 15.3937 31 1 
738.667 1.21353 5.66962 0.0182284 0.0177476 5.6703 15.4039 31 1 
740 1.21353 5.6732 0.0180092 0.0174863 5.67388 15.4097 31 1 
741.333 1.21353 5.67727 0.0175097 0.0170188 5.67794 15.4006 31 1 
742.667 1.21353 5.68101 0.0173984 0.0170016 5.68167 15.4125 31 1 
744 1.21354 5.68493 0.0172189 0.0169146 5.68559 15.4191 31 1 
745.333 1.21353 5.68882 0.0164091 0.0164838 5.68947 15.4107 31 1 
746.667 1.21353 5.69194 0.0161043 0.0166992 5.69258 15.4131 31 1 
746.667 1.21353 5.69194 0.0161043 0.0166992 5.69258 15.4131 31 1 
748 1.21353 5.69555 0.0156175 0.0167888 5.69618 15.4093 31 1 
749.333 1.21353 5.69895 0.0149284 0.0166216 5.69957 15.4093 31 1 
750.667 1.21353 5.70233 0.0145881 0.0169555 5.70295 15.4074 31 1 
752 1.21352 5.7057 0.0141327 0.0168663 5.70631 15.398 31 1 
753.333 1.21353 5.70817 0.0136969 0.0167955 5.70877 15.3995 31 1 
754.667 1.21352 5.71123 0.0133408 0.0168057 5.71183 15.3851 31 1 
756 1.21351 5.71387 0.0131588 0.0169718 5.71446 15.3783 31 1 
757.333 1.21352 5.71619 0.0128849 0.016923 5.71678 15.3813 31 1 
758.667 1.21351 5.71855 0.0126018 0.0167514 5.71913 15.3632 31 1 
760 1.2135 5.72137 0.012431 0.0169886 5.72195 15.3446 31 1 
761.333 1.2135 5.72259 0.0121603 0.0169484 5.72316 15.3591 31 1 
762.667 1.21349 5.72452 0.0120971 0.0169613 5.72508 15.3303 31 1 
764 1.21347 5.72726 0.012031 0.0170156 5.72782 15.2986 31 1 
765.333 1.21348 5.72784 0.0118204 0.017191 5.7284 15.3248 31 1 
766.667 1.21347 5.72962 0.0118827 0.0173114 5.73017 15.2916 31 1 
768 1.21344 5.73228 0.0116734 0.0172392 5.73282 15.2424 31 1 
768 1.21344 5.73228 0.0116734 0.0172392 5.73282 15.2424 32 1 
769.333 1.21346 5.7319 0.0117977 0.0173638 5.73244 15.2724 32 1 
770.667 1.21343 5.7344 0.0118574 0.0176136 5.73494 15.2291 32 1 
772 1.21341 5.73676 0.0119223 0.0176285 5.73729 15.1822 32 1 
773.333 1.21342 5.73639 0.0121273 0.0176132 5.73692 15.2024 32 1 
774.667 1.21338 5.7401 0.012165 0.0177252 5.74062 15.1433 32 1 
776 1.21337 5.74148 0.0121267 0.0177404 5.742 15.1176 32 1 
777.333 1.21337 5.74119 0.0126231 0.0178583 5.7417 15.1117 32 1 
778.667 1.21332 5.74539 0.0132869 0.0180033 5.7459 15.0277 32 1 
780 1.21332 5.74736 0.0137564 0.0182661 5.74787 15.0225 32 1 
781.333 1.21331 5.74927 0.0142813 0.0182428 5.74978 15.0096 32 1 
782.667 1.21325 5.7567 0.0143708 0.017652 5.7572 14.8959 32 1 
784 1.21326 5.75782 0.0151928 0.0177564 5.75832 14.9278 32 1 
785.333 1.21324 5.76144 0.0163009 0.0181759 5.76195 14.8835 32 1 
786.667 1.21318 5.76359 0.0165556 0.0172047 5.76408 14.7703 32 1 
788 1.21314 5.76882 0.0161102 0.0161088 5.76931 14.705 32 1 
789.333 1.21314 5.77882 0.0170205 0.0162575 5.77932 14.71 32 1 
790.667 1.21315 5.78467 0.019271 0.0173671 5.78518 14.7127 32 1 
792 1.21306 5.79108 0.0193189 0.0174827 5.79158 14.5554 32 1 
793.333 1.21301 5.79449 0.0185193 0.015732 5.79499 14.4748 32 1 
794.667 1.21301 5.80152 0.0183663 0.0143058 5.80201 14.472 32 1 
796 1.21299 5.81005 0.018745 0.0160468 5.81053 14.4378 32 1 
797.333 1.21295 5.81495 0.0180701 0.0177174 5.81543 14.3656 32 1 
798.667 1.2129 5.82023 0.017112 0.0170656 5.8207 14.2701 32 1 
800 1.21287 5.82427 0.0177243 0.0169748 5.82475 14.2148 32 1 
