9.05647;r ;Density                 ;Velocity u              ;Velocity v              ;Velocity w              ;|Velocity|              ;Pressure                ;Distribution            ;Levels                  ;
0 1.20534 9.99539 2.44956e-05 2.36187e-05 9.99539 0.620088 1 1 
1.33334 1.20544 9.99001 1.9915e-05 1.57901e-05 9.99001 0.793927 1 1 
2.66666 1.20575 9.97634 1.89701e-05 1.49111e-05 9.97634 1.34659 1 1 
4 1.20622 9.95869 2.38798e-05 1.77335e-05 9.95869 2.196 1 1 
5.33334 1.20671 9.94079 3.11757e-05 2.34382e-05 9.94079 3.08542 1 1 
6.66666 1.20699 9.93066 3.62876e-05 3.09506e-05 9.93066 3.59322 1 1 
8 1.20674 9.93914 4.6473e-05 4.38908e-05 9.93914 3.14562 1 1 
9.33334 1.20587 9.96786 4.4291e-05 4.24188e-05 9.96786 1.58017 1 1 
10.6667 1.20471 10.007 5.74452e-05 5.3567e-05 10.007 -0.515342 1 1 
12 1.20389 10.0353 6.72431e-05 6.52603e-05 10.0353 -1.99805 1 1 
13.3333 1.20397 10.0327 7.12649e-05 6.88024e-05 10.0327 -1.85867 1 1 
14.6667 1.20493 10.0007 0.000102298 0.000101193 10.0007 -0.117456 1 1 
16 1.20608 9.96335 0.00017203 0.000168804 9.96335 1.94746 1 1 
17.3333 1.20642 9.95207 0.000316214 0.000309909 9.95207 2.55936 1 1 
18.6667 1.20581 9.97109 0.000559644 0.000555602 9.97109 1.46066 1 1 
20 1.20531 9.98684 0.000901669 0.000895479 9.98684 0.562971 1 1 
21.3333 1.20588 9.96853 0.00131074 0.00130627 9.96853 1.59332 1 1 
21.3333 1.20588 9.96853 0.00131074 0.00130627 9.96853 1.59332 1 1 
22.6667 1.20704 9.93149 0.00169828 0.00169113 9.93149 3.6901 1 1 
24 1.20732 9.92292 0.00189527 0.00188875 9.92292 4.1962 1 1 
25.3333 1.20638 9.95249 0.00180639 0.00180277 9.9525 2.48568 1 1 
26.6667 1.20566 9.97482 0.00141155 0.0014088 9.97482 1.1862 1 1 
28 1.20615 9.96043 0.000831654 0.000839104 9.96043 2.08317 1 1 
29.3333 1.20665 9.94611 0.000262567 0.000270152 9.94611 2.97909 1 1 
30.6667 1.20587 9.96999 -0.000148459 -0.000133097 9.96999 1.56736 1 1 
32 1.20493 9.99856 -0.00027166 -0.000246527 9.99856 -0.126132 1 1 
33.3333 1.20527 9.98989 -0.000182749 -0.00015474 9.98989 0.486477 1 1 
34.6667 1.20578 9.97545 -2.8975e-05 1.1708e-05 9.97545 1.4164 1 1 
36 1.20504 9.99727 8.99631e-05 0.000128057 9.99727 0.0756401 1 1 
37.3333 1.2044 10.0158 0.000138031 0.000177294 10.0158 -1.0748 1 1 
38.6667 1.20523 9.99199 0.00026739 0.000302313 9.99199 0.408315 1 1 
40 1.20588 9.97266 0.000599084 0.000621752 9.97266 1.59664 1 1 
41.3333 1.20525 9.99048 0.0010282 0.00104738 9.99048 0.446193 1 1 
42.6667 1.20503 9.99721 0.00134071 0.00134706 9.99721 0.0557211 1 1 
42.6667 1.20503 9.99721 0.00134071 0.00134706 9.99721 0.0557211 2 1 
44 1.20571 9.97829 0.00130692 0.00131393 9.97829 1.28994 2 1 
45.3333 1.20552 9.9833 0.000907366 0.000906661 9.9833 0.938193 2 1 
46.6667 1.20492 9.99997 0.000473087 0.000469777 9.99997 -0.152409 2 1 
48 1.20535 9.98923 0.000251365 0.000248492 9.98923 0.629458 2 1 
49.3333 1.20567 9.98055 0.000319194 0.000307344 9.98055 1.20145 2 1 
50.6667 1.20518 9.99337 0.000520472 0.000511291 9.99337 0.328821 2 1 
52 1.20507 9.99762 0.000552744 0.000540175 9.99762 0.124613 2 1 
53.3333 1.20506 9.99888 0.000393591 0.000389879 9.99888 0.107728 2 1 
54.6667 1.20473 10.0075 0.000117198 0.000115523 10.0075 -0.489391 2 1 
56 1.20492 10.003 -9.55367e-05 -9.49369e-05 10.003 -0.148072 2 1 
57.3333 1.20497 10.0027 -0.000118102 -0.000108902 10.0027 -0.0526657 2 1 
58.6667 1.20452 10.0138 -3.26834e-05 -2.04819e-05 10.0138 -0.866991 2 1 
60 1.2048 10.0066 9.98544e-05 0.000122061 10.0066 -0.363676 2 1 
61.3333 1.20495 10.0032 0.000180549 0.000192049 10.0032 -0.0834914 2 1 
62.6667 1.20432 10.02 0.000216755 0.000223355 10.02 -1.23544 2 1 
64 1.20451 10.0153 0.000248577 0.000251878 10.0153 -0.876047 2 1 
64 1.20451 10.0153 0.000248577 0.000251878 10.0153 -0.876047 2 1 
65.3333 1.20495 10.0039 0.000260947 0.000260954 10.0039 -0.0915747 2 1 
66.6667 1.20454 10.0138 0.000297005 0.000305491 10.0138 -0.823442 2 1 
68 1.20449 10.0157 0.000349915 0.000352524 10.0157 -0.928768 2 1 
69.3333 1.20482 10.0069 0.000424281 0.000434848 10.0069 -0.331004 2 1 
70.6667 1.20474 10.0084 0.00051533 0.000519989 10.0084 -0.462109 2 1 
72 1.20457 10.0138 0.000521726 0.000519129 10.0138 -0.77692 2 1 
73.3333 1.20458 10.0133 0.000437429 0.000444202 10.0133 -0.765473 2 1 
74.6667 1.20472 10.0095 0.000352328 0.000357142 10.0095 -0.506934 2 1 
76 1.20473 10.0091 0.000353185 0.000361199 10.0091 -0.484507 2 1 
77.3333 1.20463 10.0113 0.000489471 0.000490675 10.0113 -0.666465 2 1 
78.6667 1.20478 10.0083 0.000628426 0.000630824 10.0083 -0.404242 2 1 
80 1.20473 10.0095 0.000649903 0.000651409 10.0095 -0.487708 2 1 
81.3333 1.20458 10.0129 0.000548641 0.000552658 10.0129 -0.754098 2 1 
82.6667 1.20472 10.01 0.000422262 0.00043684 10.01 -0.502899 2 1 
84 1.2047 10.0102 0.000422364 0.000432605 10.0102 -0.548407 2 1 
85.3333 1.2047 10.0096 0.000551142 0.000566643 10.0096 -0.539546 2 1 
85.3333 1.2047 10.0096 0.000551142 0.000566643 10.0096 -0.539546 3 1 
86.6667 1.20479 10.0078 0.000696868 0.000711901 10.0078 -0.380105 3 1 
88 1.2047 10.0103 0.000728046 0.00074343 10.0103 -0.543032 3 1 
89.3333 1.20467 10.0112 0.000648676 0.000671933 10.0112 -0.595415 3 1 
90.6667 1.20464 10.0118 0.000537578 0.000561842 10.0118 -0.645781 3 1 
92 1.2047 10.0104 0.000511496 0.000538775 10.0104 -0.545209 3 1 
93.3333 1.20476 10.0087 0.000602895 0.000633117 10.0087 -0.428483 3 1 
94.6667 1.20467 10.0111 0.000689802 0.000709993 10.0111 -0.603695 3 1 
96 1.20467 10.0114 0.00072222 0.000743066 10.0114 -0.599457 3 1 
97.3333 1.20471 10.0105 0.000706491 0.000734488 10.0105 -0.524359 3 1 
98.6667 1.20467 10.0115 0.00063755 0.000673018 10.0115 -0.604573 3 1 
100 1.20464 10.012 0.000653404 0.000687737 10.012 -0.652809 3 1 
101.333 1.20467 10.0113 0.000680759 0.00070988 10.0113 -0.594471 3 1 
102.667 1.20466 10.0114 0.000677132 0.000714203 10.0114 -0.606666 3 1 
104 1.2047 10.0108 0.00072443 0.000760115 10.0108 -0.548696 3 1 
105.333 1.2047 10.0105 0.000728726 0.000773675 10.0105 -0.539141 3 1 
106.667 1.2046 10.0131 0.000777669 0.000816526 10.0131 -0.72466 3 1 
106.667 1.2046 10.0131 0.000777669 0.000816526 10.0131 -0.72466 3 1 
108 1.20466 10.0119 0.000783908 0.000834233 10.0119 -0.619163 3 1 
109.333 1.20468 10.0107 0.000726045 0.000778158 10.0107 -0.573134 3 1 
110.667 1.20461 10.0128 0.000692098 0.00074119 10.0128 -0.707673 3 1 
112 1.20463 10.0128 0.000702807 0.000763731 10.0128 -0.665324 3 1 
113.333 1.20468 10.0111 0.000764469 0.000816698 10.0111 -0.57626 3 1 
114.667 1.20466 10.0116 0.000808554 0.000867265 10.0116 -0.620536 3 1 
116 1.2046 10.0133 0.000820196 0.000865418 10.0133 -0.717373 3 1 
117.333 1.20459 10.0132 0.000758837 0.000816505 10.0132 -0.739779 3 1 
118.667 1.2046 10.0134 0.000716453 0.000777878 10.0134 -0.714346 3 1 
120 1.20466 10.0115 0.000712284 0.000775269 10.0115 -0.620046 3 1 
121.333 1.20461 10.0121 0.000787304 0.000856356 10.0121 -0.705513 3 1 
122.667 1.20458 10.0137 0.000836479 0.00089866 10.0137 -0.760492 3 1 
124 1.20461 10.0122 0.000808952 0.000873214 10.0122 -0.707505 3 1 
125.333 1.2046 10.0129 0.000763847 0.00082908 10.0129 -0.71392 3 1 
126.667 1.2046 10.0135 0.000732658 0.000803114 10.0135 -0.727324 3 1 
128 1.2046 10.0127 0.000787398 0.000846715 10.0127 -0.720594 3 1 
128 1.2046 10.0127 0.000787398 0.000846715 10.0127 -0.720594 3 1 
129.333 1.20462 10.0122 0.000821128 0.000902771 10.0122 -0.680083 3 1 
130.667 1.20459 10.0129 0.00084635 0.000927852 10.0129 -0.745963 3 1 
132 1.20456 10.0138 0.000822362 0.000889441 10.0138 -0.801125 3 1 
133.333 1.20461 10.0127 0.000787421 0.00086078 10.0127 -0.712307 3 1 
134.667 1.20462 10.0125 0.00077722 0.000865791 10.0125 -0.69398 3 1 
136 1.20456 10.0131 0.000806888 0.000897356 10.0131 -0.789648 3 1 
137.333 1.2046 10.0121 0.000840555 0.000930551 10.0121 -0.716186 3 1 
138.667 1.20459 10.0124 0.000831864 0.00093588 10.0124 -0.748736 3 1 
140 1.20456 10.0128 0.000845032 0.000924625 10.0128 -0.79388 3 1 
141.333 1.20459 10.0122 0.00081794 0.00090421 10.0122 -0.733542 3 1 
142.667 1.20459 10.0125 0.000834168 0.00092546 10.0125 -0.735484 3 1 
144 1.20459 10.0124 0.000837425 0.000934876 10.0124 -0.740476 3 1 
145.333 1.2046 10.0118 0.000841316 0.000955646 10.0118 -0.729356 3 1 
146.667 1.2046 10.0123 0.00085351 0.000958871 10.0123 -0.728019 3 1 
148 1.20456 10.0124 0.000831643 0.000944688 10.0124 -0.786275 3 1 
149.333 1.2046 10.0107 0.000854502 0.000960909 10.0107 -0.721068 3 1 
149.333 1.2046 10.0107 0.000854502 0.000960909 10.0107 -0.721068 3 1 
150.667 1.20462 10.0107 0.000839776 0.000948883 10.0107 -0.687038 3 1 
152 1.2046 10.011 0.000836279 0.000945248 10.011 -0.724356 3 1 
153.333 1.20458 10.0114 0.000849801 0.00095774 10.0114 -0.758975 3 1 
154.667 1.2046 10.0113 0.000845703 0.000974982 10.0113 -0.721708 3 1 
156 1.20463 10.0102 0.000857918 0.000992784 10.0102 -0.670503 3 1 
157.333 1.20461 10.0101 0.000840832 0.000983134 10.0101 -0.70009 3 1 
158.667 1.20459 10.0106 0.000822195 0.000951039 10.0106 -0.731768 3 1 
160 1.20464 10.0088 0.000807409 0.000946174 10.0088 -0.656354 3 1 
161.333 1.20465 10.0085 0.000836355 0.000980928 10.0085 -0.627605 3 1 
162.667 1.2046 10.0102 0.000865736 0.00101861 10.0102 -0.72157 3 1 
164 1.20461 10.0094 0.000862048 0.00101916 10.0094 -0.699477 3 1 
165.333 1.20463 10.0089 0.00082842 0.000988358 10.0089 -0.662064 3 1 
166.667 1.20465 10.0074 0.000802519 0.000987241 10.0074 -0.625306 3 1 
168 1.20465 10.0063 0.000821575 0.000994001 10.0063 -0.62562 3 1 
169.333 1.20463 10.0074 0.000845202 0.00102391 10.0074 -0.666449 3 1 
170.667 1.20464 10.0081 0.000871977 0.00105419 10.0081 -0.650204 3 1 
170.667 1.20464 10.0081 0.000871977 0.00105419 10.0081 -0.650204 11 1 
172 1.20465 10.0084 0.000867841 0.00104208 10.0084 -0.634606 11 1 
173.333 1.20467 10.0069 0.000855001 0.00104522 10.0069 -0.593073 11 1 
174.667 1.20469 10.0049 0.00081632 0.00103483 10.0049 -0.56759 11 1 
176 1.20465 10.0047 0.000839512 0.00105124 10.0047 -0.639817 11 1 
177.333 1.20465 10.0048 0.000861573 0.00107192 10.0048 -0.63359 11 1 
178.667 1.20469 10.0046 0.000849636 0.00107747 10.0046 -0.556536 11 1 
180 1.20469 10.0045 0.000862028 0.00107286 10.0045 -0.551064 11 1 
181.333 1.20468 10.0047 0.000866797 0.00107741 10.0047 -0.573438 11 1 
182.667 1.20468 10.0041 0.00089471 0.00114735 10.0041 -0.57897 11 1 
184 1.20469 10.0027 0.000914457 0.00116391 10.0027 -0.554007 11 1 
185.333 1.2047 10.0018 0.000887608 0.0011381 10.0018 -0.538528 11 1 
186.667 1.20471 10.0009 0.000830364 0.00110114 10.0009 -0.526701 11 1 
188 1.20471 10.0007 0.000836893 0.00111137 10.0007 -0.525739 11 1 
189.333 1.2047 10.0014 0.000898042 0.00116001 10.0014 -0.541259 11 1 
190.667 1.20471 10.0004 0.000919224 0.00118278 10.0004 -0.526338 11 1 
192 1.20473 9.99948 0.000923731 0.0012324 9.99948 -0.48083 11 1 
192 1.20473 9.99948 0.000923731 0.0012324 9.99948 -0.48083 11 1 
193.333 1.20476 9.99929 0.000945069 0.00121986 9.99929 -0.429142 11 1 
194.667 1.20474 9.99797 0.000839243 0.00113276 9.99797 -0.476656 11 1 
196 1.20471 9.99625 0.00088522 0.00122096 9.99625 -0.521348 11 1 
197.333 1.20472 9.99651 0.000954924 0.00126949 9.99651 -0.497373 11 1 
198.667 1.20476 9.99578 0.000865646 0.00117654 9.99578 -0.431785 11 1 
200 1.2048 9.99503 0.000974012 0.00132389 9.99503 -0.368718 11 1 
201.333 1.20477 9.99467 0.000932373 0.00130156 9.99467 -0.416217 11 1 
202.667 1.20477 9.99092 0.000812493 0.00112533 9.99092 -0.422778 11 1 
204 1.20476 9.98974 0.000916508 0.00126552 9.98974 -0.436919 11 1 
205.333 1.20478 9.99084 0.000892995 0.00129449 9.99084 -0.402005 11 1 
206.667 1.20484 9.99051 0.000897786 0.00128087 9.99051 -0.295978 11 1 
208 1.2048 9.99183 0.00101557 0.00137294 9.99183 -0.355469 11 1 
209.333 1.20481 9.99032 0.000910145 0.00131388 9.99032 -0.340299 11 1 
210.667 1.20485 9.98509 0.000872558 0.00132095 9.98509 -0.277463 11 1 
212 1.20484 9.98172 0.000891668 0.00129474 9.98172 -0.297872 11 1 
213.333 1.20483 9.98032 0.000878708 0.00126809 9.98032 -0.299914 11 1 
213.333 1.20483 9.98032 0.000878708 0.00126809 9.98032 -0.299914 11 1 
214.667 1.20485 9.98007 0.000876941 0.00132744 9.98007 -0.272751 11 1 
216 1.20487 9.98082 0.000853984 0.00132591 9.98082 -0.235428 11 1 
217.333 1.20488 9.98096 0.000871991 0.00129913 9.98096 -0.215268 11 1 
218.667 1.20493 9.97901 0.00088142 0.00134226 9.97901 -0.123659 11 1 
220 1.20494 9.97697 0.000913358 0.00141165 9.97697 -0.11451 11 1 
221.333 1.20491 9.97314 0.000932424 0.00139074 9.97315 -0.164733 11 1 
222.667 1.20492 9.96772 0.000893081 0.00134332 9.96772 -0.139025 11 1 
224 1.20495 9.96642 0.000792625 0.00129789 9.96642 -0.0955607 11 1 
225.333 1.20499 9.96569 0.00077517 0.00131605 9.96569 -0.020802 11 1 
226.667 1.20502 9.96488 0.000820557 0.00132831 9.96488 0.0375661 11 1 
228 1.20501 9.96555 0.000924116 0.00140068 9.96555 0.0272148 11 1 
229.333 1.20502 9.95976 0.000882992 0.00142447 9.95976 0.0442643 11 1 
230.667 1.20505 9.95329 0.000752228 0.00132627 9.9533 0.0973673 11 1 
232 1.20507 9.95135 0.000708679 0.00123623 9.95135 0.119108 11 1 
233.333 1.20511 9.94946 0.00075787 0.00129257 9.94946 0.194125 11 1 
234.667 1.20517 9.94752 0.000891178 0.00144862 9.94752 0.302395 11 1 
234.667 1.20517 9.94752 0.000891178 0.00144862 9.94752 0.302395 11 1 
236 1.20514 9.94551 0.000843412 0.00144123 9.94551 0.254398 11 1 
237.333 1.20517 9.93917 0.000779758 0.00135117 9.93917 0.304117 11 1 
238.667 1.20523 9.93213 0.000681302 0.0012331 9.93213 0.419944 11 1 
240 1.20522 9.92998 0.000638902 0.0012802 9.92998 0.402346 11 1 
241.333 1.2053 9.9249 0.000732752 0.00133507 9.9249 0.536885 11 1 
242.667 1.20532 9.92297 0.000793992 0.00136343 9.92297 0.572968 11 1 
244 1.20537 9.91709 0.000709577 0.00130222 9.91709 0.664753 11 1 
245.333 1.20538 9.90934 0.000617132 0.0012437 9.90934 0.69149 11 1 
246.667 1.20541 9.90403 0.000659372 0.0013352 9.90403 0.745466 11 1 
248 1.20552 9.89673 0.000571808 0.0011928 9.89673 0.946789 11 1 
249.333 1.20551 9.8926 0.000688263 0.00133582 9.8926 0.925216 11 1 
250.667 1.20559 9.88411 0.000693311 0.00137644 9.88411 1.06044 11 1 
252 1.20562 9.87669 0.000469139 0.00112416 9.87669 1.12054 11 1 
253.333 1.20572 9.86508 0.000560935 0.00124046 9.86508 1.29224 11 1 
254.667 1.20577 9.85787 0.000561883 0.00125438 9.85787 1.38889 11 1 
256 1.20581 9.8506 0.000524701 0.00121575 9.8506 1.45585 11 1 
256 1.20581 9.8506 0.000524701 0.00121575 9.8506 1.45585 13 1 
257.333 1.20595 9.83817 0.00054967 0.00125637 9.83817 1.71952 13 1 
258.667 1.20597 9.82887 0.00041167 0.00112214 9.82887 1.75538 13 1 
260 1.20603 9.81528 0.00039783 0.00108849 9.81528 1.8557 13 1 
261.333 1.20618 9.79958 0.000480524 0.00119097 9.79958 2.13383 13 1 
262.667 1.2063 9.78466 0.000443437 0.00119394 9.78467 2.35198 13 1 
264 1.2063 9.77494 0.000382274 0.00113468 9.77495 2.35306 13 1 
265.333 1.20647 9.75774 0.000338204 0.00109699 9.75774 2.65513 13 1 
266.667 1.20671 9.73279 0.000310963 0.00110706 9.7328 3.09708 13 1 
268 1.20665 9.71751 0.000290712 0.00110795 9.71752 2.97998 13 1 
269.333 1.20684 9.6958 0.000291076 0.0010715 9.6958 3.32198 13 1 
270.667 1.20724 9.66414 0.000245391 0.00103639 9.66414 4.04599 13 1 
272 1.20707 9.65132 0.000235509 0.00106699 9.65133 3.73393 13 1 
273.333 1.20734 9.61946 0.0002298 0.00104595 9.61947 4.22278 13 1 
274.667 1.20789 9.57691 0.0001442 0.000960989 9.57692 5.21297 13 1 
276 1.20774 9.55499 0.000122841 0.000975652 9.55501 4.94563 13 1 
277.333 1.20803 9.50834 0.00011121 0.000961766 9.50836 5.47383 13 1 
277.333 1.20803 9.50834 0.00011121 0.000961766 9.50836 5.47383 13 1 
278.667 1.20852 9.4628 0.000103861 0.00092935 9.46282 6.35349 13 1 
280 1.20864 9.42037 6.81148e-05 0.000911072 9.42039 6.56902 13 1 
281.333 1.20894 9.3612 2.39198e-05 0.000895593 9.36122 7.11393 13 1 
282.667 1.20933 9.31449 2.49918e-06 0.000877643 9.31449 7.82655 13 1 
284 1.20986 9.26722 -2.27938e-05 0.000841513 9.26722 8.77377 13 1 
285.333 1.21037 9.20463 -3.60999e-05 0.000841255 9.20469 9.70187 13 1 
286.667 1.21064 9.11727 -8.14591e-05 0.000809419 9.11745 10.1958 13 1 
288 1.21098 9.0133 -0.000100267 0.000781812 9.01344 10.8015 13 1 
289.333 1.21159 8.92929 -0.000127216 0.000765135 8.92934 11.9066 13 1 
290.667 1.21242 8.84864 -0.000177609 0.00073944 8.84869 13.3986 13 1 
292 1.21302 8.75254 -0.000187519 0.000728528 8.75267 14.4825 13 1 
293.333 1.21337 8.64882 -0.000200359 0.000708534 8.64903 15.1177 13 1 
294.667 1.21404 8.52931 -0.000222771 0.00069642 8.52976 16.3308 13 1 
296 1.21488 8.41085 -0.000252901 0.00066952 8.41123 17.8507 13 1 
297.333 1.21517 8.32488 -0.000265157 0.000654654 8.32544 18.371 13 1 
298.667 1.2084 8.19724 -0.000317544 0.000615716 8.41767 6.14066 13 1 
298.667 1.2084 8.19724 -0.000317544 0.000615716 8.41767 6.14066 14 1 
300 1.19716 8.20743 -0.000444546 0.00053525 8.48456 -14.1607 14 1 
301.333 1.1931 8.23965 -0.000525042 0.000480369 8.37761 -21.4969 14 1 
302.667 1.19421 8.08294 -0.000626236 0.000380538 8.1907 -19.4853 14 1 
304 1.19528 7.92278 -0.000701532 0.000306576 7.99928 -17.5617 14 1 
305.333 1.19599 7.77412 -0.000744425 0.000249412 7.83441 -16.2672 14 1 
306.667 1.19669 7.64269 -0.00083255 0.00014139 7.67714 -15.0093 14 1 
308 1.19729 7.52239 -0.000842147 0.000108123 7.55621 -13.9222 14 1 
309.333 1.1978 7.41618 -0.000886105 5.23403e-05 7.4466 -13.0115 14 1 
310.667 1.1984 7.32751 -0.000934206 -1.42157e-05 7.35578 -11.9134 14 1 
312 1.19889 7.24585 -0.000944801 -7.19763e-05 7.26636 -11.0406 14 1 
313.333 1.19927 7.16973 -0.00100349 -0.000156224 7.18899 -10.351 14 1 
314.667 1.19966 7.09792 -0.00100622 -0.000163555 7.11655 -9.63797 14 1 
316 1.19996 7.03154 -0.00102964 -0.000235036 7.04914 -9.10732 14 1 
317.333 1.20024 6.97523 -0.00105621 -0.000315055 6.99018 -8.60414 14 1 
318.667 1.20061 6.92706 -0.00105083 -0.000327084 6.94141 -7.92288 14 1 
320 1.20086 6.87654 -0.00107295 -0.000375126 6.88977 -7.48059 14 1 
320 1.20086 6.87654 -0.00107295 -0.000375126 6.88977 -7.48059 14 1 
321.333 1.20097 6.8297 -0.0011016 -0.000447044 6.84268 -7.27038 14 1 
322.667 1.20121 6.79399 -0.00111309 -0.000482474 6.80567 -6.84173 14 1 
324 1.20147 6.75703 -0.00110872 -0.00049316 6.76818 -6.37661 14 1 
325.333 1.20158 6.72441 -0.00112566 -0.000537705 6.73502 -6.18088 14 1 
326.667 1.20173 6.70474 -0.00111724 -0.000576179 6.71492 -5.90727 14 1 
328 1.20196 6.68374 -0.00110762 -0.000602156 6.69317 -5.49495 14 1 
329.333 1.20209 6.66179 -0.00111822 -0.000635991 6.67108 -5.26473 14 1 
330.667 1.20215 6.64291 -0.00112261 -0.000673179 6.6517 -5.15335 14 1 
332 1.20226 6.62701 -0.00112319 -0.000717673 6.63561 -4.9513 14 1 
333.333 1.20245 6.62149 -0.00110865 -0.000754746 6.62967 -4.60228 14 1 
334.667 1.20262 6.61456 -0.00108255 -0.000761865 6.62253 -4.30171 14 1 
336 1.20262 6.59974 -0.00107881 -0.000779767 6.6075 -4.29394 14 1 
337.333 1.20264 6.59231 -0.00110099 -0.000857383 6.59996 -4.25553 14 1 
338.667 1.20283 6.5905 -0.00108136 -0.000896312 6.59784 -3.92578 14 1 
340 1.20299 6.58547 -0.00103221 -0.000886582 6.59262 -3.62369 14 1 
341.333 1.20301 6.5729 -0.00102499 -0.000961831 6.57982 -3.59611 14 1 
341.333 1.20301 6.5729 -0.00102499 -0.000961831 6.57982 -3.59611 15 1 
342.667 1.20299 6.55651 -0.00105943 -0.00110673 6.56341 -3.63716 15 1 
344 1.2031 6.55294 -0.0010263 -0.00114607 6.55963 -3.43593 15 1 
345.333 1.20324 6.55155 -0.000941968 -0.00111065 6.55803 -3.17662 15 1 
346.667 1.20328 6.53242 -0.000922287 -0.00113921 6.53868 -3.10204 15 1 
348 1.20331 6.50879 -0.000957172 -0.00119955 6.51504 -3.05277 15 1 
349.333 1.20334 6.49567 -0.000958961 -0.00120554 6.5018 -2.99305 15 1 
350.667 1.20342 6.49469 -0.000876933 -0.00113122 6.50059 -2.85765 15 1 
352 1.20354 6.49464 -0.00081441 -0.00108411 6.50018 -2.64068 15 1 
353.333 1.20356 6.48268 -0.000847211 -0.00112939 6.48812 -2.59951 15 1 
354.667 1.20358 6.47518 -0.000876583 -0.00117613 6.48052 -2.57168 15 1 
356 1.20367 6.47819 -0.000783473 -0.00111042 6.48326 -2.39694 15 1 
357.333 1.20375 6.46549 -0.000674993 -0.00101566 6.47013 -2.25762 15 1 
358.667 1.20384 6.42707 -0.000657719 -0.000985561 6.4314 -2.09532 15 1 
360 1.20392 6.37195 -0.000684856 -0.0010033 6.376 -1.95553 15 1 
361.333 1.20394 6.31658 -0.000663413 -0.000998795 6.32045 -1.90763 15 1 
362.667 1.20403 6.28108 -0.000630969 -0.000959881 6.28473 -1.75877 15 1 
362.667 1.20403 6.28108 -0.000630969 -0.000959881 6.28473 -1.75877 15 1 
364 1.20415 6.27002 -0.000697171 -0.000958765 6.27343 -1.53326 15 1 
365.333 1.20426 6.28273 -0.000815544 -0.000980072 6.28571 -1.34045 15 1 
366.667 1.20438 6.32233 -0.00090408 -0.000945315 6.32478 -1.11535 15 1 
368 1.20454 6.39178 -0.000957556 -0.000798665 6.39358 -0.833129 15 1 
369.333 1.20472 6.49236 -0.00103109 -0.000636323 6.49364 -0.514288 15 1 
370.667 1.2049 6.61642 -0.00113269 -0.000534726 6.61726 -0.1851 15 1 
372 1.20509 6.75789 -0.00124905 -0.000453 6.75849 0.15709 15 1 
373.333 1.20528 6.91613 -0.0012924 -0.000320731 6.91655 0.503846 15 1 
374.667 1.20546 7.08682 -0.00127446 -0.000189618 7.08718 0.825591 15 1 
376 1.20563 7.26896 -0.0013001 -0.000125221 7.26929 1.14358 15 1 
377.333 1.20578 7.4602 -0.00133973 -7.8354e-05 7.46053 1.41246 15 1 
378.667 1.2059 7.65228 -0.00133502 -4.37559e-05 7.65259 1.62074 15 1 
380 1.206 7.84287 -0.00128406 5.45196e-06 7.84317 1.80038 15 1 
381.333 1.20605 8.02992 -0.00122292 8.65306e-05 8.03019 1.89863 15 1 
382.667 1.20609 8.20899 -0.00118868 0.000133882 8.20923 1.9639 15 1 
384 1.20612 8.37857 -0.00117313 0.000119894 8.37877 2.02669 15 1 
384 1.20612 8.37857 -0.00117313 0.000119894 8.37877 2.02669 15 1 
385.333 1.20611 8.53526 -0.00112582 0.000144214 8.53543 2.01029 15 1 
386.667 1.20609 8.67728 -0.00108113 0.000202518 8.67742 1.97048 15 1 
388 1.20607 8.80725 -0.00100852 0.000250638 8.80737 1.92833 15 1 
389.333 1.20602 8.92505 -0.00095516 0.000265124 8.92514 1.83503 15 1 
390.667 1.20597 9.02993 -0.000974529 0.000266276 9.03 1.74471 15 1 
392 1.20593 9.12313 -0.000946723 0.000276168 9.12318 1.67369 15 1 
393.333 1.20589 9.206 -0.000855919 0.000307303 9.20604 1.60407 15 1 
394.667 1.20585 9.27976 -0.000832007 0.000337036 9.2798 1.53696 15 1 
396 1.2058 9.34523 -0.000856754 0.000305233 9.34526 1.44714 15 1 
397.333 1.20575 9.40301 -0.000815877 0.000300075 9.40303 1.35378 15 1 
398.667 1.20571 9.45378 -0.000777317 0.000337795 9.4538 1.28185 15 1 
400 1.20567 9.49923 -0.000746575 0.000368441 9.49924 1.20952 15 1 
401.333 1.20564 9.53969 -0.000685769 0.000394746 9.5397 1.15378 15 1 
402.667 1.20562 9.57585 -0.000665361 0.000400065 9.57586 1.12096 15 1 
404 1.20557 9.60796 -0.000700382 0.000358262 9.60797 1.03837 15 1 
405.333 1.20552 9.63557 -0.00066481 0.000392763 9.63557 0.944615 15 1 
405.333 1.20552 9.63557 -0.00066481 0.000392763 9.63557 0.944615 15 1 
406.667 1.20552 9.66163 -0.000577383 0.000478309 9.66164 0.937214 15 1 
408 1.20552 9.68671 -0.000570184 0.000467672 9.68671 0.930516 15 1 
409.333 1.20549 9.70835 -0.000621688 0.000407459 9.70836 0.877998 15 1 
410.667 1.20545 9.72649 -0.000606089 0.000422919 9.7265 0.814309 15 1 
412 1.20542 9.74464 -0.000533663 0.000477733 9.74465 0.761434 15 1 
413.333 1.20543 9.76301 -0.000483682 0.000495991 9.76301 0.772031 15 1 
414.667 1.20543 9.77851 -0.000493827 0.000477977 9.77852 0.771973 15 1 
416 1.20539 9.79192 -0.000519477 0.000449303 9.79192 0.709551 15 1 
417.333 1.20538 9.80499 -0.000476694 0.000461972 9.80499 0.684341 15 1 
418.667 1.20538 9.81804 -0.000437778 0.000487245 9.81804 0.685228 15 1 
420 1.20536 9.82951 -0.00043193 0.000500609 9.82951 0.652318 15 1 
421.333 1.20536 9.83922 -0.000448509 0.000459643 9.83922 0.645495 15 1 
422.667 1.20536 9.84953 -0.00042827 0.000461339 9.84953 0.655469 15 1 
424 1.20533 9.85844 -0.000426649 0.000479208 9.85844 0.60463 15 1 
425.333 1.20531 9.86578 -0.000445101 0.000462228 9.86578 0.554234 15 1 
426.667 1.20532 9.87384 -0.000428377 0.000470431 9.87384 0.574096 15 1 
426.667 1.20532 9.87384 -0.000428377 0.000470431 9.87384 0.574096 20 1 
428 1.20533 9.88082 -0.000420328 0.000476902 9.88082 0.602109 20 1 
429.333 1.20533 9.88814 -0.00044617 0.000453916 9.88814 0.591252 20 1 
430.667 1.2053 9.89398 -0.00048211 0.000424699 9.89398 0.550926 20 1 
432 1.20529 9.89866 -0.000436422 0.000472099 9.89866 0.51808 20 1 
433.333 1.20528 9.90443 -0.000420189 0.000478368 9.90443 0.497002 20 1 
434.667 1.20528 9.90924 -0.000444986 0.000453269 9.90924 0.513548 20 1 
436 1.20531 9.91511 -0.000460299 0.000447769 9.91511 0.564995 20 1 
437.333 1.20528 9.91811 -0.000475016 0.000426956 9.91811 0.503669 20 1 
438.667 1.20525 9.92175 -0.000448807 0.000426418 9.92175 0.446073 20 1 
440 1.20527 9.92708 -0.000416089 0.000456271 9.92708 0.49662 20 1 
441.333 1.20526 9.92897 -0.000401283 0.000485608 9.92897 0.475382 20 1 
442.667 1.20526 9.93463 -0.000412939 0.000455103 9.93463 0.469641 20 1 
444 1.20529 9.93802 -0.000428107 0.000422265 9.93802 0.515651 20 1 
445.333 1.20526 9.93917 -0.000407968 0.000446566 9.93917 0.468659 20 1 
446.667 1.20522 9.94293 -0.000366519 0.000471914 9.94294 0.403493 20 1 
448 1.20525 9.94509 -0.000359608 0.000460908 9.94509 0.445242 20 1 
448 1.20525 9.94509 -0.000359608 0.000460908 9.94509 0.445242 20 1 
449.333 1.20528 9.94978 -0.000383749 0.000448062 9.94978 0.503184 20 1 
450.667 1.20525 9.95197 -0.000417249 0.000415205 9.95197 0.446342 20 1 
452 1.20523 9.95269 -0.00036208 0.000447355 9.95269 0.412406 20 1 
453.333 1.20525 9.95668 -0.000279817 0.00051722 9.95668 0.454368 20 1 
454.667 1.20524 9.95851 -0.000317921 0.000486027 9.95851 0.437128 20 1 
456 1.20523 9.96039 -0.000364746 0.000430384 9.96039 0.411769 20 1 
457.333 1.20525 9.96385 -0.000357025 0.000422305 9.96385 0.459086 20 1 
458.667 1.20526 9.96442 -0.000320787 0.000455909 9.96442 0.463637 20 1 
460 1.20521 9.96556 -0.000315567 0.000462363 9.96556 0.386426 20 1 
461.333 1.20521 9.96828 -0.000318103 0.000457597 9.96828 0.371715 20 1 
462.667 1.20525 9.96994 -0.000305643 0.000447405 9.96994 0.449676 20 1 
464 1.20526 9.97315 -0.000314148 0.000424353 9.97315 0.478523 20 1 
465.333 1.20523 9.97291 -0.000310504 0.000436705 9.97291 0.419888 20 1 
466.667 1.20523 9.97381 -0.00029132 0.000451075 9.97381 0.406886 20 1 
468 1.20522 9.97655 -0.000297034 0.000430439 9.97655 0.402481 20 1 
469.333 1.20523 9.9769 -0.000336961 0.000375595 9.9769 0.414114 20 1 
469.333 1.20523 9.9769 -0.000336961 0.000375595 9.9769 0.414114 20 1 
470.667 1.20526 9.97991 -0.000312176 0.000394194 9.97991 0.469526 20 1 
472 1.20521 9.97817 -0.00027448 0.000436095 9.97818 0.378308 20 1 
473.333 1.20521 9.9801 -0.000278709 0.000411728 9.9801 0.373661 20 1 
474.667 1.20526 9.98381 -0.000268224 0.000411492 9.98381 0.473038 20 1 
476 1.20523 9.98231 -0.000272858 0.000418738 9.98231 0.421031 20 1 
477.333 1.20521 9.98545 -0.000294525 0.00038331 9.98546 0.383376 20 1 
478.667 1.20521 9.98335 -0.000314548 0.000352319 9.98335 0.37982 20 1 
480 1.20524 9.98551 -0.000300064 0.000368208 9.98551 0.44025 20 1 
481.333 1.20524 9.98774 -0.000257898 0.000391745 9.98774 0.44017 20 1 
482.667 1.2052 9.98537 -0.000261156 0.000385905 9.98537 0.367115 20 1 
484 1.20524 9.9907 -0.000305844 0.00034564 9.9907 0.425953 20 1 
485.333 1.20524 9.98824 -0.000297445 0.000323257 9.98824 0.42949 20 1 
486.667 1.20521 9.98913 -0.000258107 0.00035071 9.98913 0.372718 20 1 
488 1.2052 9.9909 -0.000264861 0.000358139 9.99091 0.358521 20 1 
489.333 1.20525 9.98955 -0.000270417 0.000337969 9.98956 0.446593 20 1 
490.667 1.20527 9.99401 -0.000274021 0.000312732 9.99401 0.487618 20 1 
490.667 1.20527 9.99401 -0.000274021 0.000312732 9.99401 0.487618 20 1 
492 1.20519 9.9903 -0.000307649 0.000292804 9.9903 0.340175 20 1 
493.333 1.2052 9.99276 -0.00029794 0.000304105 9.99276 0.362885 20 1 
494.667 1.20523 9.99411 -0.000251294 0.000306981 9.99411 0.40891 20 1 
496 1.20521 9.99249 -0.000237777 0.000307974 9.99249 0.377787 20 1 
497.333 1.20524 9.99607 -0.000277309 0.000296458 9.99607 0.440833 20 1 
498.667 1.20524 9.99379 -0.000309327 0.000255436 9.99379 0.441104 20 1 
500 1.20523 9.99644 -0.000287966 0.000251333 9.99644 0.414687 20 1 
501.333 1.20518 9.99432 -0.000259463 0.00027793 9.99432 0.321311 20 1 
502.667 1.2052 9.99534 -0.000246699 0.000284336 9.99534 0.366028 20 1 
504 1.20527 9.99918 -0.000283005 0.000232828 9.99918 0.480395 20 1 
505.333 1.20522 9.99498 -0.000311599 0.000204577 9.99498 0.39379 20 1 
506.667 1.20521 9.99852 -0.000274594 0.000235351 9.99852 0.37773 20 1 
508 1.20521 9.99667 -0.000254325 0.000244712 9.99667 0.380186 20 1 
509.333 1.20522 9.99835 -0.000273116 0.000229874 9.99835 0.393685 20 1 
510.667 1.20522 9.99924 -0.000290731 0.000194787 9.99924 0.402404 20 1 
512 1.20524 9.99734 -0.000279912 0.000184101 9.99734 0.427508 20 1 
512 1.20524 9.99734 -0.000279912 0.000184101 9.99734 0.427508 21 1 
513.333 1.20524 10.0008 -0.000279083 0.000208005 10.0008 0.430953 21 1 
514.667 1.20519 9.99785 -0.000295854 0.00018838 9.99785 0.346077 21 1 
516 1.20522 10.001 -0.000285938 0.000167496 10.001 0.39943 21 1 
517.333 1.20521 9.99963 -0.000282104 0.000172451 9.99963 0.374968 21 1 
518.667 1.20521 9.99957 -0.000295334 0.000162088 9.99957 0.373728 21 1 
520 1.20527 10.0021 -0.000301694 0.00014056 10.0021 0.480678 21 1 
521.333 1.20524 9.99924 -0.000278923 0.00015165 9.99924 0.424538 21 1 
522.667 1.20519 10.0019 -0.000260174 0.000166937 10.0019 0.335364 21 1 
524 1.20519 9.99952 -0.000303573 0.000125468 9.99952 0.34008 21 1 
525.333 1.20527 10.0041 -0.000345967 8.33389e-05 10.0041 0.480717 21 1 
526.667 1.20524 10.002 -0.000314342 0.000110101 10.002 0.426692 21 1 
528 1.2052 10.0007 -0.000264408 0.000136134 10.0007 0.360371 21 1 
529.333 1.20522 10.0027 -0.000263264 0.000126395 10.0027 0.398359 21 1 
530.667 1.20521 10.0011 -0.000302603 0.00011066 10.0011 0.388213 21 1 
532 1.20522 10.0038 -0.000353667 4.72711e-05 10.0038 0.3956 21 1 
533.333 1.20524 10.0024 -0.000357038 1.64791e-05 10.0024 0.439849 21 1 
533.333 1.20524 10.0024 -0.000357038 1.64791e-05 10.0024 0.439849 21 1 
534.667 1.20527 10.0048 -0.000320755 7.28556e-05 10.0048 0.478726 21 1 
536 1.20516 10.0012 -0.00028436 0.000101458 10.0012 0.297809 21 1 
537.333 1.20518 10.0025 -0.000276866 8.0636e-05 10.0025 0.31717 21 1 
538.667 1.20528 10.0054 -0.000311383 5.72475e-05 10.0054 0.513569 21 1 
540 1.20525 10.0031 -0.000348543 1.49526e-05 10.0031 0.455656 21 1 
541.333 1.2052 10.0043 -0.00038382 -2.94921e-05 10.0043 0.358998 21 1 
542.667 1.20521 10.002 -0.000347032 1.8995e-05 10.002 0.382385 21 1 
544 1.20525 10.0065 -0.00028909 5.99814e-05 10.0065 0.445178 21 1 
545.333 1.20519 10.0023 -0.000311916 2.02526e-05 10.0023 0.347602 21 1 
546.667 1.20525 10.0063 -0.00033932 1.02925e-05 10.0063 0.450027 21 1 
548 1.20525 10.004 -0.000372052 -2.50873e-05 10.004 0.456303 21 1 
549.333 1.2052 10.0044 -0.000385646 -6.27311e-05 10.0044 0.36776 21 1 
550.667 1.20518 10.0029 -0.000349378 -2.49652e-05 10.0029 0.329578 21 1 
552 1.20527 10.0065 -0.000315543 1.19803e-05 10.0065 0.493529 21 1 
553.333 1.20525 10.0056 -0.000315973 9.66422e-07 10.0056 0.444244 21 1 
554.667 1.20514 10.003 -0.000354497 -3.98781e-05 10.003 0.261215 21 1 
554.667 1.20514 10.003 -0.000354497 -3.98781e-05 10.003 0.261215 22 1 
556 1.20524 10.0064 -0.00039584 -8.51373e-05 10.0064 0.427264 22 1 
557.333 1.20534 10.0066 -0.000410237 -0.000104911 10.0066 0.606472 22 1 
558.667 1.2052 10.0048 -0.000372469 -6.9102e-05 10.0048 0.3647 22 1 
560 1.20508 10.0015 -0.000342234 -4.37463e-05 10.0015 0.153005 22 1 
561.333 1.2053 10.008 -0.000339957 -5.52121e-05 10.008 0.535946 22 1 
562.667 1.20536 10.0079 -0.000344766 -6.47632e-05 10.0079 0.642948 22 1 
564 1.20513 10.0044 -0.00038128 -9.17589e-05 10.0044 0.232469 22 1 
565.333 1.2051 10.0018 -0.000400631 -0.000118412 10.0018 0.177973 22 1 
566.667 1.20537 10.0096 -0.000406104 -0.000133783 10.0096 0.676928 22 1 
568 1.20533 10.0079 -0.000391305 -0.000124572 10.0079 0.59721 22 1 
569.333 1.20505 10.0021 -0.000370929 -0.000116022 10.0021 0.0852749 22 1 
570.667 1.20512 10.0032 -0.000383205 -0.000125575 10.0032 0.211876 22 1 
572 1.20543 10.0113 -0.000376586 -0.000114608 10.0113 0.782384 22 1 
573.333 1.20532 10.0076 -0.000384459 -0.000135785 10.0076 0.570168 22 1 
574.667 1.20501 10.0012 -0.000391234 -0.00014807 10.0012 0.0250372 22 1 
576 1.20516 10.0045 -0.000396849 -0.000154037 10.0045 0.294372 22 1 
576 1.20516 10.0045 -0.000396849 -0.000154037 10.0045 0.294372 22 1 
577.333 1.20545 10.0117 -0.000414213 -0.000186819 10.0117 0.80417 22 1 
578.667 1.20526 10.0073 -0.00039349 -0.00016799 10.0073 0.470559 22 1 
580 1.20502 10.0015 -0.000398498 -0.000171647 10.0015 0.0368041 22 1 
581.333 1.2052 10.0056 -0.000397663 -0.000180994 10.0056 0.363174 22 1 
582.667 1.20539 10.0106 -0.000387625 -0.000172023 10.0106 0.713402 22 1 
584 1.20522 10.0064 -0.000410468 -0.000197465 10.0064 0.398464 22 1 
585.333 1.20509 10.0034 -0.000405238 -0.000200715 10.0034 0.16041 22 1 
586.667 1.20527 10.0077 -0.000417913 -0.00021554 10.0077 0.492943 22 1 
588 1.20534 10.0092 -0.000427729 -0.000227125 10.0092 0.60857 22 1 
589.333 1.20514 10.0045 -0.000402869 -0.00021195 10.0045 0.258073 22 1 
590.667 1.20514 10.005 -0.000409617 -0.000225605 10.005 0.26111 22 1 
592 1.20534 10.0098 -0.000428106 -0.000243188 10.0098 0.61604 22 1 
593.333 1.20528 10.008 -0.000430109 -0.000249932 10.008 0.497609 22 1 
594.667 1.20507 10.0029 -0.000428254 -0.000254854 10.0029 0.123497 22 1 
596 1.20519 10.0059 -0.000418619 -0.000246638 10.0059 0.348117 22 1 
597.333 1.20543 10.0121 -0.000409703 -0.000237909 10.0121 0.768874 22 1 
597.333 1.20543 10.0121 -0.000409703 -0.000237909 10.0121 0.768874 24 1 
598.667 1.20526 10.0082 -0.000424476 -0.000258815 10.0082 0.476853 24 1 
600 1.205 10.0013 -0.000434093 -0.000269381 10.0013 0.00862962 24 1 
601.333 1.2052 10.0064 -0.000438987 -0.000276944 10.0064 0.352402 24 1 
602.667 1.20548 10.0133 -0.00044143 -0.000293393 10.0133 0.871522 24 1 
604 1.20526 10.0077 -0.000423794 -0.000276395 10.0077 0.472184 24 1 
605.333 1.20494 10.0005 -0.000420648 -0.00027065 10.0005 -0.10671 24 1 
606.667 1.20519 10.0066 -0.000424821 -0.000282632 10.0066 0.345829 24 1 
608 1.20555 10.0153 -0.000443902 -0.000303543 10.0153 0.990554 24 1 
609.333 1.2053 10.009 -0.00046447 -0.000327036 10.009 0.54143 24 1 
610.667 1.2049 9.99883 -0.000444014 -0.000318003 9.99883 -0.180664 24 1 
612 1.20511 10.0047 -0.00042018 -0.00029884 10.0047 0.206985 24 1 
613.333 1.20557 10.0161 -0.000406556 -0.000286865 10.0161 1.02652 24 1 
614.667 1.20541 10.0119 -0.00041248 -0.000295477 10.0119 0.743029 24 1 
616 1.20493 9.99965 -0.000438128 -0.000322711 9.99965 -0.135119 24 1 
617.333 1.20503 10.0023 -0.00044226 -0.000334059 10.0023 0.0468919 24 1 
618.667 1.20552 10.0154 -0.000432665 -0.000326838 10.0154 0.946007 24 1 
618.667 1.20552 10.0154 -0.000432665 -0.000326838 10.0154 0.946007 24 1 
620 1.20549 10.0144 -0.000407327 -0.000306516 10.0144 0.878734 24 1 
621.333 1.20499 10.0013 -0.000393161 -0.000301981 10.0013 -0.026206 24 1 
622.667 1.20495 10.0002 -0.000416185 -0.000325163 10.0002 -0.0958488 24 1 
624 1.20545 10.0133 -0.000431666 -0.000344782 10.0133 0.807371 24 1 
625.333 1.20557 10.0168 -0.000432818 -0.000352287 10.0168 1.03508 24 1 
626.667 1.2051 10.0043 -0.000409349 -0.000326936 10.0043 0.180239 24 1 
628 1.20488 9.9985 -0.000367031 -0.00029348 9.9985 -0.214777 24 1 
629.333 1.20531 10.0101 -0.000365583 -0.000300181 10.0101 0.564134 24 1 
630.667 1.20563 10.0182 -0.000400179 -0.00033336 10.0182 1.13864 24 1 
632 1.20528 10.009 -0.000430701 -0.000376023 10.009 0.499323 24 1 
633.333 1.20488 9.99865 -0.000435149 -0.000385719 9.99865 -0.215896 24 1 
634.667 1.20513 10.0051 -0.000394143 -0.000343876 10.0051 0.233757 24 1 
636 1.20558 10.0172 -0.000352048 -0.000310157 10.0172 1.04381 24 1 
637.333 1.20545 10.0137 -0.00035165 -0.000311892 10.0137 0.809756 24 1 
638.667 1.20499 10.0014 -0.000384064 -0.000348343 10.0014 -0.0214847 24 1 
640 1.20499 10.0016 -0.000418984 -0.00038925 10.0016 -0.0102344 24 1 
640 1.20499 10.0016 -0.000418984 -0.00038925 10.0016 -0.0102344 24 1 
641.333 1.20544 10.0134 -0.000413424 -0.000390058 10.0134 0.786067 24 1 
642.667 1.20554 10.0165 -0.000378215 -0.000357892 10.0165 0.981808 24 1 
644 1.20514 10.0056 -0.000331445 -0.000308915 10.0056 0.254403 24 1 
645.333 1.20492 9.99942 -0.000327568 -0.00030793 9.99942 -0.147019 24 1 
646.667 1.20524 10.0086 -0.000376475 -0.000356492 10.0086 0.441269 24 1 
648 1.20558 10.0175 -0.000408075 -0.000390007 10.0175 1.04348 24 1 
649.333 1.20537 10.0116 -0.000420435 -0.000415825 10.0116 0.661369 24 1 
650.667 1.20495 10.0005 -0.000400079 -0.000400042 10.0005 -0.0846821 24 1 
652 1.20502 10.0022 -0.000358731 -0.000356146 10.0022 0.0411135 24 1 
653.333 1.20546 10.0143 -0.000344155 -0.000347195 10.0143 0.825624 24 1 
654.667 1.20556 10.0173 -0.00035912 -0.000356436 10.0173 1.0048 24 1 
656 1.20518 10.0066 -0.00038044 -0.000373198 10.0066 0.3227 24 1 
657.333 1.20491 9.99927 -0.000389945 -0.000393418 9.99927 -0.156638 24 1 
658.667 1.20517 10.0064 -0.000409089 -0.00041487 10.0064 0.29926 24 1 
660 1.20553 10.0167 -0.0004042 -0.000412452 10.0167 0.962855 24 1 
661.333 1.20544 10.014 -0.000381079 -0.000394647 10.014 0.787353 24 1 
661.333 1.20544 10.014 -0.000381079 -0.000394647 10.014 0.787353 24 1 
662.667 1.20504 10.0027 -0.000368694 -0.000377761 10.0027 0.0754545 24 1 
664 1.20495 10.0002 -0.000336575 -0.000343664 10.0002 -0.0862049 24 1 
665.333 1.20529 10.0101 -0.000341971 -0.000349977 10.0101 0.529322 24 1 
666.667 1.20555 10.0173 -0.000389964 -0.000399186 10.0173 0.999904 24 1 
668 1.20534 10.0111 -0.000424558 -0.000437221 10.0111 0.606057 24 1 
669.333 1.20497 10.0007 -0.000431732 -0.000443587 10.0007 -0.0615506 24 1 
670.667 1.20499 10.0011 -0.000392039 -0.000404825 10.0011 -0.0266193 24 1 
672 1.20535 10.0115 -0.000328609 -0.000337993 10.0115 0.624321 24 1 
673.333 1.20554 10.0172 -0.000310535 -0.000317211 10.0172 0.969143 24 1 
674.667 1.2053 10.0099 -0.000361162 -0.000370059 10.0099 0.537883 24 1 
676 1.20497 10.0004 -0.000421136 -0.000429365 10.0004 -0.0617126 24 1 
677.333 1.20501 10.0017 -0.000441973 -0.000456548 10.0017 0.0120707 24 1 
678.667 1.20534 10.0113 -0.000385627 -0.000406412 10.0113 0.619704 24 1 
680 1.2055 10.0162 -0.000276313 -0.000296581 10.0162 0.902222 24 1 
681.333 1.20527 10.0095 -0.000226207 -0.000247768 10.0095 0.494757 24 1 
682.667 1.20499 10.0006 -0.000263639 -0.00028635 10.0006 -0.0270118 24 1 
682.667 1.20499 10.0006 -0.000263639 -0.00028635 10.0006 -0.0270118 31 1 
684 1.20502 10.0019 -0.000366926 -0.000387403 10.0019 0.0446596 31 1 
685.333 1.20533 10.0113 -0.000446951 -0.000471257 10.0113 0.601657 31 1 
686.667 1.2055 10.0159 -0.000410099 -0.000435876 10.0159 0.894462 31 1 
688 1.20528 10.0096 -0.000281411 -0.000307906 10.0096 0.50458 31 1 
689.333 1.20496 10.0002 -0.000143196 -0.000170626 10.0002 -0.0721444 31 1 
690.667 1.20496 9.99981 -0.000110532 -0.000132002 9.99981 -0.076495 31 1 
692 1.20528 10.0096 -0.000204089 -0.000223262 10.0096 0.512042 31 1 
693.333 1.20555 10.0177 -0.000348637 -0.000365892 10.0177 0.994125 31 1 
694.667 1.20543 10.014 -0.0004308 -0.000448296 10.014 0.772159 31 1 
696 1.20505 10.0025 -0.000370755 -0.000394139 10.0025 0.0864593 31 1 
697.333 1.20485 9.99655 -0.000217431 -0.000246853 9.99655 -0.263515 31 1 
698.667 1.20506 10.003 -7.22933e-05 -0.000105782 10.003 0.115036 31 1 
700 1.20545 10.0149 -3.01071e-05 -6.60315e-05 10.0149 0.819818 31 1 
701.333 1.2056 10.0192 -0.000118945 -0.000151108 10.0192 1.08847 31 1 
702.667 1.20536 10.0117 -0.000255814 -0.000282777 10.0117 0.64336 31 1 
704 1.205 10.0007 -0.000341526 -0.000362594 10.0007 -0.00770163 31 1 
704 1.205 10.0007 -0.000341526 -0.000362594 10.0007 -0.00770163 31 1 
705.333 1.2049 9.99789 -0.000316506 -0.000331115 9.99789 -0.174122 31 1 
706.667 1.20516 10.0059 -0.000199571 -0.000209908 10.0059 0.295852 31 1 
708 1.2055 10.0162 -5.85893e-05 -6.31726e-05 10.0162 0.897282 31 1 
709.333 1.20556 10.0182 3.41e-05 3.50883e-05 10.0182 1.0119 31 1 
710.667 1.2053 10.0101 4.66884e-05 5.75724e-05 10.0101 0.549012 31 1 
712 1.205 10.0004 1.73531e-05 4.09008e-05 10.0004 -0.0025176 31 1 
713.333 1.20493 9.99861 -1.98089e-05 1.43233e-05 9.99861 -0.119888 31 1 
714.667 1.20515 10.0056 -2.36394e-05 2.23708e-05 10.0056 0.276374 31 1 
716 1.20542 10.0136 3.97433e-07 5.64846e-05 10.0136 0.758379 31 1 
717.333 1.20545 10.0147 2.62827e-05 8.51631e-05 10.0147 0.806609 31 1 
718.667 1.2052 10.0067 2.54542e-05 8.5265e-05 10.0067 0.354266 31 1 
720 1.20487 9.99621 -1.74187e-05 3.70675e-05 9.99621 -0.229373 31 1 
721.333 1.20473 9.99178 -7.63269e-05 -3.1298e-05 9.99178 -0.492736 31 1 
722.667 1.20487 9.99618 -0.000150948 -0.000116662 9.99618 -0.23944 31 1 
724 1.20513 10.0044 -0.000216465 -0.000197819 10.0044 0.238568 31 1 
725.333 1.20526 10.0086 -0.000288668 -0.000286395 10.0086 0.460998 31 1 
725.333 1.20526 10.0086 -0.000288668 -0.000286395 10.0086 0.460998 31 1 
726.667 1.20512 10.0041 -0.000394859 -0.000410574 10.0041 0.219191 31 1 
728 1.20482 9.99398 -0.000525447 -0.000561772 9.99398 -0.334038 31 1 
729.333 1.20456 9.98611 -0.000684671 -0.000740644 9.98611 -0.788127 31 1 
730.667 1.20458 9.98635 -0.000818301 -0.000892101 9.98635 -0.766709 31 1 
732 1.20485 9.99494 -0.000875251 -0.000965298 9.99494 -0.279595 31 1 
733.333 1.20519 10.0063 -0.000817269 -0.000921712 10.0063 0.339666 31 1 
734.667 1.20539 10.0128 -0.000623015 -0.000737648 10.0128 0.711965 31 1 
736 1.20532 10.0103 -0.000333877 -0.000453803 10.0103 0.580417 31 1 
737.333 1.20502 10.0006 -1.18844e-06 -0.000124181 10.0006 0.0406979 31 1 
738.667 1.20469 9.98929 0.000292741 0.000171442 9.98929 -0.558098 31 1 
740 1.20449 9.98263 0.00048015 0.000363589 9.98263 -0.929652 31 1 
741.333 1.20449 9.98291 0.000530128 0.000420532 9.98291 -0.912387 31 1 
742.667 1.20467 9.98822 0.000430066 0.000330183 9.98822 -0.600842 31 1 
744 1.20483 9.99382 0.000213245 0.00012505 9.99382 -0.305889 31 1 
745.333 1.20485 9.9944 -7.02285e-05 -0.000147422 9.9944 -0.273929 31 1 
746.667 1.20467 9.98804 -0.000366146 -0.000431194 9.98804 -0.602306 31 1 
746.667 1.20467 9.98804 -0.000366146 -0.000431194 9.98804 -0.602306 31 1 
748 1.20432 9.97671 -0.000626367 -0.000679194 9.97671 -1.22531 31 1 
749.333 1.20396 9.96445 -0.000816359 -0.000858923 9.96445 -1.88565 31 1 
750.667 1.20372 9.95602 -0.000922408 -0.000955632 9.95602 -2.31525 31 1 
752 1.20368 9.95493 -0.000952394 -0.00097835 9.95493 -2.3794 31 1 
753.333 1.20387 9.96129 -0.000910155 -0.000928712 9.96129 -2.03761 31 1 
754.667 1.20422 9.97299 -0.000822745 -0.000836445 9.97299 -1.4 31 1 
756 1.20462 9.98677 -0.000709771 -0.000719953 9.98677 -0.68278 31 1 
757.333 1.20497 9.99854 -0.000580261 -0.000586316 9.99854 -0.0614973 31 1 
758.667 1.20518 10.0056 -0.000456514 -0.000461138 10.0056 0.325847 31 1 
760 1.20522 10.0071 -0.000344853 -0.000347648 10.0071 0.404048 31 1 
761.333 1.20512 10.0034 -0.000252914 -0.000254406 10.0034 0.220195 31 1 
762.667 1.20492 9.99669 -0.000174237 -0.000176199 9.99669 -0.137747 31 1 
764 1.20469 9.98877 -0.000119125 -0.000119645 9.98877 -0.551273 31 1 
765.333 1.20449 9.98141 -8.17557e-05 -8.27963e-05 9.98141 -0.915273 31 1 
766.667 1.20434 9.9763 -4.87597e-05 -4.89965e-05 9.9763 -1.19423 31 1 
768 1.20426 9.97382 -3.35578e-05 -3.32249e-05 9.97382 -1.34291 31 1 
768 1.20426 9.97382 -3.35578e-05 -3.32249e-05 9.97382 -1.34291 32 1 
769.333 1.20425 9.97346 -2.03306e-05 -2.11162e-05 9.97346 -1.3594 32 1 
770.667 1.20429 9.97501 -1.07758e-05 -1.09482e-05 9.97501 -1.27484 32 1 
772 1.20438 9.97797 -6.82343e-06 -7.62171e-06 9.97797 -1.12145 32 1 
773.333 1.20448 9.98148 -3.76131e-06 -4.4378e-06 9.98148 -0.934948 32 1 
774.667 1.20459 9.98504 -3.67229e-06 -4.43762e-06 9.98504 -0.739621 32 1 
776 1.20469 9.98842 -1.66314e-06 -1.50716e-06 9.98842 -0.565701 32 1 
777.333 1.20477 9.99156 -2.30879e-06 -1.23569e-06 9.99156 -0.423875 32 1 
778.667 1.20483 9.9941 -8.00862e-07 -5.79603e-08 9.9941 -0.309586 32 1 
780 1.20488 9.99601 9.30564e-07 2.15813e-06 9.99601 -0.220418 32 1 
781.333 1.20492 9.99745 -6.78573e-07 -2.08387e-07 9.99745 -0.152761 32 1 
782.667 1.20495 9.99819 1.51352e-06 8.69421e-07 9.99819 -0.0874648 32 1 
784 1.20497 9.99884 2.936e-06 2.2513e-06 9.99884 -0.0543114 32 1 
785.333 1.20498 9.99941 1.71773e-06 1.0647e-06 9.99941 -0.0405794 32 1 
786.667 1.20499 9.99954 6.90128e-07 -8.80245e-08 9.99954 -0.0126622 32 1 
788 1.20499 9.99975 9.08959e-07 4.98115e-07 9.99975 -0.0146172 32 1 
789.333 1.205 9.99987 7.32532e-07 1.75442e-06 9.99987 -0.00680978 32 1 
790.667 1.20501 9.99983 -1.59456e-06 -5.02446e-07 9.99983 0.0109759 32 1 
792 1.205 9.99985 6.49012e-07 2.16198e-07 9.99985 0.00262619 32 1 
793.333 1.205 9.99992 2.09647e-06 1.06994e-06 9.99992 0.00372907 32 1 
794.667 1.205 10 1.26898e-06 -4.88296e-07 10 0.00463625 32 1 
796 1.205 9.99998 2.96595e-06 3.5958e-07 9.99998 0.00283493 32 1 
797.333 1.205 9.99995 3.58516e-06 4.21026e-08 9.99995 0.00685517 32 1 
798.667 1.20501 9.99998 5.67417e-06 2.51533e-06 9.99998 0.0127323 32 1 
800 1.20501 9.99998 7.6595e-06 5.56118e-06 9.99998 0.0175558 32 1 
