19.9242;r ;Density                 ;Velocity u              ;Velocity v              ;Velocity w              ;|Velocity|              ;Pressure                ;Distribution            ;Levels                  ;
0 1.20457 10.0005 7.39635e-05 9.25462e-05 10.0005 -0.768938 1 1 
1.33334 1.20457 10.0009 4.91262e-05 8.70774e-05 10.0009 -0.78206 1 1 
2.66666 1.20458 10.0011 1.43153e-05 5.5594e-05 10.0011 -0.767021 1 1 
4 1.20462 9.99969 1.3611e-06 4.48213e-05 9.99969 -0.687118 1 1 
5.33334 1.20463 9.9979 7.15134e-05 0.000118393 9.9979 -0.66612 1 1 
6.66666 1.20459 9.99816 0.000186658 0.00023974 9.99816 -0.742833 1 1 
8 1.20454 9.99943 0.000267136 0.000320001 9.99943 -0.836015 1 1 
9.33334 1.20452 9.99956 0.000288883 0.000332171 9.99956 -0.870413 1 1 
10.6667 1.20458 9.9985 0.000276973 0.000330893 9.9985 -0.766753 1 1 
12 1.20464 9.99755 0.000238695 0.000302273 9.99755 -0.650628 1 1 
13.3333 1.20463 9.99782 0.00029541 0.000343427 9.99782 -0.671169 1 1 
14.6667 1.20456 9.99948 0.000393365 0.000431993 9.99948 -0.791061 1 1 
16 1.20453 10.0003 0.000328675 0.000382948 10.0003 -0.842066 1 1 
17.3333 1.20457 9.99908 0.000250283 0.000315123 9.99908 -0.783003 1 1 
18.6667 1.20462 9.99721 0.000259804 0.000330778 9.99721 -0.681532 1 1 
20 1.20464 9.99749 0.000383687 0.000443023 9.99749 -0.655697 1 1 
21.3333 1.20458 9.9998 0.000461754 0.000522043 9.9998 -0.760872 1 1 
21.3333 1.20458 9.9998 0.000461754 0.000522043 9.9998 -0.760872 1 1 
22.6667 1.20454 10.0009 0.000486383 0.000551141 10.0009 -0.822929 1 1 
24 1.20457 10.0001 0.00041787 0.000480821 10.0001 -0.774638 1 1 
25.3333 1.20462 9.99757 0.000317704 0.000391831 9.99757 -0.681405 1 1 
26.6667 1.20462 9.99691 0.000418527 0.000484714 9.99691 -0.685651 1 1 
28 1.20458 9.99836 0.000536624 0.000616122 9.99836 -0.762546 1 1 
29.3333 1.20455 9.99929 0.000552993 0.000637397 9.99929 -0.807946 1 1 
30.6667 1.20456 9.99954 0.000541592 0.000636917 9.99954 -0.796066 1 1 
32 1.20461 9.99805 0.000531209 0.000653887 9.99805 -0.698705 1 1 
33.3333 1.20464 9.99687 0.000476999 0.000597416 9.99687 -0.643568 1 1 
34.6667 1.2046 9.99763 0.000542607 0.000663162 9.99763 -0.717098 1 1 
36 1.20457 9.99898 0.000664249 0.00077997 9.99898 -0.778802 1 1 
37.3333 1.20458 9.99876 0.000590022 0.000704553 9.99876 -0.751037 1 1 
38.6667 1.20459 9.9971 0.000486972 0.000602677 9.9971 -0.740394 1 1 
40 1.2046 9.99607 0.00055977 0.000680385 9.99607 -0.726454 1 1 
41.3333 1.2046 9.99664 0.000565961 0.000689638 9.99664 -0.729365 1 1 
42.6667 1.20457 9.99795 0.000561091 0.000684085 9.99795 -0.770445 1 1 
42.6667 1.20457 9.99795 0.000561091 0.000684085 9.99795 -0.770445 2 1 
44 1.20458 9.99795 0.000675289 0.000816417 9.99795 -0.758052 2 1 
45.3333 1.2046 9.99773 0.000615969 0.000756953 9.99773 -0.729812 2 1 
46.6667 1.20462 9.99741 0.000414968 0.000563793 9.99741 -0.685409 2 1 
48 1.20462 9.99711 0.000449956 0.000612895 9.99711 -0.686577 2 1 
49.3333 1.20461 9.99677 0.000592474 0.000754772 9.99677 -0.71078 2 1 
50.6667 1.20459 9.99673 0.000564796 0.000759715 9.99673 -0.743961 2 1 
52 1.20456 9.99667 0.000511136 0.000699938 9.99667 -0.80368 2 1 
53.3333 1.20457 9.99686 0.000664519 0.000867069 9.99686 -0.780743 2 1 
54.6667 1.20459 9.99724 0.000659742 0.000864942 9.99724 -0.7435 2 1 
56 1.20461 9.99654 0.000460509 0.000665085 9.99654 -0.711385 2 1 
57.3333 1.20463 9.99609 0.000643209 0.000854899 9.99609 -0.674055 2 1 
58.6667 1.2046 9.99689 0.000869599 0.00108605 9.99689 -0.724652 2 1 
60 1.20457 9.99801 0.000612071 0.00085406 9.99801 -0.769536 2 1 
61.3333 1.20458 9.99729 0.000312474 0.000541433 9.99729 -0.75534 2 1 
62.6667 1.20459 9.99649 0.00047995 0.000715987 9.99649 -0.73426 2 1 
64 1.20463 9.99516 0.00057767 0.000830154 9.99516 -0.672623 2 1 
64 1.20463 9.99516 0.00057767 0.000830154 9.99516 -0.672623 2 1 
65.3333 1.2046 9.99556 0.000359067 0.000625727 9.99556 -0.731323 2 1 
66.6667 1.20455 9.99716 0.00040406 0.00067 9.99716 -0.816867 2 1 
68 1.20456 9.99711 0.000694621 0.000956902 9.99711 -0.789618 2 1 
69.3333 1.20458 9.99628 0.000525548 0.000793195 9.99628 -0.751545 2 1 
70.6667 1.2046 9.99567 0.000143423 0.000402553 9.99567 -0.725048 2 1 
72 1.2046 9.99593 0.000366681 0.00062474 9.99593 -0.717915 2 1 
73.3333 1.2046 9.9963 0.000811512 0.00109889 9.9963 -0.726025 2 1 
74.6667 1.20458 9.99685 0.000603101 0.000928219 9.99685 -0.757516 2 1 
76 1.20458 9.99667 0.000243319 0.000577937 9.99667 -0.757851 2 1 
77.3333 1.20458 9.99613 0.000594639 0.000939732 9.99613 -0.76314 2 1 
78.6667 1.20456 9.99594 0.00104124 0.00141705 9.99594 -0.792803 2 1 
80 1.20458 9.99598 0.00066711 0.00107287 9.99598 -0.759209 2 1 
81.3333 1.20458 9.99663 0.000113842 0.000509398 9.99663 -0.754881 2 1 
82.6667 1.20456 9.99674 0.000484587 0.00085865 9.99674 -0.79485 2 1 
84 1.20456 9.99626 0.00116306 0.00154238 9.99626 -0.802101 2 1 
85.3333 1.20456 9.99731 0.000959383 0.00137598 9.99731 -0.797197 2 1 
85.3333 1.20456 9.99731 0.000959383 0.00137598 9.99731 -0.797197 3 1 
86.6667 1.20459 9.9972 0.00021087 0.000640185 9.9972 -0.736055 3 1 
88 1.20461 9.99547 0.000326801 0.000734289 9.99547 -0.698991 3 1 
89.3333 1.20459 9.99459 0.00151898 0.00189951 9.99459 -0.749129 3 1 
90.6667 1.20454 9.99489 0.00226721 0.00266903 9.9949 -0.825209 3 1 
92 1.20452 9.99598 0.00176627 0.00223492 9.99599 -0.868472 3 1 
93.3333 1.20453 9.9968 0.000950905 0.00146188 9.9968 -0.847971 3 1 
94.6667 1.20456 9.99647 0.000915362 0.00141364 9.99647 -0.788872 3 1 
96 1.20459 9.99557 0.00151934 0.00199179 9.99557 -0.741745 3 1 
97.3333 1.20457 9.99617 0.00168984 0.00214028 9.99617 -0.771054 3 1 
98.6667 1.20454 9.9978 0.00092675 0.00137655 9.9978 -0.825362 3 1 
100 1.20454 9.99821 -1.80656e-05 0.000451869 9.99821 -0.830696 3 1 
101.333 1.20455 9.99698 -0.000361835 0.000147251 9.99698 -0.804871 3 1 
102.667 1.20457 9.99522 8.32621e-05 0.00062337 9.99522 -0.776819 3 1 
104 1.20456 9.99474 0.000943365 0.00146888 9.99474 -0.794913 3 1 
105.333 1.20454 9.99489 0.00158063 0.0021196 9.99489 -0.829536 3 1 
106.667 1.20453 9.99579 0.00188383 0.00241981 9.99579 -0.852473 3 1 
106.667 1.20453 9.99579 0.00188383 0.00241981 9.99579 -0.852473 3 1 
108 1.20453 9.99631 0.00192929 0.00248741 9.99631 -0.846165 3 1 
109.333 1.20453 9.99526 0.00192942 0.00249446 9.99526 -0.84497 3 1 
110.667 1.20453 9.99482 0.00192422 0.0024862 9.99482 -0.848432 3 1 
112 1.20455 9.99549 0.00192369 0.00250775 9.99549 -0.816461 3 1 
113.333 1.20457 9.99579 0.00191651 0.00250184 9.99579 -0.777756 3 1 
114.667 1.20455 9.99648 0.00190204 0.00251275 9.99648 -0.811916 3 1 
116 1.20453 9.99697 0.00192909 0.00254057 9.99697 -0.853721 3 1 
117.333 1.20454 9.99514 0.00189064 0.00252296 9.99514 -0.830885 3 1 
118.667 1.2045 9.99462 0.00193529 0.00257382 9.99462 -0.894688 3 1 
120 1.20453 9.99314 0.00196041 0.00260874 9.99314 -0.842391 3 1 
121.333 1.20455 9.99277 0.00199451 0.00265739 9.99277 -0.805483 3 1 
122.667 1.20451 9.99453 0.0020487 0.00271589 9.99453 -0.891109 3 1 
124 1.2045 9.99432 0.00205899 0.00274124 9.99432 -0.897139 3 1 
125.333 1.20451 9.99562 0.00205746 0.00274925 9.99562 -0.885624 3 1 
126.667 1.20456 9.99506 0.00201028 0.00271774 9.99506 -0.787793 3 1 
128 1.20455 9.99313 0.00204431 0.00273625 9.99313 -0.804015 3 1 
128 1.20455 9.99313 0.00204431 0.00273625 9.99313 -0.804015 3 1 
129.333 1.20452 9.99267 0.00206807 0.00277912 9.99267 -0.864434 3 1 
130.667 1.20453 9.99332 0.00207971 0.0028182 9.99332 -0.841175 3 1 
132 1.20451 9.99491 0.00207976 0.00281684 9.99491 -0.877424 3 1 
133.333 1.2045 9.99425 0.00205772 0.00281295 9.99425 -0.898414 3 1 
134.667 1.20453 9.99312 0.00206467 0.00285343 9.99312 -0.854347 3 1 
136 1.20456 9.99229 0.00210729 0.00289009 9.99229 -0.792425 3 1 
137.333 1.20454 9.99192 0.00216412 0.00295807 9.99192 -0.835074 3 1 
138.667 1.20451 9.99276 0.00218065 0.00299768 9.99276 -0.876403 3 1 
140 1.20452 9.99455 0.00217695 0.00298149 9.99455 -0.860511 3 1 
141.333 1.20452 9.99466 0.00212719 0.00295515 9.99466 -0.868428 3 1 
142.667 1.20451 9.99315 0.00212321 0.00296034 9.99315 -0.876372 3 1 
144 1.20453 9.99341 0.00214215 0.00299538 9.99341 -0.849854 3 1 
145.333 1.20454 9.99313 0.00217017 0.0030612 9.99313 -0.823721 3 1 
146.667 1.20452 9.99211 0.00220399 0.00309052 9.99211 -0.874223 3 1 
148 1.20449 9.99158 0.00220621 0.00309247 9.99158 -0.919505 3 1 
149.333 1.20453 9.99187 0.0022079 0.003107 9.99187 -0.847172 3 1 
149.333 1.20453 9.99187 0.0022079 0.003107 9.99187 -0.847172 3 1 
150.667 1.20456 9.99234 0.00221733 0.00313836 9.99234 -0.795803 3 1 
152 1.20451 9.99214 0.00225287 0.00317898 9.99214 -0.88553 3 1 
153.333 1.20447 9.99285 0.00229369 0.00324358 9.99285 -0.954914 3 1 
154.667 1.20449 9.99409 0.00229497 0.00327283 9.99409 -0.917856 3 1 
156 1.2045 9.99346 0.00228082 0.00325963 9.99346 -0.897479 3 1 
157.333 1.20449 9.99198 0.00226184 0.00326048 9.99198 -0.916652 3 1 
158.667 1.20453 9.99115 0.00225189 0.00325888 9.99116 -0.849459 3 1 
160 1.20456 9.99064 0.0023012 0.00332703 9.99064 -0.799993 3 1 
161.333 1.2045 9.99077 0.00232978 0.00336483 9.99077 -0.904159 3 1 
162.667 1.20447 9.99088 0.00238494 0.00342747 9.99088 -0.949173 3 1 
164 1.20451 9.99109 0.00242675 0.00348498 9.99109 -0.891376 3 1 
165.333 1.20451 9.99065 0.00240329 0.00348747 9.99065 -0.889361 3 1 
166.667 1.20452 9.98802 0.00239798 0.00350244 9.98802 -0.872556 3 1 
168 1.20452 9.9887 0.00241463 0.00350989 9.9887 -0.858532 3 1 
169.333 1.20455 9.99112 0.00242755 0.00353483 9.99112 -0.820841 3 1 
170.667 1.20453 9.99026 0.00244822 0.00359052 9.99026 -0.84373 3 1 
170.667 1.20453 9.99026 0.00244822 0.00359052 9.99026 -0.84373 11 1 
172 1.20447 9.98838 0.00245646 0.00359789 9.98838 -0.950638 11 1 
173.333 1.20452 9.9867 0.00246779 0.0036272 9.9867 -0.860905 11 1 
174.667 1.20458 9.98758 0.00245088 0.00364634 9.98758 -0.753959 11 1 
176 1.20453 9.98744 0.00247388 0.00366383 9.98744 -0.841518 11 1 
177.333 1.20448 9.98596 0.00253778 0.00373177 9.98596 -0.937843 11 1 
178.667 1.20451 9.98539 0.00256834 0.0037966 9.9854 -0.88113 11 1 
180 1.20455 9.98502 0.00259025 0.00382568 9.98502 -0.808127 11 1 
181.333 1.20453 9.98613 0.00257047 0.00380477 9.98613 -0.851104 11 1 
182.667 1.20451 9.98703 0.00259576 0.00388793 9.98703 -0.884875 11 1 
184 1.20454 9.98571 0.00259973 0.00390193 9.98571 -0.829042 11 1 
185.333 1.20454 9.98326 0.00259102 0.00389809 9.98326 -0.831405 11 1 
186.667 1.20452 9.98121 0.00256931 0.00389557 9.98121 -0.869449 11 1 
188 1.20452 9.98213 0.00259214 0.00393879 9.98213 -0.862556 11 1 
189.333 1.20451 9.9845 0.00265681 0.00399333 9.9845 -0.891777 11 1 
190.667 1.20451 9.98266 0.00267055 0.00401127 9.98266 -0.882583 11 1 
192 1.20454 9.98017 0.00269341 0.00410939 9.98017 -0.828483 11 1 
192 1.20454 9.98017 0.00269341 0.00410939 9.98017 -0.828483 11 1 
193.333 1.20455 9.98068 0.00272934 0.00412409 9.98068 -0.808079 11 1 
194.667 1.20453 9.97981 0.00267158 0.00408445 9.97982 -0.853107 11 1 
196 1.2045 9.97772 0.00272217 0.00418442 9.97772 -0.903739 11 1 
197.333 1.20453 9.97827 0.00277329 0.00423363 9.97827 -0.850755 11 1 
198.667 1.20459 9.97829 0.00267421 0.00413862 9.97829 -0.747895 11 1 
200 1.20457 9.97734 0.00278146 0.00429255 9.97734 -0.769482 11 1 
201.333 1.20451 9.9755 0.00279314 0.0043508 9.9755 -0.878432 11 1 
202.667 1.20453 9.9712 0.00271767 0.00422624 9.97121 -0.849363 11 1 
204 1.20456 9.97099 0.00285775 0.0043972 9.971 -0.801643 11 1 
205.333 1.20456 9.97312 0.00283825 0.00443609 9.97312 -0.800771 11 1 
206.667 1.20458 9.9723 0.00285047 0.00445279 9.9723 -0.753094 11 1 
208 1.20455 9.97223 0.0029478 0.00452823 9.97223 -0.804078 11 1 
209.333 1.20457 9.97062 0.00284478 0.00447677 9.97062 -0.783794 11 1 
210.667 1.20461 9.96666 0.00284931 0.00455038 9.96666 -0.697658 11 1 
212 1.20459 9.9637 0.00289204 0.00455166 9.9637 -0.743849 11 1 
213.333 1.20457 9.9614 0.00290863 0.00457861 9.9614 -0.785721 11 1 
213.333 1.20457 9.9614 0.00290863 0.00457861 9.9614 -0.785721 11 1 
214.667 1.20458 9.96034 0.00293887 0.0046773 9.96035 -0.765729 11 1 
216 1.2046 9.96137 0.00293046 0.00471719 9.96137 -0.72408 11 1 
217.333 1.20463 9.96248 0.00297387 0.00470635 9.96248 -0.671407 11 1 
218.667 1.20465 9.96004 0.00300703 0.00477553 9.96005 -0.625064 11 1 
220 1.20462 9.95654 0.0030434 0.00490369 9.95654 -0.690811 11 1 
221.333 1.20461 9.95291 0.00307776 0.00489222 9.95292 -0.700744 11 1 
222.667 1.20466 9.94848 0.00304347 0.00483821 9.94848 -0.615721 11 1 
224 1.20464 9.94776 0.00298832 0.00486003 9.94776 -0.642938 11 1 
225.333 1.20466 9.9466 0.00297107 0.00491299 9.9466 -0.609409 11 1 
226.667 1.20471 9.9446 0.0030555 0.00495584 9.9446 -0.520679 11 1 
228 1.20471 9.94497 0.00316439 0.00504929 9.94497 -0.531739 11 1 
229.333 1.20471 9.93979 0.00314073 0.00513886 9.93979 -0.520067 11 1 
230.667 1.20472 9.93324 0.00303715 0.00506739 9.93324 -0.508421 11 1 
232 1.2047 9.93074 0.0030484 0.00501996 9.93074 -0.541388 11 1 
233.333 1.20476 9.9291 0.00312349 0.00512364 9.9291 -0.441921 11 1 
234.667 1.20484 9.92739 0.00323858 0.0052928 9.9274 -0.29652 11 1 
234.667 1.20484 9.92739 0.00323858 0.0052928 9.9274 -0.29652 11 1 
236 1.20479 9.92451 0.0032093 0.00531137 9.92451 -0.385477 11 1 
237.333 1.2048 9.91765 0.00312862 0.00521168 9.91765 -0.358127 11 1 
238.667 1.20487 9.91119 0.00307046 0.00514888 9.91119 -0.235621 11 1 
240 1.20486 9.9087 0.0030438 0.00521956 9.9087 -0.251814 11 1 
241.333 1.20491 9.9036 0.00317229 0.00533196 9.9036 -0.153782 11 1 
242.667 1.2049 9.90176 0.00325912 0.00542373 9.90176 -0.174352 11 1 
244 1.20497 9.89474 0.00322949 0.00543307 9.89475 -0.0593929 11 1 
245.333 1.205 9.88656 0.00314171 0.00536723 9.88656 -0.00347979 11 1 
246.667 1.20501 9.8813 0.00318383 0.00547121 9.88131 0.0107863 11 1 
248 1.20512 9.8735 0.00308821 0.00534911 9.87351 0.216364 11 1 
249.333 1.20511 9.86915 0.00321013 0.00552209 9.86916 0.196722 11 1 
250.667 1.20514 9.86088 0.00324594 0.00560755 9.86088 0.250718 11 1 
252 1.20519 9.85318 0.0030262 0.00536402 9.85319 0.348296 11 1 
253.333 1.20532 9.84132 0.0031562 0.00553223 9.84132 0.572013 11 1 
254.667 1.20532 9.83366 0.00320257 0.00561111 9.83366 0.574676 11 1 
256 1.20534 9.82474 0.00316388 0.00556706 9.82474 0.607243 11 1 
256 1.20534 9.82474 0.00316388 0.00556706 9.82474 0.607243 13 1 
257.333 1.2055 9.81142 0.00320299 0.00563438 9.81142 0.90263 13 1 
258.667 1.20551 9.80255 0.00306684 0.00554648 9.80255 0.929553 13 1 
260 1.20557 9.78846 0.00308498 0.00554861 9.78846 1.03369 13 1 
261.333 1.20571 9.77208 0.00319622 0.00566906 9.77208 1.28989 13 1 
262.667 1.20582 9.75746 0.00315182 0.00568856 9.75747 1.48155 13 1 
264 1.20585 9.74766 0.00309282 0.00565718 9.74766 1.53373 13 1 
265.333 1.20601 9.72857 0.00302461 0.0055946 9.72857 1.82864 13 1 
266.667 1.2062 9.70161 0.00302336 0.005656 9.70162 2.15995 13 1 
268 1.20614 9.68601 0.0030063 0.00568431 9.68602 2.06149 13 1 
269.333 1.20638 9.66474 0.00304277 0.00569277 9.66474 2.49906 13 1 
270.667 1.20675 9.63244 0.00300942 0.00568963 9.63244 3.15882 13 1 
272 1.20653 9.61722 0.00300813 0.00573944 9.61723 2.76905 13 1 
273.333 1.20681 9.58455 0.00301247 0.00573715 9.58456 3.27175 13 1 
274.667 1.2074 9.54276 0.00292366 0.00566407 9.54277 4.33675 13 1 
276 1.20727 9.51964 0.00286796 0.0056595 9.51966 4.10019 13 1 
277.333 1.2075 9.4702 0.00284447 0.00564098 9.47021 4.50904 13 1 
277.333 1.2075 9.4702 0.00284447 0.00564098 9.47021 4.50904 13 1 
278.667 1.20795 9.42295 0.00284896 0.00563234 9.42297 5.3308 13 1 
280 1.20813 9.38111 0.00284429 0.00565201 9.38113 5.65227 13 1 
281.333 1.20846 9.32198 0.00282153 0.00567084 9.32199 6.24759 13 1 
282.667 1.20879 9.27231 0.00277571 0.00565308 9.27232 6.84282 13 1 
284 1.20926 9.22193 0.00274065 0.00562158 9.22194 7.69867 13 1 
285.333 1.20982 9.15883 0.00270346 0.00559803 9.1589 8.71079 13 1 
286.667 1.21014 9.07188 0.00265249 0.00555983 9.07206 9.28984 13 1 
288 1.21045 8.96642 0.00263861 0.00554193 8.96658 9.83518 13 1 
289.333 1.21101 8.87993 0.00261597 0.00555067 8.87999 10.8514 13 1 
290.667 1.21185 8.79818 0.0025451 0.00551629 8.79823 12.3638 13 1 
292 1.21248 8.70121 0.00248974 0.00545733 8.70135 13.512 13 1 
293.333 1.21281 8.59494 0.00245979 0.00541619 8.59515 14.1058 13 1 
294.667 1.21342 8.47291 0.00244373 0.00541828 8.47337 15.2176 13 1 
296 1.21427 8.35357 0.00244912 0.00542632 8.35395 16.7375 13 1 
297.333 1.21459 8.2673 0.00240619 0.00542101 8.26789 17.3185 13 1 
298.667 1.20792 8.13931 0.00205639 0.00543569 8.3626 5.27076 13 1 
298.667 1.20792 8.13931 0.00205639 0.00543569 8.3626 5.27076 14 1 
300 1.19682 8.14597 0.00132743 0.00567258 8.42685 -14.7777 14 1 
301.333 1.19283 8.17384 0.000561103 0.00596765 8.31363 -21.9844 14 1 
302.667 1.19396 8.01456 -0.000128023 0.00612198 8.12364 -19.9426 14 1 
304 1.19499 7.85085 -0.000663392 0.00624811 7.92823 -18.0772 14 1 
305.333 1.19568 7.6986 -0.00111077 0.00635174 7.75956 -16.8325 14 1 
306.667 1.1964 7.56484 -0.00151923 0.00636365 7.59967 -15.5252 14 1 
308 1.19703 7.4421 -0.00183531 0.0064381 7.4763 -14.3981 14 1 
309.333 1.19749 7.33103 -0.00213768 0.00650151 7.3618 -13.5601 14 1 
310.667 1.19805 7.23709 -0.00241033 0.006557 7.26568 -12.5451 14 1 
312 1.19857 7.15247 -0.00264163 0.00659786 7.17322 -11.6213 14 1 
313.333 1.19901 7.0739 -0.00291108 0.00659083 7.09339 -10.8121 14 1 
314.667 1.19939 6.99708 -0.00312569 0.00663175 7.01594 -10.1344 14 1 
316 1.1996 6.92383 -0.00335861 0.00661433 6.94165 -9.75858 14 1 
317.333 1.19988 6.86223 -0.00356126 0.00658849 6.87736 -9.24807 14 1 
318.667 1.20033 6.81079 -0.00368901 0.00662968 6.8253 -8.43424 14 1 
320 1.20058 6.75482 -0.00382867 0.00662077 6.76821 -7.99152 14 1 
320 1.20058 6.75482 -0.00382867 0.00662077 6.76821 -7.99152 14 1 
321.333 1.20063 6.69951 -0.00396752 0.00655431 6.71265 -7.89019 14 1 
322.667 1.20086 6.65694 -0.00408977 0.00652053 6.66877 -7.48699 14 1 
324 1.20117 6.61523 -0.00419316 0.00652955 6.62653 -6.91976 14 1 
325.333 1.20131 6.57555 -0.00428134 0.00651341 6.58631 -6.66472 14 1 
326.667 1.20141 6.54622 -0.00434714 0.00643822 6.55655 -6.48815 14 1 
328 1.2016 6.51677 -0.0044144 0.00635416 6.52634 -6.14215 14 1 
329.333 1.20179 6.48855 -0.00449266 0.00631448 6.49796 -5.80403 14 1 
330.667 1.20188 6.46365 -0.00458185 0.00633473 6.47256 -5.64407 14 1 
332 1.20191 6.44108 -0.00467344 0.006352 6.4498 -5.58084 14 1 
333.333 1.20207 6.42911 -0.00473804 0.00635561 6.4374 -5.29346 14 1 
334.667 1.20231 6.41557 -0.00477323 0.00637494 6.42362 -4.8561 14 1 
336 1.20238 6.39113 -0.00485328 0.00634765 6.39897 -4.73113 14 1 
337.333 1.20235 6.37104 -0.00497564 0.00622845 6.37881 -4.78723 14 1 
338.667 1.20243 6.35926 -0.00506392 0.0061564 6.36678 -4.63699 14 1 
340 1.20263 6.35191 -0.00510295 0.00617567 6.35925 -4.28603 14 1 
341.333 1.20276 6.33944 -0.00516433 0.00615445 6.34653 -4.04207 14 1 
341.333 1.20276 6.33944 -0.00516433 0.00615445 6.34653 -4.04207 15 1 
342.667 1.20272 6.31531 -0.00524528 0.00607204 6.32239 -4.11044 15 1 
344 1.2027 6.29931 -0.00528439 0.00605057 6.30628 -4.16009 15 1 
345.333 1.20283 6.2964 -0.00527853 0.00606292 6.30322 -3.9259 15 1 
346.667 1.203 6.28913 -0.00531787 0.00601771 6.2957 -3.60902 15 1 
348 1.20309 6.27356 -0.00537777 0.00593865 6.28008 -3.44945 15 1 
349.333 1.20301 6.25372 -0.00539976 0.00590917 6.26016 -3.58978 15 1 
350.667 1.20296 6.24318 -0.00538227 0.00590626 6.24951 -3.67861 15 1 
352 1.20315 6.24422 -0.00540996 0.00584231 6.2503 -3.34942 15 1 
353.333 1.20332 6.23521 -0.00552157 0.00570652 6.24121 -3.03857 15 1 
354.667 1.20329 6.21822 -0.00560045 0.0056298 6.22413 -3.09474 15 1 
356 1.20318 6.2078 -0.00554207 0.00565536 6.21358 -3.29195 15 1 
357.333 1.20319 6.20205 -0.00544426 0.00570135 6.20766 -3.27843 15 1 
358.667 1.20339 6.20086 -0.00542781 0.00568425 6.20637 -2.90168 15 1 
360 1.20356 6.19763 -0.00549089 0.00559651 6.203 -2.60529 15 1 
361.333 1.20348 6.18657 -0.00553224 0.00550882 6.19184 -2.75285 15 1 
362.667 1.20335 6.17825 -0.00553651 0.00546803 6.18338 -2.97512 15 1 
362.667 1.20335 6.17825 -0.00553651 0.00546803 6.18338 -2.97512 15 1 
364 1.20341 6.17726 -0.00554338 0.00543685 6.1823 -2.87783 15 1 
365.333 1.20358 6.17873 -0.00555013 0.00539418 6.18366 -2.55663 15 1 
366.667 1.20367 6.17705 -0.00551395 0.0053772 6.18187 -2.40102 15 1 
368 1.20359 6.17101 -0.00547054 0.00537611 6.1757 -2.54047 15 1 
369.333 1.20353 6.16843 -0.0054771 0.00533255 6.17306 -2.64746 15 1 
370.667 1.20361 6.171 -0.00551823 0.00526173 6.17556 -2.51486 15 1 
372 1.20374 6.17391 -0.0055257 0.00521686 6.17836 -2.27788 15 1 
373.333 1.20379 6.17477 -0.00543707 0.00523941 6.17909 -2.19084 15 1 
374.667 1.20372 6.17237 -0.00532932 0.00527811 6.17666 -2.30705 15 1 
376 1.2037 6.17274 -0.0053217 0.00524814 6.17698 -2.34121 15 1 
377.333 1.20378 6.17831 -0.00538095 0.00513972 6.18247 -2.19818 15 1 
378.667 1.20384 6.18136 -0.00542884 0.00501595 6.18543 -2.09592 15 1 
380 1.20384 6.18178 -0.0054042 0.00498344 6.18579 -2.09869 15 1 
381.333 1.20383 6.18332 -0.00533425 0.0050343 6.18729 -2.11553 15 1 
382.667 1.20386 6.1865 -0.00530014 0.00503333 6.19044 -2.0517 15 1 
384 1.20393 6.1919 -0.0052988 0.0049799 6.19578 -1.93678 15 1 
384 1.20393 6.1919 -0.0052988 0.0049799 6.19578 -1.93678 15 1 
385.333 1.20393 6.19587 -0.00531111 0.00494488 6.1997 -1.92813 15 1 
386.667 1.2039 6.19705 -0.00534181 0.00491345 6.20083 -1.98193 15 1 
388 1.20394 6.19996 -0.00532464 0.00488478 6.20371 -1.91366 15 1 
389.333 1.20402 6.20451 -0.0052969 0.00487056 6.20822 -1.76133 15 1 
390.667 1.20404 6.20711 -0.00534908 0.0048357 6.21078 -1.73427 15 1 
392 1.20396 6.20747 -0.00539862 0.00479899 6.21112 -1.88042 15 1 
393.333 1.20391 6.20948 -0.00539626 0.00478546 6.21311 -1.96956 15 1 
394.667 1.204 6.21668 -0.00539048 0.0047904 6.22025 -1.8033 15 1 
396 1.20416 6.2257 -0.00534337 0.00480637 6.22923 -1.51682 15 1 
397.333 1.2042 6.22945 -0.00525738 0.00483856 6.23294 -1.44765 15 1 
398.667 1.20406 6.22575 -0.00522596 0.00484206 6.22921 -1.70174 15 1 
400 1.20393 6.22119 -0.00528948 0.00476955 6.2246 -1.93011 15 1 
401.333 1.20402 6.22491 -0.00537908 0.0047089 6.2283 -1.76523 15 1 
402.667 1.20424 6.2361 -0.0054143 0.00472013 6.23946 -1.37641 15 1 
404 1.2043 6.24461 -0.00534849 0.00474416 6.24791 -1.271 15 1 
405.333 1.20411 6.2447 -0.0051976 0.00479352 6.24791 -1.60096 15 1 
405.333 1.20411 6.2447 -0.0051976 0.00479352 6.24791 -1.60096 15 1 
406.667 1.20393 6.24122 -0.00506237 0.00484754 6.24436 -1.93441 15 1 
408 1.20401 6.24266 -0.00505803 0.00478311 6.24574 -1.78992 15 1 
409.333 1.20431 6.24993 -0.00514033 0.00461606 6.25297 -1.25053 15 1 
410.667 1.20449 6.25496 -0.00515061 0.00452723 6.25793 -0.912412 15 1 
412 1.20434 6.25175 -0.00502733 0.00458473 6.25468 -1.1931 15 1 
413.333 1.20401 6.24375 -0.00485177 0.00464978 6.24663 -1.79565 15 1 
414.667 1.20389 6.23952 -0.00474417 0.00461635 6.24234 -2.01034 15 1 
416 1.20415 6.24432 -0.00476312 0.00455482 6.24708 -1.52621 15 1 
417.333 1.20454 6.25308 -0.00485167 0.00453244 6.2558 -0.827886 15 1 
418.667 1.20462 6.25429 -0.00492156 0.00451295 6.25694 -0.686625 15 1 
420 1.2043 6.24357 -0.00486506 0.00452544 6.24607 -1.26063 15 1 
421.333 1.20396 6.22755 -0.00459404 0.00462989 6.22979 -1.88073 15 1 
422.667 1.204 6.21284 -0.00417481 0.00474958 6.21477 -1.80773 15 1 
424 1.20441 6.19624 -0.00381742 0.00478763 6.19787 -1.06165 15 1 
425.333 1.20477 6.16735 -0.00369135 0.00474125 6.1688 -0.409343 15 1 
426.667 1.2047 6.12075 -0.00374752 0.00468618 6.12214 -0.542468 15 1 
426.667 1.2047 6.12075 -0.00374752 0.00468618 6.12214 -0.542468 20 1 
428 1.20427 6.06458 -0.00380368 0.00470343 6.06597 -1.31579 20 1 
429.333 1.20395 6.0157 -0.00371507 0.0048502 6.01706 -1.88932 20 1 
430.667 1.2041 5.98578 -0.00340304 0.0051377 5.987 -1.6218 20 1 
432 1.20459 5.97108 -0.00295627 0.00544693 5.97207 -0.737719 20 1 
433.333 1.20494 5.9579 -0.0025519 0.00565459 5.95864 -0.105065 20 1 
434.667 1.20481 5.93667 -0.00226109 0.00574427 5.93719 -0.344995 20 1 
436 1.20434 5.91035 -0.00204498 0.00573366 5.9107 -1.20016 20 1 
437.333 1.20399 5.89021 -0.00179236 0.00569595 5.89044 -1.8158 20 1 
438.667 1.20413 5.8826 -0.00141701 0.00575083 5.88274 -1.57833 20 1 
440 1.20461 5.88039 -0.000982767 0.00592162 5.88048 -0.709253 20 1 
441.333 1.20497 5.86992 -0.000627639 0.00609606 5.86997 -0.0581474 20 1 
442.667 1.20487 5.84469 -0.00044259 0.00617918 5.84472 -0.232237 20 1 
444 1.20445 5.81255 -0.000427925 0.00618963 5.81256 -1.002 20 1 
445.333 1.20412 5.7915 -0.000512587 0.00619407 5.79151 -1.59301 20 1 
446.667 1.20422 5.79648 -0.000591223 0.00625022 5.79649 -1.40533 20 1 
448 1.2047 5.82914 -0.000572777 0.00641358 5.82915 -0.546868 20 1 
448 1.2047 5.82914 -0.000572777 0.00641358 5.82915 -0.546868 20 1 
449.333 1.20515 5.87932 -0.000456226 0.0067155 5.87935 0.268448 20 1 
450.667 1.20524 5.93735 -0.00031424 0.00708858 5.9374 0.424943 20 1 
452 1.20498 6.00344 -0.000229223 0.00739159 6.00352 -0.0323035 20 1 
453.333 1.20472 6.08641 -0.000275269 0.00752756 6.08652 -0.50123 20 1 
454.667 1.20478 6.19464 -0.000454003 0.0075195 6.19477 -0.39246 20 1 
456 1.2052 6.32727 -0.00065529 0.00749038 6.32742 0.352563 20 1 
457.333 1.20568 6.47386 -0.000769018 0.00753015 6.47403 1.23289 20 1 
458.667 1.20592 6.62264 -0.000772075 0.00764101 6.62284 1.66813 20 1 
460 1.20582 6.76879 -0.00068702 0.00782265 6.76901 1.48517 20 1 
461.333 1.20555 6.91594 -0.000584116 0.00802067 6.91616 1.00221 20 1 
462.667 1.20541 7.07128 -0.000512222 0.00813968 7.0715 0.749218 20 1 
464 1.20558 7.23838 -0.000482462 0.00817089 7.2386 1.05299 20 1 
465.333 1.20598 7.41384 -0.000497704 0.00817094 7.41406 1.77024 20 1 
466.667 1.20634 7.58829 -0.00052398 0.00816735 7.5885 2.41965 20 1 
468 1.20643 7.75282 -0.000564254 0.0081212 7.75302 2.57964 20 1 
469.333 1.20619 7.90481 -0.000639781 0.00801405 7.905 2.15743 20 1 
469.333 1.20619 7.90481 -0.000639781 0.00801405 7.905 2.15743 20 1 
470.667 1.2058 8.04781 -0.000718088 0.00791153 8.04799 1.44344 20 1 
472 1.20552 8.18916 -0.000784587 0.00781754 8.18932 0.934725 20 1 
473.333 1.20553 8.33471 -0.000843494 0.00767831 8.33486 0.963315 20 1 
474.667 1.20583 8.48289 -0.00087511 0.00755036 8.48302 1.49495 20 1 
476 1.20621 8.62718 -0.000861126 0.00750042 8.62729 2.19157 20 1 
477.333 1.20645 8.76026 -0.000817418 0.00748595 8.76036 2.61565 20 1 
478.667 1.20639 8.87671 -0.000772427 0.0074587 8.8768 2.51466 20 1 
480 1.20607 8.97694 -0.000713557 0.00743284 8.97703 1.92836 20 1 
481.333 1.20563 9.06621 -0.000669773 0.00738026 9.06628 1.14471 20 1 
482.667 1.20532 9.15069 -0.000714199 0.00725013 9.15074 0.586593 20 1 
484 1.20529 9.23447 -0.00081429 0.00705748 9.23451 0.527958 20 1 
485.333 1.20553 9.31774 -0.000894397 0.00685964 9.31777 0.962048 20 1 
486.667 1.20593 9.39752 -0.000945916 0.00669136 9.39754 1.67575 20 1 
488 1.20628 9.4683 -0.000954611 0.00657746 9.46832 2.3086 20 1 
489.333 1.20641 9.52538 -0.000898492 0.00655332 9.52539 2.55151 20 1 
490.667 1.20629 9.56779 -0.000796095 0.00660714 9.5678 2.33662 20 1 
490.667 1.20629 9.56779 -0.000796095 0.00660714 9.5678 2.33662 20 1 
492 1.20599 9.59756 -0.000684238 0.00667742 9.59757 1.78574 20 1 
493.333 1.20563 9.62088 -0.000633456 0.00667097 9.62089 1.13919 20 1 
494.667 1.20539 9.64536 -0.000669461 0.00658175 9.64537 0.705722 20 1 
496 1.20536 9.67387 -0.000784192 0.00643376 9.67388 0.652223 20 1 
497.333 1.20552 9.70539 -0.000939052 0.00624511 9.7054 0.944143 20 1 
498.667 1.20582 9.7376 -0.00103417 0.00610003 9.73761 1.48439 20 1 
500 1.20613 9.76723 -0.00103145 0.00606462 9.76724 2.04699 20 1 
501.333 1.20629 9.79129 -0.000912741 0.00615484 9.7913 2.32288 20 1 
502.667 1.20621 9.8073 -0.000681908 0.00634682 9.80731 2.19121 20 1 
504 1.20596 9.81532 -0.000396303 0.00661314 9.81532 1.74236 20 1 
505.333 1.20565 9.8187 -0.000154584 0.00684132 9.8187 1.17287 20 1 
506.667 1.20539 9.82151 -1.13603e-05 0.00694664 9.82151 0.711628 20 1 
508 1.20527 9.82834 -2.9585e-05 0.00690341 9.82834 0.479264 20 1 
509.333 1.20529 9.84142 -0.000268631 0.00666671 9.84143 0.515596 20 1 
510.667 1.20548 9.85888 -0.000678511 0.00621966 9.85889 0.864573 20 1 
512 1.20581 9.87767 -0.00115157 0.00569474 9.87768 1.46417 20 1 
512 1.20581 9.87767 -0.00115157 0.00569474 9.87768 1.46417 21 1 
513.333 1.20615 9.8947 -0.0016008 0.00524532 9.8947 2.0858 21 1 
514.667 1.20635 9.90787 -0.0019528 0.0048913 9.90787 2.44234 21 1 
516 1.20634 9.91638 -0.00213381 0.00467113 9.91638 2.41178 21 1 
517.333 1.20616 9.9179 -0.00212837 0.00467069 9.9179 2.09607 21 1 
518.667 1.20589 9.91315 -0.00196673 0.00484166 9.91315 1.61359 21 1 
520 1.20559 9.90814 -0.00167982 0.00508467 9.90814 1.05695 21 1 
521.333 1.20531 9.90686 -0.00134994 0.0053567 9.90686 0.566459 21 1 
522.667 1.20516 9.9096 -0.00110854 0.00558456 9.9096 0.298014 21 1 
524 1.20522 9.91637 -0.000974591 0.00571008 9.91637 0.400987 21 1 
525.333 1.20546 9.92768 -0.000908098 0.00572317 9.92768 0.835707 21 1 
526.667 1.20578 9.94437 -0.00096088 0.00562674 9.94437 1.40411 21 1 
528 1.20614 9.96367 -0.0011612 0.00541197 9.96367 2.06754 21 1 
529.333 1.20654 9.98026 -0.0014093 0.00513484 9.98026 2.78932 21 1 
530.667 1.20685 9.99271 -0.0015967 0.00490634 9.99272 3.34114 21 1 
532 1.20699 10.002 -0.00172524 0.00475913 10.002 3.59783 21 1 
533.333 1.20701 10.0072 -0.0017848 0.0046893 10.0072 3.63345 21 1 
533.333 1.20701 10.0072 -0.0017848 0.0046893 10.0072 3.63345 21 1 
534.667 1.20695 10.0069 -0.00172849 0.00472111 10.0069 3.515 21 1 
536 1.20681 10.0038 -0.00157148 0.00483349 10.0038 3.27492 21 1 
537.333 1.20664 10.0019 -0.00136457 0.00500809 10.0019 2.96065 21 1 
538.667 1.20649 10.0002 -0.00112775 0.00523643 10.0002 2.68491 21 1 
540 1.20641 9.99803 -0.000872587 0.00544728 9.99803 2.54149 21 1 
541.333 1.20637 9.99823 -0.000615479 0.0056377 9.99823 2.47816 21 1 
542.667 1.20638 10.002 -0.000406057 0.00581682 10.002 2.48632 21 1 
544 1.20645 10.0063 -0.000286593 0.00591834 10.0063 2.62686 21 1 
545.333 1.20657 10.0103 -0.000206765 0.0059401 10.0103 2.82778 21 1 
546.667 1.20664 10.0149 -0.000140942 0.0059438 10.0149 2.96685 21 1 
548 1.20668 10.0186 -0.000129191 0.00593226 10.0186 3.04004 21 1 
549.333 1.20672 10.0204 -0.000180089 0.00584872 10.0204 3.10003 21 1 
550.667 1.20671 10.0209 -0.00023892 0.00572722 10.0209 3.08367 21 1 
552 1.20661 10.0199 -0.000280464 0.00564009 10.0199 2.90909 21 1 
553.333 1.20649 10.0173 -0.000335185 0.00554755 10.0173 2.69787 21 1 
554.667 1.20639 10.0134 -0.000401692 0.00542678 10.0134 2.51037 21 1 
554.667 1.20639 10.0134 -0.000401692 0.00542678 10.0134 2.51037 22 1 
556 1.20622 10.0095 -0.000452721 0.00533394 10.0095 2.20744 22 1 
557.333 1.20603 10.0055 -0.000488155 0.00525177 10.0055 1.8584 22 1 
558.667 1.2059 10.0003 -0.000521745 0.00515371 10.0003 1.62849 22 1 
560 1.20577 9.99653 -0.0005486 0.00508479 9.99653 1.38553 22 1 
561.333 1.2056 9.9946 -0.000538699 0.00505371 9.9946 1.08977 22 1 
562.667 1.20551 9.99103 -0.000535055 0.00498983 9.99104 0.9269 22 1 
564 1.20545 9.98811 -0.000556208 0.00491524 9.98811 0.81797 22 1 
565.333 1.20534 9.98769 -0.000573548 0.00485676 9.98769 0.619394 22 1 
566.667 1.20527 9.98686 -0.000537538 0.00483796 9.98686 0.49555 22 1 
568 1.20527 9.98569 -0.000499994 0.00481254 9.98569 0.491889 22 1 
569.333 1.20523 9.98573 -0.000517077 0.00474088 9.98573 0.414362 22 1 
570.667 1.20519 9.98647 -0.000511678 0.00469485 9.98647 0.338511 22 1 
572 1.2052 9.98609 -0.000482281 0.00467031 9.98609 0.367974 22 1 
573.333 1.20518 9.98598 -0.000474029 0.0046318 9.98598 0.324593 22 1 
574.667 1.20514 9.98784 -0.000456249 0.0045987 9.98784 0.246069 22 1 
576 1.20517 9.98778 -0.00041938 0.00455745 9.98778 0.300796 22 1 
576 1.20517 9.98778 -0.00041938 0.00455745 9.98778 0.300796 22 1 
577.333 1.20518 9.98726 -0.000417146 0.00450638 9.98726 0.328791 22 1 
578.667 1.20514 9.98944 -0.00041953 0.0044777 9.98944 0.245378 22 1 
580 1.20515 9.98957 -0.000387681 0.00444499 9.98958 0.263059 22 1 
581.333 1.20518 9.98921 -0.000362741 0.00439682 9.98921 0.327029 22 1 
582.667 1.20514 9.99094 -0.000350752 0.00437552 9.99094 0.248286 22 1 
584 1.20513 9.99054 -0.000329998 0.00435023 9.99054 0.233599 22 1 
585.333 1.20518 9.99046 -0.000333344 0.00427379 9.99046 0.322349 22 1 
586.667 1.20514 9.99235 -0.000322931 0.00423809 9.99235 0.256334 22 1 
588 1.20512 9.99238 -0.000280787 0.00424922 9.99238 0.217435 22 1 
589.333 1.20517 9.99174 -0.000249953 0.00421939 9.99174 0.307603 22 1 
590.667 1.20514 9.99254 -0.000257834 0.00414722 9.99254 0.255078 22 1 
592 1.20513 9.99362 -0.000252967 0.00411521 9.99362 0.230463 22 1 
593.333 1.20518 9.99332 -0.000226884 0.00409357 9.99332 0.323172 22 1 
594.667 1.20513 9.99344 -0.00020741 0.00405317 9.99344 0.237595 22 1 
596 1.20511 9.9944 -0.000190477 0.0040327 9.9944 0.193673 22 1 
597.333 1.20517 9.99351 -0.000175939 0.00400037 9.99351 0.299288 22 1 
597.333 1.20517 9.99351 -0.000175939 0.00400037 9.99351 0.299288 24 1 
598.667 1.20513 9.99445 -0.000165654 0.00394792 9.99445 0.241662 24 1 
600 1.20512 9.99612 -0.00012788 0.00394202 9.99612 0.222634 24 1 
601.333 1.20518 9.99447 -0.000112741 0.00391638 9.99447 0.316804 24 1 
602.667 1.20512 9.99511 -0.000124527 0.00384511 9.99511 0.217081 24 1 
604 1.2051 9.99596 -0.000105993 0.00382023 9.99596 0.172185 24 1 
605.333 1.20517 9.99488 -6.37843e-05 0.00382639 9.99488 0.307359 24 1 
606.667 1.20514 9.99706 -4.26635e-05 0.00378998 9.99707 0.250265 24 1 
608 1.20511 9.99716 -3.65362e-05 0.00374846 9.99717 0.191761 24 1 
609.333 1.20516 9.99528 -2.79326e-05 0.0037241 9.99528 0.286694 24 1 
610.667 1.20511 9.99705 -2.19377e-05 0.00367978 9.99705 0.200985 24 1 
612 1.2051 9.9975 9.26861e-06 0.00365862 9.9975 0.183063 24 1 
613.333 1.20518 9.99701 3.35083e-05 0.00365828 9.99701 0.316304 24 1 
614.667 1.20512 9.99811 5.2239e-05 0.00362879 9.99811 0.210564 24 1 
616 1.20511 9.99783 5.30436e-05 0.00357407 9.99783 0.19057 24 1 
617.333 1.20516 9.99763 6.35789e-05 0.00355755 9.99763 0.292687 24 1 
618.667 1.20509 9.99865 7.99281e-05 0.00353708 9.99865 0.163731 24 1 
618.667 1.20509 9.99865 7.99281e-05 0.00353708 9.99865 0.163731 24 1 
620 1.20511 9.99886 0.000112142 0.00351033 9.99886 0.202138 24 1 
621.333 1.20517 9.99848 0.00013698 0.0035004 9.99848 0.30438 24 1 
622.667 1.20509 9.99933 0.000149123 0.00348325 9.99933 0.162727 24 1 
624 1.20512 9.99946 0.000152691 0.00343542 9.99946 0.21075 24 1 
625.333 1.20515 9.99899 0.000159015 0.0033987 9.99899 0.269224 24 1 
626.667 1.20509 10.0006 0.000167534 0.00337229 10.0006 0.156537 24 1 
628 1.20512 9.99998 0.000196025 0.00336099 9.99998 0.224687 24 1 
629.333 1.20514 9.9994 0.000236529 0.00335798 9.9994 0.247736 24 1 
630.667 1.2051 10.0014 0.000238679 0.00332723 10.0014 0.179745 24 1 
632 1.20513 10.0002 0.000228276 0.00327797 10.0002 0.228057 24 1 
633.333 1.20511 10.0008 0.000240671 0.00324691 10.0008 0.207485 24 1 
634.667 1.2051 10.0019 0.000298332 0.00326085 10.0019 0.182988 24 1 
636 1.20512 9.99989 0.000324077 0.00325845 9.99989 0.209969 24 1 
637.333 1.20511 10.0018 0.000302603 0.00320224 10.0018 0.202632 24 1 
638.667 1.20513 10.0019 0.000287143 0.00313991 10.0019 0.228916 24 1 
640 1.20511 10.0005 0.000315367 0.00313102 10.0005 0.192406 24 1 
640 1.20511 10.0005 0.000315367 0.00313102 10.0005 0.192406 24 1 
641.333 1.20509 10.0026 0.000366863 0.0031507 10.0026 0.160498 24 1 
642.667 1.20512 10.0009 0.000391672 0.00314242 10.0009 0.214233 24 1 
644 1.2051 10.002 0.000384143 0.00309723 10.002 0.189376 24 1 
645.333 1.2051 10.003 0.00038813 0.00305527 10.003 0.186957 24 1 
646.667 1.20512 10.0005 0.000395745 0.00302917 10.0005 0.21585 24 1 
648 1.20509 10.0028 0.000418876 0.00302535 10.0028 0.156662 24 1 
649.333 1.20509 10.0014 0.000454333 0.00302421 10.0014 0.17059 24 1 
650.667 1.2051 10.0016 0.000465154 0.00300144 10.0016 0.189269 24 1 
652 1.20509 10.004 0.000450559 0.00293858 10.004 0.157341 24 1 
653.333 1.20512 10.0005 0.000462756 0.00291666 10.0005 0.217849 24 1 
654.667 1.2051 10.0027 0.000504541 0.00294118 10.0027 0.188604 24 1 
656 1.20506 10.0023 0.000536594 0.00292671 10.0023 0.115302 24 1 
657.333 1.20509 10.0006 0.000543278 0.00288966 10.0006 0.171668 24 1 
658.667 1.2051 10.0044 0.000512598 0.00284648 10.0044 0.180194 24 1 
660 1.2051 10.001 0.000520998 0.00281193 10.001 0.184714 24 1 
661.333 1.20509 10.0022 0.000579308 0.00282067 10.0022 0.16772 24 1 
661.333 1.20509 10.0022 0.000579308 0.00282067 10.0022 0.16772 24 1 
662.667 1.20505 10.0033 0.000618118 0.00283641 10.0033 0.0896899 24 1 
664 1.20509 10.0001 0.000613823 0.00280758 10.0001 0.169837 24 1 
665.333 1.20511 10.0044 0.000589932 0.00275039 10.0044 0.19747 24 1 
666.667 1.20508 10.0022 0.000590806 0.00271456 10.0022 0.144162 24 1 
668 1.2051 10.0017 0.000621385 0.00271346 10.0017 0.177352 24 1 
669.333 1.20505 10.0035 0.000661163 0.00271954 10.0035 0.0952288 24 1 
670.667 1.20506 10.0003 0.000688166 0.00271484 10.0003 0.108773 24 1 
672 1.20511 10.0045 0.000687607 0.00268898 10.0045 0.202931 24 1 
673.333 1.20508 10.0028 0.000679852 0.00264395 10.0028 0.142485 24 1 
674.667 1.20509 10.0013 0.000684271 0.00261441 10.0013 0.15861 24 1 
676 1.20507 10.0042 0.000700482 0.00261369 10.0042 0.123121 24 1 
677.333 1.20505 10.0007 0.000731736 0.00260374 10.0007 0.0891151 24 1 
678.667 1.2051 10.0048 0.000770858 0.00260509 10.0048 0.189403 24 1 
680 1.20508 10.0031 0.000763805 0.00258523 10.0031 0.136299 24 1 
681.333 1.20507 10.0014 0.000752565 0.00253539 10.0014 0.121259 24 1 
682.667 1.20507 10.0049 0.000773859 0.00251494 10.0049 0.124595 24 1 
682.667 1.20507 10.0049 0.000773859 0.00251494 10.0049 0.124595 31 1 
684 1.20505 10.0006 0.000793654 0.00252316 10.0006 0.0900572 31 1 
685.333 1.2051 10.0051 0.000800377 0.0025025 10.0051 0.186892 31 1 
686.667 1.20508 10.0037 0.00081029 0.00247254 10.0037 0.138781 31 1 
688 1.20506 10.0014 0.000826027 0.00246406 10.0014 0.101644 31 1 
689.333 1.20508 10.0061 0.000844645 0.00245257 10.0061 0.142991 31 1 
690.667 1.20505 10.0004 0.000860893 0.00243526 10.0004 0.0839172 31 1 
692 1.20508 10.0049 0.000859116 0.00240961 10.0049 0.141119 31 1 
693.333 1.20508 10.0045 0.000868187 0.00239675 10.0045 0.153083 31 1 
694.667 1.20507 10.0015 0.000892663 0.00238622 10.0015 0.120857 31 1 
696 1.20506 10.0064 0.000902527 0.00236526 10.0064 0.115525 31 1 
697.333 1.20504 10.0004 0.000908551 0.00234481 10.0004 0.0795032 31 1 
698.667 1.20509 10.0057 0.000926702 0.00233403 10.0057 0.168455 31 1 
700 1.20506 10.0047 0.000936253 0.00231914 10.0047 0.115663 31 1 
701.333 1.20505 10.001 0.000935005 0.00229465 10.001 0.084482 31 1 
702.667 1.20509 10.0077 0.000945526 0.00227311 10.0077 0.170935 31 1 
704 1.20504 10.0004 0.000967993 0.00226519 10.0004 0.0689313 31 1 
704 1.20504 10.0004 0.000967993 0.00226519 10.0004 0.0689313 31 1 
705.333 1.20507 10.0057 0.00097376 0.00224974 10.0057 0.129889 31 1 
706.667 1.20509 10.0051 0.00097888 0.00223053 10.0051 0.159436 31 1 
708 1.20505 10.0013 0.00100011 0.002224 10.0013 0.0859752 31 1 
709.333 1.20507 10.0079 0.00101315 0.00220685 10.0079 0.121728 31 1 
710.667 1.20504 10.0004 0.00101943 0.00218955 10.0004 0.0695192 31 1 
712 1.20508 10.0067 0.00101075 0.00216292 10.0067 0.144684 31 1 
713.333 1.20507 10.0044 0.00100574 0.00212603 10.0044 0.120776 31 1 
714.667 1.20505 10.002 0.00103493 0.00212883 10.002 0.0977488 31 1 
716 1.20509 10.0089 0.00106892 0.00214135 10.0089 0.171241 31 1 
717.333 1.20501 9.99932 0.00107972 0.00211932 9.99932 0.0150297 31 1 
718.667 1.20506 10.0075 0.0010825 0.00210271 10.0075 0.106578 31 1 
720 1.20509 10.0045 0.0010837 0.0020917 10.0045 0.157879 31 1 
721.333 1.20505 10.0028 0.00107378 0.00204518 10.0028 0.0839554 31 1 
722.667 1.20507 10.0085 0.00108297 0.00202222 10.0085 0.121811 31 1 
724 1.20503 9.9996 0.00110966 0.00203348 9.9996 0.0568592 31 1 
725.333 1.20507 10.0084 0.00113416 0.00203258 10.0084 0.117528 31 1 
725.333 1.20507 10.0084 0.00113416 0.00203258 10.0084 0.117528 31 1 
726.667 1.20504 10.0031 0.00115262 0.00202921 10.0031 0.0773157 31 1 
728 1.20507 10.0044 0.00113676 0.00199941 10.0044 0.120672 31 1 
729.333 1.20508 10.0084 0.00113531 0.00196409 10.0084 0.140819 31 1 
730.667 1.20499 9.99931 0.00117001 0.00196307 9.99931 -0.0137767 31 1 
732 1.20506 10.0089 0.00120634 0.00198686 10.0089 0.103807 31 1 
733.333 1.20504 10.0023 0.00119879 0.00196632 10.0023 0.0772803 31 1 
734.667 1.20506 10.0056 0.00118571 0.00192296 10.0056 0.103521 31 1 
736 1.20507 10.0075 0.00120268 0.00191412 10.0075 0.128802 31 1 
737.333 1.20502 10.0006 0.00121054 0.00190601 10.0006 0.041409 31 1 
738.667 1.20505 10.009 0.00123013 0.00189705 10.009 0.0827015 31 1 
740 1.205 10.001 0.00126327 0.00190408 10.001 -0.00643228 31 1 
741.333 1.20506 10.0071 0.00127543 0.00190401 10.0071 0.110155 31 1 
742.667 1.20504 10.0063 0.00129428 0.00189524 10.0063 0.0813513 31 1 
744 1.20501 10.0025 0.00130346 0.00187792 10.0025 0.0248466 31 1 
745.333 1.20507 10.0102 0.00129352 0.00185761 10.0102 0.120679 31 1 
746.667 1.205 10.001 0.00129029 0.00182685 10.001 -0.00605977 31 1 
746.667 1.205 10.001 0.00129029 0.00182685 10.001 -0.00605977 31 1 
748 1.20505 10.0076 0.00131014 0.00181865 10.0076 0.0901979 31 1 
749.333 1.20503 10.0044 0.00136034 0.0018613 10.0044 0.053492 31 1 
750.667 1.20501 10.0041 0.00140319 0.00187934 10.0041 0.0193342 31 1 
752 1.20503 10.0089 0.00142151 0.00186815 10.0089 0.0605105 31 1 
753.333 1.20499 10.0022 0.00140244 0.00183985 10.0022 -0.0127372 31 1 
754.667 1.20505 10.0112 0.00136841 0.00178498 10.0112 0.0902935 31 1 
756 1.20499 10.0048 0.00137767 0.00176283 10.0048 -0.0205919 31 1 
757.333 1.20503 10.0073 0.00144144 0.00181414 10.0073 0.046666 31 1 
758.667 1.20506 10.008 0.00148368 0.0018433 10.008 0.10686 31 1 
760 1.20498 10.0009 0.00149878 0.00182997 10.0009 -0.0289801 31 1 
761.333 1.20502 10.0067 0.00149602 0.00180911 10.0067 0.0303291 31 1 
762.667 1.20499 9.99784 0.00149082 0.00179501 9.99784 -0.0156127 31 1 
764 1.20502 10.004 0.00152671 0.00180674 10.004 0.0343572 31 1 
765.333 1.20498 10.0027 0.00156451 0.00181738 10.0027 -0.0288123 31 1 
766.667 1.205 10.0036 0.00158189 0.00182401 10.0036 0.000485724 31 1 
768 1.20505 10.0106 0.00157081 0.00179334 10.0106 0.0977046 31 1 
768 1.20505 10.0106 0.00157081 0.00179334 10.0106 0.0977046 32 1 
769.333 1.20498 10.0036 0.00154961 0.00174943 10.0036 -0.0356868 32 1 
770.667 1.20502 10.0119 0.00156886 0.00176555 10.0119 0.0289178 32 1 
772 1.20498 10.0063 0.00162878 0.00180452 10.0063 -0.0386862 32 1 
773.333 1.20499 10.01 0.00168227 0.00182712 10.01 -0.0149449 32 1 
774.667 1.20501 10.0101 0.00171132 0.00184653 10.0101 0.0218878 32 1 
776 1.205 10.0038 0.00170837 0.0018304 10.0038 -0.003547 32 1 
777.333 1.20501 10.0078 0.0016647 0.00176273 10.0078 0.0117112 32 1 
778.667 1.20493 9.99772 0.00165572 0.00174365 9.99772 -0.124371 32 1 
780 1.20502 10.0047 0.00169332 0.00176455 10.0047 0.0385204 32 1 
781.333 1.20502 10.0011 0.00171919 0.00176448 10.0011 0.0324577 32 1 
782.667 1.20499 10.0029 0.00175752 0.00179152 10.0029 -0.0211369 32 1 
784 1.20499 10.0079 0.00179552 0.0018213 10.0079 -0.0152419 32 1 
785.333 1.20495 10.0034 0.00181396 0.00181962 10.0034 -0.0915159 32 1 
786.667 1.20497 10.0113 0.00183087 0.00181315 10.0113 -0.0567322 32 1 
788 1.20494 10.0043 0.00183653 0.00180841 10.0043 -0.0994009 32 1 
789.333 1.20506 10.0118 0.00179487 0.00175024 10.0118 0.106138 32 1 
790.667 1.20502 10.0073 0.00179071 0.00172186 10.0073 0.0307845 32 1 
792 1.20494 10.0047 0.00186799 0.00178942 10.0047 -0.11423 32 1 
793.333 1.20496 10.0057 0.0019134 0.0018238 10.0057 -0.0777956 32 1 
794.667 1.20497 9.99823 0.00190669 0.00179535 9.99823 -0.0624986 32 1 
796 1.205 10.0045 0.00190478 0.00177797 10.0045 0.00335992 32 1 
797.333 1.20493 9.9968 0.00193723 0.00180146 9.9968 -0.126515 32 1 
798.667 1.20498 10.0059 0.00195852 0.00179642 10.0059 -0.0302157 32 1 
800 1.20508 10.0222 0.00195846 0.00177489 10.0222 0.149008 32 1 
