38.0372;r ;Density                 ;Velocity u              ;Velocity v              ;Velocity w              ;|Velocity|              ;Pressure                ;Distribution            ;Levels                  ;
0 1.204 9.9996 -1.60961e-05 7.14649e-06 9.9996 -1.80558 1 1 
1.33334 1.20401 9.99955 1.23301e-05 5.32912e-05 9.99955 -1.78628 1 1 
2.66666 1.20402 9.99942 3.535e-05 0.000101181 9.99942 -1.76534 1 1 
4 1.20402 9.99905 6.41968e-05 0.000166583 9.99905 -1.77079 1 1 
5.33334 1.20402 9.99833 6.94559e-05 0.000224283 9.99833 -1.76761 1 1 
6.66666 1.20403 9.99775 9.5662e-05 0.000290054 9.99775 -1.75291 1 1 
8 1.20402 9.9973 0.000134847 0.000360147 9.9973 -1.77102 1 1 
9.33334 1.20402 9.9966 0.000152365 0.000414078 9.9966 -1.76645 1 1 
10.6667 1.20404 9.99672 0.000152482 0.000473743 9.99672 -1.73165 1 1 
12 1.20405 9.99714 0.000163336 0.000543119 9.99714 -1.71197 1 1 
13.3333 1.20408 9.99626 0.000181751 0.000597715 9.99626 -1.66749 1 1 
14.6667 1.20408 9.99569 0.00020487 0.000668172 9.99569 -1.66159 1 1 
16 1.20408 9.99531 0.000207633 0.000742082 9.99531 -1.65402 1 1 
17.3333 1.2041 9.99544 0.000261933 0.000849401 9.99544 -1.63419 1 1 
18.6667 1.2041 9.99579 0.000282214 0.000916714 9.99579 -1.62778 1 1 
20 1.20412 9.99514 0.000327154 0.00101455 9.99514 -1.58297 1 1 
21.3333 1.20414 9.99501 0.00035789 0.00110868 9.99501 -1.55842 1 1 
21.3333 1.20414 9.99501 0.00035789 0.00110868 9.99501 -1.55842 1 1 
22.6667 1.20414 9.99489 0.000381378 0.00119057 9.99489 -1.56103 1 1 
24 1.20413 9.99437 0.000417208 0.00126626 9.99437 -1.57103 1 1 
25.3333 1.20413 9.99362 0.000436254 0.001339 9.99362 -1.56524 1 1 
26.6667 1.20413 9.99326 0.000506366 0.00145884 9.99326 -1.56813 1 1 
28 1.20414 9.9927 0.000543149 0.00156107 9.9927 -1.54879 1 1 
29.3333 1.20416 9.99194 0.000602459 0.00166263 9.99194 -1.5202 1 1 
30.6667 1.20415 9.99162 0.000674287 0.00176634 9.99162 -1.54127 1 1 
32 1.20414 9.99098 0.000766428 0.00192178 9.99098 -1.55802 1 1 
33.3333 1.20413 9.98996 0.000816784 0.00201885 9.98996 -1.56819 1 1 
34.6667 1.20412 9.98873 0.000842326 0.00207864 9.98873 -1.58293 1 1 
36 1.20412 9.98861 0.000871984 0.00213292 9.98861 -1.58801 1 1 
37.3333 1.20412 9.98832 0.000907626 0.00221697 9.98832 -1.5839 1 1 
38.6667 1.20411 9.98788 0.000942381 0.00230879 9.98788 -1.60043 1 1 
40 1.20411 9.98793 0.000988088 0.00240117 9.98793 -1.61119 1 1 
41.3333 1.2041 9.98753 0.00101198 0.00245305 9.98753 -1.62202 1 1 
42.6667 1.2041 9.98728 0.00106741 0.00255695 9.98728 -1.6296 1 1 
42.6667 1.2041 9.98728 0.00106741 0.00255695 9.98728 -1.6296 2 1 
44 1.20411 9.98691 0.00111956 0.00267162 9.98691 -1.6158 2 1 
45.3333 1.2041 9.98694 0.00112357 0.002694 9.98694 -1.62871 2 1 
46.6667 1.20411 9.98677 0.0011728 0.00277534 9.98677 -1.60914 2 1 
48 1.20411 9.98697 0.00123578 0.00288202 9.98697 -1.60042 2 1 
49.3333 1.2041 9.98715 0.00127168 0.00293509 9.98715 -1.62488 2 1 
50.6667 1.20409 9.98667 0.00132393 0.00303728 9.98667 -1.63852 2 1 
52 1.2041 9.98551 0.00132069 0.0030595 9.98551 -1.62863 2 1 
53.3333 1.20411 9.98565 0.00137615 0.00316211 9.98565 -1.59942 2 1 
54.6667 1.20412 9.98706 0.001442 0.00327105 9.98706 -1.58651 2 1 
56 1.20414 9.98674 0.00142875 0.00328902 9.98674 -1.55982 2 1 
57.3333 1.20415 9.98583 0.00144915 0.00335491 9.98583 -1.53115 2 1 
58.6667 1.20415 9.98596 0.00149926 0.00343964 9.98596 -1.53924 2 1 
60 1.20416 9.98582 0.00153886 0.00353927 9.98582 -1.51998 2 1 
61.3333 1.20418 9.98441 0.00154749 0.00356434 9.98441 -1.48537 2 1 
62.6667 1.20417 9.98447 0.00159788 0.00365834 9.98447 -1.50212 2 1 
64 1.20418 9.9844 0.00165779 0.0037647 9.9844 -1.47414 2 1 
64 1.20418 9.9844 0.00165779 0.0037647 9.9844 -1.47414 2 1 
65.3333 1.2042 9.98443 0.0016683 0.00381654 9.98443 -1.44414 2 1 
66.6667 1.20422 9.98424 0.0016817 0.00387754 9.98424 -1.40114 2 1 
68 1.20424 9.98431 0.00170773 0.00395522 9.98431 -1.37599 2 1 
69.3333 1.20424 9.98395 0.00174259 0.00405017 9.98395 -1.37026 2 1 
70.6667 1.20425 9.98271 0.00178902 0.00412361 9.98271 -1.35837 2 1 
72 1.20424 9.98276 0.00180696 0.00418589 9.98276 -1.36581 2 1 
73.3333 1.20426 9.9829 0.00184123 0.00427316 9.9829 -1.33179 2 1 
74.6667 1.20426 9.98283 0.00188159 0.0043558 9.98283 -1.33761 2 1 
76 1.20427 9.98186 0.00190979 0.00441547 9.98186 -1.31995 2 1 
77.3333 1.20428 9.98208 0.00193467 0.00449336 9.98208 -1.29202 2 1 
78.6667 1.20428 9.98306 0.00197024 0.00457674 9.98306 -1.30951 2 1 
80 1.20428 9.98212 0.00204219 0.00469126 9.98212 -1.29798 2 1 
81.3333 1.20426 9.98144 0.00207708 0.00476575 9.98144 -1.32981 2 1 
82.6667 1.20425 9.98152 0.00211451 0.00485008 9.98152 -1.34642 2 1 
84 1.20427 9.98099 0.0021523 0.0049377 9.98099 -1.32144 2 1 
85.3333 1.20426 9.98088 0.00218239 0.00502501 9.98088 -1.33955 2 1 
85.3333 1.20426 9.98088 0.00218239 0.00502501 9.98088 -1.33955 3 1 
86.6667 1.20427 9.98115 0.00220589 0.00509097 9.98115 -1.31985 3 1 
88 1.20428 9.98203 0.00222057 0.00514372 9.98204 -1.304 3 1 
89.3333 1.20426 9.98202 0.00228551 0.00525066 9.98202 -1.33628 3 1 
90.6667 1.20424 9.98116 0.00229826 0.00531458 9.98116 -1.37777 3 1 
92 1.20423 9.98057 0.00234106 0.00540344 9.98057 -1.39491 3 1 
93.3333 1.20421 9.98011 0.00245271 0.00554678 9.98011 -1.42092 3 1 
94.6667 1.2042 9.97989 0.0024621 0.00559165 9.9799 -1.45405 3 1 
96 1.20422 9.98002 0.00248517 0.00567044 9.98002 -1.40371 3 1 
97.3333 1.20423 9.98161 0.0025868 0.00580679 9.98161 -1.38498 3 1 
98.6667 1.20422 9.98227 0.00256862 0.00581422 9.98228 -1.40193 3 1 
100 1.20424 9.98121 0.00258506 0.00586866 9.98122 -1.3665 3 1 
101.333 1.20425 9.98113 0.00263732 0.00597297 9.98113 -1.36184 3 1 
102.667 1.20422 9.98157 0.00269731 0.0060785 9.98157 -1.40613 3 1 
104 1.2042 9.98142 0.00275515 0.00614605 9.98142 -1.43916 3 1 
105.333 1.20421 9.98078 0.00280244 0.00625634 9.98078 -1.43004 3 1 
106.667 1.2042 9.98159 0.00290828 0.00639905 9.98159 -1.4405 3 1 
106.667 1.2042 9.98159 0.00290828 0.00639905 9.98159 -1.4405 3 1 
108 1.2042 9.98182 0.00291712 0.00644104 9.98182 -1.43991 3 1 
109.333 1.20424 9.98037 0.00295238 0.00650921 9.98037 -1.3753 3 1 
110.667 1.20427 9.9808 0.00304379 0.00664601 9.9808 -1.3182 3 1 
112 1.20427 9.98302 0.00308103 0.00673281 9.98302 -1.31742 3 1 
113.333 1.20429 9.9831 0.0030445 0.00671812 9.9831 -1.28606 3 1 
114.667 1.20428 9.98265 0.00310518 0.00684617 9.98265 -1.29663 3 1 
116 1.20426 9.98338 0.00321286 0.00700285 9.98338 -1.34512 3 1 
117.333 1.20427 9.98163 0.00318704 0.00701949 9.98164 -1.3158 3 1 
118.667 1.20424 9.98087 0.00326137 0.00713344 9.98087 -1.37822 3 1 
120 1.20425 9.98027 0.00339024 0.00732852 9.98028 -1.36304 3 1 
121.333 1.20428 9.98097 0.0034081 0.00740111 9.98097 -1.30649 3 1 
122.667 1.20428 9.98321 0.00343522 0.00743966 9.98321 -1.3046 3 1 
124 1.20432 9.98301 0.00354004 0.00760691 9.98301 -1.23381 3 1 
125.333 1.20432 9.98444 0.00361475 0.00774852 9.98444 -1.22314 3 1 
126.667 1.20433 9.98466 0.00356288 0.00773336 9.98466 -1.20639 3 1 
128 1.20431 9.98326 0.00362469 0.00781637 9.98326 -1.24444 3 1 
128 1.20431 9.98326 0.00362469 0.00781637 9.98326 -1.24444 3 1 
129.333 1.20429 9.98232 0.00371414 0.00798402 9.98233 -1.29079 3 1 
130.667 1.20427 9.98265 0.00373023 0.0080635 9.98266 -1.31496 3 1 
132 1.20424 9.98374 0.00375543 0.00809457 9.98374 -1.3639 3 1 
133.333 1.20425 9.98291 0.00388061 0.00827208 9.98291 -1.34576 3 1 
134.667 1.20425 9.98335 0.00394456 0.00841457 9.98336 -1.34975 3 1 
136 1.20426 9.98421 0.00392419 0.00840803 9.98421 -1.33947 3 1 
137.333 1.20427 9.98425 0.00401757 0.00852668 9.98426 -1.3102 3 1 
138.667 1.20428 9.9848 0.00409052 0.00867719 9.98481 -1.29225 3 1 
140 1.20428 9.98673 0.00407638 0.00868741 9.98674 -1.29637 3 1 
141.333 1.20428 9.98732 0.00405104 0.00869159 9.98732 -1.30874 3 1 
142.667 1.20427 9.98595 0.0041707 0.00885129 9.98596 -1.32039 3 1 
144 1.20424 9.98556 0.00419097 0.00894683 9.98557 -1.36594 3 1 
145.333 1.20422 9.98546 0.00417625 0.00898658 9.98546 -1.41518 3 1 
146.667 1.2042 9.98552 0.00428628 0.00910762 9.98553 -1.43688 3 1 
148 1.2042 9.98545 0.00438932 0.00925912 9.98546 -1.4477 3 1 
149.333 1.2042 9.98584 0.00436669 0.00929832 9.98584 -1.45264 3 1 
149.333 1.2042 9.98584 0.00436669 0.00929832 9.98584 -1.45264 3 1 
150.667 1.20421 9.98691 0.00438756 0.00935734 9.98692 -1.43051 3 1 
152 1.20422 9.98698 0.00450942 0.00951436 9.98698 -1.41217 3 1 
153.333 1.20422 9.9873 0.00453053 0.00960706 9.98731 -1.41049 3 1 
154.667 1.20422 9.98844 0.00446026 0.00959049 9.98844 -1.40739 3 1 
156 1.20423 9.98853 0.00453761 0.00968539 9.98854 -1.39608 3 1 
157.333 1.20422 9.98844 0.00462949 0.00983477 9.98845 -1.40648 3 1 
158.667 1.20422 9.98879 0.00458469 0.00984871 9.9888 -1.40338 3 1 
160 1.20423 9.98885 0.00462318 0.00992093 9.98886 -1.3993 3 1 
161.333 1.2042 9.98878 0.00474158 0.0100736 9.98878 -1.44162 3 1 
162.667 1.2042 9.98806 0.00477909 0.0101693 9.98807 -1.43721 3 1 
164 1.20421 9.98802 0.00474437 0.0101918 9.98803 -1.43305 3 1 
165.333 1.20419 9.98954 0.00480211 0.0102871 9.98954 -1.46144 3 1 
166.667 1.20422 9.98886 0.00489101 0.0104278 9.98887 -1.41475 3 1 
168 1.2042 9.9888 0.00485792 0.0104291 9.98881 -1.44179 3 1 
169.333 1.20419 9.98986 0.00482523 0.010468 9.98987 -1.45437 3 1 
170.667 1.20423 9.99034 0.00494383 0.0106451 9.99035 -1.39416 3 1 
170.667 1.20423 9.99034 0.00494383 0.0106451 9.99035 -1.39416 11 1 
172 1.20421 9.99113 0.00497089 0.0107182 9.99113 -1.42081 11 1 
173.333 1.20422 9.99051 0.00491972 0.0107536 9.99052 -1.40984 11 1 
174.667 1.20423 9.99101 0.00494705 0.0108708 9.99102 -1.38905 11 1 
176 1.20422 9.99063 0.00504704 0.0109885 9.99064 -1.4054 11 1 
177.333 1.20422 9.98991 0.00500997 0.0110191 9.98992 -1.40755 11 1 
178.667 1.20422 9.9905 0.00495897 0.0110479 9.99051 -1.40177 11 1 
180 1.20422 9.99051 0.00508471 0.0112016 9.99052 -1.41404 11 1 
181.333 1.2042 9.99156 0.00513311 0.011291 9.99157 -1.44567 11 1 
182.667 1.2042 9.99194 0.00510281 0.0113591 9.99194 -1.44394 11 1 
184 1.20421 9.99083 0.00514648 0.0114539 9.99084 -1.42016 11 1 
185.333 1.20419 9.99017 0.0052445 0.0115834 9.99018 -1.46364 11 1 
186.667 1.20418 9.9887 0.00519891 0.0116223 9.98871 -1.47703 11 1 
188 1.2042 9.9887 0.00515485 0.0116515 9.98871 -1.44545 11 1 
189.333 1.20418 9.99108 0.00529061 0.0118094 9.99109 -1.47247 11 1 
190.667 1.20419 9.99079 0.00536663 0.0119081 9.9908 -1.45938 11 1 
192 1.2042 9.98979 0.0053035 0.0119729 9.98979 -1.44919 11 1 
192 1.2042 9.98979 0.0053035 0.0119729 9.98979 -1.44919 11 1 
193.333 1.20418 9.99005 0.00529937 0.0119986 9.99006 -1.47683 11 1 
194.667 1.20417 9.98841 0.00532789 0.0120794 9.98842 -1.49452 11 1 
196 1.20416 9.9874 0.00537932 0.0122302 9.9874 -1.5097 11 1 
197.333 1.20417 9.98898 0.00531325 0.0122123 9.98899 -1.50706 11 1 
198.667 1.20418 9.98857 0.00523179 0.012171 9.98858 -1.47752 11 1 
200 1.20418 9.98782 0.0054452 0.0124757 9.98783 -1.48452 11 1 
201.333 1.20415 9.98698 0.00537108 0.0125017 9.98699 -1.53234 11 1 
202.667 1.20416 9.98343 0.00511306 0.0122411 9.98344 -1.52067 11 1 
204 1.20414 9.98321 0.00529142 0.0124847 9.98322 -1.55405 11 1 
205.333 1.20413 9.98478 0.00538893 0.0126918 9.98479 -1.57408 11 1 
206.667 1.20417 9.98458 0.00533273 0.0127059 9.98459 -1.49619 11 1 
208 1.20415 9.98574 0.00532519 0.0127243 9.98575 -1.54241 11 1 
209.333 1.20413 9.98383 0.00532222 0.0128025 9.98384 -1.56649 11 1 
210.667 1.20415 9.97929 0.00542424 0.0130204 9.9793 -1.52797 11 1 
212 1.20414 9.97696 0.00531094 0.0129135 9.97697 -1.56141 11 1 
213.333 1.20413 9.97559 0.0051752 0.0128278 9.9756 -1.56271 11 1 
213.333 1.20413 9.97559 0.0051752 0.0128278 9.9756 -1.56271 11 1 
214.667 1.20415 9.97509 0.00531658 0.0130753 9.9751 -1.52868 11 1 
216 1.20415 9.97597 0.00541391 0.0132868 9.97598 -1.53207 11 1 
217.333 1.20415 9.97696 0.00529708 0.0131633 9.97697 -1.5427 11 1 
218.667 1.20418 9.97543 0.00517489 0.0130905 9.97544 -1.47626 11 1 
220 1.20418 9.97267 0.0053059 0.0133438 9.97268 -1.47854 11 1 
221.333 1.20417 9.96878 0.00541769 0.0134773 9.96879 -1.50522 11 1 
222.667 1.20418 9.96386 0.00518177 0.0132898 9.96387 -1.48039 11 1 
224 1.20417 9.9631 0.00498128 0.0131978 9.96311 -1.50179 11 1 
225.333 1.2042 9.9631 0.00511567 0.0134383 9.96311 -1.43759 11 1 
226.667 1.20425 9.96226 0.00529121 0.0136354 9.96227 -1.35901 11 1 
228 1.20424 9.96198 0.00512883 0.0135218 9.962 -1.37702 11 1 
229.333 1.20425 9.95655 0.0048789 0.0134336 9.95656 -1.35895 11 1 
230.667 1.20425 9.95125 0.00492147 0.0135652 9.95126 -1.34597 11 1 
232 1.20424 9.94907 0.00508251 0.013716 9.94908 -1.37643 11 1 
233.333 1.20428 9.94668 0.00493917 0.0136486 9.94669 -1.29471 11 1 
234.667 1.20436 9.94499 0.00481502 0.0136321 9.945 -1.16321 11 1 
234.667 1.20436 9.94499 0.00481502 0.0136321 9.945 -1.16321 11 1 
236 1.20432 9.94311 0.00498262 0.0139039 9.94312 -1.22812 11 1 
237.333 1.20434 9.93696 0.00519556 0.0141407 9.93697 -1.18491 11 1 
238.667 1.20439 9.93039 0.00496841 0.0139596 9.9304 -1.09288 11 1 
240 1.20437 9.9279 0.0045038 0.0136327 9.92791 -1.13295 11 1 
241.333 1.20445 9.92295 0.00457474 0.0137577 9.92296 -0.988621 11 1 
242.667 1.20446 9.92123 0.00493241 0.0141833 9.92125 -0.976419 11 1 
244 1.20449 9.91467 0.00484298 0.014195 9.91469 -0.912657 11 1 
245.333 1.20452 9.90663 0.00427267 0.0136905 9.90664 -0.873388 11 1 
246.667 1.20454 9.90117 0.00413864 0.0136664 9.90118 -0.837637 11 1 
248 1.20464 9.89359 0.00442452 0.0139666 9.8936 -0.649278 11 1 
249.333 1.20464 9.88969 0.00480014 0.0144413 9.8897 -0.650679 11 1 
250.667 1.2047 9.88187 0.00444445 0.0141914 9.88188 -0.550803 11 1 
252 1.20473 9.87449 0.00369124 0.0134507 9.8745 -0.486876 11 1 
253.333 1.20483 9.86199 0.0039376 0.013776 9.862 -0.307775 11 1 
254.667 1.20485 9.85376 0.00456605 0.0144979 9.85378 -0.264454 11 1 
256 1.20488 9.84572 0.00469941 0.0147221 9.84573 -0.212759 11 1 
256 1.20488 9.84572 0.00469941 0.0147221 9.84573 -0.212759 13 1 
257.333 1.20503 9.83316 0.00421004 0.0143361 9.83317 0.0482164 13 1 
258.667 1.20505 9.82365 0.00355458 0.0137645 9.82366 0.0819625 13 1 
260 1.20512 9.80939 0.00374933 0.0139948 9.8094 0.212472 13 1 
261.333 1.20527 9.79374 0.0043939 0.0147107 9.79375 0.483749 13 1 
262.667 1.20537 9.77868 0.00437389 0.0148334 9.77869 0.663781 13 1 
264 1.20537 9.76852 0.00372567 0.014271 9.76854 0.663011 13 1 
265.333 1.20554 9.75065 0.00323475 0.013788 9.75067 0.976386 13 1 
266.667 1.20577 9.72411 0.00355254 0.014165 9.72413 1.39551 13 1 
268 1.2057 9.7069 0.00426082 0.0149587 9.70691 1.27159 13 1 
269.333 1.20589 9.68427 0.0046744 0.0154337 9.68429 1.61545 13 1 
270.667 1.20628 9.65262 0.00439327 0.0152714 9.65263 2.31207 13 1 
272 1.20612 9.63907 0.00394748 0.014929 9.63909 2.03139 13 1 
273.333 1.2064 9.60634 0.00387833 0.0148798 9.60636 2.52427 13 1 
274.667 1.20693 9.5624 0.00407826 0.0151204 9.56243 3.47911 13 1 
276 1.20679 9.539 0.00415369 0.0152664 9.53903 3.22704 13 1 
277.333 1.20708 9.49175 0.00376406 0.0149099 9.49178 3.7575 13 1 
277.333 1.20708 9.49175 0.00376406 0.0149099 9.49178 3.7575 13 1 
278.667 1.20757 9.44501 0.00303218 0.0141848 9.44504 4.6363 13 1 
280 1.20768 9.40113 0.00241864 0.013619 9.40116 4.84408 13 1 
281.333 1.20797 9.34033 0.00228839 0.0135717 9.34036 5.36541 13 1 
282.667 1.20836 9.29111 0.00260302 0.0139801 9.29113 6.07156 13 1 
284 1.20889 9.24176 0.00312122 0.0145528 9.24178 7.02036 13 1 
285.333 1.20941 9.17764 0.00353404 0.0149882 9.17772 7.97028 13 1 
286.667 1.20969 9.08904 0.00368527 0.0151274 9.08922 8.47791 13 1 
288 1.21002 8.98413 0.00369261 0.015112 8.9843 9.06826 13 1 
289.333 1.21062 8.89857 0.00360857 0.0150905 8.89864 10.1592 13 1 
290.667 1.21145 8.81564 0.00348015 0.0150294 8.8157 11.6425 13 1 
292 1.21204 8.71718 0.00339965 0.0149313 8.71733 12.7234 13 1 
293.333 1.2124 8.61109 0.00334549 0.0148594 8.61132 13.358 13 1 
294.667 1.21306 8.48957 0.003265 0.0148067 8.49003 14.5602 13 1 
296 1.21389 8.36918 0.00324026 0.0147892 8.36957 16.0593 13 1 
297.333 1.21418 8.28094 0.00310676 0.0147335 8.28154 16.5775 13 1 
298.667 1.20751 8.15201 0.00224987 0.0146534 8.37466 4.52761 13 1 
298.667 1.20751 8.15201 0.00224987 0.0146534 8.37466 4.52761 14 1 
300 1.19641 8.1591 0.00036677 0.015013 8.43914 -15.5222 14 1 
301.333 1.19239 8.1867 -0.00175431 0.0153586 8.32613 -22.7697 14 1 
302.667 1.1935 8.02653 -0.00362518 0.0153966 8.13536 -20.7674 14 1 
304 1.19456 7.86283 -0.0051121 0.0153998 7.94006 -18.8657 14 1 
305.333 1.19527 7.71047 -0.00638319 0.0154022 7.77131 -17.5723 14 1 
306.667 1.19597 7.5753 -0.00744178 0.0153492 7.61008 -16.3136 14 1 
308 1.19657 7.45132 -0.00839394 0.0153456 7.48547 -15.2324 14 1 
309.333 1.19708 7.34092 -0.00930616 0.0153172 7.37164 -14.3125 14 1 
310.667 1.19769 7.24779 -0.0101767 0.0152889 7.27634 -13.2033 14 1 
312 1.19817 7.16161 -0.0109762 0.0152501 7.18234 -12.3454 14 1 
313.333 1.19855 7.08065 -0.0117559 0.0151771 7.10012 -11.6575 14 1 
314.667 1.19895 7.00373 -0.0124443 0.015149 7.02258 -10.9336 14 1 
316 1.19923 6.93186 -0.0131786 0.0150517 6.94967 -10.4182 14 1 
317.333 1.19951 6.86971 -0.0138683 0.0149407 6.88485 -9.90883 14 1 
318.667 1.19989 6.81597 -0.0144682 0.0149225 6.8305 -9.22239 14 1 
320 1.20013 6.75933 -0.0150867 0.0148846 6.77274 -8.78924 14 1 
320 1.20013 6.75933 -0.0150867 0.0148846 6.77274 -8.78924 14 1 
321.333 1.20026 6.70535 -0.0157034 0.0147942 6.71852 -8.5528 14 1 
322.667 1.20051 6.66285 -0.0162838 0.0147266 6.67472 -8.11132 14 1 
324 1.20076 6.61901 -0.0168326 0.0147008 6.63036 -7.65345 14 1 
325.333 1.20088 6.57819 -0.0173702 0.0146849 6.58902 -7.44636 14 1 
326.667 1.20103 6.54981 -0.0178896 0.0146421 6.5602 -7.17033 14 1 
328 1.20125 6.51997 -0.0184029 0.0145945 6.52959 -6.77161 14 1 
329.333 1.20139 6.48844 -0.0189038 0.0145615 6.4979 -6.52631 14 1 
330.667 1.20145 6.46061 -0.0194024 0.0145321 6.46959 -6.40452 14 1 
332 1.20156 6.43764 -0.0199131 0.0144653 6.44642 -6.2143 14 1 
333.333 1.20176 6.42489 -0.0203969 0.0143922 6.43324 -5.84447 14 1 
334.667 1.20194 6.4078 -0.0208563 0.014352 6.41591 -5.53589 14 1 
336 1.20193 6.38009 -0.0213527 0.0142847 6.38798 -5.5376 14 1 
337.333 1.20196 6.36053 -0.021863 0.0141324 6.36834 -5.48888 14 1 
338.667 1.20214 6.35019 -0.0223145 0.0140148 6.35775 -5.17378 14 1 
340 1.2023 6.3405 -0.0227183 0.0139626 6.34787 -4.88009 14 1 
341.333 1.20233 6.32376 -0.0231931 0.0138465 6.33087 -4.8214 14 1 
341.333 1.20233 6.32376 -0.0231931 0.0138465 6.33087 -4.8214 15 1 
342.667 1.20231 6.2985 -0.0237119 0.0136497 6.3056 -4.85402 15 1 
344 1.20241 6.28406 -0.0241611 0.0135093 6.29105 -4.67671 15 1 
345.333 1.20256 6.27973 -0.0245268 0.0134118 6.28656 -4.41248 15 1 
346.667 1.2026 6.26666 -0.0249447 0.0132889 6.27326 -4.32948 15 1 
348 1.20262 6.24687 -0.0253846 0.01312 6.25342 -4.29838 15 1 
349.333 1.20265 6.22764 -0.0257919 0.0129987 6.23411 -4.24672 15 1 
350.667 1.20271 6.21768 -0.026114 0.0129275 6.22403 -4.14059 15 1 
352 1.20282 6.21413 -0.0264391 0.0128105 6.22024 -3.94603 15 1 
353.333 1.20285 6.1985 -0.0268376 0.0126265 6.20453 -3.88309 15 1 
354.667 1.20285 6.17953 -0.0272467 0.0124778 6.18547 -3.88816 15 1 
356 1.2029 6.1708 -0.0275376 0.0123837 6.17662 -3.78979 15 1 
357.333 1.20295 6.16307 -0.0278147 0.0122913 6.16872 -3.70703 15 1 
358.667 1.20299 6.15405 -0.02815 0.0121555 6.15961 -3.62361 15 1 
360 1.20303 6.14381 -0.0284991 0.0120027 6.14923 -3.5558 15 1 
361.333 1.20304 6.13173 -0.0287681 0.0118927 6.13706 -3.54418 15 1 
362.667 1.20308 6.12442 -0.0290119 0.0118336 6.1296 -3.46956 15 1 
362.667 1.20308 6.12442 -0.0290119 0.0118336 6.1296 -3.46956 15 1 
364 1.20313 6.11961 -0.0293069 0.0117442 6.12471 -3.37073 15 1 
365.333 1.20317 6.11307 -0.0296525 0.0115887 6.11806 -3.30906 15 1 
366.667 1.20319 6.10556 -0.0299489 0.0114439 6.11043 -3.26459 15 1 
368 1.20321 6.09777 -0.0302006 0.0113728 6.10251 -3.22792 15 1 
369.333 1.20325 6.09299 -0.0304586 0.0113157 6.09767 -3.16501 15 1 
370.667 1.20328 6.08945 -0.0307739 0.0112014 6.09407 -3.1142 15 1 
372 1.20331 6.08485 -0.0311051 0.0110467 6.08935 -3.05478 15 1 
373.333 1.20336 6.08084 -0.0313768 0.0109354 6.08522 -2.96866 15 1 
374.667 1.20338 6.07572 -0.0316183 0.0108807 6.08007 -2.93105 15 1 
376 1.2034 6.07179 -0.0319025 0.0108099 6.07608 -2.88528 15 1 
377.333 1.20344 6.07056 -0.032213 0.0106917 6.07476 -2.8141 15 1 
378.667 1.20347 6.06708 -0.0325282 0.0105546 6.0712 -2.76433 15 1 
380 1.20351 6.06305 -0.0328203 0.0104476 6.06711 -2.69888 15 1 
381.333 1.20353 6.06035 -0.0331152 0.0103656 6.06436 -2.65017 15 1 
382.667 1.20355 6.05713 -0.0334539 0.0102376 6.06111 -2.62092 15 1 
384 1.20358 6.05526 -0.0337781 0.0100966 6.05917 -2.55746 15 1 
384 1.20358 6.05526 -0.0337781 0.0100966 6.05917 -2.55746 15 1 
385.333 1.20362 6.05355 -0.0340734 0.0100026 6.05741 -2.48912 15 1 
386.667 1.20365 6.05019 -0.0343947 0.00990769 6.05401 -2.43964 15 1 
388 1.20368 6.04743 -0.0346991 0.009785 6.05122 -2.3803 15 1 
389.333 1.20371 6.04538 -0.0349989 0.00965677 6.04913 -2.33067 15 1 
390.667 1.20372 6.0431 -0.0353415 0.00951818 6.04681 -2.30682 15 1 
392 1.20375 6.04051 -0.0356381 0.00940309 6.04419 -2.26247 15 1 
393.333 1.20378 6.03777 -0.0358756 0.0092925 6.04144 -2.20649 15 1 
394.667 1.2038 6.03524 -0.0361673 0.00913537 6.03885 -2.15938 15 1 
396 1.20383 6.03286 -0.0364838 0.00894871 6.03644 -2.11717 15 1 
397.333 1.20385 6.03065 -0.0367559 0.00879766 6.03422 -2.07844 15 1 
398.667 1.20387 6.02798 -0.0369941 0.00865739 6.03152 -2.03826 15 1 
400 1.20389 6.02483 -0.0372242 0.00849444 6.02832 -2.00239 15 1 
401.333 1.20392 6.02253 -0.0374369 0.00834459 6.02599 -1.9499 15 1 
402.667 1.20395 6.02064 -0.0376576 0.00820983 6.02409 -1.90457 15 1 
404 1.20395 6.01784 -0.0378894 0.00801722 6.02125 -1.89028 15 1 
405.333 1.20397 6.01486 -0.0380965 0.00783616 6.01823 -1.86689 15 1 
405.333 1.20397 6.01486 -0.0380965 0.00783616 6.01823 -1.86689 15 1 
406.667 1.20399 6.01269 -0.0382681 0.00772242 6.01602 -1.81522 15 1 
408 1.20403 6.01096 -0.0384739 0.00757078 6.01427 -1.75517 15 1 
409.333 1.20404 6.00889 -0.038712 0.00733718 6.01217 -1.72531 15 1 
410.667 1.20405 6.00622 -0.0389281 0.00714924 6.00946 -1.71381 15 1 
412 1.20407 6.00406 -0.0390941 0.00704742 6.00726 -1.6744 15 1 
413.333 1.20411 6.00284 -0.0392588 0.00692281 6.00601 -1.61452 15 1 
414.667 1.20413 6.00095 -0.0394636 0.00671511 6.00409 -1.57758 15 1 
416 1.20413 5.99827 -0.0396804 0.00654555 6.00138 -1.56345 15 1 
417.333 1.20415 5.99654 -0.0398543 0.00643873 5.99962 -1.54232 15 1 
418.667 1.20416 5.99526 -0.0400372 0.00629122 5.99831 -1.51093 15 1 
420 1.20419 5.99337 -0.0402605 0.00610688 5.99637 -1.47182 15 1 
421.333 1.20421 5.99154 -0.0404896 0.00596269 5.99452 -1.42612 15 1 
422.667 1.20423 5.99012 -0.0406823 0.00582935 5.99308 -1.39362 15 1 
424 1.20424 5.98858 -0.0408628 0.00567856 5.99149 -1.38084 15 1 
425.333 1.20425 5.98685 -0.041052 0.00554352 5.98973 -1.35962 15 1 
426.667 1.20427 5.98526 -0.0412375 0.00543521 5.98811 -1.32186 15 1 
426.667 1.20427 5.98526 -0.0412375 0.00543521 5.98811 -1.32186 20 1 
428 1.20429 5.98392 -0.0414176 0.00530588 5.98674 -1.27924 20 1 
429.333 1.20431 5.98263 -0.0416106 0.00516246 5.98541 -1.25101 20 1 
430.667 1.20431 5.98128 -0.0417807 0.00502627 5.98404 -1.24063 20 1 
432 1.20432 5.98014 -0.0419438 0.00487735 5.98287 -1.22899 20 1 
433.333 1.20434 5.97958 -0.0421171 0.00473004 5.98228 -1.19697 20 1 
434.667 1.20437 5.97953 -0.0422845 0.00462968 5.98221 -1.1447 20 1 
436 1.20439 5.97949 -0.0424549 0.00452075 5.98215 -1.10846 20 1 
437.333 1.20439 5.97937 -0.0426392 0.00436485 5.98201 -1.09285 20 1 
438.667 1.2044 5.9798 -0.0428119 0.00420404 5.98242 -1.07653 20 1 
440 1.20442 5.98074 -0.0430029 0.00406827 5.98335 -1.04683 20 1 
441.333 1.20444 5.98186 -0.043215 0.00393192 5.98445 -1.01256 20 1 
442.667 1.20445 5.98341 -0.0434019 0.00380287 5.98597 -0.988345 20 1 
444 1.20446 5.98502 -0.0435412 0.00371616 5.98755 -0.972411 20 1 
445.333 1.20447 5.98645 -0.0436674 0.00365299 5.98897 -0.96186 20 1 
446.667 1.20449 5.98844 -0.0438022 0.00354413 5.99093 -0.928434 20 1 
448 1.20452 5.9909 -0.0439511 0.00338137 5.99336 -0.869806 20 1 
448 1.20452 5.9909 -0.0439511 0.00338137 5.99336 -0.869806 20 1 
449.333 1.20454 5.99285 -0.0441218 0.00321439 5.9953 -0.828271 20 1 
450.667 1.20454 5.99426 -0.044301 0.00307089 5.9967 -0.824534 20 1 
452 1.20454 5.9957 -0.0444354 0.00295277 5.9981 -0.833394 20 1 
453.333 1.20454 5.99745 -0.0445511 0.00284399 5.99983 -0.823895 20 1 
454.667 1.20457 5.99958 -0.0446877 0.00271942 6.00195 -0.783043 20 1 
456 1.2046 6.00213 -0.0448219 0.00259631 6.00448 -0.731158 20 1 
457.333 1.20461 6.00444 -0.0449406 0.00246193 6.00677 -0.703376 20 1 
458.667 1.20461 6.00617 -0.0450803 0.00229518 6.00847 -0.696329 20 1 
460 1.20462 6.00817 -0.0452214 0.00214973 6.01046 -0.687997 20 1 
461.333 1.20463 6.01063 -0.0453465 0.00202409 6.0129 -0.661842 20 1 
462.667 1.20465 6.01317 -0.045469 0.00185994 6.01542 -0.63293 20 1 
464 1.20466 6.01556 -0.0455883 0.00169326 6.01779 -0.609649 20 1 
465.333 1.20467 6.01788 -0.0456922 0.00156937 6.02009 -0.59116 20 1 
466.667 1.20468 6.02025 -0.0457915 0.00143662 6.02244 -0.579623 20 1 
468 1.20469 6.02297 -0.0459144 0.00126321 6.02515 -0.556826 20 1 
469.333 1.20471 6.02611 -0.0460541 0.00108747 6.02827 -0.525055 20 1 
469.333 1.20471 6.02611 -0.0460541 0.00108747 6.02827 -0.525055 20 1 
470.667 1.20472 6.02883 -0.0461862 0.000946168 6.03098 -0.498223 20 1 
472 1.20473 6.03154 -0.0463188 0.000819638 6.03368 -0.479181 20 1 
473.333 1.20474 6.03497 -0.0464537 0.00067953 6.0371 -0.466496 20 1 
474.667 1.20475 6.03852 -0.0465673 0.000534708 6.04063 -0.457584 20 1 
476 1.20476 6.04206 -0.0466457 0.000386979 6.04416 -0.436507 20 1 
477.333 1.20478 6.04585 -0.0467265 0.000233553 6.04794 -0.398985 20 1 
478.667 1.2048 6.04965 -0.0468401 7.94334e-05 6.05172 -0.363924 20 1 
480 1.20481 6.05321 -0.0469742 -8.48966e-05 6.05527 -0.346983 20 1 
481.333 1.20481 6.05702 -0.047114 -0.000234074 6.05906 -0.341526 20 1 
482.667 1.20482 6.06128 -0.0472486 -0.000348561 6.06331 -0.333462 20 1 
484 1.20483 6.0659 -0.0473526 -0.000466524 6.06792 -0.315203 20 1 
485.333 1.20484 6.071 -0.0474216 -0.000602463 6.07301 -0.28039 20 1 
486.667 1.20486 6.0762 -0.047482 -0.000742204 6.07819 -0.244502 20 1 
488 1.20488 6.08108 -0.0475494 -0.000910362 6.08306 -0.219657 20 1 
489.333 1.20489 6.08555 -0.0476198 -0.0011077 6.08751 -0.206383 20 1 
490.667 1.20489 6.08986 -0.0476906 -0.00127048 6.0918 -0.195046 20 1 
490.667 1.20489 6.08986 -0.0476906 -0.00127048 6.0918 -0.195046 20 1 
492 1.2049 6.09409 -0.0477769 -0.00138656 6.09603 -0.182714 20 1 
493.333 1.20491 6.09865 -0.0479005 -0.00150862 6.10058 -0.171324 20 1 
494.667 1.20492 6.10405 -0.0480568 -0.0016539 6.10598 -0.144792 20 1 
496 1.20494 6.10982 -0.0482197 -0.00180486 6.11174 -0.110841 20 1 
497.333 1.20495 6.11537 -0.0483379 -0.00196041 6.11728 -0.0857099 20 1 
498.667 1.20496 6.12076 -0.0483741 -0.00212406 6.12266 -0.0676423 20 1 
500 1.20498 6.12604 -0.0483576 -0.00229328 6.12792 -0.0452087 20 1 
501.333 1.20498 6.13042 -0.0483485 -0.00246615 6.13229 -0.028611 20 1 
502.667 1.20498 6.13393 -0.0483947 -0.00263877 6.13579 -0.0328024 20 1 
504 1.20498 6.13732 -0.0485256 -0.00279527 6.13917 -0.0300643 20 1 
505.333 1.205 6.14111 -0.0487131 -0.00292514 6.14296 -0.00635893 20 1 
506.667 1.20501 6.14584 -0.0488854 -0.00302904 6.1477 0.0251255 20 1 
508 1.20503 6.15129 -0.048998 -0.00311625 6.15315 0.0628278 20 1 
509.333 1.20505 6.15664 -0.049052 -0.0032362 6.15848 0.0936794 20 1 
510.667 1.20505 6.16117 -0.0490429 -0.00342593 6.163 0.0953527 20 1 
512 1.20504 6.16478 -0.0489864 -0.00362593 6.16659 0.0780844 20 1 
512 1.20504 6.16478 -0.0489864 -0.00362593 6.16659 0.0780844 21 1 
513.333 1.20504 6.16752 -0.0489476 -0.00379977 6.16932 0.0714024 21 1 
514.667 1.20505 6.16978 -0.0489494 -0.00396174 6.17157 0.0954263 21 1 
516 1.20507 6.17201 -0.0489678 -0.00407757 6.17379 0.133084 21 1 
517.333 1.20509 6.17441 -0.0489821 -0.00412665 6.17617 0.162381 21 1 
518.667 1.2051 6.17682 -0.0489022 -0.00415919 6.17856 0.180927 21 1 
520 1.2051 6.17909 -0.0486344 -0.00420112 6.1808 0.18026 21 1 
521.333 1.2051 6.18102 -0.0482244 -0.00424914 6.18268 0.17463 21 1 
522.667 1.2051 6.18185 -0.0478187 -0.00433512 6.18346 0.179104 21 1 
524 1.20511 6.18132 -0.0475241 -0.00446515 6.18291 0.201216 21 1 
525.333 1.20513 6.18009 -0.0473336 -0.0045631 6.18166 0.231909 21 1 
526.667 1.20514 6.17884 -0.0471579 -0.00455587 6.18038 0.24891 21 1 
528 1.20514 6.17785 -0.0468088 -0.00441701 6.17934 0.257491 21 1 
529.333 1.20515 6.17672 -0.0459741 -0.00415862 6.17812 0.266457 21 1 
530.667 1.20515 6.17349 -0.044404 -0.00384376 6.17476 0.272543 21 1 
532 1.20516 6.16515 -0.0420445 -0.0035873 6.16626 0.284955 21 1 
533.333 1.20517 6.14775 -0.0390662 -0.00345304 6.14867 0.31324 21 1 
533.333 1.20517 6.14775 -0.0390662 -0.00345304 6.14867 0.31324 21 1 
534.667 1.20519 6.11777 -0.0359217 -0.00340914 6.11853 0.344836 21 1 
536 1.2052 6.07548 -0.0332904 -0.00334989 6.07611 0.366802 21 1 
537.333 1.20521 6.02543 -0.0316772 -0.00301623 6.02599 0.37844 21 1 
538.667 1.20521 5.97507 -0.031145 -0.0021291 5.97559 0.380635 21 1 
540 1.20521 5.93341 -0.0313813 -0.000601591 5.9339 0.372901 21 1 
541.333 1.20521 5.9082 -0.0319076 0.00142635 5.90866 0.370528 21 1 
542.667 1.20521 5.90299 -0.0322448 0.00367984 5.90342 0.386593 21 1 
544 1.20523 5.91634 -0.031981 0.00587006 5.91673 0.418973 21 1 
545.333 1.20525 5.94334 -0.0307763 0.0077794 5.94367 0.458982 21 1 
546.667 1.20528 5.97647 -0.0284162 0.00917525 5.97671 0.497071 21 1 
548 1.20529 6.00502 -0.0249954 0.00971701 6.00518 0.523617 21 1 
549.333 1.2053 6.01682 -0.0210535 0.00917957 6.0169 0.534074 21 1 
550.667 1.20529 6.00268 -0.0173479 0.00778049 6.00273 0.526693 21 1 
552 1.20528 5.96061 -0.0144715 0.00615673 5.96066 0.508111 21 1 
553.333 1.20528 5.89624 -0.0126508 0.00495138 5.89631 0.498371 21 1 
554.667 1.20527 5.81929 -0.0118176 0.00450827 5.81938 0.491825 21 1 
554.667 1.20527 5.81929 -0.0118176 0.00450827 5.81938 0.491825 22 1 
556 1.20526 5.73975 -0.011738 0.00486 5.73983 0.468696 22 1 
557.333 1.20524 5.66588 -0.0121503 0.00581632 5.66595 0.434979 22 1 
558.667 1.20522 5.60279 -0.0128151 0.00713234 5.60285 0.396798 22 1 
560 1.20519 5.55327 -0.0135573 0.00861559 5.55331 0.342145 22 1 
561.333 1.20516 5.51853 -0.0142869 0.0101239 5.51857 0.295207 22 1 
562.667 1.20515 5.49821 -0.0149688 0.0115634 5.49825 0.277579 22 1 
564 1.20515 5.49107 -0.0155724 0.0128809 5.49111 0.279071 22 1 
565.333 1.20516 5.49571 -0.0160953 0.0140649 5.49575 0.293318 22 1 
566.667 1.20517 5.51063 -0.0165376 0.015124 5.51068 0.315356 22 1 
568 1.20519 5.53435 -0.0169105 0.0160453 5.53441 0.34347 22 1 
569.333 1.20521 5.56558 -0.0172216 0.0168344 5.56565 0.371309 22 1 
570.667 1.20522 5.60335 -0.0174766 0.0175199 5.60342 0.394574 22 1 
572 1.20524 5.64671 -0.0176695 0.0181172 5.64679 0.42964 22 1 
573.333 1.20527 5.69501 -0.0178016 0.0186379 5.6951 0.48716 22 1 
574.667 1.20531 5.7478 -0.0178865 0.0191039 5.74789 0.559709 22 1 
576 1.20535 5.80409 -0.0179367 0.019515 5.80419 0.628549 22 1 
576 1.20535 5.80409 -0.0179367 0.019515 5.80419 0.628549 22 1 
577.333 1.20538 5.86296 -0.0179567 0.0198723 5.86306 0.680671 22 1 
578.667 1.2054 5.92424 -0.0179507 0.0201823 5.92435 0.725292 22 1 
580 1.20542 5.98786 -0.0179329 0.0204382 5.98796 0.765131 22 1 
581.333 1.20545 6.05346 -0.0178979 0.0206483 6.05357 0.812506 22 1 
582.667 1.20548 6.12095 -0.0178399 0.020847 6.12106 0.874771 22 1 
584 1.20552 6.19021 -0.0177563 0.0210453 6.19032 0.945517 22 1 
585.333 1.20557 6.26079 -0.0176534 0.0212317 6.2609 1.02476 22 1 
586.667 1.2056 6.33238 -0.0175611 0.0213958 6.33249 1.08769 22 1 
588 1.20562 6.40475 -0.0174742 0.0215352 6.40486 1.11304 22 1 
589.333 1.20562 6.47759 -0.0173811 0.0216421 6.47771 1.12829 22 1 
590.667 1.20564 6.5513 -0.0172724 0.0217295 6.55142 1.15329 22 1 
592 1.20566 6.62623 -0.017155 0.0218182 6.62634 1.18746 22 1 
593.333 1.20569 6.702 -0.0170261 0.0218974 6.70211 1.23885 22 1 
594.667 1.20572 6.77814 -0.0168986 0.0219594 6.77825 1.30247 22 1 
596 1.20574 6.85461 -0.0167878 0.0220149 6.85472 1.34214 22 1 
597.333 1.20575 6.93116 -0.0166895 0.0220388 6.93127 1.34979 22 1 
597.333 1.20575 6.93116 -0.0166895 0.0220388 6.93127 1.34979 24 1 
598.667 1.20575 7.00735 -0.0165855 0.0220269 7.00745 1.35894 24 1 
600 1.20576 7.08363 -0.0164653 0.022017 7.08373 1.37309 24 1 
601.333 1.20576 7.16042 -0.0163368 0.0220147 7.16053 1.37927 24 1 
602.667 1.20577 7.23719 -0.0162034 0.0220001 7.23729 1.39708 24 1 
604 1.20579 7.31328 -0.0160871 0.0219687 7.31338 1.42748 24 1 
605.333 1.20579 7.38902 -0.0159897 0.0219207 7.38912 1.4204 24 1 
606.667 1.20577 7.46446 -0.015899 0.0218455 7.46455 1.38908 24 1 
608 1.20577 7.53933 -0.0158144 0.0217556 7.53942 1.39056 24 1 
609.333 1.20578 7.61412 -0.015727 0.021668 7.61421 1.40975 24 1 
610.667 1.20578 7.68894 -0.0156392 0.0215763 7.68903 1.4146 24 1 
612 1.20579 7.7629 -0.0155537 0.0214846 7.76298 1.42886 24 1 
613.333 1.2058 7.83578 -0.0154707 0.0214011 7.83586 1.44216 24 1 
614.667 1.20578 7.90823 -0.0154018 0.0213065 7.90831 1.40771 24 1 
616 1.20575 7.97997 -0.0153521 0.021183 7.98006 1.35551 24 1 
617.333 1.20574 8.05089 -0.0152901 0.021063 8.05097 1.33082 24 1 
618.667 1.20573 8.12152 -0.0152062 0.0209642 8.1216 1.31245 24 1 
618.667 1.20573 8.12152 -0.0152062 0.0209642 8.1216 1.31245 24 1 
620 1.20572 8.19198 -0.0151199 0.0208589 8.19206 1.30662 24 1 
621.333 1.20574 8.26181 -0.0150596 0.0207268 8.26188 1.33429 24 1 
622.667 1.20574 8.33111 -0.0150257 0.0205782 8.33119 1.34196 24 1 
624 1.20573 8.39943 -0.014973 0.0204482 8.3995 1.31429 24 1 
625.333 1.20571 8.46572 -0.0148877 0.0203236 8.46579 1.29087 24 1 
626.667 1.20569 8.53107 -0.014791 0.0201821 8.53114 1.25496 24 1 
628 1.20567 8.59583 -0.0146965 0.0200301 8.5959 1.20688 24 1 
629.333 1.20566 8.65937 -0.0145922 0.0198733 8.65944 1.19711 24 1 
630.667 1.20566 8.72182 -0.0144866 0.01972 8.72188 1.19538 24 1 
632 1.20564 8.78342 -0.0143805 0.0195819 8.78348 1.16288 24 1 
633.333 1.20564 8.84355 -0.014271 0.0194469 8.84361 1.14847 24 1 
634.667 1.20564 8.9018 -0.014168 0.0192908 8.90186 1.15018 24 1 
636 1.20562 8.95925 -0.0140682 0.0191046 8.95931 1.12467 24 1 
637.333 1.20561 9.01524 -0.0139595 0.0188995 9.01529 1.11028 24 1 
638.667 1.20562 9.06924 -0.0138245 0.0186979 9.06929 1.11193 24 1 
640 1.20559 9.12167 -0.0136775 0.0185152 9.12172 1.07391 24 1 
640 1.20559 9.12167 -0.0136775 0.0185152 9.12172 1.07391 24 1 
641.333 1.20557 9.17214 -0.0135334 0.0183442 9.17218 1.02667 24 1 
642.667 1.20556 9.22083 -0.0133881 0.0181644 9.22088 1.00254 24 1 
644 1.20554 9.26786 -0.0132322 0.0179592 9.2679 0.96771 24 1 
645.333 1.20552 9.3133 -0.013066 0.0177461 9.31334 0.946804 24 1 
646.667 1.20553 9.35688 -0.0129011 0.0175565 9.35692 0.95061 24 1 
648 1.20552 9.39872 -0.0127281 0.0173676 9.39876 0.934036 24 1 
649.333 1.20551 9.43875 -0.0125528 0.0171598 9.43878 0.918022 24 1 
650.667 1.20551 9.4763 -0.0123973 0.0169504 9.47634 0.921896 24 1 
652 1.2055 9.51225 -0.0122537 0.0167689 9.51229 0.901927 24 1 
653.333 1.20548 9.54664 -0.0120908 0.0166345 9.54667 0.86047 24 1 
654.667 1.20547 9.57916 -0.0119013 0.016513 9.57919 0.845384 24 1 
656 1.20546 9.61051 -0.0117274 0.0163768 9.61054 0.833202 24 1 
657.333 1.20544 9.64055 -0.0115889 0.0162478 9.64058 0.798559 24 1 
658.667 1.20543 9.66926 -0.0114748 0.0161111 9.66929 0.778404 24 1 
660 1.20542 9.6971 -0.0113608 0.0159496 9.69713 0.764976 24 1 
661.333 1.20541 9.7243 -0.011225 0.0158123 9.72433 0.73685 24 1 
661.333 1.20541 9.7243 -0.011225 0.0158123 9.72433 0.73685 24 1 
662.667 1.2054 9.7505 -0.0110698 0.0157302 9.75053 0.724286 24 1 
664 1.2054 9.77549 -0.0109043 0.0156425 9.77552 0.717159 24 1 
665.333 1.20538 9.79972 -0.010756 0.0155065 9.79974 0.691723 24 1 
666.667 1.20537 9.82264 -0.0105992 0.0153571 9.82266 0.669902 24 1 
668 1.20536 9.84439 -0.0104234 0.0151842 9.84441 0.653587 24 1 
669.333 1.20536 9.86494 -0.0102469 0.0149731 9.86495 0.64158 24 1 
670.667 1.20536 9.88329 -0.010069 0.0147656 9.8833 0.650377 24 1 
672 1.20535 9.89946 -0.00986734 0.0145693 9.89948 0.64118 24 1 
673.333 1.20534 9.91319 -0.00967706 0.0143242 9.91321 0.608 24 1 
674.667 1.20534 9.92481 -0.00953437 0.0140357 9.92482 0.60643 24 1 
676 1.20534 9.93462 -0.00938875 0.0137961 9.93463 0.60879 24 1 
677.333 1.20533 9.94219 -0.0092239 0.0135916 9.94221 0.59017 24 1 
678.667 1.20532 9.94768 -0.00907086 0.0134078 9.94769 0.577135 24 1 
680 1.20531 9.9515 -0.00895722 0.0132485 9.95151 0.564841 24 1 
681.333 1.20531 9.95427 -0.00884131 0.0131163 9.95428 0.551872 24 1 
682.667 1.2053 9.95634 -0.00871512 0.0130273 9.95635 0.547735 24 1 
682.667 1.2053 9.95634 -0.00871512 0.0130273 9.95635 0.547735 31 1 
684 1.2053 9.95812 -0.00860031 0.0129688 9.95813 0.539974 31 1 
685.333 1.20529 9.95961 -0.00849967 0.0129173 9.95962 0.520959 31 1 
686.667 1.20528 9.96085 -0.00842818 0.0128613 9.96087 0.510986 31 1 
688 1.20528 9.96261 -0.00837299 0.0128208 9.96262 0.512946 31 1 
689.333 1.20528 9.96477 -0.00828997 0.0128082 9.96478 0.502831 31 1 
690.667 1.20527 9.96697 -0.00819198 0.012793 9.96698 0.485263 31 1 
692 1.20527 9.96941 -0.00812492 0.0127512 9.96943 0.489025 31 1 
693.333 1.20527 9.97196 -0.00808843 0.0127119 9.97197 0.491603 31 1 
694.667 1.20526 9.97446 -0.00804083 0.0126728 9.97447 0.467434 31 1 
696 1.20525 9.97647 -0.00798107 0.012617 9.97648 0.452998 31 1 
697.333 1.20525 9.97853 -0.00791784 0.01257 9.97854 0.454885 31 1 
698.667 1.20525 9.98102 -0.00785928 0.0125313 9.98103 0.446731 31 1 
700 1.20524 9.9833 -0.00780859 0.0124844 9.98331 0.435072 31 1 
701.333 1.20524 9.9854 -0.00776247 0.0124079 9.98541 0.427884 31 1 
702.667 1.20524 9.98649 -0.00772049 0.012319 9.9865 0.426236 31 1 
704 1.20523 9.98741 -0.00763837 0.0122607 9.98742 0.40877 31 1 
704 1.20523 9.98741 -0.00763837 0.0122607 9.98742 0.40877 31 1 
705.333 1.2052 9.98897 -0.00754936 0.0121958 9.98898 0.36931 31 1 
706.667 1.2052 9.99035 -0.00746582 0.0121216 9.99036 0.36807 31 1 
708 1.20522 9.99168 -0.00739536 0.0120421 9.99169 0.392092 31 1 
709.333 1.20521 9.99223 -0.00734407 0.0119597 9.99224 0.383104 31 1 
710.667 1.2052 9.99249 -0.00727883 0.011897 9.9925 0.358568 31 1 
712 1.20519 9.99329 -0.00719423 0.0118627 9.9933 0.338578 31 1 
713.333 1.20519 9.99406 -0.0071088 0.0118243 9.99407 0.335382 31 1 
714.667 1.20519 9.99461 -0.00705204 0.0117658 9.99462 0.341177 31 1 
716 1.20519 9.9949 -0.00702949 0.0117029 9.9949 0.339907 31 1 
717.333 1.20518 9.99511 -0.00700908 0.0116367 9.99512 0.332159 31 1 
718.667 1.20517 9.99565 -0.0069863 0.0115783 9.99566 0.309895 31 1 
720 1.20516 9.99591 -0.00695209 0.0115317 9.99592 0.294489 31 1 
721.333 1.20516 9.99585 -0.00690454 0.0115144 9.99586 0.293314 31 1 
722.667 1.20516 9.99634 -0.0068556 0.0115089 9.99634 0.283007 31 1 
724 1.20515 9.99694 -0.00683876 0.0114534 9.99695 0.277952 31 1 
725.333 1.20516 9.99717 -0.00684268 0.0113833 9.99718 0.280096 31 1 
725.333 1.20516 9.99717 -0.00684268 0.0113833 9.99718 0.280096 31 1 
726.667 1.20514 9.99741 -0.00679861 0.0113705 9.99742 0.260493 31 1 
728 1.20513 9.99765 -0.00673252 0.0113641 9.99766 0.227654 31 1 
729.333 1.20512 9.99811 -0.00668683 0.0113232 9.99812 0.214369 31 1 
730.667 1.20512 9.99915 -0.00666691 0.0112779 9.99916 0.225209 31 1 
732 1.20513 9.99981 -0.00664462 0.0112299 9.99982 0.226386 31 1 
733.333 1.20511 10.0003 -0.00660197 0.0111693 10.0003 0.201728 31 1 
734.667 1.2051 10.001 -0.00656572 0.0111263 10.0011 0.172336 31 1 
736 1.20509 10.0021 -0.00655391 0.0110767 10.0021 0.169031 31 1 
737.333 1.20511 10.0034 -0.00655021 0.0109832 10.0034 0.19283 31 1 
738.667 1.20511 10.004 -0.00652337 0.0109188 10.004 0.191639 31 1 
740 1.20509 10.0046 -0.00647732 0.0109076 10.0046 0.162372 31 1 
741.333 1.20508 10.0056 -0.00643766 0.0108663 10.0056 0.141711 31 1 
742.667 1.20508 10.0063 -0.0064055 0.0107907 10.0063 0.146141 31 1 
744 1.20509 10.0071 -0.0063732 0.0107628 10.0071 0.159961 31 1 
745.333 1.20508 10.008 -0.00636584 0.010728 10.008 0.144558 31 1 
746.667 1.20507 10.0085 -0.00635235 0.0106595 10.0085 0.128883 31 1 
746.667 1.20507 10.0085 -0.00635235 0.0106595 10.0085 0.128883 31 1 
748 1.20507 10.0089 -0.00632396 0.0106109 10.0089 0.126774 31 1 
749.333 1.20506 10.0095 -0.00629921 0.0105848 10.0095 0.109068 31 1 
750.667 1.20506 10.0103 -0.00628508 0.010533 10.0103 0.116828 31 1 
752 1.20508 10.0112 -0.00629156 0.0104689 10.0112 0.142992 31 1 
753.333 1.20507 10.0116 -0.00629173 0.010424 10.0116 0.124416 31 1 
754.667 1.20505 10.0117 -0.00628194 0.0103617 10.0117 0.0830015 31 1 
756 1.20504 10.0119 -0.00621911 0.0103236 10.0119 0.064616 31 1 
757.333 1.20504 10.0121 -0.00615262 0.0103116 10.0121 0.0699609 31 1 
758.667 1.20504 10.0125 -0.00611143 0.0102853 10.0125 0.0637019 31 1 
760 1.20504 10.0131 -0.00606101 0.010237 10.0131 0.0647663 31 1 
761.333 1.20505 10.0134 -0.00599198 0.0101859 10.0134 0.0920899 31 1 
762.667 1.20504 10.0132 -0.0059576 0.0101398 10.0132 0.0730088 31 1 
764 1.20501 10.0127 -0.00592119 0.0101031 10.0127 0.0191244 31 1 
765.333 1.205 10.0119 -0.00584533 0.0100572 10.012 0.00466298 31 1 
766.667 1.20501 10.0118 -0.00578977 0.0100017 10.0118 0.0147259 31 1 
768 1.20501 10.0116 -0.00575616 0.00998792 10.0116 0.0102699 31 1 
768 1.20501 10.0116 -0.00575616 0.00998792 10.0116 0.0102699 32 1 
769.333 1.205 10.0111 -0.00570431 0.0099789 10.0111 -0.00337893 32 1 
770.667 1.205 10.0107 -0.0056582 0.00991256 10.0107 -0.000163487 32 1 
772 1.205 10.0104 -0.00565733 0.00985111 10.0104 0.00268209 32 1 
773.333 1.20499 10.0099 -0.00565589 0.00981645 10.0099 -0.0123849 32 1 
774.667 1.20498 10.0092 -0.00562797 0.00975897 10.0092 -0.0298029 32 1 
776 1.20498 10.0085 -0.00559495 0.00972143 10.0085 -0.0431634 32 1 
777.333 1.20497 10.008 -0.0055511 0.00971656 10.008 -0.0493597 32 1 
778.667 1.20497 10.0076 -0.00553581 0.00965613 10.0076 -0.0530318 32 1 
780 1.20497 10.0074 -0.00555174 0.00957017 10.0074 -0.0587103 32 1 
781.333 1.20497 10.0073 -0.00555608 0.00952932 10.0073 -0.0558454 32 1 
782.667 1.20497 10.0074 -0.0055058 0.00950963 10.0074 -0.0542432 32 1 
784 1.20496 10.007 -0.00545032 0.00949448 10.007 -0.0684099 32 1 
785.333 1.20495 10.0066 -0.0054399 0.00946438 10.0066 -0.094314 32 1 
786.667 1.20494 10.0064 -0.0054421 0.00939444 10.0064 -0.10949 32 1 
788 1.20495 10.0067 -0.00543632 0.00931211 10.0067 -0.0971987 32 1 
789.333 1.20494 10.007 -0.00543891 0.0092666 10.007 -0.111419 32 1 
790.667 1.20493 10.0068 -0.00539278 0.00927038 10.0068 -0.131189 32 1 
792 1.20493 10.0067 -0.00530524 0.00929435 10.0067 -0.129553 32 1 
793.333 1.20494 10.0073 -0.00528242 0.00925557 10.0073 -0.117093 32 1 
794.667 1.20494 10.0077 -0.00530865 0.00916448 10.0077 -0.108528 32 1 
796 1.20492 10.0073 -0.00532902 0.00912189 10.0073 -0.150307 32 1 
797.333 1.2049 10.0071 -0.00529793 0.00914223 10.0071 -0.185722 32 1 
798.667 1.2049 10.007 -0.00525797 0.00913019 10.007 -0.189341 32 1 
800 1.20489 10.007 -0.00523784 0.00909522 10.007 -0.190296 32 1 
