27.1694;r ;Density                 ;Velocity u              ;Velocity v              ;Velocity w              ;|Velocity|              ;Pressure                ;Distribution            ;Levels                  ;
0 1.20438 9.99998 3.49351e-05 2.94799e-05 9.99998 -1.11902 1 1 
1.33334 1.20437 10.0003 6.22605e-05 8.13739e-05 10.0003 -1.12938 1 1 
2.66666 1.20436 10.0006 0.00012235 0.000151032 10.0006 -1.15329 1 1 
4 1.20435 10.0001 0.000187195 0.000227011 10.0001 -1.17146 1 1 
5.33334 1.20435 9.99992 0.000247229 0.000305328 9.99992 -1.17082 1 1 
6.66666 1.20435 10.0006 0.000310603 0.000379879 10.0006 -1.16649 1 1 
8 1.20435 10.0008 0.000373127 0.000449722 10.0008 -1.16516 1 1 
9.33334 1.20436 10.0007 0.000423664 0.000501714 10.0007 -1.15522 1 1 
10.6667 1.20435 10.0016 0.000485449 0.000586519 10.0016 -1.17053 1 1 
12 1.20435 10.0024 0.000542095 0.000667664 10.0024 -1.178 1 1 
13.3333 1.20436 10.002 0.000601806 0.000724578 10.002 -1.1558 1 1 
14.6667 1.20435 10.0024 0.000691507 0.000821223 10.0024 -1.17714 1 1 
16 1.20435 10.0028 0.000721631 0.000881288 10.0028 -1.17219 1 1 
17.3333 1.20435 10.0034 0.000767365 0.000938203 10.0034 -1.16624 1 1 
18.6667 1.20434 10.004 0.000818012 0.000990797 10.004 -1.18685 1 1 
20 1.20433 10.0041 0.00090085 0.00108962 10.0041 -1.20494 1 1 
21.3333 1.20433 10.0049 0.000928751 0.00113541 10.0049 -1.21431 1 1 
21.3333 1.20433 10.0049 0.000928751 0.00113541 10.0049 -1.21431 1 1 
22.6667 1.20435 10.0052 0.000996503 0.00121129 10.0052 -1.17433 1 1 
24 1.20435 10.0057 0.00109135 0.00130951 10.0057 -1.17829 1 1 
25.3333 1.20434 10.0061 0.00107328 0.00131042 10.0061 -1.18848 1 1 
26.6667 1.20435 10.0061 0.00111348 0.00134841 10.0061 -1.17983 1 1 
28 1.20434 10.0059 0.0011763 0.00142857 10.0059 -1.18498 1 1 
29.3333 1.20433 10.0056 0.00122894 0.0014839 10.0056 -1.2088 1 1 
30.6667 1.20432 10.0052 0.00127537 0.00152251 10.0052 -1.23176 1 1 
32 1.20433 10.0051 0.00137489 0.00164145 10.0051 -1.21548 1 1 
33.3333 1.20432 10.0054 0.00141503 0.0016935 10.0054 -1.22478 1 1 
34.6667 1.20431 10.0049 0.00144889 0.00172907 10.0049 -1.24081 1 1 
36 1.20433 10.0049 0.0015271 0.001799 10.0049 -1.2188 1 1 
37.3333 1.20433 10.0053 0.00157442 0.00186149 10.0053 -1.21628 1 1 
38.6667 1.20431 10.0057 0.00159856 0.00190402 10.0057 -1.24046 1 1 
40 1.20433 10.0061 0.00167814 0.00199515 10.0061 -1.21532 1 1 
41.3333 1.20432 10.0061 0.00170467 0.00201885 10.0061 -1.21989 1 1 
42.6667 1.2043 10.0066 0.0017299 0.002047 10.0066 -1.25664 1 1 
42.6667 1.2043 10.0066 0.0017299 0.002047 10.0066 -1.25664 2 1 
44 1.20431 10.0062 0.00181457 0.00214597 10.0062 -1.2376 2 1 
45.3333 1.20431 10.0059 0.00186934 0.00219829 10.0059 -1.24777 2 1 
46.6667 1.2043 10.0064 0.00194842 0.00228318 10.0064 -1.27317 2 1 
48 1.2043 10.0073 0.00203853 0.0023821 10.0073 -1.26897 2 1 
49.3333 1.20432 10.0075 0.00208562 0.00241686 10.0075 -1.2297 2 1 
50.6667 1.20432 10.008 0.00212461 0.00248155 10.008 -1.23086 2 1 
52 1.20431 10.0082 0.0021341 0.00248844 10.0082 -1.25117 2 1 
53.3333 1.20432 10.0078 0.00220221 0.00255749 10.0078 -1.21942 2 1 
54.6667 1.20431 10.0087 0.0022525 0.0026121 10.0087 -1.24678 2 1 
56 1.20429 10.0089 0.00228877 0.00265758 10.0089 -1.28492 2 1 
57.3333 1.20431 10.0079 0.0023768 0.00275934 10.0079 -1.25395 2 1 
58.6667 1.2043 10.008 0.00238046 0.00275429 10.008 -1.26769 2 1 
60 1.2043 10.0088 0.00240156 0.00280123 10.0088 -1.27113 2 1 
61.3333 1.20433 10.0084 0.0024769 0.00287805 10.0084 -1.21836 2 1 
62.6667 1.20432 10.0087 0.00252489 0.00294299 10.0087 -1.22723 2 1 
64 1.20432 10.0081 0.00252434 0.00295031 10.0081 -1.23476 2 1 
64 1.20432 10.0081 0.00252434 0.00295031 10.0081 -1.23476 2 1 
65.3333 1.20431 10.0081 0.00259316 0.00303165 10.0081 -1.25495 2 1 
66.6667 1.20431 10.0084 0.00263622 0.00309365 10.0084 -1.24828 2 1 
68 1.20431 10.0084 0.00258798 0.00305359 10.0084 -1.24758 2 1 
69.3333 1.20431 10.0078 0.00261519 0.00310414 10.0078 -1.24438 2 1 
70.6667 1.20432 10.0074 0.00272071 0.00321407 10.0074 -1.22091 2 1 
72 1.20432 10.0083 0.00271976 0.00322296 10.0083 -1.23442 2 1 
73.3333 1.20433 10.0078 0.00275844 0.00327459 10.0078 -1.21171 2 1 
74.6667 1.20431 10.0078 0.00288234 0.00341495 10.0078 -1.24482 2 1 
76 1.20431 10.0076 0.00293203 0.00346672 10.0076 -1.25345 2 1 
77.3333 1.20432 10.0076 0.00291739 0.00346698 10.0076 -1.22565 2 1 
78.6667 1.20432 10.0085 0.00298236 0.00354558 10.0085 -1.22871 2 1 
80 1.20435 10.0084 0.00305617 0.00363698 10.0084 -1.1795 2 1 
81.3333 1.20434 10.0084 0.00300884 0.00359927 10.0084 -1.18721 2 1 
82.6667 1.20433 10.0084 0.00301988 0.00362703 10.0084 -1.20852 2 1 
84 1.20434 10.0074 0.00307973 0.00370803 10.0075 -1.19704 2 1 
85.3333 1.20432 10.0071 0.0030569 0.00370544 10.0071 -1.23112 2 1 
85.3333 1.20432 10.0071 0.0030569 0.00370544 10.0071 -1.23112 3 1 
86.6667 1.20432 10.0069 0.00305978 0.00371551 10.0069 -1.22839 3 1 
88 1.20433 10.0072 0.00315385 0.00382011 10.0072 -1.21737 3 1 
89.3333 1.20434 10.0078 0.00322689 0.00391126 10.0078 -1.19819 3 1 
90.6667 1.20435 10.0079 0.00315519 0.00385394 10.0079 -1.17793 3 1 
92 1.20436 10.0073 0.0031745 0.0038889 10.0073 -1.16016 3 1 
93.3333 1.20437 10.0071 0.00329381 0.00401544 10.0071 -1.14402 3 1 
94.6667 1.20436 10.0076 0.0031969 0.00392144 10.0076 -1.16384 3 1 
96 1.20436 10.0071 0.00315491 0.00389671 10.0071 -1.15361 3 1 
97.3333 1.20435 10.0066 0.00332478 0.00407711 10.0066 -1.17212 3 1 
98.6667 1.20434 10.0062 0.00332467 0.00410479 10.0062 -1.19965 3 1 
100 1.20435 10.0059 0.00325466 0.004053 10.0059 -1.1708 3 1 
101.333 1.20436 10.0061 0.00330808 0.0041263 10.0062 -1.15556 3 1 
102.667 1.20437 10.0062 0.00342848 0.0042737 10.0062 -1.14107 3 1 
104 1.20439 10.007 0.00340195 0.00424962 10.007 -1.1088 3 1 
105.333 1.2044 10.0074 0.00330872 0.00417978 10.0074 -1.07557 3 1 
106.667 1.2044 10.0072 0.00345855 0.00432822 10.0072 -1.07984 3 1 
106.667 1.2044 10.0072 0.00345855 0.00432822 10.0072 -1.07984 3 1 
108 1.20439 10.0064 0.00347908 0.00437027 10.0064 -1.10708 3 1 
109.333 1.20438 10.005 0.0033188 0.00421693 10.005 -1.11341 3 1 
110.667 1.2044 10.0045 0.00332481 0.00422166 10.0045 -1.09043 3 1 
112 1.2044 10.0048 0.00352061 0.00444213 10.0048 -1.09148 3 1 
113.333 1.20441 10.0048 0.00346962 0.00440227 10.0048 -1.0682 3 1 
114.667 1.20442 10.0053 0.0033107 0.00427111 10.0053 -1.04903 3 1 
116 1.20442 10.0062 0.00345787 0.0044262 10.0062 -1.04823 3 1 
117.333 1.20445 10.005 0.00357191 0.00456881 10.005 -0.995912 3 1 
118.667 1.20442 10.0053 0.00341046 0.00442636 10.0053 -1.04234 3 1 
120 1.20445 10.0043 0.00328968 0.00431858 10.0043 -0.999425 3 1 
121.333 1.20448 10.0037 0.00348045 0.00454124 10.0037 -0.946155 3 1 
122.667 1.20446 10.0046 0.00355759 0.00464737 10.0046 -0.979363 3 1 
124 1.20447 10.0036 0.00329566 0.00443297 10.0036 -0.953574 3 1 
125.333 1.20445 10.0046 0.00327202 0.00442669 10.0046 -1.00006 3 1 
126.667 1.20445 10.004 0.00355372 0.00472195 10.004 -0.991335 3 1 
128 1.20446 10.0027 0.00362363 0.0048 10.0027 -0.972219 3 1 
128 1.20446 10.0027 0.00362363 0.0048 10.0027 -0.972219 3 1 
129.333 1.20447 10.0021 0.00334408 0.0045635 10.0021 -0.959639 3 1 
130.667 1.20448 10.0022 0.00335854 0.00461996 10.0022 -0.933777 3 1 
132 1.20448 10.0039 0.00364973 0.00490895 10.0039 -0.943574 3 1 
133.333 1.20449 10.0037 0.00355478 0.00484177 10.0037 -0.916508 3 1 
134.667 1.2045 10.0031 0.00314628 0.0044832 10.0031 -0.909605 3 1 
136 1.2045 10.0023 0.00314649 0.00448524 10.0023 -0.896074 3 1 
137.333 1.2045 10.0014 0.00354542 0.00489383 10.0014 -0.895944 3 1 
138.667 1.20451 10.0017 0.00350823 0.00490238 10.0017 -0.891185 3 1 
140 1.20452 10.0031 0.00309335 0.00447832 10.0031 -0.871598 3 1 
141.333 1.20452 10.0032 0.00304305 0.00443548 10.0032 -0.858942 3 1 
142.667 1.20453 10.0016 0.00351647 0.00492374 10.0016 -0.852293 3 1 
144 1.20452 10.0009 0.00357986 0.00504129 10.0009 -0.869655 3 1 
145.333 1.20451 10.0004 0.00308553 0.00460188 10.0004 -0.879317 3 1 
146.667 1.20452 10.0001 0.00296612 0.00448729 10.0001 -0.864401 3 1 
148 1.20452 9.99982 0.0035838 0.00513252 9.99982 -0.865564 3 1 
149.333 1.20452 9.99995 0.0039999 0.00560636 9.99995 -0.874619 3 1 
149.333 1.20452 9.99995 0.0039999 0.00560636 9.99995 -0.874619 3 1 
150.667 1.20454 10.0008 0.00350581 0.0051766 10.0008 -0.83656 3 1 
152 1.20455 10.0006 0.0028654 0.00455148 10.0006 -0.804467 3 1 
153.333 1.20455 9.99993 0.00307626 0.00477152 9.99993 -0.819813 3 1 
154.667 1.20454 9.99957 0.00377683 0.00549144 9.99957 -0.834003 3 1 
156 1.20455 9.99932 0.00390041 0.00564456 9.99933 -0.820532 3 1 
157.333 1.20455 9.99966 0.00324698 0.00504804 9.99966 -0.814452 3 1 
158.667 1.20456 9.99965 0.00285491 0.00466638 9.99965 -0.795816 3 1 
160 1.20456 9.99796 0.00346965 0.00527412 9.99797 -0.794143 3 1 
161.333 1.20454 9.9966 0.0044497 0.00627371 9.99661 -0.826123 3 1 
162.667 1.20457 9.99644 0.00477679 0.00665436 9.99645 -0.782736 3 1 
164 1.20458 9.99718 0.00429499 0.00623562 9.99718 -0.757259 3 1 
165.333 1.20456 9.99843 0.0037717 0.00576372 9.99843 -0.788615 3 1 
166.667 1.20459 9.99683 0.00387143 0.0058908 9.99684 -0.746386 3 1 
168 1.20457 9.99612 0.00431161 0.00629904 9.99612 -0.775059 3 1 
169.333 1.20457 9.99684 0.0043366 0.00632826 9.99684 -0.784864 3 1 
170.667 1.2046 9.99687 0.00376277 0.00579697 9.99688 -0.730552 3 1 
170.667 1.2046 9.99687 0.00376277 0.00579697 9.99688 -0.730552 11 1 
172 1.20458 9.99759 0.00297184 0.00503519 9.99759 -0.763166 11 1 
173.333 1.20458 9.9963 0.00257295 0.00468971 9.99631 -0.754272 11 1 
174.667 1.20459 9.99518 0.00277819 0.00495172 9.99518 -0.731728 11 1 
176 1.20459 9.99377 0.00342322 0.00560804 9.99377 -0.740106 11 1 
177.333 1.20459 9.99258 0.00407304 0.00630023 9.99258 -0.7417 11 1 
178.667 1.2046 9.993 0.00446798 0.00674678 9.99301 -0.727911 11 1 
180 1.20461 9.99302 0.00464953 0.00693278 9.99303 -0.710086 11 1 
181.333 1.20461 9.99415 0.00465501 0.00695303 9.99415 -0.705596 11 1 
182.667 1.20461 9.99473 0.00463875 0.00700648 9.99473 -0.69723 11 1 
184 1.20461 9.99309 0.00462667 0.00701889 9.99309 -0.696888 11 1 
185.333 1.20459 9.99165 0.00462215 0.00702953 9.99165 -0.735533 11 1 
186.667 1.2046 9.98984 0.00459274 0.00704987 9.98984 -0.722158 11 1 
188 1.20463 9.98929 0.00460347 0.00710153 9.9893 -0.677144 11 1 
189.333 1.20462 9.99091 0.00466493 0.00716652 9.99091 -0.688091 11 1 
190.667 1.20463 9.99005 0.00467168 0.00718487 9.99006 -0.667917 11 1 
192 1.20464 9.98886 0.0046732 0.00728637 9.98886 -0.656469 11 1 
192 1.20464 9.98886 0.0046732 0.00728637 9.98886 -0.656469 11 1 
193.333 1.20463 9.98886 0.00468786 0.00730405 9.98886 -0.668911 11 1 
194.667 1.20463 9.98668 0.00462079 0.00726669 9.98668 -0.675009 11 1 
196 1.20462 9.98503 0.00467723 0.00738868 9.98504 -0.68386 11 1 
197.333 1.20463 9.98614 0.00474969 0.00747485 9.98614 -0.667698 11 1 
198.667 1.20466 9.98553 0.00467416 0.0074157 9.98553 -0.620515 11 1 
200 1.20466 9.98437 0.00475766 0.00756254 9.98437 -0.611355 11 1 
201.333 1.20464 9.98338 0.00472377 0.00759986 9.98339 -0.645138 11 1 
202.667 1.20465 9.97987 0.00461087 0.00745785 9.97988 -0.624009 11 1 
204 1.20464 9.97902 0.00472354 0.007624 9.97902 -0.646797 11 1 
205.333 1.20465 9.98051 0.00468313 0.00766465 9.98051 -0.638586 11 1 
206.667 1.2047 9.98046 0.00470433 0.00771363 9.98046 -0.534249 11 1 
208 1.20468 9.98118 0.00482473 0.00783548 9.98119 -0.576538 11 1 
209.333 1.20467 9.97911 0.00471834 0.00779679 9.97912 -0.59117 11 1 
210.667 1.2047 9.97446 0.00470386 0.00786345 9.97447 -0.53522 11 1 
212 1.20469 9.97207 0.00472996 0.00786006 9.97207 -0.564004 11 1 
213.333 1.20469 9.97061 0.00471861 0.00787842 9.97062 -0.567204 11 1 
213.333 1.20469 9.97061 0.00471861 0.00787842 9.97062 -0.567204 11 1 
214.667 1.20471 9.96997 0.00471983 0.0079689 9.96998 -0.52554 11 1 
216 1.20472 9.97107 0.00470715 0.00803103 9.97107 -0.505892 11 1 
217.333 1.20472 9.97179 0.00474769 0.00803807 9.9718 -0.498477 11 1 
218.667 1.20477 9.96974 0.00477057 0.00811024 9.96974 -0.418233 11 1 
220 1.20478 9.967 0.00477902 0.00822914 9.967 -0.406119 11 1 
221.333 1.20476 9.96331 0.00479876 0.00823045 9.96332 -0.441025 11 1 
222.667 1.20476 9.95802 0.00474655 0.00818694 9.95802 -0.425132 11 1 
224 1.20476 9.9567 0.00468738 0.00822002 9.9567 -0.431028 11 1 
225.333 1.20481 9.95645 0.00467672 0.00829792 9.95646 -0.347322 11 1 
226.667 1.20486 9.95517 0.00474773 0.00835653 9.95517 -0.254631 11 1 
228 1.20486 9.95482 0.00481727 0.00843693 9.95483 -0.256127 11 1 
229.333 1.20487 9.94915 0.00476033 0.00851493 9.94916 -0.226481 11 1 
230.667 1.20488 9.94312 0.00462839 0.00844147 9.94313 -0.208757 11 1 
232 1.20487 9.94054 0.00461365 0.00839904 9.94054 -0.22884 11 1 
233.333 1.20493 9.93761 0.00467781 0.00851857 9.93761 -0.134478 11 1 
234.667 1.205 9.9358 0.00479891 0.00871735 9.93581 0.000107016 11 1 
234.667 1.205 9.9358 0.00479891 0.00871735 9.93581 0.000107016 11 1 
236 1.20496 9.93416 0.00477479 0.00875967 9.93416 -0.0680164 11 1 
237.333 1.20499 9.9277 0.0046805 0.00866897 9.9277 -0.0176566 11 1 
238.667 1.20504 9.92087 0.00460362 0.00861815 9.92088 0.0676367 11 1 
240 1.20501 9.91818 0.00454347 0.00867509 9.91819 0.0137037 11 1 
241.333 1.2051 9.91319 0.00463944 0.00878315 9.9132 0.174373 11 1 
242.667 1.20511 9.91141 0.00469501 0.00886474 9.91141 0.191569 11 1 
244 1.20514 9.90475 0.00463412 0.00886646 9.90476 0.246936 11 1 
245.333 1.20516 9.89689 0.00450626 0.00878122 9.8969 0.288598 11 1 
246.667 1.20518 9.89148 0.00453558 0.0089084 9.89148 0.327827 11 1 
248 1.20528 9.8837 0.00444195 0.008816 9.88371 0.508501 11 1 
249.333 1.20527 9.87946 0.00457017 0.00902002 9.87947 0.490841 11 1 
250.667 1.20532 9.87141 0.00460917 0.00913694 9.87141 0.584579 11 1 
252 1.20535 9.86393 0.00436946 0.0089029 9.86394 0.634155 11 1 
253.333 1.20545 9.85195 0.00445713 0.00905595 9.85196 0.812544 11 1 
254.667 1.20549 9.84438 0.00445612 0.00911182 9.84439 0.882916 11 1 
256 1.20552 9.83584 0.00439893 0.0090774 9.83585 0.936711 11 1 
256 1.20552 9.83584 0.00439893 0.0090774 9.83585 0.936711 13 1 
257.333 1.20565 9.82248 0.00443655 0.00916961 9.82248 1.17978 13 1 
258.667 1.20567 9.81299 0.00427441 0.00908638 9.813 1.20753 13 1 
260 1.20574 9.79941 0.00426161 0.00909133 9.79942 1.33516 13 1 
261.333 1.20588 9.78389 0.00435481 0.00922131 9.78389 1.58563 13 1 
262.667 1.20597 9.76824 0.00428774 0.00924245 9.76825 1.75494 13 1 
264 1.20598 9.75761 0.00421075 0.00922287 9.75762 1.77176 13 1 
265.333 1.20615 9.73945 0.00414549 0.00919327 9.73946 2.08101 13 1 
266.667 1.20638 9.71342 0.00415023 0.00929127 9.71343 2.48373 13 1 
268 1.20631 9.69714 0.00409933 0.00931864 9.69715 2.36516 13 1 
269.333 1.2065 9.6748 0.00408082 0.00930537 9.67481 2.71599 13 1 
270.667 1.20689 9.64273 0.00400306 0.00928422 9.64273 3.41288 13 1 
272 1.20674 9.62881 0.00396572 0.00932206 9.62882 3.13562 13 1 
273.333 1.20701 9.59615 0.00395857 0.00933613 9.59617 3.62167 13 1 
274.667 1.20752 9.55218 0.00388227 0.00930597 9.5522 4.55371 13 1 
276 1.20738 9.52862 0.00382492 0.00932256 9.52864 4.29998 13 1 
277.333 1.20768 9.4812 0.00378292 0.00930847 9.48122 4.84964 13 1 
277.333 1.20768 9.4812 0.00378292 0.00930847 9.48122 4.84964 13 1 
278.667 1.20817 9.43424 0.0037419 0.0092826 9.43426 5.71872 13 1 
280 1.20827 9.3904 0.00369596 0.00928798 9.39043 5.91055 13 1 
281.333 1.20857 9.33012 0.00365734 0.00931725 9.33014 6.45491 13 1 
282.667 1.20897 9.28169 0.00360013 0.00932069 9.2817 7.17926 13 1 
284 1.20949 9.23267 0.00355034 0.00930447 9.23268 8.10848 13 1 
285.333 1.21 9.16871 0.00348588 0.00926636 9.16879 9.0402 13 1 
286.667 1.21028 9.07998 0.00338765 0.00918823 9.08016 9.5457 13 1 
288 1.21061 8.97432 0.00333139 0.00914454 8.97447 10.1282 13 1 
289.333 1.21121 8.88857 0.00328507 0.00916022 8.88863 11.221 13 1 
290.667 1.21204 8.80606 0.00322046 0.00915856 8.80611 12.7146 13 1 
292 1.21263 8.70799 0.00317732 0.00912127 8.70813 13.7871 13 1 
293.333 1.21298 8.60214 0.00313492 0.00907847 8.60235 14.4227 13 1 
294.667 1.21366 8.48076 0.00306095 0.00903908 8.48122 15.6397 13 1 
296 1.21448 8.36071 0.00301934 0.00901485 8.36109 17.132 13 1 
297.333 1.21476 8.27291 0.00292242 0.00899219 8.2735 17.6326 13 1 
298.667 1.2081 8.14447 0.00236897 0.00900041 8.36748 5.59899 13 1 
298.667 1.2081 8.14447 0.00236897 0.00900041 8.36748 5.59899 14 1 
300 1.19702 8.15151 0.001202 0.00934972 8.43202 -14.4183 14 1 
301.333 1.19301 8.17889 -9.26703e-05 0.00972831 8.31853 -21.662 14 1 
302.667 1.19411 8.01902 -0.00126343 0.00987933 8.12799 -19.6638 14 1 
304 1.19517 7.85556 -0.00219466 0.00999026 7.93287 -17.7574 14 1 
305.333 1.19589 7.70337 -0.00298161 0.010092 7.76426 -16.4518 14 1 
306.667 1.19659 7.56836 -0.00365584 0.0101197 7.60317 -15.1838 14 1 
308 1.19719 7.44462 -0.00423899 0.0101977 7.4788 -14.1132 14 1 
309.333 1.19769 7.33423 -0.00480398 0.0102536 7.36497 -13.2063 14 1 
310.667 1.1983 7.2409 -0.00532952 0.0103112 7.26946 -12.099 14 1 
312 1.19878 7.15481 -0.00578903 0.0103628 7.17555 -11.2372 14 1 
313.333 1.19916 7.07405 -0.00625167 0.0103748 7.09353 -10.5487 14 1 
314.667 1.19956 6.99745 -0.00665214 0.0104265 7.0163 -9.82094 14 1 
316 1.19986 6.92564 -0.00709961 0.0104046 6.94345 -9.29143 14 1 
317.333 1.20014 6.86345 -0.00751905 0.0103673 6.87858 -8.78476 14 1 
318.667 1.20051 6.80992 -0.00784608 0.0104256 6.82444 -8.11233 14 1 
320 1.20075 6.75338 -0.00817924 0.0104696 6.76678 -7.68457 14 1 
320 1.20075 6.75338 -0.00817924 0.0104696 6.76678 -7.68457 14 1 
321.333 1.20088 6.69939 -0.0085139 0.0104617 6.71255 -7.44602 14 1 
322.667 1.20113 6.65717 -0.00883065 0.0104649 6.66902 -6.99054 14 1 
324 1.20139 6.61403 -0.00913377 0.0104934 6.62536 -6.51417 14 1 
325.333 1.20151 6.57319 -0.00943373 0.0105141 6.58399 -6.3095 14 1 
326.667 1.20164 6.54436 -0.00971384 0.0105131 6.55473 -6.061 14 1 
328 1.20186 6.51463 -0.00998134 0.0105186 6.52423 -5.67477 14 1 
329.333 1.202 6.48362 -0.0102413 0.0105344 6.49306 -5.41595 14 1 
330.667 1.20208 6.45624 -0.0105014 0.0105518 6.46519 -5.27627 14 1 
332 1.2022 6.43359 -0.0107637 0.0105419 6.44235 -5.06555 14 1 
333.333 1.2024 6.42118 -0.0109997 0.010531 6.42951 -4.70274 14 1 
334.667 1.20255 6.404 -0.0112125 0.0105573 6.41208 -4.42438 14 1 
336 1.20255 6.37643 -0.0114777 0.0105472 6.38429 -4.42037 14 1 
337.333 1.2026 6.35738 -0.0117827 0.0104447 6.36517 -4.3436 14 1 
338.667 1.20277 6.34762 -0.0120396 0.0103901 6.35514 -4.03387 14 1 
340 1.20292 6.33822 -0.0122338 0.0104314 6.34556 -3.75308 14 1 
341.333 1.20297 6.32168 -0.0124654 0.0104305 6.32877 -3.67046 14 1 
341.333 1.20297 6.32168 -0.0124654 0.0104305 6.32877 -3.67046 15 1 
342.667 1.20295 6.29697 -0.0127415 0.0103542 6.30405 -3.70315 15 1 
344 1.20304 6.28325 -0.0129868 0.0103244 6.29022 -3.53869 15 1 
345.333 1.20321 6.27948 -0.0131892 0.0103255 6.28629 -3.23686 15 1 
346.667 1.20326 6.26667 -0.0134342 0.0102976 6.27324 -3.13986 15 1 
348 1.20326 6.24733 -0.0136872 0.0102548 6.25385 -3.14839 15 1 
349.333 1.20328 6.22883 -0.0138948 0.0102727 6.23528 -3.10182 15 1 
350.667 1.20337 6.21948 -0.0140474 0.0103239 6.22581 -2.94634 15 1 
352 1.20349 6.21652 -0.0142409 0.0103164 6.2226 -2.73359 15 1 
353.333 1.20352 6.20215 -0.0145154 0.0102497 6.20817 -2.67654 15 1 
354.667 1.20353 6.18411 -0.0147696 0.0102425 6.19004 -2.6518 15 1 
356 1.20359 6.17548 -0.0148946 0.0103194 6.18129 -2.54499 15 1 
357.333 1.20362 6.16832 -0.0150031 0.0104003 6.17395 -2.4962 15 1 
358.667 1.20367 6.16074 -0.0152054 0.0104058 6.16628 -2.41089 15 1 
360 1.20373 6.15149 -0.0154617 0.0103527 6.15689 -2.28538 15 1 
361.333 1.20376 6.14011 -0.0156443 0.0103386 6.14541 -2.23299 15 1 
362.667 1.20379 6.13425 -0.0157437 0.0104192 6.13941 -2.18085 15 1 
362.667 1.20379 6.13425 -0.0157437 0.0104192 6.13941 -2.18085 15 1 
364 1.20384 6.13027 -0.0158337 0.010503 6.13533 -2.10276 15 1 
365.333 1.20388 6.12357 -0.0159683 0.0104876 6.12853 -2.01399 15 1 
366.667 1.20392 6.11729 -0.0161163 0.0104094 6.12213 -1.95215 15 1 
368 1.20394 6.11186 -0.016264 0.0103654 6.11656 -1.92208 15 1 
369.333 1.20398 6.10773 -0.0163884 0.0103754 6.11238 -1.84037 15 1 
370.667 1.20401 6.10433 -0.0164667 0.0104094 6.10891 -1.77971 15 1 
372 1.20402 6.10195 -0.0164952 0.0104303 6.10642 -1.77566 15 1 
373.333 1.20406 6.10077 -0.0165088 0.0104317 6.10512 -1.70543 15 1 
374.667 1.20413 6.09777 -0.0165997 0.0104042 6.10209 -1.57558 15 1 
376 1.20417 6.09688 -0.0167977 0.0103448 6.10114 -1.49623 15 1 
377.333 1.20416 6.09874 -0.016983 0.0102966 6.10291 -1.52218 15 1 
378.667 1.20415 6.09637 -0.0170651 0.0103009 6.10045 -1.53911 15 1 
380 1.2042 6.09363 -0.0170573 0.0103655 6.09765 -1.44858 15 1 
381.333 1.20423 6.09443 -0.0170843 0.0104091 6.09838 -1.38249 15 1 
382.667 1.20426 6.09424 -0.0172417 0.0103269 6.09817 -1.33338 15 1 
384 1.20433 6.09331 -0.0174428 0.0102021 6.09717 -1.21307 15 1 
384 1.20433 6.09331 -0.0174428 0.0102021 6.09717 -1.21307 15 1 
385.333 1.20434 6.0927 -0.0175969 0.0101585 6.09651 -1.19245 15 1 
386.667 1.20429 6.09066 -0.0177116 0.0101724 6.09443 -1.27617 15 1 
388 1.20432 6.08824 -0.0177623 0.010198 6.09199 -1.23618 15 1 
389.333 1.20437 6.08783 -0.0178194 0.0102065 6.09153 -1.12936 15 1 
390.667 1.20439 6.08919 -0.0179763 0.0101555 6.09286 -1.10571 15 1 
392 1.20441 6.08892 -0.01814 0.0100837 6.09257 -1.05704 15 1 
393.333 1.20447 6.08684 -0.0182452 0.0100333 6.09047 -0.965549 15 1 
394.667 1.20445 6.08622 -0.0183532 0.00999429 6.08979 -0.993847 15 1 
396 1.20442 6.08613 -0.0184462 0.00996148 6.08968 -1.04071 15 1 
397.333 1.20448 6.08523 -0.0185105 0.009953 6.08876 -0.944511 15 1 
398.667 1.20451 6.08512 -0.0185942 0.00992478 6.08862 -0.882728 15 1 
400 1.20449 6.08525 -0.0187118 0.00984936 6.08871 -0.924324 15 1 
401.333 1.20451 6.08465 -0.0188115 0.00980156 6.08807 -0.878261 15 1 
402.667 1.20455 6.08482 -0.0188796 0.00980688 6.08823 -0.804636 15 1 
404 1.20454 6.08573 -0.0189371 0.00977435 6.08911 -0.835371 15 1 
405.333 1.20455 6.08558 -0.0189876 0.00974096 6.0889 -0.816958 15 1 
405.333 1.20455 6.08558 -0.0189876 0.00974096 6.0889 -0.816958 15 1 
406.667 1.2046 6.08541 -0.0190471 0.00974222 6.08869 -0.716769 15 1 
408 1.2046 6.08694 -0.0191566 0.00969341 6.0902 -0.714699 15 1 
409.333 1.20458 6.08772 -0.0192618 0.00959906 6.09094 -0.765078 15 1 
410.667 1.20459 6.08692 -0.0192969 0.00957854 6.09011 -0.74026 15 1 
412 1.20461 6.0884 -0.0192882 0.00963757 6.09155 -0.698874 15 1 
413.333 1.20464 6.09155 -0.0193304 0.00963908 6.09466 -0.654257 15 1 
414.667 1.20467 6.09233 -0.0194586 0.00951681 6.09541 -0.59073 15 1 
416 1.20467 6.0924 -0.0195955 0.00941664 6.09544 -0.605019 15 1 
417.333 1.20463 6.09415 -0.0196434 0.00942243 6.09717 -0.661798 15 1 
418.667 1.20465 6.09566 -0.0196337 0.00944749 6.09864 -0.635124 15 1 
420 1.20468 6.09704 -0.0196454 0.00944286 6.09998 -0.584497 15 1 
421.333 1.20469 6.09973 -0.0197173 0.00942911 6.10265 -0.563956 15 1 
422.667 1.20471 6.1024 -0.019827 0.00938111 6.10529 -0.517672 15 1 
424 1.20472 6.10493 -0.019946 0.00930369 6.10778 -0.507076 15 1 
425.333 1.20469 6.10804 -0.020028 0.00925838 6.11087 -0.560617 15 1 
426.667 1.20469 6.11041 -0.0200337 0.00926355 6.1132 -0.558356 15 1 
426.667 1.20469 6.11041 -0.0200337 0.00926355 6.1132 -0.558356 20 1 
428 1.20471 6.11258 -0.0200049 0.0092676 6.11534 -0.526109 20 1 
429.333 1.20471 6.11594 -0.0200346 0.00925622 6.11867 -0.52762 20 1 
430.667 1.20474 6.11925 -0.0201267 0.00924538 6.12196 -0.469381 20 1 
432 1.20477 6.1226 -0.0202536 0.00922649 6.12528 -0.410515 20 1 
433.333 1.20474 6.12765 -0.0203761 0.00920886 6.13032 -0.464669 20 1 
434.667 1.20473 6.13352 -0.0204385 0.00922785 6.13617 -0.495394 20 1 
436 1.20475 6.13915 -0.0204516 0.00923216 6.14178 -0.459735 20 1 
437.333 1.20474 6.14493 -0.0204659 0.00917715 6.14752 -0.465242 20 1 
438.667 1.20475 6.14987 -0.0204987 0.00911563 6.15243 -0.444268 20 1 
440 1.20479 6.15369 -0.0205806 0.00910195 6.15622 -0.387979 20 1 
441.333 1.20478 6.15816 -0.0207076 0.00911637 6.16069 -0.400082 20 1 
442.667 1.20477 6.16384 -0.0208208 0.00913649 6.16635 -0.409855 20 1 
444 1.20478 6.1709 -0.0208752 0.009182 6.17339 -0.393815 20 1 
445.333 1.20477 6.17959 -0.0208917 0.00922409 6.18205 -0.416571 20 1 
446.667 1.20478 6.18823 -0.0208956 0.00918973 6.19065 -0.391771 20 1 
448 1.20481 6.19556 -0.0208827 0.00909538 6.19791 -0.336452 20 1 
448 1.20481 6.19556 -0.0208827 0.00909538 6.19791 -0.336452 20 1 
449.333 1.2048 6.20137 -0.0208787 0.0090119 6.20369 -0.358691 20 1 
450.667 1.20479 6.20561 -0.0208986 0.00897384 6.20789 -0.374281 20 1 
452 1.20481 6.20984 -0.0208893 0.00898671 6.21207 -0.34612 20 1 
453.333 1.20481 6.21505 -0.0208393 0.00901009 6.21724 -0.342008 20 1 
454.667 1.20481 6.22043 -0.0207721 0.00900064 6.22258 -0.34314 20 1 
456 1.20481 6.22568 -0.0206601 0.00896941 6.22778 -0.335921 20 1 
457.333 1.20483 6.22991 -0.0205103 0.00889573 6.23195 -0.31423 20 1 
458.667 1.20484 6.2319 -0.0203985 0.0087672 6.23389 -0.284217 20 1 
460 1.20484 6.23223 -0.020318 0.00869643 6.23416 -0.291308 20 1 
461.333 1.20483 6.23195 -0.0202191 0.00872628 6.23383 -0.299577 20 1 
462.667 1.20484 6.23191 -0.020056 0.00877244 6.23373 -0.294757 20 1 
464 1.20484 6.23167 -0.0197418 0.00880928 6.23338 -0.29427 20 1 
465.333 1.20486 6.22832 -0.0191837 0.00882638 6.22987 -0.259986 20 1 
466.667 1.20487 6.21837 -0.0184005 0.00874241 6.21972 -0.231382 20 1 
468 1.20488 6.19796 -0.0175671 0.00854387 6.19913 -0.219275 20 1 
469.333 1.20489 6.16444 -0.0168815 0.00834198 6.16549 -0.197398 20 1 
469.333 1.20489 6.16444 -0.0168815 0.00834198 6.16549 -0.197398 20 1 
470.667 1.20488 6.1202 -0.0164582 0.00826707 6.12119 -0.221894 20 1 
472 1.20487 6.07148 -0.0162674 0.00838271 6.07243 -0.227823 20 1 
473.333 1.2049 6.02585 -0.016127 0.00872637 6.02675 -0.181478 20 1 
474.667 1.2049 5.98969 -0.0158004 0.00931034 5.99048 -0.183326 20 1 
476 1.2049 5.96616 -0.0151658 0.0100739 5.96682 -0.178646 20 1 
477.333 1.20491 5.9571 -0.0142789 0.0109037 5.95761 -0.164115 20 1 
478.667 1.20489 5.96161 -0.0132163 0.0116602 5.96198 -0.193682 20 1 
480 1.20491 5.97418 -0.0120161 0.0121709 5.97443 -0.15907 20 1 
481.333 1.20494 5.98689 -0.01073 0.0123043 5.98703 -0.11118 20 1 
482.667 1.20492 5.98834 -0.00946074 0.0120328 5.98841 -0.141306 20 1 
484 1.20491 5.96786 -0.00833707 0.0114524 5.96791 -0.171711 20 1 
485.333 1.20488 5.92347 -0.00749243 0.0108105 5.92353 -0.209808 20 1 
486.667 1.20486 5.85893 -0.00700467 0.0103543 5.85901 -0.246772 20 1 
488 1.20484 5.78148 -0.00682646 0.0101901 5.78156 -0.284588 20 1 
489.333 1.20479 5.70204 -0.00683944 0.0103434 5.70213 -0.378509 20 1 
490.667 1.20477 5.62992 -0.0069504 0.0108022 5.62998 -0.422688 20 1 
490.667 1.20477 5.62992 -0.0069504 0.0108022 5.62998 -0.422688 20 1 
492 1.20476 5.57155 -0.00710646 0.0114907 5.5716 -0.426256 20 1 
493.333 1.20474 5.53158 -0.00728391 0.0122713 5.53161 -0.477101 20 1 
494.667 1.20474 5.51205 -0.00745763 0.0130626 5.51208 -0.468661 20 1 
496 1.20477 5.51305 -0.00760467 0.0138439 5.51307 -0.414477 20 1 
497.333 1.20478 5.53195 -0.00770701 0.0145773 5.53198 -0.395081 20 1 
498.667 1.2048 5.56653 -0.00777587 0.0152248 5.56658 -0.357428 20 1 
500 1.20485 5.61651 -0.00785965 0.0157721 5.61657 -0.265327 20 1 
501.333 1.20493 5.67929 -0.00797501 0.016218 5.67936 -0.12795 20 1 
502.667 1.20498 5.75165 -0.00808085 0.0165795 5.75174 -0.0370308 20 1 
504 1.20501 5.83272 -0.00814728 0.0169098 5.83282 0.010858 20 1 
505.333 1.20509 5.92206 -0.00816674 0.0172461 5.92217 0.154453 20 1 
506.667 1.20518 6.01872 -0.00815597 0.0175636 6.01884 0.318231 20 1 
508 1.20522 6.12057 -0.00816842 0.0178101 6.1207 0.402546 20 1 
509.333 1.20527 6.22653 -0.0082415 0.0179697 6.22666 0.485363 20 1 
510.667 1.20533 6.33747 -0.0083314 0.0180708 6.33761 0.604101 20 1 
512 1.20541 6.45216 -0.00837356 0.0181906 6.4523 0.733972 20 1 
512 1.20541 6.45216 -0.00837356 0.0181906 6.4523 0.733972 21 1 
513.333 1.20544 6.56874 -0.00836689 0.0183435 6.56889 0.798051 21 1 
514.667 1.20546 6.68747 -0.00835062 0.0184651 6.68762 0.82319 21 1 
516 1.20552 6.80881 -0.0083593 0.0185295 6.80897 0.945986 21 1 
517.333 1.2056 6.93218 -0.00840425 0.0185606 6.93233 1.0805 21 1 
518.667 1.20561 7.05533 -0.00845118 0.0185675 7.05548 1.10978 21 1 
520 1.20561 7.17769 -0.00846745 0.0185683 7.17784 1.10035 21 1 
521.333 1.20563 7.30099 -0.0084448 0.0185888 7.30114 1.12971 21 1 
522.667 1.20567 7.4245 -0.00841736 0.0186049 7.42464 1.21093 21 1 
524 1.20569 7.54632 -0.00840551 0.0185823 7.54646 1.24379 21 1 
525.333 1.20567 7.66608 -0.00840919 0.0185165 7.66622 1.2059 21 1 
526.667 1.20567 7.78422 -0.00842956 0.0184302 7.78435 1.20651 21 1 
528 1.20568 7.90127 -0.00844509 0.0183409 7.9014 1.22469 21 1 
529.333 1.20566 8.01596 -0.00842491 0.0182598 8.01608 1.19783 21 1 
530.667 1.20564 8.12689 -0.00837655 0.0181941 8.12701 1.15633 21 1 
532 1.20563 8.23515 -0.00835257 0.0181044 8.23525 1.13922 21 1 
533.333 1.20563 8.34143 -0.00835577 0.0179809 8.34153 1.14144 21 1 
533.333 1.20563 8.34143 -0.00835577 0.0179809 8.34153 1.14144 21 1 
534.667 1.20562 8.4443 -0.00834428 0.0178498 8.4444 1.11589 21 1 
536 1.20557 8.54266 -0.00830096 0.017727 8.54275 1.03828 21 1 
537.333 1.20554 8.63732 -0.00824786 0.0176237 8.63741 0.968233 21 1 
538.667 1.20552 8.72913 -0.00820311 0.017518 8.72921 0.945492 21 1 
540 1.2055 8.81758 -0.00817124 0.0173772 8.81766 0.903866 21 1 
541.333 1.20546 8.90183 -0.008148 0.0172347 8.9019 0.839419 21 1 
542.667 1.20545 8.98246 -0.00812448 0.017095 8.98252 0.809736 21 1 
544 1.20544 9.05993 -0.00810063 0.0169433 9.05999 0.787245 21 1 
545.333 1.2054 9.13345 -0.00803792 0.0168352 9.1335 0.720765 21 1 
546.667 1.20534 9.20281 -0.00793751 0.0167655 9.20286 0.618107 21 1 
548 1.20531 9.2689 -0.00788213 0.0166496 9.26895 0.567889 21 1 
549.333 1.20532 9.33307 -0.00788764 0.0164749 9.33311 0.585766 21 1 
550.667 1.20532 9.39407 -0.0078793 0.0163245 9.39411 0.582629 21 1 
552 1.20528 9.44999 -0.00782109 0.0162287 9.45002 0.501742 21 1 
553.333 1.2052 9.50222 -0.00774134 0.0161234 9.50225 0.364808 21 1 
554.667 1.20517 9.55219 -0.00767502 0.0159783 9.55222 0.313004 21 1 
554.667 1.20517 9.55219 -0.00767502 0.0159783 9.55222 0.313004 22 1 
556 1.2052 9.60007 -0.00761452 0.0158328 9.6001 0.369799 22 1 
557.333 1.20522 9.64382 -0.0075721 0.0156682 9.64384 0.399698 22 1 
558.667 1.20517 9.68132 -0.00755938 0.0154523 9.68135 0.304928 22 1 
560 1.20509 9.71403 -0.00750758 0.0152597 9.71405 0.154401 22 1 
561.333 1.20508 9.74368 -0.00739681 0.0151247 9.74369 0.148418 22 1 
562.667 1.20513 9.76994 -0.00730149 0.0149836 9.76996 0.23686 22 1 
564 1.20513 9.79091 -0.00723597 0.0148209 9.79093 0.240839 22 1 
565.333 1.20506 9.80627 -0.00718769 0.0146598 9.80628 0.10133 22 1 
566.667 1.20498 9.81887 -0.00715459 0.0145107 9.81889 -0.0301087 22 1 
568 1.20502 9.83135 -0.00710815 0.0143815 9.83136 0.0293131 22 1 
569.333 1.20507 9.84255 -0.00704879 0.0142943 9.84257 0.119916 22 1 
570.667 1.20505 9.85032 -0.00699687 0.0142527 9.85033 0.087088 22 1 
572 1.20497 9.85617 -0.00695699 0.0142092 9.85619 -0.0515338 22 1 
573.333 1.20493 9.86283 -0.00690829 0.0141535 9.86284 -0.134554 22 1 
574.667 1.20497 9.87181 -0.00685735 0.014104 9.87182 -0.0474421 22 1 
576 1.20502 9.88091 -0.00683109 0.014035 9.88092 0.0318608 22 1 
576 1.20502 9.88091 -0.00683109 0.014035 9.88092 0.0318608 22 1 
577.333 1.20498 9.88658 -0.0068019 0.0139914 9.88659 -0.0374803 22 1 
578.667 1.20489 9.89091 -0.00674175 0.013982 9.89092 -0.197869 22 1 
580 1.20488 9.8967 -0.00669759 0.0139039 9.89671 -0.215742 22 1 
581.333 1.20495 9.90393 -0.00667123 0.0138029 9.90394 -0.0877836 22 1 
582.667 1.20497 9.91066 -0.00660426 0.0137967 9.91067 -0.0474637 22 1 
584 1.20491 9.91401 -0.00653894 0.0137966 9.91402 -0.161632 22 1 
585.333 1.20483 9.9164 -0.00652026 0.0137018 9.91641 -0.301662 22 1 
586.667 1.20485 9.92107 -0.00648625 0.0136204 9.92109 -0.266342 22 1 
588 1.20491 9.92636 -0.00642352 0.013603 9.92637 -0.154624 22 1 
589.333 1.20493 9.92981 -0.00636107 0.013568 9.92982 -0.133569 22 1 
590.667 1.20486 9.93098 -0.00630942 0.0135071 9.93099 -0.250595 22 1 
592 1.20479 9.93236 -0.00626442 0.0134667 9.93237 -0.372957 22 1 
593.333 1.20482 9.93648 -0.00621778 0.0133905 9.93649 -0.316158 22 1 
594.667 1.20489 9.94073 -0.0061722 0.0132873 9.94074 -0.207038 22 1 
596 1.20488 9.94251 -0.00610921 0.0132458 9.94252 -0.211504 22 1 
597.333 1.2048 9.94319 -0.00602429 0.0132093 9.9432 -0.369542 22 1 
597.333 1.2048 9.94319 -0.00602429 0.0132093 9.9432 -0.369542 24 1 
598.667 1.20475 9.94414 -0.00593031 0.0131359 9.94415 -0.459243 24 1 
600 1.2048 9.94721 -0.00584739 0.0130773 9.94722 -0.359113 24 1 
601.333 1.20487 9.95104 -0.00580744 0.012996 9.95105 -0.242907 24 1 
602.667 1.20485 9.95232 -0.00576943 0.0128981 9.95233 -0.271726 24 1 
604 1.20476 9.95228 -0.00568582 0.0128517 9.95229 -0.426189 24 1 
605.333 1.20473 9.95351 -0.00558286 0.0128406 9.95352 -0.484763 24 1 
606.667 1.20477 9.95673 -0.00550811 0.0127932 9.95674 -0.415684 24 1 
608 1.20482 9.9598 -0.00546048 0.0127199 9.95981 -0.332307 24 1 
609.333 1.20479 9.96068 -0.00542704 0.0126542 9.96069 -0.372918 24 1 
610.667 1.20473 9.96086 -0.00538505 0.0125815 9.96087 -0.484428 24 1 
612 1.20472 9.96258 -0.00531575 0.0125186 9.96259 -0.502615 24 1 
613.333 1.20476 9.96579 -0.00522565 0.0124927 9.9658 -0.43415 24 1 
614.667 1.20479 9.96839 -0.00513943 0.012466 9.9684 -0.374205 24 1 
616 1.20474 9.969 -0.0050611 0.0124136 9.96901 -0.466287 24 1 
617.333 1.20468 9.96887 -0.00498564 0.0123698 9.96888 -0.568942 24 1 
618.667 1.2047 9.97059 -0.004945 0.0122906 9.9706 -0.538243 24 1 
618.667 1.2047 9.97059 -0.004945 0.0122906 9.9706 -0.538243 24 1 
620 1.20475 9.97349 -0.00490583 0.0121878 9.9735 -0.444272 24 1 
621.333 1.20476 9.97464 -0.00483565 0.0121257 9.97465 -0.428765 24 1 
622.667 1.2047 9.97437 -0.004758 0.0120883 9.97438 -0.534627 24 1 
624 1.20466 9.97464 -0.00467433 0.0120449 9.97465 -0.620909 24 1 
625.333 1.20467 9.97652 -0.00460716 0.0119673 9.97653 -0.595288 24 1 
626.667 1.20474 9.97913 -0.00454598 0.0118793 9.97914 -0.47586 24 1 
628 1.20474 9.97994 -0.00450006 0.0117958 9.97995 -0.46742 24 1 
629.333 1.20467 9.97919 -0.00443667 0.0117371 9.9792 -0.591015 24 1 
630.667 1.20463 9.9796 -0.00432399 0.0116981 9.97961 -0.670717 24 1 
632 1.20466 9.98149 -0.00422813 0.011638 9.9815 -0.616083 24 1 
633.333 1.20471 9.98392 -0.0041575 0.0115689 9.98393 -0.516592 24 1 
634.667 1.20471 9.98415 -0.00408561 0.0114967 9.98416 -0.52456 24 1 
636 1.20465 9.98199 -0.00400505 0.0114363 9.982 -0.635742 24 1 
637.333 1.2046 9.98123 -0.00394686 0.0113588 9.98123 -0.727526 24 1 
638.667 1.20463 9.98229 -0.00386769 0.011294 9.98229 -0.664757 24 1 
640 1.20469 9.98418 -0.00374721 0.0112668 9.98419 -0.562667 24 1 
640 1.20469 9.98418 -0.00374721 0.0112668 9.98419 -0.562667 24 1 
641.333 1.20469 9.98483 -0.00364895 0.011228 9.98484 -0.566075 24 1 
642.667 1.20462 9.98361 -0.0035949 0.0111597 9.98362 -0.68185 24 1 
644 1.20458 9.98347 -0.0035475 0.0110863 9.98347 -0.753126 24 1 
645.333 1.20462 9.98511 -0.00347717 0.0110224 9.98511 -0.694958 24 1 
646.667 1.20466 9.98672 -0.0033928 0.0109733 9.98673 -0.622371 24 1 
648 1.20465 9.98717 -0.00331035 0.0109259 9.98718 -0.627549 24 1 
649.333 1.20459 9.98589 -0.00323021 0.0108904 9.9859 -0.740752 24 1 
650.667 1.20456 9.9851 -0.00317929 0.0108326 9.9851 -0.802701 24 1 
652 1.20459 9.98667 -0.00313666 0.0107435 9.98668 -0.744229 24 1 
653.333 1.20464 9.98764 -0.00306662 0.0106844 9.98764 -0.657162 24 1 
654.667 1.20463 9.98706 -0.00298508 0.0106526 9.98707 -0.675317 24 1 
656 1.20456 9.98548 -0.00289504 0.0106204 9.98549 -0.787644 24 1 
657.333 1.20453 9.98439 -0.00279936 0.0105963 9.98439 -0.84546 24 1 
658.667 1.20456 9.98561 -0.00276407 0.0105204 9.98561 -0.802496 24 1 
660 1.2046 9.98747 -0.00274591 0.0104181 9.98748 -0.721991 24 1 
661.333 1.2046 9.98814 -0.00267905 0.0103704 9.98814 -0.725309 24 1 
661.333 1.2046 9.98814 -0.00267905 0.0103704 9.98814 -0.725309 24 1 
662.667 1.20455 9.98746 -0.00258517 0.0103514 9.98747 -0.820725 24 1 
664 1.2045 9.98677 -0.00246912 0.010337 9.98677 -0.897178 24 1 
665.333 1.20452 9.98741 -0.0024013 0.0102816 9.98741 -0.86036 24 1 
666.667 1.20457 9.98894 -0.00235605 0.0102226 9.98894 -0.779216 24 1 
668 1.20458 9.98844 -0.00232462 0.010131 9.98845 -0.760736 24 1 
669.333 1.20454 9.98668 -0.00227183 0.0100458 9.98668 -0.833085 24 1 
670.667 1.20449 9.98578 -0.00217096 0.0100229 9.98579 -0.921167 24 1 
672 1.20449 9.98585 -0.0020703 0.0100048 9.98585 -0.929602 24 1 
673.333 1.20452 9.98804 -0.00198697 0.00995986 9.98805 -0.868021 24 1 
674.667 1.20454 9.98978 -0.00195744 0.00986847 9.98978 -0.830298 24 1 
676 1.20453 9.98994 -0.00194201 0.00977082 9.98995 -0.855995 24 1 
677.333 1.20449 9.99008 -0.00187915 0.00969976 9.99008 -0.912227 24 1 
678.667 1.20447 9.98957 -0.00177096 0.00969095 9.98957 -0.955417 24 1 
680 1.20448 9.98937 -0.00166961 0.00967735 9.98937 -0.932736 24 1 
681.333 1.2045 9.98965 -0.00160412 0.00960154 9.98965 -0.89869 24 1 
682.667 1.2045 9.989 -0.0015693 0.0095175 9.989 -0.909928 24 1 
682.667 1.2045 9.989 -0.0015693 0.0095175 9.989 -0.909928 31 1 
684 1.20448 9.98883 -0.0015388 0.00945614 9.98884 -0.947848 31 1 
685.333 1.20447 9.98943 -0.00148893 0.00938037 9.98944 -0.966136 31 1 
686.667 1.20446 9.99034 -0.00140538 0.00932488 9.99035 -0.967152 31 1 
688 1.20447 9.99219 -0.00130575 0.00932216 9.99219 -0.966372 31 1 
689.333 1.20447 9.99307 -0.00122735 0.00929791 9.99308 -0.965339 31 1 
690.667 1.20446 9.99295 -0.00118401 0.00921339 9.99295 -0.972789 31 1 
692 1.20446 9.99224 -0.00118802 0.00909967 9.99224 -0.98445 31 1 
693.333 1.20445 9.99091 -0.00116266 0.00902285 9.99091 -0.988169 31 1 
694.667 1.20445 9.9903 -0.00106809 0.00899751 9.99031 -1.00033 31 1 
696 1.20443 9.99002 -0.000936621 0.00901187 9.99003 -1.0324 31 1 
697.333 1.20443 9.99096 -0.000845176 0.00900771 9.99097 -1.02984 31 1 
698.667 1.20444 9.99295 -0.000829457 0.00890898 9.99295 -1.01785 31 1 
700 1.20443 9.99427 -0.000831857 0.00880031 9.99427 -1.02264 31 1 
701.333 1.20444 9.9949 -0.000794974 0.00873947 9.9949 -1.01787 31 1 
702.667 1.20443 9.9938 -0.000728675 0.0086909 9.9938 -1.03777 31 1 
704 1.2044 9.99163 -0.000624149 0.00868971 9.99163 -1.07947 31 1 
704 1.2044 9.99163 -0.000624149 0.00868971 9.99163 -1.07947 31 1 
705.333 1.2044 9.9902 -0.000533338 0.00868165 9.9902 -1.09238 31 1 
706.667 1.20439 9.99006 -0.000490618 0.00862131 9.99006 -1.09612 31 1 
708 1.20439 9.99155 -0.000466582 0.00854192 9.99156 -1.10401 31 1 
709.333 1.20439 9.99387 -0.000421094 0.00849447 9.99388 -1.10985 31 1 
710.667 1.20438 9.99573 -0.000356009 0.00846497 9.99574 -1.12354 31 1 
712 1.20436 9.9961 -0.000305082 0.00841644 9.9961 -1.15808 31 1 
713.333 1.20434 9.99479 -0.000259505 0.00836011 9.9948 -1.19831 31 1 
714.667 1.20431 9.99284 -0.000230094 0.00829921 9.99284 -1.24773 31 1 
716 1.20428 9.99142 -0.000186015 0.00825186 9.99142 -1.29584 31 1 
717.333 1.20428 9.99129 -0.000112533 0.00822235 9.99129 -1.29882 31 1 
718.667 1.2043 9.99336 -3.15456e-05 0.00820694 9.99336 -1.26763 31 1 
720 1.20431 9.99566 2.34826e-05 0.00817325 9.99566 -1.24711 31 1 
721.333 1.2043 9.99646 4.02334e-05 0.00809431 9.99647 -1.25978 31 1 
722.667 1.20428 9.99604 7.24569e-05 0.00803659 9.99604 -1.30031 31 1 
724 1.20425 9.99377 0.000137597 0.00801907 9.99377 -1.34562 31 1 
725.333 1.20426 9.99212 0.000210842 0.00799162 9.99212 -1.33979 31 1 
725.333 1.20426 9.99212 0.000210842 0.00799162 9.99212 -1.33979 31 1 
726.667 1.20427 9.99203 0.000285867 0.00797481 9.99203 -1.31252 31 1 
728 1.20428 9.99224 0.000337583 0.00793899 9.99224 -1.3046 31 1 
729.333 1.20427 9.99337 0.000349222 0.00785929 9.99337 -1.31434 31 1 
730.667 1.20426 9.9946 0.000371724 0.00779258 9.9946 -1.3287 31 1 
732 1.20427 9.9946 0.000439664 0.00777362 9.9946 -1.31777 31 1 
733.333 1.20429 9.99448 0.000551345 0.00779476 9.99448 -1.28974 31 1 
734.667 1.20429 9.99285 0.000650696 0.0078031 9.99285 -1.28151 31 1 
736 1.20428 9.99128 0.000684344 0.00775515 9.99128 -1.29494 31 1 
737.333 1.20426 9.99167 0.000665662 0.00765185 9.99168 -1.338 31 1 
738.667 1.20423 9.99217 0.000641833 0.00753719 9.99217 -1.38644 31 1 
740 1.20424 9.99489 0.000693354 0.00750256 9.9949 -1.37207 31 1 
741.333 1.20426 9.99559 0.000807144 0.00753889 9.99559 -1.3301 31 1 
742.667 1.20428 9.99393 0.000935055 0.00758166 9.99393 -1.29429 31 1 
744 1.2043 9.99306 0.00102962 0.00758795 9.99306 -1.26917 31 1 
745.333 1.20427 9.99111 0.00103787 0.00752976 9.99112 -1.31358 31 1 
746.667 1.20425 9.99086 0.00101285 0.00742586 9.99087 -1.35632 31 1 
746.667 1.20425 9.99086 0.00101285 0.00742586 9.99087 -1.35632 31 1 
748 1.20427 9.99207 0.00103516 0.00736143 9.99207 -1.32221 31 1 
749.333 1.20429 9.99231 0.00109947 0.00735658 9.99231 -1.27946 31 1 
750.667 1.20431 9.99345 0.00117897 0.00735765 9.99345 -1.25296 31 1 
752 1.2043 9.99328 0.00122452 0.00731976 9.99328 -1.25714 31 1 
753.333 1.20428 9.99184 0.00123043 0.00725097 9.99184 -1.30739 31 1 
754.667 1.20425 9.99212 0.00123494 0.00717769 9.99212 -1.3516 31 1 
756 1.20426 9.99137 0.00127879 0.00713827 9.99137 -1.33732 31 1 
757.333 1.2043 9.99232 0.00135667 0.00714566 9.99233 -1.26627 31 1 
758.667 1.20432 9.993 0.00139501 0.00711417 9.993 -1.23457 31 1 
760 1.2043 9.99207 0.00139496 0.00703693 9.99208 -1.26545 31 1 
761.333 1.20428 9.99334 0.00139129 0.00695573 9.99334 -1.29904 31 1 
762.667 1.20425 9.99275 0.00140274 0.00689456 9.99275 -1.34634 31 1 
764 1.20427 9.99196 0.00146828 0.00688502 9.99196 -1.32302 31 1 
765.333 1.20431 9.99211 0.00154772 0.00689209 9.99211 -1.24398 31 1 
766.667 1.20432 9.99059 0.00158916 0.00686795 9.99059 -1.23178 31 1 
768 1.20431 9.99274 0.00158513 0.00679895 9.99275 -1.23881 31 1 
768 1.20431 9.99274 0.00158513 0.00679895 9.99275 -1.23881 32 1 
769.333 1.2043 9.99467 0.00157178 0.00671151 9.99467 -1.2561 32 1 
770.667 1.2043 9.9936 0.00158054 0.00665278 9.9936 -1.26988 32 1 
772 1.20432 9.99342 0.00162487 0.00663284 9.99343 -1.21976 32 1 
773.333 1.20433 9.99035 0.00170961 0.00663585 9.99036 -1.2132 32 1 
774.667 1.20431 9.99049 0.00178714 0.00664414 9.99049 -1.23988 32 1 
776 1.2043 9.99288 0.00181406 0.00660264 9.99288 -1.25831 32 1 
777.333 1.2043 9.99262 0.00177775 0.0064927 9.99262 -1.25586 32 1 
778.667 1.20434 9.9944 0.00174582 0.00638962 9.9944 -1.18585 32 1 
780 1.20436 9.99338 0.00175385 0.00633238 9.99338 -1.14787 32 1 
781.333 1.20436 9.99237 0.00181872 0.00632525 9.99237 -1.15796 32 1 
782.667 1.20434 9.99339 0.00191538 0.0063548 9.99339 -1.19746 32 1 
784 1.2043 9.99058 0.00199919 0.00637789 9.99058 -1.26615 32 1 
785.333 1.20431 9.99174 0.00202565 0.00633559 9.99174 -1.24249 32 1 
786.667 1.20434 9.9935 0.00199068 0.00623481 9.9935 -1.18718 32 1 
788 1.20437 9.99357 0.00193887 0.0061324 9.99358 -1.13944 32 1 
789.333 1.20441 9.99618 0.00192936 0.00606556 9.99618 -1.07065 32 1 
790.667 1.20438 9.99266 0.00201055 0.00608274 9.99266 -1.12632 32 1 
792 1.20433 9.99074 0.00213229 0.00613665 9.99074 -1.20615 32 1 
793.333 1.20432 9.99173 0.00221353 0.00615199 9.99173 -1.22946 32 1 
794.667 1.20432 9.99099 0.00222677 0.00610878 9.99099 -1.2345 32 1 
796 1.20437 9.99553 0.00218452 0.00599765 9.99553 -1.13181 32 1 
797.333 1.20441 9.99532 0.00212579 0.0058838 9.99533 -1.0577 32 1 
798.667 1.20442 9.99352 0.00211742 0.00581431 9.99353 -1.05503 32 1 
800 1.20443 9.99586 0.00211814 0.00579626 9.99586 -1.03521 32 1 
