97.8099;r ;Density                 ;Velocity u              ;Velocity v              ;Velocity w              ;|Velocity|              ;Pressure                ;Distribution            ;Levels                  ;
0 1.20413 9.99552 0.000739326 0.00122129 9.99552 -1.57238 1 1 
1.33334 1.20405 9.99698 0.000193696 0.000343315 9.99699 -1.71661 1 1 
2.66666 1.20392 9.99894 -0.000953177 -0.00151492 9.99895 -1.95625 1 1 
4 1.20379 9.99922 -0.00192325 -0.0030808 9.99923 -2.18191 1 1 
5.33334 1.20371 9.99959 -0.00264126 -0.00421665 9.9996 -2.32415 1 1 
6.66666 1.20368 9.99999 -0.00352289 -0.00562956 10 -2.38442 1 1 
8 1.20364 9.99943 -0.00433761 -0.00693346 9.99947 -2.45503 1 1 
9.33334 1.20369 9.99943 -0.0049626 -0.00795434 9.99948 -2.37015 1 1 
10.6667 1.20375 9.99969 -0.00573975 -0.0092424 9.99976 -2.25943 1 1 
12 1.20379 9.99906 -0.00633914 -0.0102207 9.99915 -2.1768 1 1 
13.3333 1.20394 9.99848 -0.00676894 -0.0109456 9.99859 -1.91751 1 1 
14.6667 1.20408 9.99825 -0.00719614 -0.0116914 9.99838 -1.6598 1 1 
16 1.20421 9.99791 -0.00727284 -0.0118528 9.99804 -1.42443 1 1 
17.3333 1.20439 9.99722 -0.0072563 -0.0118568 9.99735 -1.10578 1 1 
18.6667 1.20454 9.99592 -0.00719048 -0.011771 9.99606 -0.830616 1 1 
20 1.20471 9.99554 -0.00672266 -0.011046 9.99566 -0.518886 1 1 
21.3333 1.20489 9.99521 -0.00618878 -0.0102446 9.99532 -0.201826 1 1 
21.3333 1.20489 9.99521 -0.00618878 -0.0102446 9.99532 -0.201826 1 1 
22.6667 1.20501 9.9932 -0.00550046 -0.00918808 9.99329 0.011171 1 1 
24 1.20516 9.99212 -0.00452635 -0.00765253 9.99218 0.286684 1 1 
25.3333 1.20529 9.99189 -0.00359162 -0.00618895 9.99194 0.531041 1 1 
26.6667 1.20535 9.99044 -0.00241155 -0.00434332 9.99047 0.63311 1 1 
28 1.20543 9.9887 -0.00108783 -0.00226048 9.98871 0.777395 1 1 
29.3333 1.20548 9.98777 6.15873e-05 -0.000425324 9.98777 0.863491 1 1 
30.6667 1.20547 9.98735 0.0014113 0.00175819 9.98735 0.850774 1 1 
32 1.20547 9.98619 0.00276746 0.00391755 9.9862 0.843651 1 1 
33.3333 1.2054 9.98437 0.0039092 0.00573413 9.98439 0.715891 1 1 
34.6667 1.20531 9.98396 0.00515152 0.0077287 9.984 0.561828 1 1 
36 1.20523 9.98417 0.0062086 0.00940944 9.98423 0.419869 1 1 
37.3333 1.20509 9.98246 0.00707001 0.0107962 9.98254 0.155785 1 1 
38.6667 1.20494 9.98167 0.00793569 0.0121762 9.98177 -0.106812 1 1 
40 1.20479 9.98237 0.00847413 0.0130212 9.98248 -0.37793 1 1 
41.3333 1.2046 9.98167 0.00884756 0.0136607 9.98179 -0.71741 1 1 
42.6667 1.20445 9.98087 0.00913357 0.014159 9.981 -0.999608 1 1 
42.6667 1.20445 9.98087 0.00913357 0.014159 9.981 -0.999608 2 1 
44 1.20426 9.98094 0.00905521 0.01405 9.98107 -1.33351 2 1 
45.3333 1.20404 9.98136 0.00888342 0.0138103 9.98147 -1.73175 2 1 
46.6667 1.20389 9.98114 0.00850934 0.0132668 9.98125 -2.01284 2 1 
48 1.20371 9.98058 0.00777947 0.01217 9.98067 -2.32125 2 1 
49.3333 1.20352 9.98134 0.00707028 0.011082 9.98141 -2.66472 2 1 
50.6667 1.20338 9.98201 0.00613995 0.0096278 9.98206 -2.93009 2 1 
52 1.20324 9.98098 0.00492521 0.00777894 9.98101 -3.17139 2 1 
53.3333 1.20316 9.98137 0.00376113 0.00603282 9.98139 -3.31805 2 1 
54.6667 1.20309 9.98284 0.00246247 0.00400088 9.98285 -3.44411 2 1 
56 1.20302 9.98217 0.00113836 0.00193812 9.98217 -3.57729 2 1 
57.3333 1.20306 9.98152 -0.000103516 2.74627e-05 9.98153 -3.51201 2 1 
58.6667 1.20311 9.98268 -0.00142477 -0.00204705 9.98269 -3.40514 2 1 
60 1.20315 9.98326 -0.00252161 -0.00377523 9.98329 -3.34711 2 1 
61.3333 1.20326 9.98211 -0.00352719 -0.00537222 9.98215 -3.13834 2 1 
62.6667 1.20341 9.98163 -0.00460383 -0.00707427 9.98169 -2.87145 2 1 
64 1.20357 9.9827 -0.00533989 -0.00823824 9.98277 -2.58906 2 1 
64 1.20357 9.9827 -0.00533989 -0.00823824 9.98277 -2.58906 2 1 
65.3333 1.20375 9.98281 -0.00593967 -0.00921426 9.9829 -2.26504 2 1 
66.6667 1.20393 9.98059 -0.00652305 -0.0101568 9.98069 -1.93993 2 1 
68 1.20415 9.98053 -0.0067853 -0.0106007 9.98063 -1.53748 2 1 
69.3333 1.20439 9.98178 -0.00689957 -0.0108461 9.98189 -1.11044 2 1 
70.6667 1.20458 9.9798 -0.00682054 -0.010782 9.9799 -0.754363 2 1 
72 1.20481 9.97793 -0.00647027 -0.010284 9.97803 -0.346454 2 1 
73.3333 1.20504 9.97827 -0.00599626 -0.00964595 9.97836 0.0738001 2 1 
74.6667 1.20522 9.97805 -0.00522295 -0.00852037 9.97812 0.401069 2 1 
76 1.20541 9.97562 -0.00429727 -0.00712653 9.97567 0.748847 2 1 
77.3333 1.20556 9.97382 -0.00337668 -0.0057572 9.97386 1.02053 2 1 
78.6667 1.20567 9.9743 -0.00214316 -0.00390181 9.97432 1.21843 2 1 
80 1.20579 9.97322 -0.000854599 -0.0019707 9.97323 1.4335 2 1 
81.3333 1.20583 9.97017 0.000317739 -0.000158571 9.97018 1.50028 2 1 
82.6667 1.20584 9.9693 0.00170202 0.00200168 9.96931 1.52222 2 1 
84 1.20585 9.9696 0.00302709 0.00401205 9.96961 1.53524 2 1 
85.3333 1.20577 9.96744 0.00424427 0.00591877 9.96745 1.39927 2 1 
85.3333 1.20577 9.96744 0.00424427 0.00591877 9.96745 1.39927 3 1 
86.6667 1.2057 9.9653 0.00556289 0.00804001 9.96533 1.26828 3 1 
88 1.20561 9.96584 0.00674301 0.00988694 9.96588 1.09316 3 1 
89.3333 1.20544 9.96552 0.00786032 0.0116277 9.96557 0.789469 3 1 
90.6667 1.20528 9.96346 0.00891987 0.0133448 9.96353 0.513425 3 1 
92 1.20512 9.9625 0.00974197 0.014697 9.96259 0.219531 3 1 
93.3333 1.20491 9.9634 0.010504 0.015909 9.9635 -0.169593 3 1 
94.6667 1.20469 9.96318 0.0110625 0.0168179 9.96329 -0.5618 3 1 
96 1.20449 9.96107 0.0113445 0.0173518 9.96118 -0.915029 3 1 
97.3333 1.2043 9.96182 0.0115021 0.0176588 9.96194 -1.26101 3 1 
98.6667 1.20409 9.96354 0.0113643 0.017459 9.96364 -1.64688 3 1 
100 1.20389 9.9618 0.0110562 0.0170232 9.96189 -2.01178 3 1 
101.333 1.20376 9.961 0.010593 0.0163668 9.96108 -2.23239 3 1 
102.667 1.20363 9.96343 0.00986901 0.0152112 9.9635 -2.47247 3 1 
104 1.20348 9.96412 0.00915046 0.0140598 9.96416 -2.7435 3 1 
105.333 1.20344 9.96234 0.00827559 0.0127351 9.96237 -2.81892 3 1 
106.667 1.20341 9.9632 0.00712361 0.0109034 9.96322 -2.87741 3 1 
106.667 1.20341 9.9632 0.00712361 0.0109034 9.96322 -2.87741 3 1 
108 1.20336 9.96533 0.00613082 0.00929021 9.96534 -2.95887 3 1 
109.333 1.2034 9.9643 0.00508607 0.00760149 9.96431 -2.89699 3 1 
110.667 1.20345 9.96259 0.0037574 0.00549524 9.9626 -2.80406 3 1 
112 1.20352 9.9644 0.00266464 0.00371985 9.96441 -2.66742 3 1 
113.333 1.20365 9.96577 0.00159982 0.00193142 9.9658 -2.43336 3 1 
114.667 1.20376 9.96358 0.000368899 -2.39988e-05 9.96362 -2.23159 3 1 
116 1.20393 9.96272 -0.0006248 -0.00161928 9.96277 -1.93523 3 1 
117.333 1.20414 9.96393 -0.00154359 -0.00316579 9.96399 -1.54681 3 1 
118.667 1.20429 9.96361 -0.00234367 -0.00451113 9.96369 -1.28668 3 1 
120 1.2045 9.96025 -0.00293578 -0.00542814 9.96034 -0.902147 3 1 
121.333 1.20474 9.95982 -0.00345899 -0.00629008 9.9599 -0.475417 3 1 
122.667 1.2049 9.96183 -0.00370344 -0.00677328 9.96192 -0.181715 3 1 
124 1.20511 9.95916 -0.00368625 -0.00675583 9.95925 0.193636 3 1 
125.333 1.2053 9.95656 -0.00363386 -0.00664145 9.95663 0.541282 3 1 
126.667 1.20546 9.95712 -0.00333993 -0.0061802 9.95718 0.823589 3 1 
128 1.2056 9.9567 -0.0027721 -0.00530906 9.95676 1.0757 3 1 
128 1.2056 9.9567 -0.0027721 -0.00530906 9.95676 1.0757 3 1 
129.333 1.20572 9.95306 -0.00221844 -0.00433948 9.9531 1.29221 3 1 
130.667 1.20583 9.95139 -0.00148964 -0.00309239 9.95142 1.49531 3 1 
132 1.20589 9.9532 -0.000553038 -0.0015973 9.95321 1.61395 3 1 
133.333 1.20592 9.95143 0.00043884 5.74203e-05 9.95144 1.65889 3 1 
134.667 1.20594 9.94789 0.00146539 0.0018492 9.9479 1.69951 3 1 
136 1.20594 9.94781 0.00255092 0.00366339 9.94781 1.69705 3 1 
137.333 1.20587 9.94843 0.00376491 0.00562007 9.94844 1.56725 3 1 
138.667 1.20579 9.94573 0.00492376 0.0075898 9.94575 1.42461 3 1 
140 1.20571 9.94394 0.00598792 0.00938099 9.94398 1.2844 3 1 
141.333 1.20559 9.94585 0.00710819 0.0111999 9.9459 1.05772 3 1 
142.667 1.20543 9.94561 0.0081906 0.0129388 9.94567 0.785002 3 1 
144 1.20528 9.94223 0.00902388 0.0143653 9.9423 0.507935 3 1 
145.333 1.20513 9.94173 0.00976794 0.0156144 9.94182 0.243743 3 1 
146.667 1.20497 9.94415 0.0104977 0.0167255 9.94425 -0.055252 3 1 
148 1.20479 9.94292 0.0110171 0.017532 9.94301 -0.387018 3 1 
149.333 1.20463 9.94043 0.01132 0.0180089 9.94052 -0.659584 3 1 
149.333 1.20463 9.94043 0.01132 0.0180089 9.94052 -0.659584 3 1 
150.667 1.20451 9.9421 0.0115339 0.0182513 9.94219 -0.893467 3 1 
152 1.20435 9.94338 0.0116679 0.0182821 9.94346 -1.16629 3 1 
153.333 1.20422 9.941 0.0115744 0.0180159 9.94106 -1.40742 3 1 
154.667 1.20414 9.93993 0.0112913 0.017446 9.93999 -1.555 3 1 
156 1.20406 9.94249 0.0109974 0.0167569 9.94254 -1.68989 3 1 
157.333 1.20399 9.94283 0.0105892 0.0158786 9.94286 -1.81849 3 1 
158.667 1.20398 9.93978 0.0100008 0.0147553 9.9398 -1.84904 3 1 
160 1.20399 9.94006 0.00938929 0.013558 9.94008 -1.82286 3 1 
161.333 1.20399 9.94276 0.00877784 0.0123041 9.94277 -1.8154 3 1 
162.667 1.20405 9.94055 0.00805408 0.0109461 9.94056 -1.72336 3 1 
164 1.20414 9.93779 0.00726038 0.00953219 9.93781 -1.55265 3 1 
165.333 1.20423 9.94034 0.00655572 0.0082283 9.94036 -1.38529 3 1 
166.667 1.20435 9.94043 0.00589042 0.00697825 9.94046 -1.17311 3 1 
168 1.20447 9.93724 0.00515868 0.00569724 9.93727 -0.964247 3 1 
169.333 1.20462 9.93663 0.00450685 0.00460861 9.93666 -0.689245 3 1 
170.667 1.20479 9.93833 0.00401497 0.00375758 9.93837 -0.381687 3 1 
170.667 1.20479 9.93833 0.00401497 0.00375758 9.93837 -0.381687 11 1 
172 1.20491 9.93758 0.00351155 0.0029219 9.93763 -0.165701 11 1 
173.333 1.20507 9.93334 0.00305188 0.00225629 9.93339 0.121254 11 1 
174.667 1.20524 9.93353 0.00273552 0.00187919 9.93357 0.434944 11 1 
176 1.20536 9.93474 0.00254147 0.00162467 9.93478 0.652092 11 1 
177.333 1.20547 9.93089 0.00236306 0.00146442 9.93093 0.856171 11 1 
178.667 1.20561 9.92812 0.00227073 0.00153827 9.92815 1.10055 11 1 
180 1.20572 9.92982 0.00234705 0.00183522 9.92984 1.29981 11 1 
181.333 1.20578 9.93034 0.00242672 0.00215639 9.93036 1.40448 11 1 
182.667 1.20584 9.92626 0.00251369 0.00259638 9.92627 1.51433 11 1 
184 1.20591 9.92432 0.00268199 0.00319522 9.92433 1.64072 11 1 
185.333 1.20592 9.92574 0.00289533 0.00381661 9.92574 1.65484 11 1 
186.667 1.2059 9.92251 0.00304455 0.00435335 9.92251 1.62114 11 1 
188 1.20589 9.91864 0.00324395 0.00498572 9.91864 1.6164 11 1 
189.333 1.20587 9.92095 0.00356298 0.00576238 9.92096 1.56449 11 1 
190.667 1.20582 9.92161 0.00377944 0.00635741 9.92162 1.47477 11 1 
192 1.20575 9.9173 0.00393784 0.0069067 9.91731 1.34716 11 1 
192 1.20575 9.9173 0.00393784 0.0069067 9.91731 1.34716 11 1 
193.333 1.20568 9.9153 0.00417982 0.00750316 9.91532 1.2243 11 1 
194.667 1.2056 9.91624 0.0043464 0.00799438 9.91626 1.09252 11 1 
196 1.2055 9.9147 0.00451698 0.008386 9.91472 0.896543 11 1 
197.333 1.20541 9.91197 0.00468046 0.00870446 9.912 0.737661 11 1 
198.667 1.20536 9.91194 0.00481369 0.0090033 9.91196 0.649762 11 1 
200 1.20527 9.91321 0.00508166 0.00935232 9.91323 0.488728 11 1 
201.333 1.20515 9.91006 0.00520067 0.00946603 9.91007 0.273679 11 1 
202.667 1.2051 9.90485 0.0052863 0.00949826 9.90487 0.17714 11 1 
204 1.20505 9.90667 0.00560198 0.00977398 9.90669 0.087266 11 1 
205.333 1.20499 9.90848 0.00577801 0.00979946 9.9085 -0.0239208 11 1 
206.667 1.20497 9.90479 0.00600938 0.00985179 9.9048 -0.04662 11 1 
208 1.20495 9.90487 0.00639654 0.0100793 9.90488 -0.0859399 11 1 
209.333 1.20495 9.9057 0.00661185 0.0101354 9.90571 -0.083342 11 1 
210.667 1.20497 9.90055 0.00690933 0.0102097 9.90056 -0.0605085 11 1 
212 1.20497 9.89529 0.00726898 0.0103553 9.8953 -0.0518174 11 1 
213.333 1.20503 9.8953 0.00761802 0.0105549 9.89531 0.0628645 11 1 
213.333 1.20503 9.8953 0.00761802 0.0105549 9.89531 0.0628645 11 1 
214.667 1.20511 9.89619 0.00799114 0.0107271 9.8962 0.201266 11 1 
216 1.20516 9.89403 0.00835579 0.0109066 9.89404 0.285401 11 1 
217.333 1.20524 9.8931 0.00878517 0.0111531 9.89311 0.429594 11 1 
218.667 1.20537 9.8932 0.00916589 0.0114119 9.89321 0.675882 11 1 
220 1.20545 9.89 0.00950901 0.0116119 9.89002 0.811956 11 1 
221.333 1.20551 9.88328 0.00984165 0.0117532 9.8833 0.920231 11 1 
222.667 1.20562 9.87855 0.0100985 0.0118767 9.87857 1.12406 11 1 
224 1.2057 9.87907 0.0102788 0.0119457 9.87909 1.27212 11 1 
225.333 1.20579 9.87648 0.0104155 0.0119659 9.8765 1.42971 11 1 
226.667 1.20589 9.8728 0.0105882 0.012003 9.87281 1.61007 11 1 
228 1.20596 9.87361 0.0107127 0.0120541 9.87362 1.72876 11 1 
229.333 1.206 9.8684 0.0106317 0.0119687 9.86842 1.81061 11 1 
230.667 1.20602 9.85985 0.0104042 0.0117079 9.85987 1.8359 11 1 
232 1.20603 9.85659 0.010204 0.0114441 9.8566 1.85608 11 1 
233.333 1.20609 9.85555 0.010013 0.0112382 9.85557 1.97392 11 1 
234.667 1.20613 9.85222 0.00979245 0.0110346 9.85224 2.04761 11 1 
234.667 1.20613 9.85222 0.00979245 0.0110346 9.85224 2.04761 11 1 
236 1.20606 9.84757 0.0093868 0.0107193 9.84758 1.91822 11 1 
237.333 1.20609 9.84181 0.00890618 0.0103179 9.84182 1.9614 11 1 
238.667 1.20612 9.83599 0.00839988 0.00989064 9.83599 2.02917 11 1 
240 1.20606 9.83129 0.00791531 0.00955021 9.8313 1.91117 11 1 
241.333 1.20612 9.82501 0.00755551 0.00927894 9.82502 2.01728 11 1 
242.667 1.20614 9.82464 0.00714244 0.00897213 9.82465 2.05939 11 1 
244 1.20617 9.81807 0.00663307 0.00857306 9.81808 2.11799 11 1 
245.333 1.20618 9.808 0.00611721 0.00816911 9.80801 2.12685 11 1 
246.667 1.20622 9.80233 0.0057789 0.0079826 9.80234 2.20743 11 1 
248 1.20637 9.79573 0.00536123 0.00761253 9.79573 2.472 11 1 
249.333 1.20638 9.79017 0.00518055 0.00748172 9.79017 2.50151 11 1 
250.667 1.20647 9.78046 0.00495341 0.00725578 9.78047 2.65308 11 1 
252 1.20657 9.77386 0.0045425 0.00676647 9.77386 2.84195 11 1 
253.333 1.20673 9.76213 0.00451125 0.00666101 9.76214 3.11781 11 1 
254.667 1.20678 9.75231 0.0044413 0.00650257 9.75232 3.21254 11 1 
256 1.20685 9.74341 0.00437847 0.00633012 9.74341 3.34465 11 1 
256 1.20685 9.74341 0.00437847 0.00633012 9.74341 3.34465 13 1 
257.333 1.20705 9.73117 0.00450139 0.00634448 9.73117 3.69842 13 1 
258.667 1.20708 9.72019 0.00448853 0.0062158 9.72019 3.75195 13 1 
260 1.20714 9.7046 0.00464439 0.00616986 9.70461 3.86052 13 1 
261.333 1.2073 9.68928 0.00495371 0.00633518 9.68929 4.15581 13 1 
262.667 1.2074 9.67372 0.00524134 0.00651978 9.67373 4.33757 13 1 
264 1.20736 9.66107 0.00555188 0.00672838 9.66108 4.26694 13 1 
265.333 1.2075 9.64209 0.0058435 0.00696902 9.6421 4.51165 13 1 
266.667 1.20772 9.617 0.00627053 0.0074342 9.61702 4.90677 13 1 
268 1.20762 9.6003 0.00671751 0.00792099 9.60032 4.7359 13 1 
269.333 1.20776 9.57665 0.00714228 0.00831819 9.57666 4.97699 13 1 
270.667 1.20811 9.54467 0.00750301 0.00872779 9.54468 5.61682 13 1 
272 1.20796 9.53096 0.00793804 0.00928414 9.53098 5.34239 13 1 
273.333 1.2082 9.49736 0.0083663 0.009786 9.49738 5.78703 13 1 
274.667 1.2087 9.45332 0.00862065 0.0101408 9.45334 6.69167 13 1 
276 1.2086 9.43074 0.00886752 0.0105449 9.43076 6.49706 13 1 
277.333 1.20893 9.38356 0.00913943 0.0108975 9.38359 7.09499 13 1 
277.333 1.20893 9.38356 0.00913943 0.0108975 9.38359 7.09499 13 1 
278.667 1.20943 9.3361 0.00928758 0.0110643 9.33613 8.00627 13 1 
280 1.20959 9.29264 0.00936121 0.0111367 9.29267 8.29855 13 1 
281.333 1.20996 9.23322 0.0094105 0.0111936 9.23324 8.95066 13 1 
282.667 1.2104 9.18446 0.00937414 0.0111159 9.18448 9.75259 13 1 
284 1.21095 9.13495 0.00923529 0.0109017 9.13497 10.7552 13 1 
285.333 1.21153 9.07132 0.00904021 0.0106115 9.07138 11.793 13 1 
286.667 1.21187 8.98323 0.00874637 0.0102268 8.98339 12.4061 13 1 
288 1.21222 8.8782 0.00844347 0.00974214 8.87834 13.0434 13 1 
289.333 1.21284 8.79268 0.00817546 0.00928 8.79274 14.1611 13 1 
290.667 1.21368 8.71046 0.00786758 0.0088536 8.71051 15.6835 13 1 
292 1.21429 8.61264 0.00758036 0.00843864 8.61278 16.7772 13 1 
293.333 1.21463 8.50677 0.00730019 0.00801022 8.507 17.3898 13 1 
294.667 1.21527 8.38635 0.00700713 0.00762224 8.38683 18.559 13 1 
296 1.21608 8.26769 0.00680017 0.00733421 8.26809 20.0217 13 1 
297.333 1.21633 8.18111 0.0065861 0.00711747 8.18174 20.4697 13 1 
298.667 1.20978 8.05517 0.00602505 0.00717939 8.28254 8.6373 13 1 
298.667 1.20978 8.05517 0.00602505 0.00717939 8.28254 8.6373 14 1 
300 1.19891 8.06093 0.00502069 0.00788114 8.34711 -11.0016 14 1 
301.333 1.19497 8.08475 0.00390114 0.008708 8.22704 -18.1166 14 1 
302.667 1.19607 7.92355 0.00286605 0.00924174 8.03438 -16.1357 14 1 
304 1.19711 7.75924 0.00202143 0.00961374 7.83774 -14.2496 14 1 
305.333 1.19783 7.60682 0.00133411 0.00998708 7.66857 -12.9597 14 1 
306.667 1.19852 7.47144 0.000783883 0.0102263 7.50675 -11.7136 14 1 
308 1.1991 7.34715 0.000315856 0.0104844 7.38182 -10.6494 14 1 
309.333 1.19961 7.23638 -0.000134841 0.0107398 7.26755 -9.73278 14 1 
310.667 1.20022 7.14282 -0.000528611 0.011002 7.17176 -8.6278 14 1 
312 1.2007 7.05609 -0.000864532 0.0112389 7.07711 -7.76755 14 1 
313.333 1.20109 6.97459 -0.00122102 0.0114182 6.99432 -7.05838 14 1 
314.667 1.20151 6.89733 -0.00150822 0.0116252 6.91642 -6.2985 14 1 
316 1.20182 6.82493 -0.00184415 0.0117684 6.84295 -5.73961 14 1 
317.333 1.20212 6.76209 -0.00217233 0.0118699 6.77741 -5.19421 14 1 
318.667 1.20253 6.70778 -0.00242596 0.0120157 6.72248 -4.46614 14 1 
320 1.2028 6.65036 -0.00269684 0.0121324 6.66391 -3.98118 14 1 
320 1.2028 6.65036 -0.00269684 0.0121324 6.66391 -3.98118 14 1 
321.333 1.20295 6.59523 -0.00298648 0.0121734 6.60854 -3.71028 14 1 
322.667 1.2032 6.55157 -0.0032604 0.0122214 6.56355 -3.24594 14 1 
324 1.20348 6.50672 -0.00352637 0.0122903 6.51817 -2.75396 14 1 
325.333 1.20361 6.46471 -0.00378334 0.0123445 6.47563 -2.50717 14 1 
326.667 1.20377 6.43498 -0.00403219 0.0123734 6.44545 -2.21793 14 1 
328 1.20399 6.40378 -0.00429184 0.0123981 6.41347 -1.81561 14 1 
329.333 1.20414 6.37088 -0.00454233 0.0124565 6.38041 -1.5549 14 1 
330.667 1.20421 6.34174 -0.00479057 0.0125351 6.35076 -1.42589 14 1 
332 1.20431 6.31731 -0.00506449 0.0125895 6.32614 -1.23777 14 1 
333.333 1.20451 6.30292 -0.00532258 0.0126589 6.3113 -0.884337 14 1 
334.667 1.20467 6.28428 -0.0055651 0.0127878 6.29242 -0.590235 14 1 
336 1.20467 6.25532 -0.00584431 0.0129125 6.26323 -0.590954 14 1 
337.333 1.2047 6.2346 -0.00615188 0.0129794 6.24243 -0.534466 14 1 
338.667 1.20488 6.22299 -0.00640927 0.0131016 6.23055 -0.210678 14 1 
340 1.20504 6.212 -0.00662668 0.0133173 6.21937 0.0812662 14 1 
341.333 1.20508 6.19401 -0.00690676 0.0134841 6.20112 0.14454 14 1 
341.333 1.20508 6.19401 -0.00690676 0.0134841 6.20112 0.14454 15 1 
342.667 1.20507 6.16766 -0.00723928 0.0135836 6.17476 0.132526 15 1 
344 1.20519 6.15207 -0.00751091 0.0137623 6.15907 0.338095 15 1 
345.333 1.20535 6.14652 -0.00772801 0.0139673 6.15334 0.624007 15 1 
346.667 1.2054 6.13237 -0.00799653 0.0141195 6.13896 0.726142 15 1 
348 1.20545 6.11162 -0.00831543 0.0142258 6.11816 0.804958 15 1 
349.333 1.2055 6.09148 -0.00861329 0.0143723 6.09795 0.911011 15 1 
350.667 1.20558 6.08036 -0.00884864 0.0145428 6.08671 1.05023 15 1 
352 1.2057 6.07543 -0.00909534 0.0146631 6.08153 1.27132 15 1 
353.333 1.20576 6.05867 -0.00942245 0.0147159 6.0647 1.37506 15 1 
354.667 1.20579 6.03874 -0.00976104 0.0147851 6.04469 1.4212 15 1 
356 1.20586 6.02901 -0.0100112 0.0148962 6.03482 1.55669 15 1 
357.333 1.20593 6.02019 -0.0102611 0.0149992 6.02584 1.67705 15 1 
358.667 1.206 6.01017 -0.0105937 0.015038 6.01572 1.80494 15 1 
360 1.20606 5.99906 -0.0109662 0.0150525 6.00448 1.90869 15 1 
361.333 1.20608 5.98602 -0.0112698 0.0151102 5.99135 1.95248 15 1 
362.667 1.20614 5.97757 -0.0115248 0.0152233 5.98275 2.05099 15 1 
362.667 1.20614 5.97757 -0.0115248 0.0152233 5.98275 2.05099 15 1 
364 1.2062 5.9716 -0.0118319 0.0153096 5.97669 2.16073 15 1 
365.333 1.20623 5.96409 -0.012203 0.0153476 5.96908 2.22949 15 1 
366.667 1.20627 5.95596 -0.0125321 0.0154075 5.96084 2.297 15 1 
368 1.20631 5.94771 -0.0128022 0.0155342 5.95245 2.37241 15 1 
369.333 1.20636 5.94233 -0.0130739 0.0156782 5.94702 2.45459 15 1 
370.667 1.20639 5.9381 -0.0133942 0.0157872 5.94272 2.50378 15 1 
372 1.20642 5.93282 -0.0137275 0.0158607 5.93733 2.56871 15 1 
373.333 1.20648 5.92831 -0.0139937 0.0159765 5.93268 2.67115 15 1 
374.667 1.20651 5.92289 -0.0142277 0.0161463 5.92724 2.72326 15 1 
376 1.20654 5.91868 -0.0145089 0.0162819 5.92297 2.7772 15 1 
377.333 1.20659 5.91706 -0.0148118 0.0163731 5.92127 2.86418 15 1 
378.667 1.20662 5.91341 -0.0150994 0.0164729 5.91754 2.92873 15 1 
380 1.20666 5.90947 -0.0153622 0.0166039 5.91354 3.00643 15 1 
381.333 1.20671 5.90683 -0.0156263 0.016732 5.91084 3.08442 15 1 
382.667 1.20674 5.90365 -0.0159342 0.016809 5.90763 3.1448 15 1 
384 1.20679 5.90166 -0.0162394 0.0168739 5.90558 3.22508 15 1 
384 1.20679 5.90166 -0.0162394 0.0168739 5.90558 3.22508 15 1 
385.333 1.20683 5.89976 -0.0165257 0.0169675 5.90362 3.29747 15 1 
386.667 1.20686 5.89629 -0.0168328 0.0170397 5.9001 3.36481 15 1 
388 1.20691 5.89352 -0.0171272 0.0170857 5.89732 3.45086 15 1 
389.333 1.20695 5.89159 -0.0174222 0.01712 5.89534 3.51736 15 1 
390.667 1.20698 5.88939 -0.0177664 0.0171193 5.89309 3.56846 15 1 
392 1.20702 5.88684 -0.0180702 0.01712 5.89052 3.64104 15 1 
393.333 1.20706 5.88399 -0.0183192 0.0171326 5.88765 3.71715 15 1 
394.667 1.20709 5.88128 -0.0186058 0.017106 5.88488 3.76845 15 1 
396 1.20712 5.87882 -0.018912 0.0170346 5.8824 3.82173 15 1 
397.333 1.20715 5.87657 -0.0191777 0.0169918 5.88013 3.891 15 1 
398.667 1.20718 5.87385 -0.019414 0.0169579 5.87738 3.93595 15 1 
400 1.2072 5.87047 -0.0196335 0.0168746 5.87395 3.97059 15 1 
401.333 1.20724 5.86795 -0.0198427 0.0167855 5.8714 4.04152 15 1 
402.667 1.20728 5.86599 -0.0200516 0.0167301 5.86942 4.10927 15 1 
404 1.20729 5.86312 -0.0202528 0.0166167 5.86652 4.13344 15 1 
405.333 1.20731 5.86003 -0.0204139 0.0165045 5.86338 4.16475 15 1 
405.333 1.20731 5.86003 -0.0204139 0.0165045 5.86338 4.16475 15 1 
406.667 1.20735 5.85763 -0.0205423 0.016478 5.86095 4.23676 15 1 
408 1.20738 5.85564 -0.0206871 0.0164436 5.85893 4.30318 15 1 
409.333 1.2074 5.85338 -0.0208463 0.0163032 5.85664 4.33765 15 1 
410.667 1.20742 5.85054 -0.0209873 0.0161733 5.85376 4.3753 15 1 
412 1.20746 5.84819 -0.0210983 0.0161389 5.85138 4.43649 15 1 
413.333 1.20749 5.84674 -0.0212246 0.016094 5.8499 4.49751 15 1 
414.667 1.20752 5.84465 -0.0214068 0.0159598 5.84777 4.54585 15 1 
416 1.20755 5.84194 -0.0215969 0.015874 5.84503 4.59821 15 1 
417.333 1.20758 5.84016 -0.0217279 0.0158658 5.84322 4.65384 15 1 
418.667 1.2076 5.83872 -0.0218399 0.0158086 5.84175 4.69926 15 1 
420 1.20763 5.83657 -0.0219776 0.0156821 5.83956 4.75249 15 1 
421.333 1.20767 5.8345 -0.0221159 0.0155817 5.83746 4.81821 15 1 
422.667 1.20769 5.83297 -0.0222348 0.0154768 5.83591 4.86743 15 1 
424 1.20772 5.83145 -0.022357 0.0153393 5.83436 4.90599 15 1 
425.333 1.20775 5.82976 -0.0224894 0.0152138 5.83263 4.96146 15 1 
426.667 1.20778 5.82816 -0.0226178 0.0151174 5.83099 5.01883 15 1 
426.667 1.20778 5.82816 -0.0226178 0.0151174 5.83099 5.01883 20 1 
428 1.2078 5.82685 -0.0227598 0.0149873 5.82965 5.06038 20 1 
429.333 1.20783 5.82575 -0.0229372 0.0148452 5.82852 5.10756 20 1 
430.667 1.20786 5.82463 -0.0230998 0.0147454 5.82738 5.1633 20 1 
432 1.20788 5.82348 -0.0232545 0.0146564 5.8262 5.2008 20 1 
433.333 1.2079 5.82257 -0.0234334 0.0145402 5.82526 5.23491 20 1 
434.667 1.20793 5.82209 -0.0236251 0.0144551 5.82475 5.29374 20 1 
436 1.20796 5.82162 -0.0238234 0.0143891 5.82426 5.3484 20 1 
437.333 1.20798 5.821 -0.0240322 0.0143022 5.82362 5.37609 20 1 
438.667 1.208 5.82075 -0.0242317 0.0142281 5.82334 5.41217 20 1 
440 1.20803 5.82071 -0.02445 0.0142107 5.82328 5.47133 20 1 
441.333 1.20806 5.82062 -0.0246911 0.0141834 5.82317 5.51876 20 1 
442.667 1.20807 5.82085 -0.0249338 0.0141139 5.82338 5.55237 20 1 
444 1.2081 5.8212 -0.0251809 0.014066 5.82371 5.60072 20 1 
445.333 1.20813 5.8213 -0.0254405 0.0140849 5.82379 5.65094 20 1 
446.667 1.20815 5.82169 -0.0257022 0.0140878 5.82416 5.68883 20 1 
448 1.20818 5.82251 -0.0259688 0.0140497 5.82495 5.73622 20 1 
448 1.20818 5.82251 -0.0259688 0.0140497 5.82495 5.73622 20 1 
449.333 1.20821 5.8232 -0.0262536 0.0140324 5.82562 5.7938 20 1 
450.667 1.20823 5.82378 -0.0265413 0.0140457 5.82619 5.83845 20 1 
452 1.20825 5.82457 -0.0268027 0.0140457 5.82695 5.87369 20 1 
453.333 1.20828 5.82546 -0.0270706 0.0140257 5.82781 5.92156 20 1 
454.667 1.20831 5.82648 -0.0273587 0.0140032 5.82882 5.98061 20 1 
456 1.20834 5.82775 -0.027642 0.0140004 5.83007 6.02769 20 1 
457.333 1.20836 5.82887 -0.0279133 0.0139814 5.83116 6.06391 20 1 
458.667 1.20838 5.82978 -0.0281867 0.0139365 5.83205 6.10872 20 1 
460 1.20841 5.83107 -0.0284412 0.0139307 5.83332 6.16007 20 1 
461.333 1.20844 5.83271 -0.0286881 0.0139345 5.83494 6.20653 20 1 
462.667 1.20846 5.83416 -0.0289451 0.0138749 5.83637 6.24989 20 1 
464 1.20849 5.83547 -0.029184 0.0138263 5.83765 6.29577 20 1 
465.333 1.20851 5.83686 -0.0293924 0.0138258 5.83902 6.33806 20 1 
466.667 1.20853 5.83831 -0.0295967 0.0138158 5.84045 6.37597 20 1 
468 1.20856 5.84006 -0.0298162 0.013758 5.84218 6.42637 20 1 
469.333 1.20859 5.84191 -0.0300265 0.0137096 5.84401 6.4803 20 1 
469.333 1.20859 5.84191 -0.0300265 0.0137096 5.84401 6.4803 20 1 
470.667 1.20861 5.8432 -0.0302014 0.0137036 5.84528 6.5159 20 1 
472 1.20863 5.8444 -0.0303769 0.0136945 5.84646 6.55251 20 1 
473.333 1.20866 5.84618 -0.0305689 0.0136659 5.84823 6.60443 20 1 
474.667 1.20868 5.84783 -0.0307524 0.013657 5.84985 6.65352 20 1 
476 1.20871 5.84902 -0.0309209 0.0136614 5.85103 6.69509 20 1 
477.333 1.20873 5.85026 -0.0310913 0.0136668 5.85225 6.73984 20 1 
478.667 1.20876 5.85144 -0.0312499 0.0136918 5.85341 6.7858 20 1 
480 1.20878 5.85241 -0.031389 0.0137179 5.85435 6.82694 20 1 
481.333 1.2088 5.8534 -0.0315193 0.0137506 5.85532 6.87099 20 1 
482.667 1.20883 5.85429 -0.0316552 0.0138041 5.8562 6.92175 20 1 
484 1.20886 5.85485 -0.0317837 0.0138464 5.85674 6.96669 20 1 
485.333 1.20888 5.8552 -0.031896 0.0138879 5.85707 7.0039 20 1 
486.667 1.2089 5.85548 -0.031999 0.0139597 5.85733 7.04554 20 1 
488 1.20893 5.85564 -0.032102 0.0140395 5.85747 7.09274 20 1 
489.333 1.20895 5.85573 -0.0322153 0.0140973 5.85754 7.1366 20 1 
490.667 1.20897 5.85565 -0.0323271 0.0141739 5.85745 7.17712 20 1 
490.667 1.20897 5.85565 -0.0323271 0.0141739 5.85745 7.17712 20 1 
492 1.209 5.85513 -0.0324364 0.014282 5.85691 7.21738 20 1 
493.333 1.20902 5.85444 -0.0325607 0.0143747 5.85621 7.25628 20 1 
494.667 1.20904 5.85406 -0.0326876 0.0144446 5.8558 7.29736 20 1 
496 1.20906 5.85361 -0.0328059 0.0145288 5.85534 7.34185 20 1 
497.333 1.20909 5.85254 -0.0329208 0.0146346 5.85426 7.38257 20 1 
498.667 1.20911 5.85132 -0.0330421 0.0147453 5.85302 7.41869 20 1 
500 1.20913 5.85038 -0.0331694 0.0148595 5.85207 7.45882 20 1 
501.333 1.20915 5.84934 -0.0332851 0.0149786 5.85102 7.50204 20 1 
502.667 1.20918 5.84802 -0.0333822 0.0150923 5.8497 7.54364 20 1 
504 1.2092 5.84663 -0.0334693 0.0151945 5.84829 7.58514 20 1 
505.333 1.20922 5.84505 -0.0335537 0.0152694 5.84671 7.62458 20 1 
506.667 1.20924 5.84341 -0.03364 0.0153347 5.84506 7.66263 20 1 
508 1.20927 5.84194 -0.0337202 0.0154229 5.84358 7.70614 20 1 
509.333 1.20929 5.84032 -0.0338108 0.0155031 5.84196 7.75182 20 1 
510.667 1.20931 5.83845 -0.0339192 0.0155372 5.84007 7.79082 20 1 
512 1.20933 5.83654 -0.0340235 0.0155864 5.83816 7.82915 20 1 
512 1.20933 5.83654 -0.0340235 0.0155864 5.83816 7.82915 21 1 
513.333 1.20936 5.83469 -0.0341294 0.0156628 5.8363 7.87133 21 1 
514.667 1.20938 5.83283 -0.0342487 0.0157125 5.83444 7.91209 21 1 
516 1.2094 5.83094 -0.0343573 0.0157441 5.83254 7.95273 21 1 
517.333 1.20943 5.82902 -0.0344627 0.0157755 5.83062 7.99432 21 1 
518.667 1.20945 5.82699 -0.034573 0.0158036 5.82858 8.03204 21 1 
520 1.20947 5.82494 -0.0346765 0.0158142 5.82653 8.06793 21 1 
521.333 1.20949 5.82315 -0.0347703 0.0158183 5.82473 8.10841 21 1 
522.667 1.20951 5.82142 -0.0348602 0.0158232 5.82299 8.14972 21 1 
524 1.20953 5.81953 -0.0349459 0.0157983 5.8211 8.18703 21 1 
525.333 1.20955 5.81774 -0.0350049 0.0157755 5.8193 8.22307 21 1 
526.667 1.20957 5.81607 -0.0350693 0.0157669 5.81763 8.26152 21 1 
528 1.2096 5.81456 -0.0351526 0.0157447 5.81611 8.30087 21 1 
529.333 1.20962 5.8132 -0.0352123 0.0157171 5.81474 8.33945 21 1 
530.667 1.20964 5.81178 -0.0352567 0.0157079 5.81331 8.37675 21 1 
532 1.20966 5.81049 -0.0353339 0.0156952 5.81202 8.41604 21 1 
533.333 1.20968 5.80943 -0.0354099 0.0157014 5.81094 8.45749 21 1 
533.333 1.20968 5.80943 -0.0354099 0.0157014 5.81094 8.45749 21 1 
534.667 1.2097 5.80833 -0.0354604 0.0157212 5.80984 8.49418 21 1 
536 1.20972 5.80733 -0.0355279 0.0157449 5.80883 8.5336 21 1 
537.333 1.20975 5.80659 -0.0356205 0.0157862 5.80809 8.57928 21 1 
538.667 1.20977 5.8058 -0.0356959 0.0158547 5.80729 8.61904 21 1 
540 1.20979 5.80484 -0.0357616 0.0159303 5.80632 8.65386 21 1 
541.333 1.20981 5.804 -0.0358537 0.0160113 5.80548 8.69524 21 1 
542.667 1.20984 5.80342 -0.0359368 0.0161336 5.80489 8.74063 21 1 
544 1.20986 5.80279 -0.0360138 0.016259 5.80426 8.78092 21 1 
545.333 1.20988 5.80186 -0.0360905 0.0163817 5.80332 8.81787 21 1 
546.667 1.2099 5.80085 -0.0361584 0.0165128 5.8023 8.85656 21 1 
548 1.20993 5.79998 -0.0362145 0.016668 5.80142 8.89614 21 1 
549.333 1.20995 5.7992 -0.0362504 0.0168282 5.80063 8.93597 21 1 
550.667 1.20997 5.79819 -0.0362827 0.0169739 5.79962 8.97634 21 1 
552 1.20999 5.79683 -0.0363048 0.0171411 5.79826 9.01266 21 1 
553.333 1.21001 5.79552 -0.0363007 0.017311 5.79694 9.04749 21 1 
554.667 1.21003 5.79429 -0.0362663 0.0174734 5.7957 9.08516 21 1 
554.667 1.21003 5.79429 -0.0362663 0.0174734 5.7957 9.08516 22 1 
556 1.21005 5.79284 -0.0362152 0.0176335 5.79425 9.12375 22 1 
557.333 1.21007 5.79129 -0.0361445 0.017796 5.79268 9.1634 22 1 
558.667 1.21009 5.78959 -0.0360576 0.017929 5.79098 9.19952 22 1 
560 1.21011 5.78772 -0.0359476 0.0180655 5.7891 9.23378 22 1 
561.333 1.21013 5.7859 -0.0358285 0.0182146 5.78727 9.2736 22 1 
562.667 1.21016 5.78413 -0.0357116 0.0183476 5.78549 9.3121 22 1 
564 1.21018 5.78219 -0.0355885 0.0184557 5.78355 9.3477 22 1 
565.333 1.2102 5.78011 -0.0354552 0.0185571 5.78145 9.38641 22 1 
566.667 1.21022 5.77804 -0.0353223 0.0186561 5.77938 9.42431 22 1 
568 1.21024 5.77605 -0.0351998 0.0187398 5.77739 9.45998 22 1 
569.333 1.21026 5.77407 -0.0350966 0.0188029 5.77539 9.49635 22 1 
570.667 1.21028 5.77205 -0.0349984 0.0188749 5.77336 9.53472 22 1 
572 1.2103 5.76999 -0.0349019 0.0189464 5.77129 9.57025 22 1 
573.333 1.21032 5.76794 -0.0348186 0.0189919 5.76924 9.60174 22 1 
574.667 1.21034 5.7661 -0.034734 0.0190468 5.76738 9.6373 22 1 
576 1.21036 5.76434 -0.0346468 0.0191129 5.76561 9.67328 22 1 
576 1.21036 5.76434 -0.0346468 0.0191129 5.76561 9.67328 22 1 
577.333 1.21037 5.76244 -0.034582 0.0191567 5.7637 9.70298 22 1 
578.667 1.21039 5.76067 -0.0345217 0.0191913 5.76192 9.73314 22 1 
580 1.21041 5.75914 -0.0344678 0.0192182 5.76039 9.76606 22 1 
581.333 1.21042 5.75768 -0.0344202 0.019251 5.75892 9.79681 22 1 
582.667 1.21044 5.75631 -0.0343886 0.0192756 5.75754 9.82566 22 1 
584 1.21046 5.75508 -0.0343846 0.0192883 5.75631 9.85494 22 1 
585.333 1.21047 5.75403 -0.0344084 0.019292 5.75525 9.88716 22 1 
586.667 1.21049 5.75319 -0.0344369 0.0193313 5.7544 9.91802 22 1 
588 1.21051 5.75245 -0.0344891 0.0193866 5.75366 9.94621 22 1 
589.333 1.21052 5.75188 -0.0345631 0.019431 5.75308 9.97929 22 1 
590.667 1.21054 5.7516 -0.034637 0.0195049 5.75279 10.0139 22 1 
592 1.21056 5.75147 -0.0347129 0.0196209 5.75266 10.0481 22 1 
593.333 1.21058 5.75157 -0.0347894 0.0197361 5.75275 10.0828 22 1 
594.667 1.2106 5.75183 -0.0348717 0.0198384 5.75301 10.1208 22 1 
596 1.21063 5.75229 -0.0349535 0.019973 5.75346 10.1612 22 1 
597.333 1.21065 5.753 -0.0350377 0.020107 5.75416 10.2002 22 1 
597.333 1.21065 5.753 -0.0350377 0.020107 5.75416 10.2002 24 1 
598.667 1.21067 5.75385 -0.0351367 0.0202132 5.75501 10.2415 24 1 
600 1.21069 5.75485 -0.0352321 0.0203499 5.75601 10.2861 24 1 
601.333 1.21072 5.75607 -0.0353255 0.0205269 5.75722 10.329 24 1 
602.667 1.21074 5.75751 -0.0354288 0.0207011 5.75865 10.3711 24 1 
604 1.21077 5.75906 -0.0355531 0.0208742 5.76021 10.4168 24 1 
605.333 1.21079 5.76085 -0.0356635 0.021099 5.76199 10.4608 24 1 
606.667 1.21081 5.76288 -0.0357914 0.0213148 5.76401 10.5011 24 1 
608 1.21084 5.76488 -0.0359096 0.0215278 5.76601 10.5438 24 1 
609.333 1.21086 5.76704 -0.0360379 0.0217358 5.76816 10.5851 24 1 
610.667 1.21088 5.7695 -0.0361687 0.0219231 5.77062 10.6232 24 1 
612 1.2109 5.77194 -0.0362704 0.0221052 5.77306 10.6605 24 1 
613.333 1.21092 5.77446 -0.0363607 0.0223057 5.77557 10.695 24 1 
614.667 1.21094 5.77718 -0.0364423 0.0225126 5.77829 10.7257 24 1 
616 1.21096 5.77993 -0.0365177 0.022695 5.78103 10.7573 24 1 
617.333 1.21097 5.78286 -0.0365999 0.0228806 5.78396 10.788 24 1 
618.667 1.21099 5.78596 -0.0366908 0.0230815 5.78705 10.8151 24 1 
618.667 1.21099 5.78596 -0.0366908 0.0230815 5.78705 10.8151 24 1 
620 1.211 5.78889 -0.0367645 0.0232666 5.78998 10.8416 24 1 
621.333 1.21101 5.79189 -0.0368189 0.0234237 5.79296 10.8644 24 1 
622.667 1.21103 5.79496 -0.0368591 0.0235864 5.79603 10.8876 24 1 
624 1.21104 5.79805 -0.0368639 0.0237717 5.79911 10.9148 24 1 
625.333 1.21106 5.80113 -0.0368258 0.0239732 5.80219 10.9399 24 1 
626.667 1.21107 5.80419 -0.0367715 0.0241883 5.80524 10.9623 24 1 
628 1.21108 5.80718 -0.0367404 0.024429 5.80822 10.988 24 1 
629.333 1.2111 5.81019 -0.0367419 0.0246835 5.81123 11.0129 24 1 
630.667 1.21111 5.81318 -0.0368071 0.0248893 5.81421 11.0395 24 1 
632 1.21113 5.81618 -0.03693 0.0250311 5.81721 11.0699 24 1 
633.333 1.21115 5.81898 -0.0370852 0.0251253 5.82 11.1014 24 1 
634.667 1.21116 5.82155 -0.0372292 0.0251912 5.82256 11.1322 24 1 
636 1.21118 5.82404 -0.0373516 0.0252599 5.82504 11.1626 24 1 
637.333 1.2112 5.82642 -0.0374445 0.025448 5.82742 11.1961 24 1 
638.667 1.21122 5.8288 -0.0375188 0.0258249 5.82979 11.2314 24 1 
640 1.21124 5.83106 -0.0376028 0.0263553 5.83205 11.2659 24 1 
640 1.21124 5.83106 -0.0376028 0.0263553 5.83205 11.2659 24 1 
641.333 1.21126 5.83327 -0.0376949 0.0269631 5.83425 11.2989 24 1 
642.667 1.21127 5.83544 -0.0377331 0.0275591 5.83643 11.3328 24 1 
644 1.21129 5.83754 -0.0377064 0.0280064 5.83852 11.3659 24 1 
645.333 1.21131 5.83955 -0.037644 0.0282635 5.84052 11.3962 24 1 
646.667 1.21133 5.84134 -0.0375586 0.0284259 5.84231 11.4267 24 1 
648 1.21134 5.84297 -0.0375372 0.0285619 5.84393 11.4576 24 1 
649.333 1.21136 5.8446 -0.0376214 0.028775 5.84555 11.4844 24 1 
650.667 1.21137 5.8462 -0.0378048 0.0291227 5.84715 11.5095 24 1 
652 1.21139 5.84771 -0.0380743 0.0295827 5.84866 11.5351 24 1 
653.333 1.2114 5.84917 -0.0383629 0.0301253 5.85013 11.5577 24 1 
654.667 1.21141 5.85056 -0.0386178 0.0306521 5.85151 11.5791 24 1 
656 1.21142 5.85187 -0.0388028 0.0311535 5.85282 11.6023 24 1 
657.333 1.21144 5.85315 -0.0388753 0.0316484 5.85409 11.6243 24 1 
658.667 1.21145 5.85434 -0.038884 0.0320601 5.85529 11.6448 24 1 
660 1.21146 5.85527 -0.0388129 0.0324356 5.85622 11.6686 24 1 
661.333 1.21147 5.85615 -0.0386723 0.0328158 5.8571 11.6895 24 1 
661.333 1.21147 5.85615 -0.0386723 0.0328158 5.8571 11.6895 24 1 
662.667 1.21148 5.85705 -0.0385067 0.0331439 5.858 11.7103 24 1 
664 1.2115 5.85758 -0.0382821 0.0334966 5.85852 11.7378 24 1 
665.333 1.21151 5.85835 -0.0380579 0.0337844 5.85928 11.7585 24 1 
666.667 1.21152 5.8589 -0.037786 0.0340733 5.85984 11.7814 24 1 
668 1.21154 5.85916 -0.0374631 0.0343824 5.86009 11.8095 24 1 
669.333 1.21155 5.85972 -0.0371409 0.0345913 5.86065 11.8311 24 1 
670.667 1.21156 5.86016 -0.0367694 0.034811 5.86109 11.8553 24 1 
672 1.21158 5.86038 -0.0363645 0.0350204 5.8613 11.8837 24 1 
673.333 1.21159 5.86091 -0.0359757 0.0351244 5.86183 11.9033 24 1 
674.667 1.2116 5.86123 -0.0354934 0.0352372 5.86214 11.9267 24 1 
676 1.21162 5.86149 -0.0350216 0.0353021 5.86239 11.9508 24 1 
677.333 1.21163 5.86215 -0.0345435 0.0352921 5.86305 11.9683 24 1 
678.667 1.21164 5.86253 -0.0339886 0.0352659 5.86343 11.9912 24 1 
680 1.21165 5.86304 -0.0334689 0.0351486 5.86393 12.0105 24 1 
681.333 1.21166 5.86363 -0.0329209 0.0349862 5.86451 12.0261 24 1 
682.667 1.21167 5.86426 -0.0323575 0.0347673 5.86513 12.044 24 1 
682.667 1.21167 5.86426 -0.0323575 0.0347673 5.86513 12.044 31 1 
684 1.21168 5.86483 -0.0317686 0.0344985 5.86569 12.0638 31 1 
685.333 1.21169 5.86555 -0.0312119 0.0341433 5.86641 12.0773 31 1 
686.667 1.2117 5.86618 -0.030693 0.0336958 5.86703 12.0953 31 1 
688 1.21171 5.86681 -0.0300823 0.0332914 5.86765 12.1135 31 1 
689.333 1.21171 5.86738 -0.0295753 0.0327309 5.86821 12.1287 31 1 
690.667 1.21172 5.86787 -0.0291038 0.0320737 5.86869 12.146 31 1 
692 1.21174 5.8683 -0.028571 0.0314729 5.86911 12.1655 31 1 
693.333 1.21175 5.86854 -0.0281371 0.0307346 5.86934 12.1856 31 1 
694.667 1.21176 5.86865 -0.0277507 0.0299259 5.86944 12.2033 31 1 
696 1.21177 5.86858 -0.0273728 0.0291054 5.86936 12.2229 31 1 
697.333 1.21178 5.86837 -0.0270499 0.0282212 5.86914 12.2453 31 1 
698.667 1.21179 5.86791 -0.0267768 0.027292 5.86867 12.267 31 1 
700 1.2118 5.86722 -0.0265788 0.026295 5.86797 12.2838 31 1 
701.333 1.21181 5.86619 -0.0264102 0.0253046 5.86694 12.3055 31 1 
702.667 1.21182 5.86499 -0.0262934 0.0242875 5.86573 12.3255 31 1 
704 1.21183 5.86357 -0.026283 0.0232299 5.8643 12.3399 31 1 
704 1.21183 5.86357 -0.026283 0.0232299 5.8643 12.3399 31 1 
705.333 1.21184 5.8619 -0.0263097 0.0221448 5.86263 12.3582 31 1 
706.667 1.21185 5.85999 -0.0263487 0.0211058 5.86071 12.3749 31 1 
708 1.21186 5.85781 -0.0264492 0.0200592 5.85853 12.3881 31 1 
709.333 1.21187 5.85542 -0.0266907 0.0189477 5.85614 12.4016 31 1 
710.667 1.21187 5.8529 -0.0268109 0.0180431 5.85361 12.4136 31 1 
712 1.21188 5.85016 -0.0270477 0.0170559 5.85088 12.4265 31 1 
713.333 1.21189 5.84722 -0.0273867 0.0160458 5.84793 12.4389 31 1 
714.667 1.21189 5.84432 -0.0276267 0.0151821 5.84503 12.4491 31 1 
716 1.2119 5.84113 -0.0279531 0.0142969 5.84184 12.4645 31 1 
717.333 1.21191 5.83804 -0.0283112 0.0134654 5.83875 12.4762 31 1 
718.667 1.21191 5.83491 -0.0286177 0.0127376 5.83562 12.4891 31 1 
720 1.21192 5.83203 -0.0289173 0.0120738 5.83274 12.5048 31 1 
721.333 1.21193 5.82903 -0.0292667 0.0114259 5.82974 12.5255 31 1 
722.667 1.21194 5.82603 -0.0295965 0.0108164 5.82675 12.5409 31 1 
724 1.21195 5.82347 -0.0298881 0.0103223 5.82418 12.5528 31 1 
725.333 1.21196 5.82085 -0.0301617 0.00984792 5.82157 12.5791 31 1 
725.333 1.21196 5.82085 -0.0301617 0.00984792 5.82157 12.5791 31 1 
726.667 1.21197 5.8188 -0.0304322 0.00944873 5.81952 12.5966 31 1 
728 1.21198 5.81731 -0.030657 0.00910714 5.81803 12.6084 31 1 
729.333 1.212 5.81567 -0.0308092 0.00882713 5.81639 12.6359 31 1 
730.667 1.212 5.81468 -0.0309479 0.00859758 5.8154 12.6517 31 1 
732 1.21201 5.81404 -0.0311469 0.00833145 5.81476 12.6618 31 1 
733.333 1.21202 5.81362 -0.0312062 0.00819278 5.81434 12.6831 31 1 
734.667 1.21203 5.81436 -0.0311601 0.00810214 5.81509 12.6966 31 1 
736 1.21204 5.81508 -0.031249 0.00791118 5.81581 12.7133 31 1 
737.333 1.21204 5.81673 -0.0311367 0.00793718 5.81746 12.7213 31 1 
738.667 1.21205 5.81865 -0.031043 0.00784612 5.81938 12.7395 31 1 
740 1.21206 5.8207 -0.0309181 0.00775195 5.82142 12.7554 31 1 
741.333 1.21206 5.82391 -0.0308885 0.00759285 5.82463 12.7523 31 1 
742.667 1.21207 5.8273 -0.0305065 0.0077211 5.82802 12.7743 31 1 
744 1.21208 5.83141 -0.0301272 0.00770592 5.83212 12.7934 31 1 
745.333 1.21208 5.83606 -0.030209 0.00728537 5.83677 12.7956 31 1 
746.667 1.21209 5.84051 -0.0296028 0.00749148 5.84121 12.8109 31 1 
746.667 1.21209 5.84051 -0.0296028 0.00749148 5.84121 12.8109 31 1 
748 1.2121 5.84597 -0.0292148 0.00736902 5.84667 12.825 31 1 
749.333 1.21211 5.85165 -0.0290156 0.00693804 5.85234 12.8433 31 1 
750.667 1.21212 5.85786 -0.0283554 0.00704857 5.85854 12.856 31 1 
752 1.21212 5.86443 -0.0279087 0.0067699 5.86511 12.8664 31 1 
753.333 1.21214 5.87066 -0.0275083 0.00640454 5.87133 12.8882 31 1 
754.667 1.21214 5.87778 -0.026999 0.00609858 5.87844 12.8947 31 1 
756 1.21215 5.88485 -0.0263362 0.00593144 5.88551 12.9086 31 1 
757.333 1.21216 5.89204 -0.0257822 0.0054673 5.89269 12.933 31 1 
758.667 1.21216 5.89934 -0.0252603 0.0048734 5.89997 12.9389 31 1 
760 1.21216 5.90739 -0.0245909 0.00455985 5.90802 12.9382 31 1 
761.333 1.21218 5.9141 -0.0240619 0.00392069 5.91471 12.9716 31 1 
762.667 1.21218 5.92158 -0.0234117 0.00330466 5.92218 12.9664 31 1 
764 1.21217 5.92984 -0.0226607 0.00276942 5.93044 12.957 31 1 
765.333 1.2122 5.93617 -0.0221124 0.00204435 5.93676 12.9996 31 1 
766.667 1.21219 5.94352 -0.0214247 0.00130403 5.94409 12.9868 31 1 
768 1.21217 5.95165 -0.0209482 0.000388949 5.95222 12.9585 31 1 
768 1.21217 5.95165 -0.0209482 0.000388949 5.95222 12.9585 32 1 
769.333 1.2122 5.95667 -0.0202329 -0.000393706 5.95723 13.0059 32 1 
770.667 1.21219 5.9645 -0.0196229 -0.00128268 5.96505 12.9786 32 1 
772 1.21217 5.97185 -0.0190853 -0.00230949 5.97238 12.9553 32 1 
773.333 1.2122 5.97621 -0.0185173 -0.0032825 5.97674 12.9961 32 1 
774.667 1.21217 5.98434 -0.0181484 -0.00441054 5.98486 12.9487 32 1 
776 1.21216 5.98966 -0.0178996 -0.00565008 5.99018 12.9392 32 1 
777.333 1.21217 5.99313 -0.0173064 -0.00658639 5.99363 12.9506 32 1 
778.667 1.21213 6.00047 -0.0166593 -0.00745904 6.00097 12.8814 32 1 
780 1.21213 6.00519 -0.016313 -0.00850241 6.00569 12.8873 32 1 
781.333 1.21213 6.00956 -0.01597 -0.00967025 6.01005 12.8877 32 1 
782.667 1.21208 6.01852 -0.0160407 -0.0112095 6.01901 12.7866 32 1 
784 1.2121 6.02115 -0.0155974 -0.0120199 6.02164 12.8184 32 1 
785.333 1.21207 6.02557 -0.0150171 -0.0127077 6.02605 12.7774 32 1 
786.667 1.21202 6.02776 -0.0154538 -0.0145631 6.02824 12.6709 32 1 
788 1.21197 6.03382 -0.0165179 -0.0164053 6.03431 12.5898 32 1 
789.333 1.21198 6.04277 -0.016252 -0.0170135 6.04328 12.6016 32 1 
790.667 1.21197 6.04809 -0.0149529 -0.0166417 6.04858 12.593 32 1 
792 1.21187 6.05401 -0.0157348 -0.0172166 6.05451 12.411 32 1 
793.333 1.21182 6.05584 -0.0175049 -0.0193652 6.05637 12.321 32 1 
794.667 1.2118 6.06232 -0.0188153 -0.0214014 6.06285 12.2875 32 1 
796 1.21177 6.06915 -0.0197 -0.0203607 6.06967 12.237 32 1 
797.333 1.21172 6.07251 -0.0216148 -0.019069 6.07303 12.1367 32 1 
798.667 1.21165 6.07594 -0.024432 -0.0196439 6.07649 12.0069 32 1 
800 1.21161 6.07845 -0.0253117 -0.0194694 6.079 11.9435 32 1 
