56.1501;r ;Density                 ;Velocity u              ;Velocity v              ;Velocity w              ;|Velocity|              ;Pressure                ;Distribution            ;Levels                  ;
0 1.20584 9.9936 -2.30467e-05 0.000137053 9.9936 1.52638 1 1 
1.33334 1.20578 9.99493 6.8035e-05 0.000271005 9.99493 1.40206 1 1 
2.66666 1.20562 9.99636 0.000238425 0.000508748 9.99636 1.11721 1 1 
4 1.20549 9.99678 0.000405297 0.000752368 9.99679 0.880932 1 1 
5.33334 1.2054 9.99761 0.000525804 0.000955482 9.99762 0.714443 1 1 
6.66666 1.20526 9.99822 0.0006159 0.00107517 9.99823 0.461314 1 1 
8 1.20512 9.99867 0.000696126 0.0011793 9.99868 0.218922 1 1 
9.33334 1.20502 9.99892 0.000743252 0.00121917 9.99893 0.0372232 1 1 
10.6667 1.20488 9.9998 0.000780439 0.00123351 9.99981 -0.213375 1 1 
12 1.20477 10.0015 0.000759862 0.00120418 10.0015 -0.418449 1 1 
13.3333 1.20468 10.0014 0.000687485 0.00107775 10.0014 -0.573106 1 1 
14.6667 1.20458 10.0015 0.000641855 0.000979166 10.0015 -0.758749 1 1 
16 1.20454 10.0031 0.000540584 0.000841013 10.0031 -0.821997 1 1 
17.3333 1.20452 10.0038 0.000404298 0.000639497 10.0038 -0.865094 1 1 
18.6667 1.2045 10.004 0.000283179 0.000489063 10.004 -0.902659 1 1 
20 1.20455 10.0052 0.000146472 0.000321295 10.0052 -0.811415 1 1 
21.3333 1.20459 10.0064 -4.85004e-05 7.66823e-05 10.0064 -0.73274 1 1 
21.3333 1.20459 10.0064 -4.85004e-05 7.66823e-05 10.0064 -0.73274 1 1 
22.6667 1.20467 10.0066 -0.000211944 -7.24503e-05 10.0066 -0.592915 1 1 
24 1.2048 10.0066 -0.000358276 -0.000195504 10.0066 -0.370195 1 1 
25.3333 1.2049 10.007 -0.000527487 -0.000353006 10.007 -0.177129 1 1 
26.6667 1.20505 10.0079 -0.000694747 -0.000455845 10.0079 0.0954615 1 1 
28 1.20524 10.0077 -0.000846002 -0.000510117 10.0077 0.424946 1 1 
29.3333 1.20539 10.0073 -0.000924199 -0.000485757 10.0073 0.708383 1 1 
30.6667 1.20558 10.0084 -0.00103921 -0.000477771 10.0084 1.04989 1 1 
32 1.20577 10.0082 -0.00114789 -0.000444755 10.0083 1.39358 1 1 
33.3333 1.20593 10.007 -0.00115871 -0.000261644 10.0071 1.67825 1 1 
34.6667 1.20609 10.007 -0.00114465 -5.63394e-05 10.007 1.97646 1 1 
36 1.20622 10.0072 -0.00113682 8.99767e-05 10.0072 2.20386 1 1 
37.3333 1.20635 10.0064 -0.00108787 0.0003519 10.0064 2.43185 1 1 
38.6667 1.20646 10.0061 -0.00101015 0.000657181 10.0061 2.64609 1 1 
40 1.20651 10.0061 -0.000897253 0.000937581 10.0061 2.72065 1 1 
41.3333 1.20655 10.0055 -0.000783686 0.00124204 10.0056 2.79659 1 1 
42.6667 1.20658 10.0048 -0.000659952 0.00157723 10.0048 2.85997 1 1 
42.6667 1.20658 10.0048 -0.000659952 0.00157723 10.0048 2.85997 2 1 
44 1.20656 10.0041 -0.000481888 0.00195382 10.0041 2.80965 2 1 
45.3333 1.20651 10.0045 -0.000329123 0.00227225 10.0045 2.73552 2 1 
46.6667 1.20645 10.004 -0.000164747 0.00259578 10.004 2.62707 2 1 
48 1.20636 10.0035 2.76918e-05 0.00297434 10.0035 2.46164 2 1 
49.3333 1.20628 10.0043 0.000186136 0.00326371 10.0044 2.30433 2 1 
50.6667 1.20612 10.0045 0.000359651 0.00353087 10.0045 2.03037 2 1 
52 1.20596 10.0036 0.000533121 0.003818 10.0036 1.72982 2 1 
53.3333 1.20583 10.0043 0.000670931 0.00405497 10.0043 1.50388 2 1 
54.6667 1.20566 10.0058 0.000768605 0.004162 10.0058 1.18382 2 1 
56 1.20548 10.006 0.000843451 0.00426924 10.0061 0.871865 2 1 
57.3333 1.20534 10.0058 0.000902733 0.00436176 10.0059 0.606411 2 1 
58.6667 1.20517 10.0067 0.000900783 0.00430523 10.0067 0.298185 2 1 
60 1.20504 10.0085 0.000835852 0.00419281 10.0085 0.0807638 2 1 
61.3333 1.20493 10.0085 0.000736173 0.00403194 10.0085 -0.134476 2 1 
62.6667 1.20479 10.0089 0.000636827 0.00389127 10.0089 -0.3859 2 1 
64 1.20474 10.0104 0.000465956 0.00362275 10.0104 -0.471211 2 1 
64 1.20474 10.0104 0.000465956 0.00362275 10.0104 -0.471211 2 1 
65.3333 1.20467 10.0118 0.000289477 0.00332787 10.0119 -0.590124 2 1 
66.6667 1.2046 10.012 0.000172679 0.00318072 10.012 -0.716189 2 1 
68 1.20459 10.0129 1.19595e-05 0.00293715 10.0129 -0.739048 2 1 
69.3333 1.20458 10.0141 -0.000196444 0.00258193 10.0141 -0.756896 2 1 
70.6667 1.2046 10.0146 -0.000367773 0.00234306 10.0146 -0.719124 2 1 
72 1.20463 10.0153 -0.000582809 0.00210614 10.0153 -0.659938 2 1 
73.3333 1.20467 10.0154 -0.000799577 0.00179438 10.0154 -0.592538 2 1 
74.6667 1.20474 10.0166 -0.000996043 0.00153562 10.0166 -0.47044 2 1 
76 1.20482 10.0166 -0.00116967 0.00136878 10.0166 -0.323463 2 1 
77.3333 1.20489 10.0161 -0.00131732 0.00124608 10.0161 -0.204082 2 1 
78.6667 1.20498 10.0173 -0.00146705 0.00108671 10.0173 -0.0289589 2 1 
80 1.20508 10.0175 -0.00154974 0.0010305 10.0176 0.150415 2 1 
81.3333 1.20515 10.017 -0.00157332 0.00113971 10.017 0.277276 2 1 
82.6667 1.20526 10.0169 -0.00160104 0.00121249 10.0169 0.468558 2 1 
84 1.20533 10.0166 -0.00160095 0.00125681 10.0166 0.589286 2 1 
85.3333 1.20537 10.0169 -0.00149977 0.0015472 10.017 0.663472 2 1 
85.3333 1.20537 10.0169 -0.00149977 0.0015472 10.017 0.663472 3 1 
86.6667 1.20546 10.0167 -0.00140539 0.00185938 10.0167 0.832237 3 1 
88 1.2055 10.0167 -0.00133931 0.00203902 10.0167 0.911302 3 1 
89.3333 1.20553 10.0176 -0.00116076 0.00239452 10.0176 0.957341 3 1 
90.6667 1.20557 10.0174 -0.000968929 0.00284413 10.0174 1.02265 3 1 
92 1.20558 10.0163 -0.000803408 0.00322092 10.0163 1.04734 3 1 
93.3333 1.20559 10.0167 -0.000584333 0.00361079 10.0167 1.05932 3 1 
94.6667 1.20556 10.0174 -0.000359494 0.00407087 10.0174 1.00952 3 1 
96 1.20555 10.0168 -0.000134487 0.00457439 10.0168 0.997415 3 1 
97.3333 1.20554 10.0175 6.43373e-05 0.00494521 10.0175 0.978381 3 1 
98.6667 1.20547 10.0182 0.00023507 0.00527427 10.0182 0.855853 3 1 
100 1.20542 10.0181 0.000475745 0.00576351 10.0181 0.761939 3 1 
101.333 1.20537 10.018 0.000604844 0.00607065 10.018 0.661752 3 1 
102.667 1.20528 10.0182 0.000733076 0.00629168 10.0182 0.507117 3 1 
104 1.20522 10.0202 0.000925874 0.00662424 10.0203 0.406062 3 1 
105.333 1.20515 10.0208 0.00100033 0.00685528 10.0208 0.278145 3 1 
106.667 1.20505 10.0201 0.00105611 0.00694532 10.0202 0.0923484 3 1 
106.667 1.20505 10.0201 0.00105611 0.00694532 10.0202 0.0923484 3 1 
108 1.205 10.0209 0.0010933 0.00702089 10.0209 0.00872855 3 1 
109.333 1.20493 10.0213 0.00112705 0.00711716 10.0213 -0.134969 3 1 
110.667 1.20482 10.0206 0.00110326 0.00713013 10.0206 -0.331797 3 1 
112 1.20477 10.0211 0.00103932 0.00704938 10.0211 -0.411574 3 1 
113.333 1.20471 10.0224 0.000995744 0.00695961 10.0224 -0.522253 3 1 
114.667 1.20462 10.0236 0.000950648 0.00696987 10.0236 -0.69227 3 1 
116 1.20457 10.0237 0.00084468 0.00684068 10.0237 -0.777248 3 1 
117.333 1.20453 10.0225 0.000711163 0.00661359 10.0225 -0.848166 3 1 
118.667 1.20445 10.0244 0.000665716 0.00655555 10.0244 -0.991841 3 1 
120 1.20444 10.0239 0.000530966 0.00644069 10.024 -1.01457 3 1 
121.333 1.2044 10.0223 0.000383418 0.00623662 10.0223 -1.07997 3 1 
122.667 1.20437 10.025 0.000346639 0.00616198 10.025 -1.14076 3 1 
124 1.20439 10.0259 0.000288413 0.00614744 10.0259 -1.10295 3 1 
125.333 1.20435 10.0256 0.000211738 0.00610768 10.0256 -1.1778 3 1 
126.667 1.20437 10.0252 0.000127278 0.00604301 10.0252 -1.14281 3 1 
128 1.20438 10.026 0.000136618 0.00607048 10.026 -1.11825 3 1 
128 1.20438 10.026 0.000136618 0.00607048 10.026 -1.11825 3 1 
129.333 1.20437 10.0261 0.000112305 0.006144 10.0262 -1.13922 3 1 
130.667 1.20441 10.0254 6.89076e-05 0.00620741 10.0254 -1.0616 3 1 
132 1.20444 10.0273 0.000100946 0.00629713 10.0273 -1.00844 3 1 
133.333 1.20447 10.0289 0.000177154 0.00649683 10.0289 -0.957151 3 1 
134.667 1.20449 10.0283 0.000195968 0.00667333 10.0283 -0.912177 3 1 
136 1.20453 10.0266 0.000232221 0.00681494 10.0266 -0.84933 3 1 
137.333 1.20457 10.0277 0.000383306 0.00710012 10.0277 -0.783938 3 1 
138.667 1.20459 10.0288 0.000475216 0.00735508 10.0288 -0.73611 3 1 
140 1.20461 10.0281 0.000549443 0.00756483 10.0281 -0.69791 3 1 
141.333 1.20465 10.0286 0.00063694 0.00782898 10.0287 -0.627547 3 1 
142.667 1.20468 10.0302 0.000782646 0.00812991 10.0302 -0.57217 3 1 
144 1.20468 10.0297 0.000846425 0.00834536 10.0298 -0.583634 3 1 
145.333 1.20468 10.0274 0.000921156 0.00858833 10.0274 -0.579256 3 1 
146.667 1.20468 10.0284 0.00105499 0.00885626 10.0284 -0.577507 3 1 
148 1.20465 10.03 0.0011442 0.00907035 10.03 -0.629966 3 1 
149.333 1.20462 10.0284 0.00118871 0.00923607 10.0284 -0.683235 3 1 
149.333 1.20462 10.0284 0.00118871 0.00923607 10.0284 -0.683235 3 1 
150.667 1.20461 10.0276 0.00126315 0.00945336 10.0276 -0.708744 3 1 
152 1.20457 10.0292 0.00135514 0.0096631 10.0292 -0.76931 3 1 
153.333 1.20452 10.0295 0.00137476 0.00978959 10.0295 -0.872099 3 1 
154.667 1.20446 10.0277 0.0013668 0.00989767 10.0278 -0.974044 3 1 
156 1.20441 10.0276 0.00141352 0.0100446 10.0276 -1.06817 3 1 
157.333 1.20434 10.0292 0.00143663 0.0101368 10.0292 -1.19937 3 1 
158.667 1.20427 10.0284 0.00140508 0.0101793 10.0284 -1.31878 3 1 
160 1.20422 10.0267 0.00140899 0.0102987 10.0267 -1.40483 3 1 
161.333 1.20416 10.0284 0.00140928 0.0103852 10.0284 -1.52082 3 1 
162.667 1.20411 10.0293 0.00139111 0.0104146 10.0293 -1.60173 3 1 
164 1.20407 10.0274 0.00135296 0.0104661 10.0274 -1.67385 3 1 
165.333 1.20402 10.0283 0.00132509 0.0105512 10.0283 -1.7714 3 1 
166.667 1.204 10.0292 0.00132163 0.0106167 10.0292 -1.81302 3 1 
168 1.20394 10.0286 0.00130079 0.0106173 10.0286 -1.92332 3 1 
169.333 1.2039 10.0278 0.0012311 0.0106824 10.0278 -1.98233 3 1 
170.667 1.20393 10.0289 0.00121275 0.0107819 10.0289 -1.93336 3 1 
170.667 1.20393 10.0289 0.00121275 0.0107819 10.0289 -1.93336 11 1 
172 1.20391 10.031 0.0011997 0.0107975 10.031 -1.96097 11 1 
173.333 1.20392 10.0294 0.00117315 0.0108704 10.0294 -1.95148 11 1 
174.667 1.20394 10.0289 0.00111351 0.0109743 10.0289 -1.9109 11 1 
176 1.20395 10.0297 0.00111312 0.0110038 10.0297 -1.90431 11 1 
177.333 1.20394 10.0291 0.0011156 0.0110394 10.0291 -1.90952 11 1 
178.667 1.20395 10.0275 0.00108424 0.011135 10.0275 -1.89725 11 1 
180 1.20396 10.0273 0.00109953 0.0112617 10.0273 -1.87331 11 1 
181.333 1.20397 10.0297 0.00108548 0.0113029 10.0297 -1.86314 11 1 
182.667 1.20399 10.0295 0.0010918 0.0114032 10.0295 -1.82669 11 1 
184 1.20402 10.0273 0.00108253 0.0115041 10.0273 -1.77145 11 1 
185.333 1.20401 10.0273 0.00105669 0.0115294 10.0273 -1.79071 11 1 
186.667 1.204 10.0261 0.00102089 0.0115423 10.0261 -1.81281 11 1 
188 1.20399 10.0243 0.00104625 0.0116552 10.0243 -1.8202 11 1 
189.333 1.20396 10.0252 0.00113158 0.0118268 10.0252 -1.88723 11 1 
190.667 1.20394 10.0253 0.00114843 0.01189 10.0253 -1.91 11 1 
192 1.20393 10.024 0.00117912 0.0120634 10.0241 -1.93917 11 1 
192 1.20393 10.024 0.00117912 0.0120634 10.0241 -1.93917 11 1 
193.333 1.20389 10.023 0.00124542 0.0122301 10.023 -1.99933 11 1 
194.667 1.20387 10.0216 0.00118487 0.0122643 10.0216 -2.03855 11 1 
196 1.20384 10.0213 0.00121161 0.0123832 10.0213 -2.08897 11 1 
197.333 1.20381 10.0217 0.00131029 0.0125541 10.0218 -2.14107 11 1 
198.667 1.2038 10.0201 0.00131131 0.0126787 10.0201 -2.16671 11 1 
200 1.20377 10.0196 0.00141712 0.0129267 10.0196 -2.22478 11 1 
201.333 1.20371 10.0189 0.00137649 0.0130052 10.0189 -2.32241 11 1 
202.667 1.2037 10.0144 0.00132002 0.0130132 10.0144 -2.35138 11 1 
204 1.20368 10.014 0.00149987 0.0133392 10.014 -2.38966 11 1 
205.333 1.20368 10.0167 0.00145407 0.0134217 10.0167 -2.38627 11 1 
206.667 1.20372 10.0166 0.00147054 0.0135397 10.0166 -2.30879 11 1 
208 1.20368 10.0167 0.00165461 0.0138307 10.0167 -2.37524 11 1 
209.333 1.20368 10.0149 0.00161779 0.0139163 10.0149 -2.3929 11 1 
210.667 1.2037 10.011 0.00160462 0.0140076 10.011 -2.34949 11 1 
212 1.20367 10.0077 0.00164811 0.0140754 10.0077 -2.41031 11 1 
213.333 1.20366 10.0053 0.00170694 0.0142395 10.0053 -2.41802 11 1 
213.333 1.20366 10.0053 0.00170694 0.0142395 10.0053 -2.41802 11 1 
214.667 1.20369 10.0052 0.00174622 0.0143868 10.0052 -2.35862 11 1 
216 1.2037 10.0065 0.00170163 0.0144632 10.0065 -2.34617 11 1 
217.333 1.2037 10.0065 0.00174758 0.014538 10.0066 -2.35473 11 1 
218.667 1.20374 10.0045 0.00180585 0.0146773 10.0045 -2.27766 11 1 
220 1.20374 10.0022 0.00180999 0.0147948 10.0022 -2.26811 11 1 
221.333 1.20371 9.99785 0.00181018 0.0148074 9.99786 -2.328 11 1 
222.667 1.2037 9.9915 0.00178729 0.0148377 9.99151 -2.35519 11 1 
224 1.20367 9.99027 0.00178636 0.0149308 9.99028 -2.3963 11 1 
225.333 1.20369 9.99014 0.00177474 0.0150036 9.99015 -2.35889 11 1 
226.667 1.20371 9.98811 0.00183554 0.0150904 9.98812 -2.33212 11 1 
228 1.20368 9.98706 0.00194946 0.0152582 9.98707 -2.37911 11 1 
229.333 1.20369 9.98207 0.0019606 0.0154119 9.98208 -2.3631 11 1 
230.667 1.20368 9.97659 0.00183274 0.0153843 9.97661 -2.37763 11 1 
232 1.20364 9.9732 0.00181665 0.0153878 9.97321 -2.45997 11 1 
233.333 1.20367 9.97034 0.00192948 0.0155874 9.97036 -2.39941 11 1 
234.667 1.20373 9.96895 0.00208805 0.0158353 9.96896 -2.28794 11 1 
234.667 1.20373 9.96895 0.00208805 0.0158353 9.96896 -2.28794 11 1 
236 1.20366 9.96616 0.0020733 0.0159369 9.96617 -2.41664 11 1 
237.333 1.20366 9.95844 0.00202989 0.0159403 9.95845 -2.41594 11 1 
238.667 1.20372 9.95187 0.00204305 0.0160198 9.95188 -2.31964 11 1 
240 1.20369 9.94973 0.00200953 0.0161352 9.94974 -2.3605 11 1 
241.333 1.20376 9.94391 0.00208132 0.0162812 9.94393 -2.23166 11 1 
242.667 1.20377 9.94188 0.00218714 0.0164676 9.9419 -2.21484 11 1 
244 1.20383 9.93606 0.00218385 0.0165715 9.93607 -2.12029 11 1 
245.333 1.20385 9.92779 0.00205185 0.0165064 9.9278 -2.08197 11 1 
246.667 1.20385 9.92096 0.0021126 0.0166958 9.92098 -2.07404 11 1 
248 1.20395 9.91284 0.0020994 0.016716 9.91285 -1.88784 11 1 
249.333 1.20395 9.90891 0.00222192 0.0169266 9.90892 -1.88969 11 1 
250.667 1.204 9.89981 0.00222022 0.0170134 9.89983 -1.8064 11 1 
252 1.20403 9.89149 0.00203241 0.0168435 9.89151 -1.74821 11 1 
253.333 1.20414 9.87982 0.00218301 0.0170923 9.87984 -1.55749 11 1 
254.667 1.20416 9.87186 0.00215082 0.0171089 9.87187 -1.51556 11 1 
256 1.20418 9.86255 0.00208801 0.0170757 9.86257 -1.48327 11 1 
256 1.20418 9.86255 0.00208801 0.0170757 9.86257 -1.48327 13 1 
257.333 1.20432 9.84906 0.00220246 0.0172537 9.84908 -1.23493 13 1 
258.667 1.20432 9.83945 0.0020625 0.0171812 9.83946 -1.22708 13 1 
260 1.20437 9.82472 0.00201174 0.0171601 9.82474 -1.13843 13 1 
261.333 1.20451 9.80826 0.00214233 0.0173336 9.80828 -0.889143 13 1 
262.667 1.2046 9.79259 0.00212727 0.0174086 9.79261 -0.72348 13 1 
264 1.20458 9.78114 0.00202737 0.0173441 9.78116 -0.759562 13 1 
265.333 1.20473 9.76189 0.00197443 0.0173346 9.76191 -0.4849 13 1 
266.667 1.20496 9.73585 0.00204817 0.0175471 9.73587 -0.0709008 13 1 
268 1.20489 9.7199 0.00201612 0.0175849 9.71992 -0.194709 13 1 
269.333 1.20506 9.6967 0.00199742 0.0175537 9.69672 0.115696 13 1 
270.667 1.20544 9.66345 0.00196608 0.0176136 9.66347 0.789814 13 1 
272 1.20528 9.64927 0.00196119 0.0176937 9.64929 0.512257 13 1 
273.333 1.20555 9.61609 0.0019537 0.0176731 9.61612 0.989253 13 1 
274.667 1.20606 9.57133 0.00192013 0.0176944 9.57136 1.90979 13 1 
276 1.20591 9.54755 0.00193337 0.0177926 9.54759 1.65263 13 1 
277.333 1.20622 9.50008 0.00193685 0.0177934 9.50012 2.20644 13 1 
277.333 1.20622 9.50008 0.00193685 0.0177934 9.50012 2.20644 13 1 
278.667 1.20671 9.45239 0.00195074 0.0177846 9.45243 3.08288 13 1 
280 1.20681 9.40747 0.00196972 0.0178752 9.40751 3.27594 13 1 
281.333 1.20711 9.34688 0.00194945 0.0179379 9.34691 3.80536 13 1 
282.667 1.2075 9.29819 0.00192006 0.0179442 9.29821 4.51677 13 1 
284 1.20802 9.24823 0.00194871 0.0179826 9.24825 5.44853 13 1 
285.333 1.20853 9.1833 0.00196701 0.0179818 9.18338 6.3758 13 1 
286.667 1.20881 9.09411 0.00192901 0.017848 9.0943 6.87335 13 1 
288 1.20913 8.98829 0.00193817 0.0177808 8.98846 7.45844 13 1 
289.333 1.20973 8.9019 0.00193704 0.0178461 8.90198 8.54427 13 1 
290.667 1.21055 8.81861 0.00191321 0.0178599 8.81867 10.0237 13 1 
292 1.21114 8.71986 0.00195861 0.0178219 8.72002 11.0978 13 1 
293.333 1.21149 8.61341 0.0020145 0.0178253 8.61364 11.7273 13 1 
294.667 1.21215 8.49162 0.00198771 0.0177914 8.4921 12.9195 13 1 
296 1.21297 8.37092 0.00200867 0.0177706 8.37132 14.3982 13 1 
297.333 1.21325 8.2822 0.00192782 0.0177165 8.28279 14.8932 13 1 
298.667 1.20657 8.15277 0.00100838 0.0175892 8.3754 2.83088 13 1 
298.667 1.20657 8.15277 0.00100838 0.0175892 8.3754 2.83088 14 1 
300 1.19547 8.15957 -0.00118081 0.0178793 8.4396 -17.2219 14 1 
301.333 1.19145 8.18702 -0.00366481 0.0181142 8.32645 -24.4823 14 1 
302.667 1.19255 8.02655 -0.00583413 0.0180292 8.1354 -22.4886 14 1 
304 1.1936 7.86256 -0.00756777 0.0179259 7.93981 -20.5853 14 1 
305.333 1.19432 7.70991 -0.00906534 0.0178405 7.77076 -19.299 14 1 
306.667 1.19501 7.57421 -0.0103058 0.0177316 7.60901 -18.0507 14 1 
308 1.1956 7.44962 -0.0114368 0.0176812 7.48378 -16.9761 14 1 
309.333 1.19611 7.33864 -0.0125085 0.0176223 7.36937 -16.0661 14 1 
310.667 1.19671 7.24489 -0.0135368 0.0175773 7.27345 -14.979 14 1 
312 1.19717 7.1581 -0.0144932 0.0175204 7.17883 -14.1349 14 1 
313.333 1.19756 7.07666 -0.0154153 0.017439 7.09614 -13.4472 14 1 
314.667 1.19795 6.99934 -0.0162299 0.0174161 7.0182 -12.7345 14 1 
316 1.19823 6.92689 -0.0171107 0.017317 6.94471 -12.2309 14 1 
317.333 1.19851 6.86417 -0.0179525 0.0171968 6.87933 -11.7282 14 1 
318.667 1.19888 6.81 -0.0186961 0.0171987 6.82455 -11.0504 14 1 
320 1.19911 6.7528 -0.0194567 0.0171997 6.76623 -10.6321 14 1 
320 1.19911 6.7528 -0.0194567 0.0171997 6.76623 -10.6321 14 1 
321.333 1.19923 6.6981 -0.0202205 0.0171531 6.7113 -10.4157 14 1 
322.667 1.19947 6.65496 -0.020947 0.0171377 6.66685 -9.99013 14 1 
324 1.19972 6.61071 -0.0216374 0.0171725 6.62208 -9.54155 14 1 
325.333 1.19983 6.56959 -0.0223204 0.017221 6.58044 -9.3326 14 1 
326.667 1.19998 6.54084 -0.022993 0.0172473 6.55126 -9.06005 14 1 
328 1.2002 6.51047 -0.023648 0.0172755 6.52012 -8.67607 14 1 
329.333 1.20033 6.47845 -0.0242853 0.0173131 6.48795 -8.44247 14 1 
330.667 1.20039 6.45021 -0.0249271 0.017334 6.45922 -8.32585 14 1 
332 1.20049 6.42668 -0.0255881 0.0173134 6.4355 -8.14223 14 1 
333.333 1.20068 6.41327 -0.0262133 0.0172908 6.42166 -7.79665 14 1 
334.667 1.20084 6.39554 -0.0268207 0.0172995 6.40369 -7.50984 14 1 
336 1.20084 6.36737 -0.0274765 0.0172796 6.3753 -7.51472 14 1 
337.333 1.20087 6.34753 -0.0281533 0.0171812 6.35539 -7.45969 14 1 
338.667 1.20105 6.337 -0.0287789 0.0171174 6.3446 -7.13838 14 1 
340 1.20121 6.32703 -0.0293638 0.0171258 6.33445 -6.84773 14 1 
341.333 1.20124 6.3098 -0.0300177 0.0170939 6.31697 -6.79162 14 1 
341.333 1.20124 6.3098 -0.0300177 0.0170939 6.31697 -6.79162 15 1 
342.667 1.20122 6.28412 -0.0306995 0.016998 6.29128 -6.83069 15 1 
344 1.20132 6.26934 -0.0313002 0.0169425 6.2764 -6.6556 15 1 
345.333 1.20147 6.26466 -0.0318156 0.0169038 6.27155 -6.38407 15 1 
346.667 1.20151 6.25138 -0.0323888 0.0168338 6.25804 -6.29606 15 1 
348 1.20154 6.23151 -0.0329786 0.0166943 6.23812 -6.249 15 1 
349.333 1.20158 6.21222 -0.0335318 0.0165869 6.21876 -6.17775 15 1 
350.667 1.20165 6.202 -0.0339733 0.0165444 6.20842 -6.05803 15 1 
352 1.20176 6.19802 -0.0343905 0.0164651 6.2042 -5.85857 15 1 
353.333 1.2018 6.18214 -0.034879 0.0163191 6.18825 -5.7886 15 1 
354.667 1.20181 6.16309 -0.0353951 0.0162173 6.1691 -5.76723 15 1 
356 1.20187 6.15424 -0.0357818 0.0161809 6.16013 -5.64809 15 1 
357.333 1.20192 6.14623 -0.0361486 0.0161396 6.15196 -5.55468 15 1 
358.667 1.20198 6.13707 -0.0365706 0.0160356 6.1427 -5.45057 15 1 
360 1.20204 6.127 -0.0370051 0.0159069 6.13249 -5.34147 15 1 
361.333 1.20208 6.11512 -0.0373428 0.0158148 6.12051 -5.28015 15 1 
362.667 1.20213 6.10775 -0.0376348 0.0157523 6.113 -5.18139 15 1 
362.667 1.20213 6.10775 -0.0376348 0.0157523 6.113 -5.18139 15 1 
364 1.20219 6.10256 -0.037954 0.0156446 6.10773 -5.07809 15 1 
365.333 1.20223 6.09558 -0.038307 0.0154696 6.10065 -5.01075 15 1 
366.667 1.20226 6.08792 -0.0385954 0.0152888 6.09287 -4.94744 15 1 
368 1.2023 6.08029 -0.0388479 0.0151543 6.08509 -4.87146 15 1 
369.333 1.20236 6.07569 -0.0391166 0.0150269 6.08044 -4.77181 15 1 
370.667 1.2024 6.0721 -0.0394479 0.01483 6.07679 -4.70257 15 1 
372 1.20243 6.06718 -0.0397893 0.0145587 6.07175 -4.63788 15 1 
373.333 1.20248 6.0628 -0.0400579 0.0143213 6.06724 -4.54589 15 1 
374.667 1.20251 6.05738 -0.0402646 0.014174 6.06178 -4.49694 15 1 
376 1.20254 6.05324 -0.04047 0.0140008 6.05759 -4.44533 15 1 
377.333 1.20258 6.05172 -0.0406695 0.0136996 6.05598 -4.36761 15 1 
378.667 1.20261 6.04794 -0.0408656 0.0133222 6.05211 -4.31702 15 1 
380 1.20265 6.04363 -0.0410286 0.0129634 6.04774 -4.25253 15 1 
381.333 1.20268 6.04064 -0.0411829 0.0126144 6.04469 -4.1948 15 1 
382.667 1.20269 6.03713 -0.0413879 0.012212 6.04115 -4.16376 15 1 
384 1.20273 6.03473 -0.0415997 0.011872 6.03868 -4.10263 15 1 
384 1.20273 6.03473 -0.0415997 0.011872 6.03868 -4.10263 15 1 
385.333 1.20276 6.03232 -0.0417954 0.011688 6.03621 -4.04155 15 1 
386.667 1.20279 6.02827 -0.0420391 0.0115062 6.03211 -3.99644 15 1 
388 1.20282 6.02481 -0.042311 0.011207 6.02863 -3.93939 15 1 
389.333 1.20284 6.0221 -0.0426519 0.0108585 6.02587 -3.8986 15 1 
390.667 1.20286 6.01919 -0.0430963 0.0105249 6.02292 -3.8734 15 1 
392 1.20288 6.01601 -0.0435203 0.0102228 6.0197 -3.82927 15 1 
393.333 1.20291 6.01241 -0.0438808 0.00993449 6.01608 -3.77142 15 1 
394.667 1.20294 6.00879 -0.0442599 0.00972276 6.01242 -3.72635 15 1 
396 1.20296 6.00533 -0.0445528 0.00965645 6.00893 -3.6912 15 1 
397.333 1.20298 6.0021 -0.0446077 0.00963086 6.00568 -3.65273 15 1 
398.667 1.20299 5.99858 -0.0444487 0.0093265 6.00213 -3.62539 15 1 
400 1.20301 5.99459 -0.044263 0.00861902 5.99808 -3.59658 15 1 
401.333 1.20304 5.99141 -0.0442684 0.0077854 5.99486 -3.53738 15 1 
402.667 1.20307 5.98854 -0.0446228 0.0072067 5.99197 -3.48109 15 1 
404 1.20308 5.98446 -0.0452607 0.00699884 5.98787 -3.46293 15 1 
405.333 1.20309 5.97995 -0.0459677 0.00712674 5.98332 -3.45279 15 1 
405.333 1.20309 5.97995 -0.0459677 0.00712674 5.98332 -3.45279 15 1 
406.667 1.20311 5.97612 -0.0465601 0.00740076 5.97944 -3.41559 15 1 
408 1.20314 5.97278 -0.0470262 0.00752977 5.97608 -3.36597 15 1 
409.333 1.20316 5.96924 -0.0473778 0.00740112 5.97252 -3.33017 15 1 
410.667 1.20317 5.96503 -0.0476333 0.00717794 5.96826 -3.30162 15 1 
412 1.20319 5.96107 -0.047823 0.00696526 5.96428 -3.26167 15 1 
413.333 1.20322 5.95777 -0.0480132 0.00669964 5.96094 -3.21921 15 1 
414.667 1.20323 5.95367 -0.0482488 0.00634315 5.95681 -3.19741 15 1 
416 1.20324 5.949 -0.0485056 0.00603126 5.95211 -3.17922 15 1 
417.333 1.20326 5.94539 -0.0487156 0.00579841 5.94848 -3.14024 15 1 
418.667 1.20328 5.94213 -0.0489232 0.00555555 5.94518 -3.10162 15 1 
420 1.2033 5.938 -0.0491645 0.00528544 5.94102 -3.07186 15 1 
421.333 1.20332 5.93389 -0.0494181 0.00505032 5.93689 -3.03868 15 1 
422.667 1.20333 5.93034 -0.0496511 0.00482647 5.93331 -3.00744 15 1 
424 1.20335 5.92682 -0.0498947 0.00460042 5.92975 -2.98136 15 1 
425.333 1.20337 5.92318 -0.0501512 0.00440199 5.92609 -2.95128 15 1 
426.667 1.20339 5.91964 -0.0503922 0.00423322 5.92252 -2.91346 15 1 
426.667 1.20339 5.91964 -0.0503922 0.00423322 5.92252 -2.91346 20 1 
428 1.20341 5.91637 -0.0506174 0.00404819 5.91922 -2.87874 20 1 
429.333 1.20342 5.91331 -0.0508519 0.00387732 5.91613 -2.85022 20 1 
430.667 1.20344 5.91025 -0.0510675 0.00374341 5.91305 -2.82231 20 1 
432 1.20345 5.90728 -0.0512846 0.00360097 5.91005 -2.79649 20 1 
433.333 1.20347 5.90461 -0.0515135 0.0034349 5.90735 -2.76371 20 1 
434.667 1.20349 5.90241 -0.0517371 0.00328892 5.90512 -2.72227 20 1 
436 1.20351 5.90026 -0.0519608 0.00313207 5.90296 -2.68902 20 1 
437.333 1.20352 5.89803 -0.0521916 0.00296052 5.9007 -2.66603 20 1 
438.667 1.20354 5.89627 -0.052385 0.00281411 5.89892 -2.6374 20 1 
440 1.20356 5.89478 -0.0525733 0.00268887 5.89742 -2.59844 20 1 
441.333 1.20358 5.89332 -0.0527815 0.00252006 5.89594 -2.56336 20 1 
442.667 1.2036 5.89228 -0.0529922 0.00231012 5.89488 -2.53272 20 1 
444 1.20362 5.89138 -0.053187 0.00211404 5.89395 -2.49914 20 1 
445.333 1.20363 5.89027 -0.0533853 0.00193994 5.89283 -2.47167 20 1 
446.667 1.20365 5.88954 -0.0535809 0.00173671 5.89208 -2.44562 20 1 
448 1.20367 5.88933 -0.053756 0.00150584 5.89184 -2.40974 20 1 
448 1.20367 5.88933 -0.053756 0.00150584 5.89184 -2.40974 20 1 
449.333 1.20369 5.8891 -0.0539223 0.00127441 5.8916 -2.37305 20 1 
450.667 1.2037 5.8889 -0.0540919 0.00104253 5.89139 -2.34108 20 1 
452 1.20372 5.88895 -0.0542292 0.000805951 5.89142 -2.31073 20 1 
453.333 1.20374 5.8891 -0.0543688 0.000554809 5.89154 -2.27851 20 1 
454.667 1.20376 5.88948 -0.0545346 0.000270044 5.89191 -2.23917 20 1 
456 1.20378 5.89018 -0.0546849 -9.18098e-06 5.89258 -2.20124 20 1 
457.333 1.20379 5.89072 -0.054799 -0.000288605 5.8931 -2.17651 20 1 
458.667 1.20381 5.89105 -0.0549191 -0.000596635 5.89342 -2.15672 20 1 
460 1.20382 5.89186 -0.0550312 -0.000885058 5.8942 -2.12636 20 1 
461.333 1.20385 5.89313 -0.0551268 -0.00116308 5.89545 -2.08605 20 1 
462.667 1.20387 5.89432 -0.0552205 -0.00149401 5.89663 -2.04814 20 1 
464 1.20389 5.89547 -0.0553134 -0.00183424 5.89776 -2.01131 20 1 
465.333 1.20391 5.89667 -0.0553857 -0.00213099 5.89894 -1.97593 20 1 
466.667 1.20392 5.89781 -0.0554484 -0.00243296 5.90006 -1.95098 20 1 
468 1.20393 5.89918 -0.0555248 -0.00278694 5.90142 -1.92473 20 1 
469.333 1.20395 5.90072 -0.0556041 -0.00315263 5.90293 -1.89514 20 1 
469.333 1.20395 5.90072 -0.0556041 -0.00315263 5.90293 -1.89514 20 1 
470.667 1.20396 5.90178 -0.0556564 -0.003489 5.90397 -1.87334 20 1 
472 1.20398 5.90287 -0.055701 -0.00381918 5.90505 -1.84507 20 1 
473.333 1.204 5.90472 -0.0557495 -0.00416088 5.90689 -1.80142 20 1 
474.667 1.20403 5.90644 -0.0557886 -0.00449959 5.90858 -1.75819 20 1 
476 1.20404 5.90759 -0.0558126 -0.00484292 5.90971 -1.72738 20 1 
477.333 1.20406 5.90867 -0.0558452 -0.00519651 5.91078 -1.70576 20 1 
478.667 1.20407 5.90969 -0.0558937 -0.00555068 5.91178 -1.68778 20 1 
480 1.20408 5.91058 -0.0559363 -0.00591862 5.91266 -1.66748 20 1 
481.333 1.20409 5.91163 -0.0559654 -0.00628122 5.91368 -1.63705 20 1 
482.667 1.20412 5.91278 -0.0559963 -0.00662219 5.91481 -1.59804 20 1 
484 1.20414 5.91369 -0.0560227 -0.00697887 5.91572 -1.55969 20 1 
485.333 1.20415 5.9144 -0.0560538 -0.00734612 5.91641 -1.52941 20 1 
486.667 1.20417 5.91494 -0.0561026 -0.00769687 5.91693 -1.50602 20 1 
488 1.20418 5.91527 -0.0561623 -0.00805327 5.91725 -1.48641 20 1 
489.333 1.20419 5.91566 -0.0562117 -0.00843222 5.91762 -1.4657 20 1 
490.667 1.2042 5.91607 -0.0562558 -0.00879559 5.91802 -1.4373 20 1 
490.667 1.2042 5.91607 -0.0562558 -0.00879559 5.91802 -1.4373 20 1 
492 1.20422 5.91623 -0.056309 -0.00913556 5.91816 -1.40627 20 1 
493.333 1.20424 5.91629 -0.056385 -0.00950391 5.91821 -1.37663 20 1 
494.667 1.20426 5.91669 -0.0564735 -0.00989496 5.9186 -1.34442 20 1 
496 1.20427 5.91705 -0.0565671 -0.0102675 5.91895 -1.31284 20 1 
497.333 1.20428 5.91676 -0.0566575 -0.0106278 5.91865 -1.29368 20 1 
498.667 1.20429 5.91633 -0.0567351 -0.0109924 5.91821 -1.28348 20 1 
500 1.2043 5.91632 -0.0568243 -0.0113578 5.91819 -1.26167 20 1 
501.333 1.20432 5.91647 -0.0569371 -0.0117217 5.91833 -1.22639 20 1 
502.667 1.20434 5.91649 -0.0570604 -0.012103 5.91836 -1.19041 20 1 
504 1.20436 5.9164 -0.0571903 -0.0124903 5.91826 -1.16089 20 1 
505.333 1.20437 5.91603 -0.0573187 -0.0128751 5.91789 -1.14299 20 1 
506.667 1.20437 5.91565 -0.0574296 -0.0132426 5.9175 -1.13109 20 1 
508 1.20439 5.91563 -0.0575223 -0.0135857 5.91748 -1.1093 20 1 
509.333 1.2044 5.91556 -0.0576288 -0.0139439 5.91741 -1.07866 20 1 
510.667 1.20442 5.91537 -0.0577512 -0.014343 5.91721 -1.05279 20 1 
512 1.20443 5.91531 -0.0578699 -0.0147308 5.91715 -1.02703 20 1 
512 1.20443 5.91531 -0.0578699 -0.0147308 5.91715 -1.02703 21 1 
513.333 1.20445 5.91537 -0.0579954 -0.0150812 5.91721 -0.996218 21 1 
514.667 1.20446 5.91544 -0.0581191 -0.0154436 5.91728 -0.970603 21 1 
516 1.20447 5.91543 -0.0582151 -0.0158084 5.91726 -0.953292 21 1 
517.333 1.20448 5.91548 -0.058313 -0.0161424 5.91731 -0.937653 21 1 
518.667 1.20449 5.91566 -0.0584154 -0.0164747 5.91749 -0.916236 21 1 
520 1.20451 5.91601 -0.0585043 -0.016807 5.91784 -0.888003 21 1 
521.333 1.20452 5.9167 -0.0585885 -0.0171309 5.91852 -0.858602 21 1 
522.667 1.20454 5.91747 -0.058691 -0.0174517 5.91929 -0.832041 21 1 
524 1.20455 5.91815 -0.0587868 -0.0177855 5.91997 -0.806449 21 1 
525.333 1.20457 5.91895 -0.058843 -0.0181015 5.92076 -0.780635 21 1 
526.667 1.20458 5.91983 -0.0588951 -0.0183819 5.92163 -0.761959 21 1 
528 1.20459 5.92079 -0.0589626 -0.0186679 5.92258 -0.748514 21 1 
529.333 1.2046 5.92199 -0.0590064 -0.01896 5.92378 -0.72859 21 1 
530.667 1.20461 5.92329 -0.059023 -0.0192486 5.92508 -0.70023 21 1 
532 1.20463 5.92478 -0.0590621 -0.0195483 5.92655 -0.666977 21 1 
533.333 1.20465 5.92642 -0.0591053 -0.019837 5.92819 -0.638178 21 1 
533.333 1.20465 5.92642 -0.0591053 -0.019837 5.92819 -0.638178 21 1 
534.667 1.20466 5.92785 -0.05912 -0.0201113 5.92961 -0.621047 21 1 
536 1.20467 5.92938 -0.0591152 -0.0203937 5.93113 -0.603164 21 1 
537.333 1.20468 5.93127 -0.0591 -0.0206902 5.93301 -0.574731 21 1 
538.667 1.2047 5.93313 -0.059069 -0.0209758 5.93487 -0.54893 21 1 
540 1.20471 5.93482 -0.0590239 -0.0212762 5.93655 -0.530765 21 1 
541.333 1.20472 5.93663 -0.058982 -0.021584 5.93836 -0.509282 21 1 
542.667 1.20473 5.93875 -0.058926 -0.0218756 5.94047 -0.483342 21 1 
544 1.20475 5.94078 -0.058871 -0.0221868 5.94249 -0.45829 21 1 
545.333 1.20476 5.94245 -0.058809 -0.0225249 5.94416 -0.438299 21 1 
546.667 1.20477 5.94413 -0.0587381 -0.0228739 5.94583 -0.416582 21 1 
548 1.20479 5.94609 -0.0586731 -0.0231973 5.94778 -0.387261 21 1 
549.333 1.2048 5.94825 -0.0586101 -0.0235015 5.94994 -0.357524 21 1 
550.667 1.20481 5.95017 -0.0585485 -0.0238047 5.95184 -0.336222 21 1 
552 1.20482 5.95173 -0.0584652 -0.0240735 5.9534 -0.32856 21 1 
553.333 1.20482 5.95343 -0.0583627 -0.0243444 5.95509 -0.317808 21 1 
554.667 1.20484 5.95537 -0.0582528 -0.0246216 5.95702 -0.293884 21 1 
554.667 1.20484 5.95537 -0.0582528 -0.0246216 5.95702 -0.293884 22 1 
556 1.20485 5.9572 -0.0581303 -0.0249011 5.95884 -0.266725 22 1 
557.333 1.20487 5.95884 -0.0580124 -0.0251757 5.96048 -0.23915 22 1 
558.667 1.20488 5.96031 -0.0579172 -0.0254555 5.96193 -0.21823 22 1 
560 1.20489 5.96156 -0.0578449 -0.0257308 5.96317 -0.202499 22 1 
561.333 1.2049 5.96288 -0.0577813 -0.0259786 5.96448 -0.185169 22 1 
562.667 1.2049 5.96431 -0.0577269 -0.0262236 5.96591 -0.171865 22 1 
564 1.20491 5.96567 -0.0576751 -0.0264559 5.96727 -0.161345 22 1 
565.333 1.20492 5.96711 -0.0576174 -0.0266818 5.96869 -0.145632 22 1 
566.667 1.20493 5.96878 -0.0575596 -0.0268949 5.97035 -0.1241 22 1 
568 1.20494 5.97071 -0.0574911 -0.0270941 5.97227 -0.102254 22 1 
569.333 1.20495 5.97269 -0.0574235 -0.0272992 5.97425 -0.0838357 22 1 
570.667 1.20496 5.97468 -0.0573491 -0.0274735 5.97622 -0.0675482 22 1 
572 1.20497 5.97675 -0.057267 -0.0276477 5.97829 -0.0516091 22 1 
573.333 1.20498 5.97899 -0.0571922 -0.0278061 5.98052 -0.0386663 22 1 
574.667 1.20499 5.98157 -0.0571025 -0.0279489 5.98309 -0.0245356 22 1 
576 1.205 5.98436 -0.0570052 -0.028089 5.98586 -0.00824307 22 1 
576 1.205 5.98436 -0.0570052 -0.028089 5.98586 -0.00824307 22 1 
577.333 1.205 5.98713 -0.0568849 -0.0282243 5.98862 0.00645284 22 1 
578.667 1.20501 5.98998 -0.0567356 -0.0283652 5.99146 0.0238793 22 1 
580 1.20502 5.99292 -0.0565778 -0.0284993 5.99439 0.0383908 22 1 
581.333 1.20503 5.99577 -0.0564227 -0.0286393 5.99722 0.0501946 22 1 
582.667 1.20504 5.99858 -0.0562883 -0.0287623 6.00002 0.0650844 22 1 
584 1.20505 6.00153 -0.0561704 -0.0288767 6.00296 0.0823376 22 1 
585.333 1.20506 6.00459 -0.0560726 -0.0289867 6.00601 0.101868 22 1 
586.667 1.20506 6.00775 -0.0559728 -0.0290723 6.00917 0.114161 22 1 
588 1.20507 6.0109 -0.0558463 -0.0291704 6.01231 0.118328 22 1 
589.333 1.20507 6.01407 -0.0556867 -0.0292769 6.01546 0.12529 22 1 
590.667 1.20508 6.0172 -0.0555008 -0.0294182 6.01859 0.139794 22 1 
592 1.20509 6.02012 -0.0553272 -0.0295531 6.02149 0.154698 22 1 
593.333 1.20509 6.02278 -0.0551775 -0.0296787 6.02415 0.164768 22 1 
594.667 1.2051 6.02525 -0.0550979 -0.0297969 6.02661 0.174384 22 1 
596 1.2051 6.02795 -0.0550885 -0.0298691 6.02931 0.185424 22 1 
597.333 1.20511 6.03102 -0.055124 -0.0299441 6.03238 0.198632 22 1 
597.333 1.20511 6.03102 -0.055124 -0.0299441 6.03238 0.198632 24 1 
598.667 1.20512 6.03441 -0.0551755 -0.0300236 6.03577 0.209294 24 1 
600 1.20512 6.03801 -0.0551938 -0.0301258 6.03937 0.216785 24 1 
601.333 1.20512 6.04162 -0.0551644 -0.0302463 6.04298 0.2218 24 1 
602.667 1.20512 6.04522 -0.0550587 -0.0303715 6.04657 0.223583 24 1 
604 1.20513 6.04868 -0.0549027 -0.0304869 6.05002 0.231414 24 1 
605.333 1.20514 6.0521 -0.0547551 -0.0305558 6.05344 0.247246 24 1 
606.667 1.20515 6.05559 -0.054681 -0.0306032 6.05692 0.264912 24 1 
608 1.20515 6.05927 -0.0547199 -0.0306192 6.0606 0.275094 24 1 
609.333 1.20515 6.06345 -0.0548346 -0.0306339 6.06479 0.278744 24 1 
610.667 1.20516 6.0683 -0.0549688 -0.0306639 6.06964 0.281793 24 1 
612 1.20516 6.07377 -0.0550478 -0.0307054 6.0751 0.282944 24 1 
613.333 1.20516 6.07954 -0.0550434 -0.0307692 6.08087 0.292922 24 1 
614.667 1.20517 6.08539 -0.0549438 -0.0308579 6.08672 0.31132 24 1 
616 1.20518 6.09097 -0.0547756 -0.0309703 6.09229 0.324527 24 1 
617.333 1.20518 6.09607 -0.0545666 -0.0310458 6.09738 0.328751 24 1 
618.667 1.20518 6.10088 -0.0543519 -0.0310606 6.10218 0.327402 24 1 
618.667 1.20518 6.10088 -0.0543519 -0.0310606 6.10218 0.327402 24 1 
620 1.20518 6.10579 -0.0541904 -0.0310012 6.10708 0.330706 24 1 
621.333 1.20519 6.11125 -0.0541229 -0.0308934 6.11253 0.342693 24 1 
622.667 1.2052 6.11758 -0.0541581 -0.0307819 6.11885 0.358454 24 1 
624 1.20521 6.12473 -0.0542325 -0.0306991 6.126 0.370782 24 1 
625.333 1.20521 6.13239 -0.0542401 -0.0306686 6.13366 0.374238 24 1 
626.667 1.20521 6.14027 -0.0540796 -0.0306755 6.14152 0.374146 24 1 
628 1.20521 6.14802 -0.0536878 -0.0306936 6.14925 0.378825 24 1 
629.333 1.20521 6.15505 -0.0530972 -0.0306881 6.15626 0.388267 24 1 
630.667 1.20522 6.16119 -0.0523723 -0.0306472 6.16238 0.399034 24 1 
632 1.20523 6.16643 -0.0516005 -0.0305521 6.16758 0.410728 24 1 
633.333 1.20523 6.17079 -0.0508412 -0.0303812 6.17191 0.419762 24 1 
634.667 1.20524 6.17451 -0.0500584 -0.0301662 6.1756 0.425551 24 1 
636 1.20524 6.17747 -0.0491213 -0.0299289 6.17852 0.43056 24 1 
637.333 1.20524 6.17922 -0.0478093 -0.0296633 6.18022 0.434835 24 1 
638.667 1.20525 6.17866 -0.0458226 -0.0293113 6.17959 0.443032 24 1 
640 1.20525 6.17449 -0.0428841 -0.0287671 6.17532 0.457058 24 1 
640 1.20525 6.17449 -0.0428841 -0.0287671 6.17532 0.457058 24 1 
641.333 1.20526 6.16545 -0.0389414 -0.0279277 6.16617 0.476487 24 1 
642.667 1.20527 6.15079 -0.034306 -0.026774 6.15138 0.494383 24 1 
644 1.20528 6.13075 -0.0296518 -0.0253278 6.13122 0.502294 24 1 
645.333 1.20528 6.10701 -0.0257757 -0.0236923 6.10739 0.502204 24 1 
646.667 1.20528 6.08266 -0.023258 -0.0220364 6.08298 0.501377 24 1 
648 1.20528 6.06079 -0.0222964 -0.0205349 6.06107 0.508055 24 1 
649.333 1.20529 6.04379 -0.0225972 -0.0192907 6.04406 0.521382 24 1 
650.667 1.20529 6.03275 -0.0234847 -0.0182482 6.03302 0.532305 24 1 
652 1.2053 6.02708 -0.0242118 -0.0173277 6.02735 0.535467 24 1 
653.333 1.20529 6.02544 -0.0242346 -0.0164975 6.02571 0.528847 24 1 
654.667 1.20529 6.02596 -0.0232581 -0.0156981 6.02621 0.52225 24 1 
656 1.20529 6.02613 -0.0211163 -0.0148518 6.02633 0.530534 24 1 
657.333 1.2053 6.0238 -0.0176658 -0.0138275 6.02396 0.546157 24 1 
658.667 1.20531 6.01646 -0.013054 -0.0126863 6.01656 0.562683 24 1 
660 1.20532 6.0016 -0.00796877 -0.011778 6.00167 0.578705 24 1 
661.333 1.20532 5.97799 -0.0035164 -0.011451 5.97803 0.584191 24 1 
661.333 1.20532 5.97799 -0.0035164 -0.011451 5.97803 0.584191 24 1 
662.667 1.20532 5.94535 -0.000631208 -0.011773 5.94538 0.581047 24 1 
664 1.20532 5.90591 0.00046445 -0.0124461 5.90595 0.572658 24 1 
665.333 1.20531 5.86303 0.000260485 -0.0129417 5.86307 0.562877 24 1 
666.667 1.20531 5.82025 -0.000571813 -0.0129023 5.8203 0.551078 24 1 
668 1.2053 5.78087 -0.00157123 -0.0123039 5.78091 0.539132 24 1 
669.333 1.20529 5.74681 -0.00258606 -0.0112956 5.74686 0.532776 24 1 
670.667 1.20529 5.71932 -0.00359962 -0.0100972 5.71936 0.519516 24 1 
672 1.20528 5.69852 -0.00462384 -0.00887374 5.69855 0.505837 24 1 
673.333 1.20528 5.68439 -0.00564901 -0.00769667 5.68442 0.500065 24 1 
674.667 1.20528 5.67667 -0.00663314 -0.00660631 5.67671 0.501752 24 1 
676 1.20528 5.6747 -0.00757208 -0.00560073 5.67473 0.50721 24 1 
677.333 1.20528 5.67798 -0.00842282 -0.00467703 5.67802 0.501686 24 1 
678.667 1.20527 5.68573 -0.00918427 -0.00385409 5.68577 0.493336 24 1 
680 1.20527 5.69783 -0.00985054 -0.00309092 5.69787 0.490048 24 1 
681.333 1.20528 5.714 -0.0103959 -0.00237499 5.71405 0.506336 24 1 
682.667 1.2053 5.73368 -0.0108504 -0.00172112 5.73373 0.541241 24 1 
682.667 1.2053 5.73368 -0.0108504 -0.00172112 5.73373 0.541241 31 1 
684 1.20532 5.75641 -0.0112057 -0.00106335 5.75646 0.569276 31 1 
685.333 1.20532 5.78139 -0.0114486 -0.000429729 5.78145 0.582034 31 1 
686.667 1.20532 5.80876 -0.0115823 0.000149505 5.80881 0.579301 31 1 
688 1.20533 5.83832 -0.0116185 0.000733479 5.83838 0.587302 31 1 
689.333 1.20534 5.87005 -0.0115675 0.00129832 5.8701 0.615929 31 1 
690.667 1.20536 5.9038 -0.0114249 0.00182102 5.90385 0.655822 31 1 
692 1.20538 5.93875 -0.011211 0.00237028 5.9388 0.691487 31 1 
693.333 1.20539 5.97496 -0.010953 0.00286283 5.97502 0.703483 31 1 
694.667 1.2054 6.01213 -0.0106098 0.00334193 6.01218 0.715306 31 1 
696 1.20541 6.05062 -0.0101861 0.00379874 6.05066 0.738786 31 1 
697.333 1.20543 6.09033 -0.00971912 0.00424842 6.09037 0.778094 31 1 
698.667 1.20545 6.13065 -0.00919785 0.00473318 6.13069 0.820484 31 1 
700 1.20547 6.17153 -0.00862267 0.00515735 6.17157 0.846236 31 1 
701.333 1.20548 6.2127 -0.00802059 0.00559113 6.21274 0.868243 31 1 
702.667 1.20549 6.2546 -0.00739953 0.00600504 6.25463 0.884069 31 1 
704 1.20551 6.2969 -0.00674417 0.00636916 6.29693 0.913363 31 1 
704 1.20551 6.2969 -0.00674417 0.00636916 6.29693 0.913363 31 1 
705.333 1.20553 6.3396 -0.0060539 0.00675633 6.33963 0.953105 31 1 
706.667 1.20554 6.38273 -0.00536144 0.00713084 6.38276 0.98374 31 1 
708 1.20556 6.42589 -0.0046746 0.00746877 6.42592 1.01672 31 1 
709.333 1.20558 6.46933 -0.00396714 0.00778672 6.46936 1.04698 31 1 
710.667 1.2056 6.51286 -0.00329902 0.00807717 6.51289 1.08172 31 1 
712 1.20562 6.55652 -0.00262011 0.00836692 6.55655 1.11456 31 1 
713.333 1.20563 6.60038 -0.00190166 0.00865571 6.60041 1.13741 31 1 
714.667 1.20564 6.64403 -0.00119902 0.00893222 6.64405 1.16448 31 1 
716 1.20566 6.68789 -0.000526666 0.00918955 6.68792 1.1864 31 1 
717.333 1.20567 6.73196 0.000124794 0.0093915 6.73198 1.21724 31 1 
718.667 1.2057 6.77605 0.000748056 0.00958558 6.77607 1.25932 31 1 
720 1.20571 6.82011 0.00134277 0.00976139 6.82013 1.28614 31 1 
721.333 1.20572 6.86393 0.00194153 0.00990454 6.86396 1.30296 31 1 
722.667 1.20573 6.90778 0.00252798 0.0100637 6.90781 1.31648 31 1 
724 1.20574 6.95166 0.00311132 0.010187 6.95169 1.34331 31 1 
725.333 1.20576 6.99566 0.00366827 0.0102941 6.99569 1.37709 31 1 
725.333 1.20576 6.99566 0.00366827 0.0102941 6.99569 1.37709 31 1 
726.667 1.20578 7.03945 0.0041798 0.0103923 7.03947 1.40392 31 1 
728 1.20579 7.08309 0.00468533 0.0104698 7.08312 1.42161 31 1 
729.333 1.20579 7.12637 0.00516148 0.010519 7.1264 1.42941 31 1 
730.667 1.20579 7.16972 0.00562047 0.0105335 7.16975 1.43469 31 1 
732 1.20581 7.2131 0.00611045 0.0106219 7.21313 1.45616 31 1 
733.333 1.20583 7.25617 0.00654542 0.0106169 7.2562 1.49563 31 1 
734.667 1.20584 7.29967 0.00692283 0.0105644 7.2997 1.52042 31 1 
736 1.20585 7.3425 0.0072857 0.0105875 7.34253 1.53764 31 1 
737.333 1.20586 7.38467 0.00761319 0.0104983 7.3847 1.5515 31 1 
738.667 1.20586 7.42682 0.00798439 0.0104699 7.42685 1.55515 31 1 
740 1.20587 7.46895 0.00836273 0.0104881 7.46899 1.56755 31 1 
741.333 1.20589 7.51086 0.0086435 0.010313 7.51089 1.60424 31 1 
742.667 1.20591 7.5525 0.00894258 0.0102475 7.55253 1.6385 31 1 
744 1.20592 7.59378 0.00920816 0.0101922 7.59381 1.65806 31 1 
745.333 1.20593 7.63462 0.00939604 0.0100128 7.63466 1.67675 31 1 
746.667 1.20594 7.67487 0.00965289 0.00984747 7.6749 1.70376 31 1 
746.667 1.20594 7.67487 0.00965289 0.00984747 7.6749 1.70376 31 1 
748 1.20595 7.71545 0.00988077 0.0097155 7.71548 1.71974 31 1 
749.333 1.20597 7.75535 0.0100419 0.00958587 7.75538 1.75593 31 1 
750.667 1.206 7.79468 0.0102468 0.00937539 7.79471 1.80087 31 1 
752 1.20601 7.83423 0.0104368 0.00922483 7.83426 1.81727 31 1 
753.333 1.20602 7.87262 0.0105255 0.00904366 7.87265 1.84171 31 1 
754.667 1.20603 7.91137 0.0106958 0.00882025 7.9114 1.86638 31 1 
756 1.20606 7.94912 0.010891 0.00865955 7.94915 1.9132 31 1 
757.333 1.20607 7.98726 0.0110232 0.00844707 7.98729 1.93534 31 1 
758.667 1.20609 8.02437 0.0110726 0.0082018 8.0244 1.97635 31 1 
760 1.20611 8.06136 0.0111718 0.00792801 8.06139 2.01408 31 1 
761.333 1.20612 8.09829 0.0112779 0.00766906 8.09832 2.02582 31 1 
762.667 1.20614 8.13379 0.0113097 0.00747728 8.13382 2.05562 31 1 
764 1.20615 8.17013 0.0114095 0.00722896 8.17016 2.08582 31 1 
765.333 1.20618 8.2057 0.0114622 0.00690333 8.20572 2.12745 31 1 
766.667 1.20619 8.24096 0.0114775 0.00665004 8.24099 2.15401 31 1 
768 1.20621 8.27581 0.0115176 0.00648369 8.27584 2.19433 31 1 
768 1.20621 8.27581 0.0115176 0.00648369 8.27584 2.19433 32 1 
769.333 1.20623 8.31053 0.0115724 0.00617796 8.31055 2.22687 32 1 
770.667 1.20624 8.34448 0.0115502 0.00581735 8.3445 2.24812 32 1 
772 1.20626 8.37831 0.0115649 0.0055722 8.37834 2.27659 32 1 
773.333 1.20628 8.41175 0.0116592 0.00544903 8.41177 2.32 32 1 
774.667 1.20631 8.44551 0.0116728 0.00516604 8.44554 2.35979 32 1 
776 1.20634 8.47874 0.0115799 0.00476752 8.47876 2.42005 32 1 
777.333 1.20637 8.5112 0.0115654 0.00456928 8.51122 2.47599 32 1 
778.667 1.20638 8.54504 0.0115019 0.00434838 8.54506 2.49217 32 1 
780 1.20643 8.57617 0.011542 0.00414631 8.57619 2.58456 32 1 
781.333 1.20645 8.60861 0.0118051 0.00393244 8.60863 2.62314 32 1 
782.667 1.20647 8.64081 0.0119819 0.00393888 8.64083 2.65461 32 1 
784 1.20653 8.67186 0.0120003 0.00374261 8.67188 2.75902 32 1 
785.333 1.20657 8.70414 0.0117055 0.00318207 8.70416 2.82917 32 1 
786.667 1.2066 8.73504 0.0115157 0.00281243 8.73506 2.88912 32 1 
788 1.20664 8.76588 0.0119307 0.00281571 8.7659 2.96642 32 1 
789.333 1.20669 8.79746 0.0124666 0.00296823 8.79748 3.05493 32 1 
790.667 1.20675 8.82803 0.0126635 0.00282656 8.82805 3.15751 32 1 
792 1.20679 8.85719 0.0127442 0.00256326 8.85721 3.24114 32 1 
793.333 1.20682 8.88801 0.0129836 0.00256247 8.88803 3.27992 32 1 
794.667 1.2069 8.91713 0.0133407 0.00261119 8.91715 3.42555 32 1 
796 1.20696 8.94767 0.0133667 0.00206771 8.94769 3.54364 32 1 
797.333 1.20701 8.97541 0.0140413 0.00236528 8.97543 3.62919 32 1 
798.667 1.20702 9.00534 0.0149588 0.00319085 9.00536 3.65272 32 1 
800 1.20699 9.02464 0.0150541 0.00326463 9.02466 3.59017 32 1 
