3.62259;r ;Density                 ;Velocity u              ;Velocity v              ;Velocity w              ;|Velocity|              ;Pressure                ;Distribution            ;Levels                  ;
0 1.205 10 -1.64729e-14 2.107e-14 10 -6.70561e-12 1 1 
1.33334 1.205 10 -1.69198e-14 8.9707e-15 10 -7.03787e-12 1 1 
2.66666 1.205 10 1.07265e-14 -4.69286e-15 10 -5.92027e-12 1 1 
4 1.205 10 9.19416e-15 -1.40147e-14 10 -6.1015e-12 1 1 
5.33334 1.205 10 -1.70475e-14 -1.95376e-14 10 -8.81999e-12 1 1 
6.66666 1.205 10 -8.81107e-15 4.78863e-15 10 -8.39711e-12 1 1 
8 1.205 10 -1.17162e-14 2.81571e-14 10 -6.94725e-12 1 1 
9.33334 1.205 10 -1.05988e-14 2.00803e-14 10 -6.55458e-12 1 1 
10.6667 1.205 10 -1.91864e-14 1.8963e-14 10 -7.03787e-12 1 1 
12 1.205 10 -3.10303e-14 2.18361e-14 10 -7.37013e-12 1 1 
13.3333 1.205 10 -3.52762e-14 -1.42701e-14 10 -7.43054e-12 1 1 
14.6667 1.205 10 -4.56835e-14 -4.88759e-14 10 -8.36691e-12 1 1 
16 1.205 10 -2.58586e-14 -5.97301e-14 10 -8.06485e-12 1 1 
17.3333 1.205 10 1.93141e-14 -4.61624e-14 10 -8.36691e-12 1 1 
18.6667 1.205 10 5.16214e-14 -1.60259e-14 10 -7.88362e-12 1 1 
20 1.205 10 4.79501e-14 -1.012e-14 10 -6.19211e-12 1 1 
21.3333 1.205 10 2.42624e-14 -1.62494e-14 10 -7.00766e-12 1 1 
21.3333 1.205 10 2.42624e-14 -1.62494e-14 10 -7.00766e-12 1 1 
22.6667 1.205 10 1.22908e-14 -4.91633e-15 10 -6.49417e-12 1 1 
24 1.205 10 1.33443e-14 2.52201e-15 10 -8.94081e-12 1 1 
25.3333 1.205 10 1.20673e-14 -1.7271e-14 10 -1.09948e-11 1 1 
26.6667 1.205 10 1.29293e-14 7.85335e-15 10 -9.4241e-12 1 1 
28 1.205 10 8.93876e-16 -2.93702e-15 10 -8.75958e-12 1 1 
29.3333 1.205 10 -8.30029e-16 -3.68724e-14 10 -7.94403e-12 1 1 
30.6667 1.205 10 5.42711e-16 1.62813e-15 10 -8.09506e-12 1 1 
32 1.205 10 9.25801e-16 1.67283e-14 10 -8.66896e-12 1 1 
33.3333 1.205 10 -1.45519e-10 -1.45974e-10 10 3.19166e-05 1 1 
34.6667 1.205 10 -7.70069e-09 -6.67706e-09 10 -4.95626e-05 1 1 
36 1.205 10 -5.64091e-09 -3.8583e-09 10 -7.14181e-05 1 1 
37.3333 1.205 10 4.31985e-08 3.93247e-08 10 0.00020351 1 1 
38.6667 1.205 9.99999 4.50505e-08 3.41934e-08 9.99999 2.98481e-05 1 1 
40 1.205 10 -1.00613e-07 -9.63021e-08 10 -0.000513832 1 1 
41.3333 1.205 10 -9.1306e-08 -6.77092e-08 10 0.000393836 1 1 
42.6667 1.205 10 2.60809e-07 2.54058e-07 10 0.000721254 1 1 
42.6667 1.205 10 2.60809e-07 2.54058e-07 10 0.000721254 2 1 
44 1.205 9.99998 1.44055e-07 1.03122e-07 9.99998 -0.00142044 2 1 
45.3333 1.205 10 -5.1375e-07 -5.03307e-07 10 -0.000189761 2 1 
46.6667 1.205 10 -2.20679e-07 -1.60531e-07 10 0.00248757 2 1 
48 1.205 9.99997 7.38712e-07 7.15901e-07 9.99997 -0.0013617 2 1 
49.3333 1.205 9.99997 1.36405e-07 8.08477e-08 9.99997 -0.00251537 2 1 
50.6667 1.205 10 -7.72598e-07 -7.17914e-07 10 0.00331749 2 1 
52 1.205 10 1.85341e-07 2.26248e-07 10 0.000735982 2 1 
53.3333 1.205 9.99996 5.42613e-07 4.56659e-07 9.99996 -0.00424651 2 1 
54.6667 1.205 10 -5.5084e-07 -5.63836e-07 10 0.00215682 2 1 
56 1.205 10 -1.94887e-07 -1.28512e-07 10 0.00296035 2 1 
57.3333 1.205 9.99998 7.05138e-07 6.48548e-07 9.99998 -0.00431131 2 1 
58.6667 1.205 10 -2.91705e-07 -2.82162e-07 10 -5.15037e-05 2 1 
60 1.205 10.0001 -3.32238e-07 -2.20225e-07 10.0001 0.00467529 2 1 
61.3333 1.205 9.99995 4.26918e-07 3.66069e-07 9.99995 -0.00265899 2 1 
62.6667 1.205 9.99991 -8.73524e-08 -1.97475e-07 9.99991 -0.00296814 2 1 
64 1.205 9.99997 4.04452e-08 1.47361e-07 9.99997 0.00445383 2 1 
64 1.205 9.99997 4.04452e-08 1.47361e-07 9.99997 0.00445383 2 1 
65.3333 1.205 9.99994 2.0559e-07 1.62537e-07 9.99994 -0.000696499 2 1 
66.6667 1.205 9.99994 -7.27018e-07 -8.11381e-07 9.99994 -0.00443336 2 1 
68 1.205 10.0001 -1.27902e-07 7.82192e-08 10.0001 0.00424615 2 1 
69.3333 1.205 10 1.29803e-06 1.32092e-06 10 0.00162734 2 1 
70.6667 1.205 9.99992 -3.89245e-07 -6.30085e-07 9.99992 -0.00488692 2 1 
72 1.205 9.99998 -8.44183e-07 -7.65525e-07 9.99998 0.00172822 2 1 
73.3333 1.205 10.0001 2.50832e-07 3.80516e-07 10.0001 0.00228572 2 1 
74.6667 1.205 10.0001 6.09668e-08 -1.55105e-07 10.0001 -0.00275689 2 1 
76 1.205 10.0001 8.40661e-07 9.83822e-07 10.0001 0.00068332 2 1 
77.3333 1.205 10.0001 -3.04694e-07 -1.93859e-07 10.0001 0.00149065 2 1 
78.6667 1.205 9.99995 -1.64115e-06 -1.87734e-06 9.99995 -0.000219702 2 1 
80 1.205 9.9998 1.77199e-06 1.84281e-06 9.9998 -8.05334e-05 2 1 
81.3333 1.205 9.9999 8.1261e-07 9.89766e-07 9.9999 -0.00324221 2 1 
82.6667 1.205 10.0002 -3.08514e-06 -3.30298e-06 10.0002 -0.00110306 2 1 
84 1.20501 10.0001 1.91699e-06 1.93229e-06 10.0001 0.00998138 2 1 
85.3333 1.205 9.99998 1.53096e-06 1.62905e-06 9.99998 -0.00685954 2 1 
85.3333 1.205 9.99998 1.53096e-06 1.62905e-06 9.99998 -0.00685954 3 1 
86.6667 1.205 9.99996 -2.93192e-06 -3.02081e-06 9.99996 -0.00470093 3 1 
88 1.205 10 1.37464e-06 1.51259e-06 10 0.00840241 3 1 
89.3333 1.205 10.0001 -4.67632e-07 -5.97956e-07 10.0001 -0.000572034 3 1 
90.6667 1.205 10 -9.66895e-09 -1.0492e-07 10 -0.00826768 3 1 
92 1.205 9.99992 2.60201e-06 3.01811e-06 9.99992 0.00759295 3 1 
93.3333 1.205 9.99987 -2.91095e-06 -3.08694e-06 9.99987 0.00257198 3 1 
94.6667 1.20499 9.99999 -1.33863e-06 -2.12677e-06 9.99999 -0.00909544 3 1 
96 1.205 10.0001 1.75445e-06 2.67868e-06 10.0001 0.00364429 3 1 
97.3333 1.205 9.99988 2.68094e-06 3.09532e-06 9.99988 0.00796017 3 1 
98.6667 1.20499 10.0002 -2.61639e-06 -3.77893e-06 10.0002 -0.016526 3 1 
100 1.205 10.0002 -6.18569e-07 -3.82297e-07 10.0002 0.00340093 3 1 
101.333 1.20501 9.99956 1.8305e-06 2.48345e-06 9.99956 0.0244333 3 1 
102.667 1.20499 10.0001 -2.12437e-06 -2.71079e-06 10.0001 -0.0243039 3 1 
104 1.205 10.0002 1.01174e-06 9.61131e-07 10.0002 -0.00393234 3 1 
105.333 1.20502 9.99973 -8.62628e-07 1.40876e-07 9.99973 0.0273231 3 1 
106.667 1.20499 10.0002 2.54239e-06 1.50651e-06 10.0002 -0.0222236 3 1 
106.667 1.20499 10.0002 2.54239e-06 1.50651e-06 10.0002 -0.0222236 3 1 
108 1.20499 10.0003 7.99953e-07 2.89254e-07 10.0003 -0.0213671 3 1 
109.333 1.20503 9.99964 -5.31341e-06 -3.5492e-06 9.99964 0.0501455 3 1 
110.667 1.20499 10.0001 2.06293e-06 1.13419e-06 10.0001 -0.0157321 3 1 
112 1.20498 10.0001 1.55342e-06 9.1065e-07 10.0001 -0.0377743 3 1 
113.333 1.20503 9.99995 -1.8076e-06 -3.67504e-07 9.99995 0.0481387 3 1 
114.667 1.205 10.0002 4.35933e-06 2.97971e-06 10.0002 -0.000848253 3 1 
116 1.20497 9.99984 -1.47649e-07 -5.61424e-07 9.99984 -0.0479547 3 1 
117.333 1.20502 9.9998 -8.87749e-06 -6.92599e-06 9.9998 0.0360416 3 1 
118.667 1.20501 10.0002 1.9728e-06 1.17514e-06 10.0002 0.0214873 3 1 
120 1.20497 9.99991 9.23948e-06 8.13538e-06 9.99991 -0.0536034 3 1 
121.333 1.20501 9.99974 -4.23634e-06 -1.99597e-06 9.99974 0.0122637 3 1 
122.667 1.20502 10.0002 -2.65348e-06 -3.62213e-06 10.0002 0.0390048 3 1 
124 1.20498 9.9999 4.48762e-06 1.08708e-06 9.9999 -0.0309987 3 1 
125.333 1.20499 9.99986 -5.20011e-06 -9.46994e-07 9.99986 -0.0113469 3 1 
126.667 1.20502 10.0004 -3.19152e-06 -1.76575e-06 10.0004 0.0424365 3 1 
128 1.20499 9.99985 9.64613e-06 4.52201e-06 9.99985 -0.016249 3 1 
128 1.20499 9.99985 9.64613e-06 4.52201e-06 9.99985 -0.016249 3 1 
129.333 1.20498 9.99972 -2.52929e-06 7.51606e-09 9.99972 -0.0389907 3 1 
130.667 1.20502 10.0005 -5.30601e-06 -2.85328e-06 10.0005 0.0366511 3 1 
132 1.20501 10 8.00176e-06 2.80818e-06 10 0.0150991 3 1 
133.333 1.20497 9.99955 -4.46232e-06 -3.40038e-06 9.99955 -0.0515213 3 1 
134.667 1.20502 10.0002 -4.36368e-06 5.80541e-07 10.0002 0.0299136 3 1 
136 1.20502 10.0001 4.68056e-06 8.68544e-07 10.0001 0.0336994 3 1 
137.333 1.20497 9.99944 1.01814e-06 3.00908e-07 9.99944 -0.050869 3 1 
138.667 1.205 10.0001 -9.81183e-07 3.13135e-06 10.0001 0.00692602 3 1 
140 1.20502 10.0007 3.89669e-07 -3.29631e-06 10.0007 0.0290447 3 1 
141.333 1.20498 9.99961 1.51363e-06 -9.62295e-07 9.99961 -0.0283087 3 1 
142.667 1.20499 9.99993 -4.95319e-06 -8.53981e-07 9.99993 -0.0126311 3 1 
144 1.20502 10.0003 1.2396e-06 1.5709e-06 10.0003 0.0366715 3 1 
145.333 1.205 9.99942 3.57442e-06 1.98315e-06 9.99942 0.0037817 3 1 
146.667 1.20498 10.0002 -2.02154e-06 -5.30398e-07 10.0002 -0.041773 3 1 
148 1.20502 10.0005 1.11393e-06 7.23654e-07 10.0005 0.0363359 3 1 
149.333 1.205 10 1.41941e-06 -9.16098e-07 10 -0.00616012 3 1 
149.333 1.205 10 1.41941e-06 -9.16098e-07 10 -0.00616012 3 1 
150.667 1.20498 9.99951 -1.6704e-06 -1.49214e-06 9.99951 -0.0410436 3 1 
152 1.20503 9.99979 -4.31792e-06 -1.10753e-06 9.99979 0.0569718 3 1 
153.333 1.205 10.0008 6.97891e-06 6.76389e-06 10.0008 -0.00706793 3 1 
154.667 1.20498 9.9998 6.97035e-07 -2.77802e-06 9.9998 -0.0397398 3 1 
156 1.20501 9.9997 -4.28221e-06 -8.71103e-07 9.9997 0.0162212 3 1 
157.333 1.20501 10.0004 2.41501e-06 3.73829e-06 10.0004 0.0207654 3 1 
158.667 1.20499 9.9994 -9.48588e-07 -8.69018e-06 9.9994 -0.0104561 3 1 
160 1.20499 9.99991 2.09255e-06 6.48905e-06 9.99991 -0.0136712 3 1 
161.333 1.205 10.0012 -8.40015e-06 -3.38279e-06 10.0012 0.00173612 3 1 
162.667 1.20501 9.99919 -2.84788e-06 -9.99792e-06 9.99919 0.0192534 3 1 
164 1.20501 9.99883 1.94176e-06 2.46374e-06 9.99883 0.0179187 3 1 
165.333 1.20499 10.0012 -9.46987e-06 -4.41635e-06 10.0012 -0.0168989 3 1 
166.667 1.205 9.99994 3.25725e-06 4.05984e-07 9.99994 0.00240045 3 1 
168 1.205 9.99952 -1.35799e-06 -3.66209e-06 9.99952 0.00350018 3 1 
169.333 1.20499 10.0008 -1.23636e-05 -6.23065e-06 10.0008 -0.0205596 3 1 
170.667 1.20501 9.99959 7.55826e-06 5.58861e-06 9.99959 0.0240577 3 1 
170.667 1.20501 9.99959 7.55826e-06 5.58861e-06 9.99959 0.0240577 11 1 
172 1.205 10.0001 6.85778e-06 6.10902e-07 10.0001 -0.00527641 11 1 
173.333 1.20499 10.0002 -7.32077e-06 -1.26054e-06 10.0002 -0.0180096 11 1 
174.667 1.20503 9.99914 8.24936e-06 1.3476e-05 9.99914 0.0534568 11 1 
176 1.20507 9.99713 1.31476e-05 5.17797e-06 9.99713 0.119648 11 1 
177.333 1.20528 9.98902 -5.20137e-06 -7.47935e-06 9.98902 0.503496 11 1 
178.667 1.20586 9.96836 5.77278e-06 1.51742e-05 9.96836 1.55004 11 1 
180 1.20712 9.9223 1.84366e-05 1.36911e-05 9.9223 3.8372 11 1 
181.333 1.20921 9.85114 -3.31159e-06 -1.06667e-05 9.85114 7.60995 11 1 
182.667 1.21111 9.78775 -8.38781e-06 3.00541e-07 9.78775 11.0396 11 1 
184 1.21091 9.79384 5.69585e-06 9.4065e-06 9.79384 10.6694 11 1 
185.333 1.20781 9.8974 1.0163e-05 2.32483e-06 9.8974 5.07567 11 1 
186.667 1.20374 10.0322 -1.09722e-05 -9.27282e-06 10.0322 -2.27263 11 1 
188 1.20209 10.0853 3.76804e-06 1.20014e-05 10.0853 -5.25727 11 1 
189.333 1.2042 10.0193 1.349e-05 4.80186e-06 10.0193 -1.45294 11 1 
190.667 1.20708 9.93027 -3.07903e-05 -3.53694e-05 9.93027 3.75459 11 1 
192 1.20669 9.93881 2.26997e-05 3.51361e-05 9.93881 3.04886 11 1 
192 1.20669 9.93881 2.26997e-05 3.51361e-05 9.93881 3.04886 11 1 
193.333 1.20415 10.0146 2.17923e-05 1.91235e-05 10.0146 -1.52795 11 1 
194.667 1.20396 10.0232 -4.02382e-05 -5.07613e-05 10.0232 -1.87246 11 1 
196 1.20583 9.96756 3.26312e-05 3.97428e-05 9.96756 1.49413 11 1 
197.333 1.20595 9.96174 1.43797e-05 2.01906e-05 9.96174 1.70931 11 1 
198.667 1.20485 9.99323 -2.90992e-05 -4.63804e-05 9.99323 -0.278939 11 1 
200 1.20496 9.9914 2.80837e-05 2.79092e-05 9.9914 -0.0703771 11 1 
201.333 1.20516 9.98465 -7.93322e-06 1.35176e-05 9.98465 0.295994 11 1 
202.667 1.2052 9.9816 -1.50881e-05 -2.73118e-05 9.9816 0.368941 11 1 
204 1.20572 9.96893 2.93396e-05 1.49798e-05 9.96893 1.29997 11 1 
205.333 1.20504 9.98608 -5.08189e-06 1.60179e-05 9.98608 0.0708109 11 1 
206.667 1.2046 9.99628 -2.01577e-05 -1.3818e-05 9.99628 -0.716207 11 1 
208 1.20575 9.96774 2.72605e-05 -2.3178e-06 9.96774 1.35564 11 1 
209.333 1.20549 9.97175 2.65407e-05 2.86196e-05 9.97175 0.878246 11 1 
210.667 1.20486 9.98743 3.62251e-06 3.75859e-05 9.98743 -0.260318 11 1 
212 1.2054 9.97544 8.77422e-05 6.63827e-05 9.97544 0.717306 11 1 
213.333 1.20523 9.97646 0.000152415 0.000123912 9.97646 0.42167 11 1 
213.333 1.20523 9.97646 0.000152415 0.000123912 9.97646 0.42167 11 1 
214.667 1.20535 9.97351 0.000223019 0.00025869 9.97351 0.625446 11 1 
216 1.20556 9.96768 0.000419008 0.000429986 9.96768 1.01019 11 1 
217.333 1.20511 9.97707 0.000628704 0.000581827 9.97707 0.195544 11 1 
218.667 1.20528 9.9735 0.000884655 0.000885671 9.9735 0.513358 11 1 
220 1.2056 9.96445 0.00127003 0.00131723 9.96445 1.08996 11 1 
221.333 1.20563 9.9626 0.00168128 0.00165819 9.9626 1.14141 11 1 
222.667 1.20532 9.96835 0.00205996 0.00200825 9.96835 0.583125 11 1 
224 1.20536 9.9673 0.0024094 0.00243713 9.96731 0.657347 11 1 
225.333 1.20584 9.95508 0.00262669 0.0026665 9.95508 1.50915 11 1 
226.667 1.20558 9.95866 0.00281178 0.00277185 9.95866 1.05289 11 1 
228 1.20545 9.96324 0.00295272 0.00290394 9.96324 0.820414 11 1 
229.333 1.20568 9.95578 0.00286286 0.00290708 9.95578 1.22965 11 1 
230.667 1.2056 9.95376 0.0027089 0.00274817 9.95376 1.09105 11 1 
232 1.20557 9.95409 0.00258003 0.00251921 9.95409 1.03406 11 1 
233.333 1.20562 9.95303 0.00251828 0.00249813 9.95303 1.12317 11 1 
234.667 1.20558 9.95289 0.00259628 0.00266862 9.95289 1.04816 11 1 
234.667 1.20558 9.95289 0.00259628 0.00266862 9.95289 1.04816 11 1 
236 1.20557 9.95222 0.00262183 0.00264609 9.95222 1.02413 11 1 
237.333 1.20554 9.95033 0.00267303 0.00262105 9.95033 0.980274 11 1 
238.667 1.20555 9.94625 0.00278532 0.0027831 9.94626 0.99846 11 1 
240 1.2056 9.94227 0.00276993 0.00284116 9.94227 1.08346 11 1 
241.333 1.20559 9.93916 0.00282323 0.00283504 9.93916 1.06837 11 1 
242.667 1.20551 9.94081 0.00286404 0.00280013 9.94081 0.921255 11 1 
244 1.20556 9.93693 0.00266424 0.00265092 9.93693 1.00512 11 1 
245.333 1.20563 9.93211 0.00250914 0.0025452 9.93211 1.13266 11 1 
246.667 1.20563 9.92906 0.00244212 0.00242003 9.92906 1.1394 11 1 
248 1.20563 9.92367 0.00236524 0.00230251 9.92367 1.14272 11 1 
249.333 1.20563 9.91945 0.00247407 0.00245303 9.91945 1.13574 11 1 
250.667 1.20575 9.91122 0.0024755 0.00247779 9.91122 1.35486 11 1 
252 1.20575 9.90913 0.00228304 0.00225691 9.90913 1.3461 11 1 
253.333 1.20578 9.90329 0.00233253 0.0023063 9.90329 1.40366 11 1 
254.667 1.20579 9.89728 0.00233512 0.00232599 9.89728 1.42637 11 1 
256 1.20584 9.88846 0.0021692 0.00216254 9.88846 1.50966 11 1 
256 1.20584 9.88846 0.0021692 0.00216254 9.88846 1.50966 13 1 
257.333 1.20598 9.87663 0.00208347 0.00209714 9.87663 1.77744 13 1 
258.667 1.20597 9.87181 0.00188031 0.00189234 9.87182 1.7573 13 1 
260 1.20604 9.86306 0.00176283 0.00175917 9.86306 1.88577 13 1 
261.333 1.20618 9.85065 0.00182992 0.0018475 9.85065 2.12773 13 1 
262.667 1.20624 9.83614 0.001694 0.00172428 9.83615 2.24525 13 1 
264 1.20623 9.82666 0.00155868 0.00156349 9.82667 2.21553 13 1 
265.333 1.20639 9.81451 0.00148921 0.00148867 9.81451 2.50763 13 1 
266.667 1.20666 9.79411 0.00134795 0.00137302 9.79412 3.00015 13 1 
268 1.20657 9.78104 0.00125332 0.00127035 9.78104 2.8324 13 1 
269.333 1.20675 9.76074 0.00111015 0.0011151 9.76075 3.16596 13 1 
270.667 1.20719 9.73161 0.00100585 0.00103544 9.73162 3.96225 13 1 
272 1.20699 9.72451 0.000922425 0.000956266 9.72451 3.60053 13 1 
273.333 1.20727 9.69701 0.000840589 0.000856139 9.69701 4.09276 13 1 
274.667 1.20781 9.65656 0.000824544 0.000848639 9.65657 5.06998 13 1 
276 1.2076 9.63789 0.000730031 0.000771518 9.6379 4.69706 13 1 
277.333 1.20791 9.59572 0.000673033 0.000708814 9.59573 5.26189 13 1 
277.333 1.20791 9.59572 0.000673033 0.000708814 9.59573 5.26189 13 1 
278.667 1.20844 9.55574 0.000617311 0.000642355 9.55575 6.21839 13 1 
280 1.20852 9.51791 0.000520969 0.000554826 9.51793 6.35603 13 1 
281.333 1.20878 9.46233 0.00051856 0.000557716 9.46234 6.82807 13 1 
282.667 1.2092 9.42013 0.00048637 0.000520068 9.42014 7.58967 13 1 
284 1.20975 9.37915 0.000444236 0.000473792 9.37915 8.58269 13 1 
285.333 1.21028 9.32391 0.000445429 0.000476817 9.32397 9.53479 13 1 
286.667 1.21055 9.24128 0.000442822 0.000474974 9.24145 10.0225 13 1 
288 1.21087 9.1401 0.000467655 0.000491407 9.14024 10.6059 13 1 
289.333 1.21149 9.06247 0.000464982 0.000492217 9.06252 11.7159 13 1 
290.667 1.21235 8.99047 0.000482886 0.000513179 8.99051 13.2687 13 1 
292 1.21297 8.90085 0.000496267 0.000515982 8.90097 14.3961 13 1 
293.333 1.2133 8.80319 0.000489628 0.000503598 8.80338 14.9887 13 1 
294.667 1.214 8.68852 0.000501985 0.000516369 8.68896 16.2487 13 1 
296 1.21488 8.57516 0.000475574 0.000484403 8.57553 17.8507 13 1 
297.333 1.21517 8.49574 0.00046806 0.000481012 8.49623 18.3767 13 1 
298.667 1.2081 8.37128 0.000436619 0.000490189 8.58346 5.59047 13 1 
298.667 1.2081 8.37128 0.000436619 0.000490189 8.58346 5.59047 14 1 
300 1.19639 8.39274 0.000351124 0.000500709 8.65903 -15.5544 14 1 
301.333 1.19217 8.4407 0.000270277 0.000542402 8.57329 -23.1709 14 1 
302.667 1.19333 8.29391 0.000121817 0.000541329 8.39772 -21.0868 14 1 
304 1.19442 8.14323 -3.26335e-05 0.000534661 8.21702 -19.1128 14 1 
305.333 1.19514 8.00359 -0.000140261 0.000539903 8.06191 -17.8097 14 1 
306.667 1.19588 7.88399 -0.000274301 0.000476129 7.91727 -16.4678 14 1 
308 1.19652 7.77981 -0.000339076 0.000427417 7.81246 -15.3152 14 1 
309.333 1.19706 7.69037 -0.000334993 0.000377648 7.71971 -14.3494 14 1 
310.667 1.19774 7.61335 -0.000344463 0.000301164 7.6406 -13.106 14 1 
312 1.19828 7.53994 -0.000318229 0.000252362 7.55969 -12.1414 14 1 
313.333 1.19869 7.47835 -0.000308789 0.000169497 7.49691 -11.3983 14 1 
314.667 1.1992 7.4309 -0.000302806 0.000107951 7.4489 -10.4831 14 1 
316 1.19956 7.3899 -0.000279687 7.07097e-05 7.40701 -9.82218 14 1 
317.333 1.19986 7.35944 -0.00029847 -1.6056e-05 7.37406 -9.29095 14 1 
318.667 1.20033 7.35177 -0.000273857 -5.00083e-05 7.36587 -8.44127 14 1 
320 1.20066 7.35704 -0.000246979 -7.48001e-05 7.36987 -7.83201 14 1 
320 1.20066 7.35704 -0.000246979 -7.48001e-05 7.36987 -7.83201 14 1 
321.333 1.20085 7.36022 -0.000273399 -0.000153653 7.37257 -7.49781 14 1 
322.667 1.20124 7.35811 -0.000252664 -0.000177544 7.36875 -6.78894 14 1 
324 1.20165 7.34418 -0.000258775 -0.000224505 7.35395 -6.05111 14 1 
325.333 1.20186 7.33025 -0.000303403 -0.000303637 7.33887 -5.66969 14 1 
326.667 1.2022 7.34797 -0.000291105 -0.000329148 7.35549 -5.06497 14 1 
328 1.20262 7.41741 -0.000304857 -0.000365127 7.42269 -4.29534 14 1 
329.333 1.20293 7.54777 -0.000309987 -0.000371529 7.55137 -3.73757 14 1 
330.667 1.20321 7.72135 -0.000322553 -0.000377456 7.7229 -3.23754 14 1 
332 1.20349 7.91151 -0.000384795 -0.000429407 7.91232 -2.72224 14 1 
333.333 1.20379 8.09882 -0.0003659 -0.000394062 8.09909 -2.18544 14 1 
334.667 1.20405 8.2653 -0.000340119 -0.000355717 8.26558 -1.71187 14 1 
336 1.20413 8.41493 -0.000394003 -0.000400804 8.41514 -1.57676 14 1 
337.333 1.20417 8.55791 -0.000453664 -0.000461701 8.55809 -1.49297 14 1 
338.667 1.20439 8.69493 -0.000470761 -0.000484981 8.6951 -1.09377 14 1 
340 1.20458 8.82367 -0.000416523 -0.000426917 8.82381 -0.760476 14 1 
341.333 1.20455 8.93128 -0.000423935 -0.000423893 8.93139 -0.818529 14 1 
341.333 1.20455 8.93128 -0.000423935 -0.000423893 8.93139 -0.818529 15 1 
342.667 1.20451 9.02512 -0.000510377 -0.000520624 9.02519 -0.889241 15 1 
344 1.20461 9.11857 -0.00052146 -0.000539707 9.11864 -0.699795 15 1 
345.333 1.20471 9.20573 -0.000467872 -0.000475783 9.20579 -0.52511 15 1 
346.667 1.20472 9.28158 -0.000452295 -0.00046804 9.28164 -0.514048 15 1 
348 1.20471 9.34186 -0.000526837 -0.000555767 9.3419 -0.530666 15 1 
349.333 1.20475 9.39949 -0.000611129 -0.000628445 9.39952 -0.4578 15 1 
350.667 1.20476 9.45643 -0.000600664 -0.000615851 9.45646 -0.43989 15 1 
352 1.20478 9.50853 -0.000548621 -0.000571714 9.50855 -0.404666 15 1 
353.333 1.20482 9.55123 -0.00059721 -0.000624666 9.55126 -0.322949 15 1 
354.667 1.20477 9.58198 -0.00068455 -0.000703818 9.582 -0.410867 15 1 
356 1.20482 9.62317 -0.000668631 -0.000679391 9.62318 -0.325008 15 1 
357.333 1.20486 9.65626 -0.000629646 -0.000647873 9.65628 -0.257646 15 1 
358.667 1.20482 9.68068 -0.000658432 -0.000676373 9.6807 -0.318053 15 1 
360 1.20487 9.71175 -0.000727179 -0.000744795 9.71176 -0.232478 15 1 
361.333 1.20489 9.72909 -0.000771621 -0.000785029 9.7291 -0.191963 15 1 
362.667 1.2049 9.75333 -0.000743763 -0.000756656 9.75334 -0.188544 15 1 
362.667 1.2049 9.75333 -0.000743763 -0.000756656 9.75334 -0.188544 15 1 
364 1.20488 9.7752 -0.000724172 -0.000749871 9.77521 -0.216195 15 1 
365.333 1.20491 9.78688 -0.000810203 -0.000827334 9.78689 -0.163857 15 1 
366.667 1.20493 9.80791 -0.000832624 -0.000843335 9.80791 -0.133053 15 1 
368 1.20487 9.81579 -0.000761597 -0.000779201 9.8158 -0.230234 15 1 
369.333 1.205 9.83352 -0.000754032 -0.000776955 9.83353 -0.00823077 15 1 
370.667 1.205 9.84823 -0.000750766 -0.000781101 9.84824 -0.00566604 15 1 
372 1.20488 9.84919 -0.000756871 -0.000777645 9.8492 -0.21506 15 1 
373.333 1.205 9.86808 -0.000773174 -0.000803006 9.86808 -0.00881009 15 1 
374.667 1.20495 9.87029 -0.000732198 -0.000783349 9.8703 -0.090137 15 1 
376 1.20497 9.88145 -0.000701925 -0.000739196 9.88145 -0.0630345 15 1 
377.333 1.20504 9.89359 -0.0007378 -0.000764083 9.8936 0.0757158 15 1 
378.667 1.20497 9.89335 -0.000731056 -0.000773428 9.89335 -0.0461049 15 1 
380 1.20499 9.90646 -0.000640559 -0.000693119 9.90647 -0.0176266 15 1 
381.333 1.205 9.90351 -0.00060438 -0.000641854 9.90351 0.00675473 15 1 
382.667 1.20511 9.92027 -0.000587414 -0.00062015 9.92027 0.203213 15 1 
384 1.20489 9.91554 -0.000555981 -0.000609128 9.91554 -0.201604 15 1 
384 1.20489 9.91554 -0.000555981 -0.000609128 9.91554 -0.201604 15 1 
385.333 1.20492 9.9241 -0.000523121 -0.000584082 9.9241 -0.138034 15 1 
386.667 1.20521 9.93484 -0.000486271 -0.000543277 9.93484 0.376921 15 1 
388 1.20506 9.92836 -0.00055154 -0.000608034 9.92836 0.100202 15 1 
389.333 1.20484 9.93768 -0.000604179 -0.000673232 9.93768 -0.296537 15 1 
390.667 1.205 9.9357 -0.000595659 -0.000667062 9.9357 -0.00784054 15 1 
392 1.20535 9.95616 -0.000641042 -0.000704751 9.95616 0.627177 15 1 
393.333 1.20495 9.94177 -0.000680511 -0.000747634 9.94177 -0.0876556 15 1 
394.667 1.20488 9.94921 -0.000727467 -0.000791012 9.94921 -0.225256 15 1 
396 1.20523 9.95508 -0.00076609 -0.000826485 9.95508 0.413841 15 1 
397.333 1.2052 9.95924 -0.00077856 -0.000838148 9.95924 0.352495 15 1 
398.667 1.20481 9.95428 -0.000886637 -0.000942205 9.95428 -0.3485 15 1 
400 1.205 9.95914 -0.000996244 -0.00105989 9.95914 -0.00355592 15 1 
401.333 1.20544 9.9731 -0.00104592 -0.00111383 9.9731 0.787526 15 1 
402.667 1.20508 9.96244 -0.00113004 -0.00119407 9.96244 0.14442 15 1 
404 1.2047 9.96073 -0.00121236 -0.00127672 9.96073 -0.535083 15 1 
405.333 1.2051 9.96933 -0.00127399 -0.00134308 9.96933 0.178286 15 1 
405.333 1.2051 9.96933 -0.00127399 -0.00134308 9.96933 0.178286 15 1 
406.667 1.20548 9.98188 -0.00131453 -0.00138141 9.98188 0.863451 15 1 
408 1.20502 9.96929 -0.00133972 -0.00139822 9.96929 0.0429269 15 1 
409.333 1.20475 9.96756 -0.00142266 -0.00147642 9.96756 -0.44613 15 1 
410.667 1.20512 9.97616 -0.00151238 -0.00156078 9.97616 0.219743 15 1 
412 1.2053 9.98244 -0.00157517 -0.00162092 9.98244 0.54901 15 1 
413.333 1.20499 9.9756 -0.00166221 -0.00170217 9.9756 -0.0251139 15 1 
414.667 1.20496 9.97692 -0.00175792 -0.00178922 9.97692 -0.0657829 15 1 
416 1.20517 9.98269 -0.00180086 -0.00183159 9.98269 0.300774 15 1 
417.333 1.20502 9.98 -0.00179429 -0.0018244 9.98 0.0450528 15 1 
418.667 1.20484 9.97588 -0.00179969 -0.0018243 9.97588 -0.294852 15 1 
420 1.20512 9.98562 -0.00179256 -0.00180988 9.98562 0.223659 15 1 
421.333 1.20536 9.99136 -0.00181216 -0.00183305 9.99136 0.64791 15 1 
422.667 1.2049 9.98014 -0.00184588 -0.00187017 9.98014 -0.188752 15 1 
424 1.2045 9.97222 -0.00187658 -0.00189419 9.97222 -0.909656 15 1 
425.333 1.20507 9.98595 -0.00198066 -0.00200384 9.98595 0.123888 15 1 
426.667 1.2056 10.0006 -0.00203406 -0.00206778 10.0006 1.08003 15 1 
426.667 1.2056 10.0006 -0.00203406 -0.00206778 10.0006 1.08003 20 1 
428 1.205 9.98677 -0.00203247 -0.00206685 9.98677 -0.00254506 20 1 
429.333 1.20425 9.96614 -0.00202307 -0.00205731 9.96614 -1.35818 20 1 
430.667 1.20464 9.97823 -0.0019435 -0.00198424 9.97823 -0.641312 20 1 
432 1.20558 10.0034 -0.00187195 -0.00191481 10.0034 1.05055 20 1 
433.333 1.20542 9.99846 -0.00181089 -0.0018494 9.99846 0.765231 20 1 
434.667 1.20431 9.97047 -0.00176501 -0.00180218 9.97047 -1.25097 20 1 
436 1.20407 9.96386 -0.00178861 -0.00181856 9.96387 -1.683 20 1 
437.333 1.20512 9.99205 -0.00184924 -0.0018725 9.99205 0.215217 20 1 
438.667 1.20576 10.0112 -0.00193763 -0.00196194 10.0112 1.36883 20 1 
440 1.20496 9.98855 -0.00201551 -0.00203608 9.98855 -0.0806841 20 1 
441.333 1.20391 9.95897 -0.00204639 -0.00205937 9.95897 -1.97407 20 1 
442.667 1.20419 9.9687 -0.00202353 -0.0020336 9.9687 -1.47078 20 1 
444 1.20542 10.0031 -0.00191271 -0.00192149 10.0031 0.757474 20 1 
445.333 1.20578 10.0127 -0.00173809 -0.00174243 10.0127 1.41296 20 1 
446.667 1.20475 9.98425 -0.00151358 -0.00151719 9.98425 -0.459899 20 1 
448 1.20383 9.95785 -0.0012485 -0.00125162 9.95785 -2.10566 20 1 
448 1.20383 9.95785 -0.0012485 -0.00125162 9.95785 -2.10566 20 1 
449.333 1.20431 9.97155 -0.000993346 -0.000992605 9.97155 -1.25113 20 1 
450.667 1.20553 10.0077 -0.000744312 -0.000746203 10.0077 0.955792 20 1 
452 1.20593 10.0191 -0.00053665 -0.00053956 10.0191 1.67736 20 1 
453.333 1.205 9.99165 -0.000377073 -0.000375784 9.99165 -0.00493133 20 1 
454.667 1.20393 9.96039 -0.000241456 -0.000241067 9.96039 -1.9343 20 1 
456 1.20407 9.96477 -0.000155576 -0.000156512 9.96477 -1.68485 20 1 
457.333 1.20523 10.0007 -9.1807e-05 -8.94122e-05 10.0007 0.411007 20 1 
458.667 1.20609 10.0264 -5.4269e-05 -5.29478e-05 10.0264 1.97741 20 1 
460 1.20572 10.0144 -3.179e-05 -3.61389e-05 10.0144 1.2951 20 1 
461.333 1.20449 9.978 -1.41156e-05 -1.34961e-05 9.978 -0.925778 20 1 
462.667 1.20373 9.954 -1.76991e-05 -1.28901e-05 9.954 -2.29722 20 1 
464 1.20418 9.9679 -2.91459e-06 -5.85867e-06 9.9679 -1.48168 20 1 
465.333 1.20538 10.0072 5.42594e-07 -1.37872e-06 10.0072 0.682027 20 1 
466.667 1.20626 10.0345 -8.62897e-06 -6.18262e-06 10.0345 2.284 20 1 
468 1.20605 10.0268 1.30469e-07 -4.22229e-07 10.0268 1.89368 20 1 
469.333 1.20489 9.99116 -3.46059e-06 -4.10032e-06 9.99116 -0.19603 20 1 
469.333 1.20489 9.99116 -3.46059e-06 -4.10032e-06 9.99116 -0.19603 20 1 
470.667 1.20378 9.95517 -4.25356e-07 2.81783e-07 9.95517 -2.19842 20 1 
472 1.20352 9.9463 2.13746e-06 2.31523e-06 9.9463 -2.67763 20 1 
473.333 1.20422 9.97091 -5.34297e-06 -5.20708e-06 9.97091 -1.40711 20 1 
474.667 1.20548 10.0119 2.68633e-06 2.66961e-06 10.0119 0.875849 20 1 
476 1.2065 10.0449 -4.77463e-07 -1.75592e-06 10.0449 2.71325 20 1 
477.333 1.20671 10.0529 -2.40265e-06 -1.95772e-06 10.0529 3.09727 20 1 
478.667 1.20613 10.0327 3.36118e-06 5.47626e-06 10.0327 2.04611 20 1 
480 1.20502 9.99543 -2.42503e-06 -4.34194e-06 9.99543 0.044913 20 1 
481.333 1.20384 9.95614 1.481e-06 -2.61272e-07 9.95614 -2.08702 20 1 
482.667 1.203 9.9266 -1.60404e-06 1.47722e-06 9.9266 -3.6093 20 1 
484 1.20258 9.91316 -3.72152e-06 -3.29915e-06 9.91316 -4.37014 20 1 
485.333 1.20257 9.91365 8.33127e-06 5.59124e-06 9.91365 -4.38106 20 1 
486.667 1.20289 9.92386 -1.87206e-06 -1.53029e-06 9.92386 -3.80476 20 1 
488 1.20332 9.93988 -5.72894e-06 -3.89121e-06 9.93988 -3.03168 20 1 
489.333 1.20377 9.95609 3.56531e-06 3.45428e-06 9.95609 -2.22702 20 1 
490.667 1.20417 9.96975 -8.15608e-07 -2.56623e-06 9.96975 -1.49967 20 1 
490.667 1.20417 9.96975 -8.15608e-07 -2.56623e-06 9.96975 -1.49967 20 1 
492 1.20447 9.98074 3.5066e-06 3.25046e-06 9.98074 -0.951845 20 1 
493.333 1.20469 9.98856 -8.05849e-08 2.07124e-06 9.98856 -0.566512 20 1 
494.667 1.20482 9.99341 -7.48526e-06 -7.34154e-06 9.99341 -0.326518 20 1 
496 1.2049 9.99665 3.95892e-06 1.70079e-06 9.99665 -0.173792 20 1 
497.333 1.20496 9.99836 3.06746e-06 3.4592e-06 9.99836 -0.0774 20 1 
498.667 1.20497 9.99908 -1.80463e-06 1.95068e-08 9.99908 -0.0470099 20 1 
500 1.20499 9.99954 1.02388e-06 1.93564e-07 9.99954 -0.0238868 20 1 
501.333 1.205 9.99975 -3.03403e-06 -4.43232e-06 9.99975 0.00652488 20 1 
502.667 1.20499 10.0001 7.63828e-07 1.63655e-06 10.0001 -0.0100878 20 1 
504 1.20499 9.99993 2.9971e-06 4.24599e-06 9.99993 -0.0102158 20 1 
505.333 1.205 9.99986 -2.82925e-06 -3.50136e-06 9.99986 0.00877994 20 1 
506.667 1.205 10.0001 3.31061e-08 -1.12446e-06 10.0001 -0.0068348 20 1 
508 1.205 10 1.2344e-06 1.81755e-06 10 -0.000901137 20 1 
509.333 1.20501 10 -7.32075e-07 2.7565e-07 10 0.00997407 20 1 
510.667 1.205 10 5.93874e-07 -6.73535e-08 10 -0.00303509 20 1 
512 1.205 9.99995 -9.7006e-07 -1.81857e-06 9.99995 -0.0046431 20 1 
512 1.205 9.99995 -9.7006e-07 -1.81857e-06 9.99995 -0.0046431 21 1 
513.333 1.205 9.99995 3.01225e-09 6.6426e-07 9.99995 0.00382673 21 1 
514.667 1.205 10.0001 1.91154e-06 2.5151e-06 10.0001 -0.00349393 21 1 
516 1.205 10 -1.082e-06 -1.58756e-06 10 -0.00143858 21 1 
517.333 1.205 9.99993 -1.0808e-06 -1.32792e-06 9.99993 0.00733707 21 1 
518.667 1.205 10.0001 7.10542e-07 1.009e-06 10.0001 -0.00483445 21 1 
520 1.205 9.99998 8.91982e-08 8.08681e-08 9.99998 0.000549718 21 1 
521.333 1.205 9.99999 3.34173e-07 2.1607e-07 9.99999 0.00100632 21 1 
522.667 1.205 10 2.02847e-07 2.07243e-07 10 -0.00318004 21 1 
524 1.205 9.99994 -7.4575e-07 -7.76097e-07 9.99994 0.00444475 21 1 
525.333 1.205 10 -3.37121e-07 -2.41182e-07 10 -0.00192545 21 1 
526.667 1.205 10 4.81336e-07 5.64585e-07 10 -0.00183895 21 1 
528 1.205 9.99996 7.54225e-07 6.3911e-07 9.99996 0.00259815 21 1 
529.333 1.205 9.99999 -2.36234e-07 -2.50207e-07 9.99999 0.000250914 21 1 
530.667 1.205 10 -1.22092e-06 -1.11437e-06 10 -0.00344193 21 1 
532 1.205 9.99995 2.23616e-07 1.93259e-07 9.99995 0.00326215 21 1 
533.333 1.205 10 1.41025e-06 1.32448e-06 10 0.000931882 21 1 
533.333 1.205 10 1.41025e-06 1.32448e-06 10 0.000931882 21 1 
534.667 1.205 10.0001 -2.56795e-07 -2.5137e-07 10.0001 -0.00552355 21 1 
536 1.205 9.99991 -1.37957e-06 -1.34757e-06 9.99991 0.00539731 21 1 
537.333 1.205 10 1.94425e-07 1.92929e-07 10 0.000198494 21 1 
538.667 1.205 10.0001 1.35325e-06 1.33759e-06 10.0001 -0.00526996 21 1 
540 1.205 9.99994 2.38081e-08 2.40242e-08 9.99994 0.00398733 21 1 
541.333 1.205 9.99996 -1.2219e-06 -1.19597e-06 9.99996 0.00111076 21 1 
542.667 1.205 10.0001 -2.48519e-07 -2.35021e-07 10.0001 -0.00319557 21 1 
544 1.205 10 8.0422e-07 7.78954e-07 10 0.0011096 21 1 
545.333 1.205 9.99998 1.934e-07 1.8138e-07 9.99998 0.00129535 21 1 
546.667 1.205 10 -3.49541e-07 -3.18234e-07 10 -0.00161649 21 1 
548 1.205 10 9.44883e-08 1.1108e-07 10 0.000192023 21 1 
549.333 1.205 9.99998 1.89558e-07 1.61597e-07 9.99998 0.00110819 21 1 
550.667 1.205 10 -2.54568e-07 -2.7961e-07 10 -0.000906763 21 1 
552 1.205 10 -2.3615e-07 -2.2757e-07 10 -7.59011e-05 21 1 
553.333 1.205 9.99999 1.51194e-07 1.69883e-07 9.99999 0.000640349 21 1 
554.667 1.205 10 2.13648e-07 2.18088e-07 10 -0.000427109 21 1 
554.667 1.205 10 2.13648e-07 2.18088e-07 10 -0.000427109 22 1 
556 1.205 10 5.71026e-09 -2.21007e-10 10 -0.000224636 22 1 
557.333 1.205 9.99999 -8.84379e-08 -9.27803e-08 9.99999 0.000418374 22 1 
558.667 1.205 10 -3.94712e-08 -3.97376e-08 10 1.01569e-06 22 1 
560 1.205 10 7.05131e-09 7.96535e-09 10 -0.000201848 22 1 
561.333 1.205 10 1.0933e-08 1.13846e-08 10 2.33786e-05 22 1 
562.667 1.205 10 3.32602e-09 3.39514e-09 10 5.18754e-05 22 1 
564 1.205 10 2.63753e-10 2.61252e-10 10 8.31858e-07 22 1 
565.333 1.205 10 -3.04687e-11 -3.18302e-11 10 -9.72273e-06 22 1 
566.667 1.205 10 -2.29535e-14 -4.14695e-14 10 3.38301e-12 22 1 
568 1.205 10 -5.10787e-15 -3.51166e-14 10 3.56424e-12 22 1 
569.333 1.205 10 1.14927e-14 -2.10061e-14 10 4.83287e-13 22 1 
570.667 1.205 10 -3.56593e-14 7.02333e-16 10 -2.44664e-12 22 1 
572 1.205 10 -1.8101e-14 -5.8102e-15 10 -3.62465e-13 22 1 
573.333 1.205 10 1.78456e-14 7.98105e-16 10 -3.02054e-13 22 1 
574.667 1.205 10 8.10874e-15 -1.14927e-15 10 -5.13492e-13 22 1 
576 1.205 10 4.11822e-15 -2.00165e-14 10 4.22876e-12 22 1 
576 1.205 10 4.11822e-15 -2.00165e-14 10 4.22876e-12 22 1 
577.333 1.205 10 -1.55152e-14 1.27696e-16 10 4.31938e-12 22 1 
578.667 1.205 10 -1.97291e-14 -1.2227e-14 10 -5.43698e-13 22 1 
580 1.205 10 -2.28258e-14 -3.27223e-14 10 -1.63109e-12 22 1 
581.333 1.205 10 -3.17326e-14 -1.15566e-14 10 -1.17801e-12 22 1 
582.667 1.205 10 -4.18207e-15 -8.65145e-15 10 -5.43698e-13 22 1 
584 1.205 10 -1.43978e-14 -2.20915e-14 10 4.83287e-13 22 1 
585.333 1.205 10 -2.38793e-14 -1.75902e-14 10 3.3226e-13 22 1 
586.667 1.205 10 -1.03434e-14 -2.84125e-14 10 -8.75958e-13 22 1 
588 1.205 10 -1.02477e-14 -2.58586e-15 10 -3.62465e-13 22 1 
589.333 1.205 10 -1.11415e-14 1.19396e-14 10 7.85341e-13 22 1 
590.667 1.205 10 -2.37516e-14 -2.10061e-14 10 1.14781e-12 22 1 
592 1.205 10 -2.12296e-14 -3.94902e-14 10 2.2352e-12 22 1 
593.333 1.205 10 -1.06627e-14 -5.19406e-14 10 1.84253e-12 22 1 
594.667 1.205 10 -8.07682e-15 -5.29622e-14 10 1.26863e-12 22 1 
596 1.205 10 -9.38571e-15 -3.48293e-14 10 1.60089e-12 22 1 
597.333 1.205 10 -3.38396e-15 -3.59466e-14 10 7.85341e-13 22 1 
597.333 1.205 10 -3.38396e-15 -3.59466e-14 10 7.85341e-13 24 1 
598.667 1.205 10 1.17481e-14 -3.37119e-14 10 -3.02054e-14 24 1 
600 1.205 10 7.82143e-15 -2.273e-14 10 -1.75192e-12 24 1 
601.333 1.205 10 -3.09665e-15 -2.51882e-14 10 -3.02054e-12 24 1 
602.667 1.205 10 8.9707e-15 -1.68879e-14 10 -1.29883e-12 24 1 
604 1.205 10 6.19329e-15 -1.98249e-14 10 -8.75958e-13 24 1 
605.333 1.205 10 -2.07826e-14 -2.89872e-14 10 -1.41966e-12 24 1 
606.667 1.205 10 -3.12857e-14 -4.03202e-14 10 -6.04109e-14 24 1 
608 1.205 10 -1.06946e-14 -3.60424e-14 10 1.14781e-12 24 1 
609.333 1.205 10 2.68163e-15 -1.91226e-14 10 1.81233e-13 24 1 
610.667 1.205 10 -1.69198e-14 -2.48689e-14 10 -2.17479e-12 24 1 
612 1.205 10 -3.06791e-14 -3.25627e-14 10 -6.6452e-13 24 1 
613.333 1.205 10 -1.84203e-14 -2.24427e-14 10 9.06163e-13 24 1 
614.667 1.205 10 -8.14067e-15 -3.92987e-14 10 -1.26863e-12 24 1 
616 1.205 10 -2.37516e-14 -5.33453e-14 10 -9.96779e-13 24 1 
617.333 1.205 10 -2.6114e-14 -5.30899e-14 10 1.02698e-12 24 1 
618.667 1.205 10 -1.42063e-14 -5.49415e-14 10 6.34314e-13 24 1 
618.667 1.205 10 -1.42063e-14 -5.49415e-14 10 6.34314e-13 24 1 
620 1.205 10 -2.14211e-14 -5.18449e-14 10 -2.44664e-12 24 1 
621.333 1.205 10 -3.13815e-14 -3.30415e-14 10 -3.92671e-12 24 1 
622.667 1.205 10 -1.78775e-14 -3.67767e-14 10 -1.93315e-12 24 1 
624 1.205 10 -1.8931e-14 -6.17094e-14 10 5.13492e-13 24 1 
625.333 1.205 10 -1.36636e-14 -3.20838e-14 10 6.34314e-13 24 1 
626.667 1.205 10 -2.07188e-14 -2.7391e-14 10 -5.13492e-13 24 1 
628 1.205 10 -4.96421e-14 -4.07353e-14 10 -7.85341e-13 24 1 
629.333 1.205 10 -1.88672e-14 -3.41589e-14 10 -4.53082e-13 24 1 
630.667 1.205 10 1.39189e-14 -4.70882e-14 10 6.04109e-14 24 1 
632 1.205 10 2.29854e-15 -3.85644e-14 10 1.48007e-12 24 1 
633.333 1.205 10 -7.47026e-15 -4.61624e-14 10 1.29883e-12 24 1 
634.667 1.205 10 -6.57638e-15 -5.61227e-14 10 -2.71849e-13 24 1 
636 1.205 10 1.63133e-14 -5.88363e-14 10 -2.71849e-13 24 1 
637.333 1.205 10 -5.74636e-16 -6.46465e-14 10 -2.71849e-13 24 1 
638.667 1.205 10 -3.24988e-14 -4.27465e-14 10 5.13492e-13 24 1 
640 1.205 10 -2.23469e-14 -3.88198e-14 10 9.06163e-13 24 1 
640 1.205 10 -2.23469e-14 -3.88198e-14 10 9.06163e-13 24 1 
641.333 1.205 10 -4.4215e-14 -2.46455e-14 10 -4.83287e-13 24 1 
642.667 1.205 10 -4.66093e-14 -2.38474e-14 10 -8.15547e-13 24 1 
644 1.205 10 -2.5284e-14 -4.55558e-14 10 -1.0874e-12 24 1 
645.333 1.205 10 -8.68338e-15 -2.85402e-14 10 -1.41966e-12 24 1 
646.667 1.205 10 1.12373e-14 -2.02719e-14 10 -4.22876e-13 24 1 
648 1.205 10 -5.58673e-15 -4.47896e-14 10 -5.73903e-13 24 1 
649.333 1.205 10 -1.51321e-14 -4.26826e-14 10 -6.04109e-14 24 1 
650.667 1.205 10 6.28907e-15 -3.48293e-14 10 7.55136e-13 24 1 
652 1.205 10 5.49096e-15 -2.49009e-14 10 1.75192e-12 24 1 
653.333 1.205 10 4.37361e-15 -2.86998e-14 10 2.44664e-12 24 1 
654.667 1.205 10 -3.54358e-15 -5.98579e-14 10 3.92671e-13 24 1 
656 1.205 10 -2.53797e-14 -6.09113e-14 10 -8.15547e-13 24 1 
657.333 1.205 10 -4.20442e-14 -4.95783e-14 10 -3.3226e-13 24 1 
658.667 1.205 10 -1.48447e-14 -3.26265e-14 10 -1.20822e-12 24 1 
660 1.205 10 1.50044e-15 -2.13892e-14 10 -6.34314e-13 24 1 
661.333 1.205 10 -1.25781e-14 -1.39189e-14 10 -2.11438e-13 24 1 
661.333 1.205 10 -1.25781e-14 -1.39189e-14 10 -2.11438e-13 24 1 
662.667 1.205 10 -1.74625e-14 -4.18207e-14 10 -1.60089e-12 24 1 
664 1.205 10 -3.12538e-14 -5.94428e-14 10 -1.57068e-12 24 1 
665.333 1.205 10 -2.78379e-14 -5.06637e-14 10 -3.3226e-13 24 1 
666.667 1.205 10 -3.4542e-14 -4.22357e-14 10 1.41966e-12 24 1 
668 1.205 10 -2.72952e-14 -5.07275e-14 10 3.62465e-13 24 1 
669.333 1.205 10 -2.92745e-14 -5.98259e-14 10 -5.43698e-13 24 1 
670.667 1.205 10 -2.04634e-14 -4.51727e-14 10 -8.75958e-13 24 1 
672 1.205 10 -1.78137e-14 -4.44065e-14 10 1.51027e-13 24 1 
673.333 1.205 10 -1.63133e-14 -4.77586e-14 10 2.53726e-12 24 1 
674.667 1.205 10 2.1038e-14 -5.52288e-14 10 -2.11438e-13 24 1 
676 1.205 10 1.08223e-14 -4.15334e-14 10 -3.56424e-12 24 1 
677.333 1.205 10 3.76705e-15 -2.13254e-14 10 -2.80911e-12 24 1 
678.667 1.205 10 -6.03367e-15 -2.32408e-14 10 -1.75192e-12 24 1 
680 1.205 10 -2.70398e-14 -2.41666e-14 10 -1.44986e-12 24 1 
681.333 1.205 10 -3.29138e-14 -2.11657e-14 10 -2.26541e-12 24 1 
682.667 1.205 10 -3.39035e-14 -4.20442e-14 10 -3.29239e-12 24 1 
682.667 1.205 10 -3.39035e-14 -4.20442e-14 10 -3.29239e-12 31 1 
684 1.205 10 -8.55568e-15 -4.06076e-14 10 -2.71849e-13 31 1 
685.333 1.205 10 -1.19396e-14 -3.53401e-14 10 2.99034e-12 31 1 
686.667 1.205 10 -3.86921e-14 -4.98017e-14 10 7.55136e-13 31 1 
688 1.205 10 -4.11503e-14 -2.76144e-14 10 -3.44342e-12 31 1 
689.333 1.205 10 -1.0535e-14 -3.57551e-15 10 -2.89972e-12 31 1 
690.667 1.205 10 2.41666e-14 -2.5252e-14 10 -3.3226e-13 31 1 
692 1.205 10 1.79733e-14 -4.2523e-14 10 -1.14781e-12 31 1 
693.333 1.205 10 1.22589e-14 -4.68966e-14 10 1.63109e-12 31 1 
694.667 1.205 10 3.89475e-15 -4.03841e-14 10 8.03465e-12 31 1 
696 1.205 10 -2.07826e-14 -3.80855e-14 10 6.76602e-12 31 1 
697.333 1.205 10 -2.79656e-14 -6.15498e-14 10 -3.02054e-14 31 1 
698.667 1.205 10 -2.07188e-14 -5.29303e-14 10 -2.41644e-12 31 1 
700 1.205 10 -4.34169e-15 -3.76067e-14 10 -8.15547e-13 31 1 
701.333 1.205 10 9.28994e-15 -2.85083e-14 10 -5.13492e-13 31 1 
702.667 1.205 10 1.61217e-14 -3.21157e-14 10 1.78212e-12 31 1 
704 1.205 10 1.24185e-14 -4.32573e-14 10 4.4704e-12 31 1 
704 1.205 10 1.24185e-14 -4.32573e-14 10 4.4704e-12 31 1 
705.333 1.205 10 1.01838e-14 -3.03599e-14 10 2.74869e-12 31 1 
706.667 1.205 10 1.8101e-14 -3.49251e-14 10 1.84253e-12 31 1 
708 1.205 10 -2.55394e-16 -4.30657e-14 10 1.0874e-12 31 1 
709.333 1.205 10 6.736e-15 -3.71278e-14 10 2.17479e-12 31 1 
710.667 1.205 10 1.40147e-14 -2.19e-14 10 4.28917e-12 31 1 
712 1.205 10 2.87318e-15 -2.09103e-14 10 9.36369e-13 31 1 
713.333 1.205 10 9.25802e-16 -2.6944e-14 10 -5.13492e-13 31 1 
714.667 1.205 10 -2.84125e-15 -2.12296e-14 10 -3.02054e-14 31 1 
716 1.205 10 -4.78863e-16 -4.24272e-14 10 2.08418e-12 31 1 
717.333 1.205 10 -1.77498e-14 -5.28665e-14 10 2.80911e-12 31 1 
718.667 1.205 10 -3.56274e-14 -3.63936e-14 10 7.24931e-13 31 1 
720 1.205 10 -4.85886e-14 -2.34643e-14 10 3.3528e-12 31 1 
721.333 1.205 10 -2.59863e-14 -1.79414e-14 10 4.83287e-13 31 1 
722.667 1.205 10 2.20277e-15 -2.06869e-14 10 4.83287e-13 31 1 
724 1.205 10 -4.05437e-15 -1.18758e-14 10 3.41321e-12 31 1 
725.333 1.205 10 5.90597e-15 -1.79095e-14 10 7.55136e-13 31 1 
725.333 1.205 10 5.90597e-15 -1.79095e-14 10 7.55136e-13 31 1 
726.667 1.205 10 1.42701e-14 -1.13969e-14 10 1.14781e-12 31 1 
728 1.205 10 1.58982e-14 9.25801e-15 10 8.15547e-13 31 1 
729.333 1.205 10 7.27871e-15 -9.38571e-15 10 -5.13492e-13 31 1 
730.667 1.205 10 -1.38232e-14 -2.74229e-14 10 -5.73903e-13 31 1 
732 1.205 10 -1.73029e-14 -2.77102e-14 10 3.02054e-14 31 1 
733.333 1.205 10 -2.00803e-14 -5.29941e-14 10 1.1176e-12 31 1 
734.667 1.205 10 -4.0416e-14 -6.08794e-14 10 1.48007e-12 31 1 
736 1.205 10 -4.21718e-14 -2.84764e-14 10 -5.73903e-13 31 1 
737.333 1.205 10 -1.08223e-14 -2.19638e-14 10 -1.60089e-12 31 1 
738.667 1.205 10 -8.81108e-15 -2.24427e-14 10 6.04109e-14 31 1 
740 1.205 10 -8.0449e-15 3.70321e-15 10 2.11438e-13 31 1 
741.333 1.205 10 6.06558e-16 3.16049e-15 10 1.51027e-13 31 1 
742.667 1.205 10 5.84213e-15 -9.38571e-15 10 1.0874e-12 31 1 
744 1.205 10 7.18294e-15 -1.86118e-14 10 1.72171e-12 31 1 
745.333 1.205 10 -2.87318e-16 -3.39354e-14 10 7.55136e-13 31 1 
746.667 1.205 10 4.18207e-15 -3.8756e-14 10 -3.3226e-13 31 1 
746.667 1.205 10 4.18207e-15 -3.8756e-14 10 -3.3226e-13 31 1 
748 1.205 10 -1.97291e-14 -4.04799e-14 10 1.0874e-12 31 1 
749.333 1.205 10 -3.09026e-14 -4.27465e-14 10 1.20822e-12 31 1 
750.667 1.205 10 -7.15102e-15 -4.35765e-14 10 8.45752e-13 31 1 
752 1.205 10 -2.1485e-14 6.00175e-15 10 2.29561e-12 31 1 
753.333 1.205 10 -2.92745e-14 2.42305e-14 10 1.93315e-12 31 1 
754.667 1.205 10 -2.37197e-14 1.50044e-15 10 9.06163e-13 31 1 
756 1.205 10 -2.80294e-14 -7.37449e-15 10 1.23842e-12 31 1 
757.333 1.205 10 -1.44617e-14 -1.95695e-14 10 2.96013e-12 31 1 
758.667 1.205 10 -2.20596e-14 -2.45178e-14 10 2.41644e-12 31 1 
760 1.205 10 -2.33047e-14 -3.92667e-15 10 1.96335e-12 31 1 
761.333 1.205 10 -1.94738e-14 1.32485e-14 10 2.7789e-12 31 1 
762.667 1.205 10 -1.40466e-14 -3.67128e-15 10 2.32582e-12 31 1 
764 1.205 10 -5.07595e-15 -1.0535e-14 10 1.54048e-12 31 1 
765.333 1.205 10 -6.25714e-15 -1.66963e-14 10 1.44986e-12 31 1 
766.667 1.205 10 -1.28016e-14 -3.06791e-14 10 2.44664e-12 31 1 
768 1.205 10 -2.64651e-14 -4.8014e-14 10 1.93315e-12 31 1 
768 1.205 10 -2.64651e-14 -4.8014e-14 10 1.93315e-12 32 1 
769.333 1.205 10 -1.75583e-15 -4.68328e-14 10 2.26541e-12 32 1 
770.667 1.205 10 7.94912e-15 -4.64497e-14 10 3.65486e-12 32 1 
772 1.205 10 -1.17481e-14 -3.86921e-14 10 3.8663e-12 32 1 
773.333 1.205 10 -1.88353e-14 -2.36558e-14 10 2.7789e-12 32 1 
774.667 1.205 10 -1.9793e-14 -2.76783e-14 10 2.83931e-12 32 1 
776 1.205 10 -5.42712e-16 -2.9051e-14 10 3.29239e-12 32 1 
777.333 1.205 10 1.18758e-14 -9.06647e-15 10 1.29883e-12 32 1 
778.667 1.205 10 9.89649e-16 9.19417e-15 10 8.75958e-13 32 1 
780 1.205 10 -1.012e-14 -6.12944e-15 10 7.24931e-13 32 1 
781.333 1.205 10 9.57725e-16 -3.35523e-14 10 1.54048e-12 32 1 
782.667 1.205 10 1.57386e-14 -2.12615e-14 10 3.56424e-12 32 1 
784 1.205 10 -1.37274e-15 1.89949e-14 10 1.20822e-12 32 1 
785.333 1.205 10 -2.42624e-15 1.65367e-14 10 -1.48007e-12 32 1 
786.667 1.205 10 1.14927e-14 1.14608e-14 10 -2.41644e-13 32 1 
788 1.205 10 -1.43659e-15 2.28896e-14 10 1.38945e-12 32 1 
789.333 1.205 10 -1.71752e-14 1.4302e-14 10 1.60089e-12 32 1 
790.667 1.205 10 -2.41347e-14 -2.45816e-15 10 1.54048e-12 32 1 
792 1.205 10 -1.87714e-14 -1.7271e-14 10 1.23842e-12 32 1 
793.333 1.205 10 -1.86118e-14 -2.57309e-14 10 1.44986e-12 32 1 
794.667 1.205 10 -1.4749e-14 -1.03754e-14 10 2.08418e-12 32 1 
796 1.205 10 -2.86041e-14 -4.78863e-15 10 1.57068e-12 32 1 
797.333 1.205 10 -3.53081e-14 5.13979e-15 10 1.35924e-12 32 1 
798.667 1.205 10 -6.9914e-15 3.35204e-15 10 1.35924e-12 32 1 
800 1.205 10 6.51253e-15 -1.6409e-14 10 5.43698e-13 32 1 
