34.4146;r ;Density                 ;Velocity u              ;Velocity v              ;Velocity w              ;|Velocity|              ;Pressure                ;Distribution            ;Levels                  ;
0 1.20408 10.0002 1.8392e-05 4.93196e-05 10.0002 -1.66763 1 1 
1.33334 1.20407 10.0005 3.83439e-05 9.55186e-05 10.0005 -1.67416 1 1 
2.66666 1.20406 10.0011 8.80266e-05 0.000199236 10.0011 -1.69584 1 1 
4 1.20405 10.0014 0.000129988 0.000291378 10.0014 -1.72322 1 1 
5.33334 1.20404 10.0013 0.000157887 0.000370803 10.0013 -1.73071 1 1 
6.66666 1.20404 10.0012 0.00019652 0.000467278 10.0012 -1.72608 1 1 
8 1.20403 10.0015 0.00026624 0.000579812 10.0015 -1.76021 1 1 
9.33334 1.20402 10.0014 0.000312377 0.000665365 10.0014 -1.77183 1 1 
10.6667 1.20401 10.0021 0.00036731 0.00077518 10.0021 -1.7857 1 1 
12 1.20398 10.003 0.000414693 0.000867356 10.003 -1.83667 1 1 
13.3333 1.20397 10.0029 0.000447126 0.000934676 10.0029 -1.86007 1 1 
14.6667 1.20393 10.0035 0.00051085 0.00103812 10.0035 -1.92417 1 1 
16 1.20392 10.0038 0.0005364 0.00111773 10.0038 -1.94246 1 1 
17.3333 1.20393 10.0041 0.00060015 0.00122625 10.0041 -1.93828 1 1 
18.6667 1.20392 10.0048 0.000613647 0.00128078 10.0048 -1.95663 1 1 
20 1.20393 10.0048 0.000675758 0.00138233 10.0048 -1.93506 1 1 
21.3333 1.20392 10.0057 0.000725677 0.001474 10.0057 -1.94369 1 1 
21.3333 1.20392 10.0057 0.000725677 0.001474 10.0057 -1.94369 1 1 
22.6667 1.20391 10.0067 0.000787184 0.00157925 10.0067 -1.97722 1 1 
24 1.20388 10.0074 0.000841928 0.00167212 10.0074 -2.02658 1 1 
25.3333 1.20386 10.0077 0.000860374 0.00173312 10.0077 -2.05702 1 1 
26.6667 1.20386 10.008 0.000927334 0.0018366 10.008 -2.05938 1 1 
28 1.20388 10.0078 0.000965382 0.00191591 10.0078 -2.03099 1 1 
29.3333 1.20389 10.0072 0.000997637 0.00198067 10.0072 -1.99932 1 1 
30.6667 1.20389 10.0071 0.00104321 0.0020659 10.0071 -2.01167 1 1 
32 1.20387 10.0075 0.0011288 0.00219795 10.0075 -2.03474 1 1 
33.3333 1.20385 10.0081 0.00116225 0.00228109 10.0081 -2.06905 1 1 
34.6667 1.20384 10.0082 0.00118466 0.00234204 10.0082 -2.1026 1 1 
36 1.20385 10.0082 0.00123981 0.00243559 10.0082 -2.08346 1 1 
37.3333 1.20388 10.0079 0.00128382 0.00252403 10.0079 -2.0278 1 1 
38.6667 1.20388 10.0078 0.00132072 0.00258931 10.0078 -2.02889 1 1 
40 1.20386 10.0085 0.00138519 0.00269013 10.0085 -2.06152 1 1 
41.3333 1.20383 10.0091 0.00141644 0.00277055 10.0091 -2.10606 1 1 
42.6667 1.20381 10.0097 0.00148371 0.00287563 10.0097 -2.15002 1 1 
42.6667 1.20381 10.0097 0.00148371 0.00287563 10.0097 -2.15002 2 1 
44 1.20381 10.0096 0.00154379 0.00296992 10.0096 -2.14083 2 1 
45.3333 1.20383 10.0095 0.00155974 0.00301919 10.0095 -2.11889 2 1 
46.6667 1.20384 10.0096 0.00167421 0.00317077 10.0096 -2.10246 2 1 
48 1.20382 10.0108 0.00176391 0.00329134 10.0108 -2.13852 2 1 
49.3333 1.20379 10.0121 0.00176188 0.00331867 10.0121 -2.19324 2 1 
50.6667 1.20376 10.0126 0.00182218 0.00342607 10.0126 -2.23587 2 1 
52 1.20376 10.0119 0.00185516 0.00349089 10.0119 -2.23442 2 1 
53.3333 1.20378 10.0118 0.00191165 0.00358523 10.0118 -2.19957 2 1 
54.6667 1.20377 10.0132 0.0020018 0.00371067 10.0132 -2.22828 2 1 
56 1.20374 10.0136 0.00210961 0.0038593 10.0136 -2.2731 2 1 
57.3333 1.20372 10.0137 0.00222264 0.0040056 10.0137 -2.31693 2 1 
58.6667 1.20369 10.0143 0.00222983 0.00404747 10.0143 -2.3661 2 1 
60 1.20371 10.0143 0.00226864 0.00413234 10.0143 -2.33383 2 1 
61.3333 1.20372 10.0137 0.00236211 0.00425154 10.0137 -2.30563 2 1 
62.6667 1.20369 10.0145 0.00243986 0.0043706 10.0145 -2.35789 2 1 
64 1.20369 10.0148 0.00250243 0.00446741 10.0148 -2.37304 2 1 
64 1.20369 10.0148 0.00250243 0.00446741 10.0148 -2.37304 2 1 
65.3333 1.20366 10.0153 0.0025917 0.00458933 10.0153 -2.41239 2 1 
66.6667 1.20367 10.0153 0.00265504 0.00469167 10.0153 -2.40847 2 1 
68 1.20367 10.0152 0.00267991 0.00475254 10.0152 -2.40641 2 1 
69.3333 1.20365 10.0153 0.00278295 0.00489085 10.0153 -2.43999 2 1 
70.6667 1.20365 10.015 0.00289171 0.00502812 10.015 -2.43967 2 1 
72 1.20365 10.0155 0.00295723 0.00513056 10.0155 -2.44179 2 1 
73.3333 1.20366 10.0155 0.00305589 0.00526623 10.0155 -2.41803 2 1 
74.6667 1.20364 10.016 0.00314399 0.00538815 10.016 -2.45548 2 1 
76 1.20363 10.0156 0.00314423 0.00541333 10.0157 -2.46623 2 1 
77.3333 1.20364 10.0158 0.00322385 0.00553129 10.0158 -2.45625 2 1 
78.6667 1.20364 10.0165 0.00330971 0.00565872 10.0165 -2.45621 2 1 
80 1.20366 10.0158 0.00336839 0.00574489 10.0158 -2.4132 2 1 
81.3333 1.20364 10.0156 0.00344393 0.00585345 10.0156 -2.45492 2 1 
82.6667 1.20362 10.0162 0.00358628 0.00603745 10.0162 -2.48899 2 1 
84 1.20363 10.0157 0.00363161 0.00611352 10.0157 -2.47221 2 1 
85.3333 1.20362 10.0157 0.00365518 0.00617243 10.0157 -2.49551 2 1 
85.3333 1.20362 10.0157 0.00365518 0.00617243 10.0157 -2.49551 3 1 
86.6667 1.20364 10.0158 0.00379386 0.00635472 10.0158 -2.45617 3 1 
88 1.20365 10.0162 0.00387033 0.00646039 10.0162 -2.4352 3 1 
89.3333 1.20364 10.0165 0.00391275 0.00653203 10.0165 -2.46119 3 1 
90.6667 1.20363 10.0161 0.00399511 0.00665034 10.0161 -2.47928 3 1 
92 1.20362 10.0158 0.00409399 0.00678933 10.0158 -2.49033 3 1 
93.3333 1.20362 10.0156 0.00410349 0.00683233 10.0156 -2.49352 3 1 
94.6667 1.20361 10.0155 0.00412324 0.00687916 10.0155 -2.50386 3 1 
96 1.20364 10.0152 0.004298 0.00709649 10.0152 -2.46498 3 1 
97.3333 1.20363 10.0161 0.00439136 0.00721772 10.0161 -2.48211 3 1 
98.6667 1.2036 10.0161 0.00433971 0.00720012 10.0161 -2.53772 3 1 
100 1.2036 10.015 0.00451486 0.00740657 10.015 -2.52872 3 1 
101.333 1.2036 10.0152 0.00460485 0.00753921 10.0152 -2.53606 3 1 
102.667 1.20359 10.0154 0.00458132 0.00755437 10.0154 -2.54453 3 1 
104 1.20359 10.0158 0.00470107 0.00768781 10.0158 -2.54292 3 1 
105.333 1.2036 10.0156 0.00484158 0.00786997 10.0156 -2.53472 3 1 
106.667 1.20359 10.0157 0.00485435 0.00790709 10.0157 -2.54539 3 1 
106.667 1.20359 10.0157 0.00485435 0.00790709 10.0157 -2.54539 3 1 
108 1.20358 10.0152 0.00482907 0.00791691 10.0152 -2.56964 3 1 
109.333 1.20357 10.0138 0.00499777 0.00811264 10.0138 -2.57919 3 1 
110.667 1.20356 10.0142 0.00506257 0.00821765 10.0142 -2.5938 3 1 
112 1.20356 10.0151 0.00506251 0.00824936 10.0151 -2.60345 3 1 
113.333 1.20358 10.0142 0.00516676 0.00837744 10.0142 -2.56994 3 1 
114.667 1.20357 10.0141 0.00531341 0.00856705 10.0141 -2.58929 3 1 
116 1.20355 10.0148 0.00533545 0.00861745 10.0148 -2.61762 3 1 
117.333 1.20357 10.0131 0.00533846 0.00867104 10.0131 -2.59024 3 1 
118.667 1.20354 10.0129 0.00550782 0.00886752 10.0129 -2.64194 3 1 
120 1.20357 10.012 0.00554371 0.00893917 10.012 -2.57858 3 1 
121.333 1.20358 10.0121 0.00552321 0.00895995 10.0121 -2.55953 3 1 
122.667 1.20356 10.0134 0.00566235 0.00912178 10.0134 -2.60443 3 1 
124 1.20359 10.0122 0.00579192 0.00928754 10.0122 -2.55549 3 1 
125.333 1.20356 10.0126 0.00580035 0.00934108 10.0126 -2.60062 3 1 
126.667 1.20356 10.0118 0.00584035 0.00941029 10.0118 -2.5921 3 1 
128 1.20357 10.0101 0.00599024 0.00958731 10.0101 -2.57781 3 1 
128 1.20357 10.0101 0.00599024 0.00958731 10.0101 -2.57781 3 1 
129.333 1.20357 10.0099 0.00600165 0.00965374 10.0099 -2.57474 3 1 
130.667 1.2036 10.0104 0.00601791 0.00970355 10.0104 -2.53692 3 1 
132 1.20359 10.0113 0.00611331 0.00982997 10.0113 -2.53853 3 1 
133.333 1.2036 10.0103 0.00617922 0.00994742 10.0103 -2.52058 3 1 
134.667 1.2036 10.01 0.00616148 0.00998223 10.01 -2.53068 3 1 
136 1.20361 10.009 0.00621411 0.0100541 10.009 -2.5163 3 1 
137.333 1.20361 10.0077 0.00634819 0.0102358 10.0077 -2.50604 3 1 
138.667 1.20362 10.0078 0.00635456 0.0102876 10.0078 -2.49197 3 1 
140 1.20363 10.0084 0.00637878 0.0103634 10.0084 -2.47938 3 1 
141.333 1.20361 10.008 0.00648714 0.0105046 10.008 -2.50181 3 1 
142.667 1.20362 10.0064 0.00657467 0.0106314 10.0064 -2.48999 3 1 
144 1.20363 10.0056 0.0065143 0.0106352 10.0056 -2.47829 3 1 
145.333 1.20364 10.0048 0.00659378 0.0107455 10.0048 -2.46345 3 1 
146.667 1.20365 10.0048 0.00673025 0.0109337 10.0048 -2.4348 3 1 
148 1.20365 10.0046 0.00674317 0.0109992 10.0046 -2.43179 3 1 
149.333 1.20365 10.0045 0.00671837 0.0110224 10.0045 -2.44153 3 1 
149.333 1.20365 10.0045 0.00671837 0.0110224 10.0045 -2.44153 3 1 
150.667 1.20366 10.0039 0.00685896 0.0111925 10.0039 -2.42377 3 1 
152 1.20366 10.0022 0.00694684 0.0113424 10.0022 -2.42488 3 1 
153.333 1.20366 10.0014 0.00690175 0.0113473 10.0014 -2.42448 3 1 
154.667 1.20366 10.0011 0.00692811 0.0114147 10.0011 -2.41673 3 1 
156 1.20366 10.0003 0.00707689 0.0116053 10.0003 -2.41261 3 1 
157.333 1.20367 10.0001 0.00709242 0.0116758 10.0001 -2.40395 3 1 
158.667 1.20369 9.99954 0.00697217 0.0116066 9.99955 -2.37262 3 1 
160 1.20369 9.9985 0.00709848 0.011768 9.99851 -2.35853 3 1 
161.333 1.20368 9.99799 0.00722034 0.0119412 9.998 -2.38381 3 1 
162.667 1.20371 9.99654 0.00712932 0.0118963 9.99655 -2.33833 3 1 
164 1.20372 9.99597 0.00705899 0.0118677 9.99598 -2.3181 3 1 
165.333 1.2037 9.99647 0.00722971 0.0120824 9.99647 -2.35149 3 1 
166.667 1.20373 9.99392 0.00731463 0.0122205 9.99393 -2.29369 3 1 
168 1.20371 9.9929 0.00715987 0.0121062 9.99291 -2.32238 3 1 
169.333 1.20371 9.99299 0.00716048 0.0121598 9.99301 -2.32981 3 1 
170.667 1.20376 9.99164 0.00739761 0.0124459 9.99165 -2.23888 3 1 
170.667 1.20376 9.99164 0.00739761 0.0124459 9.99165 -2.23888 11 1 
172 1.20374 9.99165 0.0074003 0.0124995 9.99166 -2.26929 11 1 
173.333 1.20376 9.99016 0.00724688 0.0124087 9.99018 -2.24637 11 1 
174.667 1.20378 9.98919 0.00733135 0.0125571 9.9892 -2.19628 11 1 
176 1.20378 9.98752 0.00752238 0.0127954 9.98754 -2.20521 11 1 
177.333 1.20378 9.9862 0.00741804 0.0127453 9.98621 -2.20326 11 1 
178.667 1.2038 9.98565 0.00723151 0.0126137 9.98566 -2.16048 11 1 
180 1.20382 9.98402 0.00740924 0.0128368 9.98403 -2.13692 11 1 
181.333 1.20381 9.98388 0.00760431 0.0130837 9.98389 -2.15457 11 1 
182.667 1.20383 9.98293 0.00747848 0.0130269 9.98294 -2.11303 11 1 
184 1.20386 9.98105 0.00732649 0.0129321 9.98106 -2.06502 11 1 
185.333 1.20384 9.97933 0.00747004 0.0131171 9.97934 -2.09104 11 1 
186.667 1.20386 9.97655 0.00754685 0.0132621 9.97656 -2.05991 11 1 
188 1.20389 9.97573 0.00733066 0.0131131 9.97574 -1.99797 11 1 
189.333 1.20389 9.97648 0.00724314 0.0130587 9.97649 -2.00776 11 1 
190.667 1.20392 9.97383 0.00746907 0.0133329 9.97385 -1.95347 11 1 
192 1.20393 9.97178 0.00762895 0.0136068 9.97179 -1.92468 11 1 
192 1.20393 9.97178 0.00762895 0.0136068 9.97179 -1.92468 11 1 
193.333 1.20393 9.97114 0.00737697 0.0133893 9.97115 -1.93812 11 1 
194.667 1.20395 9.96758 0.00709753 0.0131638 9.96759 -1.90519 11 1 
196 1.20395 9.96548 0.00745313 0.013608 9.96549 -1.89853 11 1 
197.333 1.20397 9.96566 0.00768349 0.0139059 9.96568 -1.85559 11 1 
198.667 1.20401 9.96378 0.00735623 0.01365 9.96379 -1.78444 11 1 
200 1.20402 9.96214 0.00732166 0.013677 9.96215 -1.77783 11 1 
201.333 1.20402 9.95918 0.00750865 0.0139411 9.95919 -1.77188 11 1 
202.667 1.20405 9.95416 0.00755656 0.0140276 9.95417 -1.71232 11 1 
204 1.20405 9.95359 0.00737581 0.0139331 9.9536 -1.71144 11 1 
205.333 1.20407 9.9539 0.00701477 0.013658 9.95391 -1.67541 11 1 
206.667 1.20414 9.95161 0.00724758 0.0139582 9.95162 -1.55004 11 1 
208 1.20412 9.95008 0.00763541 0.0144021 9.9501 -1.59483 11 1 
209.333 1.20412 9.94527 0.00726756 0.0141121 9.94528 -1.58984 11 1 
210.667 1.20417 9.93932 0.00683087 0.0137416 9.93933 -1.49558 11 1 
212 1.20416 9.93656 0.00692373 0.013846 9.93657 -1.5131 11 1 
213.333 1.20419 9.93438 0.00738022 0.0143943 9.9344 -1.45628 11 1 
213.333 1.20419 9.93438 0.00738022 0.0143943 9.9344 -1.45628 11 1 
214.667 1.20425 9.93317 0.00740506 0.0145313 9.93318 -1.34817 11 1 
216 1.20427 9.93302 0.00689889 0.0140794 9.93303 -1.32633 11 1 
217.333 1.20429 9.93067 0.00670165 0.0138934 9.93068 -1.28754 11 1 
218.667 1.20434 9.92459 0.00721584 0.0145266 9.92461 -1.20079 11 1 
220 1.20434 9.91825 0.0077269 0.0151707 9.91827 -1.19679 11 1 
221.333 1.20435 9.91251 0.00746304 0.0149379 9.91253 -1.16537 11 1 
222.667 1.20439 9.90798 0.00671172 0.0142619 9.908 -1.1087 11 1 
224 1.20441 9.90643 0.00656849 0.0142604 9.90644 -1.06021 11 1 
225.333 1.20448 9.90417 0.00719017 0.0149453 9.90419 -0.936499 11 1 
226.667 1.20453 9.90019 0.00764285 0.0154148 9.90021 -0.841194 11 1 
228 1.20455 9.89551 0.00724396 0.015149 9.89553 -0.820621 11 1 
229.333 1.20457 9.88708 0.0064901 0.0145669 9.8871 -0.7746 11 1 
230.667 1.20463 9.87796 0.00639144 0.0144686 9.87797 -0.67361 11 1 
232 1.20463 9.87336 0.00715899 0.0152112 9.87337 -0.667034 11 1 
233.333 1.20471 9.86882 0.007977 0.0161707 9.86884 -0.523688 11 1 
234.667 1.20483 9.86335 0.00807085 0.0164457 9.86337 -0.315612 11 1 
234.667 1.20483 9.86335 0.00807085 0.0164457 9.86337 -0.315612 11 1 
236 1.20477 9.85873 0.00749848 0.0159748 9.85875 -0.413496 11 1 
237.333 1.20484 9.84747 0.00704023 0.0155542 9.84749 -0.289815 11 1 
238.667 1.20492 9.8376 0.00713057 0.0157472 9.83762 -0.140609 11 1 
240 1.20494 9.83189 0.00744612 0.016183 9.83191 -0.110444 11 1 
241.333 1.20507 9.82272 0.00746534 0.0162556 9.82274 0.129344 11 1 
242.667 1.2051 9.81735 0.00686437 0.0157062 9.81736 0.173754 11 1 
244 1.20518 9.80523 0.00597537 0.0149343 9.80525 0.326438 11 1 
245.333 1.20523 9.79242 0.00542286 0.0145058 9.79244 0.41271 11 1 
246.667 1.20529 9.78132 0.005719 0.0149098 9.78133 0.520701 11 1 
248 1.20544 9.76794 0.00621018 0.0154633 9.76795 0.78874 11 1 
249.333 1.20547 9.75828 0.00697328 0.0163495 9.7583 0.844507 11 1 
250.667 1.20557 9.74391 0.00732307 0.0168214 9.74393 1.02278 11 1 
252 1.20565 9.73021 0.00713337 0.016691 9.73023 1.17697 11 1 
253.333 1.20581 9.71172 0.00725124 0.0169244 9.71174 1.47051 11 1 
254.667 1.20587 9.69742 0.00716842 0.0169364 9.69744 1.5803 11 1 
256 1.20597 9.68069 0.0070508 0.0168998 9.68071 1.7586 11 1 
256 1.20597 9.68069 0.0070508 0.0168998 9.68071 1.7586 13 1 
257.333 1.2062 9.65888 0.00698674 0.0169191 9.6589 2.16297 13 1 
258.667 1.20624 9.64047 0.00672624 0.0167597 9.64049 2.23843 13 1 
260 1.20637 9.61702 0.006669 0.0167869 9.61704 2.48216 13 1 
261.333 1.20663 9.59086 0.00673198 0.0169118 9.59088 2.94259 13 1 
262.667 1.20677 9.56379 0.00659797 0.0169208 9.56381 3.2021 13 1 
264 1.20682 9.54264 0.00644285 0.0168658 9.54266 3.28285 13 1 
265.333 1.20714 9.51006 0.00633434 0.0168261 9.51008 3.86722 13 1 
266.667 1.20745 9.46982 0.00627544 0.0169055 9.46985 4.42703 13 1 
268 1.20741 9.4417 0.00616245 0.0168966 9.44172 4.35288 13 1 
269.333 1.20779 9.40033 0.00604094 0.0168257 9.40036 5.04174 13 1 
270.667 1.20828 9.35041 0.00590333 0.0167822 9.35043 5.9315 13 1 
272 1.20816 9.32041 0.00581397 0.0167981 9.32045 5.70288 13 1 
273.333 1.20864 9.26444 0.00572516 0.0167683 9.26447 6.56875 13 1 
274.667 1.2093 9.19855 0.00556019 0.0166766 9.1986 7.76969 13 1 
276 1.20921 9.1533 0.00541301 0.0166066 9.15336 7.61224 13 1 
277.333 1.20973 9.07651 0.00530085 0.0165745 9.07657 8.53717 13 1 
277.333 1.20973 9.07651 0.00530085 0.0165745 9.07657 8.53717 13 1 
278.667 1.2104 9.00104 0.00517877 0.0164889 9.00111 9.75808 13 1 
280 1.21064 8.92845 0.00503053 0.0163981 8.92851 10.1873 13 1 
281.333 1.21114 8.83385 0.00489856 0.0163717 8.8339 11.0949 13 1 
282.667 1.21176 8.751 0.00477275 0.0163376 8.75103 12.2058 13 1 
284 1.2125 8.66379 0.00463317 0.0162349 8.66383 13.5493 13 1 
285.333 1.21322 8.55385 0.00446831 0.0160778 8.55401 14.8525 13 1 
286.667 1.21372 8.41373 0.00427995 0.0158528 8.41407 15.7519 13 1 
288 1.2143 8.25997 0.00411046 0.0156918 8.26026 16.7912 13 1 
289.333 1.21518 8.12435 0.00394929 0.0156256 8.12445 18.3831 13 1 
290.667 1.21628 7.98705 0.00377229 0.0154742 7.98715 20.3731 13 1 
292 1.21711 7.82937 0.00360847 0.0152935 7.82955 21.8791 13 1 
293.333 1.21773 7.65983 0.00343781 0.0151342 7.66014 22.9858 13 1 
294.667 1.2187 7.47132 0.00324541 0.0149322 7.47177 24.7369 13 1 
296 1.21977 7.28216 0.00307303 0.0147997 7.2825 26.6767 13 1 
297.333 1.22053 7.09917 0.00288549 0.014563 7.09944 28.0518 13 1 
298.667 1.21222 6.80846 0.00260113 0.0139652 6.80884 13.05 13 1 
298.667 1.21222 6.80846 0.00260113 0.0139652 6.80884 13.05 14 1 
300 1.19773 6.70679 0.00239641 0.0138327 6.70705 -13.1243 14 1 
301.333 1.19226 6.7117 0.00225615 0.013897 6.71192 -23.007 14 1 
302.667 1.19324 6.53675 0.00204151 0.0136512 6.53702 -21.2374 14 1 
304 1.19406 6.35721 0.0018472 0.0134852 6.35752 -19.7554 14 1 
305.333 1.19462 6.18048 0.00164628 0.0132591 6.181 -18.7407 14 1 
306.667 1.19531 6.01546 0.00140722 0.0129869 6.0159 -17.4945 14 1 
308 1.19589 5.85655 0.00121206 0.0128165 5.85679 -16.4596 14 1 
309.333 1.19637 5.71313 0.00101857 0.0127087 5.71334 -15.5878 14 1 
310.667 1.19693 5.5833 0.000820181 0.0126207 5.58348 -14.5783 14 1 
312 1.19742 5.4634 0.000627888 0.0124958 5.46353 -13.6909 14 1 
313.333 1.19784 5.35658 0.000412815 0.0123417 5.35667 -12.9382 14 1 
314.667 1.19823 5.25316 0.000218263 0.0122749 5.25326 -12.232 14 1 
316 1.19852 5.15114 7.58935e-06 0.0121565 5.15126 -11.713 14 1 
317.333 1.19882 5.06233 -0.000191122 0.0119871 5.06241 -11.159 14 1 
318.667 1.19922 4.98861 -0.000354652 0.011894 4.98869 -10.4452 14 1 
320 1.19948 4.91018 -0.000556364 0.0118244 4.91028 -9.96921 14 1 
320 1.19948 4.91018 -0.000556364 0.0118244 4.91028 -9.96921 14 1 
321.333 1.19962 4.82878 -0.00076897 0.0117276 4.82888 -9.71984 14 1 
322.667 1.19986 4.76324 -0.000959912 0.0115984 4.76334 -9.28312 14 1 
324 1.20013 4.69714 -0.00115304 0.0115058 4.69723 -8.79598 14 1 
325.333 1.20025 4.62988 -0.00135301 0.0114901 4.62995 -8.57131 14 1 
326.667 1.2004 4.57876 -0.00153456 0.0114815 4.57883 -8.31214 14 1 
328 1.20063 4.52737 -0.00170661 0.0114691 4.52745 -7.89015 14 1 
329.333 1.20078 4.47194 -0.00189311 0.0114751 4.47202 -7.62393 14 1 
330.667 1.20085 4.42029 -0.0020779 0.0115085 4.42034 -7.48891 14 1 
332 1.20097 4.37454 -0.0022656 0.0115326 4.37458 -7.28355 14 1 
333.333 1.20116 4.34579 -0.00244098 0.0115781 4.34583 -6.92989 14 1 
334.667 1.20134 4.31401 -0.00259152 0.0116806 4.31405 -6.61253 14 1 
336 1.20136 4.26579 -0.00276632 0.0117774 4.26581 -6.57736 14 1 
337.333 1.20139 4.22976 -0.00297243 0.011808 4.22979 -6.51188 14 1 
338.667 1.20158 4.20937 -0.0031437 0.0118756 4.2094 -6.1819 14 1 
340 1.20174 4.19112 -0.00327685 0.0120121 4.19114 -5.88699 14 1 
341.333 1.20179 4.1659 -0.00343742 0.0121184 4.16593 -5.80571 14 1 
341.333 1.20179 4.1659 -0.00343742 0.0121184 4.16593 -5.80571 15 1 
342.667 1.20179 4.12855 -0.00361871 0.0121879 4.12858 -5.79836 15 1 
344 1.20189 4.10508 -0.00375584 0.012296 4.1051 -5.61175 15 1 
345.333 1.20205 4.09896 -0.00388 0.0124054 4.09898 -5.32627 15 1 
346.667 1.20213 4.0824 -0.00406489 0.0124472 4.08242 -5.19012 15 1 
348 1.20217 4.05682 -0.00426739 0.0124671 4.05684 -5.1195 15 1 
349.333 1.2022 4.03022 -0.00440822 0.0125654 4.03024 -5.06587 15 1 
350.667 1.20225 4.01348 -0.0044917 0.0127094 4.0135 -4.96802 15 1 
352 1.20237 4.00908 -0.00460418 0.0127783 4.0091 -4.75122 15 1 
353.333 1.20243 3.98956 -0.0047938 0.0127941 3.98959 -4.63362 15 1 
354.667 1.20245 3.96166 -0.00498243 0.0128516 3.96169 -4.59799 15 1 
356 1.20251 3.94696 -0.00509495 0.0129407 3.94699 -4.49069 15 1 
357.333 1.20257 3.93262 -0.00520115 0.0130232 3.93266 -4.39624 15 1 
358.667 1.20262 3.91636 -0.00535499 0.0131064 3.91639 -4.30708 15 1 
360 1.20267 3.89988 -0.0055135 0.0131746 3.89991 -4.21709 15 1 
361.333 1.2027 3.87781 -0.00564436 0.01326 3.87785 -4.15716 15 1 
362.667 1.20274 3.86056 -0.00579131 0.0133609 3.8606 -4.07925 15 1 
362.667 1.20274 3.86056 -0.00579131 0.0133609 3.8606 -4.07925 15 1 
364 1.20278 3.84705 -0.00597841 0.0134593 3.84709 -4.00278 15 1 
365.333 1.20282 3.83076 -0.00613562 0.0135678 3.8308 -3.93424 15 1 
366.667 1.20286 3.81517 -0.00622375 0.0137193 3.81521 -3.86217 15 1 
368 1.2029 3.79801 -0.00631572 0.0139178 3.79805 -3.79321 15 1 
369.333 1.20293 3.78263 -0.0064782 0.0141044 3.78267 -3.73749 15 1 
370.667 1.20295 3.77065 -0.00667678 0.0142422 3.77069 -3.71159 15 1 
372 1.20298 3.75785 -0.00684837 0.0143795 3.75789 -3.65328 15 1 
373.333 1.20303 3.74713 -0.00698785 0.0145458 3.74717 -3.55228 15 1 
374.667 1.20307 3.73606 -0.00713304 0.0147737 3.7361 -3.48883 15 1 
376 1.20308 3.72441 -0.00729709 0.0150047 3.72445 -3.4605 15 1 
377.333 1.20311 3.71811 -0.00746736 0.015189 3.71815 -3.42243 15 1 
378.667 1.20314 3.71219 -0.007635 0.0153694 3.71223 -3.36829 15 1 
380 1.20317 3.7055 -0.00779464 0.0155958 3.70554 -3.30219 15 1 
381.333 1.2032 3.70181 -0.00797189 0.0158303 3.70185 -3.24441 15 1 
382.667 1.20322 3.6973 -0.00817637 0.0160015 3.69734 -3.21296 15 1 
384 1.20325 3.69495 -0.00836848 0.0161793 3.695 -3.16557 15 1 
384 1.20325 3.69495 -0.00836848 0.0161793 3.695 -3.16557 15 1 
385.333 1.20328 3.69633 -0.00853694 0.0164183 3.69638 -3.10397 15 1 
386.667 1.2033 3.69576 -0.00870349 0.0166597 3.69581 -3.06438 15 1 
388 1.20333 3.69602 -0.00886501 0.0168553 3.69607 -3.01116 15 1 
389.333 1.20336 3.69838 -0.00903282 0.0170266 3.69843 -2.9652 15 1 
390.667 1.20337 3.7001 -0.00919459 0.0171959 3.70015 -2.93949 15 1 
392 1.2034 3.7035 -0.00931436 0.0173923 3.70355 -2.8878 15 1 
393.333 1.20343 3.70759 -0.0094351 0.0176362 3.70764 -2.83108 15 1 
394.667 1.20345 3.71052 -0.00958355 0.0178347 3.71057 -2.79162 15 1 
396 1.20347 3.71458 -0.00972513 0.017949 3.71463 -2.76472 15 1 
397.333 1.20349 3.71902 -0.00984088 0.0180624 3.71908 -2.73164 15 1 
398.667 1.20351 3.72324 -0.00995742 0.0182153 3.7233 -2.68882 15 1 
400 1.20353 3.72715 -0.0100892 0.0183881 3.72721 -2.65089 15 1 
401.333 1.20356 3.73072 -0.0101941 0.0186061 3.73079 -2.59961 15 1 
402.667 1.20358 3.73567 -0.0102599 0.0188552 3.73574 -2.56041 15 1 
404 1.20359 3.74042 -0.0103303 0.0190538 3.74049 -2.54226 15 1 
405.333 1.20361 3.74444 -0.0104115 0.0191852 3.74451 -2.51342 15 1 
405.333 1.20361 3.74444 -0.0104115 0.0191852 3.74451 -2.51342 15 1 
406.667 1.20363 3.74869 -0.0104848 0.0192954 3.74876 -2.47049 15 1 
408 1.20366 3.75181 -0.0105776 0.0194197 3.75188 -2.42357 15 1 
409.333 1.20367 3.75363 -0.0106872 0.0195782 3.7537 -2.40708 15 1 
410.667 1.20368 3.75623 -0.0107835 0.0198071 3.7563 -2.38739 15 1 
412 1.20371 3.76032 -0.0108585 0.0200869 3.76039 -2.33817 15 1 
413.333 1.20373 3.76591 -0.0109136 0.020304 3.76598 -2.29209 15 1 
414.667 1.20375 3.77025 -0.0109765 0.0203913 3.77032 -2.26282 15 1 
416 1.20375 3.77134 -0.0110422 0.0204617 3.77141 -2.25484 15 1 
417.333 1.20376 3.77267 -0.0110928 0.0206102 3.77274 -2.23116 15 1 
418.667 1.20378 3.77488 -0.0111895 0.0208454 3.77495 -2.19716 15 1 
420 1.2038 3.7779 -0.0113524 0.0211631 3.77798 -2.16119 15 1 
421.333 1.20383 3.78323 -0.0115394 0.0215032 3.78331 -2.11866 15 1 
422.667 1.20384 3.79015 -0.0116785 0.0217422 3.79023 -2.10269 15 1 
424 1.20384 3.7969 -0.0117332 0.0218239 3.79698 -2.09577 15 1 
425.333 1.20385 3.80261 -0.0117634 0.0218528 3.80269 -2.08348 15 1 
426.667 1.20386 3.80653 -0.0118323 0.0219602 3.80661 -2.05878 15 1 
426.667 1.20386 3.80653 -0.0118323 0.0219602 3.80661 -2.05878 20 1 
428 1.20388 3.81039 -0.0119626 0.0222032 3.81047 -2.01871 20 1 
429.333 1.2039 3.81659 -0.0121664 0.0226039 3.81668 -1.98482 20 1 
430.667 1.20391 3.82599 -0.012407 0.0230937 3.82608 -1.9624 20 1 
432 1.20392 3.83911 -0.0126295 0.0234862 3.83921 -1.9559 20 1 
433.333 1.20392 3.85431 -0.0127941 0.0237058 3.85441 -1.95044 20 1 
434.667 1.20392 3.8698 -0.0128811 0.0238023 3.8699 -1.94342 20 1 
436 1.20394 3.88403 -0.0129293 0.0238023 3.88412 -1.92102 20 1 
437.333 1.20395 3.89581 -0.0129937 0.0238303 3.89591 -1.8885 20 1 
438.667 1.20396 3.90706 -0.0130876 0.0240425 3.90716 -1.8704 20 1 
440 1.20398 3.92006 -0.0132477 0.0244274 3.92017 -1.83998 20 1 
441.333 1.20399 3.93549 -0.01348 0.0248482 3.9356 -1.81799 20 1 
442.667 1.204 3.95413 -0.0137196 0.0252058 3.95425 -1.81178 20 1 
444 1.204 3.97534 -0.0139019 0.0254507 3.97545 -1.8063 20 1 
445.333 1.204 3.99686 -0.0139927 0.0255408 3.99697 -1.7991 20 1 
446.667 1.20402 4.01721 -0.0139981 0.0254731 4.01733 -1.76785 20 1 
448 1.20404 4.0346 -0.0139478 0.025328 4.03471 -1.73446 20 1 
448 1.20404 4.0346 -0.0139478 0.025328 4.03471 -1.73446 20 1 
449.333 1.20405 4.04785 -0.0139113 0.025209 4.04796 -1.71361 20 1 
450.667 1.20406 4.05847 -0.0139554 0.0251998 4.05858 -1.70049 20 1 
452 1.20407 4.06856 -0.0140868 0.0253874 4.06866 -1.68421 20 1 
453.333 1.20408 4.08057 -0.0143036 0.025748 4.08068 -1.66089 20 1 
454.667 1.20409 4.09655 -0.0145858 0.0261944 4.09667 -1.64038 20 1 
456 1.20411 4.11693 -0.0148433 0.0266139 4.11705 -1.61463 20 1 
457.333 1.20412 4.13997 -0.0149899 0.0268111 4.14009 -1.59667 20 1 
458.667 1.20412 4.16198 -0.0149954 0.0266411 4.1621 -1.58194 20 1 
460 1.20414 4.17953 -0.0148492 0.0261899 4.17964 -1.55518 20 1 
461.333 1.20415 4.18991 -0.0146339 0.0256558 4.19001 -1.52724 20 1 
462.667 1.20416 4.19268 -0.0145062 0.0252398 4.19279 -1.5085 20 1 
464 1.20417 4.19127 -0.0145702 0.0251564 4.19137 -1.49979 20 1 
465.333 1.20418 4.18996 -0.0148485 0.0254932 4.19006 -1.48803 20 1 
466.667 1.20418 4.19328 -0.0152714 0.0261085 4.19339 -1.47435 20 1 
468 1.20419 4.20436 -0.0157363 0.0268064 4.20447 -1.46053 20 1 
469.333 1.2042 4.22285 -0.0161565 0.0274546 4.22297 -1.44192 20 1 
469.333 1.2042 4.22285 -0.0161565 0.0274546 4.22297 -1.44192 20 1 
470.667 1.20421 4.24754 -0.0164961 0.0279609 4.24767 -1.43049 20 1 
472 1.20421 4.27652 -0.0167289 0.0282387 4.27666 -1.41939 20 1 
473.333 1.20422 4.30726 -0.016851 0.0282914 4.3074 -1.40648 20 1 
474.667 1.20423 4.33822 -0.0168917 0.0282216 4.33836 -1.39666 20 1 
476 1.20424 4.36791 -0.0169063 0.0281552 4.36804 -1.37734 20 1 
477.333 1.20424 4.39652 -0.0169691 0.0281999 4.39666 -1.36794 20 1 
478.667 1.20425 4.42608 -0.0171061 0.0283702 4.42622 -1.3628 20 1 
480 1.20425 4.45689 -0.0172504 0.0285052 4.45703 -1.35346 20 1 
481.333 1.20426 4.48741 -0.0172368 0.0283243 4.48754 -1.34471 20 1 
482.667 1.20427 4.51292 -0.0168704 0.0275262 4.51304 -1.32144 20 1 
484 1.20428 4.52428 -0.016105 0.0260255 4.52439 -1.30674 20 1 
485.333 1.20428 4.51434 -0.0151035 0.0241075 4.51444 -1.30116 20 1 
486.667 1.20428 4.48215 -0.0141442 0.0222752 4.48225 -1.30076 20 1 
488 1.20427 4.43048 -0.0134985 0.0209801 4.43061 -1.31099 20 1 
489.333 1.20426 4.36738 -0.0133338 0.0205111 4.36752 -1.3347 20 1 
490.667 1.20425 4.30371 -0.0136616 0.0209168 4.30384 -1.36002 20 1 
490.667 1.20425 4.30371 -0.0136616 0.0209168 4.30384 -1.36002 20 1 
492 1.20424 4.24745 -0.0143737 0.0220039 4.24758 -1.36585 20 1 
493.333 1.20424 4.20482 -0.0153076 0.0234634 4.20493 -1.37734 20 1 
494.667 1.20423 4.17892 -0.0162992 0.0250225 4.17903 -1.3867 20 1 
496 1.20423 4.16901 -0.0172322 0.0264975 4.16913 -1.38742 20 1 
497.333 1.20424 4.17321 -0.0180513 0.0277867 4.17334 -1.37552 20 1 
498.667 1.20425 4.18945 -0.0187556 0.0288703 4.1896 -1.35017 20 1 
500 1.20427 4.21543 -0.0193688 0.0297721 4.21559 -1.32171 20 1 
501.333 1.20429 4.24956 -0.019895 0.0305284 4.24974 -1.2907 20 1 
502.667 1.2043 4.29048 -0.0203368 0.031163 4.29067 -1.26582 20 1 
504 1.20432 4.33653 -0.0207105 0.0316937 4.33673 -1.23047 20 1 
505.333 1.20434 4.38711 -0.0210329 0.0321544 4.38732 -1.1958 20 1 
506.667 1.20436 4.44143 -0.0213076 0.0325476 4.44165 -1.15636 20 1 
508 1.20439 4.49893 -0.0215449 0.032882 4.49915 -1.1072 20 1 
509.333 1.20441 4.55904 -0.0217533 0.0331616 4.55926 -1.05998 20 1 
510.667 1.20443 4.62083 -0.0219269 0.033401 4.62106 -1.02204 20 1 
512 1.20445 4.68453 -0.0220601 0.0336364 4.68476 -0.990795 20 1 
512 1.20445 4.68453 -0.0220601 0.0336364 4.68476 -0.990795 21 1 
513.333 1.20447 4.74987 -0.0221673 0.0338489 4.75011 -0.953287 21 1 
514.667 1.20449 4.81655 -0.0222695 0.0340004 4.81678 -0.922478 21 1 
516 1.20451 4.88427 -0.0223726 0.0341039 4.8845 -0.889004 21 1 
517.333 1.20452 4.95261 -0.0224841 0.0341949 4.95284 -0.8607 21 1 
518.667 1.20454 5.02152 -0.0225683 0.0342713 5.02175 -0.832082 21 1 
520 1.20455 5.09084 -0.0225968 0.0343406 5.09106 -0.805858 21 1 
521.333 1.20457 5.16094 -0.0226006 0.0344214 5.16116 -0.782481 21 1 
522.667 1.20458 5.2316 -0.0225985 0.034503 5.23182 -0.753993 21 1 
524 1.2046 5.3026 -0.0226019 0.0345563 5.30282 -0.728853 21 1 
525.333 1.20461 5.37361 -0.0226109 0.0345757 5.37383 -0.703667 21 1 
526.667 1.20462 5.44436 -0.0226231 0.0345816 5.44458 -0.69271 21 1 
528 1.20462 5.51523 -0.0226336 0.0345756 5.51544 -0.679053 21 1 
529.333 1.20463 5.58627 -0.0226253 0.0345553 5.58647 -0.662193 21 1 
530.667 1.20464 5.65742 -0.0225944 0.0345388 5.65762 -0.650502 21 1 
532 1.20464 5.72859 -0.022577 0.0345181 5.72879 -0.650947 21 1 
533.333 1.20464 5.79982 -0.022571 0.0344884 5.80001 -0.643601 21 1 
533.333 1.20464 5.79982 -0.022571 0.0344884 5.80001 -0.643601 21 1 
534.667 1.20466 5.87065 -0.0225321 0.0344641 5.87084 -0.620318 21 1 
536 1.20467 5.94111 -0.0224667 0.0344429 5.9413 -0.598933 21 1 
537.333 1.20468 6.01153 -0.0223961 0.0344294 6.01172 -0.586881 21 1 
538.667 1.20467 6.08195 -0.022337 0.0344107 6.08213 -0.600964 21 1 
540 1.20466 6.15229 -0.0222928 0.0343586 6.15247 -0.613804 21 1 
541.333 1.20466 6.22228 -0.0222651 0.0342783 6.22246 -0.61255 21 1 
542.667 1.20467 6.29176 -0.0222496 0.0341878 6.29194 -0.592958 21 1 
544 1.20468 6.36068 -0.0222219 0.0341016 6.36085 -0.580575 21 1 
545.333 1.20468 6.42938 -0.0221583 0.034034 6.42955 -0.584994 21 1 
546.667 1.20467 6.49818 -0.0220665 0.0339949 6.49834 -0.602723 21 1 
548 1.20465 6.567 -0.0219774 0.033961 6.56717 -0.62662 21 1 
549.333 1.20465 6.63508 -0.0219116 0.0338974 6.63524 -0.62798 21 1 
550.667 1.20466 6.70211 -0.0218488 0.0338078 6.70227 -0.613406 21 1 
552 1.20467 6.76869 -0.0217742 0.0337255 6.76884 -0.599048 21 1 
553.333 1.20466 6.83549 -0.0217056 0.0336484 6.83564 -0.612023 21 1 
554.667 1.20464 6.90228 -0.0216458 0.0335545 6.90243 -0.643404 21 1 
554.667 1.20464 6.90228 -0.0216458 0.0335545 6.90243 -0.643404 22 1 
556 1.20463 6.96829 -0.0215892 0.0334523 6.96844 -0.672301 22 1 
557.333 1.20463 7.03344 -0.0215312 0.033353 7.03359 -0.670951 22 1 
558.667 1.20464 7.09804 -0.0214737 0.0332533 7.09818 -0.659213 22 1 
560 1.20463 7.16244 -0.0214037 0.0331636 7.16258 -0.671797 22 1 
561.333 1.20461 7.22671 -0.0213092 0.0330937 7.22684 -0.696565 22 1 
562.667 1.2046 7.29061 -0.0212044 0.0330288 7.29075 -0.717431 22 1 
564 1.2046 7.35383 -0.0211101 0.032954 7.35397 -0.720652 22 1 
565.333 1.2046 7.41665 -0.0210345 0.0328695 7.41678 -0.716946 22 1 
566.667 1.2046 7.47931 -0.0209804 0.0327744 7.47944 -0.727375 22 1 
568 1.20458 7.54152 -0.0209401 0.0326614 7.54165 -0.752142 22 1 
569.333 1.20458 7.60307 -0.0208967 0.0325484 7.6032 -0.766938 22 1 
570.667 1.20457 7.66415 -0.020838 0.0324635 7.66428 -0.774726 22 1 
572 1.20456 7.72518 -0.0207481 0.0324092 7.72531 -0.7858 22 1 
573.333 1.20455 7.78621 -0.0206509 0.0323507 7.78633 -0.805192 22 1 
574.667 1.20455 7.84709 -0.0205758 0.0322684 7.84721 -0.820206 22 1 
576 1.20454 7.90751 -0.0205236 0.0321817 7.90763 -0.825122 22 1 
576 1.20454 7.90751 -0.0205236 0.0321817 7.90763 -0.825122 22 1 
577.333 1.20454 7.96756 -0.0204629 0.0321148 7.96768 -0.824673 22 1 
578.667 1.20454 8.02752 -0.0203818 0.0320696 8.02764 -0.829645 22 1 
580 1.20453 8.08705 -0.0203048 0.0320066 8.08717 -0.848888 22 1 
581.333 1.20452 8.1461 -0.0202472 0.0319185 8.14622 -0.866569 22 1 
582.667 1.20451 8.20505 -0.0201993 0.0318366 8.20516 -0.883451 22 1 
584 1.2045 8.26426 -0.0201429 0.0317604 8.26437 -0.894857 22 1 
585.333 1.2045 8.3236 -0.0200861 0.0316786 8.32371 -0.902076 22 1 
586.667 1.2045 8.38241 -0.020005 0.0316052 8.38251 -0.908985 22 1 
588 1.2045 8.44022 -0.0198915 0.0315522 8.44033 -0.911626 22 1 
589.333 1.20449 8.49748 -0.0197873 0.031489 8.49759 -0.924002 22 1 
590.667 1.20448 8.55486 -0.0197232 0.0313848 8.55496 -0.938241 22 1 
592 1.20448 8.6115 -0.0196739 0.0312684 8.6116 -0.939302 22 1 
593.333 1.20448 8.66726 -0.0195946 0.0311589 8.66737 -0.945351 22 1 
594.667 1.20447 8.72263 -0.0194907 0.0310487 8.72273 -0.960509 22 1 
596 1.20445 8.77754 -0.0193908 0.0309539 8.77763 -0.985811 22 1 
597.333 1.20445 8.8318 -0.019279 0.0308665 8.83189 -1.00082 22 1 
597.333 1.20445 8.8318 -0.019279 0.0308665 8.83189 -1.00082 24 1 
598.667 1.20445 8.88486 -0.0191467 0.0307468 8.88495 -0.994402 24 1 
600 1.20445 8.93719 -0.0190355 0.0305962 8.93729 -0.987119 24 1 
601.333 1.20445 8.98862 -0.0189401 0.0304442 8.98871 -0.988746 24 1 
602.667 1.20445 9.03871 -0.0188284 0.0303061 9.0388 -1.00027 24 1 
604 1.20444 9.08774 -0.0187023 0.030182 9.08783 -1.0149 24 1 
605.333 1.20443 9.13577 -0.0185686 0.0300336 9.13586 -1.03821 24 1 
606.667 1.20441 9.18289 -0.0184095 0.0298564 9.18297 -1.05886 24 1 
608 1.20441 9.22854 -0.0182531 0.0296774 9.22862 -1.06495 24 1 
609.333 1.20441 9.27269 -0.0181167 0.0295037 9.27276 -1.06233 24 1 
610.667 1.20442 9.31504 -0.0179784 0.0293294 9.31512 -1.05567 24 1 
612 1.20441 9.35575 -0.0178213 0.0291654 9.35583 -1.06224 24 1 
613.333 1.2044 9.39566 -0.0176553 0.0290186 9.39573 -1.08276 24 1 
614.667 1.20439 9.43426 -0.0175142 0.0288607 9.43433 -1.0954 24 1 
616 1.20439 9.47193 -0.0173828 0.0286895 9.472 -1.10244 24 1 
617.333 1.20438 9.50838 -0.0172472 0.0285379 9.50844 -1.11458 24 1 
618.667 1.20437 9.54337 -0.0171113 0.0284196 9.54344 -1.13507 24 1 
618.667 1.20437 9.54337 -0.0171113 0.0284196 9.54344 -1.13507 24 1 
620 1.20436 9.57727 -0.0169645 0.028307 9.57733 -1.15097 24 1 
621.333 1.20436 9.60957 -0.0168076 0.0281986 9.60963 -1.14997 24 1 
622.667 1.20437 9.64158 -0.0166675 0.0280991 9.64164 -1.13599 24 1 
624 1.20437 9.67377 -0.0165701 0.027973 9.67383 -1.13072 24 1 
625.333 1.20437 9.70523 -0.0164664 0.0278237 9.70529 -1.14674 24 1 
626.667 1.20436 9.73532 -0.016315 0.0276793 9.73538 -1.16192 24 1 
628 1.20435 9.7633 -0.0161463 0.027525 9.76335 -1.17117 24 1 
629.333 1.20434 9.78961 -0.0159837 0.0273309 9.78967 -1.18788 24 1 
630.667 1.20434 9.81421 -0.0158132 0.0271032 9.81427 -1.19741 24 1 
632 1.20434 9.83753 -0.0156277 0.0268613 9.83758 -1.1867 24 1 
633.333 1.20435 9.85943 -0.0154319 0.0265679 9.85948 -1.17683 24 1 
634.667 1.20435 9.87893 -0.0152111 0.0262457 9.87898 -1.18248 24 1 
636 1.20434 9.89538 -0.0149672 0.0259429 9.89543 -1.19017 24 1 
637.333 1.20434 9.90805 -0.0147591 0.0256154 9.9081 -1.19211 24 1 
638.667 1.20434 9.91798 -0.0145862 0.025272 9.91803 -1.19232 24 1 
640 1.20434 9.92538 -0.0144086 0.0250011 9.92542 -1.19464 24 1 
640 1.20434 9.92538 -0.0144086 0.0250011 9.92542 -1.19464 24 1 
641.333 1.20433 9.9309 -0.0142188 0.0248126 9.93094 -1.20742 24 1 
642.667 1.20432 9.93562 -0.014059 0.0246299 9.93566 -1.22307 24 1 
644 1.20433 9.93927 -0.0139445 0.0244561 9.93931 -1.21749 24 1 
645.333 1.20434 9.94193 -0.0138457 0.0243445 9.94197 -1.19725 24 1 
646.667 1.20433 9.94349 -0.0137726 0.0242679 9.94352 -1.20159 24 1 
648 1.20432 9.94429 -0.0136966 0.0242023 9.94432 -1.22138 24 1 
649.333 1.20432 9.94546 -0.0135972 0.0241867 9.9455 -1.22303 24 1 
650.667 1.20433 9.94725 -0.0135114 0.0241775 9.94729 -1.21362 24 1 
652 1.20433 9.94984 -0.0134677 0.0241365 9.94988 -1.21382 24 1 
653.333 1.20433 9.95273 -0.0134101 0.0241058 9.95277 -1.21295 24 1 
654.667 1.20432 9.95508 -0.0133188 0.024075 9.95512 -1.2193 24 1 
656 1.20431 9.9572 -0.0132541 0.0240124 9.95723 -1.24039 24 1 
657.333 1.20431 9.95918 -0.0131921 0.023949 9.95922 -1.24107 24 1 
658.667 1.20433 9.96137 -0.0130916 0.0239044 9.96141 -1.21655 24 1 
660 1.20434 9.96412 -0.0129818 0.0238534 9.96416 -1.19286 24 1 
661.333 1.20434 9.96716 -0.0128864 0.0237963 9.9672 -1.18987 24 1 
661.333 1.20434 9.96716 -0.0128864 0.0237963 9.9672 -1.18987 24 1 
662.667 1.20433 9.96932 -0.0127943 0.0237246 9.96935 -1.2122 24 1 
664 1.20432 9.97052 -0.0126923 0.0236471 9.97056 -1.22418 24 1 
665.333 1.20433 9.97157 -0.0126063 0.0235652 9.9716 -1.21615 24 1 
666.667 1.20433 9.97248 -0.0125204 0.0235076 9.97252 -1.21174 24 1 
668 1.20433 9.97371 -0.0124453 0.0234234 9.97374 -1.20325 24 1 
669.333 1.20434 9.97544 -0.012403 0.0233023 9.97547 -1.1955 24 1 
670.667 1.20434 9.97744 -0.0123489 0.0232079 9.97748 -1.1885 24 1 
672 1.20434 9.97859 -0.0122479 0.0231588 9.97863 -1.18559 24 1 
673.333 1.20434 9.97883 -0.012145 0.0231076 9.97887 -1.19365 24 1 
674.667 1.20434 9.97914 -0.0120854 0.0230142 9.97917 -1.19707 24 1 
676 1.20434 9.97954 -0.0120415 0.0229132 9.97957 -1.18768 24 1 
677.333 1.20435 9.98025 -0.011997 0.0228008 9.98028 -1.17809 24 1 
678.667 1.20435 9.98145 -0.0119349 0.0227254 9.98148 -1.17537 24 1 
680 1.20434 9.98218 -0.0118417 0.0226864 9.98222 -1.18364 24 1 
681.333 1.20434 9.98218 -0.0117312 0.0226564 9.98221 -1.19195 24 1 
682.667 1.20435 9.98218 -0.0116221 0.0226234 9.98221 -1.18097 24 1 
682.667 1.20435 9.98218 -0.0116221 0.0226234 9.98221 -1.18097 31 1 
684 1.20435 9.9823 -0.0115402 0.0225645 9.98233 -1.1718 31 1 
685.333 1.20435 9.98303 -0.0114833 0.0224863 9.98306 -1.17127 31 1 
686.667 1.20435 9.98405 -0.0114436 0.0223848 9.98408 -1.16708 31 1 
688 1.20436 9.98473 -0.0113997 0.0222822 9.98476 -1.16441 31 1 
689.333 1.20435 9.98525 -0.0113121 0.0222196 9.98528 -1.16696 31 1 
690.667 1.20435 9.98512 -0.0112131 0.0221788 9.98515 -1.16566 31 1 
692 1.20436 9.98504 -0.0111366 0.0221211 9.98507 -1.15942 31 1 
693.333 1.20436 9.98575 -0.0110607 0.0220485 9.98578 -1.15602 31 1 
694.667 1.20437 9.98677 -0.0109904 0.0219698 9.9868 -1.14107 31 1 
696 1.20438 9.9874 -0.0109407 0.0218865 9.98743 -1.12675 31 1 
697.333 1.20437 9.98734 -0.0108778 0.0218086 9.98737 -1.14138 31 1 
698.667 1.20436 9.98717 -0.0107987 0.0217274 9.9872 -1.15852 31 1 
700 1.20437 9.98764 -0.0107321 0.0216303 9.98767 -1.13974 31 1 
701.333 1.20439 9.9884 -0.0106752 0.0215355 9.98843 -1.10479 31 1 
702.667 1.20439 9.98917 -0.010598 0.0214577 9.98919 -1.09343 31 1 
704 1.20439 9.98945 -0.0105033 0.0213905 9.98948 -1.10686 31 1 
704 1.20439 9.98945 -0.0105033 0.0213905 9.98948 -1.10686 31 1 
705.333 1.20438 9.98914 -0.0104221 0.0213035 9.98917 -1.12022 31 1 
706.667 1.20438 9.98901 -0.0103605 0.0211905 9.98903 -1.12109 31 1 
708 1.20439 9.98936 -0.0103093 0.0210752 9.98939 -1.10957 31 1 
709.333 1.20439 9.9899 -0.0102606 0.0209639 9.98993 -1.09801 31 1 
710.667 1.2044 9.99017 -0.0102002 0.0208685 9.9902 -1.08479 31 1 
712 1.20441 9.99047 -0.0101031 0.0208024 9.9905 -1.06485 31 1 
713.333 1.20441 9.9905 -0.0100105 0.0207306 9.99053 -1.06631 31 1 
714.667 1.2044 9.99019 -0.00995138 0.020625 9.99022 -1.08301 31 1 
716 1.20439 9.98943 -0.00989276 0.0205076 9.98946 -1.10381 31 1 
717.333 1.20438 9.98904 -0.00983176 0.0203977 9.98907 -1.11561 31 1 
718.667 1.2044 9.98971 -0.00977687 0.0203034 9.98974 -1.09248 31 1 
720 1.20442 9.99048 -0.00972867 0.0202146 9.99051 -1.04816 31 1 
721.333 1.20443 9.99072 -0.00967416 0.0201133 9.99074 -1.02148 31 1 
722.667 1.20443 9.99067 -0.00961176 0.0200129 9.9907 -1.02649 31 1 
724 1.20442 9.99026 -0.00957079 0.0199026 9.99029 -1.0481 31 1 
725.333 1.20441 9.98996 -0.00953003 0.019806 9.98998 -1.06879 31 1 
725.333 1.20441 9.98996 -0.00953003 0.019806 9.98998 -1.06879 31 1 
726.667 1.2044 9.99025 -0.00945345 0.0197386 9.99028 -1.08011 31 1 
728 1.20441 9.99075 -0.00937167 0.0196649 9.99078 -1.0688 31 1 
729.333 1.20444 9.99162 -0.00932079 0.0195457 9.99164 -1.01901 31 1 
730.667 1.20447 9.99265 -0.0093127 0.0194004 9.99268 -0.962376 31 1 
732 1.20447 9.9929 -0.00930821 0.0192735 9.99292 -0.950632 31 1 
733.333 1.20445 9.99241 -0.00925174 0.0191834 9.99243 -0.992626 31 1 
734.667 1.20442 9.99223 -0.00914478 0.0191199 9.99226 -1.0416 31 1 
736 1.20442 9.99271 -0.0090351 0.0190734 9.99274 -1.04025 31 1 
737.333 1.20445 9.99354 -0.00897468 0.0189874 9.99356 -0.99332 31 1 
738.667 1.20447 9.99387 -0.00895232 0.018837 9.99389 -0.957968 31 1 
740 1.20448 9.99455 -0.00893124 0.018703 9.99457 -0.94296 31 1 
741.333 1.20448 9.99532 -0.00890708 0.0185757 9.99534 -0.935886 31 1 
742.667 1.20448 9.9952 -0.00884081 0.0184824 9.99522 -0.945081 31 1 
744 1.20447 9.99478 -0.00873717 0.0184148 9.99481 -0.962976 31 1 
745.333 1.20446 9.99445 -0.00863929 0.0183632 9.99447 -0.981464 31 1 
746.667 1.20446 9.99483 -0.00857509 0.0182755 9.99485 -0.978149 31 1 
746.667 1.20446 9.99483 -0.00857509 0.0182755 9.99485 -0.978149 31 1 
748 1.20448 9.99567 -0.0085375 0.0181435 9.99569 -0.942314 31 1 
749.333 1.2045 9.99628 -0.00850687 0.0180163 9.9963 -0.90307 31 1 
750.667 1.2045 9.99653 -0.00848549 0.0178902 9.99655 -0.894802 31 1 
752 1.20449 9.99626 -0.00845812 0.0177625 9.99628 -0.919158 31 1 
753.333 1.20448 9.99572 -0.00839258 0.0176614 9.99574 -0.935096 31 1 
754.667 1.20449 9.99563 -0.0083042 0.0176009 9.99564 -0.928489 31 1 
756 1.20449 9.99602 -0.00821699 0.0175357 9.99603 -0.918338 31 1 
757.333 1.2045 9.9963 -0.00815202 0.0174422 9.99632 -0.903584 31 1 
758.667 1.20451 9.99641 -0.00814389 0.0173069 9.99643 -0.8867 31 1 
760 1.20451 9.99637 -0.00814109 0.0171765 9.99639 -0.877509 31 1 
761.333 1.20452 9.99641 -0.00810723 0.0170457 9.99643 -0.86771 31 1 
762.667 1.20452 9.99656 -0.00804739 0.0169317 9.99658 -0.869205 31 1 
764 1.20451 9.99621 -0.00797355 0.016866 9.99623 -0.884391 31 1 
765.333 1.20451 9.9958 -0.00788986 0.0168001 9.99582 -0.877422 31 1 
766.667 1.20452 9.99598 -0.00782414 0.0167018 9.996 -0.86391 31 1 
768 1.20452 9.99631 -0.00779499 0.0165981 9.99632 -0.865792 31 1 
768 1.20452 9.99631 -0.00779499 0.0165981 9.99632 -0.865792 32 1 
769.333 1.20453 9.99631 -0.00776491 0.0164874 9.99633 -0.851975 32 1 
770.667 1.20454 9.99647 -0.00774635 0.0163405 9.99649 -0.825782 32 1 
772 1.20455 9.9969 -0.00770972 0.0162378 9.99691 -0.814012 32 1 
773.333 1.20454 9.99659 -0.00763616 0.0161683 9.9966 -0.825631 32 1 
774.667 1.20453 9.99593 -0.00755129 0.0161029 9.99594 -0.8553 32 1 
776 1.20452 9.9958 -0.00748022 0.016031 9.99581 -0.87089 32 1 
777.333 1.20453 9.99625 -0.00744197 0.0159208 9.99627 -0.843101 32 1 
778.667 1.20456 9.99718 -0.00743949 0.0157859 9.99719 -0.793477 32 1 
780 1.20458 9.99762 -0.00743873 0.0156497 9.99763 -0.767627 32 1 
781.333 1.20457 9.99742 -0.00738573 0.0155339 9.99744 -0.784683 32 1 
782.667 1.20455 9.99698 -0.00729013 0.015488 9.99699 -0.820948 32 1 
784 1.20454 9.99659 -0.00720004 0.0154692 9.9966 -0.828723 32 1 
785.333 1.20455 9.99682 -0.00714189 0.0153467 9.99684 -0.816019 32 1 
786.667 1.20456 9.99743 -0.007124 0.0151992 9.99744 -0.802321 32 1 
788 1.20458 9.99817 -0.00712757 0.0150869 9.99818 -0.762539 32 1 
789.333 1.20459 9.99864 -0.007108 0.0149634 9.99865 -0.731873 32 1 
790.667 1.20458 9.99824 -0.00701037 0.0148866 9.99825 -0.755839 32 1 
792 1.20456 9.99775 -0.00689733 0.0148637 9.99776 -0.788096 32 1 
793.333 1.20456 9.99784 -0.00686206 0.0147589 9.99786 -0.788447 32 1 
794.667 1.20458 9.99832 -0.00685746 0.0146065 9.99834 -0.764134 32 1 
796 1.20459 9.99883 -0.00682216 0.0144957 9.99885 -0.734778 32 1 
797.333 1.2046 9.99908 -0.00677139 0.0144119 9.99909 -0.730905 32 1 
798.667 1.20459 9.9992 -0.00670259 0.0143207 9.99921 -0.73661 32 1 
800 1.20459 9.99929 -0.00664915 0.0142647 9.9993 -0.733641 32 1 
