97.8099;r ;Density                 ;Velocity u              ;Velocity v              ;Velocity w              ;|Velocity|              ;Pressure                ;Distribution            ;Levels                  ;
0 1.2072 9.99588 0.000649294 0.00159554 9.99588 3.97287 1 1 
1.33334 1.20712 9.99744 0.000156789 0.000689949 9.99744 3.8376 1 1 
2.66666 1.207 9.99966 -0.000899136 -0.00126635 9.99966 3.60423 1 1 
4 1.20686 10.0004 -0.00182354 -0.00290593 10.0004 3.36374 1 1 
5.33334 1.20678 10.0011 -0.0025354 -0.00406618 10.0011 3.21093 1 1 
6.66666 1.20675 10.0017 -0.0033933 -0.00556702 10.0017 3.15777 1 1 
8 1.20671 10.0016 -0.00419303 -0.00693809 10.0017 3.08311 1 1 
9.33334 1.20674 10.0021 -0.00486656 -0.00805595 10.0022 3.14795 1 1 
10.6667 1.2068 10.0025 -0.00568136 -0.00951146 10.0026 3.24933 1 1 
12 1.20685 10.0022 -0.0063233 -0.0105834 10.0022 3.33658 1 1 
13.3333 1.20698 10.0022 -0.00682924 -0.0114276 10.0023 3.58257 1 1 
14.6667 1.20711 10.0024 -0.00733439 -0.0123214 10.0025 3.81543 1 1 
16 1.20724 10.002 -0.0075458 -0.0125463 10.0021 4.05008 1 1 
17.3333 1.20742 10.0018 -0.007684 -0.0126246 10.0019 4.36939 1 1 
18.6667 1.20756 10.0012 -0.00774252 -0.012552 10.0014 4.62489 1 1 
20 1.20772 10.001 -0.00745354 -0.0117366 10.0011 4.92122 1 1 
21.3333 1.2079 10.0007 -0.0071445 -0.0108735 10.0008 5.24267 1 1 
21.3333 1.2079 10.0007 -0.0071445 -0.0108735 10.0008 5.24267 1 1 
22.6667 1.20802 9.99941 -0.00667587 -0.00966048 9.99951 5.45531 1 1 
24 1.20816 9.99897 -0.00592678 -0.007858 9.99904 5.71251 1 1 
25.3333 1.2083 9.99865 -0.00521847 -0.00612977 9.9987 5.95261 1 1 
26.6667 1.20836 9.99746 -0.00430082 -0.00393832 9.99749 6.06909 1 1 
28 1.20844 9.99663 -0.00324784 -0.00147672 9.99664 6.2121 1 1 
29.3333 1.20848 9.99606 -0.0023118 0.000768428 9.99607 6.28763 1 1 
30.6667 1.20848 9.99543 -0.00119318 0.00346555 9.99544 6.28721 1 1 
32 1.20849 9.99478 -9.35888e-05 0.00610028 9.99479 6.29837 1 1 
33.3333 1.20842 9.99384 0.000844564 0.00840494 9.99386 6.16934 1 1 
34.6667 1.20833 9.99343 0.00189449 0.0109638 9.99346 6.01544 1 1 
36 1.20826 9.99353 0.00276471 0.0131528 9.99358 5.89506 1 1 
37.3333 1.20813 9.99268 0.00348714 0.0150565 9.99276 5.64772 1 1 
38.6667 1.20798 9.99254 0.00422977 0.0169562 9.99263 5.38011 1 1 
40 1.20783 9.99284 0.00466924 0.0182182 9.99296 5.11828 1 1 
41.3333 1.20766 9.99234 0.0049791 0.0192914 9.99246 4.80352 1 1 
42.6667 1.2075 9.99261 0.00523513 0.0201967 9.99274 4.52423 1 1 
42.6667 1.2075 9.99261 0.00523513 0.0201967 9.99274 4.52423 2 1 
44 1.20732 9.99284 0.00516705 0.0203859 9.99297 4.18567 2 1 
45.3333 1.20711 9.9928 0.00499377 0.0204418 9.99292 3.80532 2 1 
46.6667 1.20696 9.99326 0.00464677 0.0201286 9.99337 3.53969 2 1 
48 1.20678 9.99365 0.00401936 0.0191968 9.99375 3.2218 2 1 
49.3333 1.20659 9.99404 0.00338863 0.0182545 9.99412 2.87456 2 1 
50.6667 1.20645 9.99445 0.00252208 0.0168092 9.99451 2.62336 2 1 
52 1.20632 9.9945 0.00143522 0.0149318 9.99454 2.38231 2 1 
53.3333 1.20623 9.99545 0.000416551 0.0131504 9.99548 2.2146 2 1 
54.6667 1.20615 9.99627 -0.000780318 0.0109422 9.99628 2.08198 2 1 
56 1.20608 9.99586 -0.00202565 0.00866402 9.99586 1.95777 2 1 
57.3333 1.20611 9.99644 -0.00317103 0.00652986 9.99645 2.00302 2 1 
58.6667 1.20615 9.99757 -0.00439622 0.00417412 9.99759 2.0793 2 1 
60 1.20618 9.99751 -0.00546675 0.00217794 9.99754 2.13996 2 1 
61.3333 1.2063 9.99727 -0.0064782 0.000278743 9.9973 2.34493 2 1 
62.6667 1.20643 9.9979 -0.00752469 -0.00173493 9.99796 2.57817 2 1 
64 1.20657 9.99836 -0.00829495 -0.00315016 9.99843 2.84245 2 1 
64 1.20657 9.99836 -0.00829495 -0.00315016 9.99843 2.84245 2 1 
65.3333 1.20675 9.99825 -0.00900154 -0.00441498 9.99834 3.16925 2 1 
66.6667 1.20693 9.9974 -0.00967049 -0.00563195 9.9975 3.48155 2 1 
68 1.20713 9.99783 -0.0100522 -0.00627732 9.99793 3.85237 2 1 
69.3333 1.20737 9.99826 -0.0103657 -0.00674696 9.99836 4.27229 2 1 
70.6667 1.20757 9.99679 -0.0105236 -0.00684933 9.99689 4.6383 2 1 
72 1.20778 9.99644 -0.010415 -0.00644059 9.99653 5.02737 2 1 
73.3333 1.20801 9.99652 -0.010219 -0.0058742 9.9966 5.42935 2 1 
74.6667 1.20819 9.99561 -0.00979536 -0.00472329 9.99568 5.77011 2 1 
76 1.20839 9.99446 -0.00921361 -0.00323893 9.99451 6.12799 2 1 
77.3333 1.20854 9.99378 -0.00858741 -0.0017108 9.99382 6.38617 2 1 
78.6667 1.20865 9.99341 -0.00772246 0.00039167 9.99343 6.58876 2 1 
80 1.20878 9.99227 -0.00683744 0.00257159 9.99229 6.83278 2 1 
81.3333 1.20882 9.99087 -0.00598173 0.00471429 9.99088 6.90698 2 1 
82.6667 1.20883 9.99033 -0.0049159 0.00731356 9.99034 6.92478 2 1 
84 1.20886 9.98954 -0.0039665 0.00970703 9.98955 6.96517 2 1 
85.3333 1.2088 9.9882 -0.00309043 0.0120302 9.98822 6.86041 2 1 
85.3333 1.2088 9.9882 -0.00309043 0.0120302 9.98822 6.86041 3 1 
86.6667 1.20873 9.98765 -0.00205127 0.0146791 9.98769 6.73485 3 1 
88 1.20864 9.98753 -0.00115118 0.01701 9.98757 6.57013 3 1 
89.3333 1.20849 9.98649 -0.000326634 0.0192284 9.98655 6.30171 3 1 
90.6667 1.20835 9.98586 0.000500821 0.0214585 9.98594 6.04811 3 1 
92 1.20819 9.98574 0.00117645 0.0233335 9.98584 5.75353 3 1 
93.3333 1.20798 9.98545 0.00178373 0.0250492 9.98556 5.3851 3 1 
94.6667 1.20778 9.98541 0.00219248 0.026384 9.98554 5.02496 3 1 
96 1.20759 9.9851 0.0024507 0.027341 9.98523 4.67906 3 1 
97.3333 1.20739 9.9857 0.00262496 0.02805 9.98584 4.3259 3 1 
98.6667 1.20719 9.9862 0.0024822 0.0281149 9.98632 3.95601 3 1 
100 1.207 9.98542 0.00222878 0.0278912 9.98554 3.61312 3 1 
101.333 1.20687 9.98611 0.00187843 0.0273886 9.98621 3.37279 3 1 
102.667 1.20673 9.9876 0.00126824 0.026271 9.98769 3.12079 3 1 
104 1.20659 9.98763 0.000622811 0.0251024 9.9877 2.8704 3 1 
105.333 1.20654 9.98752 -0.00012636 0.0236813 9.98758 2.78709 3 1 
106.667 1.20649 9.98898 -0.0011002 0.0216822 9.98902 2.69456 3 1 
106.667 1.20649 9.98898 -0.0011002 0.0216822 9.98902 2.69456 3 1 
108 1.20644 9.9896 -0.00199672 0.0198812 9.98963 2.60922 3 1 
109.333 1.20648 9.989 -0.00297485 0.0178934 9.98903 2.67801 3 1 
110.667 1.20652 9.98958 -0.00415451 0.0154443 9.9896 2.73865 3 1 
112 1.20658 9.99099 -0.0051203 0.0133773 9.99101 2.84676 3 1 
113.333 1.20671 9.99104 -0.00617396 0.011168 9.99107 3.08533 3 1 
114.667 1.20681 9.99046 -0.00735906 0.0087387 9.9905 3.27253 3 1 
116 1.20696 9.99075 -0.00829835 0.00675717 9.9908 3.53617 3 1 
117.333 1.20716 9.99052 -0.00927301 0.00477484 9.99058 3.90459 3 1 
118.667 1.20731 9.99015 -0.0102063 0.00296914 9.99022 4.16814 3 1 
120 1.20752 9.98898 -0.0109298 0.0016647 9.98906 4.54956 3 1 
121.333 1.20774 9.98919 -0.0115946 0.000464158 9.98928 4.94208 3 1 
122.667 1.2079 9.98974 -0.0121113 -0.000330052 9.98984 5.24123 3 1 
124 1.20812 9.98778 -0.0124152 -0.000582279 9.98787 5.6373 3 1 
125.333 1.2083 9.98707 -0.012631 -0.000646579 9.98716 5.96311 3 1 
126.667 1.20845 9.98666 -0.0126576 -0.000239999 9.98673 6.2371 3 1 
128 1.20861 9.9851 -0.012517 0.000606703 9.98516 6.52064 3 1 
128 1.20861 9.9851 -0.012517 0.000606703 9.98516 6.52064 3 1 
129.333 1.20874 9.98375 -0.0123565 0.00160622 9.9838 6.75305 3 1 
130.667 1.20885 9.98341 -0.0119699 0.00304138 9.98344 6.94758 3 1 
132 1.20892 9.98346 -0.011474 0.0047591 9.98349 7.08352 3 1 
133.333 1.20897 9.98157 -0.010937 0.00664346 9.98159 7.16964 3 1 
134.667 1.209 9.98016 -0.010274 0.00878064 9.98018 7.21887 3 1 
136 1.209 9.97976 -0.00954318 0.0110197 9.97977 7.21795 3 1 
137.333 1.20895 9.97881 -0.0087599 0.0133961 9.97883 7.12957 3 1 
138.667 1.20889 9.97767 -0.00797763 0.0157927 9.9777 7.03025 3 1 
140 1.20882 9.97763 -0.00718019 0.0181104 9.97768 6.89652 3 1 
141.333 1.2087 9.97799 -0.00633935 0.0204559 9.97804 6.67987 3 1 
142.667 1.20857 9.97663 -0.00555605 0.0226612 9.9767 6.45542 3 1 
144 1.20843 9.97534 -0.00489422 0.0245721 9.97542 6.19818 3 1 
145.333 1.20828 9.97552 -0.00423597 0.0263382 9.97562 5.92603 3 1 
146.667 1.20813 9.97609 -0.00365634 0.0278622 9.9762 5.65899 3 1 
148 1.20797 9.97538 -0.00323154 0.0289922 9.97549 5.36771 3 1 
149.333 1.20782 9.97532 -0.0028853 0.0298134 9.97543 5.08723 3 1 
149.333 1.20782 9.97532 -0.0028853 0.0298134 9.97543 5.08723 3 1 
150.667 1.20768 9.97589 -0.00260426 0.0303379 9.976 4.84825 3 1 
152 1.20755 9.97535 -0.00247429 0.0304966 9.97545 4.59874 3 1 
153.333 1.20742 9.97489 -0.00248579 0.0303153 9.97498 4.37113 3 1 
154.667 1.20733 9.97529 -0.00259473 0.0298255 9.97538 4.20907 3 1 
156 1.20725 9.97602 -0.00279856 0.0290679 9.97609 4.06974 3 1 
157.333 1.20719 9.97605 -0.0031308 0.0280257 9.9761 3.956 3 1 
158.667 1.20717 9.97528 -0.00355413 0.0267544 9.97532 3.91729 3 1 
160 1.20717 9.9754 -0.00399359 0.0253641 9.97544 3.91399 3 1 
161.333 1.20717 9.97614 -0.00453432 0.0237993 9.97617 3.91703 3 1 
162.667 1.20723 9.9749 -0.00515578 0.0221221 9.97493 4.02364 3 1 
164 1.20731 9.97448 -0.00579252 0.0204413 9.97451 4.16653 3 1 
165.333 1.20738 9.97572 -0.00641994 0.0187942 9.97575 4.30298 3 1 
166.667 1.20751 9.97402 -0.00709279 0.0171616 9.97406 4.5288 3 1 
168 1.20762 9.97298 -0.00778963 0.0156007 9.97303 4.73014 3 1 
169.333 1.20775 9.97349 -0.00841477 0.0142721 9.97354 4.97607 3 1 
170.667 1.20793 9.97274 -0.00899996 0.0131185 9.97279 5.28431 3 1 
170.667 1.20793 9.97274 -0.00899996 0.0131185 9.97279 5.28431 11 1 
172 1.20805 9.97216 -0.00961877 0.0120648 9.97222 5.50205 11 1 
173.333 1.2082 9.97025 -0.0101612 0.0113149 9.97031 5.78787 11 1 
174.667 1.20837 9.9696 -0.0106155 0.0108407 9.96966 6.08646 11 1 
176 1.20849 9.96861 -0.0110485 0.0104991 9.96866 6.30695 11 1 
177.333 1.20862 9.96641 -0.0114253 0.0104005 9.96646 6.53133 11 1 
178.667 1.20875 9.96537 -0.0117003 0.010616 9.96541 6.77767 11 1 
180 1.20886 9.9649 -0.0118989 0.0110499 9.96493 6.97579 11 1 
181.333 1.20893 9.96437 -0.0121066 0.0116129 9.9644 7.10025 11 1 
182.667 1.20901 9.96222 -0.0122462 0.012403 9.96224 7.24499 11 1 
184 1.20908 9.96045 -0.0123064 0.0133429 9.96047 7.3704 11 1 
185.333 1.20909 9.95936 -0.0123564 0.0142761 9.95938 7.38926 11 1 
186.667 1.2091 9.95654 -0.0124182 0.0152621 9.95657 7.4053 11 1 
188 1.20911 9.95499 -0.0123759 0.0163781 9.95502 7.43112 11 1 
189.333 1.20908 9.95576 -0.012247 0.0175119 9.95579 7.37308 11 1 
190.667 1.20905 9.95405 -0.0122065 0.0184808 9.95408 7.31592 11 1 
192 1.209 9.95143 -0.012141 0.0195038 9.95147 7.22969 11 1 
192 1.209 9.95143 -0.012141 0.0195038 9.95147 7.22969 11 1 
193.333 1.20894 9.9501 -0.0120106 0.0204552 9.95014 7.11306 11 1 
194.667 1.20887 9.94799 -0.0119567 0.0211729 9.94804 6.99739 11 1 
196 1.20878 9.94636 -0.0118317 0.0219199 9.9464 6.83054 11 1 
197.333 1.20872 9.94572 -0.0117472 0.0225285 9.94577 6.71823 11 1 
198.667 1.20867 9.94447 -0.0116657 0.0229662 9.94452 6.63215 11 1 
200 1.20858 9.94312 -0.0114051 0.0234435 9.94316 6.46345 11 1 
201.333 1.20849 9.94002 -0.0113739 0.0236844 9.94007 6.30468 11 1 
202.667 1.20845 9.936 -0.0113332 0.0237511 9.93604 6.22941 11 1 
204 1.20839 9.93613 -0.011025 0.0239786 9.93618 6.12657 11 1 
205.333 1.20835 9.93624 -0.010926 0.023982 9.93629 6.04727 11 1 
206.667 1.20836 9.93363 -0.0107955 0.024052 9.93367 6.07329 11 1 
208 1.20834 9.93261 -0.0104788 0.0241372 9.93265 6.02467 11 1 
209.333 1.20833 9.92929 -0.0103539 0.0239864 9.92932 6.01925 11 1 
210.667 1.20837 9.92361 -0.010196 0.0239679 9.92365 6.08582 11 1 
212 1.20839 9.92056 -0.0099594 0.0239459 9.9206 6.11859 11 1 
213.333 1.20845 9.9196 -0.00973658 0.0239366 9.91963 6.23989 11 1 
213.333 1.20845 9.9196 -0.00973658 0.0239366 9.91963 6.23989 11 1 
214.667 1.20854 9.91874 -0.00950824 0.0239729 9.91877 6.40165 11 1 
216 1.20861 9.91708 -0.00933288 0.0240595 9.91711 6.52215 11 1 
217.333 1.2087 9.91421 -0.00908265 0.02412 9.91425 6.691 11 1 
218.667 1.20882 9.90926 -0.00889523 0.0242001 9.9093 6.89961 11 1 
220 1.2089 9.90309 -0.00876497 0.0242596 9.90313 7.03931 11 1 
221.333 1.20899 9.8967 -0.00863387 0.0242633 9.89674 7.21354 11 1 
222.667 1.2091 9.89279 -0.00852342 0.024235 9.89283 7.40487 11 1 
224 1.20919 9.89178 -0.0084808 0.0242997 9.89182 7.57473 11 1 
225.333 1.20931 9.88889 -0.00850603 0.0243799 9.88893 7.7821 11 1 
226.667 1.20941 9.88395 -0.00851452 0.0244429 9.88399 7.96545 11 1 
228 1.20947 9.87807 -0.00859663 0.0245226 9.87811 8.07213 11 1 
229.333 1.2095 9.86891 -0.00887693 0.0245293 9.86896 8.13219 11 1 
230.667 1.20957 9.85986 -0.00925012 0.0243758 9.8599 8.24722 11 1 
232 1.20959 9.8564 -0.00950581 0.0242503 9.85643 8.29725 11 1 
233.333 1.20966 9.85279 -0.00977645 0.024328 9.85283 8.42367 11 1 
234.667 1.20975 9.8457 -0.0101428 0.0244603 9.84574 8.57929 11 1 
234.667 1.20975 9.8457 -0.0101428 0.0244603 9.84574 8.57929 11 1 
236 1.20968 9.83922 -0.010699 0.0244038 9.83926 8.45998 11 1 
237.333 1.20974 9.82817 -0.0113141 0.0241988 9.82821 8.56154 11 1 
238.667 1.2098 9.81854 -0.0119758 0.0241292 9.81858 8.66192 11 1 
240 1.20978 9.81228 -0.0125378 0.0242162 9.81232 8.63896 11 1 
241.333 1.2099 9.80279 -0.0129939 0.0242908 9.80283 8.84763 11 1 
242.667 1.20992 9.7966 -0.0134912 0.0242147 9.79664 8.89517 11 1 
244 1.21 9.7836 -0.0142013 0.0240683 9.78364 9.03494 11 1 
245.333 1.21005 9.77056 -0.0148551 0.0238968 9.7706 9.11781 11 1 
246.667 1.21014 9.76003 -0.0152191 0.023906 9.76007 9.28285 11 1 
248 1.21032 9.74747 -0.0156857 0.0236874 9.74751 9.61023 11 1 
249.333 1.21038 9.73711 -0.015924 0.023751 9.73715 9.71004 11 1 
250.667 1.21051 9.72163 -0.0163115 0.0235809 9.72167 9.95963 11 1 
252 1.21064 9.70726 -0.0167873 0.023038 9.70731 10.1905 11 1 
253.333 1.21083 9.68749 -0.0168677 0.0229997 9.68753 10.536 11 1 
254.667 1.21093 9.67162 -0.0169797 0.0228344 9.67167 10.7074 11 1 
256 1.21106 9.6543 -0.0170415 0.0226535 9.65435 10.9477 11 1 
256 1.21106 9.6543 -0.0170415 0.0226535 9.65435 10.9477 13 1 
257.333 1.21131 9.63193 -0.0169598 0.0225199 9.63197 11.3908 13 1 
258.667 1.21136 9.61209 -0.0171114 0.0222577 9.61214 11.4857 13 1 
260 1.2115 9.58764 -0.0170577 0.0222203 9.58769 11.7425 13 1 
261.333 1.21176 9.56092 -0.0167038 0.0223151 9.56096 12.2183 13 1 
262.667 1.2119 9.53261 -0.0165804 0.022416 9.53266 12.4656 13 1 
264 1.21193 9.50977 -0.0165166 0.0225558 9.50982 12.5141 13 1 
265.333 1.21224 9.47601 -0.0163403 0.0227814 9.47606 13.0703 13 1 
266.667 1.21252 9.43459 -0.0160898 0.0232278 9.43465 13.5916 13 1 
268 1.21246 9.40477 -0.0159482 0.0236617 9.40484 13.4823 13 1 
269.333 1.21283 9.3619 -0.0158484 0.0240512 9.36196 14.1511 13 1 
270.667 1.21332 9.31063 -0.0156979 0.0244886 9.31068 15.0195 13 1 
272 1.21319 9.27881 -0.0155288 0.0249726 9.27887 14.7943 13 1 
273.333 1.21368 9.22086 -0.0154845 0.0254413 9.22093 15.6825 13 1 
274.667 1.21436 9.15317 -0.015496 0.0258351 9.15325 16.9146 13 1 
276 1.21431 9.10597 -0.0154377 0.0261569 9.10606 16.8214 13 1 
277.333 1.21487 9.02681 -0.0154955 0.0264543 9.02689 17.8257 13 1 
277.333 1.21487 9.02681 -0.0154955 0.0264543 9.02689 17.8257 13 1 
278.667 1.21559 8.94882 -0.0155487 0.0265629 8.94891 19.1308 13 1 
280 1.21588 8.87374 -0.0155966 0.0265759 8.87384 19.6491 13 1 
281.333 1.21643 8.77609 -0.0157553 0.0265735 8.77618 20.6518 13 1 
282.667 1.21711 8.68986 -0.015946 0.0264814 8.68992 21.8675 13 1 
284 1.2179 8.59915 -0.0160512 0.0262305 8.59922 23.3067 13 1 
285.333 1.21868 8.48554 -0.0161742 0.025804 8.48573 24.7037 13 1 
286.667 1.21923 8.34195 -0.0162405 0.0252043 8.34232 25.708 13 1 
288 1.21985 8.18484 -0.0163119 0.0246497 8.18516 26.8295 13 1 
289.333 1.22077 8.04526 -0.016505 0.024245 8.04539 28.4818 13 1 
290.667 1.2219 7.90352 -0.016604 0.0237295 7.90367 30.5279 13 1 
292 1.22276 7.74107 -0.016637 0.0231976 7.74131 32.0763 13 1 
293.333 1.22339 7.56645 -0.0167125 0.02272 7.56682 33.2143 13 1 
294.667 1.22437 7.37346 -0.0167255 0.0221897 7.37398 34.9883 13 1 
296 1.22545 7.17982 -0.0167717 0.0217945 7.18022 36.9421 13 1 
297.333 1.22622 6.99139 -0.0166351 0.0212772 6.99174 38.3341 13 1 
298.667 1.21791 6.69443 -0.0161205 0.0203046 6.69489 23.3171 13 1 
298.667 1.21791 6.69443 -0.0161205 0.0203046 6.69489 23.3171 14 1 
300 1.20336 6.58663 -0.0161639 0.0200514 6.58695 -2.95977 14 1 
301.333 1.19785 6.58618 -0.0163548 0.0201032 6.58647 -12.9059 14 1 
302.667 1.19884 6.40614 -0.0161927 0.0197208 6.40648 -11.1281 14 1 
304 1.19966 6.22188 -0.0160784 0.0194494 6.22226 -9.64458 14 1 
305.333 1.20023 6.04015 -0.0158769 0.0191119 6.04075 -8.6169 14 1 
306.667 1.20093 5.86986 -0.0156999 0.0187345 5.87038 -7.35121 14 1 
308 1.20151 5.70641 -0.0155785 0.0185014 5.70671 -6.29492 14 1 
309.333 1.20201 5.55775 -0.0154993 0.018359 5.55803 -5.406 14 1 
310.667 1.20258 5.42236 -0.0154477 0.0182308 5.4226 -4.37428 14 1 
312 1.20309 5.29759 -0.0153649 0.0180639 5.29778 -3.45527 14 1 
313.333 1.20352 5.18528 -0.0152693 0.0178696 5.18542 -2.67096 14 1 
314.667 1.20393 5.07647 -0.0152142 0.0177541 5.07663 -1.93088 14 1 
316 1.20424 4.96976 -0.0151445 0.0175614 4.96993 -1.3687 14 1 
317.333 1.20457 4.87592 -0.0149809 0.0172585 4.87606 -0.773361 14 1 
318.667 1.20498 4.79714 -0.0148152 0.017027 4.79726 -0.032471 14 1 
320 1.20526 4.71353 -0.0147675 0.0168521 4.71367 0.468559 14 1 
320 1.20526 4.71353 -0.0147675 0.0168521 4.71367 0.468559 14 1 
321.333 1.20542 4.62692 -0.0147105 0.0166189 4.62706 0.757278 14 1 
322.667 1.20568 4.55692 -0.0145068 0.016277 4.55706 1.23041 14 1 
324 1.20597 4.48613 -0.0143582 0.0159874 4.48626 1.74529 14 1 
325.333 1.20611 4.41317 -0.0143484 0.0158263 4.41329 2.0086 14 1 
326.667 1.20627 4.35654 -0.0143178 0.0156672 4.35665 2.29794 14 1 
328 1.20651 4.29961 -0.0142458 0.0154672 4.29975 2.72648 14 1 
329.333 1.20666 4.23773 -0.0141773 0.0152802 4.23786 3.00532 14 1 
330.667 1.20675 4.17964 -0.0141544 0.0151599 4.17974 3.16317 14 1 
332 1.20687 4.12721 -0.0141937 0.015089 4.12729 3.38626 14 1 
333.333 1.20707 4.09104 -0.0142373 0.0150631 4.09114 3.7433 14 1 
334.667 1.20725 4.0519 -0.0142296 0.015044 4.05199 4.06417 14 1 
336 1.20728 3.99589 -0.0142849 0.0150668 3.99597 4.12476 14 1 
337.333 1.20733 3.95164 -0.0143591 0.0150626 3.95172 4.20816 14 1 
338.667 1.20751 3.9234 -0.014375 0.0150677 3.92347 4.54007 14 1 
340 1.20769 3.89713 -0.0144045 0.0151755 3.8972 4.85304 14 1 
341.333 1.20775 3.86365 -0.0145144 0.0152894 3.86372 4.96584 14 1 
341.333 1.20775 3.86365 -0.0145144 0.0152894 3.86372 4.96584 15 1 
342.667 1.20777 3.81803 -0.0145895 0.0152972 3.8181 4.9991 15 1 
344 1.20788 3.7862 -0.0145812 0.0153293 3.78627 5.19455 15 1 
345.333 1.20803 3.7718 -0.0145844 0.015423 3.77186 5.48083 15 1 
346.667 1.20812 3.74742 -0.0146574 0.0154728 3.74748 5.62998 15 1 
348 1.20817 3.71451 -0.014688 0.0154271 3.71458 5.73203 15 1 
349.333 1.20823 3.68052 -0.0147013 0.0154288 3.68059 5.83688 15 1 
350.667 1.20831 3.65627 -0.0147041 0.0154655 3.65634 5.973 15 1 
352 1.20843 3.6452 -0.0146698 0.0153869 3.64526 6.19322 15 1 
353.333 1.2085 3.61947 -0.0146628 0.0152423 3.61953 6.31877 15 1 
354.667 1.20853 3.58465 -0.0146854 0.0151805 3.58472 6.37691 15 1 
356 1.2086 3.56339 -0.0146162 0.0151231 3.56346 6.50441 15 1 
357.333 1.20867 3.54301 -0.0145686 0.0150375 3.54308 6.62193 15 1 
358.667 1.20873 3.52134 -0.0145568 0.0148883 3.52141 6.74385 15 1 
360 1.2088 3.49986 -0.0144846 0.0147181 3.49993 6.8606 15 1 
361.333 1.20883 3.47158 -0.0143857 0.0146426 3.47165 6.92435 15 1 
362.667 1.20888 3.44743 -0.0143643 0.0146438 3.4475 7.01259 15 1 
362.667 1.20888 3.44743 -0.0143643 0.0146438 3.4475 7.01259 15 1 
364 1.20894 3.4278 -0.0143457 0.0145625 3.42788 7.10921 15 1 
365.333 1.20898 3.40571 -0.0142437 0.0144274 3.40579 7.18852 15 1 
366.667 1.20903 3.38365 -0.0141142 0.014365 3.38372 7.27828 15 1 
368 1.20907 3.35905 -0.014055 0.0143987 3.35912 7.35785 15 1 
369.333 1.20911 3.33526 -0.0140641 0.0144965 3.33534 7.42366 15 1 
370.667 1.20914 3.31474 -0.0139817 0.0145383 3.31482 7.47506 15 1 
372 1.20918 3.29332 -0.0137881 0.0145223 3.29339 7.54798 15 1 
373.333 1.20924 3.27306 -0.013649 0.0146112 3.27314 7.65104 15 1 
374.667 1.20927 3.2508 -0.0136658 0.0148698 3.25088 7.70806 15 1 
376 1.20929 3.22688 -0.013665 0.015068 3.22696 7.74668 15 1 
377.333 1.20933 3.20835 -0.013553 0.0151163 3.20843 7.81434 15 1 
378.667 1.20936 3.18964 -0.0134389 0.0151841 3.18972 7.88139 15 1 
380 1.2094 3.16894 -0.0134381 0.0154163 3.16902 7.95281 15 1 
381.333 1.20944 3.14991 -0.013512 0.0156883 3.15 8.01368 15 1 
382.667 1.20946 3.12937 -0.0135699 0.0158428 3.12945 8.05273 15 1 
384 1.20949 3.11079 -0.0135507 0.0159136 3.11087 8.10822 15 1 
384 1.20949 3.11079 -0.0135507 0.0159136 3.11087 8.10822 15 1 
385.333 1.20952 3.09546 -0.0136085 0.0160892 3.09554 8.17198 15 1 
386.667 1.20955 3.0773 -0.0137649 0.0163085 3.07739 8.22631 15 1 
388 1.20958 3.05903 -0.0139291 0.0164659 3.05911 8.28091 15 1 
389.333 1.20961 3.04299 -0.0141072 0.0165807 3.04307 8.32509 15 1 
390.667 1.20963 3.02669 -0.0143304 0.0166925 3.02678 8.36182 15 1 
392 1.20966 3.01165 -0.0145741 0.0168129 3.01174 8.41307 15 1 
393.333 1.20969 2.99713 -0.0148824 0.0169562 2.99722 8.4668 15 1 
394.667 1.20971 2.98147 -0.0152543 0.0170678 2.98156 8.50434 15 1 
396 1.20973 2.96681 -0.0156153 0.0171216 2.96691 8.53984 15 1 
397.333 1.20975 2.95325 -0.0159601 0.0171683 2.95335 8.5803 15 1 
398.667 1.20977 2.93992 -0.016401 0.0172842 2.94002 8.61564 15 1 
400 1.20979 2.92663 -0.0169257 0.017409 2.92673 8.65022 15 1 
401.333 1.20981 2.91328 -0.0173353 0.0174371 2.91339 8.69132 15 1 
402.667 1.20983 2.90085 -0.0177025 0.0174744 2.90096 8.72845 15 1 
404 1.20984 2.88812 -0.0181904 0.017582 2.88824 8.74952 15 1 
405.333 1.20986 2.87497 -0.018672 0.0176784 2.87508 8.77225 15 1 
405.333 1.20986 2.87497 -0.018672 0.0176784 2.87508 8.77225 15 1 
406.667 1.20988 2.86351 -0.0190941 0.0177963 2.86363 8.81372 15 1 
408 1.2099 2.85164 -0.0195016 0.0179092 2.85177 8.85015 15 1 
409.333 1.20991 2.83839 -0.0198443 0.0179288 2.83852 8.8702 15 1 
410.667 1.20992 2.82575 -0.02022 0.0180058 2.82588 8.88936 15 1 
412 1.20994 2.81325 -0.0206222 0.0181773 2.81339 8.91414 15 1 
413.333 1.20995 2.80117 -0.0209631 0.0183124 2.80131 8.94661 15 1 
414.667 1.20997 2.78869 -0.0213047 0.0183818 2.78883 8.97452 15 1 
416 1.20998 2.77423 -0.0216293 0.0184348 2.77438 8.98891 15 1 
417.333 1.20999 2.76067 -0.0219154 0.0185321 2.76083 9.00569 15 1 
418.667 1.21 2.74827 -0.022276 0.0187134 2.74843 9.02938 15 1 
420 1.21001 2.73456 -0.0226749 0.0189182 2.73473 9.05351 15 1 
421.333 1.21002 2.72052 -0.0230049 0.0191162 2.72069 9.07583 15 1 
422.667 1.21003 2.70658 -0.0232588 0.0193006 2.70676 9.09385 15 1 
424 1.21004 2.69268 -0.0235286 0.0195247 2.69286 9.1114 15 1 
425.333 1.21006 2.67943 -0.0239049 0.0198886 2.67962 9.13091 15 1 
426.667 1.21007 2.66618 -0.0242936 0.02031 2.66637 9.15375 15 1 
426.667 1.21007 2.66618 -0.0242936 0.02031 2.66637 9.15375 20 1 
428 1.21008 2.65289 -0.0246123 0.0206823 2.65309 9.18086 20 1 
429.333 1.2101 2.64001 -0.0249333 0.021116 2.64022 9.20467 20 1 
430.667 1.21011 2.62774 -0.0252386 0.0216375 2.62795 9.22705 20 1 
432 1.21012 2.61634 -0.0256143 0.022238 2.61656 9.25443 20 1 
433.333 1.21014 2.60544 -0.0260978 0.022951 2.60567 9.28426 20 1 
434.667 1.21016 2.59536 -0.0265144 0.0237016 2.5956 9.31902 20 1 
436 1.21018 2.58641 -0.0268771 0.024442 2.58667 9.35699 20 1 
437.333 1.2102 2.57797 -0.0273368 0.0252305 2.57824 9.38976 20 1 
438.667 1.21022 2.5708 -0.0278512 0.0261052 2.57108 9.42454 20 1 
440 1.21024 2.56537 -0.0283935 0.0270431 2.56568 9.46997 20 1 
441.333 1.21027 2.56067 -0.0289755 0.0279785 2.56099 9.51732 20 1 
442.667 1.21029 2.55702 -0.0295828 0.0289011 2.55736 9.56204 20 1 
444 1.21032 2.55494 -0.0301719 0.0298318 2.55529 9.60894 20 1 
445.333 1.21035 2.55393 -0.0308015 0.0308019 2.5543 9.65698 20 1 
446.667 1.21037 2.55439 -0.0315289 0.0317959 2.55479 9.70843 20 1 
448 1.21041 2.55642 -0.0322879 0.0327774 2.55684 9.76571 20 1 
448 1.21041 2.55642 -0.0322879 0.0327774 2.55684 9.76571 20 1 
449.333 1.21044 2.55924 -0.033 0.0337312 2.55968 9.82032 20 1 
450.667 1.21047 2.5632 -0.0337078 0.034692 2.56366 9.87226 20 1 
452 1.2105 2.56873 -0.0344487 0.0356541 2.56922 9.92837 20 1 
453.333 1.21053 2.57542 -0.0352352 0.0365947 2.57593 9.98625 20 1 
454.667 1.21056 2.58313 -0.0360505 0.0375327 2.58366 10.0451 20 1 
456 1.21059 2.59196 -0.036839 0.0384551 2.59252 10.1055 20 1 
457.333 1.21063 2.60172 -0.0376111 0.0393119 2.6023 10.1625 20 1 
458.667 1.21066 2.6124 -0.038428 0.0401444 2.613 10.2165 20 1 
460 1.21069 2.62419 -0.0392351 0.0410218 2.62481 10.2758 20 1 
461.333 1.21072 2.63697 -0.039996 0.0418974 2.63761 10.3388 20 1 
462.667 1.21076 2.65034 -0.0407626 0.0426781 2.65101 10.3953 20 1 
464 1.21078 2.66432 -0.041531 0.0433892 2.66501 10.4485 20 1 
465.333 1.21082 2.67911 -0.042253 0.0441089 2.67982 10.5038 20 1 
466.667 1.21084 2.69441 -0.0429455 0.0448605 2.69513 10.5563 20 1 
468 1.21087 2.71029 -0.0436318 0.0455639 2.71104 10.6094 20 1 
469.333 1.2109 2.72686 -0.044282 0.0461944 2.72763 10.6641 20 1 
469.333 1.2109 2.72686 -0.044282 0.0461944 2.72763 10.6641 20 1 
470.667 1.21093 2.74346 -0.0449007 0.0468107 2.74424 10.7108 20 1 
472 1.21095 2.76025 -0.0454724 0.0474393 2.76104 10.7523 20 1 
473.333 1.21098 2.77774 -0.0460146 0.0480429 2.77855 10.7957 20 1 
474.667 1.211 2.7954 -0.0465566 0.048594 2.79622 10.8386 20 1 
476 1.21102 2.813 -0.0470452 0.0491147 2.81383 10.8771 20 1 
477.333 1.21104 2.83081 -0.0474019 0.0496226 2.83165 10.9103 20 1 
478.667 1.21106 2.84856 -0.0476679 0.0501058 2.84941 10.9402 20 1 
480 1.21107 2.86618 -0.0479363 0.0504876 2.86704 10.969 20 1 
481.333 1.21109 2.88371 -0.0482124 0.0507523 2.88457 10.9955 20 1 
482.667 1.2111 2.90095 -0.0483889 0.0509798 2.90181 11.018 20 1 
484 1.21111 2.91782 -0.0483854 0.0512641 2.91867 11.0364 20 1 
485.333 1.21112 2.93431 -0.0482296 0.0516165 2.93516 11.0512 20 1 
486.667 1.21112 2.95038 -0.0480078 0.0519086 2.95124 11.0628 20 1 
488 1.21113 2.96589 -0.0477787 0.0519881 2.96673 11.0727 20 1 
489.333 1.21113 2.98068 -0.0475175 0.0518388 2.98152 11.0807 20 1 
490.667 1.21114 2.99469 -0.0471387 0.0515872 2.99551 11.0836 20 1 
490.667 1.21114 2.99469 -0.0471387 0.0515872 2.99551 11.0836 20 1 
492 1.21113 3.00754 -0.0465889 0.051317 3.00834 11.0812 20 1 
493.333 1.21113 3.01909 -0.045885 0.0510098 3.01987 11.0763 20 1 
494.667 1.21113 3.02965 -0.0450968 0.0506164 3.03041 11.0703 20 1 
496 1.21112 3.03895 -0.0442946 0.0500979 3.03969 11.0613 20 1 
497.333 1.21112 3.04663 -0.0434716 0.0494066 3.04734 11.0463 20 1 
498.667 1.2111 3.05279 -0.042629 0.0485275 3.05347 11.0258 20 1 
500 1.21109 3.05739 -0.0417712 0.0475052 3.05805 11.0023 20 1 
501.333 1.21108 3.06037 -0.0408694 0.0463451 3.061 10.9765 20 1 
502.667 1.21106 3.06171 -0.0398913 0.0450133 3.06231 10.9481 20 1 
504 1.21104 3.06113 -0.0388672 0.0435019 3.06169 10.9148 20 1 
505.333 1.21102 3.0585 -0.0378124 0.0418175 3.05902 10.8746 20 1 
506.667 1.211 3.05392 -0.036741 0.0399709 3.05441 10.8296 20 1 
508 1.21097 3.04747 -0.0356726 0.0379752 3.04793 10.7839 20 1 
509.333 1.21094 3.03907 -0.0346245 0.0358279 3.03948 10.7358 20 1 
510.667 1.21091 3.02854 -0.0336025 0.0335356 3.02893 10.6814 20 1 
512 1.21088 3.01604 -0.0326109 0.0311258 3.01639 10.6235 20 1 
512 1.21088 3.01604 -0.0326109 0.0311258 3.01639 10.6235 21 1 
513.333 1.21085 3.00169 -0.0316777 0.0286221 3.00201 10.5642 21 1 
514.667 1.21081 2.98549 -0.0308244 0.0260332 2.98577 10.5013 21 1 
516 1.21078 2.96769 -0.0300704 0.0234024 2.96795 10.4374 21 1 
517.333 1.21074 2.94846 -0.0294211 0.0207596 2.94869 10.3731 21 1 
518.667 1.21071 2.92776 -0.0288928 0.0181246 2.92797 10.3049 21 1 
520 1.21067 2.90595 -0.0284707 0.0155079 2.90614 10.2359 21 1 
521.333 1.21063 2.88339 -0.0281814 0.0129729 2.88357 10.169 21 1 
522.667 1.21059 2.86027 -0.0280364 0.0105523 2.86044 10.1031 21 1 
524 1.21056 2.83687 -0.0280339 0.00826163 2.83703 10.0376 21 1 
525.333 1.21052 2.8134 -0.0281592 0.00612596 2.81356 9.97284 21 1 
526.667 1.21049 2.79008 -0.0284163 0.00416975 2.79024 9.90981 21 1 
528 1.21045 2.76732 -0.028798 0.00240959 2.76748 9.8502 21 1 
529.333 1.21042 2.74546 -0.0293016 0.000881105 2.74563 9.79481 21 1 
530.667 1.21039 2.72464 -0.0298926 -0.000407075 2.72481 9.74195 21 1 
532 1.21037 2.70502 -0.0305701 -0.0014451 2.7052 9.69198 21 1 
533.333 1.21034 2.68686 -0.0313164 -0.00221303 2.68705 9.647 21 1 
533.333 1.21034 2.68686 -0.0313164 -0.00221303 2.68705 9.647 21 1 
534.667 1.21032 2.67036 -0.0321031 -0.00270794 2.67056 9.60638 21 1 
536 1.2103 2.65578 -0.0329277 -0.00292346 2.656 9.57165 21 1 
537.333 1.21028 2.64334 -0.0338033 -0.00283299 2.64356 9.5435 21 1 
538.667 1.21027 2.63288 -0.0347114 -0.00243315 2.63312 9.51802 21 1 
540 1.21026 2.6244 -0.0356125 -0.00174374 2.62465 9.49625 21 1 
541.333 1.21025 2.61826 -0.0364965 -0.000781076 2.61852 9.48226 21 1 
542.667 1.21025 2.61458 -0.0373816 0.000478842 2.61486 9.47538 21 1 
544 1.21024 2.61315 -0.0382574 0.00202351 2.61344 9.47334 21 1 
545.333 1.21025 2.61388 -0.039107 0.0038252 2.61418 9.47518 21 1 
546.667 1.21025 2.6168 -0.0399199 0.00586865 2.61712 9.48159 21 1 
548 1.21026 2.62193 -0.0407077 0.00814953 2.62227 9.4939 21 1 
549.333 1.21027 2.62931 -0.0414509 0.0106363 2.62966 9.51194 21 1 
550.667 1.21028 2.63875 -0.0421525 0.0133222 2.63913 9.53396 21 1 
552 1.21029 2.65002 -0.0428191 0.0161966 2.65043 9.55847 21 1 
553.333 1.21031 2.66309 -0.0434397 0.0192242 2.66353 9.58636 21 1 
554.667 1.21032 2.67797 -0.0439928 0.0223737 2.67844 9.61791 21 1 
554.667 1.21032 2.67797 -0.0439928 0.0223737 2.67844 9.61791 22 1 
556 1.21034 2.69454 -0.0444974 0.0256464 2.69504 9.6524 22 1 
557.333 1.21036 2.71267 -0.0449638 0.0290246 2.71321 9.69011 22 1 
558.667 1.21039 2.73215 -0.0453825 0.0324902 2.73274 9.72817 22 1 
560 1.21041 2.75283 -0.0457539 0.0360116 2.75346 9.76553 22 1 
561.333 1.21043 2.77472 -0.046085 0.039584 2.7754 9.80535 22 1 
562.667 1.21045 2.79776 -0.0463626 0.0431726 2.79849 9.84618 22 1 
564 1.21047 2.8217 -0.0466019 0.0467816 2.82249 9.88598 22 1 
565.333 1.21049 2.84641 -0.0467952 0.0503812 2.84725 9.92544 22 1 
566.667 1.21052 2.87178 -0.0469531 0.0539568 2.87269 9.96356 22 1 
568 1.21054 2.89774 -0.0470642 0.0574922 2.89871 10.0003 22 1 
569.333 1.21056 2.92423 -0.0471426 0.0609637 2.92526 10.0365 22 1 
570.667 1.21058 2.95114 -0.0471944 0.064378 2.95224 10.0709 22 1 
572 1.21059 2.97829 -0.0472294 0.0677145 2.97945 10.1028 22 1 
573.333 1.21061 3.00556 -0.0472485 0.0709648 3.00679 10.1323 22 1 
574.667 1.21062 3.03296 -0.047241 0.0741121 3.03425 10.1594 22 1 
576 1.21064 3.06037 -0.0472196 0.0771319 3.06172 10.184 22 1 
576 1.21064 3.06037 -0.0472196 0.0771319 3.06172 10.184 22 1 
577.333 1.21065 3.08764 -0.0471805 0.0800267 3.08905 10.2059 22 1 
578.667 1.21066 3.11468 -0.0471268 0.0827813 3.11615 10.2252 22 1 
580 1.21067 3.14138 -0.0470476 0.0853815 3.1429 10.2406 22 1 
581.333 1.21068 3.16767 -0.0469661 0.0878075 3.16925 10.2533 22 1 
582.667 1.21068 3.19351 -0.0468923 0.0900714 3.19514 10.2635 22 1 
584 1.21069 3.2188 -0.0467979 0.0921581 3.22047 10.2686 22 1 
585.333 1.21069 3.24346 -0.0467211 0.0940558 3.24517 10.2706 22 1 
586.667 1.21069 3.26741 -0.0466551 0.095767 3.26916 10.2697 22 1 
588 1.21068 3.29056 -0.0465965 0.0972852 3.29234 10.2644 22 1 
589.333 1.21068 3.31288 -0.0465327 0.0986032 3.31468 10.2563 22 1 
590.667 1.21067 3.3343 -0.0464752 0.0996945 3.33612 10.2453 22 1 
592 1.21066 3.35466 -0.0464142 0.100573 3.3565 10.2301 22 1 
593.333 1.21065 3.37388 -0.0463211 0.101212 3.37573 10.2107 22 1 
594.667 1.21064 3.39193 -0.0462203 0.101598 3.39377 10.1891 22 1 
596 1.21063 3.40881 -0.0461013 0.101755 3.41065 10.1657 22 1 
597.333 1.21061 3.42443 -0.0459719 0.101668 3.42625 10.1392 22 1 
597.333 1.21061 3.42443 -0.0459719 0.101668 3.42625 10.1392 24 1 
598.667 1.2106 3.43874 -0.0458439 0.101359 3.44054 10.1102 24 1 
600 1.21058 3.4517 -0.0457296 0.100836 3.45348 10.0791 24 1 
601.333 1.21056 3.46332 -0.0456346 0.10013 3.46508 10.0456 24 1 
602.667 1.21054 3.47365 -0.0455472 0.0992272 3.47537 10.0114 24 1 
604 1.21052 3.48261 -0.0454748 0.0981276 3.4843 9.97698 24 1 
605.333 1.2105 3.49022 -0.0454002 0.0968453 3.49187 9.94038 24 1 
606.667 1.21048 3.49648 -0.0453183 0.095361 3.49809 9.90296 24 1 
608 1.21046 3.50135 -0.0452217 0.0936896 3.50291 9.86501 24 1 
609.333 1.21044 3.50496 -0.045109 0.0918362 3.50646 9.826 24 1 
610.667 1.21042 3.50739 -0.0450202 0.0898499 3.50884 9.78677 24 1 
612 1.2104 3.50864 -0.0449799 0.0877601 3.51003 9.74777 24 1 
613.333 1.21037 3.50881 -0.04502 0.0856424 3.51015 9.70762 24 1 
614.667 1.21035 3.50809 -0.0451703 0.0835254 3.50939 9.66551 24 1 
616 1.21033 3.50658 -0.0454521 0.0814381 3.50783 9.62385 24 1 
617.333 1.2103 3.50449 -0.0458498 0.0794119 3.5057 9.58191 24 1 
618.667 1.21028 3.50195 -0.0463612 0.0774531 3.50313 9.53828 24 1 
618.667 1.21028 3.50195 -0.0463612 0.0774531 3.50313 9.53828 24 1 
620 1.21026 3.49898 -0.0469674 0.0755638 3.50013 9.49429 24 1 
621.333 1.21023 3.49582 -0.0476355 0.0737203 3.49693 9.44863 24 1 
622.667 1.2102 3.49261 -0.0483395 0.0719389 3.4937 9.40109 24 1 
624 1.21018 3.48942 -0.0490621 0.070211 3.49049 9.35344 24 1 
625.333 1.21015 3.48638 -0.0498015 0.0685505 3.48742 9.30472 24 1 
626.667 1.21012 3.4836 -0.0505412 0.0669749 3.48462 9.25416 24 1 
628 1.2101 3.48116 -0.0513081 0.0655144 3.48217 9.20342 24 1 
629.333 1.21007 3.4792 -0.0521096 0.0642017 3.48019 9.15169 24 1 
630.667 1.21004 3.47781 -0.0529424 0.063039 3.47879 9.09926 24 1 
632 1.21001 3.47708 -0.0538231 0.0620644 3.47806 9.04732 24 1 
633.333 1.20998 3.47702 -0.0547372 0.0612746 3.478 8.99562 24 1 
634.667 1.20995 3.47773 -0.0556768 0.0606681 3.47871 8.9438 24 1 
636 1.20992 3.47928 -0.0566123 0.0602227 3.48026 8.89248 24 1 
637.333 1.2099 3.48167 -0.0575051 0.0599127 3.48267 8.84323 24 1 
638.667 1.20987 3.48493 -0.0583301 0.0597221 3.48594 8.79651 24 1 
640 1.20985 3.48902 -0.0590559 0.0596111 3.49004 8.75131 24 1 
640 1.20985 3.48902 -0.0590559 0.0596111 3.49004 8.75131 24 1 
641.333 1.20982 3.49394 -0.0596481 0.0595564 3.49496 8.70793 24 1 
642.667 1.2098 3.49969 -0.0600916 0.0595457 3.50071 8.66744 24 1 
644 1.20978 3.50622 -0.0603682 0.0595603 3.50726 8.62968 24 1 
645.333 1.20976 3.51355 -0.0604877 0.0595877 3.51458 8.59426 24 1 
646.667 1.20974 3.52156 -0.0604514 0.0596513 3.52259 8.5623 24 1 
648 1.20972 3.53028 -0.0602564 0.0597476 3.5313 8.53323 24 1 
649.333 1.20971 3.53969 -0.0599527 0.059889 3.54071 8.50567 24 1 
650.667 1.20969 3.54975 -0.0595388 0.0600863 3.55076 8.48012 24 1 
652 1.20968 3.56038 -0.0590257 0.0603573 3.56139 8.45788 24 1 
653.333 1.20967 3.57166 -0.0584528 0.0607204 3.57266 8.43687 24 1 
654.667 1.20966 3.58351 -0.0578307 0.0611597 3.5845 8.41685 24 1 
656 1.20965 3.59584 -0.0571528 0.0617009 3.59682 8.39884 24 1 
657.333 1.20964 3.60879 -0.0564231 0.0623261 3.60977 8.38009 24 1 
658.667 1.20963 3.62221 -0.0556403 0.0630084 3.62319 8.36152 24 1 
660 1.20962 3.63605 -0.0548374 0.0637702 3.63702 8.34434 24 1 
661.333 1.20961 3.65041 -0.0539037 0.0645493 3.65138 8.32671 24 1 
661.333 1.20961 3.65041 -0.0539037 0.0645493 3.65138 8.32671 24 1 
662.667 1.2096 3.66524 -0.0529489 0.065369 3.66621 8.3085 24 1 
664 1.20959 3.68033 -0.0519298 0.0661842 3.6813 8.29145 24 1 
665.333 1.20958 3.69595 -0.0507626 0.0669831 3.6969 8.27204 24 1 
666.667 1.20957 3.71187 -0.0495835 0.0677894 3.71282 8.25253 24 1 
668 1.20956 3.72798 -0.0483153 0.0685515 3.72893 8.23409 24 1 
669.333 1.20955 3.74458 -0.0469422 0.0692592 3.74552 8.21349 24 1 
670.667 1.20954 3.76142 -0.0455858 0.0700089 3.76235 8.19431 24 1 
672 1.20953 3.7784 -0.0441562 0.0706804 3.77933 8.17653 24 1 
673.333 1.20952 3.79577 -0.0427183 0.0713419 3.79669 8.1555 24 1 
674.667 1.2095 3.81331 -0.0413303 0.0720562 3.81422 8.136 24 1 
676 1.2095 3.83096 -0.0399235 0.0727277 3.83187 8.11931 24 1 
677.333 1.20948 3.84901 -0.0386292 0.0734487 3.84991 8.09958 24 1 
678.667 1.20947 3.86711 -0.0374054 0.0742197 3.86801 8.08226 24 1 
680 1.20947 3.88538 -0.0362506 0.0750432 3.88628 8.06567 24 1 
681.333 1.20946 3.90385 -0.0352544 0.0759094 3.90476 8.04686 24 1 
682.667 1.20945 3.92244 -0.0343567 0.076836 3.92335 8.02904 24 1 
682.667 1.20945 3.92244 -0.0343567 0.076836 3.92335 8.02904 31 1 
684 1.20944 3.94115 -0.0335739 0.0778393 3.94207 8.01264 31 1 
685.333 1.20943 3.96003 -0.0329279 0.0788802 3.96096 7.99536 31 1 
686.667 1.20942 3.97896 -0.0323974 0.0799221 3.9799 7.97744 31 1 
688 1.20941 3.99799 -0.0319836 0.0810717 3.99895 7.95849 31 1 
689.333 1.20939 4.01711 -0.0316269 0.0821705 4.01808 7.93825 31 1 
690.667 1.20938 4.03627 -0.0313991 0.0832356 4.03726 7.91735 31 1 
692 1.20937 4.05551 -0.0312241 0.0843627 4.05651 7.89607 31 1 
693.333 1.20936 4.07479 -0.0310721 0.0853857 4.07581 7.8738 31 1 
694.667 1.20935 4.09408 -0.0310381 0.0863911 4.09512 7.85059 31 1 
696 1.20933 4.1134 -0.0310043 0.0873285 4.11445 7.82539 31 1 
697.333 1.20932 4.13275 -0.031008 0.0882395 4.13382 7.79954 31 1 
698.667 1.2093 4.15207 -0.0310725 0.0890602 4.15315 7.7745 31 1 
700 1.20929 4.1714 -0.0311643 0.0898215 4.17249 7.74794 31 1 
701.333 1.20928 4.19069 -0.0312574 0.0905331 4.1918 7.72226 31 1 
702.667 1.20926 4.20995 -0.0314336 0.0912083 4.21106 7.69715 31 1 
704 1.20925 4.22919 -0.0316294 0.0917917 4.23031 7.67048 31 1 
704 1.20925 4.22919 -0.0316294 0.0917917 4.23031 7.67048 31 1 
705.333 1.20923 4.24836 -0.0319056 0.0923708 4.24949 7.6446 31 1 
706.667 1.20922 4.26747 -0.0322094 0.0929131 4.26861 7.61946 31 1 
708 1.2092 4.28649 -0.032567 0.0934302 4.28764 7.59513 31 1 
709.333 1.20919 4.30545 -0.0330341 0.0938779 4.30661 7.5709 31 1 
710.667 1.20918 4.32437 -0.0334998 0.094412 4.32553 7.54655 31 1 
712 1.20917 4.34315 -0.0340403 0.0948823 4.34433 7.52357 31 1 
713.333 1.20915 4.36185 -0.0347728 0.0953344 4.36303 7.49964 31 1 
714.667 1.20914 4.38049 -0.0354613 0.0958358 4.38169 7.47347 31 1 
716 1.20912 4.399 -0.0362736 0.0963129 4.40021 7.44945 31 1 
717.333 1.20911 4.41738 -0.0371607 0.0967784 4.41861 7.42585 31 1 
718.667 1.2091 4.43576 -0.0380434 0.0972719 4.437 7.39744 31 1 
720 1.20908 4.45404 -0.0390354 0.0977999 4.45529 7.3705 31 1 
721.333 1.20907 4.47211 -0.0400922 0.098252 4.47337 7.3468 31 1 
722.667 1.20905 4.4901 -0.0412186 0.098729 4.49138 7.31729 31 1 
724 1.20903 4.508 -0.042306 0.0991582 4.50929 7.28737 31 1 
725.333 1.20902 4.52571 -0.0434447 0.0996092 4.52702 7.26348 31 1 
725.333 1.20902 4.52571 -0.0434447 0.0996092 4.52702 7.26348 31 1 
726.667 1.20901 4.54334 -0.0445647 0.100025 4.54466 7.23647 31 1 
728 1.20899 4.56097 -0.0457035 0.100362 4.56231 7.20505 31 1 
729.333 1.20898 4.57831 -0.0468349 0.10074 4.57967 7.18093 31 1 
730.667 1.20896 4.59544 -0.0479284 0.101002 4.5968 7.15778 31 1 
732 1.20895 4.61257 -0.0490834 0.101284 4.61395 7.12732 31 1 
733.333 1.20893 4.62956 -0.0500935 0.101399 4.63095 7.10333 31 1 
734.667 1.20892 4.64637 -0.0511178 0.10171 4.64776 7.08606 31 1 
736 1.20891 4.66331 -0.0520853 0.101831 4.66471 7.05929 31 1 
737.333 1.2089 4.68012 -0.0531719 0.101924 4.68153 7.03568 31 1 
738.667 1.20889 4.69656 -0.0540724 0.102178 4.69799 7.02155 31 1 
740 1.20887 4.71303 -0.0549927 0.102239 4.71446 6.99823 31 1 
741.333 1.20886 4.7296 -0.0562144 0.10237 4.73105 6.97025 31 1 
742.667 1.20885 4.74605 -0.056929 0.102628 4.74751 6.95644 31 1 
744 1.20884 4.76252 -0.0579301 0.103045 4.76399 6.94111 31 1 
745.333 1.20883 4.77898 -0.0591919 0.103049 4.78047 6.91203 31 1 
746.667 1.20882 4.79512 -0.0600987 0.103538 4.79661 6.89287 31 1 
746.667 1.20882 4.79512 -0.0600987 0.103538 4.79661 6.89287 31 1 
748 1.20881 4.81138 -0.0611714 0.10405 4.8129 6.87783 31 1 
749.333 1.20879 4.82776 -0.0624767 0.104392 4.8293 6.85411 31 1 
750.667 1.20878 4.84405 -0.0634291 0.105007 4.84561 6.83213 31 1 
752 1.20877 4.86007 -0.0645863 0.105575 4.86165 6.81562 31 1 
753.333 1.20876 4.87598 -0.0658039 0.106116 4.87758 6.79582 31 1 
754.667 1.20875 4.89193 -0.0668732 0.106517 4.89355 6.76968 31 1 
756 1.20874 4.9078 -0.0677913 0.107208 4.90944 6.75152 31 1 
757.333 1.20873 4.92325 -0.0685194 0.107609 4.92491 6.74137 31 1 
758.667 1.20872 4.93889 -0.0695332 0.107901 4.94056 6.71242 31 1 
760 1.2087 4.95457 -0.0700139 0.108062 4.95625 6.69036 31 1 
761.333 1.2087 4.96935 -0.070323 0.108312 4.97104 6.69066 31 1 
762.667 1.20869 4.98495 -0.0707148 0.108239 4.98664 6.6593 31 1 
764 1.20867 5.00051 -0.0709169 0.108128 5.00218 6.63355 31 1 
765.333 1.20867 5.01519 -0.0706845 0.108107 5.01685 6.63553 31 1 
766.667 1.20866 5.03082 -0.0706701 0.107784 5.03247 6.60908 31 1 
768 1.20864 5.04664 -0.0706515 0.107447 5.04828 6.57805 31 1 
768 1.20864 5.04664 -0.0706515 0.107447 5.04828 6.57805 32 1 
769.333 1.20864 5.06102 -0.0702847 0.107372 5.06265 6.58116 32 1 
770.667 1.20863 5.07766 -0.0700306 0.107047 5.07928 6.55175 32 1 
772 1.20862 5.09347 -0.0700533 0.107046 5.09508 6.53077 32 1 
773.333 1.20861 5.1081 -0.0699453 0.107117 5.10971 6.52853 32 1 
774.667 1.20859 5.12518 -0.0698605 0.107203 5.12678 6.48873 32 1 
776 1.20859 5.14095 -0.0701678 0.107247 5.14256 6.47814 32 1 
777.333 1.20859 5.15549 -0.0703989 0.108274 5.15711 6.47997 32 1 
778.667 1.20855 5.17321 -0.0707214 0.108939 5.17485 6.41767 32 1 
780 1.20855 5.18875 -0.0712688 0.109753 5.19041 6.41914 32 1 
781.333 1.20855 5.20473 -0.0718669 0.111 5.20641 6.42024 32 1 
782.667 1.20852 5.22341 -0.0729011 0.112101 5.22513 6.35596 32 1 
784 1.20852 5.2391 -0.0737109 0.113856 5.24086 6.36302 32 1 
785.333 1.20852 5.25516 -0.0740738 0.115795 5.25696 6.35427 32 1 
786.667 1.20848 5.27144 -0.0764383 0.118355 5.27333 6.28946 32 1 
788 1.20845 5.29085 -0.0780456 0.119683 5.29279 6.23231 32 1 
789.333 1.20847 5.31049 -0.0793764 0.123505 5.31253 6.2606 32 1 
790.667 1.20845 5.33157 -0.0794894 0.127327 5.33369 6.23685 32 1 
792 1.2084 5.35018 -0.082183 0.131901 5.35245 6.14552 32 1 
793.333 1.20836 5.37058 -0.08509 0.135373 5.37297 6.06686 32 1 
794.667 1.20834 5.3959 -0.0877532 0.142279 5.39851 6.03237 32 1 
796 1.20832 5.42388 -0.0913356 0.150751 5.42677 5.99753 32 1 
797.333 1.20827 5.45084 -0.0935814 0.159803 5.45401 5.89948 32 1 
798.667 1.20814 5.48555 -0.0930923 0.171663 5.48907 5.67823 32 1 
800 1.20805 5.5102 -0.0900349 0.175709 5.51379 5.50057 32 1 
