5.43388;r ;Density                 ;Velocity u              ;Velocity v              ;Velocity w              ;|Velocity|              ;Pressure                ;Distribution            ;Levels                  ;
0 1.20499 10 -9.16172e-06 -9.72201e-06 10 -0.0092041 1 1 
1.33334 1.205 9.99996 -6.70702e-06 -6.9348e-06 9.99996 0.00228684 1 1 
2.66666 1.205 9.99997 -2.06007e-06 -2.15516e-06 9.99997 0.00708377 1 1 
4 1.205 10.0001 -2.90361e-06 -3.07344e-06 10.0001 -0.00274266 1 1 
5.33334 1.205 9.99999 4.4735e-08 2.96087e-07 9.99999 -0.00316863 1 1 
6.66666 1.205 9.99991 5.64128e-07 5.72047e-07 9.99991 0.00678329 1 1 
8 1.205 10.0001 -1.18416e-06 -1.22562e-06 10.0001 -0.00582541 1 1 
9.33334 1.205 9.99995 1.60721e-06 1.66883e-06 9.99995 -0.00606675 1 1 
10.6667 1.205 9.99985 -3.28455e-06 -3.3121e-06 9.99985 0.0084849 1 1 
12 1.205 10.0001 2.88711e-06 3.00579e-06 10.0001 -0.00423605 1 1 
13.3333 1.205 10.0002 1.40727e-06 1.20477e-06 10.0002 -0.0055831 1 1 
14.6667 1.20501 9.99977 -4.32447e-06 -4.34725e-06 9.99977 0.0132607 1 1 
16 1.205 9.99987 3.53388e-06 3.81322e-06 9.99987 -0.00512039 1 1 
17.3333 1.20499 10.0002 -3.09165e-06 -3.07782e-06 10.0002 -0.0122371 1 1 
18.6667 1.20501 9.99982 2.71753e-06 2.49058e-06 9.99982 0.0197147 1 1 
20 1.205 9.99995 1.19313e-06 1.14297e-06 9.99995 -0.00635301 1 1 
21.3333 1.20499 10.0001 -3.41758e-06 -3.1552e-06 10.0001 -0.0131044 1 1 
21.3333 1.20499 10.0001 -3.41758e-06 -3.1552e-06 10.0001 -0.0131044 1 1 
22.6667 1.20501 9.99986 1.20228e-06 1.09831e-06 9.99986 0.0190926 1 1 
24 1.205 10 -9.01323e-07 -1.22131e-06 10 -0.00423781 1 1 
25.3333 1.20499 10.0001 2.41296e-06 2.64668e-06 10.0001 -0.0156034 1 1 
26.6667 1.20501 10 -1.11015e-06 -1.0889e-06 10 0.0132534 1 1 
28 1.205 9.9998 1.18304e-06 1.1628e-06 9.9998 0.00378161 1 1 
29.3333 1.20499 9.99994 -3.08813e-06 -3.01084e-06 9.99994 -0.0150407 1 1 
30.6667 1.205 10.0003 3.47069e-07 2.88851e-07 10.0003 0.00407655 1 1 
32 1.20501 10 1.02443e-06 1.21273e-06 10 0.0167783 1 1 
33.3333 1.20499 9.99989 6.31772e-07 5.3485e-07 9.99989 -0.0153098 1 1 
34.6667 1.20499 10 8.20961e-07 5.58274e-07 10 -0.00946597 1 1 
36 1.20501 10.0002 -3.79433e-06 -3.87484e-06 10.0002 0.0224516 1 1 
37.3333 1.205 10 1.7115e-06 2.15785e-06 10 -0.00470728 1 1 
38.6667 1.20499 9.99967 -1.05318e-06 -1.11644e-06 9.99967 -0.0113518 1 1 
40 1.205 10 -6.76289e-07 -7.93558e-07 10 0.00778619 1 1 
41.3333 1.205 10.0001 -6.81303e-07 -6.11747e-07 10.0001 0.0076955 1 1 
42.6667 1.20499 10.0001 -2.25614e-07 -3.61008e-07 10.0001 -0.00931472 1 1 
42.6667 1.20499 10.0001 -2.25614e-07 -3.61008e-07 10.0001 -0.00931472 2 1 
44 1.205 9.99988 1.45407e-06 1.24336e-06 9.99988 -7.41791e-05 2 1 
45.3333 1.205 9.99989 -1.7243e-06 -1.63993e-06 9.99989 0.00354636 2 1 
46.6667 1.205 10.0001 -2.39014e-06 -1.55714e-06 10.0001 0.000868489 2 1 
48 1.205 9.99991 2.44738e-06 1.7476e-06 9.99991 0.00125386 2 1 
49.3333 1.20499 10.0001 1.26247e-07 -3.74082e-07 10.0001 -0.011089 2 1 
50.6667 1.20501 9.99998 1.90595e-06 2.2963e-06 9.99998 0.0095938 2 1 
52 1.205 10.0002 2.6745e-06 3.03748e-06 10.0002 -0.00131608 2 1 
53.3333 1.20499 10 -4.11232e-07 -5.3069e-07 10 -0.0110147 2 1 
54.6667 1.20501 9.99956 -1.18865e-06 -1.46757e-06 9.99956 0.00921607 2 1 
56 1.205 10.0003 -7.27041e-07 1.57063e-07 10.0003 -0.0036228 2 1 
57.3333 1.205 10 4.46686e-06 4.05559e-06 10 -0.000369759 2 1 
58.6667 1.205 9.9998 -2.60161e-06 -3.36657e-06 9.9998 -0.00115271 2 1 
60 1.205 10.0002 -8.28637e-07 2.58959e-07 10.0002 -0.000467457 2 1 
61.3333 1.205 9.99997 3.50619e-07 3.12059e-07 9.99997 0.00656872 2 1 
62.6667 1.205 9.99993 -5.51068e-06 -5.85606e-06 9.99993 -0.0072502 2 1 
64 1.20501 9.99984 -1.93809e-06 -1.48763e-06 9.99984 0.0147769 2 1 
64 1.20501 9.99984 -1.93809e-06 -1.48763e-06 9.99984 0.0147769 2 1 
65.3333 1.205 10.0002 2.19341e-06 2.36038e-06 10.0002 -0.00449984 2 1 
66.6667 1.205 9.99998 7.92519e-07 7.18854e-07 9.99998 -0.00394872 2 1 
68 1.205 10.0001 -2.16412e-06 -3.12109e-06 10.0001 0.00387225 2 1 
69.3333 1.205 10.0002 5.32566e-06 6.71021e-06 10.0002 -0.00674748 2 1 
70.6667 1.205 9.99964 -1.35542e-07 1.16903e-07 9.99964 0.00507026 2 1 
72 1.20499 10.0002 -2.73912e-06 -3.9167e-06 10.0002 -0.0109894 2 1 
73.3333 1.20501 10 5.78439e-06 6.8455e-06 10 0.00961337 2 1 
74.6667 1.205 9.99999 -2.65324e-06 -2.65565e-06 9.99999 -0.0072675 2 1 
76 1.205 10 -2.31534e-06 -2.74045e-06 10 -0.00807332 2 1 
77.3333 1.20501 9.99974 3.42263e-06 2.8419e-06 9.99974 0.0238991 2 1 
78.6667 1.205 10 -6.45312e-06 -5.81268e-06 10 -0.00654669 2 1 
80 1.205 9.99976 -1.59269e-06 -1.81741e-06 9.99976 -0.000384887 2 1 
81.3333 1.205 10.0003 4.14729e-06 2.28344e-06 10.0003 0.0008609 2 1 
82.6667 1.205 10.0004 -7.36966e-06 -6.23013e-06 10.0004 -0.00419032 2 1 
84 1.20501 9.99967 -4.41398e-07 -1.05099e-06 9.99967 0.0101193 2 1 
85.3333 1.205 9.99976 6.15177e-06 5.51975e-06 9.99976 -0.00409296 2 1 
85.3333 1.205 9.99976 6.15177e-06 5.51975e-06 9.99976 -0.00409296 3 1 
86.6667 1.205 10.0001 -4.7248e-06 -4.6135e-06 10.0001 0.00660513 3 1 
88 1.205 10.0003 -2.99067e-06 -4.15518e-06 10.0003 -0.00168159 3 1 
89.3333 1.20499 9.99985 7.34652e-06 8.24581e-06 9.99985 -0.0143362 3 1 
90.6667 1.205 10.0001 -6.10758e-06 -7.36064e-06 10.0001 -0.00484847 3 1 
92 1.20501 9.99983 -3.37059e-06 -1.34576e-06 9.99983 0.0261681 3 1 
93.3333 1.205 9.9996 3.56382e-06 5.39843e-06 9.9996 0.00758021 3 1 
94.6667 1.20498 10.0005 -1.30627e-05 -1.3538e-05 10.0005 -0.0320871 3 1 
96 1.20501 10.0001 3.04066e-06 5.8492e-06 10.0001 0.0224481 3 1 
97.3333 1.20501 9.99965 3.42172e-06 2.14047e-06 9.99965 0.00889487 3 1 
98.6667 1.20499 9.99984 -1.90477e-06 -1.1373e-06 9.99984 -0.0214922 3 1 
100 1.20501 10.0004 1.92778e-06 2.42179e-06 10.0004 0.0135347 3 1 
101.333 1.205 10.0002 -4.95155e-06 -5.28988e-06 10.0002 -0.00102023 3 1 
102.667 1.20499 9.99976 8.93252e-06 9.14875e-06 9.99976 -0.0224769 3 1 
104 1.20501 9.99991 2.04059e-06 -1.37252e-06 9.99991 0.00997103 3 1 
105.333 1.20501 9.99981 6.85011e-06 8.14658e-06 9.99981 0.0111134 3 1 
106.667 1.20499 10.0002 2.84852e-06 1.66385e-06 10.0002 -0.0103245 3 1 
106.667 1.20499 10.0002 2.84852e-06 1.66385e-06 10.0002 -0.0103245 3 1 
108 1.20499 10.0005 -2.85828e-06 -3.61415e-06 10.0005 -0.0150353 3 1 
109.333 1.205 9.99988 1.30521e-05 1.36913e-05 9.99988 -0.00619947 3 1 
110.667 1.205 9.99984 -8.43942e-06 -1.08052e-05 9.99984 0.00347026 3 1 
112 1.20499 10.0004 4.80838e-06 6.34673e-06 10.0004 -0.0092895 3 1 
113.333 1.20501 9.99928 3.3193e-06 2.45186e-06 9.99928 0.0239478 3 1 
114.667 1.20501 9.99964 -6.43924e-06 -5.42991e-06 9.99964 0.0114207 3 1 
116 1.20503 9.99927 1.35073e-05 1.26364e-05 9.99927 0.048765 3 1 
117.333 1.20514 9.99432 -1.50478e-06 -2.20828e-06 9.99432 0.258737 3 1 
118.667 1.20535 9.98692 8.29471e-06 1.09955e-05 9.98692 0.630169 3 1 
120 1.20589 9.96758 8.3119e-06 4.29292e-06 9.96758 1.61139 3 1 
121.333 1.20685 9.93377 6.07728e-07 1.47933e-06 9.93377 3.33651 3 1 
122.667 1.20807 9.89186 7.59912e-06 7.76415e-06 9.89186 5.54225 3 1 
124 1.20902 9.85947 4.35568e-06 3.20135e-06 9.85947 7.25349 3 1 
125.333 1.20867 9.87232 1.61754e-05 1.56478e-05 9.87232 6.62223 3 1 
126.667 1.20675 9.93682 1.7326e-06 -1.00257e-06 9.93682 3.16417 3 1 
128 1.20427 10.0191 5.14209e-06 7.47452e-06 10.0191 -1.31599 3 1 
128 1.20427 10.0191 5.14209e-06 7.47452e-06 10.0191 -1.31599 3 1 
129.333 1.20298 10.0627 1.44816e-05 1.24482e-05 10.0627 -3.64113 3 1 
130.667 1.20392 10.0322 6.91657e-06 7.87301e-06 10.0322 -1.95629 3 1 
132 1.20602 9.96428 2.06399e-05 1.98708e-05 9.96428 1.84553 3 1 
133.333 1.20682 9.93874 7.42937e-06 4.20539e-06 9.93874 3.29183 3 1 
134.667 1.20529 9.98605 1.63467e-05 1.88828e-05 9.98605 0.520927 3 1 
136 1.20375 10.0338 2.80856e-05 2.48761e-05 10.0338 -2.25758 3 1 
137.333 1.20458 10.0091 1.98585e-05 2.01305e-05 10.0091 -0.757129 3 1 
138.667 1.20626 9.95798 4.24723e-05 4.24057e-05 9.95798 2.27599 3 1 
140 1.20581 9.97048 8.48224e-05 8.38741e-05 9.97048 1.46907 3 1 
141.333 1.20426 10.0162 0.000153209 0.00015184 10.0162 -1.33363 3 1 
142.667 1.20474 10.0027 0.000268779 0.000266301 10.0027 -0.46692 3 1 
144 1.20616 9.96108 0.000479255 0.000478911 9.96108 2.10061 3 1 
145.333 1.20573 9.97182 0.00078175 0.000775702 9.97182 1.31844 3 1 
146.667 1.20493 9.99495 0.00119755 0.00119713 9.99495 -0.131109 3 1 
148 1.20574 9.97283 0.00171133 0.00170665 9.97283 1.33499 3 1 
149.333 1.20629 9.95625 0.00222379 0.00221785 9.95626 2.33002 3 1 
149.333 1.20629 9.95625 0.00222379 0.00221785 9.95626 2.33002 3 1 
150.667 1.20591 9.96522 0.00267066 0.00267024 9.96522 1.64641 3 1 
152 1.20607 9.96199 0.00295393 0.00295204 9.96199 1.93164 3 1 
153.333 1.20607 9.96318 0.00302408 0.00302944 9.96318 1.92438 3 1 
154.667 1.2059 9.96613 0.00287985 0.00288544 9.96613 1.63468 3 1 
156 1.2064 9.95343 0.00259397 0.0026069 9.95344 2.53752 3 1 
157.333 1.20602 9.96485 0.00229502 0.00231422 9.96485 1.8361 3 1 
158.667 1.2054 9.98089 0.0020877 0.00210745 9.98089 0.715141 3 1 
160 1.20617 9.96145 0.00205516 0.00207658 9.96145 2.10736 3 1 
161.333 1.20609 9.96381 0.00212807 0.00214423 9.96381 1.97798 3 1 
162.667 1.20527 9.98562 0.00216906 0.00218233 9.98562 0.482251 3 1 
164 1.20559 9.9789 0.00210408 0.00210636 9.9789 1.06423 3 1 
165.333 1.20561 9.97796 0.00186243 0.00186854 9.97796 1.0994 3 1 
166.667 1.20527 9.98596 0.00148671 0.00149622 9.98596 0.479765 3 1 
168 1.2053 9.98712 0.00114783 0.00114536 9.98712 0.533914 3 1 
169.333 1.20517 9.99017 0.00089391 0.000908362 9.99017 0.301778 3 1 
170.667 1.20518 9.98944 0.000751393 0.000774525 9.98944 0.33414 3 1 
170.667 1.20518 9.98944 0.000751393 0.000774525 9.98944 0.33414 11 1 
172 1.20512 9.99141 0.000695942 0.000707991 9.99141 0.215019 11 1 
173.333 1.20502 9.99303 0.000645112 0.000659132 9.99303 0.0374967 11 1 
174.667 1.20492 9.99723 0.000641961 0.000663116 9.99723 -0.143633 11 1 
176 1.20474 10.0012 0.000671826 0.000689583 10.0012 -0.462285 11 1 
177.333 1.20505 9.99258 0.000777789 0.000782042 9.99258 0.0897241 11 1 
178.667 1.20503 9.99369 0.00102328 0.00104401 9.99369 0.0614938 11 1 
180 1.20479 9.99845 0.00134622 0.00136637 9.99845 -0.382611 11 1 
181.333 1.20502 9.99207 0.00166424 0.0016632 9.99207 0.0311956 11 1 
182.667 1.20509 9.99091 0.00190061 0.00191891 9.99092 0.159952 11 1 
184 1.20498 9.99432 0.0019899 0.0020081 9.99432 -0.0302133 11 1 
185.333 1.20495 9.99421 0.00193713 0.00193578 9.99421 -0.0968127 11 1 
186.667 1.205 9.99207 0.00183092 0.00183268 9.99207 0.000246288 11 1 
188 1.2051 9.98967 0.00175875 0.0017834 9.98967 0.177128 11 1 
189.333 1.20506 9.99026 0.00175467 0.00176828 9.99026 0.104825 11 1 
190.667 1.20498 9.99169 0.00173377 0.00174024 9.99169 -0.0309687 11 1 
192 1.20504 9.99034 0.00183745 0.00187337 9.99034 0.0787948 11 1 
192 1.20504 9.99034 0.00183745 0.00187337 9.99034 0.0787948 11 1 
193.333 1.20502 9.99103 0.001903 0.00191727 9.99103 0.0280451 11 1 
194.667 1.20494 9.99124 0.00182615 0.00183881 9.99124 -0.109921 11 1 
196 1.20499 9.98904 0.00197077 0.00199835 9.98904 -0.00915417 11 1 
197.333 1.20497 9.98981 0.00199251 0.00200704 9.98981 -0.0508882 11 1 
198.667 1.20498 9.98998 0.00192564 0.00193557 9.98998 -0.031776 11 1 
200 1.20499 9.98999 0.00205765 0.00207888 9.98999 -0.019115 11 1 
201.333 1.20492 9.99008 0.00193507 0.00196961 9.99008 -0.139245 11 1 
202.667 1.20496 9.98699 0.00174893 0.00175416 9.98699 -0.0796075 11 1 
204 1.20495 9.98721 0.0018237 0.0018302 9.98721 -0.0893962 11 1 
205.333 1.2049 9.98769 0.00179986 0.00183658 9.9877 -0.187656 11 1 
206.667 1.20498 9.98394 0.00185273 0.00188566 9.98394 -0.0288897 11 1 
208 1.205 9.98396 0.00202429 0.00203719 9.98396 0.00712344 11 1 
209.333 1.20493 9.9856 0.00195328 0.001976 9.9856 -0.118944 11 1 
210.667 1.20491 9.98459 0.00188381 0.0019384 9.98459 -0.167193 11 1 
212 1.20492 9.98223 0.00178006 0.0018032 9.98223 -0.143149 11 1 
213.333 1.20498 9.97927 0.00166567 0.00167555 9.97927 -0.0448166 11 1 
213.333 1.20498 9.97927 0.00166567 0.00167555 9.97927 -0.0448166 11 1 
214.667 1.20497 9.97824 0.00167526 0.00174085 9.97824 -0.0622073 11 1 
216 1.20493 9.97795 0.00166767 0.00172406 9.97795 -0.126653 11 1 
217.333 1.20497 9.97696 0.00173301 0.00172738 9.97696 -0.049768 11 1 
218.667 1.20503 9.97462 0.00173212 0.00176198 9.97462 0.0624616 11 1 
220 1.205 9.97342 0.00171211 0.00180746 9.97342 0.00878448 11 1 
221.333 1.20496 9.9723 0.00171101 0.00174085 9.9723 -0.0784619 11 1 
222.667 1.20498 9.96662 0.00156489 0.00154886 9.96662 -0.0405127 11 1 
224 1.205 9.96494 0.0014707 0.00155046 9.96494 0.00523383 11 1 
225.333 1.20505 9.96365 0.00145178 0.0015638 9.96365 0.0884738 11 1 
226.667 1.20512 9.96063 0.00151138 0.00153623 9.96063 0.218632 11 1 
228 1.20508 9.96222 0.00163883 0.0016508 9.96222 0.151512 11 1 
229.333 1.20511 9.95642 0.00160231 0.00169164 9.95642 0.200478 11 1 
230.667 1.20516 9.94868 0.00150719 0.00160575 9.94868 0.293658 11 1 
232 1.2051 9.94707 0.00146067 0.00149581 9.94707 0.179045 11 1 
233.333 1.20517 9.94415 0.00153545 0.00156442 9.94415 0.302581 11 1 
234.667 1.20529 9.94155 0.00163298 0.00170744 9.94155 0.522934 11 1 
234.667 1.20529 9.94155 0.00163298 0.00170744 9.94155 0.522934 11 1 
236 1.20522 9.94085 0.00159504 0.00167549 9.94085 0.4018 11 1 
237.333 1.20529 9.93355 0.00154205 0.00158876 9.93355 0.531669 11 1 
238.667 1.20537 9.92462 0.00147372 0.00151478 9.92462 0.672072 11 1 
240 1.2053 9.92025 0.00151143 0.00157064 9.92025 0.547846 11 1 
241.333 1.20542 9.91412 0.0016448 0.00168876 9.91412 0.755673 11 1 
242.667 1.20547 9.91447 0.00174784 0.00177581 9.91447 0.854205 11 1 
244 1.20552 9.90869 0.00160055 0.00163765 9.9087 0.946846 11 1 
245.333 1.20556 9.89773 0.0014273 0.00148091 9.89774 1.00628 11 1 
246.667 1.20561 9.88869 0.00145609 0.00149984 9.88869 1.11046 11 1 
248 1.20571 9.87976 0.00139244 0.00141654 9.87976 1.28743 11 1 
249.333 1.20572 9.87577 0.00157272 0.00162936 9.87578 1.29217 11 1 
250.667 1.20583 9.86788 0.00163722 0.00170321 9.86788 1.50792 11 1 
252 1.20587 9.85983 0.00138309 0.00141756 9.85984 1.57588 11 1 
253.333 1.20598 9.84351 0.00146466 0.00149696 9.84351 1.77913 11 1 
254.667 1.20605 9.83306 0.0014604 0.00149685 9.83306 1.89862 11 1 
256 1.20612 9.82347 0.00136095 0.00140118 9.82347 2.0265 11 1 
256 1.20612 9.82347 0.00136095 0.00140118 9.82347 2.0265 13 1 
257.333 1.20632 9.80897 0.00142665 0.00147927 9.80897 2.38377 13 1 
258.667 1.20635 9.79862 0.00128556 0.00132741 9.79862 2.43376 13 1 
260 1.20645 9.78151 0.00127779 0.00130531 9.78151 2.62145 13 1 
261.333 1.20664 9.76142 0.00142539 0.00147787 9.76142 2.96225 13 1 
262.667 1.20676 9.74226 0.00133738 0.00139977 9.74226 3.17006 13 1 
264 1.20681 9.72974 0.0012438 0.00126795 9.72974 3.2656 13 1 
265.333 1.20707 9.70732 0.0012037 0.00121322 9.70732 3.74475 13 1 
266.667 1.20734 9.67652 0.00121148 0.0012559 9.67653 4.2258 13 1 
268 1.20727 9.65757 0.0012183 0.00127172 9.65758 4.10652 13 1 
269.333 1.2076 9.6267 0.0011441 0.00116138 9.6267 4.69007 13 1 
270.667 1.20805 9.58757 0.00111756 0.00113682 9.58757 5.51705 13 1 
272 1.20788 9.57126 0.00108378 0.00113656 9.57127 5.2064 13 1 
273.333 1.20831 9.52812 0.00103689 0.00107957 9.52813 5.98662 13 1 
274.667 1.20895 9.47437 0.0010052 0.00102969 9.47438 7.1296 13 1 
276 1.20881 9.44357 0.000961459 0.000992932 9.44359 6.88681 13 1 
277.333 1.20926 9.38192 0.000955763 0.000983407 9.38195 7.70383 13 1 
277.333 1.20926 9.38192 0.000955763 0.000983407 9.38195 7.70383 13 1 
278.667 1.20988 9.32339 0.000928943 0.000946501 9.32342 8.80666 13 1 
280 1.21007 9.2683 0.00087453 0.000895499 9.26833 9.16453 13 1 
281.333 1.21051 9.19122 0.000846488 0.000869345 9.19124 9.94953 13 1 
282.667 1.21103 9.12817 0.00078656 0.000800574 9.12817 10.8992 13 1 
284 1.21179 9.0627 0.000742626 0.000755828 9.06271 12.2561 13 1 
285.333 1.21248 8.97616 0.000698857 0.000717841 8.97626 13.5037 13 1 
286.667 1.21285 8.85973 0.000650898 0.000648365 8.86 14.1843 13 1 
288 1.21336 8.7276 0.000652233 0.000632996 8.72782 15.1071 13 1 
289.333 1.2142 8.61741 0.000604649 0.000605872 8.61745 16.6114 13 1 
290.667 1.21527 8.50868 0.000537422 0.000550312 8.50872 18.5424 13 1 
292 1.2161 8.38053 0.000482443 0.000482435 8.38062 20.0478 13 1 
293.333 1.21666 8.2444 0.000441195 0.000431991 8.24459 21.0644 13 1 
294.667 1.21758 8.08602 0.000389695 0.000389645 8.08635 22.7311 13 1 
296 1.21868 7.92413 0.000329548 0.000327481 7.92437 24.7119 13 1 
297.333 1.21938 7.77457 0.000328016 0.000307915 7.7747 25.981 13 1 
298.667 1.21086 7.52586 0.000268854 0.000249446 7.5261 10.5801 13 1 
298.667 1.21086 7.52586 0.000268854 0.000249446 7.5261 10.5801 14 1 
300 1.19636 7.46809 0.000196864 0.000185031 7.46825 -15.6127 14 1 
301.333 1.19103 7.51056 0.000187055 0.000166542 7.51068 -25.2401 14 1 
302.667 1.19208 7.36984 0.000115398 8.93141e-05 7.36999 -23.3421 14 1 
304 1.19294 7.22444 6.05197e-05 4.26564e-05 7.2246 -21.7835 14 1 
305.333 1.19351 7.08555 3.97637e-05 1.91852e-05 7.08587 -20.7628 14 1 
306.667 1.19422 6.96198 -3.47479e-05 -6.69924e-05 6.96222 -19.4715 14 1 
308 1.19483 6.83772 -5.23478e-05 -8.68959e-05 6.83781 -18.3632 14 1 
309.333 1.19539 6.73154 -9.52019e-05 -0.000129624 6.73161 -17.3628 14 1 
310.667 1.19603 6.64643 -0.000161411 -0.000195201 6.64648 -16.202 14 1 
312 1.1966 6.5651 -0.000187331 -0.000226532 6.56513 -15.1708 14 1 
313.333 1.19709 6.49446 -0.000277428 -0.000322834 6.49447 -14.2928 14 1 
314.667 1.19757 6.43379 -0.000301537 -0.000335372 6.4338 -13.4143 14 1 
316 1.19795 6.38211 -0.000342012 -0.000371995 6.38214 -12.7401 14 1 
317.333 1.1983 6.33491 -0.000402153 -0.000443376 6.33495 -12.0945 14 1 
318.667 1.19876 6.28409 -0.000379847 -0.000419274 6.28413 -11.2623 14 1 
320 1.1991 6.23859 -0.000448657 -0.000479743 6.23863 -10.6543 14 1 
320 1.1991 6.23859 -0.000448657 -0.000479743 6.23863 -10.6543 14 1 
321.333 1.1993 6.21128 -0.000494105 -0.000530141 6.2113 -10.2984 14 1 
322.667 1.19964 6.19485 -0.0005173 -0.000565058 6.19487 -9.68493 14 1 
324 1.2 6.17316 -0.000568071 -0.000616184 6.17317 -9.03169 14 1 
325.333 1.20018 6.15918 -0.000582834 -0.00061872 6.15919 -8.70608 14 1 
326.667 1.20045 6.16944 -0.000637968 -0.00067367 6.16946 -8.21684 14 1 
328 1.20084 6.19011 -0.00064963 -0.000699971 6.19012 -7.50944 14 1 
329.333 1.20111 6.20543 -0.000672254 -0.000719025 6.20543 -7.02775 14 1 
330.667 1.20131 6.21257 -0.000719151 -0.000749212 6.21258 -6.65768 14 1 
332 1.20158 6.23498 -0.000742535 -0.000773517 6.235 -6.16963 14 1 
333.333 1.20196 6.28703 -0.000779982 -0.000828835 6.28705 -5.49279 14 1 
334.667 1.20231 6.33577 -0.000776666 -0.000824955 6.33581 -4.85156 14 1 
336 1.2025 6.38164 -0.000825313 -0.00085338 6.38169 -4.52129 14 1 
337.333 1.20273 6.45039 -0.000890905 -0.000928868 6.45045 -4.10098 14 1 
338.667 1.20315 6.53993 -0.000898901 -0.000956617 6.54001 -3.3344 14 1 
340 1.20355 6.6505 -0.000887918 -0.0009268 6.65063 -2.61993 14 1 
341.333 1.20378 6.76912 -0.00089464 -0.000921801 6.76929 -2.2071 14 1 
341.333 1.20378 6.76912 -0.00089464 -0.000921801 6.76929 -2.2071 15 1 
342.667 1.20398 6.89526 -0.000952482 -0.00100329 6.89545 -1.8361 15 1 
344 1.20433 7.05175 -0.000943341 -0.000996535 7.05197 -1.21004 15 1 
345.333 1.20468 7.22839 -0.000894197 -0.000927886 7.22867 -0.580361 15 1 
346.667 1.20491 7.41154 -0.00091677 -0.000953374 7.41185 -0.154611 15 1 
348 1.20509 7.5963 -0.000978419 -0.00103135 7.59661 0.16611 15 1 
349.333 1.20523 7.78311 -0.000971861 -0.0010215 7.7834 0.408461 15 1 
350.667 1.20537 7.97584 -0.00090141 -0.000939176 7.97612 0.675774 15 1 
352 1.20552 8.16094 -0.00088256 -0.000923368 8.1612 0.938234 15 1 
353.333 1.20557 8.32864 -0.000929112 -0.000973098 8.32885 1.02069 15 1 
354.667 1.20557 8.48048 -0.000980612 -0.00102157 8.48065 1.03022 15 1 
356 1.20558 8.6252 -0.000881225 -0.000919642 8.62533 1.04944 15 1 
357.333 1.20555 8.75691 -0.00080851 -0.000841909 8.75702 0.997618 15 1 
358.667 1.20556 8.87241 -0.000885984 -0.000923889 8.8725 1.00907 15 1 
360 1.20557 8.97808 -0.000949637 -0.000997131 8.97815 1.03264 15 1 
361.333 1.20552 9.06796 -0.00095825 -0.000993313 9.06801 0.932847 15 1 
362.667 1.2055 9.15349 -0.000852861 -0.000891757 9.15354 0.902961 15 1 
362.667 1.2055 9.15349 -0.000852861 -0.000891757 9.15354 0.902961 15 1 
364 1.20548 9.23087 -0.000842128 -0.000905272 9.2309 0.868817 15 1 
365.333 1.20545 9.29816 -0.000910885 -0.000961468 9.29819 0.820411 15 1 
366.667 1.2054 9.35826 -0.000927335 -0.000965393 9.35828 0.722839 15 1 
368 1.20534 9.40936 -0.000909992 -0.000968018 9.40938 0.614973 15 1 
369.333 1.20538 9.46157 -0.000833699 -0.000895778 9.46159 0.690715 15 1 
370.667 1.20536 9.50345 -0.000839637 -0.000894369 9.50347 0.654477 15 1 
372 1.20531 9.54147 -0.00090256 -0.000958514 9.54148 0.554202 15 1 
373.333 1.2053 9.57718 -0.000922183 -0.000979253 9.57719 0.54033 15 1 
374.667 1.20529 9.60836 -0.000835249 -0.000899923 9.60836 0.525967 15 1 
376 1.20528 9.63976 -0.000770027 -0.00083651 9.63976 0.511441 15 1 
377.333 1.20524 9.66201 -0.000850529 -0.000911093 9.66202 0.439933 15 1 
378.667 1.20525 9.68795 -0.000912421 -0.000975489 9.68796 0.454369 15 1 
380 1.20524 9.70725 -0.000878901 -0.000953397 9.70725 0.441734 15 1 
381.333 1.20524 9.72785 -0.000832191 -0.000907366 9.72785 0.429318 15 1 
382.667 1.20523 9.74802 -0.000839419 -0.000898154 9.74803 0.411646 15 1 
384 1.20521 9.7613 -0.000882724 -0.000945796 9.7613 0.374996 15 1 
384 1.20521 9.7613 -0.000882724 -0.000945796 9.7613 0.374996 15 1 
385.333 1.20523 9.78174 -0.000924997 -0.00100989 9.78174 0.417354 15 1 
386.667 1.20516 9.78881 -0.000924532 -0.00100772 9.78881 0.296372 15 1 
388 1.20521 9.80678 -0.000887343 -0.000961272 9.80678 0.385173 15 1 
389.333 1.20525 9.82107 -0.000878004 -0.000962953 9.82107 0.449715 15 1 
390.667 1.20518 9.82668 -0.000947384 -0.00103795 9.82668 0.322231 15 1 
392 1.20521 9.84469 -0.000979648 -0.00106317 9.84469 0.387583 15 1 
393.333 1.20518 9.84445 -0.000911457 -0.000998137 9.84445 0.319124 15 1 
394.667 1.20522 9.86134 -0.000905658 -0.00099477 9.86134 0.390741 15 1 
396 1.20523 9.86961 -0.000951508 -0.00103675 9.86961 0.412193 15 1 
397.333 1.2052 9.87257 -0.00098207 -0.00107152 9.87257 0.360456 15 1 
398.667 1.2052 9.88806 -0.000980053 -0.00107199 9.88807 0.363589 15 1 
400 1.20513 9.88255 -0.000938569 -0.00102139 9.88255 0.241715 15 1 
401.333 1.20526 9.90061 -0.000923549 -0.00100962 9.90061 0.469592 15 1 
402.667 1.20524 9.90322 -0.000932148 -0.00103738 9.90322 0.424604 15 1 
404 1.20518 9.90433 -0.000976085 -0.00108041 9.90433 0.321611 15 1 
405.333 1.20524 9.91785 -0.000979022 -0.00106774 9.91785 0.425173 15 1 
405.333 1.20524 9.91785 -0.000979022 -0.00106774 9.91785 0.425173 15 1 
406.667 1.20517 9.91064 -0.000896437 -0.000991978 9.91064 0.299104 15 1 
408 1.20524 9.92863 -0.000897062 -0.00100419 9.92863 0.440578 15 1 
409.333 1.20519 9.92461 -0.000980538 -0.00107793 9.92461 0.347358 15 1 
410.667 1.20518 9.9291 -0.000971515 -0.00106496 9.9291 0.334053 15 1 
412 1.20521 9.93746 -0.000913119 -0.00102145 9.93746 0.37408 15 1 
413.333 1.2052 9.93157 -0.000908838 -0.00102154 9.93157 0.368196 15 1 
414.667 1.20531 9.94952 -0.000951055 -0.00105455 9.94952 0.556535 15 1 
416 1.20516 9.9394 -0.000982493 -0.00109146 9.9394 0.288244 15 1 
417.333 1.20521 9.94972 -0.000921975 -0.00103889 9.94972 0.374453 15 1 
418.667 1.20523 9.95166 -0.000867778 -0.000968796 9.95166 0.419769 15 1 
420 1.20516 9.94671 -0.000898603 -0.000998826 9.94671 0.281334 15 1 
421.333 1.20523 9.96147 -0.000945475 -0.00106068 9.96147 0.421803 15 1 
422.667 1.20521 9.95209 -0.000952018 -0.00104672 9.95209 0.387865 15 1 
424 1.20526 9.96668 -0.000905593 -0.000993346 9.96668 0.478275 15 1 
425.333 1.20518 9.95901 -0.000922987 -0.00103609 9.95901 0.326969 15 1 
426.667 1.20526 9.96476 -0.000981925 -0.0010926 9.96476 0.466997 15 1 
426.667 1.20526 9.96476 -0.000981925 -0.0010926 9.96476 0.466997 20 1 
428 1.20523 9.96808 -0.000923606 -0.00101696 9.96809 0.409131 20 1 
429.333 1.20512 9.96205 -0.000855269 -0.000959918 9.96205 0.225803 20 1 
430.667 1.20527 9.97694 -0.0008469 -0.000967668 9.97694 0.485005 20 1 
432 1.20521 9.96634 -0.000890921 -0.000990259 9.96634 0.382809 20 1 
433.333 1.20523 9.97742 -0.000952144 -0.00104807 9.97742 0.412983 20 1 
434.667 1.20522 9.97121 -0.00090321 -0.00102286 9.97121 0.398789 20 1 
436 1.20529 9.97904 -0.000882374 -0.000990664 9.97904 0.521834 20 1 
437.333 1.20516 9.9762 -0.000931665 -0.00103336 9.9762 0.29539 20 1 
438.667 1.20517 9.97562 -0.000902152 -0.00101948 9.97562 0.300364 20 1 
440 1.20536 9.98715 -0.000858855 -0.000969705 9.98715 0.650923 20 1 
441.333 1.20521 9.97686 -0.000834309 -0.0009386 9.97686 0.387121 20 1 
442.667 1.20509 9.98292 -0.000839388 -0.000947543 9.98292 0.160905 20 1 
444 1.20521 9.97972 -0.00089789 -0.00100472 9.97972 0.382987 20 1 
445.333 1.20544 9.99239 -0.000906563 -0.00101636 9.99239 0.794339 20 1 
446.667 1.20514 9.9818 -0.000848536 -0.000954674 9.9818 0.253583 20 1 
448 1.20507 9.98432 -0.000861762 -0.000963737 9.98432 0.13347 20 1 
448 1.20507 9.98432 -0.000861762 -0.000963737 9.98432 0.13347 20 1 
449.333 1.20538 9.9894 -0.000900704 -0.00101263 9.9894 0.679862 20 1 
450.667 1.20537 9.99151 -0.000861544 -0.000978693 9.99151 0.676655 20 1 
452 1.20502 9.98563 -0.000839664 -0.000946359 9.98563 0.0336693 20 1 
453.333 1.2051 9.98655 -0.000833914 -0.000935657 9.98655 0.186152 20 1 
454.667 1.20549 9.99827 -0.000840892 -0.000950315 9.99827 0.885552 20 1 
456 1.20529 9.9912 -0.00084663 -0.000951734 9.9912 0.530208 20 1 
457.333 1.20496 9.98697 -0.000827537 -0.000924692 9.98697 -0.0785147 20 1 
458.667 1.20521 9.99102 -0.000837535 -0.000947577 9.99102 0.375195 20 1 
460 1.20558 10.0024 -0.000839934 -0.000959357 10.0024 1.05548 20 1 
461.333 1.20525 9.99311 -0.000842119 -0.000951099 9.99311 0.45131 20 1 
462.667 1.20495 9.98908 -0.000810078 -0.000920357 9.98908 -0.0914282 20 1 
464 1.20526 9.99549 -0.000754312 -0.000875191 9.99549 0.468865 20 1 
465.333 1.20551 10.0028 -0.000755116 -0.000872395 10.0028 0.921782 20 1 
466.667 1.20518 9.99469 -0.000759382 -0.000870525 9.99469 0.32872 20 1 
468 1.20504 9.99236 -0.000764295 -0.000878189 9.99236 0.0633321 20 1 
469.333 1.20532 9.9991 -0.000765235 -0.000887138 9.9991 0.569088 20 1 
469.333 1.20532 9.9991 -0.000765235 -0.000887138 9.9991 0.569088 20 1 
470.667 1.20538 10.0016 -0.00078376 -0.000904703 10.0016 0.681992 20 1 
472 1.20515 9.99566 -0.000796152 -0.000907954 9.99566 0.267885 20 1 
473.333 1.20519 9.99744 -0.000733268 -0.000851016 9.99744 0.349339 20 1 
474.667 1.2054 10.0027 -0.000700667 -0.000828328 10.0027 0.719163 20 1 
476 1.20525 9.99959 -0.000685414 -0.000808008 9.99959 0.450214 20 1 
477.333 1.20505 9.99562 -0.000708198 -0.000826838 9.99562 0.0862879 20 1 
478.667 1.20531 10.0021 -0.00078884 -0.000912206 10.0021 0.568758 20 1 
480 1.20552 10.0069 -0.000817685 -0.000939738 10.0069 0.942361 20 1 
481.333 1.20515 9.99852 -0.000870148 -0.000976212 9.99852 0.266364 20 1 
482.667 1.20489 9.99263 -0.000896523 -0.000994973 9.99263 -0.192772 20 1 
484 1.20533 10.0037 -0.000870085 -0.000971597 10.0037 0.589708 20 1 
485.333 1.20567 10.0127 -0.000876537 -0.000974913 10.0127 1.21661 20 1 
486.667 1.20522 10.0007 -0.000880694 -0.000979141 10.0007 0.40002 20 1 
488 1.20475 9.98927 -0.00092314 -0.00102303 9.98927 -0.449635 20 1 
489.333 1.20519 10.0016 -0.000977815 -0.00107495 10.0016 0.337794 20 1 
490.667 1.20577 10.0166 -0.00101259 -0.00110408 10.0166 1.39017 20 1 
490.667 1.20577 10.0166 -0.00101259 -0.00110408 10.0166 1.39017 20 1 
492 1.20539 10.0066 -0.00107153 -0.00115363 10.0066 0.699069 20 1 
493.333 1.20469 9.98847 -0.00110018 -0.00117514 9.98847 -0.554622 20 1 
494.667 1.20493 9.99496 -0.00110127 -0.00117168 9.99496 -0.13163 20 1 
496 1.20568 10.0156 -0.00113013 -0.00119403 10.0156 1.23702 20 1 
497.333 1.20564 10.0141 -0.00113921 -0.00119776 10.0141 1.14728 20 1 
498.667 1.20482 9.99246 -0.00111504 -0.00116886 9.99246 -0.323719 20 1 
500 1.20464 9.9876 -0.00111161 -0.0011583 9.9876 -0.655525 20 1 
501.333 1.20541 10.0084 -0.00110756 -0.00114742 10.0084 0.740983 20 1 
502.667 1.20581 10.0197 -0.00114356 -0.00118379 10.0197 1.46483 20 1 
504 1.20516 10.0022 -0.00123393 -0.0012814 10.0022 0.285533 20 1 
505.333 1.20455 9.98532 -0.00129708 -0.00135246 9.98532 -0.819573 20 1 
506.667 1.20497 9.99687 -0.00133582 -0.00139783 9.99687 -0.0620828 20 1 
508 1.2057 10.0172 -0.00130322 -0.00137504 10.0172 1.25974 20 1 
509.333 1.20554 10.013 -0.00120817 -0.0012864 10.013 0.973282 20 1 
510.667 1.20473 9.99096 -0.00111393 -0.0011902 9.99096 -0.485426 20 1 
512 1.20456 9.9858 -0.00103735 -0.00111098 9.9858 -0.801301 20 1 
512 1.20456 9.9858 -0.00103735 -0.00111098 9.9858 -0.801301 21 1 
513.333 1.20528 10.0058 -0.0010637 -0.00113307 10.0058 0.507716 21 1 
514.667 1.20577 10.0201 -0.00114542 -0.00121228 10.0201 1.38876 21 1 
516 1.20529 10.0064 -0.001238 -0.00130416 10.0064 0.517382 21 1 
517.333 1.20456 9.98555 -0.00132834 -0.00139079 9.98555 -0.789987 21 1 
518.667 1.20466 9.9891 -0.00132724 -0.00138682 9.9891 -0.611997 21 1 
520 1.20544 10.0109 -0.00126415 -0.00132061 10.0109 0.795371 21 1 
521.333 1.20576 10.0195 -0.00115956 -0.00120871 10.0195 1.37217 21 1 
522.667 1.20518 10.0037 -0.00102643 -0.00106984 10.0037 0.317066 21 1 
524 1.20456 9.98573 -0.000885987 -0.000930428 9.98573 -0.786916 21 1 
525.333 1.20478 9.99138 -0.000721361 -0.000768926 9.99138 -0.394465 21 1 
526.667 1.2055 10.0135 -0.00052807 -0.000581223 10.0135 0.901142 21 1 
528 1.20576 10.0207 -0.000311809 -0.000375901 10.0207 1.36866 21 1 
529.333 1.2052 10.0034 -0.000130883 -0.000204998 10.0034 0.357544 21 1 
530.667 1.20452 9.98441 -1.64574e-05 -9.6923e-05 9.98441 -0.873896 21 1 
532 1.2046 9.98669 -6.66271e-06 -9.01054e-05 9.98669 -0.728974 21 1 
533.333 1.20529 10.0067 -0.000141185 -0.000222028 10.0067 0.516715 21 1 
533.333 1.20529 10.0067 -0.000141185 -0.000222028 10.0067 0.516715 21 1 
534.667 1.20567 10.0189 -0.000356255 -0.000430106 10.0189 1.20863 21 1 
536 1.20526 10.0065 -0.00060396 -0.000668456 10.0065 0.476037 21 1 
537.333 1.20447 9.98238 -0.000812434 -0.000865707 9.98238 -0.953141 21 1 
538.667 1.20414 9.97266 -0.000939918 -0.00098366 9.97266 -1.55554 21 1 
540 1.20457 9.9857 -0.00100652 -0.00104331 9.9857 -0.768749 21 1 
541.333 1.20519 10.0047 -0.00102173 -0.00105253 10.0047 0.352081 21 1 
542.667 1.20528 10.0072 -0.00105212 -0.00107829 10.0072 0.498882 21 1 
544 1.20467 9.98827 -0.0011336 -0.00115733 9.98827 -0.591819 21 1 
545.333 1.20395 9.96576 -0.00128522 -0.00130809 9.96576 -1.89614 21 1 
546.667 1.2038 9.961 -0.00149433 -0.00151409 9.961 -2.16083 21 1 
548 1.20431 9.97686 -0.0016976 -0.00171473 9.97686 -1.24609 21 1 
549.333 1.20495 9.9971 -0.00187032 -0.00188613 9.9971 -0.0929481 21 1 
550.667 1.20512 10.0021 -0.00195867 -0.00197099 10.0021 0.216899 21 1 
552 1.20465 9.98689 -0.00193636 -0.00194577 9.98689 -0.629435 21 1 
553.333 1.20397 9.96524 -0.00181906 -0.00182656 9.96524 -1.8661 21 1 
554.667 1.20368 9.95559 -0.0016129 -0.00161878 9.95559 -2.38525 21 1 
554.667 1.20368 9.95559 -0.0016129 -0.00161878 9.95559 -2.38525 22 1 
556 1.20403 9.96665 -0.00136989 -0.00137373 9.96665 -1.76119 22 1 
557.333 1.20478 9.99133 -0.00110706 -0.00110885 9.99133 -0.405588 22 1 
558.667 1.20544 10.0122 -0.000849215 -0.000850669 10.0122 0.797955 22 1 
560 1.20557 10.0164 -0.000629284 -0.000630626 10.0164 1.03861 22 1 
561.333 1.20514 10.0026 -0.000438619 -0.000438944 10.0026 0.257394 22 1 
562.667 1.20449 9.98054 -0.000299411 -0.000299653 9.98054 -0.921298 22 1 
564 1.20402 9.96544 -0.000193845 -0.000194318 9.96544 -1.7616 22 1 
565.333 1.20404 9.96618 -0.000117831 -0.000117729 9.96618 -1.738 22 1 
566.667 1.20453 9.98221 -7.69007e-05 -7.67423e-05 9.98221 -0.851736 22 1 
568 1.20523 10.0058 -4.2103e-05 -4.20815e-05 10.0058 0.409694 22 1 
569.333 1.20582 10.0259 -2.66512e-05 -2.69722e-05 10.0259 1.4814 22 1 
570.667 1.20607 10.034 -1.45393e-05 -1.47112e-05 10.034 1.92864 22 1 
572 1.20589 10.0277 -7.4417e-06 -7.18202e-06 10.0277 1.60375 22 1 
573.333 1.20538 10.0105 -8.09079e-06 -8.16523e-06 10.0105 0.683918 22 1 
574.667 1.20473 9.98854 3.20107e-07 2.44891e-07 9.98854 -0.481576 22 1 
576 1.20414 9.96809 -3.44956e-06 -3.36987e-06 9.96809 -1.55837 22 1 
576 1.20414 9.96809 -3.44956e-06 -3.36987e-06 9.96809 -1.55837 22 1 
577.333 1.20371 9.95347 -1.58728e-06 -1.60156e-06 9.95347 -2.32658 22 1 
578.667 1.20351 9.9466 8.17112e-07 8.48557e-07 9.9466 -2.6954 22 1 
580 1.20351 9.94675 -3.5289e-06 -3.82925e-06 9.94675 -2.69332 22 1 
581.333 1.20366 9.95184 2.77348e-06 2.78653e-06 9.95184 -2.42751 22 1 
582.667 1.20387 9.95981 -4.74101e-07 -1.25076e-07 9.95981 -2.03399 22 1 
584 1.20412 9.96867 -2.37331e-06 -2.39291e-06 9.96867 -1.58111 22 1 
585.333 1.20436 9.97697 1.87014e-06 1.68043e-06 9.97697 -1.14989 22 1 
586.667 1.20455 9.98403 -1.45122e-07 -1.14668e-07 9.98403 -0.820071 22 1 
588 1.2047 9.98925 6.05717e-07 6.44663e-07 9.98925 -0.537105 22 1 
589.333 1.20482 9.99301 -1.46409e-06 -1.61893e-06 9.99301 -0.326911 22 1 
590.667 1.20488 9.99599 5.54366e-07 6.27949e-07 9.99599 -0.219459 22 1 
592 1.20493 9.99759 1.06242e-06 1.17561e-06 9.99759 -0.118868 22 1 
593.333 1.20497 9.99854 -2.32589e-06 -2.47417e-06 9.99854 -0.0510504 22 1 
594.667 1.20497 9.99941 1.64302e-06 1.6434e-06 9.99941 -0.0483873 22 1 
596 1.20499 9.99956 -3.15566e-07 -2.36338e-07 9.99956 -0.0224357 22 1 
597.333 1.205 9.99976 9.42982e-08 -2.72939e-09 9.99976 0.00645101 22 1 
597.333 1.205 9.99976 9.42982e-08 -2.72939e-09 9.99976 0.00645101 24 1 
598.667 1.20499 10.0001 5.74157e-07 6.32411e-07 10.0001 -0.0129489 24 1 
600 1.205 9.99991 -1.67224e-06 -1.64181e-06 9.99991 -0.00439856 24 1 
601.333 1.20501 9.99989 1.60977e-06 1.54942e-06 9.99989 0.00909154 24 1 
602.667 1.20499 10.0001 -8.29311e-07 -7.64289e-07 10.0001 -0.0114357 24 1 
604 1.205 9.99988 -8.18545e-12 -7.39283e-09 9.99988 -0.00182732 24 1 
605.333 1.205 9.99994 1.01173e-06 9.10868e-07 9.99994 0.00543997 24 1 
606.667 1.205 10.0002 -1.28153e-06 -1.21011e-06 10.0002 -0.00493989 24 1 
608 1.205 9.99995 8.12608e-07 9.04262e-07 9.99995 0.00527282 24 1 
609.333 1.205 9.99997 -9.53724e-07 -1.07067e-06 9.99997 0.00481486 24 1 
610.667 1.205 10.0001 9.26765e-07 9.01904e-07 10.0001 -0.00742935 24 1 
612 1.205 9.99987 2.61504e-07 3.77869e-07 9.99987 0.00237227 24 1 
613.333 1.205 9.99994 -2.1982e-06 -2.28255e-06 9.99994 -2.48121e-05 24 1 
614.667 1.205 10.0001 3.47739e-06 3.43481e-06 10.0001 -0.00799868 24 1 
616 1.205 9.99992 -1.7134e-06 -1.62881e-06 9.99992 0.00878046 24 1 
617.333 1.205 10 -1.55307e-06 -1.60206e-06 10 0.00141661 24 1 
618.667 1.205 10.0001 2.67743e-06 2.68383e-06 10.0001 -0.00517595 24 1 
618.667 1.205 10.0001 2.67743e-06 2.68383e-06 10.0001 -0.00517595 24 1 
620 1.205 9.9999 -2.69804e-06 -2.62969e-06 9.9999 0.00416736 24 1 
621.333 1.205 9.99999 2.31378e-06 2.2593e-06 9.99999 -0.00190526 24 1 
622.667 1.205 10 2.90822e-07 2.49044e-07 10 -0.00246779 24 1 
624 1.205 9.99998 -3.21582e-06 -3.1793e-06 9.99998 0.00145848 24 1 
625.333 1.205 9.99997 3.45682e-06 3.47291e-06 9.99997 0.00348474 24 1 
626.667 1.205 10.0001 -1.55325e-06 -1.56625e-06 10.0001 -0.00425728 24 1 
628 1.205 9.99997 -7.93118e-07 -7.99369e-07 9.99997 0.000508676 24 1 
629.333 1.205 9.99994 2.6549e-06 2.66913e-06 9.99994 0.00478202 24 1 
630.667 1.205 10.0001 -3.03932e-06 -3.04725e-06 10.0001 -0.00747176 24 1 
632 1.205 9.99995 1.51342e-06 1.50834e-06 9.99995 0.00383192 24 1 
633.333 1.205 9.99996 7.65208e-07 7.72296e-07 9.99996 0.00311865 24 1 
634.667 1.205 10.0001 -2.34892e-06 -2.35985e-06 10.0001 -0.00636149 24 1 
636 1.205 9.99996 2.48809e-06 2.50802e-06 9.99996 0.00335841 24 1 
637.333 1.205 9.99997 -1.16808e-06 -1.17843e-06 9.99997 0.00203983 24 1 
638.667 1.205 10.0001 -8.35711e-07 -8.53e-07 10.0001 -0.00450722 24 1 
640 1.205 9.99998 2.19009e-06 2.22268e-06 9.99998 0.00246029 24 1 
640 1.205 9.99998 2.19009e-06 2.22268e-06 9.99998 0.00246029 24 1 
641.333 1.205 9.99998 -1.82317e-06 -1.84765e-06 9.99998 0.00133368 24 1 
642.667 1.205 10 1.42106e-07 1.32839e-07 10 -0.00364495 24 1 
644 1.205 9.99996 1.16513e-06 1.20095e-06 9.99996 0.00389536 24 1 
645.333 1.205 10 -1.08805e-06 -1.10392e-06 10 -0.00294292 24 1 
646.667 1.205 9.99998 4.31212e-07 4.35641e-07 9.99998 0.000545146 24 1 
648 1.205 9.99997 -3.29351e-07 -3.31392e-07 9.99997 0.0035499 24 1 
649.333 1.205 10.0001 3.11426e-07 2.84007e-07 10.0001 -0.00652448 24 1 
650.667 1.205 9.99993 6.27021e-07 6.54089e-07 9.99993 0.00453282 24 1 
652 1.205 9.99998 -1.60169e-06 -1.59436e-06 9.99998 0.00129138 24 1 
653.333 1.205 10.0001 8.07516e-07 7.88216e-07 10.0001 -0.00504778 24 1 
654.667 1.205 9.99996 1.1605e-06 1.16111e-06 9.99996 0.00351512 24 1 
656 1.205 9.99998 -1.67698e-06 -1.68109e-06 9.99998 0.000484562 24 1 
657.333 1.205 10 1.17258e-07 1.35419e-07 10 -0.00267019 24 1 
658.667 1.205 9.99998 1.14242e-06 1.15777e-06 9.99998 0.00190166 24 1 
660 1.205 9.99999 -5.44518e-07 -5.69609e-07 9.99999 0.00020459 24 1 
661.333 1.205 10 -4.65649e-07 -4.76491e-07 10 -0.00191362 24 1 
661.333 1.205 10 -4.65649e-07 -4.76491e-07 10 -0.00191362 24 1 
662.667 1.205 9.99997 2.59734e-07 2.7382e-07 9.99997 0.00232123 24 1 
664 1.205 10 4.02984e-07 4.05639e-07 10 -0.000913241 24 1 
665.333 1.205 10 -1.96862e-07 -2.06248e-07 10 -0.00156446 24 1 
666.667 1.205 9.99996 -4.11054e-07 -4.11025e-07 9.99996 0.00266798 24 1 
668 1.205 10 3.41301e-07 3.54839e-07 10 -0.00109282 24 1 
669.333 1.205 10 1.29203e-07 1.30255e-07 10 -0.0012212 24 1 
670.667 1.205 9.99998 -2.57398e-07 -2.71727e-07 9.99998 0.00172785 24 1 
672 1.205 10 1.72094e-07 1.70085e-07 10 -0.000496903 24 1 
673.333 1.205 10 -5.20897e-08 -4.28323e-08 10 -0.000726752 24 1 
674.667 1.205 9.99999 -1.86658e-07 -1.86233e-07 9.99999 0.000873381 24 1 
676 1.205 10 1.98097e-07 1.94746e-07 10 -2.78611e-06 24 1 
677.333 1.205 10 2.51368e-08 2.75638e-08 10 -0.00085716 24 1 
678.667 1.205 9.99999 -4.10715e-08 -4.06585e-08 9.99999 0.000605592 24 1 
680 1.205 9.99999 1.22095e-07 1.19413e-07 9.99999 0.000343138 24 1 
681.333 1.205 10 -2.00082e-07 -1.99999e-07 10 -0.000796246 24 1 
682.667 1.205 10 -1.93151e-07 -1.91791e-07 10 0.000538478 24 1 
682.667 1.205 10 -1.93151e-07 -1.91791e-07 10 0.000538478 31 1 
684 1.205 10 2.78049e-07 2.78101e-07 10 9.6862e-05 31 1 
685.333 1.205 10 1.8388e-07 1.8327e-07 10 -0.000659154 31 1 
686.667 1.205 9.99999 -1.99622e-07 -1.99673e-07 9.99999 0.000489607 31 1 
688 1.205 9.99999 -1.25997e-07 -1.25742e-07 9.99999 0.000197677 31 1 
689.333 1.205 10 9.40733e-08 9.40542e-08 10 -0.00044362 31 1 
690.667 1.205 10 6.92403e-08 6.92289e-08 10 0.000109106 31 1 
692 1.205 10 -2.40029e-08 -2.39392e-08 10 0.000151769 31 1 
693.333 1.205 10 -2.70141e-08 -2.70318e-08 10 -8.21078e-05 31 1 
694.667 1.205 10 -7.82936e-10 -7.9752e-10 10 -2.96547e-05 31 1 
696 1.205 10 4.56962e-09 4.56475e-09 10 2.10615e-05 31 1 
697.333 1.205 10 1.18663e-09 1.18669e-09 10 9.34422e-06 31 1 
698.667 1.205 10 -1.64058e-11 -1.64423e-11 10 -6.1892e-06 31 1 
700 1.205 10 -5.39519e-15 -6.88605e-14 10 8.75958e-13 31 1 
701.333 1.205 10 -2.70717e-14 -6.29226e-14 10 1.63109e-12 31 1 
702.667 1.205 10 -2.20596e-14 -6.41676e-14 10 7.85341e-13 31 1 
704 1.205 10 1.08542e-15 -8.25879e-14 10 1.0874e-12 31 1 
704 1.205 10 1.08542e-15 -8.25879e-14 10 1.0874e-12 31 1 
705.333 1.205 10 -4.02245e-15 -8.36414e-14 10 3.8663e-12 31 1 
706.667 1.205 10 -3.06791e-14 -7.22444e-14 10 3.65486e-12 31 1 
708 1.205 10 -3.22754e-14 -6.62427e-14 10 1.63109e-12 31 1 
709.333 1.205 10 -5.29941e-15 -6.43272e-14 10 2.74869e-12 31 1 
710.667 1.205 10 2.49966e-14 -4.35446e-14 10 3.95691e-12 31 1 
712 1.205 10 3.51166e-14 -9.54533e-15 10 3.05075e-12 31 1 
713.333 1.205 10 8.39606e-15 -4.45023e-14 10 4.53082e-13 31 1 
714.667 1.205 10 -1.11735e-15 -7.36172e-14 10 4.53082e-13 31 1 
716 1.205 10 5.49096e-15 -4.20442e-14 10 2.17479e-12 31 1 
717.333 1.205 10 -5.36326e-15 -4.91632e-14 10 3.50383e-12 31 1 
718.667 1.205 10 -1.88353e-15 -5.99217e-14 10 5.31616e-12 31 1 
720 1.205 10 5.55481e-15 -5.02806e-14 10 4.40999e-12 31 1 
721.333 1.205 10 -1.4334e-14 -4.43108e-14 10 1.0874e-12 31 1 
722.667 1.205 10 -1.88672e-14 -2.4837e-14 10 -3.02054e-14 31 1 
724 1.205 10 3.8309e-15 -3.18603e-14 10 3.23198e-12 31 1 
725.333 1.205 10 1.28974e-14 -6.03686e-14 10 7.43054e-12 31 1 
725.333 1.205 10 1.28974e-14 -6.03686e-14 10 7.43054e-12 31 1 
726.667 1.205 10 1.07585e-14 -3.20838e-14 10 5.07451e-12 31 1 
728 1.205 10 2.84125e-15 -1.03434e-14 10 -1.72171e-12 31 1 
729.333 1.205 10 7.59796e-15 -4.03202e-14 10 -2.92993e-12 31 1 
730.667 1.205 10 1.96972e-14 -3.97137e-14 10 -1.60089e-12 31 1 
732 1.205 10 3.02322e-14 -4.06395e-14 10 6.94725e-13 31 1 
733.333 1.205 10 1.81968e-14 -5.01848e-14 10 4.71205e-12 31 1 
734.667 1.205 10 -4.8844e-15 -3.32969e-14 10 3.77568e-12 31 1 
736 1.205 10 -9.96035e-15 -2.60821e-14 10 2.26541e-12 31 1 
737.333 1.205 10 -3.57551e-15 -3.69363e-14 10 2.53726e-12 31 1 
738.667 1.205 10 -2.64971e-15 -3.38716e-14 10 2.08418e-12 31 1 
740 1.205 10 -1.30889e-14 -2.21235e-14 10 1.81233e-12 31 1 
741.333 1.205 10 -1.75583e-15 -1.85799e-14 10 2.62787e-12 31 1 
742.667 1.205 10 1.27378e-14 -4.17568e-14 10 4.77246e-12 31 1 
744 1.205 10 2.98491e-14 -7.16698e-14 10 4.92349e-12 31 1 
745.333 1.205 10 3.18923e-14 -6.08794e-14 10 3.38301e-12 31 1 
746.667 1.205 10 9.48148e-15 -4.99614e-14 10 3.41321e-12 31 1 
746.667 1.205 10 9.48148e-15 -4.99614e-14 10 3.41321e-12 31 1 
748 1.205 10 5.77828e-15 -6.0656e-14 10 3.14137e-12 31 1 
749.333 1.205 10 -1.49405e-14 -3.63616e-14 10 -2.11438e-13 31 1 
750.667 1.205 10 -2.32408e-14 -2.67844e-14 10 2.11438e-13 31 1 
752 1.205 10 -6.44869e-15 -3.368e-14 10 3.8663e-12 31 1 
753.333 1.205 10 -1.92822e-14 -3.64574e-14 10 4.68184e-12 31 1 
754.667 1.205 10 -7.88527e-15 -2.09103e-14 10 2.99034e-12 31 1 
756 1.205 10 -1.11735e-15 -2.56032e-14 10 6.34314e-13 31 1 
757.333 1.205 10 -2.36558e-14 -5.91874e-14 10 -5.73903e-13 31 1 
758.667 1.205 10 -1.63452e-14 -6.74558e-14 10 5.73903e-13 31 1 
760 1.205 10 -1.24824e-14 -4.89079e-14 10 2.99034e-12 31 1 
761.333 1.205 10 -2.22192e-14 -2.78379e-14 10 2.29561e-12 31 1 
762.667 1.205 10 -4.02245e-15 -4.15014e-14 10 1.23842e-12 31 1 
764 1.205 10 9.09839e-15 -5.13022e-14 10 1.6613e-12 31 1 
765.333 1.205 10 5.65058e-15 -3.85644e-14 10 6.94725e-13 31 1 
766.667 1.205 10 3.8309e-16 -5.13341e-14 10 9.06163e-13 31 1 
768 1.205 10 -1.21312e-14 -3.98733e-14 10 4.01732e-12 31 1 
768 1.205 10 -1.21312e-14 -3.98733e-14 10 4.01732e-12 32 1 
769.333 1.205 10 3.32011e-15 -2.58267e-14 10 4.77246e-12 32 1 
770.667 1.205 10 -7.05524e-15 -4.20761e-14 10 4.16835e-12 32 1 
772 1.205 10 -1.51959e-14 -2.87956e-14 10 3.20178e-12 32 1 
773.333 1.205 10 -4.75671e-15 -3.39354e-14 10 1.38945e-12 32 1 
774.667 1.205 10 6.09752e-15 -5.63462e-14 10 1.99356e-12 32 1 
776 1.205 10 -9.25802e-16 -6.32737e-14 10 3.50383e-12 32 1 
777.333 1.205 10 5.07594e-15 -4.1246e-14 10 4.71205e-12 32 1 
778.667 1.205 10 1.90268e-14 -3.24669e-14 10 3.80589e-12 32 1 
780 1.205 10 -1.03434e-14 -3.83409e-14 10 1.35924e-12 32 1 
781.333 1.205 10 -1.04711e-14 -2.67205e-14 10 1.60089e-12 32 1 
782.667 1.205 10 -9.86457e-15 -2.24746e-14 10 2.80911e-12 32 1 
784 1.205 10 -2.0623e-14 -3.91391e-14 10 2.53726e-12 32 1 
785.333 1.205 10 -1.8516e-14 -3.6202e-14 10 2.62787e-12 32 1 
786.667 1.205 10 4.05437e-15 -3.02641e-14 10 3.05075e-12 32 1 
788 1.205 10 5.55481e-15 -7.43834e-15 10 3.83609e-12 32 1 
789.333 1.205 10 -6.32099e-15 -5.10787e-15 10 4.53082e-12 32 1 
790.667 1.205 10 1.34082e-15 -2.4007e-14 10 2.68828e-12 32 1 
792 1.205 10 -8.90685e-15 -4.01287e-14 10 1.0874e-12 32 1 
793.333 1.205 10 2.9051e-15 -4.02883e-14 10 2.80911e-12 32 1 
794.667 1.205 10 1.27696e-16 -1.40147e-14 10 2.96013e-12 32 1 
796 1.205 10 -1.19396e-14 -2.70079e-14 10 -3.02054e-13 32 1 
797.333 1.205 10 -6.12944e-15 -4.73116e-14 10 -3.02054e-12 32 1 
798.667 1.205 10 3.32012e-15 -3.89794e-14 10 -2.47685e-12 32 1 
800 1.205 10 2.04953e-14 -2.56032e-14 10 -1.0874e-12 32 1 
