101.433;r ;Density                 ;Velocity u              ;Velocity v              ;Velocity w              ;|Velocity|              ;Pressure                ;Distribution            ;Levels                  ;
0 1.20801 10.0086 -0.00063719 -0.0012103 10.0086 5.43811 1 1 
1.33334 1.20812 10.0067 -0.000734946 -0.00141744 10.0067 5.63015 1 1 
2.66666 1.20836 10.0039 -0.000800996 -0.00156996 10.0039 6.0605 1 1 
4 1.20858 10.0025 -0.00092592 -0.00182498 10.0025 6.46189 1 1 
5.33334 1.20872 10.0009 -0.00098375 -0.00182637 10.0009 6.72735 1 1 
6.66666 1.20889 9.99982 -0.000765625 -0.00119984 9.99982 7.02231 1 1 
8 1.20905 9.99908 -0.000565998 -0.00067868 9.99908 7.3088 1 1 
9.33334 1.20915 9.99767 -0.000167849 0.000302407 9.99767 7.49366 1 1 
10.6667 1.20926 9.99698 0.000406579 0.00166708 9.99698 7.70255 1 1 
12 1.20934 9.99608 0.000884124 0.00285651 9.99609 7.83983 1 1 
13.3333 1.20938 9.99467 0.00156253 0.0045548 9.99468 7.90482 1 1 
14.6667 1.20941 9.99426 0.00225018 0.00627432 9.99428 7.96599 1 1 
16 1.20937 9.99316 0.00278458 0.00775651 9.99319 7.89005 1 1 
17.3333 1.2093 9.99203 0.00343712 0.00961687 9.99207 7.77426 1 1 
18.6667 1.20925 9.99177 0.00392997 0.0111442 9.99183 7.68458 1 1 
20 1.20912 9.99093 0.00433316 0.012483 9.991 7.44355 1 1 
21.3333 1.20897 9.9902 0.00479804 0.0139933 9.99028 7.17128 1 1 
21.3333 1.20897 9.9902 0.00479804 0.0139933 9.99028 7.17128 1 1 
22.6667 1.20883 9.98975 0.00497045 0.0148867 9.98984 6.91418 1 1 
24 1.20863 9.98924 0.005058 0.0156067 9.98933 6.55544 1 1 
25.3333 1.20844 9.98915 0.00511568 0.0162121 9.98925 6.20695 1 1 
26.6667 1.20822 9.98883 0.00483296 0.0160882 9.98893 5.81765 1 1 
28 1.20799 9.98832 0.00448835 0.0159221 9.98842 5.40804 1 1 
29.3333 1.20781 9.98893 0.00400449 0.0154332 9.98902 5.08417 1 1 
30.6667 1.20759 9.98907 0.00323156 0.0142949 9.98914 4.68071 1 1 
32 1.20738 9.98856 0.00250976 0.0132641 9.98861 4.29009 1 1 
33.3333 1.20724 9.98921 0.00162345 0.0118182 9.98925 4.04491 1 1 
34.6667 1.20709 9.98971 0.000596186 0.010033 9.98973 3.7786 1 1 
36 1.20697 9.98997 -0.000288402 0.00849895 9.98999 3.5524 1 1 
37.3333 1.2069 9.99014 -0.00133627 0.00651288 9.99015 3.42904 1 1 
38.6667 1.20684 9.99045 -0.00237155 0.00450981 9.99046 3.32457 1 1 
40 1.20685 9.9915 -0.00323552 0.00282145 9.99151 3.34423 1 1 
41.3333 1.20688 9.99162 -0.00423971 0.000794026 9.99163 3.39828 1 1 
42.6667 1.20691 9.99125 -0.0051263 -0.00101345 9.99127 3.44522 1 1 
42.6667 1.20691 9.99125 -0.0051263 -0.00101345 9.99127 3.44522 2 1 
44 1.20703 9.99201 -0.00588118 -0.00264878 9.99204 3.66039 2 1 
45.3333 1.20716 9.99251 -0.00672639 -0.00447385 9.99255 3.89405 2 1 
46.6667 1.20729 9.99195 -0.00735191 -0.00581409 9.992 4.13222 2 1 
48 1.20748 9.99186 -0.00789594 -0.00709603 9.99193 4.47993 2 1 
49.3333 1.20767 9.99181 -0.00841031 -0.00834586 9.99189 4.8159 2 1 
50.6667 1.20788 9.99154 -0.0086283 -0.00891067 9.99163 5.20625 2 1 
52 1.20813 9.99096 -0.00879984 -0.00938618 9.99106 5.65298 2 1 
53.3333 1.20833 9.99009 -0.00880109 -0.00952066 9.99019 6.01738 2 1 
54.6667 1.20855 9.98985 -0.00848799 -0.0089833 9.98994 6.41986 2 1 
56 1.20879 9.98908 -0.00816332 -0.00834677 9.98917 6.84075 2 1 
57.3333 1.20897 9.98757 -0.00762637 -0.00715267 9.98765 7.16656 2 1 
58.6667 1.20914 9.98691 -0.00688682 -0.00552759 9.98697 7.47482 2 1 
60 1.20927 9.98596 -0.00620549 -0.00396166 9.98601 7.71739 2 1 
61.3333 1.20938 9.9842 -0.00533485 -0.00185128 9.98423 7.90472 2 1 
62.6667 1.20948 9.98349 -0.00439331 0.000424807 9.98351 8.091 2 1 
64 1.20951 9.98232 -0.00352473 0.00259542 9.98233 8.14145 2 1 
64 1.20951 9.98232 -0.00352473 0.00259542 9.98233 8.14145 2 1 
65.3333 1.2095 9.98087 -0.00251788 0.00518914 9.98088 8.1194 2 1 
66.6667 1.20951 9.97968 -0.00160273 0.00764841 9.97969 8.14586 2 1 
68 1.20945 9.97876 -0.000739762 0.0100642 9.97877 8.04489 2 1 
69.3333 1.20935 9.9782 0.000223373 0.0127739 9.97822 7.86545 2 1 
70.6667 1.20925 9.97696 0.000996304 0.0151376 9.97699 7.67931 2 1 
72 1.20911 9.97605 0.00170782 0.017422 9.9761 7.42713 2 1 
73.3333 1.20897 9.97623 0.00241921 0.0196956 9.9763 7.17904 2 1 
74.6667 1.20878 9.97589 0.00286853 0.0214769 9.97598 6.83042 2 1 
76 1.20858 9.97458 0.00321686 0.0231112 9.97469 6.45971 2 1 
77.3333 1.20841 9.9749 0.00338712 0.024278 9.97502 6.16763 2 1 
78.6667 1.20821 9.97575 0.0032949 0.0248865 9.97587 5.78913 2 1 
80 1.208 9.97505 0.00315563 0.0254515 9.97518 5.42282 2 1 
81.3333 1.20784 9.97479 0.00269217 0.0252713 9.97491 5.12704 2 1 
82.6667 1.20766 9.97561 0.00201702 0.0245553 9.97572 4.80151 2 1 
84 1.20751 9.97626 0.00139439 0.0239153 9.97636 4.54227 2 1 
85.3333 1.2074 9.97621 0.000477753 0.0226129 9.97629 4.32717 2 1 
85.3333 1.2074 9.97621 0.000477753 0.0226129 9.97629 4.32717 3 1 
86.6667 1.20727 9.9762 -0.000591196 0.0209062 9.97626 4.10075 3 1 
88 1.2072 9.97764 -0.00159615 0.0192234 9.97768 3.9701 3 1 
89.3333 1.20716 9.97809 -0.00277236 0.0171035 9.97812 3.89371 3 1 
90.6667 1.20711 9.97743 -0.00402263 0.0147972 9.97745 3.80832 3 1 
92 1.20711 9.97813 -0.00523627 0.0124193 9.97814 3.81581 3 1 
93.3333 1.20714 9.97878 -0.00645832 0.00988526 9.97879 3.87265 3 1 
94.6667 1.20719 9.97863 -0.00762568 0.00746924 9.97865 3.9642 3 1 
96 1.20729 9.97844 -0.00877 0.00499981 9.97847 4.14212 3 1 
97.3333 1.20739 9.97862 -0.00979808 0.0026686 9.97866 4.31377 3 1 
98.6667 1.20752 9.97875 -0.0106645 0.000676856 9.97881 4.55695 3 1 
100 1.20769 9.97795 -0.0114781 -0.00126315 9.97802 4.8564 3 1 
101.333 1.20783 9.97712 -0.0120468 -0.0026911 9.9772 5.11685 3 1 
102.667 1.20802 9.97746 -0.0123564 -0.00364455 9.97755 5.44709 3 1 
104 1.2082 9.97712 -0.0126453 -0.00454563 9.97722 5.77142 3 1 
105.333 1.20836 9.97543 -0.0126153 -0.00468436 9.97553 6.07494 3 1 
106.667 1.20856 9.97537 -0.0123278 -0.00435578 9.97546 6.42511 3 1 
106.667 1.20856 9.97537 -0.0123278 -0.00435578 9.97546 6.42511 3 1 
108 1.20871 9.97487 -0.0120081 -0.00392383 9.97496 6.69927 3 1 
109.333 1.20885 9.97283 -0.0113481 -0.00264264 9.97291 6.95856 3 1 
110.667 1.20902 9.97225 -0.0105867 -0.00109485 9.97231 7.26925 3 1 
112 1.20913 9.97214 -0.00975071 0.0005888 9.97219 7.46656 3 1 
113.333 1.20923 9.9709 -0.00861654 0.0030241 9.97093 7.6393 3 1 
114.667 1.20933 9.96981 -0.00751002 0.00549961 9.96983 7.81825 3 1 
116 1.20937 9.96884 -0.00636287 0.00806863 9.96886 7.89443 3 1 
117.333 1.20941 9.96777 -0.00500441 0.0111773 9.96779 7.95932 3 1 
118.667 1.2094 9.96728 -0.00377584 0.0141249 9.9673 7.94402 3 1 
120 1.20937 9.9653 -0.00265576 0.0170098 9.96532 7.88475 3 1 
121.333 1.20932 9.96528 -0.00143485 0.0200977 9.96531 7.80846 3 1 
122.667 1.20923 9.96608 -0.000390961 0.022864 9.96613 7.64937 3 1 
124 1.20913 9.96391 0.000516356 0.02549 9.96397 7.45497 3 1 
125.333 1.209 9.96354 0.00135634 0.0279773 9.96362 7.23422 3 1 
126.667 1.20887 9.9637 0.00195261 0.0299567 9.9638 6.9949 3 1 
128 1.20871 9.96274 0.00240652 0.0317356 9.96286 6.70379 3 1 
128 1.20871 9.96274 0.00240652 0.0317356 9.96286 6.70379 3 1 
129.333 1.20856 9.96215 0.00262547 0.0331249 9.96228 6.42413 3 1 
130.667 1.2084 9.96221 0.00262986 0.0339783 9.96235 6.14382 3 1 
132 1.20823 9.96323 0.00247456 0.0344981 9.96336 5.8373 3 1 
133.333 1.20808 9.96272 0.00203862 0.0344904 9.96285 5.56566 3 1 
134.667 1.20793 9.96183 0.0013775 0.033988 9.96195 5.2858 3 1 
136 1.20779 9.9622 0.000574852 0.0330764 9.9623 5.03904 3 1 
137.333 1.20767 9.96259 -0.000437296 0.0317007 9.96268 4.81575 3 1 
138.667 1.20756 9.96227 -0.00164432 0.0299717 9.96234 4.63216 3 1 
140 1.2075 9.96272 -0.00293419 0.0279495 9.96279 4.5091 3 1 
141.333 1.20743 9.96368 -0.00431524 0.0256092 9.96373 4.39487 3 1 
142.667 1.2074 9.96313 -0.00577434 0.0231143 9.96317 4.34072 3 1 
144 1.20741 9.96241 -0.0072998 0.0204925 9.96244 4.34965 3 1 
145.333 1.20743 9.9626 -0.00877711 0.0178124 9.96263 4.39565 3 1 
146.667 1.20748 9.96333 -0.0101822 0.015223 9.96335 4.48516 3 1 
148 1.20756 9.96282 -0.0115762 0.0126648 9.96285 4.61865 3 1 
149.333 1.20766 9.96245 -0.0128676 0.0102086 9.96249 4.79636 3 1 
149.333 1.20766 9.96245 -0.0128676 0.0102086 9.96249 4.79636 3 1 
150.667 1.20778 9.96264 -0.0139549 0.00802666 9.96269 5.02135 3 1 
152 1.2079 9.96182 -0.0149304 0.00608615 9.96188 5.24025 3 1 
153.333 1.20803 9.96073 -0.0157703 0.00444435 9.96079 5.47572 3 1 
154.667 1.20819 9.96036 -0.0163761 0.00318747 9.96042 5.76916 3 1 
156 1.20835 9.9604 -0.0167441 0.00234239 9.96046 6.05057 3 1 
157.333 1.20849 9.95964 -0.0169256 0.00193995 9.95971 6.29784 3 1 
158.667 1.20864 9.9579 -0.0168975 0.00196534 9.95797 6.57428 3 1 
160 1.20879 9.95705 -0.0165499 0.00249095 9.95711 6.83914 3 1 
161.333 1.2089 9.95702 -0.0159974 0.00347164 9.95708 7.0362 3 1 
162.667 1.20901 9.95494 -0.0152882 0.00485188 9.95498 7.24686 3 1 
164 1.20911 9.95344 -0.0143644 0.0066231 9.95347 7.41776 3 1 
165.333 1.20916 9.95387 -0.0132585 0.0087319 9.9539 7.52223 3 1 
166.667 1.20923 9.95173 -0.0120611 0.0111128 9.95175 7.63858 3 1 
168 1.20923 9.95004 -0.0108001 0.0136661 9.95006 7.64572 3 1 
169.333 1.20923 9.94976 -0.00942891 0.016395 9.94978 7.63626 3 1 
170.667 1.20923 9.94872 -0.00799823 0.0191876 9.94875 7.64748 3 1 
170.667 1.20923 9.94872 -0.00799823 0.0191876 9.94875 7.64748 11 1 
172 1.20916 9.94812 -0.0066569 0.0219257 9.94815 7.52176 11 1 
173.333 1.20911 9.94602 -0.00533621 0.0246691 9.94606 7.41594 11 1 
174.667 1.20904 9.94522 -0.00405216 0.0272789 9.94528 7.30161 11 1 
176 1.20893 9.94448 -0.00290475 0.0296644 9.94454 7.10215 11 1 
177.333 1.20882 9.94277 -0.0019153 0.031822 9.94284 6.90212 11 1 
178.667 1.20872 9.94194 -0.00103498 0.0337402 9.94202 6.72804 11 1 
180 1.20861 9.94176 -0.000310973 0.0353214 9.94185 6.52535 11 1 
181.333 1.20848 9.9419 0.000132642 0.0365061 9.942 6.28132 11 1 
182.667 1.20837 9.94036 0.000383136 0.0373641 9.94046 6.09425 11 1 
184 1.20829 9.93908 0.000450074 0.0378078 9.93918 5.93796 11 1 
185.333 1.20817 9.93861 0.000256523 0.0377693 9.9387 5.7299 11 1 
186.667 1.20808 9.93662 -0.000225086 0.0373347 9.93671 5.57127 11 1 
188 1.20804 9.93567 -0.000839751 0.0366003 9.93575 5.48669 11 1 
189.333 1.20798 9.93684 -0.00159071 0.035515 9.93692 5.38997 11 1 
190.667 1.20796 9.93583 -0.00261748 0.0340811 9.9359 5.35223 11 1 
192 1.20795 9.93382 -0.00377819 0.0325175 9.93388 5.33444 11 1 
192 1.20795 9.93382 -0.00377819 0.0325175 9.93388 5.33444 11 1 
193.333 1.20796 9.93276 -0.00500873 0.0307038 9.93281 5.34286 11 1 
194.667 1.208 9.93099 -0.006413 0.028642 9.93104 5.41233 11 1 
196 1.20803 9.92987 -0.00780829 0.0266891 9.92991 5.47183 11 1 
197.333 1.2081 9.92935 -0.00925866 0.0246493 9.92938 5.60319 11 1 
198.667 1.2082 9.92785 -0.0106982 0.0225295 9.92788 5.78657 11 1 
200 1.20828 9.92658 -0.0119462 0.0206547 9.92661 5.91832 11 1 
201.333 1.20836 9.92366 -0.0133765 0.0187514 9.9237 6.06326 11 1 
202.667 1.20847 9.91938 -0.0147019 0.0169167 9.91942 6.27457 11 1 
204 1.20857 9.9189 -0.0156464 0.0155458 9.91893 6.44395 11 1 
205.333 1.20867 9.9187 -0.016673 0.0142924 9.91873 6.62027 11 1 
206.667 1.2088 9.91589 -0.0175534 0.0133423 9.91592 6.86291 11 1 
208 1.20887 9.91412 -0.0180546 0.0127025 9.91416 6.98586 11 1 
209.333 1.20893 9.91021 -0.0185519 0.0122033 9.91025 7.10658 11 1 
210.667 1.20901 9.90434 -0.018882 0.0121062 9.90438 7.24843 11 1 
212 1.20905 9.90079 -0.0189291 0.0122869 9.90082 7.30811 11 1 
213.333 1.2091 9.89907 -0.0188086 0.0127749 9.89911 7.40595 11 1 
213.333 1.2091 9.89907 -0.0188086 0.0127749 9.89911 7.40595 11 1 
214.667 1.20915 9.89776 -0.0185427 0.0135619 9.89779 7.49027 11 1 
216 1.20914 9.89585 -0.0181681 0.0145953 9.89588 7.48387 11 1 
217.333 1.20915 9.89253 -0.0175759 0.0157563 9.89256 7.4977 11 1 
218.667 1.20917 9.88731 -0.0169124 0.0171101 9.88734 7.52702 11 1 
220 1.20913 9.88131 -0.0161708 0.018621 9.88134 7.45574 11 1 
221.333 1.2091 9.875 -0.0153051 0.0201849 9.87504 7.39942 11 1 
222.667 1.20908 9.87092 -0.0143919 0.0217669 9.87095 7.36929 11 1 
224 1.20906 9.8701 -0.0134536 0.0234846 9.87014 7.33574 11 1 
225.333 1.20906 9.86768 -0.0125102 0.0251783 9.86772 7.33873 11 1 
226.667 1.20906 9.86285 -0.0115307 0.0267399 9.86289 7.33054 11 1 
228 1.20904 9.85715 -0.0106079 0.0282037 9.8572 7.29195 11 1 
229.333 1.20901 9.84876 -0.00985913 0.0295 9.84881 7.24598 11 1 
230.667 1.20903 9.84033 -0.00919984 0.0305165 9.84038 7.27303 11 1 
232 1.20902 9.83694 -0.00847618 0.0313782 9.837 7.26426 11 1 
233.333 1.20908 9.83353 -0.00780859 0.03224 9.83359 7.37011 11 1 
234.667 1.20917 9.82695 -0.00727974 0.0329292 9.82701 7.53391 11 1 
234.667 1.20917 9.82695 -0.00727974 0.0329292 9.82701 7.53391 11 1 
236 1.20912 9.82067 -0.00702632 0.0331829 9.82072 7.43632 11 1 
237.333 1.20919 9.8095 -0.00687285 0.0331417 9.80956 7.56856 11 1 
238.667 1.20927 9.80002 -0.00686791 0.0330586 9.80008 7.71013 11 1 
240 1.20928 9.79395 -0.00691654 0.0329267 9.794 7.72918 11 1 
241.333 1.20941 9.78421 -0.00693366 0.032714 9.78427 7.96983 11 1 
242.667 1.20945 9.77777 -0.00710003 0.032254 9.77783 8.03691 11 1 
244 1.20953 9.76469 -0.00762076 0.0316278 9.76474 8.18072 11 1 
245.333 1.20957 9.75139 -0.0082671 0.0308692 9.75145 8.2494 11 1 
246.667 1.20964 9.74054 -0.00870148 0.0303347 9.74059 8.38626 11 1 
248 1.2098 9.72782 -0.00934161 0.0296195 9.72788 8.67307 11 1 
249.333 1.20983 9.71743 -0.00987722 0.0292435 9.71748 8.71899 11 1 
250.667 1.20993 9.7017 -0.0106819 0.0286682 9.70176 8.90339 11 1 
252 1.21003 9.68715 -0.0116549 0.0277716 9.6872 9.07647 11 1 
253.333 1.21019 9.66757 -0.0122693 0.0274886 9.66762 9.3743 11 1 
254.667 1.21026 9.65184 -0.0130232 0.027056 9.65189 9.50162 11 1 
256 1.21038 9.63443 -0.0137541 0.0266602 9.63449 9.7119 11 1 
256 1.21038 9.63443 -0.0137541 0.0266602 9.63449 9.7119 13 1 
257.333 1.21062 9.61221 -0.0143316 0.0263618 9.61226 10.1477 13 1 
258.667 1.21068 9.59276 -0.0151299 0.025935 9.59282 10.259 13 1 
260 1.21084 9.56836 -0.0157153 0.0257358 9.56841 10.5488 13 1 
261.333 1.21113 9.54163 -0.0159749 0.0256286 9.54169 11.0729 13 1 
262.667 1.2113 9.51361 -0.016418 0.0254313 9.51366 11.3845 13 1 
264 1.21137 9.49094 -0.0168852 0.0251854 9.49099 11.5121 13 1 
265.333 1.21172 9.45711 -0.0171373 0.0249982 9.45716 12.1471 13 1 
266.667 1.21205 9.41563 -0.0172004 0.0249829 9.41569 12.7386 13 1 
268 1.21203 9.38578 -0.0173294 0.0248943 9.38584 12.6959 13 1 
269.333 1.21243 9.34259 -0.0174098 0.0247683 9.34265 13.4123 13 1 
270.667 1.21292 9.29101 -0.0173604 0.0246854 9.29107 14.3025 13 1 
272 1.2128 9.25894 -0.0172159 0.0246612 9.259 14.0828 13 1 
273.333 1.21327 9.20053 -0.0171296 0.0246622 9.2006 14.9444 13 1 
274.667 1.21392 9.13243 -0.0170257 0.0246585 9.13251 16.1148 13 1 
276 1.21383 9.0848 -0.0167595 0.024699 9.0849 15.949 13 1 
277.333 1.21433 9.00522 -0.0165823 0.024847 9.00532 16.8603 13 1 
277.333 1.21433 9.00522 -0.0165823 0.024847 9.00532 16.8603 13 1 
278.667 1.21499 8.9268 -0.0163611 0.0249654 8.9269 18.0443 13 1 
280 1.21521 8.85117 -0.0161403 0.0250668 8.85128 18.4356 13 1 
281.333 1.21569 8.75321 -0.0160186 0.0252806 8.75331 19.3161 13 1 
282.667 1.2163 8.66669 -0.0159078 0.0255116 8.66676 20.4167 13 1 
284 1.21704 8.57564 -0.0157058 0.0256387 8.57573 21.7451 13 1 
285.333 1.21776 8.46169 -0.0155165 0.0256959 8.4619 23.0396 13 1 
286.667 1.21827 8.31775 -0.0153346 0.025583 8.31815 23.9718 13 1 
288 1.21887 8.16048 -0.0151843 0.0255344 8.16082 25.0463 13 1 
289.333 1.21976 8.0206 -0.0151951 0.0255872 8.02075 26.6619 13 1 
290.667 1.22088 7.87857 -0.015163 0.0254306 7.87873 28.6871 13 1 
292 1.22174 7.71586 -0.0150798 0.0251683 7.7161 30.2332 13 1 
293.333 1.22238 7.54085 -0.0150547 0.0248986 7.54121 31.3853 13 1 
294.667 1.22337 7.34759 -0.0150394 0.0244984 7.34809 33.1812 13 1 
296 1.22446 7.15372 -0.0151107 0.024164 7.1541 35.1572 13 1 
297.333 1.22525 6.96489 -0.0150397 0.0236063 6.96521 36.5773 13 1 
298.667 1.21697 6.66729 -0.0146173 0.022454 6.66773 21.6137 13 1 
298.667 1.21697 6.66729 -0.0146173 0.022454 6.66773 21.6137 14 1 
300 1.20245 6.55885 -0.0146863 0.0220399 6.55915 -4.61458 14 1 
301.333 1.19695 6.55794 -0.014928 0.0218999 6.55821 -14.5425 14 1 
302.667 1.19794 6.37737 -0.0148664 0.0212675 6.37769 -12.7583 14 1 
304 1.19876 6.19266 -0.0148361 0.0207453 6.19303 -11.2731 14 1 
305.333 1.19933 6.01059 -0.0147029 0.0201269 6.01118 -10.2491 14 1 
306.667 1.20002 5.83982 -0.0145757 0.019479 5.84033 -8.99422 14 1 
308 1.20059 5.67596 -0.014495 0.0189838 5.67626 -7.95797 14 1 
309.333 1.20107 5.52689 -0.0144509 0.0185692 5.52717 -7.09907 14 1 
310.667 1.20162 5.39099 -0.0144342 0.0181951 5.39124 -6.10014 14 1 
312 1.20211 5.26591 -0.0143782 0.017806 5.26611 -5.218 14 1 
313.333 1.20252 5.1533 -0.0143002 0.0174007 5.15345 -4.47857 14 1 
314.667 1.2029 5.04419 -0.0142624 0.0171128 5.04436 -3.78791 14 1 
316 1.20319 4.93737 -0.0142169 0.0167767 4.93755 -3.27167 14 1 
317.333 1.20349 4.84349 -0.0140803 0.0163679 4.84363 -2.72073 14 1 
318.667 1.20388 4.76472 -0.0139469 0.0160609 4.76484 -2.0278 14 1 
320 1.20413 4.68126 -0.0139317 0.0158298 4.6814 -1.56936 14 1 
320 1.20413 4.68126 -0.0139317 0.0158298 4.6814 -1.56936 14 1 
321.333 1.20427 4.59489 -0.0139053 0.0155807 4.59503 -1.31296 14 1 
322.667 1.20452 4.52515 -0.013736 0.0152344 4.52529 -0.868644 14 1 
324 1.20479 4.45465 -0.0136137 0.0149626 4.45478 -0.378426 14 1 
325.333 1.20493 4.38204 -0.0136237 0.014826 4.38215 -0.132808 14 1 
326.667 1.20508 4.32581 -0.0136083 0.0146769 4.32592 0.143944 14 1 
328 1.20531 4.26934 -0.0135461 0.014503 4.26946 0.565846 14 1 
329.333 1.20547 4.2079 -0.0134894 0.0143156 4.20801 0.842797 14 1 
330.667 1.20555 4.15023 -0.0134672 0.0141731 4.15032 0.998689 14 1 
332 1.20568 4.0983 -0.0134935 0.0140674 4.09838 1.22002 14 1 
333.333 1.20587 4.06274 -0.0135282 0.0139818 4.06282 1.57841 14 1 
334.667 1.20605 4.02427 -0.0135113 0.0138997 4.02434 1.9001 14 1 
336 1.20608 3.96897 -0.0135464 0.0138366 3.96904 1.95792 14 1 
337.333 1.20613 3.92546 -0.0135962 0.0137235 3.92553 2.03757 14 1 
338.667 1.20631 3.89805 -0.0135973 0.0136308 3.89812 2.36297 14 1 
340 1.20648 3.87275 -0.0136029 0.0136248 3.8728 2.66606 14 1 
341.333 1.20653 3.84032 -0.0136801 0.0136178 3.84037 2.76959 14 1 
341.333 1.20653 3.84032 -0.0136801 0.0136178 3.84037 2.76959 15 1 
342.667 1.20654 3.79582 -0.0137316 0.0135234 3.79588 2.79022 15 1 
344 1.20664 3.76514 -0.0137042 0.0134561 3.7652 2.96894 15 1 
345.333 1.20679 3.75198 -0.0136801 0.0134678 3.75203 3.24059 15 1 
346.667 1.20687 3.72896 -0.013724 0.0134484 3.72901 3.37372 15 1 
348 1.20691 3.69744 -0.0137291 0.0133408 3.6975 3.45642 15 1 
349.333 1.20696 3.66492 -0.0137064 0.0133123 3.66497 3.5451 15 1 
350.667 1.20703 3.64216 -0.0136685 0.0133317 3.64222 3.6662 15 1 
352 1.20714 3.63258 -0.0136009 0.0132388 3.63263 3.86951 15 1 
353.333 1.2072 3.60845 -0.0135578 0.0130998 3.6085 3.98115 15 1 
354.667 1.20723 3.57534 -0.0135362 0.0130478 3.5754 4.02776 15 1 
356 1.20729 3.55572 -0.0134257 0.0129922 3.55578 4.14442 15 1 
357.333 1.20735 3.53703 -0.0133282 0.0129024 3.53708 4.253 15 1 
358.667 1.20742 3.5171 -0.0132672 0.0127467 3.51715 4.3676 15 1 
360 1.20748 3.49735 -0.013158 0.0125577 3.4974 4.47907 15 1 
361.333 1.20751 3.47088 -0.0130184 0.0124367 3.47093 4.53866 15 1 
362.667 1.20756 3.44854 -0.0129492 0.0123761 3.44859 4.6235 15 1 
362.667 1.20756 3.44854 -0.0129492 0.0123761 3.44859 4.6235 15 1 
364 1.20761 3.43064 -0.0128823 0.0122133 3.43069 4.71736 15 1 
365.333 1.20765 3.41024 -0.0127435 0.0119657 3.41029 4.7929 15 1 
366.667 1.2077 3.38986 -0.01258 0.0117751 3.38991 4.87939 15 1 
368 1.20774 3.36693 -0.0124675 0.0116702 3.36699 4.95657 15 1 
369.333 1.20778 3.34476 -0.0124234 0.0115987 3.34482 5.01831 15 1 
370.667 1.2078 3.3257 -0.0123156 0.0114436 3.32576 5.06419 15 1 
372 1.20784 3.30561 -0.0121064 0.0112165 3.30566 5.13075 15 1 
373.333 1.20789 3.28659 -0.0119401 0.011082 3.28664 5.22535 15 1 
374.667 1.20792 3.26552 -0.0119053 0.011107 3.26557 5.27336 15 1 
376 1.20794 3.24269 -0.0118381 0.01109 3.24274 5.30344 15 1 
377.333 1.20797 3.22503 -0.011654 0.0109514 3.22509 5.36067 15 1 
378.667 1.208 3.20706 -0.0114565 0.010836 3.20711 5.41605 15 1 
380 1.20803 3.18705 -0.011347 0.010893 3.1871 5.4756 15 1 
381.333 1.20806 3.16861 -0.0112847 0.0110334 3.16866 5.52378 15 1 
382.667 1.20807 3.14854 -0.0111713 0.0111046 3.1486 5.54998 15 1 
384 1.2081 3.13036 -0.0109495 0.0111389 3.13041 5.59304 15 1 
384 1.2081 3.13036 -0.0109495 0.0111389 3.13041 5.59304 15 1 
385.333 1.20812 3.11533 -0.0107755 0.0113107 3.11538 5.64366 15 1 
386.667 1.20815 3.09745 -0.0106742 0.0115483 3.0975 5.68462 15 1 
388 1.20817 3.07948 -0.0105717 0.011767 3.07953 5.72765 15 1 
389.333 1.20819 3.06371 -0.010461 0.0119729 3.06376 5.76048 15 1 
390.667 1.2082 3.04769 -0.0103665 0.0121993 3.04774 5.78505 15 1 
392 1.20823 3.03296 -0.010257 0.0124669 3.03301 5.82534 15 1 
393.333 1.20825 3.01881 -0.0101992 0.0127845 3.01886 5.86946 15 1 
394.667 1.20827 3.00366 -0.0101913 0.0130838 3.00372 5.89752 15 1 
396 1.20828 2.98966 -0.0101683 0.0133474 2.98972 5.92397 15 1 
397.333 1.2083 2.97688 -0.0101344 0.013623 2.97694 5.95692 15 1 
398.667 1.20831 2.96445 -0.0101884 0.0139672 2.9645 5.98522 15 1 
400 1.20833 2.95232 -0.0103236 0.0142997 2.95237 6.01274 15 1 
401.333 1.20835 2.94046 -0.0103859 0.0145257 2.94052 6.04879 15 1 
402.667 1.20837 2.92975 -0.010453 0.0147565 2.92981 6.08191 15 1 
404 1.20838 2.919 -0.0106554 0.0150269 2.91906 6.09816 15 1 
405.333 1.20839 2.9081 -0.0108701 0.0152377 2.90816 6.1166 15 1 
405.333 1.20839 2.9081 -0.0108701 0.0152377 2.90816 6.1166 15 1 
406.667 1.20841 2.89922 -0.0110618 0.0154272 2.89928 6.15522 15 1 
408 1.20843 2.89037 -0.011281 0.015577 2.89044 6.18929 15 1 
409.333 1.20844 2.88041 -0.011473 0.0156083 2.88048 6.20665 15 1 
410.667 1.20845 2.87128 -0.0117239 0.0156664 2.87135 6.22285 15 1 
412 1.20846 2.86254 -0.0120088 0.0157688 2.86261 6.24466 15 1 
413.333 1.20847 2.85442 -0.0122191 0.0157777 2.85449 6.27421 15 1 
414.667 1.20849 2.84612 -0.0124089 0.0156849 2.84619 6.29956 15 1 
416 1.20849 2.83591 -0.0125823 0.0155569 2.83598 6.31122 15 1 
417.333 1.2085 2.82651 -0.0127295 0.0154442 2.82658 6.3233 15 1 
418.667 1.20851 2.81807 -0.0129249 0.0153315 2.81815 6.34027 15 1 
420 1.20852 2.80798 -0.0131113 0.0151543 2.80805 6.35782 15 1 
421.333 1.20853 2.79722 -0.0132141 0.0148985 2.7973 6.3725 15 1 
422.667 1.20853 2.78605 -0.0132478 0.014567 2.78613 6.37987 15 1 
424 1.20854 2.77414 -0.0133129 0.0142218 2.77421 6.38541 15 1 
425.333 1.20854 2.76206 -0.013482 0.0139275 2.76214 6.39185 15 1 
426.667 1.20854 2.749 -0.0136564 0.0136018 2.74907 6.39854 15 1 
426.667 1.20854 2.749 -0.0136564 0.0136018 2.74907 6.39854 20 1 
428 1.20855 2.73492 -0.0137571 0.0131659 2.73499 6.40622 20 1 
429.333 1.20855 2.72023 -0.0138429 0.0127346 2.7203 6.40897 20 1 
430.667 1.20855 2.7049 -0.0139204 0.0123381 2.70497 6.40818 20 1 
432 1.20855 2.68919 -0.0140932 0.0119977 2.68926 6.4089 20 1 
433.333 1.20855 2.67263 -0.0143531 0.0117302 2.6727 6.41025 20 1 
434.667 1.20855 2.65565 -0.0145222 0.0114704 2.65572 6.41516 20 1 
436 1.20855 2.63858 -0.01467 0.0112126 2.63866 6.41967 20 1 
437.333 1.20855 2.62065 -0.0149116 0.0110279 2.62073 6.41635 20 1 
438.667 1.20855 2.60281 -0.0151997 0.0109842 2.60289 6.41494 20 1 
440 1.20856 2.58564 -0.0155509 0.0110937 2.58572 6.42326 20 1 
441.333 1.20856 2.56815 -0.0159644 0.0112878 2.56824 6.43172 20 1 
442.667 1.20856 2.55091 -0.0163903 0.0115588 2.551 6.43713 20 1 
444 1.20857 2.5345 -0.0168304 0.0119631 2.5346 6.44465 20 1 
445.333 1.20857 2.51855 -0.0173666 0.0125185 2.51865 6.45276 20 1 
446.667 1.20858 2.50369 -0.0180261 0.0132141 2.5038 6.46522 20 1 
448 1.20859 2.49014 -0.0187395 0.0140283 2.49026 6.48609 20 1 
448 1.20859 2.49014 -0.0187395 0.0140283 2.49026 6.48609 20 1 
449.333 1.2086 2.47726 -0.0194628 0.0149166 2.4774 6.50584 20 1 
450.667 1.20861 2.4655 -0.0202506 0.0158915 2.46565 6.52269 20 1 
452 1.20862 2.45552 -0.0210991 0.0169796 2.45568 6.54526 20 1 
453.333 1.20864 2.44708 -0.0220146 0.0181722 2.44726 6.57418 20 1 
454.667 1.20866 2.44011 -0.0230172 0.0194532 2.44031 6.60761 20 1 
456 1.20868 2.43479 -0.0240526 0.0208044 2.43501 6.64496 20 1 
457.333 1.2087 2.43106 -0.0250666 0.0221905 2.4313 6.68235 20 1 
458.667 1.20872 2.42899 -0.0261243 0.0236364 2.42925 6.7204 20 1 
460 1.20875 2.42887 -0.0272244 0.0251539 2.42916 6.7669 20 1 
461.333 1.20878 2.43069 -0.0283544 0.0267176 2.43101 6.82133 20 1 
462.667 1.20881 2.434 -0.0295079 0.0282926 2.43436 6.87464 20 1 
464 1.20884 2.43891 -0.030651 0.0298667 2.4393 6.92913 20 1 
465.333 1.20887 2.44571 -0.0317913 0.0314267 2.44613 6.98912 20 1 
466.667 1.2089 2.45408 -0.032987 0.0329981 2.45454 7.05032 20 1 
468 1.20894 2.46409 -0.0342009 0.0345787 2.46458 7.11603 20 1 
469.333 1.20898 2.47588 -0.0353482 0.0361561 2.47641 7.18719 20 1 
469.333 1.20898 2.47588 -0.0353482 0.0361561 2.47641 7.18719 20 1 
470.667 1.20902 2.48875 -0.0364759 0.0376983 2.48932 7.25527 20 1 
472 1.20905 2.5028 -0.0376171 0.0391637 2.5034 7.32221 20 1 
473.333 1.20909 2.51853 -0.0387613 0.0405779 2.51917 7.39366 20 1 
474.667 1.20913 2.53538 -0.0398864 0.0419874 2.53606 7.46728 20 1 
476 1.20917 2.5531 -0.0409641 0.043378 2.5538 7.5396 20 1 
477.333 1.20921 2.57188 -0.0419874 0.0446852 2.57262 7.60921 20 1 
478.667 1.20925 2.59148 -0.0429974 0.0459136 2.59225 7.67762 20 1 
480 1.20929 2.6118 -0.044002 0.047108 2.61261 7.7463 20 1 
481.333 1.20933 2.63297 -0.0449675 0.0482976 2.63381 7.81442 20 1 
482.667 1.20936 2.65477 -0.0458742 0.0494389 2.65563 7.88071 20 1 
484 1.2094 2.67702 -0.0467458 0.0504866 2.67792 7.94384 20 1 
485.333 1.20943 2.69969 -0.0475856 0.0514749 2.70061 8.0033 20 1 
486.667 1.20946 2.72277 -0.0483481 0.052459 2.72371 8.05973 20 1 
488 1.20949 2.74614 -0.0490097 0.0534158 2.74711 8.11529 20 1 
489.333 1.20952 2.76973 -0.0496124 0.0542728 2.77072 8.16963 20 1 
490.667 1.20955 2.79351 -0.0501973 0.0550116 2.79452 8.21896 20 1 
490.667 1.20955 2.79351 -0.0501973 0.0550116 2.79452 8.21896 20 1 
492 1.20957 2.81715 -0.0507585 0.0556711 2.81817 8.26316 20 1 
493.333 1.2096 2.84059 -0.0512188 0.0563295 2.84162 8.30459 20 1 
494.667 1.20962 2.86418 -0.0515206 0.0570597 2.86522 8.34419 20 1 
496 1.20964 2.88773 -0.0516765 0.0578261 2.88878 8.38155 20 1 
497.333 1.20966 2.91084 -0.0517358 0.0584909 2.9119 8.414 20 1 
498.667 1.20967 2.93353 -0.0517609 0.0589511 2.93459 8.441 20 1 
500 1.20969 2.95572 -0.051753 0.0592437 2.95678 8.46453 20 1 
501.333 1.2097 2.97729 -0.051628 0.0594518 2.97835 8.48552 20 1 
502.667 1.20971 2.99818 -0.0513007 0.0596154 2.99923 8.50397 20 1 
504 1.20972 3.01811 -0.0507813 0.0597383 3.01914 8.5183 20 1 
505.333 1.20972 3.03687 -0.0501259 0.0597877 3.03789 8.52684 20 1 
506.667 1.20972 3.05451 -0.0493869 0.0597103 3.0555 8.5309 20 1 
508 1.20972 3.07104 -0.0485899 0.059466 3.07201 8.53377 20 1 
509.333 1.20972 3.0863 -0.0477132 0.0590266 3.08724 8.53393 20 1 
510.667 1.20972 3.1 -0.046727 0.0583867 3.10092 8.52754 20 1 
512 1.20972 3.11212 -0.0456091 0.057559 3.11299 8.51728 20 1 
512 1.20972 3.11212 -0.0456091 0.057559 3.11299 8.51728 21 1 
513.333 1.20971 3.12258 -0.044361 0.0565369 3.12342 8.50485 21 1 
514.667 1.2097 3.13118 -0.0429858 0.0552848 3.13197 8.48794 21 1 
516 1.20969 3.1379 -0.0414864 0.0538 3.13865 8.46861 21 1 
517.333 1.20968 3.14258 -0.0398758 0.0520791 3.14328 8.44671 21 1 
518.667 1.20966 3.14491 -0.0381676 0.0501171 3.14555 8.41863 21 1 
520 1.20964 3.14486 -0.0363672 0.0478969 3.14544 8.38626 21 1 
521.333 1.20962 3.14248 -0.0345026 0.0454394 3.143 8.35207 21 1 
522.667 1.2096 3.13761 -0.0326038 0.0427546 3.13807 8.31483 21 1 
524 1.20958 3.13015 -0.0306759 0.0398327 3.13056 8.27334 21 1 
525.333 1.20956 3.12006 -0.0287463 0.0367007 3.12042 8.22764 21 1 
526.667 1.20953 3.10731 -0.0268595 0.0333856 3.10762 8.17822 21 1 
528 1.2095 3.09208 -0.0250481 0.029916 3.09233 8.12591 21 1 
529.333 1.20947 3.07451 -0.0233355 0.0263301 3.07473 8.07124 21 1 
530.667 1.20944 3.05465 -0.0217327 0.0226582 3.05482 8.01293 21 1 
532 1.2094 3.03262 -0.0202844 0.0189405 3.03276 7.95122 21 1 
533.333 1.20937 3.0087 -0.019015 0.015227 3.00881 7.88724 21 1 
533.333 1.20937 3.0087 -0.019015 0.015227 3.00881 7.88724 21 1 
534.667 1.20933 2.98314 -0.0179419 0.0115549 2.98323 7.82005 21 1 
536 1.20929 2.95632 -0.0170833 0.00795441 2.95639 7.75258 21 1 
537.333 1.20926 2.92862 -0.0164774 0.00449238 2.92869 7.68649 21 1 
538.667 1.20922 2.90016 -0.0161171 0.00120289 2.90022 7.61784 21 1 
540 1.20918 2.87117 -0.0159895 -0.00188948 2.87124 7.54801 21 1 
541.333 1.20914 2.84231 -0.0160938 -0.00475658 2.84238 7.48098 21 1 
542.667 1.20911 2.81399 -0.0164517 -0.00732811 2.81406 7.41602 21 1 
544 1.20907 2.78632 -0.0170437 -0.00958548 2.78641 7.35275 21 1 
545.333 1.20904 2.75957 -0.0178559 -0.011518 2.75968 7.29244 21 1 
546.667 1.20901 2.73414 -0.0188713 -0.0131032 2.73426 7.23586 21 1 
548 1.20898 2.71034 -0.020082 -0.0143179 2.71047 7.18405 21 1 
549.333 1.20895 2.68847 -0.0214482 -0.0151662 2.68862 7.13835 21 1 
550.667 1.20893 2.66868 -0.022952 -0.0156446 2.66884 7.09833 21 1 
552 1.20891 2.65098 -0.0245802 -0.0157377 2.65115 7.06275 21 1 
553.333 1.20889 2.63561 -0.0262889 -0.0154812 2.6358 7.03306 21 1 
554.667 1.20888 2.62279 -0.0280506 -0.0148835 2.62299 7.01066 21 1 
554.667 1.20888 2.62279 -0.0280506 -0.0148835 2.62299 7.01066 22 1 
556 1.20887 2.61255 -0.0298618 -0.0139496 2.61277 6.9952 22 1 
557.333 1.20887 2.60494 -0.031717 -0.0126771 2.60518 6.98743 22 1 
558.667 1.20887 2.59992 -0.0335711 -0.011097 2.60017 6.98585 22 1 
560 1.20887 2.59741 -0.035415 -0.00923735 2.59767 6.98942 22 1 
561.333 1.20888 2.59752 -0.0372307 -0.00711276 2.5978 7.00063 22 1 
562.667 1.20889 2.60026 -0.0389848 -0.00475743 2.60057 7.01853 22 1 
564 1.2089 2.60546 -0.0406793 -0.0021708 2.60578 7.0417 22 1 
565.333 1.20891 2.61302 -0.0423052 0.000611197 2.61337 7.07084 22 1 
566.667 1.20893 2.62288 -0.0438561 0.00357999 2.62325 7.10459 22 1 
568 1.20895 2.63495 -0.0453038 0.00670337 2.63536 7.14257 22 1 
569.333 1.20898 2.64917 -0.046661 0.00996398 2.64961 7.18584 22 1 
570.667 1.209 2.66545 -0.0479225 0.01335 2.66592 7.23322 22 1 
572 1.20903 2.68355 -0.0490845 0.0168461 2.68406 7.28348 22 1 
573.333 1.20906 2.70333 -0.0501386 0.0204277 2.70388 7.3363 22 1 
574.667 1.20909 2.72476 -0.0510769 0.0240797 2.72536 7.39149 22 1 
576 1.20912 2.74771 -0.0519068 0.0277752 2.74835 7.44832 22 1 
576 1.20912 2.74771 -0.0519068 0.0277752 2.74835 7.44832 22 1 
577.333 1.20916 2.772 -0.0526307 0.0315115 2.77269 7.5065 22 1 
578.667 1.20919 2.79751 -0.0532531 0.0352814 2.79826 7.56608 22 1 
580 1.20922 2.8241 -0.0537735 0.0390641 2.8249 7.62512 22 1 
581.333 1.20925 2.85165 -0.0542066 0.042835 2.8525 7.6844 22 1 
582.667 1.20929 2.88006 -0.0545609 0.0466062 2.88098 7.74414 22 1 
584 1.20932 2.9092 -0.0548065 0.0503496 2.91017 7.80187 22 1 
585.333 1.20935 2.93889 -0.054983 0.0540499 2.93992 7.8586 22 1 
586.667 1.20938 2.96901 -0.0550784 0.0576935 2.9701 7.91417 22 1 
588 1.20941 2.99939 -0.0550915 0.0612771 3.00055 7.96734 22 1 
589.333 1.20944 3.02999 -0.0550165 0.0647793 3.0312 8.0191 22 1 
590.667 1.20947 3.06068 -0.0548813 0.0681822 3.06196 8.0692 22 1 
592 1.20949 3.0913 -0.0546873 0.0714959 3.09263 8.11612 22 1 
593.333 1.20952 3.1217 -0.0544211 0.0747015 3.12309 8.15943 22 1 
594.667 1.20954 3.15184 -0.0541227 0.0777814 3.15328 8.20084 22 1 
596 1.20956 3.18168 -0.0537827 0.0807477 3.18318 8.24063 22 1 
597.333 1.20958 3.2111 -0.053406 0.0835786 3.21265 8.27742 22 1 
597.333 1.20958 3.2111 -0.053406 0.0835786 3.21265 8.27742 24 1 
598.667 1.2096 3.23995 -0.0529985 0.0862666 3.24155 8.31049 24 1 
600 1.20962 3.26814 -0.0525612 0.0887916 3.26979 8.33972 24 1 
601.333 1.20963 3.2956 -0.0520908 0.0911572 3.29729 8.36517 24 1 
602.667 1.20964 3.32229 -0.0515682 0.0933279 3.32402 8.38842 24 1 
604 1.20966 3.34808 -0.0510067 0.0952884 3.34984 8.40902 24 1 
605.333 1.20966 3.37288 -0.050394 0.097039 3.37467 8.42502 24 1 
606.667 1.20967 3.39663 -0.0497467 0.098564 3.39844 8.43728 24 1 
608 1.20968 3.41919 -0.049058 0.0998583 3.42102 8.44581 24 1 
609.333 1.20968 3.44059 -0.0483308 0.100912 3.44243 8.45035 24 1 
610.667 1.20968 3.46083 -0.0475919 0.101739 3.46267 8.45188 24 1 
612 1.20968 3.47974 -0.0468385 0.102325 3.48158 8.45022 24 1 
613.333 1.20967 3.4973 -0.0460747 0.102698 3.49913 8.44418 24 1 
614.667 1.20967 3.51353 -0.0453031 0.102836 3.51534 8.43431 24 1 
616 1.20966 3.52832 -0.0445265 0.102726 3.53011 8.4225 24 1 
617.333 1.20965 3.54171 -0.0437101 0.102364 3.54348 8.40737 24 1 
618.667 1.20964 3.55366 -0.0428642 0.101741 3.55539 8.38822 24 1 
618.667 1.20964 3.55366 -0.0428642 0.101741 3.55539 8.38822 24 1 
620 1.20963 3.56403 -0.0419868 0.100847 3.56572 8.3672 24 1 
621.333 1.20962 3.57292 -0.0410812 0.0996789 3.57457 8.34359 24 1 
622.667 1.2096 3.58039 -0.0401732 0.0982804 3.58198 8.31746 24 1 
624 1.20959 3.5864 -0.0393025 0.0966729 3.58793 8.29052 24 1 
625.333 1.20957 3.59101 -0.0385088 0.0948987 3.59249 8.26145 24 1 
626.667 1.20956 3.59432 -0.0378114 0.0930082 3.59574 8.2294 24 1 
628 1.20954 3.59641 -0.0372632 0.0910435 3.59777 8.19668 24 1 
629.333 1.20952 3.59743 -0.0368748 0.0890381 3.59873 8.16311 24 1 
630.667 1.2095 3.5975 -0.0366363 0.0869894 3.59875 8.1288 24 1 
632 1.20948 3.59675 -0.0365592 0.08493 3.59795 8.09397 24 1 
633.333 1.20946 3.59526 -0.0366123 0.0828437 3.59642 8.05813 24 1 
634.667 1.20944 3.59319 -0.036781 0.0807316 3.5943 8.02187 24 1 
636 1.20942 3.5907 -0.0370509 0.0786014 3.59176 7.98556 24 1 
637.333 1.2094 3.58792 -0.0374123 0.0764606 3.58894 7.9497 24 1 
638.667 1.20938 3.58494 -0.0378701 0.0743441 3.58592 7.91492 24 1 
640 1.20936 3.58188 -0.0384351 0.0722692 3.58283 7.88014 24 1 
640 1.20936 3.58188 -0.0384351 0.0722692 3.58283 7.88014 24 1 
641.333 1.20934 3.57888 -0.0391115 0.0702733 3.57979 7.84524 24 1 
642.667 1.20932 3.57607 -0.0399104 0.0683932 3.57696 7.81161 24 1 
644 1.20931 3.57357 -0.0408351 0.0666526 3.57443 7.77942 24 1 
645.333 1.20929 3.57148 -0.0418921 0.065057 3.57233 7.7481 24 1 
646.667 1.20927 3.56985 -0.0430622 0.0636374 3.57068 7.71859 24 1 
648 1.20926 3.56879 -0.0443106 0.062382 3.56961 7.69061 24 1 
649.333 1.20924 3.5684 -0.0456383 0.0612673 3.56922 7.66284 24 1 
650.667 1.20923 3.5687 -0.0469751 0.0602701 3.56952 7.63571 24 1 
652 1.20921 3.56969 -0.0482813 0.0593819 3.57051 7.6108 24 1 
653.333 1.2092 3.57151 -0.0495575 0.05858 3.57234 7.58616 24 1 
654.667 1.20919 3.57411 -0.0507502 0.0578137 3.57494 7.56272 24 1 
656 1.20918 3.57744 -0.0518281 0.0571129 3.57827 7.54177 24 1 
657.333 1.20916 3.58168 -0.0528027 0.0564609 3.58252 7.51964 24 1 
658.667 1.20915 3.58669 -0.0536518 0.0558251 3.58752 7.49779 24 1 
660 1.20914 3.59242 -0.0544027 0.0552577 3.59326 7.47806 24 1 
661.333 1.20913 3.59899 -0.0549922 0.0547377 3.59983 7.45817 24 1 
661.333 1.20913 3.59899 -0.0549922 0.0547377 3.59983 7.45817 24 1 
662.667 1.20912 3.60638 -0.0555238 0.054291 3.60721 7.4381 24 1 
664 1.20911 3.61437 -0.0559731 0.0539218 3.6152 7.42058 24 1 
665.333 1.2091 3.62322 -0.0562936 0.0536523 3.62406 7.40223 24 1 
666.667 1.20909 3.63276 -0.0566004 0.0535066 3.63359 7.38483 24 1 
668 1.20908 3.64283 -0.0568468 0.0534658 3.64367 7.37036 24 1 
669.333 1.20907 3.65372 -0.056979 0.0535078 3.65456 7.35521 24 1 
670.667 1.20906 3.66519 -0.057117 0.0537278 3.66603 7.34163 24 1 
672 1.20906 3.67711 -0.0571607 0.0540018 3.67795 7.33103 24 1 
673.333 1.20905 3.68974 -0.057114 0.0543627 3.69058 7.31916 24 1 
674.667 1.20905 3.70284 -0.0570322 0.0548586 3.70368 7.30999 24 1 
676 1.20904 3.71633 -0.0568047 0.0553712 3.71718 7.30479 24 1 
677.333 1.20904 3.73047 -0.0565189 0.055952 3.73132 7.29744 24 1 
678.667 1.20904 3.74492 -0.0561328 0.0565901 3.74577 7.29334 24 1 
680 1.20904 3.75979 -0.0556082 0.057254 3.76064 7.29178 24 1 
681.333 1.20904 3.7751 -0.0550342 0.0579483 3.77595 7.29008 24 1 
682.667 1.20904 3.79077 -0.0543553 0.0586679 3.79162 7.28991 24 1 
682.667 1.20904 3.79077 -0.0543553 0.0586679 3.79162 7.28991 31 1 
684 1.20904 3.80677 -0.0535737 0.0594319 3.80761 7.2911 31 1 
685.333 1.20904 3.82314 -0.052751 0.0602263 3.82398 7.29226 31 1 
686.667 1.20904 3.83981 -0.0518772 0.0610181 3.84065 7.29415 31 1 
688 1.20904 3.85681 -0.0509733 0.061927 3.85765 7.29759 31 1 
689.333 1.20904 3.87413 -0.0500298 0.0628468 3.87497 7.30193 31 1 
690.667 1.20904 3.89173 -0.0491424 0.063807 3.89257 7.30595 31 1 
692 1.20905 3.9096 -0.0482658 0.0649106 3.91045 7.31028 31 1 
693.333 1.20905 3.92774 -0.0473829 0.0660296 3.92859 7.31508 31 1 
694.667 1.20905 3.94609 -0.0466217 0.0672564 3.94695 7.32032 31 1 
696 1.20906 3.9647 -0.045896 0.0685516 3.96556 7.32514 31 1 
697.333 1.20906 3.98353 -0.0452175 0.0699456 3.9844 7.33098 31 1 
698.667 1.20906 4.00249 -0.04463 0.0713939 4.00339 7.3373 31 1 
700 1.20906 4.02166 -0.0441333 0.0729031 4.02257 7.34119 31 1 
701.333 1.20907 4.04094 -0.0436544 0.0744572 4.04187 7.34658 31 1 
702.667 1.20907 4.06036 -0.0432633 0.0760667 4.06131 7.35294 31 1 
704 1.20907 4.07992 -0.0429181 0.0776461 4.08089 7.3574 31 1 
704 1.20907 4.07992 -0.0429181 0.0776461 4.08089 7.3574 31 1 
705.333 1.20908 4.09956 -0.0426485 0.0792762 4.10055 7.36211 31 1 
706.667 1.20908 4.11927 -0.0423835 0.0808841 4.12029 7.36641 31 1 
708 1.20908 4.13902 -0.0421619 0.0824746 4.14006 7.36951 31 1 
709.333 1.20908 4.15882 -0.0420223 0.0839807 4.15988 7.37139 31 1 
710.667 1.20908 4.17869 -0.0418393 0.0855346 4.17978 7.37268 31 1 
712 1.20908 4.19855 -0.0416963 0.0869884 4.19966 7.37454 31 1 
713.333 1.20908 4.21841 -0.0416946 0.0883744 4.21955 7.37515 31 1 
714.667 1.20908 4.23832 -0.0416004 0.0897587 4.23948 7.37336 31 1 
716 1.20908 4.25818 -0.0416067 0.0910665 4.25937 7.3725 31 1 
717.333 1.20908 4.27799 -0.0416694 0.0922827 4.2792 7.37148 31 1 
718.667 1.20908 4.29786 -0.0417091 0.0935027 4.29909 7.36632 31 1 
720 1.20908 4.3177 -0.0418482 0.0946986 4.31895 7.36285 31 1 
721.333 1.20908 4.3374 -0.0420647 0.0957782 4.33867 7.36238 31 1 
722.667 1.20907 4.35707 -0.0423519 0.096863 4.35836 7.35641 31 1 
724 1.20907 4.3767 -0.0426467 0.0978995 4.37801 7.35001 31 1 
725.333 1.20907 4.39621 -0.0430586 0.0989187 4.39754 7.3485 31 1 
725.333 1.20907 4.39621 -0.0430586 0.0989187 4.39754 7.3485 31 1 
726.667 1.20907 4.41566 -0.0435435 0.0999185 4.41702 7.34367 31 1 
728 1.20906 4.43517 -0.0440901 0.100878 4.43654 7.33579 31 1 
729.333 1.20906 4.45442 -0.0447244 0.101877 4.45582 7.33446 31 1 
730.667 1.20906 4.47347 -0.0454319 0.102769 4.47489 7.3324 31 1 
732 1.20905 4.49253 -0.0462785 0.103739 4.49398 7.32297 31 1 
733.333 1.20905 4.51145 -0.0471166 0.104576 4.51292 7.31931 31 1 
734.667 1.20905 4.53014 -0.0480596 0.105561 4.53163 7.32111 31 1 
736 1.20905 4.54889 -0.0490434 0.106424 4.55041 7.31327 31 1 
737.333 1.20905 4.56749 -0.0502173 0.107281 4.56903 7.3083 31 1 
738.667 1.20905 4.58561 -0.051255 0.10819 4.58718 7.31288 31 1 
740 1.20905 4.60364 -0.0523771 0.10894 4.60523 7.30793 31 1 
741.333 1.20904 4.62172 -0.053834 0.109701 4.62334 7.29843 31 1 
742.667 1.20904 4.63952 -0.054848 0.110522 4.64116 7.30398 31 1 
744 1.20905 4.65716 -0.0560808 0.111405 4.65884 7.30765 31 1 
745.333 1.20904 4.6747 -0.0575967 0.111785 4.6764 7.29759 31 1 
746.667 1.20904 4.69178 -0.0587512 0.112564 4.6935 7.29849 31 1 
746.667 1.20904 4.69178 -0.0587512 0.112564 4.6935 7.29849 31 1 
748 1.20904 4.70883 -0.0599724 0.11326 4.71058 7.30351 31 1 
749.333 1.20904 4.72592 -0.0614704 0.113668 4.72769 7.29924 31 1 
750.667 1.20904 4.74287 -0.0626262 0.114253 4.74466 7.29774 31 1 
752 1.20904 4.75947 -0.0639196 0.114792 4.76129 7.30269 31 1 
753.333 1.20904 4.7759 -0.0653161 0.115267 4.77774 7.30368 31 1 
754.667 1.20904 4.79241 -0.0666906 0.11555 4.79427 7.29761 31 1 
756 1.20904 4.80886 -0.0679714 0.116176 4.81075 7.30053 31 1 
757.333 1.20905 4.82491 -0.0691495 0.116624 4.82682 7.31118 31 1 
758.667 1.20904 4.84119 -0.0708466 0.117074 4.84313 7.30145 31 1 
760 1.20904 4.85754 -0.0721907 0.117509 4.85951 7.29887 31 1 
761.333 1.20905 4.87297 -0.0735065 0.118153 4.87496 7.31978 31 1 
762.667 1.20905 4.88923 -0.0751463 0.118691 4.89125 7.30811 31 1 
764 1.20904 4.90543 -0.0768223 0.119349 4.90748 7.30144 31 1 
765.333 1.20906 4.92056 -0.0781976 0.12018 4.92266 7.32507 31 1 
766.667 1.20905 4.93662 -0.0799332 0.120804 4.93875 7.3194 31 1 
768 1.20905 4.95277 -0.0818375 0.121594 4.95495 7.30817 31 1 
768 1.20905 4.95277 -0.0818375 0.121594 4.95495 7.30817 32 1 
769.333 1.20906 4.96718 -0.0834018 0.12267 4.9694 7.33281 32 1 
770.667 1.20905 4.98374 -0.0850501 0.123362 4.98599 7.32344 32 1 
772 1.20905 4.99936 -0.0869929 0.124341 5.00167 7.32214 32 1 
773.333 1.20906 5.01359 -0.0887131 0.125401 5.01595 7.34118 32 1 
774.667 1.20905 5.0302 -0.0902616 0.126251 5.0326 7.32237 32 1 
776 1.20906 5.04538 -0.0920638 0.126806 5.04781 7.33241 32 1 
777.333 1.20907 5.05926 -0.0936117 0.128217 5.06175 7.35393 32 1 
778.667 1.20905 5.07628 -0.0950421 0.129146 5.07882 7.31278 32 1 
780 1.20906 5.0912 -0.0965449 0.129994 5.09378 7.33242 32 1 
781.333 1.20907 5.10651 -0.0978831 0.131027 5.10913 7.35157 32 1 
782.667 1.20904 5.12468 -0.0995514 0.131767 5.12734 7.30442 32 1 
784 1.20906 5.13992 -0.100898 0.13318 5.14264 7.32908 32 1 
785.333 1.20906 5.15558 -0.10163 0.134618 5.15834 7.33753 32 1 
786.667 1.20903 5.17157 -0.104445 0.136669 5.17443 7.28588 32 1 
788 1.20901 5.19079 -0.10647 0.137335 5.19371 7.24413 32 1 
789.333 1.20903 5.21054 -0.108256 0.14063 5.21358 7.28797 32 1 
790.667 1.20903 5.23163 -0.108829 0.143997 5.23475 7.28093 32 1 
792 1.20899 5.25044 -0.11203 0.147962 5.25373 7.2003 32 1 
793.333 1.20895 5.2708 -0.11567 0.151045 5.27424 7.13679 32 1 
794.667 1.20894 5.29629 -0.119125 0.157164 5.29998 7.11697 32 1 
796 1.20893 5.32434 -0.12349 0.164989 5.32834 7.09548 32 1 
797.333 1.20888 5.35091 -0.126337 0.173006 5.35523 7.01479 32 1 
798.667 1.20877 5.38591 -0.12642 0.183055 5.39054 6.8036 32 1 
800 1.20867 5.41083 -0.123724 0.186275 5.41551 6.63004 32 1 
