72.4518;r ;Density                 ;Velocity u              ;Velocity v              ;Velocity w              ;|Velocity|              ;Pressure                ;Distribution            ;Levels                  ;
0 1.203 9.99246 8.05138e-05 0.000273029 9.99246 -3.61442 1 1 
1.33334 1.20294 9.993 0.000333165 0.00072552 9.993 -3.72415 1 1 
2.66666 1.20278 9.99291 0.000791612 0.00154609 9.99292 -4.00572 1 1 
4 1.20265 9.99243 0.00120075 0.00232144 9.99245 -4.24831 1 1 
5.33334 1.20255 9.99232 0.00146313 0.00282874 9.99234 -4.41964 1 1 
6.66666 1.2024 9.99122 0.00164002 0.00311717 9.99125 -4.69036 1 1 
8 1.20226 9.99077 0.00182522 0.00343724 9.9908 -4.9489 1 1 
9.33334 1.20212 9.99052 0.00181488 0.00340884 9.99056 -5.19329 1 1 
10.6667 1.20195 9.98974 0.001753 0.00325586 9.98978 -5.51298 1 1 
12 1.20182 9.98974 0.0016624 0.00307072 9.98977 -5.74074 1 1 
13.3333 1.20169 9.98933 0.00139698 0.00254782 9.98936 -5.97876 1 1 
14.6667 1.20154 9.98882 0.00111751 0.00201067 9.98884 -6.25486 1 1 
16 1.20149 9.98883 0.000759737 0.00136762 9.98884 -6.3471 1 1 
17.3333 1.20143 9.98852 0.000305036 0.000508815 9.98853 -6.44539 1 1 
18.6667 1.20137 9.98837 -8.02611e-05 -0.000197883 9.98837 -6.55 1 1 
20 1.2014 9.98827 -0.000555793 -0.00104552 9.98827 -6.49913 1 1 
21.3333 1.20144 9.98751 -0.00110691 -0.00202766 9.98751 -6.4307 1 1 
21.3333 1.20144 9.98751 -0.00110691 -0.00202766 9.98751 -6.4307 1 1 
22.6667 1.20152 9.98736 -0.00154139 -0.00276102 9.98736 -6.27834 1 1 
24 1.20165 9.98725 -0.00201857 -0.0035845 9.98727 -6.05246 1 1 
25.3333 1.20178 9.98587 -0.0024861 -0.00437983 9.98589 -5.82123 1 1 
26.6667 1.20199 9.98542 -0.00286532 -0.00494013 9.98546 -5.44049 1 1 
28 1.20221 9.98522 -0.00325613 -0.00553353 9.98528 -5.04409 1 1 
29.3333 1.2024 9.98377 -0.00350434 -0.00589738 9.98383 -4.70063 1 1 
30.6667 1.20267 9.98259 -0.00367935 -0.0060717 9.98266 -4.21472 1 1 
32 1.20294 9.98164 -0.00384694 -0.00622301 9.98172 -3.72359 1 1 
33.3333 1.20317 9.98068 -0.00382365 -0.00600436 9.98077 -3.29947 1 1 
34.6667 1.20343 9.97911 -0.0037313 -0.00567172 9.97919 -2.84489 1 1 
36 1.20364 9.97699 -0.00359611 -0.00530369 9.97706 -2.45417 1 1 
37.3333 1.20386 9.97598 -0.00328287 -0.00455976 9.97604 -2.05318 1 1 
38.6667 1.20406 9.97497 -0.00296168 -0.00380078 9.97502 -1.69279 1 1 
40 1.20418 9.97201 -0.00258468 -0.00299057 9.97205 -1.47952 1 1 
41.3333 1.20432 9.96983 -0.00207218 -0.00190867 9.96986 -1.23396 1 1 
42.6667 1.20443 9.969 -0.00157077 -0.000857068 9.96902 -1.03849 1 1 
42.6667 1.20443 9.969 -0.00157077 -0.000857068 9.96902 -1.03849 2 1 
44 1.20446 9.96669 -0.00101046 0.000302774 9.9667 -0.975713 2 1 
45.3333 1.2045 9.9643 -0.000399272 0.00157812 9.9643 -0.909978 2 1 
46.6667 1.20448 9.96275 0.000201512 0.00277376 9.96275 -0.934755 2 1 
48 1.20442 9.96162 0.000863192 0.00408732 9.96162 -1.04099 2 1 
49.3333 1.20438 9.95999 0.00147245 0.00534097 9.96 -1.12575 2 1 
50.6667 1.20425 9.95789 0.00204109 0.00646107 9.95792 -1.35493 2 1 
52 1.20409 9.95712 0.002649 0.00764677 9.95717 -1.64757 2 1 
53.3333 1.20395 9.95675 0.0031248 0.00859364 9.95681 -1.90542 2 1 
54.6667 1.20375 9.95498 0.00348153 0.00931825 9.95506 -2.25763 2 1 
56 1.20355 9.95414 0.00381265 0.0100174 9.95424 -2.61186 2 1 
57.3333 1.20334 9.95424 0.00397899 0.0103556 9.95434 -2.99068 2 1 
58.6667 1.20311 9.9531 0.00401625 0.0104575 9.9532 -3.4154 2 1 
60 1.20295 9.95236 0.00396402 0.0104499 9.95248 -3.70829 2 1 
61.3333 1.20276 9.95249 0.00374519 0.0100881 9.95259 -4.04617 2 1 
62.6667 1.20254 9.95254 0.00348406 0.00961883 9.95263 -4.44966 2 1 
64 1.20242 9.95175 0.00309673 0.00896444 9.95183 -4.66481 2 1 
64 1.20242 9.95175 0.00309673 0.00896444 9.95183 -4.66481 2 1 
65.3333 1.20229 9.95166 0.00256841 0.00805661 9.95172 -4.88761 2 1 
66.6667 1.20216 9.95238 0.00206314 0.00718211 9.95243 -5.12975 2 1 
68 1.20207 9.95223 0.00143382 0.0060806 9.95226 -5.28376 2 1 
69.3333 1.20201 9.95093 0.000702431 0.00481456 9.95095 -5.40043 2 1 
70.6667 1.202 9.95144 3.30733e-05 0.00366912 9.95145 -5.41949 2 1 
72 1.202 9.95256 -0.000702738 0.00237677 9.95256 -5.42608 2 1 
73.3333 1.202 9.95065 -0.00144864 0.00108254 9.95066 -5.41622 2 1 
74.6667 1.20208 9.94993 -0.00214597 -7.19378e-05 9.94993 -5.27076 2 1 
76 1.20218 9.95078 -0.00283088 -0.0012592 9.9508 -5.08548 2 1 
77.3333 1.20228 9.95006 -0.00339221 -0.00223081 9.95009 -4.91235 2 1 
78.6667 1.20243 9.94849 -0.00391901 -0.00305016 9.94854 -4.63505 2 1 
80 1.2026 9.94768 -0.00438078 -0.00379729 9.94775 -4.33996 2 1 
81.3333 1.20276 9.94796 -0.00462437 -0.00418356 9.94803 -4.05225 2 1 
82.6667 1.20296 9.94663 -0.00480791 -0.00440873 9.94672 -3.68098 2 1 
84 1.20314 9.94389 -0.00493486 -0.00450671 9.94398 -3.36813 2 1 
85.3333 1.20331 9.94392 -0.00482759 -0.0041996 9.944 -3.05949 2 1 
85.3333 1.20331 9.94392 -0.00482759 -0.0041996 9.944 -3.05949 3 1 
86.6667 1.20352 9.94386 -0.00464398 -0.00377346 9.94395 -2.67082 3 1 
88 1.20369 9.94131 -0.0043942 -0.0031796 9.94139 -2.37185 3 1 
89.3333 1.20385 9.93975 -0.0039506 -0.00219639 9.93981 -2.07918 3 1 
90.6667 1.20401 9.93949 -0.00345892 -0.00118147 9.93954 -1.78617 3 1 
92 1.20414 9.93769 -0.00288675 -1.39601e-05 9.93773 -1.55119 3 1 
93.3333 1.20427 9.93538 -0.00220883 0.00142714 9.9354 -1.32266 3 1 
94.6667 1.20434 9.93458 -0.0015253 0.00287309 9.93459 -1.18452 3 1 
96 1.20441 9.93398 -0.000744525 0.0044273 9.93399 -1.06028 3 1 
97.3333 1.20446 9.93249 1.44639e-05 0.00598991 9.93249 -0.971341 3 1 
98.6667 1.20445 9.93033 0.00071456 0.00753563 9.93034 -1.0018 3 1 
100 1.20443 9.92964 0.00149351 0.00912053 9.92965 -1.02806 3 1 
101.333 1.20438 9.92918 0.00212994 0.0104341 9.9292 -1.12814 3 1 
102.667 1.20427 9.92706 0.00272123 0.0117549 9.92709 -1.32053 3 1 
104 1.20419 9.92657 0.00328831 0.0130267 9.92662 -1.45582 3 1 
105.333 1.20407 9.92666 0.0036853 0.0138761 9.92671 -1.6744 3 1 
106.667 1.20389 9.92534 0.00404829 0.0146799 9.9254 -1.99874 3 1 
106.667 1.20389 9.92534 0.00404829 0.0146799 9.9254 -1.99874 3 1 
108 1.20378 9.92369 0.00426651 0.0153709 9.92376 -2.2114 3 1 
109.333 1.20362 9.92309 0.00433646 0.0156495 9.92317 -2.4859 3 1 
110.667 1.20342 9.92348 0.00438403 0.0158279 9.92356 -2.84554 3 1 
112 1.20329 9.92283 0.00427259 0.0158519 9.9229 -3.0949 3 1 
113.333 1.20314 9.92156 0.00395172 0.015478 9.92163 -3.36088 3 1 
114.667 1.20297 9.92262 0.00365614 0.0150276 9.92268 -3.66031 3 1 
116 1.20285 9.92277 0.00325239 0.0143797 9.92282 -3.87603 3 1 
117.333 1.20273 9.9199 0.0026414 0.0134864 9.91993 -4.10007 3 1 
118.667 1.20261 9.92059 0.00206971 0.012595 9.92062 -4.31183 3 1 
120 1.20258 9.92119 0.00141624 0.0114749 9.92121 -4.37696 3 1 
121.333 1.2025 9.92024 0.000703564 0.0103075 9.92025 -4.51079 3 1 
122.667 1.20247 9.92047 7.32175e-06 0.00924264 9.92048 -4.56984 3 1 
124 1.20252 9.92015 -0.000707646 0.00802709 9.92015 -4.48356 3 1 
125.333 1.20251 9.92077 -0.00134206 0.00691007 9.92077 -4.49262 3 1 
126.667 1.20257 9.91945 -0.00197842 0.00596432 9.91946 -4.38915 3 1 
128 1.20266 9.91761 -0.00259107 0.00500464 9.91762 -4.23559 3 1 
128 1.20266 9.91761 -0.00259107 0.00500464 9.91762 -4.23559 3 1 
129.333 1.20274 9.91837 -0.0030748 0.00417268 9.91839 -4.08979 3 1 
130.667 1.20286 9.91861 -0.00347288 0.0035541 9.91864 -3.86959 3 1 
132 1.20297 9.91745 -0.00388308 0.00302974 9.91748 -3.66519 3 1 
133.333 1.2031 9.91652 -0.00413447 0.00269098 9.91656 -3.42362 3 1 
134.667 1.20324 9.91673 -0.00424955 0.00252985 9.91677 -3.18596 3 1 
136 1.20336 9.91494 -0.00433519 0.00254653 9.91498 -2.96216 3 1 
137.333 1.2035 9.91288 -0.00431143 0.00280301 9.91291 -2.71118 3 1 
138.667 1.20364 9.91307 -0.00415005 0.00317952 9.91309 -2.46084 3 1 
140 1.20375 9.91347 -0.00386981 0.00378145 9.9135 -2.26601 3 1 
141.333 1.20385 9.91179 -0.00359696 0.00453642 9.91181 -2.07836 3 1 
142.667 1.20396 9.9095 -0.00322744 0.00538719 9.90951 -1.87163 3 1 
144 1.20403 9.90943 -0.0027238 0.0063797 9.90944 -1.74772 3 1 
145.333 1.20408 9.90836 -0.00220828 0.00746458 9.90837 -1.66649 3 1 
146.667 1.20413 9.90619 -0.00174888 0.00855393 9.9062 -1.5717 3 1 
148 1.20416 9.90571 -0.00120681 0.00966674 9.90572 -1.51151 3 1 
149.333 1.20415 9.90637 -0.000646613 0.0107614 9.90638 -1.52704 3 1 
149.333 1.20415 9.90637 -0.000646613 0.0107614 9.90638 -1.52704 3 1 
150.667 1.20413 9.90429 -0.000182866 0.0117947 9.90429 -1.56464 3 1 
152 1.20411 9.90144 0.000235253 0.0127636 9.90145 -1.60756 3 1 
153.333 1.20407 9.90193 0.000699612 0.0136592 9.90195 -1.6791 3 1 
154.667 1.20401 9.90205 0.00106672 0.0144317 9.90207 -1.79182 3 1 
156 1.20394 9.89944 0.00129892 0.0150664 9.89946 -1.91575 3 1 
157.333 1.20387 9.8985 0.00153481 0.0156028 9.89853 -2.03469 3 1 
158.667 1.2038 9.8993 0.001722 0.0159865 9.89933 -2.15952 3 1 
160 1.20371 9.89779 0.00179171 0.0162322 9.89782 -2.32595 3 1 
161.333 1.20361 9.89554 0.00175991 0.0163504 9.89557 -2.51337 3 1 
162.667 1.20355 9.8951 0.00173845 0.0163372 9.89512 -2.62627 3 1 
164 1.20346 9.89589 0.00161621 0.0161479 9.89591 -2.78079 3 1 
165.333 1.20335 9.89484 0.00135471 0.0158509 9.89486 -2.97283 3 1 
166.667 1.20331 9.89165 0.00108437 0.0155118 9.89167 -3.05025 3 1 
168 1.20323 9.89273 0.000821069 0.0150379 9.89275 -3.19709 3 1 
169.333 1.20316 9.89344 0.000453023 0.0145131 9.89346 -3.32744 3 1 
170.667 1.20315 9.89027 5.28296e-05 0.0140172 9.89028 -3.33572 3 1 
170.667 1.20315 9.89027 5.28296e-05 0.0140172 9.89028 -3.33572 11 1 
172 1.20311 9.89067 -0.000292725 0.0135097 9.89068 -3.40493 11 1 
173.333 1.2031 9.89115 -0.000621934 0.0130142 9.89116 -3.4248 11 1 
174.667 1.20311 9.88928 -0.00102452 0.0125499 9.88929 -3.41126 11 1 
176 1.20313 9.88674 -0.00138549 0.0121611 9.88675 -3.38078 11 1 
177.333 1.20317 9.88719 -0.00165407 0.011808 9.8872 -3.30841 11 1 
178.667 1.20321 9.88777 -0.00194492 0.0114775 9.88778 -3.22665 11 1 
180 1.20327 9.88501 -0.00223403 0.0112845 9.88502 -3.12061 11 1 
181.333 1.20335 9.88489 -0.00246161 0.0111553 9.8849 -2.98463 11 1 
182.667 1.20344 9.88597 -0.00260316 0.0110525 9.88597 -2.80872 11 1 
184 1.20354 9.88364 -0.00278995 0.0109865 9.88364 -2.64371 11 1 
185.333 1.20362 9.88001 -0.00297844 0.010957 9.88002 -2.50151 11 1 
186.667 1.20373 9.8787 -0.0030769 0.0109588 9.8787 -2.29479 11 1 
188 1.20384 9.87912 -0.00313356 0.0109814 9.87912 -2.09262 11 1 
189.333 1.20391 9.87762 -0.00320112 0.0110636 9.87763 -1.9732 11 1 
190.667 1.20401 9.87461 -0.00323155 0.0111611 9.87461 -1.79504 11 1 
192 1.20409 9.87414 -0.00314593 0.0113265 9.87414 -1.65122 11 1 
192 1.20409 9.87414 -0.00314593 0.0113265 9.87414 -1.65122 11 1 
193.333 1.20412 9.87238 -0.00314737 0.0113703 9.87239 -1.59537 11 1 
194.667 1.20415 9.86704 -0.00325047 0.0113731 9.86705 -1.5332 11 1 
196 1.20417 9.86532 -0.00309796 0.0115971 9.86532 -1.50664 11 1 
197.333 1.20417 9.86608 -0.00301882 0.0116749 9.86609 -1.49611 11 1 
198.667 1.20416 9.86257 -0.00310786 0.0116748 9.86258 -1.51676 11 1 
200 1.20412 9.85887 -0.00294571 0.0119368 9.85888 -1.59682 11 1 
201.333 1.20406 9.8569 -0.00289545 0.0120396 9.85691 -1.69566 11 1 
202.667 1.204 9.85284 -0.0029297 0.0120261 9.85285 -1.80681 11 1 
204 1.20391 9.85006 -0.00278149 0.0123415 9.85007 -1.96562 11 1 
205.333 1.20386 9.84964 -0.00272994 0.0125601 9.84965 -2.06595 11 1 
206.667 1.20383 9.84881 -0.00259349 0.0128597 9.84882 -2.10954 11 1 
208 1.20373 9.84662 -0.00244433 0.0132313 9.84663 -2.29843 11 1 
209.333 1.20367 9.84129 -0.00248735 0.0134884 9.84131 -2.40475 11 1 
210.667 1.20367 9.8371 -0.0023884 0.0138538 9.83711 -2.39662 11 1 
212 1.20363 9.83524 -0.00227367 0.0141693 9.83525 -2.46914 11 1 
213.333 1.20363 9.83257 -0.00223323 0.0145823 9.83258 -2.46861 11 1 
213.333 1.20363 9.83257 -0.00223323 0.0145823 9.83258 -2.46861 11 1 
214.667 1.20369 9.83127 -0.00215552 0.0150026 9.83129 -2.35962 11 1 
216 1.20375 9.83153 -0.00206575 0.0153383 9.83155 -2.25765 11 1 
217.333 1.20382 9.82901 -0.0020003 0.0156274 9.82902 -2.13885 11 1 
218.667 1.20392 9.8229 -0.00204207 0.015928 9.82291 -1.95236 11 1 
220 1.20402 9.81762 -0.00206113 0.0160921 9.81764 -1.77262 11 1 
221.333 1.20413 9.81288 -0.00202187 0.0161285 9.81289 -1.56818 11 1 
222.667 1.20425 9.80802 -0.00211045 0.0161066 9.80804 -1.35937 11 1 
224 1.20437 9.8058 -0.00226565 0.0160544 9.80582 -1.13128 11 1 
225.333 1.20453 9.8039 -0.00235044 0.0158827 9.80392 -0.857056 11 1 
226.667 1.20464 9.799 -0.00240005 0.0156659 9.79901 -0.643631 11 1 
228 1.20472 9.79153 -0.00255788 0.0154636 9.79154 -0.506344 11 1 
229.333 1.20478 9.78229 -0.00278407 0.0151443 9.7823 -0.397686 11 1 
230.667 1.20485 9.77374 -0.00294304 0.0146925 9.77375 -0.271332 11 1 
232 1.20486 9.76891 -0.00301003 0.0143255 9.76892 -0.255382 11 1 
233.333 1.20491 9.76359 -0.00309188 0.0141295 9.7636 -0.165579 11 1 
234.667 1.20497 9.7563 -0.00313711 0.013964 9.75631 -0.0503683 11 1 
234.667 1.20497 9.7563 -0.00313711 0.013964 9.75631 -0.0503683 11 1 
236 1.20486 9.74947 -0.00328132 0.0136938 9.74949 -0.249834 11 1 
237.333 1.20485 9.73705 -0.00352296 0.0133863 9.73707 -0.271555 11 1 
238.667 1.20485 9.72663 -0.00374827 0.0132595 9.72665 -0.275235 11 1 
240 1.20478 9.72053 -0.00378795 0.0133657 9.72055 -0.395319 11 1 
241.333 1.20482 9.71063 -0.00367579 0.0136408 9.71065 -0.331952 11 1 
242.667 1.20477 9.70312 -0.0036619 0.0138879 9.70315 -0.416364 11 1 
244 1.2048 9.69027 -0.00381641 0.0141017 9.69029 -0.369312 11 1 
245.333 1.2048 9.67792 -0.00391554 0.0143782 9.67793 -0.367552 11 1 
246.667 1.20485 9.66701 -0.00378279 0.0149488 9.66702 -0.279366 11 1 
248 1.205 9.65429 -0.00382224 0.0153303 9.65431 0.00328921 11 1 
249.333 1.20506 9.64454 -0.00360073 0.0160009 9.64455 0.115537 11 1 
250.667 1.20522 9.62955 -0.00354474 0.0164995 9.62957 0.394519 11 1 
252 1.20538 9.61488 -0.00377265 0.0166194 9.6149 0.68503 11 1 
253.333 1.20563 9.59547 -0.00362666 0.0171381 9.59549 1.12921 11 1 
254.667 1.20579 9.58029 -0.00354417 0.0174434 9.5803 1.4326 11 1 
256 1.20601 9.56287 -0.00353018 0.0176367 9.56289 1.82223 11 1 
256 1.20601 9.56287 -0.00353018 0.0176367 9.56289 1.82223 13 1 
257.333 1.20634 9.54014 -0.0035319 0.017732 9.54016 2.41543 13 1 
258.667 1.20648 9.52029 -0.00371813 0.017548 9.52031 2.67829 13 1 
260 1.20672 9.49566 -0.00370347 0.0174601 9.49568 3.10167 13 1 
261.333 1.20706 9.46796 -0.00363607 0.0173679 9.46798 3.71708 13 1 
262.667 1.20726 9.43907 -0.00381129 0.0170861 9.43909 4.07696 13 1 
264 1.20734 9.41574 -0.00394496 0.0167275 9.41575 4.22952 13 1 
265.333 1.20769 9.38077 -0.00404262 0.0163874 9.38079 4.85279 13 1 
266.667 1.20798 9.33826 -0.00415793 0.0161435 9.3383 5.3779 13 1 
268 1.20791 9.30773 -0.00427049 0.0158486 9.30777 5.25125 13 1 
269.333 1.20826 9.26372 -0.00435045 0.0155607 9.26376 5.88292 13 1 
270.667 1.20869 9.21132 -0.00450294 0.0153652 9.21136 6.66272 13 1 
272 1.2085 9.17848 -0.0046076 0.0152567 9.17853 6.32772 13 1 
273.333 1.20892 9.11948 -0.00465794 0.0152084 9.11954 7.08924 13 1 
274.667 1.20953 9.0511 -0.00477681 0.0152133 9.05118 8.18237 13 1 
276 1.20941 9.003 -0.00487053 0.0152652 9.00309 7.96497 13 1 
277.333 1.20989 8.92314 -0.00490819 0.0154069 8.92322 8.83264 13 1 
277.333 1.20989 8.92314 -0.00490819 0.0154069 8.92322 8.83264 13 1 
278.667 1.21055 8.84476 -0.00492004 0.0155883 8.84484 10.0224 13 1 
280 1.2108 8.76903 -0.00498782 0.0157876 8.76911 10.4715 13 1 
281.333 1.21131 8.6707 -0.00504661 0.0160247 8.67076 11.4045 13 1 
282.667 1.21196 8.58373 -0.00509496 0.0162586 8.58376 12.5796 13 1 
284 1.21277 8.49266 -0.0051471 0.0163929 8.49269 14.0307 13 1 
285.333 1.21355 8.37841 -0.00517163 0.0164172 8.37856 15.4491 13 1 
286.667 1.21413 8.23372 -0.0051787 0.016341 8.23403 16.4854 13 1 
288 1.21479 8.07634 -0.00522939 0.0162751 8.0766 17.6806 13 1 
289.333 1.21575 7.93615 -0.00532415 0.0162412 7.93623 19.4171 13 1 
290.667 1.21691 7.79309 -0.00540208 0.0160542 7.79319 21.5147 13 1 
292 1.2178 7.62974 -0.00547577 0.0157875 7.62991 23.1212 13 1 
293.333 1.21848 7.45426 -0.00556028 0.0154964 7.45456 24.3501 13 1 
294.667 1.2195 7.26018 -0.00563642 0.0151142 7.26062 26.1863 13 1 
296 1.22059 7.06545 -0.00573785 0.0148134 7.06578 28.1626 13 1 
297.333 1.22139 6.87594 -0.00579277 0.0143831 6.87623 29.5995 13 1 
298.667 1.21317 6.5769 -0.00574947 0.0135669 6.57731 14.7503 13 1 
298.667 1.21317 6.5769 -0.00574947 0.0135669 6.57731 14.7503 14 1 
300 1.1987 6.46658 -0.00591631 0.0131965 6.46686 -11.3876 14 1 
301.333 1.19319 6.46475 -0.00611918 0.013025 6.465 -21.3288 14 1 
302.667 1.19417 6.28386 -0.00620671 0.0125624 6.28416 -19.5568 14 1 
304 1.19499 6.09891 -0.00632098 0.0121752 6.09926 -18.0838 14 1 
305.333 1.19555 5.91673 -0.00642396 0.011733 5.91731 -17.0737 14 1 
306.667 1.19624 5.74617 -0.00656222 0.0112423 5.74667 -15.8197 14 1 
308 1.19682 5.58266 -0.00668524 0.0108638 5.58294 -14.7774 14 1 
309.333 1.19729 5.43377 -0.00682174 0.0105706 5.43403 -13.9182 14 1 
310.667 1.19785 5.29831 -0.00699449 0.0102927 5.29854 -12.9112 14 1 
312 1.19835 5.17398 -0.00715085 0.00998729 5.17415 -12.009 14 1 
313.333 1.19877 5.06209 -0.00728953 0.00970164 5.06221 -11.2445 14 1 
314.667 1.19918 4.95374 -0.00743442 0.00949542 4.95387 -10.5211 14 1 
316 1.19949 4.84781 -0.00759586 0.00922426 4.84796 -9.96097 14 1 
317.333 1.19981 4.7549 -0.00770398 0.0089325 4.755 -9.36818 14 1 
318.667 1.20022 4.67718 -0.00777906 0.00872239 4.67726 -8.6321 14 1 
320 1.20051 4.59488 -0.00792508 0.00852252 4.59497 -8.11388 14 1 
320 1.20051 4.59488 -0.00792508 0.00852252 4.59497 -8.11388 14 1 
321.333 1.20068 4.5096 -0.00807044 0.00829165 4.50971 -7.79563 14 1 
322.667 1.20096 4.44084 -0.00813153 0.00801153 4.44094 -7.30145 14 1 
324 1.20126 4.37145 -0.00821228 0.00775994 4.37155 -6.76071 14 1 
325.333 1.20142 4.3 -0.00835599 0.00757043 4.30007 -6.46015 14 1 
326.667 1.2016 4.24485 -0.00847426 0.00738464 4.24492 -6.13376 14 1 
328 1.20186 4.1896 -0.00857151 0.00716847 4.18969 -5.66416 14 1 
329.333 1.20204 4.12944 -0.00868836 0.00691615 4.12952 -5.34264 14 1 
330.667 1.20215 4.07294 -0.00882178 0.00670595 4.07299 -5.14904 14 1 
332 1.20229 4.02232 -0.00896601 0.00650504 4.02236 -4.88772 14 1 
333.333 1.20251 3.98822 -0.00911157 0.00631894 3.98827 -4.49219 14 1 
334.667 1.20271 3.95127 -0.00924692 0.0061489 3.95132 -4.14034 14 1 
336 1.20276 3.89763 -0.00943639 0.00595738 3.89766 -4.04463 14 1 
337.333 1.20283 3.85571 -0.00964752 0.00570221 3.85575 -3.92457 14 1 
338.667 1.20302 3.8299 -0.00981072 0.00549403 3.82993 -3.56741 14 1 
340 1.20321 3.80644 -0.00996102 0.00536795 3.80646 -3.23067 14 1 
341.333 1.20329 3.77594 -0.0101679 0.00521548 3.77597 -3.08531 14 1 
341.333 1.20329 3.77594 -0.0101679 0.00521548 3.77597 -3.08531 15 1 
342.667 1.20333 3.73326 -0.0103812 0.00499274 3.73329 -3.02008 15 1 
344 1.20345 3.70437 -0.0105244 0.00482173 3.7044 -2.79904 15 1 
345.333 1.20362 3.69309 -0.0106458 0.00470769 3.69311 -2.48674 15 1 
346.667 1.20372 3.67196 -0.0108171 0.0045394 3.67198 -2.30789 15 1 
348 1.20379 3.64223 -0.0109897 0.00431749 3.64225 -2.17675 15 1 
349.333 1.20387 3.61153 -0.0111325 0.00415142 3.61156 -2.04224 15 1 
350.667 1.20396 3.59058 -0.0112384 0.00400334 3.5906 -1.87408 15 1 
352 1.2041 3.58254 -0.0113432 0.0037866 3.58257 -1.62069 15 1 
353.333 1.20419 3.55995 -0.011492 0.00352367 3.55997 -1.45936 15 1 
354.667 1.20424 3.52851 -0.0116366 0.00330856 3.52854 -1.36541 15 1 
356 1.20433 3.51035 -0.0116879 0.00311179 3.51038 -1.20171 15 1 
357.333 1.20442 3.49303 -0.0117565 0.00288119 3.49305 -1.04487 15 1 
358.667 1.20451 3.47442 -0.011889 0.00260707 3.47445 -0.885929 15 1 
360 1.20459 3.45583 -0.0119912 0.00233525 3.45586 -0.731854 15 1 
361.333 1.20466 3.43076 -0.0120358 0.00209562 3.43079 -0.622855 15 1 
362.667 1.20473 3.40997 -0.0120996 0.00187691 3.41 -0.490862 15 1 
362.667 1.20473 3.40997 -0.0120996 0.00187691 3.41 -0.490862 15 1 
364 1.2048 3.39336 -0.0122096 0.0016169 3.39339 -0.357227 15 1 
365.333 1.20487 3.37414 -0.0123114 0.00130562 3.37417 -0.237619 15 1 
366.667 1.20494 3.35516 -0.0123816 0.00100847 3.35519 -0.104817 15 1 
368 1.20501 3.33386 -0.0124616 0.00075168 3.33389 0.014112 15 1 
369.333 1.20507 3.31331 -0.0125937 0.000504029 3.31335 0.118592 15 1 
370.667 1.20512 3.29572 -0.0127216 0.000188411 3.29576 0.209226 15 1 
372 1.20517 3.27697 -0.012804 -0.000154573 3.27701 0.315821 15 1 
373.333 1.20525 3.25949 -0.0128814 -0.000467215 3.25953 0.450841 15 1 
374.667 1.2053 3.24031 -0.0130242 -0.000716588 3.24035 0.548695 15 1 
376 1.20535 3.21931 -0.0131756 -0.000969128 3.21935 0.627563 15 1 
377.333 1.2054 3.20319 -0.0132928 -0.00128359 3.20323 0.723161 15 1 
378.667 1.20545 3.18675 -0.013394 -0.00162931 3.18679 0.816447 15 1 
380 1.20551 3.16847 -0.0134976 -0.00187963 3.16851 0.917276 15 1 
381.333 1.20556 3.15188 -0.013632 -0.00208164 3.15192 1.00529 15 1 
382.667 1.2056 3.13361 -0.0138037 -0.00234734 3.13366 1.07479 15 1 
384 1.20565 3.11726 -0.0139365 -0.00265179 3.1173 1.16623 15 1 
384 1.20565 3.11726 -0.0139365 -0.00265179 3.1173 1.16623 15 1 
385.333 1.2057 3.10405 -0.0140813 -0.00288999 3.10409 1.2623 15 1 
386.667 1.20574 3.08789 -0.0142618 -0.00309111 3.08793 1.34051 15 1 
388 1.20578 3.07169 -0.0144011 -0.0032693 3.07173 1.41567 15 1 
389.333 1.20582 3.05771 -0.0145397 -0.00342589 3.05775 1.4843 15 1 
390.667 1.20586 3.04351 -0.0147221 -0.00361408 3.04355 1.55102 15 1 
392 1.20591 3.03077 -0.014888 -0.00380322 3.03081 1.63588 15 1 
393.333 1.20595 3.01859 -0.0150599 -0.00393452 3.01863 1.7246 15 1 
394.667 1.20599 3.00528 -0.0152922 -0.00408546 3.00533 1.79425 15 1 
396 1.20603 2.99301 -0.0154984 -0.00425505 2.99305 1.85632 15 1 
397.333 1.20606 2.98184 -0.0156195 -0.00431919 2.98189 1.92283 15 1 
398.667 1.2061 2.97119 -0.0157841 -0.00434586 2.97124 1.99067 15 1 
400 1.20614 2.96085 -0.0160771 -0.00445137 2.9609 2.0609 15 1 
401.333 1.20618 2.95057 -0.0163075 -0.00453308 2.95062 2.13493 15 1 
402.667 1.20622 2.94164 -0.0164205 -0.00446953 2.94169 2.20766 15 1 
404 1.20626 2.93283 -0.0166182 -0.00442675 2.93288 2.26795 15 1 
405.333 1.20629 2.92379 -0.0169222 -0.00447388 2.92384 2.32427 15 1 
405.333 1.20629 2.92379 -0.0169222 -0.00447388 2.92384 2.32427 15 1 
406.667 1.20633 2.91677 -0.017154 -0.00441473 2.91682 2.39878 15 1 
408 1.20637 2.90989 -0.0172937 -0.00424033 2.90995 2.47508 15 1 
409.333 1.2064 2.90212 -0.0174722 -0.0041877 2.90218 2.53392 15 1 
410.667 1.20643 2.89541 -0.0177564 -0.00418395 2.89547 2.59018 15 1 
412 1.20647 2.88934 -0.017972 -0.00398138 2.8894 2.65739 15 1 
413.333 1.20651 2.88412 -0.0179857 -0.0035566 2.88418 2.73296 15 1 
414.667 1.20655 2.87915 -0.017975 -0.00312582 2.87921 2.79933 15 1 
416 1.20658 2.87302 -0.0181281 -0.00283289 2.87308 2.85495 15 1 
417.333 1.20662 2.86838 -0.0183911 -0.00264634 2.86844 2.92074 15 1 
418.667 1.20666 2.86532 -0.0186321 -0.00239896 2.86538 2.99451 15 1 
420 1.2067 2.86122 -0.0187352 -0.001993 2.86128 3.06634 15 1 
421.333 1.20674 2.85705 -0.0186966 -0.00147141 2.85711 3.13534 15 1 
422.667 1.20677 2.85321 -0.0186204 -0.000945803 2.85328 3.19708 15 1 
424 1.2068 2.84947 -0.0186139 -0.000452544 2.84953 3.25844 15 1 
425.333 1.20684 2.84649 -0.0187147 5.4092e-05 2.84655 3.32784 15 1 
426.667 1.20688 2.84344 -0.0188548 0.0005637 2.84351 3.40301 15 1 
426.667 1.20688 2.84344 -0.0188548 0.0005637 2.84351 3.40301 20 1 
428 1.20693 2.84021 -0.0189576 0.00103489 2.84028 3.47896 20 1 
429.333 1.20696 2.83727 -0.0190423 0.00153862 2.83734 3.54679 20 1 
430.667 1.207 2.83434 -0.0191053 0.00208824 2.83441 3.60768 20 1 
432 1.20703 2.83162 -0.0191766 0.00265382 2.83169 3.67059 20 1 
433.333 1.20707 2.82886 -0.01928 0.00325902 2.82893 3.73599 20 1 
434.667 1.20711 2.82605 -0.0193566 0.00386929 2.82612 3.80519 20 1 
436 1.20715 2.82341 -0.0194142 0.00442997 2.82348 3.87467 20 1 
437.333 1.20718 2.82025 -0.0195023 0.00498708 2.82032 3.93328 20 1 
438.667 1.20721 2.8171 -0.0195959 0.00560303 2.81718 3.98727 20 1 
440 1.20724 2.81446 -0.0196999 0.00625292 2.81453 4.05033 20 1 
441.333 1.20728 2.81129 -0.0198349 0.00687764 2.81137 4.11407 20 1 
442.667 1.20731 2.80786 -0.0199867 0.00746926 2.80795 4.16844 20 1 
444 1.20734 2.80465 -0.0201563 0.00805177 2.80473 4.21974 20 1 
445.333 1.20736 2.80124 -0.0203845 0.00864556 2.80133 4.27154 20 1 
446.667 1.20739 2.79816 -0.0206835 0.00924708 2.79826 4.32528 20 1 
448 1.20743 2.79539 -0.0210143 0.00983424 2.79549 4.38281 20 1 
448 1.20743 2.79539 -0.0210143 0.00983424 2.79549 4.38281 20 1 
449.333 1.20746 2.79225 -0.0213661 0.0103869 2.79235 4.43705 20 1 
450.667 1.20748 2.78928 -0.0217656 0.0109145 2.78939 4.48468 20 1 
452 1.20751 2.78692 -0.0222184 0.0114343 2.78703 4.53057 20 1 
453.333 1.20754 2.78486 -0.0227526 0.0119177 2.78498 4.57972 20 1 
454.667 1.20757 2.78324 -0.0233751 0.0123593 2.78337 4.63311 20 1 
456 1.20759 2.78217 -0.0240316 0.0127972 2.7823 4.68475 20 1 
457.333 1.20762 2.78163 -0.0247025 0.0131825 2.78178 4.73237 20 1 
458.667 1.20765 2.7818 -0.0254363 0.0134968 2.78195 4.78017 20 1 
460 1.20767 2.78278 -0.0262271 0.0137959 2.78294 4.8306 20 1 
461.333 1.2077 2.78467 -0.0270636 0.01407 2.78484 4.88261 20 1 
462.667 1.20773 2.78726 -0.0279504 0.01426 2.78743 4.93203 20 1 
464 1.20776 2.79059 -0.0288726 0.0143918 2.79078 4.97955 20 1 
465.333 1.20778 2.79505 -0.0298022 0.0145062 2.79525 5.02688 20 1 
466.667 1.20781 2.80041 -0.0307467 0.0145785 2.80062 5.07382 20 1 
468 1.20784 2.80673 -0.0316956 0.0145852 2.80695 5.12698 20 1 
469.333 1.20787 2.81413 -0.0326245 0.0145311 2.81436 5.18334 20 1 
469.333 1.20787 2.81413 -0.0326245 0.0145311 2.81436 5.18334 20 1 
470.667 1.2079 2.82192 -0.0335499 0.0144341 2.82216 5.23128 20 1 
472 1.20792 2.8303 -0.03448 0.0142962 2.83054 5.27516 20 1 
473.333 1.20795 2.83985 -0.0353978 0.0141408 2.84011 5.32209 20 1 
474.667 1.20797 2.85001 -0.0363007 0.0139794 2.85027 5.3699 20 1 
476 1.208 2.86055 -0.0371557 0.0137873 2.86082 5.41787 20 1 
477.333 1.20803 2.87169 -0.037938 0.0135529 2.87198 5.46624 20 1 
478.667 1.20805 2.88309 -0.0386583 0.0132868 2.88339 5.51404 20 1 
480 1.20808 2.89462 -0.039347 0.0130062 2.89492 5.55979 20 1 
481.333 1.2081 2.90629 -0.0400017 0.0127466 2.9066 5.60364 20 1 
482.667 1.20813 2.91786 -0.0406014 0.0125179 2.91817 5.64621 20 1 
484 1.20815 2.92927 -0.0411328 0.0122912 2.92958 5.6847 20 1 
485.333 1.20817 2.94046 -0.0415951 0.0120638 2.94078 5.71939 20 1 
486.667 1.20819 2.95136 -0.0419775 0.0118476 2.95168 5.75539 20 1 
488 1.20821 2.96178 -0.0422598 0.0116241 2.96211 5.79372 20 1 
489.333 1.20823 2.97152 -0.0424606 0.0114093 2.97185 5.82944 20 1 
490.667 1.20824 2.98056 -0.0425946 0.0112418 2.98089 5.85945 20 1 
490.667 1.20824 2.98056 -0.0425946 0.0112418 2.98089 5.85945 20 1 
492 1.20826 2.98853 -0.0426771 0.0111319 2.98886 5.88444 20 1 
493.333 1.20827 2.99544 -0.042725 0.0110768 2.99577 5.9036 20 1 
494.667 1.20828 3.00183 -0.0427443 0.0110828 3.00216 5.92073 20 1 
496 1.20829 3.00753 -0.0427174 0.0111537 3.00786 5.94082 20 1 
497.333 1.2083 3.01214 -0.0426055 0.0112641 3.01247 5.95955 20 1 
498.667 1.20831 3.0157 -0.0424108 0.0114033 3.01602 5.97261 20 1 
500 1.20831 3.01816 -0.0421802 0.0115883 3.01848 5.98165 20 1 
501.333 1.20832 3.01958 -0.0419493 0.0118661 3.01989 5.98832 20 1 
502.667 1.20832 3.02018 -0.0417444 0.0122574 3.0205 5.99269 20 1 
504 1.20832 3.01997 -0.0415969 0.0127625 3.02029 5.99629 20 1 
505.333 1.20832 3.01911 -0.0414867 0.0133619 3.01943 5.99965 20 1 
506.667 1.20832 3.01787 -0.0413843 0.014035 3.01819 6.00229 20 1 
508 1.20832 3.01637 -0.0412774 0.014769 3.01669 6.00538 20 1 
509.333 1.20833 3.01462 -0.0411681 0.0155312 3.01494 6.00749 20 1 
510.667 1.20833 3.01246 -0.0410721 0.016333 3.01278 6.00616 20 1 
512 1.20832 3.01007 -0.0410223 0.0172181 3.0104 6.00563 20 1 
512 1.20832 3.01007 -0.0410223 0.0172181 3.0104 6.00563 21 1 
513.333 1.20833 3.00777 -0.0410482 0.0181875 3.0081 6.00832 21 1 
514.667 1.20833 3.00572 -0.0411761 0.0192368 3.00606 6.01237 21 1 
516 1.20833 3.00428 -0.0414172 0.0203875 3.00464 6.02038 21 1 
517.333 1.20834 3.0036 -0.0417397 0.0216125 3.00397 6.02895 21 1 
518.667 1.20834 3.00352 -0.042111 0.0228548 3.0039 6.03234 21 1 
520 1.20834 3.00424 -0.0424926 0.0240807 3.00464 6.03631 21 1 
521.333 1.20835 3.00592 -0.0428708 0.0252828 3.00634 6.04647 21 1 
522.667 1.20836 3.00851 -0.0432797 0.0264689 3.00894 6.06116 21 1 
524 1.20837 3.01195 -0.0437436 0.0276545 3.0124 6.07819 21 1 
525.333 1.20837 3.01615 -0.044275 0.0288558 3.01662 6.0954 21 1 
526.667 1.20838 3.02116 -0.0449012 0.030098 3.02165 6.11033 21 1 
528 1.20839 3.02733 -0.0456157 0.0313648 3.02784 6.12558 21 1 
529.333 1.2084 3.03486 -0.0464089 0.0326541 3.0354 6.14599 21 1 
530.667 1.20842 3.04364 -0.0472395 0.0339288 3.0442 6.16998 21 1 
532 1.20843 3.05348 -0.0480796 0.0351415 3.05406 6.19443 21 1 
533.333 1.20844 3.06431 -0.0488965 0.0362734 3.06492 6.21888 21 1 
533.333 1.20844 3.06431 -0.0488965 0.0362734 3.06492 6.21888 21 1 
534.667 1.20846 3.07593 -0.0496711 0.0373253 3.07657 6.24304 21 1 
536 1.20847 3.08828 -0.0503949 0.0382847 3.08894 6.26974 21 1 
537.333 1.20849 3.10131 -0.051127 0.0392134 3.10198 6.30041 21 1 
538.667 1.2085 3.11467 -0.0519101 0.0401594 3.11536 6.32893 21 1 
540 1.20852 3.12829 -0.0527701 0.0411306 3.12901 6.35457 21 1 
541.333 1.20853 3.14256 -0.053704 0.0421202 3.14331 6.38231 21 1 
542.667 1.20855 3.15766 -0.0547083 0.0431348 3.15843 6.41144 21 1 
544 1.20857 3.17331 -0.0557397 0.0441417 3.17411 6.44075 21 1 
545.333 1.20858 3.18928 -0.0567288 0.045086 3.19011 6.46941 21 1 
546.667 1.2086 3.20544 -0.0576224 0.0459298 3.20629 6.49509 21 1 
548 1.20861 3.22161 -0.0584095 0.0466702 3.22249 6.51772 21 1 
549.333 1.20862 3.23759 -0.0590967 0.0473045 3.23847 6.54127 21 1 
550.667 1.20863 3.25303 -0.0597332 0.0478852 3.25393 6.56589 21 1 
552 1.20865 3.26773 -0.0603932 0.048494 3.26865 6.58583 21 1 
553.333 1.20865 3.28181 -0.061171 0.0491968 3.28275 6.60164 21 1 
554.667 1.20866 3.29558 -0.0620842 0.0500024 3.29655 6.61593 21 1 
554.667 1.20866 3.29558 -0.0620842 0.0500024 3.29655 6.61593 22 1 
556 1.20867 3.3092 -0.0631328 0.0509221 3.3102 6.6286 22 1 
557.333 1.20868 3.32285 -0.0642757 0.0519329 3.32388 6.64015 22 1 
558.667 1.20868 3.33651 -0.0654389 0.0529536 3.33758 6.64988 22 1 
560 1.20869 3.35001 -0.0665601 0.0539353 3.35111 6.65621 22 1 
561.333 1.20869 3.36336 -0.0675723 0.0548279 3.36449 6.65958 22 1 
562.667 1.20869 3.37634 -0.0684668 0.0556221 3.37749 6.66037 22 1 
564 1.20869 3.38861 -0.0692603 0.0563493 3.38979 6.65941 22 1 
565.333 1.20869 3.40005 -0.069999 0.0570431 3.40125 6.65783 22 1 
566.667 1.20868 3.41067 -0.0707696 0.0577771 3.4119 6.65327 22 1 
568 1.20868 3.4206 -0.0716415 0.0586002 3.42186 6.64717 22 1 
569.333 1.20868 3.4301 -0.0726732 0.0595691 3.43139 6.64151 22 1 
570.667 1.20867 3.43945 -0.0738727 0.0606859 3.44078 6.63382 22 1 
572 1.20867 3.44888 -0.0752364 0.0619561 3.45026 6.62295 22 1 
573.333 1.20866 3.45866 -0.0767114 0.0633334 3.46009 6.61143 22 1 
574.667 1.20866 3.46908 -0.0782475 0.0647644 3.47058 6.6026 22 1 
576 1.20865 3.4802 -0.0797773 0.0661861 3.48175 6.5937 22 1 
576 1.20865 3.4802 -0.0797773 0.0661861 3.48175 6.5937 22 1 
577.333 1.20864 3.49187 -0.0812534 0.0675552 3.49348 6.58224 22 1 
578.667 1.20864 3.504 -0.0826205 0.0688533 3.50566 6.56934 22 1 
580 1.20863 3.51643 -0.0838257 0.0700167 3.51813 6.55456 22 1 
581.333 1.20862 3.52901 -0.0848966 0.0710736 3.53075 6.54031 22 1 
582.667 1.20861 3.54163 -0.0858548 0.0720493 3.54341 6.5294 22 1 
584 1.20861 3.55408 -0.0867336 0.0729873 3.55589 6.52031 22 1 
585.333 1.2086 3.56634 -0.0876079 0.073938 3.56819 6.50929 22 1 
586.667 1.2086 3.57843 -0.0885653 0.0749543 3.58032 6.49587 22 1 
588 1.20859 3.59059 -0.0896531 0.0761194 3.59252 6.48292 22 1 
589.333 1.20858 3.6031 -0.0908763 0.0774017 3.60509 6.474 22 1 
590.667 1.20858 3.61624 -0.0922695 0.0788371 3.61828 6.46479 22 1 
592 1.20857 3.63026 -0.0937823 0.0803848 3.63237 6.45306 22 1 
593.333 1.20857 3.64523 -0.0953853 0.0820147 3.64741 6.44329 22 1 
594.667 1.20856 3.66146 -0.0970061 0.0836527 3.66371 6.43517 22 1 
596 1.20856 3.67901 -0.0986033 0.0852701 3.68133 6.42942 22 1 
597.333 1.20856 3.69779 -0.100122 0.0868438 3.70018 6.42439 22 1 
597.333 1.20856 3.69779 -0.100122 0.0868438 3.70018 6.42439 24 1 
598.667 1.20855 3.71763 -0.101482 0.0882853 3.72007 6.41997 24 1 
600 1.20855 3.73831 -0.102688 0.089619 3.7408 6.41391 24 1 
601.333 1.20855 3.75972 -0.103688 0.0907869 3.76225 6.40619 24 1 
602.667 1.20855 3.78152 -0.104495 0.0918184 3.78409 6.40338 24 1 
604 1.20854 3.80349 -0.105113 0.0926849 3.80608 6.40116 24 1 
605.333 1.20854 3.82537 -0.105578 0.0934458 3.82797 6.39659 24 1 
606.667 1.20854 3.84695 -0.105927 0.0941455 3.84957 6.39215 24 1 
608 1.20854 3.8681 -0.106226 0.0948023 3.87073 6.39017 24 1 
609.333 1.20854 3.88884 -0.106517 0.0954756 3.89148 6.38819 24 1 
610.667 1.20853 3.90923 -0.106824 0.0961681 3.91188 6.38495 24 1 
612 1.20853 3.92923 -0.107206 0.096939 3.9319 6.38255 24 1 
613.333 1.20853 3.94893 -0.107633 0.097768 3.95161 6.37931 24 1 
614.667 1.20853 3.96851 -0.108111 0.0986565 3.97122 6.37305 24 1 
616 1.20852 3.98801 -0.108631 0.0995801 3.99073 6.3663 24 1 
617.333 1.20852 4.00761 -0.109175 0.100536 4.01036 6.36216 24 1 
618.667 1.20852 4.02731 -0.109723 0.1015 4.03009 6.35905 24 1 
618.667 1.20852 4.02731 -0.109723 0.1015 4.03009 6.35905 24 1 
620 1.20852 4.047 -0.110246 0.102449 4.0498 6.35498 24 1 
621.333 1.20851 4.0668 -0.110722 0.103387 4.06962 6.34829 24 1 
622.667 1.20851 4.08655 -0.111127 0.104269 4.0894 6.34098 24 1 
624 1.20851 4.10622 -0.11144 0.105083 4.10908 6.33377 24 1 
625.333 1.2085 4.12571 -0.111649 0.105823 4.12858 6.32491 24 1 
626.667 1.2085 4.14489 -0.11176 0.106489 4.14776 6.31819 24 1 
628 1.20849 4.16361 -0.111776 0.107087 4.16649 6.31223 24 1 
629.333 1.20849 4.18181 -0.111711 0.107648 4.18469 6.30148 24 1 
630.667 1.20848 4.19942 -0.111621 0.108217 4.2023 6.28901 24 1 
632 1.20848 4.21653 -0.111583 0.108841 4.21942 6.27999 24 1 
633.333 1.20847 4.23322 -0.111678 0.109608 4.23612 6.27425 24 1 
634.667 1.20847 4.24971 -0.111979 0.110573 4.25263 6.26602 24 1 
636 1.20846 4.26624 -0.112531 0.111778 4.26919 6.25516 24 1 
637.333 1.20846 4.28312 -0.113339 0.113242 4.28612 6.24162 24 1 
638.667 1.20845 4.30077 -0.114388 0.11493 4.30383 6.22727 24 1 
640 1.20844 4.3195 -0.115658 0.116821 4.32264 6.21509 24 1 
640 1.20844 4.3195 -0.115658 0.116821 4.32264 6.21509 24 1 
641.333 1.20844 4.33962 -0.117045 0.118821 4.34283 6.20603 24 1 
642.667 1.20843 4.36112 -0.118415 0.120808 4.36441 6.19879 24 1 
644 1.20842 4.38402 -0.119621 0.122661 4.38738 6.18596 24 1 
645.333 1.20842 4.40799 -0.120448 0.124192 4.4114 6.17002 24 1 
646.667 1.20841 4.43251 -0.120687 0.125207 4.43593 6.15649 24 1 
648 1.2084 4.45699 -0.120191 0.125584 4.46039 6.14358 24 1 
649.333 1.20839 4.48033 -0.118858 0.125186 4.48367 6.13178 24 1 
650.667 1.20839 4.50165 -0.116825 0.124152 4.50489 6.11755 24 1 
652 1.20838 4.51993 -0.114323 0.122725 4.52305 6.10222 24 1 
653.333 1.20837 4.53484 -0.111824 0.121317 4.53785 6.0844 24 1 
654.667 1.20836 4.54651 -0.109835 0.120426 4.54943 6.06532 24 1 
656 1.20835 4.55531 -0.108646 0.120293 4.55819 6.05052 24 1 
657.333 1.20834 4.56247 -0.108416 0.121055 4.56536 6.03371 24 1 
658.667 1.20833 4.56859 -0.109007 0.12259 4.57154 6.01599 24 1 
660 1.20832 4.57479 -0.110178 0.124668 4.57781 5.99631 24 1 
661.333 1.20831 4.58166 -0.111714 0.127104 4.58478 5.97737 24 1 
661.333 1.20831 4.58166 -0.111714 0.127104 4.58478 5.97737 24 1 
662.667 1.2083 4.58964 -0.113409 0.12968 4.59288 5.95905 24 1 
664 1.20829 4.59897 -0.115092 0.132207 4.60231 5.94255 24 1 
665.333 1.20828 4.60969 -0.116755 0.134737 4.61314 5.92734 24 1 
666.667 1.20827 4.62185 -0.118238 0.137071 4.62539 5.9122 24 1 
668 1.20827 4.63509 -0.119604 0.139292 4.63872 5.89874 24 1 
669.333 1.20826 4.64973 -0.120854 0.14143 4.65345 5.88144 24 1 
670.667 1.20825 4.66533 -0.121914 0.143345 4.66912 5.86974 24 1 
672 1.20824 4.68187 -0.122935 0.145247 4.68574 5.86008 24 1 
673.333 1.20824 4.69934 -0.123826 0.147 4.70327 5.84677 24 1 
674.667 1.20823 4.71748 -0.124629 0.148676 4.72147 5.83343 24 1 
676 1.20822 4.73631 -0.125378 0.15031 4.74036 5.8216 24 1 
677.333 1.20822 4.75579 -0.126044 0.151828 4.75989 5.80994 24 1 
678.667 1.20821 4.77585 -0.126662 0.153328 4.77999 5.79898 24 1 
680 1.20821 4.79643 -0.127259 0.154796 4.80061 5.79202 24 1 
681.333 1.2082 4.81745 -0.127792 0.156169 4.82168 5.78391 24 1 
682.667 1.2082 4.83886 -0.128311 0.157563 4.84313 5.77205 24 1 
682.667 1.2082 4.83886 -0.128311 0.157563 4.84313 5.77205 31 1 
684 1.20819 4.86064 -0.128761 0.158881 4.86494 5.75964 31 1 
685.333 1.20818 4.88282 -0.129189 0.160174 4.88716 5.75114 31 1 
686.667 1.20818 4.90533 -0.129635 0.161444 4.9097 5.74774 31 1 
688 1.20818 4.92821 -0.130007 0.162657 4.93261 5.74161 31 1 
689.333 1.20817 4.95128 -0.130422 0.163917 4.95572 5.7341 31 1 
690.667 1.20817 4.97452 -0.130778 0.165076 4.97898 5.72462 31 1 
692 1.20816 4.99806 -0.131079 0.166245 5.00254 5.71197 31 1 
693.333 1.20816 5.02183 -0.131394 0.167412 5.02635 5.70643 31 1 
694.667 1.20816 5.04593 -0.131687 0.168502 5.05046 5.70619 31 1 
696 1.20816 5.07018 -0.132006 0.169621 5.07474 5.70645 31 1 
697.333 1.20816 5.09455 -0.132291 0.170708 5.09913 5.70029 31 1 
698.667 1.20815 5.11898 -0.132565 0.171762 5.12359 5.69018 31 1 
700 1.20815 5.14351 -0.132793 0.172826 5.14813 5.68114 31 1 
701.333 1.20814 5.16829 -0.13298 0.173847 5.17293 5.67473 31 1 
702.667 1.20814 5.19325 -0.133222 0.174876 5.1979 5.67596 31 1 
704 1.20814 5.21835 -0.133423 0.175895 5.22302 5.67686 31 1 
704 1.20814 5.21835 -0.133423 0.175895 5.22302 5.67686 31 1 
705.333 1.20814 5.24344 -0.133695 0.176844 5.24813 5.67168 31 1 
706.667 1.20813 5.26851 -0.133909 0.177837 5.27322 5.66151 31 1 
708 1.20813 5.29371 -0.134012 0.178817 5.29843 5.65316 31 1 
709.333 1.20813 5.31898 -0.134207 0.179731 5.32372 5.65281 31 1 
710.667 1.20813 5.34447 -0.134311 0.180742 5.34921 5.6536 31 1 
712 1.20813 5.36994 -0.134444 0.181626 5.3747 5.65449 31 1 
713.333 1.20813 5.39529 -0.134742 0.182575 5.40006 5.6517 31 1 
714.667 1.20812 5.42073 -0.134795 0.183439 5.42551 5.6391 31 1 
716 1.20812 5.44609 -0.134962 0.184396 5.45089 5.63297 31 1 
717.333 1.20812 5.4716 -0.134999 0.185258 5.47641 5.63382 31 1 
718.667 1.20812 5.49719 -0.135088 0.186188 5.50201 5.6363 31 1 
720 1.20812 5.52281 -0.135247 0.187138 5.52764 5.63813 31 1 
721.333 1.20812 5.54829 -0.135291 0.187849 5.55312 5.63795 31 1 
722.667 1.20812 5.57369 -0.13556 0.188914 5.57854 5.63222 31 1 
724 1.20811 5.59916 -0.135461 0.189631 5.60401 5.62616 31 1 
725.333 1.20812 5.62448 -0.135603 0.190633 5.62935 5.63084 31 1 
725.333 1.20812 5.62448 -0.135603 0.190633 5.62935 5.63084 31 1 
726.667 1.20812 5.65003 -0.135662 0.191465 5.6549 5.63212 31 1 
728 1.20812 5.67537 -0.135664 0.192241 5.68026 5.63363 31 1 
729.333 1.20812 5.70079 -0.135906 0.193322 5.70569 5.63061 31 1 
730.667 1.20812 5.726 -0.135757 0.193947 5.73089 5.63217 31 1 
732 1.20812 5.75114 -0.135968 0.195035 5.75605 5.63493 31 1 
733.333 1.20812 5.7765 -0.135963 0.195655 5.78141 5.63474 31 1 
734.667 1.20813 5.80138 -0.13601 0.196632 5.80631 5.64703 31 1 
736 1.20812 5.82677 -0.136056 0.197616 5.83171 5.64157 31 1 
737.333 1.20812 5.8516 -0.136026 0.198249 5.85654 5.64089 31 1 
738.667 1.20812 5.87637 -0.136198 0.199399 5.88133 5.64313 31 1 
740 1.20812 5.90129 -0.136033 0.199941 5.90625 5.64421 31 1 
741.333 1.20813 5.92592 -0.136301 0.200951 5.9309 5.6542 31 1 
742.667 1.20813 5.95084 -0.136236 0.201863 5.95582 5.65669 31 1 
744 1.20813 5.97545 -0.136095 0.202638 5.98044 5.66105 31 1 
745.333 1.20813 5.99979 -0.136369 0.203618 6.0048 5.66054 31 1 
746.667 1.20813 6.02419 -0.136206 0.20434 6.0292 5.65998 31 1 
746.667 1.20813 6.02419 -0.136206 0.20434 6.0292 5.65998 31 1 
748 1.20814 6.04846 -0.136322 0.205328 6.05348 5.6707 31 1 
749.333 1.20814 6.07285 -0.13631 0.2061 6.07788 5.67847 31 1 
750.667 1.20815 6.09702 -0.136283 0.207091 6.10206 5.68397 31 1 
752 1.20815 6.12096 -0.136371 0.207884 6.12601 5.68522 31 1 
753.333 1.20815 6.14491 -0.136273 0.208759 6.14997 5.68968 31 1 
754.667 1.20816 6.16844 -0.136359 0.209668 6.17352 5.70077 31 1 
756 1.20816 6.1926 -0.13644 0.210511 6.19768 5.70227 31 1 
757.333 1.20817 6.21603 -0.136307 0.211479 6.22113 5.7221 31 1 
758.667 1.20817 6.23961 -0.136299 0.21219 6.24471 5.72967 31 1 
760 1.20817 6.26296 -0.136427 0.21315 6.26808 5.73149 31 1 
761.333 1.20818 6.28594 -0.136404 0.214223 6.29107 5.74318 31 1 
762.667 1.20818 6.30938 -0.136286 0.214931 6.31452 5.75098 31 1 
764 1.20819 6.33231 -0.136401 0.21579 6.33746 5.76722 31 1 
765.333 1.2082 6.35521 -0.13631 0.216788 6.36037 5.77843 31 1 
766.667 1.2082 6.37808 -0.136302 0.217661 6.38325 5.78904 31 1 
768 1.20821 6.40086 -0.136341 0.218545 6.40605 5.80208 31 1 
768 1.20821 6.40086 -0.136341 0.218545 6.40605 5.80208 32 1 
769.333 1.20822 6.42253 -0.136382 0.219597 6.42773 5.81879 32 1 
770.667 1.20822 6.44597 -0.136233 0.220495 6.45119 5.80786 32 1 
772 1.20824 6.46809 -0.136199 0.221373 6.47331 5.84569 32 1 
773.333 1.20825 6.48952 -0.136289 0.222181 6.49476 5.87816 32 1 
774.667 1.20824 6.51261 -0.1362 0.223231 6.51786 5.85392 32 1 
776 1.20826 6.53437 -0.136249 0.224323 6.53965 5.88768 32 1 
777.333 1.20829 6.55482 -0.136205 0.225445 6.56012 5.93469 32 1 
778.667 1.20826 6.57801 -0.135953 0.226162 6.58331 5.88504 32 1 
780 1.20828 6.59899 -0.136097 0.227545 6.60432 5.92176 32 1 
781.333 1.20831 6.62084 -0.136015 0.228759 6.62619 5.98161 32 1 
782.667 1.20831 6.64378 -0.136013 0.229609 6.64914 5.97625 32 1 
784 1.20832 6.66485 -0.135664 0.230613 6.67022 5.99087 32 1 
785.333 1.20833 6.68546 -0.135654 0.232304 6.69088 6.0237 32 1 
786.667 1.20833 6.70647 -0.136392 0.23378 6.71193 6.01692 32 1 
788 1.20832 6.72999 -0.136385 0.234431 6.73546 5.99106 32 1 
789.333 1.20836 6.75194 -0.13599 0.236609 6.75746 6.06101 32 1 
790.667 1.20836 6.77729 -0.134971 0.238904 6.78285 6.06718 32 1 
792 1.20836 6.79788 -0.135524 0.2412 6.80351 6.07092 32 1 
793.333 1.20831 6.82275 -0.13597 0.242714 6.82842 5.98721 32 1 
794.667 1.20832 6.84977 -0.136837 0.24667 6.85558 5.98946 32 1 
796 1.20832 6.87955 -0.138185 0.251156 6.88553 6.00545 32 1 
797.333 1.20827 6.91053 -0.139377 0.256852 6.91672 5.90318 32 1 
798.667 1.20815 6.94859 -0.141668 0.266805 6.95517 5.69445 32 1 
800 1.20804 6.97636 -0.14286 0.272167 6.98315 5.4865 32 1 
