57.9614;r ;Density                 ;Velocity u              ;Velocity v              ;Velocity w              ;|Velocity|              ;Pressure                ;Distribution            ;Levels                  ;
0 1.20581 10.007 -0.00019973 -0.000257814 10.007 1.47116 1 1 
1.33334 1.20591 10.0054 -0.000223889 -0.000144428 10.0054 1.63599 1 1 
2.66666 1.2061 10.0028 -0.000232216 0.000142721 10.0028 1.98769 1 1 
4 1.20629 10.0015 -0.00023777 0.000392561 10.0015 2.33486 1 1 
5.33334 1.20642 10.0002 -0.000224827 0.000633101 10.0002 2.56248 1 1 
6.66666 1.20653 9.99956 -0.000161224 0.000964854 9.99956 2.76093 1 1 
8 1.20664 9.99925 -0.000104989 0.00126381 9.99925 2.95447 1 1 
9.33334 1.20669 9.99791 2.43995e-06 0.0016136 9.99792 3.04704 1 1 
10.6667 1.20673 9.99775 0.000168953 0.00205721 9.99776 3.13043 1 1 
12 1.20675 9.9979 0.000284247 0.00240283 9.99792 3.1634 1 1 
13.3333 1.20672 9.99649 0.000444873 0.00279392 9.99652 3.10413 1 1 
14.6667 1.20668 9.99632 0.000638233 0.0032242 9.99636 3.02666 1 1 
16 1.20659 9.99628 0.000757817 0.00349928 9.99633 2.87982 1 1 
17.3333 1.20648 9.99582 0.000903654 0.00380652 9.99588 2.67631 1 1 
18.6667 1.20639 9.99599 0.00101433 0.00408294 9.99606 2.5072 1 1 
20 1.20624 9.99581 0.00110004 0.00424232 9.99588 2.24349 1 1 
21.3333 1.20607 9.99586 0.00115346 0.00435669 9.99594 1.93684 1 1 
21.3333 1.20607 9.99586 0.00115346 0.00435669 9.99594 1.93684 1 1 
22.6667 1.20594 9.99599 0.00113677 0.00438804 9.99606 1.69127 1 1 
24 1.20576 9.99572 0.00110653 0.00435531 9.99578 1.36778 1 1 
25.3333 1.20559 9.996 0.00103609 0.00424884 9.99606 1.05917 1 1 
26.6667 1.20543 9.99669 0.000864783 0.003982 9.99674 0.774682 1 1 
28 1.20526 9.99662 0.000687558 0.00372969 9.99666 0.474549 1 1 
29.3333 1.20514 9.99728 0.000499901 0.00346411 9.99731 0.258612 1 1 
30.6667 1.205 9.99811 0.000202715 0.00299839 9.99813 0.00497686 1 1 
32 1.20487 9.99786 -7.52731e-05 0.00258631 9.99787 -0.237971 1 1 
33.3333 1.20482 9.99839 -0.000372458 0.00221149 9.99839 -0.33043 1 1 
34.6667 1.20475 9.999 -0.00070997 0.00173097 9.999 -0.443879 1 1 
36 1.2047 9.99949 -0.00101074 0.00131247 9.99949 -0.544559 1 1 
37.3333 1.20471 9.9998 -0.00133129 0.000929695 9.99981 -0.515578 1 1 
38.6667 1.20473 10.0001 -0.00164812 0.000552056 10.0001 -0.490966 1 1 
40 1.20478 10.0009 -0.00191809 0.000247989 10.0009 -0.391835 1 1 
41.3333 1.20486 10.0011 -0.0022172 -7.79752e-05 10.0011 -0.248325 1 1 
42.6667 1.20492 10.0007 -0.00244308 -0.000278375 10.0007 -0.139774 1 1 
42.6667 1.20492 10.0007 -0.00244308 -0.000278375 10.0007 -0.139774 2 1 
44 1.20506 10.0011 -0.00264266 -0.000404352 10.0012 0.112546 2 1 
45.3333 1.20521 10.002 -0.00287932 -0.000599976 10.002 0.374722 2 1 
46.6667 1.20532 10.0016 -0.00297547 -0.000572807 10.0017 0.58416 2 1 
48 1.20549 10.0016 -0.00305046 -0.000459719 10.0016 0.889 2 1 
49.3333 1.20566 10.0016 -0.00316742 -0.000434038 10.0017 1.1945 2 1 
50.6667 1.20582 10.0016 -0.00312976 -0.000179667 10.0017 1.47966 2 1 
52 1.206 10.0013 -0.003059 0.000176837 10.0013 1.80193 2 1 
53.3333 1.20614 10.0007 -0.00296625 0.000531495 10.0007 2.05279 2 1 
54.6667 1.20628 10.0011 -0.00280647 0.000966027 10.0011 2.30686 2 1 
56 1.20643 10.0011 -0.00262779 0.00145962 10.0012 2.57449 2 1 
57.3333 1.20649 9.99984 -0.00237952 0.0020416 9.99985 2.69961 2 1 
58.6667 1.20655 9.99922 -0.00215837 0.00257797 9.99923 2.80682 2 1 
60 1.20661 9.99924 -0.0019591 0.00304962 9.99925 2.90974 2 1 
61.3333 1.2066 9.99837 -0.00168728 0.00363454 9.99837 2.89653 2 1 
62.6667 1.20658 9.99814 -0.00141788 0.0042302 9.99814 2.86138 2 1 
64 1.20654 9.9972 -0.00122863 0.00463424 9.9972 2.78071 2 1 
64 1.20654 9.9972 -0.00122863 0.00463424 9.9972 2.78071 2 1 
65.3333 1.20644 9.99702 -0.000976062 0.00511849 9.99703 2.60158 2 1 
66.6667 1.20637 9.99698 -0.000737571 0.00563245 9.997 2.47034 2 1 
68 1.20624 9.99609 -0.000588512 0.00596164 9.99611 2.2431 2 1 
69.3333 1.20609 9.99597 -0.000415891 0.00629195 9.99599 1.96206 2 1 
70.6667 1.20595 9.99633 -0.000257402 0.00661694 9.99636 1.7166 2 1 
72 1.20577 9.99629 -0.000172917 0.00683978 9.99632 1.39402 2 1 
73.3333 1.20562 9.996 -0.00011918 0.00696912 9.99603 1.11426 2 1 
74.6667 1.20543 9.99663 -0.000102493 0.00701704 9.99666 0.77302 2 1 
76 1.20523 9.99644 -0.000100554 0.00707661 9.99647 0.416479 2 1 
77.3333 1.2051 9.99684 -0.000179104 0.00701811 9.99687 0.1736 2 1 
78.6667 1.20494 9.99794 -0.000367334 0.00675714 9.99797 -0.11299 2 1 
80 1.20479 9.9983 -0.000488278 0.00662051 9.99832 -0.380964 2 1 
81.3333 1.20469 9.9989 -0.000677555 0.0064329 9.99891 -0.564396 2 1 
82.6667 1.20459 9.99907 -0.000951716 0.00605637 9.99908 -0.738297 2 1 
84 1.20453 9.99954 -0.00114725 0.00578845 9.99955 -0.852408 2 1 
85.3333 1.20449 10.0013 -0.00129709 0.00561737 10.0013 -0.929629 2 1 
85.3333 1.20449 10.0013 -0.00129709 0.00561737 10.0013 -0.929629 3 1 
86.6667 1.20445 10.0015 -0.00151127 0.0053336 10.0015 -0.991876 3 1 
88 1.20447 10.0022 -0.00175878 0.0049985 10.0022 -0.962054 3 1 
89.3333 1.20451 10.0037 -0.00193771 0.004779 10.0037 -0.887397 3 1 
90.6667 1.20452 10.0036 -0.00211963 0.00457742 10.0036 -0.865455 3 1 
92 1.20458 10.0031 -0.00235861 0.00431261 10.0031 -0.754984 3 1 
93.3333 1.20468 10.0034 -0.00254809 0.00409796 10.0034 -0.586282 3 1 
94.6667 1.20475 10.0046 -0.00267893 0.00401516 10.0046 -0.45862 3 1 
96 1.20486 10.0048 -0.00280793 0.00395485 10.0049 -0.255131 3 1 
97.3333 1.20496 10.0042 -0.00292804 0.00387212 10.0042 -0.0793553 3 1 
98.6667 1.20506 10.0046 -0.00298205 0.00395108 10.0046 0.109764 3 1 
100 1.20518 10.0049 -0.00291931 0.0041731 10.005 0.316934 3 1 
101.333 1.20523 10.0035 -0.00290905 0.0043372 10.0036 0.415264 3 1 
102.667 1.20533 10.003 -0.00281948 0.00464205 10.003 0.597166 3 1 
104 1.20542 10.0048 -0.00265271 0.00503182 10.0048 0.756696 3 1 
105.333 1.20544 10.0041 -0.00249411 0.00544285 10.0041 0.794913 3 1 
106.667 1.20549 10.0024 -0.00232928 0.00587793 10.0025 0.888978 3 1 
106.667 1.20549 10.0024 -0.00232928 0.00587793 10.0025 0.888978 3 1 
108 1.20551 10.0021 -0.00215203 0.00632858 10.0021 0.921245 3 1 
109.333 1.20548 10.0018 -0.00186035 0.00692777 10.0018 0.869876 3 1 
110.667 1.20549 10.0015 -0.0016607 0.00744584 10.0015 0.886676 3 1 
112 1.20546 10.0013 -0.00145831 0.00792884 10.0013 0.826444 3 1 
113.333 1.20541 10.002 -0.00117065 0.00854229 10.002 0.741879 3 1 
114.667 1.20537 10.0031 -0.00093156 0.00911545 10.0031 0.674401 3 1 
116 1.20529 10.0016 -0.000740598 0.00956295 10.0016 0.516506 3 1 
117.333 1.20522 9.99981 -0.000515351 0.0101191 9.99981 0.390208 3 1 
118.667 1.20512 10.002 -0.000268918 0.0106721 10.002 0.214869 3 1 
120 1.20503 10.0009 -0.000135715 0.0110412 10.0009 0.0473442 3 1 
121.333 1.20495 10.0003 -1.76835e-05 0.0114134 10.0003 -0.0969326 3 1 
122.667 1.20486 10.0035 0.000100969 0.0117621 10.0035 -0.245214 3 1 
124 1.20478 10.0036 0.000182006 0.0120206 10.0036 -0.393467 3 1 
125.333 1.20468 10.0031 0.000198259 0.0122063 10.0031 -0.572197 3 1 
126.667 1.20463 10.0026 0.000150129 0.0123059 10.0026 -0.669963 3 1 
128 1.20455 10.0032 0.000164404 0.0124319 10.0033 -0.810104 3 1 
128 1.20455 10.0032 0.000164404 0.0124319 10.0033 -0.810104 3 1 
129.333 1.20449 10.0038 7.36158e-05 0.0124596 10.0038 -0.920021 3 1 
130.667 1.20446 10.0031 -4.76723e-05 0.0124218 10.0031 -0.977814 3 1 
132 1.20441 10.0051 -0.000143267 0.0124114 10.0051 -1.05868 3 1 
133.333 1.20439 10.0064 -0.000260551 0.012347 10.0064 -1.09514 3 1 
134.667 1.20435 10.005 -0.000437814 0.0122011 10.005 -1.17829 3 1 
136 1.20433 10.0035 -0.000604669 0.012085 10.0035 -1.21099 3 1 
137.333 1.20433 10.0048 -0.000724326 0.0120075 10.0048 -1.21854 3 1 
138.667 1.20431 10.0058 -0.000891057 0.0118358 10.0058 -1.24886 3 1 
140 1.20431 10.0051 -0.00104743 0.0117324 10.0051 -1.25469 3 1 
141.333 1.2043 10.0052 -0.00120508 0.0116547 10.0052 -1.26929 3 1 
142.667 1.20429 10.0056 -0.0013087 0.0115834 10.0056 -1.27779 3 1 
144 1.20428 10.0046 -0.00144099 0.0115123 10.0047 -1.29412 3 1 
145.333 1.20428 10.0028 -0.00151862 0.0115531 10.0028 -1.30727 3 1 
146.667 1.20428 10.0041 -0.00156152 0.0116743 10.0041 -1.29811 3 1 
148 1.20428 10.0053 -0.00159181 0.0117564 10.0053 -1.30703 3 1 
149.333 1.20426 10.0041 -0.0016114 0.011871 10.0041 -1.34024 3 1 
149.333 1.20426 10.0041 -0.0016114 0.011871 10.0041 -1.34024 3 1 
150.667 1.20426 10.0033 -0.00159191 0.012102 10.0033 -1.33491 3 1 
152 1.20425 10.0036 -0.00156062 0.0123519 10.0036 -1.35621 3 1 
153.333 1.20423 10.0036 -0.00149792 0.0126024 10.0036 -1.39977 3 1 
154.667 1.20422 10.0027 -0.00145422 0.0129034 10.0027 -1.39973 3 1 
156 1.20423 10.0029 -0.00137738 0.013258 10.0029 -1.38763 3 1 
157.333 1.20421 10.0044 -0.00125846 0.0136198 10.0044 -1.4228 3 1 
158.667 1.2042 10.0035 -0.0011884 0.0139497 10.0035 -1.43908 3 1 
160 1.20421 10.0018 -0.00106918 0.0143611 10.0018 -1.43038 3 1 
161.333 1.20419 10.0031 -0.00095594 0.0147597 10.0031 -1.46671 3 1 
162.667 1.20419 10.003 -0.000851489 0.0150935 10.0031 -1.45916 3 1 
164 1.20419 10.0017 -0.000792783 0.0154159 10.0018 -1.46132 3 1 
165.333 1.20417 10.0027 -0.00074913 0.0157521 10.0027 -1.49167 3 1 
166.667 1.2042 10.0022 -0.000693817 0.0160439 10.0022 -1.44984 3 1 
168 1.20416 10.0014 -0.000665999 0.0162641 10.0014 -1.52179 3 1 
169.333 1.20413 10.0011 -0.000681204 0.0165074 10.0012 -1.5788 3 1 
170.667 1.20415 10.0009 -0.000656027 0.0167413 10.0009 -1.53352 3 1 
170.667 1.20415 10.0009 -0.000656027 0.0167413 10.0009 -1.53352 11 1 
172 1.20411 10.0021 -0.000677209 0.0168617 10.0021 -1.61261 11 1 
173.333 1.20408 10.0002 -0.000740219 0.0169818 10.0002 -1.65868 11 1 
174.667 1.20406 9.99877 -0.000810748 0.0171216 9.99878 -1.69153 11 1 
176 1.20402 9.99841 -0.000887282 0.0171795 9.99842 -1.77607 11 1 
177.333 1.20397 9.99781 -0.000976788 0.0171743 9.99782 -1.86303 11 1 
178.667 1.20393 9.99658 -0.00107265 0.0172244 9.9966 -1.93244 11 1 
180 1.20389 9.99562 -0.00113312 0.0173484 9.99563 -2.00838 11 1 
181.333 1.20383 9.99702 -0.00122138 0.0173794 9.99704 -2.11802 11 1 
182.667 1.20379 9.99621 -0.00129755 0.0174251 9.99622 -2.18732 11 1 
184 1.20375 9.99387 -0.00138279 0.0175379 9.99389 -2.25435 11 1 
185.333 1.20368 9.99292 -0.00149737 0.0175822 9.99294 -2.38214 11 1 
186.667 1.20364 9.99158 -0.00162692 0.0175865 9.99159 -2.45862 11 1 
188 1.20361 9.99074 -0.00169815 0.0176993 9.99075 -2.50724 11 1 
189.333 1.20356 9.99144 -0.00170391 0.0179021 9.99145 -2.6043 11 1 
190.667 1.20355 9.9908 -0.00176407 0.0180067 9.99082 -2.61609 11 1 
192 1.20354 9.98977 -0.00177946 0.018192 9.98979 -2.64604 11 1 
192 1.20354 9.98977 -0.00177946 0.018192 9.98979 -2.64604 11 1 
193.333 1.2035 9.98825 -0.00179238 0.0183829 9.98826 -2.71083 11 1 
194.667 1.2035 9.98564 -0.00190907 0.018498 9.98566 -2.70558 11 1 
196 1.2035 9.98571 -0.00184286 0.0187975 9.98573 -2.7074 11 1 
197.333 1.20351 9.98622 -0.00184061 0.0190216 9.98624 -2.68856 11 1 
198.667 1.20353 9.98388 -0.00193128 0.0192002 9.9839 -2.64779 11 1 
200 1.20354 9.98298 -0.00176603 0.0195687 9.983 -2.63549 11 1 
201.333 1.20355 9.98137 -0.00183497 0.0196841 9.98139 -2.628 11 1 
202.667 1.20356 9.97644 -0.00199528 0.0196954 9.97646 -2.60376 11 1 
204 1.20356 9.97545 -0.0018374 0.0200884 9.97547 -2.60437 11 1 
205.333 1.20359 9.97693 -0.00183806 0.0202779 9.97695 -2.54619 11 1 
206.667 1.20365 9.97559 -0.00183692 0.0204749 9.97561 -2.44287 11 1 
208 1.20361 9.97342 -0.00175873 0.020749 9.97345 -2.51606 11 1 
209.333 1.2036 9.96894 -0.00180259 0.0208839 9.96897 -2.53343 11 1 
210.667 1.20362 9.96409 -0.00176404 0.0210706 9.96411 -2.49224 11 1 
212 1.20357 9.96099 -0.00182105 0.0211053 9.96101 -2.58508 11 1 
213.333 1.20355 9.95846 -0.0018711 0.0213028 9.95848 -2.61016 11 1 
213.333 1.20355 9.95846 -0.0018711 0.0213028 9.95848 -2.61016 11 1 
214.667 1.20358 9.9581 -0.0017676 0.0215993 9.95813 -2.57281 11 1 
216 1.20355 9.95806 -0.00172398 0.0217976 9.95809 -2.62332 11 1 
217.333 1.20351 9.95467 -0.00179498 0.021882 9.9547 -2.68479 11 1 
218.667 1.20351 9.94883 -0.00180941 0.0221439 9.94885 -2.68561 11 1 
220 1.20348 9.94369 -0.00174168 0.0223806 9.94372 -2.75418 11 1 
221.333 1.20343 9.93763 -0.00175625 0.0224656 9.93766 -2.842 11 1 
222.667 1.2034 9.93247 -0.0018772 0.022585 9.9325 -2.89554 11 1 
224 1.2034 9.93215 -0.00186179 0.0229082 9.93217 -2.89191 11 1 
225.333 1.20343 9.93149 -0.00179503 0.0231717 9.93152 -2.83493 11 1 
226.667 1.20344 9.9268 -0.00179172 0.023362 9.92683 -2.82599 11 1 
228 1.20342 9.92042 -0.00181377 0.0236613 9.92045 -2.84646 11 1 
229.333 1.20342 9.91251 -0.00182372 0.0239307 9.91254 -2.84926 11 1 
230.667 1.20344 9.90449 -0.00191319 0.0239745 9.90452 -2.81616 11 1 
232 1.20342 9.90031 -0.00197861 0.0240817 9.90034 -2.84768 11 1 
233.333 1.2035 9.8969 -0.00189245 0.0244756 9.89693 -2.71391 11 1 
234.667 1.20361 9.89182 -0.00176985 0.0248116 9.89185 -2.50848 11 1 
234.667 1.20361 9.89182 -0.00176985 0.0248116 9.89185 -2.50848 11 1 
236 1.20355 9.88605 -0.00190291 0.0248818 9.88608 -2.61815 11 1 
237.333 1.20361 9.87429 -0.00211834 0.0248596 9.87432 -2.50177 11 1 
238.667 1.2037 9.86538 -0.00222468 0.0249714 9.86541 -2.35304 11 1 
240 1.20369 9.86007 -0.00224068 0.0251237 9.8601 -2.35924 11 1 
241.333 1.20379 9.84971 -0.00218366 0.0253757 9.84975 -2.17737 11 1 
242.667 1.20381 9.84313 -0.00216256 0.0255539 9.84317 -2.14897 11 1 
244 1.20388 9.83108 -0.0022899 0.0255771 9.83112 -2.01608 11 1 
245.333 1.2039 9.81821 -0.0025014 0.0255074 9.81824 -1.98606 11 1 
246.667 1.20395 9.80709 -0.00249052 0.0257342 9.80713 -1.90509 11 1 
248 1.20408 9.79495 -0.00260273 0.0257241 9.79498 -1.65285 11 1 
249.333 1.20408 9.7853 -0.00245453 0.0260173 9.78534 -1.66199 11 1 
250.667 1.20413 9.76919 -0.00256723 0.0261553 9.76923 -1.56998 11 1 
252 1.20418 9.7543 -0.00292032 0.0259375 9.75434 -1.48325 11 1 
253.333 1.20431 9.73529 -0.00279909 0.0262371 9.73533 -1.25108 11 1 
254.667 1.20433 9.72015 -0.00281767 0.0263598 9.72019 -1.20186 11 1 
256 1.2044 9.70274 -0.00291238 0.0264937 9.70278 -1.07572 11 1 
256 1.2044 9.70274 -0.00291238 0.0264937 9.70278 -1.07572 13 1 
257.333 1.20461 9.68105 -0.00293531 0.0266302 9.68109 -0.709744 13 1 
258.667 1.20462 9.66254 -0.00313074 0.0266029 9.66258 -0.680603 13 1 
260 1.20472 9.63808 -0.0031974 0.0267771 9.63813 -0.500473 13 1 
261.333 1.20495 9.61122 -0.0031444 0.0269639 9.61127 -0.0825568 13 1 
262.667 1.20508 9.58383 -0.0032333 0.0270667 9.58387 0.151198 13 1 
264 1.20511 9.5617 -0.00333938 0.0271369 9.56175 0.203343 13 1 
265.333 1.20543 9.52821 -0.00344049 0.0272048 9.52825 0.768583 13 1 
266.667 1.20573 9.48771 -0.00346048 0.0274139 9.48777 1.32568 13 1 
268 1.20569 9.45909 -0.00352134 0.0275002 9.45914 1.25497 13 1 
269.333 1.20607 9.41646 -0.00365097 0.0274641 9.41651 1.9272 13 1 
270.667 1.20654 9.36513 -0.00377209 0.0274896 9.36518 2.78743 13 1 
272 1.20641 9.33391 -0.00381004 0.027565 9.33396 2.54644 13 1 
273.333 1.20688 9.27641 -0.00387002 0.0275693 9.27647 3.39286 13 1 
274.667 1.20753 9.20874 -0.00398627 0.0275388 9.20881 4.57376 13 1 
276 1.20745 9.16217 -0.00405766 0.0274854 9.16225 4.42713 13 1 
277.333 1.20797 9.08406 -0.00413909 0.0274344 9.08414 5.36102 13 1 
277.333 1.20797 9.08406 -0.00413909 0.0274344 9.08414 5.36102 13 1 
278.667 1.20864 9.00652 -0.00421263 0.0273372 9.00661 6.57 13 1 
280 1.20886 8.93177 -0.00431645 0.0272703 8.93187 6.9728 13 1 
281.333 1.20934 8.83499 -0.00442598 0.0272491 8.83507 7.84492 13 1 
282.667 1.20994 8.74947 -0.00450789 0.027227 8.74953 8.92341 13 1 
284 1.21066 8.65927 -0.00457028 0.0271104 8.65934 10.2314 13 1 
285.333 1.21137 8.5465 -0.00463818 0.0268687 8.54669 11.5019 13 1 
286.667 1.21186 8.404 -0.00469188 0.0265188 8.40438 12.3926 13 1 
288 1.21244 8.24803 -0.00474222 0.0263008 8.24835 13.4302 13 1 
289.333 1.21331 8.10972 -0.00483041 0.0262367 8.10986 15.0117 13 1 
290.667 1.2144 7.96927 -0.00489628 0.0260215 7.96942 16.9814 13 1 
292 1.21522 7.80803 -0.00492405 0.0257623 7.80826 18.4611 13 1 
293.333 1.21582 7.63469 -0.00496948 0.025515 7.63504 19.5491 13 1 
294.667 1.21678 7.44278 -0.00502538 0.0251776 7.44327 21.2779 13 1 
296 1.21784 7.25021 -0.0050868 0.024988 7.25058 23.1872 13 1 
297.333 1.21859 7.06326 -0.00508574 0.0246094 7.06357 24.5521 13 1 
298.667 1.21031 6.76837 -0.00500391 0.0236057 6.7688 9.59004 13 1 
298.667 1.21031 6.76837 -0.00500391 0.0236057 6.7688 9.59004 14 1 
300 1.19584 6.6626 -0.00510148 0.0233762 6.66289 -16.5509 14 1 
301.333 1.19036 6.66356 -0.00522183 0.0234709 6.66382 -26.4349 14 1 
302.667 1.19134 6.48464 -0.00525213 0.0230611 6.48495 -24.6741 14 1 
304 1.19215 6.30117 -0.00530017 0.022756 6.30152 -23.2189 14 1 
305.333 1.19269 6.12017 -0.00532764 0.0223198 6.12073 -22.2379 14 1 
306.667 1.19337 5.9508 -0.00538493 0.0218295 5.95129 -21.0063 14 1 
308 1.19394 5.78808 -0.00542846 0.0215078 5.78835 -19.9806 14 1 
309.333 1.1944 5.64011 -0.00549193 0.0212849 5.64037 -19.1421 14 1 
310.667 1.19494 5.50546 -0.00558413 0.0210759 5.50568 -18.1639 14 1 
312 1.19543 5.38138 -0.00565894 0.020805 5.38155 -17.2879 14 1 
313.333 1.19583 5.26977 -0.00572813 0.0205164 5.26991 -16.5572 14 1 
314.667 1.19621 5.16158 -0.00580464 0.0203471 5.16173 -15.8835 14 1 
316 1.19649 5.05551 -0.00590048 0.0200873 5.05567 -15.3757 14 1 
317.333 1.19679 4.96237 -0.00595374 0.0197337 4.9625 -14.8273 14 1 
318.667 1.19717 4.88418 -0.00597838 0.0194904 4.88428 -14.1467 14 1 
320 1.19741 4.80126 -0.0060758 0.0193141 4.80139 -13.7079 14 1 
320 1.19741 4.80126 -0.0060758 0.0193141 4.80139 -13.7079 14 1 
321.333 1.19754 4.7155 -0.00617752 0.0191074 4.71563 -13.4685 14 1 
322.667 1.19778 4.64611 -0.00620251 0.0188145 4.64624 -13.0444 14 1 
324 1.19803 4.57589 -0.00624369 0.0185838 4.57602 -12.5867 14 1 
325.333 1.19815 4.50395 -0.00634791 0.0185003 4.50405 -12.3725 14 1 
326.667 1.19829 4.44849 -0.0064291 0.018435 4.44859 -12.1128 14 1 
328 1.19852 4.39268 -0.0064965 0.0183506 4.3928 -11.7086 14 1 
329.333 1.19866 4.33209 -0.00659562 0.0182376 4.33221 -11.4595 14 1 
330.667 1.19873 4.27531 -0.00670654 0.0181813 4.2754 -11.3277 14 1 
332 1.19884 4.22431 -0.00683231 0.0181782 4.22438 -11.1261 14 1 
333.333 1.19902 4.18976 -0.00696266 0.0182204 4.18984 -10.7953 14 1 
334.667 1.19918 4.15219 -0.00706189 0.0182992 4.15226 -10.5041 14 1 
336 1.1992 4.09799 -0.0071823 0.0184156 4.09805 -10.4681 14 1 
337.333 1.19924 4.05586 -0.00731284 0.0184812 4.05593 -10.4048 14 1 
338.667 1.19941 4.02978 -0.00741019 0.0185614 4.02985 -10.0936 14 1 
340 1.19958 4.00603 -0.00751645 0.0187235 4.00609 -9.79279 14 1 
341.333 1.19964 3.97538 -0.00768141 0.0188592 3.97544 -9.68637 14 1 
341.333 1.19964 3.97538 -0.00768141 0.0188592 3.97544 -9.68637 15 1 
342.667 1.19964 3.93242 -0.0078652 0.0188972 3.93248 -9.67873 15 1 
344 1.19973 3.90313 -0.0079945 0.0189515 3.9032 -9.51816 15 1 
345.333 1.19988 3.89143 -0.00807879 0.0190831 3.89149 -9.25473 15 1 
346.667 1.19994 3.86973 -0.00819327 0.0191622 3.86979 -9.13449 15 1 
348 1.19998 3.83939 -0.00833613 0.0191468 3.83945 -9.06963 15 1 
349.333 1.20003 3.80833 -0.00844369 0.0192233 3.80839 -8.98443 15 1 
350.667 1.2001 3.7873 -0.00850451 0.0193322 3.78736 -8.85373 15 1 
352 1.20021 3.779 -0.00860854 0.0192949 3.77906 -8.64472 15 1 
353.333 1.20027 3.7559 -0.00877796 0.0192187 3.75596 -8.53565 15 1 
354.667 1.2003 3.72416 -0.00893592 0.0192458 3.72423 -8.49089 15 1 
356 1.20036 3.70569 -0.00901002 0.0192292 3.70575 -8.3796 15 1 
357.333 1.20041 3.68782 -0.00909319 0.019201 3.68789 -8.28542 15 1 
358.667 1.20047 3.66866 -0.00924545 0.0191733 3.66873 -8.18298 15 1 
360 1.20053 3.64949 -0.0094317 0.0190532 3.64956 -8.08159 15 1 
361.333 1.20055 3.6238 -0.00955708 0.0189419 3.62387 -8.03421 15 1 
362.667 1.2006 3.60257 -0.00959721 0.0190019 3.60264 -7.95141 15 1 
362.667 1.2006 3.60257 -0.00959721 0.0190019 3.60264 -7.95141 15 1 
364 1.20066 3.58569 -0.00967386 0.0190874 3.58576 -7.84548 15 1 
365.333 1.20071 3.56613 -0.0098471 0.01896 3.5662 -7.7568 15 1 
366.667 1.20076 3.54663 -0.00998382 0.0188044 3.5467 -7.66452 15 1 
368 1.2008 3.52471 -0.00995584 0.0189498 3.52479 -7.58629 15 1 
369.333 1.20083 3.50366 -0.00989839 0.019285 3.50374 -7.52838 15 1 
370.667 1.20085 3.48578 -0.0100359 0.0193516 3.48587 -7.49002 15 1 
372 1.20089 3.46707 -0.0103708 0.019116 3.46714 -7.42482 15 1 
373.333 1.20095 3.45008 -0.0106617 0.0189225 3.45016 -7.3178 15 1 
374.667 1.20099 3.43184 -0.0107897 0.019084 3.43192 -7.25136 15 1 
376 1.20101 3.41209 -0.0107961 0.0193956 3.41217 -7.21134 15 1 
377.333 1.20104 3.39744 -0.0108064 0.0195629 3.39752 -7.14682 15 1 
378.667 1.20108 3.38278 -0.010917 0.019581 3.38286 -7.07425 15 1 
380 1.20113 3.36676 -0.0111331 0.0196219 3.36684 -6.99466 15 1 
381.333 1.20116 3.35292 -0.0114284 0.0197133 3.35301 -6.93206 15 1 
382.667 1.20118 3.33787 -0.0117432 0.0197362 3.33796 -6.89171 15 1 
384 1.20122 3.32523 -0.01202 0.0196778 3.32532 -6.83052 15 1 
384 1.20122 3.32523 -0.01202 0.0196778 3.32532 -6.83052 15 1 
385.333 1.20126 3.31632 -0.0123049 0.0196812 3.3164 -6.75935 15 1 
386.667 1.20129 3.30528 -0.0126223 0.0197244 3.30537 -6.69618 15 1 
388 1.20133 3.29495 -0.0129332 0.0197316 3.29503 -6.62883 15 1 
389.333 1.20136 3.28722 -0.0132463 0.0197153 3.28731 -6.57164 15 1 
390.667 1.20139 3.27967 -0.013553 0.0196749 3.27976 -6.52368 15 1 
392 1.20143 3.27409 -0.0138379 0.0196281 3.27418 -6.45492 15 1 
393.333 1.20147 3.26957 -0.0141497 0.0196235 3.26966 -6.37689 15 1 
394.667 1.2015 3.26449 -0.014484 0.0195982 3.26458 -6.31953 15 1 
396 1.20153 3.26088 -0.0147776 0.0194943 3.26097 -6.2673 15 1 
397.333 1.20156 3.25866 -0.0150313 0.0194006 3.25875 -6.20557 15 1 
398.667 1.2016 3.2571 -0.0152981 0.0193555 3.2572 -6.14897 15 1 
400 1.20162 3.25593 -0.0155882 0.0192947 3.25603 -6.09712 15 1 
401.333 1.20165 3.25484 -0.0158222 0.0191732 3.25494 -6.04309 15 1 
402.667 1.20168 3.255 -0.0159943 0.0190356 3.2551 -5.99533 15 1 
404 1.2017 3.25527 -0.0161794 0.0189134 3.25536 -5.95876 15 1 
405.333 1.20173 3.25528 -0.0163486 0.018806 3.25538 -5.91352 15 1 
405.333 1.20173 3.25528 -0.0163486 0.018806 3.25538 -5.91352 15 1 
406.667 1.20177 3.25713 -0.0164494 0.0187044 3.25723 -5.84046 15 1 
408 1.20181 3.25882 -0.0165163 0.0185772 3.25891 -5.76758 15 1 
409.333 1.20183 3.25904 -0.0165533 0.0183836 3.25914 -5.7217 15 1 
410.667 1.20185 3.25963 -0.0165595 0.0182184 3.25973 -5.68737 15 1 
412 1.20187 3.26021 -0.0165346 0.0181398 3.2603 -5.64874 15 1 
413.333 1.2019 3.26094 -0.0164577 0.0180391 3.26103 -5.60486 15 1 
414.667 1.20192 3.26102 -0.0163647 0.0178567 3.26111 -5.56819 15 1 
416 1.20193 3.25898 -0.0162557 0.017672 3.25907 -5.54247 15 1 
417.333 1.20195 3.25754 -0.0160963 0.0175145 3.25763 -5.51131 15 1 
418.667 1.20197 3.25669 -0.015935 0.0173875 3.25677 -5.47695 15 1 
420 1.20198 3.25388 -0.0157783 0.0172915 3.25396 -5.44601 15 1 
421.333 1.202 3.25034 -0.0155771 0.0171903 3.25042 -5.41327 15 1 
422.667 1.20202 3.24638 -0.0153224 0.0170586 3.24646 -5.38433 15 1 
424 1.20203 3.24156 -0.015063 0.0169465 3.24164 -5.35993 15 1 
425.333 1.20205 3.23666 -0.0148605 0.0169155 3.23674 -5.33231 15 1 
426.667 1.20206 3.2309 -0.0146893 0.0169078 3.23098 -5.3023 15 1 
426.667 1.20206 3.2309 -0.0146893 0.0169078 3.23098 -5.3023 20 1 
428 1.20208 3.22425 -0.0144829 0.0168501 3.22433 -5.27363 20 1 
429.333 1.2021 3.21735 -0.014262 0.0168105 3.21743 -5.24661 20 1 
430.667 1.20211 3.20998 -0.0140434 0.0168085 3.21006 -5.21811 20 1 
432 1.20213 3.20242 -0.0138603 0.0168123 3.20249 -5.18721 20 1 
433.333 1.20214 3.19447 -0.0137409 0.0168745 3.19455 -5.15909 20 1 
434.667 1.20216 3.18626 -0.0136372 0.0170006 3.18634 -5.13386 20 1 
436 1.20217 3.17825 -0.0135361 0.0171076 3.17833 -5.10785 20 1 
437.333 1.20219 3.17008 -0.0134699 0.0172086 3.17016 -5.08003 20 1 
438.667 1.20221 3.16246 -0.0134358 0.0173612 3.16254 -5.0409 20 1 
440 1.20224 3.15583 -0.0134581 0.017548 3.15591 -4.98743 20 1 
441.333 1.20227 3.14911 -0.0135496 0.0177299 3.14919 -4.93651 20 1 
442.667 1.20229 3.14271 -0.0136753 0.0179234 3.1428 -4.89221 20 1 
444 1.20232 3.13734 -0.0138087 0.0181593 3.13742 -4.84466 20 1 
445.333 1.20235 3.13269 -0.0139712 0.0184353 3.13278 -4.79181 20 1 
446.667 1.20238 3.12936 -0.0141769 0.0187169 3.12945 -4.72714 20 1 
448 1.20243 3.1273 -0.0144136 0.0189758 3.1274 -4.64986 20 1 
448 1.20243 3.1273 -0.0144136 0.0189758 3.1274 -4.64986 20 1 
449.333 1.20247 3.12558 -0.0146706 0.0191965 3.12567 -4.57521 20 1 
450.667 1.2025 3.1247 -0.0149669 0.0194189 3.1248 -4.50749 20 1 
452 1.20254 3.12519 -0.0153 0.0196919 3.12529 -4.43961 20 1 
453.333 1.20258 3.12676 -0.0156831 0.0199902 3.12686 -4.36608 20 1 
454.667 1.20263 3.12959 -0.01611 0.0202819 3.12969 -4.28644 20 1 
456 1.20267 3.13356 -0.0165182 0.0205513 3.13367 -4.20848 20 1 
457.333 1.20271 3.13832 -0.0168871 0.0207414 3.13843 -4.13734 20 1 
458.667 1.20275 3.14386 -0.01726 0.0208507 3.14398 -4.06892 20 1 
460 1.20279 3.15022 -0.0176546 0.0209845 3.15034 -3.99724 20 1 
461.333 1.20283 3.15748 -0.0180823 0.0211773 3.15761 -3.92244 20 1 
462.667 1.20287 3.16557 -0.018552 0.0213757 3.16569 -3.84937 20 1 
464 1.20291 3.17446 -0.019027 0.0215528 3.17459 -3.77884 20 1 
465.333 1.20294 3.18419 -0.0194541 0.0216956 3.18432 -3.71387 20 1 
466.667 1.20298 3.19442 -0.0198272 0.0217689 3.19456 -3.65626 20 1 
468 1.20301 3.20516 -0.0201499 0.0217542 3.2053 -3.59367 20 1 
469.333 1.20305 3.21631 -0.0204384 0.0216956 3.21646 -3.52459 20 1 
469.333 1.20305 3.21631 -0.0204384 0.0216956 3.21646 -3.52459 20 1 
470.667 1.20308 3.22713 -0.0207339 0.0216463 3.22727 -3.46205 20 1 
472 1.20312 3.23794 -0.0210565 0.0216241 3.23809 -3.40443 20 1 
473.333 1.20315 3.24956 -0.0213931 0.0216359 3.24971 -3.34577 20 1 
474.667 1.20318 3.26145 -0.0217087 0.0216593 3.2616 -3.28856 20 1 
476 1.20321 3.27334 -0.0219461 0.0216139 3.27349 -3.23527 20 1 
477.333 1.20324 3.28531 -0.0220655 0.021444 3.28547 -3.18557 20 1 
478.667 1.20326 3.29681 -0.0220808 0.0211455 3.29695 -3.13434 20 1 
480 1.2033 3.30765 -0.0220499 0.0207707 3.3078 -3.07864 20 1 
481.333 1.20333 3.31788 -0.0220309 0.0204292 3.31802 -3.02252 20 1 
482.667 1.20335 3.3274 -0.0220528 0.0201835 3.32754 -2.97226 20 1 
484 1.20338 3.33646 -0.022097 0.0199942 3.3366 -2.93025 20 1 
485.333 1.2034 3.34524 -0.0221442 0.0198229 3.34538 -2.89336 20 1 
486.667 1.20342 3.35381 -0.0221382 0.0196038 3.35394 -2.85542 20 1 
488 1.20344 3.3621 -0.0220302 0.0192559 3.36223 -2.81003 20 1 
489.333 1.20347 3.36971 -0.0218233 0.0187745 3.36983 -2.75994 20 1 
490.667 1.2035 3.37619 -0.0215596 0.0182368 3.37631 -2.71398 20 1 
490.667 1.2035 3.37619 -0.0215596 0.0182368 3.37631 -2.71398 20 1 
492 1.20352 3.38112 -0.0212846 0.0177093 3.38124 -2.67666 20 1 
493.333 1.20354 3.38466 -0.0210627 0.0172398 3.38477 -2.64567 20 1 
494.667 1.20355 3.38777 -0.0209459 0.0168851 3.38788 -2.61272 20 1 
496 1.20357 3.3907 -0.0209426 0.0166641 3.3908 -2.57404 20 1 
497.333 1.2036 3.39341 -0.0209886 0.0165178 3.39351 -2.53489 20 1 
498.667 1.20362 3.3962 -0.0210221 0.0163498 3.3963 -2.49838 20 1 
500 1.20364 3.39889 -0.0210244 0.0161108 3.39899 -2.46244 20 1 
501.333 1.20366 3.40142 -0.0209647 0.015786 3.40152 -2.42639 20 1 
502.667 1.20368 3.4036 -0.0208506 0.015367 3.4037 -2.38882 20 1 
504 1.2037 3.40492 -0.020743 0.0149224 3.40501 -2.34906 20 1 
505.333 1.20372 3.40549 -0.0207059 0.0145548 3.40558 -2.31004 20 1 
506.667 1.20374 3.40563 -0.0208 0.0143538 3.40573 -2.273 20 1 
508 1.20376 3.40603 -0.0210953 0.0143859 3.40612 -2.23551 20 1 
509.333 1.20378 3.40738 -0.021596 0.0146226 3.40748 -2.19793 20 1 
510.667 1.2038 3.40999 -0.0222593 0.0150141 3.41009 -2.16175 20 1 
512 1.20383 3.41432 -0.0229734 0.0154514 3.41444 -2.11745 20 1 
512 1.20383 3.41432 -0.0229734 0.0154514 3.41444 -2.11745 21 1 
513.333 1.20386 3.42035 -0.02364 0.0158235 3.42048 -2.06331 21 1 
514.667 1.20389 3.42753 -0.0241726 0.0160264 3.42765 -2.01263 21 1 
516 1.20391 3.43535 -0.0245414 0.016055 3.43548 -1.96993 21 1 
517.333 1.20393 3.44326 -0.0247951 0.0159441 3.44339 -1.93267 21 1 
518.667 1.20395 3.45091 -0.025022 0.015775 3.45104 -1.89548 21 1 
520 1.20398 3.45856 -0.0253167 0.0156782 3.45869 -1.85003 21 1 
521.333 1.20401 3.46675 -0.0257809 0.0157834 3.46688 -1.79348 21 1 
522.667 1.20404 3.47606 -0.0264749 0.0161542 3.4762 -1.732 21 1 
524 1.20407 3.48692 -0.0273752 0.016769 3.48707 -1.67598 21 1 
525.333 1.2041 3.49968 -0.0283773 0.0175223 3.49984 -1.63131 21 1 
526.667 1.20412 3.51472 -0.0293801 0.0182936 3.51489 -1.5923 21 1 
528 1.20415 3.53223 -0.0302413 0.0189243 3.53241 -1.54351 21 1 
529.333 1.20418 3.55175 -0.0308591 0.0193127 3.55194 -1.48139 21 1 
530.667 1.20421 3.57218 -0.0311945 0.0193819 3.57238 -1.42011 21 1 
532 1.20424 3.59242 -0.0312771 0.0191181 3.59261 -1.36953 21 1 
533.333 1.20427 3.6119 -0.0311681 0.018608 3.61209 -1.32433 21 1 
533.333 1.20427 3.6119 -0.0311681 0.018608 3.61209 -1.32433 21 1 
534.667 1.20429 3.63026 -0.0309719 0.0180082 3.63044 -1.27705 21 1 
536 1.20432 3.64763 -0.0308309 0.0175153 3.64781 -1.22384 21 1 
537.333 1.20436 3.6646 -0.0308811 0.0173076 3.66478 -1.16159 21 1 
538.667 1.20439 3.68157 -0.0312004 0.0174766 3.68175 -1.09902 21 1 
540 1.20442 3.69929 -0.0317773 0.0179627 3.69948 -1.04668 21 1 
541.333 1.20444 3.71866 -0.0325351 0.0186337 3.71885 -1.00653 21 1 
542.667 1.20446 3.74037 -0.0333529 0.019368 3.74058 -0.970922 21 1 
544 1.20449 3.76442 -0.034076 0.019987 3.76464 -0.926029 21 1 
545.333 1.20452 3.79027 -0.0345557 0.020376 3.7905 -0.87194 21 1 
546.667 1.20455 3.81722 -0.0346757 0.0204227 3.81744 -0.816725 21 1 
548 1.20458 3.84417 -0.0344139 0.020067 3.8444 -0.76325 21 1 
549.333 1.2046 3.87002 -0.0337892 0.0193051 3.87023 -0.714427 21 1 
550.667 1.20462 3.89354 -0.0329071 0.0182329 3.89374 -0.677496 21 1 
552 1.20464 3.91415 -0.0319373 0.0170606 3.91433 -0.654751 21 1 
553.333 1.20465 3.93223 -0.0310482 0.0159748 3.93239 -0.628794 21 1 
554.667 1.20468 3.9484 -0.030373 0.0151581 3.94855 -0.586294 21 1 
554.667 1.20468 3.9484 -0.030373 0.0151581 3.94855 -0.586294 22 1 
556 1.2047 3.96339 -0.0299728 0.014712 3.96353 -0.537631 22 1 
557.333 1.20473 3.97777 -0.0298323 0.0146165 3.97792 -0.495987 22 1 
558.667 1.20474 3.99227 -0.0298863 0.0147732 3.99241 -0.465182 22 1 
560 1.20476 4.00738 -0.0300468 0.0150385 4.00753 -0.439295 22 1 
561.333 1.20477 4.02355 -0.030236 0.0153241 4.0237 -0.414372 22 1 
562.667 1.20478 4.04082 -0.0303706 0.0155247 4.04097 -0.39304 22 1 
564 1.2048 4.05886 -0.0303992 0.0156181 4.05901 -0.367664 22 1 
565.333 1.20482 4.07759 -0.030297 0.0155755 4.07774 -0.331041 22 1 
566.667 1.20484 4.09643 -0.0300597 0.015381 4.09658 -0.29313 22 1 
568 1.20485 4.11479 -0.0296914 0.0150554 4.11493 -0.268048 22 1 
569.333 1.20486 4.13226 -0.0292362 0.0146062 4.1324 -0.255382 22 1 
570.667 1.20487 4.14893 -0.0287911 0.0141575 4.14906 -0.242322 22 1 
572 1.20488 4.165 -0.0284494 0.0138101 4.16513 -0.221766 22 1 
573.333 1.20489 4.18089 -0.0283421 0.0137275 4.18101 -0.196332 22 1 
574.667 1.20491 4.19749 -0.0285606 0.0140201 4.19762 -0.168791 22 1 
576 1.20492 4.21568 -0.0291663 0.0147353 4.21582 -0.1387 22 1 
576 1.20492 4.21568 -0.0291663 0.0147353 4.21582 -0.1387 22 1 
577.333 1.20494 4.2365 -0.0301074 0.0158608 4.23665 -0.110272 22 1 
578.667 1.20495 4.26063 -0.0312474 0.0172269 4.26079 -0.0933167 22 1 
580 1.20495 4.2885 -0.0323675 0.0185674 4.28867 -0.090538 22 1 
581.333 1.20495 4.31981 -0.0331376 0.0194743 4.32 -0.0841121 22 1 
582.667 1.20497 4.35328 -0.0331853 0.0195206 4.35347 -0.060014 22 1 
584 1.20498 4.38604 -0.0321102 0.0182649 4.38621 -0.0304678 22 1 
585.333 1.205 4.41414 -0.0297202 0.0154845 4.41428 -0.00777417 22 1 
586.667 1.205 4.43389 -0.0261781 0.0114113 4.43399 0.00848971 22 1 
588 1.20501 4.44251 -0.0220655 0.00671232 4.44258 0.0240375 22 1 
589.333 1.20502 4.43965 -0.0182634 0.00238897 4.43969 0.0366559 22 1 
590.667 1.20502 4.42705 -0.0155206 -0.000754083 4.42709 0.0415138 22 1 
592 1.20502 4.40848 -0.0142698 -0.0022377 4.40851 0.0424971 22 1 
593.333 1.20503 4.38817 -0.0144553 -0.00212106 4.3882 0.0484595 22 1 
594.667 1.20503 4.36981 -0.0157126 -0.000832546 4.36984 0.0627214 22 1 
596 1.20504 4.3557 -0.0175877 0.00114622 4.35574 0.0737973 22 1 
597.333 1.20504 4.34681 -0.0196549 0.00331996 4.34686 0.0805997 22 1 
597.333 1.20504 4.34681 -0.0196549 0.00331996 4.34686 0.0805997 24 1 
598.667 1.20505 4.34354 -0.0216483 0.00542265 4.3436 0.0866288 24 1 
600 1.20505 4.34549 -0.023439 0.00728778 4.34556 0.0938579 24 1 
601.333 1.20506 4.35218 -0.0250089 0.00890003 4.35226 0.101321 24 1 
602.667 1.20506 4.36281 -0.0263133 0.0102343 4.36291 0.105063 24 1 
604 1.20506 4.377 -0.0274345 0.0113305 4.3771 0.114023 24 1 
605.333 1.20507 4.3942 -0.0283885 0.0122374 4.39432 0.128271 24 1 
606.667 1.20508 4.41389 -0.0291856 0.0129763 4.41401 0.144388 24 1 
608 1.20508 4.43553 -0.0298657 0.0135914 4.43566 0.153254 24 1 
609.333 1.20509 4.4589 -0.0304207 0.0140897 4.45903 0.156757 24 1 
610.667 1.20509 4.48396 -0.0308783 0.0144977 4.4841 0.17107 24 1 
612 1.20511 4.51041 -0.0312832 0.0148426 4.51055 0.192229 24 1 
613.333 1.20512 4.53791 -0.0316423 0.0151281 4.53806 0.209441 24 1 
614.667 1.20512 4.56618 -0.0319479 0.0153596 4.56633 0.213374 24 1 
616 1.20512 4.59542 -0.0322075 0.0155359 4.59557 0.215331 24 1 
617.333 1.20513 4.62549 -0.0324172 0.0156957 4.62564 0.228251 24 1 
618.667 1.20513 4.65631 -0.0325843 0.0158218 4.65646 0.242398 24 1 
618.667 1.20513 4.65631 -0.0325843 0.0158218 4.65646 0.242398 24 1 
620 1.20514 4.68762 -0.0327308 0.015918 4.68777 0.251137 24 1 
621.333 1.20514 4.71942 -0.0328517 0.0159885 4.71958 0.258539 24 1 
622.667 1.20515 4.75182 -0.0329528 0.0160239 4.75197 0.271704 24 1 
624 1.20516 4.78463 -0.0330328 0.0160502 4.78479 0.286669 24 1 
625.333 1.20516 4.81776 -0.0330915 0.0160783 4.81792 0.292375 24 1 
626.667 1.20516 4.85096 -0.0331233 0.0160902 4.85112 0.290568 24 1 
628 1.20516 4.88455 -0.0331396 0.0160778 4.88471 0.289977 24 1 
629.333 1.20516 4.91844 -0.0331399 0.0160576 4.91859 0.295765 24 1 
630.667 1.20517 4.95266 -0.0331198 0.0160321 4.95281 0.306185 24 1 
632 1.20517 4.98703 -0.0330892 0.0160005 4.98718 0.313349 24 1 
633.333 1.20517 5.02143 -0.0330401 0.0159677 5.02157 0.315648 24 1 
634.667 1.20518 5.05602 -0.0329857 0.0159407 5.05616 0.317341 24 1 
636 1.20518 5.09066 -0.0329252 0.0158925 5.0908 0.32118 24 1 
637.333 1.20518 5.12536 -0.032858 0.0158368 5.12551 0.322332 24 1 
638.667 1.20518 5.16014 -0.0327846 0.0157898 5.16028 0.319471 24 1 
640 1.20518 5.19493 -0.0326769 0.0157362 5.19507 0.318984 24 1 
640 1.20518 5.19493 -0.0326769 0.0157362 5.19507 0.318984 24 1 
641.333 1.20518 5.2298 -0.0325689 0.0157028 5.22994 0.322103 24 1 
642.667 1.20518 5.26481 -0.0324581 0.0156625 5.26495 0.32584 24 1 
644 1.20518 5.29974 -0.0323389 0.0156049 5.29988 0.328887 24 1 
645.333 1.20518 5.33469 -0.0322365 0.0155595 5.33482 0.328798 24 1 
646.667 1.20518 5.36957 -0.0321097 0.0155122 5.3697 0.327182 24 1 
648 1.20518 5.40446 -0.0319672 0.0154575 5.40459 0.326198 24 1 
649.333 1.20518 5.43935 -0.0318363 0.0154214 5.43948 0.324226 24 1 
650.667 1.20518 5.47425 -0.0316807 0.0153709 5.47437 0.323556 24 1 
652 1.20518 5.50913 -0.0315424 0.0153197 5.50925 0.322385 24 1 
653.333 1.20518 5.54393 -0.0314106 0.0152804 5.54406 0.320012 24 1 
654.667 1.20517 5.57874 -0.0312395 0.0152415 5.57886 0.314218 24 1 
656 1.20517 5.61351 -0.0310845 0.0152074 5.61363 0.308735 24 1 
657.333 1.20517 5.64832 -0.0309074 0.0151616 5.64844 0.30559 24 1 
658.667 1.20517 5.68314 -0.0307356 0.0151439 5.68326 0.304826 24 1 
660 1.20517 5.71784 -0.0305746 0.0151014 5.71796 0.304123 24 1 
661.333 1.20516 5.75252 -0.0304199 0.01506 5.75264 0.296474 24 1 
661.333 1.20516 5.75252 -0.0304199 0.01506 5.75264 0.296474 24 1 
662.667 1.20516 5.78708 -0.0302585 0.0150532 5.78719 0.285012 24 1 
664 1.20515 5.82159 -0.0300747 0.0150185 5.8217 0.274221 24 1 
665.333 1.20515 5.85616 -0.0298836 0.0149859 5.85627 0.270662 24 1 
666.667 1.20515 5.89071 -0.0297013 0.0149845 5.89081 0.266971 24 1 
668 1.20515 5.92523 -0.02952 0.0149644 5.92534 0.26373 24 1 
669.333 1.20514 5.95957 -0.0293525 0.0149464 5.95968 0.261328 24 1 
670.667 1.20514 5.99403 -0.0291868 0.0149372 5.99413 0.254096 24 1 
672 1.20514 6.02826 -0.0289872 0.0149169 6.02836 0.250628 24 1 
673.333 1.20514 6.06252 -0.0288069 0.0149299 6.06262 0.244213 24 1 
674.667 1.20513 6.09674 -0.0286118 0.0149174 6.09684 0.237979 24 1 
676 1.20513 6.1308 -0.0284334 0.0149107 6.13089 0.237294 24 1 
677.333 1.20513 6.16503 -0.028257 0.0149191 6.16512 0.232561 24 1 
678.667 1.20513 6.19898 -0.0280666 0.0148817 6.19907 0.231664 24 1 
680 1.20513 6.23298 -0.0278887 0.0148898 6.23307 0.226154 24 1 
681.333 1.20512 6.26693 -0.0276798 0.0148949 6.26702 0.220442 24 1 
682.667 1.20512 6.30078 -0.027463 0.0148701 6.30087 0.22033 24 1 
682.667 1.20512 6.30078 -0.027463 0.0148701 6.30087 0.22033 31 1 
684 1.20512 6.33478 -0.0272701 0.0148725 6.33486 0.221266 31 1 
685.333 1.20512 6.36854 -0.0270837 0.0148691 6.36863 0.225415 31 1 
686.667 1.20512 6.40231 -0.0268843 0.0148214 6.40239 0.215137 31 1 
688 1.20511 6.43586 -0.0266954 0.0148106 6.43594 0.204863 31 1 
689.333 1.20511 6.46939 -0.0264727 0.0147957 6.46947 0.195845 31 1 
690.667 1.20511 6.50311 -0.026226 0.0147701 6.50319 0.193542 31 1 
692 1.20511 6.53665 -0.026011 0.0148101 6.53673 0.199176 31 1 
693.333 1.20511 6.57032 -0.0257883 0.0147569 6.5704 0.191255 31 1 
694.667 1.2051 6.60361 -0.0255975 0.0147328 6.60368 0.186001 31 1 
696 1.2051 6.63691 -0.025387 0.0146851 6.63699 0.17392 31 1 
697.333 1.20509 6.67021 -0.0251535 0.0146599 6.67028 0.16453 31 1 
698.667 1.20509 6.7034 -0.0249154 0.0146892 6.70347 0.162258 31 1 
700 1.20509 6.73669 -0.024647 0.0146258 6.73676 0.154736 31 1 
701.333 1.20509 6.76961 -0.024435 0.0146421 6.76968 0.155065 31 1 
702.667 1.20508 6.80267 -0.0242253 0.0145956 6.80274 0.142849 31 1 
704 1.20508 6.83553 -0.0240144 0.0145175 6.83559 0.136897 31 1 
704 1.20508 6.83553 -0.0240144 0.0145175 6.83559 0.136897 31 1 
705.333 1.20507 6.86815 -0.0237962 0.0145162 6.86822 0.134635 31 1 
706.667 1.20507 6.90087 -0.0235364 0.0144973 6.90094 0.118694 31 1 
708 1.20507 6.9333 -0.0232954 0.0144704 6.93336 0.117502 31 1 
709.333 1.20507 6.96585 -0.0230548 0.0144545 6.96591 0.118527 31 1 
710.667 1.20507 6.99825 -0.0228314 0.01439 6.99831 0.123978 31 1 
712 1.20507 7.03041 -0.0226423 0.0143447 7.03047 0.126929 31 1 
713.333 1.20507 7.06251 -0.0224476 0.0143186 7.06256 0.118961 31 1 
714.667 1.20507 7.0942 -0.0221893 0.0142365 7.09426 0.118849 31 1 
716 1.20506 7.126 -0.0219934 0.014237 7.12606 0.108591 31 1 
717.333 1.20506 7.15762 -0.0217451 0.0141422 7.15768 0.112352 31 1 
718.667 1.20507 7.18912 -0.0214782 0.0140756 7.18917 0.131024 31 1 
720 1.20507 7.22073 -0.0213124 0.01409 7.22078 0.130762 31 1 
721.333 1.20507 7.25184 -0.021047 0.0139546 7.25189 0.130033 31 1 
722.667 1.20507 7.28279 -0.020877 0.0139024 7.28284 0.12768 31 1 
724 1.20507 7.31376 -0.0206702 0.0138048 7.31381 0.130524 31 1 
725.333 1.20508 7.34466 -0.0203563 0.0137516 7.34471 0.141633 31 1 
725.333 1.20508 7.34466 -0.0203563 0.0137516 7.34471 0.141633 31 1 
726.667 1.20508 7.37547 -0.0201575 0.0137327 7.37552 0.15208 31 1 
728 1.20509 7.40611 -0.0199098 0.0135889 7.40616 0.159822 31 1 
729.333 1.20509 7.43623 -0.01972 0.0135281 7.43627 0.158816 31 1 
730.667 1.20508 7.46642 -0.0195471 0.0133884 7.46646 0.149956 31 1 
732 1.20508 7.4965 -0.0192357 0.0133442 7.49654 0.150775 31 1 
733.333 1.20509 7.52624 -0.018976 0.0132773 7.52628 0.161682 31 1 
734.667 1.20509 7.55643 -0.0187585 0.0130943 7.55647 0.167811 31 1 
736 1.2051 7.58618 -0.0185447 0.0130871 7.58623 0.1818 31 1 
737.333 1.20511 7.61574 -0.0183518 0.0129122 7.61579 0.194881 31 1 
738.667 1.20511 7.64519 -0.0180969 0.012801 7.64523 0.191987 31 1 
740 1.20511 7.67432 -0.0178527 0.0128014 7.67436 0.192471 31 1 
741.333 1.20511 7.70328 -0.0176464 0.0125509 7.70332 0.197985 31 1 
742.667 1.20511 7.73214 -0.0173754 0.0124858 7.73217 0.194688 31 1 
744 1.20511 7.76085 -0.0171678 0.0124234 7.76089 0.197984 31 1 
745.333 1.20512 7.78966 -0.0169586 0.0121784 7.78969 0.208906 31 1 
746.667 1.20513 7.81788 -0.0166566 0.0120729 7.81792 0.22984 31 1 
746.667 1.20513 7.81788 -0.0166566 0.0120729 7.81792 0.22984 31 1 
748 1.20513 7.84643 -0.0164492 0.0119683 7.84646 0.227702 31 1 
749.333 1.20513 7.87457 -0.0162508 0.0117905 7.87461 0.230761 31 1 
750.667 1.20513 7.90216 -0.0159743 0.0116348 7.9022 0.243835 31 1 
752 1.20513 7.93038 -0.0157225 0.0115104 7.93041 0.237001 31 1 
753.333 1.20514 7.95769 -0.0155967 0.0113657 7.95772 0.254066 31 1 
754.667 1.20514 7.98573 -0.0153155 0.0112061 7.98576 0.259991 31 1 
756 1.20515 8.01229 -0.0150228 0.0110819 8.01232 0.270646 31 1 
757.333 1.20514 8.03969 -0.014819 0.0109292 8.03972 0.251941 31 1 
758.667 1.20515 8.06667 -0.0147108 0.0108101 8.0667 0.265763 31 1 
760 1.20516 8.09324 -0.0144449 0.0105942 8.09327 0.291093 31 1 
761.333 1.20516 8.12069 -0.0141523 0.0104316 8.12071 0.293541 31 1 
762.667 1.20518 8.1467 -0.0140463 0.0104146 8.14673 0.325521 31 1 
764 1.20518 8.17332 -0.0137486 0.0101959 8.17335 0.329589 31 1 
765.333 1.20518 8.19918 -0.013552 0.0100101 8.1992 0.332717 31 1 
766.667 1.20519 8.22528 -0.0134214 0.00986314 8.22531 0.337194 31 1 
768 1.2052 8.25106 -0.0132253 0.00974603 8.25108 0.365316 31 1 
768 1.2052 8.25106 -0.0132253 0.00974603 8.25108 0.365316 32 1 
769.333 1.20521 8.27713 -0.0128901 0.00957536 8.27715 0.383522 32 1 
770.667 1.20523 8.30266 -0.0126275 0.00929959 8.30268 0.413691 32 1 
772 1.20524 8.32779 -0.012475 0.00923703 8.32781 0.441677 32 1 
773.333 1.20525 8.35286 -0.0122303 0.00924305 8.35287 0.445788 32 1 
774.667 1.20526 8.37798 -0.0119756 0.0090157 8.378 0.470509 32 1 
776 1.20528 8.40318 -0.0116582 0.00859625 8.4032 0.513086 32 1 
777.333 1.20531 8.42686 -0.0114539 0.00845726 8.42688 0.559889 32 1 
778.667 1.2053 8.45291 -0.0113327 0.00833008 8.45293 0.549478 32 1 
780 1.20534 8.47632 -0.011033 0.00826992 8.47634 0.622076 32 1 
781.333 1.20536 8.50036 -0.0104323 0.00803042 8.50037 0.649705 32 1 
782.667 1.20535 8.52507 -0.00999748 0.00808747 8.52508 0.629292 32 1 
784 1.20539 8.54791 -0.00968115 0.00802738 8.54792 0.69683 32 1 
785.333 1.20541 8.57143 -0.00958228 0.00733397 8.57144 0.745203 32 1 
786.667 1.20542 8.59483 -0.00962724 0.00681226 8.59484 0.754488 32 1 
788 1.20544 8.61786 -0.00901057 0.00706139 8.61787 0.793899 32 1 
789.333 1.20547 8.6418 -0.00804777 0.0074698 8.64181 0.846666 32 1 
790.667 1.20549 8.666 -0.00740527 0.00732512 8.66601 0.884659 32 1 
792 1.20552 8.68656 -0.00700907 0.00706245 8.68657 0.930355 32 1 
793.333 1.20549 8.71085 -0.0065737 0.00731083 8.71086 0.879504 32 1 
794.667 1.20553 8.73442 -0.00622793 0.00781225 8.73443 0.957337 32 1 
796 1.20557 8.7603 -0.00628186 0.00767741 8.76031 1.02513 32 1 
797.333 1.20556 8.78507 -0.0057385 0.0086363 8.78508 1.00534 32 1 
798.667 1.2055 8.81352 -0.00534876 0.0106006 8.81353 0.909183 32 1 
800 1.20543 8.83358 -0.0057274 0.0115164 8.8336 0.773019 32 1 
