110.489;r ;Density                 ;Velocity u              ;Velocity v              ;Velocity w              ;|Velocity|              ;Pressure                ;Distribution            ;Levels                  ;
0 1.20923 9.99623 -0.000228351 -0.000711433 9.99623 7.64271 1 1 
1.33334 1.2092 9.99678 0.000343974 0.000830934 9.99678 7.58324 1 1 
2.66666 1.20911 9.99714 0.00151987 0.00395335 9.99715 7.42318 1 1 
4 1.20905 9.9975 0.00257465 0.00675931 9.99752 7.3181 1 1 
5.33334 1.209 9.99819 0.00327355 0.00869484 9.99822 7.2291 1 1 
6.66666 1.20889 9.99827 0.0038627 0.0104787 9.99831 7.01743 1 1 
8 1.20878 9.99891 0.00444248 0.01221 9.99897 6.83466 1 1 
9.33334 1.20867 9.9994 0.00472111 0.0131603 9.99947 6.63752 1 1 
10.6667 1.20852 9.99977 0.00497748 0.0141369 9.99985 6.35442 1 1 
12 1.20839 10.001 0.00510373 0.014772 10.001 6.13199 1 1 
13.3333 1.20825 10.0014 0.00491605 0.0146269 10.0014 5.87601 1 1 
14.6667 1.2081 10.0019 0.00474309 0.014537 10.002 5.59775 1 1 
16 1.20801 10.0032 0.00435836 0.0138685 10.0033 5.4344 1 1 
17.3333 1.2079 10.004 0.0037663 0.0126933 10.0041 5.24153 1 1 
18.6667 1.20782 10.0047 0.00322904 0.0116265 10.0048 5.08787 1 1 
20 1.20778 10.0059 0.00246698 0.00985962 10.0059 5.02878 1 1 
21.3333 1.20774 10.0068 0.00164089 0.00792033 10.0068 4.95163 1 1 
21.3333 1.20774 10.0068 0.00164089 0.00792033 10.0068 4.95163 1 1 
22.6667 1.20776 10.0077 0.000891658 0.0060982 10.0078 4.98489 1 1 
24 1.20781 10.0086 -8.41115e-05 0.0036341 10.0086 5.07481 1 1 
25.3333 1.20785 10.009 -0.00099452 0.00134484 10.009 5.1567 1 1 
26.6667 1.20798 10.0102 -0.00184982 -0.000839781 10.0102 5.37607 1 1 
28 1.20811 10.0107 -0.00285418 -0.00339117 10.0107 5.62431 1 1 
29.3333 1.20824 10.0107 -0.00366898 -0.00549208 10.0108 5.85912 1 1 
30.6667 1.20843 10.0116 -0.00444706 -0.00756647 10.0116 6.19528 1 1 
32 1.20862 10.0118 -0.00522967 -0.00960845 10.0119 6.53303 1 1 
33.3333 1.20881 10.0118 -0.00570003 -0.0108908 10.0119 6.88779 1 1 
34.6667 1.20902 10.0121 -0.0061544 -0.0121681 10.0122 7.26555 1 1 
36 1.20919 10.0119 -0.00650421 -0.0130987 10.012 7.55957 1 1 
37.3333 1.20938 10.0118 -0.00655064 -0.0132396 10.0119 7.91647 1 1 
38.6667 1.20958 10.0118 -0.00658875 -0.0133348 10.0119 8.2682 1 1 
40 1.2097 10.0112 -0.00643904 -0.0128473 10.0113 8.48744 1 1 
41.3333 1.20984 10.0108 -0.00607172 -0.0118257 10.0109 8.73458 1 1 
42.6667 1.20996 10.0103 -0.00574019 -0.0108214 10.0104 8.95899 1 1 
42.6667 1.20996 10.0103 -0.00574019 -0.0108214 10.0104 8.95899 2 1 
44 1.21005 10.0097 -0.00514314 -0.00906903 10.0097 9.11314 2 1 
45.3333 1.21012 10.0097 -0.00439959 -0.00700618 10.0097 9.2497 2 1 
46.6667 1.21014 10.0089 -0.00368363 -0.00493233 10.0089 9.28644 2 1 
48 1.21015 10.0081 -0.00274421 -0.00220165 10.0081 9.30799 2 1 
49.3333 1.21017 10.0084 -0.00179194 0.000544298 10.0084 9.3401 2 1 
50.6667 1.2101 10.0081 -0.000825389 0.00339073 10.0081 9.21477 2 1 
52 1.21002 10.0074 0.00026989 0.00661931 10.0075 9.05849 2 1 
53.3333 1.20994 10.0075 0.00123478 0.00947861 10.0076 8.9188 2 1 
54.6667 1.2098 10.008 0.00222216 0.0124179 10.008 8.66989 2 1 
56 1.20965 10.0083 0.00324739 0.0154184 10.0084 8.40811 2 1 
57.3333 1.20949 10.0081 0.00399982 0.0177328 10.0081 8.10821 2 1 
58.6667 1.2093 10.0083 0.00470749 0.0199608 10.0084 7.75916 2 1 
60 1.20914 10.0097 0.00532155 0.0218463 10.0098 7.48056 2 1 
61.3333 1.20895 10.0099 0.00566 0.0230427 10.01 7.13828 2 1 
62.6667 1.20874 10.0099 0.00597866 0.0241695 10.0101 6.76149 2 1 
64 1.20859 10.0112 0.00607749 0.0246017 10.0113 6.49251 2 1 
64 1.20859 10.0112 0.00607749 0.0246017 10.0113 6.49251 2 1 
65.3333 1.20842 10.0123 0.00594589 0.0244427 10.0125 6.17736 2 1 
66.6667 1.20826 10.0127 0.00581527 0.0242837 10.0129 5.88481 2 1 
68 1.20813 10.0135 0.00542929 0.0233804 10.0136 5.64708 2 1 
69.3333 1.20798 10.0146 0.00489594 0.0220597 10.0147 5.38915 2 1 
70.6667 1.20789 10.0158 0.00433566 0.0206463 10.0158 5.22495 2 1 
72 1.20782 10.0165 0.00353716 0.0186339 10.0166 5.09133 2 1 
73.3333 1.20775 10.017 0.00270739 0.0164906 10.017 4.96014 2 1 
74.6667 1.20772 10.0185 0.00183277 0.0140974 10.0185 4.91949 2 1 
76 1.20773 10.0192 0.000800417 0.0113468 10.0192 4.92769 2 1 
77.3333 1.20776 10.0193 -0.000106914 0.00890412 10.0193 4.98442 2 1 
78.6667 1.20783 10.0207 -0.00107302 0.00621487 10.0207 5.10819 2 1 
80 1.2079 10.0212 -0.00211153 0.00342362 10.0213 5.23258 2 1 
81.3333 1.20801 10.0212 -0.0029751 0.00118814 10.0213 5.43425 2 1 
82.6667 1.20817 10.0218 -0.00389184 -0.00119307 10.0219 5.72226 2 1 
84 1.20829 10.0222 -0.00474055 -0.00336204 10.0223 5.94375 2 1 
85.3333 1.20844 10.0225 -0.0053566 -0.00488103 10.0226 6.20942 2 1 
85.3333 1.20844 10.0225 -0.0053566 -0.00488103 10.0226 6.20942 3 1 
86.6667 1.20864 10.0223 -0.00603167 -0.00648172 10.0224 6.57158 3 1 
88 1.20881 10.0226 -0.00657587 -0.00769215 10.0227 6.87276 3 1 
89.3333 1.20897 10.0231 -0.00685739 -0.00824199 10.0232 7.17784 3 1 
90.6667 1.20915 10.0224 -0.00715979 -0.00867367 10.0225 7.49991 3 1 
92 1.20933 10.0217 -0.00731591 -0.00859491 10.0218 7.81398 3 1 
93.3333 1.20949 10.0224 -0.00728573 -0.0080193 10.0225 8.11694 3 1 
94.6667 1.20962 10.0221 -0.00719645 -0.0070799 10.0222 8.33648 3 1 
96 1.20975 10.0209 -0.00697201 -0.00563403 10.021 8.57139 3 1 
97.3333 1.20986 10.0211 -0.00669707 -0.00405809 10.0211 8.77295 3 1 
98.6667 1.2099 10.0212 -0.00626359 -0.00200291 10.0213 8.85702 3 1 
100 1.20995 10.0203 -0.00569767 0.000429362 10.0203 8.94394 3 1 
101.333 1.20996 10.0194 -0.0052546 0.00262479 10.0194 8.96161 3 1 
102.667 1.20992 10.0196 -0.00461196 0.00527499 10.0196 8.88512 3 1 
104 1.20989 10.02 -0.00390344 0.00805499 10.02 8.82349 3 1 
105.333 1.2098 10.0189 -0.00340362 0.0104591 10.0189 8.66665 3 1 
106.667 1.20967 10.0185 -0.00272488 0.0132597 10.0186 8.42747 3 1 
106.667 1.20967 10.0185 -0.00272488 0.0132597 10.0186 8.42747 3 1 
108 1.20956 10.0193 -0.00205607 0.0158941 10.0194 8.23485 3 1 
109.333 1.2094 10.0189 -0.00155122 0.0181404 10.0189 7.94631 3 1 
110.667 1.20921 10.0185 -0.000942197 0.0206546 10.0186 7.60696 3 1 
112 1.20905 10.0194 -0.000404012 0.0226913 10.0195 7.32168 3 1 
113.333 1.20886 10.0199 2.10707e-05 0.0242739 10.02 6.96489 3 1 
114.667 1.20865 10.0203 0.000535056 0.0260087 10.0204 6.5918 3 1 
116 1.20848 10.0205 0.000857269 0.0270405 10.0206 6.2792 3 1 
117.333 1.20828 10.0206 0.00106129 0.0275893 10.0207 5.92969 3 1 
118.667 1.20809 10.0223 0.00133252 0.0281282 10.0224 5.58413 3 1 
120 1.20796 10.0222 0.00133369 0.0279487 10.0223 5.34876 3 1 
121.333 1.20781 10.0227 0.00128688 0.0274538 10.0228 5.08259 3 1 
122.667 1.20769 10.0252 0.00129171 0.0268413 10.0253 4.86555 3 1 
124 1.20763 10.0252 0.00109257 0.0256795 10.0253 4.74557 3 1 
125.333 1.20755 10.0256 0.000856778 0.0243734 10.0257 4.61121 3 1 
126.667 1.20754 10.0269 0.000629477 0.0228806 10.0269 4.5839 3 1 
128 1.20754 10.0275 0.00030945 0.0210596 10.0276 4.58004 3 1 
128 1.20754 10.0275 0.00030945 0.0210596 10.0276 4.58004 3 1 
129.333 1.20755 10.028 -5.59847e-05 0.0192593 10.028 4.6091 3 1 
130.667 1.20763 10.0287 -0.000442538 0.0173093 10.0287 4.74833 3 1 
132 1.20771 10.0301 -0.000868868 0.015225 10.0301 4.88902 3 1 
133.333 1.20781 10.0305 -0.00130984 0.0132845 10.0306 5.0705 3 1 
134.667 1.20793 10.03 -0.00184329 0.0113031 10.0301 5.30044 3 1 
136 1.20808 10.03 -0.00235914 0.00939171 10.0301 5.55931 3 1 
137.333 1.20823 10.0308 -0.00281023 0.00773971 10.0309 5.84198 3 1 
138.667 1.2084 10.0307 -0.00334156 0.00625756 10.0308 6.13519 3 1 
140 1.20856 10.0303 -0.00384907 0.00504738 10.0304 6.43439 3 1 
141.333 1.20873 10.0308 -0.00429709 0.00408537 10.0309 6.73746 3 1 
142.667 1.20889 10.0305 -0.00473531 0.003444 10.0306 7.03201 3 1 
144 1.20903 10.0293 -0.00515824 0.00324366 10.0294 7.28583 3 1 
145.333 1.20917 10.0285 -0.00554166 0.00329026 10.0286 7.5269 3 1 
146.667 1.20929 10.0288 -0.00588469 0.00360937 10.0288 7.7458 3 1 
148 1.20938 10.0285 -0.00621487 0.00433572 10.0285 7.91335 3 1 
149.333 1.20945 10.0275 -0.00654635 0.0052932 10.0275 8.03831 3 1 
149.333 1.20945 10.0275 -0.00654635 0.0052932 10.0275 8.03831 3 1 
150.667 1.2095 10.0268 -0.00681085 0.00643245 10.0268 8.13625 3 1 
152 1.20952 10.0263 -0.00703131 0.00780838 10.0263 8.17042 3 1 
153.333 1.20951 10.0256 -0.00726831 0.00938117 10.0256 8.1525 3 1 
154.667 1.20949 10.0247 -0.0074708 0.0110694 10.0247 8.11871 3 1 
156 1.20944 10.0246 -0.00760436 0.0128179 10.0247 8.02878 3 1 
157.333 1.20936 10.0247 -0.00774838 0.0146464 10.0248 7.87611 3 1 
158.667 1.20927 10.0236 -0.00790303 0.016507 10.0236 7.71922 3 1 
160 1.20917 10.0229 -0.00795589 0.0183112 10.0229 7.52918 3 1 
161.333 1.20903 10.0236 -0.007968 0.02004 10.0236 7.27219 3 1 
162.667 1.2089 10.0229 -0.00801303 0.0216639 10.023 7.03668 3 1 
164 1.20876 10.0222 -0.0080307 0.023081 10.0223 6.78444 3 1 
165.333 1.2086 10.0232 -0.00796614 0.024303 10.0233 6.50596 3 1 
166.667 1.20847 10.0226 -0.00789039 0.0253571 10.0226 6.27478 3 1 
168 1.20831 10.0223 -0.00784011 0.0261405 10.0224 5.98226 3 1 
169.333 1.20818 10.0227 -0.00772233 0.0266776 10.0228 5.73596 3 1 
170.667 1.20809 10.0227 -0.00752415 0.0269937 10.0228 5.57757 3 1 
170.667 1.20809 10.0227 -0.00752415 0.0269937 10.0228 5.57757 11 1 
172 1.20796 10.0237 -0.00733672 0.0271149 10.0237 5.34297 11 1 
173.333 1.20787 10.0227 -0.00711866 0.0270743 10.0227 5.17579 11 1 
174.667 1.20781 10.0224 -0.00681783 0.0268267 10.0224 5.07683 11 1 
176 1.20775 10.0228 -0.00648014 0.0264597 10.0228 4.96869 11 1 
177.333 1.20771 10.0223 -0.00615436 0.0260181 10.0223 4.8974 11 1 
178.667 1.20771 10.0218 -0.00577815 0.025469 10.0218 4.8905 11 1 
180 1.20772 10.0218 -0.00531018 0.0248865 10.0218 4.9166 11 1 
181.333 1.20774 10.0227 -0.00486948 0.0243119 10.0228 4.94675 11 1 
182.667 1.20779 10.0218 -0.00443979 0.0237652 10.0218 5.03753 11 1 
184 1.20786 10.0203 -0.00394948 0.0232115 10.0203 5.1701 11 1 
185.333 1.20792 10.0198 -0.00346332 0.0226891 10.0199 5.28109 11 1 
186.667 1.20801 10.0185 -0.0030762 0.0223023 10.0186 5.43053 11 1 
188 1.20811 10.0174 -0.0026637 0.0220375 10.0175 5.62158 11 1 
189.333 1.2082 10.0177 -0.00219267 0.0218782 10.0177 5.78756 11 1 
190.667 1.20832 10.0167 -0.00183876 0.0218229 10.0167 5.98828 11 1 
192 1.20841 10.0149 -0.00154269 0.0220111 10.015 6.16408 11 1 
192 1.20841 10.0149 -0.00154269 0.0220111 10.015 6.16408 11 1 
193.333 1.2085 10.0132 -0.00126446 0.0222346 10.0133 6.3217 11 1 
194.667 1.2086 10.011 -0.0011394 0.0224589 10.011 6.50684 11 1 
196 1.20867 10.01 -0.00104923 0.0229848 10.01 6.6332 11 1 
197.333 1.20875 10.0092 -0.00111661 0.0235037 10.0093 6.7701 11 1 
198.667 1.20883 10.007 -0.00129795 0.0239699 10.007 6.92426 11 1 
200 1.20888 10.0055 -0.00140946 0.0246725 10.0056 7.00371 11 1 
201.333 1.2089 10.0032 -0.00185023 0.025258 10.0032 7.04496 11 1 
202.667 1.20893 9.99893 -0.00242027 0.0256632 9.99897 7.10168 11 1 
204 1.20894 9.99801 -0.00288519 0.0262352 9.99805 7.11651 11 1 
205.333 1.20895 9.99804 -0.0036082 0.0266965 9.99808 7.13172 11 1 
206.667 1.20897 9.9957 -0.00444287 0.0271021 9.99574 7.17097 11 1 
208 1.20893 9.99365 -0.0052189 0.0273865 9.99369 7.09225 11 1 
209.333 1.2089 9.99006 -0.00618642 0.0274631 9.9901 7.03813 11 1 
210.667 1.20888 9.98546 -0.00721393 0.0275022 9.9855 7.01599 11 1 
212 1.20883 9.9824 -0.00821906 0.0273566 9.98244 6.9093 11 1 
213.333 1.2088 9.98047 -0.00919693 0.0271897 9.98052 6.85489 11 1 
213.333 1.2088 9.98047 -0.00919693 0.0271897 9.98052 6.85489 11 1 
214.667 1.20878 9.97955 -0.0101725 0.0269654 9.97961 6.83478 11 1 
216 1.20874 9.97839 -0.0111859 0.0266211 9.97844 6.74747 11 1 
217.333 1.2087 9.97515 -0.01206 0.0261615 9.97519 6.68188 11 1 
218.667 1.20869 9.97 -0.012885 0.0256974 9.97005 6.66619 11 1 
220 1.20865 9.96491 -0.0136383 0.0251902 9.96496 6.58913 11 1 
221.333 1.20862 9.95938 -0.0142482 0.0246013 9.95943 6.53241 11 1 
222.667 1.2086 9.95525 -0.0147616 0.0240322 9.95529 6.50868 11 1 
224 1.2086 9.95437 -0.0151596 0.0236466 9.95441 6.5063 11 1 
225.333 1.20862 9.95224 -0.0153812 0.0233563 9.95229 6.54621 11 1 
226.667 1.20863 9.9474 -0.0154396 0.0230828 9.94744 6.56396 11 1 
228 1.20864 9.94142 -0.0153723 0.0229588 9.94146 6.56598 11 1 
229.333 1.20864 9.93345 -0.0152163 0.0229678 9.93349 6.56815 11 1 
230.667 1.20866 9.92548 -0.0149436 0.0229925 9.92551 6.61867 11 1 
232 1.20867 9.92172 -0.0144288 0.023215 9.92176 6.62525 11 1 
233.333 1.20874 9.91813 -0.0137311 0.0238254 9.91817 6.75871 11 1 
234.667 1.20884 9.91183 -0.0129103 0.0246537 9.91187 6.9445 11 1 
234.667 1.20884 9.91183 -0.0129103 0.0246537 9.91187 6.9445 11 1 
236 1.20879 9.90554 -0.0121835 0.0253843 9.90558 6.84569 11 1 
237.333 1.20886 9.89423 -0.0114403 0.0261066 9.89427 6.97499 11 1 
238.667 1.20895 9.88499 -0.0106232 0.0270839 9.88504 7.13863 11 1 
240 1.20897 9.87933 -0.0097056 0.0282309 9.87938 7.16838 11 1 
241.333 1.2091 9.86948 -0.00871655 0.0294426 9.86953 7.39909 11 1 
242.667 1.20914 9.86275 -0.00779244 0.0305837 9.8628 7.4758 11 1 
244 1.20923 9.85019 -0.007114 0.0316136 9.85025 7.64582 11 1 
245.333 1.20928 9.83731 -0.0065474 0.0325122 9.83737 7.72917 11 1 
246.667 1.20936 9.82625 -0.00581728 0.033595 9.82631 7.87375 11 1 
248 1.20953 9.81356 -0.00529797 0.0343703 9.81362 8.18122 11 1 
249.333 1.20957 9.80348 -0.00473506 0.0352827 9.80355 8.24577 11 1 
250.667 1.20967 9.78776 -0.00452841 0.0358682 9.78783 8.43821 11 1 
252 1.20977 9.77303 -0.00464059 0.0359564 9.7731 8.61256 11 1 
253.333 1.20993 9.7536 -0.0044878 0.036405 9.75367 8.91068 11 1 
254.667 1.21 9.73796 -0.00461314 0.0364575 9.73803 9.02428 11 1 
256 1.21009 9.72038 -0.00495495 0.0363105 9.72045 9.20055 11 1 
256 1.21009 9.72038 -0.00495495 0.0363105 9.72045 9.20055 13 1 
257.333 1.21032 9.69806 -0.00531024 0.0360584 9.69813 9.60619 13 1 
258.667 1.21036 9.67879 -0.00598511 0.0354957 9.67886 9.67656 13 1 
260 1.21048 9.65434 -0.00665641 0.0349966 9.65442 9.90109 13 1 
261.333 1.21073 9.62739 -0.00723699 0.0344594 9.62746 10.357 13 1 
262.667 1.21087 9.59958 -0.00805058 0.0337538 9.59965 10.609 13 1 
264 1.21091 9.57711 -0.00901413 0.0329032 9.57717 10.6707 13 1 
265.333 1.21122 9.54323 -0.00996224 0.0320722 9.54329 11.2334 13 1 
266.667 1.21151 9.50192 -0.0107981 0.0313923 9.50199 11.7676 13 1 
268 1.21147 9.47253 -0.0116452 0.0306635 9.4726 11.6814 13 1 
269.333 1.21184 9.42981 -0.0125117 0.0299405 9.42988 12.3637 13 1 
270.667 1.21233 9.37832 -0.0133125 0.0293095 9.37838 13.2337 13 1 
272 1.2122 9.34667 -0.0139264 0.0287855 9.34674 13.0009 13 1 
273.333 1.21268 9.28902 -0.01454 0.0283014 9.2891 13.8761 13 1 
274.667 1.21335 9.22116 -0.0151391 0.0278613 9.22124 15.0821 13 1 
276 1.21327 9.17399 -0.01547 0.0275206 9.17408 14.9407 13 1 
277.333 1.2138 9.09511 -0.0157296 0.0273209 9.09521 15.8942 13 1 
277.333 1.2138 9.09511 -0.0157296 0.0273209 9.09521 15.8942 13 1 
278.667 1.21449 9.01715 -0.0158913 0.0271342 9.01725 17.1384 13 1 
280 1.21473 8.94197 -0.0159216 0.0270364 8.94207 17.5765 13 1 
281.333 1.21524 8.84457 -0.0159206 0.0270515 8.84466 18.498 13 1 
282.667 1.21587 8.75872 -0.0158922 0.0271017 8.75879 19.6387 13 1 
284 1.21663 8.6681 -0.0156914 0.0270872 8.66818 21.0035 13 1 
285.333 1.21735 8.55462 -0.0153626 0.0270487 8.55482 22.316 13 1 
286.667 1.21787 8.41138 -0.0149586 0.0269383 8.41176 23.241 13 1 
288 1.21846 8.25453 -0.0145384 0.0269205 8.25485 24.306 13 1 
289.333 1.21934 8.11506 -0.0142328 0.0270564 8.1152 25.9065 13 1 
290.667 1.22045 7.97363 -0.0139252 0.0269747 7.97379 27.9018 13 1 
292 1.22128 7.81162 -0.0135828 0.0268079 7.81186 29.4142 13 1 
293.333 1.2219 7.63729 -0.0132577 0.0266894 7.63765 30.5262 13 1 
294.667 1.22287 7.44444 -0.0129549 0.0264554 7.44495 32.2783 13 1 
296 1.22394 7.25099 -0.0127639 0.0263006 7.25138 34.2142 13 1 
297.333 1.22471 7.0628 -0.0124995 0.0258818 7.06313 35.5935 13 1 
298.667 1.21638 6.7666 -0.0120165 0.0247862 6.76706 20.5567 13 1 
298.667 1.21638 6.7666 -0.0120165 0.0247862 6.76706 20.5567 14 1 
300 1.20184 6.65977 -0.0119735 0.0244813 6.66008 -5.70847 14 1 
301.333 1.19634 6.6596 -0.012071 0.0244902 6.65988 -15.6334 14 1 
302.667 1.19733 6.47941 -0.0119525 0.0239609 6.47974 -13.8615 14 1 
304 1.19814 6.29482 -0.0118978 0.0235325 6.29519 -12.3884 14 1 
305.333 1.1987 6.11273 -0.0117941 0.0229614 6.11332 -11.3824 14 1 
306.667 1.19939 5.94205 -0.0116945 0.0223332 5.94256 -10.1385 14 1 
308 1.19996 5.778 -0.0116289 0.0218635 5.77829 -9.10632 14 1 
309.333 1.20043 5.62871 -0.0116107 0.0214859 5.62899 -8.24692 14 1 
310.667 1.20099 5.49268 -0.011605 0.0211432 5.49293 -7.24732 14 1 
312 1.20148 5.36713 -0.0115535 0.0207679 5.36732 -6.36193 14 1 
313.333 1.20189 5.2539 -0.0114837 0.0203588 5.25405 -5.61701 14 1 
314.667 1.20227 5.14419 -0.0114405 0.020052 5.14435 -4.92259 14 1 
316 1.20256 5.03658 -0.0113866 0.0196756 5.03675 -4.40469 14 1 
317.333 1.20287 4.94169 -0.0112421 0.0191938 4.94183 -3.85055 14 1 
318.667 1.20325 4.86182 -0.0111038 0.0187835 4.86193 -3.15606 14 1 
320 1.2035 4.7772 -0.0110758 0.0184367 4.77733 -2.70356 14 1 
320 1.2035 4.7772 -0.0110758 0.0184367 4.77733 -2.70356 14 1 
321.333 1.20364 4.68957 -0.0110339 0.0180439 4.68971 -2.45649 14 1 
322.667 1.20388 4.61848 -0.0108771 0.0175293 4.61862 -2.02219 14 1 
324 1.20414 4.54655 -0.0107609 0.0170853 4.54668 -1.54824 14 1 
325.333 1.20427 4.47251 -0.0107595 0.016773 4.47262 -1.32424 14 1 
326.667 1.20441 4.41486 -0.01075 0.0164372 4.41496 -1.06728 14 1 
328 1.20463 4.35676 -0.0107099 0.0160695 4.35688 -0.66806 14 1 
329.333 1.20477 4.29364 -0.0106819 0.0157033 4.29376 -0.420989 14 1 
330.667 1.20484 4.2343 -0.0106906 0.0153903 4.23439 -0.294447 14 1 
332 1.20495 4.1806 -0.0107404 0.0151212 4.18067 -0.0984745 14 1 
333.333 1.20513 4.14319 -0.0108023 0.0148929 4.14327 0.234321 14 1 
334.667 1.20529 4.10275 -0.0108218 0.0146711 4.10282 0.528476 14 1 
336 1.20531 4.04534 -0.010889 0.0144822 4.0454 0.559775 14 1 
337.333 1.20534 3.99977 -0.0109711 0.0142523 3.99983 0.616475 14 1 
338.667 1.20551 3.97025 -0.01101 0.0140417 3.97031 0.921661 14 1 
340 1.20567 3.94274 -0.011056 0.0139299 3.94279 1.2057 14 1 
341.333 1.20571 3.9081 -0.0111658 0.0138113 3.90815 1.29037 14 1 
341.333 1.20571 3.9081 -0.0111658 0.0138113 3.90815 1.29037 15 1 
342.667 1.20572 3.8613 -0.0112493 0.0136013 3.86135 1.29293 15 1 
344 1.20581 3.82832 -0.0112617 0.0134279 3.82837 1.45586 15 1 
345.333 1.20595 3.81295 -0.0112701 0.0133178 3.813 1.7139 15 1 
346.667 1.20602 3.78771 -0.0113313 0.0131698 3.78775 1.8343 15 1 
348 1.20605 3.75393 -0.011352 0.0129413 3.75398 1.90287 15 1 
349.333 1.20609 3.71912 -0.0113505 0.0127751 3.71917 1.97614 15 1 
350.667 1.20615 3.69412 -0.0113287 0.0126567 3.69416 2.08458 15 1 
352 1.20626 3.68235 -0.0112761 0.0124357 3.68239 2.27591 15 1 
353.333 1.20631 3.65603 -0.0112464 0.0121535 3.65607 2.37182 15 1 
354.667 1.20633 3.6207 -0.0112327 0.0119543 3.62074 2.4032 15 1 
356 1.20639 3.59886 -0.0111334 0.0117613 3.5989 2.5059 15 1 
357.333 1.20644 3.57798 -0.0110525 0.0115451 3.57802 2.59889 15 1 
358.667 1.20649 3.55593 -0.0110179 0.0112843 3.55597 2.69786 15 1 
360 1.20655 3.53406 -0.0109409 0.0109977 3.53411 2.79425 15 1 
361.333 1.20657 3.50548 -0.0108118 0.0107633 3.50552 2.83819 15 1 
362.667 1.20661 3.48115 -0.010751 0.0105961 3.48119 2.90716 15 1 
362.667 1.20661 3.48115 -0.010751 0.0105961 3.48119 2.90716 15 1 
364 1.20665 3.46136 -0.0107294 0.0103644 3.4614 2.98681 15 1 
365.333 1.20669 3.43912 -0.0106507 0.0100668 3.43916 3.04948 15 1 
366.667 1.20673 3.41708 -0.0105373 0.00981044 3.41712 3.12214 15 1 
368 1.20676 3.39274 -0.0104816 0.00962338 3.39278 3.18699 15 1 
369.333 1.20679 3.36933 -0.0105046 0.00947066 3.36938 3.23993 15 1 
370.667 1.20681 3.34925 -0.0104863 0.00924187 3.34929 3.27729 15 1 
372 1.20685 3.32842 -0.0103991 0.00894671 3.32846 3.33471 15 1 
373.333 1.2069 3.30902 -0.0103572 0.00871316 3.30906 3.42325 15 1 
374.667 1.20692 3.28798 -0.0104263 0.00858833 3.28802 3.46818 15 1 
376 1.20693 3.2655 -0.0104901 0.0084281 3.26554 3.49412 15 1 
377.333 1.20696 3.24849 -0.0104905 0.0081552 3.24853 3.54732 15 1 
378.667 1.20699 3.23162 -0.0104824 0.00786337 3.23165 3.60246 15 1 
380 1.20703 3.21325 -0.0105272 0.00768434 3.21328 3.66422 15 1 
381.333 1.20706 3.19682 -0.0106435 0.0075566 3.19686 3.71373 15 1 
382.667 1.20707 3.1791 -0.0107713 0.0073409 3.17914 3.74117 15 1 
384 1.2071 3.16367 -0.010803 0.00704357 3.16371 3.78789 15 1 
384 1.2071 3.16367 -0.010803 0.00704357 3.16371 3.78789 15 1 
385.333 1.20713 3.15181 -0.0108631 0.00682939 3.15184 3.8434 15 1 
386.667 1.20715 3.13754 -0.0109897 0.00665102 3.13757 3.88878 15 1 
388 1.20718 3.1235 -0.0111067 0.00643807 3.12353 3.93716 15 1 
389.333 1.2072 3.11189 -0.0112111 0.00620306 3.11193 3.97603 15 1 
390.667 1.20722 3.10034 -0.0113232 0.00596067 3.10037 4.00561 15 1 
392 1.20724 3.09033 -0.011406 0.00570929 3.09036 4.0517 15 1 
393.333 1.20727 3.08116 -0.0115173 0.00549783 3.08119 4.10301 15 1 
394.667 1.20729 3.07117 -0.0116463 0.00526902 3.0712 4.1366 15 1 
396 1.20731 3.06237 -0.0117428 0.0049943 3.0624 4.16686 15 1 
397.333 1.20733 3.05489 -0.0117941 0.00472795 3.05491 4.20395 15 1 
398.667 1.20735 3.04777 -0.011872 0.00452506 3.0478 4.23596 15 1 
400 1.20736 3.041 -0.011973 0.00430931 3.04103 4.26541 15 1 
401.333 1.20738 3.03453 -0.0119939 0.00403448 3.03456 4.30296 15 1 
402.667 1.2074 3.02907 -0.0119719 0.00379291 3.0291 4.338 15 1 
404 1.20741 3.0235 -0.0120028 0.00359742 3.02353 4.35413 15 1 
405.333 1.20742 3.01767 -0.0119938 0.00337161 3.0177 4.36999 15 1 
405.333 1.20742 3.01767 -0.0119938 0.00337161 3.0177 4.36999 15 1 
406.667 1.20744 3.01369 -0.0119274 0.00317802 3.01371 4.40691 15 1 
408 1.20746 3.00978 -0.0118314 0.00299876 3.00981 4.44 15 1 
409.333 1.20747 3.00465 -0.011679 0.00277408 3.00467 4.45374 15 1 
410.667 1.20747 3.00011 -0.0115242 0.00263257 3.00014 4.46475 15 1 
412 1.20748 2.99596 -0.0113322 0.0025814 2.99598 4.48301 15 1 
413.333 1.2075 2.99241 -0.0110457 0.00248742 2.99243 4.50891 15 1 
414.667 1.20751 2.98879 -0.0107409 0.00233966 2.98881 4.52843 15 1 
416 1.20751 2.98338 -0.010423 0.00223408 2.9834 4.53498 15 1 
417.333 1.20752 2.97874 -0.0100658 0.0022045 2.97876 4.54307 15 1 
418.667 1.20752 2.9752 -0.00970792 0.00220046 2.97522 4.5534 15 1 
420 1.20753 2.97028 -0.00930682 0.00215985 2.97029 4.56362 15 1 
421.333 1.20753 2.96511 -0.0088463 0.00211341 2.96513 4.57377 15 1 
422.667 1.20753 2.95996 -0.00834708 0.00207557 2.95997 4.57591 15 1 
424 1.20753 2.95428 -0.00785616 0.00208864 2.95429 4.57373 15 1 
425.333 1.20753 2.94882 -0.00740342 0.00217395 2.94883 4.57325 15 1 
426.667 1.20753 2.94287 -0.00690381 0.00222412 2.94288 4.57311 15 1 
426.667 1.20753 2.94287 -0.00690381 0.00222412 2.94288 4.57311 20 1 
428 1.20753 2.93641 -0.00632 0.00219815 2.93641 4.57212 20 1 
429.333 1.20753 2.92989 -0.00573441 0.002209 2.9299 4.56705 20 1 
430.667 1.20752 2.92295 -0.00515186 0.00227227 2.92296 4.55908 20 1 
432 1.20752 2.91584 -0.00460089 0.00235022 2.91585 4.54885 20 1 
433.333 1.20751 2.90825 -0.00404053 0.00241255 2.90826 4.53803 20 1 
434.667 1.20751 2.90048 -0.00336005 0.00242224 2.90049 4.5338 20 1 
436 1.20751 2.89286 -0.00266026 0.00242805 2.89286 4.52817 20 1 
437.333 1.2075 2.88425 -0.00202108 0.00247049 2.88425 4.51089 20 1 
438.667 1.20749 2.87544 -0.00135051 0.00254444 2.87544 4.49525 20 1 
440 1.20749 2.86709 -0.000650729 0.00263921 2.86709 4.48944 20 1 
441.333 1.20748 2.85797 9.21222e-05 0.00267029 2.85798 4.48135 20 1 
442.667 1.20747 2.84861 0.000902876 0.00262235 2.84861 4.46878 20 1 
444 1.20747 2.83932 0.00171076 0.00259427 2.83932 4.45784 20 1 
445.333 1.20746 2.82929 0.00247361 0.00259187 2.82929 4.44468 20 1 
446.667 1.20745 2.8192 0.00324879 0.00253154 2.81921 4.43237 20 1 
448 1.20745 2.80917 0.00407318 0.00236434 2.80918 4.42657 20 1 
448 1.20745 2.80917 0.00407318 0.00236434 2.80918 4.42657 20 1 
449.333 1.20745 2.79831 0.0049056 0.00209707 2.79832 4.41758 20 1 
450.667 1.20744 2.78696 0.00569123 0.00177076 2.78697 4.40187 20 1 
452 1.20743 2.77544 0.00642961 0.00140809 2.77545 4.38775 20 1 
453.333 1.20742 2.76334 0.00710533 0.00097187 2.76336 4.37632 20 1 
454.667 1.20742 2.75067 0.00772966 0.000448997 2.75069 4.36496 20 1 
456 1.20741 2.73749 0.00836054 -0.000144407 2.73751 4.35219 20 1 
457.333 1.2074 2.72359 0.00895585 -0.000819852 2.72362 4.33547 20 1 
458.667 1.20739 2.70884 0.00942458 -0.00154923 2.70886 4.31529 20 1 
460 1.20738 2.69347 0.00980126 -0.00228317 2.6935 4.29735 20 1 
461.333 1.20737 2.67759 0.0101197 -0.00304072 2.67763 4.28207 20 1 
462.667 1.20736 2.66067 0.0103473 -0.00385738 2.6607 4.26193 20 1 
464 1.20735 2.64275 0.0105109 -0.00469616 2.64279 4.23814 20 1 
465.333 1.20733 2.62432 0.0105853 -0.00548624 2.62436 4.21458 20 1 
466.667 1.20732 2.6051 0.0104916 -0.006207 2.60514 4.18901 20 1 
468 1.20731 2.5852 0.010239 -0.00687525 2.58525 4.16541 20 1 
469.333 1.20729 2.56495 0.00988683 -0.00747907 2.56499 4.14292 20 1 
469.333 1.20729 2.56495 0.00988683 -0.00747907 2.56499 4.14292 20 1 
470.667 1.20728 2.54368 0.00938874 -0.0079989 2.54372 4.11349 20 1 
472 1.20726 2.5218 0.00872401 -0.00843105 2.52185 4.08205 20 1 
473.333 1.20724 2.5002 0.00787911 -0.00871822 2.50025 4.05464 20 1 
474.667 1.20723 2.47834 0.00682679 -0.00882185 2.47838 4.02807 20 1 
476 1.20721 2.4561 0.00558395 -0.0087672 2.45614 4.00036 20 1 
477.333 1.2072 2.43411 0.00418402 -0.00855071 2.43414 3.97135 20 1 
478.667 1.20718 2.41242 0.00264675 -0.00815256 2.41245 3.9419 20 1 
480 1.20717 2.39124 0.000937071 -0.00754008 2.39126 3.91482 20 1 
481.333 1.20715 2.37086 -0.000952807 -0.00669553 2.37088 3.89124 20 1 
482.667 1.20714 2.35127 -0.0030062 -0.00561511 2.35129 3.8698 20 1 
484 1.20713 2.33261 -0.00517773 -0.00434424 2.33263 3.84893 20 1 
485.333 1.20712 2.31517 -0.00747419 -0.00289022 2.31519 3.82998 20 1 
486.667 1.20711 2.29927 -0.00987791 -0.00125528 2.2993 3.81565 20 1 
488 1.20711 2.28497 -0.0124063 0.000590359 2.28501 3.80699 20 1 
489.333 1.20711 2.27238 -0.0150219 0.00264527 2.27244 3.8033 20 1 
490.667 1.20711 2.26186 -0.0176809 0.00487855 2.26194 3.8035 20 1 
490.667 1.20711 2.26186 -0.0176809 0.00487855 2.26194 3.8035 20 1 
492 1.20711 2.25328 -0.0203805 0.00723172 2.25339 3.80802 20 1 
493.333 1.20711 2.2467 -0.0231124 0.00966032 2.24685 3.81813 20 1 
494.667 1.20712 2.24271 -0.025865 0.0121987 2.2429 3.83561 20 1 
496 1.20714 2.24121 -0.028614 0.0148686 2.24145 3.86099 20 1 
497.333 1.20715 2.24195 -0.0313234 0.0176246 2.24225 3.89104 20 1 
498.667 1.20717 2.24516 -0.0339741 0.0203869 2.24552 3.92485 20 1 
500 1.2072 2.25083 -0.0365935 0.023158 2.25127 3.96556 20 1 
501.333 1.20722 2.25901 -0.0391564 0.0259554 2.25952 4.01385 20 1 
502.667 1.20725 2.2698 -0.0416471 0.028787 2.27038 4.06765 20 1 
504 1.20728 2.28301 -0.0440499 0.0316161 2.28367 4.1255 20 1 
505.333 1.20732 2.29839 -0.0463638 0.0344046 2.29914 4.18639 20 1 
506.667 1.20735 2.31595 -0.0485769 0.0371238 2.31678 4.25042 20 1 
508 1.20739 2.33584 -0.0506891 0.0397916 2.33676 4.31969 20 1 
509.333 1.20743 2.35791 -0.0526725 0.0424141 2.35891 4.39307 20 1 
510.667 1.20747 2.38178 -0.0545316 0.04499 2.38287 4.46657 20 1 
512 1.20751 2.40738 -0.0562731 0.0474803 2.40854 4.54047 20 1 
512 1.20751 2.40738 -0.0562731 0.0474803 2.40854 4.54047 21 1 
513.333 1.20756 2.43462 -0.0579218 0.0498452 2.43586 4.6156 21 1 
514.667 1.2076 2.46334 -0.0594902 0.0520654 2.46465 4.69085 21 1 
516 1.20764 2.49357 -0.0609835 0.054205 2.49495 4.76754 21 1 
517.333 1.20768 2.52511 -0.0623494 0.0563007 2.52655 4.84364 21 1 
518.667 1.20772 2.55757 -0.0635522 0.0583749 2.55906 4.91584 21 1 
520 1.20776 2.59096 -0.0645803 0.0603959 2.59251 4.9867 21 1 
521.333 1.2078 2.6253 -0.0654855 0.0623327 2.6269 5.05737 21 1 
522.667 1.20784 2.66042 -0.0663108 0.0641383 2.66206 5.12556 21 1 
524 1.20787 2.69609 -0.0670688 0.0657714 2.69777 5.19093 21 1 
525.333 1.20791 2.73209 -0.0677372 0.0672388 2.7338 5.25317 21 1 
526.667 1.20794 2.76826 -0.0682947 0.0685861 2.76999 5.31127 21 1 
528 1.20797 2.80461 -0.0687117 0.0698572 2.80636 5.36657 21 1 
529.333 1.208 2.84107 -0.0689654 0.0710798 2.84284 5.42032 21 1 
530.667 1.20803 2.87738 -0.0690604 0.0722466 2.87915 5.46955 21 1 
532 1.20805 2.91336 -0.0690207 0.0733235 2.91513 5.51337 21 1 
533.333 1.20807 2.94899 -0.0688755 0.074302 2.95077 5.55408 21 1 
533.333 1.20807 2.94899 -0.0688755 0.074302 2.95077 5.55408 21 1 
534.667 1.2081 2.98419 -0.068636 0.0751648 2.98596 5.59065 21 1 
536 1.20811 3.01891 -0.0682936 0.0758868 3.02067 5.62326 21 1 
537.333 1.20813 3.05308 -0.0678472 0.0764852 3.05483 5.65307 21 1 
538.667 1.20814 3.08644 -0.0672713 0.0769632 3.08816 5.67688 21 1 
540 1.20815 3.11881 -0.0665456 0.0773097 3.12051 5.69464 21 1 
541.333 1.20816 3.15032 -0.0656539 0.0775104 3.15198 5.70952 21 1 
542.667 1.20817 3.1809 -0.0645993 0.0775782 3.18253 5.72095 21 1 
544 1.20817 3.21024 -0.0633639 0.0774883 3.21183 5.7273 21 1 
545.333 1.20817 3.23812 -0.0619219 0.0772059 3.23965 5.7282 21 1 
546.667 1.20817 3.26448 -0.0602661 0.076718 3.26596 5.72404 21 1 
548 1.20816 3.28926 -0.0584052 0.076029 3.29067 5.71586 21 1 
549.333 1.20816 3.31225 -0.0563145 0.0750883 3.3136 5.70402 21 1 
550.667 1.20815 3.3332 -0.0539761 0.0738648 3.33447 5.68755 21 1 
552 1.20814 3.35182 -0.0514048 0.0723677 3.35301 5.66504 21 1 
553.333 1.20812 3.36799 -0.0486065 0.0705797 3.36908 5.63757 21 1 
554.667 1.2081 3.38154 -0.0455999 0.0684847 3.38254 5.60638 21 1 
554.667 1.2081 3.38154 -0.0455999 0.0684847 3.38254 5.60638 22 1 
556 1.20808 3.39223 -0.0424057 0.0660908 3.39314 5.5706 22 1 
557.333 1.20806 3.39986 -0.0390613 0.0634314 3.40068 5.53045 22 1 
558.667 1.20804 3.40417 -0.0355897 0.0605066 3.40489 5.48469 22 1 
560 1.20801 3.40497 -0.0320415 0.0573439 3.40561 5.43286 22 1 
561.333 1.20798 3.40224 -0.0284648 0.0539727 3.40279 5.37732 22 1 
562.667 1.20794 3.39586 -0.0248831 0.0504099 3.39633 5.31721 22 1 
564 1.20791 3.38562 -0.0213551 0.0466875 3.38601 5.25161 22 1 
565.333 1.20787 3.37149 -0.0179242 0.0428309 3.37182 5.18122 22 1 
566.667 1.20783 3.35353 -0.0146481 0.038891 3.3538 5.10518 22 1 
568 1.20778 3.33182 -0.0115802 0.0349001 3.33204 5.0242 22 1 
569.333 1.20773 3.30651 -0.00879413 0.0309038 3.30668 4.93974 22 1 
570.667 1.20769 3.27779 -0.00634296 0.0269486 3.27793 4.85102 22 1 
572 1.20763 3.24588 -0.0042815 0.0230877 3.24599 4.75759 22 1 
573.333 1.20758 3.21109 -0.00267032 0.0193678 3.21118 4.66018 22 1 
574.667 1.20752 3.17389 -0.00153856 0.0158202 3.17396 4.56014 22 1 
576 1.20747 3.13469 -0.000914933 0.0124816 3.13474 4.45774 22 1 
576 1.20747 3.13469 -0.000914933 0.0124816 3.13474 4.45774 22 1 
577.333 1.20741 3.0939 -0.000809459 0.00938081 3.09395 4.35353 22 1 
578.667 1.20735 3.05204 -0.00122245 0.00656467 3.05209 4.24924 22 1 
580 1.20729 3.00959 -0.00214035 0.00403198 3.00963 4.14413 22 1 
581.333 1.20724 2.96701 -0.00356375 0.00181973 2.96705 4.0395 22 1 
582.667 1.20718 2.92481 -0.0054693 -5.6192e-05 2.92486 3.93736 22 1 
584 1.20712 2.88349 -0.00780821 -0.00159217 2.88354 3.83791 22 1 
585.333 1.20707 2.84347 -0.0105569 -0.00279227 2.84353 3.74306 22 1 
586.667 1.20702 2.80515 -0.013676 -0.00365105 2.80522 3.6525 22 1 
588 1.20697 2.76885 -0.0171025 -0.00418093 2.76894 3.56633 22 1 
589.333 1.20693 2.73499 -0.0207928 -0.00440181 2.7351 3.48711 22 1 
590.667 1.20689 2.70391 -0.024703 -0.00432815 2.70405 3.4152 22 1 
592 1.20685 2.67577 -0.0287765 -0.00397625 2.67595 3.35036 22 1 
593.333 1.20682 2.65075 -0.0329457 -0.00337836 2.65098 3.29304 22 1 
594.667 1.2068 2.629 -0.0371816 -0.0025684 2.62928 3.24422 22 1 
596 1.20677 2.61068 -0.0414134 -0.00155864 2.61102 3.20386 22 1 
597.333 1.20676 2.59583 -0.0455964 -0.000375765 2.59625 3.17134 22 1 
597.333 1.20676 2.59583 -0.0455964 -0.000375765 2.59625 3.17134 24 1 
598.667 1.20674 2.58445 -0.0497049 0.000949066 2.58494 3.14718 24 1 
600 1.20673 2.57648 -0.0536951 0.00240984 2.57705 3.13146 24 1 
601.333 1.20673 2.57189 -0.0575459 0.00400119 2.57255 3.12323 24 1 
602.667 1.20673 2.5707 -0.0612246 0.00569139 2.57144 3.12298 24 1 
604 1.20673 2.57275 -0.0647225 0.00747398 2.57359 3.13066 24 1 
605.333 1.20674 2.57793 -0.0680117 0.00934772 2.57886 3.14505 24 1 
606.667 1.20675 2.58614 -0.0711013 0.0113063 2.58716 3.16607 24 1 
608 1.20677 2.59715 -0.0739777 0.0133281 2.59826 3.19343 24 1 
609.333 1.20679 2.61088 -0.076621 0.0154184 2.61208 3.22673 24 1 
610.667 1.20681 2.62725 -0.0790426 0.0175646 2.62852 3.26554 24 1 
612 1.20683 2.64596 -0.0812372 0.0197566 2.64731 3.30932 24 1 
613.333 1.20686 2.66686 -0.0832051 0.0220043 2.66828 3.35752 24 1 
614.667 1.20689 2.68983 -0.0849446 0.0243002 2.69131 3.4096 24 1 
616 1.20692 2.71465 -0.0864688 0.0266292 2.71619 3.4655 24 1 
617.333 1.20695 2.74121 -0.0877718 0.028999 2.74281 3.5243 24 1 
618.667 1.20698 2.76936 -0.0888751 0.0314162 2.77101 3.58517 24 1 
618.667 1.20698 2.76936 -0.0888751 0.0314162 2.77101 3.58517 24 1 
620 1.20702 2.79883 -0.0897774 0.0338724 2.80051 3.64836 24 1 
621.333 1.20706 2.82952 -0.0904837 0.0363595 2.83124 3.71264 24 1 
622.667 1.20709 2.86134 -0.0910128 0.0388888 2.8631 3.77713 24 1 
624 1.20713 2.89409 -0.0913617 0.0414449 2.89587 3.84277 24 1 
625.333 1.20716 2.92761 -0.0915414 0.0440297 2.92941 3.90848 24 1 
626.667 1.2072 2.96178 -0.0915502 0.0466347 2.96361 3.97258 24 1 
628 1.20723 2.99645 -0.0914089 0.049254 2.99829 4.03595 24 1 
629.333 1.20727 3.03149 -0.0910975 0.0518848 3.03335 4.09795 24 1 
630.667 1.2073 3.06679 -0.0906218 0.0545082 3.06865 4.15802 24 1 
632 1.20733 3.10222 -0.0900042 0.0571239 3.10409 4.21586 24 1 
633.333 1.20736 3.13761 -0.0892272 0.0597203 3.13949 4.27157 24 1 
634.667 1.20739 3.17288 -0.0883065 0.0622986 3.17476 4.3251 24 1 
636 1.20742 3.20793 -0.087249 0.0648438 3.20981 4.37516 24 1 
637.333 1.20745 3.24265 -0.086055 0.0673473 3.24453 4.42228 24 1 
638.667 1.20747 3.27691 -0.0847335 0.069826 3.27879 4.46716 24 1 
640 1.2075 3.31061 -0.0833043 0.0722531 3.31249 4.50814 24 1 
640 1.2075 3.31061 -0.0833043 0.0722531 3.31249 4.50814 24 1 
641.333 1.20752 3.34367 -0.0817678 0.0746301 3.34554 4.54566 24 1 
642.667 1.20754 3.376 -0.0801293 0.0769619 3.37787 4.58102 24 1 
644 1.20755 3.40752 -0.0784013 0.0792338 3.40937 4.61351 24 1 
645.333 1.20757 3.43813 -0.0765809 0.0814246 3.43998 4.6419 24 1 
646.667 1.20758 3.46768 -0.0746632 0.0835436 3.46952 4.66727 24 1 
648 1.2076 3.49613 -0.072642 0.0855611 3.49797 4.68988 24 1 
649.333 1.20761 3.52345 -0.0705248 0.0874494 3.52527 4.70884 24 1 
650.667 1.20762 3.54951 -0.0683027 0.0892031 3.55131 4.7252 24 1 
652 1.20762 3.57418 -0.0659553 0.0907945 3.57597 4.73985 24 1 
653.333 1.20763 3.59751 -0.0635345 0.0922254 3.59927 4.75048 24 1 
654.667 1.20763 3.61933 -0.0610281 0.0934793 3.62108 4.75859 24 1 
656 1.20764 3.63958 -0.0584529 0.0945689 3.6413 4.76511 24 1 
657.333 1.20764 3.65836 -0.0558763 0.0955132 3.66005 4.76794 24 1 
658.667 1.20764 3.67549 -0.0532953 0.0963083 3.67715 4.76894 24 1 
660 1.20764 3.69093 -0.0507784 0.0969964 3.69257 4.76822 24 1 
661.333 1.20764 3.70481 -0.0483198 0.0975843 3.70642 4.76446 24 1 
661.333 1.20764 3.70481 -0.0483198 0.0975843 3.70642 4.76446 24 1 
662.667 1.20763 3.71709 -0.0459694 0.0980775 3.71867 4.75887 24 1 
664 1.20763 3.72764 -0.0437475 0.0984792 3.72921 4.75319 24 1 
665.333 1.20763 3.73679 -0.0416358 0.0987942 3.73834 4.74365 24 1 
666.667 1.20762 3.7444 -0.0396643 0.0990153 3.74593 4.73252 24 1 
668 1.20761 3.75046 -0.0378657 0.099142 3.75197 4.72106 24 1 
669.333 1.20761 3.75536 -0.0361726 0.0991433 3.75685 4.70554 24 1 
670.667 1.2076 3.75901 -0.0346958 0.0991011 3.76048 4.6896 24 1 
672 1.20759 3.76141 -0.0334175 0.098956 3.76287 4.6747 24 1 
673.333 1.20758 3.76299 -0.0323428 0.0987569 3.76443 4.65526 24 1 
674.667 1.20757 3.76362 -0.0315734 0.0985952 3.76505 4.63528 24 1 
676 1.20756 3.7634 -0.031065 0.0984229 3.76482 4.61584 24 1 
677.333 1.20754 3.76276 -0.0308852 0.0982883 3.76417 4.59162 24 1 
678.667 1.20753 3.76148 -0.0310582 0.0982658 3.76289 4.56878 24 1 
680 1.20752 3.75983 -0.0315266 0.0982944 3.76125 4.54568 24 1 
681.333 1.2075 3.75799 -0.0323564 0.0984022 3.75942 4.51949 24 1 
682.667 1.20749 3.75596 -0.0334765 0.0985701 3.7574 4.4937 24 1 
682.667 1.20749 3.75596 -0.0334765 0.0985701 3.7574 4.4937 31 1 
684 1.20747 3.75387 -0.0348394 0.0988071 3.75534 4.46829 31 1 
685.333 1.20746 3.7519 -0.0364563 0.0990445 3.75338 4.44071 31 1 
686.667 1.20744 3.75003 -0.0382774 0.0992526 3.75154 4.41295 31 1 
688 1.20743 3.7484 -0.0402509 0.0995037 3.74993 4.38686 31 1 
689.333 1.20741 3.74708 -0.0423524 0.0996707 3.74864 4.36013 31 1 
690.667 1.2074 3.74614 -0.0445943 0.099749 3.74774 4.33267 31 1 
692 1.20738 3.74561 -0.0469077 0.0998558 3.74724 4.30772 31 1 
693.333 1.20737 3.74557 -0.0492662 0.0998594 3.74723 4.28369 31 1 
694.667 1.20736 3.74604 -0.0517531 0.0998224 3.74773 4.25985 31 1 
696 1.20735 3.74707 -0.0542821 0.0997626 3.74879 4.23747 31 1 
697.333 1.20734 3.74869 -0.0568551 0.0997118 3.75045 4.21828 31 1 
698.667 1.20733 3.75089 -0.0595007 0.0996172 3.75268 4.20099 31 1 
700 1.20732 3.75373 -0.0622205 0.0995445 3.75557 4.18369 31 1 
701.333 1.20731 3.75717 -0.064922 0.0995014 3.75905 4.17092 31 1 
702.667 1.2073 3.76123 -0.0676924 0.0994921 3.76316 4.16086 31 1 
704 1.2073 3.76596 -0.0704739 0.0994421 3.76793 4.15096 31 1 
704 1.2073 3.76596 -0.0704739 0.0994421 3.76793 4.15096 31 1 
705.333 1.20729 3.77129 -0.0732738 0.0994967 3.77331 4.14464 31 1 
706.667 1.20729 3.77724 -0.0760058 0.0995491 3.77932 4.14135 31 1 
708 1.20729 3.7838 -0.0787356 0.0995975 3.78593 4.13972 31 1 
709.333 1.20729 3.79097 -0.0814215 0.099637 3.79316 4.13983 31 1 
710.667 1.20729 3.7988 -0.0839649 0.0997842 3.80104 4.14235 31 1 
712 1.2073 3.80718 -0.0864515 0.0998469 3.80947 4.148 31 1 
713.333 1.2073 3.81614 -0.08892 0.0999069 3.81848 4.15438 31 1 
714.667 1.2073 3.82574 -0.0911471 0.100047 3.82814 4.16131 31 1 
716 1.20731 3.83589 -0.0933131 0.100153 3.83834 4.17183 31 1 
717.333 1.20732 3.84659 -0.0953827 0.100208 3.84908 4.18356 31 1 
718.667 1.20732 3.85793 -0.0972483 0.100377 3.86047 4.19356 31 1 
720 1.20733 3.86987 -0.0990213 0.100579 3.87245 4.20671 31 1 
721.333 1.20734 3.88227 -0.100715 0.100716 3.88488 4.22346 31 1 
722.667 1.20735 3.89522 -0.102291 0.100978 3.89787 4.23688 31 1 
724 1.20735 3.90876 -0.103689 0.101294 3.91145 4.25069 31 1 
725.333 1.20736 3.92278 -0.105019 0.101631 3.92551 4.26969 31 1 
725.333 1.20736 3.92278 -0.105019 0.101631 3.92551 4.26969 31 1 
726.667 1.20737 3.93731 -0.106287 0.102087 3.94008 4.28657 31 1 
728 1.20738 3.95248 -0.107424 0.102627 3.95527 4.30036 31 1 
729.333 1.20739 3.96798 -0.108486 0.103249 3.97081 4.32022 31 1 
730.667 1.2074 3.98381 -0.109479 0.103939 3.98667 4.34089 31 1 
732 1.20741 4.00018 -0.11041 0.104757 4.00308 4.35548 31 1 
733.333 1.20742 4.01699 -0.111247 0.105602 4.01993 4.37428 31 1 
734.667 1.20744 4.03404 -0.111995 0.106674 4.03701 4.39883 31 1 
736 1.20744 4.05158 -0.112666 0.10771 4.05458 4.41537 31 1 
737.333 1.20745 4.06952 -0.113426 0.108871 4.07256 4.43257 31 1 
738.667 1.20747 4.08742 -0.113869 0.110167 4.09049 4.46016 31 1 
740 1.20748 4.1056 -0.114317 0.111444 4.1087 4.48075 31 1 
741.333 1.20749 4.12429 -0.114958 0.112747 4.12744 4.49458 31 1 
742.667 1.2075 4.14311 -0.115101 0.114259 4.14629 4.52225 31 1 
744 1.20752 4.1621 -0.115363 0.115939 4.16532 4.55079 31 1 
745.333 1.20753 4.18132 -0.115787 0.117169 4.18458 4.56551 31 1 
746.667 1.20754 4.20048 -0.115867 0.118891 4.20376 4.58871 31 1 
746.667 1.20754 4.20048 -0.115867 0.118891 4.20376 4.58871 31 1 
748 1.20756 4.21986 -0.115834 0.120646 4.22318 4.61935 31 1 
749.333 1.20757 4.23952 -0.116078 0.122192 4.24288 4.64136 31 1 
750.667 1.20758 4.25935 -0.116021 0.123952 4.26274 4.6621 31 1 
752 1.2076 4.27905 -0.115923 0.125727 4.28248 4.69174 31 1 
753.333 1.20761 4.29871 -0.115884 0.127547 4.30217 4.72041 31 1 
754.667 1.20762 4.31874 -0.115928 0.129237 4.32223 4.73846 31 1 
756 1.20764 4.33885 -0.115763 0.131268 4.34239 4.76677 31 1 
757.333 1.20766 4.35861 -0.115389 0.133144 4.36218 4.8059 31 1 
758.667 1.20767 4.37881 -0.115613 0.135048 4.38242 4.82275 31 1 
760 1.20768 4.39922 -0.115485 0.137012 4.40288 4.84447 31 1 
761.333 1.20771 4.4187 -0.115221 0.139155 4.4224 4.89282 31 1 
762.667 1.20772 4.43907 -0.115236 0.141089 4.44282 4.91171 31 1 
764 1.20773 4.45961 -0.115416 0.143237 4.46342 4.92928 31 1 
765.333 1.20776 4.47902 -0.115235 0.145593 4.48288 4.97942 31 1 
766.667 1.20777 4.49941 -0.115384 0.147629 4.50332 5.00463 31 1 
768 1.20778 4.52003 -0.115777 0.149777 4.524 5.01867 31 1 
768 1.20778 4.52003 -0.115777 0.149777 4.524 5.01867 32 1 
769.333 1.20781 4.53891 -0.115922 0.152443 4.54296 5.06813 32 1 
770.667 1.20782 4.55994 -0.116151 0.154672 4.56405 5.09069 32 1 
772 1.20783 4.58023 -0.116829 0.15712 4.58442 5.11632 32 1 
773.333 1.20786 4.59903 -0.117514 0.159793 4.60331 5.15943 32 1 
774.667 1.20786 4.62031 -0.118025 0.162454 4.62468 5.16883 32 1 
776 1.20788 4.64017 -0.119078 0.164825 4.64463 5.20753 32 1 
777.333 1.20791 4.65876 -0.120136 0.168097 4.66335 5.25231 32 1 
778.667 1.2079 4.68046 -0.121281 0.171113 4.68517 5.24104 32 1 
780 1.20793 4.69979 -0.122676 0.174256 4.70463 5.29029 32 1 
781.333 1.20795 4.7196 -0.124255 0.177676 4.72459 5.33196 32 1 
782.667 1.20794 4.74218 -0.126449 0.180753 4.74732 5.314 32 1 
784 1.20797 4.76162 -0.128396 0.184678 4.76694 5.3679 32 1 
785.333 1.20799 4.78118 -0.130022 0.188836 4.78668 5.40588 32 1 
786.667 1.20798 4.80076 -0.133946 0.193621 4.80654 5.38274 32 1 
788 1.20797 4.82352 -0.137367 0.19699 4.8295 5.37142 32 1 
789.333 1.20802 4.84654 -0.140768 0.203233 4.85285 5.44887 32 1 
790.667 1.20803 4.8701 -0.142983 0.209448 4.87671 5.47637 32 1 
792 1.208 4.89137 -0.148052 0.21624 4.8984 5.42511 32 1 
793.333 1.20799 4.91358 -0.153637 0.222203 4.92101 5.40564 32 1 
794.667 1.20801 4.94038 -0.159364 0.231512 4.94839 5.43663 32 1 
796 1.20802 4.96938 -0.166025 0.242563 4.97809 5.4512 32 1 
797.333 1.208 4.99628 -0.171419 0.25411 5.00571 5.41715 32 1 
798.667 1.20793 5.02995 -0.174598 0.267666 5.04013 5.29464 32 1 
800 1.20787 5.05338 -0.173435 0.272355 5.06373 5.17959 32 1 
