24.4525;r ;Density                 ;Velocity u              ;Velocity v              ;Velocity w              ;|Velocity|              ;Pressure                ;Distribution            ;Levels                  ;
0 1.20407 9.99855 -6.52823e-05 -2.84881e-05 9.99855 -1.67942 1 1 
2 1.20409 9.99788 -8.17706e-05 -6.80235e-05 9.99788 -1.63588 1 1 
4 1.20411 9.99786 -0.000125126 -0.000142554 9.99786 -1.61301 1 1 
6 1.20412 9.9981 -0.000173798 -0.000220623 9.9981 -1.58937 1 1 
8 1.20412 9.9982 -0.000230531 -0.00029914 9.9982 -1.59545 1 1 
10 1.2041 9.9983 -0.000310888 -0.000369449 9.9983 -1.6325 1 1 
12 1.2041 9.99852 -0.000384386 -0.000472805 9.99852 -1.62516 1 1 
14 1.20408 10.0001 -0.00049048 -0.000590773 10.0001 -1.65509 1 1 
16 1.2041 9.99948 -0.000523026 -0.000646313 9.99948 -1.62769 1 1 
18 1.2041 9.99841 -0.00060701 -0.000758057 9.99841 -1.62871 1 1 
20 1.20408 9.9993 -0.000739324 -0.000906161 9.9993 -1.65412 1 1 
22 1.20411 10 -0.000796709 -0.000989995 10 -1.60003 1 1 
24 1.2041 10.0017 -0.000873541 -0.00108464 10.0017 -1.61968 1 1 
26 1.20409 10.0015 -0.000968904 -0.00118815 10.0015 -1.63815 1 1 
28 1.20409 10.0005 -0.00108793 -0.00131057 10.0005 -1.63522 1 1 
30 1.20408 10.0008 -0.00114858 -0.00140412 10.0008 -1.66482 1 1 
32 1.20408 9.99993 -0.00126713 -0.00154175 9.99994 -1.65871 1 1 
32 1.20408 9.99993 -0.00126713 -0.00154175 9.99994 -1.65871 1 1 
34 1.20408 9.99987 -0.00135206 -0.00165164 9.99987 -1.67004 1 1 
36 1.20407 10.0002 -0.00144206 -0.00175585 10.0002 -1.68536 1 1 
38 1.20405 10.0003 -0.00149734 -0.00184207 10.0003 -1.71274 1 1 
40 1.20406 9.99989 -0.0015559 -0.00193343 9.99989 -1.6939 1 1 
42 1.20408 10.0005 -0.0016273 -0.00202319 10.0005 -1.66969 1 1 
44 1.20408 10.0003 -0.00167725 -0.00208486 10.0003 -1.66859 1 1 
46 1.20406 9.9994 -0.00184036 -0.00225851 9.9994 -1.68941 1 1 
48 1.20404 9.99962 -0.00193819 -0.00238155 9.99962 -1.73942 1 1 
50 1.20405 10.0001 -0.00196752 -0.00241784 10.0001 -1.71187 1 1 
52 1.20405 10.0003 -0.00210917 -0.00258916 10.0003 -1.71162 1 1 
54 1.20403 9.99948 -0.00219672 -0.00268666 9.99948 -1.74954 1 1 
56 1.20403 9.99911 -0.00217924 -0.00268189 9.99911 -1.7543 1 1 
58 1.20402 9.99944 -0.00232143 -0.00285872 9.99945 -1.77206 1 1 
60 1.20401 10.0002 -0.00243573 -0.00299006 10.0002 -1.78121 1 1 
62 1.20403 9.99992 -0.0024199 -0.00299414 9.99992 -1.74636 1 1 
64 1.20403 10.0006 -0.00246296 -0.00303708 10.0006 -1.7552 1 1 
64 1.20403 10.0006 -0.00246296 -0.00303708 10.0006 -1.7552 2 1 
66 1.20404 10.0005 -0.00264349 -0.00324707 10.0005 -1.73713 2 1 
68 1.20403 10.0009 -0.00274587 -0.00336242 10.0009 -1.75747 2 1 
70 1.20402 10.0009 -0.002783 -0.00345087 10.0009 -1.77745 2 1 
72 1.20401 9.99934 -0.00289644 -0.00360114 9.99934 -1.79426 2 1 
74 1.20398 9.99887 -0.00294424 -0.00364911 9.99887 -1.84938 2 1 
76 1.20399 9.99897 -0.00289901 -0.00363966 9.99897 -1.82707 2 1 
78 1.20399 10.0004 -0.00296779 -0.00372698 10.0004 -1.82963 2 1 
80 1.20399 10.0006 -0.00313612 -0.00392029 10.0006 -1.8251 2 1 
82 1.20399 10.0004 -0.00315882 -0.00396899 10.0004 -1.81958 2 1 
84 1.204 10.0001 -0.00316915 -0.00397832 10.0001 -1.80558 2 1 
86 1.20401 10.0002 -0.00339076 -0.00420353 10.0002 -1.79313 2 1 
88 1.20399 10.0005 -0.00355247 -0.00439733 10.0005 -1.8253 2 1 
90 1.20398 9.99946 -0.0034303 -0.00430847 9.99947 -1.83515 2 1 
92 1.20397 9.99878 -0.00352167 -0.00442407 9.99879 -1.86189 2 1 
94 1.20396 9.9985 -0.00374212 -0.00465158 9.99851 -1.87187 2 1 
96 1.20397 9.99859 -0.00367633 -0.00459948 9.99859 -1.85657 2 1 
96 1.20397 9.99859 -0.00367633 -0.00459948 9.99859 -1.85657 2 1 
98 1.20396 9.99991 -0.00361669 -0.00453362 9.99991 -1.87638 2 1 
100 1.20397 10.0004 -0.00374395 -0.00467597 10.0004 -1.86359 2 1 
102 1.20399 9.99971 -0.00395654 -0.00490792 9.99971 -1.82907 2 1 
104 1.20399 9.9991 -0.00394719 -0.00491616 9.9991 -1.82232 2 1 
106 1.20398 9.9992 -0.00389939 -0.00488548 9.9992 -1.84265 2 1 
108 1.20398 9.99837 -0.00423418 -0.00521863 9.99837 -1.84861 2 1 
110 1.20395 9.99881 -0.0044125 -0.00540357 9.99881 -1.88874 2 1 
112 1.20396 9.99893 -0.0042703 -0.0053027 9.99893 -1.87794 2 1 
114 1.20399 9.99768 -0.00422983 -0.00528292 9.99768 -1.82984 2 1 
116 1.20397 9.99977 -0.00449323 -0.00554337 9.99977 -1.85297 2 1 
118 1.20398 9.99999 -0.00453854 -0.00559623 10 -1.84482 2 1 
120 1.20399 9.99849 -0.00425566 -0.00532911 9.99849 -1.83125 2 1 
122 1.20397 9.99902 -0.0041274 -0.00523086 9.99902 -1.86176 2 1 
124 1.20398 9.99774 -0.00434127 -0.00547771 9.99774 -1.84123 2 1 
126 1.20401 9.9966 -0.00458885 -0.00572405 9.9966 -1.79397 2 1 
128 1.20398 9.99798 -0.00445202 -0.00557694 9.99798 -1.83807 2 1 
128 1.20398 9.99798 -0.00445202 -0.00557694 9.99798 -1.83807 10 1 
130 1.204 9.99741 -0.00427542 -0.00545793 9.99741 -1.80428 10 1 
132 1.204 9.99826 -0.00423665 -0.00544284 9.99826 -1.80725 10 1 
134 1.20399 9.99768 -0.00421505 -0.00543889 9.99768 -1.82485 10 1 
136 1.20401 9.9947 -0.00393647 -0.0051631 9.9947 -1.79109 10 1 
138 1.20399 9.99465 -0.00363344 -0.00485125 9.99465 -1.81875 10 1 
140 1.20402 9.9952 -0.00373024 -0.00497092 9.9952 -1.76652 10 1 
142 1.20403 9.99552 -0.00429547 -0.00549651 9.99552 -1.74593 10 1 
144 1.20403 9.99578 -0.00486452 -0.00608723 9.99579 -1.75609 10 1 
146 1.20405 9.99521 -0.00500542 -0.00623874 9.99521 -1.7141 10 1 
148 1.20405 9.99281 -0.00469119 -0.00592189 9.99281 -1.71858 10 1 
150 1.20403 9.99213 -0.00419803 -0.00545626 9.99214 -1.76056 10 1 
152 1.20405 9.99195 -0.00387037 -0.00513191 9.99195 -1.71966 10 1 
154 1.20407 9.99144 -0.00369531 -0.0049463 9.99145 -1.68382 10 1 
156 1.20407 9.99302 -0.00371069 -0.00496849 9.99302 -1.67663 10 1 
158 1.20409 9.99309 -0.00374127 -0.00500465 9.9931 -1.64128 10 1 
160 1.20409 9.99123 -0.00373369 -0.00500852 9.99123 -1.64026 10 1 
160 1.20409 9.99123 -0.00373369 -0.00500852 9.99123 -1.64026 10 1 
162 1.20407 9.99144 -0.00377616 -0.00507454 9.99144 -1.67201 10 1 
164 1.20411 9.99007 -0.00381785 -0.00508868 9.99007 -1.61367 10 1 
166 1.20416 9.98786 -0.00387068 -0.00512774 9.98787 -1.51725 10 1 
168 1.20412 9.98997 -0.00391082 -0.0051929 9.98997 -1.5846 10 1 
170 1.20413 9.98794 -0.00391598 -0.00521029 9.98794 -1.57475 10 1 
172 1.20414 9.98701 -0.00390648 -0.00518193 9.98701 -1.56137 10 1 
174 1.20413 9.98798 -0.00383636 -0.0051344 9.98798 -1.56326 10 1 
176 1.20421 9.98495 -0.00385159 -0.00512519 9.98495 -1.43465 10 1 
178 1.2042 9.98471 -0.00386354 -0.00515258 9.98471 -1.44665 10 1 
180 1.2042 9.98345 -0.00390985 -0.00523483 9.98345 -1.44823 10 1 
182 1.2042 9.98044 -0.00399297 -0.00532077 9.98044 -1.43743 10 1 
184 1.20419 9.9797 -0.00403273 -0.00538228 9.9797 -1.45779 10 1 
186 1.20425 9.98013 -0.00401093 -0.0053528 9.98013 -1.35022 10 1 
188 1.20428 9.97959 -0.00396888 -0.00529689 9.97959 -1.30541 10 1 
190 1.20427 9.97888 -0.00404057 -0.00536074 9.97888 -1.32613 10 1 
192 1.20426 9.97792 -0.00390738 -0.00525836 9.97792 -1.32814 10 1 
194 1.20429 9.97463 -0.00400883 -0.00536567 9.97464 -1.28371 10 1 
196 1.20431 9.97197 -0.00410936 -0.00544625 9.97197 -1.23975 10 1 
198 1.20432 9.97118 -0.00400672 -0.00532042 9.97118 -1.23674 10 1 
200 1.20436 9.96961 -0.00415109 -0.00548196 9.96961 -1.15113 10 1 
202 1.20438 9.96922 -0.00407236 -0.00546418 9.96922 -1.12462 10 1 
204 1.20435 9.96953 -0.00403839 -0.00541789 9.96954 -1.16934 10 1 
206 1.20442 9.96566 -0.00422281 -0.00559184 9.96566 -1.04364 10 1 
208 1.20445 9.96426 -0.00424205 -0.00556167 9.96426 -0.992894 10 1 
210 1.20441 9.96484 -0.00414582 -0.00546089 9.96485 -1.0677 10 1 
212 1.20448 9.95802 -0.00413898 -0.00552299 9.95803 -0.938187 10 1 
214 1.20447 9.95393 -0.00411833 -0.00550318 9.95393 -0.956315 10 1 
216 1.20447 9.95051 -0.00420914 -0.0055638 9.95051 -0.951253 10 1 
218 1.20456 9.94571 -0.00437558 -0.0057095 9.94571 -0.78717 10 1 
220 1.20456 9.94955 -0.0043433 -0.0057493 9.94955 -0.793202 10 1 
222 1.2046 9.94964 -0.00429421 -0.00571098 9.94965 -0.715638 10 1 
224 1.20463 9.94459 -0.00424958 -0.00556163 9.9446 -0.672847 10 1 
224 1.20463 9.94459 -0.00424958 -0.00556163 9.9446 -0.672847 10 1 
226 1.20465 9.93953 -0.004268 -0.00557907 9.93953 -0.625214 10 1 
228 1.20468 9.92981 -0.00435279 -0.00572627 9.92981 -0.57719 10 1 
230 1.20469 9.92248 -0.00444647 -0.00585365 9.92248 -0.55131 10 1 
232 1.20473 9.92328 -0.00445345 -0.00585059 9.92328 -0.492805 10 1 
234 1.20479 9.92054 -0.00442007 -0.00574884 9.92055 -0.373263 10 1 
236 1.20489 9.91241 -0.00441854 -0.00578041 9.91241 -0.196836 10 1 
238 1.20484 9.9099 -0.0044105 -0.00580506 9.90991 -0.294014 10 1 
240 1.20497 9.89762 -0.00461498 -0.00600655 9.89763 -0.0558351 10 1 
242 1.205 9.88911 -0.00466907 -0.00605042 9.88911 0.00786825 10 1 
244 1.20495 9.88711 -0.00456344 -0.00595201 9.88711 -0.0962111 10 1 
246 1.20516 9.87506 -0.00460473 -0.00598743 9.87507 0.280035 10 1 
248 1.2052 9.86591 -0.00451343 -0.00586627 9.86591 0.354678 10 1 
250 1.20523 9.8537 -0.00461871 -0.00597939 9.85371 0.420487 10 1 
252 1.20532 9.84197 -0.00486966 -0.00622172 9.84198 0.571058 10 1 
254 1.20544 9.82899 -0.00475032 -0.00608173 9.829 0.793339 10 1 
256 1.20552 9.8146 -0.00477039 -0.00611593 9.81461 0.936867 10 1 
256 1.20552 9.8146 -0.00477039 -0.00611593 9.81461 0.936867 11 1 
258 1.20559 9.79813 -0.00482948 -0.00620324 9.79814 1.06677 11 1 
260 1.20581 9.77935 -0.00484247 -0.00620643 9.77935 1.45495 11 1 
262 1.20592 9.75724 -0.00497563 -0.00631008 9.75725 1.66833 11 1 
264 1.20594 9.7358 -0.00494757 -0.00625208 9.7358 1.69267 11 1 
266 1.2062 9.71283 -0.00493735 -0.0062771 9.71284 2.16715 11 1 
268 1.20661 9.67377 -0.00505598 -0.00641345 9.67378 2.90603 11 1 
270 1.20654 9.64649 -0.00519989 -0.00649666 9.64651 2.7758 11 1 
272 1.2068 9.60518 -0.00516295 -0.00643347 9.60519 3.24963 11 1 
274 1.20735 9.55129 -0.005172 -0.00649164 9.5513 4.24662 11 1 
276 1.20738 9.51331 -0.00524262 -0.00653555 9.51332 4.29932 11 1 
278 1.20779 9.45439 -0.00528378 -0.00656148 9.4544 5.04715 11 1 
280 1.20847 9.39365 -0.00531877 -0.00658922 9.39367 6.2763 11 1 
282 1.20893 9.31487 -0.00532322 -0.00657294 9.31502 7.09511 11 1 
284 1.20933 9.19941 -0.00534886 -0.0066163 9.19966 7.81512 11 1 
286 1.20983 9.08397 -0.00541229 -0.00665185 9.08411 8.72425 11 1 
288 1.21067 8.97479 -0.00545879 -0.0066929 8.97481 10.2391 11 1 
288 1.21067 8.97479 -0.00545879 -0.0066929 8.97481 10.2391 11 1 
290 1.21166 8.8712 -0.00544445 -0.00667117 8.87125 12.0266 11 1 
292 1.21247 8.73787 -0.00551674 -0.00673314 8.73806 13.5013 11 1 
294 1.21315 8.56128 -0.0054938 -0.0067129 8.56171 14.7135 11 1 
296 1.21409 8.37693 -0.00545479 -0.00663621 8.37725 16.4107 11 1 
298 1.20869 8.15389 -0.00549968 -0.00665673 8.15404 6.66908 11 1 
300 1.19935 8.05975 -0.00543281 -0.00659738 8.05993 -10.2075 11 1 
302 1.19633 8.01829 -0.00551528 -0.00667321 8.01839 -15.6525 11 1 
304 1.19706 7.86357 -0.0055862 -0.00671635 7.86376 -14.3419 11 1 
306 1.19796 7.69685 -0.00553067 -0.00665762 7.69714 -12.7144 11 1 
308 1.19868 7.5443 -0.00552309 -0.00663745 7.54459 -11.4089 11 1 
310 1.19913 7.42365 -0.00549832 -0.00659837 7.42386 -10.5972 11 1 
312 1.19971 7.29868 -0.00555335 -0.00667014 7.29876 -9.55953 11 1 
314 1.20027 7.20354 -0.00567437 -0.00677836 7.2036 -8.54029 11 1 
316 1.20068 7.12927 -0.005755 -0.00684198 7.1293 -7.79505 11 1 
318 1.20104 7.03955 -0.00575915 -0.00685877 7.03958 -7.1527 11 1 
320 1.20135 6.97706 -0.00570891 -0.00680183 6.97709 -6.59589 11 1 
320 1.20135 6.97706 -0.00570891 -0.00680183 6.97709 -6.59589 15 1 
322 1.20166 6.93343 -0.0057933 -0.00688372 6.93345 -6.03172 15 1 
324 1.20197 6.87672 -0.0058912 -0.00698385 6.87673 -5.47676 15 1 
326 1.2022 6.83071 -0.00588419 -0.00697038 6.83072 -5.05881 15 1 
328 1.20238 6.7898 -0.00587444 -0.00695888 6.78982 -4.72575 15 1 
330 1.20249 6.74651 -0.00592946 -0.0070071 6.74654 -4.54031 15 1 
332 1.20267 6.71774 -0.00596182 -0.00704018 6.71776 -4.20749 15 1 
334 1.20291 6.6839 -0.00595301 -0.00704331 6.68392 -3.78399 15 1 
336 1.20291 6.6408 -0.00597529 -0.00705735 6.64083 -3.76994 15 1 
338 1.20295 6.61287 -0.00602492 -0.00710142 6.6129 -3.6968 15 1 
340 1.20318 6.59338 -0.00611051 -0.0072102 6.5934 -3.28917 15 1 
342 1.20329 6.57211 -0.00614385 -0.00725029 6.57213 -3.09288 15 1 
344 1.20326 6.54429 -0.00609427 -0.00719059 6.54431 -3.13928 15 1 
346 1.20326 6.51476 -0.00609605 -0.00721443 6.51477 -3.13435 15 1 
348 1.20341 6.50737 -0.00621629 -0.00736674 6.50738 -2.87489 15 1 
350 1.20355 6.50539 -0.00628914 -0.0074351 6.5054 -2.62273 15 1 
352 1.2035 6.48528 -0.00627539 -0.00741 6.48529 -2.71434 15 1 
354 1.2035 6.47197 -0.00631165 -0.00747386 6.47198 -2.7052 15 1 
356 1.20363 6.4708 -0.00644501 -0.00764704 6.47081 -2.48341 15 1 
358 1.20366 6.46822 -0.00652455 -0.00771657 6.46823 -2.41953 15 1 
360 1.20367 6.46891 -0.00648185 -0.00766308 6.46892 -2.39374 15 1 
362 1.20373 6.46865 -0.00644279 -0.00766314 6.46866 -2.30049 15 1 
364 1.20377 6.46643 -0.00651304 -0.00774732 6.46644 -2.21878 15 1 
366 1.20378 6.46813 -0.00659843 -0.00781327 6.46814 -2.20235 15 1 
368 1.20378 6.47183 -0.00656966 -0.00780934 6.47184 -2.20808 15 1 
370 1.20384 6.47865 -0.00649339 -0.00776736 6.47866 -2.10117 15 1 
372 1.20388 6.48273 -0.00650914 -0.00777983 6.48274 -2.02009 15 1 
374 1.20388 6.48193 -0.00656981 -0.00784763 6.48194 -2.02845 15 1 
376 1.20389 6.48544 -0.00654681 -0.00784387 6.48544 -1.99942 15 1 
378 1.20391 6.49081 -0.00649612 -0.00779163 6.49082 -1.96469 15 1 
380 1.20396 6.49627 -0.00650542 -0.00779778 6.49629 -1.88736 15 1 
382 1.20399 6.50066 -0.00654213 -0.00784715 6.50067 -1.82862 15 1 
384 1.20395 6.4977 -0.00653928 -0.00785078 6.49771 -1.89109 15 1 
384 1.20395 6.4977 -0.00653928 -0.00785078 6.49771 -1.89109 16 1 
386 1.20395 6.49718 -0.00648795 -0.00780973 6.49719 -1.90387 16 1 
388 1.20399 6.50409 -0.00646538 -0.00779754 6.5041 -1.82925 16 1 
390 1.20402 6.5077 -0.00649618 -0.00782176 6.50771 -1.77405 16 1 
392 1.20402 6.50674 -0.00649572 -0.00783696 6.50675 -1.76804 16 1 
394 1.204 6.50384 -0.00648984 -0.00786889 6.50385 -1.80068 16 1 
396 1.20401 6.5015 -0.00651817 -0.007896 6.50151 -1.78317 16 1 
398 1.20404 6.50291 -0.0065088 -0.00788079 6.50292 -1.74317 16 1 
400 1.20403 6.50386 -0.00645327 -0.00787533 6.50387 -1.75453 16 1 
402 1.20403 6.50247 -0.00645903 -0.00791703 6.50248 -1.75282 16 1 
404 1.20405 6.50097 -0.00649783 -0.00794269 6.50098 -1.72408 16 1 
406 1.20405 6.49941 -0.00644453 -0.00790591 6.49942 -1.72014 16 1 
408 1.20402 6.49775 -0.00636649 -0.00786301 6.49776 -1.7758 16 1 
410 1.204 6.495 -0.00638149 -0.00789766 6.49501 -1.80848 16 1 
412 1.20405 6.49359 -0.00642939 -0.00797661 6.4936 -1.71732 16 1 
414 1.20409 6.49541 -0.0064571 -0.00803394 6.49542 -1.65166 16 1 
416 1.20405 6.49645 -0.00647698 -0.00808167 6.49646 -1.7145 16 1 
416 1.20405 6.49645 -0.00647698 -0.00808167 6.49646 -1.7145 16 1 
418 1.20403 6.49766 -0.00647041 -0.00811661 6.49767 -1.76019 16 1 
420 1.20404 6.5004 -0.00644195 -0.00811101 6.50041 -1.72603 16 1 
422 1.20406 6.50042 -0.00643268 -0.00809862 6.50043 -1.69061 16 1 
424 1.20405 6.49835 -0.00645558 -0.00813686 6.49836 -1.71061 16 1 
426 1.20404 6.499 -0.00652689 -0.00824905 6.49901 -1.74263 16 1 
428 1.20405 6.50707 -0.00665016 -0.00839295 6.50708 -1.72232 16 1 
430 1.20406 6.52157 -0.00674658 -0.00848891 6.52158 -1.69166 16 1 
432 1.20406 6.53393 -0.00673917 -0.00847689 6.53393 -1.69014 16 1 
434 1.20406 6.54107 -0.00663398 -0.00835315 6.54108 -1.70128 16 1 
436 1.20406 6.54534 -0.00655907 -0.00825847 6.54535 -1.69831 16 1 
438 1.20408 6.54741 -0.00658795 -0.00828681 6.54742 -1.66257 16 1 
440 1.20409 6.552 -0.00668975 -0.00840238 6.55201 -1.64327 16 1 
442 1.20408 6.56434 -0.00684665 -0.00859865 6.56435 -1.66487 16 1 
444 1.20407 6.58401 -0.00699929 -0.00881924 6.58403 -1.67511 16 1 
446 1.20408 6.6099 -0.00707861 -0.00893466 6.60992 -1.66935 16 1 
448 1.20408 6.63997 -0.00704947 -0.00889484 6.63999 -1.6674 16 1 
448 1.20408 6.63997 -0.00704947 -0.00889484 6.63999 -1.6674 17 1 
450 1.20411 6.66905 -0.00689635 -0.00873145 6.66906 -1.61047 17 1 
452 1.20417 6.69008 -0.00670527 -0.00854118 6.69009 -1.502 17 1 
454 1.20416 6.70148 -0.00662576 -0.00845821 6.70149 -1.52035 17 1 
456 1.20408 6.7127 -0.0066971 -0.0085303 6.71271 -1.65706 17 1 
458 1.20412 6.73228 -0.00684362 -0.0087304 6.73229 -1.59723 17 1 
460 1.20423 6.76182 -0.00703022 -0.00900026 6.76184 -1.38268 17 1 
462 1.20421 6.80184 -0.00719209 -0.00920411 6.80188 -1.42877 17 1 
464 1.2041 6.84815 -0.00722338 -0.0092528 6.84818 -1.6231 17 1 
466 1.20417 6.89578 -0.00714038 -0.00916891 6.89581 -1.50384 17 1 
468 1.2043 6.942 -0.00700972 -0.00900843 6.94203 -1.25885 17 1 
470 1.20427 6.97738 -0.00684072 -0.00879142 6.9774 -1.32362 17 1 
472 1.20419 6.99641 -0.0066082 -0.00848414 6.99642 -1.47206 17 1 
474 1.20422 7.00503 -0.00634322 -0.00814653 7.00504 -1.40239 17 1 
476 1.2043 7.00645 -0.0061173 -0.00787475 7.00646 -1.26367 17 1 
478 1.20434 6.99664 -0.00600792 -0.00771781 6.99665 -1.18617 17 1 
480 1.2043 6.97641 -0.00603136 -0.007712 6.97642 -1.27267 17 1 
480 1.2043 6.97641 -0.00603136 -0.007712 6.97642 -1.27267 17 1 
482 1.20419 6.95796 -0.00611573 -0.00781935 6.95797 -1.46757 17 1 
484 1.20426 6.94956 -0.00622299 -0.00797317 6.94957 -1.33584 17 1 
486 1.20445 6.9501 -0.00639797 -0.00818437 6.95011 -0.999718 17 1 
488 1.20439 6.96279 -0.00665579 -0.00849036 6.9628 -1.0991 17 1 
490 1.20425 6.99295 -0.00694529 -0.00887489 6.99298 -1.35554 17 1 
492 1.20437 7.04278 -0.0072708 -0.00928616 7.04282 -1.13005 17 1 
494 1.20457 7.11349 -0.00760619 -0.00965759 7.11355 -0.770651 17 1 
496 1.20458 7.19825 -0.00785319 -0.00996953 7.19833 -0.755714 17 1 
498 1.2045 7.29093 -0.00800523 -0.0102041 7.29103 -0.896379 17 1 
500 1.20448 7.39911 -0.00816372 -0.0103823 7.39922 -0.930406 17 1 
502 1.20461 7.52454 -0.00835461 -0.0105867 7.52467 -0.702033 17 1 
504 1.20481 7.6562 -0.00850502 -0.0107711 7.65634 -0.33659 17 1 
506 1.2048 7.78833 -0.00858234 -0.0108482 7.78849 -0.353813 17 1 
508 1.20463 7.92356 -0.00859937 -0.0108368 7.92372 -0.675399 17 1 
510 1.20464 8.06469 -0.00858319 -0.0108099 8.06485 -0.645622 17 1 
512 1.20484 8.21148 -0.00857206 -0.0107898 8.21164 -0.280674 17 1 
512 1.20484 8.21148 -0.00857206 -0.0107898 8.21164 -0.280674 25 1 
514 1.20496 8.35713 -0.0085847 -0.0107512 8.35728 -0.0756953 25 1 
516 1.20488 8.49374 -0.00856506 -0.0106891 8.49389 -0.219068 25 1 
518 1.20471 8.62456 -0.00848973 -0.0106001 8.62469 -0.527874 25 1 
520 1.20468 8.75564 -0.00841631 -0.0104804 8.75576 -0.576193 25 1 
522 1.20484 8.88588 -0.00835225 -0.0103504 8.88599 -0.293898 25 1 
524 1.20492 9.00862 -0.008227 -0.0101787 9.00872 -0.144896 25 1 
526 1.20481 9.11785 -0.00806263 -0.00994574 9.11794 -0.339421 25 1 
528 1.20465 9.21704 -0.00791744 -0.00972116 9.21712 -0.634305 25 1 
530 1.20461 9.31227 -0.0077891 -0.00954022 9.31233 -0.700115 25 1 
532 1.20474 9.40275 -0.00764242 -0.00933459 9.4028 -0.466241 25 1 
534 1.20483 9.48292 -0.00748718 -0.00910786 9.48296 -0.306662 25 1 
536 1.20475 9.54822 -0.00735161 -0.00891612 9.54825 -0.457062 25 1 
538 1.20459 9.60136 -0.00721852 -0.00872423 9.60139 -0.734856 25 1 
540 1.2045 9.64872 -0.00709066 -0.00852268 9.64874 -0.894211 25 1 
542 1.20458 9.69123 -0.00696166 -0.00832985 9.69125 -0.751054 25 1 
544 1.2047 9.72711 -0.00683516 -0.00815195 9.72712 -0.53457 25 1 
544 1.2047 9.72711 -0.00683516 -0.00815195 9.72712 -0.53457 25 1 
546 1.20466 9.7545 -0.00675924 -0.00802769 9.75451 -0.606158 25 1 
548 1.20455 9.77325 -0.00671247 -0.00791595 9.77325 -0.819828 25 1 
550 1.20448 9.78988 -0.00666911 -0.0078084 9.78989 -0.942618 25 1 
552 1.20452 9.80748 -0.00660969 -0.00772614 9.80748 -0.873984 25 1 
554 1.20462 9.82413 -0.00657821 -0.00767998 9.82414 -0.685736 25 1 
556 1.20463 9.83779 -0.00657902 -0.00763129 9.83779 -0.676331 25 1 
558 1.20454 9.84611 -0.00655381 -0.00755886 9.84611 -0.832315 25 1 
560 1.20447 9.85377 -0.00654351 -0.00750893 9.85377 -0.953052 25 1 
562 1.20446 9.86438 -0.00657548 -0.00747245 9.86439 -0.969403 25 1 
564 1.20454 9.87493 -0.00658985 -0.00743008 9.87494 -0.835764 25 1 
566 1.20459 9.88421 -0.00655304 -0.00736273 9.88422 -0.742688 25 1 
568 1.20455 9.89091 -0.00650617 -0.00726929 9.89092 -0.81109 25 1 
570 1.20451 9.89532 -0.0064739 -0.00717911 9.89533 -0.887562 25 1 
572 1.2045 9.90153 -0.00648705 -0.00714456 9.90154 -0.906918 25 1 
574 1.20454 9.9086 -0.00651492 -0.00713976 9.9086 -0.836765 25 1 
576 1.20458 9.91413 -0.00652577 -0.00710894 9.91414 -0.761093 25 1 
576 1.20458 9.91413 -0.00652577 -0.00710894 9.91414 -0.761093 26 1 
578 1.20455 9.9184 -0.00651761 -0.00704638 9.91841 -0.810952 26 1 
580 1.20451 9.92072 -0.0064828 -0.0069827 9.92072 -0.893494 26 1 
582 1.20451 9.92383 -0.00642069 -0.00690393 9.92384 -0.888783 26 1 
584 1.20454 9.92878 -0.00638502 -0.00683056 9.92878 -0.826951 26 1 
586 1.20459 9.93276 -0.00641253 -0.00682378 9.93276 -0.749528 26 1 
588 1.2046 9.93591 -0.00642963 -0.00681136 9.93591 -0.716517 26 1 
590 1.20456 9.93694 -0.00638375 -0.00673027 9.93694 -0.795191 26 1 
592 1.20453 9.93735 -0.00632663 -0.00663293 9.93735 -0.856708 26 1 
594 1.20454 9.94016 -0.00631534 -0.00656853 9.94017 -0.835263 26 1 
596 1.20458 9.94331 -0.00634865 -0.00655443 9.94332 -0.760332 26 1 
598 1.20463 9.94531 -0.00635765 -0.00652628 9.94531 -0.668147 26 1 
600 1.20461 9.94732 -0.00637015 -0.00649491 9.94733 -0.696227 26 1 
602 1.20458 9.94806 -0.00638311 -0.00645718 9.94807 -0.765429 26 1 
604 1.20457 9.94832 -0.00632149 -0.00635529 9.94832 -0.775788 26 1 
606 1.20458 9.95066 -0.00624326 -0.00625118 9.95067 -0.763162 26 1 
608 1.20463 9.95326 -0.0062314 -0.00621797 9.95326 -0.673712 26 1 
608 1.20463 9.95326 -0.0062314 -0.00621797 9.95326 -0.673712 26 1 
610 1.20467 9.95595 -0.00626261 -0.00620986 9.95596 -0.592768 26 1 
612 1.20466 9.95757 -0.0062714 -0.00619087 9.95757 -0.615493 26 1 
614 1.20463 9.95735 -0.00624025 -0.00615712 9.95736 -0.670792 26 1 
616 1.20461 9.95838 -0.0062008 -0.00610313 9.95838 -0.712199 26 1 
618 1.20461 9.96012 -0.00616136 -0.00604081 9.96012 -0.700896 26 1 
620 1.20467 9.96233 -0.00610306 -0.00597248 9.96233 -0.598161 26 1 
622 1.20472 9.965 -0.00608883 -0.00594282 9.965 -0.507558 26 1 
624 1.20471 9.96637 -0.00611469 -0.00595772 9.96637 -0.523717 26 1 
626 1.20468 9.96667 -0.00609813 -0.00594684 9.96668 -0.580577 26 1 
628 1.20466 9.96732 -0.00603182 -0.00586777 9.96732 -0.619748 26 1 
630 1.20467 9.96831 -0.00595514 -0.00577116 9.96832 -0.590877 26 1 
632 1.20472 9.97034 -0.00590993 -0.0057259 9.97034 -0.504875 26 1 
634 1.20475 9.97259 -0.00590677 -0.00572611 9.9726 -0.456055 26 1 
636 1.20477 9.9734 -0.00590721 -0.00570955 9.9734 -0.418371 26 1 
638 1.20475 9.97292 -0.0058768 -0.00566685 9.97292 -0.459525 26 1 
640 1.2047 9.9719 -0.00584217 -0.00563224 9.97191 -0.548117 26 1 
642 1.20471 9.97264 -0.0058168 -0.00560331 9.97264 -0.529206 26 1 
644 1.20475 9.97419 -0.00575861 -0.00553646 9.97419 -0.456421 26 1 
646 1.20481 9.9762 -0.00569896 -0.00548777 9.9762 -0.341628 26 1 
648 1.20485 9.97815 -0.00566544 -0.00546118 9.97815 -0.263557 26 1 
650 1.20484 9.97694 -0.00564345 -0.00541715 9.97694 -0.287167 26 1 
652 1.20478 9.97542 -0.00560287 -0.00536737 9.97542 -0.393363 26 1 
654 1.20473 9.97434 -0.00556343 -0.00534513 9.97434 -0.492128 26 1 
656 1.20476 9.97514 -0.00555399 -0.00533434 9.97514 -0.437479 26 1 
658 1.20485 9.97871 -0.00553348 -0.00530005 9.97871 -0.27761 26 1 
660 1.20494 9.98073 -0.00551013 -0.00528956 9.98074 -0.113946 26 1 
662 1.20496 9.98189 -0.00549086 -0.00526966 9.9819 -0.0756195 26 1 
664 1.20491 9.98096 -0.00543866 -0.00521066 9.98096 -0.16431 26 1 
666 1.20483 9.97735 -0.00537311 -0.00515972 9.97735 -0.303131 26 1 
668 1.20479 9.9768 -0.00530607 -0.00509281 9.97681 -0.370313 26 1 
670 1.20484 9.97828 -0.00528078 -0.00505156 9.97829 -0.286062 26 1 
672 1.20495 9.98133 -0.00528183 -0.0050679 9.98133 -0.0885925 26 1 
672 1.20495 9.98133 -0.00528183 -0.0050679 9.98133 -0.0885925 27 1 
674 1.20507 9.98587 -0.00531287 -0.00510931 9.98587 0.122509 27 1 
676 1.20508 9.98606 -0.00533202 -0.00510523 9.98607 0.148586 27 1 
678 1.20502 9.98442 -0.00524558 -0.00501675 9.98442 0.0317691 27 1 
680 1.20491 9.98174 -0.0051217 -0.00490222 9.98174 -0.161501 27 1 
682 1.20486 9.97937 -0.0049975 -0.00477511 9.97937 -0.256344 27 1 
684 1.20494 9.9826 -0.004982 -0.00475351 9.9826 -0.114384 27 1 
686 1.20507 9.98643 -0.00504114 -0.00481843 9.98643 0.129759 27 1 
688 1.20521 9.99 -0.00509583 -0.00487633 9.99 0.375675 27 1 
690 1.20526 9.99293 -0.00511979 -0.00488994 9.99293 0.477108 27 1 
692 1.2052 9.98934 -0.0050412 -0.00481186 9.98934 0.359088 27 1 
694 1.20508 9.98536 -0.00492523 -0.00470475 9.98537 0.144248 27 1 
696 1.205 9.98291 -0.00479901 -0.00457177 9.98291 0.00837546 27 1 
698 1.205 9.98185 -0.00472182 -0.00449129 9.98186 0.00161774 27 1 
700 1.20511 9.98752 -0.00471791 -0.00449205 9.98752 0.199115 27 1 
702 1.20528 9.99256 -0.00471966 -0.00448774 9.99256 0.498616 27 1 
704 1.2054 9.99693 -0.00476231 -0.00453053 9.99694 0.714862 27 1 
704 1.2054 9.99693 -0.00476231 -0.00453053 9.99694 0.714862 31 1 
706 1.20543 9.9996 -0.00473314 -0.00450957 9.9996 0.772167 31 1 
708 1.20535 9.99501 -0.00464763 -0.00441178 9.99501 0.62732 31 1 
710 1.20525 9.99257 -0.00454297 -0.00430461 9.99257 0.442551 31 1 
712 1.20515 9.98919 -0.00440035 -0.00417784 9.98919 0.277254 31 1 
714 1.20514 9.98608 -0.00434316 -0.0041067 9.98608 0.246663 31 1 
716 1.20524 9.99085 -0.00436705 -0.00411542 9.99085 0.438854 31 1 
718 1.20537 9.99297 -0.00444802 -0.0042045 9.99297 0.664774 31 1 
720 1.20551 9.99816 -0.00456552 -0.00431831 9.99816 0.912934 31 1 
722 1.20559 10.0032 -0.0046432 -0.00438463 10.0032 1.06029 31 1 
724 1.20554 10.0003 -0.00466076 -0.00440128 10.0003 0.96679 31 1 
726 1.20546 10.0013 -0.0045916 -0.00432831 10.0013 0.836876 31 1 
728 1.20538 9.99741 -0.00443955 -0.00417275 9.99742 0.678143 31 1 
730 1.20533 9.99443 -0.00426525 -0.00399359 9.99444 0.604826 31 1 
732 1.20542 9.99882 -0.00408816 -0.00380462 9.99883 0.755516 31 1 
734 1.20554 9.99791 -0.00397968 -0.00369413 9.99791 0.9702 31 1 
736 1.20573 10.0045 -0.00398666 -0.00369881 10.0045 1.30995 31 1 
738 1.20588 10.0106 -0.00410261 -0.0037968 10.0106 1.58637 31 1 
740 1.20593 10.0116 -0.0042489 -0.00393406 10.0116 1.68644 31 1 
742 1.20596 10.0194 -0.00437105 -0.0040532 10.0194 1.73996 31 1 
744 1.2059 10.016 -0.00441145 -0.00408763 10.016 1.62836 31 1 
746 1.20585 10.0132 -0.00437834 -0.00404163 10.0132 1.53564 31 1 
748 1.20583 10.0124 -0.00429875 -0.0039434 10.0124 1.49483 31 1 
750 1.20579 10.0042 -0.00422916 -0.00387065 10.0042 1.42224 31 1 
752 1.20585 10.008 -0.00415599 -0.00379885 10.008 1.53691 31 1 
752 1.20585 10.008 -0.00415599 -0.00379885 10.008 1.53691 31 1 
754 1.20594 10.0114 -0.00406408 -0.00368975 10.0114 1.7056 31 1 
756 1.20609 10.0184 -0.00398881 -0.00360304 10.0184 1.96227 31 1 
758 1.20626 10.0321 -0.00391313 -0.00353202 10.0321 2.28419 31 1 
760 1.20634 10.0313 -0.00388154 -0.00349367 10.0313 2.41387 31 1 
762 1.2064 10.0328 -0.00388274 -0.00347853 10.0328 2.52356 31 1 
764 1.20638 10.0288 -0.00387575 -0.00345344 10.0288 2.49932 31 1 
766 1.20632 10.0216 -0.00379786 -0.00336751 10.0216 2.38775 31 1 
768 1.20633 10.0277 -0.0036922 -0.00326164 10.0277 2.40969 31 1 
770 1.20629 10.0251 -0.00356733 -0.00312266 10.0251 2.33116 31 1 
772 1.20628 10.0288 -0.00342923 -0.00296991 10.0288 2.31303 31 1 
774 1.20629 10.0318 -0.00327244 -0.00280795 10.0318 2.32849 31 1 
776 1.20627 10.0263 -0.0031076 -0.00262877 10.0263 2.29846 31 1 
778 1.20633 10.0316 -0.00295854 -0.00246768 10.0316 2.40993 31 1 
780 1.20633 10.0245 -0.00284862 -0.00235113 10.0245 2.40423 31 1 
782 1.20636 10.0239 -0.00280355 -0.0022941 10.0239 2.46496 31 1 
784 1.20637 10.0273 -0.00274836 -0.00222586 10.0273 2.46865 31 1 
786 1.20628 10.0227 -0.00266657 -0.00212756 10.0227 2.3129 31 1 
788 1.20628 10.0325 -0.00264034 -0.0020802 10.0325 2.31346 31 1 
790 1.20617 10.026 -0.00262009 -0.00205738 10.026 2.11304 31 1 
792 1.20606 10.0197 -0.00258312 -0.00201081 10.0197 1.92104 31 1 
794 1.20599 10.0147 -0.00256573 -0.00197338 10.0147 1.78275 31 1 
796 1.20584 10.001 -0.00253328 -0.00193285 10.001 1.51611 31 1 
798 1.20578 10.008 -0.00250365 -0.00188568 10.008 1.41633 31 1 
800 1.20578 10.0157 -0.0024872 -0.00185976 10.0157 1.4121 31 1 
