38.0372;r ;Density                 ;Velocity u              ;Velocity v              ;Velocity w              ;|Velocity|              ;Pressure                ;Distribution            ;Levels                  ;
0 1.20275 9.99897 -7.57907e-05 -2.00225e-05 9.99897 -4.06395 1 1 
2 1.20276 9.99816 -9.47279e-05 -7.30757e-05 9.99816 -4.04157 1 1 
4 1.20274 9.99798 -0.000137681 -0.00014946 9.99798 -4.07641 1 1 
6 1.20273 9.99847 -0.000176933 -0.000210079 9.99847 -4.09391 1 1 
8 1.20276 9.99894 -0.000239522 -0.000298792 9.99894 -4.05488 1 1 
10 1.20276 9.99939 -0.00027793 -0.000343819 9.99939 -4.04973 1 1 
12 1.20276 9.99931 -0.00031115 -0.000395043 9.99931 -4.03902 1 1 
14 1.20276 10.0004 -0.000375996 -0.000474137 10.0004 -4.0388 1 1 
16 1.20279 10.0004 -0.000395482 -0.000518812 10.0004 -3.99625 1 1 
18 1.20279 9.99977 -0.000446809 -0.000580767 9.99977 -3.9997 1 1 
20 1.20276 10.0004 -0.000509791 -0.000647101 10.0004 -4.04412 1 1 
22 1.20279 10.0006 -0.000520577 -0.000682417 10.0006 -3.99433 1 1 
24 1.2028 10.0014 -0.000570601 -0.000758252 10.0014 -3.97551 1 1 
26 1.2028 10.001 -0.000585946 -0.000772046 10.001 -3.98035 1 1 
28 1.2028 10.0002 -0.000591577 -0.000778666 10.0002 -3.96692 1 1 
30 1.20281 10.0006 -0.000597377 -0.000819375 10.0006 -3.9609 1 1 
32 1.20282 10.0002 -0.000659332 -0.00089667 10.0002 -3.93383 1 1 
32 1.20282 10.0002 -0.000659332 -0.00089667 10.0002 -3.93383 1 1 
34 1.20283 10.0003 -0.00067648 -0.000930352 10.0003 -3.92393 1 1 
36 1.20285 9.99978 -0.000763752 -0.0010359 9.99978 -3.88956 1 1 
38 1.20286 9.99976 -0.000832169 -0.00112681 9.99976 -3.87276 1 1 
40 1.20287 9.9998 -0.000871139 -0.00119905 9.9998 -3.853 1 1 
42 1.20287 9.99964 -0.000924233 -0.00126352 9.99964 -3.84735 1 1 
44 1.20287 9.99867 -0.000940417 -0.00127699 9.99867 -3.85371 1 1 
46 1.20288 9.99779 -0.00100911 -0.00136266 9.99779 -3.82939 1 1 
48 1.20289 9.99854 -0.00107701 -0.00147298 9.99854 -3.81347 1 1 
50 1.20292 9.99936 -0.00109443 -0.00148281 9.99936 -3.75045 1 1 
52 1.20295 9.99896 -0.00115691 -0.00157353 9.99896 -3.70073 1 1 
54 1.20295 9.99812 -0.00127571 -0.00170967 9.99812 -3.69902 1 1 
56 1.20296 9.99857 -0.00136016 -0.00180646 9.99857 -3.68139 1 1 
58 1.20297 9.99843 -0.00144518 -0.00192396 9.99843 -3.6592 1 1 
60 1.20297 9.99783 -0.0014617 -0.00195482 9.99783 -3.67165 1 1 
62 1.20298 9.99696 -0.0015676 -0.00209202 9.99696 -3.64781 1 1 
64 1.20301 9.99761 -0.00166997 -0.00220062 9.99761 -3.59124 1 1 
64 1.20301 9.99761 -0.00166997 -0.00220062 9.99761 -3.59124 2 1 
66 1.20305 9.99818 -0.00171253 -0.00227186 9.99818 -3.52069 2 1 
68 1.20306 9.99921 -0.00181618 -0.00240069 9.99921 -3.50762 2 1 
70 1.20308 9.99892 -0.00196238 -0.00259054 9.99892 -3.45946 2 1 
72 1.2031 9.99766 -0.00205637 -0.00270515 9.99766 -3.43062 2 1 
74 1.20309 9.99712 -0.00210788 -0.00276276 9.99712 -3.45277 2 1 
76 1.20312 9.99654 -0.00222544 -0.00293404 9.99654 -3.404 2 1 
78 1.20312 9.99756 -0.00232048 -0.00304735 9.99756 -3.39731 2 1 
80 1.20314 9.99756 -0.00238834 -0.00314057 9.99756 -3.35559 2 1 
82 1.20318 9.99743 -0.00250918 -0.00330965 9.99743 -3.28362 2 1 
84 1.20322 9.99739 -0.00262281 -0.00341918 9.99739 -3.21542 2 1 
86 1.20324 9.9973 -0.00269156 -0.00348294 9.99731 -3.17399 2 1 
88 1.20324 9.99723 -0.00281052 -0.00364254 9.99723 -3.17611 2 1 
90 1.20326 9.99625 -0.00290002 -0.00376933 9.99625 -3.1425 2 1 
92 1.20327 9.99566 -0.00301211 -0.0038885 9.99566 -3.12881 2 1 
94 1.20328 9.99483 -0.00308102 -0.00397076 9.99483 -3.10424 2 1 
96 1.20332 9.99417 -0.00313389 -0.00405718 9.99418 -3.04224 2 1 
96 1.20332 9.99417 -0.00313389 -0.00405718 9.99418 -3.04224 2 1 
98 1.20334 9.99547 -0.00329409 -0.00420945 9.99547 -2.99796 2 1 
100 1.20336 9.99624 -0.00334217 -0.00427927 9.99624 -2.95481 2 1 
102 1.20339 9.9957 -0.0034539 -0.00443399 9.9957 -2.90199 2 1 
104 1.20344 9.9946 -0.00360052 -0.00460071 9.99461 -2.82628 2 1 
106 1.20345 9.99411 -0.00361866 -0.00461911 9.99411 -2.79393 2 1 
108 1.20348 9.99266 -0.00372348 -0.00473347 9.99266 -2.75212 2 1 
110 1.20348 9.99249 -0.00378199 -0.00481119 9.99249 -2.75128 2 1 
112 1.20348 9.99249 -0.0038192 -0.00486829 9.99249 -2.75136 2 1 
114 1.20352 9.99085 -0.00391053 -0.00497122 9.99085 -2.66679 2 1 
116 1.20355 9.99222 -0.00403244 -0.00511282 9.99222 -2.6143 2 1 
118 1.20359 9.99239 -0.0040588 -0.00516306 9.99239 -2.54951 2 1 
120 1.20363 9.99107 -0.00411997 -0.00522859 9.99107 -2.47057 2 1 
122 1.20364 9.99143 -0.00425733 -0.00539454 9.99143 -2.44838 2 1 
124 1.20368 9.98985 -0.00430697 -0.00548139 9.98986 -2.39092 2 1 
126 1.20373 9.98841 -0.00439045 -0.00557353 9.98841 -2.292 2 1 
128 1.20372 9.9895 -0.00448576 -0.00567497 9.9895 -2.30658 2 1 
128 1.20372 9.9895 -0.00448576 -0.00567497 9.9895 -2.30658 10 1 
130 1.20375 9.98859 -0.00460485 -0.00584477 9.98859 -2.25127 10 1 
132 1.20379 9.98884 -0.00457655 -0.00582555 9.98885 -2.17744 10 1 
134 1.20381 9.98851 -0.00464668 -0.00590147 9.98851 -2.14363 10 1 
136 1.20384 9.9861 -0.00477581 -0.00605567 9.98611 -2.08671 10 1 
138 1.20386 9.98575 -0.00480849 -0.00611008 9.98575 -2.05335 10 1 
140 1.20391 9.98585 -0.00484441 -0.00618162 9.98586 -1.96337 10 1 
142 1.20395 9.98586 -0.0050064 -0.00631891 9.98586 -1.89701 10 1 
144 1.20399 9.98567 -0.00511728 -0.0064739 9.98567 -1.82754 10 1 
146 1.20404 9.98494 -0.00510397 -0.00648182 9.98494 -1.73742 10 1 
148 1.20406 9.98317 -0.0052351 -0.00662313 9.98317 -1.69642 10 1 
150 1.20407 9.98259 -0.0054215 -0.00684247 9.9826 -1.68601 10 1 
152 1.20411 9.98177 -0.00548941 -0.00691056 9.98177 -1.61058 10 1 
154 1.20415 9.98083 -0.00547592 -0.00690449 9.98083 -1.53075 10 1 
156 1.20418 9.98119 -0.00568128 -0.00714605 9.98119 -1.48937 10 1 
158 1.20422 9.97991 -0.00580253 -0.00729784 9.97991 -1.41395 10 1 
160 1.20425 9.97772 -0.00576549 -0.00728255 9.97772 -1.34614 10 1 
160 1.20425 9.97772 -0.00576549 -0.00728255 9.97772 -1.34614 10 1 
162 1.20426 9.97785 -0.00591192 -0.00746186 9.97786 -1.34131 10 1 
164 1.2043 9.97678 -0.00612808 -0.00767709 9.97679 -1.26045 10 1 
166 1.20438 9.97488 -0.00619936 -0.00777455 9.97489 -1.11264 10 1 
168 1.20438 9.9765 -0.00622188 -0.00783435 9.97651 -1.11573 10 1 
170 1.20443 9.97393 -0.00640767 -0.00803819 9.97393 -1.02739 10 1 
172 1.20447 9.97323 -0.00655434 -0.00818944 9.97324 -0.952766 10 1 
174 1.20448 9.97442 -0.00648492 -0.0081689 9.97443 -0.947634 10 1 
176 1.20455 9.97117 -0.00659707 -0.00826677 9.97118 -0.8171 10 1 
178 1.20456 9.97054 -0.00678048 -0.00848095 9.97055 -0.799868 10 1 
180 1.20458 9.96854 -0.00684338 -0.00859595 9.96855 -0.755615 10 1 
182 1.20462 9.96532 -0.0068784 -0.00863685 9.96532 -0.680073 10 1 
184 1.20464 9.96472 -0.00706163 -0.00885824 9.96473 -0.652216 10 1 
186 1.20471 9.96494 -0.00721364 -0.00902831 9.96495 -0.523276 10 1 
188 1.20475 9.96442 -0.00717912 -0.00899796 9.96443 -0.453003 10 1 
190 1.20475 9.96354 -0.00728448 -0.0090979 9.96355 -0.446856 10 1 
192 1.20478 9.96224 -0.0073523 -0.00920373 9.96225 -0.398711 10 1 
194 1.20483 9.95816 -0.00755953 -0.00944181 9.95817 -0.303682 10 1 
196 1.20487 9.95467 -0.00759287 -0.00948235 9.95468 -0.23665 10 1 
198 1.20489 9.95402 -0.00757816 -0.00945141 9.95402 -0.19619 10 1 
200 1.20495 9.95248 -0.00793597 -0.00981952 9.95249 -0.0923538 10 1 
202 1.20496 9.95116 -0.00788408 -0.00984605 9.95117 -0.072253 10 1 
204 1.20495 9.95045 -0.00776024 -0.00973924 9.95046 -0.0900313 10 1 
206 1.20505 9.94673 -0.00806801 -0.0100608 9.94674 0.0817784 10 1 
208 1.2051 9.9452 -0.00830313 -0.0102479 9.94521 0.184067 10 1 
210 1.20509 9.94551 -0.00820856 -0.0101471 9.94552 0.154384 10 1 
212 1.20517 9.93848 -0.00817321 -0.0101999 9.93849 0.310569 10 1 
214 1.20517 9.93348 -0.00833075 -0.0103816 9.93349 0.310501 10 1 
216 1.20518 9.92957 -0.00862765 -0.0106566 9.92958 0.319738 10 1 
218 1.20527 9.92376 -0.00873437 -0.0107609 9.92377 0.491191 10 1 
220 1.2053 9.92707 -0.00863479 -0.0107527 9.92708 0.538071 10 1 
222 1.20536 9.92746 -0.00877992 -0.0109088 9.92747 0.655859 10 1 
224 1.20539 9.92179 -0.008959 -0.0109774 9.9218 0.710851 10 1 
224 1.20539 9.92179 -0.008959 -0.0109774 9.9218 0.710851 10 1 
226 1.20545 9.91612 -0.00894817 -0.0109894 9.91613 0.806216 10 1 
228 1.2055 9.90621 -0.00895274 -0.0110998 9.90622 0.896652 10 1 
230 1.20552 9.89849 -0.00921905 -0.0114115 9.8985 0.945896 10 1 
232 1.20557 9.89853 -0.00944292 -0.011597 9.89854 1.02657 10 1 
234 1.20565 9.89497 -0.00937155 -0.0114576 9.89499 1.1829 10 1 
236 1.20577 9.8858 -0.00926458 -0.0114168 9.88582 1.39599 10 1 
238 1.20573 9.88322 -0.00941124 -0.0116054 9.88323 1.31208 10 1 
240 1.20587 9.87137 -0.00990695 -0.0120933 9.87139 1.56689 10 1 
242 1.20592 9.86246 -0.0100145 -0.012199 9.86248 1.65842 10 1 
244 1.20589 9.85981 -0.00982982 -0.0120382 9.85983 1.60501 10 1 
246 1.20613 9.84695 -0.00997316 -0.0121912 9.84696 2.04413 10 1 
248 1.20619 9.83768 -0.0101446 -0.0123344 9.83769 2.157 10 1 
250 1.20623 9.82524 -0.0103397 -0.0125295 9.82526 2.21373 10 1 
252 1.20631 9.81274 -0.0103864 -0.0125828 9.81276 2.36487 10 1 
254 1.20646 9.79912 -0.0101173 -0.0123302 9.79914 2.64081 10 1 
256 1.20657 9.78439 -0.0102451 -0.0124936 9.78441 2.83727 10 1 
256 1.20657 9.78439 -0.0102451 -0.0124936 9.78441 2.83727 11 1 
258 1.20666 9.76752 -0.0105194 -0.0127867 9.76754 2.99927 11 1 
260 1.2069 9.74838 -0.0105301 -0.012785 9.7484 3.42323 11 1 
262 1.20703 9.72587 -0.0105135 -0.0127621 9.72589 3.66386 11 1 
264 1.20705 9.70336 -0.0104286 -0.0126739 9.70338 3.69717 11 1 
266 1.20732 9.67896 -0.010485 -0.012774 9.67898 4.1888 11 1 
268 1.20775 9.63846 -0.0105278 -0.0128377 9.63849 4.96944 11 1 
270 1.20771 9.6103 -0.01035 -0.0126057 9.61032 4.90123 11 1 
272 1.208 9.56801 -0.0100452 -0.012276 9.56804 5.41032 11 1 
274 1.20855 9.51327 -0.0101408 -0.0124166 9.51329 6.4195 11 1 
276 1.20859 9.47439 -0.0106348 -0.0128716 9.47441 6.4911 11 1 
278 1.20903 9.41438 -0.0111484 -0.0133604 9.4144 7.27008 11 1 
280 1.20974 9.35269 -0.0113415 -0.0135329 9.35273 8.55678 11 1 
282 1.21022 9.27287 -0.0111248 -0.0132882 9.27304 9.42113 11 1 
284 1.21061 9.15543 -0.010737 -0.0129256 9.15569 10.1405 11 1 
286 1.21112 9.03807 -0.0104526 -0.0126222 9.03823 11.0476 11 1 
288 1.21198 8.92817 -0.0103169 -0.0124781 8.92821 12.6064 11 1 
288 1.21198 8.92817 -0.0103169 -0.0124781 8.92821 12.6064 11 1 
290 1.213 8.82344 -0.0102541 -0.0124022 8.82349 14.4426 11 1 
292 1.21382 8.68875 -0.0103454 -0.0124799 8.68896 15.9332 11 1 
294 1.21452 8.51112 -0.0103267 -0.0124452 8.51156 17.1983 11 1 
296 1.21551 8.32594 -0.0102666 -0.0123285 8.32628 18.9802 11 1 
298 1.21011 8.10048 -0.0102454 -0.012271 8.10064 9.23373 11 1 
300 1.20072 8.00287 -0.0101337 -0.0121635 8.00307 -7.72747 11 1 
302 1.19771 7.95945 -0.0102327 -0.0122565 7.95956 -13.1685 11 1 
304 1.19849 7.80399 -0.0102961 -0.0122868 7.80419 -11.7607 11 1 
306 1.19941 7.63592 -0.0102551 -0.0122381 7.63622 -10.1029 11 1 
308 1.20013 7.48138 -0.0102558 -0.0122165 7.48168 -8.7962 11 1 
310 1.2006 7.35901 -0.0102213 -0.0121583 7.35924 -7.94143 11 1 
312 1.20118 7.23191 -0.0102615 -0.0122195 7.23201 -6.90434 11 1 
314 1.20172 7.13413 -0.0103729 -0.0123261 7.13421 -5.92562 11 1 
316 1.20215 7.05818 -0.0104571 -0.0123944 7.05823 -5.14663 11 1 
318 1.20255 6.96763 -0.0105034 -0.0124522 6.96768 -4.41663 11 1 
320 1.20287 6.90319 -0.0105042 -0.0124408 6.90323 -3.84391 11 1 
320 1.20287 6.90319 -0.0105042 -0.0124408 6.90323 -3.84391 15 1 
322 1.20317 6.85725 -0.0106309 -0.0125622 6.85728 -3.30821 15 1 
324 1.20349 6.79881 -0.0107463 -0.012682 6.79883 -2.72888 15 1 
326 1.20373 6.75096 -0.0107231 -0.012649 6.75098 -2.2892 15 1 
328 1.20392 6.70809 -0.010718 -0.0126367 6.70812 -1.95654 15 1 
330 1.20405 6.66344 -0.0108117 -0.0127198 6.66348 -1.71876 15 1 
332 1.20427 6.63357 -0.0108752 -0.0127816 6.6336 -1.32406 15 1 
334 1.2045 6.59795 -0.0108748 -0.0127878 6.59798 -0.89542 15 1 
336 1.20451 6.55256 -0.0109162 -0.0128192 6.5526 -0.885703 15 1 
338 1.20456 6.52241 -0.010998 -0.0129011 6.52246 -0.790211 15 1 
340 1.20479 6.50068 -0.0111335 -0.0130663 6.50072 -0.372606 15 1 
342 1.20491 6.47716 -0.0112097 -0.0131443 6.4772 -0.162451 15 1 
344 1.20492 6.44744 -0.0112308 -0.0131506 6.44748 -0.152868 15 1 
346 1.20493 6.41566 -0.0113345 -0.013278 6.41569 -0.125428 15 1 
348 1.20506 6.40506 -0.0115462 -0.0135235 6.40509 0.103016 15 1 
350 1.20521 6.40043 -0.0116774 -0.0136524 6.40046 0.37105 15 1 
352 1.20519 6.37825 -0.011719 -0.0136907 6.37828 0.344868 15 1 
354 1.2052 6.36135 -0.0118135 -0.0138148 6.36138 0.361276 15 1 
356 1.20529 6.35582 -0.0120246 -0.0140632 6.35585 0.527005 15 1 
358 1.20533 6.35015 -0.0121912 -0.0142224 6.35017 0.598463 15 1 
360 1.20538 6.34805 -0.012233 -0.0142581 6.34808 0.685587 15 1 
362 1.20542 6.34364 -0.0122763 -0.014344 6.34367 0.762761 15 1 
364 1.20544 6.33668 -0.0124202 -0.014506 6.33671 0.790913 15 1 
366 1.20546 6.33459 -0.0125658 -0.0146365 6.33462 0.834674 15 1 
368 1.20549 6.335 -0.0125984 -0.014694 6.33503 0.893464 15 1 
370 1.20556 6.33786 -0.0125718 -0.0146983 6.33789 1.00786 15 1 
372 1.20559 6.33728 -0.0126374 -0.014758 6.33732 1.06064 15 1 
374 1.20558 6.3319 -0.0127582 -0.0148819 6.33193 1.04717 15 1 
376 1.2056 6.33133 -0.0127833 -0.0149237 6.33136 1.09096 15 1 
378 1.20563 6.33241 -0.0127642 -0.0149088 6.33244 1.1302 15 1 
380 1.20566 6.33308 -0.0127911 -0.0149374 6.33311 1.19506 15 1 
382 1.2057 6.3336 -0.0128615 -0.0150129 6.33364 1.25998 15 1 
384 1.2057 6.32775 -0.012924 -0.0150745 6.32778 1.25673 15 1 
384 1.2057 6.32775 -0.012924 -0.0150745 6.32778 1.25673 16 1 
386 1.20571 6.32334 -0.012938 -0.0151007 6.32337 1.28949 16 1 
388 1.20574 6.32468 -0.0129674 -0.0151452 6.32471 1.34153 16 1 
390 1.20576 6.32267 -0.0130458 -0.0152177 6.3227 1.36767 16 1 
392 1.20577 6.31766 -0.0130784 -0.0152636 6.31769 1.38732 16 1 
394 1.20576 6.31129 -0.0130965 -0.0153208 6.31133 1.3776 16 1 
396 1.20576 6.30447 -0.0131548 -0.0153786 6.30451 1.37484 16 1 
398 1.20578 6.30118 -0.0131871 -0.0154006 6.30121 1.40931 16 1 
400 1.20581 6.29778 -0.0131723 -0.0154279 6.29782 1.45522 16 1 
402 1.20581 6.29071 -0.0132291 -0.0155188 6.29075 1.46931 16 1 
404 1.2058 6.28193 -0.0133341 -0.0156122 6.28197 1.43642 16 1 
406 1.2058 6.27437 -0.0133703 -0.0156624 6.27441 1.43756 16 1 
408 1.20582 6.26965 -0.013372 -0.0156999 6.26968 1.47524 16 1 
410 1.20581 6.26372 -0.0134392 -0.0157931 6.26376 1.45761 16 1 
412 1.20579 6.25518 -0.0135105 -0.0158912 6.25522 1.42479 16 1 
414 1.20579 6.24789 -0.0135459 -0.01594 6.24793 1.42626 16 1 
416 1.20579 6.2412 -0.0135926 -0.0160058 6.24124 1.43404 16 1 
416 1.20579 6.2412 -0.0135926 -0.0160058 6.24124 1.43404 16 1 
418 1.2058 6.23472 -0.0136706 -0.01613 6.23476 1.44384 16 1 
420 1.2058 6.22958 -0.0137717 -0.016263 6.22962 1.44865 16 1 
422 1.20581 6.22379 -0.0138884 -0.0163812 6.22383 1.45415 16 1 
424 1.20579 6.21729 -0.0139844 -0.0164883 6.21733 1.43321 16 1 
426 1.20576 6.21041 -0.0140699 -0.0166052 6.21045 1.37762 16 1 
428 1.20575 6.20398 -0.0141853 -0.0167273 6.20402 1.35556 16 1 
430 1.20576 6.20045 -0.0143276 -0.0168602 6.20049 1.36662 16 1 
432 1.20575 6.19708 -0.0144722 -0.0170076 6.19712 1.36338 16 1 
434 1.20574 6.19188 -0.0145988 -0.0171441 6.19192 1.33776 16 1 
436 1.20573 6.18778 -0.0147192 -0.0172703 6.18782 1.32053 16 1 
438 1.20573 6.18549 -0.0148395 -0.0173945 6.18554 1.32487 16 1 
440 1.20573 6.1838 -0.0149503 -0.0175035 6.18384 1.31059 16 1 
442 1.2057 6.18179 -0.0150806 -0.0176415 6.18183 1.27201 16 1 
444 1.20568 6.17938 -0.015208 -0.017807 6.17943 1.2328 16 1 
446 1.20566 6.1785 -0.0153193 -0.0179435 6.17854 1.20065 16 1 
448 1.20566 6.1797 -0.0154467 -0.0180708 6.17975 1.19256 16 1 
448 1.20566 6.1797 -0.0154467 -0.0180708 6.17975 1.19256 17 1 
450 1.20567 6.18174 -0.0155486 -0.0181991 6.18178 1.20264 17 1 
452 1.20566 6.18419 -0.0156245 -0.0183209 6.18424 1.19385 17 1 
454 1.20564 6.18629 -0.0157278 -0.0184477 6.18634 1.16086 17 1 
456 1.20562 6.18823 -0.0158203 -0.0185481 6.18828 1.12206 17 1 
458 1.2056 6.19152 -0.0158716 -0.0186349 6.19157 1.09116 17 1 
460 1.20559 6.19636 -0.0159641 -0.0187756 6.19641 1.07289 17 1 
462 1.20559 6.20251 -0.0161233 -0.0189552 6.20256 1.06014 17 1 
464 1.20558 6.20873 -0.0162544 -0.0191099 6.20878 1.04114 17 1 
466 1.20556 6.21444 -0.0163211 -0.0191988 6.21449 1.00966 17 1 
468 1.20555 6.22102 -0.0163778 -0.0192637 6.22108 0.988379 17 1 
470 1.20554 6.22781 -0.0164532 -0.0193541 6.22787 0.970805 17 1 
472 1.20552 6.2345 -0.0165637 -0.0194778 6.23455 0.938893 17 1 
474 1.2055 6.24179 -0.0167185 -0.019657 6.24184 0.909976 17 1 
476 1.20549 6.24998 -0.0168723 -0.0198435 6.25003 0.878405 17 1 
478 1.20547 6.25973 -0.0169835 -0.0199523 6.25978 0.850329 17 1 
480 1.20547 6.27051 -0.0170625 -0.0200145 6.27057 0.84201 17 1 
480 1.20547 6.27051 -0.0170625 -0.0200145 6.27057 0.84201 17 1 
482 1.20546 6.28068 -0.0171131 -0.0200729 6.28074 0.82972 17 1 
484 1.20544 6.28921 -0.0171721 -0.0201334 6.28926 0.796224 17 1 
486 1.20542 6.29737 -0.0173114 -0.0202513 6.29743 0.762355 17 1 
488 1.20541 6.30658 -0.0175006 -0.0204378 6.30664 0.732767 17 1 
490 1.20539 6.31817 -0.0176585 -0.0206424 6.31823 0.702307 17 1 
492 1.20538 6.33224 -0.0178046 -0.0208136 6.33231 0.68402 17 1 
494 1.20537 6.34671 -0.0179348 -0.0209075 6.34677 0.676513 17 1 
496 1.20537 6.36119 -0.0179653 -0.0209286 6.36126 0.669034 17 1 
498 1.20536 6.37443 -0.0179257 -0.0208926 6.37449 0.641721 17 1 
500 1.20534 6.38636 -0.0179383 -0.0208651 6.38642 0.610768 17 1 
502 1.20533 6.39765 -0.018026 -0.0209363 6.39772 0.59034 17 1 
504 1.20531 6.40875 -0.0181594 -0.0211024 6.40882 0.561662 17 1 
506 1.20529 6.42226 -0.0183428 -0.0213136 6.42232 0.531877 17 1 
508 1.20529 6.4394 -0.0185541 -0.021536 6.43947 0.51959 17 1 
510 1.20529 6.45946 -0.0187222 -0.0217281 6.45954 0.530971 17 1 
512 1.2053 6.48011 -0.0187906 -0.0217969 6.48018 0.534404 17 1 
512 1.2053 6.48011 -0.0187906 -0.0217969 6.48018 0.534404 25 1 
514 1.20528 6.4999 -0.0187312 -0.0216903 6.49997 0.509358 25 1 
516 1.20526 6.51676 -0.0185603 -0.0214726 6.51683 0.469629 25 1 
518 1.20524 6.53053 -0.0183798 -0.0212515 6.53059 0.440188 25 1 
520 1.20524 6.54242 -0.0182983 -0.021124 6.54248 0.427442 25 1 
522 1.20524 6.55392 -0.0183575 -0.0211651 6.55398 0.425763 25 1 
524 1.20524 6.5675 -0.0185362 -0.0213672 6.56756 0.427243 25 1 
526 1.20524 6.58363 -0.0187816 -0.0216216 6.5837 0.424881 25 1 
528 1.20523 6.60345 -0.0189983 -0.0218374 6.60352 0.419192 25 1 
530 1.20522 6.62602 -0.0191074 -0.0219582 6.62609 0.396455 25 1 
532 1.2052 6.64958 -0.0190881 -0.0219113 6.64965 0.368429 25 1 
534 1.2052 6.67225 -0.0189217 -0.0216636 6.67232 0.352647 25 1 
536 1.2052 6.69192 -0.0186447 -0.0212978 6.69198 0.359393 25 1 
538 1.2052 6.70687 -0.01835 -0.0209211 6.70693 0.368548 25 1 
540 1.2052 6.7177 -0.0181309 -0.0206178 6.71775 0.359243 25 1 
542 1.20519 6.72632 -0.0180381 -0.0204675 6.72638 0.343406 25 1 
544 1.20518 6.73502 -0.018086 -0.0204874 6.73508 0.329862 25 1 
544 1.20518 6.73502 -0.018086 -0.0204874 6.73508 0.329862 25 1 
546 1.20518 6.74639 -0.0182374 -0.0206266 6.74645 0.324795 25 1 
548 1.20518 6.76137 -0.0184307 -0.0208172 6.76143 0.324265 25 1 
550 1.20518 6.78089 -0.0186131 -0.0209809 6.78095 0.330237 25 1 
552 1.20519 6.80428 -0.0187457 -0.0210922 6.80435 0.336026 25 1 
554 1.20518 6.83084 -0.0188299 -0.0211533 6.8309 0.329215 25 1 
556 1.20518 6.85967 -0.0188608 -0.0211319 6.85974 0.326134 25 1 
558 1.20519 6.88951 -0.0188207 -0.0210261 6.88958 0.33779 25 1 
560 1.20519 6.91883 -0.0186814 -0.0208104 6.91889 0.343153 25 1 
562 1.20518 6.94546 -0.0183928 -0.0204044 6.94552 0.333156 25 1 
564 1.20517 6.96605 -0.0178834 -0.0197334 6.9661 0.311005 25 1 
566 1.20517 6.97738 -0.0171246 -0.0187792 6.97743 0.303763 25 1 
568 1.20518 6.97709 -0.0162266 -0.0176588 6.97713 0.323443 25 1 
570 1.20519 6.96351 -0.0153632 -0.0165718 6.96356 0.346979 25 1 
572 1.2052 6.93708 -0.0146917 -0.015714 6.93712 0.363601 25 1 
574 1.20519 6.90154 -0.0143319 -0.0152319 6.90159 0.343322 25 1 
576 1.20515 6.86353 -0.0143206 -0.015173 6.86358 0.272198 25 1 
576 1.20515 6.86353 -0.0143206 -0.015173 6.86358 0.272198 26 1 
578 1.20512 6.82901 -0.0146109 -0.0154879 6.82906 0.214567 26 1 
580 1.20512 6.80334 -0.0151244 -0.0160643 6.80338 0.21818 26 1 
582 1.20514 6.79025 -0.0157583 -0.0167588 6.79029 0.257561 26 1 
584 1.20516 6.79015 -0.0164168 -0.0174787 6.79019 0.296356 26 1 
586 1.20518 6.80186 -0.0170504 -0.0181763 6.80191 0.322677 26 1 
588 1.20518 6.82432 -0.0176067 -0.0187734 6.82437 0.317133 26 1 
590 1.20515 6.85686 -0.0180591 -0.0192605 6.85692 0.277899 26 1 
592 1.20515 6.89856 -0.0184063 -0.0196419 6.89863 0.278772 26 1 
594 1.20519 6.94789 -0.0186775 -0.0199164 6.94796 0.345759 26 1 
596 1.20522 7.00345 -0.0188958 -0.0201145 7.00353 0.40074 26 1 
598 1.20523 7.06426 -0.0190733 -0.0202789 7.06435 0.41433 26 1 
600 1.20524 7.12929 -0.0192499 -0.0204439 7.12939 0.431495 26 1 
602 1.20525 7.19828 -0.0194106 -0.0205722 7.19838 0.454071 26 1 
604 1.20526 7.27065 -0.0195046 -0.0206344 7.27075 0.468276 26 1 
606 1.20528 7.34569 -0.0195452 -0.0206512 7.34579 0.506868 26 1 
608 1.20532 7.42361 -0.019569 -0.0206512 7.42371 0.569806 26 1 
608 1.20532 7.42361 -0.019569 -0.0206512 7.42371 0.569806 26 1 
610 1.20534 7.50399 -0.0196021 -0.0206476 7.5041 0.608798 26 1 
612 1.20535 7.58599 -0.0196474 -0.0206428 7.5861 0.624248 26 1 
614 1.20535 7.66875 -0.0196761 -0.0206195 7.66886 0.634559 26 1 
616 1.20534 7.75312 -0.019685 -0.0205687 7.75323 0.618768 26 1 
618 1.20534 7.83946 -0.0196763 -0.0205143 7.83956 0.613745 26 1 
620 1.20538 7.92704 -0.0196413 -0.0204427 7.92715 0.677267 26 1 
622 1.20541 8.01587 -0.0196027 -0.0203552 8.01597 0.739856 26 1 
624 1.20542 8.10522 -0.0195747 -0.0202678 8.10533 0.756077 26 1 
626 1.20543 8.19414 -0.0195397 -0.0201762 8.19424 0.774653 26 1 
628 1.20543 8.28284 -0.0194897 -0.0200732 8.28295 0.78065 26 1 
630 1.20542 8.37187 -0.0194066 -0.0199475 8.37197 0.760641 26 1 
632 1.20542 8.46054 -0.0193042 -0.019811 8.46064 0.76452 26 1 
634 1.20544 8.54812 -0.0192033 -0.0196715 8.54822 0.788749 26 1 
636 1.20544 8.63498 -0.0190823 -0.0195086 8.63507 0.792277 26 1 
638 1.20544 8.72001 -0.0189241 -0.0193038 8.7201 0.80367 26 1 
640 1.20546 8.80292 -0.0187563 -0.0190744 8.80301 0.832891 26 1 
642 1.20545 8.88413 -0.0185895 -0.0188706 8.88422 0.818974 26 1 
644 1.20544 8.96284 -0.0184036 -0.0186825 8.96292 0.796315 26 1 
646 1.20545 9.03884 -0.0181928 -0.0184423 9.03891 0.814592 26 1 
648 1.20545 9.11204 -0.017951 -0.0181533 9.11211 0.809815 26 1 
650 1.20544 9.18209 -0.0177081 -0.0178566 9.18215 0.789228 26 1 
652 1.20544 9.24804 -0.0174809 -0.0175754 9.2481 0.799014 26 1 
654 1.20544 9.311 -0.0172574 -0.0173086 9.31105 0.795783 26 1 
656 1.20543 9.37178 -0.0170151 -0.017028 9.37183 0.776421 26 1 
658 1.20543 9.42891 -0.0167752 -0.0167441 9.42896 0.775057 26 1 
660 1.20542 9.4821 -0.0165381 -0.0164619 9.48214 0.764484 26 1 
662 1.20541 9.53174 -0.0162949 -0.0161623 9.53179 0.742953 26 1 
664 1.20541 9.57816 -0.0160538 -0.015857 9.5782 0.748458 26 1 
666 1.20542 9.62226 -0.0158213 -0.015585 9.6223 0.7634 26 1 
668 1.20542 9.66377 -0.015594 -0.0153129 9.6638 0.767231 26 1 
670 1.20542 9.70114 -0.0153601 -0.0150051 9.70117 0.765051 26 1 
672 1.20541 9.73445 -0.0151267 -0.0146998 9.73448 0.739839 26 1 
672 1.20541 9.73445 -0.0151267 -0.0146998 9.73448 0.739839 27 1 
674 1.2054 9.76412 -0.0148679 -0.0143886 9.76414 0.724807 27 1 
676 1.20541 9.79014 -0.0145851 -0.0140688 9.79017 0.747321 27 1 
678 1.20541 9.81308 -0.014315 -0.013776 9.8131 0.747107 27 1 
680 1.2054 9.83336 -0.0140921 -0.0135291 9.83338 0.726384 27 1 
682 1.20541 9.85039 -0.0139006 -0.0133128 9.85041 0.736066 27 1 
684 1.20542 9.86439 -0.0137232 -0.0131169 9.86441 0.757577 27 1 
686 1.20542 9.87587 -0.0135621 -0.0129637 9.87589 0.764253 27 1 
688 1.20542 9.88544 -0.0133636 -0.0127836 9.88545 0.758109 27 1 
690 1.20542 9.89409 -0.013168 -0.0125976 9.8941 0.758545 27 1 
692 1.20542 9.90073 -0.01305 -0.0124875 9.90075 0.767347 27 1 
694 1.20543 9.90597 -0.0129689 -0.0124177 9.90598 0.781789 27 1 
696 1.20543 9.91034 -0.0128779 -0.0123367 9.91036 0.784946 27 1 
698 1.20542 9.91441 -0.0127957 -0.0122515 9.91443 0.755744 27 1 
700 1.20541 9.91864 -0.0127109 -0.0121661 9.91866 0.746811 27 1 
702 1.20544 9.92231 -0.0126209 -0.0120724 9.92233 0.792279 27 1 
704 1.20546 9.92584 -0.0125563 -0.0119887 9.92586 0.838837 27 1 
704 1.20546 9.92584 -0.0125563 -0.0119887 9.92586 0.838837 31 1 
706 1.20546 9.929 -0.0125072 -0.0119195 9.92901 0.831978 31 1 
708 1.20545 9.93198 -0.0124753 -0.011846 9.932 0.810307 31 1 
710 1.20546 9.93455 -0.0124302 -0.0117479 9.93457 0.825324 31 1 
712 1.20547 9.93708 -0.0123514 -0.0116275 9.9371 0.85013 31 1 
714 1.20546 9.93984 -0.0122595 -0.0114832 9.93986 0.831221 31 1 
716 1.20544 9.94239 -0.0122044 -0.0113677 9.9424 0.803288 31 1 
718 1.20547 9.94494 -0.0121936 -0.011312 9.94495 0.840804 31 1 
720 1.2055 9.94773 -0.0121867 -0.0112489 9.94774 0.909192 31 1 
722 1.20551 9.95055 -0.012153 -0.0111674 9.95056 0.915193 31 1 
724 1.20548 9.95241 -0.0120859 -0.0110713 9.95242 0.875508 31 1 
726 1.20549 9.95406 -0.0120307 -0.0109741 9.95407 0.877423 31 1 
728 1.2055 9.95627 -0.0119794 -0.0108798 9.95628 0.907154 31 1 
730 1.20551 9.95839 -0.0119249 -0.0108272 9.9584 0.928986 31 1 
732 1.20552 9.95959 -0.0118348 -0.0107492 9.9596 0.93141 31 1 
734 1.20551 9.96108 -0.0117336 -0.0106309 9.9611 0.925161 31 1 
736 1.20552 9.96319 -0.0116544 -0.0105335 9.9632 0.935878 31 1 
738 1.20553 9.96479 -0.0115971 -0.0104823 9.96481 0.960416 31 1 
740 1.20555 9.96612 -0.0115288 -0.0103972 9.96613 0.992378 31 1 
742 1.20556 9.96741 -0.0114703 -0.0102916 9.96742 1.00745 31 1 
744 1.20555 9.96929 -0.0114291 -0.0102167 9.9693 0.99607 31 1 
746 1.20555 9.97067 -0.0113604 -0.010121 9.97068 0.999506 31 1 
748 1.20557 9.97154 -0.0112893 -0.00999149 9.97155 1.02225 31 1 
750 1.20557 9.97277 -0.0112172 -0.00985568 9.97278 1.03011 31 1 
752 1.20558 9.97404 -0.0111634 -0.00976086 9.97406 1.04003 31 1 
752 1.20558 9.97404 -0.0111634 -0.00976086 9.97406 1.04003 31 1 
754 1.20559 9.97492 -0.0111189 -0.00966794 9.97493 1.05897 31 1 
756 1.2056 9.97592 -0.0110849 -0.00958936 9.97593 1.0795 31 1 
758 1.20561 9.97662 -0.0110324 -0.00948776 9.97663 1.0928 31 1 
760 1.2056 9.97687 -0.0109396 -0.00937705 9.97688 1.08909 31 1 
762 1.2056 9.97748 -0.0108722 -0.00926631 9.97749 1.09171 31 1 
764 1.20561 9.97775 -0.0108435 -0.0091812 9.97776 1.10916 31 1 
766 1.20563 9.97841 -0.0107754 -0.00908641 9.97841 1.12991 31 1 
768 1.20563 9.97878 -0.0106934 -0.00899951 9.97879 1.13655 31 1 
770 1.20564 9.97915 -0.0106691 -0.00892402 9.97916 1.14847 31 1 
772 1.20565 9.97982 -0.0106325 -0.00885619 9.97983 1.17439 31 1 
774 1.20565 9.97944 -0.0105657 -0.00878898 9.97945 1.17708 31 1 
776 1.20565 9.97961 -0.0105443 -0.00870997 9.97962 1.172 31 1 
778 1.20566 9.9805 -0.0105058 -0.008646 9.98051 1.19204 31 1 
780 1.20567 9.98075 -0.0104096 -0.00856234 9.98076 1.21569 31 1 
782 1.20567 9.98054 -0.0103253 -0.00845301 9.98055 1.21875 31 1 
784 1.20567 9.9806 -0.010301 -0.00837396 9.98061 1.21747 31 1 
786 1.20569 9.98099 -0.0102884 -0.00836325 9.981 1.25473 31 1 
788 1.20572 9.98138 -0.0102543 -0.00832645 9.98139 1.29726 31 1 
790 1.2057 9.98104 -0.0102026 -0.0082625 9.98105 1.26693 31 1 
792 1.20569 9.98028 -0.0101305 -0.00818775 9.98029 1.24097 31 1 
794 1.20571 9.98032 -0.0100603 -0.00808457 9.98033 1.28233 31 1 
796 1.20574 9.98089 -0.0100137 -0.00799701 9.98089 1.33555 31 1 
798 1.20575 9.98103 -0.0100218 -0.00798434 9.98104 1.34941 31 1 
800 1.20574 9.98091 -0.0100446 -0.00800856 9.98092 1.33948 31 1 
