65.2066;r ;Density                 ;Velocity u              ;Velocity v              ;Velocity w              ;|Velocity|              ;Pressure                ;Distribution            ;Levels                  ;
0 1.20535 9.99865 -8.79557e-05 -2.15988e-05 9.99865 0.624984 1 1 
2 1.20538 9.99703 -0.000106367 -6.25353e-05 9.99703 0.678078 1 1 
4 1.20538 9.99551 -0.000232006 -0.00021035 9.99551 0.689745 1 1 
6 1.20538 9.99491 -0.000330481 -0.000317605 9.99491 0.686556 1 1 
8 1.2054 9.99428 -0.000437945 -0.000431496 9.99428 0.716693 1 1 
10 1.2054 9.99356 -0.000534898 -0.000519255 9.99356 0.722176 1 1 
12 1.20541 9.99203 -0.00062057 -0.000618279 9.99203 0.744523 1 1 
14 1.20541 9.99184 -0.00073464 -0.000735705 9.99184 0.744317 1 1 
16 1.20543 9.99096 -0.000800904 -0.000811821 9.99096 0.780006 1 1 
18 1.20543 9.98931 -0.000904215 -0.00091693 9.98931 0.783337 1 1 
20 1.20542 9.98873 -0.00104858 -0.00106101 9.98874 0.762673 1 1 
22 1.20546 9.98775 -0.00113942 -0.00116833 9.98775 0.822534 1 1 
24 1.20546 9.98752 -0.00125234 -0.00129223 9.98752 0.83477 1 1 
26 1.20546 9.98638 -0.00134895 -0.00137603 9.98638 0.827456 1 1 
28 1.20546 9.98483 -0.00146128 -0.00148302 9.98483 0.839402 1 1 
30 1.20547 9.98412 -0.00154484 -0.00158244 9.98412 0.845511 1 1 
32 1.20549 9.98254 -0.00165801 -0.00169688 9.98254 0.876174 1 1 
32 1.20549 9.98254 -0.00165801 -0.00169688 9.98254 0.876174 1 1 
34 1.20549 9.98117 -0.00171296 -0.00175952 9.98117 0.877542 1 1 
36 1.20549 9.97948 -0.0018301 -0.00188484 9.97948 0.887875 1 1 
38 1.20549 9.97897 -0.00192907 -0.0019938 9.97897 0.887419 1 1 
40 1.2055 9.9781 -0.002008 -0.00209251 9.9781 0.91157 1 1 
42 1.20552 9.97684 -0.00211573 -0.00220004 9.97684 0.930299 1 1 
44 1.20551 9.97544 -0.00218537 -0.00225735 9.97544 0.924124 1 1 
46 1.20552 9.97376 -0.00229033 -0.00236681 9.97376 0.943771 1 1 
48 1.20552 9.97314 -0.00239369 -0.00249278 9.97314 0.944798 1 1 
50 1.20554 9.97272 -0.00244743 -0.00252688 9.97273 0.966634 1 1 
52 1.20554 9.97125 -0.00250769 -0.00260624 9.97125 0.979453 1 1 
54 1.20554 9.96948 -0.00260477 -0.00270183 9.96948 0.97526 1 1 
56 1.20555 9.96926 -0.00268178 -0.00277705 9.96926 0.994219 1 1 
58 1.20556 9.96832 -0.00279641 -0.00291697 9.96833 1.01298 1 1 
60 1.20556 9.96729 -0.00284181 -0.00297394 9.96729 1.00785 1 1 
62 1.20557 9.96598 -0.00292747 -0.00306699 9.96598 1.02326 1 1 
64 1.20557 9.96525 -0.00299471 -0.00312797 9.96525 1.03543 1 1 
64 1.20557 9.96525 -0.00299471 -0.00312797 9.96525 1.03543 2 1 
66 1.20559 9.96443 -0.00305129 -0.00320476 9.96443 1.06079 2 1 
68 1.20558 9.96428 -0.0031315 -0.00329297 9.96428 1.04293 2 1 
70 1.20559 9.96287 -0.00320409 -0.00337951 9.96287 1.06544 2 1 
72 1.2056 9.96121 -0.00327205 -0.00346049 9.96121 1.08481 2 1 
74 1.2056 9.96041 -0.00333572 -0.00352491 9.96042 1.07641 2 1 
76 1.20562 9.95923 -0.00338503 -0.00360584 9.95924 1.12327 2 1 
78 1.20561 9.95959 -0.00343503 -0.00364514 9.95959 1.1015 2 1 
80 1.20562 9.95834 -0.00351572 -0.00373241 9.95834 1.11094 2 1 
82 1.20562 9.95687 -0.00357931 -0.00383326 9.95687 1.12832 2 1 
84 1.20563 9.95583 -0.00360099 -0.00383666 9.95583 1.13552 2 1 
86 1.20564 9.95453 -0.00365598 -0.00387405 9.95453 1.15758 2 1 
88 1.20564 9.95396 -0.00376365 -0.00399403 9.95396 1.15643 2 1 
90 1.20565 9.95307 -0.00377406 -0.0040287 9.95307 1.17578 2 1 
92 1.20566 9.95177 -0.00385283 -0.00410658 9.95177 1.18344 2 1 
94 1.20566 9.95028 -0.00391444 -0.00416528 9.95028 1.19569 2 1 
96 1.20567 9.94918 -0.00393083 -0.00418899 9.94918 1.20858 2 1 
96 1.20567 9.94918 -0.00393083 -0.00418899 9.94918 1.20858 2 1 
98 1.20567 9.94899 -0.00404357 -0.00429112 9.94899 1.20617 2 1 
100 1.20568 9.9482 -0.00405658 -0.00431217 9.9482 1.21957 2 1 
102 1.20568 9.94701 -0.00409557 -0.0043778 9.94701 1.22744 2 1 
104 1.2057 9.94527 -0.00419798 -0.00448696 9.94528 1.25616 2 1 
106 1.2057 9.94411 -0.00421168 -0.00449285 9.94411 1.26016 2 1 
108 1.20571 9.94217 -0.00428575 -0.00456716 9.94217 1.274 2 1 
110 1.2057 9.94128 -0.00432225 -0.00461629 9.94129 1.266 2 1 
112 1.2057 9.94077 -0.0043754 -0.00467917 9.94078 1.27246 2 1 
114 1.20573 9.93873 -0.00442502 -0.00473298 9.93873 1.31448 2 1 
116 1.20572 9.93914 -0.00448192 -0.00480796 9.93914 1.30566 2 1 
118 1.20574 9.93838 -0.00452801 -0.00486564 9.93838 1.33199 2 1 
120 1.20575 9.93633 -0.00457683 -0.00490592 9.93633 1.35681 2 1 
122 1.20573 9.93557 -0.00464699 -0.00498992 9.93558 1.32087 2 1 
124 1.20574 9.93311 -0.0046898 -0.00506267 9.93312 1.33638 2 1 
126 1.20577 9.93094 -0.00478246 -0.00515269 9.93094 1.39895 2 1 
128 1.20575 9.9314 -0.0048043 -0.00516657 9.9314 1.3608 2 1 
128 1.20575 9.9314 -0.0048043 -0.00516657 9.9314 1.3608 10 1 
130 1.20577 9.93035 -0.00489921 -0.00530559 9.93035 1.39065 10 1 
132 1.20578 9.93022 -0.0049523 -0.00535745 9.93023 1.41656 10 1 
134 1.20578 9.92923 -0.00502642 -0.0054214 9.92924 1.41429 10 1 
136 1.2058 9.92627 -0.00510379 -0.00551669 9.92628 1.44509 10 1 
138 1.20579 9.92513 -0.00518099 -0.00560937 9.92513 1.42439 10 1 
140 1.20581 9.92436 -0.00525929 -0.00570169 9.92436 1.45464 10 1 
142 1.20581 9.92358 -0.00532015 -0.00572605 9.92358 1.4624 10 1 
144 1.20581 9.92288 -0.00539455 -0.00584422 9.92288 1.46517 10 1 
146 1.20584 9.922 -0.0054601 -0.00591992 9.922 1.50852 10 1 
148 1.20584 9.91977 -0.00556199 -0.00601381 9.91978 1.51878 10 1 
150 1.20583 9.91842 -0.00564933 -0.00613557 9.91842 1.49486 10 1 
152 1.20585 9.91731 -0.00574754 -0.00623972 9.91731 1.5331 10 1 
154 1.20587 9.91607 -0.00578581 -0.00627258 9.91607 1.56558 10 1 
156 1.20586 9.91583 -0.00587802 -0.00637332 9.91583 1.55604 10 1 
158 1.20588 9.91427 -0.00591952 -0.0064364 9.91428 1.58635 10 1 
160 1.20589 9.91164 -0.00592348 -0.00646573 9.91165 1.60668 10 1 
160 1.20589 9.91164 -0.00592348 -0.00646573 9.91165 1.60668 10 1 
162 1.20587 9.91112 -0.00600889 -0.00657544 9.91113 1.57021 10 1 
164 1.20589 9.90937 -0.00608203 -0.00662602 9.90937 1.60819 10 1 
166 1.20594 9.9066 -0.00618204 -0.00674419 9.9066 1.69255 10 1 
168 1.20591 9.90766 -0.00629092 -0.00687876 9.90767 1.63717 10 1 
170 1.20593 9.90493 -0.00636913 -0.00696022 9.90494 1.68232 10 1 
172 1.20595 9.90374 -0.00644127 -0.00703072 9.90375 1.70769 10 1 
174 1.20593 9.9044 -0.00648662 -0.00712345 9.90441 1.67685 10 1 
176 1.20598 9.90076 -0.006616 -0.00722528 9.90076 1.77589 10 1 
178 1.20597 9.89966 -0.00667196 -0.00729467 9.89967 1.76012 10 1 
180 1.20598 9.89752 -0.00676509 -0.00744464 9.89752 1.77086 10 1 
182 1.20599 9.89387 -0.00691509 -0.00761195 9.89387 1.79308 10 1 
184 1.20598 9.89256 -0.00702507 -0.00773798 9.89256 1.769 10 1 
186 1.20603 9.89249 -0.00709609 -0.00778457 9.89249 1.86652 10 1 
188 1.20606 9.89146 -0.00717978 -0.00786646 9.89146 1.90619 10 1 
190 1.20604 9.88991 -0.0073434 -0.00804645 9.88992 1.88654 10 1 
192 1.20605 9.88843 -0.00728139 -0.00801505 9.88843 1.90084 10 1 
194 1.20608 9.88421 -0.00749728 -0.00823026 9.88422 1.94738 10 1 
196 1.20609 9.88075 -0.0076978 -0.00843297 9.88076 1.97785 10 1 
198 1.2061 9.87981 -0.00768795 -0.00842378 9.87982 1.99517 10 1 
200 1.20615 9.87745 -0.00790858 -0.00866089 9.87746 2.07811 10 1 
202 1.20615 9.876 -0.0079072 -0.00871771 9.87601 2.07206 10 1 
204 1.20612 9.87528 -0.00794764 -0.00875113 9.87528 2.02556 10 1 
206 1.2062 9.87097 -0.00822956 -0.00904235 9.87098 2.17214 10 1 
208 1.20624 9.86924 -0.00838413 -0.00914616 9.86925 2.24431 10 1 
210 1.20621 9.86926 -0.00842723 -0.0091702 9.86927 2.18813 10 1 
212 1.20629 9.86178 -0.0085589 -0.00938184 9.86179 2.32163 10 1 
214 1.20627 9.8566 -0.00864826 -0.00949477 9.85661 2.29575 10 1 
216 1.20627 9.8523 -0.00883107 -0.00964471 9.85231 2.28617 10 1 
218 1.20635 9.84644 -0.00905731 -0.0098455 9.84645 2.44048 10 1 
220 1.20637 9.84957 -0.0091563 -0.0100157 9.84958 2.46766 10 1 
222 1.20642 9.84896 -0.00924385 -0.010114 9.84896 2.56246 10 1 
224 1.20644 9.84289 -0.00928959 -0.010055 9.8429 2.59415 10 1 
224 1.20644 9.84289 -0.00928959 -0.010055 9.8429 2.59415 10 1 
226 1.20648 9.83718 -0.00941252 -0.0101835 9.83719 2.6717 10 1 
228 1.20652 9.82674 -0.00961872 -0.0104562 9.82675 2.74741 10 1 
230 1.20654 9.8184 -0.00982475 -0.0106922 9.81841 2.77708 10 1 
232 1.20657 9.81789 -0.00990984 -0.0107583 9.8179 2.83487 10 1 
234 1.20665 9.81421 -0.00997702 -0.0107657 9.81422 2.97346 10 1 
236 1.20676 9.80503 -0.0100863 -0.0109136 9.80504 3.17445 10 1 
238 1.20671 9.80154 -0.0101778 -0.011025 9.80155 3.0905 10 1 
240 1.20685 9.78844 -0.0104815 -0.0113321 9.78845 3.34316 10 1 
242 1.2069 9.77876 -0.0105925 -0.0114511 9.77877 3.42695 10 1 
244 1.20686 9.77585 -0.0105796 -0.0114374 9.77586 3.35866 10 1 
246 1.20709 9.76269 -0.0107404 -0.0115801 9.7627 3.77602 10 1 
248 1.20715 9.75208 -0.0107229 -0.0115521 9.7521 3.88047 10 1 
250 1.20718 9.7383 -0.0108696 -0.0117231 9.73831 3.94053 10 1 
252 1.20727 9.72528 -0.011178 -0.0120127 9.72529 4.10521 10 1 
254 1.20743 9.71112 -0.0111767 -0.011974 9.71113 4.38091 10 1 
256 1.20753 9.6956 -0.0112422 -0.012067 9.69562 4.56986 10 1 
256 1.20753 9.6956 -0.0112422 -0.012067 9.69562 4.56986 11 1 
258 1.20762 9.67768 -0.0113529 -0.012222 9.6777 4.73322 11 1 
260 1.20786 9.65729 -0.0114802 -0.0123371 9.65731 5.16053 11 1 
262 1.208 9.63374 -0.0117347 -0.0125583 9.63376 5.41828 11 1 
264 1.20802 9.61037 -0.0117309 -0.0125427 9.61039 5.46282 11 1 
266 1.2083 9.58516 -0.0117381 -0.012589 9.58518 5.95834 11 1 
268 1.20873 9.54431 -0.0119109 -0.0127648 9.54433 6.74394 11 1 
270 1.2087 9.51562 -0.0121032 -0.0128963 9.51565 6.68421 11 1 
272 1.20899 9.47223 -0.0121099 -0.0128854 9.47227 7.21183 11 1 
274 1.20956 9.41617 -0.0121697 -0.0129954 9.4162 8.23914 11 1 
276 1.20962 9.37549 -0.0122961 -0.0130916 9.37551 8.34082 11 1 
278 1.21006 9.31398 -0.0124117 -0.0131953 9.314 9.14846 11 1 
280 1.21078 9.25111 -0.0124484 -0.0132212 9.25116 10.4413 11 1 
282 1.21127 9.16971 -0.0124317 -0.0131767 9.16988 11.3187 11 1 
284 1.21168 9.05058 -0.0124463 -0.0132135 9.05085 12.0703 11 1 
286 1.2122 8.9314 -0.0124851 -0.0132352 8.93156 13.0094 11 1 
288 1.21308 8.81941 -0.0125183 -0.0132593 8.81945 14.5967 11 1 
288 1.21308 8.81941 -0.0125183 -0.0132593 8.81945 14.5967 11 1 
290 1.21411 8.71236 -0.0125321 -0.0132605 8.71242 16.4622 11 1 
292 1.21496 8.57513 -0.0126083 -0.0133305 8.57535 17.9846 11 1 
294 1.21567 8.39503 -0.0125223 -0.013241 8.39549 19.2779 11 1 
296 1.21667 8.2073 -0.0123995 -0.0130768 8.20765 21.0846 11 1 
298 1.21132 7.97828 -0.0123133 -0.0129793 7.97845 11.4076 11 1 
300 1.20195 7.87707 -0.0121741 -0.0128576 7.87728 -5.51748 11 1 
302 1.19894 7.83105 -0.0122852 -0.0129581 7.83116 -10.9525 11 1 
304 1.19973 7.67319 -0.0123299 -0.0129748 7.6734 -9.5103 11 1 
306 1.20067 7.50314 -0.0122526 -0.0128975 7.50346 -7.82077 11 1 
308 1.20142 7.34701 -0.0122112 -0.0128436 7.34732 -6.46487 11 1 
310 1.20192 7.2229 -0.0121405 -0.0127556 7.22314 -5.5658 11 1 
312 1.20252 7.09414 -0.0121748 -0.0128078 7.09425 -4.48363 11 1 
314 1.20309 6.99493 -0.0122995 -0.0129225 6.99501 -3.45382 11 1 
316 1.20355 6.91759 -0.0123854 -0.0129907 6.91765 -2.62435 11 1 
318 1.20398 6.82567 -0.0124255 -0.0130402 6.82572 -1.84838 11 1 
320 1.20432 6.75973 -0.0124164 -0.0130227 6.75978 -1.22654 11 1 
320 1.20432 6.75973 -0.0124164 -0.0130227 6.75978 -1.22654 15 1 
322 1.20465 6.71262 -0.0125557 -0.0131576 6.71266 -0.630028 15 1 
324 1.205 6.65347 -0.0126883 -0.0132916 6.6535 0.00850543 15 1 
326 1.20528 6.60459 -0.0126712 -0.0132667 6.60462 0.512941 15 1 
328 1.20551 6.56063 -0.0126779 -0.0132677 6.56067 0.913807 15 1 
330 1.20567 6.51505 -0.0127906 -0.0133706 6.5151 1.2182 15 1 
332 1.20593 6.48413 -0.0128653 -0.0134414 6.48417 1.67581 15 1 
334 1.2062 6.44757 -0.0128711 -0.0134494 6.44761 2.1645 15 1 
336 1.20625 6.40113 -0.0129355 -0.0134957 6.40118 2.25345 15 1 
338 1.20635 6.36987 -0.0130479 -0.0136011 6.36993 2.4305 15 1 
340 1.20662 6.34719 -0.013223 -0.0137953 6.34723 2.91896 15 1 
342 1.20678 6.32266 -0.01332 -0.0138835 6.32271 3.20828 15 1 
344 1.20683 6.29194 -0.0133695 -0.0139046 6.29198 3.30562 15 1 
346 1.2069 6.25901 -0.0135165 -0.0140549 6.25905 3.42592 15 1 
348 1.20707 6.24714 -0.0137871 -0.0143382 6.24717 3.73599 15 1 
350 1.20726 6.24132 -0.0139667 -0.0144972 6.24136 4.08176 15 1 
352 1.2073 6.21799 -0.0140538 -0.014557 6.21803 4.15368 15 1 
354 1.20737 6.19992 -0.0141967 -0.0147016 6.19995 4.27206 15 1 
356 1.20751 6.19313 -0.0144678 -0.0149814 6.19316 4.53737 15 1 
358 1.20761 6.186 -0.0146904 -0.0151691 6.18604 4.7091 15 1 
360 1.20771 6.18248 -0.0147718 -0.015218 6.18252 4.8923 15 1 
362 1.20781 6.17677 -0.0148457 -0.0153075 6.17681 5.07463 15 1 
364 1.20789 6.16842 -0.0150232 -0.0154795 6.16846 5.21424 15 1 
366 1.20797 6.1649 -0.0152009 -0.015618 6.16493 5.36615 15 1 
368 1.20806 6.16391 -0.0152686 -0.0156808 6.16395 5.5293 15 1 
370 1.20818 6.16508 -0.0152603 -0.0156739 6.16512 5.73549 15 1 
372 1.20825 6.16268 -0.015333 -0.0157091 6.16272 5.87663 15 1 
374 1.2083 6.15589 -0.0154571 -0.0158008 6.15593 5.96913 15 1 
376 1.2084 6.15418 -0.0154961 -0.0158227 6.15422 6.14412 15 1 
378 1.20849 6.154 -0.0155168 -0.0158143 6.15404 6.31024 15 1 
380 1.20858 6.15312 -0.0155807 -0.0158459 6.15316 6.46531 15 1 
382 1.20866 6.15166 -0.0156699 -0.015907 6.1517 6.60421 15 1 
384 1.2087 6.14391 -0.0157382 -0.0159423 6.14395 6.68591 15 1 
384 1.2087 6.14391 -0.0157382 -0.0159423 6.14395 6.68591 16 1 
386 1.20878 6.1381 -0.0157528 -0.0159382 6.13815 6.82737 16 1 
388 1.20888 6.13808 -0.0157961 -0.0159635 6.13812 6.99991 16 1 
390 1.20895 6.13457 -0.0159207 -0.0160449 6.13461 7.14076 16 1 
392 1.20902 6.12789 -0.015977 -0.016077 6.12794 7.26936 16 1 
394 1.20907 6.11953 -0.0159831 -0.0160892 6.11957 7.35095 16 1 
396 1.20912 6.11063 -0.0160342 -0.016106 6.11067 7.44213 16 1 
398 1.2092 6.10532 -0.0160874 -0.0161089 6.10536 7.588 16 1 
400 1.20929 6.09977 -0.0160948 -0.016115 6.09981 7.74843 16 1 
402 1.20936 6.09038 -0.0161637 -0.0161727 6.09043 7.87288 16 1 
404 1.20939 6.07879 -0.0162706 -0.0162247 6.07883 7.93042 16 1 
406 1.20944 6.06802 -0.0162972 -0.0162173 6.06807 8.01917 16 1 
408 1.20952 6.06037 -0.0162813 -0.0161863 6.06041 8.16313 16 1 
410 1.20958 6.05157 -0.0163621 -0.0162458 6.05162 8.27723 16 1 
412 1.20965 6.04012 -0.0164724 -0.016338 6.04017 8.39043 16 1 
414 1.20971 6.02946 -0.0165297 -0.0163633 6.02951 8.50937 16 1 
416 1.20976 6.0183 -0.0165662 -0.0163667 6.01835 8.59802 16 1 
416 1.20976 6.0183 -0.0165662 -0.0163667 6.01835 8.59802 16 1 
418 1.2098 6.00694 -0.0166372 -0.0164279 6.00699 8.6775 16 1 
420 1.20986 5.99691 -0.016738 -0.0165054 5.99696 8.77236 16 1 
422 1.20993 5.98625 -0.0168562 -0.016572 5.9863 8.90167 16 1 
424 1.21 5.97498 -0.0169706 -0.0166402 5.97503 9.02274 16 1 
426 1.21004 5.96305 -0.017112 -0.0167509 5.9631 9.0996 16 1 
428 1.21008 5.95118 -0.0172771 -0.0168666 5.95123 9.17912 16 1 
430 1.21014 5.94168 -0.0174391 -0.0169631 5.94173 9.27664 16 1 
432 1.21019 5.93195 -0.0176171 -0.0170818 5.932 9.37417 16 1 
434 1.21024 5.92031 -0.0178367 -0.0172442 5.92036 9.46929 16 1 
436 1.2103 5.90956 -0.0180615 -0.017407 5.90962 9.5689 16 1 
438 1.21035 5.9004 -0.018236 -0.0175197 5.90046 9.67099 16 1 
440 1.2104 5.89189 -0.0183912 -0.0176066 5.89194 9.75118 16 1 
442 1.21044 5.88296 -0.0186199 -0.0177749 5.88302 9.82656 16 1 
444 1.21049 5.8734 -0.018851 -0.0179764 5.87346 9.92045 16 1 
446 1.21055 5.86493 -0.0189814 -0.0180665 5.86499 10.0175 16 1 
448 1.2106 5.85788 -0.0190546 -0.0180766 5.85795 10.1235 16 1 
448 1.2106 5.85788 -0.0190546 -0.0180766 5.85795 10.1235 17 1 
450 1.21066 5.85143 -0.019166 -0.0181483 5.85149 10.2273 17 1 
452 1.21071 5.84517 -0.0194354 -0.0183918 5.84523 10.3077 17 1 
454 1.21075 5.83857 -0.0198834 -0.0187857 5.83864 10.3818 17 1 
456 1.21079 5.83241 -0.0203148 -0.0191484 5.83248 10.4653 17 1 
458 1.21085 5.82786 -0.0205794 -0.0193722 5.82793 10.5617 17 1 
460 1.21091 5.82447 -0.0207702 -0.0195238 5.82454 10.667 17 1 
462 1.21096 5.82148 -0.0209892 -0.0196793 5.82155 10.7648 17 1 
464 1.211 5.81807 -0.0212194 -0.0198591 5.81814 10.843 17 1 
466 1.21104 5.81447 -0.0214596 -0.0200484 5.81454 10.9111 17 1 
468 1.21109 5.81253 -0.0217549 -0.0202775 5.81261 10.9959 17 1 
470 1.21114 5.81179 -0.0220801 -0.0205402 5.81186 11.0979 17 1 
472 1.2112 5.81091 -0.0224034 -0.0207955 5.81099 11.1927 17 1 
474 1.21124 5.81008 -0.0227276 -0.0210557 5.81016 11.2793 17 1 
476 1.21129 5.80924 -0.023031 -0.0212981 5.80932 11.3549 17 1 
478 1.21133 5.80899 -0.0232971 -0.0214738 5.80908 11.4269 17 1 
480 1.21138 5.81003 -0.0235554 -0.0216394 5.81012 11.5176 17 1 
480 1.21138 5.81003 -0.0235554 -0.0216394 5.81012 11.5176 17 1 
482 1.21143 5.81142 -0.023795 -0.0218147 5.81151 11.6114 17 1 
484 1.21148 5.81256 -0.0240119 -0.0219534 5.81265 11.7 17 1 
486 1.21153 5.8139 -0.0242509 -0.0220749 5.81399 11.7889 17 1 
488 1.21157 5.81556 -0.024476 -0.0221856 5.81566 11.8729 17 1 
490 1.21162 5.81794 -0.024633 -0.0222601 5.81803 11.9552 17 1 
492 1.21167 5.82084 -0.0247786 -0.0223035 5.82093 12.0406 17 1 
494 1.21172 5.82332 -0.0249485 -0.0223246 5.82342 12.1301 17 1 
496 1.21176 5.8258 -0.025073 -0.0223332 5.8259 12.2184 17 1 
498 1.21181 5.82863 -0.0251613 -0.0223204 5.82873 12.3039 17 1 
500 1.21186 5.83204 -0.0253058 -0.0223138 5.83214 12.3913 17 1 
502 1.21191 5.83566 -0.0254618 -0.0223272 5.83576 12.4798 17 1 
504 1.21195 5.8386 -0.0255704 -0.0223154 5.8387 12.5602 17 1 
506 1.212 5.84155 -0.0256509 -0.022247 5.84165 12.6401 17 1 
508 1.21205 5.84522 -0.0257413 -0.0221676 5.84532 12.7331 17 1 
510 1.2121 5.84903 -0.0258465 -0.0221266 5.84913 12.8254 17 1 
512 1.21215 5.85248 -0.0259734 -0.0221038 5.85258 12.9068 17 1 
512 1.21215 5.85248 -0.0259734 -0.0221038 5.85258 12.9068 25 1 
514 1.21219 5.85588 -0.0261127 -0.0220705 5.85598 12.982 25 1 
516 1.21223 5.85927 -0.0262313 -0.0220244 5.85937 13.0571 25 1 
518 1.21227 5.86276 -0.0263383 -0.02197 5.86286 13.1344 25 1 
520 1.21232 5.86648 -0.0264676 -0.0219093 5.86658 13.2171 25 1 
522 1.21237 5.87046 -0.0266178 -0.0218677 5.87056 13.3056 25 1 
524 1.21241 5.87445 -0.0267788 -0.0218521 5.87456 13.3875 25 1 
526 1.21245 5.87807 -0.0269696 -0.0218231 5.87817 13.4558 25 1 
528 1.21249 5.88184 -0.0271638 -0.0217894 5.88195 13.5226 25 1 
530 1.21253 5.88605 -0.0273306 -0.02176 5.88616 13.5979 25 1 
532 1.21257 5.89033 -0.0275008 -0.0217156 5.89044 13.6749 25 1 
534 1.21261 5.89463 -0.0276895 -0.0216602 5.89473 13.7516 25 1 
536 1.21265 5.89901 -0.0278796 -0.0216229 5.89911 13.8267 25 1 
538 1.21269 5.90334 -0.0280895 -0.0216054 5.90345 13.8923 25 1 
540 1.21272 5.90784 -0.0283087 -0.0215707 5.90795 13.9523 25 1 
542 1.21276 5.91257 -0.0285202 -0.0215278 5.91268 14.0188 25 1 
544 1.2128 5.91752 -0.0287344 -0.0214731 5.91763 14.0938 25 1 
544 1.2128 5.91752 -0.0287344 -0.0214731 5.91763 14.0938 25 1 
546 1.21285 5.9225 -0.0289254 -0.0213926 5.92261 14.172 25 1 
548 1.21289 5.92727 -0.0291288 -0.0213184 5.92738 14.244 25 1 
550 1.21292 5.93205 -0.0293455 -0.0212392 5.93216 14.3046 25 1 
552 1.21295 5.93686 -0.0295761 -0.0211731 5.93698 14.3599 25 1 
554 1.21298 5.94177 -0.0298214 -0.0211133 5.94189 14.4159 25 1 
556 1.21302 5.94686 -0.0300624 -0.0210352 5.94698 14.4779 25 1 
558 1.21305 5.95178 -0.030292 -0.0209369 5.95189 14.5413 25 1 
560 1.21309 5.95664 -0.0304976 -0.0208092 5.95676 14.6088 25 1 
562 1.21313 5.96161 -0.0307287 -0.0206938 5.96173 14.6808 25 1 
564 1.21316 5.96631 -0.0309756 -0.0205887 5.96643 14.74 25 1 
566 1.21319 5.97064 -0.0312339 -0.0204947 5.97075 14.789 25 1 
568 1.21321 5.9749 -0.0315149 -0.0204145 5.97502 14.8365 25 1 
570 1.21324 5.97923 -0.0317976 -0.0203193 5.97935 14.8872 25 1 
572 1.21327 5.9837 -0.0320497 -0.0201971 5.98382 14.9426 25 1 
574 1.21331 5.98813 -0.0323047 -0.0200754 5.98826 15.0016 25 1 
576 1.21334 5.99213 -0.032568 -0.0199473 5.99225 15.0627 25 1 
576 1.21334 5.99213 -0.032568 -0.0199473 5.99225 15.0627 26 1 
578 1.21337 5.99583 -0.032835 -0.0198218 5.99596 15.1156 26 1 
580 1.21339 5.99934 -0.0331541 -0.0197417 5.99946 15.1633 26 1 
582 1.21342 6.00304 -0.0334711 -0.0196635 6.00316 15.2109 26 1 
584 1.21345 6.00685 -0.0338159 -0.0196014 6.00698 15.2592 26 1 
586 1.21347 6.01058 -0.0341542 -0.0195273 6.0107 15.3048 26 1 
588 1.2135 6.01425 -0.0344545 -0.0194108 6.01438 15.3515 26 1 
590 1.21352 6.0178 -0.0347723 -0.0193002 6.01793 15.3957 26 1 
592 1.21355 6.02122 -0.0350681 -0.0191735 6.02135 15.4428 26 1 
594 1.21358 6.02463 -0.035404 -0.0190679 6.02476 15.4954 26 1 
596 1.2136 6.028 -0.0357745 -0.0189991 6.02813 15.5396 26 1 
598 1.21363 6.03122 -0.0361799 -0.0189591 6.03135 15.5823 26 1 
600 1.21365 6.03483 -0.0366176 -0.0189366 6.03498 15.6224 26 1 
602 1.21367 6.03877 -0.0370377 -0.0188939 6.03892 15.6605 26 1 
604 1.21369 6.04281 -0.0374283 -0.0188222 6.04296 15.6948 26 1 
606 1.21371 6.04679 -0.0377866 -0.01871 6.04693 15.7323 26 1 
608 1.21374 6.05066 -0.0381787 -0.0186145 6.05081 15.779 26 1 
608 1.21374 6.05066 -0.0381787 -0.0186145 6.05081 15.779 26 1 
610 1.21376 6.05467 -0.0385985 -0.0185542 6.05482 15.8209 26 1 
612 1.21378 6.05844 -0.0390616 -0.0185268 6.0586 15.8615 26 1 
614 1.2138 6.06259 -0.0395584 -0.0185288 6.06275 15.8977 26 1 
616 1.21382 6.06701 -0.0400726 -0.0185347 6.06717 15.9329 26 1 
618 1.21384 6.07159 -0.0406076 -0.0185598 6.07175 15.9636 26 1 
620 1.21385 6.07653 -0.0410841 -0.0185283 6.0767 15.9923 26 1 
622 1.21387 6.08154 -0.0415568 -0.0184733 6.08171 16.0271 26 1 
624 1.21389 6.08648 -0.0420043 -0.0184016 6.08665 16.0636 26 1 
626 1.21391 6.09103 -0.0424504 -0.0183218 6.09121 16.1017 26 1 
628 1.21393 6.09552 -0.0429469 -0.0182817 6.0957 16.1368 26 1 
630 1.21396 6.09988 -0.0434916 -0.0182807 6.10007 16.1768 26 1 
632 1.21397 6.10464 -0.0441064 -0.0183432 6.10482 16.2103 26 1 
634 1.21399 6.1096 -0.0447357 -0.0184055 6.10979 16.2358 26 1 
636 1.214 6.115 -0.0453445 -0.018444 6.1152 16.2601 26 1 
638 1.21402 6.12097 -0.0459003 -0.0184346 6.12117 16.2867 26 1 
640 1.21404 6.12697 -0.0464332 -0.0183893 6.12718 16.324 26 1 
642 1.21406 6.13336 -0.0469314 -0.0183179 6.13357 16.3615 26 1 
644 1.21408 6.13936 -0.047434 -0.0182426 6.13957 16.4016 26 1 
646 1.2141 6.14491 -0.047946 -0.0181782 6.14513 16.4394 26 1 
648 1.21412 6.15064 -0.0484884 -0.0181357 6.15086 16.4638 26 1 
650 1.21413 6.15624 -0.049089 -0.0181186 6.15646 16.491 26 1 
652 1.21415 6.1625 -0.0497143 -0.018137 6.16272 16.5193 26 1 
654 1.21416 6.16944 -0.0503604 -0.0181522 6.16968 16.5481 26 1 
656 1.21418 6.17662 -0.0509638 -0.0181331 6.17686 16.5801 26 1 
658 1.21419 6.18453 -0.0515006 -0.0180648 6.18477 16.6075 26 1 
660 1.21421 6.19209 -0.0519745 -0.0179158 6.19234 16.6373 26 1 
662 1.21423 6.19937 -0.0523763 -0.0177217 6.19962 16.67 26 1 
664 1.21425 6.20613 -0.052773 -0.0175217 6.20638 16.705 26 1 
666 1.21426 6.21196 -0.053186 -0.0173248 6.21221 16.7343 26 1 
668 1.21428 6.21719 -0.0536182 -0.0171431 6.21745 16.7613 26 1 
670 1.21429 6.22205 -0.0541314 -0.0170462 6.22231 16.7822 26 1 
672 1.2143 6.2271 -0.0547326 -0.0169769 6.22736 16.7986 26 1 
672 1.2143 6.2271 -0.0547326 -0.0169769 6.22736 16.7986 27 1 
674 1.21431 6.2323 -0.055362 -0.0169552 6.23257 16.823 27 1 
676 1.21433 6.23844 -0.0560319 -0.0169688 6.23871 16.8438 27 1 
678 1.21434 6.24484 -0.056619 -0.0168893 6.24512 16.8713 27 1 
680 1.21436 6.25157 -0.0571677 -0.0168114 6.25186 16.9008 27 1 
682 1.21437 6.25809 -0.0576295 -0.0166508 6.25838 16.9296 27 1 
684 1.21439 6.26386 -0.0579865 -0.0164231 6.26415 16.9562 27 1 
686 1.2144 6.26876 -0.0583813 -0.0162163 6.26905 16.9782 27 1 
688 1.21441 6.27239 -0.058704 -0.0159712 6.27269 17.0012 27 1 
690 1.21442 6.27541 -0.0591247 -0.0157833 6.2757 17.0178 27 1 
692 1.21443 6.27786 -0.0596618 -0.0156855 6.27817 17.0381 27 1 
694 1.21444 6.28036 -0.0602948 -0.0156687 6.28067 17.0588 27 1 
696 1.21445 6.28371 -0.0610557 -0.0157553 6.28403 17.0739 27 1 
698 1.21447 6.28803 -0.061884 -0.0158925 6.28836 17.099 27 1 
700 1.21448 6.29368 -0.0627472 -0.0160267 6.29401 17.1244 27 1 
702 1.2145 6.30035 -0.0635215 -0.0161457 6.30069 17.1553 27 1 
704 1.21451 6.30823 -0.0642575 -0.0162126 6.30858 17.1785 27 1 
704 1.21451 6.30823 -0.0642575 -0.0162126 6.30858 17.1785 31 1 
706 1.21453 6.31657 -0.0649145 -0.016217 6.31693 17.2105 31 1 
708 1.21455 6.32491 -0.0654685 -0.0161346 6.32527 17.2439 31 1 
710 1.21455 6.33351 -0.0659828 -0.016056 6.33388 17.2529 31 1 
712 1.21457 6.34083 -0.0663664 -0.015889 6.3412 17.2802 31 1 
714 1.21458 6.34772 -0.0667801 -0.0156719 6.34809 17.2986 31 1 
716 1.21459 6.35377 -0.0671038 -0.0154542 6.35415 17.3247 31 1 
718 1.21461 6.35872 -0.0674637 -0.0152904 6.35909 17.3544 31 1 
720 1.21462 6.36341 -0.067946 -0.0151171 6.36379 17.3734 31 1 
722 1.21464 6.36709 -0.0683861 -0.0150045 6.36748 17.4103 31 1 
724 1.21465 6.37158 -0.0690281 -0.0150372 6.37197 17.4253 31 1 
726 1.21467 6.37623 -0.0697904 -0.0150786 6.37663 17.4657 31 1 
728 1.21469 6.38188 -0.0706593 -0.0152041 6.38229 17.5106 31 1 
730 1.2147 6.38988 -0.0716707 -0.0153733 6.3903 17.5258 31 1 
732 1.21473 6.39968 -0.0727978 -0.015678 6.40012 17.5677 31 1 
734 1.21474 6.41265 -0.0740492 -0.0160634 6.4131 17.6002 31 1 
736 1.21475 6.42914 -0.075248 -0.01641 6.42961 17.6146 31 1 
738 1.21477 6.44787 -0.0764647 -0.01661 6.44835 17.6548 31 1 
740 1.21479 6.4703 -0.0774059 -0.016744 6.47079 17.682 31 1 
742 1.21482 6.49409 -0.0782419 -0.016897 6.49459 17.7305 31 1 
744 1.21484 6.51806 -0.0787664 -0.0167776 6.51856 17.7731 31 1 
746 1.21485 6.54264 -0.0787143 -0.0163722 6.54314 17.7922 31 1 
748 1.21489 6.56304 -0.0786442 -0.0158128 6.56354 17.8591 31 1 
750 1.2149 6.58121 -0.0780772 -0.0151029 6.58169 17.8858 31 1 
752 1.21492 6.59497 -0.077526 -0.0144065 6.59544 17.9191 31 1 
752 1.21492 6.59497 -0.077526 -0.0144065 6.59544 17.9191 31 1 
754 1.21495 6.60357 -0.077215 -0.0138345 6.60404 17.9762 31 1 
756 1.21497 6.6093 -0.076847 -0.0132766 6.60976 18.0009 31 1 
758 1.21498 6.61227 -0.0768206 -0.012794 6.61273 18.0272 31 1 
760 1.21501 6.61374 -0.0770365 -0.0124703 6.6142 18.0778 31 1 
762 1.21503 6.61415 -0.0777246 -0.0125093 6.61461 18.1237 31 1 
764 1.21503 6.61671 -0.0784504 -0.0124793 6.61719 18.1256 31 1 
766 1.21507 6.6194 -0.0790724 -0.0122445 6.61989 18.1875 31 1 
768 1.2151 6.62622 -0.0801738 -0.0124208 6.62672 18.2363 31 1 
770 1.21512 6.6344 -0.0814262 -0.0126819 6.63491 18.2862 31 1 
772 1.21514 6.64538 -0.0821323 -0.0123647 6.6459 18.3211 31 1 
774 1.21517 6.65926 -0.0833188 -0.0124975 6.6598 18.3641 31 1 
776 1.21519 6.67659 -0.0846395 -0.012796 6.67714 18.4111 31 1 
778 1.21522 6.69601 -0.0850322 -0.0120858 6.69657 18.4618 31 1 
780 1.21525 6.71686 -0.0854119 -0.0116392 6.71742 18.5112 31 1 
782 1.21527 6.74011 -0.0866456 -0.011858 6.74069 18.5565 31 1 
784 1.2153 6.76551 -0.0882694 -0.0120244 6.7661 18.6004 31 1 
786 1.21531 6.79575 -0.0884102 -0.0113307 6.79634 18.6249 31 1 
788 1.21536 6.82383 -0.0885526 -0.010766 6.82443 18.705 31 1 
790 1.21532 6.85941 -0.089721 -0.0102559 6.86001 18.638 31 1 
792 1.21534 6.89246 -0.0910456 -0.00994831 6.89308 18.6826 31 1 
794 1.21534 6.9328 -0.0908263 -0.00937921 6.93342 18.6708 31 1 
796 1.2153 6.97558 -0.0902581 -0.0072148 6.97618 18.6059 31 1 
798 1.2152 7.02635 -0.0932873 -0.00682456 7.027 18.4182 31 1 
800 1.21505 7.06301 -0.0958686 -0.00769615 7.0637 18.1524 31 1 
