32.6033;r ;Density                 ;Velocity u              ;Velocity v              ;Velocity w              ;|Velocity|              ;Pressure                ;Distribution            ;Levels                  ;
0 1.20422 9.99955 -6.28047e-05 -2.49021e-05 9.99955 -1.40867 1 1 
2 1.20424 9.99874 -7.70592e-05 -7.25586e-05 9.99874 -1.37179 1 1 
4 1.20424 9.99861 -0.000111933 -0.000152106 9.99861 -1.37444 1 1 
6 1.20424 9.99889 -0.000175049 -0.000238979 9.99889 -1.37927 1 1 
8 1.20424 9.99887 -0.000257885 -0.000349139 9.99887 -1.36566 1 1 
10 1.20423 9.999 -0.000357272 -0.000469 9.999 -1.38287 1 1 
12 1.20423 9.99868 -0.000436634 -0.000582969 9.99868 -1.38547 1 1 
14 1.20422 9.99952 -0.000517349 -0.000689573 9.99952 -1.41742 1 1 
16 1.20422 9.99949 -0.000538262 -0.000738189 9.99949 -1.40997 1 1 
18 1.20422 9.99922 -0.000609768 -0.000830961 9.99922 -1.41759 1 1 
20 1.20421 9.99997 -0.000729577 -0.000967884 9.99997 -1.42706 1 1 
22 1.20424 10.0002 -0.00080992 -0.00109183 10.0002 -1.37711 1 1 
24 1.20423 10.0013 -0.000892116 -0.00120718 10.0013 -1.39409 1 1 
26 1.20421 10.0009 -0.000954505 -0.00127673 10.0009 -1.43112 1 1 
28 1.20419 10.0007 -0.0010771 -0.00141386 10.0007 -1.47184 1 1 
30 1.20417 10.0009 -0.00115853 -0.00153228 10.0009 -1.4929 1 1 
32 1.20418 9.99989 -0.00121167 -0.00159973 9.99989 -1.47967 1 1 
32 1.20418 9.99989 -0.00121167 -0.00159973 9.99989 -1.47967 1 1 
34 1.20418 9.99968 -0.00122377 -0.00163411 9.99968 -1.48925 1 1 
36 1.20417 9.99949 -0.00132616 -0.00176692 9.99949 -1.49359 1 1 
38 1.20414 10.0006 -0.00137854 -0.00184202 10.0006 -1.55001 1 1 
40 1.20414 10.0012 -0.00143739 -0.00192919 10.0012 -1.5575 1 1 
42 1.20415 10.0005 -0.00154108 -0.0020552 10.0005 -1.53526 1 1 
44 1.20415 9.99942 -0.00159117 -0.00210292 9.99942 -1.5336 1 1 
46 1.20415 9.99892 -0.00171697 -0.00223626 9.99892 -1.53157 1 1 
48 1.20413 9.99969 -0.00181948 -0.00237789 9.99969 -1.57987 1 1 
50 1.20411 10.0006 -0.00181984 -0.00237694 10.0006 -1.60058 1 1 
52 1.20411 9.99983 -0.0018641 -0.00243093 9.99983 -1.61471 1 1 
54 1.2041 9.99826 -0.00193491 -0.00249781 9.99826 -1.63224 1 1 
56 1.2041 9.99901 -0.00194083 -0.00252155 9.99901 -1.61815 1 1 
58 1.2041 9.99976 -0.00201969 -0.00262721 9.99976 -1.6289 1 1 
60 1.20407 10.0001 -0.00208061 -0.00270215 10.0001 -1.67812 1 1 
62 1.20406 10.0005 -0.00214897 -0.00279981 10.0005 -1.69814 1 1 
64 1.20406 10.0014 -0.00220358 -0.00286082 10.0014 -1.70392 1 1 
64 1.20406 10.0014 -0.00220358 -0.00286082 10.0014 -1.70392 2 1 
66 1.20406 10.0014 -0.0022826 -0.00296403 10.0014 -1.70487 2 1 
68 1.20401 10.0022 -0.00236379 -0.00305635 10.0022 -1.78103 2 1 
70 1.204 10.0018 -0.00239923 -0.00313206 10.0018 -1.81494 2 1 
72 1.20398 10.0013 -0.00249463 -0.00324531 10.0013 -1.84427 2 1 
74 1.20394 10.0024 -0.00254935 -0.00329978 10.0024 -1.90702 2 1 
76 1.20394 10.0027 -0.00250941 -0.00330565 10.0027 -1.91132 2 1 
78 1.20389 10.0044 -0.0025239 -0.00333574 10.0044 -1.99894 2 1 
80 1.20387 10.0052 -0.00265143 -0.00348713 10.0052 -2.03877 2 1 
82 1.20387 10.0049 -0.00269897 -0.0035699 10.0049 -2.04338 2 1 
84 1.20386 10.0047 -0.00269874 -0.00357162 10.0047 -2.06271 2 1 
86 1.20385 10.0049 -0.00281672 -0.00370015 10.0049 -2.08373 2 1 
88 1.20381 10.0056 -0.0028916 -0.00379814 10.0056 -2.15291 2 1 
90 1.20378 10.0062 -0.00279675 -0.0037368 10.0062 -2.20428 2 1 
92 1.20375 10.0069 -0.00295284 -0.003913 10.0069 -2.26635 2 1 
94 1.20372 10.0063 -0.00311802 -0.004092 10.0063 -2.30389 2 1 
96 1.20372 10.006 -0.0030738 -0.00406378 10.006 -2.31175 2 1 
96 1.20372 10.006 -0.0030738 -0.00406378 10.006 -2.31175 2 1 
98 1.2037 10.0071 -0.0031832 -0.00416374 10.0071 -2.3414 2 1 
100 1.20368 10.0076 -0.00326853 -0.00428845 10.0076 -2.37623 2 1 
102 1.20365 10.0078 -0.00331154 -0.00437009 10.0078 -2.43822 2 1 
104 1.20363 10.0076 -0.00334097 -0.00442628 10.0076 -2.48144 2 1 
106 1.20362 10.0077 -0.00347056 -0.00457073 10.0077 -2.49793 2 1 
108 1.20362 10.0068 -0.00365086 -0.00477232 10.0068 -2.49264 2 1 
110 1.20359 10.0074 -0.00362552 -0.00476775 10.0074 -2.54819 2 1 
112 1.20357 10.0082 -0.00373797 -0.00490929 10.0082 -2.58921 2 1 
114 1.20355 10.0082 -0.00394565 -0.00515412 10.0082 -2.62279 2 1 
116 1.2035 10.0101 -0.00397782 -0.00521243 10.0101 -2.70661 2 1 
118 1.2035 10.0091 -0.0039364 -0.00519368 10.0091 -2.71485 2 1 
120 1.2035 10.0076 -0.00408956 -0.00534756 10.0076 -2.71654 2 1 
122 1.20346 10.0083 -0.00417416 -0.00546843 10.0083 -2.77705 2 1 
124 1.20345 10.0078 -0.00412739 -0.00547221 10.0078 -2.80222 2 1 
126 1.20345 10.0079 -0.00431351 -0.00567136 10.0079 -2.7954 2 1 
128 1.20341 10.0102 -0.00449558 -0.00584588 10.0102 -2.87378 2 1 
128 1.20341 10.0102 -0.00449558 -0.00584588 10.0102 -2.87378 10 1 
130 1.20342 10.0092 -0.00451351 -0.00592736 10.0092 -2.84541 10 1 
132 1.20341 10.0093 -0.0044832 -0.00592832 10.0093 -2.87129 10 1 
134 1.20336 10.0091 -0.00465795 -0.00612271 10.0091 -2.96375 10 1 
136 1.20334 10.0068 -0.00474151 -0.00622429 10.0068 -2.99725 10 1 
138 1.20331 10.0076 -0.00471009 -0.00622858 10.0076 -3.05524 10 1 
140 1.20333 10.0082 -0.00486467 -0.00642644 10.0082 -3.01359 10 1 
142 1.20333 10.0082 -0.00505666 -0.00659733 10.0082 -3.02261 10 1 
144 1.2033 10.0089 -0.00498803 -0.00657937 10.0089 -3.06911 10 1 
146 1.20331 10.0087 -0.00493909 -0.00655348 10.0087 -3.04904 10 1 
148 1.20329 10.0069 -0.00519529 -0.00682265 10.0069 -3.08974 10 1 
150 1.20324 10.0071 -0.00532842 -0.0070021 10.0071 -3.17822 10 1 
152 1.20325 10.0064 -0.00521556 -0.00693058 10.0064 -3.15702 10 1 
154 1.20325 10.0061 -0.0052114 -0.00694252 10.0061 -3.16 10 1 
156 1.20322 10.0075 -0.00548109 -0.00722427 10.0075 -3.21084 10 1 
158 1.20323 10.0057 -0.0054734 -0.00725815 10.0057 -3.19591 10 1 
160 1.20322 10.0037 -0.00528223 -0.00712021 10.0037 -3.20944 10 1 
160 1.20322 10.0037 -0.00528223 -0.00712021 10.0037 -3.20944 10 1 
162 1.20318 10.0052 -0.00544952 -0.0073098 10.0052 -3.2841 10 1 
164 1.20321 10.0036 -0.00574037 -0.0075863 10.0036 -3.24144 10 1 
166 1.20324 10.0016 -0.00571579 -0.00759324 10.0016 -3.17395 10 1 
168 1.20318 10.0035 -0.00559887 -0.00753581 10.0035 -3.28404 10 1 
170 1.2032 10.0004 -0.00578175 -0.00774348 10.0004 -3.25898 10 1 
172 1.20319 10.0008 -0.00601607 -0.00797926 10.0008 -3.27753 10 1 
174 1.20315 10.0013 -0.00588664 -0.00789741 10.0013 -3.34041 10 1 
176 1.2032 9.99721 -0.00581684 -0.00780914 9.99722 -3.24768 10 1 
178 1.20318 9.99764 -0.00601029 -0.00803575 9.99765 -3.28404 10 1 
180 1.20319 9.99564 -0.00620324 -0.00828541 9.99565 -3.27827 10 1 
182 1.20319 9.99217 -0.00612703 -0.00821676 9.99218 -3.27124 10 1 
184 1.20316 9.99224 -0.00602609 -0.00815536 9.99224 -3.32191 10 1 
186 1.20322 9.99185 -0.00626094 -0.00839119 9.99186 -3.22062 10 1 
188 1.20322 9.99036 -0.00658143 -0.00869834 9.99036 -3.20729 10 1 
190 1.20319 9.98935 -0.00657222 -0.00870371 9.98935 -3.27401 10 1 
192 1.20319 9.98741 -0.00623066 -0.00843768 9.98742 -3.26349 10 1 
194 1.20322 9.98344 -0.00657811 -0.00879693 9.98345 -3.21401 10 1 
196 1.20323 9.9805 -0.00692867 -0.00910168 9.98051 -3.1951 10 1 
198 1.20324 9.97868 -0.00670481 -0.00886393 9.97868 -3.17847 10 1 
200 1.20329 9.97546 -0.00645433 -0.00866681 9.97547 -3.08763 10 1 
202 1.20326 9.97458 -0.00620935 -0.00850597 9.97459 -3.13466 10 1 
204 1.20324 9.97415 -0.00640823 -0.00870598 9.97416 -3.18128 10 1 
206 1.20334 9.96933 -0.00675097 -0.00903905 9.96934 -2.99037 10 1 
208 1.20337 9.96657 -0.00655398 -0.00878141 9.96657 -2.95008 10 1 
210 1.20333 9.96393 -0.00624353 -0.00848895 9.96393 -3.01748 10 1 
212 1.20341 9.95444 -0.00628291 -0.00863576 9.95444 -2.87414 10 1 
214 1.20339 9.94861 -0.00622729 -0.00860385 9.94862 -2.91019 10 1 
216 1.2034 9.9432 -0.00596854 -0.008311 9.9432 -2.8847 10 1 
218 1.20349 9.93829 -0.00556089 -0.00788659 9.93829 -2.72576 10 1 
220 1.20352 9.94067 -0.00531313 -0.00771306 9.94067 -2.66546 10 1 
222 1.20358 9.93655 -0.00571044 -0.00810368 9.93656 -2.56139 10 1 
224 1.20359 9.92722 -0.00651065 -0.00877349 9.92723 -2.54919 10 1 
224 1.20359 9.92722 -0.00651065 -0.00877349 9.92723 -2.54919 10 1 
226 1.20366 9.91634 -0.00705998 -0.00931429 9.91635 -2.42199 10 1 
228 1.2037 9.90273 -0.00703024 -0.00936637 9.90273 -2.34698 10 1 
230 1.20374 9.8935 -0.00654541 -0.00892662 9.8935 -2.28073 10 1 
232 1.20379 9.89217 -0.0059151 -0.00825967 9.89217 -2.1845 10 1 
234 1.2039 9.88556 -0.00546048 -0.00773525 9.88556 -1.9948 10 1 
236 1.20402 9.87242 -0.00526052 -0.00757411 9.87242 -1.7625 10 1 
238 1.20398 9.86331 -0.00526642 -0.00761154 9.86332 -1.84174 10 1 
240 1.20417 9.84381 -0.00555816 -0.00790004 9.84382 -1.50215 10 1 
242 1.20423 9.83097 -0.00562871 -0.00792853 9.83097 -1.38509 10 1 
244 1.20423 9.82306 -0.00551888 -0.00780523 9.82307 -1.38218 10 1 
246 1.20452 9.8036 -0.00557205 -0.00784647 9.8036 -0.860049 10 1 
248 1.2046 9.78559 -0.00544232 -0.0077009 9.7856 -0.715788 10 1 
250 1.20467 9.763 -0.00567305 -0.00793074 9.76301 -0.596699 10 1 
252 1.20481 9.7427 -0.00593376 -0.00816286 9.7427 -0.338741 10 1 
254 1.20505 9.71907 -0.00573112 -0.0079238 9.71908 0.093504 10 1 
256 1.20522 9.69196 -0.00575601 -0.00795968 9.69197 0.395977 10 1 
256 1.20522 9.69196 -0.00575601 -0.00795968 9.69197 0.395977 11 1 
258 1.20535 9.66316 -0.00587816 -0.00810106 9.66317 0.634661 11 1 
260 1.20572 9.62773 -0.0060099 -0.00821175 9.62775 1.30916 11 1 
262 1.20595 9.58763 -0.00618853 -0.00835549 9.58764 1.70697 11 1 
264 1.206 9.54912 -0.00612918 -0.00825856 9.54913 1.80727 11 1 
266 1.20647 9.50229 -0.00609844 -0.00825495 9.50231 2.6576 11 1 
268 1.20705 9.43924 -0.00625006 -0.00841033 9.43926 3.69957 11 1 
270 1.20709 9.38888 -0.00639059 -0.00849178 9.38891 3.76893 11 1 
272 1.2076 9.31536 -0.00640097 -0.00848749 9.3154 4.70106 11 1 
274 1.20837 9.22713 -0.00645735 -0.0085639 9.22717 6.08624 11 1 
276 1.20857 9.15257 -0.00655397 -0.00860064 9.15262 6.45137 11 1 
278 1.20931 9.04827 -0.00662815 -0.00866659 9.0483 7.77733 11 1 
280 1.21034 8.93849 -0.00668759 -0.00870486 8.93858 9.65039 11 1 
282 1.21107 8.80304 -0.00671573 -0.00867798 8.8034 10.9645 11 1 
284 1.21177 8.61532 -0.00672746 -0.00869021 8.61587 12.2358 11 1 
286 1.21266 8.42647 -0.00678342 -0.00872338 8.4268 13.8426 11 1 
288 1.21395 8.24718 -0.00680349 -0.00870344 8.24728 16.1638 11 1 
288 1.21395 8.24718 -0.00680349 -0.00870344 8.24728 16.1638 11 1 
290 1.2154 8.06052 -0.00681665 -0.0086819 8.06071 18.7933 11 1 
292 1.21664 7.82878 -0.00687712 -0.00872558 7.82938 21.0236 11 1 
294 1.21773 7.54638 -0.00684784 -0.00865021 7.54748 23.0018 11 1 
296 1.21917 7.25191 -0.00681659 -0.0085476 7.25276 25.5867 11 1 
298 1.21133 6.87947 -0.00670428 -0.00837909 6.88001 11.4377 11 1 
300 1.19723 6.69654 -0.00663268 -0.00828283 6.69719 -14.0391 11 1 
302 1.19238 6.6062 -0.00674605 -0.00836973 6.60661 -22.8029 11 1 
304 1.19346 6.34859 -0.00677867 -0.00835567 6.34906 -20.8502 11 1 
306 1.19464 6.09011 -0.00673176 -0.00828513 6.09081 -18.7172 11 1 
308 1.19564 5.85192 -0.00671627 -0.00822295 5.85262 -16.904 11 1 
310 1.19631 5.64444 -0.00669504 -0.00815673 5.64505 -15.7022 11 1 
312 1.19703 5.4398 -0.00667224 -0.00812411 5.4402 -14.399 11 1 
314 1.1977 5.27371 -0.00671871 -0.00813614 5.274 -13.1778 11 1 
316 1.19826 5.13614 -0.00680075 -0.00818857 5.13637 -12.1718 11 1 
318 1.19878 4.98766 -0.0068396 -0.0082267 4.98787 -11.2392 11 1 
320 1.19917 4.86472 -0.00682823 -0.00818545 4.8649 -10.5328 11 1 
320 1.19917 4.86472 -0.00682823 -0.00818545 4.8649 -10.5328 15 1 
322 1.19953 4.77364 -0.00692463 -0.00826165 4.77374 -9.88486 15 1 
324 1.19993 4.68083 -0.00702295 -0.00836761 4.68088 -9.15677 15 1 
326 1.20026 4.59317 -0.0070227 -0.00836012 4.59323 -8.56593 15 1 
328 1.2005 4.5129 -0.00704788 -0.00837333 4.51298 -8.12211 15 1 
330 1.20071 4.43799 -0.00713175 -0.00844843 4.43806 -7.74436 15 1 
332 1.20102 4.38478 -0.00718193 -0.00849471 4.38483 -7.18548 15 1 
334 1.20134 4.32971 -0.00716523 -0.00848565 4.32975 -6.60529 15 1 
336 1.20143 4.25548 -0.00717832 -0.00849747 4.25553 -6.45305 15 1 
338 1.20153 4.19571 -0.00722171 -0.0085435 4.19578 -6.25979 15 1 
340 1.20182 4.15544 -0.00727632 -0.0086132 4.15551 -5.74798 15 1 
342 1.20202 4.11324 -0.00726534 -0.00859621 4.11331 -5.39012 15 1 
344 1.2021 4.05971 -0.00721397 -0.00853903 4.05977 -5.23205 15 1 
346 1.2022 4.00151 -0.00728374 -0.00863104 4.00157 -5.06164 15 1 
348 1.20238 3.96575 -0.00747859 -0.00884931 3.96581 -4.74028 15 1 
350 1.20257 3.94193 -0.00760169 -0.00897872 3.94199 -4.39537 15 1 
352 1.20265 3.90012 -0.007608 -0.00899802 3.90017 -4.24153 15 1 
354 1.20275 3.85902 -0.00766061 -0.00908355 3.85906 -4.06323 15 1 
356 1.20288 3.83043 -0.0078531 -0.00932132 3.83047 -3.82512 15 1 
358 1.20296 3.8047 -0.00801506 -0.00950535 3.80474 -3.67814 15 1 
360 1.20306 3.7856 -0.00809 -0.00960441 3.78563 -3.50546 15 1 
362 1.20317 3.76619 -0.00825159 -0.00983008 3.76622 -3.29803 15 1 
364 1.20328 3.74337 -0.00852061 -0.0101442 3.74339 -3.11269 15 1 
366 1.20337 3.72711 -0.0087228 -0.0103646 3.72714 -2.94911 15 1 
368 1.20348 3.71849 -0.00883573 -0.0105296 3.71852 -2.75389 15 1 
370 1.20361 3.71508 -0.00899082 -0.0107367 3.71511 -2.50821 15 1 
372 1.20369 3.70781 -0.00924942 -0.0110151 3.70784 -2.37475 15 1 
374 1.20372 3.696 -0.00949665 -0.0113041 3.69603 -2.30895 15 1 
376 1.2038 3.69083 -0.00958147 -0.0114354 3.69086 -2.16367 15 1 
378 1.2039 3.6913 -0.00963802 -0.011512 3.69133 -1.98636 15 1 
380 1.204 3.69388 -0.00978758 -0.0116902 3.69392 -1.7997 15 1 
382 1.20409 3.69496 -0.00998328 -0.0119333 3.695 -1.63768 15 1 
384 1.20416 3.68957 -0.0101265 -0.01211 3.6896 -1.50865 15 1 
384 1.20416 3.68957 -0.0101265 -0.01211 3.6896 -1.50865 16 1 
386 1.20425 3.68681 -0.0101961 -0.0122152 3.68685 -1.3593 16 1 
388 1.20433 3.69194 -0.0102628 -0.012327 3.69198 -1.21412 16 1 
390 1.2044 3.69625 -0.0103734 -0.0124701 3.69629 -1.079 16 1 
392 1.20447 3.69754 -0.0104286 -0.0125605 3.69758 -0.958412 16 1 
394 1.20452 3.69618 -0.0104352 -0.0126101 3.69621 -0.865611 16 1 
396 1.20458 3.69451 -0.0104851 -0.0126779 3.69455 -0.76658 16 1 
398 1.20465 3.6969 -0.0105629 -0.0127648 3.69693 -0.638468 16 1 
400 1.20474 3.70026 -0.0106381 -0.0128905 3.7003 -0.468606 16 1 
402 1.20482 3.70228 -0.0107504 -0.0130589 3.70232 -0.33193 16 1 
404 1.20486 3.70263 -0.010876 -0.0131995 3.70267 -0.25487 16 1 
406 1.20492 3.70373 -0.0109154 -0.0132612 3.70377 -0.141123 16 1 
408 1.20498 3.70747 -0.0109033 -0.0132869 3.70751 -0.0289495 16 1 
410 1.20502 3.70883 -0.0109917 -0.013401 3.70887 0.0411385 16 1 
412 1.20506 3.70793 -0.0112241 -0.013676 3.70797 0.108774 16 1 
414 1.20511 3.70957 -0.0115522 -0.0140733 3.70962 0.191651 16 1 
416 1.20517 3.71473 -0.0119231 -0.0145215 3.71478 0.302826 16 1 
416 1.20517 3.71473 -0.0119231 -0.0145215 3.71478 0.302826 16 1 
418 1.20522 3.72498 -0.0122388 -0.0149023 3.72503 0.39818 16 1 
420 1.20526 3.73785 -0.0124362 -0.015146 3.7379 0.478319 16 1 
422 1.20532 3.74865 -0.0125245 -0.0152628 3.7487 0.57207 16 1 
424 1.20536 3.75711 -0.0125897 -0.0153479 3.75717 0.649282 16 1 
426 1.2054 3.7639 -0.0127488 -0.0155628 3.76396 0.715055 16 1 
428 1.20543 3.77285 -0.0130903 -0.0159965 3.77291 0.774112 16 1 
430 1.20547 3.7884 -0.0136136 -0.0166323 3.78847 0.841695 16 1 
432 1.20551 3.80996 -0.0141987 -0.0173516 3.81004 0.928685 16 1 
434 1.20556 3.83698 -0.0146816 -0.0179709 3.83707 1.00495 16 1 
436 1.2056 3.86903 -0.0149878 -0.0183853 3.86913 1.07506 16 1 
438 1.20564 3.90316 -0.0151048 -0.0185664 3.90326 1.15138 16 1 
440 1.20569 3.9355 -0.0150695 -0.0185586 3.93559 1.24356 16 1 
442 1.20574 3.96299 -0.0150341 -0.018554 3.96308 1.3311 16 1 
444 1.20577 3.98645 -0.0151196 -0.0187109 3.98654 1.3818 16 1 
446 1.20579 4.00986 -0.0153657 -0.0190568 4.00995 1.4231 16 1 
448 1.20583 4.03732 -0.0157417 -0.019556 4.03742 1.49258 16 1 
448 1.20583 4.03732 -0.0157417 -0.019556 4.03742 1.49258 17 1 
450 1.20587 4.07146 -0.0161641 -0.0201315 4.07158 1.57847 17 1 
452 1.20591 4.11163 -0.0165851 -0.0207053 4.11176 1.65008 17 1 
454 1.20595 4.15607 -0.0169567 -0.0211968 4.1562 1.72018 17 1 
456 1.20599 4.20377 -0.0172084 -0.0215371 4.20391 1.78532 17 1 
458 1.20602 4.2533 -0.0173055 -0.0217194 4.25344 1.83997 17 1 
460 1.20605 4.30337 -0.0172881 -0.021768 4.3035 1.88869 17 1 
462 1.20607 4.35242 -0.0172063 -0.0216994 4.35255 1.93008 17 1 
464 1.20611 4.39803 -0.0170013 -0.0214649 4.39814 1.99938 17 1 
466 1.20614 4.4374 -0.0166364 -0.02103 4.4375 2.05804 17 1 
468 1.20616 4.46763 -0.0161663 -0.0204448 4.46772 2.09665 17 1 
470 1.20618 4.48588 -0.0156411 -0.0197809 4.48596 2.13554 17 1 
472 1.20619 4.49095 -0.0151253 -0.0191413 4.49101 2.14373 17 1 
474 1.20619 4.48583 -0.0147457 -0.0187043 4.4859 2.15744 17 1 
476 1.2062 4.47584 -0.0146102 -0.0185948 4.4759 2.16751 17 1 
478 1.20621 4.46645 -0.0147462 -0.0188087 4.46652 2.18824 17 1 
480 1.20623 4.46374 -0.0150903 -0.0192804 4.46381 2.22793 17 1 
480 1.20623 4.46374 -0.0150903 -0.0192804 4.46381 2.22793 17 1 
482 1.20624 4.47033 -0.0155298 -0.0198947 4.4704 2.23329 17 1 
484 1.20624 4.48695 -0.0159946 -0.0205358 4.48703 2.23733 17 1 
486 1.20624 4.51461 -0.0164447 -0.0211351 4.5147 2.24064 17 1 
488 1.20625 4.55261 -0.0168491 -0.021674 4.55271 2.25376 17 1 
490 1.20627 4.60038 -0.0171748 -0.022136 4.6005 2.28738 17 1 
492 1.20628 4.6561 -0.0174309 -0.0224908 4.65624 2.31682 17 1 
494 1.2063 4.71812 -0.0176435 -0.0227512 4.71826 2.33966 17 1 
496 1.2063 4.78577 -0.0177983 -0.0229676 4.78592 2.35525 17 1 
498 1.20632 4.85788 -0.0179067 -0.0231322 4.85804 2.38089 17 1 
500 1.20633 4.93456 -0.0180008 -0.0232375 4.93473 2.39927 17 1 
502 1.20634 5.01457 -0.0180941 -0.0233327 5.01474 2.42531 17 1 
504 1.20636 5.09713 -0.0181869 -0.0234283 5.0973 2.45639 17 1 
506 1.20637 5.1822 -0.0182584 -0.0234822 5.18238 2.46565 17 1 
508 1.20637 5.26942 -0.018305 -0.0234955 5.2696 2.47084 17 1 
510 1.20637 5.35826 -0.0183385 -0.0234973 5.35843 2.47735 17 1 
512 1.20639 5.44824 -0.0183665 -0.0234715 5.44842 2.50263 17 1 
512 1.20639 5.44824 -0.0183665 -0.0234715 5.44842 2.50263 25 1 
514 1.2064 5.54005 -0.0183654 -0.0234053 5.54022 2.53235 25 1 
516 1.20641 5.63265 -0.0183489 -0.0233314 5.63282 2.55343 25 1 
518 1.20641 5.72555 -0.0183532 -0.0232664 5.72572 2.54924 25 1 
520 1.2064 5.81911 -0.0183806 -0.0232109 5.81927 2.52952 25 1 
522 1.2064 5.91328 -0.0184321 -0.0231785 5.91345 2.52449 25 1 
524 1.20639 6.008 -0.0184596 -0.0231383 6.00816 2.5123 25 1 
526 1.20639 6.10275 -0.018449 -0.0230443 6.10291 2.50263 25 1 
528 1.20638 6.19799 -0.0184171 -0.0229141 6.19815 2.49813 25 1 
530 1.20638 6.29357 -0.0183949 -0.0228065 6.29372 2.49866 25 1 
532 1.20638 6.38904 -0.0183926 -0.0227187 6.38919 2.49094 25 1 
534 1.20636 6.48429 -0.0183985 -0.0226202 6.48444 2.45997 25 1 
536 1.20633 6.57939 -0.0184149 -0.0225313 6.57953 2.40493 25 1 
538 1.2063 6.67411 -0.0184247 -0.0224488 6.67425 2.34227 25 1 
540 1.20627 6.76851 -0.018424 -0.0223476 6.76865 2.29187 25 1 
542 1.20624 6.863 -0.01841 -0.0222267 6.86313 2.23801 25 1 
544 1.20623 6.95744 -0.018398 -0.0221081 6.95758 2.21727 25 1 
544 1.20623 6.95744 -0.018398 -0.0221081 6.95758 2.21727 25 1 
546 1.20623 7.05225 -0.0183937 -0.0220036 7.05239 2.21558 25 1 
548 1.20623 7.14693 -0.0183969 -0.0218988 7.14706 2.21665 25 1 
550 1.20622 7.24097 -0.0183961 -0.0217654 7.2411 2.21098 25 1 
552 1.2062 7.33439 -0.0183863 -0.0216328 7.33452 2.16123 25 1 
554 1.20617 7.42729 -0.0183921 -0.0215311 7.42741 2.10939 25 1 
556 1.20615 7.51999 -0.0184122 -0.0214244 7.52011 2.07297 25 1 
558 1.20613 7.61271 -0.0184208 -0.0213174 7.61283 2.04947 25 1 
560 1.20613 7.70546 -0.0184158 -0.0212158 7.70558 2.04819 25 1 
562 1.20614 7.79801 -0.018398 -0.021086 7.79813 2.05881 25 1 
564 1.20614 7.89031 -0.0183737 -0.0209372 7.89042 2.05412 25 1 
566 1.20614 7.98227 -0.0183544 -0.0207976 7.98238 2.05305 25 1 
568 1.20615 8.07366 -0.0183539 -0.020682 8.07378 2.06916 25 1 
570 1.20615 8.16409 -0.0183635 -0.0205828 8.1642 2.07661 25 1 
572 1.20614 8.25341 -0.0183432 -0.0204619 8.25352 2.06409 25 1 
574 1.20612 8.34141 -0.0183103 -0.0203066 8.34151 2.03029 25 1 
576 1.2061 8.42844 -0.018257 -0.0201188 8.42854 1.99076 25 1 
576 1.2061 8.42844 -0.018257 -0.0201188 8.42854 1.99076 26 1 
578 1.20608 8.51505 -0.0181944 -0.0199426 8.51515 1.9598 26 1 
580 1.20608 8.60072 -0.0181616 -0.0197946 8.60081 1.9513 26 1 
582 1.20608 8.68456 -0.0181276 -0.0196196 8.68465 1.9566 26 1 
584 1.20609 8.76616 -0.0180592 -0.0194119 8.76625 1.97024 26 1 
586 1.20609 8.84585 -0.017945 -0.0191736 8.84593 1.97144 26 1 
588 1.20608 8.92421 -0.0178276 -0.0189227 8.92428 1.95295 26 1 
590 1.20606 9.00051 -0.0177214 -0.0186802 9.00059 1.91736 26 1 
592 1.20603 9.07444 -0.0176281 -0.0184528 9.07452 1.85681 26 1 
594 1.206 9.14508 -0.0175479 -0.0182247 9.14515 1.79836 26 1 
596 1.20599 9.21165 -0.0174341 -0.017952 9.21172 1.78101 26 1 
598 1.20599 9.27554 -0.017253 -0.0176389 9.2756 1.79379 26 1 
600 1.20599 9.3384 -0.0170551 -0.0173356 9.33846 1.78757 26 1 
602 1.20598 9.39985 -0.0169065 -0.0170656 9.3999 1.77024 26 1 
604 1.20597 9.45778 -0.0167872 -0.0168055 9.45783 1.74929 26 1 
606 1.20596 9.51159 -0.0166638 -0.0165549 9.51163 1.73844 26 1 
608 1.20596 9.56145 -0.0165128 -0.0162948 9.56149 1.73146 26 1 
608 1.20596 9.56145 -0.0165128 -0.0162948 9.56149 1.73146 26 1 
610 1.20593 9.60854 -0.0163043 -0.0159651 9.60858 1.67223 26 1 
612 1.20588 9.65294 -0.0160856 -0.0156123 9.65297 1.59664 26 1 
614 1.20587 9.69353 -0.0158974 -0.01529 9.69356 1.57618 26 1 
616 1.2059 9.73025 -0.0157132 -0.0149966 9.73029 1.61934 26 1 
618 1.20593 9.76349 -0.0155271 -0.0147307 9.76352 1.683 26 1 
620 1.20592 9.79346 -0.0153083 -0.0144313 9.79349 1.66256 26 1 
622 1.20586 9.8196 -0.0150714 -0.0140977 9.81963 1.55771 26 1 
624 1.20582 9.84104 -0.0148445 -0.0137736 9.84106 1.49009 26 1 
626 1.20584 9.85846 -0.0146743 -0.013515 9.85848 1.52439 26 1 
628 1.20587 9.87253 -0.0145501 -0.0133048 9.87255 1.57645 26 1 
630 1.20586 9.88393 -0.0144094 -0.0130738 9.88395 1.54714 26 1 
632 1.20582 9.89376 -0.0142667 -0.0128491 9.89378 1.48512 26 1 
634 1.20581 9.90228 -0.014138 -0.0126433 9.9023 1.4714 26 1 
636 1.20583 9.9099 -0.0140162 -0.0124308 9.90992 1.49666 26 1 
638 1.20583 9.91685 -0.013956 -0.0122953 9.91686 1.50202 26 1 
640 1.20583 9.92285 -0.0139559 -0.0122322 9.92287 1.49298 26 1 
642 1.20582 9.92646 -0.0139067 -0.0121247 9.92648 1.4778 26 1 
644 1.2058 9.92946 -0.0137884 -0.0119585 9.92948 1.44951 26 1 
646 1.20577 9.93339 -0.0136547 -0.0117847 9.93341 1.399 26 1 
648 1.20576 9.93736 -0.0135606 -0.011651 9.93738 1.36423 26 1 
650 1.20578 9.94175 -0.0135402 -0.0115847 9.94177 1.39984 26 1 
652 1.20581 9.94647 -0.0135586 -0.0115771 9.94648 1.46341 26 1 
654 1.20582 9.95124 -0.0135202 -0.0115394 9.95125 1.47402 26 1 
656 1.20578 9.95453 -0.0134107 -0.0114189 9.95455 1.41665 26 1 
658 1.20574 9.9551 -0.0132884 -0.0112639 9.95512 1.34452 26 1 
660 1.20572 9.95496 -0.0131481 -0.0111086 9.95497 1.29793 26 1 
662 1.20571 9.95702 -0.013018 -0.0109549 9.95703 1.28737 26 1 
664 1.20574 9.96177 -0.0129979 -0.0108952 9.96178 1.33098 26 1 
666 1.20577 9.96651 -0.0130732 -0.0109385 9.96653 1.39467 26 1 
668 1.20577 9.96918 -0.0130519 -0.0108807 9.96919 1.39082 26 1 
670 1.20573 9.97034 -0.0129002 -0.0106929 9.97035 1.3123 26 1 
672 1.20568 9.97061 -0.0127335 -0.0105062 9.97062 1.22285 26 1 
672 1.20568 9.97061 -0.0127335 -0.0105062 9.97062 1.22285 27 1 
674 1.20567 9.9713 -0.0126506 -0.0104059 9.97131 1.21699 27 1 
676 1.2057 9.97305 -0.0126575 -0.0103834 9.97306 1.26732 27 1 
678 1.20572 9.97631 -0.0126759 -0.0103961 9.97632 1.29652 27 1 
680 1.20573 9.97909 -0.0126196 -0.0103502 9.97911 1.31026 27 1 
682 1.20571 9.97969 -0.0124652 -0.0101923 9.9797 1.28203 27 1 
684 1.20566 9.97929 -0.0123055 -0.010027 9.9793 1.19851 27 1 
686 1.20562 9.97851 -0.01219 -0.00993528 9.97852 1.12729 27 1 
688 1.20563 9.97882 -0.0121054 -0.00986731 9.97883 1.12955 27 1 
690 1.20566 9.98064 -0.0120516 -0.00980721 9.98065 1.19537 27 1 
692 1.20569 9.98256 -0.0120039 -0.00977859 9.98257 1.2458 27 1 
694 1.20568 9.98326 -0.0119223 -0.00972497 9.98328 1.22635 27 1 
696 1.20564 9.98268 -0.0118122 -0.00961212 9.98269 1.16216 27 1 
698 1.2056 9.98158 -0.0116981 -0.00950871 9.98159 1.08595 27 1 
700 1.20558 9.98079 -0.0116135 -0.00945076 9.9808 1.05032 27 1 
702 1.20559 9.98059 -0.0115437 -0.00938618 9.9806 1.07093 27 1 
704 1.20561 9.98155 -0.0114783 -0.0093334 9.98156 1.0968 27 1 
704 1.20561 9.98155 -0.0114783 -0.0093334 9.98156 1.0968 31 1 
706 1.20561 9.98307 -0.0114165 -0.00929065 9.98308 1.098 31 1 
708 1.2056 9.98284 -0.0113598 -0.00924753 9.98285 1.08489 31 1 
710 1.20559 9.98137 -0.0112848 -0.00918448 9.98139 1.06267 31 1 
712 1.20557 9.98027 -0.0111714 -0.00909872 9.98028 1.0232 31 1 
714 1.20554 9.97935 -0.0110694 -0.009014 9.97936 0.977371 31 1 
716 1.20553 9.98011 -0.0110124 -0.00896723 9.98011 0.965059 31 1 
718 1.20554 9.98119 -0.0109655 -0.00894489 9.9812 0.975123 31 1 
720 1.20553 9.98103 -0.0109086 -0.00890617 9.98104 0.966281 31 1 
722 1.20553 9.98067 -0.01081 -0.00881977 9.98068 0.955119 31 1 
724 1.20553 9.97953 -0.0107123 -0.00874486 9.97954 0.955048 31 1 
726 1.20551 9.97893 -0.0106318 -0.00869575 9.97894 0.926404 31 1 
728 1.20548 9.9793 -0.010565 -0.0086407 9.97931 0.869782 31 1 
730 1.20547 9.97985 -0.0105106 -0.00860658 9.97986 0.853037 31 1 
732 1.20548 9.98041 -0.0104363 -0.0085754 9.98042 0.863173 31 1 
734 1.20547 9.98009 -0.0103396 -0.00850802 9.98009 0.8508 31 1 
736 1.20547 9.9799 -0.010245 -0.00843236 9.97991 0.847329 31 1 
738 1.20547 9.97983 -0.0101973 -0.00840305 9.97984 0.844058 31 1 
740 1.20545 9.97976 -0.0101499 -0.00838365 9.97976 0.807251 31 1 
742 1.20542 9.9804 -0.0100682 -0.00833118 9.98041 0.764535 31 1 
744 1.20541 9.98066 -0.00995178 -0.00823301 9.98067 0.743031 31 1 
746 1.20541 9.98069 -0.00984387 -0.00814835 9.98069 0.744842 31 1 
748 1.20542 9.98144 -0.00979394 -0.00812795 9.98145 0.758955 31 1 
750 1.20542 9.98188 -0.00976187 -0.00811914 9.98189 0.755197 31 1 
752 1.20539 9.98164 -0.0097184 -0.00808678 9.98165 0.699293 31 1 
752 1.20539 9.98164 -0.0097184 -0.00808678 9.98165 0.699293 31 1 
754 1.20536 9.98207 -0.00963887 -0.00802012 9.98207 0.647523 31 1 
756 1.20537 9.98307 -0.00951739 -0.00792788 9.98308 0.672695 31 1 
758 1.2054 9.98388 -0.00941462 -0.007847 9.98389 0.714779 31 1 
760 1.20538 9.984 -0.00935894 -0.00780486 9.98401 0.681161 31 1 
762 1.20533 9.98243 -0.00931331 -0.00778968 9.98243 0.600822 31 1 
764 1.20531 9.98212 -0.00924491 -0.00772999 9.98213 0.561833 31 1 
766 1.20532 9.98386 -0.0091307 -0.00762962 9.98387 0.57339 31 1 
768 1.20533 9.98408 -0.0090161 -0.00755275 9.98408 0.597149 31 1 
770 1.20533 9.98391 -0.00894028 -0.00749148 9.98391 0.595545 31 1 
772 1.2053 9.98348 -0.00889594 -0.00744474 9.98348 0.549884 31 1 
774 1.20529 9.98321 -0.00886133 -0.00743183 9.98321 0.527206 31 1 
776 1.20529 9.98354 -0.00879378 -0.00738268 9.98354 0.525206 31 1 
778 1.20527 9.98251 -0.00866585 -0.00726192 9.98251 0.479541 31 1 
780 1.20525 9.98184 -0.00855035 -0.00716677 9.98185 0.455865 31 1 
782 1.20526 9.98209 -0.00849385 -0.0071324 9.98209 0.463875 31 1 
784 1.20526 9.98216 -0.00846555 -0.00712946 9.98216 0.463537 31 1 
786 1.20525 9.98165 -0.00840655 -0.00709404 9.98165 0.448593 31 1 
788 1.20521 9.97997 -0.00829103 -0.00699151 9.97998 0.376615 31 1 
790 1.20518 9.97895 -0.00814772 -0.00687063 9.97896 0.320184 31 1 
792 1.20521 9.98034 -0.00805097 -0.00679843 9.98034 0.373269 31 1 
794 1.20523 9.98011 -0.00804383 -0.00679735 9.98012 0.41941 31 1 
796 1.20521 9.97837 -0.00803587 -0.00679606 9.97837 0.376076 31 1 
798 1.20517 9.97805 -0.00797137 -0.00673456 9.97806 0.306358 31 1 
800 1.20515 9.97793 -0.00791647 -0.0066816 9.97794 0.271676 31 1 
