157.583;r ;Density                 ;Velocity u              ;Velocity v              ;Velocity w              ;|Velocity|              ;Pressure                ;Distribution            ;Levels                  ;
0 1.27085 9.99761 -1.68875e-05 3.36915e-05 9.99761 118.933 1 1 
2 1.27088 9.9953 8.75608e-06 7.87874e-05 9.9953 118.987 1 1 
4 1.2709 9.99226 -4.31136e-05 9.55566e-05 9.99226 119.023 1 1 
6 1.27091 9.98961 -5.68146e-05 0.000141654 9.98961 119.056 1 1 
8 1.27094 9.98693 -8.31988e-05 0.000176976 9.98693 119.098 1 1 
10 1.27095 9.98443 -9.57311e-05 0.000234384 9.98443 119.127 1 1 
12 1.27098 9.98085 -0.000108478 0.000277328 9.98085 119.184 1 1 
14 1.27099 9.97835 -0.000159729 0.000295231 9.97835 119.2 1 1 
16 1.27102 9.97517 -0.00013736 0.000367554 9.97517 119.258 1 1 
18 1.27104 9.97199 -0.000162992 0.000400533 9.97199 119.285 1 1 
20 1.27105 9.96987 -0.000220168 0.000416836 9.96987 119.301 1 1 
22 1.2711 9.96719 -0.000237109 0.000459467 9.96719 119.389 1 1 
24 1.27111 9.96501 -0.000269715 0.00048611 9.96501 119.411 1 1 
26 1.27113 9.96148 -0.000298215 0.000544523 9.96148 119.438 1 1 
28 1.27115 9.95835 -0.000338082 0.000573962 9.95835 119.478 1 1 
30 1.27116 9.95542 -0.000348736 0.000606719 9.95542 119.51 1 1 
32 1.27119 9.95184 -0.000382056 0.000637065 9.95184 119.56 1 1 
32 1.27119 9.95184 -0.000382056 0.000637065 9.95184 119.56 1 1 
34 1.27121 9.94924 -0.000381966 0.000695428 9.94924 119.583 1 1 
36 1.27123 9.94602 -0.000426114 0.000718485 9.94602 119.636 1 1 
38 1.27125 9.94366 -0.000439847 0.000769915 9.94366 119.658 1 1 
40 1.27127 9.94058 -0.000469761 0.000794419 9.94058 119.697 1 1 
42 1.2713 9.93698 -0.000521303 0.000805367 9.93698 119.747 1 1 
44 1.27131 9.93378 -0.000517894 0.000888613 9.93378 119.771 1 1 
46 1.27133 9.93042 -0.00057717 0.000887438 9.93042 119.815 1 1 
48 1.27135 9.92769 -0.000612317 0.000901957 9.92769 119.84 1 1 
50 1.27137 9.92542 -0.000606558 0.00100902 9.92542 119.885 1 1 
52 1.2714 9.92205 -0.000624367 0.00105476 9.92205 119.931 1 1 
54 1.27141 9.91814 -0.000676307 0.0010826 9.91814 119.954 1 1 
56 1.27143 9.91572 -0.000693916 0.00112447 9.91572 119.995 1 1 
58 1.27146 9.91292 -0.000760376 0.00110375 9.91292 120.035 1 1 
60 1.27147 9.9099 -0.000757432 0.0011736 9.9099 120.062 1 1 
62 1.27149 9.90682 -0.000798649 0.00120036 9.90682 120.106 1 1 
64 1.27152 9.90414 -0.000832846 0.00124378 9.90414 120.149 1 1 
64 1.27152 9.90414 -0.000832846 0.00124378 9.90414 120.149 2 1 
66 1.27154 9.90107 -0.000835304 0.00130869 9.90107 120.197 2 1 
68 1.27155 9.89903 -0.000867529 0.00133329 9.89903 120.199 2 1 
70 1.27158 9.89573 -0.000916592 0.0013297 9.89573 120.258 2 1 
72 1.2716 9.89177 -0.000955378 0.00135865 9.89177 120.304 2 1 
74 1.27161 9.88938 -0.000965442 0.00143163 9.88938 120.311 2 1 
76 1.27165 9.88629 -0.000989798 0.00147196 9.88629 120.394 2 1 
78 1.27166 9.88422 -0.00100844 0.00155249 9.88422 120.404 2 1 
80 1.27167 9.88138 -0.00104395 0.00158662 9.88138 120.43 2 1 
82 1.2717 9.87769 -0.00107733 0.00157686 9.87769 120.48 2 1 
84 1.27172 9.87459 -0.00107299 0.00165091 9.87459 120.52 2 1 
86 1.27175 9.872 -0.00111439 0.00167997 9.872 120.565 2 1 
88 1.27176 9.86905 -0.00117822 0.00169767 9.86905 120.589 2 1 
90 1.27178 9.86589 -0.00115166 0.00180537 9.86589 120.627 2 1 
92 1.2718 9.86304 -0.00122276 0.00183781 9.86304 120.658 2 1 
94 1.27183 9.85948 -0.00124418 0.0018956 9.85948 120.709 2 1 
96 1.27185 9.85649 -0.0012336 0.00197051 9.85649 120.752 2 1 
96 1.27185 9.85649 -0.0012336 0.00197051 9.85649 120.752 2 1 
98 1.27186 9.85473 -0.00132658 0.0019538 9.85474 120.77 2 1 
100 1.27189 9.85164 -0.00128787 0.0020423 9.85164 120.817 2 1 
102 1.27191 9.84814 -0.00133598 0.0020547 9.84814 120.85 2 1 
104 1.27193 9.84445 -0.00139189 0.00209108 9.84446 120.891 2 1 
106 1.27195 9.84067 -0.0013844 0.00221781 9.84067 120.934 2 1 
108 1.27198 9.83696 -0.0014578 0.00222706 9.83696 120.975 2 1 
110 1.27198 9.83546 -0.0014486 0.002288 9.83546 120.978 2 1 
112 1.27201 9.8329 -0.0014654 0.00234052 9.8329 121.033 2 1 
114 1.27205 9.82917 -0.0014875 0.00238589 9.82917 121.104 2 1 
116 1.27205 9.82749 -0.00151548 0.00243109 9.82749 121.113 2 1 
118 1.27208 9.82292 -0.00150273 0.00253526 9.82292 121.172 2 1 
120 1.2721 9.81864 -0.00153074 0.00261686 9.81864 121.207 2 1 
122 1.2721 9.81598 -0.00156955 0.00266205 9.81598 121.197 2 1 
124 1.27213 9.81164 -0.00158608 0.00270373 9.81164 121.258 2 1 
126 1.27218 9.80888 -0.00163427 0.00272192 9.80888 121.351 2 1 
128 1.27217 9.80788 -0.00162384 0.00282229 9.80788 121.334 2 1 
128 1.27217 9.80788 -0.00162384 0.00282229 9.80788 121.334 10 1 
130 1.27221 9.80379 -0.0016641 0.00284979 9.80379 121.403 10 1 
132 1.27223 9.80118 -0.00165395 0.00298129 9.80118 121.44 10 1 
134 1.27224 9.7971 -0.00167384 0.00306872 9.7971 121.46 10 1 
136 1.27228 9.79149 -0.00169428 0.00312022 9.79149 121.525 10 1 
138 1.27228 9.78957 -0.00171132 0.00315327 9.78957 121.524 10 1 
140 1.27233 9.78693 -0.00173304 0.00319996 9.78693 121.607 10 1 
142 1.27234 9.78415 -0.00174626 0.0033245 9.78415 121.638 10 1 
144 1.27236 9.78141 -0.00175927 0.00341007 9.78142 121.661 10 1 
146 1.27241 9.77721 -0.00177656 0.00351179 9.77721 121.751 10 1 
148 1.27242 9.77235 -0.00181044 0.00357512 9.77236 121.768 10 1 
150 1.27241 9.76967 -0.00179941 0.00364782 9.76968 121.755 10 1 
152 1.27246 9.76608 -0.00181217 0.00369947 9.76608 121.852 10 1 
154 1.27249 9.76276 -0.00178345 0.00380037 9.76276 121.91 10 1 
156 1.2725 9.76057 -0.00181994 0.00386975 9.76057 121.918 10 1 
158 1.27254 9.75531 -0.00182537 0.0039924 9.75532 121.998 10 1 
160 1.27256 9.7504 -0.00178376 0.00414188 9.7504 122.034 10 1 
160 1.27256 9.7504 -0.00178376 0.00414188 9.7504 122.034 10 1 
162 1.27255 9.74834 -0.00180713 0.00420404 9.74834 122.011 10 1 
164 1.27261 9.74352 -0.00182084 0.00428631 9.74352 122.112 10 1 
166 1.27267 9.73904 -0.00183226 0.0043509 9.73904 122.22 10 1 
168 1.27264 9.73766 -0.0018666 0.00440045 9.73766 122.173 10 1 
170 1.27269 9.73109 -0.00186834 0.00451305 9.73109 122.269 10 1 
172 1.27271 9.72827 -0.0018363 0.00467976 9.72827 122.302 10 1 
174 1.27272 9.72562 -0.00177497 0.0048265 9.72562 122.316 10 1 
176 1.2728 9.71884 -0.00180604 0.00493454 9.71884 122.466 10 1 
178 1.2728 9.71602 -0.00178819 0.00503288 9.71602 122.457 10 1 
180 1.27283 9.71086 -0.00177904 0.00508194 9.71087 122.51 10 1 
182 1.27286 9.70443 -0.0018277 0.00514109 9.70443 122.569 10 1 
184 1.27286 9.70097 -0.00182576 0.00528215 9.70097 122.568 10 1 
186 1.27294 9.69693 -0.00177431 0.00550285 9.69693 122.722 10 1 
188 1.27298 9.69191 -0.00175709 0.00565443 9.69191 122.785 10 1 
190 1.27298 9.6881 -0.00177215 0.00571104 9.68811 122.785 10 1 
192 1.27301 9.68309 -0.00160279 0.00592805 9.68309 122.852 10 1 
194 1.27306 9.67521 -0.00176786 0.00587758 9.67521 122.938 10 1 
196 1.2731 9.66891 -0.00176664 0.00603465 9.66891 123.001 10 1 
198 1.27313 9.66414 -0.00165335 0.00633211 9.66414 123.058 10 1 
200 1.27321 9.65797 -0.00177992 0.0063264 9.65797 123.197 10 1 
202 1.27321 9.65362 -0.00160482 0.00656638 9.65362 123.211 10 1 
204 1.27322 9.64881 -0.00152113 0.00675063 9.64881 123.22 10 1 
206 1.27335 9.6401 -0.00168239 0.00668189 9.64011 123.453 10 1 
208 1.27339 9.63375 -0.00166313 0.00691188 9.63375 123.522 10 1 
210 1.27338 9.62683 -0.00160505 0.0071354 9.62684 123.512 10 1 
212 1.27348 9.61438 -0.0016295 0.00718047 9.61439 123.699 10 1 
214 1.27348 9.60633 -0.00154146 0.0073936 9.60633 123.701 10 1 
216 1.27354 9.59847 -0.00157161 0.00751036 9.59848 123.801 10 1 
218 1.27366 9.59136 -0.00162042 0.00760227 9.59136 124.01 10 1 
220 1.27372 9.58817 -0.00155228 0.00772596 9.58817 124.119 10 1 
222 1.27379 9.57738 -0.00148563 0.00795516 9.57739 124.253 10 1 
224 1.27381 9.56298 -0.00150767 0.00819879 9.56298 124.295 10 1 
224 1.27381 9.56298 -0.00150767 0.00819879 9.56298 124.295 10 1 
226 1.27391 9.54784 -0.00153095 0.00831619 9.54785 124.475 10 1 
228 1.27398 9.53196 -0.0015721 0.00831845 9.53197 124.602 10 1 
230 1.27406 9.52053 -0.0015963 0.00838446 9.52054 124.742 10 1 
232 1.27415 9.51556 -0.00154403 0.00861569 9.51557 124.894 10 1 
234 1.27429 9.50296 -0.00147151 0.00886547 9.50296 125.156 10 1 
236 1.27443 9.48342 -0.00139599 0.00902667 9.48343 125.414 10 1 
238 1.27441 9.46802 -0.00143857 0.00910332 9.46803 125.364 10 1 
240 1.27464 9.44248 -0.00169492 0.00903958 9.44249 125.785 10 1 
242 1.27473 9.42474 -0.00170378 0.00921798 9.42475 125.955 10 1 
244 1.27477 9.41119 -0.00153853 0.00949414 9.41119 126.026 10 1 
246 1.2751 9.38561 -0.00152244 0.00956745 9.38562 126.623 10 1 
248 1.27522 9.36112 -0.00135742 0.00983825 9.36113 126.839 10 1 
250 1.27532 9.33177 -0.00162188 0.00971926 9.33178 127.016 10 1 
252 1.27551 9.30397 -0.00182371 0.00971184 9.30398 127.358 10 1 
254 1.2758 9.27276 -0.00158433 0.0101637 9.27276 127.885 10 1 
256 1.276 9.23772 -0.00160547 0.01026 9.23773 128.246 10 1 
256 1.276 9.23772 -0.00160547 0.01026 9.23773 128.246 11 1 
258 1.27618 9.20038 -0.0016526 0.0102916 9.2004 128.574 11 1 
260 1.27662 9.15534 -0.00176456 0.0102407 9.15536 129.367 11 1 
262 1.27688 9.10573 -0.00188428 0.0102339 9.10576 129.83 11 1 
264 1.277 9.0576 -0.00177119 0.0105083 9.05762 130.049 11 1 
266 1.27757 8.99823 -0.00174544 0.0106678 8.99826 131.083 11 1 
268 1.27818 8.92359 -0.00191228 0.0106685 8.92363 132.18 11 1 
270 1.27829 8.86016 -0.0020295 0.0106746 8.86021 132.379 11 1 
272 1.27893 8.77126 -0.00199132 0.0107323 8.77131 133.53 11 1 
274 1.27975 8.66803 -0.00199409 0.0107321 8.66809 135.025 11 1 
276 1.28004 8.57492 -0.00206605 0.0107548 8.57499 135.548 11 1 
278 1.2809 8.44962 -0.00213205 0.0108209 8.44967 137.088 11 1 
280 1.28202 8.31828 -0.00218063 0.0108532 8.31841 139.112 11 1 
282 1.28283 8.15961 -0.0021995 0.0108405 8.16006 140.58 11 1 
284 1.28367 7.94706 -0.00220338 0.0106974 7.94772 142.1 11 1 
286 1.28471 7.73346 -0.00221847 0.0105677 7.73388 143.971 11 1 
288 1.2861 7.52628 -0.00220515 0.0105313 7.52645 146.488 11 1 
288 1.2861 7.52628 -0.00220515 0.0105313 7.52645 146.488 11 1 
290 1.28763 7.30482 -0.00223202 0.0104926 7.30514 149.244 11 1 
292 1.28894 7.0358 -0.0022768 0.0103698 7.03666 151.618 11 1 
294 1.29015 6.71895 -0.00223566 0.0102463 6.72039 153.796 11 1 
296 1.29165 6.39126 -0.00217488 0.0100768 6.3924 156.512 11 1 
298 1.28358 5.97534 -0.00206978 0.00964892 5.97616 141.934 11 1 
300 1.26867 5.74405 -0.00197241 0.00950117 5.74505 115.002 11 1 
302 1.26328 5.61341 -0.00197385 0.00958254 5.61411 105.277 11 1 
304 1.26436 5.3201 -0.00193528 0.00946544 5.3208 107.216 11 1 
306 1.26549 5.03221 -0.00181597 0.00935499 5.03319 109.268 11 1 
308 1.26649 4.76531 -0.00170195 0.00925605 4.76629 111.075 11 1 
310 1.26715 4.52577 -0.00160689 0.00915253 4.52669 112.258 11 1 
312 1.26783 4.29325 -0.00148611 0.00910807 4.29395 113.481 11 1 
314 1.26847 4.09839 -0.00138945 0.00913402 4.0989 114.647 11 1 
316 1.26898 3.93277 -0.00132245 0.0091442 3.9332 115.562 11 1 
318 1.26943 3.7594 -0.00120523 0.00918625 3.75982 116.381 11 1 
320 1.26979 3.60627 -0.00103457 0.00931033 3.60664 117.034 11 1 
320 1.26979 3.60627 -0.00103457 0.00931033 3.60664 117.034 15 1 
322 1.27012 3.48775 -0.000935953 0.00941185 3.48798 117.628 15 1 
324 1.27049 3.37344 -0.000833458 0.00951594 3.37359 118.283 15 1 
326 1.27078 3.26031 -0.000665782 0.00968045 3.26047 118.815 15 1 
328 1.271 3.15393 -0.000511874 0.00986972 3.15412 119.206 15 1 
330 1.27118 3.05438 -0.000380079 0.0100427 3.05454 119.544 15 1 
332 1.27144 2.97849 -0.000236132 0.0102176 2.9786 120.002 15 1 
334 1.27171 2.90571 -5.62962e-05 0.010425 2.9058 120.497 15 1 
336 1.27182 2.81094 0.000145921 0.0106831 2.81105 120.687 15 1 
338 1.27192 2.72765 0.000331947 0.0109339 2.72779 120.88 15 1 
340 1.27216 2.66793 0.000495867 0.0111307 2.66805 121.301 15 1 
342 1.27233 2.60791 0.000711414 0.0113428 2.60801 121.622 15 1 
344 1.27244 2.53662 0.0010164 0.0116483 2.53674 121.806 15 1 
346 1.27253 2.4568 0.00127262 0.0119938 2.45692 121.981 15 1 
348 1.27267 2.39417 0.00143755 0.0122523 2.39431 122.23 15 1 
350 1.27283 2.34786 0.00168761 0.0125027 2.34802 122.51 15 1 
352 1.27292 2.28627 0.00203552 0.0129224 2.28641 122.674 15 1 
354 1.27301 2.21933 0.00234266 0.0133304 2.21947 122.843 15 1 
356 1.27312 2.16149 0.00253137 0.0136606 2.16164 123.047 15 1 
358 1.27321 2.10692 0.00279054 0.0140794 2.1071 123.202 15 1 
360 1.27331 2.05976 0.00315603 0.0145796 2.05992 123.385 15 1 
362 1.27342 2.01095 0.00346396 0.0150521 2.0111 123.579 15 1 
364 1.2735 1.95432 0.00372034 0.0155259 1.95449 123.727 15 1 
366 1.27357 1.90256 0.00403941 0.0160428 1.90274 123.848 15 1 
368 1.27365 1.85869 0.00443528 0.0166126 1.85885 123.997 15 1 
370 1.27376 1.82014 0.00480627 0.0172318 1.82029 124.196 15 1 
372 1.27384 1.77904 0.00510373 0.0178483 1.77921 124.338 15 1 
374 1.2739 1.73316 0.00539823 0.0184808 1.73333 124.445 15 1 
376 1.27398 1.69349 0.00579438 0.0191664 1.69365 124.597 15 1 
378 1.27406 1.66009 0.00620693 0.0199084 1.66025 124.746 15 1 
380 1.27414 1.63017 0.00654444 0.0206408 1.63033 124.892 15 1 
382 1.27422 1.60128 0.0068392 0.0213242 1.60145 125.032 15 1 
384 1.27429 1.56746 0.00719627 0.0220594 1.56764 125.161 15 1 
384 1.27429 1.56746 0.00719627 0.0220594 1.56764 125.161 16 1 
386 1.27437 1.5367 0.00764316 0.0228542 1.5369 125.299 16 1 
388 1.27444 1.51437 0.00808582 0.0235779 1.51458 125.427 16 1 
390 1.27452 1.49352 0.00846502 0.0243044 1.49374 125.571 16 1 
392 1.2746 1.47134 0.00884594 0.0250802 1.47159 125.72 16 1 
394 1.27467 1.44741 0.00925532 0.0258511 1.44768 125.837 16 1 
396 1.27474 1.42517 0.00967115 0.026616 1.42545 125.961 16 1 
398 1.27481 1.40826 0.0100947 0.027368 1.40856 126.098 16 1 
400 1.27489 1.39374 0.010545 0.0281124 1.39407 126.239 16 1 
402 1.27496 1.37779 0.0109609 0.0288914 1.37814 126.369 16 1 
404 1.27502 1.35916 0.0113022 0.0296325 1.35953 126.481 16 1 
406 1.2751 1.34274 0.0116768 0.0303172 1.34313 126.615 16 1 
408 1.27517 1.33113 0.0121163 0.0310033 1.33155 126.747 16 1 
410 1.27523 1.31925 0.0125609 0.0317285 1.31969 126.862 16 1 
412 1.27531 1.30645 0.0129677 0.0324387 1.30691 126.991 16 1 
414 1.27537 1.29403 0.0133164 0.0330737 1.29453 127.113 16 1 
416 1.27544 1.28168 0.0136756 0.0336981 1.2822 127.228 16 1 
416 1.27544 1.28168 0.0136756 0.0336981 1.2822 127.228 16 1 
418 1.2755 1.27173 0.0140965 0.03435 1.27227 127.345 16 1 
420 1.27557 1.26326 0.0145002 0.0349649 1.26383 127.461 16 1 
422 1.27563 1.2541 0.0148496 0.0355861 1.2547 127.582 16 1 
424 1.27569 1.24481 0.0151354 0.0362093 1.24544 127.688 16 1 
426 1.27575 1.23591 0.0154181 0.0367867 1.23656 127.791 16 1 
428 1.27581 1.22849 0.0157618 0.0373502 1.22916 127.903 16 1 
430 1.27587 1.22249 0.0160663 0.0379175 1.22319 128.007 16 1 
432 1.27592 1.21616 0.0163169 0.0384783 1.21688 128.106 16 1 
434 1.27598 1.20929 0.0165816 0.0390348 1.21004 128.202 16 1 
436 1.27603 1.20309 0.0168266 0.0395523 1.20386 128.298 16 1 
438 1.27608 1.19803 0.0170651 0.0400465 1.19882 128.391 16 1 
440 1.27613 1.19314 0.0173276 0.0405454 1.19396 128.473 16 1 
442 1.27618 1.18824 0.0175743 0.0410467 1.18909 128.561 16 1 
444 1.27622 1.18354 0.0177795 0.0415383 1.18441 128.645 16 1 
446 1.27626 1.17851 0.017971 0.0420004 1.1794 128.717 16 1 
448 1.2763 1.17384 0.0181568 0.0424325 1.17475 128.793 16 1 
448 1.2763 1.17384 0.0181568 0.0424325 1.17475 128.793 17 1 
450 1.27634 1.16972 0.0183388 0.0428681 1.17066 128.865 17 1 
452 1.27638 1.16523 0.0184986 0.043307 1.16618 128.932 17 1 
454 1.27642 1.16041 0.0186381 0.0437352 1.16138 128.996 17 1 
456 1.27645 1.15558 0.0187686 0.0441686 1.15658 129.056 17 1 
458 1.27648 1.15082 0.0189071 0.0446037 1.15184 129.116 17 1 
460 1.27651 1.1461 0.0190456 0.0450433 1.14715 129.169 17 1 
462 1.27654 1.1413 0.0191619 0.0455085 1.14237 129.221 17 1 
464 1.27657 1.13641 0.019274 0.0460017 1.1375 129.273 17 1 
466 1.2766 1.13152 0.0194105 0.0465338 1.13265 129.319 17 1 
468 1.27662 1.12686 0.019551 0.0471059 1.12801 129.364 17 1 
470 1.27664 1.12244 0.0196768 0.0477147 1.12363 129.406 17 1 
472 1.27667 1.11826 0.0198003 0.0483582 1.11948 129.448 17 1 
474 1.27669 1.11446 0.0199489 0.0490601 1.11572 129.489 17 1 
476 1.27671 1.11096 0.0201233 0.0498407 1.11227 129.524 17 1 
478 1.27673 1.10803 0.020282 0.0506679 1.10937 129.561 17 1 
480 1.27675 1.10582 0.0204201 0.05151 1.10721 129.599 17 1 
480 1.27675 1.10582 0.0204201 0.05151 1.10721 129.599 17 1 
482 1.27677 1.10425 0.020567 0.0523949 1.10569 129.632 17 1 
484 1.27679 1.10353 0.0207268 0.0533457 1.10502 129.668 17 1 
486 1.27681 1.10363 0.0208754 0.0543406 1.10517 129.703 17 1 
488 1.27683 1.10465 0.0210174 0.0553685 1.10624 129.737 17 1 
490 1.27685 1.10673 0.0211729 0.056431 1.10838 129.772 17 1 
492 1.27687 1.10982 0.0213261 0.0575471 1.11153 129.807 17 1 
494 1.27689 1.11411 0.0214494 0.058671 1.11587 129.844 17 1 
496 1.27691 1.11946 0.0215545 0.0597949 1.12127 129.88 17 1 
498 1.27693 1.12585 0.0216526 0.0609387 1.12772 129.915 17 1 
500 1.27695 1.13358 0.0217098 0.0620911 1.1355 129.953 17 1 
502 1.27697 1.1426 0.0217345 0.0632131 1.14457 129.991 17 1 
504 1.27699 1.15269 0.0217477 0.0643289 1.1547 130.03 17 1 
506 1.27701 1.16377 0.0217463 0.0654529 1.16583 130.069 17 1 
508 1.27703 1.1761 0.0217241 0.0665575 1.1782 130.108 17 1 
510 1.27705 1.18967 0.0216516 0.067611 1.19181 130.149 17 1 
512 1.27708 1.20396 0.0215407 0.0686196 1.20613 130.188 17 1 
512 1.27708 1.20396 0.0215407 0.0686196 1.20613 130.188 25 1 
514 1.2771 1.21903 0.0214493 0.069579 1.22123 130.229 25 1 
516 1.27712 1.23464 0.021384 0.070474 1.23686 130.27 25 1 
518 1.27714 1.25013 0.0213368 0.0713117 1.25237 130.31 25 1 
520 1.27717 1.26552 0.021277 0.0720942 1.26777 130.35 25 1 
522 1.27719 1.28087 0.0211476 0.0728376 1.28313 130.391 25 1 
524 1.27721 1.29631 0.0209278 0.0735732 1.29858 130.43 25 1 
526 1.27723 1.31222 0.0206926 0.074237 1.3145 130.469 25 1 
528 1.27725 1.32791 0.0206855 0.0746905 1.33019 130.506 25 1 
530 1.27727 1.34081 0.0214389 0.0747733 1.34307 130.542 25 1 
532 1.27729 1.34602 0.0236318 0.0744336 1.34829 130.575 25 1 
534 1.27731 1.33739 0.0275656 0.0738731 1.33974 130.606 25 1 
536 1.27732 1.30989 0.0327955 0.0734449 1.31243 130.632 25 1 
538 1.27733 1.26228 0.0381568 0.0734513 1.26517 130.65 25 1 
540 1.27734 1.19887 0.0422845 0.0741033 1.20217 130.66 25 1 
542 1.27734 1.12796 0.0443073 0.0754797 1.13165 130.661 25 1 
544 1.27734 1.05869 0.0442898 0.077502 1.06271 130.656 25 1 
544 1.27734 1.05869 0.0442898 0.077502 1.06271 130.656 25 1 
546 1.27733 0.998002 0.0429895 0.0799158 1.00231 130.648 25 1 
548 1.27733 0.948857 0.0412488 0.0824199 0.953446 130.639 25 1 
550 1.27732 0.911061 0.039621 0.0847713 0.915928 130.63 25 1 
552 1.27732 0.882847 0.0383052 0.0868811 0.887984 130.624 25 1 
554 1.27731 0.862108 0.0372942 0.0887574 0.867496 130.618 25 1 
556 1.27731 0.847164 0.0365159 0.0904525 0.852782 130.615 25 1 
558 1.27731 0.836758 0.0358871 0.0920107 0.842584 130.612 25 1 
560 1.27731 0.829984 0.0353588 0.0934637 0.835994 130.609 25 1 
562 1.27731 0.826239 0.0349115 0.0948604 0.832415 130.609 25 1 
564 1.27731 0.825047 0.0345274 0.0962058 0.831372 130.609 25 1 
566 1.27731 0.826093 0.0341999 0.0975208 0.832551 130.61 25 1 
568 1.27731 0.829115 0.033919 0.09883 0.835694 130.613 25 1 
570 1.27731 0.833943 0.0336837 0.100131 0.840632 130.616 25 1 
572 1.27732 0.840449 0.0334916 0.101432 0.847236 130.62 25 1 
574 1.27732 0.848413 0.0333465 0.102729 0.855288 130.625 25 1 
576 1.27732 0.857777 0.0332604 0.104052 0.864734 130.632 25 1 
576 1.27732 0.857777 0.0332604 0.104052 0.864734 130.632 26 1 
578 1.27733 0.868518 0.0332185 0.105388 0.875551 130.64 26 1 
580 1.27733 0.880521 0.0332139 0.106734 0.887622 130.649 26 1 
582 1.27734 0.893719 0.0332608 0.108103 0.900883 130.659 26 1 
584 1.27734 0.908024 0.0333524 0.109488 0.915246 130.671 26 1 
586 1.27735 0.923447 0.0334983 0.110889 0.930723 130.684 26 1 
588 1.27736 0.93996 0.0336884 0.112315 0.947287 130.699 26 1 
590 1.27737 0.957468 0.0339136 0.113768 0.964842 130.715 26 1 
592 1.27738 0.975999 0.0341786 0.115223 0.983415 130.733 26 1 
594 1.27739 0.995484 0.0344854 0.116695 1.00294 130.752 26 1 
596 1.2774 1.01585 0.0348352 0.118194 1.02334 130.773 26 1 
598 1.27741 1.03715 0.0352156 0.1197 1.04468 130.795 26 1 
600 1.27743 1.05938 0.0356286 0.12122 1.06693 130.819 26 1 
602 1.27744 1.08241 0.036067 0.122752 1.09 130.845 26 1 
604 1.27745 1.10626 0.0365253 0.124286 1.11387 130.872 26 1 
606 1.27747 1.1309 0.0370215 0.125831 1.13853 130.9 26 1 
608 1.27749 1.15633 0.037537 0.127384 1.16398 130.929 26 1 
608 1.27749 1.15633 0.037537 0.127384 1.16398 130.929 26 1 
610 1.2775 1.1825 0.0380598 0.128936 1.19017 130.961 26 1 
612 1.27752 1.20938 0.0385973 0.130491 1.21707 130.993 26 1 
614 1.27754 1.23695 0.039155 0.132048 1.24465 131.026 26 1 
616 1.27756 1.26513 0.0397183 0.133595 1.27284 131.061 26 1 
618 1.27758 1.29393 0.0402884 0.135142 1.30165 131.097 26 1 
620 1.2776 1.32338 0.0408683 0.136691 1.3311 131.133 26 1 
622 1.27762 1.35335 0.0414424 0.138228 1.36108 131.171 26 1 
624 1.27764 1.38382 0.0420047 0.139751 1.39154 131.21 26 1 
626 1.27766 1.41476 0.0425866 0.141276 1.42249 131.249 26 1 
628 1.27769 1.44618 0.0431649 0.142789 1.45391 131.288 26 1 
630 1.27771 1.47799 0.0437157 0.144285 1.48571 131.329 26 1 
632 1.27773 1.51019 0.044271 0.145782 1.5179 131.371 26 1 
634 1.27775 1.54273 0.0448201 0.14726 1.55044 131.411 26 1 
636 1.27778 1.57554 0.0453485 0.148722 1.58324 131.452 26 1 
638 1.2778 1.60858 0.0458662 0.150181 1.61627 131.495 26 1 
640 1.27782 1.64189 0.0463885 0.151634 1.64958 131.536 26 1 
642 1.27785 1.67541 0.0468779 0.153065 1.68309 131.577 26 1 
644 1.27787 1.709 0.0473356 0.154486 1.71667 131.619 26 1 
646 1.27789 1.74267 0.0478086 0.155912 1.75033 131.66 26 1 
648 1.27791 1.77647 0.0482517 0.157321 1.78412 131.7 26 1 
650 1.27794 1.81027 0.048672 0.158711 1.81791 131.741 26 1 
652 1.27796 1.84403 0.049093 0.160111 1.85166 131.782 26 1 
654 1.27798 1.87778 0.0494958 0.161498 1.8854 131.82 26 1 
656 1.278 1.91142 0.0498717 0.162853 1.91903 131.859 26 1 
658 1.27802 1.94486 0.0502325 0.16424 1.95247 131.898 26 1 
660 1.27804 1.97822 0.0506008 0.165613 1.98582 131.935 26 1 
662 1.27806 2.01143 0.0509219 0.16697 2.01903 131.97 26 1 
664 1.27808 2.0443 0.0512399 0.168346 2.05189 132.008 26 1 
666 1.2781 2.07691 0.0515505 0.16971 2.0845 132.043 26 1 
668 1.27812 2.10928 0.0518481 0.171075 2.11687 132.075 26 1 
670 1.27814 2.14133 0.0521342 0.17246 2.14892 132.108 26 1 
672 1.27816 2.17293 0.0524001 0.173821 2.18053 132.142 26 1 
672 1.27816 2.17293 0.0524001 0.173821 2.18053 132.142 27 1 
674 1.27817 2.20424 0.0526701 0.175235 2.21185 132.171 27 1 
676 1.27819 2.23515 0.0529275 0.176594 2.24276 132.199 27 1 
678 1.27821 2.26546 0.0531837 0.17801 2.27309 132.23 27 1 
680 1.27822 2.29545 0.0534366 0.1794 2.30309 132.257 27 1 
682 1.27823 2.32491 0.0536864 0.180812 2.33257 132.28 27 1 
684 1.27825 2.3538 0.0539409 0.182245 2.36148 132.306 27 1 
686 1.27826 2.38204 0.0541693 0.183622 2.38974 132.332 27 1 
688 1.27827 2.40974 0.0544454 0.185072 2.41747 132.351 27 1 
690 1.27828 2.43674 0.0547172 0.186453 2.44449 132.371 27 1 
692 1.2783 2.463 0.0549571 0.187869 2.47079 132.394 27 1 
694 1.27831 2.48845 0.0552309 0.189236 2.49626 132.41 27 1 
696 1.27831 2.51314 0.0555203 0.190643 2.52099 132.424 27 1 
698 1.27832 2.53692 0.0557672 0.191978 2.5448 132.442 27 1 
700 1.27833 2.55969 0.056011 0.193302 2.5676 132.458 27 1 
702 1.27834 2.58164 0.0562915 0.194728 2.58959 132.466 27 1 
704 1.27834 2.60267 0.0565043 0.195966 2.61066 132.477 27 1 
704 1.27834 2.60267 0.0565043 0.195966 2.61066 132.477 31 1 
706 1.27835 2.62247 0.0566877 0.19738 2.63051 132.492 31 1 
708 1.27835 2.64142 0.0568938 0.19869 2.6495 132.497 31 1 
710 1.27836 2.65956 0.0570438 0.200056 2.6677 132.499 31 1 
712 1.27836 2.67658 0.0571407 0.201429 2.68477 132.51 31 1 
714 1.27837 2.69261 0.0572037 0.202869 2.70085 132.516 31 1 
716 1.27836 2.70804 0.0572786 0.204294 2.71635 132.51 31 1 
718 1.27836 2.72258 0.0572366 0.205751 2.73095 132.514 31 1 
720 1.27837 2.73609 0.057168 0.207273 2.74454 132.521 31 1 
722 1.27836 2.74923 0.0571 0.208874 2.75776 132.513 31 1 
724 1.27836 2.76184 0.0569494 0.21044 2.77045 132.505 31 1 
726 1.27836 2.77349 0.056692 0.212106 2.78218 132.512 31 1 
728 1.27836 2.78466 0.05645 0.213811 2.79344 132.505 31 1 
730 1.27835 2.7958 0.0561387 0.215548 2.80467 132.486 31 1 
732 1.27835 2.80639 0.0556936 0.217239 2.81535 132.487 31 1 
734 1.27835 2.8162 0.0552223 0.219201 2.82527 132.488 31 1 
736 1.27833 2.82634 0.0547393 0.220969 2.83551 132.461 31 1 
738 1.27833 2.83655 0.0540844 0.222856 2.84582 132.447 31 1 
740 1.27833 2.84547 0.0533759 0.224879 2.85485 132.457 31 1 
742 1.27832 2.85497 0.0525862 0.226873 2.86447 132.432 31 1 
744 1.2783 2.86541 0.0517095 0.228598 2.87499 132.398 31 1 
746 1.27831 2.87455 0.0507094 0.23095 2.88427 132.41 31 1 
748 1.2783 2.88386 0.0496797 0.233044 2.8937 132.397 31 1 
750 1.27827 2.89472 0.0486672 0.23504 2.90468 132.344 31 1 
752 1.27827 2.90488 0.0473107 0.237321 2.91496 132.342 31 1 
752 1.27827 2.90488 0.0473107 0.237321 2.91496 132.342 31 1 
754 1.27827 2.91429 0.0458447 0.23972 2.92451 132.351 31 1 
756 1.27824 2.92649 0.0447595 0.241913 2.93683 132.288 31 1 
758 1.27822 2.93848 0.0431244 0.244329 2.94895 132.26 31 1 
760 1.27824 2.94911 0.0414741 0.247035 2.95975 132.282 31 1 
762 1.27821 2.96244 0.0401582 0.249829 2.97325 132.229 31 1 
764 1.27817 2.97692 0.0383017 0.252345 2.98786 132.167 31 1 
766 1.27818 2.98994 0.0365607 0.255811 3.00111 132.185 31 1 
768 1.27817 3.00574 0.0349876 0.25898 3.0171 132.155 31 1 
770 1.27812 3.02314 0.0331497 0.262451 3.03471 132.069 31 1 
772 1.27811 3.04048 0.0311974 0.266292 3.0523 132.054 31 1 
774 1.27811 3.05875 0.0294462 0.270954 3.07089 132.053 31 1 
776 1.27805 3.08053 0.0279572 0.275488 3.09298 131.954 31 1 
778 1.27802 3.10391 0.0262923 0.281888 3.11682 131.885 31 1 
780 1.27802 3.12895 0.0247086 0.287563 3.14226 131.885 31 1 
782 1.27798 3.1557 0.0231034 0.294578 3.16954 131.821 31 1 
784 1.2779 3.18517 0.020926 0.303238 3.19967 131.681 31 1 
786 1.27786 3.22087 0.0207204 0.31278 3.23613 131.599 31 1 
788 1.27785 3.2576 0.0207726 0.326199 3.27399 131.586 31 1 
790 1.27775 3.30176 0.0196345 0.338248 3.31914 131.405 31 1 
792 1.27765 3.34733 0.0190428 0.357458 3.36648 131.225 31 1 
794 1.27758 3.40488 0.0212983 0.375527 3.42565 131.105 31 1 
796 1.27751 3.46608 0.0264354 0.404892 3.48987 130.963 31 1 
798 1.27734 3.53651 0.0331612 0.442803 3.56437 130.666 31 1 
800 1.2772 3.5829 0.037246 0.457547 3.61227 130.412 31 1 
