24.4525;r ;Density                 ;Velocity u              ;Velocity v              ;Velocity w              ;|Velocity|              ;Pressure                ;Distribution            ;Levels                  ;
0 1.20369 9.99869 -6.37414e-05 -1.82616e-05 9.99869 -2.35892 1 1 
2 1.20372 9.9979 -6.80728e-05 -5.10686e-05 9.9979 -2.31992 1 1 
4 1.20373 9.99802 -0.000112079 -0.000130971 9.99802 -2.28948 1 1 
6 1.20376 9.99866 -0.000153836 -0.000203605 9.99866 -2.24382 1 1 
8 1.20375 9.99881 -0.000211308 -0.000282047 9.99881 -2.26312 1 1 
10 1.20372 9.99889 -0.000293642 -0.000358059 9.99889 -2.31609 1 1 
12 1.20373 9.99894 -0.000366442 -0.000464057 9.99894 -2.30211 1 1 
14 1.2037 10.0003 -0.000480834 -0.000591069 10.0003 -2.34294 1 1 
16 1.20372 9.99966 -0.000501335 -0.000637868 9.99966 -2.31295 1 1 
18 1.20372 9.9986 -0.000588501 -0.000753445 9.9986 -2.31167 1 1 
20 1.20371 9.99942 -0.000727883 -0.000905586 9.99942 -2.33413 1 1 
22 1.20374 10.0003 -0.000781638 -0.000987602 10.0003 -2.26752 1 1 
24 1.20373 10.0022 -0.000847099 -0.001078 10.0022 -2.29401 1 1 
26 1.20372 10.002 -0.000944788 -0.00118517 10.002 -2.31082 1 1 
28 1.20372 10.0012 -0.00107342 -0.00131725 10.0012 -2.30689 1 1 
30 1.20371 10.001 -0.0011378 -0.00141907 10.001 -2.33547 1 1 
32 1.20371 9.99988 -0.00126634 -0.00157304 9.99988 -2.33219 1 1 
32 1.20371 9.99988 -0.00126634 -0.00157304 9.99988 -2.33219 1 1 
34 1.2037 10.0001 -0.00136795 -0.00170268 10.0001 -2.35051 1 1 
36 1.20369 10.0006 -0.00145253 -0.00180216 10.0006 -2.36509 1 1 
38 1.20368 10.0009 -0.00149607 -0.00188144 10.0009 -2.39245 1 1 
40 1.20369 10.0002 -0.0015767 -0.00200043 10.0002 -2.36885 1 1 
42 1.20371 10.0004 -0.0016376 -0.0020817 10.0004 -2.33839 1 1 
44 1.20371 10.0004 -0.00168719 -0.00214131 10.0004 -2.33441 1 1 
46 1.2037 9.99972 -0.00189423 -0.00236553 9.99972 -2.3543 1 1 
48 1.20367 10.0001 -0.00198275 -0.0024845 10.0001 -2.40724 1 1 
50 1.20368 10.0006 -0.00200156 -0.00251104 10.0006 -2.37628 1 1 
52 1.20369 10.0004 -0.00219015 -0.0027307 10.0004 -2.3728 1 1 
54 1.20366 9.9993 -0.00230112 -0.00285539 9.9993 -2.41642 1 1 
56 1.20366 9.99895 -0.00225489 -0.00282911 9.99895 -2.42229 1 1 
58 1.20365 9.99936 -0.00241792 -0.0030265 9.99936 -2.4466 1 1 
60 1.20364 10.0001 -0.00256475 -0.00319426 10.0001 -2.4548 1 1 
62 1.20366 9.99991 -0.00251214 -0.00316437 9.99991 -2.41186 1 1 
64 1.20367 10.0007 -0.00253891 -0.00319607 10.0007 -2.40946 1 1 
64 1.20367 10.0007 -0.00253891 -0.00319607 10.0007 -2.40946 2 1 
66 1.20368 10.0006 -0.00276849 -0.00345745 10.0006 -2.38003 2 1 
68 1.20367 10.0011 -0.00288529 -0.00359238 10.0011 -2.40033 2 1 
70 1.20366 10.0008 -0.00289465 -0.00366167 10.0008 -2.4221 2 1 
72 1.20364 9.99891 -0.0030318 -0.00383824 9.99891 -2.44791 2 1 
74 1.20361 9.9987 -0.0030912 -0.00390331 9.99871 -2.51544 2 1 
76 1.20363 9.99889 -0.00300264 -0.00385476 9.99889 -2.48299 2 1 
78 1.20363 9.99997 -0.00305703 -0.00393235 9.99997 -2.48034 2 1 
80 1.20363 10.0001 -0.00326624 -0.004171 10.0001 -2.48217 2 1 
82 1.20363 9.99991 -0.00325637 -0.00419318 9.99992 -2.47174 2 1 
84 1.20365 9.99977 -0.00321837 -0.00415852 9.99977 -2.44647 2 1 
86 1.20366 10.0002 -0.00350708 -0.00445564 10.0002 -2.42367 2 1 
88 1.20364 10.0002 -0.00371462 -0.00469498 10.0002 -2.45356 2 1 
90 1.20363 9.99883 -0.00352666 -0.00454763 9.99883 -2.46827 2 1 
92 1.20361 9.99842 -0.00363169 -0.00468499 9.99842 -2.50157 2 1 
94 1.20361 9.99797 -0.00392036 -0.00498453 9.99797 -2.51184 2 1 
96 1.20362 9.99788 -0.00381846 -0.00490163 9.99788 -2.49973 2 1 
96 1.20362 9.99788 -0.00381846 -0.00490163 9.99788 -2.49973 2 1 
98 1.2036 9.99933 -0.0036772 -0.00475698 9.99934 -2.52807 2 1 
100 1.20362 9.99968 -0.00382887 -0.00493335 9.99969 -2.49859 2 1 
102 1.20365 9.99911 -0.00414883 -0.0052682 9.99911 -2.44455 2 1 
104 1.20365 9.9984 -0.00408228 -0.00522643 9.9984 -2.44679 2 1 
106 1.20364 9.99776 -0.00398713 -0.00515037 9.99776 -2.46509 2 1 
108 1.20363 9.99689 -0.00442155 -0.00558388 9.99689 -2.47613 2 1 
110 1.2036 9.99819 -0.00466348 -0.00584042 9.99819 -2.5267 2 1 
112 1.20362 9.99813 -0.00442758 -0.00565196 9.99813 -2.48819 2 1 
114 1.20365 9.99701 -0.00432281 -0.00557806 9.99701 -2.44235 2 1 
116 1.20363 9.9994 -0.00467984 -0.00592365 9.9994 -2.47873 2 1 
118 1.20364 9.99841 -0.00474812 -0.00599605 9.99841 -2.46043 2 1 
120 1.20364 9.99647 -0.0043211 -0.00559315 9.99647 -2.45518 2 1 
122 1.20362 9.99699 -0.00407965 -0.00539868 9.99699 -2.48477 2 1 
124 1.20364 9.99582 -0.0043887 -0.00574368 9.99583 -2.45102 2 1 
126 1.20367 9.99537 -0.00473527 -0.00608179 9.99538 -2.39572 2 1 
128 1.20365 9.99704 -0.00453296 -0.00586958 9.99705 -2.43826 2 1 
128 1.20365 9.99704 -0.00453296 -0.00586958 9.99705 -2.43826 10 1 
130 1.20367 9.99599 -0.00422861 -0.00563479 9.996 -2.39943 10 1 
132 1.20366 9.99647 -0.0041433 -0.00557858 9.99647 -2.4136 10 1 
134 1.20365 9.99487 -0.00409479 -0.00555461 9.99487 -2.43195 10 1 
136 1.20367 9.9912 -0.00368484 -0.00515027 9.99121 -2.39567 10 1 
138 1.20366 9.99187 -0.00321805 -0.00467291 9.99187 -2.42885 10 1 
140 1.2037 9.99243 -0.00332354 -0.00479728 9.99243 -2.35114 10 1 
142 1.20371 9.99296 -0.00413702 -0.00557188 9.99296 -2.33305 10 1 
144 1.2037 9.99343 -0.00498672 -0.00644451 9.99344 -2.34953 10 1 
146 1.20374 9.99176 -0.00520859 -0.00667119 9.99176 -2.28148 10 1 
148 1.20373 9.98868 -0.00473604 -0.00620516 9.98868 -2.29658 10 1 
150 1.2037 9.9881 -0.00399306 -0.00548748 9.9881 -2.35633 10 1 
152 1.20373 9.9874 -0.00345884 -0.00495888 9.9874 -2.29404 10 1 
154 1.20375 9.98698 -0.0031868 -0.00468411 9.98698 -2.25549 10 1 
156 1.20375 9.98882 -0.00318493 -0.00468417 9.98882 -2.24992 10 1 
158 1.20378 9.98799 -0.00321823 -0.00471908 9.988 -2.20097 10 1 
160 1.20378 9.98582 -0.00320731 -0.00472069 9.98583 -2.20786 10 1 
160 1.20378 9.98582 -0.00320731 -0.00472069 9.98583 -2.20786 10 1 
162 1.20376 9.98624 -0.00324456 -0.00477995 9.98625 -2.24097 10 1 
164 1.20381 9.98416 -0.00329287 -0.004806 9.98416 -2.14805 10 1 
166 1.20387 9.9821 -0.00334019 -0.00483944 9.98211 -2.04468 10 1 
168 1.20382 9.98403 -0.00337805 -0.00490174 9.98404 -2.1325 10 1 
170 1.20383 9.98067 -0.00338534 -0.00491758 9.98067 -2.11337 10 1 
172 1.20384 9.97999 -0.00335691 -0.00486966 9.97999 -2.10344 10 1 
174 1.20384 9.98009 -0.00326298 -0.00480766 9.9801 -2.08932 10 1 
176 1.20393 9.97601 -0.00327053 -0.00478904 9.97601 -1.94063 10 1 
178 1.20391 9.97596 -0.00327432 -0.00480886 9.97596 -1.96521 10 1 
180 1.20392 9.97418 -0.00332034 -0.00489206 9.97419 -1.94981 10 1 
182 1.20394 9.97058 -0.00341663 -0.00498349 9.97058 -1.92247 10 1 
184 1.20392 9.96962 -0.00345758 -0.00504751 9.96962 -1.94644 10 1 
186 1.20399 9.9689 -0.00341172 -0.00499793 9.9689 -1.8163 10 1 
188 1.20402 9.96709 -0.00339134 -0.00496286 9.9671 -1.76696 10 1 
190 1.20401 9.96631 -0.00344977 -0.00501507 9.96631 -1.79012 10 1 
192 1.20402 9.96448 -0.00327647 -0.00487721 9.96448 -1.77455 10 1 
194 1.20405 9.95987 -0.00341903 -0.00502307 9.95987 -1.71658 10 1 
196 1.20408 9.95646 -0.00346604 -0.00504164 9.95646 -1.66128 10 1 
198 1.20409 9.95461 -0.00335859 -0.00491468 9.95461 -1.64867 10 1 
200 1.20415 9.952 -0.00353448 -0.00511434 9.95201 -1.53484 10 1 
202 1.20416 9.95128 -0.0034411 -0.0050752 9.95128 -1.50959 10 1 
204 1.20415 9.95051 -0.00341985 -0.00504095 9.95051 -1.53168 10 1 
206 1.20425 9.945 -0.00362364 -0.00523324 9.945 -1.34694 10 1 
208 1.20428 9.94195 -0.0036095 -0.00516293 9.94195 -1.30618 10 1 
210 1.20424 9.93938 -0.00350418 -0.00505975 9.93939 -1.37671 10 1 
212 1.20432 9.92989 -0.00352368 -0.00515244 9.9299 -1.23668 10 1 
214 1.20431 9.92483 -0.00349381 -0.00511931 9.92483 -1.25432 10 1 
216 1.20435 9.92046 -0.0035957 -0.00518227 9.92046 -1.16976 10 1 
218 1.20446 9.91646 -0.0037498 -0.00532052 9.91646 -0.967624 10 1 
220 1.20448 9.91864 -0.00370157 -0.00535332 9.91865 -0.939322 10 1 
222 1.20454 9.9141 -0.00364268 -0.00529698 9.91411 -0.838243 10 1 
224 1.20456 9.90522 -0.00363867 -0.00517088 9.90522 -0.798434 10 1 
224 1.20456 9.90522 -0.00363867 -0.00517088 9.90522 -0.798434 10 1 
226 1.20462 9.89482 -0.00368162 -0.00521412 9.89483 -0.694938 10 1 
228 1.20465 9.88159 -0.00379177 -0.0054076 9.8816 -0.627794 10 1 
230 1.2047 9.87291 -0.00388089 -0.00553376 9.87291 -0.549892 10 1 
232 1.20476 9.87261 -0.0038813 -0.00549216 9.87261 -0.432821 10 1 
234 1.20487 9.86599 -0.0038421 -0.00537778 9.866 -0.226437 10 1 
236 1.20499 9.8529 -0.00382731 -0.00540576 9.85291 -0.0103652 10 1 
238 1.20494 9.84464 -0.00385992 -0.00548688 9.84464 -0.10389 10 1 
240 1.20514 9.82504 -0.00413931 -0.00577166 9.82505 0.247202 10 1 
242 1.2052 9.81224 -0.00421469 -0.0058157 9.81225 0.365102 10 1 
244 1.20518 9.80479 -0.00408095 -0.00567791 9.80479 0.334149 10 1 
246 1.20546 9.78572 -0.00412004 -0.00570814 9.78573 0.829183 10 1 
248 1.20554 9.76875 -0.00399639 -0.00556731 9.76876 0.967877 10 1 
250 1.20561 9.74772 -0.0042476 -0.00582478 9.74773 1.10751 10 1 
252 1.20577 9.72808 -0.00454081 -0.00610216 9.72808 1.38336 10 1 
254 1.20599 9.70498 -0.00436676 -0.00590924 9.70498 1.78593 10 1 
256 1.20613 9.67874 -0.00441411 -0.00597182 9.67875 2.03345 10 1 
256 1.20613 9.67874 -0.00441411 -0.00597182 9.67875 2.03345 11 1 
258 1.20625 9.65101 -0.00450097 -0.00607899 9.65102 2.25126 11 1 
260 1.2066 9.61709 -0.00459527 -0.00615855 9.6171 2.89599 11 1 
262 1.2068 9.57871 -0.00476356 -0.00629694 9.57872 3.24385 11 1 
264 1.20687 9.54222 -0.0047202 -0.00621738 9.54224 3.37085 11 1 
266 1.20735 9.49722 -0.00472025 -0.00625505 9.49724 4.24271 11 1 
268 1.20789 9.43577 -0.00491918 -0.00646737 9.43579 5.22213 11 1 
270 1.2079 9.38687 -0.00510401 -0.00658898 9.3869 5.2367 11 1 
272 1.2084 9.31523 -0.00510365 -0.00657418 9.31527 6.14001 11 1 
274 1.20914 9.22923 -0.00514024 -0.00664321 9.22927 7.48247 11 1 
276 1.20933 9.15689 -0.00524011 -0.00669689 9.15692 7.82006 11 1 
278 1.21004 9.05455 -0.00531039 -0.00676426 9.05458 9.10592 11 1 
280 1.21103 8.94716 -0.00537447 -0.00682025 8.94725 10.898 11 1 
282 1.21173 8.81422 -0.00541738 -0.00682146 8.81457 12.1629 11 1 
284 1.21244 8.62979 -0.00546345 -0.00687367 8.63033 13.4359 11 1 
286 1.21332 8.445 -0.00554811 -0.00694116 8.44533 15.0324 11 1 
288 1.21458 8.26849 -0.00559523 -0.00696316 8.26858 17.2964 11 1 
288 1.21458 8.26849 -0.00559523 -0.00696316 8.26858 17.2964 11 1 
290 1.21599 8.08502 -0.00562665 -0.00697375 8.08519 19.8582 11 1 
292 1.21719 7.85714 -0.00568266 -0.00702704 7.85773 22.0243 11 1 
294 1.21824 7.57761 -0.00565658 -0.00698007 7.57869 23.9114 11 1 
296 1.21962 7.28604 -0.00564706 -0.00692106 7.28687 26.4072 11 1 
298 1.21178 6.91937 -0.00560024 -0.00683969 6.91988 12.2386 11 1 
300 1.19769 6.74283 -0.00558138 -0.00681133 6.74345 -13.2025 11 1 
302 1.19281 6.65683 -0.00571689 -0.00693108 6.65722 -22.0172 11 1 
304 1.19383 6.40301 -0.00576876 -0.00695626 6.40347 -20.1843 11 1 
306 1.19498 6.14853 -0.00571813 -0.00690341 6.1492 -18.0935 11 1 
308 1.19597 5.91459 -0.005709 -0.00686872 5.91526 -16.3164 11 1 
310 1.1966 5.71224 -0.00572651 -0.00686138 5.71282 -15.1737 11 1 
312 1.19733 5.5136 -0.00577354 -0.00691425 5.51397 -13.8586 11 1 
314 1.198 5.35308 -0.00587838 -0.00699942 5.35335 -12.6383 11 1 
316 1.1985 5.21991 -0.00598259 -0.00709049 5.22011 -11.7469 11 1 
318 1.19896 5.07617 -0.00601888 -0.00714439 5.07636 -10.9147 11 1 
320 1.19934 4.95977 -0.00600642 -0.00712061 4.95993 -10.2181 11 1 
320 1.19934 4.95977 -0.00600642 -0.00712061 4.95993 -10.2181 15 1 
322 1.19969 4.87528 -0.00613564 -0.00724294 4.87536 -9.58767 15 1 
324 1.20008 4.78901 -0.00628359 -0.00740824 4.78905 -8.8935 15 1 
326 1.20039 4.70866 -0.0063271 -0.00745588 4.70871 -8.32547 15 1 
328 1.20059 4.63482 -0.00637292 -0.00750438 4.63488 -7.95706 15 1 
330 1.20074 4.56543 -0.00645973 -0.00759642 4.56549 -7.68802 15 1 
332 1.20102 4.5184 -0.00651154 -0.00765301 4.51844 -7.18553 15 1 
334 1.20132 4.4701 -0.00650979 -0.00766574 4.47014 -6.64381 15 1 
336 1.20138 4.40359 -0.00656704 -0.00772849 4.40364 -6.53817 15 1 
338 1.20148 4.35236 -0.00665504 -0.00782295 4.35243 -6.36109 15 1 
340 1.20173 4.31975 -0.00674078 -0.00793559 4.3198 -5.90014 15 1 
342 1.20187 4.28474 -0.00674329 -0.00795244 4.28479 -5.65524 15 1 
344 1.20193 4.23979 -0.00668064 -0.00789347 4.23984 -5.55024 15 1 
346 1.20202 4.19175 -0.00671818 -0.00795365 4.19179 -5.38652 15 1 
348 1.20215 4.16634 -0.00689782 -0.00815817 4.16639 -5.1551 15 1 
350 1.20228 4.15308 -0.00703455 -0.00829937 4.15313 -4.91993 15 1 
352 1.20235 4.12317 -0.0070632 -0.00833955 4.12321 -4.7924 15 1 
354 1.20243 4.09479 -0.00713904 -0.00845495 4.09481 -4.64498 15 1 
356 1.20251 4.07883 -0.00730763 -0.00866796 4.07885 -4.50055 15 1 
358 1.20257 4.06659 -0.00742603 -0.00879819 4.06661 -4.38727 15 1 
360 1.20269 4.06213 -0.00746176 -0.00884952 4.06215 -4.16708 15 1 
362 1.20278 4.05685 -0.00759332 -0.00903769 4.05687 -4.00948 15 1 
364 1.20279 4.04709 -0.00783332 -0.00931183 4.04711 -3.99163 15 1 
366 1.20282 4.04424 -0.00797479 -0.00946062 4.04426 -3.92932 15 1 
368 1.20293 4.04883 -0.00796909 -0.00949539 4.04885 -3.74478 15 1 
370 1.20304 4.05651 -0.00797656 -0.00953932 4.05654 -3.54434 15 1 
372 1.20307 4.05942 -0.00812579 -0.00969422 4.05944 -3.48363 15 1 
374 1.2031 4.05896 -0.00833685 -0.0099354 4.05898 -3.43296 15 1 
376 1.20319 4.06645 -0.00842123 -0.010058 4.06647 -3.26551 15 1 
378 1.20326 4.07751 -0.0084187 -0.0100651 4.07754 -3.14012 15 1 
380 1.20329 4.08753 -0.00843154 -0.0100927 4.08756 -3.09222 15 1 
382 1.20332 4.09472 -0.00844989 -0.0101422 4.09475 -3.03898 15 1 
384 1.20337 4.094 -0.00845171 -0.0101631 4.09402 -2.94921 15 1 
384 1.20337 4.094 -0.00845171 -0.0101631 4.09402 -2.94921 16 1 
386 1.20342 4.09551 -0.00846808 -0.0102137 4.09554 -2.85031 16 1 
388 1.20346 4.10593 -0.00856447 -0.0103609 4.10596 -2.78351 16 1 
390 1.20353 4.11798 -0.00870038 -0.0105266 4.11801 -2.65209 16 1 
392 1.20361 4.12776 -0.00870544 -0.0105557 4.12778 -2.51116 16 1 
394 1.2036 4.13064 -0.00858225 -0.0104633 4.13066 -2.5221 16 1 
396 1.2036 4.12795 -0.00850886 -0.0104023 4.12798 -2.52935 16 1 
398 1.20368 4.12829 -0.00855623 -0.0104767 4.12832 -2.38738 16 1 
400 1.20375 4.13247 -0.00873623 -0.0107541 4.13249 -2.25478 16 1 
402 1.20374 4.14095 -0.00907268 -0.0111969 4.14098 -2.27053 16 1 
404 1.20373 4.15805 -0.00942687 -0.0116123 4.15808 -2.2902 16 1 
406 1.20381 4.184 -0.00953844 -0.0117818 4.18403 -2.15169 16 1 
408 1.20388 4.21259 -0.00938257 -0.0116673 4.21262 -2.02466 16 1 
410 1.20388 4.23398 -0.00918492 -0.0114641 4.23401 -2.02753 16 1 
412 1.20391 4.24752 -0.00912325 -0.0114072 4.24755 -1.96629 16 1 
414 1.204 4.26102 -0.00926237 -0.0116009 4.26105 -1.80653 16 1 
416 1.20403 4.27977 -0.00956183 -0.0119929 4.2798 -1.74638 16 1 
416 1.20403 4.27977 -0.00956183 -0.0119929 4.2798 -1.74638 16 1 
418 1.204 4.31074 -0.00989924 -0.0124315 4.31079 -1.80711 16 1 
420 1.20401 4.35723 -0.0101476 -0.0127645 4.3573 -1.79084 16 1 
422 1.2041 4.41143 -0.0102367 -0.0129069 4.41152 -1.63099 16 1 
424 1.20417 4.46648 -0.0101634 -0.0128508 4.46656 -1.49447 16 1 
426 1.20419 4.51878 -0.0099726 -0.0126567 4.51885 -1.46245 16 1 
428 1.20421 4.56479 -0.00971983 -0.0123744 4.56485 -1.43368 16 1 
430 1.20425 4.60264 -0.00941025 -0.0120019 4.60269 -1.35075 16 1 
432 1.2043 4.62803 -0.00900348 -0.011516 4.62806 -1.27191 16 1 
434 1.20431 4.63956 -0.0085358 -0.0109835 4.63958 -1.23907 16 1 
436 1.20433 4.63878 -0.00815296 -0.0105658 4.6388 -1.20902 16 1 
438 1.20435 4.62605 -0.00794216 -0.0103538 4.62607 -1.17689 16 1 
440 1.20434 4.60971 -0.00788924 -0.0103364 4.60973 -1.19149 16 1 
442 1.20434 4.59958 -0.00799586 -0.0105185 4.5996 -1.20086 16 1 
444 1.20438 4.59794 -0.00822544 -0.0108655 4.59796 -1.12745 16 1 
446 1.20443 4.60868 -0.00851428 -0.0112781 4.60871 -1.03722 16 1 
448 1.20445 4.63786 -0.00881306 -0.0116895 4.6379 -1.00239 16 1 
448 1.20445 4.63786 -0.00881306 -0.0116895 4.6379 -1.00239 17 1 
450 1.20448 4.68569 -0.0090814 -0.0120823 4.68575 -0.937154 17 1 
452 1.20455 4.74672 -0.00934082 -0.0124648 4.7468 -0.816845 17 1 
454 1.20455 4.81855 -0.00963237 -0.0128414 4.81865 -0.814331 17 1 
456 1.20452 4.90504 -0.00991015 -0.0131757 4.90516 -0.875133 17 1 
458 1.20461 5.00453 -0.0100817 -0.0134179 5.00468 -0.696198 17 1 
460 1.20476 5.11051 -0.0101567 -0.0135573 5.11067 -0.432079 17 1 
462 1.20471 5.22202 -0.010205 -0.0136301 5.22219 -0.519951 17 1 
464 1.20461 5.34029 -0.0102485 -0.0136937 5.34047 -0.697809 17 1 
466 1.20477 5.46567 -0.010311 -0.0137781 5.46586 -0.412072 17 1 
468 1.20499 5.59703 -0.0104055 -0.0138836 5.59723 -0.0267759 17 1 
470 1.20492 5.73 -0.0104732 -0.0139597 5.7302 -0.148336 17 1 
472 1.20478 5.86105 -0.0104505 -0.013922 5.86126 -0.401202 17 1 
474 1.20485 5.99617 -0.0103767 -0.0138235 5.99638 -0.278239 17 1 
476 1.20499 6.14068 -0.0103515 -0.013789 6.14088 -0.0190095 17 1 
478 1.20506 6.28476 -0.0104263 -0.0138495 6.28497 0.104666 17 1 
480 1.20501 6.42215 -0.0105251 -0.0139299 6.42236 0.0204722 17 1 
480 1.20501 6.42215 -0.0105251 -0.0139299 6.42236 0.0204722 17 1 
482 1.20486 6.56181 -0.0105357 -0.0139256 6.56202 -0.256604 17 1 
484 1.20488 6.70855 -0.0104496 -0.0138191 6.70875 -0.218056 17 1 
486 1.20515 6.8559 -0.0103524 -0.0136885 6.8561 0.269023 17 1 
488 1.20519 7.00037 -0.01031 -0.0136135 7.00056 0.351885 17 1 
490 1.20494 7.14153 -0.0103047 -0.0135908 7.14172 -0.114905 17 1 
492 1.20485 7.28031 -0.0103205 -0.0135777 7.28049 -0.2724 17 1 
494 1.20499 7.42413 -0.0103401 -0.0135361 7.4243 -0.0220599 17 1 
496 1.2051 7.57149 -0.0103216 -0.0134787 7.57166 0.177903 17 1 
498 1.20512 7.7104 -0.0102493 -0.0133877 7.71057 0.217502 17 1 
500 1.20497 7.84233 -0.0101696 -0.0132536 7.84249 -0.0562894 17 1 
502 1.20478 7.97627 -0.0101139 -0.0131489 7.97642 -0.40585 17 1 
504 1.20487 8.11105 -0.0100645 -0.0130636 8.11119 -0.235345 17 1 
506 1.20507 8.244 -0.0100029 -0.0129421 8.24413 0.121426 17 1 
508 1.20502 8.3721 -0.00992789 -0.01279 8.37222 0.0417237 17 1 
510 1.20485 8.49105 -0.0098416 -0.0126452 8.49117 -0.264639 17 1 
512 1.20474 8.6065 -0.00975381 -0.0125 8.60661 -0.466806 17 1 
512 1.20474 8.6065 -0.00975381 -0.0125 8.60661 -0.466806 25 1 
514 1.20476 8.72408 -0.00967896 -0.0123365 8.72419 -0.435595 25 1 
516 1.20489 8.83858 -0.00959804 -0.0121838 8.83867 -0.201792 25 1 
518 1.2049 8.94502 -0.00950752 -0.0120474 8.9451 -0.171833 25 1 
520 1.20476 9.04313 -0.00944284 -0.0119191 9.04321 -0.437376 25 1 
522 1.20464 9.13667 -0.00938889 -0.0117986 9.13674 -0.64548 25 1 
524 1.20464 9.22928 -0.00924977 -0.0115938 9.22935 -0.65177 25 1 
526 1.20472 9.31776 -0.00904701 -0.0112917 9.31782 -0.50264 25 1 
528 1.20476 9.39797 -0.00888302 -0.0110441 9.39802 -0.426647 25 1 
530 1.20467 9.46915 -0.00879521 -0.0108982 9.46919 -0.597097 25 1 
532 1.20456 9.53295 -0.00869918 -0.0107176 9.53299 -0.796924 25 1 
534 1.20453 9.59245 -0.00855513 -0.0104821 9.59248 -0.85256 25 1 
536 1.20459 9.64679 -0.00840943 -0.0102629 9.64681 -0.74128 25 1 
538 1.20466 9.69252 -0.0082744 -0.0100422 9.69254 -0.610377 25 1 
540 1.20459 9.72893 -0.00815024 -0.00982376 9.72894 -0.733664 25 1 
542 1.20448 9.75578 -0.00802986 -0.00962572 9.75579 -0.934712 25 1 
544 1.20445 9.77825 -0.00791315 -0.0094366 9.77826 -0.986399 25 1 
544 1.20445 9.77825 -0.00791315 -0.0094366 9.77826 -0.986399 25 1 
546 1.20447 9.80052 -0.00783455 -0.00928943 9.80053 -0.952367 25 1 
548 1.20455 9.81861 -0.00778028 -0.00915719 9.81862 -0.816255 25 1 
550 1.20457 9.83193 -0.00774034 -0.00903449 9.83194 -0.777466 25 1 
552 1.20448 9.84098 -0.00769727 -0.00894156 9.84099 -0.930316 25 1 
554 1.20443 9.84809 -0.00767779 -0.00888855 9.8481 -1.03478 25 1 
556 1.20442 9.85764 -0.00768938 -0.00883658 9.85764 -1.05593 25 1 
558 1.20447 9.86713 -0.00768101 -0.00875478 9.86714 -0.952551 25 1 
560 1.20454 9.87504 -0.00768108 -0.00868902 9.87504 -0.833008 25 1 
562 1.20449 9.88188 -0.00770765 -0.00863249 9.88188 -0.92981 25 1 
564 1.20442 9.88587 -0.00771723 -0.00856672 9.88588 -1.05095 25 1 
566 1.20441 9.89096 -0.00768535 -0.0084787 9.89097 -1.0672 25 1 
568 1.20445 9.8985 -0.00763817 -0.00836761 9.8985 -1.00163 25 1 
570 1.20453 9.90479 -0.00760738 -0.008267 9.90479 -0.856451 25 1 
572 1.20453 9.90997 -0.00763382 -0.00822695 9.90998 -0.846154 25 1 
574 1.20446 9.91278 -0.00767091 -0.00821311 9.91279 -0.970872 25 1 
576 1.20442 9.91454 -0.00768233 -0.00817817 9.91454 -1.05418 25 1 
576 1.20442 9.91454 -0.00768233 -0.00817817 9.91454 -1.05418 26 1 
578 1.20441 9.91905 -0.00766159 -0.00810063 9.91905 -1.05701 26 1 
580 1.20448 9.92436 -0.00761426 -0.00801511 9.92437 -0.936607 26 1 
582 1.20456 9.92863 -0.00755244 -0.00793524 9.92864 -0.797209 26 1 
584 1.20454 9.93148 -0.00752198 -0.00787446 9.93148 -0.833066 26 1 
586 1.20447 9.93204 -0.00754719 -0.00786476 9.93205 -0.951643 26 1 
588 1.20446 9.93373 -0.00755135 -0.00783854 9.93374 -0.979537 26 1 
590 1.20448 9.93676 -0.00749567 -0.00775114 9.93676 -0.939946 26 1 
592 1.20454 9.93952 -0.00743274 -0.007646 9.93953 -0.839348 26 1 
594 1.20456 9.94214 -0.00741775 -0.00757567 9.94215 -0.799627 26 1 
596 1.20452 9.94287 -0.00745311 -0.00755956 9.94287 -0.870397 26 1 
598 1.20451 9.94268 -0.00747024 -0.00753056 9.94269 -0.892315 26 1 
600 1.20451 9.94546 -0.00748808 -0.00749591 9.94546 -0.882115 26 1 
602 1.20456 9.94901 -0.00749537 -0.00744118 9.94902 -0.7925 26 1 
604 1.20462 9.95071 -0.00742813 -0.00731614 9.95072 -0.678575 26 1 
606 1.20459 9.95174 -0.0073474 -0.00719659 9.95174 -0.737558 26 1 
608 1.20454 9.95138 -0.0073312 -0.00714963 9.95139 -0.830585 26 1 
608 1.20454 9.95138 -0.0073312 -0.00714963 9.95139 -0.830585 26 1 
610 1.20453 9.95206 -0.00736956 -0.00713537 9.95207 -0.854417 26 1 
612 1.20456 9.95519 -0.00738799 -0.00711227 9.9552 -0.802782 26 1 
614 1.20463 9.95801 -0.0073554 -0.00706518 9.95802 -0.665616 26 1 
616 1.20467 9.96067 -0.00730014 -0.00698557 9.96068 -0.594852 26 1 
618 1.20464 9.96154 -0.00724725 -0.00689635 9.96154 -0.657312 26 1 
620 1.2046 9.96059 -0.00720103 -0.00682894 9.9606 -0.724317 26 1 
622 1.2046 9.96133 -0.00720623 -0.00681383 9.96134 -0.728401 26 1 
624 1.20462 9.96376 -0.00724107 -0.0068273 9.96377 -0.686554 26 1 
626 1.20468 9.96706 -0.0072119 -0.00679457 9.96707 -0.575864 26 1 
628 1.20472 9.96971 -0.00711532 -0.00668276 9.96972 -0.503393 26 1 
630 1.2047 9.96945 -0.00701398 -0.00655505 9.96945 -0.538691 26 1 
632 1.20466 9.96832 -0.0069676 -0.00650218 9.96833 -0.620455 26 1 
634 1.20462 9.96872 -0.00698023 -0.00651878 9.96872 -0.689391 26 1 
636 1.20467 9.97034 -0.0070033 -0.00652053 9.97034 -0.592285 26 1 
638 1.20475 9.97305 -0.00699515 -0.00649152 9.97306 -0.447308 26 1 
640 1.20478 9.97454 -0.00695814 -0.0064533 9.97454 -0.399351 26 1 
642 1.20478 9.97437 -0.00690509 -0.00639644 9.97438 -0.40623 26 1 
644 1.20472 9.97313 -0.00680909 -0.00628846 9.97314 -0.49705 26 1 
646 1.2047 9.97196 -0.0067188 -0.00621133 9.97197 -0.540287 26 1 
648 1.20474 9.97377 -0.00668673 -0.00618685 9.97378 -0.476856 26 1 
650 1.2048 9.97506 -0.00669277 -0.00616464 9.97506 -0.359637 26 1 
652 1.20484 9.976 -0.00668113 -0.00614098 9.976 -0.296855 26 1 
654 1.20482 9.97648 -0.00664865 -0.00612716 9.97649 -0.331457 26 1 
656 1.20481 9.97574 -0.00662701 -0.0061048 9.97574 -0.350177 26 1 
658 1.20481 9.97654 -0.00659323 -0.00605846 9.97654 -0.337316 26 1 
660 1.20486 9.97736 -0.00656825 -0.00604797 9.97736 -0.260114 26 1 
662 1.20489 9.97877 -0.00655303 -0.0060336 9.97877 -0.196379 26 1 
664 1.20491 9.98012 -0.00649926 -0.00597443 9.98012 -0.165284 26 1 
666 1.20491 9.97889 -0.0064128 -0.00590195 9.97889 -0.169772 26 1 
668 1.20489 9.97849 -0.00631658 -0.00580515 9.9785 -0.20307 26 1 
670 1.2049 9.97926 -0.00627367 -0.00574649 9.97926 -0.182007 26 1 
672 1.20495 9.9804 -0.00628501 -0.00577373 9.9804 -0.0900544 26 1 
672 1.20495 9.9804 -0.00628501 -0.00577373 9.9804 -0.0900544 27 1 
674 1.20503 9.98358 -0.00635445 -0.00585598 9.98359 0.0621207 27 1 
676 1.20506 9.98484 -0.00640496 -0.00588656 9.98485 0.116805 27 1 
678 1.20504 9.98429 -0.0063171 -0.00579731 9.9843 0.0784942 27 1 
680 1.20498 9.98361 -0.00615962 -0.00565117 9.98361 -0.0275564 27 1 
682 1.20496 9.98249 -0.0059844 -0.00547632 9.9825 -0.0802177 27 1 
684 1.20502 9.98473 -0.00593405 -0.00542269 9.98473 0.0439352 27 1 
686 1.20514 9.9885 -0.00600422 -0.00550237 9.9885 0.254311 27 1 
688 1.20526 9.99118 -0.00611007 -0.00561386 9.99119 0.473275 27 1 
690 1.20532 9.99411 -0.0062042 -0.00569949 9.99411 0.580171 27 1 
692 1.20528 9.99196 -0.00617524 -0.00567572 9.99196 0.500723 27 1 
694 1.20517 9.98755 -0.00605995 -0.00557477 9.98756 0.307457 27 1 
696 1.2051 9.98546 -0.00587459 -0.00538639 9.98546 0.186971 27 1 
698 1.20509 9.98438 -0.00570253 -0.00521477 9.98438 0.169282 27 1 
700 1.20519 9.98942 -0.00560763 -0.00512695 9.98942 0.348787 27 1 
702 1.20538 9.9962 -0.00554572 -0.00506421 9.99621 0.688483 27 1 
704 1.20553 10.0013 -0.00556938 -0.00509479 10.0013 0.952744 27 1 
704 1.20553 10.0013 -0.00556938 -0.00509479 10.0013 0.952744 31 1 
706 1.20559 10.0053 -0.00557026 -0.00510732 10.0053 1.074 31 1 
708 1.20555 10.0027 -0.00554312 -0.0050714 10.0027 0.989285 31 1 
710 1.20543 9.99887 -0.00549672 -0.00502582 9.99887 0.785403 31 1 
712 1.20532 9.9954 -0.00539775 -0.00494334 9.9954 0.570156 31 1 
714 1.20525 9.99035 -0.00535784 -0.00489251 9.99035 0.448058 31 1 
716 1.20531 9.99238 -0.00537842 -0.00490322 9.99239 0.557615 31 1 
718 1.20544 9.99544 -0.0054543 -0.00499036 9.99544 0.787117 31 1 
720 1.2056 10.0003 -0.00557074 -0.0051085 10.0003 1.07971 31 1 
722 1.20574 10.0082 -0.00565019 -0.00518399 10.0082 1.34209 31 1 
724 1.20576 10.0087 -0.00566351 -0.00520088 10.0087 1.3687 31 1 
726 1.20572 10.0101 -0.00557033 -0.00510825 10.0101 1.30377 31 1 
728 1.20567 10.0087 -0.00537069 -0.00490952 10.0087 1.20116 31 1 
730 1.20562 10.0051 -0.00513796 -0.00467451 10.0051 1.11272 31 1 
732 1.20568 10.0084 -0.00490408 -0.00443078 10.0084 1.23384 31 1 
734 1.2058 10.0083 -0.00476031 -0.00428914 10.0083 1.44429 31 1 
736 1.20597 10.0122 -0.00478087 -0.00431308 10.0122 1.75903 31 1 
738 1.20614 10.0192 -0.00495722 -0.00447241 10.0192 2.06589 31 1 
740 1.20622 10.021 -0.00518599 -0.0046941 10.021 2.20107 31 1 
742 1.20627 10.0287 -0.00538752 -0.00489807 10.0287 2.28758 31 1 
744 1.20625 10.0297 -0.005478 -0.00498653 10.0297 2.25413 31 1 
746 1.20621 10.0271 -0.00545976 -0.00495856 10.0271 2.19365 31 1 
748 1.20621 10.0283 -0.00536926 -0.00485499 10.0283 2.19404 31 1 
750 1.20619 10.0212 -0.00527671 -0.00476413 10.0212 2.15542 31 1 
752 1.20626 10.0215 -0.00516897 -0.00466065 10.0215 2.27399 31 1 
752 1.20626 10.0215 -0.00516897 -0.00466065 10.0215 2.27399 31 1 
754 1.20639 10.0262 -0.00503205 -0.00451137 10.0262 2.51871 31 1 
756 1.20657 10.032 -0.00491242 -0.00438656 10.032 2.8289 31 1 
758 1.20678 10.0482 -0.00480779 -0.00429139 10.0482 3.22067 31 1 
760 1.2069 10.0532 -0.00478007 -0.00426053 10.0532 3.4259 31 1 
762 1.20695 10.0545 -0.00480708 -0.00427572 10.0545 3.52753 31 1 
764 1.20695 10.0536 -0.00482059 -0.00427445 10.0536 3.52251 31 1 
766 1.20687 10.0433 -0.00474059 -0.00419286 10.0433 3.37329 31 1 
768 1.20686 10.0457 -0.00461065 -0.0040714 10.0457 3.36368 31 1 
770 1.20683 10.0433 -0.00445182 -0.00390219 10.0433 3.29863 31 1 
772 1.20679 10.043 -0.00427304 -0.00371158 10.043 3.23034 31 1 
774 1.20681 10.0496 -0.00406959 -0.00350845 10.0496 3.26824 31 1 
776 1.20679 10.0463 -0.00384925 -0.0032794 10.0463 3.24084 31 1 
778 1.20686 10.0531 -0.00364399 -0.00306631 10.0531 3.35766 31 1 
780 1.20689 10.0506 -0.0034874 -0.00290694 10.0506 3.41858 31 1 
782 1.20691 10.045 -0.00340018 -0.00281233 10.045 3.45082 31 1 
784 1.20692 10.0469 -0.00331585 -0.00271901 10.0469 3.46184 31 1 
786 1.20681 10.0388 -0.00322781 -0.00261837 10.0388 3.26756 31 1 
788 1.20676 10.0452 -0.00320237 -0.00257818 10.0452 3.18454 31 1 
790 1.20664 10.0446 -0.00317664 -0.00255477 10.0446 2.95654 31 1 
792 1.20646 10.0363 -0.00314135 -0.00251198 10.0363 2.63259 31 1 
794 1.20634 10.0332 -0.00312682 -0.00248271 10.0332 2.42688 31 1 
796 1.20614 10.0153 -0.00309381 -0.00244545 10.0153 2.05617 31 1 
798 1.20601 10.0141 -0.00306054 -0.00239848 10.0141 1.81966 31 1 
800 1.206 10.0237 -0.00303956 -0.00237211 10.0237 1.81484 31 1 
