13.5847;r ;Density                 ;Velocity u              ;Velocity v              ;Velocity w              ;|Velocity|              ;Pressure                ;Distribution            ;Levels                  ;
0 1.20372 9.99936 -7.42914e-05 -6.42118e-05 9.99936 -2.3063 1 1 
2 1.20385 9.99833 -7.26594e-05 -8.9709e-05 9.99833 -2.07414 1 1 
4 1.20383 10.0005 -0.000109601 -0.000168789 10.0005 -2.11908 1 1 
6 1.20375 10.0012 -0.000217211 -0.00027529 10.0012 -2.26556 1 1 
8 1.20385 9.9982 -0.000286546 -0.00036657 9.9982 -2.07484 1 1 
10 1.2038 9.99977 -0.000141664 -0.00023856 9.99977 -2.16033 1 1 
12 1.2038 10.0003 -1.65325e-05 -0.000129888 10.0003 -2.16803 1 1 
14 1.20381 10.0014 -7.33629e-05 -0.000209074 10.0014 -2.14979 1 1 
16 1.20383 10.0018 0.000109456 -4.69762e-05 10.0018 -2.11935 1 1 
18 1.20385 9.9997 0.000160975 -1.25876e-05 9.9997 -2.07882 1 1 
20 1.20374 10.0019 -0.000266375 -0.000400567 10.0019 -2.27028 1 1 
22 1.2038 10.0029 -0.000373427 -0.000506213 10.0029 -2.16566 1 1 
24 1.20391 10.002 0.000248323 5.42458e-05 10.002 -1.97288 1 1 
26 1.2039 10.001 0.000694462 0.000439854 10.001 -1.99489 1 1 
28 1.20375 10.0013 0.000590942 0.000336809 10.0013 -2.25311 1 1 
30 1.20375 9.99997 0.000760234 0.000528495 9.99997 -2.26194 1 1 
32 1.20381 9.99934 0.000904546 0.000693773 9.99934 -2.15112 1 1 
32 1.20381 9.99934 0.000904546 0.000693773 9.99934 -2.15112 1 1 
34 1.20376 10.0024 0.000327289 0.000128876 10.0024 -2.2454 1 1 
36 1.20388 10.002 -0.000697999 -0.00089413 10.002 -2.01568 1 1 
38 1.2039 10.0045 -0.000953716 -0.00115468 10.0045 -1.98101 1 1 
40 1.20391 10.0048 -0.000151684 -0.000374906 10.0048 -1.9759 1 1 
42 1.20391 10.0004 0.000664262 0.000433753 10.0004 -1.96786 1 1 
44 1.20378 10.0004 0.0010449 0.000814001 10.0004 -2.19817 1 1 
46 1.20383 10.0033 0.00101708 0.000790197 10.0033 -2.11 1 1 
48 1.20393 10.0042 0.000900935 0.000656468 10.0042 -1.92576 1 1 
50 1.20392 10.0031 0.000952508 0.000721432 10.0031 -1.95869 1 1 
52 1.20381 10.002 0.000970822 0.000735747 10.002 -2.15508 1 1 
54 1.20377 10.0013 0.00102491 0.000773217 10.0013 -2.21672 1 1 
56 1.20385 10.0022 0.00110814 0.000863653 10.0022 -2.0846 1 1 
58 1.20388 10.0031 0.00106952 0.000818057 10.0031 -2.02592 1 1 
60 1.20391 10.0035 0.00106543 0.000811296 10.0035 -1.97511 1 1 
62 1.20398 10.0045 0.00103174 0.000772284 10.0045 -1.85044 1 1 
64 1.20398 10.0057 0.000994331 0.000757658 10.0057 -1.83906 1 1 
64 1.20398 10.0057 0.000994331 0.000757658 10.0057 -1.83906 2 1 
66 1.20392 10.0034 0.000989618 0.000740098 10.0034 -1.94445 2 1 
68 1.20383 10.0021 0.00089312 0.000653308 10.0021 -2.1124 2 1 
70 1.20386 10.0027 0.00080382 0.000548353 10.0027 -2.06622 2 1 
72 1.20392 10.0031 0.000758323 0.000483367 10.0031 -1.95166 2 1 
74 1.20386 10.0021 0.000754246 0.000501551 10.0021 -2.05399 2 1 
76 1.20382 9.99945 0.00079333 0.000522521 9.99945 -2.12973 2 1 
78 1.20385 10.0016 0.000754916 0.00048894 10.0016 -2.07044 2 1 
80 1.20399 10.0072 0.000723652 0.000459502 10.0072 -1.82963 2 1 
82 1.20406 10.0082 0.000732454 0.000471655 10.0082 -1.70186 2 1 
84 1.20394 10.0025 0.000767727 0.000507986 10.0025 -1.92192 2 1 
86 1.2038 9.9992 0.00075371 0.000498639 9.9992 -2.15861 2 1 
88 1.20391 10.0032 0.00068703 0.000429997 10.0032 -1.96986 2 1 
90 1.20413 10.009 0.000674818 0.000396575 10.009 -1.57711 2 1 
92 1.20411 10.0086 0.000568351 0.000279981 10.0086 -1.60024 2 1 
94 1.20385 9.99979 0.000509368 0.000218919 9.99979 -2.07277 2 1 
96 1.20369 9.99423 0.000501068 0.000210825 9.99423 -2.36279 2 1 
96 1.20369 9.99423 0.000501068 0.000210825 9.99423 -2.36279 2 1 
98 1.20388 10.0026 0.000387596 9.41268e-05 10.0026 -2.01435 2 1 
100 1.20427 10.0143 0.000441238 0.000149303 10.0143 -1.31595 2 1 
102 1.20439 10.015 0.000453302 0.000158797 10.015 -1.09775 2 1 
104 1.20407 10.0057 0.000458206 0.000158545 10.0057 -1.68067 2 1 
106 1.20379 9.99839 0.000491181 0.000183629 9.99839 -2.18199 2 1 
108 1.20396 10.0017 0.000402917 9.5028e-05 10.0017 -1.87959 2 1 
110 1.20433 10.0138 0.000485227 0.000169508 10.0138 -1.20448 2 1 
112 1.20453 10.0178 0.000476655 0.000141671 10.0178 -0.854582 2 1 
114 1.20429 10.0094 0.00048291 0.000128884 10.0094 -1.28983 2 1 
116 1.20394 10.0033 0.00037877 2.18432e-05 10.0033 -1.91768 2 1 
118 1.20402 10.0045 0.000279791 -7.3914e-05 10.0045 -1.7758 2 1 
120 1.20443 10.0143 0.00025413 -0.000123938 10.0143 -1.03368 2 1 
122 1.2047 10.0227 0.000278741 -0.000114763 10.0227 -0.54029 2 1 
124 1.20455 10.0174 0.000457271 5.30456e-05 10.0174 -0.817223 2 1 
126 1.20423 10.0065 0.000615597 0.000223107 10.0065 -1.3931 2 1 
128 1.20409 10.0055 0.000767265 0.000364164 10.0055 -1.63984 2 1 
128 1.20409 10.0055 0.000767265 0.000364164 10.0055 -1.63984 10 1 
130 1.20436 10.0128 0.000745959 0.000294427 10.0128 -1.15223 10 1 
132 1.20476 10.0239 0.000632823 0.000190586 10.0239 -0.437481 10 1 
134 1.20484 10.0265 0.000386908 -5.4649e-05 10.0265 -0.282737 10 1 
136 1.2046 10.0168 0.00020579 -0.000251513 10.0168 -0.723221 10 1 
138 1.2043 10.0081 8.05649e-05 -0.00040226 10.0081 -1.25569 10 1 
140 1.20429 10.0076 0.000130879 -0.000380634 10.0076 -1.2873 10 1 
142 1.20451 10.015 0.000298934 -0.000213942 10.015 -0.882978 10 1 
144 1.20473 10.0226 0.000566605 3.72366e-05 10.0226 -0.489895 10 1 
146 1.20475 10.0222 0.00075763 0.000220768 10.0222 -0.446868 10 1 
148 1.20456 10.0132 0.000731738 0.000196833 10.0132 -0.794572 10 1 
150 1.20435 10.0086 0.000535736 5.5712e-08 10.0086 -1.17854 10 1 
152 1.20442 10.01 0.000154148 -0.00038343 10.01 -1.04629 10 1 
154 1.20462 10.0149 -0.000110673 -0.000655585 10.0149 -0.693447 10 1 
156 1.2047 10.0194 -0.000328971 -0.000877994 10.0194 -0.541537 10 1 
158 1.20465 10.0152 -0.00032556 -0.000880734 10.0152 -0.633964 10 1 
160 1.20442 10.006 -0.000199117 -0.000785887 10.006 -1.04886 10 1 
160 1.20442 10.006 -0.000199117 -0.000785887 10.006 -1.04886 10 1 
162 1.20422 10.003 -0.000130345 -0.000724655 10.003 -1.41642 10 1 
164 1.20436 10.0059 -0.000159977 -0.000741083 10.0059 -1.15201 10 1 
166 1.20477 10.0146 -0.000332609 -0.000932382 10.0146 -0.418743 10 1 
168 1.20509 10.0279 -0.000584419 -0.00118786 10.0279 0.167336 10 1 
170 1.20525 10.0298 -0.000841682 -0.00142862 10.0298 0.449027 10 1 
172 1.20507 10.0247 -0.000929781 -0.00152317 10.0247 0.129023 10 1 
174 1.20473 10.0158 -0.000820764 -0.00143652 10.0158 -0.495755 10 1 
176 1.20455 10.0052 -0.000605399 -0.00118533 10.0052 -0.807234 10 1 
178 1.20456 10.0057 -0.000252132 -0.000820843 10.0057 -0.786523 10 1 
180 1.20481 10.0127 4.39309e-05 -0.000567258 10.0127 -0.339394 10 1 
182 1.20517 10.021 0.000131483 -0.000478374 10.021 0.30633 10 1 
184 1.20544 10.0291 6.64323e-06 -0.000593324 10.0291 0.792175 10 1 
186 1.20558 10.0331 -0.000245498 -0.000861291 10.0331 1.05072 10 1 
188 1.20555 10.0308 -0.000603246 -0.00122423 10.0308 0.996927 10 1 
190 1.20546 10.0279 -0.000980472 -0.0015982 10.0279 0.824452 10 1 
192 1.20549 10.0277 -0.000991695 -0.00164587 10.0277 0.88031 10 1 
194 1.2057 10.0286 -0.00105598 -0.00173035 10.0286 1.2608 10 1 
196 1.20595 10.0344 -0.000830912 -0.00151083 10.0344 1.70754 10 1 
198 1.20616 10.0419 -0.00031034 -0.000980421 10.0419 2.10103 10 1 
200 1.20634 10.0431 -3.28624e-06 -0.000704458 10.0431 2.42642 10 1 
202 1.2063 10.0414 0.0005635 -0.000189007 10.0414 2.35157 10 1 
204 1.20612 10.0356 0.000995623 0.000247449 10.0356 2.02794 10 1 
206 1.20599 10.0234 0.00102414 0.000279835 10.0234 1.78619 10 1 
208 1.20581 10.015 0.00106858 0.000394169 10.015 1.46028 10 1 
210 1.20566 10.0101 0.00102504 0.000345581 10.0101 1.19697 10 1 
212 1.20571 10.001 0.000767987 1.69366e-05 10.001 1.2903 10 1 
214 1.20576 9.99798 0.00059424 -0.000176765 9.99799 1.37266 10 1 
216 1.20587 9.99781 0.000326244 -0.000422446 9.99781 1.57734 10 1 
218 1.20605 9.99706 7.489e-07 -0.000712132 9.99707 1.89896 10 1 
220 1.20614 10.0018 -8.80073e-05 -0.000862944 10.0018 2.06298 10 1 
222 1.20618 9.99846 -0.000182732 -0.000968847 9.99846 2.13414 10 1 
224 1.20608 9.98742 -0.000248564 -0.000919585 9.98742 1.95704 10 1 
224 1.20608 9.98742 -0.000248564 -0.000919585 9.98742 1.95704 10 1 
226 1.20599 9.97393 -0.000341133 -0.00100962 9.97393 1.78207 10 1 
228 1.20584 9.95583 -0.00044959 -0.00120903 9.95583 1.5193 10 1 
230 1.20569 9.94087 -0.000508973 -0.00130241 9.94087 1.2387 10 1 
232 1.20558 9.93506 -0.00052916 -0.00128316 9.93506 1.03985 10 1 
234 1.20555 9.92453 -0.00046156 -0.00114864 9.92453 0.991171 10 1 
236 1.20554 9.90816 -0.000418687 -0.00114369 9.90816 0.977033 10 1 
238 1.20537 9.89881 -0.000409416 -0.00118318 9.89881 0.665989 10 1 
240 1.20549 9.87903 -0.000665162 -0.00144661 9.87903 0.884156 10 1 
242 1.20551 9.8656 -0.000720221 -0.00148447 9.8656 0.91398 10 1 
244 1.20545 9.85932 -0.000602033 -0.00136707 9.85932 0.817254 10 1 
246 1.20573 9.84102 -0.000689304 -0.00145189 9.84103 1.3117 10 1 
248 1.20579 9.82513 -0.000556002 -0.00129568 9.82514 1.42529 10 1 
250 1.20583 9.80565 -0.000779318 -0.00151439 9.80565 1.49909 10 1 
252 1.20594 9.78759 -0.00102995 -0.00176471 9.78759 1.70347 10 1 
254 1.20615 9.76664 -0.00083403 -0.00156579 9.76664 2.07775 10 1 
256 1.20629 9.74332 -0.000883553 -0.00163541 9.74332 2.33721 10 1 
256 1.20629 9.74332 -0.000883553 -0.00163541 9.74332 2.33721 11 1 
258 1.20641 9.71821 -0.000987902 -0.00174304 9.71821 2.55161 11 1 
260 1.20677 9.68704 -0.00110149 -0.00183654 9.68705 3.19807 11 1 
262 1.20695 9.65192 -0.00126167 -0.00199282 9.65193 3.53093 11 1 
264 1.20698 9.61792 -0.00122812 -0.00193887 9.61793 3.5802 11 1 
266 1.20742 9.5764 -0.00121007 -0.00195219 9.57641 4.36921 11 1 
268 1.20796 9.51898 -0.00137089 -0.00212658 9.519 5.3506 11 1 
270 1.20798 9.47455 -0.00152729 -0.00223115 9.47457 5.38555 11 1 
272 1.20847 9.40773 -0.00155681 -0.00225527 9.40776 6.26293 11 1 
274 1.20919 9.32657 -0.00161423 -0.00233986 9.3266 7.56683 11 1 
276 1.20934 9.25933 -0.00172258 -0.00240008 9.25936 7.84573 11 1 
278 1.21003 9.16323 -0.00181157 -0.00250831 9.16326 9.08295 11 1 
280 1.21102 9.06331 -0.00188028 -0.00258897 9.06338 10.8759 11 1 
282 1.21172 8.93782 -0.001947 -0.00260294 8.93814 12.1412 11 1 
284 1.21238 8.76064 -0.00203029 -0.00269849 8.76115 13.3265 11 1 
286 1.2132 8.58319 -0.00215745 -0.00283299 8.58348 14.8167 11 1 
288 1.21446 8.41571 -0.00222686 -0.00289397 8.41578 17.0847 11 1 
288 1.21446 8.41571 -0.00222686 -0.00289397 8.41578 17.0847 11 1 
290 1.21588 8.24318 -0.00226488 -0.00291037 8.24332 19.6597 11 1 
292 1.21706 8.02701 -0.00238207 -0.00303227 8.02752 21.7806 11 1 
294 1.21811 7.75941 -0.00243585 -0.00308325 7.76039 23.6809 11 1 
296 1.21952 7.48023 -0.00249475 -0.0031012 7.48098 26.2242 11 1 
298 1.21158 7.12667 -0.00256123 -0.00315711 7.12711 11.8899 11 1 
300 1.19744 6.96423 -0.0025933 -0.00319984 6.96476 -13.6617 11 1 
302 1.19262 6.89307 -0.00272688 -0.00331789 6.89339 -22.3703 11 1 
304 1.19367 6.65419 -0.00285313 -0.00342441 6.65458 -20.459 11 1 
306 1.19485 6.4124 -0.00289666 -0.00347396 6.41298 -18.3264 11 1 
308 1.19586 6.19094 -0.0029727 -0.00353222 6.19152 -16.5173 11 1 
310 1.19651 6.00281 -0.00304986 -0.00359233 6.00329 -15.3367 11 1 
312 1.19723 5.81712 -0.00312675 -0.00368344 5.81741 -14.0369 11 1 
314 1.19791 5.67094 -0.00323166 -0.00377313 5.67114 -12.8126 11 1 
316 1.19845 5.55376 -0.00335651 -0.00388683 5.5539 -11.8226 11 1 
318 1.19895 5.42502 -0.00345906 -0.00400879 5.42514 -10.9189 11 1 
320 1.19934 5.32444 -0.00351274 -0.00404906 5.32454 -10.2253 11 1 
320 1.19934 5.32444 -0.00351274 -0.00404906 5.32454 -10.2253 15 1 
322 1.19971 5.25527 -0.00366067 -0.00418804 5.25532 -9.5473 15 1 
324 1.20014 5.18298 -0.00379229 -0.00433827 5.183 -8.7838 15 1 
326 1.20047 5.11818 -0.00382287 -0.0043679 5.1182 -8.1891 15 1 
328 1.2007 5.06182 -0.00387923 -0.0044187 5.06185 -7.7646 15 1 
330 1.20089 5.00917 -0.00400346 -0.00454491 5.00921 -7.41753 15 1 
332 1.2012 4.97517 -0.00410857 -0.00465299 4.9752 -6.87281 15 1 
334 1.20151 4.93936 -0.00415334 -0.00471045 4.93938 -6.30246 15 1 
336 1.20159 4.88996 -0.0042121 -0.00477614 4.88999 -6.15802 15 1 
338 1.20171 4.85781 -0.00429943 -0.00487054 4.85785 -5.94405 15 1 
340 1.202 4.84359 -0.00441163 -0.00500205 4.84362 -5.4213 15 1 
342 1.20218 4.82675 -0.00445801 -0.00505226 4.82678 -5.08876 15 1 
344 1.20226 4.79878 -0.00444096 -0.00503001 4.7988 -4.95331 15 1 
346 1.20235 4.77126 -0.00453831 -0.00514798 4.77127 -4.79039 15 1 
348 1.20254 4.77611 -0.00475929 -0.0053959 4.77612 -4.43933 15 1 
350 1.20275 4.7992 -0.00486235 -0.00549826 4.79921 -4.06345 15 1 
352 1.20282 4.80408 -0.00480214 -0.00542837 4.80409 -3.93723 15 1 
354 1.20292 4.80598 -0.00478779 -0.00542416 4.80599 -3.76195 15 1 
356 1.20308 4.81404 -0.00489879 -0.00555192 4.81405 -3.46169 15 1 
358 1.2032 4.82324 -0.00500413 -0.00564549 4.82326 -3.24992 15 1 
360 1.20333 4.85199 -0.00504363 -0.00567908 4.85204 -3.01547 15 1 
362 1.20347 4.89509 -0.00507412 -0.00574124 4.89516 -2.76073 15 1 
364 1.20358 4.9306 -0.005077 -0.00574868 4.93065 -2.56332 15 1 
366 1.20367 4.95288 -0.00499303 -0.00562715 4.9529 -2.39915 15 1 
368 1.20378 4.96128 -0.00486346 -0.00550054 4.96129 -2.20545 15 1 
370 1.20393 4.96819 -0.00481302 -0.00547785 4.9682 -1.94002 15 1 
372 1.20403 4.98431 -0.00488523 -0.00553635 4.98432 -1.7525 15 1 
374 1.20409 5.00394 -0.00493635 -0.00558663 5.00395 -1.64644 15 1 
376 1.20417 5.022 -0.00482801 -0.00549898 5.02201 -1.50427 15 1 
378 1.20425 5.02944 -0.00465473 -0.00530213 5.02945 -1.35385 15 1 
380 1.20434 5.02176 -0.0045923 -0.00520793 5.02177 -1.18456 15 1 
382 1.20444 5.00818 -0.00466543 -0.00528941 5.00819 -1.01626 15 1 
384 1.20452 5.00061 -0.00476606 -0.00541025 5.00061 -0.860257 15 1 
384 1.20452 5.00061 -0.00476606 -0.00541025 5.00061 -0.860257 16 1 
386 1.20464 5.01411 -0.00486248 -0.00551375 5.01413 -0.642362 16 1 
388 1.20479 5.05781 -0.0050124 -0.00567186 5.05788 -0.387151 16 1 
390 1.20494 5.12985 -0.0051919 -0.00588905 5.12998 -0.101028 16 1 
392 1.20512 5.23061 -0.00532876 -0.00607338 5.2308 0.222461 16 1 
394 1.2053 5.36171 -0.00546006 -0.00623467 5.36199 0.542341 16 1 
396 1.2055 5.52287 -0.00559796 -0.00640019 5.52326 0.898122 16 1 
398 1.20572 5.7146 -0.00567565 -0.00652235 5.71509 1.29645 16 1 
400 1.20594 5.93192 -0.00569084 -0.00658804 5.93249 1.69122 16 1 
402 1.20612 6.16788 -0.00571993 -0.00664116 6.1685 2.02899 16 1 
404 1.20626 6.4187 -0.00575028 -0.0066902 6.41936 2.27312 16 1 
406 1.20639 6.68114 -0.00570738 -0.0066864 6.68181 2.50753 16 1 
408 1.20651 6.95073 -0.00561811 -0.0066164 6.95139 2.73306 16 1 
410 1.20658 7.2205 -0.0055488 -0.00654577 7.22113 2.86034 16 1 
412 1.20663 7.48662 -0.0054465 -0.00645815 7.4872 2.94299 16 1 
414 1.20665 7.74629 -0.00529738 -0.00630723 7.74682 2.98364 16 1 
416 1.20662 7.99462 -0.00515341 -0.00614331 7.99508 2.93356 16 1 
416 1.20662 7.99462 -0.00515341 -0.00614331 7.99508 2.93356 16 1 
418 1.20656 8.22863 -0.00503651 -0.00603819 8.22902 2.81902 16 1 
420 1.20649 8.44602 -0.00492666 -0.00593348 8.44635 2.68705 16 1 
422 1.20643 8.64444 -0.00476392 -0.00573758 8.6447 2.58848 16 1 
424 1.20637 8.82185 -0.00458069 -0.00552745 8.82205 2.47008 16 1 
426 1.20627 8.97753 -0.00443238 -0.0053835 8.97768 2.28888 16 1 
428 1.20617 9.11242 -0.00432775 -0.00525798 9.11253 2.11161 16 1 
430 1.20608 9.22863 -0.00422662 -0.00510579 9.22871 1.95528 16 1 
432 1.206 9.32678 -0.00411671 -0.0049778 9.32683 1.80129 16 1 
434 1.20592 9.40788 -0.00401437 -0.00486686 9.40792 1.66323 16 1 
436 1.20586 9.47554 -0.00393486 -0.00478067 9.47557 1.55327 16 1 
438 1.2058 9.53356 -0.00387045 -0.0047229 9.53358 1.44938 16 1 
440 1.20574 9.5839 -0.00381643 -0.0046455 9.58391 1.33139 16 1 
442 1.20568 9.62646 -0.00376814 -0.00459299 9.62647 1.22382 16 1 
444 1.20563 9.66311 -0.00372933 -0.00459363 9.66312 1.13645 16 1 
446 1.2056 9.69607 -0.00370028 -0.00455224 9.69608 1.07643 16 1 
448 1.20557 9.72555 -0.00367483 -0.00448687 9.72556 1.03745 16 1 
448 1.20557 9.72555 -0.00367483 -0.00448687 9.72556 1.03745 17 1 
450 1.20554 9.75072 -0.00360724 -0.00443021 9.75073 0.966446 17 1 
452 1.2055 9.77296 -0.00353629 -0.00439402 9.77297 0.901307 17 1 
454 1.20548 9.79306 -0.00355205 -0.00441426 9.79306 0.860022 17 1 
456 1.20545 9.81034 -0.00355972 -0.00440102 9.81034 0.804408 17 1 
458 1.20543 9.82527 -0.00346313 -0.0043226 9.82527 0.77175 17 1 
460 1.20542 9.83987 -0.00336436 -0.00427309 9.83988 0.756515 17 1 
462 1.2054 9.85344 -0.00336923 -0.00428812 9.85344 0.722364 17 1 
464 1.20539 9.86383 -0.00337744 -0.00429924 9.86384 0.701555 17 1 
466 1.20536 9.87248 -0.00333396 -0.00428387 9.87249 0.651894 17 1 
468 1.20534 9.88191 -0.00328468 -0.00425614 9.88192 0.605254 17 1 
470 1.20534 9.89158 -0.00325841 -0.00422431 9.89158 0.615997 17 1 
472 1.20532 9.89903 -0.00324399 -0.00418299 9.89903 0.582011 17 1 
474 1.20531 9.90587 -0.00322631 -0.00416308 9.90587 0.565597 17 1 
476 1.20532 9.91261 -0.00319794 -0.00416656 9.91262 0.583562 17 1 
478 1.2053 9.91876 -0.00319235 -0.00413453 9.91876 0.544554 17 1 
480 1.20528 9.92505 -0.00320648 -0.00408904 9.92505 0.511025 17 1 
480 1.20528 9.92505 -0.00320648 -0.00408904 9.92505 0.511025 17 1 
482 1.20527 9.93036 -0.00318949 -0.00409566 9.93036 0.494051 17 1 
484 1.20527 9.93536 -0.00315924 -0.00409141 9.93536 0.481047 17 1 
486 1.20528 9.94044 -0.00318656 -0.00407043 9.94045 0.505023 17 1 
488 1.20529 9.9447 -0.00319627 -0.00404459 9.9447 0.518119 17 1 
490 1.20527 9.94932 -0.00315189 -0.0040242 9.94932 0.485703 17 1 
492 1.20524 9.95308 -0.00310173 -0.00398713 9.95308 0.439502 17 1 
494 1.20525 9.95678 -0.00312415 -0.0039623 9.95678 0.443823 17 1 
496 1.20526 9.96026 -0.00315301 -0.00396433 9.96026 0.46444 17 1 
498 1.20525 9.96211 -0.00312193 -0.00396618 9.96211 0.454544 17 1 
500 1.20525 9.96618 -0.00310371 -0.00393812 9.96618 0.455531 17 1 
502 1.20524 9.96873 -0.0031044 -0.00389249 9.96873 0.425383 17 1 
504 1.20522 9.97045 -0.00307162 -0.0038592 9.97045 0.394237 17 1 
506 1.20523 9.97324 -0.00302225 -0.00382226 9.97324 0.409641 17 1 
508 1.20524 9.97508 -0.00306472 -0.00383305 9.97508 0.440231 17 1 
510 1.20525 9.97803 -0.00308088 -0.00382292 9.97803 0.45431 17 1 
512 1.20523 9.97873 -0.00304115 -0.00380028 9.97873 0.412967 17 1 
512 1.20523 9.97873 -0.00304115 -0.00380028 9.97873 0.412967 25 1 
514 1.2052 9.97928 -0.00299589 -0.0037411 9.97928 0.368992 25 1 
516 1.2052 9.98191 -0.00298862 -0.00368953 9.98192 0.363017 25 1 
518 1.2052 9.98201 -0.00295577 -0.00366407 9.98201 0.357679 25 1 
520 1.20523 9.98503 -0.00294833 -0.00365879 9.98503 0.415411 25 1 
522 1.20524 9.9866 -0.00301353 -0.00367584 9.98661 0.433261 25 1 
524 1.20521 9.98567 -0.00299307 -0.00365629 9.98567 0.38435 25 1 
526 1.20521 9.98895 -0.00291049 -0.00359038 9.98895 0.38532 25 1 
528 1.20518 9.98631 -0.00285797 -0.00349475 9.98631 0.316292 25 1 
530 1.20518 9.98857 -0.00287198 -0.00349571 9.98858 0.333429 25 1 
532 1.20522 9.99164 -0.00285998 -0.00349464 9.99164 0.395729 25 1 
534 1.20521 9.98959 -0.0028796 -0.00348151 9.98959 0.378549 25 1 
536 1.20522 9.99406 -0.00289986 -0.00349098 9.99406 0.400272 25 1 
538 1.20517 9.99042 -0.00283815 -0.00344617 9.99042 0.310837 25 1 
540 1.20518 9.99172 -0.00274842 -0.00334024 9.99172 0.316868 25 1 
542 1.20521 9.99534 -0.00272655 -0.00327807 9.99534 0.388281 25 1 
544 1.20519 9.99197 -0.00275774 -0.00330176 9.99197 0.339513 25 1 
544 1.20519 9.99197 -0.00275774 -0.00330176 9.99197 0.339513 25 1 
546 1.2052 9.99784 -0.00279227 -0.00335243 9.99784 0.368867 25 1 
548 1.20516 9.99314 -0.002808 -0.0033498 9.99315 0.295025 25 1 
550 1.20515 9.99257 -0.00272131 -0.00323918 9.99257 0.274741 25 1 
552 1.20521 9.9989 -0.00262255 -0.00315025 9.9989 0.37058 25 1 
554 1.2052 9.99412 -0.00261842 -0.00313459 9.99412 0.357024 25 1 
556 1.20522 10.0013 -0.00268621 -0.0031779 10.0013 0.406032 25 1 
558 1.20516 9.99589 -0.00270528 -0.00320183 9.99589 0.284978 25 1 
560 1.20515 9.99449 -0.00264789 -0.00313562 9.99449 0.277025 25 1 
562 1.2052 10.0016 -0.00256083 -0.00302931 10.0016 0.353893 25 1 
564 1.20512 9.99243 -0.00251476 -0.00298507 9.99243 0.221102 25 1 
566 1.20522 10.0037 -0.00253312 -0.00300007 10.0037 0.399172 25 1 
568 1.20519 9.99784 -0.00259624 -0.00304673 9.99784 0.351805 25 1 
570 1.20517 9.9973 -0.0025829 -0.0030257 9.9973 0.298102 25 1 
572 1.20522 10.0053 -0.00249946 -0.00293699 10.0053 0.398377 25 1 
574 1.20512 9.9926 -0.00245988 -0.00289169 9.9926 0.20814 25 1 
576 1.20516 10.0054 -0.0024503 -0.00287428 10.0054 0.29558 25 1 
576 1.20516 10.0054 -0.0024503 -0.00287428 10.0054 0.29558 26 1 
578 1.20515 9.99632 -0.0024327 -0.00284513 9.99632 0.267723 26 1 
580 1.2052 10.0003 -0.00240598 -0.00281503 10.0003 0.355322 26 1 
582 1.20521 10.0059 -0.0024101 -0.00281288 10.0059 0.382758 26 1 
584 1.20514 9.99455 -0.00241556 -0.00281273 9.99455 0.252476 26 1 
586 1.20524 10.0096 -0.00240495 -0.00280344 10.0096 0.434295 26 1 
588 1.20512 9.99512 -0.0023593 -0.0027439 9.99512 0.212011 26 1 
590 1.20513 10.0021 -0.00229978 -0.00266731 10.0021 0.238327 26 1 
592 1.20519 10.0046 -0.00227477 -0.00264361 10.0046 0.336699 26 1 
594 1.20516 9.99686 -0.00227076 -0.00263792 9.99687 0.290721 26 1 
596 1.20522 10.0104 -0.0022825 -0.00264172 10.0104 0.38952 26 1 
598 1.20513 9.99525 -0.00227779 -0.0026354 9.99525 0.230141 26 1 
600 1.20521 10.007 -0.00226608 -0.00261308 10.007 0.385893 26 1 
602 1.20514 10.001 -0.00221855 -0.00255515 10.001 0.250096 26 1 
604 1.20514 10.0001 -0.00214792 -0.0024875 10.0001 0.259122 26 1 
606 1.20524 10.0105 -0.00214829 -0.0024787 10.0105 0.442115 26 1 
608 1.2051 9.99558 -0.00218054 -0.00249684 9.99558 0.187279 26 1 
608 1.2051 9.99558 -0.00218054 -0.00249684 9.99558 0.187279 26 1 
610 1.20517 10.009 -0.00215806 -0.00247896 10.009 0.306108 26 1 
612 1.20517 9.99934 -0.0021122 -0.00243216 9.99934 0.303984 26 1 
614 1.20521 10.0052 -0.00207757 -0.00238089 10.0052 0.371852 26 1 
616 1.20516 10.0059 -0.00206875 -0.00236774 10.0059 0.284636 26 1 
618 1.20512 9.99754 -0.00207582 -0.00237589 9.99754 0.210001 26 1 
620 1.20524 10.0114 -0.00203571 -0.00232893 10.0114 0.442077 26 1 
622 1.20512 9.99734 -0.0019922 -0.00228462 9.99734 0.21604 26 1 
624 1.20516 10.0085 -0.00198602 -0.00226827 10.0085 0.290825 26 1 
626 1.20516 10.0025 -0.00199392 -0.00226286 10.0025 0.297342 26 1 
628 1.2052 10.0036 -0.00197716 -0.00224661 10.0036 0.352601 26 1 
630 1.20518 10.0075 -0.00193839 -0.00220468 10.0075 0.328781 26 1 
632 1.20509 9.9972 -0.00189982 -0.00216 9.9972 0.167158 26 1 
634 1.20523 10.0118 -0.001882 -0.00213809 10.0118 0.408435 26 1 
636 1.20516 9.99932 -0.00187702 -0.00212871 9.99932 0.285229 26 1 
638 1.20518 10.0089 -0.00185808 -0.00210233 10.0089 0.331054 26 1 
640 1.20512 10.0013 -0.00183845 -0.00207122 10.0013 0.221351 26 1 
642 1.20516 10.0037 -0.0018073 -0.00204201 10.0037 0.287209 26 1 
644 1.20521 10.0091 -0.00178648 -0.00202113 10.0091 0.380899 26 1 
646 1.20514 9.99975 -0.00179024 -0.00200923 9.99975 0.25481 26 1 
648 1.20519 10.0104 -0.00176178 -0.00198371 10.0104 0.341364 26 1 
650 1.20512 9.99789 -0.00172444 -0.00194689 9.99789 0.221805 26 1 
652 1.20523 10.0109 -0.00170018 -0.00190513 10.0109 0.413648 26 1 
654 1.20512 10.0008 -0.00167095 -0.00187502 10.0008 0.217084 26 1 
656 1.20517 10.0077 -0.00168086 -0.00188338 10.0077 0.300632 26 1 
658 1.20519 10.0055 -0.00165615 -0.00184943 10.0055 0.342267 26 1 
660 1.20515 10.0027 -0.00160907 -0.0018025 10.0027 0.275566 26 1 
662 1.20518 10.0079 -0.00160224 -0.00179072 10.0079 0.325323 26 1 
664 1.20516 10.0005 -0.00158982 -0.0017688 10.0005 0.285517 26 1 
666 1.20524 10.011 -0.00160838 -0.00178128 10.011 0.431918 26 1 
668 1.20514 9.99806 -0.0015838 -0.00175515 9.99806 0.258164 26 1 
670 1.20522 10.0092 -0.00149118 -0.00166331 10.0092 0.405452 26 1 
672 1.20519 9.99966 -0.00144375 -0.00160666 9.99966 0.336551 26 1 
672 1.20519 9.99966 -0.00144375 -0.00160666 9.99966 0.336551 27 1 
674 1.20525 10.0086 -0.0014563 -0.00161157 10.0086 0.442683 27 1 
676 1.20518 10.0016 -0.00150489 -0.00166156 10.0016 0.317937 27 1 
678 1.20523 10.0064 -0.00151059 -0.00165785 10.0064 0.409215 27 1 
680 1.20522 10.0032 -0.00144047 -0.00158099 10.0032 0.389838 27 1 
682 1.20519 10.0032 -0.0013636 -0.00150669 10.0032 0.34959 27 1 
684 1.20523 10.0046 -0.00134635 -0.0014805 10.0046 0.418625 27 1 
686 1.20525 10.0028 -0.00140908 -0.00153899 10.0028 0.460202 27 1 
688 1.20523 10.0061 -0.00145888 -0.00159391 10.0061 0.422855 27 1 
690 1.20518 10.0029 -0.00142529 -0.00155142 10.0029 0.325267 27 1 
692 1.20522 10.0084 -0.00133988 -0.0014536 10.0084 0.390417 27 1 
694 1.20516 10.0035 -0.00127159 -0.00138002 10.0035 0.292157 27 1 
696 1.20517 10.0052 -0.00128 -0.00138747 10.0052 0.314146 27 1 
698 1.20523 10.0035 -0.00135127 -0.00145945 10.0035 0.4188 27 1 
700 1.20529 10.0094 -0.00136352 -0.00147192 10.0094 0.530638 27 1 
702 1.20513 10.0046 -0.0012915 -0.00139605 10.0046 0.231834 27 1 
704 1.20506 10.0046 -0.00122278 -0.00131265 10.0046 0.11024 27 1 
704 1.20506 10.0046 -0.00122278 -0.00131265 10.0046 0.11024 31 1 
706 1.20522 10.0051 -0.00120867 -0.00129735 10.0051 0.399349 31 1 
708 1.20534 10.0095 -0.00124982 -0.00134444 10.0095 0.622319 31 1 
710 1.20515 10.0056 -0.00125618 -0.00134711 10.0056 0.264918 31 1 
712 1.20504 10.0041 -0.00121158 -0.00130504 10.0041 0.0781145 31 1 
714 1.20523 10.0063 -0.00114572 -0.001235 10.0063 0.415802 31 1 
716 1.2053 10.0086 -0.00109494 -0.00117228 10.0086 0.536598 31 1 
718 1.20508 10.0055 -0.0011299 -0.00120506 10.0055 0.151075 31 1 
720 1.20507 10.0058 -0.00114772 -0.00122449 10.0058 0.120612 31 1 
722 1.2053 10.0087 -0.00108687 -0.00116251 10.0087 0.540299 31 1 
724 1.20527 10.0076 -0.00103595 -0.00110981 10.0076 0.484034 31 1 
726 1.20498 10.0036 -0.00101916 -0.00109171 10.0036 -0.0298867 31 1 
728 1.20507 10.0061 -0.00105708 -0.00112487 10.0061 0.128601 31 1 
730 1.2054 10.0115 -0.00106092 -0.00112633 10.0115 0.7261 31 1 
732 1.20529 10.0087 -0.00099576 -0.00106192 10.0087 0.519152 31 1 
734 1.20492 10.0022 -0.000965934 -0.00102655 10.0022 -0.143487 31 1 
736 1.20503 10.0045 -0.000964173 -0.00101995 10.0045 0.0501319 31 1 
738 1.20541 10.012 -0.000974399 -0.00103234 10.012 0.736198 31 1 
740 1.2053 10.0109 -0.000945148 -0.00100516 10.0109 0.536128 31 1 
742 1.20492 10.0023 -0.000892648 -0.000950911 10.0023 -0.136604 31 1 
744 1.20504 10.003 -0.000886433 -0.000939016 10.003 0.0802233 31 1 
746 1.20539 10.0127 -0.0008837 -0.000933127 10.0127 0.711875 31 1 
748 1.2053 10.0116 -0.000883509 -0.000934951 10.0116 0.535155 31 1 
750 1.20496 10.0017 -0.000874364 -0.000928339 10.0017 -0.0635687 31 1 
752 1.20501 10.0035 -0.000838247 -0.000893356 10.0035 0.0206473 31 1 
752 1.20501 10.0035 -0.000838247 -0.000893356 10.0035 0.0206473 31 1 
754 1.20535 10.0132 -0.000810978 -0.000858078 10.0132 0.633091 31 1 
756 1.20534 10.0112 -0.000801398 -0.00083766 10.0112 0.616903 31 1 
758 1.20498 10.0017 -0.000791081 -0.000828165 10.0017 -0.043688 31 1 
760 1.20498 10.0037 -0.000774012 -0.00081681 10.0037 -0.0375281 31 1 
762 1.20538 10.0126 -0.000776336 -0.000823718 10.0126 0.689257 31 1 
764 1.20538 10.012 -0.000762778 -0.000808238 10.012 0.688911 31 1 
766 1.20496 10.0033 -0.000726436 -0.000761915 10.0033 -0.0709367 31 1 
768 1.20494 10.0015 -0.000730535 -0.000753876 10.0015 -0.102759 31 1 
770 1.20533 10.0107 -0.00069629 -0.00071754 10.0107 0.601177 31 1 
772 1.2054 10.0145 -0.000666909 -0.000698391 10.0145 0.729342 31 1 
774 1.2051 10.0051 -0.000694472 -0.000726197 10.0051 0.177495 31 1 
776 1.20496 10.0014 -0.000689243 -0.000713421 10.0014 -0.0799114 31 1 
778 1.20521 10.01 -0.000679566 -0.000697283 10.01 0.375773 31 1 
780 1.20542 10.0131 -0.000651765 -0.000665676 10.0131 0.754245 31 1 
782 1.20516 10.0064 -0.000625514 -0.000641498 10.0064 0.283135 31 1 
784 1.20495 10.0028 -0.000629565 -0.000649373 10.0028 -0.0965977 31 1 
786 1.20523 10.0078 -0.000604093 -0.00061771 10.0078 0.408669 31 1 
788 1.20539 10.0131 -0.000569128 -0.000574933 10.0131 0.713231 31 1 
790 1.20518 10.0087 -0.000539342 -0.000547722 10.0087 0.321975 31 1 
792 1.20502 10.0023 -0.000525768 -0.000532215 10.0023 0.0307279 31 1 
794 1.20514 10.0074 -0.00054719 -0.000552096 10.0074 0.25152 31 1 
796 1.20539 10.014 -0.000554059 -0.000562434 10.014 0.702259 31 1 
798 1.20531 10.0099 -0.000543099 -0.000543632 10.0099 0.565886 31 1 
800 1.20512 10.0055 -0.000539377 -0.000531467 10.0055 0.216017 31 1 
