43.4711;r ;Density                 ;Velocity u              ;Velocity v              ;Velocity w              ;|Velocity|              ;Pressure                ;Distribution            ;Levels                  ;
0 1.20428 9.99858 -7.8745e-05 -1.55083e-05 9.99858 -1.30668 1 1 
2 1.2043 9.99693 -0.000114965 -9.59699e-05 9.99693 -1.25761 1 1 
4 1.20432 9.99514 -0.000237854 -0.000259702 9.99514 -1.23022 1 1 
6 1.20433 9.99398 -0.000342638 -0.000394243 9.99398 -1.20523 1 1 
8 1.20435 9.99298 -0.000446107 -0.000525364 9.99298 -1.18128 1 1 
10 1.20435 9.99198 -0.000547502 -0.000634655 9.99198 -1.18222 1 1 
12 1.20436 9.98995 -0.00064809 -0.000766344 9.98995 -1.15469 1 1 
14 1.20435 9.98918 -0.000779533 -0.000916683 9.98918 -1.16609 1 1 
16 1.20438 9.98744 -0.000827766 -0.000996917 9.98744 -1.1238 1 1 
18 1.20438 9.9854 -0.000921266 -0.00110406 9.9854 -1.11143 1 1 
20 1.20438 9.98487 -0.00104375 -0.00123276 9.98487 -1.12316 1 1 
22 1.20442 9.98379 -0.00111111 -0.00133125 9.98379 -1.04854 1 1 
24 1.20442 9.98332 -0.00120033 -0.00145562 9.98332 -1.04238 1 1 
26 1.20443 9.98161 -0.00126271 -0.00152305 9.98161 -1.03755 1 1 
28 1.20444 9.97989 -0.00135284 -0.00161826 9.97989 -1.00549 1 1 
30 1.20445 9.9786 -0.00141709 -0.00171595 9.9786 -0.992432 1 1 
32 1.20446 9.97635 -0.00148963 -0.00181 9.97635 -0.971184 1 1 
32 1.20446 9.97635 -0.00148963 -0.00181 9.97635 -0.971184 1 1 
34 1.20446 9.97484 -0.00152877 -0.00187434 9.97484 -0.974168 1 1 
36 1.20447 9.97313 -0.00163091 -0.00198858 9.97313 -0.954917 1 1 
38 1.20447 9.97218 -0.00168066 -0.00205347 9.97218 -0.953964 1 1 
40 1.20449 9.97084 -0.00173407 -0.00214218 9.97084 -0.925669 1 1 
42 1.2045 9.96918 -0.00182212 -0.00224458 9.96918 -0.899031 1 1 
44 1.20451 9.96721 -0.00185257 -0.0022702 9.96721 -0.890345 1 1 
46 1.20453 9.96518 -0.00194515 -0.00239048 9.96518 -0.852601 1 1 
48 1.20453 9.96452 -0.00200567 -0.00249187 9.96452 -0.847975 1 1 
50 1.20454 9.96408 -0.0020071 -0.00248261 9.96408 -0.824363 1 1 
52 1.20456 9.96204 -0.00206597 -0.00256327 9.96204 -0.803474 1 1 
54 1.20455 9.95959 -0.00216258 -0.00267006 9.95959 -0.813268 1 1 
56 1.20456 9.95875 -0.0021972 -0.00272189 9.95875 -0.799945 1 1 
58 1.20457 9.95741 -0.00227074 -0.0028234 9.95741 -0.773383 1 1 
60 1.20457 9.95598 -0.00228804 -0.002859 9.95598 -0.768343 1 1 
62 1.20458 9.95472 -0.00233515 -0.00293509 9.95472 -0.75725 1 1 
64 1.2046 9.95401 -0.00236534 -0.00297327 9.95401 -0.730715 1 1 
64 1.2046 9.95401 -0.00236534 -0.00297327 9.95401 -0.730715 2 1 
66 1.20462 9.95265 -0.00238755 -0.00302 9.95265 -0.678076 2 1 
68 1.20462 9.95232 -0.00244163 -0.0030876 9.95232 -0.692107 2 1 
70 1.20463 9.95067 -0.0024823 -0.00316615 9.95068 -0.664704 2 1 
72 1.20464 9.94837 -0.00253178 -0.00324097 9.94837 -0.64408 2 1 
74 1.20463 9.94766 -0.00254775 -0.00325806 9.94766 -0.666259 2 1 
76 1.20466 9.9462 -0.00254682 -0.00329472 9.9462 -0.605991 2 1 
78 1.20466 9.94586 -0.00256502 -0.00332999 9.94586 -0.622986 2 1 
80 1.20465 9.94457 -0.00261844 -0.00340512 9.94458 -0.625003 2 1 
82 1.20467 9.94301 -0.00262503 -0.00344574 9.94301 -0.589383 2 1 
84 1.20469 9.94203 -0.00259069 -0.0034154 9.94203 -0.562964 2 1 
86 1.20471 9.94089 -0.00264632 -0.00348062 9.94089 -0.51914 2 1 
88 1.20472 9.93971 -0.00274445 -0.00359739 9.93971 -0.510872 2 1 
90 1.20471 9.93853 -0.00271977 -0.00361101 9.93853 -0.515743 2 1 
92 1.20471 9.93761 -0.00280692 -0.00372256 9.93761 -0.519854 2 1 
94 1.20473 9.93582 -0.00288286 -0.00381031 9.93582 -0.493684 2 1 
96 1.20475 9.93422 -0.00293006 -0.0038738 9.93423 -0.455716 2 1 
96 1.20475 9.93422 -0.00293006 -0.0038738 9.93423 -0.455716 2 1 
98 1.20475 9.93422 -0.00305086 -0.00399881 9.93422 -0.445181 2 1 
100 1.20475 9.93357 -0.00299041 -0.00398055 9.93357 -0.448942 2 1 
102 1.20475 9.93215 -0.00305849 -0.00408382 9.93216 -0.451546 2 1 
104 1.20477 9.93017 -0.0032102 -0.00425814 9.93018 -0.410583 2 1 
106 1.20479 9.92845 -0.00322396 -0.00428892 9.92846 -0.379176 2 1 
108 1.2048 9.92664 -0.00327877 -0.00436978 9.92664 -0.357888 2 1 
110 1.20478 9.92694 -0.00337874 -0.00449624 9.92694 -0.389839 2 1 
112 1.2048 9.92625 -0.00350642 -0.00464032 9.92625 -0.363392 2 1 
114 1.20483 9.92443 -0.00351425 -0.00468223 9.92443 -0.308337 2 1 
116 1.20481 9.92529 -0.00358358 -0.00479062 9.92529 -0.337014 2 1 
118 1.20483 9.92324 -0.0037151 -0.00494357 9.92325 -0.310656 2 1 
120 1.20484 9.92094 -0.00379368 -0.00502639 9.92094 -0.295326 2 1 
122 1.20482 9.92019 -0.00383065 -0.00510739 9.92019 -0.32981 2 1 
124 1.20484 9.9178 -0.00395049 -0.00528077 9.9178 -0.290152 2 1 
126 1.20488 9.9171 -0.00411053 -0.00545054 9.9171 -0.222106 2 1 
128 1.20485 9.91849 -0.00411195 -0.00546833 9.91849 -0.26412 2 1 
128 1.20485 9.91849 -0.00411195 -0.00546833 9.91849 -0.26412 10 1 
130 1.20487 9.91704 -0.00424146 -0.0056719 9.91704 -0.228053 10 1 
132 1.20488 9.91697 -0.0043707 -0.00581173 9.91697 -0.224768 10 1 
134 1.20487 9.9152 -0.00442343 -0.00587701 9.9152 -0.22986 10 1 
136 1.20489 9.9117 -0.00446849 -0.00596836 9.9117 -0.193822 10 1 
138 1.20487 9.91172 -0.00460941 -0.00613658 9.91172 -0.226739 10 1 
140 1.2049 9.91135 -0.00469564 -0.00623881 9.91135 -0.187917 10 1 
142 1.20489 9.9112 -0.00473233 -0.00626625 9.9112 -0.196874 10 1 
144 1.2049 9.91104 -0.00487838 -0.00648164 9.91104 -0.18874 10 1 
146 1.20493 9.90947 -0.00500697 -0.00662276 9.90947 -0.117841 10 1 
148 1.20493 9.90709 -0.00504556 -0.0066728 9.90709 -0.128528 10 1 
150 1.2049 9.90658 -0.00510615 -0.00678205 9.90658 -0.180749 10 1 
152 1.20492 9.90563 -0.00525784 -0.00695687 9.90564 -0.142816 10 1 
154 1.20494 9.90471 -0.00526941 -0.00698014 9.90471 -0.11491 10 1 
156 1.20492 9.90491 -0.00534407 -0.00707514 9.90492 -0.135769 10 1 
158 1.20494 9.90283 -0.00547231 -0.00724076 9.90284 -0.102139 10 1 
160 1.20495 9.90044 -0.00549865 -0.00730418 9.90045 -0.0903924 10 1 
160 1.20495 9.90044 -0.00549865 -0.00730418 9.90045 -0.0903924 10 1 
162 1.20491 9.90088 -0.00552625 -0.00735575 9.90088 -0.155199 10 1 
164 1.20494 9.8991 -0.00563808 -0.00746151 9.89911 -0.101939 10 1 
166 1.20499 9.89723 -0.00575582 -0.00760118 9.89724 -0.0229865 10 1 
168 1.20493 9.89884 -0.00578828 -0.0076651 9.89885 -0.119616 10 1 
170 1.20496 9.89515 -0.00586984 -0.00776641 9.89515 -0.0750943 10 1 
172 1.20495 9.89485 -0.00599683 -0.00790087 9.89485 -0.0835499 10 1 
174 1.20493 9.89543 -0.00596995 -0.00792627 9.89543 -0.127161 10 1 
176 1.20498 9.89172 -0.0060253 -0.007973 9.89172 -0.0323196 10 1 
178 1.20494 9.892 -0.00613112 -0.00811355 9.89201 -0.105321 10 1 
180 1.20493 9.88993 -0.00618659 -0.00822339 9.88993 -0.121474 10 1 
182 1.20493 9.88644 -0.00622244 -0.008262 9.88645 -0.124322 10 1 
184 1.20489 9.88642 -0.00634586 -0.00843225 9.88642 -0.192827 10 1 
186 1.20494 9.88635 -0.00645962 -0.00855942 9.88636 -0.107205 10 1 
188 1.20494 9.88513 -0.00644343 -0.00854422 9.88513 -0.101434 10 1 
190 1.20491 9.88443 -0.00650023 -0.00860494 9.88443 -0.163993 10 1 
192 1.2049 9.8827 -0.00650805 -0.00866554 9.88271 -0.178882 10 1 
194 1.20491 9.87811 -0.00675247 -0.00893527 9.87811 -0.165887 10 1 
196 1.20492 9.87458 -0.00673344 -0.00890447 9.87459 -0.14875 10 1 
198 1.20493 9.87324 -0.00671348 -0.00888469 9.87325 -0.130868 10 1 
200 1.20498 9.87076 -0.00705004 -0.00927379 9.87076 -0.0367746 10 1 
202 1.20496 9.86944 -0.00691664 -0.00922106 9.86944 -0.0760305 10 1 
204 1.20492 9.868 -0.0068464 -0.00913124 9.86801 -0.137857 10 1 
206 1.20502 9.86284 -0.00724119 -0.00951252 9.86284 0.0372353 10 1 
208 1.20505 9.85987 -0.00740416 -0.00964784 9.85987 0.0863998 10 1 
210 1.20502 9.85702 -0.00731946 -0.00960086 9.85703 0.0365532 10 1 
212 1.20511 9.8476 -0.00748326 -0.00984383 9.84761 0.191233 10 1 
214 1.20509 9.84197 -0.00769505 -0.0100513 9.84198 0.157316 10 1 
216 1.2051 9.83728 -0.00784235 -0.0101863 9.83729 0.185661 10 1 
218 1.20519 9.83287 -0.00790086 -0.0102674 9.83288 0.339039 10 1 
220 1.20521 9.83452 -0.00801376 -0.0104654 9.83453 0.386285 10 1 
222 1.20527 9.8296 -0.00819645 -0.0106469 9.82961 0.495395 10 1 
224 1.20529 9.8199 -0.00822737 -0.0105826 9.81991 0.515143 10 1 
224 1.20529 9.8199 -0.00822737 -0.0105826 9.81991 0.515143 10 1 
226 1.20535 9.80912 -0.00830071 -0.0106918 9.80914 0.633442 10 1 
228 1.20539 9.79592 -0.00861114 -0.0111018 9.79593 0.700461 10 1 
230 1.20541 9.78673 -0.00885022 -0.011388 9.78674 0.743362 10 1 
232 1.20545 9.78553 -0.00881335 -0.0113205 9.78554 0.816589 10 1 
234 1.20557 9.77871 -0.00887106 -0.0113284 9.77872 1.02373 10 1 
236 1.20569 9.76548 -0.00911887 -0.0116335 9.76549 1.24723 10 1 
238 1.20563 9.75658 -0.009255 -0.011836 9.7566 1.14148 10 1 
240 1.20581 9.7362 -0.00948024 -0.0121055 9.73621 1.46626 10 1 
242 1.20585 9.72244 -0.00964797 -0.0122633 9.72246 1.53964 10 1 
244 1.20583 9.71451 -0.00978274 -0.012389 9.71452 1.50638 10 1 
246 1.20612 9.69486 -0.00991083 -0.0125194 9.69488 2.02557 10 1 
248 1.2062 9.67693 -0.00978728 -0.012424 9.67695 2.17504 10 1 
250 1.20626 9.65476 -0.0102145 -0.0128928 9.65477 2.278 10 1 
252 1.20639 9.63408 -0.0106806 -0.0133642 9.6341 2.50787 10 1 
254 1.20661 9.61022 -0.0104919 -0.0131725 9.61024 2.90398 10 1 
256 1.20675 9.58315 -0.0105056 -0.0132234 9.58317 3.15872 10 1 
256 1.20675 9.58315 -0.0105056 -0.0132234 9.58317 3.15872 11 1 
258 1.20687 9.55383 -0.0107913 -0.0135547 9.55385 3.37445 11 1 
260 1.20724 9.5182 -0.0110852 -0.013872 9.51822 4.04098 11 1 
262 1.20744 9.47858 -0.0112672 -0.0140665 9.47861 4.41115 11 1 
264 1.20749 9.44007 -0.0112469 -0.0140192 9.4401 4.49972 11 1 
266 1.20795 9.39234 -0.0114038 -0.0141985 9.39237 5.32558 11 1 
268 1.20848 9.3287 -0.0116757 -0.0145037 9.32874 6.29118 11 1 
270 1.20851 9.27789 -0.0118149 -0.0146308 9.27794 6.34404 11 1 
272 1.20903 9.20396 -0.0119411 -0.0147611 9.20402 7.28815 11 1 
274 1.20978 9.11521 -0.0121852 -0.0150247 9.11527 8.63769 11 1 
276 1.20997 9.03865 -0.0123044 -0.0150985 9.03871 8.98143 11 1 
278 1.21068 8.93223 -0.0123812 -0.0151891 8.93228 10.2643 11 1 
280 1.21168 8.82075 -0.012571 -0.0153693 8.82087 12.0576 11 1 
282 1.21238 8.68248 -0.0126705 -0.0154331 8.68287 13.3261 11 1 
284 1.21308 8.49228 -0.0125929 -0.0153785 8.49286 14.5929 11 1 
286 1.21397 8.30256 -0.0126907 -0.0154578 8.30292 16.2038 11 1 
288 1.21525 8.12135 -0.0129074 -0.0156252 8.12147 18.5198 11 1 
288 1.21525 8.12135 -0.0129074 -0.0156252 8.12147 18.5198 11 1 
290 1.21668 7.93061 -0.012976 -0.0156728 7.93083 21.0899 11 1 
292 1.21785 7.69434 -0.0129836 -0.0156963 7.69499 23.2135 11 1 
294 1.21891 7.40788 -0.0130328 -0.0157004 7.40905 25.119 11 1 
296 1.22031 7.11005 -0.0130353 -0.0156105 7.11096 27.6528 11 1 
298 1.21248 6.73333 -0.012657 -0.0151532 6.73393 13.5151 11 1 
300 1.19836 6.54538 -0.0124687 -0.0149512 6.5461 -11.9854 11 1 
302 1.19346 6.45123 -0.0126454 -0.0151258 6.4517 -20.8396 11 1 
304 1.19449 6.19014 -0.0125959 -0.015034 6.19067 -18.9765 11 1 
306 1.19561 5.92812 -0.0124602 -0.0148814 5.92887 -16.969 11 1 
308 1.19656 5.68622 -0.0122088 -0.0145925 5.68697 -15.2522 11 1 
310 1.19718 5.47548 -0.0117913 -0.0141352 5.47615 -14.1245 11 1 
312 1.19788 5.26908 -0.0117025 -0.0140351 5.26954 -12.8694 11 1 
314 1.19854 5.10132 -0.0121098 -0.0144028 5.10166 -11.6682 11 1 
316 1.19907 4.96192 -0.0123732 -0.0146318 4.96219 -10.7145 11 1 
318 1.19953 4.81142 -0.0121497 -0.0144115 4.81168 -9.88203 11 1 
320 1.19986 4.68552 -0.0117655 -0.0140027 4.68574 -9.28117 11 1 
320 1.19986 4.68552 -0.0117655 -0.0140027 4.68574 -9.28117 15 1 
322 1.20017 4.59234 -0.011696 -0.0139141 4.59247 -8.72348 15 1 
324 1.20054 4.49888 -0.0118028 -0.0140264 4.49896 -8.06137 15 1 
326 1.20084 4.41037 -0.011846 -0.0140552 4.41047 -7.51119 15 1 
328 1.20107 4.32897 -0.0119237 -0.0141127 4.32909 -7.10068 15 1 
330 1.20125 4.25262 -0.0120478 -0.0142241 4.25272 -6.77266 15 1 
332 1.20151 4.19788 -0.0121132 -0.0142839 4.19796 -6.30651 15 1 
334 1.20177 4.1416 -0.012097 -0.0142732 4.14167 -5.82971 15 1 
336 1.20182 4.06581 -0.0121259 -0.0142992 4.0659 -5.74069 15 1 
338 1.2019 4.00483 -0.0122061 -0.0143816 4.00494 -5.59698 15 1 
340 1.20215 3.96426 -0.0123062 -0.0144958 3.96436 -5.14299 15 1 
342 1.20233 3.922 -0.0123375 -0.0145152 3.9221 -4.81865 15 1 
344 1.20241 3.8685 -0.0123549 -0.0145238 3.86859 -4.67938 15 1 
346 1.20247 3.80927 -0.0125284 -0.0147228 3.80936 -4.56379 15 1 
348 1.2026 3.771 -0.0128043 -0.0150221 3.77111 -4.34384 15 1 
350 1.20273 3.74526 -0.0129702 -0.0151905 3.74537 -4.10481 15 1 
352 1.20276 3.70179 -0.0130433 -0.0152776 3.70189 -4.03737 15 1 
354 1.20283 3.65846 -0.0131666 -0.0154302 3.65855 -3.92745 15 1 
356 1.20294 3.62821 -0.0134503 -0.0157555 3.6283 -3.71771 15 1 
358 1.20303 3.60106 -0.013715 -0.0160405 3.60115 -3.55963 15 1 
360 1.20313 3.58019 -0.0138878 -0.0162303 3.58028 -3.38591 15 1 
362 1.20321 3.55805 -0.0141526 -0.0165473 3.55812 -3.23946 15 1 
364 1.20324 3.53048 -0.0145216 -0.0169524 3.53055 -3.18274 15 1 
366 1.20325 3.50901 -0.0148124 -0.0172544 3.50909 -3.16138 15 1 
368 1.20329 3.49565 -0.0150024 -0.0174861 3.49573 -3.08333 15 1 
370 1.20339 3.48807 -0.0152187 -0.0177462 3.48815 -2.91162 15 1 
372 1.20346 3.47839 -0.0155353 -0.0180782 3.47847 -2.77772 15 1 
374 1.20352 3.4645 -0.0158599 -0.0184358 3.46459 -2.67852 15 1 
376 1.20359 3.45675 -0.0160177 -0.0186222 3.45684 -2.5464 15 1 
378 1.20364 3.45351 -0.016172 -0.0187843 3.4536 -2.44865 15 1 
380 1.20369 3.45163 -0.0164288 -0.0190631 3.45172 -2.37507 15 1 
382 1.20371 3.44911 -0.0166866 -0.0193503 3.4492 -2.32884 15 1 
384 1.20372 3.44021 -0.0168418 -0.0195163 3.44031 -2.31411 15 1 
384 1.20372 3.44021 -0.0168418 -0.0195163 3.44031 -2.31411 16 1 
386 1.20375 3.43403 -0.0168931 -0.0195788 3.43413 -2.26318 16 1 
388 1.20379 3.43564 -0.0169471 -0.0196465 3.43574 -2.18301 16 1 
390 1.20385 3.43608 -0.0170934 -0.0197984 3.43618 -2.07437 16 1 
392 1.20391 3.43306 -0.0171963 -0.0199164 3.43316 -1.96793 16 1 
394 1.20394 3.42737 -0.0172199 -0.0199626 3.42747 -1.9161 16 1 
396 1.20396 3.42164 -0.0172525 -0.0199901 3.42174 -1.8717 16 1 
398 1.20399 3.41931 -0.017272 -0.0199887 3.41941 -1.81617 16 1 
400 1.20402 3.41683 -0.0172376 -0.0199648 3.41693 -1.76615 16 1 
402 1.20404 3.41091 -0.0172648 -0.020011 3.41102 -1.74123 16 1 
404 1.20404 3.40182 -0.0173379 -0.0200681 3.40193 -1.74124 16 1 
406 1.20406 3.39373 -0.0173605 -0.0200904 3.39383 -1.7041 16 1 
408 1.20408 3.38955 -0.0173455 -0.0200953 3.38966 -1.65616 16 1 
410 1.2041 3.3846 -0.0173887 -0.0201443 3.38471 -1.63436 16 1 
412 1.20412 3.37763 -0.0174698 -0.0202368 3.37774 -1.59144 16 1 
414 1.20415 3.3709 -0.0175323 -0.0203181 3.37102 -1.53722 16 1 
416 1.20417 3.36407 -0.0176243 -0.0204287 3.36419 -1.49054 16 1 
416 1.20417 3.36407 -0.0176243 -0.0204287 3.36419 -1.49054 16 1 
418 1.2042 3.35904 -0.0178007 -0.0206341 3.35916 -1.4452 16 1 
420 1.20422 3.35624 -0.0180864 -0.0209674 3.35636 -1.41003 16 1 
422 1.20423 3.35357 -0.0184295 -0.0213613 3.35369 -1.3854 16 1 
424 1.20423 3.35152 -0.0187563 -0.0217328 3.35165 -1.38732 16 1 
426 1.20423 3.35051 -0.01901 -0.0220353 3.35064 -1.39574 16 1 
428 1.20424 3.35153 -0.0192503 -0.0223229 3.35166 -1.36535 16 1 
430 1.20427 3.35548 -0.019586 -0.0227079 3.35561 -1.31299 16 1 
432 1.2043 3.36063 -0.0200245 -0.0232216 3.36077 -1.26827 16 1 
434 1.20432 3.36705 -0.0205097 -0.0238074 3.3672 -1.23285 16 1 
436 1.20434 3.37688 -0.0209978 -0.0243987 3.37704 -1.19495 16 1 
438 1.20436 3.39073 -0.0214099 -0.0248993 3.39089 -1.15205 16 1 
440 1.20438 3.40701 -0.0217041 -0.0252509 3.40718 -1.11103 16 1 
442 1.20441 3.42388 -0.0219349 -0.025528 3.42405 -1.06228 16 1 
444 1.20444 3.44081 -0.0221812 -0.0258373 3.44099 -1.01728 16 1 
446 1.20445 3.45832 -0.0225027 -0.0262168 3.4585 -0.99359 16 1 
448 1.20446 3.47773 -0.0228998 -0.0266708 3.47792 -0.973981 16 1 
448 1.20446 3.47773 -0.0228998 -0.0266708 3.47792 -0.973981 17 1 
450 1.20447 3.50024 -0.023318 -0.027175 3.50044 -0.950295 17 1 
452 1.20449 3.52529 -0.0237103 -0.0276572 3.52549 -0.919327 17 1 
454 1.20452 3.5525 -0.024034 -0.0280318 3.55271 -0.871975 17 1 
456 1.20454 3.58121 -0.0242206 -0.0282298 3.58143 -0.824438 17 1 
458 1.20456 3.61003 -0.0242622 -0.0282662 3.61024 -0.79126 17 1 
460 1.20458 3.63769 -0.024238 -0.0282123 3.6379 -0.764609 17 1 
462 1.20459 3.66294 -0.0242309 -0.0281546 3.66314 -0.739968 17 1 
464 1.2046 3.6865 -0.0242663 -0.0281641 3.6867 -0.725753 17 1 
466 1.2046 3.70928 -0.0243693 -0.0282711 3.70948 -0.721113 17 1 
468 1.20461 3.73311 -0.0245959 -0.0285144 3.73332 -0.701067 17 1 
470 1.20463 3.75918 -0.0249158 -0.0288654 3.75939 -0.675281 17 1 
472 1.20463 3.78722 -0.0252327 -0.0292137 3.78743 -0.66624 17 1 
474 1.20463 3.817 -0.0254579 -0.0294547 3.81722 -0.660888 17 1 
476 1.20464 3.84704 -0.0255405 -0.0295171 3.84726 -0.652659 17 1 
478 1.20464 3.87621 -0.0254813 -0.029389 3.87643 -0.643279 17 1 
480 1.20465 3.90319 -0.0253098 -0.0291291 3.90339 -0.639365 17 1 
480 1.20465 3.90319 -0.0253098 -0.0291291 3.90339 -0.639365 17 1 
482 1.20464 3.92707 -0.0250898 -0.0288266 3.92726 -0.644891 17 1 
484 1.20464 3.94761 -0.0249169 -0.0285738 3.9478 -0.655313 17 1 
486 1.20463 3.96611 -0.0248738 -0.0284658 3.96629 -0.668303 17 1 
488 1.20463 3.98407 -0.0249755 -0.0285408 3.98425 -0.675231 17 1 
490 1.20463 4.00258 -0.025189 -0.0287682 4.00277 -0.666277 17 1 
492 1.20464 4.02275 -0.0254963 -0.0290946 4.02294 -0.648424 17 1 
494 1.20465 4.04474 -0.0258725 -0.0294802 4.04494 -0.632976 17 1 
496 1.20465 4.06894 -0.0262499 -0.0299009 4.06915 -0.626533 17 1 
498 1.20465 4.09531 -0.0266106 -0.0303077 4.09552 -0.636553 17 1 
500 1.20464 4.1247 -0.0269877 -0.0307026 4.12491 -0.653612 17 1 
502 1.20464 4.15728 -0.0273832 -0.0311255 4.1575 -0.653862 17 1 
504 1.20465 4.19268 -0.0277802 -0.0315517 4.19291 -0.629597 17 1 
506 1.20466 4.23078 -0.0281268 -0.0319013 4.23101 -0.60581 17 1 
508 1.20467 4.2713 -0.0283674 -0.032117 4.27153 -0.592059 17 1 
510 1.20468 4.31291 -0.0284534 -0.0321498 4.31315 -0.583773 17 1 
512 1.20468 4.35365 -0.028341 -0.0319235 4.35388 -0.585939 17 1 
512 1.20468 4.35365 -0.028341 -0.0319235 4.35388 -0.585939 25 1 
514 1.20468 4.39238 -0.0280085 -0.031419 4.3926 -0.583419 25 1 
516 1.20469 4.427 -0.0275159 -0.0307309 4.4272 -0.565908 25 1 
518 1.2047 4.45614 -0.0269682 -0.0299756 4.45633 -0.547786 25 1 
520 1.2047 4.47969 -0.0264824 -0.0292807 4.47987 -0.54129 25 1 
522 1.2047 4.49843 -0.0261314 -0.0287587 4.4986 -0.543117 25 1 
524 1.20469 4.5143 -0.0259465 -0.0284603 4.51446 -0.550909 25 1 
526 1.20469 4.52975 -0.0259609 -0.0283808 4.52992 -0.55782 25 1 
528 1.2047 4.54679 -0.0261521 -0.0285192 4.54695 -0.548308 25 1 
530 1.20471 4.56673 -0.0264641 -0.0288202 4.56691 -0.529264 25 1 
532 1.20471 4.59004 -0.0268298 -0.0291738 4.59022 -0.522755 25 1 
534 1.20471 4.61735 -0.0271627 -0.0294922 4.61753 -0.527225 25 1 
536 1.20471 4.64857 -0.0274415 -0.0297507 4.64876 -0.531483 25 1 
538 1.20471 4.68346 -0.0276819 -0.0299525 4.68366 -0.527233 25 1 
540 1.20471 4.72217 -0.0278753 -0.0300925 4.72237 -0.517245 25 1 
542 1.20472 4.76422 -0.0280317 -0.0301878 4.76442 -0.50852 25 1 
544 1.20472 4.80883 -0.028156 -0.0302299 4.80903 -0.497255 25 1 
544 1.20472 4.80883 -0.028156 -0.0302299 4.80903 -0.497255 25 1 
546 1.20473 4.8556 -0.0282295 -0.0302081 4.85581 -0.487916 25 1 
548 1.20473 4.90464 -0.0282588 -0.0301355 4.90485 -0.485581 25 1 
550 1.20473 4.95571 -0.0282614 -0.0300117 4.95591 -0.48035 25 1 
552 1.20474 5.00839 -0.028241 -0.0298551 5.00859 -0.468823 25 1 
554 1.20475 5.06237 -0.028195 -0.0296734 5.06257 -0.458242 25 1 
556 1.20475 5.11758 -0.0281303 -0.0294594 5.11778 -0.448909 25 1 
558 1.20476 5.17387 -0.0280525 -0.0292211 5.17407 -0.440674 25 1 
560 1.20476 5.23106 -0.0279569 -0.0289593 5.23126 -0.433822 25 1 
562 1.20476 5.28901 -0.0278434 -0.0286699 5.2892 -0.428573 25 1 
564 1.20476 5.34764 -0.0277185 -0.0283648 5.34783 -0.429943 25 1 
566 1.20476 5.40705 -0.0275875 -0.028051 5.40724 -0.430381 25 1 
568 1.20477 5.46702 -0.0274569 -0.0277333 5.4672 -0.4129 25 1 
570 1.20478 5.52742 -0.0273283 -0.0274106 5.52759 -0.39185 25 1 
572 1.20478 5.5884 -0.0272002 -0.0270817 5.58857 -0.393343 25 1 
574 1.20478 5.6496 -0.027074 -0.0267539 5.64977 -0.403559 25 1 
576 1.20478 5.71085 -0.0269321 -0.0264056 5.71101 -0.398989 25 1 
576 1.20478 5.71085 -0.0269321 -0.0264056 5.71101 -0.398989 26 1 
578 1.20478 5.77245 -0.0267704 -0.0260365 5.77262 -0.389253 26 1 
580 1.20479 5.83459 -0.0266141 -0.0256721 5.83475 -0.386612 26 1 
582 1.20479 5.89708 -0.0264739 -0.025315 5.89723 -0.388129 26 1 
584 1.20478 5.95957 -0.0263458 -0.0249716 5.95972 -0.389413 26 1 
586 1.20479 6.02189 -0.0262192 -0.0246322 6.02204 -0.379591 26 1 
588 1.20479 6.08441 -0.0260827 -0.0242778 6.08456 -0.37472 26 1 
590 1.20478 6.14725 -0.0259385 -0.0239146 6.14739 -0.390664 26 1 
592 1.20479 6.21 -0.0257985 -0.0235526 6.21013 -0.385988 26 1 
594 1.20479 6.27267 -0.0256676 -0.0232027 6.2728 -0.372401 26 1 
596 1.20479 6.33547 -0.025541 -0.0228571 6.3356 -0.384053 26 1 
598 1.20478 6.39818 -0.0254111 -0.0225134 6.39831 -0.392333 26 1 
600 1.20478 6.46094 -0.0252964 -0.0221892 6.46107 -0.397215 26 1 
602 1.20478 6.52357 -0.0251875 -0.0218664 6.52369 -0.39414 26 1 
604 1.20478 6.58596 -0.0250596 -0.0215363 6.58607 -0.39171 26 1 
606 1.20477 6.64861 -0.0249306 -0.0212046 6.64873 -0.412337 26 1 
608 1.20477 6.71101 -0.0248131 -0.0208852 6.71112 -0.407859 26 1 
608 1.20477 6.71101 -0.0248131 -0.0208852 6.71112 -0.407859 26 1 
610 1.20478 6.77321 -0.0246997 -0.0205756 6.77332 -0.394438 26 1 
612 1.20477 6.83546 -0.0245836 -0.0202674 6.83557 -0.413297 26 1 
614 1.20476 6.89738 -0.0244786 -0.0199745 6.89749 -0.430014 26 1 
616 1.20476 6.95897 -0.0243865 -0.0197046 6.95907 -0.437571 26 1 
618 1.20476 7.02037 -0.0242862 -0.0194371 7.02048 -0.435763 26 1 
620 1.20476 7.08197 -0.0241737 -0.0191575 7.08208 -0.43962 26 1 
622 1.20475 7.14356 -0.0240758 -0.0188961 7.14366 -0.455492 26 1 
624 1.20475 7.20456 -0.0239819 -0.0186356 7.20466 -0.45743 26 1 
626 1.20474 7.26538 -0.0238781 -0.0183642 7.26548 -0.464827 26 1 
628 1.20474 7.32612 -0.0237726 -0.0181013 7.32621 -0.476552 26 1 
630 1.20474 7.38666 -0.0236756 -0.0178547 7.38675 -0.478043 26 1 
632 1.20473 7.44704 -0.0235863 -0.0176223 7.44713 -0.486014 26 1 
634 1.20472 7.50701 -0.0235097 -0.017411 7.5071 -0.498661 26 1 
636 1.20471 7.56691 -0.023431 -0.0172054 7.567 -0.517159 26 1 
638 1.2047 7.62665 -0.0233424 -0.0169951 7.62674 -0.537106 26 1 
640 1.2047 7.68628 -0.0232532 -0.0167832 7.68637 -0.537612 26 1 
642 1.2047 7.74599 -0.0231624 -0.0165873 7.74607 -0.53834 26 1 
644 1.2047 7.8056 -0.0230868 -0.0164124 7.80568 -0.549072 26 1 
646 1.2047 7.86508 -0.0230363 -0.0162395 7.86516 -0.550726 26 1 
648 1.20468 7.9247 -0.0229858 -0.0160773 7.92478 -0.570773 26 1 
650 1.20467 7.98442 -0.0229001 -0.0159355 7.9845 -0.59131 26 1 
652 1.20468 8.04368 -0.0228198 -0.0158133 8.04375 -0.586768 26 1 
654 1.20466 8.10311 -0.0227692 -0.0157069 8.10319 -0.60667 26 1 
656 1.20465 8.16299 -0.0227399 -0.0156045 8.16306 -0.623423 26 1 
658 1.20465 8.22291 -0.0227143 -0.0155058 8.22298 -0.63121 26 1 
660 1.20464 8.283 -0.022657 -0.015397 8.28307 -0.643215 26 1 
662 1.20465 8.34292 -0.0225626 -0.0152633 8.34299 -0.633335 26 1 
664 1.20464 8.40322 -0.0224719 -0.0151341 8.40329 -0.64382 26 1 
666 1.20464 8.46339 -0.0224237 -0.0150385 8.46346 -0.646762 26 1 
668 1.20464 8.52296 -0.0223926 -0.0149648 8.52303 -0.648835 26 1 
670 1.20462 8.58239 -0.0223185 -0.014876 8.58246 -0.682867 26 1 
672 1.20461 8.6407 -0.0221901 -0.014754 8.64077 -0.695801 26 1 
672 1.20461 8.6407 -0.0221901 -0.014754 8.64077 -0.695801 27 1 
674 1.2046 8.69905 -0.0220585 -0.0146005 8.69912 -0.716727 27 1 
676 1.2046 8.75723 -0.0219572 -0.0144527 8.7573 -0.717213 27 1 
678 1.20461 8.81465 -0.0218565 -0.0143383 8.81471 -0.701407 27 1 
680 1.2046 8.87185 -0.0217338 -0.0142389 8.87191 -0.722252 27 1 
682 1.2046 8.92748 -0.0215636 -0.0141207 8.92754 -0.722928 27 1 
684 1.20459 8.98239 -0.0213795 -0.0139905 8.98245 -0.746997 27 1 
686 1.20457 9.03624 -0.0212249 -0.0138949 9.03629 -0.769996 27 1 
688 1.20457 9.08909 -0.0210841 -0.0138324 9.08914 -0.784565 27 1 
690 1.20454 9.1417 -0.0209045 -0.0137388 9.14176 -0.826814 27 1 
692 1.20455 9.19242 -0.0206703 -0.0136015 9.19247 -0.814981 27 1 
694 1.20454 9.24248 -0.0204425 -0.0134478 9.24253 -0.824437 27 1 
696 1.20454 9.29136 -0.0202387 -0.0132961 9.29141 -0.839715 27 1 
698 1.20453 9.33827 -0.0200454 -0.0131924 9.33831 -0.842805 27 1 
700 1.20451 9.38359 -0.0198107 -0.013075 9.38363 -0.889319 27 1 
702 1.2045 9.42671 -0.0195387 -0.0129139 9.42675 -0.911151 27 1 
704 1.20448 9.46899 -0.0192586 -0.0127247 9.46903 -0.940914 27 1 
704 1.20448 9.46899 -0.0192586 -0.0127247 9.46903 -0.940914 31 1 
706 1.20448 9.50935 -0.0189757 -0.0125636 9.50938 -0.940872 31 1 
708 1.20449 9.54777 -0.018723 -0.0124053 9.5478 -0.929522 31 1 
710 1.20447 9.58433 -0.0185014 -0.0122574 9.58436 -0.960835 31 1 
712 1.20446 9.61807 -0.0182465 -0.0121282 9.6181 -0.974906 31 1 
714 1.20444 9.65009 -0.0179717 -0.0119789 9.65012 -1.01286 31 1 
716 1.20442 9.68045 -0.0176925 -0.011818 9.68048 -1.04078 31 1 
718 1.20442 9.70968 -0.0174168 -0.0116335 9.70971 -1.04884 31 1 
720 1.20442 9.73738 -0.0171987 -0.0114913 9.73741 -1.05447 31 1 
722 1.20443 9.76288 -0.0169804 -0.0113809 9.76291 -1.03724 31 1 
724 1.20441 9.78684 -0.01676 -0.0112964 9.78686 -1.06199 31 1 
726 1.2044 9.80822 -0.0165238 -0.0112015 9.80825 -1.08704 31 1 
728 1.20439 9.8279 -0.0162246 -0.0110644 9.82792 -1.10932 31 1 
730 1.20437 9.84548 -0.0159106 -0.0109395 9.8455 -1.13728 31 1 
732 1.20438 9.86013 -0.0156575 -0.0108257 9.86016 -1.11817 31 1 
734 1.20437 9.874 -0.0154653 -0.0107445 9.87402 -1.13289 31 1 
736 1.20436 9.8866 -0.0152629 -0.0106861 9.88662 -1.15569 31 1 
738 1.20436 9.89729 -0.01506 -0.0106256 9.89731 -1.15872 31 1 
740 1.20435 9.90642 -0.0148671 -0.0105441 9.90644 -1.17176 31 1 
742 1.20436 9.91454 -0.0147058 -0.0104865 9.91456 -1.16065 31 1 
744 1.20436 9.92156 -0.0145582 -0.0104699 9.92157 -1.16103 31 1 
746 1.20435 9.92666 -0.0144295 -0.010463 9.92668 -1.16775 31 1 
748 1.20434 9.93092 -0.0143326 -0.0104621 9.93094 -1.19745 31 1 
750 1.20432 9.93464 -0.0142442 -0.0104804 9.93466 -1.22465 31 1 
752 1.20434 9.93707 -0.0140932 -0.0104479 9.93709 -1.19905 31 1 
752 1.20434 9.93707 -0.0140932 -0.0104479 9.93709 -1.19905 31 1 
754 1.20433 9.93952 -0.0139322 -0.0103637 9.93954 -1.20793 31 1 
756 1.20433 9.9419 -0.0138518 -0.0103245 9.94191 -1.21325 31 1 
758 1.20434 9.94338 -0.013777 -0.0103165 9.9434 -1.19112 31 1 
760 1.20433 9.94498 -0.0137242 -0.01031 9.945 -1.21286 31 1 
762 1.20431 9.9461 -0.0136753 -0.0102981 9.94611 -1.23768 31 1 
764 1.20431 9.94707 -0.0135662 -0.0102255 9.94709 -1.24642 31 1 
766 1.20432 9.94814 -0.0133757 -0.0101396 9.94815 -1.23587 31 1 
768 1.20432 9.94939 -0.0132888 -0.0101562 9.94941 -1.23252 31 1 
770 1.20432 9.95051 -0.0132961 -0.0101931 9.95052 -1.23311 31 1 
772 1.20433 9.95093 -0.0132248 -0.010239 9.95094 -1.20119 31 1 
774 1.20432 9.95121 -0.0131123 -0.0102405 9.95123 -1.2257 31 1 
776 1.2043 9.95103 -0.0130199 -0.0102896 9.95104 -1.26848 31 1 
778 1.2043 9.95141 -0.0129373 -0.010327 9.95143 -1.2651 31 1 
780 1.20431 9.95249 -0.0128429 -0.0103625 9.95251 -1.25154 31 1 
782 1.20433 9.95343 -0.0127642 -0.0103978 9.95344 -1.20534 31 1 
784 1.20435 9.95423 -0.0126682 -0.0104234 9.95424 -1.17795 31 1 
786 1.20435 9.95425 -0.0125323 -0.0103829 9.95427 -1.17881 31 1 
788 1.20432 9.95345 -0.0123937 -0.0103636 9.95347 -1.21985 31 1 
790 1.20429 9.95267 -0.0122974 -0.0103725 9.95269 -1.277 31 1 
792 1.20431 9.95271 -0.0122026 -0.0103057 9.95272 -1.2477 31 1 
794 1.20434 9.9534 -0.0121319 -0.0102746 9.95341 -1.19676 31 1 
796 1.20437 9.95409 -0.0121175 -0.0103014 9.95411 -1.13904 31 1 
798 1.20438 9.95462 -0.0120661 -0.0102902 9.95463 -1.11091 31 1 
800 1.20438 9.95481 -0.012016 -0.0102096 9.95482 -1.12809 31 1 
