2.71694;r ;Density                 ;Velocity u              ;Velocity v              ;Velocity w              ;|Velocity|              ;Pressure                ;Distribution            ;Levels                  ;
0 1.205 10 8.10874e-15 3.00087e-15 10 -4.16835e-12 1 1 
2 1.205 10 4.34169e-15 2.33047e-15 10 -5.67862e-12 1 1 
4 1.205 10 8.33221e-15 -1.30889e-15 10 -5.43698e-12 1 1 
6 1.205 10 2.19e-14 -7.11909e-15 10 -5.95047e-12 1 1 
8 1.205 10 2.00803e-14 -9.13032e-15 10 -8.18567e-12 1 1 
10 1.205 10 7.24679e-15 -2.58586e-15 10 -6.34314e-12 1 1 
12 1.205 10 -1.0535e-15 -1.08542e-15 10 -3.8965e-12 1 1 
14 1.205 10 8.10874e-15 -1.40466e-14 10 -2.62787e-12 1 1 
16 1.205 10 1.42382e-14 -1.27697e-14 10 -3.47363e-12 1 1 
18 1.205 10 1.25143e-14 2.42624e-15 10 -4.86308e-12 1 1 
20 1.205 10 2.34004e-14 4.53323e-15 10 -5.07451e-12 1 1 
22 1.205 10 3.72236e-14 3.51166e-15 10 -4.92349e-12 1 1 
24 1.205 10 3.19242e-14 1.04073e-14 10 -4.13815e-12 1 1 
26 1.205 10 1.20354e-14 7.6618e-15 10 -4.62143e-12 1 1 
28 1.205 10 8.90685e-15 9.03454e-15 10 -4.80266e-12 1 1 
30 1.205 10 3.35204e-15 1.50682e-14 10 -4.01732e-12 1 1 
32 1.205 10 1.36636e-14 1.45574e-14 10 -5.37657e-12 1 1 
32 1.205 10 1.36636e-14 1.45574e-14 10 -5.37657e-12 1 1 
34 1.205 10 2.62417e-14 1.03754e-14 10 -5.89006e-12 1 1 
36 1.205 10 2.08146e-14 1.27698e-16 10 -5.82965e-12 1 1 
38 1.205 10 2.83487e-14 -6.16137e-15 10 -6.46396e-12 1 1 
40 1.205 10 2.47412e-14 -5.39519e-15 10 -5.49739e-12 1 1 
42 1.205 10 9.54533e-15 6.06559e-15 10 -5.40677e-12 1 1 
44 1.205 10 -1.5962e-16 5.65058e-15 10 -5.28595e-12 1 1 
46 1.205 10 -1.27058e-14 1.14289e-14 10 -3.50383e-12 1 1 
48 1.205 10 -1.21631e-14 1.56109e-14 10 -2.92993e-12 1 1 
50 1.205 10 -5.07595e-15 1.04073e-14 10 -3.38301e-12 1 1 
52 1.205 10 -7.88527e-15 1.81968e-14 10 -3.65486e-12 1 1 
54 1.205 10 -1.04711e-14 1.57386e-14 10 -3.74547e-12 1 1 
56 1.205 10 -1.28974e-14 2.01122e-14 10 -6.34314e-12 1 1 
58 1.205 10 -9.06647e-15 3.39993e-14 10 -8.18567e-12 1 1 
60 1.205 10 -6.51253e-15 1.95376e-14 10 -5.13492e-12 1 1 
62 1.205 10 -8.843e-15 9.60918e-15 10 -3.44342e-12 1 1 
64 1.205 10 4.85248e-15 1.06627e-14 10 -3.29239e-12 1 1 
64 1.205 10 4.85248e-15 1.06627e-14 10 -3.29239e-12 2 1 
66 1.205 10 1.35039e-14 4.46939e-16 10 -4.53082e-12 2 1 
68 1.205 10 8.26836e-15 6.79985e-15 10 -5.73903e-12 2 1 
70 1.205 10 5.23557e-15 1.02477e-14 10 -5.31616e-12 2 1 
72 1.205 10 5.10787e-16 1.66644e-14 10 -3.95691e-12 2 1 
74 1.205 10 -6.38484e-15 2.46135e-14 10 -3.23198e-12 2 1 
76 1.205 10 -4.40554e-15 1.24185e-14 10 -3.62465e-12 2 1 
78 1.205 10 8.52376e-15 1.0535e-14 10 -3.8663e-12 2 1 
80 1.205 10 1.66963e-14 2.18681e-14 10 -3.02054e-12 2 1 
82 1.205 10 -9.57727e-17 2.74548e-14 10 -1.81233e-12 2 1 
84 1.205 10 -9.19417e-15 1.14927e-14 10 -1.54048e-12 2 1 
86 1.205 10 -6.12944e-15 4.27784e-15 10 -2.26541e-12 2 1 
88 1.205 10 -7.62988e-15 2.91787e-14 10 -1.20822e-12 2 1 
90 1.205 10 -7.69373e-15 2.49009e-14 10 1.20822e-13 2 1 
92 1.205 10 -4.66093e-15 1.29612e-14 10 -1.81233e-13 2 1 
94 1.205 10 2.20277e-15 1.28335e-14 10 -5.73903e-13 2 1 
96 1.205 10 -2.52201e-15 7.62988e-15 10 -2.71849e-13 2 1 
96 1.205 10 -2.52201e-15 7.62988e-15 10 -2.71849e-13 2 1 
98 1.205 10 -1.48447e-14 3.8309e-15 10 8.75958e-13 2 1 
100 1.205 10 -1.49942e-09 -1.49942e-09 10 0.000135653 2 1 
102 1.205 9.99999 -3.34481e-08 -3.34384e-08 9.99999 -0.000227885 2 1 
104 1.205 10 -8.84958e-09 -8.37582e-09 10 -0.000274007 2 1 
106 1.205 10 2.00749e-07 2.02316e-07 10 0.000827615 2 1 
108 1.205 9.99998 1.19144e-07 1.20301e-07 9.99998 -9.58613e-06 2 1 
110 1.205 10 -5.79686e-07 -5.78913e-07 10 -0.00210164 2 1 
112 1.205 10.0001 -4.47982e-07 -4.44051e-07 10.0001 0.00178765 2 1 
114 1.205 10 1.25052e-06 1.25501e-06 10 0.00296651 2 1 
116 1.205 9.99994 9.66009e-07 9.62001e-07 9.99994 -0.00560398 2 1 
118 1.205 10.0001 -1.73802e-06 -1.7501e-06 10.0001 -0.000837308 2 1 
120 1.20501 10.0001 -1.40768e-06 -1.42027e-06 10.0001 0.00916893 2 1 
122 1.205 9.99984 1.34185e-06 1.35759e-06 9.99984 -0.00342594 2 1 
124 1.205 9.99966 8.61338e-07 8.92968e-07 9.99966 -0.00787253 2 1 
126 1.205 9.9998 2.43454e-07 2.07974e-07 9.9998 0.00601796 2 1 
128 1.205 9.99991 7.6442e-07 7.17517e-07 9.99991 0.00139033 2 1 
128 1.205 9.99991 7.6442e-07 7.17517e-07 9.99991 0.00139033 10 1 
130 1.205 10.0002 -2.74504e-06 -2.67932e-06 10.0002 -0.00820516 10 1 
132 1.20501 10.0004 -1.20093e-06 -1.14359e-06 10.0004 0.00948339 10 1 
134 1.205 10.0001 5.02021e-06 4.92739e-06 10.0001 0.0041235 10 1 
136 1.20499 9.99962 -2.92603e-06 -3.03184e-06 9.99962 -0.0103382 10 1 
138 1.205 9.99989 -1.48584e-06 -1.40856e-06 9.99989 -0.00804069 10 1 
140 1.20501 10.0002 6.49832e-06 6.61722e-06 10.0002 0.0152658 10 1 
142 1.205 10.0002 -7.66082e-06 -7.71505e-06 10.0002 0.0084835 10 1 
144 1.20499 10.0003 -1.02361e-06 -1.03542e-06 10.0003 -0.0235028 10 1 
146 1.20501 9.99947 8.89182e-06 9.01092e-06 9.99947 0.0138368 10 1 
148 1.205 9.99983 -6.66567e-06 -6.71434e-06 9.99983 -0.00100546 10 1 
150 1.20499 10.0008 4.68945e-08 -2.63822e-07 10.0008 -0.0180661 10 1 
152 1.20501 9.99948 9.15345e-06 8.96675e-06 9.99948 0.0212701 10 1 
154 1.20501 9.99917 -9.55515e-06 -9.3483e-06 9.99917 0.0103959 10 1 
156 1.20499 10.0012 -6.0845e-06 -5.78483e-06 10.0012 -0.0214589 10 1 
158 1.20501 9.99983 1.39805e-05 1.44626e-05 9.99983 0.0217127 10 1 
160 1.20499 9.99942 -8.9015e-06 -8.68707e-06 9.99942 -0.0143874 10 1 
160 1.20499 9.99942 -8.9015e-06 -8.68707e-06 9.99942 -0.0143874 10 1 
162 1.20498 10.0012 2.54755e-06 1.73107e-06 10.0012 -0.0358668 10 1 
164 1.20502 9.99968 1.43968e-05 1.4132e-05 9.99968 0.0352099 10 1 
166 1.205 9.99925 -2.41692e-05 -2.35981e-05 9.99925 0.00733195 10 1 
168 1.20498 10.0006 5.62121e-06 4.75684e-06 10.0006 -0.0343094 10 1 
170 1.20503 9.99944 1.42859e-05 1.36632e-05 9.99944 0.0610344 10 1 
172 1.205 9.99956 -1.80362e-05 -1.61517e-05 9.99956 -0.00710242 10 1 
174 1.20496 10.0005 9.71552e-06 1.0242e-05 10.0005 -0.0637682 10 1 
176 1.20503 10.0001 9.45511e-06 7.27932e-06 10.0001 0.0604303 10 1 
178 1.20499 9.99996 -2.29833e-05 -2.27899e-05 9.99996 -0.0191527 10 1 
180 1.20498 9.99962 7.9703e-06 1.02167e-05 9.99962 -0.0364626 10 1 
182 1.20502 10.0005 1.5346e-05 1.44944e-05 10.0005 0.0406392 10 1 
184 1.20499 10.0011 -1.58967e-05 -1.72939e-05 10.0011 -0.0237173 10 1 
186 1.20498 9.99924 6.49102e-06 7.40352e-06 9.99924 -0.0390157 10 1 
188 1.20505 9.99765 1.1382e-06 1.84276e-06 9.99765 0.0960043 10 1 
190 1.20503 10.0008 -9.08798e-06 -9.12373e-06 10.0008 0.0466794 10 1 
192 1.20493 10.0023 1.19465e-05 1.17875e-05 10.0023 -0.12127 10 1 
194 1.20498 9.9997 -5.50922e-06 -6.40576e-06 9.9997 -0.0341791 10 1 
196 1.20505 9.9998 -4.29477e-06 -4.68224e-06 9.9998 0.0845269 10 1 
198 1.20501 9.99828 7.75142e-06 9.78924e-06 9.99828 0.0198021 10 1 
200 1.20497 9.99911 -5.44937e-06 -5.6545e-06 9.99911 -0.0544726 10 1 
202 1.205 10.0031 1.00187e-06 -3.96758e-07 10.0031 0.00127193 10 1 
204 1.2051 9.99685 4.67405e-06 6.76095e-06 9.99685 0.181094 10 1 
206 1.20537 9.98232 -4.82764e-06 -5.78134e-06 9.98232 0.668395 10 1 
208 1.20646 9.94622 3.40107e-06 5.21031e-07 9.94622 2.62857 10 1 
210 1.20879 9.86555 1.31217e-05 1.64308e-05 9.86555 6.84857 10 1 
212 1.21151 9.77063 4.90717e-06 3.19944e-06 9.77063 11.7564 10 1 
214 1.21192 9.75972 -6.95922e-06 -1.26341e-05 9.75973 12.4939 10 1 
216 1.20795 9.88861 1.38274e-05 1.95641e-05 9.88861 5.32059 10 1 
218 1.20301 10.0393 3.13757e-05 3.48291e-05 10.0393 -3.58702 10 1 
220 1.2031 10.0404 5.88679e-06 -1.76649e-06 10.0404 -3.4354 10 1 
222 1.20677 9.93374 -9.18621e-06 -1.53356e-05 9.93374 3.19802 10 1 
224 1.20718 9.91393 1.88219e-05 1.82578e-05 9.91393 3.94505 10 1 
224 1.20718 9.91393 1.88219e-05 1.82578e-05 9.91393 3.94505 10 1 
226 1.20504 9.97083 1.83404e-05 2.17559e-05 9.97083 0.0809307 10 1 
228 1.20518 9.97041 -1.00454e-05 -9.63484e-06 9.97041 0.324144 10 1 
230 1.20579 9.95085 2.74768e-05 2.14214e-05 9.95085 1.43519 10 1 
232 1.20573 9.94838 -9.4492e-06 -1.01017e-05 9.94838 1.32493 10 1 
234 1.20641 9.9313 -5.6317e-05 -4.95571e-05 9.9313 2.53838 10 1 
236 1.20571 9.94167 3.88249e-05 4.57616e-05 9.94168 1.27362 10 1 
238 1.20512 9.95347 2.27945e-05 2.64594e-05 9.95347 0.209179 10 1 
240 1.2064 9.92076 -4.60755e-05 -4.95339e-05 9.92076 2.53454 10 1 
242 1.20643 9.91423 9.2056e-06 6.6504e-06 9.91423 2.58215 10 1 
244 1.20577 9.9249 -2.57888e-05 -1.70891e-05 9.9249 1.39454 10 1 
246 1.20597 9.9139 -2.42846e-05 -1.91173e-05 9.9139 1.75321 10 1 
248 1.20636 9.89915 0.000109009 9.79763e-05 9.89915 2.45389 10 1 
250 1.20643 9.88562 1.11353e-05 4.26828e-06 9.88562 2.58643 10 1 
252 1.20635 9.88486 -0.000106734 -9.71106e-05 9.88486 2.43986 10 1 
254 1.20666 9.87565 0.000105906 0.000108216 9.87565 3.00464 10 1 
256 1.20654 9.86283 0.000182637 0.00016359 9.86283 2.77816 10 1 
256 1.20654 9.86283 0.000182637 0.00016359 9.86283 2.77816 11 1 
258 1.20661 9.8468 4.82277e-05 3.03938e-05 9.8468 2.91593 11 1 
260 1.20724 9.82156 0.000178651 0.000176611 9.82156 4.03873 11 1 
262 1.20718 9.7991 0.000273121 0.000265808 9.7991 3.931 11 1 
264 1.20704 9.78581 0.000373326 0.000352489 9.78581 3.69271 11 1 
266 1.20752 9.77036 0.000627415 0.000606768 9.77036 4.55768 11 1 
268 1.208 9.72932 0.000637258 0.000623037 9.72933 5.41711 11 1 
270 1.20795 9.69534 0.000790998 0.000784167 9.69535 5.33616 11 1 
272 1.20836 9.65149 0.00110475 0.0010923 9.6515 6.07549 11 1 
274 1.20897 9.60072 0.00122191 0.00119866 9.60073 7.16848 11 1 
276 1.20899 9.565 0.00135028 0.00133442 9.56501 7.2049 11 1 
278 1.20962 9.50295 0.00147076 0.00146155 9.50295 8.35022 11 1 
280 1.21052 9.43326 0.00156276 0.00153933 9.43329 9.96455 11 1 
282 1.21111 9.33994 0.00168416 0.00165592 9.34015 11.0332 11 1 
284 1.21172 9.20933 0.00163817 0.00161544 9.20969 12.1421 11 1 
286 1.21243 9.07931 0.0015878 0.00156413 9.07951 13.4183 11 1 
288 1.21357 8.95507 0.00161105 0.00159024 8.95509 15.4763 11 1 
288 1.21357 8.95507 0.00161105 0.00159024 8.95509 15.4763 11 1 
290 1.21496 8.8353 0.00149253 0.00147607 8.83536 17.993 11 1 
292 1.21609 8.68173 0.00138902 0.00136754 8.68197 20.0313 11 1 
294 1.21712 8.49109 0.00131058 0.00129387 8.49166 21.8869 11 1 
296 1.21857 8.29525 0.00116857 0.00116648 8.29567 24.513 11 1 
298 1.21037 8.01499 0.00105421 0.00104378 8.01521 9.69168 11 1 
300 1.1962 7.92872 0.000970864 0.00095875 7.92901 -15.8923 11 1 
302 1.19167 7.9524 0.000858791 0.000861823 7.95251 -24.0854 11 1 
304 1.19285 7.81774 0.000761939 0.000757904 7.81784 -21.9534 11 1 
306 1.19423 7.69025 0.000692736 0.000682037 7.69039 -19.4523 11 1 
308 1.19542 7.59953 0.000576373 0.000572584 7.5997 -17.3011 11 1 
310 1.19625 7.53485 0.00048971 0.000480569 7.53498 -15.8123 11 1 
312 1.19715 7.4851 0.000472983 0.000462623 7.48513 -14.1712 11 1 
314 1.19827 7.5259 0.000362393 0.000356445 7.52597 -12.153 11 1 
316 1.19918 7.60924 0.000223361 0.00021648 7.60931 -10.5056 11 1 
318 1.19981 7.66311 0.00016425 0.000162221 7.66317 -9.36784 11 1 
320 1.20053 7.77817 0.00011793 0.000116644 7.7783 -8.0732 11 1 
320 1.20053 7.77817 0.00011793 0.000116644 7.7783 -8.0732 15 1 
322 1.20124 7.95213 3.82075e-05 3.48976e-05 7.9524 -6.78718 15 1 
324 1.20179 8.11314 -0.000106567 -0.000106576 8.11348 -5.79398 15 1 
326 1.2024 8.30433 -0.000194755 -0.000195762 8.30465 -4.69537 15 1 
328 1.20282 8.49814 -0.000164181 -0.00016607 8.4984 -3.93592 15 1 
330 1.20296 8.67804 -0.000269264 -0.000268318 8.67828 -3.6821 15 1 
332 1.20337 8.86594 -0.000418471 -0.00042035 8.86616 -2.94762 15 1 
334 1.20367 9.00891 -0.000427864 -0.000434157 9.00908 -2.4096 15 1 
336 1.20361 9.13605 -0.00049063 -0.000495989 9.13616 -2.50452 15 1 
338 1.20379 9.26079 -0.000535995 -0.000539784 9.26087 -2.18044 15 1 
340 1.20407 9.35024 -0.000632081 -0.000637146 9.35028 -1.68813 15 1 
342 1.2041 9.44636 -0.000775393 -0.00078191 9.4464 -1.61817 15 1 
344 1.20398 9.50157 -0.000733978 -0.000740163 9.50161 -1.84949 15 1 
346 1.20407 9.55556 -0.000742726 -0.000751643 9.55558 -1.68005 15 1 
348 1.2043 9.63193 -0.000905887 -0.000917613 9.63194 -1.26084 15 1 
350 1.20435 9.66604 -0.000981875 -0.000991915 9.66605 -1.17051 15 1 
352 1.20434 9.71218 -0.000976899 -0.000987477 9.71219 -1.20039 15 1 
354 1.20419 9.72764 -0.00101863 -0.00102971 9.72766 -1.46878 15 1 
356 1.20455 9.76509 -0.00114612 -0.00115291 9.7651 -0.808134 15 1 
358 1.20454 9.79927 -0.00125979 -0.00126255 9.79928 -0.831797 15 1 
360 1.2041 9.80492 -0.00126928 -0.00126781 9.80492 -1.62756 15 1 
362 1.20452 9.84571 -0.00132837 -0.00132494 9.84571 -0.875637 15 1 
364 1.20485 9.84908 -0.00141629 -0.00141093 9.84908 -0.269539 15 1 
366 1.20462 9.86772 -0.00145542 -0.00144475 9.86773 -0.68466 15 1 
368 1.20413 9.86499 -0.00143812 -0.00142619 9.86499 -1.57558 15 1 
370 1.20456 9.892 -0.00134903 -0.00133883 9.892 -0.797111 15 1 
372 1.20499 9.91313 -0.00131882 -0.00130665 9.91314 -0.012523 15 1 
374 1.20459 9.90468 -0.00124686 -0.0012333 9.90468 -0.746983 15 1 
376 1.20444 9.91276 -0.00105825 -0.00104867 9.91276 -1.00869 15 1 
378 1.20477 9.92231 -0.000905574 -0.000900129 9.92232 -0.416555 15 1 
380 1.20471 9.93392 -0.000767884 -0.000764714 9.93392 -0.527626 15 1 
382 1.20426 9.92688 -0.000621912 -0.00061968 9.92688 -1.33147 15 1 
384 1.2047 9.94246 -0.000467589 -0.00046738 9.94246 -0.535263 15 1 
384 1.2047 9.94246 -0.000467589 -0.00046738 9.94246 -0.535263 16 1 
386 1.20528 9.95523 -0.000317991 -0.000321134 9.95523 0.503853 16 1 
388 1.20465 9.948 -0.000249429 -0.00025083 9.948 -0.634082 16 1 
390 1.20381 9.9299 -0.00016888 -0.000169018 9.9299 -2.14698 16 1 
392 1.20451 9.95131 -9.00891e-05 -9.28027e-05 9.95131 -0.886222 16 1 
394 1.20568 9.98409 -7.06292e-05 -7.26619e-05 9.98409 1.23219 16 1 
396 1.20534 9.97554 -2.74519e-05 -2.71723e-05 9.97554 0.615435 16 1 
398 1.20387 9.93996 -1.75641e-05 -1.68579e-05 9.93996 -2.03488 16 1 
400 1.2037 9.93968 -2.20956e-05 -2.09502e-05 9.93968 -2.34867 16 1 
402 1.20527 9.98218 2.99669e-06 3.88231e-06 9.98218 0.493602 16 1 
404 1.2061 10.0071 -8.73191e-06 -9.31066e-06 10.0071 1.98537 16 1 
406 1.20497 9.97756 -1.10933e-05 -1.26364e-05 9.97756 -0.0528151 16 1 
408 1.20359 9.93739 5.79665e-06 4.37124e-06 9.93739 -2.55445 16 1 
410 1.20373 9.94571 -1.4813e-06 -1.48301e-06 9.94571 -2.28951 16 1 
412 1.20534 9.99454 -3.72964e-06 -2.61724e-06 9.99454 0.62157 16 1 
414 1.20637 10.023 -7.87543e-06 -7.46374e-06 10.023 2.47113 16 1 
416 1.20545 9.99813 -6.37418e-06 -6.79812e-06 9.99813 0.811628 16 1 
416 1.20545 9.99813 -6.37418e-06 -6.79812e-06 9.99813 0.811628 16 1 
418 1.20381 9.94934 8.40238e-06 8.48279e-06 9.94934 -2.14324 16 1 
420 1.20317 9.93014 6.74379e-07 1.26085e-06 9.93014 -3.30142 16 1 
422 1.20415 9.96296 -3.17645e-06 -3.63547e-06 9.96296 -1.53913 16 1 
424 1.20587 10.0171 8.0324e-07 3.08788e-07 10.0171 1.56469 16 1 
426 1.20679 10.0461 -1.60513e-06 -1.17392e-06 10.0461 3.23205 16 1 
428 1.20628 10.031 3.54712e-06 3.6575e-06 10.031 2.31819 16 1 
430 1.20483 9.98287 6.44795e-08 1.54534e-07 9.98287 -0.301213 16 1 
432 1.20325 9.93088 -5.48238e-06 -5.4084e-06 9.93088 -3.16438 16 1 
434 1.20224 9.89962 4.58385e-10 -2.97834e-07 9.89962 -4.99027 16 1 
436 1.20207 9.89343 1.57125e-06 1.52117e-06 9.89343 -5.29609 16 1 
438 1.20245 9.90771 1.10114e-06 1.20455e-06 9.90771 -4.60884 16 1 
440 1.20313 9.93246 4.52113e-06 4.49676e-06 9.93246 -3.38 16 1 
442 1.20381 9.95577 -1.31326e-06 -1.33668e-06 9.95577 -2.15292 16 1 
444 1.20429 9.97407 -6.9759e-06 -6.92229e-06 9.97407 -1.28606 16 1 
446 1.20461 9.98619 1.92542e-06 1.96054e-06 9.98619 -0.695839 16 1 
448 1.20482 9.99306 2.36941e-06 2.33651e-06 9.99306 -0.320071 16 1 
448 1.20482 9.99306 2.36941e-06 2.33651e-06 9.99306 -0.320071 17 1 
450 1.20492 9.99727 -1.55852e-06 -1.55926e-06 9.99727 -0.135446 17 1 
452 1.20496 9.99886 2.59161e-06 2.58515e-06 9.99886 -0.0716497 17 1 
454 1.205 9.99935 -8.54152e-08 -9.89239e-08 9.99935 -0.00114295 17 1 
456 1.20499 9.99997 -7.46671e-07 -7.16373e-07 9.99997 -0.0111182 17 1 
458 1.20499 9.99995 1.49349e-06 1.49095e-06 9.99995 -0.0207844 17 1 
460 1.20501 9.99974 -4.01107e-06 -4.02534e-06 9.99974 0.0224025 17 1 
462 1.205 10.0002 -2.67643e-06 -2.65908e-06 10.0002 -0.00701853 17 1 
464 1.205 10.0002 4.89661e-06 4.88734e-06 10.0002 -0.00803365 17 1 
466 1.20501 9.99982 3.24165e-06 3.21994e-06 9.99982 0.0109373 17 1 
468 1.205 10 -2.37536e-06 -2.36747e-06 10 -0.0059874 17 1 
470 1.205 10.0001 -2.42577e-06 -2.41997e-06 10.0001 -0.00117031 17 1 
472 1.205 9.99998 5.46032e-07 5.38804e-07 9.99998 0.00350927 17 1 
474 1.205 9.99999 1.21956e-06 1.22389e-06 9.99999 -0.00111768 17 1 
476 1.205 10 -4.30151e-07 -4.21258e-07 10 -0.000532221 17 1 
478 1.205 10 -8.89911e-07 -8.92097e-07 10 -0.00031785 17 1 
480 1.205 9.99998 3.63785e-07 3.60164e-07 9.99998 0.00138717 17 1 
480 1.205 9.99998 3.63785e-07 3.60164e-07 9.99998 0.00138717 17 1 
482 1.205 10 8.38135e-07 8.40624e-07 10 -0.000620031 17 1 
484 1.205 10 9.88829e-08 1.0062e-07 10 -0.00129165 17 1 
486 1.205 9.99996 -3.80534e-07 -3.81686e-07 9.99996 0.00146391 17 1 
488 1.205 9.99998 -2.06194e-07 -2.07365e-07 9.99998 0.000232615 17 1 
490 1.205 10 2.5739e-08 2.54353e-08 10 -0.000793303 17 1 
492 1.205 10 5.67593e-08 5.69175e-08 10 1.5166e-05 17 1 
494 1.205 10 1.79519e-08 1.80182e-08 10 0.00021326 17 1 
496 1.205 9.99999 9.54188e-10 9.66523e-10 9.99999 2.88678e-05 17 1 
498 1.205 10 -3.41295e-10 -3.4137e-10 10 -4.86864e-05 17 1 
500 1.205 10 3.77663e-14 1.19077e-14 10 -4.10794e-12 17 1 
502 1.205 10 2.26981e-14 9.51341e-15 10 -3.8663e-12 17 1 
504 1.205 10 2.5284e-14 1.15566e-14 10 -3.56424e-12 17 1 
506 1.205 10 3.20838e-14 3.06472e-15 10 -4.95369e-12 17 1 
508 1.205 10 1.8516e-14 -4.21399e-15 10 -5.73903e-12 17 1 
510 1.205 10 9.03454e-15 -9.44956e-15 10 -4.01732e-12 17 1 
512 1.205 10 2.05911e-14 3.19245e-17 10 -3.68506e-12 17 1 
512 1.205 10 2.05911e-14 3.19245e-17 10 -3.68506e-12 25 1 
514 1.205 10 1.02157e-14 7.18294e-15 10 -4.04753e-12 25 1 
516 1.205 10 1.11735e-15 5.90597e-15 10 -3.65486e-12 25 1 
518 1.205 10 -9.8965e-16 1.77179e-14 10 -3.44342e-12 25 1 
520 1.205 10 3.22434e-15 3.07111e-14 10 -4.01732e-12 25 1 
522 1.205 10 3.09665e-15 4.04799e-14 10 -4.95369e-12 25 1 
524 1.205 10 -1.91545e-16 2.20277e-14 10 -4.56102e-12 25 1 
526 1.205 10 1.13331e-14 2.26662e-14 10 -5.5578e-12 25 1 
528 1.205 10 2.19958e-14 2.57309e-14 10 -7.15869e-12 25 1 
530 1.205 10 2.64013e-14 1.93141e-14 10 -6.28273e-12 25 1 
532 1.205 10 3.35204e-14 1.89949e-14 10 -5.22554e-12 25 1 
534 1.205 10 1.90587e-14 1.25143e-14 10 -5.34636e-12 25 1 
536 1.205 10 7.31064e-15 1.50363e-14 10 -5.92027e-12 25 1 
538 1.205 10 1.76222e-14 1.14608e-14 10 -5.22554e-12 25 1 
540 1.205 10 2.55074e-14 1.27058e-14 10 -4.65164e-12 25 1 
542 1.205 10 1.30251e-14 5.52288e-15 10 -4.16835e-12 25 1 
544 1.205 10 4.69285e-15 7.72565e-15 10 -3.50383e-12 25 1 
544 1.205 10 4.69285e-15 7.72565e-15 10 -3.50383e-12 25 1 
546 1.205 10 2.49328e-14 1.47809e-14 10 -4.10794e-12 25 1 
548 1.205 10 2.99449e-14 8.7153e-15 10 -3.95691e-12 25 1 
550 1.205 10 2.04634e-14 1.63133e-14 10 -2.89972e-12 25 1 
552 1.205 10 2.46455e-14 2.29854e-14 10 -2.89972e-12 25 1 
554 1.205 10 2.80933e-14 2.71036e-14 10 -3.23198e-12 25 1 
556 1.205 10 2.21873e-14 1.57386e-14 10 -3.47363e-12 25 1 
558 1.205 10 1.76541e-14 7.98105e-15 10 -3.83609e-12 25 1 
560 1.205 10 1.90907e-14 -5.96982e-15 10 -3.53404e-12 25 1 
562 1.205 10 1.29612e-14 -1.4749e-14 10 -3.8965e-12 25 1 
564 1.205 10 1.13012e-14 1.05988e-14 10 -4.53082e-12 25 1 
566 1.205 10 1.48767e-14 2.19958e-14 10 -4.10794e-12 25 1 
568 1.205 10 2.84764e-14 2.107e-14 10 -3.77568e-12 25 1 
570 1.205 10 3.29777e-14 8.07682e-15 10 -4.25897e-12 25 1 
572 1.205 10 2.51243e-14 3.47974e-15 10 -4.31938e-12 25 1 
574 1.205 10 2.84125e-14 7.08717e-15 10 -3.3528e-12 25 1 
576 1.205 10 3.05195e-14 3.41589e-15 10 -3.50383e-12 25 1 
576 1.205 10 3.05195e-14 3.41589e-15 10 -3.50383e-12 26 1 
578 1.205 10 1.96972e-14 7.66181e-16 10 -3.50383e-12 26 1 
580 1.205 10 1.22908e-14 5.96982e-15 10 -3.80589e-12 26 1 
582 1.205 10 1.51321e-14 2.36877e-14 10 -4.50061e-12 26 1 
584 1.205 10 1.34401e-14 3.99691e-14 10 -4.59123e-12 26 1 
586 1.205 10 2.19638e-14 3.88517e-14 10 -4.53082e-12 26 1 
588 1.205 10 3.70959e-14 3.49251e-14 10 -4.77246e-12 26 1 
590 1.205 10 3.72875e-14 3.76705e-14 10 -4.04753e-12 26 1 
592 1.205 10 2.37516e-14 3.73513e-14 10 -4.25897e-12 26 1 
594 1.205 10 2.29216e-14 1.94099e-14 10 -4.77246e-12 26 1 
596 1.205 10 2.50605e-14 6.83178e-15 10 -4.71205e-12 26 1 
598 1.205 10 3.58189e-14 2.36558e-14 10 -4.50061e-12 26 1 
600 1.205 10 3.47974e-14 3.26265e-14 10 -3.47363e-12 26 1 
602 1.205 10 3.25627e-14 3.45739e-14 10 -4.34958e-12 26 1 
604 1.205 10 3.13176e-14 4.05756e-14 10 -4.13815e-12 26 1 
606 1.205 10 2.6114e-14 3.86921e-14 10 -4.62143e-12 26 1 
608 1.205 10 2.55393e-14 3.40631e-14 10 -5.89006e-12 26 1 
608 1.205 10 2.55393e-14 3.40631e-14 10 -5.89006e-12 26 1 
610 1.205 10 3.22434e-14 3.28181e-14 10 -5.40677e-12 26 1 
612 1.205 10 4.24911e-14 4.10226e-14 10 -4.28917e-12 26 1 
614 1.205 10 3.4095e-14 4.66412e-14 10 -4.28917e-12 26 1 
616 1.205 10 3.45739e-14 3.94902e-14 10 -3.44342e-12 26 1 
618 1.205 10 3.71917e-14 3.42866e-14 10 -3.3528e-12 26 1 
620 1.205 10 2.9913e-14 4.16611e-14 10 -4.74225e-12 26 1 
622 1.205 10 2.87637e-14 5.41434e-14 10 -5.04431e-12 26 1 
624 1.205 10 3.68405e-14 4.297e-14 10 -5.95047e-12 26 1 
626 1.205 10 3.31692e-14 3.33288e-14 10 -6.1317e-12 26 1 
628 1.205 10 3.04237e-14 3.53081e-14 10 -4.89328e-12 26 1 
630 1.205 10 3.89475e-14 3.38077e-14 10 -4.01732e-12 26 1 
632 1.205 10 4.58431e-14 2.28896e-14 10 -5.28595e-12 26 1 
634 1.205 10 4.78224e-14 2.30173e-14 10 -5.19534e-12 26 1 
636 1.205 10 4.10545e-14 3.13176e-14 10 -4.01732e-12 26 1 
638 1.205 10 4.18845e-14 2.36558e-14 10 -3.17157e-12 26 1 
640 1.205 10 4.463e-14 1.45894e-14 10 -2.50705e-12 26 1 
642 1.205 10 3.75428e-14 2.82848e-14 10 -3.80589e-12 26 1 
644 1.205 10 3.25307e-14 4.16291e-14 10 -5.5276e-12 26 1 
646 1.205 10 2.79975e-14 2.1485e-14 10 -6.25253e-12 26 1 
648 1.205 10 3.2403e-14 1.12054e-14 10 -5.31616e-12 26 1 
650 1.205 10 3.64255e-14 1.96334e-14 10 -4.74225e-12 26 1 
652 1.205 10 3.17326e-14 2.70398e-14 10 -5.13492e-12 26 1 
654 1.205 10 3.33608e-14 1.13969e-14 10 -5.16513e-12 26 1 
656 1.205 10 3.46697e-14 2.23469e-15 10 -4.9839e-12 26 1 
658 1.205 10 2.79656e-14 1.2195e-14 10 -2.50705e-12 26 1 
660 1.205 10 3.00726e-14 1.78137e-14 10 -2.41644e-12 26 1 
662 1.205 10 5.36646e-14 2.50924e-14 10 -4.86308e-12 26 1 
664 1.205 10 5.73358e-14 1.53236e-14 10 -4.86308e-12 26 1 
666 1.205 10 4.09268e-14 3.25627e-15 10 -4.86308e-12 26 1 
668 1.205 10 2.16446e-14 2.58586e-15 10 -4.40999e-12 26 1 
670 1.205 10 1.76222e-14 1.67602e-14 10 -3.68506e-12 26 1 
672 1.205 10 3.5787e-14 2.8221e-14 10 -3.05075e-12 26 1 
672 1.205 10 3.5787e-14 2.8221e-14 10 -3.05075e-12 27 1 
674 1.205 10 3.21796e-14 1.86118e-14 10 -2.89972e-12 27 1 
676 1.205 10 2.93383e-14 7.94912e-15 10 -3.92671e-12 27 1 
678 1.205 10 2.74867e-14 6.16137e-15 10 -3.44342e-12 27 1 
680 1.205 10 2.5284e-14 2.28577e-14 10 -2.80911e-12 27 1 
682 1.205 10 3.58509e-14 3.09026e-14 10 -3.17157e-12 27 1 
684 1.205 10 2.72633e-14 2.59544e-14 10 -3.05075e-12 27 1 
686 1.205 10 2.26023e-14 2.01122e-14 10 -2.41644e-12 27 1 
688 1.205 10 2.5699e-14 1.20673e-14 10 -1.6915e-12 27 1 
690 1.205 10 2.85402e-14 2.28577e-14 10 -2.08418e-12 27 1 
692 1.205 10 2.11338e-14 2.79975e-14 10 -4.4704e-12 27 1 
694 1.205 10 2.57628e-14 1.72071e-14 10 -5.70883e-12 27 1 
696 1.205 10 3.83409e-14 2.42624e-14 10 -3.92671e-12 27 1 
698 1.205 10 3.46058e-14 3.92987e-14 10 -2.68828e-12 27 1 
700 1.205 10 2.87956e-14 5.03125e-14 10 -3.44342e-12 27 1 
702 1.205 10 1.56109e-14 3.64255e-14 10 -5.19534e-12 27 1 
704 1.205 10 2.34962e-14 2.05592e-14 10 -5.19534e-12 27 1 
704 1.205 10 2.34962e-14 2.05592e-14 10 -5.19534e-12 31 1 
706 1.205 10 3.13176e-14 1.51321e-14 10 -4.74225e-12 31 1 
708 1.205 10 1.57067e-14 1.16523e-14 10 -5.58801e-12 31 1 
710 1.205 10 1.90268e-14 3.64893e-14 10 -5.19534e-12 31 1 
712 1.205 10 3.64574e-14 3.48612e-14 10 -3.74547e-12 31 1 
714 1.205 10 5.02487e-14 4.56516e-15 10 -3.68506e-12 31 1 
716 1.205 10 2.99449e-14 8.93877e-16 10 -4.13815e-12 31 1 
718 1.205 10 1.42382e-14 1.75902e-14 10 -4.10794e-12 31 1 
720 1.205 10 1.78137e-14 2.6114e-14 10 -4.22876e-12 31 1 
722 1.205 10 1.48767e-14 1.75264e-14 10 -5.58801e-12 31 1 
724 1.205 10 1.58025e-14 1.71433e-14 10 -5.22554e-12 31 1 
726 1.205 10 1.12692e-14 5.71443e-15 10 -2.65808e-12 31 1 
728 1.205 10 1.4334e-14 -3.09665e-15 10 -9.96779e-13 31 1 
730 1.205 10 8.04489e-15 1.34082e-14 10 -1.75192e-12 31 1 
732 1.205 10 -4.15014e-15 6.44868e-15 10 -3.38301e-12 31 1 
734 1.205 10 -6.12944e-15 3.60743e-15 10 -3.26219e-12 31 1 
736 1.205 10 -6.64023e-15 1.39828e-14 10 -3.98712e-12 31 1 
738 1.205 10 5.17172e-15 1.8516e-14 10 -4.65164e-12 31 1 
740 1.205 10 2.23789e-14 2.01761e-14 10 -5.10472e-12 31 1 
742 1.205 10 1.00561e-14 4.59708e-15 10 -5.34636e-12 31 1 
744 1.205 10 1.178e-14 7.47026e-15 10 -4.4704e-12 31 1 
746 1.205 10 1.33762e-14 1.58982e-14 10 -4.74225e-12 31 1 
748 1.205 10 2.52201e-15 2.01122e-15 10 -6.37335e-12 31 1 
750 1.205 10 1.93461e-14 1.46851e-15 10 -5.76924e-12 31 1 
752 1.205 10 1.78137e-14 8.20452e-15 10 -4.19856e-12 31 1 
752 1.205 10 1.78137e-14 8.20452e-15 10 -4.19856e-12 31 1 
754 1.205 10 1.47171e-14 1.29612e-14 10 -4.37979e-12 31 1 
756 1.205 10 1.6856e-14 6.76793e-15 10 -3.56424e-12 31 1 
758 1.205 10 7.34256e-15 5.84213e-15 10 -4.19856e-12 31 1 
760 1.205 10 2.25704e-14 1.70475e-14 10 -4.53082e-12 31 1 
762 1.205 10 4.07672e-14 1.31847e-14 10 -3.92671e-12 31 1 
764 1.205 10 2.75187e-14 -4.56516e-15 10 -3.3226e-12 31 1 
766 1.205 10 1.2227e-14 -1.66006e-14 10 -2.205e-12 31 1 
768 1.205 10 1.30889e-14 -1.8516e-15 10 -3.68506e-12 31 1 
770 1.205 10 2.26981e-14 -6.38483e-17 10 -3.65486e-12 31 1 
772 1.205 10 4.06076e-14 7.40641e-15 10 -3.29239e-12 31 1 
774 1.205 10 3.92348e-14 3.74471e-14 10 -5.0141e-12 31 1 
776 1.205 10 2.01122e-14 3.96179e-14 10 -5.22554e-12 31 1 
778 1.205 10 2.92106e-14 3.6649e-14 10 -4.89328e-12 31 1 
780 1.205 10 5.43669e-14 4.53643e-14 10 -3.80589e-12 31 1 
782 1.205 10 6.19329e-14 3.17326e-14 10 -3.05075e-12 31 1 
784 1.205 10 4.74713e-14 1.20354e-14 10 -4.10794e-12 31 1 
786 1.205 10 4.32892e-14 1.8963e-14 10 -3.44342e-12 31 1 
788 1.205 10 4.04479e-14 2.04953e-14 10 -2.47685e-12 31 1 
790 1.205 10 1.75264e-14 6.41676e-15 10 -3.62465e-12 31 1 
792 1.205 10 2.74548e-14 5.42711e-15 10 -3.71527e-12 31 1 
794 1.205 10 4.94825e-14 1.57386e-14 10 -2.80911e-12 31 1 
796 1.205 10 4.03841e-14 1.71433e-14 10 -3.23198e-12 31 1 
798 1.205 10 2.36558e-14 7.56603e-15 10 -3.05075e-12 31 1 
800 1.205 10 2.07507e-14 2.49009e-15 10 -2.47685e-12 31 1 
