97.8099;r ;Density                 ;Velocity u              ;Velocity v              ;Velocity w              ;|Velocity|              ;Pressure                ;Distribution            ;Levels                  ;
0 1.22288 9.99964 -4.73317e-05 1.25174e-05 9.99964 32.2959 1 1 
2 1.2229 9.9989 -0.000127657 -6.31292e-05 9.9989 32.3309 1 1 
4 1.2229 9.9991 -0.000341434 -0.000242455 9.9991 32.3247 1 1 
6 1.22289 9.99979 -0.000527052 -0.000389692 9.99979 32.3162 1 1 
8 1.22289 10.0003 -0.000702938 -0.000530814 10.0003 32.3185 1 1 
10 1.22288 10.0011 -0.00086379 -0.000648947 10.0011 32.3033 1 1 
12 1.22289 10.0008 -0.00102942 -0.000785245 10.0008 32.3196 1 1 
14 1.22288 10.0015 -0.00124683 -0.000954279 10.0015 32.2954 1 1 
16 1.22289 10.0018 -0.00138797 -0.00105835 10.0018 32.3099 1 1 
18 1.22288 10.0017 -0.00156391 -0.00118388 10.0017 32.2968 1 1 
20 1.22287 10.0029 -0.00178152 -0.00133719 10.0029 32.2705 1 1 
22 1.22289 10.0036 -0.00196433 -0.00147589 10.0036 32.3169 1 1 
24 1.22288 10.0045 -0.00215358 -0.00162842 10.0045 32.2981 1 1 
26 1.22287 10.0044 -0.0023238 -0.00173068 10.0044 32.2852 1 1 
28 1.22287 10.0044 -0.00251597 -0.00186737 10.0044 32.283 1 1 
30 1.22287 10.0048 -0.00268696 -0.00201463 10.0048 32.2733 1 1 
32 1.22287 10.0045 -0.00287374 -0.00216093 10.0045 32.2852 1 1 
32 1.22287 10.0045 -0.00287374 -0.00216093 10.0045 32.2852 1 1 
34 1.22286 10.005 -0.0030115 -0.00225735 10.005 32.2662 1 1 
36 1.22287 10.0051 -0.00321768 -0.00241019 10.0051 32.2778 1 1 
38 1.22286 10.0058 -0.00339456 -0.00253812 10.0058 32.2616 1 1 
40 1.22286 10.006 -0.0035777 -0.00268172 10.006 32.2616 1 1 
42 1.22287 10.0057 -0.00378531 -0.00283396 10.0057 32.2712 1 1 
44 1.22286 10.0056 -0.00394966 -0.00292499 10.0056 32.2553 1 1 
46 1.22286 10.0055 -0.00416304 -0.00309301 10.0055 32.2623 1 1 
48 1.22285 10.006 -0.00434044 -0.0032427 10.006 32.2477 1 1 
50 1.22286 10.007 -0.00448269 -0.00331117 10.007 32.2535 1 1 
52 1.22286 10.0068 -0.00465871 -0.00344514 10.0068 32.2613 1 1 
54 1.22285 10.006 -0.00486294 -0.00358825 10.006 32.2463 1 1 
56 1.22285 10.0069 -0.00502944 -0.00370206 10.0069 32.2487 1 1 
58 1.22286 10.0073 -0.00526271 -0.00388884 10.0073 32.2522 1 1 
60 1.22285 10.0075 -0.00542906 -0.00399817 10.0075 32.24 1 1 
62 1.22285 10.0076 -0.00561919 -0.00413895 10.0076 32.2473 1 1 
64 1.22285 10.0081 -0.00579889 -0.00426101 10.0081 32.2495 1 1 
64 1.22285 10.0081 -0.00579889 -0.00426101 10.0081 32.2495 2 1 
66 1.22286 10.0082 -0.00597065 -0.00439217 10.0082 32.2613 2 1 
68 1.22284 10.0094 -0.00616795 -0.0045522 10.0094 32.2285 2 1 
70 1.22285 10.0093 -0.00635973 -0.0047088 10.0093 32.2456 2 1 
72 1.22286 10.0085 -0.00654705 -0.00483826 10.0085 32.2551 2 1 
74 1.22284 10.0093 -0.00671783 -0.0049493 10.0093 32.2255 2 1 
76 1.22287 10.0094 -0.00690472 -0.00510649 10.0094 32.2701 2 1 
78 1.22285 10.0106 -0.00707248 -0.00519898 10.0106 32.2427 2 1 
80 1.22284 10.0108 -0.00727764 -0.00534596 10.0108 32.2322 2 1 
82 1.22285 10.0104 -0.00749673 -0.00554624 10.0104 32.2459 2 1 
84 1.22285 10.0105 -0.00765567 -0.00563636 10.0105 32.247 2 1 
86 1.22286 10.011 -0.00782955 -0.0057485 10.011 32.2554 2 1 
88 1.22285 10.0113 -0.00807776 -0.00594687 10.0114 32.2418 2 1 
90 1.22285 10.0113 -0.00822762 -0.00607275 10.0113 32.245 2 1 
92 1.22285 10.0116 -0.00843799 -0.00623291 10.0116 32.24 2 1 
94 1.22286 10.0111 -0.0086244 -0.00636357 10.0111 32.2525 2 1 
96 1.22286 10.0112 -0.00880003 -0.00648421 10.0112 32.2609 2 1 
96 1.22286 10.0112 -0.00880003 -0.00648421 10.0112 32.2609 2 1 
98 1.22285 10.0127 -0.00906258 -0.00667214 10.0127 32.2455 2 1 
100 1.22286 10.0127 -0.00919163 -0.00675143 10.0127 32.2536 2 1 
102 1.22285 10.0124 -0.00941121 -0.00692871 10.0124 32.2486 2 1 
104 1.22286 10.0118 -0.00964466 -0.00711649 10.0118 32.2581 2 1 
106 1.22286 10.0111 -0.009795 -0.00720643 10.0112 32.2653 2 1 
108 1.22287 10.0104 -0.0100225 -0.00738533 10.0104 32.2714 2 1 
110 1.22285 10.0118 -0.0101905 -0.00751956 10.0118 32.2394 2 1 
112 1.22286 10.0124 -0.0103942 -0.00768304 10.0124 32.2574 2 1 
114 1.22288 10.0119 -0.0105875 -0.00784183 10.0119 32.2957 2 1 
116 1.22287 10.0134 -0.010808 -0.00801259 10.0134 32.2704 2 1 
118 1.22288 10.012 -0.0109927 -0.00814592 10.012 32.2938 2 1 
120 1.22288 10.0107 -0.0112012 -0.00829503 10.0107 32.2988 2 1 
122 1.22286 10.011 -0.011414 -0.00845429 10.011 32.2549 2 1 
124 1.22287 10.0096 -0.0116265 -0.00862061 10.0097 32.2757 2 1 
126 1.2229 10.0096 -0.0118667 -0.00881342 10.0096 32.3373 2 1 
128 1.22288 10.0118 -0.0120185 -0.0089155 10.0118 32.2887 2 1 
128 1.22288 10.0118 -0.0120185 -0.0089155 10.0118 32.2887 10 1 
130 1.22289 10.0111 -0.012254 -0.00913414 10.0111 32.3204 10 1 
132 1.2229 10.0115 -0.0124431 -0.00926406 10.0115 32.3278 10 1 
134 1.22289 10.0106 -0.0126449 -0.00941535 10.0106 32.3135 10 1 
136 1.22291 10.0078 -0.0128599 -0.00959194 10.0079 32.3446 10 1 
138 1.22289 10.0088 -0.0130905 -0.00978273 10.0088 32.3108 10 1 
140 1.22291 10.0091 -0.0133222 -0.00996869 10.0092 32.3578 10 1 
142 1.22291 10.0093 -0.013524 -0.0100899 10.0093 32.3589 10 1 
144 1.22291 10.0098 -0.0137497 -0.0103 10.0098 32.3464 10 1 
146 1.22294 10.0088 -0.0139739 -0.0104774 10.0088 32.4025 10 1 
148 1.22293 10.0068 -0.0142083 -0.010666 10.0069 32.3926 10 1 
150 1.22291 10.0071 -0.0144081 -0.0108397 10.0071 32.3444 10 1 
152 1.22294 10.0065 -0.014638 -0.0110167 10.0066 32.4039 10 1 
154 1.22296 10.0061 -0.0148386 -0.011159 10.0062 32.4328 10 1 
156 1.22294 10.0069 -0.0151122 -0.011379 10.0069 32.4091 10 1 
158 1.22297 10.0049 -0.0153382 -0.0115657 10.005 32.4529 10 1 
160 1.22297 10.0029 -0.0155488 -0.0117436 10.003 32.4622 10 1 
160 1.22297 10.0029 -0.0155488 -0.0117436 10.003 32.4622 10 1 
162 1.22294 10.0037 -0.0158084 -0.0119785 10.0038 32.4068 10 1 
164 1.22297 10.002 -0.0160429 -0.0121645 10.002 32.467 10 1 
166 1.22302 10.0003 -0.0162672 -0.0123573 10.0004 32.5475 10 1 
168 1.22298 10.0022 -0.0165243 -0.0125869 10.0022 32.4698 10 1 
170 1.22301 9.99879 -0.0167552 -0.0127738 9.99882 32.5288 10 1 
172 1.22301 9.99871 -0.0169618 -0.0129279 9.99873 32.536 10 1 
174 1.223 9.99941 -0.0171712 -0.0131149 9.99943 32.513 10 1 
176 1.22307 9.99559 -0.017465 -0.0133139 9.99561 32.6301 10 1 
178 1.22304 9.99558 -0.0176668 -0.0134818 9.99561 32.5927 10 1 
180 1.22305 9.99357 -0.0178881 -0.0137067 9.99359 32.6082 10 1 
182 1.22307 9.99005 -0.0181799 -0.0139414 9.99008 32.6369 10 1 
184 1.22305 9.98967 -0.0184389 -0.0141611 9.9897 32.603 10 1 
186 1.22312 9.98898 -0.0186666 -0.0143288 9.98901 32.7224 10 1 
188 1.22314 9.98704 -0.0189318 -0.0145358 9.98707 32.7591 10 1 
190 1.22312 9.9862 -0.0192091 -0.0147685 9.98623 32.7227 10 1 
192 1.22313 9.98436 -0.0192879 -0.0148329 9.98439 32.7515 10 1 
194 1.22316 9.97952 -0.0197208 -0.0152136 9.97955 32.8082 10 1 
196 1.22318 9.9763 -0.0199768 -0.0154078 9.97634 32.841 10 1 
198 1.22319 9.97486 -0.0201108 -0.015478 9.97489 32.8626 10 1 
200 1.22325 9.97178 -0.0205351 -0.0158719 9.97182 32.9686 10 1 
202 1.22324 9.97048 -0.020681 -0.016011 9.97051 32.9517 10 1 
204 1.22322 9.96907 -0.0208686 -0.0161306 9.9691 32.918 10 1 
206 1.22333 9.96375 -0.0212781 -0.0164885 9.96379 33.1132 10 1 
208 1.22336 9.96076 -0.0215487 -0.0166375 9.9608 33.1657 10 1 
210 1.22333 9.95763 -0.0217531 -0.0167915 9.95767 33.1152 10 1 
212 1.22342 9.94826 -0.0220264 -0.01711 9.94831 33.2662 10 1 
214 1.2234 9.94287 -0.0221818 -0.0172221 9.94291 33.2346 10 1 
216 1.22343 9.93808 -0.0225315 -0.0174682 9.93812 33.2852 10 1 
218 1.22353 9.93395 -0.0229316 -0.0177852 9.934 33.4616 10 1 
220 1.22356 9.93538 -0.023112 -0.0179826 9.93542 33.5303 10 1 
222 1.22363 9.92934 -0.0233373 -0.0181368 9.92939 33.6425 10 1 
224 1.22363 9.91901 -0.0236629 -0.0182873 9.91906 33.6506 10 1 
224 1.22363 9.91901 -0.0236629 -0.0182873 9.91906 33.6506 10 1 
226 1.2237 9.90783 -0.0239685 -0.0185557 9.90788 33.7817 10 1 
228 1.22376 9.89438 -0.0242589 -0.0188882 9.89443 33.877 10 1 
230 1.2238 9.88556 -0.0245992 -0.0191957 9.88561 33.9586 10 1 
232 1.22386 9.88431 -0.0248602 -0.0193448 9.88436 34.0645 10 1 
234 1.22398 9.87645 -0.025076 -0.0194544 9.87651 34.2846 10 1 
236 1.22411 9.86199 -0.0253348 -0.0196986 9.86204 34.518 10 1 
238 1.22406 9.85184 -0.0256541 -0.0199928 9.85189 34.4249 10 1 
240 1.22426 9.83074 -0.0262102 -0.0204964 9.8308 34.7874 10 1 
242 1.22433 9.81675 -0.0264733 -0.0206905 9.81681 34.9145 10 1 
244 1.22433 9.80791 -0.0266057 -0.0207531 9.80797 34.917 10 1 
246 1.22463 9.78707 -0.0269335 -0.0210259 9.78714 35.465 10 1 
248 1.22473 9.76801 -0.0270708 -0.0211179 9.76808 35.6347 10 1 
250 1.2248 9.74437 -0.0275539 -0.0215555 9.74444 35.7579 10 1 
252 1.22495 9.72227 -0.0280599 -0.0219803 9.72234 36.0316 10 1 
254 1.2252 9.69718 -0.0281307 -0.0219639 9.69725 36.4836 10 1 
256 1.22537 9.66849 -0.02838 -0.0221963 9.66856 36.7917 10 1 
256 1.22537 9.66849 -0.02838 -0.0221963 9.66856 36.7917 11 1 
258 1.22551 9.63761 -0.0287649 -0.0225436 9.63769 37.0488 11 1 
260 1.2259 9.60024 -0.0291375 -0.0228541 9.60032 37.7478 11 1 
262 1.22612 9.55821 -0.0295337 -0.0231868 9.5583 38.1533 11 1 
264 1.2262 9.51759 -0.0296738 -0.0232529 9.51768 38.2881 11 1 
266 1.22669 9.46798 -0.0298439 -0.0234018 9.46807 39.185 11 1 
268 1.22727 9.40206 -0.0302327 -0.0237479 9.40216 40.2306 11 1 
270 1.22733 9.34865 -0.0305572 -0.0239958 9.34876 40.3298 11 1 
272 1.22788 9.27161 -0.0307341 -0.0241396 9.27173 41.3222 11 1 
274 1.22866 9.17961 -0.0309634 -0.0243622 9.17973 42.734 11 1 
276 1.22888 9.10025 -0.0311775 -0.0245205 9.10037 43.1303 11 1 
278 1.22964 8.99054 -0.0314307 -0.024739 8.99067 44.5071 11 1 
280 1.2307 8.87544 -0.031578 -0.024863 8.87563 46.419 11 1 
282 1.23145 8.73406 -0.0315839 -0.0248586 8.73452 47.7774 11 1 
284 1.23219 8.53993 -0.0314857 -0.0248373 8.54059 49.1087 11 1 
286 1.23311 8.3451 -0.0314701 -0.0248628 8.34554 50.7827 11 1 
288 1.23445 8.1588 -0.0314596 -0.0248626 8.159 53.1851 11 1 
288 1.23445 8.1588 -0.0314596 -0.0248626 8.159 53.1851 11 1 
290 1.23593 7.96322 -0.0314457 -0.024867 7.96353 55.8661 11 1 
292 1.23718 7.72206 -0.0313689 -0.0248535 7.72281 58.118 11 1 
294 1.2383 7.43056 -0.0310254 -0.0246022 7.43183 60.1524 11 1 
296 1.23977 7.12712 -0.0306213 -0.0242964 7.12813 62.8015 11 1 
298 1.23183 6.74411 -0.0297258 -0.0236483 6.7448 48.4683 11 1 
300 1.21749 6.54921 -0.0292785 -0.0233442 6.55003 22.5681 11 1 
302 1.21253 6.4477 -0.0294729 -0.0235233 6.44828 13.6044 11 1 
304 1.21361 6.17958 -0.029198 -0.0233432 6.18021 15.5567 11 1 
306 1.21479 5.91141 -0.0287995 -0.0230863 5.91229 17.6767 11 1 
308 1.2158 5.66324 -0.028418 -0.0228239 5.66411 19.5062 11 1 
310 1.21647 5.44497 -0.0280282 -0.0225539 5.44577 20.7089 11 1 
312 1.21718 5.22996 -0.027734 -0.0223846 5.23055 21.9979 11 1 
314 1.21785 5.05246 -0.0276558 -0.0223679 5.05293 23.2069 11 1 
316 1.21839 4.90325 -0.0276267 -0.0224018 4.90365 24.1779 11 1 
318 1.21887 4.74351 -0.0275342 -0.022401 4.7439 25.0596 11 1 
320 1.21925 4.6079 -0.0273805 -0.0223163 4.60826 25.7353 11 1 
320 1.21925 4.6079 -0.0273805 -0.0223163 4.60826 25.7353 15 1 
322 1.2196 4.5049 -0.0274337 -0.0224125 4.50516 26.3685 15 1 
324 1.21999 4.40113 -0.0275468 -0.0225801 4.40134 27.0796 15 1 
326 1.2203 4.30104 -0.0275116 -0.0226078 4.30126 27.6415 15 1 
328 1.22053 4.20807 -0.0275244 -0.0226701 4.20833 28.0452 15 1 
330 1.22071 4.12054 -0.0275781 -0.022781 4.12078 28.3819 15 1 
332 1.22099 4.05531 -0.0275821 -0.0228553 4.05552 28.8822 15 1 
334 1.22128 3.98945 -0.0275375 -0.0228896 3.98965 29.4106 15 1 
336 1.22136 3.90317 -0.0275373 -0.0229493 3.90339 29.5564 15 1 
338 1.22146 3.83101 -0.0275756 -0.0230471 3.83126 29.7367 15 1 
340 1.22172 3.77948 -0.0276055 -0.0231518 3.77972 30.1964 15 1 
342 1.22189 3.72556 -0.0274854 -0.0231194 3.72579 30.5162 15 1 
344 1.22198 3.66014 -0.0273343 -0.0230501 3.66038 30.6617 15 1 
346 1.22205 3.58797 -0.0274522 -0.023217 3.58822 30.7988 15 1 
348 1.22219 3.53546 -0.0276927 -0.0234929 3.53572 31.052 15 1 
350 1.22235 3.49656 -0.0276515 -0.0235178 3.49683 31.3375 15 1 
352 1.22241 3.43971 -0.0275836 -0.0235172 3.43997 31.4553 15 1 
354 1.22249 3.38002 -0.0276701 -0.0236714 3.38027 31.5843 15 1 
356 1.22259 3.33119 -0.0279955 -0.0240302 3.33146 31.7718 15 1 
358 1.22266 3.28441 -0.0281967 -0.0242594 3.2847 31.8974 15 1 
360 1.22274 3.24368 -0.0282949 -0.0243986 3.24396 32.051 15 1 
362 1.22283 3.20081 -0.0285692 -0.024718 3.20108 32.2084 15 1 
364 1.22289 3.1507 -0.0289387 -0.0251081 3.15098 32.31 15 1 
366 1.22293 3.10594 -0.0291952 -0.0253773 3.10624 32.3855 15 1 
368 1.22299 3.06832 -0.0294064 -0.0256151 3.06861 32.4983 15 1 
370 1.22308 3.03462 -0.0297449 -0.0259576 3.03491 32.6616 15 1 
372 1.22313 2.99738 -0.0301999 -0.0263864 2.99768 32.75 15 1 
374 1.22316 2.955 -0.0306664 -0.0268501 2.95531 32.7964 15 1 
376 1.22321 2.91871 -0.030985 -0.0271931 2.91902 32.8972 15 1 
378 1.22327 2.88757 -0.0314003 -0.0275957 2.88789 32.996 15 1 
380 1.22332 2.85822 -0.0320007 -0.0281663 2.85855 33.0921 15 1 
382 1.22337 2.8287 -0.0326554 -0.0287842 2.82905 33.1735 15 1 
384 1.2234 2.79299 -0.03316 -0.0292548 2.79336 33.2295 15 1 
384 1.2234 2.79299 -0.03316 -0.0292548 2.79336 33.2295 16 1 
386 1.22344 2.76004 -0.0334783 -0.0295649 2.76041 33.3045 16 1 
388 1.22348 2.73526 -0.0337546 -0.0298395 2.73563 33.3792 16 1 
390 1.22353 2.70966 -0.0342662 -0.0302712 2.71006 33.4628 16 1 
392 1.22357 2.68124 -0.0346648 -0.0305948 2.68165 33.5452 16 1 
394 1.2236 2.65075 -0.0348284 -0.0307371 2.65117 33.5937 16 1 
396 1.22363 2.62094 -0.0349826 -0.0308493 2.62137 33.6506 16 1 
398 1.22367 2.59592 -0.0351403 -0.0309296 2.59635 33.7262 16 1 
400 1.22372 2.57209 -0.0352037 -0.0309267 2.57253 33.809 16 1 
402 1.22375 2.54543 -0.0353937 -0.0310082 2.54588 33.8761 16 1 
404 1.22378 2.51566 -0.035573 -0.0310533 2.51612 33.9173 16 1 
406 1.22382 2.48734 -0.0355757 -0.0309598 2.4878 33.9886 16 1 
408 1.22386 2.46366 -0.0355631 -0.0308459 2.46412 34.0692 16 1 
410 1.22389 2.43929 -0.0356936 -0.0308172 2.43976 34.128 16 1 
412 1.22393 2.41284 -0.0359752 -0.0309073 2.41332 34.1984 16 1 
414 1.22397 2.38682 -0.0362762 -0.0310098 2.38732 34.2668 16 1 
416 1.22401 2.36084 -0.0365565 -0.0310771 2.36135 34.3284 16 1 
416 1.22401 2.36084 -0.0365565 -0.0310771 2.36135 34.3284 16 1 
418 1.22404 2.33737 -0.0368937 -0.031189 2.33788 34.3971 16 1 
420 1.22408 2.31631 -0.0373741 -0.0314292 2.31684 34.4707 16 1 
422 1.22413 2.29477 -0.0380968 -0.0318668 2.29532 34.5515 16 1 
424 1.22417 2.27355 -0.0390521 -0.032495 2.27414 34.6195 16 1 
426 1.2242 2.25367 -0.0400362 -0.0331751 2.25429 34.6835 16 1 
428 1.22425 2.23654 -0.0410638 -0.0339248 2.2372 34.7643 16 1 
430 1.22429 2.22271 -0.0423582 -0.0349108 2.2234 34.8457 16 1 
432 1.22433 2.20981 -0.0439085 -0.036128 2.21055 34.9221 16 1 
434 1.22438 2.19755 -0.0455886 -0.0374819 2.19836 34.9962 16 1 
436 1.22442 2.18792 -0.047421 -0.038992 2.18879 35.0752 16 1 
438 1.22447 2.18176 -0.0493529 -0.0406187 2.1827 35.1584 16 1 
440 1.22451 2.17824 -0.0513412 -0.0423153 2.17926 35.2349 16 1 
442 1.22455 2.1765 -0.0534385 -0.0441253 2.17761 35.3178 16 1 
444 1.2246 2.17684 -0.0556558 -0.0460598 2.17804 35.4027 16 1 
446 1.22464 2.17953 -0.0579265 -0.0480391 2.18083 35.4783 16 1 
448 1.22469 2.18497 -0.0601208 -0.0499598 2.18637 35.5596 16 1 
448 1.22469 2.18497 -0.0601208 -0.0499598 2.18637 35.5596 17 1 
450 1.22473 2.1933 -0.0622692 -0.0518559 2.1948 35.6434 17 1 
452 1.22478 2.20347 -0.0644369 -0.0537738 2.20507 35.7237 17 1 
454 1.22482 2.21529 -0.0666184 -0.055696 2.21699 35.8034 17 1 
456 1.22487 2.22936 -0.0687378 -0.0575637 2.23117 35.8816 17 1 
458 1.22491 2.2457 -0.0707369 -0.0593358 2.24761 35.9606 17 1 
460 1.22495 2.2641 -0.0726438 -0.0610317 2.2661 36.0373 17 1 
462 1.22499 2.28423 -0.0745201 -0.0626962 2.28632 36.1137 17 1 
464 1.22504 2.30569 -0.07633 -0.0643089 2.30787 36.1901 17 1 
466 1.22508 2.32845 -0.077986 -0.0657958 2.33071 36.2607 17 1 
468 1.22511 2.35271 -0.0795066 -0.0671631 2.35504 36.3303 17 1 
470 1.22515 2.37829 -0.0809182 -0.0684374 2.38068 36.3986 17 1 
472 1.22519 2.4048 -0.0822215 -0.0696226 2.40724 36.4649 17 1 
474 1.22522 2.43214 -0.0834201 -0.070733 2.43463 36.5311 17 1 
476 1.22526 2.46024 -0.0845205 -0.0717626 2.46277 36.5903 17 1 
478 1.22529 2.48894 -0.0854948 -0.0726694 2.4915 36.6468 17 1 
480 1.22532 2.51824 -0.0863173 -0.0734509 2.52083 36.7029 17 1 
480 1.22532 2.51824 -0.0863173 -0.0734509 2.52083 36.7029 17 1 
482 1.22535 2.54795 -0.0869871 -0.0741146 2.55055 36.7544 17 1 
484 1.22538 2.57762 -0.0875374 -0.0746712 2.58022 36.8043 17 1 
486 1.2254 2.60718 -0.0880027 -0.0751519 2.60978 36.8501 17 1 
488 1.22542 2.6366 -0.0883967 -0.0755946 2.63919 36.8908 17 1 
490 1.22545 2.66574 -0.0886605 -0.0759535 2.66833 36.9288 17 1 
492 1.22546 2.6944 -0.0888039 -0.0762062 2.69697 36.9634 17 1 
494 1.22548 2.72227 -0.0888264 -0.0763561 2.72482 36.9966 17 1 
496 1.2255 2.74912 -0.0887021 -0.0764083 2.75164 37.0249 17 1 
498 1.22551 2.77483 -0.0883896 -0.0763084 2.77731 37.0468 17 1 
500 1.22552 2.79928 -0.0878969 -0.0760448 2.80172 37.0663 17 1 
502 1.22553 2.82225 -0.0871975 -0.0756176 2.82463 37.0831 17 1 
504 1.22554 2.84313 -0.0862652 -0.0749992 2.84544 37.0955 17 1 
506 1.22554 2.86159 -0.0850811 -0.0741523 2.86383 37.1021 17 1 
508 1.22554 2.8778 -0.0836317 -0.0730776 2.87995 37.1049 17 1 
510 1.22554 2.8912 -0.0819241 -0.0717808 2.89326 37.1049 17 1 
512 1.22554 2.90112 -0.0799366 -0.0702178 2.90308 37.0988 17 1 
512 1.22554 2.90112 -0.0799366 -0.0702178 2.90308 37.0988 25 1 
514 1.22553 2.90758 -0.077648 -0.0683793 2.90942 37.0888 25 1 
516 1.22553 2.91025 -0.0750924 -0.0663016 2.91198 37.0748 25 1 
518 1.22551 2.90871 -0.0723223 -0.0640092 2.91031 37.0541 25 1 
520 1.2255 2.90304 -0.0693917 -0.0615506 2.90452 37.0298 25 1 
522 1.22549 2.89328 -0.0664003 -0.0590167 2.89464 37.0021 25 1 
524 1.22547 2.87949 -0.063469 -0.0564995 2.88075 36.9699 25 1 
526 1.22545 2.8621 -0.0607154 -0.0540928 2.86327 36.9339 25 1 
528 1.22543 2.84182 -0.0582706 -0.0519049 2.84291 36.8938 25 1 
530 1.2254 2.81939 -0.0562265 -0.0500116 2.8204 36.8507 25 1 
532 1.22538 2.79554 -0.0546943 -0.0484941 2.79651 36.8056 25 1 
534 1.22535 2.77136 -0.05369 -0.0473693 2.7723 36.7607 25 1 
536 1.22533 2.74774 -0.0532955 -0.0467102 2.74867 36.7147 25 1 
538 1.2253 2.72529 -0.0534948 -0.0465259 2.72622 36.6659 25 1 
540 1.22527 2.70492 -0.0542236 -0.0467777 2.70588 36.6194 25 1 
542 1.22525 2.68729 -0.0554457 -0.0474359 2.68829 36.576 25 1 
544 1.22523 2.67264 -0.0570485 -0.0484189 2.67369 36.5338 25 1 
544 1.22523 2.67264 -0.0570485 -0.0484189 2.67369 36.5338 25 1 
546 1.2252 2.66129 -0.0589568 -0.0496525 2.66241 36.4948 25 1 
548 1.22518 2.65339 -0.0610657 -0.051059 2.65459 36.4581 25 1 
550 1.22517 2.64897 -0.0633345 -0.0525983 2.65026 36.424 25 1 
552 1.22515 2.64802 -0.0656841 -0.0542159 2.64939 36.3939 25 1 
554 1.22513 2.65037 -0.0680476 -0.0558575 2.65183 36.368 25 1 
556 1.22512 2.65585 -0.0704247 -0.0575152 2.65741 36.3462 25 1 
558 1.22511 2.66428 -0.0727596 -0.0591608 2.66593 36.3265 25 1 
560 1.2251 2.67553 -0.0750836 -0.0608035 2.67728 36.31 25 1 
562 1.2251 2.6895 -0.0773174 -0.0623863 2.69134 36.299 25 1 
564 1.22509 2.7059 -0.0795049 -0.0639449 2.70783 36.2912 25 1 
566 1.22509 2.72457 -0.0815989 -0.0654502 2.72658 36.2855 25 1 
568 1.22509 2.74532 -0.083609 -0.0668947 2.74742 36.2828 25 1 
570 1.22509 2.76805 -0.0855251 -0.0682778 2.77022 36.2824 25 1 
572 1.22509 2.79263 -0.087319 -0.0695905 2.79487 36.2855 25 1 
574 1.22509 2.81882 -0.0890306 -0.0708452 2.82112 36.2915 25 1 
576 1.2251 2.84641 -0.0905947 -0.0720009 2.84877 36.2998 25 1 
576 1.2251 2.84641 -0.0905947 -0.0720009 2.84877 36.2998 26 1 
578 1.2251 2.87532 -0.0920705 -0.073104 2.87774 36.3099 26 1 
580 1.22511 2.90546 -0.0934092 -0.0741212 2.90792 36.3207 26 1 
582 1.22512 2.93663 -0.0946513 -0.07507 2.93912 36.3348 26 1 
584 1.22512 2.96863 -0.0957755 -0.0759471 2.97117 36.3505 26 1 
586 1.22513 3.00139 -0.0967663 -0.07675 3.00395 36.367 26 1 
588 1.22514 3.0348 -0.0976802 -0.0774935 3.03738 36.385 26 1 
590 1.22515 3.0687 -0.0984403 -0.0781404 3.07129 36.4027 26 1 
592 1.22516 3.10302 -0.0991318 -0.0787521 3.10562 36.4213 26 1 
594 1.22518 3.13767 -0.0996778 -0.0792684 3.14027 36.4414 26 1 
596 1.22519 3.1724 -0.10013 -0.0797184 3.175 36.4622 26 1 
598 1.2252 3.20727 -0.100456 -0.0800887 3.20986 36.4821 26 1 
600 1.22521 3.24216 -0.100651 -0.0803793 3.24474 36.5022 26 1 
602 1.22522 3.27696 -0.100775 -0.0806146 3.27951 36.5215 26 1 
604 1.22523 3.31155 -0.100748 -0.0807513 3.31408 36.5399 26 1 
606 1.22524 3.34584 -0.100637 -0.0808342 3.34834 36.5579 26 1 
608 1.22525 3.37983 -0.100399 -0.0808303 3.38231 36.5746 26 1 
608 1.22525 3.37983 -0.100399 -0.0808303 3.38231 36.5746 26 1 
610 1.22526 3.41347 -0.100091 -0.0807756 3.41591 36.5901 26 1 
612 1.22527 3.44665 -0.0996848 -0.0806617 3.44905 36.6037 26 1 
614 1.22527 3.4793 -0.099195 -0.0804887 3.48166 36.6164 26 1 
616 1.22528 3.51143 -0.0986549 -0.080281 3.51374 36.6266 26 1 
618 1.22528 3.54296 -0.0980123 -0.080006 3.54523 36.6356 26 1 
620 1.22529 3.57394 -0.0973572 -0.0797192 3.57617 36.6434 26 1 
622 1.22529 3.60433 -0.0966121 -0.0793701 3.60651 36.648 26 1 
624 1.22529 3.63404 -0.0958384 -0.078994 3.63617 36.6513 26 1 
626 1.22529 3.66308 -0.0950105 -0.0785806 3.66517 36.6529 26 1 
628 1.22529 3.69152 -0.0941258 -0.0781205 3.69356 36.6518 26 1 
630 1.22529 3.71935 -0.0931951 -0.077619 3.72134 36.6504 26 1 
632 1.22529 3.74653 -0.092227 -0.0770819 3.74847 36.6492 26 1 
634 1.22529 3.77307 -0.0912168 -0.0765088 3.77495 36.6457 26 1 
636 1.22529 3.79898 -0.0901365 -0.075873 3.80081 36.6401 26 1 
638 1.22528 3.82421 -0.0890396 -0.0752069 3.82599 36.6355 26 1 
640 1.22528 3.8489 -0.0878782 -0.0744935 3.85063 36.6295 26 1 
642 1.22528 3.87307 -0.0866763 -0.0737273 3.87474 36.6219 26 1 
644 1.22527 3.89656 -0.0854596 -0.0729327 3.89819 36.6165 26 1 
646 1.22527 3.91948 -0.0841883 -0.0720903 3.92105 36.6105 26 1 
648 1.22526 3.94198 -0.0828894 -0.0711996 3.9435 36.6015 26 1 
650 1.22526 3.96391 -0.0815508 -0.0702708 3.96538 36.5949 26 1 
652 1.22526 3.98543 -0.0802047 -0.0693273 3.98684 36.5879 26 1 
654 1.22525 4.00652 -0.078801 -0.0683173 4.00788 36.5785 26 1 
656 1.22525 4.02712 -0.0773817 -0.0672833 4.02843 36.5707 26 1 
658 1.22524 4.04747 -0.0759955 -0.0662534 4.04873 36.5622 26 1 
660 1.22524 4.06743 -0.0744718 -0.0650937 4.06864 36.5524 26 1 
662 1.22523 4.08717 -0.0730664 -0.0640102 4.08832 36.5395 26 1 
664 1.22522 4.10659 -0.0715353 -0.062807 4.1077 36.5273 26 1 
666 1.22522 4.12577 -0.0700075 -0.0615923 4.12682 36.5152 26 1 
668 1.22521 4.14482 -0.0685037 -0.0603723 4.14583 36.5002 26 1 
670 1.2252 4.16373 -0.0669025 -0.0590537 4.1647 36.4855 26 1 
672 1.22519 4.18248 -0.0653453 -0.0577528 4.18339 36.4706 26 1 
672 1.22519 4.18248 -0.0653453 -0.0577528 4.18339 36.4706 27 1 
674 1.22518 4.20109 -0.0637276 -0.056384 4.20196 36.4516 27 1 
676 1.22517 4.21966 -0.0620852 -0.0549827 4.22048 36.4315 27 1 
678 1.22516 4.23808 -0.0604116 -0.0535287 4.23885 36.4144 27 1 
680 1.22515 4.25658 -0.0587256 -0.052068 4.25731 36.3954 27 1 
682 1.22514 4.27496 -0.0569788 -0.05052 4.27564 36.3749 27 1 
684 1.22513 4.29339 -0.0552544 -0.0489737 4.29403 36.3543 27 1 
686 1.22512 4.31168 -0.0534694 -0.0473618 4.31228 36.3352 27 1 
688 1.2251 4.33005 -0.0516485 -0.0457053 4.33061 36.314 27 1 
690 1.22509 4.34843 -0.0498263 -0.0440302 4.34895 36.2939 27 1 
692 1.22508 4.36687 -0.0479258 -0.0422784 4.36734 36.2756 27 1 
694 1.22507 4.38523 -0.0460495 -0.0405383 4.38566 36.258 27 1 
696 1.22506 4.40366 -0.044129 -0.0387356 4.40405 36.2367 27 1 
698 1.22505 4.4222 -0.0421401 -0.0368837 4.42256 36.2176 27 1 
700 1.22504 4.44063 -0.040203 -0.0350466 4.44096 36.2044 27 1 
702 1.22503 4.45924 -0.0381691 -0.0331184 4.45953 36.1849 27 1 
704 1.22502 4.47783 -0.0361234 -0.031181 4.47809 36.1665 27 1 
704 1.22502 4.47783 -0.0361234 -0.031181 4.47809 36.1665 31 1 
706 1.22502 4.49645 -0.0340955 -0.0292387 4.49667 36.154 31 1 
708 1.22501 4.51512 -0.0319686 -0.0272267 4.51532 36.1398 31 1 
710 1.225 4.53392 -0.0299329 -0.025247 4.53409 36.1228 31 1 
712 1.22499 4.55282 -0.0277211 -0.0231462 4.55296 36.1101 31 1 
714 1.22499 4.57145 -0.0256784 -0.0211533 4.57158 36.1037 31 1 
716 1.22498 4.59032 -0.0234485 -0.0190224 4.59042 36.0862 31 1 
718 1.22497 4.60921 -0.0212499 -0.016921 4.6093 36.0741 31 1 
720 1.22497 4.62808 -0.0191102 -0.0148451 4.62815 36.0741 31 1 
722 1.22497 4.64705 -0.0168296 -0.0126752 4.64711 36.066 31 1 
724 1.22496 4.66611 -0.014657 -0.0105551 4.66615 36.054 31 1 
726 1.22496 4.68498 -0.012362 -0.00833587 4.68501 36.0538 31 1 
728 1.22496 4.70366 -0.0101647 -0.00624502 4.70368 36.0551 31 1 
730 1.22495 4.72273 -0.00786424 -0.00401976 4.72274 36.0422 31 1 
732 1.22495 4.74182 -0.00552049 -0.00176305 4.74183 36.0424 31 1 
734 1.22496 4.76061 -0.00341909 0.000266072 4.76061 36.054 31 1 
736 1.22495 4.77961 -0.000891111 0.00263741 4.77962 36.0431 31 1 
738 1.22495 4.79872 0.00123709 0.00477576 4.79873 36.0328 31 1 
740 1.22496 4.81738 0.00361549 0.00703418 4.81739 36.0438 31 1 
742 1.22495 4.83628 0.00605779 0.00934594 4.83629 36.0395 31 1 
744 1.22494 4.85538 0.00813101 0.0113881 4.85541 36.0201 31 1 
746 1.22494 4.8745 0.010636 0.013756 4.87454 36.0216 31 1 
748 1.22495 4.89308 0.0129891 0.0160698 4.89313 36.0268 31 1 
750 1.22493 4.91216 0.0153842 0.0183458 4.91223 35.996 31 1 
752 1.22492 4.93169 0.0176608 0.020533 4.93177 35.9772 31 1 
752 1.22492 4.93169 0.0176608 0.020533 4.93177 35.9772 31 1 
754 1.22493 4.94983 0.0199166 0.0227721 4.94993 35.9931 31 1 
756 1.22491 4.9691 0.0226001 0.0252622 4.96922 35.9577 31 1 
758 1.22489 4.98862 0.0246967 0.0273065 4.98876 35.9195 31 1 
760 1.22489 5.00693 0.0272081 0.0297985 5.0071 35.9349 31 1 
762 1.22488 5.02601 0.0297187 0.0322306 5.02621 35.9116 31 1 
764 1.22485 5.04612 0.0318398 0.0342423 5.04634 35.8556 31 1 
766 1.22486 5.06404 0.0344451 0.0368586 5.0643 35.8672 31 1 
768 1.22484 5.0838 0.0370502 0.039399 5.08409 35.8446 31 1 
770 1.22482 5.10349 0.0387327 0.0410914 5.10381 35.7941 31 1 
772 1.22481 5.12274 0.0414539 0.0437924 5.1231 35.7789 31 1 
774 1.2248 5.14243 0.0436726 0.0462039 5.14283 35.7696 31 1 
776 1.22477 5.16383 0.0458904 0.0483957 5.16427 35.7129 31 1 
778 1.22475 5.18554 0.0480987 0.0509389 5.18602 35.6784 31 1 
780 1.22475 5.20676 0.0508718 0.0538801 5.2073 35.6743 31 1 
782 1.22471 5.22888 0.0527183 0.0559779 5.22945 35.6098 31 1 
784 1.22466 5.25233 0.053122 0.0571435 5.25292 35.5151 31 1 
786 1.22463 5.28044 0.0561443 0.0606452 5.2811 35.4536 31 1 
788 1.22462 5.30684 0.0582256 0.0634288 5.30755 35.4425 31 1 
790 1.22452 5.34085 0.0590308 0.06538 5.34159 35.2551 31 1 
792 1.22445 5.37268 0.058322 0.0667396 5.37343 35.1315 31 1 
794 1.22438 5.4122 0.0600853 0.0695625 5.413 35.0027 31 1 
796 1.22426 5.45677 0.0599107 0.072586 5.45762 34.7893 31 1 
798 1.22408 5.50985 0.0534419 0.0721013 5.51064 34.4622 31 1 
800 1.22392 5.54723 0.0495215 0.071153 5.54797 34.1755 31 1 
