21.7355;r ;Density                 ;Velocity u              ;Velocity v              ;Velocity w              ;|Velocity|              ;Pressure                ;Distribution            ;Levels                  ;
0 1.20366 9.99914 -4.77064e-05 -4.39119e-07 9.99914 -2.42065 1 1 
2 1.20366 9.99846 -0.000114459 -0.000100913 9.99846 -2.41506 1 1 
4 1.20366 9.99768 -0.000232154 -0.000252893 9.99768 -2.4263 1 1 
6 1.20366 9.99801 -0.000330009 -0.000380306 9.99801 -2.41541 1 1 
8 1.20365 9.99883 -0.000363253 -0.000445224 9.99883 -2.43014 1 1 
10 1.20364 9.99873 -0.000427878 -0.000519011 9.99873 -2.46119 1 1 
12 1.20364 9.99841 -0.000500614 -0.000626347 9.99841 -2.44889 1 1 
14 1.20366 9.99912 -0.00060493 -0.000751235 9.99912 -2.42369 1 1 
16 1.2037 9.99893 -0.000655681 -0.000828269 9.99893 -2.35183 1 1 
18 1.20368 9.99986 -0.000738826 -0.000927427 9.99986 -2.38553 1 1 
20 1.20364 10.0013 -0.000920123 -0.00111807 10.0013 -2.45081 1 1 
22 1.20369 10.0005 -0.00107659 -0.00130671 10.0005 -2.37482 1 1 
24 1.20371 10.0004 -0.00111622 -0.00137202 10.0004 -2.33722 1 1 
26 1.20369 9.99959 -0.00111329 -0.00138642 9.99959 -2.3622 1 1 
28 1.20367 9.99962 -0.00127322 -0.00156261 9.99962 -2.40507 1 1 
30 1.20366 10.0001 -0.00133071 -0.00166231 10.0001 -2.42672 1 1 
32 1.20367 9.99889 -0.00136848 -0.00172671 9.99889 -2.40942 1 1 
32 1.20367 9.99889 -0.00136848 -0.00172671 9.99889 -2.40942 1 1 
34 1.20367 9.99895 -0.00150611 -0.00188065 9.99895 -2.40885 1 1 
36 1.2037 9.99809 -0.00169575 -0.00209135 9.99809 -2.35333 1 1 
38 1.20371 9.99777 -0.00167431 -0.00209505 9.99777 -2.33128 1 1 
40 1.20371 9.99863 -0.00177215 -0.0022271 9.99863 -2.33574 1 1 
42 1.2037 10.0001 -0.00196463 -0.00245979 10.0001 -2.35521 1 1 
44 1.20369 9.99993 -0.00192504 -0.00243754 9.99993 -2.36337 1 1 
46 1.20372 9.99788 -0.00194776 -0.0024896 9.99788 -2.31637 1 1 
48 1.20371 9.99727 -0.00208664 -0.002673 9.99727 -2.33331 1 1 
50 1.2037 9.99804 -0.00205392 -0.00263761 9.99804 -2.35602 1 1 
52 1.20369 9.99835 -0.0020589 -0.00266087 9.99835 -2.37378 1 1 
54 1.20368 9.99796 -0.00230218 -0.00292095 9.99796 -2.38705 1 1 
56 1.20371 9.99821 -0.00242764 -0.00307829 9.99821 -2.32619 1 1 
58 1.20374 9.99861 -0.0024344 -0.00311988 9.99861 -2.2837 1 1 
60 1.20374 9.99888 -0.00253765 -0.00323959 9.99888 -2.26848 1 1 
62 1.20377 9.99787 -0.00271721 -0.00344803 9.99787 -2.22913 1 1 
64 1.20374 9.9979 -0.0026468 -0.0033902 9.9979 -2.28474 1 1 
64 1.20374 9.9979 -0.0026468 -0.0033902 9.9979 -2.28474 2 1 
66 1.20371 9.99697 -0.00260755 -0.00338891 9.99697 -2.33206 2 1 
68 1.20369 9.99747 -0.00286121 -0.00363205 9.99747 -2.37254 2 1 
70 1.20371 9.99802 -0.00296404 -0.0037603 9.99802 -2.33044 2 1 
72 1.20375 9.99648 -0.00280942 -0.00364361 9.99649 -2.26136 2 1 
74 1.20374 9.99632 -0.00293163 -0.00376596 9.99632 -2.26918 2 1 
76 1.20377 9.99668 -0.00323709 -0.0040913 9.99668 -2.22511 2 1 
78 1.20375 9.99846 -0.00322064 -0.00408351 9.99846 -2.2638 2 1 
80 1.20374 9.99906 -0.00317884 -0.00406663 9.99906 -2.28243 2 1 
82 1.20376 9.99805 -0.00346211 -0.00437772 9.99805 -2.24675 2 1 
84 1.20376 9.99658 -0.00364209 -0.00456291 9.99658 -2.24104 2 1 
86 1.20375 9.99655 -0.0034563 -0.00439579 9.99656 -2.26033 2 1 
88 1.20373 9.99798 -0.00344652 -0.00440836 9.99798 -2.28684 2 1 
90 1.20375 9.99874 -0.00369471 -0.00466558 9.99874 -2.26116 2 1 
92 1.20376 9.99886 -0.00375212 -0.00474568 9.99886 -2.23895 2 1 
94 1.20378 9.99728 -0.00333566 -0.00437392 9.99728 -2.2009 2 1 
96 1.20378 9.99617 -0.00310062 -0.00417683 9.99617 -2.19855 2 1 
96 1.20378 9.99617 -0.00310062 -0.00417683 9.99617 -2.19855 2 1 
98 1.20375 9.99817 -0.00352642 -0.00457642 9.99817 -2.26359 2 1 
100 1.20374 9.99975 -0.00370102 -0.00475189 9.99975 -2.28113 2 1 
102 1.20374 9.9994 -0.00345547 -0.0045363 9.9994 -2.27762 2 1 
104 1.20377 9.99831 -0.00315586 -0.00430211 9.99832 -2.23041 2 1 
106 1.2038 9.99712 -0.00305854 -0.00425357 9.99712 -2.1663 2 1 
108 1.20381 9.99549 -0.0029684 -0.00415633 9.99549 -2.15085 2 1 
110 1.20376 9.99655 -0.00249899 -0.00366785 9.99655 -2.23892 2 1 
112 1.20374 9.9971 -0.00226286 -0.0034363 9.9971 -2.27649 2 1 
114 1.20375 9.99691 -0.00274622 -0.00391741 9.99691 -2.25424 2 1 
116 1.20375 9.99891 -0.0036955 -0.00486142 9.99891 -2.24972 2 1 
118 1.20378 9.99747 -0.00423882 -0.0054145 9.99747 -2.19694 2 1 
120 1.20379 9.99535 -0.0040179 -0.00520061 9.99536 -2.18369 2 1 
122 1.20377 9.99554 -0.00330398 -0.00449178 9.99554 -2.21856 2 1 
124 1.20376 9.99456 -0.00261422 -0.00382756 9.99456 -2.2404 2 1 
126 1.20377 9.99459 -0.00231028 -0.00351907 9.99459 -2.21777 2 1 
128 1.20376 9.99745 -0.00222489 -0.00342205 9.99745 -2.23564 2 1 
128 1.20376 9.99745 -0.00222489 -0.00342205 9.99745 -2.23564 10 1 
130 1.20379 9.99674 -0.0022439 -0.0034872 9.99674 -2.18477 10 1 
132 1.20378 9.99689 -0.00223843 -0.00346496 9.99689 -2.19821 10 1 
134 1.20376 9.99637 -0.00225809 -0.00348276 9.99637 -2.23641 10 1 
136 1.20377 9.99405 -0.00227536 -0.00349792 9.99405 -2.21808 10 1 
138 1.20374 9.99519 -0.00229092 -0.00352235 9.99519 -2.27595 10 1 
140 1.20376 9.99535 -0.00230016 -0.00355724 9.99535 -2.24655 10 1 
142 1.20379 9.99513 -0.00232687 -0.00355273 9.99513 -2.19419 10 1 
144 1.20382 9.99531 -0.00231747 -0.00355526 9.99531 -2.13636 10 1 
146 1.20384 9.99468 -0.00231599 -0.00355805 9.99468 -2.09692 10 1 
148 1.20378 9.99246 -0.00231747 -0.00356587 9.99246 -2.20985 10 1 
150 1.20371 9.99195 -0.00228523 -0.00355793 9.99195 -2.32686 10 1 
152 1.20374 9.99149 -0.00228859 -0.00356032 9.99149 -2.27312 10 1 
154 1.20378 9.99078 -0.00227055 -0.00353283 9.99078 -2.20429 10 1 
156 1.20381 9.99207 -0.00230533 -0.00358545 9.99207 -2.14642 10 1 
158 1.20384 9.99118 -0.00231569 -0.00360133 9.99118 -2.10192 10 1 
160 1.20381 9.98944 -0.00230371 -0.00360049 9.98944 -2.15357 10 1 
160 1.20381 9.98944 -0.00230371 -0.00360049 9.98944 -2.15357 10 1 
162 1.20375 9.99033 -0.00231602 -0.00362674 9.99033 -2.24982 10 1 
164 1.20377 9.98876 -0.00230539 -0.00359719 9.98876 -2.21918 10 1 
166 1.20382 9.98646 -0.0022805 -0.00356253 9.98647 -2.13212 10 1 
168 1.20379 9.98803 -0.00227861 -0.00358971 9.98803 -2.18739 10 1 
170 1.20383 9.9856 -0.00230363 -0.00363224 9.9856 -2.11273 10 1 
172 1.20384 9.98607 -0.00233141 -0.00364345 9.98607 -2.09977 10 1 
174 1.2038 9.98722 -0.00229498 -0.00363112 9.98723 -2.17012 10 1 
176 1.20383 9.98323 -0.00229337 -0.0035968 9.98323 -2.12194 10 1 
178 1.20381 9.98302 -0.00223894 -0.00356785 9.98303 -2.15291 10 1 
180 1.20383 9.98122 -0.00221641 -0.00358927 9.98122 -2.10615 10 1 
182 1.20386 9.97767 -0.00229244 -0.00366403 9.97767 -2.06148 10 1 
184 1.20385 9.97784 -0.00234881 -0.00374093 9.97784 -2.06868 10 1 
186 1.2039 9.97841 -0.00234107 -0.00372428 9.97841 -1.98057 10 1 
188 1.20389 9.97713 -0.0023192 -0.00368271 9.97713 -1.99892 10 1 
190 1.20387 9.97573 -0.00233177 -0.00368441 9.97573 -2.04796 10 1 
192 1.20388 9.97347 -0.00214579 -0.00353343 9.97347 -2.03059 10 1 
194 1.2039 9.96839 -0.00228816 -0.00366971 9.9684 -1.98731 10 1 
196 1.20393 9.96591 -0.00234434 -0.00370066 9.96591 -1.93218 10 1 
198 1.20395 9.96581 -0.00224702 -0.00359211 9.96581 -1.89615 10 1 
200 1.20399 9.96314 -0.00244353 -0.00381783 9.96314 -1.82388 10 1 
202 1.20396 9.9617 -0.00231791 -0.0037488 9.9617 -1.8812 10 1 
204 1.20395 9.96084 -0.00221511 -0.00363138 9.96084 -1.88946 10 1 
206 1.20409 9.95608 -0.00236799 -0.00376632 9.95608 -1.64177 10 1 
208 1.20408 9.95334 -0.00236018 -0.00369545 9.95334 -1.6584 10 1 
210 1.204 9.95108 -0.00230186 -0.00363874 9.95109 -1.80172 10 1 
212 1.20412 9.94249 -0.00239466 -0.00380224 9.9425 -1.58821 10 1 
214 1.20412 9.93769 -0.00238857 -0.00379322 9.93769 -1.58084 10 1 
216 1.2041 9.93218 -0.00242879 -0.00379141 9.93218 -1.62616 10 1 
218 1.20418 9.92729 -0.00249162 -0.00383075 9.9273 -1.4758 10 1 
220 1.20425 9.93111 -0.00242558 -0.00384277 9.93112 -1.3487 10 1 
222 1.20433 9.9276 -0.00240561 -0.00382464 9.9276 -1.21267 10 1 
224 1.2043 9.91768 -0.00242101 -0.0037131 9.91768 -1.266 10 1 
224 1.2043 9.91768 -0.00242101 -0.0037131 9.91768 -1.266 10 1 
226 1.20435 9.90815 -0.00247382 -0.00377052 9.90815 -1.18126 10 1 
228 1.20442 9.8962 -0.00256844 -0.00395332 9.8962 -1.04531 10 1 
230 1.20445 9.88671 -0.00266153 -0.00407232 9.88671 -0.992074 10 1 
232 1.20447 9.88479 -0.00265684 -0.004024 9.88479 -0.96283 10 1 
234 1.2046 9.87861 -0.00260082 -0.00390093 9.87861 -0.725741 10 1 
236 1.20475 9.86674 -0.00257158 -0.00391115 9.86674 -0.457214 10 1 
238 1.20466 9.85853 -0.00259925 -0.00397778 9.85854 -0.611754 10 1 
240 1.20483 9.8389 -0.00291009 -0.00429252 9.83891 -0.299949 10 1 
242 1.20493 9.82659 -0.00299707 -0.00435029 9.82659 -0.134825 10 1 
244 1.20493 9.81975 -0.00285391 -0.00419503 9.81975 -0.11841 10 1 
246 1.2052 9.80014 -0.00288188 -0.00421524 9.80014 0.35886 10 1 
248 1.20526 9.78304 -0.0027683 -0.00408961 9.78304 0.47327 10 1 
250 1.20534 9.76203 -0.00303368 -0.0043592 9.76203 0.608351 10 1 
252 1.20547 9.74208 -0.00331813 -0.004617 9.74208 0.842629 10 1 
254 1.20567 9.719 -0.0031192 -0.00439743 9.71901 1.20995 10 1 
256 1.20584 9.69352 -0.00313479 -0.00442914 9.69353 1.51882 10 1 
256 1.20584 9.69352 -0.00313479 -0.00442914 9.69353 1.51882 11 1 
258 1.206 9.66656 -0.00323623 -0.00454532 9.66657 1.80046 11 1 
260 1.20634 9.6326 -0.00338526 -0.00468391 9.63261 2.41773 11 1 
262 1.20652 9.59412 -0.00359878 -0.0048758 9.59414 2.75065 11 1 
264 1.20661 9.55845 -0.00356762 -0.00480674 9.55846 2.90956 11 1 
266 1.2071 9.5142 -0.00355927 -0.0048243 9.51421 3.78666 11 1 
268 1.2076 9.45162 -0.00373662 -0.00501135 9.45164 4.69803 11 1 
270 1.20758 9.40231 -0.00389851 -0.00511479 9.40234 4.66302 11 1 
272 1.20814 9.33238 -0.00390733 -0.00510792 9.33241 5.66437 11 1 
274 1.20893 9.2481 -0.00397485 -0.00520333 9.24814 7.1027 11 1 
276 1.20908 9.17533 -0.00409956 -0.0052872 9.17536 7.36215 11 1 
278 1.20974 9.07259 -0.00418653 -0.00537313 9.07262 8.56458 11 1 
280 1.21078 8.96723 -0.00426948 -0.00543795 8.96732 10.4426 11 1 
282 1.21155 8.83668 -0.00433531 -0.00546171 8.83702 11.8233 11 1 
284 1.21222 8.6522 -0.00441325 -0.00555579 8.65273 13.0433 11 1 
286 1.21304 8.46653 -0.00452602 -0.00565639 8.46684 14.5301 11 1 
288 1.21431 8.29137 -0.00458416 -0.00569506 8.29145 16.8182 11 1 
288 1.21431 8.29137 -0.00458416 -0.00569506 8.29145 16.8182 11 1 
290 1.21576 8.10996 -0.00462557 -0.00571969 8.11013 19.4431 11 1 
292 1.21696 7.88396 -0.00471419 -0.00580247 7.88453 21.6062 11 1 
294 1.21803 7.60651 -0.0047427 -0.00580618 7.60757 23.5292 11 1 
296 1.21945 7.31721 -0.00478722 -0.00580525 7.31803 26.0994 11 1 
298 1.21158 6.95184 -0.0047949 -0.00579127 6.95234 11.8814 11 1 
300 1.19746 6.7764 -0.00479586 -0.00579314 6.77701 -13.625 11 1 
302 1.1926 6.69271 -0.00492156 -0.00590743 6.69308 -22.3889 11 1 
304 1.19365 6.44157 -0.00500881 -0.00597181 6.44201 -20.5028 11 1 
306 1.19482 6.18916 -0.00503882 -0.00599691 6.18981 -18.3899 11 1 
308 1.19583 5.95749 -0.00512607 -0.00605698 5.95814 -16.5557 11 1 
310 1.19647 5.75702 -0.0051973 -0.00610855 5.75758 -15.4034 11 1 
312 1.19715 5.55877 -0.00522825 -0.00615078 5.55913 -14.1849 11 1 
314 1.19783 5.40047 -0.00528767 -0.00619143 5.40073 -12.9525 11 1 
316 1.19841 5.2716 -0.00538887 -0.00627765 5.27179 -11.8997 11 1 
318 1.19889 5.13035 -0.00549484 -0.00639747 5.13052 -11.0325 11 1 
320 1.19924 5.01512 -0.00556013 -0.00644788 5.01527 -10.4129 11 1 
320 1.19924 5.01512 -0.00556013 -0.00644788 5.01527 -10.4129 15 1 
322 1.19962 4.9334 -0.0057144 -0.00659497 4.93347 -9.71438 15 1 
324 1.20005 4.85 -0.0058342 -0.00673173 4.85003 -8.94253 15 1 
326 1.20031 4.7709 -0.00584486 -0.0067424 4.77094 -8.46465 15 1 
328 1.20051 4.69944 -0.00590578 -0.0067991 4.6995 -8.10409 15 1 
330 1.20076 4.63482 -0.00605689 -0.00695007 4.63488 -7.65815 15 1 
332 1.20108 4.59105 -0.00617724 -0.00707577 4.59108 -7.08375 15 1 
334 1.20133 4.54376 -0.00619376 -0.00710915 4.54378 -6.63104 15 1 
336 1.20139 4.47993 -0.00621383 -0.00713617 4.47998 -6.52121 15 1 
338 1.20155 4.43292 -0.0062693 -0.00719893 4.43298 -6.23163 15 1 
340 1.20183 4.4031 -0.00638771 -0.00734141 4.40316 -5.7309 15 1 
342 1.20195 4.36999 -0.00650109 -0.00746358 4.37004 -5.51044 15 1 
344 1.20202 4.3274 -0.00656462 -0.0075272 4.32744 -5.3907 15 1 
346 1.20213 4.2819 -0.00667184 -0.00765686 4.28194 -5.18545 15 1 
348 1.20228 4.25877 -0.00685539 -0.00786553 4.25881 -4.90985 15 1 
350 1.20244 4.2473 -0.00697354 -0.00798708 4.24734 -4.62354 15 1 
352 1.20253 4.21871 -0.0070215 -0.00804196 4.21875 -4.46881 15 1 
354 1.2026 4.19219 -0.00718502 -0.00824089 4.19221 -4.32873 15 1 
356 1.20269 4.17992 -0.00746824 -0.00856743 4.17994 -4.16949 15 1 
358 1.20279 4.17222 -0.00766183 -0.00877063 4.17224 -3.99438 15 1 
360 1.20293 4.17022 -0.00771085 -0.00883528 4.17024 -3.74518 15 1 
362 1.20299 4.1656 -0.00781116 -0.00899549 4.16562 -3.63212 15 1 
364 1.203 4.15868 -0.0080209 -0.00924055 4.15871 -3.61311 15 1 
366 1.20311 4.16215 -0.00819623 -0.00942311 4.16217 -3.41539 15 1 
368 1.20327 4.174 -0.00828651 -0.00955321 4.17403 -3.12163 15 1 
370 1.20335 4.18725 -0.00838186 -0.00968401 4.18729 -2.9879 15 1 
372 1.20334 4.19406 -0.00852613 -0.00982763 4.19409 -2.99092 15 1 
374 1.20344 4.19685 -0.00862891 -0.00995316 4.19687 -2.8196 15 1 
376 1.20359 4.20555 -0.00862106 -0.00998864 4.20558 -2.55391 15 1 
378 1.2036 4.21701 -0.00864307 -0.0100333 4.21704 -2.53469 15 1 
380 1.2036 4.23271 -0.00878047 -0.0101991 4.23274 -2.53566 15 1 
382 1.20374 4.25165 -0.00888686 -0.0103381 4.25167 -2.28081 15 1 
384 1.20387 4.25911 -0.0088197 -0.010275 4.25914 -2.03637 15 1 
384 1.20387 4.25911 -0.0088197 -0.010275 4.25914 -2.03637 16 1 
386 1.20385 4.25778 -0.00864171 -0.0101069 4.2578 -2.07166 16 1 
388 1.20381 4.25881 -0.00859112 -0.0100889 4.25883 -2.1521 16 1 
390 1.20396 4.26512 -0.00880431 -0.0103441 4.26515 -1.88242 16 1 
392 1.20415 4.27861 -0.00912292 -0.0107336 4.27863 -1.53218 16 1 
394 1.20411 4.29449 -0.00935546 -0.0110515 4.29451 -1.60162 16 1 
396 1.20401 4.31345 -0.00941724 -0.0111482 4.31347 -1.79273 16 1 
398 1.20412 4.33935 -0.00923211 -0.0109607 4.33937 -1.58086 16 1 
400 1.20435 4.35911 -0.00893101 -0.0106862 4.35913 -1.1822 16 1 
402 1.20436 4.36336 -0.0088386 -0.0106285 4.36338 -1.1626 16 1 
404 1.20422 4.36446 -0.00905385 -0.0108804 4.36448 -1.41309 16 1 
406 1.2043 4.38345 -0.00938408 -0.0112997 4.38348 -1.27223 16 1 
408 1.20457 4.42715 -0.00967211 -0.0116925 4.4272 -0.777336 16 1 
410 1.20462 4.47776 -0.00985712 -0.0119332 4.47782 -0.680485 16 1 
412 1.2044 4.52323 -0.00985797 -0.0119526 4.5233 -1.07909 16 1 
414 1.20434 4.57051 -0.00969307 -0.0117863 4.57057 -1.18734 16 1 
416 1.20465 4.61866 -0.009455 -0.011526 4.61871 -0.633584 16 1 
416 1.20465 4.61866 -0.009455 -0.011526 4.61871 -0.633584 16 1 
418 1.20492 4.65586 -0.00917732 -0.0112076 4.6559 -0.139538 16 1 
420 1.20477 4.67206 -0.00885763 -0.0108395 4.67209 -0.418972 16 1 
422 1.20445 4.67028 -0.00852242 -0.0104581 4.6703 -0.987314 16 1 
424 1.20452 4.66748 -0.00824544 -0.0101574 4.6675 -0.871076 16 1 
426 1.20493 4.66749 -0.00813774 -0.0100715 4.66751 -0.128555 16 1 
428 1.20511 4.66051 -0.00825708 -0.0102402 4.66053 0.19512 16 1 
430 1.2048 4.64952 -0.00852217 -0.0105685 4.64954 -0.359776 16 1 
432 1.20448 4.65133 -0.00877544 -0.010902 4.65135 -0.932584 16 1 
434 1.20465 4.68146 -0.0089558 -0.0111759 4.68149 -0.623438 16 1 
436 1.20511 4.73835 -0.009137 -0.0114559 4.7384 0.196235 16 1 
438 1.20527 4.80672 -0.00935283 -0.0117676 4.8068 0.484338 16 1 
440 1.20501 4.88167 -0.00956648 -0.0120706 4.88179 0.01776 16 1 
442 1.2048 4.97306 -0.00978209 -0.0123672 4.97321 -0.369369 16 1 
444 1.20498 5.08764 -0.00995149 -0.0126191 5.08781 -0.0380589 16 1 
446 1.20534 5.21843 -0.0100513 -0.0127868 5.21862 0.617387 16 1 
448 1.20546 5.35246 -0.0101282 -0.0129068 5.35268 0.838031 16 1 
448 1.20546 5.35246 -0.0101282 -0.0129068 5.35268 0.838031 17 1 
450 1.20529 5.48709 -0.0101953 -0.0130184 5.48733 0.528109 17 1 
452 1.20515 5.62966 -0.0102742 -0.0131356 5.62991 0.271984 17 1 
454 1.20527 5.78535 -0.0103749 -0.013248 5.78561 0.487738 17 1 
456 1.20552 5.94958 -0.0104207 -0.0132865 5.94984 0.930491 17 1 
458 1.20562 6.1131 -0.0103181 -0.0131958 6.11337 1.11244 17 1 
460 1.20552 6.2739 -0.0101462 -0.0130363 6.27417 0.941514 17 1 
462 1.20543 6.43695 -0.0100583 -0.0129304 6.43722 0.775461 17 1 
464 1.2055 6.60651 -0.0100839 -0.0129384 6.60677 0.900242 17 1 
466 1.20564 6.78014 -0.0101879 -0.0130306 6.78041 1.16329 17 1 
468 1.20569 6.95142 -0.0103119 -0.0131442 6.95168 1.24478 17 1 
470 1.20558 7.11711 -0.0103379 -0.0131529 7.11736 1.04848 17 1 
472 1.20544 7.28109 -0.010202 -0.0129816 7.28133 0.790347 17 1 
474 1.20543 7.44863 -0.00997378 -0.012725 7.44886 0.772398 17 1 
476 1.20556 7.6178 -0.0097889 -0.0125226 7.61802 1.01824 17 1 
478 1.20569 7.78308 -0.00975162 -0.0124365 7.78329 1.24644 17 1 
480 1.20565 7.94115 -0.00981049 -0.0124516 7.94135 1.17551 17 1 
480 1.20565 7.94115 -0.00981049 -0.0124516 7.94135 1.17551 17 1 
482 1.20546 8.09258 -0.00983018 -0.0124628 8.09276 0.830887 17 1 
484 1.20531 8.2404 -0.00973244 -0.0123361 8.24057 0.557143 17 1 
486 1.20534 8.38667 -0.00952689 -0.0120738 8.38683 0.609481 17 1 
488 1.20546 8.53083 -0.00931498 -0.0118058 8.53098 0.826436 17 1 
490 1.20549 8.66981 -0.00918388 -0.0116434 8.66994 0.876675 17 1 
492 1.20538 8.79868 -0.00916695 -0.0115894 8.7988 0.689354 17 1 
494 1.20525 8.91728 -0.00920046 -0.0115493 8.91739 0.454968 17 1 
496 1.20517 9.03138 -0.0091415 -0.0114517 9.03147 0.31073 17 1 
498 1.20516 9.14363 -0.00896079 -0.0112663 9.14372 0.295121 17 1 
500 1.20525 9.25011 -0.00869375 -0.0109624 9.25019 0.447499 17 1 
502 1.20533 9.34511 -0.00840685 -0.0106286 9.34518 0.599696 17 1 
504 1.20524 9.42809 -0.00819226 -0.0103806 9.42814 0.438861 17 1 
506 1.20504 9.50156 -0.00811361 -0.0102643 9.5016 0.079873 17 1 
508 1.20496 9.56598 -0.00810858 -0.0102074 9.56602 -0.0707072 17 1 
510 1.205 9.62295 -0.00805398 -0.010104 9.62298 -0.00349307 17 1 
512 1.20506 9.67447 -0.00791181 -0.00993107 9.67449 0.105169 17 1 
512 1.20506 9.67447 -0.00791181 -0.00993107 9.67449 0.105169 25 1 
514 1.20514 9.71725 -0.00769226 -0.0096882 9.71727 0.25196 25 1 
516 1.20517 9.74907 -0.00748547 -0.00944627 9.74908 0.314723 25 1 
518 1.20508 9.77253 -0.00733429 -0.00926669 9.77254 0.137458 25 1 
520 1.20495 9.79022 -0.00728461 -0.00918502 9.79023 -0.0994247 25 1 
522 1.20491 9.80527 -0.00734525 -0.00918993 9.80528 -0.166786 25 1 
524 1.20493 9.82093 -0.00739273 -0.0091958 9.82094 -0.127812 25 1 
526 1.20498 9.83685 -0.00736638 -0.00913283 9.83686 -0.0315224 25 1 
528 1.20508 9.85094 -0.00729855 -0.0090278 9.85094 0.151994 25 1 
530 1.20512 9.86288 -0.00724989 -0.00895537 9.86289 0.217733 25 1 
532 1.20505 9.87312 -0.00721427 -0.00888669 9.87313 0.0926413 25 1 
534 1.20502 9.88046 -0.00718325 -0.00881254 9.88046 0.0308992 25 1 
536 1.205 9.88693 -0.00718758 -0.00876843 9.88694 0.00143867 25 1 
538 1.20495 9.89645 -0.00722536 -0.00874161 9.89646 -0.088353 25 1 
540 1.205 9.90529 -0.00723786 -0.00869564 9.90529 -0.00269357 25 1 
542 1.2051 9.91286 -0.00721271 -0.00862408 9.91286 0.17249 25 1 
544 1.20511 9.92291 -0.00718965 -0.00855676 9.92292 0.207105 25 1 
544 1.20511 9.92291 -0.00718965 -0.00855676 9.92292 0.207105 25 1 
546 1.20517 9.93035 -0.00717785 -0.00851896 9.93036 0.316079 25 1 
548 1.20523 9.93405 -0.00717869 -0.00848009 9.93405 0.421378 25 1 
550 1.20515 9.93898 -0.00713671 -0.00837756 9.93899 0.273419 25 1 
552 1.20509 9.94112 -0.00704875 -0.00826948 9.94113 0.169491 25 1 
554 1.20508 9.94185 -0.00701546 -0.00822093 9.94186 0.149864 25 1 
556 1.20502 9.94691 -0.00706007 -0.00821471 9.94692 0.0339917 25 1 
558 1.20508 9.9515 -0.00713181 -0.00826017 9.95151 0.142726 25 1 
560 1.20524 9.95645 -0.00720693 -0.00834155 9.95646 0.430446 25 1 
562 1.20529 9.96393 -0.00729745 -0.00840489 9.96393 0.520649 25 1 
564 1.20535 9.96793 -0.00732597 -0.00839838 9.96793 0.631803 25 1 
566 1.20539 9.96906 -0.00721965 -0.00827792 9.96907 0.705419 25 1 
568 1.20525 9.97024 -0.00706353 -0.00809302 9.97024 0.45054 25 1 
570 1.20517 9.96913 -0.00692078 -0.00790336 9.96914 0.306376 25 1 
572 1.20521 9.96944 -0.00683106 -0.00778179 9.96944 0.37173 25 1 
574 1.2052 9.97434 -0.0068655 -0.00779378 9.97434 0.35708 25 1 
576 1.20532 9.97962 -0.00700211 -0.00788293 9.97962 0.570011 25 1 
576 1.20532 9.97962 -0.00700211 -0.00788293 9.97962 0.570011 26 1 
578 1.20549 9.98453 -0.00719155 -0.00802804 9.98454 0.890245 26 1 
580 1.20552 9.99028 -0.00735693 -0.00817279 9.99028 0.946941 26 1 
582 1.20556 9.99276 -0.00739393 -0.00817186 9.99276 1.00471 26 1 
584 1.20555 9.99182 -0.00724424 -0.00796636 9.99183 0.990131 26 1 
586 1.20544 9.99226 -0.00693899 -0.00763024 9.99227 0.801154 26 1 
588 1.20545 9.99328 -0.00664356 -0.00730282 9.99329 0.812879 26 1 
590 1.20554 9.99651 -0.00646451 -0.0070865 9.99651 0.979897 26 1 
592 1.20567 10.0035 -0.00647887 -0.00706795 10.0035 1.21662 26 1 
594 1.20587 10.0103 -0.00667488 -0.00723847 10.0104 1.57295 26 1 
596 1.20599 10.0158 -0.00694896 -0.00748261 10.0158 1.79066 26 1 
598 1.20604 10.0182 -0.00718935 -0.00769792 10.0182 1.87473 26 1 
600 1.20603 10.0178 -0.00737251 -0.00786615 10.0178 1.85838 26 1 
602 1.20593 10.0165 -0.00746904 -0.0079392 10.0165 1.67617 26 1 
604 1.20584 10.0139 -0.00739295 -0.007832 10.0139 1.51745 26 1 
606 1.20578 10.0131 -0.00718939 -0.00761337 10.0131 1.40514 26 1 
608 1.20578 10.0145 -0.00696504 -0.00738151 10.0146 1.4141 26 1 
608 1.20578 10.0145 -0.00696504 -0.00738151 10.0146 1.4141 26 1 
610 1.2059 10.0181 -0.00681482 -0.00721216 10.0181 1.62389 26 1 
612 1.20605 10.0255 -0.00673519 -0.00711482 10.0255 1.89599 26 1 
614 1.20627 10.0325 -0.0067551 -0.00711748 10.0325 2.30022 26 1 
616 1.20649 10.0397 -0.00683663 -0.00718525 10.0397 2.69451 26 1 
618 1.2066 10.0462 -0.00694224 -0.00727735 10.0462 2.88598 26 1 
620 1.20667 10.0474 -0.00703024 -0.00735525 10.0474 3.01604 26 1 
622 1.20663 10.0473 -0.00707804 -0.0073934 10.0473 2.95311 26 1 
624 1.20654 10.0451 -0.00707081 -0.00739039 10.0451 2.77585 26 1 
626 1.20648 10.0418 -0.0069289 -0.00724177 10.0418 2.67082 26 1 
628 1.2064 10.0421 -0.00667406 -0.00696432 10.0421 2.52744 26 1 
630 1.20641 10.0419 -0.0063803 -0.00666855 10.0419 2.55152 26 1 
632 1.20648 10.0437 -0.00612359 -0.00642891 10.0437 2.67896 26 1 
634 1.20652 10.0475 -0.0059376 -0.00623086 10.0475 2.73727 26 1 
636 1.20662 10.0493 -0.00574398 -0.00602035 10.0493 2.92866 26 1 
638 1.20669 10.0524 -0.00554699 -0.00584424 10.0524 3.06079 26 1 
640 1.2067 10.0539 -0.00541624 -0.0057058 10.0539 3.0625 26 1 
642 1.20672 10.0534 -0.00534312 -0.00561328 10.0534 3.10041 26 1 
644 1.20667 10.0532 -0.00532638 -0.00561396 10.0532 3.01015 26 1 
646 1.20655 10.0487 -0.00533003 -0.00562798 10.0487 2.80665 26 1 
648 1.20642 10.0436 -0.00532631 -0.00561399 10.0436 2.56709 26 1 
650 1.20623 10.0387 -0.00529799 -0.00558639 10.0387 2.22614 26 1 
652 1.20605 10.0312 -0.00529271 -0.00558101 10.0312 1.90066 26 1 
654 1.20591 10.0272 -0.0052852 -0.0055735 10.0272 1.64948 26 1 
656 1.20576 10.0221 -0.00527734 -0.00556755 10.0221 1.36701 26 1 
658 1.20562 10.0168 -0.00524789 -0.00553919 10.0168 1.12504 26 1 
660 1.20552 10.0144 -0.00517769 -0.0054704 10.0144 0.939685 26 1 
662 1.20541 10.0093 -0.00512712 -0.00541464 10.0093 0.748907 26 1 
664 1.20537 10.0084 -0.00509741 -0.00539104 10.0084 0.666704 26 1 
666 1.20532 10.0073 -0.00508373 -0.00538319 10.0073 0.584868 26 1 
668 1.20528 10.0042 -0.00504653 -0.00533464 10.0043 0.504441 26 1 
670 1.20528 10.0061 -0.00495118 -0.00524207 10.0061 0.512225 26 1 
672 1.20523 10.0034 -0.00485849 -0.00516959 10.0034 0.423529 26 1 
672 1.20523 10.0034 -0.00485849 -0.00516959 10.0034 0.423529 27 1 
674 1.20523 10.0029 -0.00482215 -0.00512569 10.0029 0.411265 27 1 
676 1.20525 10.005 -0.00481727 -0.00509928 10.005 0.457337 27 1 
678 1.20523 10.0019 -0.00479398 -0.0050888 10.0019 0.417529 27 1 
680 1.20526 10.0047 -0.00471401 -0.00501688 10.0047 0.466857 27 1 
682 1.20525 10.0034 -0.00463304 -0.00491317 10.0034 0.448788 27 1 
684 1.20523 10.0013 -0.00458189 -0.00486005 10.0013 0.42072 27 1 
686 1.20526 10.0048 -0.0045473 -0.00483915 10.0048 0.462882 27 1 
688 1.20523 10.0013 -0.00449773 -0.00478116 10.0013 0.419027 27 1 
690 1.20526 10.0034 -0.00446221 -0.0047329 10.0034 0.461026 27 1 
692 1.20528 10.0039 -0.00438906 -0.00467397 10.0039 0.50096 27 1 
694 1.20525 10.0002 -0.00434576 -0.00462442 10.0002 0.455782 27 1 
696 1.20528 10.0053 -0.00432599 -0.00458091 10.0053 0.509068 27 1 
698 1.20527 10.0021 -0.0042606 -0.00452607 10.0021 0.493715 27 1 
700 1.20526 10.0018 -0.00417581 -0.0044482 10.0018 0.470808 27 1 
702 1.20528 10.0046 -0.00411519 -0.00436522 10.0046 0.498412 27 1 
704 1.20525 10.0001 -0.00409881 -0.00434476 10.0001 0.44263 27 1 
704 1.20525 10.0001 -0.00409881 -0.00434476 10.0001 0.44263 31 1 
706 1.20528 10.0043 -0.00405982 -0.00431198 10.0043 0.5117 31 1 
708 1.2053 10.0021 -0.0040202 -0.0042434 10.0021 0.543296 31 1 
710 1.20529 10.0009 -0.00394831 -0.00416464 10.0009 0.52766 31 1 
712 1.20529 10.0047 -0.0038624 -0.0041088 10.0047 0.525995 31 1 
714 1.20525 9.99872 -0.0038237 -0.00404867 9.99872 0.444309 31 1 
716 1.2053 10.0025 -0.00380679 -0.00400555 10.0025 0.539094 31 1 
718 1.20529 10.0016 -0.00376641 -0.00397817 10.0016 0.528694 31 1 
720 1.20528 9.99868 -0.00369399 -0.00389322 9.99869 0.49657 31 1 
722 1.20531 10.0041 -0.00359159 -0.00376907 10.0041 0.562305 31 1 
724 1.20525 9.99785 -0.00355083 -0.00372751 9.99786 0.458137 31 1 
726 1.2053 10.0025 -0.00353015 -0.00369808 10.0025 0.53829 31 1 
728 1.20532 10.0036 -0.00350525 -0.00365809 10.0036 0.577404 31 1 
730 1.20529 9.99957 -0.00343245 -0.00358763 9.99957 0.522208 31 1 
732 1.20531 10.0067 -0.00336475 -0.00351238 10.0067 0.557759 31 1 
734 1.20527 9.99905 -0.00333056 -0.00345645 9.99905 0.479997 31 1 
736 1.2053 10.003 -0.00327266 -0.00339298 10.003 0.544218 31 1 
738 1.2053 10.0037 -0.00320119 -0.00332008 10.0037 0.550651 31 1 
740 1.20528 9.99868 -0.00311506 -0.00320498 9.99868 0.509971 31 1 
742 1.20533 10.0069 -0.00309098 -0.00316632 10.0069 0.594702 31 1 
744 1.20528 9.99595 -0.00307514 -0.00316299 9.99595 0.509697 31 1 
746 1.20532 9.9993 -0.00304446 -0.00311352 9.99931 0.581299 31 1 
748 1.20533 9.99901 -0.00298436 -0.0030214 9.99902 0.592896 31 1 
750 1.20527 9.99203 -0.00289114 -0.00292787 9.99204 0.4883 31 1 
752 1.20533 10.0021 -0.00282667 -0.00285657 10.0021 0.603007 31 1 
752 1.20533 10.0021 -0.00282667 -0.00285657 10.0021 0.603007 31 1 
754 1.2053 9.9949 -0.00280407 -0.00280752 9.9949 0.535587 31 1 
756 1.20532 10.0047 -0.0027885 -0.00277971 10.0047 0.583887 31 1 
758 1.20532 10.0068 -0.00273783 -0.00272195 10.0068 0.583194 31 1 
760 1.2053 10.001 -0.00264196 -0.00261414 10.001 0.545923 31 1 
762 1.20537 10.0078 -0.00257342 -0.00254008 10.0078 0.669885 31 1 
764 1.2053 9.99216 -0.00255257 -0.00250195 9.99216 0.540281 31 1 
766 1.20535 9.99672 -0.00255003 -0.00246508 9.99672 0.634238 31 1 
768 1.20532 9.99305 -0.00252038 -0.00242167 9.99305 0.573244 31 1 
770 1.20529 9.99205 -0.00244033 -0.00233995 9.99205 0.532371 31 1 
772 1.20538 10.0051 -0.0023734 -0.00225302 10.0051 0.686674 31 1 
774 1.2053 9.99536 -0.00230866 -0.00216833 9.99536 0.539355 31 1 
776 1.20536 10.0081 -0.0022826 -0.00212776 10.0081 0.644729 31 1 
778 1.20535 10.0027 -0.00226255 -0.00209246 10.0027 0.640565 31 1 
780 1.20536 10.0019 -0.00221051 -0.00202652 10.0019 0.647172 31 1 
782 1.20536 10.0041 -0.00220215 -0.0020066 10.0041 0.642952 31 1 
784 1.2053 9.98948 -0.00215763 -0.00195043 9.98948 0.544888 31 1 
786 1.2054 9.99956 -0.00204078 -0.00180851 9.99956 0.724064 31 1 
788 1.20532 9.9888 -0.00199839 -0.00174566 9.9888 0.575393 31 1 
790 1.20533 9.99751 -0.0019874 -0.00171695 9.99751 0.60154 31 1 
792 1.20538 10.0049 -0.00196658 -0.00168005 10.0049 0.692097 31 1 
794 1.20535 10.0024 -0.00191935 -0.00162496 10.0024 0.633598 31 1 
796 1.20541 10.0135 -0.00184635 -0.00153567 10.0135 0.733165 31 1 
798 1.20535 9.99665 -0.00182808 -0.00149088 9.99665 0.632131 31 1 
800 1.2053 9.98378 -0.00182527 -0.00147346 9.98378 0.536453 31 1 
