42.1126;r ;Density                 ;Velocity u              ;Velocity v              ;Velocity w              ;|Velocity|              ;Pressure                ;Distribution            ;Levels                  ;
0 1.20423 9.99883 -0.000105299 -5.05067e-05 9.99883 -1.388 1 1 
2 1.20427 9.99723 -0.000140735 -0.000117849 9.99723 -1.31863 1 1 
4 1.20429 9.99549 -0.000238656 -0.000248789 9.99549 -1.28765 1 1 
6 1.20427 9.99503 -0.000320895 -0.000358213 9.99503 -1.31112 1 1 
8 1.20428 9.9947 -0.000424727 -0.000485326 9.9947 -1.29443 1 1 
10 1.2043 9.99362 -0.000532458 -0.000597037 9.99362 -1.26986 1 1 
12 1.20431 9.99228 -0.000621007 -0.000717441 9.99228 -1.24064 1 1 
14 1.20432 9.99232 -0.000724309 -0.000836122 9.99232 -1.23112 1 1 
16 1.20435 9.99125 -0.000788544 -0.000918699 9.99125 -1.18145 1 1 
18 1.20434 9.98977 -0.000875234 -0.00101813 9.98977 -1.1833 1 1 
20 1.20433 9.98925 -0.000991725 -0.00114684 9.98925 -1.21652 1 1 
22 1.20436 9.98818 -0.00106042 -0.00124318 9.98818 -1.15719 1 1 
24 1.20437 9.98802 -0.00116171 -0.00136215 9.98802 -1.13557 1 1 
26 1.20437 9.98694 -0.00124478 -0.00144729 9.98694 -1.12937 1 1 
28 1.20439 9.98519 -0.00134835 -0.00156232 9.98519 -1.09744 1 1 
30 1.2044 9.98471 -0.00141578 -0.001661 9.98471 -1.09007 1 1 
32 1.20441 9.98365 -0.00150433 -0.00175827 9.98365 -1.06263 1 1 
32 1.20441 9.98365 -0.00150433 -0.00175827 9.98365 -1.06263 1 1 
34 1.20442 9.98233 -0.0015523 -0.00182532 9.98233 -1.04684 1 1 
36 1.20443 9.98039 -0.00165945 -0.00195719 9.98039 -1.0262 1 1 
38 1.20443 9.97976 -0.00174027 -0.00205412 9.97976 -1.02252 1 1 
40 1.20445 9.97912 -0.00180055 -0.00214169 9.97912 -0.991989 1 1 
42 1.20446 9.97794 -0.00189615 -0.00225195 9.97794 -0.967304 1 1 
44 1.20446 9.97648 -0.00194197 -0.0022968 9.97648 -0.9766 1 1 
46 1.20447 9.97485 -0.00201391 -0.00238519 9.97485 -0.958388 1 1 
48 1.20448 9.97446 -0.00210112 -0.00250611 9.97446 -0.941865 1 1 
50 1.2045 9.97423 -0.00214051 -0.00253255 9.97423 -0.896933 1 1 
52 1.20452 9.97303 -0.00219542 -0.00261012 9.97303 -0.870207 1 1 
54 1.20452 9.9716 -0.00227094 -0.00269707 9.9716 -0.869736 1 1 
56 1.20453 9.97129 -0.00231152 -0.00273692 9.97129 -0.848434 1 1 
58 1.20454 9.97041 -0.00239968 -0.00285165 9.97041 -0.824024 1 1 
60 1.20454 9.96968 -0.00242821 -0.00289965 9.96968 -0.825581 1 1 
62 1.20455 9.9683 -0.00246331 -0.00295679 9.9683 -0.805459 1 1 
64 1.20457 9.96739 -0.00248859 -0.00297814 9.96739 -0.784709 1 1 
64 1.20457 9.96739 -0.00248859 -0.00297814 9.96739 -0.784709 2 1 
66 1.20458 9.96691 -0.00253868 -0.00305281 9.96691 -0.758791 2 1 
68 1.20457 9.96701 -0.00258796 -0.00311968 9.96701 -0.770878 2 1 
70 1.20459 9.96569 -0.00259853 -0.00315123 9.96569 -0.7359 2 1 
72 1.20461 9.96441 -0.00263126 -0.00320891 9.96441 -0.702526 2 1 
74 1.20461 9.96375 -0.00269883 -0.00328675 9.96375 -0.700752 2 1 
76 1.20464 9.96254 -0.00275684 -0.00337884 9.96254 -0.654005 2 1 
78 1.20463 9.96298 -0.00278331 -0.00340933 9.96298 -0.674753 2 1 
80 1.20464 9.96196 -0.00284192 -0.00349991 9.96196 -0.658005 2 1 
82 1.20465 9.96084 -0.00292458 -0.00362703 9.96084 -0.626151 2 1 
84 1.20466 9.96007 -0.00297444 -0.00365575 9.96008 -0.614249 2 1 
86 1.20467 9.95869 -0.0030016 -0.00368525 9.9587 -0.595237 2 1 
88 1.20466 9.9581 -0.00306356 -0.00379033 9.9581 -0.606266 2 1 
90 1.20467 9.95753 -0.00310062 -0.00385572 9.95753 -0.594712 2 1 
92 1.20469 9.95637 -0.00321807 -0.00397884 9.95637 -0.566179 2 1 
94 1.20471 9.95516 -0.00328231 -0.00406123 9.95516 -0.529041 2 1 
96 1.20472 9.95452 -0.00328618 -0.00409699 9.95452 -0.506995 2 1 
96 1.20472 9.95452 -0.00328618 -0.00409699 9.95452 -0.506995 2 1 
98 1.20471 9.95462 -0.0034348 -0.00424215 9.95462 -0.516539 2 1 
100 1.20472 9.95419 -0.00351826 -0.00433318 9.95419 -0.514481 2 1 
102 1.20472 9.95317 -0.00355973 -0.00441675 9.95317 -0.504553 2 1 
104 1.20474 9.95147 -0.00368051 -0.00456277 9.95147 -0.476117 2 1 
106 1.20474 9.95043 -0.00375371 -0.00463917 9.95043 -0.469831 2 1 
108 1.20475 9.949 -0.00383903 -0.00474264 9.949 -0.451239 2 1 
110 1.20474 9.9486 -0.00388648 -0.00482434 9.9486 -0.461342 2 1 
112 1.20475 9.94843 -0.00400251 -0.00497161 9.94843 -0.457267 2 1 
114 1.20478 9.94659 -0.00411538 -0.00509169 9.94659 -0.404091 2 1 
116 1.20478 9.94715 -0.00419227 -0.00519788 9.94715 -0.404494 2 1 
118 1.20478 9.94718 -0.00430462 -0.00535116 9.94719 -0.390857 2 1 
120 1.2048 9.94532 -0.00441535 -0.00547051 9.94533 -0.36965 2 1 
122 1.20478 9.94452 -0.00448384 -0.00556191 9.94453 -0.401872 2 1 
124 1.20478 9.94287 -0.00454294 -0.00567156 9.94288 -0.394183 2 1 
126 1.20481 9.94156 -0.00472154 -0.00586395 9.94156 -0.338314 2 1 
128 1.2048 9.94224 -0.00477614 -0.00591054 9.94225 -0.369658 2 1 
128 1.2048 9.94224 -0.00477614 -0.00591054 9.94225 -0.369658 10 1 
130 1.20481 9.94147 -0.00486483 -0.00605211 9.94147 -0.340014 10 1 
132 1.20483 9.9417 -0.00499001 -0.00620832 9.94171 -0.308039 10 1 
134 1.20483 9.94109 -0.00510124 -0.00632248 9.9411 -0.313079 10 1 
136 1.20483 9.93893 -0.00513839 -0.00637813 9.93894 -0.307094 10 1 
138 1.20481 9.93839 -0.005241 -0.00651001 9.93839 -0.336974 10 1 
140 1.20483 9.9382 -0.00538621 -0.00668895 9.9382 -0.30439 10 1 
142 1.20484 9.93817 -0.00544256 -0.0067104 9.93818 -0.285553 10 1 
144 1.20485 9.93785 -0.00552235 -0.00683596 9.93786 -0.272208 10 1 
146 1.20486 9.93771 -0.00563992 -0.0069812 9.93771 -0.248837 10 1 
148 1.20486 9.93622 -0.00571181 -0.00704878 9.93622 -0.256018 10 1 
150 1.20484 9.935 -0.00573789 -0.00710345 9.935 -0.283713 10 1 
152 1.20485 9.93483 -0.00587405 -0.00725087 9.93483 -0.27136 10 1 
154 1.20487 9.93455 -0.00594458 -0.00732344 9.93455 -0.238314 10 1 
156 1.20487 9.9345 -0.00600422 -0.00739919 9.9345 -0.232153 10 1 
158 1.20488 9.93352 -0.00608599 -0.0075056 9.93353 -0.214422 10 1 
160 1.20488 9.93177 -0.00614511 -0.00759925 9.93177 -0.209295 10 1 
160 1.20488 9.93177 -0.00614511 -0.00759925 9.93177 -0.209295 10 1 
162 1.20486 9.93169 -0.00618254 -0.00767285 9.9317 -0.261412 10 1 
164 1.20486 9.93074 -0.00623335 -0.00770917 9.93075 -0.243949 10 1 
166 1.20491 9.92879 -0.00640412 -0.00790006 9.9288 -0.163969 10 1 
168 1.20488 9.93044 -0.00649044 -0.00802209 9.93045 -0.21402 10 1 
170 1.2049 9.92869 -0.00649475 -0.00804994 9.92869 -0.185662 10 1 
172 1.2049 9.92778 -0.00658797 -0.00815214 9.92778 -0.182525 10 1 
174 1.20487 9.92914 -0.00663329 -0.00823777 9.92914 -0.236761 10 1 
176 1.20491 9.92702 -0.00666103 -0.00824577 9.92702 -0.165175 10 1 
178 1.2049 9.92687 -0.00670058 -0.00831315 9.92687 -0.186476 10 1 
180 1.2049 9.92547 -0.00685509 -0.0085287 9.92547 -0.171639 10 1 
182 1.20491 9.92294 -0.00693591 -0.00862693 9.92294 -0.156296 10 1 
184 1.20489 9.92211 -0.00696041 -0.0086733 9.92212 -0.192149 10 1 
186 1.20492 9.92258 -0.00706299 -0.00877417 9.92258 -0.137221 10 1 
188 1.20492 9.92295 -0.00713352 -0.00885647 9.92295 -0.139084 10 1 
190 1.20491 9.92217 -0.00719015 -0.00892845 9.92218 -0.163945 10 1 
192 1.20491 9.92155 -0.00715021 -0.00891228 9.92156 -0.159525 10 1 
194 1.20493 9.91886 -0.00742366 -0.00918195 9.91887 -0.128268 10 1 
196 1.20494 9.91644 -0.00759878 -0.00936056 9.91644 -0.113983 10 1 
198 1.20493 9.91646 -0.00749367 -0.0092655 9.91646 -0.130902 10 1 
200 1.20495 9.9155 -0.00773526 -0.00953423 9.91551 -0.0835278 10 1 
202 1.20495 9.91504 -0.00783282 -0.00969025 9.91505 -0.097726 10 1 
204 1.20491 9.91574 -0.00779068 -0.00963785 9.91574 -0.16202 10 1 
206 1.20497 9.913 -0.00796553 -0.00982478 9.91301 -0.0499133 10 1 
208 1.205 9.91218 -0.00817967 -0.0100136 9.91218 -0.000256669 10 1 
210 1.20495 9.91418 -0.00823729 -0.0100612 9.91419 -0.0946099 10 1 
212 1.205 9.90896 -0.00821939 -0.0101147 9.90897 -0.00867881 10 1 
214 1.20497 9.90513 -0.00825585 -0.0101777 9.90514 -0.0564703 10 1 
216 1.20495 9.90299 -0.00853182 -0.0104398 9.903 -0.0960912 10 1 
218 1.20502 9.89855 -0.0087491 -0.0106451 9.89856 0.0295972 10 1 
220 1.20501 9.90246 -0.00869088 -0.0106549 9.90248 0.0210322 10 1 
222 1.20503 9.90422 -0.00874511 -0.0107222 9.90423 0.0529615 10 1 
224 1.20501 9.90041 -0.00888151 -0.0107705 9.90042 0.0237468 10 1 
224 1.20501 9.90041 -0.00888151 -0.0107705 9.90042 0.0237468 10 1 
226 1.20501 9.89769 -0.008931 -0.0108374 9.8977 0.0264815 10 1 
228 1.20503 9.89063 -0.00896318 -0.0109431 9.89064 0.0517359 10 1 
230 1.20502 9.88455 -0.00917694 -0.0111983 9.88456 0.0427096 10 1 
232 1.20504 9.88603 -0.00935413 -0.0113767 9.88604 0.0707436 10 1 
234 1.20508 9.88538 -0.00935428 -0.0113192 9.88539 0.145854 10 1 
236 1.20515 9.87872 -0.00938833 -0.0114011 9.87873 0.26352 10 1 
238 1.20506 9.87757 -0.00952163 -0.0115724 9.87758 0.112377 10 1 
240 1.20514 9.86849 -0.00980457 -0.0118647 9.8685 0.252178 10 1 
242 1.20516 9.86163 -0.00979873 -0.0118802 9.86164 0.294642 10 1 
244 1.20511 9.86246 -0.00974118 -0.0118429 9.86247 0.198179 10 1 
246 1.2053 9.85395 -0.00995554 -0.012054 9.85397 0.544248 10 1 
248 1.20534 9.84736 -0.0100029 -0.0120927 9.84738 0.610383 10 1 
250 1.20534 9.83849 -0.0100562 -0.0121893 9.83851 0.609709 10 1 
252 1.20538 9.82946 -0.0103 -0.0124404 9.82948 0.684919 10 1 
254 1.20546 9.81959 -0.0103616 -0.0124759 9.81961 0.829827 10 1 
256 1.20551 9.80928 -0.010439 -0.0125737 9.80929 0.923182 10 1 
256 1.20551 9.80928 -0.010439 -0.0125737 9.80929 0.923182 11 1 
258 1.20557 9.79676 -0.0104931 -0.0126863 9.79677 1.03222 11 1 
260 1.20575 9.78381 -0.0105933 -0.012804 9.78383 1.35102 11 1 
262 1.20586 9.76862 -0.0109051 -0.0130949 9.76863 1.54623 11 1 
264 1.20586 9.75192 -0.0109512 -0.0131165 9.75194 1.55161 11 1 
266 1.20603 9.73648 -0.0109198 -0.0131187 9.7365 1.85338 11 1 
268 1.20637 9.70665 -0.0110703 -0.0132905 9.70667 2.46962 11 1 
270 1.20629 9.68576 -0.011345 -0.0135216 9.68579 2.33182 11 1 
272 1.20644 9.65512 -0.0113492 -0.0135129 9.65515 2.60803 11 1 
274 1.2069 9.61334 -0.0112965 -0.0135255 9.61336 3.43118 11 1 
276 1.20691 9.58707 -0.0114192 -0.0136309 9.58709 3.44614 11 1 
278 1.20721 9.54619 -0.011689 -0.0138758 9.54621 3.99406 11 1 
280 1.20777 9.50282 -0.011839 -0.0140192 9.50285 5.01154 11 1 
282 1.20814 9.44381 -0.0117706 -0.0139595 9.44392 5.67406 11 1 
284 1.2084 9.35618 -0.0117921 -0.0140252 9.35636 6.13805 11 1 
286 1.20873 9.26697 -0.0120333 -0.0142311 9.26708 6.73838 11 1 
288 1.20938 9.18298 -0.0122295 -0.0144136 9.18301 7.90567 11 1 
288 1.20938 9.18298 -0.0122295 -0.0144136 9.18301 7.90567 11 1 
290 1.21016 9.11 -0.0121286 -0.0143219 9.11004 9.31541 11 1 
292 1.21081 9.01213 -0.0120853 -0.0142932 9.01225 10.4978 11 1 
294 1.21135 8.8776 -0.0120938 -0.0143286 8.87787 11.4749 11 1 
296 1.2121 8.7397 -0.0121014 -0.0143084 8.73991 12.8312 11 1 
298 1.20789 8.57095 -0.0121039 -0.0142906 8.57105 5.21658 11 1 
300 1.20066 8.50039 -0.0118814 -0.0140876 8.50051 -7.8321 11 1 
302 1.19839 8.47124 -0.0119373 -0.0141544 8.4713 -11.9432 11 1 
304 1.19898 8.35588 -0.0119975 -0.0141945 8.35602 -10.867 11 1 
306 1.19972 8.22624 -0.011749 -0.0139411 8.22643 -9.53759 11 1 
308 1.20027 8.10771 -0.0114461 -0.0136203 8.10792 -8.54676 11 1 
310 1.20063 8.01975 -0.0113505 -0.0135013 8.01991 -7.89168 11 1 
312 1.20111 7.92502 -0.0117149 -0.0138745 7.92507 -7.02414 11 1 
314 1.20157 7.85516 -0.0122227 -0.0143665 7.85521 -6.20021 11 1 
316 1.20191 7.80356 -0.0123786 -0.0145002 7.80359 -5.57677 11 1 
318 1.20222 7.73538 -0.0121535 -0.0142808 7.73541 -5.01817 11 1 
320 1.20247 7.69239 -0.0118022 -0.0139208 7.69242 -4.56325 11 1 
320 1.20247 7.69239 -0.0118022 -0.0139208 7.69242 -4.56325 15 1 
322 1.20272 7.6631 -0.0116808 -0.0138026 7.66312 -4.11562 15 1 
324 1.20297 7.61755 -0.0116783 -0.0137975 7.61758 -3.67082 15 1 
326 1.20315 7.58438 -0.011601 -0.0136943 7.58441 -3.33886 15 1 
328 1.20331 7.55534 -0.0115554 -0.0136297 7.55537 -3.0573 15 1 
330 1.20341 7.52242 -0.0116214 -0.0136801 7.52245 -2.8672 15 1 
332 1.20359 7.50204 -0.0116617 -0.0137102 7.50208 -2.55561 15 1 
334 1.20377 7.47361 -0.0116385 -0.0136817 7.47364 -2.22947 15 1 
336 1.20374 7.43892 -0.0116462 -0.0136664 7.43895 -2.26822 15 1 
338 1.20378 7.41996 -0.0117019 -0.0137152 7.42 -2.19611 15 1 
340 1.20398 7.40424 -0.0118163 -0.0138563 7.40427 -1.83975 15 1 
342 1.20406 7.38705 -0.0118715 -0.013907 7.38708 -1.69594 15 1 
344 1.20404 7.36558 -0.0118732 -0.0138851 7.36561 -1.72515 15 1 
346 1.20405 7.3417 -0.0119451 -0.0139801 7.34172 -1.72316 15 1 
348 1.20416 7.33834 -0.0121217 -0.0141929 7.33836 -1.51733 15 1 
350 1.2043 7.33836 -0.0122296 -0.0142926 7.33838 -1.27297 15 1 
352 1.20427 7.32111 -0.0122536 -0.0143043 7.32114 -1.32466 15 1 
354 1.20427 7.31135 -0.012326 -0.0144041 7.31138 -1.3173 15 1 
356 1.20437 7.31119 -0.0125185 -0.0146281 7.31122 -1.14251 15 1 
358 1.2044 7.30938 -0.0126691 -0.0147556 7.30941 -1.07621 15 1 
360 1.20444 7.31073 -0.0126971 -0.0147623 7.31076 -1.01194 15 1 
362 1.20447 7.30891 -0.0127088 -0.0148059 7.30894 -0.956048 15 1 
364 1.20448 7.30564 -0.0128188 -0.0149249 7.30567 -0.932253 15 1 
366 1.20452 7.30712 -0.0129566 -0.0150351 7.30715 -0.875501 15 1 
368 1.20455 7.30934 -0.0129965 -0.0150872 7.30936 -0.819356 15 1 
370 1.2046 7.31378 -0.0129501 -0.0150637 7.31381 -0.73085 15 1 
372 1.20461 7.3146 -0.0129769 -0.0150748 7.31463 -0.700156 15 1 
374 1.2046 7.31085 -0.0130728 -0.0151582 7.31088 -0.71876 15 1 
376 1.20464 7.3127 -0.0130887 -0.0151805 7.31272 -0.652643 15 1 
378 1.20467 7.31521 -0.0130497 -0.0151349 7.31523 -0.595416 15 1 
380 1.20471 7.31659 -0.0130551 -0.0151241 7.31662 -0.531265 15 1 
382 1.20474 7.31811 -0.0131153 -0.0151714 7.31814 -0.471839 15 1 
384 1.20472 7.31305 -0.0131726 -0.015216 7.31308 -0.507678 15 1 
384 1.20472 7.31305 -0.0131726 -0.015216 7.31308 -0.507678 16 1 
386 1.20472 7.30953 -0.0131823 -0.0152215 7.30956 -0.504865 16 1 
388 1.20475 7.31161 -0.0131909 -0.0152234 7.31164 -0.459662 16 1 
390 1.20476 7.30997 -0.0132256 -0.0152326 7.31 -0.43469 16 1 
392 1.20478 7.30614 -0.0132236 -0.0152287 7.30617 -0.395068 16 1 
394 1.20478 7.30128 -0.0132327 -0.0152604 7.30131 -0.391651 16 1 
396 1.20478 7.29525 -0.0132927 -0.0153009 7.29527 -0.401529 16 1 
398 1.20479 7.29245 -0.0133125 -0.0152927 7.29248 -0.378522 16 1 
400 1.20481 7.28933 -0.0132745 -0.0152804 7.28936 -0.351734 16 1 
402 1.20481 7.28256 -0.0132993 -0.0153187 7.28259 -0.34631 16 1 
404 1.20479 7.27445 -0.0133535 -0.0153409 7.27448 -0.382929 16 1 
406 1.20479 7.26748 -0.0133361 -0.0153217 7.26751 -0.38405 16 1 
408 1.20481 7.26336 -0.0133101 -0.0153119 7.26339 -0.341378 16 1 
410 1.2048 7.25783 -0.0133611 -0.0153667 7.25787 -0.354233 16 1 
412 1.20479 7.24959 -0.0134018 -0.015417 7.24962 -0.376143 16 1 
414 1.2048 7.24294 -0.0133888 -0.0154017 7.24297 -0.367078 16 1 
416 1.2048 7.23665 -0.0133792 -0.0154004 7.23669 -0.362493 16 1 
416 1.2048 7.23665 -0.0133792 -0.0154004 7.23669 -0.362493 16 1 
418 1.2048 7.23015 -0.0133888 -0.0154536 7.23018 -0.361551 16 1 
420 1.2048 7.22474 -0.0134146 -0.015501 7.22478 -0.368582 16 1 
422 1.2048 7.21859 -0.0134595 -0.015533 7.21863 -0.369557 16 1 
424 1.20479 7.21214 -0.0134892 -0.0155718 7.21217 -0.372823 16 1 
426 1.20478 7.20562 -0.0135207 -0.0156342 7.20565 -0.388964 16 1 
428 1.20479 7.19922 -0.0135767 -0.0156838 7.19925 -0.382273 16 1 
430 1.2048 7.19514 -0.0136363 -0.0157157 7.19517 -0.367052 16 1 
432 1.20479 7.19063 -0.0136842 -0.0157535 7.19066 -0.377819 16 1 
434 1.20478 7.18344 -0.0137228 -0.0157865 7.18348 -0.404303 16 1 
436 1.20477 7.17735 -0.0137779 -0.0158231 7.17739 -0.41681 16 1 
438 1.20478 7.17378 -0.0138489 -0.0158755 7.17381 -0.4004 16 1 
440 1.20479 7.17074 -0.0139132 -0.0159173 7.17077 -0.38119 16 1 
442 1.20479 7.1668 -0.0139857 -0.0159752 7.16684 -0.377551 16 1 
444 1.20478 7.16202 -0.0140391 -0.0160426 7.16205 -0.397593 16 1 
446 1.20476 7.15821 -0.0140679 -0.0160668 7.15825 -0.435125 16 1 
448 1.20476 7.15575 -0.0141189 -0.0160915 7.15578 -0.433471 16 1 
448 1.20476 7.15575 -0.0141189 -0.0160915 7.15578 -0.433471 17 1 
450 1.20478 7.1538 -0.0141674 -0.0161486 7.15383 -0.395828 17 1 
452 1.20479 7.15233 -0.0142183 -0.0162294 7.15237 -0.386121 17 1 
454 1.20478 7.15036 -0.0143123 -0.0163297 7.1504 -0.401792 17 1 
456 1.20477 7.14794 -0.0143757 -0.0163826 7.14798 -0.411785 17 1 
458 1.20477 7.14667 -0.0143614 -0.0163848 7.1467 -0.417279 17 1 
460 1.20477 7.1465 -0.0143728 -0.0164282 7.14653 -0.418265 17 1 
462 1.20477 7.14659 -0.01446 -0.0165166 7.14663 -0.407462 17 1 
464 1.20478 7.14583 -0.0145537 -0.0166128 7.14587 -0.395766 17 1 
466 1.20478 7.14442 -0.0146149 -0.0166893 7.14445 -0.402223 17 1 
468 1.20477 7.14445 -0.0146639 -0.016755 7.14448 -0.419824 17 1 
470 1.20476 7.1454 -0.0146996 -0.0168099 7.14544 -0.428472 17 1 
472 1.20476 7.14584 -0.0147274 -0.0168358 7.14587 -0.425879 17 1 
474 1.20477 7.14657 -0.0147717 -0.0168795 7.1466 -0.415138 17 1 
476 1.20477 7.14716 -0.0148202 -0.0169466 7.14719 -0.410771 17 1 
478 1.20477 7.14753 -0.0148661 -0.0169915 7.14756 -0.417386 17 1 
480 1.20476 7.14905 -0.0149284 -0.0170473 7.14909 -0.425228 17 1 
480 1.20476 7.14905 -0.0149284 -0.0170473 7.14909 -0.425228 17 1 
482 1.20476 7.15104 -0.0149694 -0.0171125 7.15107 -0.438458 17 1 
484 1.20476 7.15279 -0.0149875 -0.017145 7.15283 -0.436019 17 1 
486 1.20477 7.15473 -0.0150479 -0.0171773 7.15476 -0.415765 17 1 
488 1.20477 7.15702 -0.0151135 -0.0172235 7.15706 -0.423923 17 1 
490 1.20476 7.16003 -0.0151046 -0.0172466 7.16007 -0.437406 17 1 
492 1.20477 7.16311 -0.0151041 -0.0172571 7.16315 -0.418886 17 1 
494 1.20477 7.16588 -0.0151635 -0.0172712 7.16592 -0.412149 17 1 
496 1.20476 7.16906 -0.0151842 -0.0172915 7.1691 -0.432459 17 1 
498 1.20476 7.17251 -0.0151632 -0.0173027 7.17255 -0.436532 17 1 
500 1.20477 7.17694 -0.0151835 -0.0172991 7.17698 -0.414872 17 1 
502 1.20478 7.18207 -0.0152145 -0.0173077 7.1821 -0.400702 17 1 
504 1.20478 7.18563 -0.015201 -0.0173064 7.18567 -0.40087 17 1 
506 1.20478 7.18863 -0.0151823 -0.0172803 7.18866 -0.402778 17 1 
508 1.20477 7.19303 -0.0152004 -0.0172777 7.19307 -0.413769 17 1 
510 1.20477 7.19824 -0.0152248 -0.0173167 7.19827 -0.411707 17 1 
512 1.20479 7.20379 -0.015243 -0.017356 7.20383 -0.37994 17 1 
512 1.20479 7.20379 -0.015243 -0.017356 7.20383 -0.37994 25 1 
514 1.20479 7.20952 -0.0152446 -0.0173366 7.20956 -0.371617 25 1 
516 1.20479 7.21487 -0.0151872 -0.0172651 7.21491 -0.387661 25 1 
518 1.20479 7.21941 -0.015103 -0.0171866 7.21945 -0.377336 25 1 
520 1.2048 7.22384 -0.0150713 -0.0171376 7.22388 -0.36095 25 1 
522 1.2048 7.22919 -0.015089 -0.0171479 7.22922 -0.356038 25 1 
524 1.20481 7.23484 -0.0151197 -0.0172096 7.23487 -0.340301 25 1 
526 1.20481 7.24101 -0.0151639 -0.0172512 7.24105 -0.334106 25 1 
528 1.20481 7.24842 -0.0151753 -0.0172253 7.24846 -0.351885 25 1 
530 1.20481 7.25599 -0.0151022 -0.0171459 7.25602 -0.345424 25 1 
532 1.20483 7.26256 -0.0149732 -0.0170052 7.2626 -0.308453 25 1 
534 1.20484 7.26782 -0.0148587 -0.0168522 7.26786 -0.291156 25 1 
536 1.20484 7.27235 -0.0148118 -0.0167923 7.27239 -0.292442 25 1 
538 1.20484 7.27708 -0.0148523 -0.016846 7.27712 -0.290414 25 1 
540 1.20484 7.28347 -0.0149473 -0.0169468 7.28351 -0.290111 25 1 
542 1.20485 7.29236 -0.0150194 -0.0170165 7.29239 -0.280018 25 1 
544 1.20486 7.30213 -0.0150051 -0.0169881 7.30217 -0.254024 25 1 
544 1.20486 7.30213 -0.0150051 -0.0169881 7.30217 -0.254024 25 1 
546 1.20487 7.31126 -0.014887 -0.016835 7.3113 -0.241144 25 1 
548 1.20486 7.31863 -0.0146997 -0.0165925 7.31867 -0.251094 25 1 
550 1.20486 7.32419 -0.0145049 -0.0163372 7.32422 -0.244882 25 1 
552 1.20488 7.32844 -0.0143768 -0.0161708 7.32847 -0.217983 25 1 
554 1.20489 7.33246 -0.0143773 -0.0161535 7.33249 -0.201462 25 1 
556 1.20489 7.33802 -0.0144943 -0.0162481 7.33805 -0.191346 25 1 
558 1.2049 7.34546 -0.0146343 -0.0163722 7.3455 -0.186872 25 1 
560 1.2049 7.35601 -0.0147254 -0.016444 7.35604 -0.185351 25 1 
562 1.2049 7.36847 -0.014727 -0.0163861 7.3685 -0.17326 25 1 
564 1.20491 7.38025 -0.0145853 -0.0161706 7.38028 -0.156578 25 1 
566 1.20492 7.39009 -0.0143177 -0.0158298 7.39012 -0.143227 25 1 
568 1.20493 7.39643 -0.0140355 -0.015453 7.39646 -0.127186 25 1 
570 1.20494 7.40039 -0.0138446 -0.0151591 7.40042 -0.109431 25 1 
572 1.20494 7.40345 -0.0137914 -0.0150289 7.40348 -0.101857 25 1 
574 1.20495 7.40729 -0.013887 -0.0150847 7.40731 -0.0900906 25 1 
576 1.20496 7.41386 -0.0140769 -0.0152454 7.41389 -0.0724521 25 1 
576 1.20496 7.41386 -0.0140769 -0.0152454 7.41389 -0.0724521 26 1 
578 1.20496 7.42399 -0.0142561 -0.0153954 7.42402 -0.067836 26 1 
580 1.20496 7.43764 -0.0143625 -0.0154738 7.43768 -0.0691948 26 1 
582 1.20497 7.45324 -0.0143511 -0.0154073 7.45327 -0.0513174 26 1 
584 1.20499 7.46856 -0.0141884 -0.0151571 7.46859 -0.0164442 26 1 
586 1.205 7.48082 -0.0138848 -0.0147541 7.48085 0.000729125 26 1 
588 1.205 7.48906 -0.0134904 -0.0142437 7.48909 0.00108819 26 1 
590 1.205 7.49243 -0.01311 -0.0137504 7.49245 0.00226436 26 1 
592 1.20501 7.4918 -0.0128498 -0.0134078 7.49183 0.025669 26 1 
594 1.20503 7.48995 -0.0127587 -0.0132515 7.48997 0.058907 26 1 
596 1.20503 7.48828 -0.0128213 -0.0132739 7.4883 0.0608227 26 1 
598 1.20503 7.48945 -0.0129824 -0.0134329 7.48947 0.0512576 26 1 
600 1.20503 7.49486 -0.0132152 -0.013664 7.49488 0.0596681 26 1 
602 1.20505 7.50568 -0.0134853 -0.0139125 7.50571 0.0861059 26 1 
604 1.20506 7.52214 -0.0137272 -0.0141342 7.52217 0.106497 26 1 
606 1.20507 7.54256 -0.013868 -0.0142382 7.54259 0.12314 26 1 
608 1.20508 7.56473 -0.0138186 -0.0141146 7.56476 0.144084 26 1 
608 1.20508 7.56473 -0.0138186 -0.0141146 7.56476 0.144084 26 1 
610 1.20508 7.58496 -0.0134319 -0.0136139 7.58499 0.145796 26 1 
612 1.20508 7.59729 -0.0126046 -0.0126174 7.59731 0.146272 26 1 
614 1.20508 7.59497 -0.0113722 -0.011143 7.59499 0.152417 26 1 
616 1.20509 7.57427 -0.00994519 -0.00944083 7.5743 0.160213 26 1 
618 1.20509 7.53296 -0.00862548 -0.00786961 7.53299 0.161998 26 1 
620 1.20508 7.47503 -0.00767501 -0.00671712 7.47508 0.142051 26 1 
622 1.20507 7.40777 -0.00729201 -0.00620507 7.40782 0.133974 26 1 
624 1.20508 7.33921 -0.00750681 -0.00637112 7.33925 0.141644 26 1 
626 1.20507 7.2787 -0.00819039 -0.00705893 7.27874 0.11948 26 1 
628 1.20505 7.23147 -0.00914916 -0.00805467 7.2315 0.0848174 26 1 
630 1.20504 7.20093 -0.0101892 -0.00915247 7.20095 0.0713048 26 1 
632 1.20504 7.18746 -0.0111706 -0.0101843 7.18748 0.0756155 26 1 
634 1.20506 7.19059 -0.0120415 -0.011085 7.19061 0.101277 26 1 
636 1.20507 7.20785 -0.0127925 -0.0118568 7.20787 0.122762 26 1 
638 1.20508 7.23651 -0.0134484 -0.0125026 7.23654 0.146158 26 1 
640 1.20509 7.27484 -0.0140001 -0.0129938 7.27488 0.17075 26 1 
642 1.2051 7.32167 -0.0144164 -0.0133402 7.32172 0.181521 26 1 
644 1.20511 7.37613 -0.0147184 -0.0135828 7.37619 0.201734 26 1 
646 1.20514 7.43646 -0.014966 -0.0137617 7.43652 0.247229 26 1 
648 1.20517 7.50219 -0.015187 -0.0138985 7.50226 0.304919 26 1 
650 1.20519 7.57236 -0.0153876 -0.0140231 7.57243 0.344403 26 1 
652 1.2052 7.64606 -0.0155816 -0.0141299 7.64614 0.368095 26 1 
654 1.20521 7.72245 -0.0157452 -0.0142042 7.72252 0.377514 26 1 
656 1.20522 7.80191 -0.0158376 -0.0142238 7.80198 0.402064 26 1 
658 1.20524 7.88397 -0.0158803 -0.0141948 7.88405 0.435664 26 1 
660 1.20526 7.96807 -0.0159247 -0.0141557 7.96816 0.461675 26 1 
662 1.20528 8.05339 -0.0159871 -0.0141283 8.05348 0.500534 26 1 
664 1.20529 8.14004 -0.0160629 -0.0141197 8.14013 0.524789 26 1 
666 1.2053 8.22755 -0.0161061 -0.01409 8.22764 0.539962 26 1 
668 1.20531 8.31531 -0.0160993 -0.0140174 8.3154 0.558106 26 1 
670 1.20532 8.4032 -0.0160517 -0.0138973 8.40329 0.569838 26 1 
672 1.20532 8.48995 -0.015979 -0.0137543 8.49003 0.585426 26 1 
672 1.20532 8.48995 -0.015979 -0.0137543 8.49003 0.585426 27 1 
674 1.20532 8.57652 -0.0159006 -0.0136053 8.5766 0.571423 27 1 
676 1.20531 8.66195 -0.0158246 -0.0134459 8.66203 0.566385 27 1 
678 1.20532 8.74553 -0.0157181 -0.0132551 8.7456 0.577525 27 1 
680 1.20532 8.82745 -0.0155667 -0.0130234 8.82752 0.569141 27 1 
682 1.20533 8.90689 -0.0153857 -0.0127664 8.90696 0.593793 27 1 
684 1.20533 8.98434 -0.0152184 -0.0125129 8.9844 0.587129 27 1 
686 1.20532 9.05859 -0.0150383 -0.0122651 9.05865 0.573655 27 1 
688 1.20531 9.12904 -0.0148215 -0.0120091 9.12909 0.565448 27 1 
690 1.20528 9.19654 -0.0145851 -0.0117289 9.19659 0.513829 27 1 
692 1.20528 9.25994 -0.0143319 -0.0114415 9.25999 0.49855 27 1 
694 1.20526 9.3208 -0.0140647 -0.0111491 9.32084 0.476819 27 1 
696 1.20527 9.37851 -0.0138058 -0.0108451 9.37854 0.484558 27 1 
698 1.20528 9.43228 -0.0136056 -0.0105978 9.43232 0.506001 27 1 
700 1.20525 9.48245 -0.013392 -0.0103527 9.48248 0.455712 27 1 
702 1.20524 9.52885 -0.0131515 -0.0100821 9.52888 0.432298 27 1 
704 1.20522 9.57295 -0.0129232 -0.0097933 9.57297 0.400739 27 1 
704 1.20522 9.57295 -0.0129232 -0.0097933 9.57297 0.400739 31 1 
706 1.20521 9.61433 -0.012701 -0.00953404 9.61435 0.377493 31 1 
708 1.20521 9.65297 -0.0124915 -0.00929782 9.65299 0.381655 31 1 
710 1.20521 9.68844 -0.0123092 -0.00909109 9.68846 0.372698 31 1 
712 1.20522 9.72036 -0.0121093 -0.00890473 9.72037 0.393762 31 1 
714 1.2052 9.74923 -0.0118958 -0.00871411 9.74924 0.369619 31 1 
716 1.20518 9.77498 -0.0116659 -0.00849864 9.77499 0.326964 31 1 
718 1.20516 9.79754 -0.0114332 -0.00827079 9.79756 0.291314 31 1 
720 1.20514 9.81703 -0.0112243 -0.0080751 9.81704 0.254051 31 1 
722 1.20516 9.83437 -0.0110541 -0.00792016 9.83438 0.28358 31 1 
724 1.20517 9.8506 -0.0109304 -0.00781537 9.85061 0.311209 31 1 
726 1.20518 9.864 -0.0107905 -0.00770059 9.86401 0.331975 31 1 
728 1.20517 9.87441 -0.0106289 -0.00757402 9.87442 0.313332 31 1 
730 1.20513 9.88293 -0.0104816 -0.00747885 9.88294 0.234857 31 1 
732 1.20512 9.88956 -0.0103527 -0.0073829 9.88957 0.207744 31 1 
734 1.20511 9.89602 -0.0102559 -0.0072976 9.89603 0.2015 31 1 
736 1.20513 9.90229 -0.0102023 -0.00728923 9.9023 0.226348 31 1 
738 1.20515 9.90751 -0.0101606 -0.00729784 9.90752 0.269002 31 1 
740 1.20514 9.91137 -0.010092 -0.00724971 9.91138 0.2598 31 1 
742 1.20513 9.91432 -0.00999331 -0.00716586 9.91433 0.226467 31 1 
744 1.2051 9.91756 -0.00989721 -0.00710879 9.91756 0.186688 31 1 
746 1.20511 9.92045 -0.00983265 -0.00707185 9.92046 0.191367 31 1 
748 1.20511 9.92373 -0.00978288 -0.00703195 9.92374 0.205139 31 1 
750 1.20511 9.9271 -0.00974142 -0.00702738 9.9271 0.207726 31 1 
752 1.20513 9.92913 -0.00969777 -0.00704046 9.92914 0.235203 31 1 
752 1.20513 9.92913 -0.00969777 -0.00704046 9.92914 0.235203 31 1 
754 1.20511 9.93097 -0.00961061 -0.00700031 9.93098 0.201099 31 1 
756 1.20509 9.93268 -0.00951198 -0.00694979 9.93269 0.157673 31 1 
758 1.2051 9.93437 -0.0094269 -0.00694406 9.93438 0.174077 31 1 
760 1.20511 9.93628 -0.0093464 -0.00693184 9.93629 0.190906 31 1 
762 1.20511 9.9377 -0.00926653 -0.00692831 9.9377 0.200657 31 1 
764 1.2051 9.9386 -0.00923922 -0.00697838 9.9386 0.187731 31 1 
766 1.2051 9.93952 -0.00916394 -0.00699622 9.93953 0.184903 31 1 
768 1.2051 9.94047 -0.00903182 -0.00696417 9.94047 0.174351 31 1 
770 1.20508 9.9412 -0.00892441 -0.00693102 9.94121 0.150045 31 1 
772 1.20511 9.94201 -0.00881425 -0.00691509 9.94202 0.192944 31 1 
774 1.20512 9.94269 -0.00873248 -0.00688122 9.94269 0.210023 31 1 
776 1.2051 9.94291 -0.00866669 -0.00689323 9.94292 0.184996 31 1 
778 1.2051 9.94269 -0.00864059 -0.00693104 9.9427 0.174096 31 1 
780 1.20509 9.94287 -0.00861698 -0.00692625 9.94288 0.156854 31 1 
782 1.2051 9.94332 -0.00851557 -0.00680766 9.94333 0.181159 31 1 
784 1.20511 9.94411 -0.00840048 -0.00672359 9.94412 0.206069 31 1 
786 1.20513 9.94485 -0.00834071 -0.00666796 9.94486 0.229945 31 1 
788 1.20514 9.94516 -0.00834481 -0.00667239 9.94517 0.244584 31 1 
790 1.20511 9.94521 -0.00833775 -0.00669903 9.94522 0.204989 31 1 
792 1.20511 9.94485 -0.00829069 -0.00665742 9.94486 0.203066 31 1 
794 1.20511 9.9449 -0.00822442 -0.00659209 9.94491 0.205399 31 1 
796 1.20512 9.94527 -0.00817359 -0.00654492 9.94528 0.22379 31 1 
798 1.20515 9.9461 -0.00808912 -0.00650088 9.94611 0.276851 31 1 
800 1.20516 9.94674 -0.00801054 -0.00641764 9.94674 0.291953 31 1 
