29.8864;r ;Density                 ;Velocity u              ;Velocity v              ;Velocity w              ;|Velocity|              ;Pressure                ;Distribution            ;Levels                  ;
0 1.20428 9.99904 -8.44817e-05 -5.57666e-05 9.99904 -1.30591 1 1 
2 1.20431 9.99804 -0.000115067 -0.000110175 9.99804 -1.25219 1 1 
4 1.20431 9.99687 -0.000167707 -0.000194726 9.99687 -1.24766 1 1 
6 1.2043 9.99655 -0.000246714 -0.000298598 9.99655 -1.26798 1 1 
8 1.20431 9.997 -0.000327019 -0.000406631 9.997 -1.24705 1 1 
10 1.20431 9.99686 -0.000414865 -0.000504896 9.99686 -1.24785 1 1 
12 1.20432 9.99602 -0.000504791 -0.00062171 9.99602 -1.23711 1 1 
14 1.20431 9.99673 -0.000597336 -0.000725555 9.99673 -1.24461 1 1 
16 1.20433 9.99653 -0.000640837 -0.000787926 9.99653 -1.21615 1 1 
18 1.20434 9.99565 -0.000710655 -0.00088529 9.99565 -1.19438 1 1 
20 1.20433 9.99602 -0.000808998 -0.00100054 9.99602 -1.21372 1 1 
22 1.20434 9.99572 -0.000876795 -0.00109464 9.99572 -1.18417 1 1 
24 1.20434 9.99604 -0.000961594 -0.00119491 9.99604 -1.19699 1 1 
26 1.20432 9.99551 -0.00100234 -0.00124337 9.99551 -1.23279 1 1 
28 1.20433 9.99424 -0.00107131 -0.0013199 9.99424 -1.21787 1 1 
30 1.20433 9.99471 -0.00114396 -0.00141622 9.99471 -1.20356 1 1 
32 1.20435 9.99442 -0.00121991 -0.00149981 9.99442 -1.17957 1 1 
32 1.20435 9.99442 -0.00121991 -0.00149981 9.99442 -1.17957 1 1 
34 1.20435 9.99374 -0.00123015 -0.0015218 9.99374 -1.17895 1 1 
36 1.20435 9.99305 -0.00133051 -0.00163383 9.99305 -1.17004 1 1 
38 1.20435 9.99314 -0.0014081 -0.00173095 9.99314 -1.16988 1 1 
40 1.20436 9.99305 -0.00144229 -0.00179472 9.99305 -1.15938 1 1 
42 1.20435 9.99288 -0.00154994 -0.0019199 9.99288 -1.17018 1 1 
44 1.20434 9.99161 -0.00160354 -0.00197226 9.99161 -1.19933 1 1 
46 1.20434 9.99013 -0.00164999 -0.00202965 9.99013 -1.1922 1 1 
48 1.20433 9.99059 -0.0017244 -0.00214252 9.99059 -1.20542 1 1 
50 1.20434 9.99114 -0.00174848 -0.00216183 9.99114 -1.19245 1 1 
52 1.20435 9.99078 -0.00177804 -0.00221195 9.99078 -1.17022 1 1 
54 1.20435 9.99026 -0.00185857 -0.00230083 9.99026 -1.17224 1 1 
56 1.20436 9.99074 -0.00193222 -0.00239013 9.99074 -1.15878 1 1 
58 1.20437 9.99071 -0.00202143 -0.00251179 9.99071 -1.14652 1 1 
60 1.20435 9.9905 -0.00205771 -0.00256055 9.99051 -1.17227 1 1 
62 1.20435 9.98966 -0.00214038 -0.00266323 9.98966 -1.1757 1 1 
64 1.20434 9.98994 -0.00219979 -0.00272127 9.98994 -1.1834 1 1 
64 1.20434 9.98994 -0.00219979 -0.00272127 9.98994 -1.1834 2 1 
66 1.20434 9.98994 -0.00223616 -0.00277756 9.98994 -1.18498 2 1 
68 1.20433 9.98994 -0.00233662 -0.00288584 9.98994 -1.21115 2 1 
70 1.20433 9.98954 -0.00242177 -0.00300603 9.98954 -1.20716 2 1 
72 1.20433 9.98905 -0.00248567 -0.00310192 9.98905 -1.20587 2 1 
74 1.20434 9.98894 -0.00259059 -0.00320281 9.98894 -1.20056 2 1 
76 1.20436 9.98884 -0.00270013 -0.00334766 9.98884 -1.15335 2 1 
78 1.20434 9.98985 -0.00274926 -0.00342096 9.98985 -1.19479 2 1 
80 1.20433 9.98969 -0.00284998 -0.00354951 9.98969 -1.2128 2 1 
82 1.20433 9.98973 -0.00300286 -0.00373146 9.98973 -1.21392 2 1 
84 1.20433 9.98895 -0.00306466 -0.00378648 9.98895 -1.20186 2 1 
86 1.20434 9.98814 -0.00310234 -0.00384022 9.98814 -1.19632 2 1 
88 1.20431 9.98865 -0.00324805 -0.00402663 9.98865 -1.25137 2 1 
90 1.2043 9.98839 -0.00329921 -0.004096 9.98839 -1.27318 2 1 
92 1.2043 9.98823 -0.00336095 -0.0041656 9.98823 -1.27287 2 1 
94 1.20431 9.98836 -0.00348853 -0.00432157 9.98837 -1.2539 2 1 
96 1.20432 9.98837 -0.00356559 -0.00442307 9.98837 -1.23053 2 1 
96 1.20432 9.98837 -0.00356559 -0.00442307 9.98837 -1.23053 2 1 
98 1.20431 9.98919 -0.00364261 -0.00448459 9.98919 -1.23747 2 1 
100 1.2043 9.98971 -0.00369339 -0.00455551 9.98971 -1.25693 2 1 
102 1.20429 9.98963 -0.00384312 -0.00475612 9.98963 -1.28417 2 1 
104 1.20429 9.98891 -0.00395113 -0.0048878 9.98891 -1.29075 2 1 
106 1.20427 9.98863 -0.00391953 -0.00486303 9.98863 -1.31171 2 1 
108 1.20428 9.98777 -0.0040688 -0.00501628 9.98777 -1.30504 2 1 
110 1.20426 9.98821 -0.00416498 -0.00513005 9.98821 -1.33738 2 1 
112 1.20424 9.989 -0.00415765 -0.00516363 9.989 -1.36937 2 1 
114 1.20426 9.98814 -0.00424933 -0.00527159 9.98814 -1.33917 2 1 
116 1.20425 9.98965 -0.00444457 -0.00547729 9.98965 -1.35465 2 1 
118 1.20426 9.99059 -0.00446959 -0.00552951 9.99059 -1.34086 2 1 
120 1.20427 9.99009 -0.00444261 -0.00551461 9.99009 -1.32642 2 1 
122 1.20422 9.99065 -0.00460849 -0.00569908 9.99065 -1.40324 2 1 
124 1.20422 9.98917 -0.00474661 -0.00586706 9.98917 -1.41694 2 1 
126 1.20424 9.98781 -0.00475147 -0.00589629 9.98781 -1.37818 2 1 
128 1.2042 9.98951 -0.00474613 -0.00590458 9.98952 -1.45358 2 1 
128 1.2042 9.98951 -0.00474613 -0.00590458 9.98952 -1.45358 10 1 
130 1.2042 9.98979 -0.00492296 -0.00611906 9.98979 -1.44749 10 1 
132 1.2042 9.99075 -0.00495112 -0.00616219 9.99075 -1.44661 10 1 
134 1.20419 9.99109 -0.00489871 -0.00613485 9.99109 -1.45906 10 1 
136 1.20421 9.98964 -0.0050389 -0.00628934 9.98965 -1.41983 10 1 
138 1.2042 9.98963 -0.00528384 -0.0065392 9.98963 -1.45229 10 1 
140 1.2042 9.99015 -0.00527363 -0.0065786 9.99016 -1.44777 10 1 
142 1.20419 9.99049 -0.00518244 -0.00647691 9.9905 -1.46123 10 1 
144 1.20418 9.99068 -0.00535253 -0.00667483 9.99068 -1.48443 10 1 
146 1.20419 9.99109 -0.0055771 -0.00691123 9.99109 -1.46904 10 1 
148 1.20417 9.98993 -0.00554061 -0.00689537 9.98994 -1.49123 10 1 
150 1.20414 9.98991 -0.00545251 -0.00684644 9.98991 -1.55222 10 1 
152 1.20414 9.99074 -0.00566158 -0.00703633 9.99074 -1.5492 10 1 
154 1.20415 9.99067 -0.00579526 -0.00715524 9.99067 -1.54176 10 1 
156 1.20413 9.99167 -0.00572751 -0.00712889 9.99168 -1.56336 10 1 
158 1.20414 9.99214 -0.00570865 -0.00713458 9.99215 -1.54966 10 1 
160 1.20413 9.99139 -0.00595145 -0.00738128 9.99139 -1.56328 10 1 
160 1.20413 9.99139 -0.00595145 -0.00738128 9.99139 -1.56328 10 1 
162 1.2041 9.99241 -0.00618729 -0.00764435 9.99242 -1.62709 10 1 
164 1.20409 9.99213 -0.00609402 -0.00754401 9.99214 -1.64274 10 1 
166 1.2041 9.99091 -0.00605075 -0.00750886 9.99091 -1.63323 10 1 
168 1.20404 9.99399 -0.00628387 -0.00776467 9.99399 -1.72795 10 1 
170 1.20405 9.99332 -0.00648078 -0.00797316 9.99333 -1.71546 10 1 
172 1.20406 9.99293 -0.00635244 -0.00784725 9.99294 -1.70074 10 1 
174 1.20403 9.99452 -0.00606273 -0.00760718 9.99452 -1.74511 10 1 
176 1.20406 9.99303 -0.00610269 -0.00764484 9.99303 -1.69856 10 1 
178 1.20403 9.99487 -0.0062912 -0.00785164 9.99487 -1.75857 10 1 
180 1.20401 9.99524 -0.00634109 -0.00792954 9.99525 -1.78463 10 1 
182 1.20401 9.99302 -0.00621518 -0.00781744 9.99302 -1.7957 10 1 
184 1.20398 9.99243 -0.00613493 -0.00778965 9.99243 -1.85 10 1 
186 1.20401 9.99314 -0.00617724 -0.00784265 9.99314 -1.79202 10 1 
188 1.20401 9.99358 -0.00608488 -0.00772774 9.99359 -1.78415 10 1 
190 1.20398 9.99354 -0.00582982 -0.00746424 9.99355 -1.849 10 1 
192 1.20395 9.99384 -0.00540096 -0.00706898 9.99385 -1.8914 10 1 
194 1.20396 9.99193 -0.00555839 -0.00721868 9.99194 -1.87446 10 1 
196 1.20398 9.99016 -0.00613729 -0.00776874 9.99016 -1.85037 10 1 
198 1.20398 9.99047 -0.00654339 -0.00815514 9.99048 -1.84539 10 1 
200 1.20399 9.98975 -0.00680312 -0.00842718 9.98976 -1.81642 10 1 
202 1.20396 9.98946 -0.00646788 -0.00814292 9.98947 -1.87094 10 1 
204 1.20392 9.99017 -0.00597232 -0.00764055 9.99017 -1.95717 10 1 
206 1.20397 9.98772 -0.00577947 -0.00744797 9.98772 -1.86855 10 1 
208 1.20399 9.98753 -0.00565324 -0.00726727 9.98753 -1.821 10 1 
210 1.20395 9.99032 -0.00553002 -0.00712172 9.99033 -1.90169 10 1 
212 1.204 9.98604 -0.00551889 -0.00718243 9.98605 -1.81255 10 1 
214 1.20397 9.98301 -0.00550263 -0.00717209 9.98301 -1.8657 10 1 
216 1.20394 9.98084 -0.00557753 -0.00719397 9.98084 -1.91971 10 1 
218 1.204 9.97614 -0.0057025 -0.00728836 9.97615 -1.79969 10 1 
220 1.204 9.98023 -0.00565233 -0.00731615 9.98024 -1.8083 10 1 
222 1.20402 9.98202 -0.00560269 -0.00727393 9.98203 -1.77011 10 1 
224 1.20402 9.97836 -0.00556235 -0.00711975 9.97836 -1.77711 10 1 
224 1.20402 9.97836 -0.00556235 -0.00711975 9.97836 -1.77711 10 1 
226 1.20403 9.97563 -0.00558581 -0.00713902 9.97563 -1.75184 10 1 
228 1.20405 9.96801 -0.00565124 -0.00726882 9.96802 -1.72394 10 1 
230 1.20403 9.9614 -0.0057323 -0.00736739 9.9614 -1.7439 10 1 
232 1.20405 9.9622 -0.00571833 -0.00733152 9.9622 -1.71599 10 1 
234 1.2041 9.96131 -0.00565183 -0.00720516 9.96131 -1.62721 10 1 
236 1.20418 9.95501 -0.00563562 -0.007236 9.95502 -1.48177 10 1 
238 1.20411 9.95366 -0.00562424 -0.00724696 9.95366 -1.60577 10 1 
240 1.2042 9.94423 -0.00580846 -0.00741211 9.94424 -1.44275 10 1 
242 1.20423 9.93737 -0.00584532 -0.00744173 9.93738 -1.38744 10 1 
244 1.20417 9.93752 -0.00575434 -0.00735488 9.93752 -1.50022 10 1 
246 1.20434 9.92796 -0.00578841 -0.00737018 9.92797 -1.18298 10 1 
248 1.20437 9.92117 -0.00571818 -0.00726278 9.92117 -1.14214 10 1 
250 1.20437 9.91264 -0.00576264 -0.00731699 9.91264 -1.14107 10 1 
252 1.20443 9.90388 -0.00594108 -0.00748886 9.90388 -1.03098 10 1 
254 1.20453 9.89408 -0.00583472 -0.00735639 9.89409 -0.845083 10 1 
256 1.20459 9.88397 -0.0058429 -0.00736888 9.88397 -0.738871 10 1 
256 1.20459 9.88397 -0.0058429 -0.00736888 9.88397 -0.738871 11 1 
258 1.20464 9.8717 -0.00591286 -0.007461 9.87171 -0.653263 11 1 
260 1.20481 9.85813 -0.00593466 -0.00747172 9.85813 -0.348105 11 1 
262 1.20491 9.84186 -0.00605528 -0.00756188 9.84187 -0.16487 11 1 
264 1.20489 9.82496 -0.00601663 -0.00749223 9.82496 -0.19694 11 1 
266 1.20506 9.80929 -0.00599608 -0.00749641 9.8093 0.10571 11 1 
268 1.20543 9.77888 -0.00605654 -0.00756819 9.77889 0.776547 11 1 
270 1.20537 9.75865 -0.00615074 -0.00760903 9.75867 0.668883 11 1 
272 1.20553 9.72864 -0.00611212 -0.00753406 9.72866 0.948443 11 1 
274 1.20599 9.68619 -0.00613145 -0.0075911 9.68619 1.79616 11 1 
276 1.20601 9.65853 -0.00619859 -0.00763916 9.65853 1.82621 11 1 
278 1.2063 9.61594 -0.00623867 -0.00766563 9.61595 2.34549 11 1 
280 1.20685 9.57162 -0.00626385 -0.00767745 9.57164 3.34692 11 1 
282 1.20724 9.51179 -0.00625061 -0.00764347 9.51188 4.04278 11 1 
284 1.20751 9.42312 -0.00625652 -0.00767215 9.42328 4.52796 11 1 
286 1.20785 9.33313 -0.00630112 -0.00768242 9.33323 5.14888 11 1 
288 1.20854 9.24779 -0.00634094 -0.00771563 9.2478 6.3866 11 1 
288 1.20854 9.24779 -0.00634094 -0.00771563 9.2478 6.3866 11 1 
290 1.20934 9.17357 -0.00630712 -0.00768288 9.17359 7.8412 11 1 
292 1.20999 9.07491 -0.00639084 -0.00775265 9.07501 9.01259 11 1 
294 1.21054 8.93845 -0.00638791 -0.00775077 8.9387 10.0079 11 1 
296 1.21132 8.79788 -0.00633244 -0.00765465 8.79807 11.4072 11 1 
298 1.20702 8.62712 -0.00639744 -0.00769464 8.6272 3.65598 11 1 
300 1.1997 8.55627 -0.00629833 -0.0076045 8.55638 -9.57533 11 1 
302 1.19743 8.52681 -0.00635064 -0.00764812 8.52686 -13.6749 11 1 
304 1.19805 8.41072 -0.00643671 -0.00770148 8.41084 -12.5531 11 1 
306 1.19879 8.28058 -0.00639719 -0.0076474 8.28076 -11.2103 11 1 
308 1.19937 8.16044 -0.00640411 -0.00763592 8.16064 -10.1728 11 1 
310 1.19975 8.0708 -0.00636282 -0.00757771 8.07094 -9.48415 11 1 
312 1.20022 7.97486 -0.00639266 -0.00762217 7.9749 -8.62779 11 1 
314 1.20069 7.90348 -0.00649074 -0.00770427 7.90351 -7.77612 11 1 
316 1.20107 7.85043 -0.00655127 -0.00774297 7.85045 -7.10451 11 1 
318 1.20137 7.78162 -0.00656023 -0.00775733 7.78164 -6.55055 11 1 
320 1.20164 7.73814 -0.00653426 -0.00771809 7.73815 -6.07675 11 1 
320 1.20164 7.73814 -0.00653426 -0.00771809 7.73815 -6.07675 15 1 
322 1.20192 7.70754 -0.00660378 -0.00778395 7.70755 -5.56674 15 1 
324 1.20217 7.66106 -0.00666827 -0.00784367 7.66107 -5.11123 15 1 
326 1.20236 7.62739 -0.00662657 -0.00778456 7.6274 -4.76532 15 1 
328 1.20256 7.59711 -0.00658555 -0.0077322 7.59713 -4.41141 15 1 
330 1.20267 7.56345 -0.00663532 -0.00776878 7.56347 -4.20755 15 1 
332 1.20283 7.54253 -0.00667345 -0.00780184 7.54255 -3.92554 15 1 
334 1.20303 7.51273 -0.00667552 -0.00780564 7.51275 -3.56263 15 1 
336 1.20302 7.47711 -0.00668999 -0.00779856 7.47713 -3.57044 15 1 
338 1.20306 7.45789 -0.00672711 -0.0078269 7.45791 -3.5071 15 1 
340 1.20328 7.44157 -0.00680439 -0.00792857 7.44158 -3.11258 15 1 
342 1.20338 7.42374 -0.00683793 -0.00795797 7.42375 -2.92499 15 1 
344 1.20337 7.40254 -0.00680983 -0.00790539 7.40255 -2.94 15 1 
346 1.2034 7.37874 -0.00684094 -0.00795298 7.37875 -2.88147 15 1 
348 1.20354 7.37486 -0.00698026 -0.00812016 7.37487 -2.62955 15 1 
350 1.20367 7.37451 -0.00706009 -0.00819022 7.37452 -2.40417 15 1 
352 1.20364 7.35611 -0.00704896 -0.00816691 7.35611 -2.45578 15 1 
354 1.20365 7.34538 -0.00709535 -0.00823809 7.34539 -2.43242 15 1 
356 1.20375 7.34522 -0.00724846 -0.00841724 7.34523 -2.26552 15 1 
358 1.2038 7.34309 -0.00734878 -0.00849335 7.3431 -2.15973 15 1 
360 1.20388 7.34427 -0.00733878 -0.00846674 7.34428 -2.02422 15 1 
362 1.20392 7.34275 -0.00733603 -0.00849778 7.34276 -1.94251 15 1 
364 1.20396 7.3393 -0.00744159 -0.00860775 7.33932 -1.88626 15 1 
366 1.204 7.33964 -0.0075612 -0.00870163 7.33965 -1.80891 15 1 
368 1.20401 7.34112 -0.00755739 -0.00872113 7.34113 -1.78805 15 1 
370 1.20407 7.34531 -0.00748849 -0.00868147 7.34533 -1.67513 15 1 
372 1.20413 7.3458 -0.00752827 -0.00870525 7.34582 -1.56237 15 1 
374 1.20414 7.34224 -0.00764863 -0.00881873 7.34225 -1.56166 15 1 
376 1.20417 7.34333 -0.00769318 -0.00888262 7.34334 -1.49804 15 1 
378 1.20422 7.3447 -0.00766146 -0.00885648 7.34471 -1.41466 15 1 
380 1.20425 7.34567 -0.00765142 -0.00883607 7.34568 -1.34815 15 1 
382 1.2043 7.34719 -0.00769724 -0.00887492 7.3472 -1.26051 15 1 
384 1.20432 7.34182 -0.00774304 -0.00891985 7.34183 -1.22809 15 1 
384 1.20432 7.34182 -0.00774304 -0.00891985 7.34183 -1.22809 16 1 
386 1.20434 7.33812 -0.00773625 -0.00892437 7.33813 -1.19402 16 1 
388 1.20437 7.34003 -0.00773633 -0.00893062 7.34004 -1.13147 16 1 
390 1.2044 7.33761 -0.00779936 -0.00897438 7.33762 -1.07534 16 1 
392 1.20444 7.33338 -0.00784995 -0.00903316 7.33339 -1.01403 16 1 
394 1.20446 7.32819 -0.00788022 -0.00910376 7.3282 -0.983408 16 1 
396 1.20448 7.32201 -0.0079202 -0.00914096 7.32202 -0.946514 16 1 
398 1.20451 7.31899 -0.00791672 -0.00911789 7.319 -0.887877 16 1 
400 1.20454 7.31551 -0.00787887 -0.00911212 7.31552 -0.833638 16 1 
402 1.20456 7.3083 -0.00790882 -0.00917031 7.30832 -0.793816 16 1 
404 1.20456 7.29984 -0.00797003 -0.00922055 7.29985 -0.78638 16 1 
406 1.20459 7.29269 -0.00795826 -0.00922647 7.2927 -0.746582 16 1 
408 1.20463 7.28828 -0.0079441 -0.00923744 7.28829 -0.668671 16 1 
410 1.20465 7.28242 -0.00802109 -0.00932418 7.28244 -0.632753 16 1 
412 1.20466 7.2738 -0.00809653 -0.00942332 7.27382 -0.622948 16 1 
414 1.20467 7.26651 -0.0081112 -0.0094569 7.26652 -0.590734 16 1 
416 1.2047 7.25893 -0.00810286 -0.00947501 7.25894 -0.54519 16 1 
416 1.2047 7.25893 -0.00810286 -0.00947501 7.25894 -0.54519 16 1 
418 1.20471 7.2518 -0.00809773 -0.00952579 7.25182 -0.517931 16 1 
420 1.20473 7.24665 -0.00813135 -0.00959575 7.24666 -0.479015 16 1 
422 1.20478 7.2412 -0.00821083 -0.00968224 7.24121 -0.398932 16 1 
424 1.2048 7.2354 -0.00829111 -0.00978983 7.23542 -0.357916 16 1 
426 1.2048 7.22846 -0.00836806 -0.00990962 7.22847 -0.35422 16 1 
428 1.20481 7.22132 -0.00846595 -0.010012 7.22133 -0.33814 16 1 
430 1.20484 7.217 -0.00856367 -0.010099 7.21701 -0.296845 16 1 
432 1.20487 7.21245 -0.00863632 -0.0101828 7.21246 -0.233677 16 1 
434 1.20487 7.20627 -0.00868271 -0.0102453 7.20628 -0.24329 16 1 
436 1.20486 7.20173 -0.00872989 -0.0102967 7.20175 -0.256948 16 1 
438 1.2049 7.19929 -0.00878753 -0.0103523 7.1993 -0.18058 16 1 
440 1.20494 7.19779 -0.00885444 -0.0104044 7.1978 -0.117421 16 1 
442 1.20497 7.19471 -0.00897312 -0.0105165 7.19472 -0.0543127 16 1 
444 1.20499 7.18999 -0.00911656 -0.0106932 7.19 -0.0268345 16 1 
446 1.20496 7.18713 -0.00921926 -0.0108274 7.18715 -0.0701505 16 1 
448 1.20498 7.18673 -0.00928897 -0.0109029 7.18674 -0.0441231 16 1 
448 1.20498 7.18673 -0.00928897 -0.0109029 7.18674 -0.0441231 17 1 
450 1.20499 7.18784 -0.00931626 -0.0109403 7.18785 -0.0119577 17 1 
452 1.20499 7.18914 -0.00932099 -0.0109666 7.18915 -0.00936579 17 1 
454 1.20503 7.18916 -0.00936021 -0.0110275 7.18917 0.0522483 17 1 
456 1.20507 7.18895 -0.00942142 -0.0111011 7.18896 0.123639 17 1 
458 1.2051 7.18953 -0.00948832 -0.0111955 7.18954 0.176912 17 1 
460 1.2051 7.19204 -0.00961614 -0.0113727 7.19206 0.176477 17 1 
462 1.20509 7.19739 -0.00978913 -0.0115761 7.1974 0.167253 17 1 
464 1.20511 7.20357 -0.00988661 -0.0116937 7.20358 0.207423 17 1 
466 1.20512 7.20834 -0.0098681 -0.0116864 7.20836 0.213426 17 1 
468 1.20512 7.21125 -0.00980439 -0.0116243 7.21127 0.214428 17 1 
470 1.20513 7.21294 -0.00979038 -0.0116283 7.21295 0.240035 17 1 
472 1.20516 7.21489 -0.00988542 -0.0117434 7.21491 0.295972 17 1 
474 1.2052 7.21946 -0.0100732 -0.011971 7.21948 0.364437 17 1 
476 1.2052 7.22805 -0.0102629 -0.0122254 7.22806 0.366447 17 1 
478 1.20521 7.24061 -0.0103955 -0.0123795 7.24063 0.373057 17 1 
480 1.20521 7.25553 -0.0104698 -0.0124371 7.25555 0.384864 17 1 
480 1.20521 7.25553 -0.0104698 -0.0124371 7.25555 0.384864 17 1 
482 1.20521 7.26806 -0.0104353 -0.0124008 7.26808 0.380205 17 1 
484 1.20522 7.27582 -0.0103312 -0.0122871 7.27584 0.393696 17 1 
486 1.20522 7.28021 -0.010296 -0.012211 7.28022 0.403179 17 1 
488 1.20526 7.2837 -0.0103612 -0.0122658 7.28372 0.464631 17 1 
490 1.20529 7.29089 -0.0104765 -0.0124589 7.29091 0.518697 17 1 
492 1.20529 7.30322 -0.0106807 -0.0127278 7.30324 0.52952 17 1 
494 1.2053 7.31999 -0.0109504 -0.0129802 7.32001 0.534234 17 1 
496 1.20528 7.34103 -0.0110798 -0.0131225 7.34105 0.508772 17 1 
498 1.20529 7.36279 -0.0109935 -0.0130727 7.36282 0.524013 17 1 
500 1.20531 7.3818 -0.0108224 -0.0128502 7.38182 0.551828 17 1 
502 1.20533 7.39363 -0.0106376 -0.0125841 7.39365 0.591593 17 1 
504 1.20536 7.3954 -0.010487 -0.0124111 7.39542 0.645916 17 1 
506 1.20536 7.39275 -0.0104891 -0.012418 7.39277 0.651256 17 1 
508 1.20536 7.39297 -0.010694 -0.0126491 7.39299 0.658832 17 1 
510 1.20535 7.40147 -0.0109848 -0.013025 7.40149 0.636386 17 1 
512 1.20536 7.42103 -0.011225 -0.0133528 7.42106 0.647356 17 1 
512 1.20536 7.42103 -0.011225 -0.0133528 7.42106 0.647356 25 1 
514 1.20538 7.44936 -0.011361 -0.0135115 7.4494 0.693756 25 1 
516 1.20538 7.48161 -0.0113449 -0.0134987 7.48164 0.682401 25 1 
518 1.20539 7.51263 -0.0112113 -0.0133573 7.51266 0.708836 25 1 
520 1.20542 7.5374 -0.0109995 -0.0130734 7.53743 0.751805 25 1 
522 1.20544 7.55013 -0.0106797 -0.0126338 7.55015 0.8027 25 1 
524 1.20545 7.54684 -0.0102219 -0.0120735 7.54686 0.814363 25 1 
526 1.20542 7.52586 -0.00970239 -0.0114454 7.52588 0.752259 25 1 
528 1.20541 7.48953 -0.00927952 -0.0109082 7.48956 0.735369 25 1 
530 1.2054 7.44343 -0.00905318 -0.0106342 7.44346 0.720587 25 1 
532 1.20539 7.39257 -0.00907517 -0.0106604 7.39261 0.708876 25 1 
534 1.20541 7.34531 -0.00933686 -0.0109394 7.34535 0.734352 25 1 
536 1.20544 7.30982 -0.00973988 -0.0114055 7.30985 0.794026 25 1 
538 1.20547 7.29075 -0.0102024 -0.0119725 7.29077 0.840678 25 1 
540 1.20544 7.29104 -0.0106831 -0.012544 7.29106 0.792749 25 1 
542 1.20542 7.31179 -0.0111515 -0.01309 7.31182 0.757033 25 1 
544 1.20545 7.35317 -0.0116135 -0.0136183 7.35321 0.811765 25 1 
544 1.20545 7.35317 -0.0116135 -0.0136183 7.35321 0.811765 25 1 
546 1.20552 7.41296 -0.0120696 -0.0141256 7.41301 0.93127 25 1 
548 1.20557 7.48755 -0.012507 -0.0145971 7.48762 1.03758 25 1 
550 1.2056 7.57466 -0.0128614 -0.0149646 7.57474 1.09072 25 1 
552 1.20564 7.67255 -0.0130915 -0.0152071 7.67266 1.14914 25 1 
554 1.20567 7.77909 -0.0132178 -0.0153389 7.7792 1.20634 25 1 
556 1.20568 7.89206 -0.0132919 -0.015379 7.89218 1.22181 25 1 
558 1.20567 8.00952 -0.0133428 -0.0153834 8.00965 1.21816 25 1 
560 1.20572 8.13127 -0.0134094 -0.0154125 8.13141 1.29606 25 1 
562 1.2058 8.25635 -0.0135131 -0.015465 8.25649 1.44422 25 1 
564 1.20585 8.38098 -0.0135781 -0.0154655 8.38111 1.53677 25 1 
566 1.20583 8.50271 -0.0135396 -0.015367 8.50284 1.49661 25 1 
568 1.20577 8.62159 -0.0134094 -0.0151615 8.62171 1.38343 25 1 
570 1.20575 8.73851 -0.0132442 -0.0148994 8.73863 1.3543 25 1 
572 1.20579 8.85292 -0.0130839 -0.0146574 8.85303 1.4202 25 1 
574 1.20581 8.96223 -0.0129623 -0.0144705 8.96233 1.46244 25 1 
576 1.20579 9.06488 -0.0128461 -0.0142764 9.06496 1.41921 25 1 
576 1.20579 9.06488 -0.0128461 -0.0142764 9.06496 1.41921 26 1 
578 1.20576 9.16163 -0.0126963 -0.014042 9.16171 1.37585 26 1 
580 1.20577 9.2531 -0.0125185 -0.01379 9.25317 1.38747 26 1 
582 1.20577 9.33812 -0.0123114 -0.0134996 9.33818 1.38463 26 1 
584 1.20573 9.41549 -0.0120685 -0.0131692 9.41554 1.31347 26 1 
586 1.20567 9.48576 -0.0118313 -0.0128656 9.4858 1.21703 26 1 
588 1.20566 9.55043 -0.0116311 -0.012592 9.55047 1.1995 26 1 
590 1.20569 9.60849 -0.0114513 -0.0123328 9.60853 1.24152 26 1 
592 1.20568 9.65853 -0.0112657 -0.012082 9.65856 1.23078 26 1 
594 1.20564 9.70093 -0.0110649 -0.0118143 9.70096 1.1567 26 1 
596 1.20561 9.73638 -0.0108522 -0.0115324 9.7364 1.10764 26 1 
598 1.20561 9.76617 -0.0106279 -0.0112584 9.76619 1.10622 26 1 
600 1.20562 9.79139 -0.0104577 -0.0110473 9.7914 1.11137 26 1 
602 1.20559 9.81224 -0.0103797 -0.0109138 9.81225 1.07263 26 1 
604 1.20557 9.82897 -0.0103042 -0.01079 9.82898 1.03136 26 1 
606 1.20557 9.84295 -0.0101905 -0.010623 9.84297 1.03718 26 1 
608 1.20557 9.85505 -0.0100907 -0.0104494 9.85506 1.03063 26 1 
608 1.20557 9.85505 -0.0100907 -0.0104494 9.85506 1.03063 26 1 
610 1.20555 9.8647 -0.010016 -0.0103026 9.86471 0.986572 26 1 
612 1.20551 9.87342 -0.00995207 -0.0101933 9.87343 0.929595 26 1 
614 1.20552 9.88228 -0.00991743 -0.0101123 9.88229 0.938889 26 1 
616 1.20554 9.89098 -0.00991962 -0.0100671 9.89099 0.9832 26 1 
618 1.20553 9.89879 -0.00989399 -0.0100099 9.8988 0.956947 26 1 
620 1.20549 9.90526 -0.00979331 -0.0098727 9.90527 0.878583 26 1 
622 1.20546 9.91237 -0.00971095 -0.00975188 9.91238 0.839221 26 1 
624 1.20548 9.91986 -0.00970847 -0.00971892 9.91987 0.863913 26 1 
626 1.20548 9.92572 -0.00970518 -0.00968644 9.92573 0.872918 26 1 
628 1.20545 9.93019 -0.00965757 -0.00960901 9.9302 0.814959 26 1 
630 1.20541 9.93409 -0.00957007 -0.00950951 9.9341 0.73218 26 1 
632 1.2054 9.93846 -0.00948085 -0.00940841 9.93847 0.719968 26 1 
634 1.20542 9.94333 -0.00945004 -0.00934893 9.94334 0.755001 26 1 
636 1.20541 9.94741 -0.00945147 -0.00932564 9.94742 0.742715 26 1 
638 1.20538 9.95085 -0.00939746 -0.00925473 9.95086 0.686826 26 1 
640 1.20537 9.95448 -0.00930165 -0.0091208 9.95449 0.668081 26 1 
642 1.20539 9.95805 -0.00923717 -0.00902287 9.95806 0.697628 26 1 
644 1.20539 9.9605 -0.00918482 -0.00895483 9.9605 0.702452 26 1 
646 1.20536 9.9611 -0.00914518 -0.00887933 9.9611 0.648482 26 1 
648 1.20534 9.96144 -0.00911198 -0.00880913 9.96145 0.605105 26 1 
650 1.20536 9.96314 -0.00907732 -0.0087528 9.96315 0.651119 26 1 
652 1.20539 9.96498 -0.00901498 -0.00866258 9.96499 0.708606 26 1 
654 1.20538 9.96628 -0.00894915 -0.00857121 9.96629 0.680605 26 1 
656 1.20534 9.96745 -0.00892701 -0.00852946 9.96746 0.611662 26 1 
658 1.20533 9.96892 -0.00889541 -0.00847856 9.96892 0.599551 26 1 
660 1.20536 9.9701 -0.00881797 -0.00839008 9.97011 0.651906 26 1 
662 1.20538 9.9695 -0.00872118 -0.0082868 9.96951 0.694325 26 1 
664 1.20537 9.96835 -0.00865952 -0.00822632 9.96836 0.676453 26 1 
666 1.20536 9.96791 -0.00865215 -0.00820713 9.96792 0.641789 26 1 
668 1.20536 9.96874 -0.00864641 -0.00818808 9.96875 0.650046 26 1 
670 1.20536 9.97059 -0.00858803 -0.00814581 9.97059 0.65758 26 1 
672 1.20534 9.97089 -0.00849596 -0.00806585 9.9709 0.612199 26 1 
672 1.20534 9.97089 -0.00849596 -0.00806585 9.9709 0.612199 27 1 
674 1.20532 9.96992 -0.00842149 -0.00797307 9.96992 0.57804 27 1 
676 1.20535 9.9698 -0.00839126 -0.00792747 9.9698 0.632921 27 1 
678 1.20539 9.97039 -0.00837553 -0.00792911 9.9704 0.703857 27 1 
680 1.20536 9.97013 -0.00832644 -0.00788674 9.97014 0.656795 27 1 
682 1.2053 9.96866 -0.00821915 -0.00776673 9.96866 0.538677 27 1 
684 1.20529 9.9681 -0.008158 -0.00769243 9.96811 0.522821 27 1 
686 1.20535 9.96965 -0.00813287 -0.00767756 9.96966 0.638542 27 1 
688 1.20539 9.97198 -0.00810181 -0.00764743 9.97198 0.710122 27 1 
690 1.20534 9.97256 -0.00806384 -0.00758319 9.97256 0.614268 27 1 
692 1.20526 9.97076 -0.00798902 -0.00751308 9.97077 0.461895 27 1 
694 1.20526 9.96942 -0.00790693 -0.00744506 9.96942 0.467631 27 1 
696 1.20536 9.97029 -0.00785511 -0.00737771 9.97029 0.641467 27 1 
698 1.20539 9.97164 -0.00783175 -0.00734001 9.97164 0.711022 27 1 
700 1.20531 9.97183 -0.00777778 -0.007294 9.97183 0.560089 27 1 
702 1.20523 9.972 -0.0076905 -0.00720257 9.972 0.415936 27 1 
704 1.20526 9.97339 -0.00764897 -0.00714544 9.97339 0.473949 27 1 
704 1.20526 9.97339 -0.00764897 -0.00714544 9.97339 0.473949 31 1 
706 1.20535 9.97506 -0.00761062 -0.00710592 9.97506 0.630744 31 1 
708 1.20536 9.97517 -0.00755696 -0.00705059 9.97517 0.650045 31 1 
710 1.20527 9.97326 -0.00750623 -0.00698663 9.97327 0.490979 31 1 
712 1.20522 9.97172 -0.00742924 -0.00691657 9.97172 0.39217 31 1 
714 1.20526 9.97355 -0.00734932 -0.00683807 9.97355 0.478536 31 1 
716 1.20532 9.97764 -0.00731129 -0.00678831 9.97765 0.586358 31 1 
718 1.20532 9.97974 -0.00729322 -0.00676415 9.97974 0.569526 31 1 
720 1.20526 9.97774 -0.00723449 -0.0066961 9.97775 0.462081 31 1 
722 1.20522 9.97465 -0.00714417 -0.00660208 9.97465 0.405232 31 1 
724 1.20526 9.97441 -0.00707428 -0.00653122 9.97442 0.465071 31 1 
726 1.20529 9.97618 -0.00702746 -0.00647653 9.97618 0.520426 31 1 
728 1.20526 9.97755 -0.00697467 -0.0064117 9.97756 0.477798 31 1 
730 1.20522 9.97744 -0.00693282 -0.00636993 9.97744 0.405331 31 1 
732 1.20521 9.97709 -0.00687264 -0.00630949 9.9771 0.384163 31 1 
734 1.20524 9.97737 -0.00679931 -0.00622741 9.97737 0.437746 31 1 
736 1.20527 9.97612 -0.00674094 -0.00616253 9.97612 0.479768 31 1 
738 1.20524 9.97401 -0.00670745 -0.00612342 9.97401 0.428275 31 1 
740 1.20519 9.97395 -0.00664239 -0.00605096 9.97396 0.336787 31 1 
742 1.20517 9.97577 -0.00656393 -0.00597341 9.97578 0.313891 31 1 
744 1.20522 9.97777 -0.00651311 -0.00592681 9.97777 0.397835 31 1 
746 1.20525 9.97696 -0.00646603 -0.00586957 9.97696 0.458219 31 1 
748 1.20521 9.97349 -0.00641618 -0.0057961 9.97349 0.371464 31 1 
750 1.20514 9.97193 -0.00633232 -0.00571155 9.97193 0.256024 31 1 
752 1.20514 9.97223 -0.00626965 -0.00565587 9.97223 0.259529 31 1 
752 1.20514 9.97223 -0.00626965 -0.00565587 9.97223 0.259529 31 1 
754 1.2052 9.97463 -0.00625649 -0.0056256 9.97464 0.362845 31 1 
756 1.20523 9.97714 -0.00621001 -0.00557842 9.97714 0.412566 31 1 
758 1.20517 9.97461 -0.00612737 -0.00550065 9.97461 0.313824 31 1 
760 1.20512 9.97164 -0.00603594 -0.00539937 9.97165 0.223374 31 1 
762 1.20512 9.97035 -0.00597649 -0.00533934 9.97035 0.222611 31 1 
764 1.20515 9.97172 -0.0059268 -0.00529062 9.97172 0.276844 31 1 
766 1.20519 9.97553 -0.00587105 -0.0052241 9.97554 0.34297 31 1 
768 1.20517 9.97429 -0.00582579 -0.00518237 9.97429 0.302365 31 1 
770 1.20511 9.97147 -0.00575816 -0.00511263 9.97147 0.20221 31 1 
772 1.2051 9.97115 -0.00569455 -0.00503029 9.97115 0.182466 31 1 
774 1.20512 9.97075 -0.00562681 -0.00496723 9.97075 0.223091 31 1 
776 1.20514 9.97234 -0.00556457 -0.00490847 9.97234 0.254303 31 1 
778 1.20512 9.97321 -0.00548191 -0.00481717 9.97321 0.224553 31 1 
780 1.20509 9.97111 -0.00540614 -0.00474024 9.97111 0.16149 31 1 
782 1.2051 9.97212 -0.00537907 -0.00472368 9.97212 0.172673 31 1 
784 1.20511 9.97141 -0.0053426 -0.00468131 9.97141 0.195713 31 1 
786 1.20511 9.97039 -0.00528548 -0.0046159 9.9704 0.201453 31 1 
788 1.2051 9.97145 -0.00521717 -0.00454175 9.97145 0.183726 31 1 
790 1.20506 9.96962 -0.00510939 -0.00443524 9.96962 0.103605 31 1 
792 1.20505 9.97158 -0.004997 -0.00432131 9.97158 0.0979536 31 1 
794 1.20508 9.97198 -0.00497396 -0.00428671 9.97198 0.144222 31 1 
796 1.20509 9.96911 -0.00495993 -0.00427112 9.96911 0.171106 31 1 
798 1.20509 9.97046 -0.00492883 -0.00422918 9.97046 0.168297 31 1 
800 1.20508 9.97198 -0.0049293 -0.00422566 9.97198 0.144033 31 1 
