8.15083;r ;Density                 ;Velocity u              ;Velocity v              ;Velocity w              ;|Velocity|              ;Pressure                ;Distribution            ;Levels                  ;
0 1.205 10 -4.72126e-05 -5.73981e-05 10 0.000779422 1 1 
2 1.205 9.99952 -3.0729e-05 -3.58607e-05 9.99952 -0.00342023 1 1 
4 1.20499 9.9987 -2.82817e-05 -2.42593e-05 9.9987 -0.011877 1 1 
6 1.20499 9.99885 -2.02725e-05 -1.0051e-05 9.99885 -0.0173356 1 1 
8 1.205 9.99891 -1.25525e-05 -3.12489e-06 9.99891 -0.00449499 1 1 
10 1.205 9.99872 -7.81605e-06 5.52001e-07 9.99872 -0.00505508 1 1 
12 1.205 9.99908 2.2737e-06 7.90827e-06 9.99908 -0.00263612 1 1 
14 1.205 9.99978 2.75491e-06 5.57052e-06 9.99978 -0.00875589 1 1 
16 1.20498 9.99967 1.04477e-06 3.87983e-06 9.99967 -0.0328364 1 1 
18 1.20499 9.9993 -3.54819e-07 1.95314e-07 9.9993 -0.00963059 1 1 
20 1.205 9.99999 8.84671e-06 8.80616e-06 9.99999 -0.00205124 1 1 
22 1.20499 9.99951 9.47715e-06 1.1452e-05 9.99951 -0.00926971 1 1 
24 1.205 9.99971 1.70343e-06 4.02466e-06 9.99971 -0.00706639 1 1 
26 1.20503 9.99871 5.33088e-06 8.05532e-06 9.99871 0.0510208 1 1 
28 1.20509 9.9961 1.73238e-05 1.90757e-05 9.9961 0.167417 1 1 
30 1.20522 9.9916 7.60813e-06 1.08837e-05 9.9916 0.40139 1 1 
32 1.20549 9.98232 9.34886e-06 1.12398e-05 9.98232 0.880321 1 1 
32 1.20549 9.98232 9.34886e-06 1.12398e-05 9.98232 0.880321 1 1 
34 1.20583 9.97044 2.78174e-05 2.75697e-05 9.97044 1.50017 1 1 
36 1.20615 9.95923 2.57904e-06 5.28146e-06 9.95923 2.0758 1 1 
38 1.20618 9.95898 1.16129e-05 1.13932e-05 9.95898 2.12768 1 1 
40 1.20569 9.97531 1.94292e-05 2.13546e-05 9.97531 1.2457 1 1 
42 1.20486 10.003 2.29718e-06 2.70704e-06 10.003 -0.254167 1 1 
44 1.20432 10.0211 4.73632e-05 4.68158e-05 10.0211 -1.22881 1 1 
46 1.20466 10.01 0.000103525 0.000105015 10.01 -0.622793 1 1 
48 1.20565 9.9775 0.000246016 0.000242623 9.9775 1.17974 1 1 
50 1.20624 9.95908 0.000516451 0.000514706 9.95908 2.23553 1 1 
52 1.2058 9.97273 0.00083978 0.000830473 9.97273 1.44636 1 1 
54 1.20525 9.98907 0.00118721 0.0011765 9.98907 0.44594 1 1 
56 1.20567 9.9764 0.00141651 0.0014062 9.9764 1.21905 1 1 
58 1.20639 9.95505 0.00137888 0.0013673 9.95505 2.5133 1 1 
60 1.20592 9.96932 0.00107595 0.00107424 9.96932 1.66576 1 1 
62 1.20499 9.99706 0.00059069 0.000595401 9.99706 -0.0159732 1 1 
64 1.20529 9.98897 7.87626e-05 9.90056e-05 9.98897 0.529784 1 1 
64 1.20529 9.98897 7.87626e-05 9.90056e-05 9.98897 0.529784 2 1 
66 1.20595 9.97059 -0.000220046 -0.000191904 9.97059 1.71375 2 1 
68 1.20529 9.98944 -0.000219016 -0.000183032 9.98944 0.52488 2 1 
70 1.20465 10.0081 1.23444e-05 4.86482e-05 10.0081 -0.632267 2 1 
72 1.2053 9.99125 0.000354292 0.000380803 9.99125 0.533787 2 1 
74 1.20548 9.9861 0.000577554 0.000598798 9.9861 0.869163 2 1 
76 1.20473 10.0062 0.0006828 0.00069067 10.0062 -0.486487 2 1 
78 1.20492 10.0022 0.000743081 0.000743299 10.0022 -0.153381 2 1 
80 1.20554 9.9846 0.000788708 0.000781659 9.9846 0.981977 2 1 
82 1.20514 9.99476 0.000805706 0.000789814 9.99476 0.249379 2 1 
84 1.20489 10.0028 0.000704559 0.000683981 10.0028 -0.192908 2 1 
86 1.20517 9.9961 0.000477473 0.000460497 9.9961 0.304009 2 1 
88 1.20497 10.0005 0.0002215 0.000212561 10.0005 -0.0539538 2 1 
90 1.20492 10.0025 0.000164944 0.000156642 10.0025 -0.14166 2 1 
92 1.20504 9.99989 0.000214348 0.000212128 9.99989 0.0784424 2 1 
94 1.2048 10.0055 0.000296887 0.000291789 10.0055 -0.353538 2 1 
96 1.20479 10.0064 0.000328723 0.000317033 10.0064 -0.371064 2 1 
96 1.20479 10.0064 0.000328723 0.000317033 10.0064 -0.371064 2 1 
98 1.20486 10.0055 0.000185976 0.000180502 10.0055 -0.256877 2 1 
100 1.20469 10.0097 0.000136774 0.000129101 10.0097 -0.567444 2 1 
102 1.20467 10.0102 0.000152958 0.000143239 10.0102 -0.590908 2 1 
104 1.20483 10.0054 0.000299675 0.000292259 10.0054 -0.302334 2 1 
106 1.20492 10.0033 0.000500553 0.000489742 10.0033 -0.138205 2 1 
108 1.20472 10.009 0.000518151 0.000505971 10.009 -0.508689 2 1 
110 1.20459 10.0122 0.000456828 0.000436169 10.0122 -0.73525 2 1 
112 1.20484 10.0062 0.000362023 0.000336716 10.0062 -0.292211 2 1 
114 1.20482 10.0058 0.000354904 0.000326745 10.0058 -0.330745 2 1 
116 1.20466 10.01 0.000439153 0.000410735 10.01 -0.611238 2 1 
118 1.20479 10.0068 0.000545663 0.000518553 10.0068 -0.387735 2 1 
120 1.20486 10.0047 0.000574181 0.000544452 10.0047 -0.249038 2 1 
122 1.20476 10.008 0.000546736 0.000517746 10.008 -0.425231 2 1 
124 1.20471 10.0087 0.000514306 0.000467001 10.0087 -0.529027 2 1 
126 1.20476 10.0071 0.000495772 0.000450905 10.0071 -0.431679 2 1 
128 1.2048 10.0065 0.000517432 0.000477062 10.0065 -0.359873 2 1 
128 1.2048 10.0065 0.000517432 0.000477062 10.0065 -0.359873 10 1 
130 1.2048 10.006 0.000544845 0.000507988 10.006 -0.368955 10 1 
132 1.20473 10.0082 0.000608679 0.000579777 10.0082 -0.479183 10 1 
134 1.2048 10.0066 0.00060641 0.00056692 10.0066 -0.370071 10 1 
136 1.2048 10.006 0.000608712 0.000566808 10.006 -0.356281 10 1 
138 1.20473 10.0082 0.000623311 0.000585757 10.0082 -0.48698 10 1 
140 1.20476 10.0073 0.000612067 0.000570832 10.0073 -0.4419 10 1 
142 1.20472 10.0077 0.00059811 0.000551566 10.0077 -0.510176 10 1 
144 1.20475 10.0069 0.000614017 0.000565388 10.0069 -0.45043 10 1 
146 1.20479 10.0063 0.000656416 0.000590487 10.0063 -0.383098 10 1 
148 1.20476 10.0065 0.000689888 0.000620456 10.0065 -0.440884 10 1 
150 1.20473 10.008 0.000734411 0.000658055 10.008 -0.481274 10 1 
152 1.20473 10.0086 0.000705641 0.000628338 10.0086 -0.488539 10 1 
154 1.20472 10.0071 0.00070709 0.000628801 10.0071 -0.508429 10 1 
156 1.20476 10.0065 0.000684649 0.000603972 10.0065 -0.43749 10 1 
158 1.20475 10.0072 0.000691785 0.000598921 10.0072 -0.452243 10 1 
160 1.20473 10.0066 0.000755835 0.000637632 10.0066 -0.494557 10 1 
160 1.20473 10.0066 0.000755835 0.000637632 10.0066 -0.494557 10 1 
162 1.20475 10.0064 0.000741851 0.00063161 10.0065 -0.457591 10 1 
164 1.20469 10.0069 0.000749888 0.000645764 10.0069 -0.560001 10 1 
166 1.20475 10.0047 0.000733733 0.000640541 10.0047 -0.449707 10 1 
168 1.20474 10.0067 0.000708492 0.000591472 10.0067 -0.470811 10 1 
170 1.2047 10.0062 0.000715954 0.000579594 10.0062 -0.53536 10 1 
172 1.20473 10.005 0.000732983 0.000613434 10.005 -0.48095 10 1 
174 1.20474 10.0059 0.000767324 0.000631217 10.0059 -0.474817 10 1 
176 1.20475 10.0042 0.000730715 0.000596559 10.0042 -0.445841 10 1 
178 1.20472 10.0053 0.000729952 0.000618598 10.0053 -0.507162 10 1 
180 1.20474 10.0046 0.000736333 0.00061452 10.0046 -0.470102 10 1 
182 1.20476 10.0015 0.000720197 0.000570074 10.0015 -0.441997 10 1 
184 1.20473 10.0016 0.000712422 0.00056385 10.0016 -0.479675 10 1 
186 1.20474 10.0036 0.00070534 0.00055525 10.0036 -0.473905 10 1 
188 1.20478 10.0024 0.000740363 0.000597069 10.0024 -0.401952 10 1 
190 1.20478 10.0021 0.000681583 0.000569024 10.0021 -0.397522 10 1 
192 1.20474 10.0021 0.000810557 0.000662431 10.0021 -0.463831 10 1 
194 1.20478 9.99771 0.000735556 0.000552795 9.99771 -0.390812 10 1 
196 1.20479 9.99711 0.000626076 0.000458492 9.99711 -0.386753 10 1 
198 1.20475 9.99801 0.000770443 0.000641615 9.99802 -0.45332 10 1 
200 1.20483 9.99554 0.000652017 0.000508247 9.99554 -0.314328 10 1 
202 1.20484 9.99613 0.00074905 0.000554341 9.99613 -0.280673 10 1 
204 1.20475 9.99789 0.000829515 0.000640852 9.99789 -0.443937 10 1 
206 1.20482 9.99372 0.00067644 0.000491286 9.99372 -0.330966 10 1 
208 1.20488 9.99197 0.000637889 0.000501552 9.99197 -0.221091 10 1 
210 1.20483 9.99467 0.000694837 0.000562624 9.99467 -0.315974 10 1 
212 1.20487 9.99108 0.000724249 0.000547472 9.99109 -0.226858 10 1 
214 1.20485 9.98775 0.000770803 0.000555573 9.98775 -0.269788 10 1 
216 1.20483 9.9842 0.000712242 0.00050525 9.9842 -0.315089 10 1 
218 1.20493 9.97831 0.000581122 0.000443312 9.97831 -0.128548 10 1 
220 1.20493 9.98265 0.000639238 0.000437457 9.98265 -0.12642 10 1 
222 1.20492 9.98563 0.000685182 0.00044103 9.98563 -0.149365 10 1 
224 1.20492 9.98299 0.000728576 0.000590001 9.98299 -0.13799 10 1 
224 1.20492 9.98299 0.000728576 0.000590001 9.98299 -0.13799 10 1 
226 1.20496 9.9802 0.000696504 0.000594308 9.98021 -0.075449 10 1 
228 1.205 9.97089 0.000633478 0.00040993 9.97089 -0.00399977 10 1 
230 1.20499 9.96437 0.000569972 0.000309384 9.96437 -0.0243454 10 1 
232 1.20499 9.96677 0.000559425 0.000396777 9.96677 -0.0254276 10 1 
234 1.20504 9.96533 0.000634851 0.000488025 9.96533 0.0781276 10 1 
236 1.20511 9.95864 0.000669389 0.000450201 9.95864 0.204989 10 1 
238 1.20507 9.95878 0.000665149 0.000453388 9.95879 0.125102 10 1 
240 1.20518 9.95079 0.000525134 0.000356046 9.95079 0.326959 10 1 
242 1.20519 9.94464 0.000468062 0.000268615 9.94464 0.347398 10 1 
244 1.20511 9.94479 0.000563857 0.00034283 9.94479 0.204924 10 1 
246 1.20528 9.9343 0.000527351 0.000321181 9.9343 0.507721 10 1 
248 1.20533 9.92697 0.000568764 0.000408428 9.92697 0.596332 10 1 
250 1.20535 9.91983 0.000501449 0.000312396 9.91983 0.631699 10 1 
252 1.2054 9.91155 0.000336328 0.000108898 9.91155 0.727635 10 1 
254 1.20547 9.90265 0.00047849 0.000291917 9.90265 0.851008 10 1 
256 1.20553 9.89411 0.000444329 0.000255846 9.89411 0.965159 10 1 
256 1.20553 9.89411 0.000444329 0.000255846 9.89411 0.965159 11 1 
258 1.20561 9.88176 0.00037874 0.000195832 9.88176 1.10874 11 1 
260 1.20577 9.86884 0.000350433 0.000174045 9.86884 1.38485 11 1 
262 1.20586 9.85304 0.000291853 8.56544e-05 9.85304 1.54952 11 1 
264 1.20584 9.83619 0.00030395 0.000118936 9.83619 1.51965 11 1 
266 1.20601 9.82211 0.000287871 9.51538e-05 9.82212 1.82345 11 1 
268 1.20638 9.79305 0.000244682 1.49626e-05 9.79305 2.48435 11 1 
270 1.20631 9.77436 0.00013563 -4.21415e-05 9.77437 2.36929 11 1 
272 1.20648 9.74611 0.000205082 3.80331e-05 9.74612 2.67189 11 1 
274 1.20693 9.70449 0.000164719 -3.6619e-05 9.70449 3.48122 11 1 
276 1.20692 9.67808 6.42302e-05 -0.000122779 9.67808 3.46593 11 1 
278 1.20722 9.63724 2.59625e-05 -0.000178665 9.63724 4.01099 11 1 
280 1.20779 9.59454 -2.99307e-05 -0.000215677 9.59455 5.03252 11 1 
282 1.20816 9.53703 -2.71676e-05 -0.000202916 9.53712 5.7048 11 1 
284 1.20842 9.45048 -7.31666e-05 -0.00029439 9.45063 6.18612 11 1 
286 1.20877 9.36152 -0.000117415 -0.000310312 9.36161 6.80676 11 1 
288 1.20944 9.27829 -0.000171303 -0.000352255 9.2783 8.01214 11 1 
288 1.20944 9.27829 -0.000171303 -0.000352255 9.2783 8.01214 11 1 
290 1.21024 9.20699 -0.000155569 -0.000356894 9.20701 9.46458 11 1 
292 1.2109 9.11027 -0.00023785 -0.000441749 9.11036 10.6511 11 1 
294 1.21144 8.97642 -0.000271855 -0.000459271 8.97666 11.6311 11 1 
296 1.2122 8.83873 -0.000266974 -0.000426696 8.83892 13.0072 11 1 
298 1.20785 8.66976 -0.000393822 -0.000573922 8.66983 5.15558 11 1 
300 1.20045 8.60274 -0.000339793 -0.000546267 8.60283 -8.22697 11 1 
302 1.19812 8.57846 -0.00039217 -0.000589453 8.5785 -12.4192 11 1 
304 1.19874 8.46618 -0.000508146 -0.000686712 8.46628 -11.3087 11 1 
306 1.19951 8.33934 -0.000483361 -0.000673214 8.3395 -9.91685 11 1 
308 1.20007 8.22341 -0.000549302 -0.000741987 8.22359 -8.89834 11 1 
310 1.20043 8.139 -0.000564882 -0.000742199 8.13913 -8.25404 11 1 
312 1.20091 8.04722 -0.00060325 -0.000804538 8.04724 -7.38616 11 1 
314 1.20136 7.98016 -0.000672281 -0.000880555 7.98018 -6.56756 11 1 
316 1.20171 7.93551 -0.000708849 -0.000893702 7.93552 -5.94524 11 1 
318 1.20204 7.87579 -0.000744211 -0.000934886 7.8758 -5.33829 11 1 
320 1.20231 7.83801 -0.000725073 -0.000921786 7.83801 -4.85654 11 1 
320 1.20231 7.83801 -0.000725073 -0.000921786 7.83801 -4.85654 15 1 
322 1.20255 7.8137 -0.000803137 -0.0010061 7.8137 -4.42225 15 1 
324 1.20282 7.77633 -0.000864359 -0.00106353 7.77633 -3.93843 15 1 
326 1.20301 7.75313 -0.000854068 -0.00103084 7.75313 -3.58798 15 1 
328 1.20315 7.73419 -0.00083539 -0.0010211 7.73419 -3.33714 15 1 
330 1.20326 7.70947 -0.000871199 -0.00106507 7.70948 -3.13595 15 1 
332 1.20344 7.69154 -0.000922205 -0.00110332 7.69155 -2.82398 15 1 
334 1.20359 7.66293 -0.000939712 -0.00111626 7.66294 -2.54058 15 1 
336 1.20358 7.63712 -0.000948816 -0.00112196 7.63712 -2.57305 15 1 
338 1.20364 7.64248 -0.00095495 -0.00112787 7.64248 -2.45641 15 1 
340 1.20385 7.65424 -0.0010334 -0.00121223 7.65424 -2.07892 15 1 
342 1.20394 7.64807 -0.00106619 -0.00122738 7.64808 -1.91774 15 1 
344 1.20391 7.62275 -0.00103016 -0.00117401 7.62276 -1.9747 15 1 
346 1.20389 7.60455 -0.00101123 -0.00117297 7.60456 -2.00213 15 1 
348 1.20406 7.63386 -0.00109193 -0.00127429 7.63387 -1.70143 15 1 
350 1.20424 7.67679 -0.0011055 -0.00126535 7.6768 -1.37592 15 1 
352 1.2042 7.68354 -0.00101234 -0.00114683 7.68354 -1.44703 15 1 
354 1.20422 7.68603 -0.000983322 -0.00114964 7.68604 -1.41357 15 1 
356 1.20436 7.71556 -0.00106018 -0.00123562 7.71558 -1.1631 15 1 
358 1.20444 7.76516 -0.00114293 -0.00127933 7.76519 -1.0116 15 1 
360 1.20455 7.82543 -0.00107482 -0.00119966 7.82546 -0.816504 15 1 
362 1.20463 7.87884 -0.00103 -0.00117019 7.87887 -0.663254 15 1 
364 1.20469 7.92593 -0.00106901 -0.00120091 7.92595 -0.566436 15 1 
366 1.20479 7.99084 -0.00113916 -0.00124577 7.99087 -0.383639 15 1 
368 1.20489 8.08545 -0.00111818 -0.00123215 8.08553 -0.195543 15 1 
370 1.20503 8.21167 -0.0010677 -0.00119541 8.21181 0.0547263 15 1 
372 1.20515 8.36259 -0.00110134 -0.00121256 8.36277 0.267484 15 1 
374 1.2052 8.52602 -0.00113833 -0.00123647 8.52622 0.354197 15 1 
376 1.20527 8.69702 -0.00113545 -0.00123683 8.69722 0.487615 15 1 
378 1.20531 8.86297 -0.00105033 -0.00114615 8.86314 0.565474 15 1 
380 1.20533 9.01352 -0.00100962 -0.00110873 9.01366 0.59648 15 1 
382 1.20535 9.14585 -0.00100941 -0.00110541 9.14595 0.637569 15 1 
384 1.20531 9.25505 -0.00102802 -0.00109905 9.25512 0.552981 15 1 
384 1.20531 9.25505 -0.00102802 -0.00109905 9.25512 0.552981 16 1 
386 1.20528 9.34981 -0.00100305 -0.00108212 9.34986 0.503415 16 1 
388 1.20528 9.4336 -0.000978179 -0.00107097 9.43364 0.502164 16 1 
390 1.20524 9.5019 -0.000998824 -0.00104775 9.50193 0.440412 16 1 
392 1.20523 9.56102 -0.00099336 -0.00100673 9.56103 0.413249 16 1 
394 1.20521 9.61141 -0.000998715 -0.001043 9.61142 0.375299 16 1 
396 1.20517 9.65374 -0.00103725 -0.00108637 9.65375 0.311659 16 1 
398 1.20516 9.6928 -0.00102581 -0.00103393 9.69281 0.292149 16 1 
400 1.20518 9.72846 -0.000948797 -0.000960201 9.72847 0.319325 16 1 
402 1.20517 9.75793 -0.00100577 -0.0010226 9.75794 0.299595 16 1 
404 1.20512 9.78154 -0.00109492 -0.00109831 9.78154 0.215291 16 1 
406 1.20513 9.80389 -0.00104653 -0.00107457 9.80389 0.235667 16 1 
408 1.20514 9.82562 -0.0009741 -0.00101291 9.82562 0.260021 16 1 
410 1.2051 9.84411 -0.000996612 -0.00102501 9.84411 0.172531 16 1 
412 1.20509 9.85766 -0.000976669 -0.001032 9.85766 0.158106 16 1 
414 1.20513 9.87195 -0.000924698 -0.000987973 9.87195 0.22828 16 1 
416 1.20512 9.88544 -0.000914288 -0.000950947 9.88544 0.217931 16 1 
416 1.20512 9.88544 -0.000914288 -0.000950947 9.88544 0.217931 16 1 
418 1.20508 9.89321 -0.000886243 -0.000950848 9.89321 0.141512 16 1 
420 1.20509 9.90481 -0.000887361 -0.000981983 9.90481 0.158417 16 1 
422 1.20512 9.91412 -0.000929983 -0.000989455 9.91412 0.218426 16 1 
424 1.2051 9.91897 -0.000950304 -0.00100142 9.91897 0.180173 16 1 
426 1.20507 9.92697 -0.000904511 -0.00100439 9.92697 0.118108 16 1 
428 1.20507 9.93007 -0.000888799 -0.000981077 9.93007 0.12333 16 1 
430 1.20509 9.93735 -0.000890346 -0.000942088 9.93735 0.169479 16 1 
432 1.2051 9.94516 -0.000870731 -0.000951003 9.94516 0.189082 16 1 
434 1.2051 9.94576 -0.000896598 -0.000988805 9.94576 0.185178 16 1 
436 1.20509 9.95107 -0.000963046 -0.00103124 9.95107 0.156552 16 1 
438 1.20505 9.95226 -0.000984846 -0.00106333 9.95226 0.0861288 16 1 
440 1.20508 9.95729 -0.000928688 -0.00100419 9.95729 0.147047 16 1 
442 1.2051 9.96339 -0.000906951 -0.000974752 9.96339 0.183869 16 1 
444 1.20504 9.96035 -0.00092403 -0.00101235 9.96035 0.074084 16 1 
446 1.20509 9.96598 -0.000955295 -0.00103659 9.96598 0.160238 16 1 
448 1.20512 9.96805 -0.0009698 -0.00101945 9.96805 0.209413 16 1 
448 1.20512 9.96805 -0.0009698 -0.00101945 9.96805 0.209413 17 1 
450 1.20506 9.96979 -0.000935999 -0.000993799 9.96979 0.102859 17 1 
452 1.20506 9.97581 -0.000901459 -0.000987845 9.97581 0.11242 17 1 
454 1.20508 9.97245 -0.000921672 -0.000989798 9.97245 0.136147 17 1 
456 1.2051 9.97657 -0.000977685 -0.00102079 9.97657 0.171677 17 1 
458 1.20508 9.97654 -0.000946721 -0.00101703 9.97654 0.136511 17 1 
460 1.20508 9.97812 -0.000918193 -0.000998777 9.97812 0.153211 17 1 
462 1.20511 9.98552 -0.000928889 -0.000973493 9.98552 0.203171 17 1 
464 1.20506 9.9804 -0.000927021 -0.000972823 9.9804 0.100532 17 1 
466 1.20507 9.98401 -0.000930243 -0.00100528 9.98401 0.117487 17 1 
468 1.20507 9.98402 -0.000919537 -0.000979132 9.98402 0.127469 17 1 
470 1.20509 9.98472 -0.000906888 -0.000942396 9.98472 0.155429 17 1 
472 1.20511 9.99126 -0.00089866 -0.000944272 9.99126 0.198707 17 1 
474 1.20506 9.98503 -0.000938807 -0.000991892 9.98503 0.10944 17 1 
476 1.20511 9.99067 -0.000979767 -0.00102271 9.99067 0.201301 17 1 
478 1.20509 9.98896 -0.000906719 -0.000942722 9.98896 0.17108 17 1 
480 1.20507 9.9897 -0.000861468 -0.000896652 9.9897 0.119981 17 1 
480 1.20507 9.9897 -0.000861468 -0.000896652 9.9897 0.119981 17 1 
482 1.20509 9.99585 -0.000887945 -0.000917295 9.99585 0.164209 17 1 
484 1.20507 9.98948 -0.00087043 -0.000906505 9.98948 0.123724 17 1 
486 1.20512 9.99501 -0.000870429 -0.000912425 9.99501 0.20834 17 1 
488 1.20507 9.99048 -0.000896437 -0.000911942 9.99048 0.133788 17 1 
490 1.20511 9.99548 -0.000895634 -0.000911552 9.99548 0.205525 17 1 
492 1.20513 9.99817 -0.000894369 -0.000935555 9.99817 0.231815 17 1 
494 1.20505 9.99277 -0.000888164 -0.000902468 9.99277 0.0991961 17 1 
496 1.2051 9.99882 -0.000838979 -0.000832981 9.99882 0.178487 17 1 
498 1.20509 9.99236 -0.000810234 -0.000831464 9.99236 0.155404 17 1 
500 1.20512 9.99993 -0.000848887 -0.000867652 9.99993 0.220648 17 1 
502 1.20509 9.99701 -0.000868567 -0.00087064 9.99701 0.169836 17 1 
504 1.20512 9.99836 -0.000831608 -0.000837828 9.99836 0.209856 17 1 
506 1.20511 9.99938 -0.00079935 -0.00080522 9.99938 0.203766 17 1 
508 1.20507 9.99497 -0.000814197 -0.000816544 9.99497 0.123552 17 1 
510 1.20514 10.003 -0.000807508 -0.000804929 10.003 0.250595 17 1 
512 1.20509 9.99674 -0.000811079 -0.000806624 9.99674 0.163857 17 1 
512 1.20509 9.99674 -0.000811079 -0.000806624 9.99674 0.163857 25 1 
514 1.20512 10.0037 -0.000820611 -0.000818596 10.0037 0.214471 25 1 
516 1.20512 9.99632 -0.00077012 -0.000767083 9.99632 0.211761 25 1 
518 1.20516 10.0024 -0.000770254 -0.000761559 10.0024 0.285573 25 1 
520 1.20503 9.99782 -0.000769461 -0.000759283 9.99782 0.062796 25 1 
522 1.20508 10.0012 -0.000738407 -0.00072758 10.0012 0.142596 25 1 
524 1.20523 10.0042 -0.000744782 -0.000737603 10.0042 0.40828 25 1 
526 1.20518 10.0016 -0.000736997 -0.000726876 10.0016 0.319815 25 1 
528 1.20501 9.99936 -0.000734916 -0.000713106 9.99936 0.0147075 25 1 
530 1.20505 9.99885 -0.000728725 -0.000717943 9.99885 0.0956587 25 1 
532 1.20525 10.0062 -0.000715989 -0.000708747 10.0062 0.452713 25 1 
534 1.20514 10.0016 -0.000722143 -0.000701989 10.0016 0.244036 25 1 
536 1.20502 10.0013 -0.000684124 -0.000672081 10.0013 0.0404529 25 1 
538 1.20514 10.001 -0.000675238 -0.00066516 10.001 0.251917 25 1 
540 1.20527 10.0061 -0.000690809 -0.00067059 10.0061 0.483322 25 1 
542 1.20509 10.001 -0.000643698 -0.000633476 10.001 0.164359 25 1 
544 1.20503 10.0016 -0.000663928 -0.000652111 10.0016 0.0563584 25 1 
544 1.20503 10.0016 -0.000663928 -0.000652111 10.0016 0.0563584 25 1 
546 1.20521 10.0047 -0.000680454 -0.000658976 10.0047 0.383287 25 1 
548 1.20522 10.0057 -0.000626974 -0.000613852 10.0057 0.400464 25 1 
550 1.205 9.99918 -0.000637826 -0.000623252 9.99918 -0.00166148 25 1 
552 1.20506 10.0012 -0.000623576 -0.000602053 10.0012 0.106826 25 1 
554 1.20532 10.0082 -0.000601564 -0.000585282 10.0082 0.582381 25 1 
556 1.20526 10.007 -0.000615982 -0.000597423 10.007 0.475158 25 1 
558 1.20495 9.99884 -0.000587998 -0.000563881 9.99884 -0.0852968 25 1 
560 1.20502 10.0007 -0.000586588 -0.000570455 10.0007 0.0410811 25 1 
562 1.20537 10.0095 -0.0006007 -0.00058681 10.0095 0.663762 25 1 
564 1.20529 10.008 -0.000584881 -0.000568606 10.008 0.527185 25 1 
566 1.20493 9.99884 -0.00055955 -0.000546478 9.99884 -0.135137 25 1 
568 1.205 10.0007 -0.000535962 -0.000521154 10.0007 0.00200506 25 1 
570 1.20539 10.0101 -0.000529317 -0.000508562 10.0101 0.70523 25 1 
572 1.20534 10.0088 -0.000529724 -0.000508979 10.0088 0.614865 25 1 
574 1.20494 9.99938 -0.000540678 -0.000523789 9.99938 -0.105337 25 1 
576 1.20495 9.99996 -0.000547926 -0.00052875 9.99996 -0.0861213 25 1 
576 1.20495 9.99996 -0.000547926 -0.00052875 9.99996 -0.0861213 26 1 
578 1.20535 10.01 -0.000531396 -0.000515205 10.01 0.640793 26 1 
580 1.20539 10.0106 -0.000505823 -0.000495291 10.0106 0.700832 26 1 
582 1.20499 10.0006 -0.000480895 -0.000467696 10.0006 -0.0224705 26 1 
584 1.20492 9.99902 -0.000487916 -0.000476011 9.99902 -0.144102 26 1 
586 1.20531 10.0089 -0.000511126 -0.00050587 10.0089 0.559561 26 1 
588 1.20544 10.0124 -0.000513448 -0.000506989 10.0124 0.792755 26 1 
590 1.20509 10.0034 -0.000481935 -0.000471981 10.0034 0.164507 26 1 
592 1.20489 9.99774 -0.000436567 -0.000432014 9.99774 -0.207077 26 1 
594 1.20519 10.006 -0.000429567 -0.000425065 10.006 0.339301 26 1 
596 1.20547 10.0137 -0.00044438 -0.000438015 10.0137 0.843953 26 1 
598 1.20523 10.0072 -0.000487966 -0.000487436 10.0072 0.422002 26 1 
600 1.20491 9.9987 -0.000518084 -0.000518781 9.9987 -0.158759 26 1 
602 1.20504 10.0024 -0.000476284 -0.000476408 10.0024 0.0752401 26 1 
604 1.20536 10.0109 -0.000406666 -0.000407632 10.0109 0.657341 26 1 
606 1.20535 10.0105 -0.000359994 -0.000358636 10.0105 0.632103 26 1 
608 1.20504 10.0024 -0.000382467 -0.000380969 10.0024 0.0813744 26 1 
608 1.20504 10.0024 -0.000382467 -0.000380969 10.0024 0.0813744 26 1 
610 1.20498 10.0006 -0.000451321 -0.000452192 10.0006 -0.0394036 26 1 
612 1.20527 10.0085 -0.000490901 -0.000495463 10.0085 0.481942 26 1 
614 1.2054 10.0121 -0.000470719 -0.000478224 10.0121 0.719613 26 1 
616 1.20516 10.0054 -0.00040093 -0.000408083 10.0054 0.29569 26 1 
618 1.20495 9.9996 -0.00031902 -0.000326859 9.9996 -0.0987622 26 1 
620 1.20509 10.0037 -0.000302859 -0.000307697 10.0037 0.161103 26 1 
622 1.20539 10.0118 -0.00035403 -0.00035451 10.0118 0.696118 26 1 
624 1.20537 10.0116 -0.000401961 -0.000404265 10.0116 0.671115 26 1 
626 1.20507 10.0031 -0.000427138 -0.000430298 10.0031 0.129503 26 1 
628 1.20493 9.99904 -0.000377851 -0.000380705 9.99904 -0.119206 26 1 
630 1.20513 10.0049 -0.000289667 -0.000293535 10.0049 0.243504 26 1 
632 1.20537 10.0119 -0.000264449 -0.0002651 10.0119 0.676753 26 1 
634 1.20532 10.0101 -0.000269521 -0.000264444 10.0101 0.578056 26 1 
636 1.20505 10.0023 -0.000290524 -0.00028241 10.0023 0.0872884 26 1 
638 1.20496 10.0001 -0.000319071 -0.000310268 10.0001 -0.068767 26 1 
640 1.20518 10.0059 -0.000307587 -0.000301986 10.0059 0.316336 26 1 
642 1.20537 10.0117 -0.00027444 -0.000275237 10.0117 0.67236 26 1 
644 1.2053 10.0099 -0.000246084 -0.000252218 10.0099 0.544879 26 1 
646 1.20506 10.0025 -0.000218397 -0.000228018 10.0025 0.10843 26 1 
648 1.20496 9.99931 -0.000181032 -0.000190672 9.99931 -0.0761916 26 1 
650 1.20513 10.0048 -0.000137723 -0.000144783 10.0048 0.227771 26 1 
652 1.20535 10.0112 -9.1067e-05 -9.62413e-05 10.0112 0.631299 26 1 
654 1.20535 10.011 -6.03199e-05 -6.51385e-05 10.011 0.638663 26 1 
656 1.20513 10.0046 -7.75342e-05 -8.44605e-05 10.0046 0.23418 26 1 
658 1.20494 9.99884 -0.000101408 -0.000111432 9.99884 -0.105411 26 1 
660 1.20498 9.99977 -0.000113215 -0.000126928 9.99977 -0.0326713 26 1 
662 1.20516 10.0057 -9.37726e-05 -0.000111305 10.0057 0.291024 26 1 
664 1.20526 10.0086 -4.54517e-05 -6.33099e-05 10.0086 0.471522 26 1 
666 1.20515 10.0046 -4.24699e-05 -5.81968e-05 10.0046 0.265412 26 1 
668 1.20491 9.99761 -0.000106032 -0.000118475 9.99761 -0.158727 26 1 
670 1.20481 9.99436 -0.00027239 -0.000280499 9.99436 -0.343274 26 1 
672 1.20494 9.99807 -0.00050452 -0.000508726 9.99807 -0.113967 26 1 
672 1.20494 9.99807 -0.00050452 -0.000508726 9.99807 -0.113967 27 1 
674 1.20516 10.0053 -0.000699192 -0.000700564 10.0053 0.280942 27 1 
676 1.20527 10.0089 -0.000780501 -0.000782478 10.0089 0.488976 27 1 
678 1.20517 10.0053 -0.000689161 -0.000694526 10.0053 0.310633 27 1 
680 1.20492 9.99737 -0.000457926 -0.00046822 9.99737 -0.147304 27 1 
682 1.20472 9.99104 -0.000155047 -0.000173249 9.99104 -0.509854 27 1 
684 1.20472 9.99078 0.000115621 8.8867e-05 9.99078 -0.498253 27 1 
686 1.20488 9.99592 0.00026482 0.000231202 9.99592 -0.20941 27 1 
688 1.20505 10.0015 0.000266504 0.000227633 10.0015 0.096021 27 1 
690 1.20508 10.0021 0.000121376 7.97787e-05 10.0021 0.146995 27 1 
692 1.20491 9.99631 -0.000109581 -0.000150222 9.99631 -0.168626 27 1 
694 1.20461 9.9867 -0.000360161 -0.000397394 9.9867 -0.700897 27 1 
696 1.20435 9.97809 -0.000567653 -0.00060038 9.97809 -1.16697 27 1 
698 1.20425 9.97459 -0.000699787 -0.00072669 9.97459 -1.35024 27 1 
700 1.20433 9.97737 -0.00074428 -0.000765114 9.97737 -1.20814 27 1 
702 1.20455 9.98469 -0.000705938 -0.000721659 9.98469 -0.813889 27 1 
704 1.2048 9.99283 -0.000627429 -0.00063867 9.99283 -0.357886 27 1 
704 1.2048 9.99283 -0.000627429 -0.00063867 9.99283 -0.357886 31 1 
706 1.20498 9.99896 -0.000509876 -0.000517383 9.99896 -0.0331212 31 1 
708 1.20504 10.0012 -0.00039 -0.000394971 10.0012 0.0778075 31 1 
710 1.205 9.99918 -0.000287973 -0.00029118 9.99918 -0.00783553 31 1 
712 1.20487 9.99473 -0.000192721 -0.0001947 9.99473 -0.239684 31 1 
714 1.20472 9.98971 -0.000131171 -0.000132267 9.98971 -0.512958 31 1 
716 1.2046 9.98565 -8.17038e-05 -8.23598e-05 9.98565 -0.717706 31 1 
718 1.20454 9.98342 -4.64203e-05 -4.68077e-05 9.98342 -0.837668 31 1 
720 1.20452 9.98332 -3.15109e-05 -3.17151e-05 9.98332 -0.85793 31 1 
722 1.20457 9.98451 -1.47428e-05 -1.51191e-05 9.98451 -0.773539 31 1 
724 1.20464 9.98689 -8.9759e-06 -8.94977e-06 9.98689 -0.652288 31 1 
726 1.20471 9.98973 -4.80402e-06 -4.73152e-06 9.98973 -0.530549 31 1 
728 1.20479 9.99221 -2.00701e-06 -2.39145e-06 9.99221 -0.38613 31 1 
730 1.20485 9.9947 -1.47786e-06 -1.43449e-06 9.9947 -0.265821 31 1 
732 1.2049 9.99651 8.26396e-07 9.05597e-07 9.99651 -0.186733 31 1 
734 1.20494 9.99763 -2.93305e-06 -3.09713e-06 9.99763 -0.113548 31 1 
736 1.20496 9.99857 1.5851e-06 1.54012e-06 9.99857 -0.066379 31 1 
738 1.20498 9.99917 9.32976e-07 9.02097e-07 9.99917 -0.0439939 31 1 
740 1.20499 9.99946 -1.32856e-06 -1.33729e-06 9.99946 -0.024773 31 1 
742 1.20499 9.99974 6.5455e-07 5.59998e-07 9.99974 -0.00948682 31 1 
744 1.205 9.99995 -1.48234e-06 -1.50035e-06 9.99995 -0.00651227 31 1 
746 1.205 9.99987 1.65258e-06 1.76858e-06 9.99987 -0.0060999 31 1 
748 1.205 9.99996 -4.10168e-07 -5.04909e-07 9.99996 -0.00109095 31 1 
750 1.205 10.0001 1.52368e-07 1.45455e-07 10.0001 -0.000278221 31 1 
752 1.205 9.99996 4.53321e-07 6.16219e-07 9.99996 0.00158958 31 1 
752 1.205 9.99996 4.53321e-07 6.16219e-07 9.99996 0.00158958 31 1 
754 1.205 9.99997 -2.20807e-06 -2.38434e-06 9.99997 -0.00111225 31 1 
756 1.205 10 1.93105e-06 1.92414e-06 10 -0.00163391 31 1 
758 1.205 9.99997 -2.38456e-07 -7.16992e-08 9.99997 0.00242177 31 1 
760 1.205 10 -3.11577e-07 -4.64747e-07 10 -0.00266067 31 1 
762 1.205 10 5.54696e-07 6.16377e-07 10 0.00233703 31 1 
764 1.205 9.99997 -1.01477e-06 -9.07252e-07 9.99997 0.00317551 31 1 
766 1.205 10 1.07139e-06 1.01647e-06 10 -0.00332696 31 1 
768 1.205 10 -9.58496e-07 -8.56485e-07 10 5.91222e-05 31 1 
770 1.205 10.0001 6.88184e-07 6.11635e-07 10.0001 -0.0030513 31 1 
772 1.205 10 6.85668e-07 7.40356e-07 10 -0.00165599 31 1 
774 1.205 10 -1.92826e-06 -1.9257e-06 10 0.000868095 31 1 
776 1.205 10 1.66976e-06 1.36026e-06 10 -0.00100112 31 1 
778 1.205 9.99996 -1.17595e-06 -9.94385e-07 9.99996 0.00283112 31 1 
780 1.205 9.99994 -7.67013e-07 -6.15373e-07 9.99994 0.00392388 31 1 
782 1.205 9.9999 5.57228e-07 4.88264e-07 9.9999 0.00544154 31 1 
784 1.205 9.99991 -1.71455e-06 -1.73305e-06 9.99991 0.00589225 31 1 
786 1.205 10 1.52532e-06 1.24723e-06 10 -0.00210186 31 1 
788 1.20499 10.0002 -6.04108e-07 -4.54889e-07 10.0002 -0.0122613 31 1 
790 1.20499 10.0001 3.0255e-07 6.11473e-07 10.0001 -0.00953456 31 1 
792 1.205 10.0001 1.06535e-07 3.4282e-08 10.0001 -0.00488368 31 1 
794 1.205 10 -1.35804e-06 -6.17697e-07 10 -0.00311179 31 1 
796 1.205 9.99991 1.18337e-06 2.2471e-06 9.99991 0.00539667 31 1 
798 1.205 9.99987 6.28388e-07 1.2094e-06 9.99987 0.00842095 31 1 
800 1.205 9.9999 8.92408e-07 1.46412e-06 9.9999 0.00706398 31 1 
