150.79;r ;Density                 ;Velocity u              ;Velocity v              ;Velocity w              ;|Velocity|              ;Pressure                ;Distribution            ;Levels                  ;
0 1.21175 9.99921 -7.6671e-05 -2.55282e-05 9.99921 12.1904 1 1 
2 1.21178 9.99811 -0.000114515 -6.77228e-05 9.99811 12.2402 1 1 
4 1.21178 9.99737 -0.000327541 -0.000235568 9.99737 12.2453 1 1 
6 1.21177 9.99736 -0.00045567 -0.000338306 9.99736 12.2338 1 1 
8 1.21179 9.99746 -0.000607292 -0.000458844 9.99746 12.2559 1 1 
10 1.21178 9.99758 -0.000756181 -0.000564244 9.99758 12.2502 1 1 
12 1.21179 9.99674 -0.000909399 -0.00069082 9.99674 12.2601 1 1 
14 1.21178 9.99731 -0.0010901 -0.000826157 9.99731 12.255 1 1 
16 1.2118 9.99732 -0.00121646 -0.000914443 9.99732 12.2789 1 1 
18 1.2118 9.99642 -0.00136348 -0.00102758 9.99642 12.2784 1 1 
20 1.21178 9.9966 -0.00155688 -0.00117765 9.9966 12.2527 1 1 
22 1.21181 9.99632 -0.0017055 -0.00130026 9.99632 12.2955 1 1 
24 1.21181 9.99672 -0.00186741 -0.00143302 9.99672 12.3033 1 1 
26 1.2118 9.99642 -0.00202039 -0.00154154 9.99642 12.2894 1 1 
28 1.21181 9.99565 -0.00218896 -0.00167137 9.99565 12.2981 1 1 
30 1.21181 9.99562 -0.00232634 -0.00178296 9.99562 12.2978 1 1 
32 1.21182 9.99479 -0.00251108 -0.00192235 9.99479 12.3148 1 1 
32 1.21182 9.99479 -0.00251108 -0.00192235 9.99479 12.3148 1 1 
34 1.21182 9.99425 -0.00263614 -0.002014 9.99425 12.3102 1 1 
36 1.21182 9.99314 -0.00281078 -0.00215243 9.99314 12.3132 1 1 
38 1.21181 9.99334 -0.00296896 -0.00227708 9.99334 12.3064 1 1 
40 1.21182 9.99326 -0.00312007 -0.00240581 9.99326 12.3266 1 1 
42 1.21183 9.99266 -0.00329804 -0.00254413 9.99266 12.3405 1 1 
44 1.21183 9.99214 -0.00344003 -0.00262483 9.99214 12.3289 1 1 
46 1.21183 9.991 -0.00361511 -0.00276724 9.991 12.3411 1 1 
48 1.21183 9.99119 -0.00380701 -0.00293945 9.99119 12.3352 1 1 
50 1.21184 9.99152 -0.00394263 -0.00300506 9.99153 12.3512 1 1 
52 1.21184 9.99049 -0.00408813 -0.00311529 9.99049 12.3594 1 1 
54 1.21184 9.98953 -0.00426734 -0.00325244 9.98953 12.3526 1 1 
56 1.21185 9.99011 -0.00442447 -0.00336207 9.99011 12.365 1 1 
58 1.21185 9.98989 -0.00462011 -0.00353673 9.98989 12.3777 1 1 
60 1.21185 9.98946 -0.00477277 -0.00365566 9.98946 12.368 1 1 
62 1.21185 9.98866 -0.00495426 -0.0038071 9.98867 12.3792 1 1 
64 1.21186 9.98863 -0.00511871 -0.00391764 9.98863 12.3876 1 1 
64 1.21186 9.98863 -0.00511871 -0.00391764 9.98863 12.3876 2 1 
66 1.21187 9.98854 -0.00528627 -0.00404616 9.98854 12.4061 2 1 
68 1.21186 9.98907 -0.00548051 -0.00418963 9.98907 12.3886 2 1 
70 1.21187 9.98829 -0.00565729 -0.00433183 9.9883 12.4057 2 1 
72 1.21187 9.98744 -0.00582461 -0.00447491 9.98744 12.4177 2 1 
74 1.21187 9.9873 -0.0059846 -0.00459197 9.9873 12.4055 2 1 
76 1.21189 9.98642 -0.00615504 -0.00475436 9.98642 12.4437 2 1 
78 1.21188 9.98754 -0.0063285 -0.00487831 9.98755 12.4229 2 1 
80 1.21188 9.98699 -0.00652725 -0.00502553 9.98699 12.4303 2 1 
82 1.21189 9.98614 -0.00672027 -0.00519268 9.98615 12.4458 2 1 
84 1.21189 9.9861 -0.0068878 -0.00527901 9.98611 12.4529 2 1 
86 1.2119 9.98531 -0.00704568 -0.0053764 9.98531 12.4679 2 1 
88 1.2119 9.98522 -0.0072577 -0.00556648 9.98522 12.4588 2 1 
90 1.2119 9.98497 -0.00740676 -0.00569906 9.98498 12.4687 2 1 
92 1.21191 9.984 -0.00760093 -0.00585557 9.98401 12.4762 2 1 
94 1.21191 9.9834 -0.0077939 -0.00599547 9.98341 12.4895 2 1 
96 1.21192 9.98306 -0.00796753 -0.00611332 9.98306 12.5001 2 1 
96 1.21192 9.98306 -0.00796753 -0.00611332 9.98306 12.5001 2 1 
98 1.21192 9.98336 -0.00820583 -0.00627337 9.98336 12.5014 2 1 
100 1.21193 9.98344 -0.00835983 -0.00636144 9.98345 12.5085 2 1 
102 1.21192 9.98275 -0.00854263 -0.00651735 9.98276 12.5046 2 1 
104 1.21194 9.98153 -0.00877736 -0.00672002 9.98154 12.5328 2 1 
106 1.21194 9.98108 -0.00891702 -0.00680917 9.98109 12.5361 2 1 
108 1.21195 9.98007 -0.0091214 -0.00696297 9.98007 12.5482 2 1 
110 1.21194 9.97962 -0.00930812 -0.00710498 9.97963 12.5419 2 1 
112 1.21194 9.97967 -0.00950537 -0.00725558 9.97968 12.5353 2 1 
114 1.21196 9.97837 -0.00968915 -0.00737054 9.97838 12.5754 2 1 
116 1.21196 9.97888 -0.00988228 -0.00750443 9.97889 12.5712 2 1 
118 1.21197 9.97923 -0.0100792 -0.00765802 9.97923 12.5851 2 1 
120 1.21198 9.97794 -0.0102695 -0.00778965 9.97794 12.6109 2 1 
122 1.21196 9.97758 -0.0104741 -0.00794484 9.97759 12.5795 2 1 
124 1.21197 9.97624 -0.0106581 -0.00808434 9.97625 12.5877 2 1 
126 1.212 9.97454 -0.010894 -0.0082681 9.97455 12.6463 2 1 
128 1.21198 9.97534 -0.0110703 -0.00837361 9.97535 12.6095 2 1 
128 1.21198 9.97534 -0.0110703 -0.00837361 9.97535 12.6095 10 1 
130 1.21199 9.97504 -0.0112927 -0.00854746 9.97505 12.6308 10 1 
132 1.21201 9.97527 -0.0114832 -0.00868097 9.97528 12.6534 10 1 
134 1.212 9.97506 -0.0116998 -0.00883349 9.97507 12.6463 10 1 
136 1.21202 9.97309 -0.0118999 -0.00896724 9.97311 12.6736 10 1 
138 1.21201 9.97219 -0.0120871 -0.00909601 9.9722 12.6566 10 1 
140 1.21202 9.97208 -0.0123159 -0.00927604 9.9721 12.6801 10 1 
142 1.21202 9.97217 -0.0125099 -0.00938808 9.97219 12.6875 10 1 
144 1.21203 9.97184 -0.0127171 -0.00957157 9.97186 12.6947 10 1 
146 1.21205 9.97173 -0.0129282 -0.00971786 9.97174 12.7288 10 1 
148 1.21205 9.97018 -0.0131678 -0.00987495 9.97019 12.7308 10 1 
150 1.21204 9.96914 -0.0133659 -0.0100331 9.96916 12.708 10 1 
152 1.21205 9.9689 -0.0135641 -0.0101693 9.96891 12.7348 10 1 
154 1.21207 9.96827 -0.0137455 -0.0102579 9.96828 12.764 10 1 
156 1.21206 9.96835 -0.0139813 -0.0104408 9.96837 12.7602 10 1 
158 1.21208 9.96768 -0.0141889 -0.0106149 9.96769 12.7817 10 1 
160 1.21209 9.9659 -0.0143605 -0.0107406 9.96592 12.7999 10 1 
160 1.21209 9.9659 -0.0143605 -0.0107406 9.96592 12.7999 10 1 
162 1.21207 9.96569 -0.0145859 -0.0109275 9.96571 12.7701 10 1 
164 1.21208 9.96486 -0.0148283 -0.0110551 9.96488 12.7914 10 1 
166 1.21212 9.96265 -0.0150754 -0.0112204 9.96267 12.8639 10 1 
168 1.21209 9.96386 -0.0152984 -0.0113885 9.96388 12.8132 10 1 
170 1.21211 9.96244 -0.0155124 -0.0115399 9.96246 12.8429 10 1 
172 1.21212 9.96157 -0.0157261 -0.0116846 9.96159 12.8679 10 1 
174 1.21211 9.96276 -0.0159154 -0.0118247 9.96278 12.836 10 1 
176 1.21215 9.96049 -0.0161736 -0.0119752 9.96051 12.92 10 1 
178 1.21214 9.95975 -0.0163621 -0.0121168 9.95977 12.9049 10 1 
180 1.21215 9.95839 -0.0165752 -0.0122971 9.95841 12.9064 10 1 
182 1.21215 9.95573 -0.0168272 -0.0124601 9.95575 12.9175 10 1 
184 1.21214 9.95453 -0.017089 -0.0126593 9.95455 12.8933 10 1 
186 1.21218 9.95527 -0.0173139 -0.0128124 9.95529 12.9748 10 1 
188 1.2122 9.9553 -0.0175156 -0.0129268 9.95533 13.0049 10 1 
190 1.21219 9.95431 -0.0178053 -0.0131163 9.95434 12.9821 10 1 
192 1.21219 9.95386 -0.0179057 -0.0131481 9.95388 12.984 10 1 
194 1.21221 9.95061 -0.0182158 -0.0133743 9.95064 13.0189 10 1 
196 1.21222 9.94788 -0.0185017 -0.0135996 9.94791 13.04 10 1 
198 1.21222 9.94771 -0.0186442 -0.0136422 9.94773 13.0492 10 1 
200 1.21226 9.9463 -0.0189873 -0.0139141 9.94633 13.1146 10 1 
202 1.21226 9.94557 -0.019135 -0.0140409 9.9456 13.1117 10 1 
204 1.21223 9.94573 -0.0192987 -0.0140998 9.94576 13.0539 10 1 
206 1.21229 9.94243 -0.019672 -0.0143733 9.94246 13.1635 10 1 
208 1.21232 9.94134 -0.0199633 -0.0145154 9.94137 13.2278 10 1 
210 1.21229 9.94299 -0.0201325 -0.0145888 9.94302 13.1615 10 1 
212 1.21235 9.9373 -0.0203658 -0.0147991 9.93733 13.2792 10 1 
214 1.21234 9.93303 -0.0205671 -0.0149072 9.93306 13.2514 10 1 
216 1.21231 9.93013 -0.0208795 -0.0150918 9.93016 13.2127 10 1 
218 1.21239 9.92481 -0.0212473 -0.0153632 9.92484 13.3407 10 1 
220 1.21239 9.92836 -0.0214636 -0.0155485 9.92839 13.3475 10 1 
222 1.21243 9.92955 -0.0216626 -0.0156493 9.92959 13.417 10 1 
224 1.21244 9.92496 -0.0218609 -0.0156546 9.925 13.4392 10 1 
224 1.21244 9.92496 -0.0218609 -0.0156546 9.925 13.4392 10 1 
226 1.21247 9.92168 -0.0221303 -0.0158282 9.92172 13.4845 10 1 
228 1.21249 9.91369 -0.0224318 -0.0160909 9.91373 13.5352 10 1 
230 1.21249 9.90677 -0.0227625 -0.0163508 9.90681 13.5374 10 1 
232 1.21251 9.90727 -0.0229995 -0.0164837 9.90732 13.5664 10 1 
234 1.21256 9.90547 -0.0232193 -0.0165348 9.90552 13.6577 10 1 
236 1.21265 9.8985 -0.0235093 -0.0167355 9.89854 13.8224 10 1 
238 1.2126 9.89714 -0.0237465 -0.0169033 9.89719 13.7235 10 1 
240 1.2127 9.88754 -0.0241834 -0.017256 9.88758 13.9078 10 1 
242 1.21273 9.88003 -0.0244686 -0.0174587 9.88008 13.969 10 1 
244 1.21268 9.87978 -0.0246322 -0.01752 9.87983 13.8639 10 1 
246 1.21286 9.87 -0.0249495 -0.0176783 9.87005 14.2 10 1 
248 1.21289 9.8626 -0.0251347 -0.0177146 9.86265 14.2586 10 1 
250 1.2129 9.85309 -0.0254457 -0.0179553 9.85314 14.2703 10 1 
252 1.21296 9.84366 -0.0258569 -0.0183151 9.84371 14.3801 10 1 
254 1.21306 9.83395 -0.0260284 -0.0183896 9.834 14.5645 10 1 
256 1.21313 9.82344 -0.0262684 -0.0185457 9.82349 14.6899 10 1 
256 1.21313 9.82344 -0.0262684 -0.0185457 9.82349 14.6899 11 1 
258 1.21319 9.81026 -0.0266209 -0.0187761 9.81031 14.7985 11 1 
260 1.21336 9.79607 -0.026916 -0.0189283 9.79613 15.0934 11 1 
262 1.21345 9.77945 -0.0273148 -0.0191906 9.77951 15.2714 11 1 
264 1.21346 9.76222 -0.027514 -0.019287 9.76228 15.2723 11 1 
266 1.21363 9.74618 -0.0277231 -0.0194648 9.74624 15.5862 11 1 
268 1.21399 9.71563 -0.028037 -0.019718 9.7157 16.2315 11 1 
270 1.21393 9.69476 -0.0283776 -0.0199071 9.69483 16.1253 11 1 
272 1.2141 9.66416 -0.0285583 -0.019944 9.66423 16.4327 11 1 
274 1.21456 9.62181 -0.0288555 -0.0201431 9.62188 17.2729 11 1 
276 1.21457 9.59389 -0.029168 -0.0203247 9.59396 17.2778 11 1 
278 1.21486 9.55117 -0.0294791 -0.0205311 9.55124 17.8159 11 1 
280 1.21543 9.50681 -0.0297384 -0.0207124 9.50689 18.8325 11 1 
282 1.2158 9.44735 -0.0298732 -0.0207896 9.44751 19.5074 11 1 
284 1.21607 9.35906 -0.0299734 -0.0208779 9.35929 19.9992 11 1 
286 1.21642 9.2689 -0.0301624 -0.02096 9.26906 20.6351 11 1 
288 1.21709 9.18431 -0.0304533 -0.0211223 9.18439 21.846 11 1 
288 1.21709 9.18431 -0.0304533 -0.0211223 9.18439 21.846 11 1 
290 1.21789 9.1105 -0.0306961 -0.0212399 9.1106 23.2834 11 1 
292 1.21855 9.01188 -0.0310144 -0.0214625 9.01206 24.4766 11 1 
294 1.21909 8.87615 -0.0310904 -0.0215517 8.87648 25.4512 11 1 
296 1.21984 8.73633 -0.0310143 -0.0214841 8.7366 26.8028 11 1 
298 1.21561 8.56648 -0.0310615 -0.0215285 8.56664 19.1568 11 1 
300 1.20835 8.49494 -0.0310646 -0.0214773 8.49512 6.05494 11 1 
302 1.20608 8.46513 -0.0314215 -0.0216515 8.46526 1.94786 11 1 
304 1.2067 8.34961 -0.0316177 -0.0217454 8.34981 3.06605 11 1 
306 1.20745 8.21953 -0.0316717 -0.0217657 8.21979 4.4313 11 1 
308 1.20801 8.10034 -0.0317078 -0.0218092 8.10062 5.44364 11 1 
310 1.20838 8.01092 -0.0317373 -0.0218067 8.01115 6.09806 11 1 
312 1.20886 7.91466 -0.0320329 -0.021988 7.91479 6.96353 11 1 
314 1.20932 7.84344 -0.0325071 -0.0222577 7.84356 7.7943 11 1 
316 1.20967 7.79063 -0.0327987 -0.0224016 7.79075 8.43291 11 1 
318 1.20999 7.72173 -0.0329648 -0.022501 7.72184 9.02031 11 1 
320 1.21026 7.67776 -0.0331175 -0.0225872 7.67787 9.50443 11 1 
320 1.21026 7.67776 -0.0331175 -0.0225872 7.67787 9.50443 15 1 
322 1.21052 7.64743 -0.0335004 -0.0228492 7.64755 9.97803 15 1 
324 1.21078 7.6007 -0.0338227 -0.0230481 7.60081 10.4448 15 1 
326 1.21097 7.56603 -0.0338404 -0.0229863 7.56615 10.792 15 1 
328 1.21114 7.53566 -0.0339158 -0.0229692 7.53578 11.0853 15 1 
330 1.21125 7.50131 -0.0342279 -0.0231554 7.50144 11.2807 15 1 
332 1.21142 7.47962 -0.0344895 -0.0233381 7.47975 11.6006 15 1 
334 1.21161 7.44999 -0.0346222 -0.0234198 7.45012 11.942 15 1 
336 1.2116 7.41412 -0.0348525 -0.0235052 7.41426 11.9201 15 1 
338 1.21165 7.39434 -0.0352059 -0.0236677 7.39447 12.011 15 1 
340 1.21186 7.37772 -0.0356692 -0.0239575 7.37785 12.3873 15 1 
342 1.21195 7.3595 -0.0359604 -0.0241374 7.35963 12.5536 15 1 
344 1.21195 7.33718 -0.0362507 -0.0242838 7.33731 12.5449 15 1 
346 1.21196 7.31245 -0.0367211 -0.0245829 7.31258 12.565 15 1 
348 1.21208 7.30821 -0.0373324 -0.0249896 7.30836 12.7876 15 1 
350 1.21222 7.3072 -0.0378094 -0.025248 7.30734 13.0432 15 1 
352 1.2122 7.28871 -0.0382198 -0.0254389 7.28886 12.9979 15 1 
354 1.2122 7.27776 -0.0386776 -0.0257292 7.2779 13.011 15 1 
356 1.21231 7.27652 -0.0392857 -0.0261655 7.27668 13.1967 15 1 
358 1.21235 7.27376 -0.0398361 -0.0264929 7.27392 13.282 15 1 
360 1.2124 7.27418 -0.0402321 -0.0266789 7.27434 13.3712 15 1 
362 1.21245 7.27134 -0.0406112 -0.026888 7.27151 13.4475 15 1 
364 1.21247 7.26702 -0.0410723 -0.0271682 7.26719 13.4846 15 1 
366 1.2125 7.26737 -0.0415567 -0.0274442 7.26754 13.5534 15 1 
368 1.21254 7.26838 -0.0419542 -0.027677 7.26856 13.6234 15 1 
370 1.2126 7.27165 -0.0421913 -0.0278084 7.27183 13.7316 15 1 
372 1.21263 7.27147 -0.0424994 -0.027961 7.27166 13.7837 15 1 
374 1.21263 7.26674 -0.0429236 -0.0282036 7.26692 13.7805 15 1 
376 1.21267 7.26725 -0.0432597 -0.0283754 7.26743 13.8567 15 1 
378 1.21271 7.26837 -0.0435168 -0.0284727 7.26855 13.9175 15 1 
380 1.21274 7.26835 -0.0437975 -0.0285962 7.26854 13.98 15 1 
382 1.21278 7.26875 -0.0441171 -0.0287713 7.26894 14.0499 15 1 
384 1.21277 7.26277 -0.0444355 -0.0289458 7.26296 14.0434 15 1 
384 1.21277 7.26277 -0.0444355 -0.0289458 7.26296 14.0434 16 1 
386 1.2128 7.25832 -0.0447027 -0.0290742 7.25852 14.0838 16 1 
388 1.21284 7.2596 -0.0449783 -0.0291966 7.2598 14.1583 16 1 
390 1.21286 7.25695 -0.0453453 -0.0293456 7.25715 14.1951 16 1 
392 1.21288 7.25185 -0.0456365 -0.0294751 7.25206 14.242 16 1 
394 1.21289 7.24575 -0.0458994 -0.029628 7.24596 14.2551 16 1 
396 1.2129 7.23863 -0.0461982 -0.0297889 7.23883 14.2619 16 1 
398 1.21292 7.2349 -0.0464903 -0.0299103 7.23511 14.3101 16 1 
400 1.21295 7.23088 -0.0467641 -0.0300343 7.23109 14.3636 16 1 
402 1.21297 7.22311 -0.0471153 -0.0302061 7.22333 14.3921 16 1 
404 1.21296 7.21406 -0.0474544 -0.0303424 7.21428 14.3711 16 1 
406 1.21297 7.20615 -0.0477123 -0.0304358 7.20637 14.3887 16 1 
408 1.21301 7.20091 -0.0479936 -0.0305611 7.20114 14.4595 16 1 
410 1.21301 7.19445 -0.04838 -0.0307805 7.19468 14.474 16 1 
412 1.21301 7.18527 -0.0487621 -0.0309919 7.18551 14.4735 16 1 
414 1.21303 7.17753 -0.0490779 -0.0311186 7.17777 14.5056 16 1 
416 1.21304 7.17001 -0.0494308 -0.0312564 7.17025 14.5308 16 1 
416 1.21304 7.17001 -0.0494308 -0.0312564 7.17025 14.5308 16 1 
418 1.21305 7.16231 -0.0498553 -0.0314797 7.16255 14.5483 16 1 
420 1.21306 7.15595 -0.0502582 -0.031702 7.15619 14.5657 16 1 
422 1.21308 7.14869 -0.0506552 -0.0319078 7.14895 14.6004 16 1 
424 1.2131 7.14089 -0.0510473 -0.0321209 7.14115 14.6271 16 1 
426 1.21309 7.13295 -0.0514959 -0.0323642 7.13321 14.6187 16 1 
428 1.2131 7.12508 -0.0519803 -0.0325894 7.12535 14.6327 16 1 
430 1.21312 7.11949 -0.0524722 -0.0328025 7.11976 14.6741 16 1 
432 1.21314 7.11371 -0.0529615 -0.0330435 7.11398 14.698 16 1 
434 1.21314 7.10531 -0.0534428 -0.0332867 7.10559 14.6963 16 1 
436 1.21314 7.09769 -0.053927 -0.0335319 7.09798 14.6981 16 1 
438 1.21315 7.09217 -0.0544237 -0.03378 7.09246 14.7262 16 1 
440 1.21317 7.08729 -0.0549498 -0.0340235 7.08759 14.7487 16 1 
442 1.21317 7.08202 -0.0555158 -0.0343023 7.08232 14.7629 16 1 
444 1.21318 7.07578 -0.0560362 -0.0345791 7.07609 14.7793 16 1 
446 1.21318 7.07047 -0.0565386 -0.034824 7.07078 14.7837 16 1 
448 1.21319 7.06645 -0.0570897 -0.035088 7.06677 14.7982 16 1 
448 1.21319 7.06645 -0.0570897 -0.035088 7.06677 14.7982 17 1 
450 1.21321 7.0629 -0.0576515 -0.0353891 7.06322 14.8293 17 1 
452 1.21322 7.05976 -0.0582041 -0.0357078 7.06009 14.8481 17 1 
454 1.21323 7.05599 -0.0588144 -0.0360493 7.05633 14.8591 17 1 
456 1.21323 7.05221 -0.0594353 -0.0363649 7.05256 14.8705 17 1 
458 1.21324 7.04955 -0.0599831 -0.0366378 7.0499 14.8831 17 1 
460 1.21325 7.04779 -0.0605948 -0.0369774 7.04815 14.907 17 1 
462 1.21327 7.04622 -0.0612477 -0.0373507 7.04658 14.9304 17 1 
464 1.21327 7.04392 -0.0618867 -0.0377148 7.0443 14.942 17 1 
466 1.21327 7.04115 -0.0624824 -0.0380424 7.04153 14.9447 17 1 
468 1.21328 7.03974 -0.0631239 -0.0383972 7.04013 14.9585 17 1 
470 1.2133 7.03929 -0.0637732 -0.0387617 7.03969 14.9832 17 1 
472 1.2133 7.03817 -0.0644166 -0.0391047 7.03858 14.9966 17 1 
474 1.21331 7.03707 -0.0650772 -0.0394632 7.03748 15.0098 17 1 
476 1.21331 7.03576 -0.0656994 -0.0398285 7.03618 15.0174 17 1 
478 1.21332 7.03491 -0.0663239 -0.0401625 7.03534 15.0221 17 1 
480 1.21333 7.0352 -0.066981 -0.0405128 7.03564 15.0464 17 1 
480 1.21333 7.0352 -0.066981 -0.0405128 7.03564 15.0464 17 1 
482 1.21334 7.03543 -0.0676534 -0.0408969 7.03587 15.0672 17 1 
484 1.21334 7.03522 -0.0682554 -0.0412318 7.03568 15.0728 17 1 
486 1.21335 7.03498 -0.0689035 -0.0415616 7.03544 15.0811 17 1 
488 1.21336 7.03519 -0.0695741 -0.0419083 7.03566 15.0959 17 1 
490 1.21337 7.03624 -0.0701714 -0.0422449 7.03672 15.1131 17 1 
492 1.21338 7.0376 -0.070808 -0.0426 7.03809 15.1303 17 1 
494 1.21338 7.0383 -0.0714992 -0.0429559 7.03879 15.1435 17 1 
496 1.21339 7.03891 -0.0721452 -0.0433023 7.03941 15.1551 17 1 
498 1.2134 7.04001 -0.072718 -0.0436173 7.04052 15.1634 17 1 
500 1.2134 7.04179 -0.0733575 -0.0439421 7.04231 15.1791 17 1 
502 1.21342 7.04394 -0.0740472 -0.0443066 7.04447 15.2047 17 1 
504 1.21342 7.04517 -0.0746899 -0.0446689 7.0457 15.2159 17 1 
506 1.21343 7.04637 -0.0753115 -0.0449887 7.04692 15.2207 17 1 
508 1.21344 7.04835 -0.0759114 -0.045287 7.04891 15.2362 17 1 
510 1.21345 7.05044 -0.0765435 -0.0456351 7.05101 15.2562 17 1 
512 1.21346 7.05241 -0.0771777 -0.0459853 7.05299 15.272 17 1 
512 1.21346 7.05241 -0.0771777 -0.0459853 7.05299 15.272 25 1 
514 1.21346 7.05424 -0.0778026 -0.0462971 7.05483 15.2838 25 1 
516 1.21347 7.05602 -0.0783997 -0.0466096 7.05661 15.2965 25 1 
518 1.21348 7.05774 -0.0789673 -0.0469103 7.05834 15.3094 25 1 
520 1.21348 7.05973 -0.0796081 -0.047235 7.06034 15.3237 25 1 
522 1.21349 7.06187 -0.0802248 -0.0475454 7.06248 15.3407 25 1 
524 1.2135 7.06374 -0.0808223 -0.0478664 7.06437 15.3549 25 1 
526 1.21351 7.06526 -0.0814229 -0.0481739 7.0659 15.3638 25 1 
528 1.21351 7.06691 -0.0820484 -0.048453 7.06755 15.3755 25 1 
530 1.21352 7.06887 -0.0826687 -0.0487583 7.06952 15.3919 25 1 
532 1.21353 7.07068 -0.0832879 -0.0490627 7.07134 15.4036 25 1 
534 1.21353 7.07239 -0.0839131 -0.0493582 7.07306 15.4157 25 1 
536 1.21354 7.07388 -0.084492 -0.0496573 7.07456 15.4298 25 1 
538 1.21355 7.07537 -0.0851347 -0.0499853 7.07606 15.4401 25 1 
540 1.21355 7.07695 -0.0857355 -0.05026 7.07765 15.4487 25 1 
542 1.21356 7.07845 -0.0863947 -0.0505382 7.07916 15.4634 25 1 
544 1.21357 7.08018 -0.0870169 -0.0508243 7.0809 15.4792 25 1 
544 1.21357 7.08018 -0.0870169 -0.0508243 7.0809 15.4792 25 1 
546 1.21357 7.08151 -0.0876571 -0.0510972 7.08224 15.4882 25 1 
548 1.21358 7.08267 -0.0883007 -0.0513873 7.08341 15.4968 25 1 
550 1.21359 7.08411 -0.0889179 -0.0516565 7.08486 15.5094 25 1 
552 1.21359 7.08553 -0.0895979 -0.0519437 7.08629 15.522 25 1 
554 1.2136 7.08703 -0.0902443 -0.0522244 7.0878 15.5332 25 1 
556 1.21361 7.08844 -0.0909311 -0.0524835 7.08922 15.5474 25 1 
558 1.21361 7.08955 -0.09158 -0.0527312 7.09034 15.5558 25 1 
560 1.21362 7.09073 -0.0922664 -0.0529788 7.09153 15.5624 25 1 
562 1.21362 7.09233 -0.0929592 -0.0532299 7.09314 15.5779 25 1 
564 1.21363 7.09378 -0.0936461 -0.0534874 7.09461 15.5913 25 1 
566 1.21364 7.09511 -0.0943568 -0.0537498 7.09595 15.6006 25 1 
568 1.21364 7.0963 -0.0950586 -0.0539959 7.09715 15.6093 25 1 
570 1.21365 7.09741 -0.0957893 -0.0542295 7.09827 15.6179 25 1 
572 1.21365 7.09894 -0.0965067 -0.0544643 7.09981 15.6301 25 1 
574 1.21366 7.10041 -0.0972574 -0.0547087 7.10129 15.6425 25 1 
576 1.21367 7.10164 -0.0980065 -0.0549627 7.10254 15.653 25 1 
576 1.21367 7.10164 -0.0980065 -0.0549627 7.10254 15.653 26 1 
578 1.21367 7.10277 -0.0987823 -0.0552197 7.10368 15.6603 26 1 
580 1.21367 7.1038 -0.0995448 -0.0554711 7.10472 15.6669 26 1 
582 1.21368 7.10518 -0.100343 -0.055742 7.10611 15.6792 26 1 
584 1.21369 7.10659 -0.101151 -0.0559795 7.10753 15.693 26 1 
586 1.21369 7.10766 -0.101966 -0.0562417 7.10861 15.6988 26 1 
588 1.2137 7.10863 -0.102822 -0.0565016 7.1096 15.7076 26 1 
590 1.2137 7.10962 -0.103633 -0.0567651 7.11061 15.7167 26 1 
592 1.21371 7.11062 -0.104519 -0.0570643 7.11162 15.7245 26 1 
594 1.21371 7.11187 -0.105384 -0.0573398 7.11288 15.7371 26 1 
596 1.21372 7.11276 -0.106264 -0.0576083 7.11379 15.7478 26 1 
598 1.21372 7.11332 -0.107181 -0.0578868 7.11436 15.7522 26 1 
600 1.21372 7.11402 -0.108082 -0.0581574 7.11509 15.759 26 1 
602 1.21373 7.11481 -0.109037 -0.0584265 7.11588 15.7719 26 1 
604 1.21374 7.11556 -0.109952 -0.0587201 7.11666 15.7809 26 1 
606 1.21374 7.116 -0.110936 -0.0590052 7.11712 15.7868 26 1 
608 1.21374 7.1163 -0.111901 -0.0592944 7.11742 15.795 26 1 
608 1.21374 7.1163 -0.111901 -0.0592944 7.11742 15.795 26 1 
610 1.21375 7.11673 -0.112899 -0.0595868 7.11787 15.8021 26 1 
612 1.21375 7.11699 -0.113906 -0.0598994 7.11816 15.8086 26 1 
614 1.21376 7.11719 -0.114924 -0.0601829 7.11838 15.8173 26 1 
616 1.21376 7.11756 -0.115963 -0.0604711 7.11877 15.8245 26 1 
618 1.21376 7.11747 -0.11701 -0.0608034 7.11869 15.8305 26 1 
620 1.21377 7.11739 -0.118055 -0.0611009 7.11864 15.8341 26 1 
622 1.21377 7.11744 -0.119088 -0.0613867 7.11871 15.8403 26 1 
624 1.21377 7.11754 -0.120173 -0.0617006 7.11883 15.8484 26 1 
626 1.21378 7.11736 -0.121237 -0.061998 7.11867 15.8553 26 1 
628 1.21378 7.11708 -0.122318 -0.0622962 7.1184 15.8561 26 1 
630 1.21378 7.11685 -0.123386 -0.0625642 7.11819 15.861 26 1 
632 1.21379 7.11658 -0.124473 -0.0628696 7.11795 15.8686 26 1 
634 1.21379 7.1164 -0.125559 -0.063168 7.11779 15.8716 26 1 
636 1.21379 7.116 -0.126651 -0.0634656 7.11741 15.8767 26 1 
638 1.21379 7.11552 -0.127762 -0.0637562 7.11696 15.8806 26 1 
640 1.21379 7.11495 -0.128847 -0.0640369 7.1164 15.8831 26 1 
642 1.2138 7.11454 -0.129973 -0.0643543 7.11601 15.887 26 1 
644 1.2138 7.11407 -0.131085 -0.0646289 7.11557 15.893 26 1 
646 1.2138 7.11338 -0.132221 -0.0649504 7.1149 15.8976 26 1 
648 1.2138 7.11284 -0.133363 -0.0652468 7.11439 15.8983 26 1 
650 1.2138 7.1121 -0.134506 -0.0655437 7.11368 15.9036 26 1 
652 1.21381 7.11147 -0.135678 -0.0658725 7.11307 15.9093 26 1 
654 1.21381 7.1108 -0.136858 -0.0661698 7.11242 15.911 26 1 
656 1.21381 7.11005 -0.138043 -0.0664805 7.1117 15.918 26 1 
658 1.21382 7.10948 -0.139312 -0.0668196 7.11116 15.9232 26 1 
660 1.21382 7.10856 -0.14048 -0.0671169 7.11027 15.9281 26 1 
662 1.21382 7.10787 -0.141781 -0.067499 7.1096 15.9315 26 1 
664 1.21382 7.10712 -0.143019 -0.0677827 7.10888 15.9395 26 1 
666 1.21383 7.10638 -0.14427 -0.0680901 7.10817 15.9464 26 1 
668 1.21383 7.10554 -0.145586 -0.0684977 7.10736 15.9516 26 1 
670 1.21383 7.10485 -0.146839 -0.0687505 7.1067 15.9577 26 1 
672 1.21384 7.10399 -0.148171 -0.069118 7.10587 15.9655 26 1 
672 1.21384 7.10399 -0.148171 -0.069118 7.10587 15.9655 27 1 
674 1.21384 7.10307 -0.149519 -0.0694397 7.10498 15.973 27 1 
676 1.21385 7.10252 -0.150736 -0.0696955 7.10446 15.9765 27 1 
678 1.21385 7.1014 -0.152109 -0.0700427 7.10338 15.9889 27 1 
680 1.21385 7.10072 -0.153362 -0.07032 7.10273 15.9913 27 1 
682 1.21386 7.09974 -0.154586 -0.0705632 7.10177 15.9995 27 1 
684 1.21386 7.09894 -0.15598 -0.0708863 7.10101 16.0072 27 1 
686 1.21387 7.09807 -0.157095 -0.071042 7.10017 16.0136 27 1 
688 1.21387 7.0971 -0.158458 -0.0713288 7.09923 16.0214 27 1 
690 1.21387 7.09621 -0.159594 -0.0714951 7.09836 16.0257 27 1 
692 1.21388 7.09525 -0.160815 -0.0717038 7.09744 16.0321 27 1 
694 1.21388 7.09422 -0.162012 -0.0718416 7.09643 16.0404 27 1 
696 1.21388 7.09329 -0.163165 -0.0719861 7.09553 16.0455 27 1 
698 1.21389 7.09258 -0.164299 -0.0721243 7.09485 16.049 27 1 
700 1.21389 7.09145 -0.165488 -0.0722166 7.09375 16.0596 27 1 
702 1.21389 7.09048 -0.166575 -0.0722892 7.0928 16.0643 27 1 
704 1.21389 7.08954 -0.16756 -0.0722757 7.09189 16.0634 27 1 
704 1.21389 7.08954 -0.16756 -0.0722757 7.09189 16.0634 31 1 
706 1.2139 7.08846 -0.168751 -0.0723954 7.09084 16.074 31 1 
708 1.2139 7.08764 -0.169686 -0.0722889 7.09005 16.0822 31 1 
710 1.2139 7.08692 -0.17088 -0.0723664 7.08935 16.0799 31 1 
712 1.21391 7.08604 -0.171786 -0.0722962 7.0885 16.0884 31 1 
714 1.21391 7.08507 -0.172951 -0.0722794 7.08755 16.1 31 1 
716 1.21391 7.08432 -0.173799 -0.0720795 7.08682 16.0966 31 1 
718 1.21391 7.08344 -0.174788 -0.0720427 7.08596 16.1008 31 1 
720 1.21392 7.08282 -0.175861 -0.0719561 7.08537 16.1125 31 1 
722 1.21392 7.08236 -0.17662 -0.0716584 7.08492 16.1164 31 1 
724 1.21392 7.08189 -0.17783 -0.0717059 7.08449 16.1164 31 1 
726 1.21393 7.08146 -0.178467 -0.0712691 7.08407 16.1267 31 1 
728 1.21393 7.08093 -0.179597 -0.0712571 7.08357 16.1364 31 1 
730 1.21393 7.0805 -0.180436 -0.0709632 7.08316 16.1333 31 1 
732 1.21393 7.08038 -0.181268 -0.0706647 7.08306 16.1362 31 1 
734 1.21394 7.08035 -0.182416 -0.0707428 7.08306 16.1513 31 1 
736 1.21395 7.08017 -0.182864 -0.070095 7.08288 16.1581 31 1 
738 1.21394 7.0807 -0.184161 -0.0700975 7.08345 16.1476 31 1 
740 1.21395 7.08077 -0.184603 -0.0696465 7.08353 16.1665 31 1 
742 1.21396 7.08089 -0.185574 -0.0694295 7.08367 16.1785 31 1 
744 1.21395 7.08137 -0.18672 -0.0693489 7.08418 16.1615 31 1 
746 1.21395 7.08216 -0.187175 -0.0689255 7.08498 16.1715 31 1 
748 1.21397 7.08266 -0.188264 -0.0687839 7.0855 16.1973 31 1 
750 1.21396 7.08347 -0.188831 -0.068199 7.08633 16.1824 31 1 
752 1.21395 7.08521 -0.189956 -0.0682347 7.0881 16.1682 31 1 
752 1.21395 7.08521 -0.189956 -0.0682347 7.0881 16.1682 31 1 
754 1.21398 7.08539 -0.190665 -0.0679304 7.08829 16.2115 31 1 
756 1.21397 7.08685 -0.191478 -0.0676259 7.08977 16.1958 31 1 
758 1.21395 7.08919 -0.192551 -0.0675989 7.09214 16.1647 31 1 
760 1.21397 7.09026 -0.193472 -0.0673094 7.09324 16.2091 31 1 
762 1.21397 7.09203 -0.194487 -0.0671361 7.09503 16.2069 31 1 
764 1.21394 7.09551 -0.195283 -0.0670794 7.09853 16.1537 31 1 
766 1.21397 7.0964 -0.196176 -0.0669008 7.09944 16.1982 31 1 
768 1.21396 7.09984 -0.197409 -0.0666943 7.10291 16.188 31 1 
770 1.21394 7.10309 -0.199109 -0.0671709 7.10621 16.1523 31 1 
772 1.21394 7.10568 -0.200043 -0.0670474 7.10883 16.153 31 1 
774 1.21394 7.11041 -0.20185 -0.0674742 7.11361 16.1399 31 1 
776 1.21392 7.1155 -0.203875 -0.0678643 7.11876 16.1178 31 1 
778 1.2139 7.12258 -0.204982 -0.0677634 7.12587 16.0811 31 1 
780 1.21391 7.12714 -0.206365 -0.0679476 7.13047 16.0963 31 1 
782 1.21387 7.13449 -0.209199 -0.0688952 7.13791 16.0184 31 1 
784 1.21384 7.14085 -0.213527 -0.070925 7.14441 15.9603 31 1 
786 1.2138 7.15183 -0.215619 -0.071179 7.15545 15.9007 31 1 
788 1.21379 7.16354 -0.218233 -0.0716049 7.16724 15.8811 31 1 
790 1.21374 7.17652 -0.222084 -0.0727805 7.18035 15.7864 31 1 
792 1.21366 7.19134 -0.226936 -0.0742552 7.19532 15.634 31 1 
794 1.2136 7.20804 -0.231119 -0.0749741 7.21215 15.5422 31 1 
796 1.21354 7.22758 -0.233025 -0.0728012 7.23172 15.4284 31 1 
798 1.21342 7.24987 -0.235086 -0.068033 7.25403 15.2156 31 1 
800 1.21332 7.26538 -0.236009 -0.0648575 7.26954 15.0251 31 1 
