103.244;r ;Density                 ;Velocity u              ;Velocity v              ;Velocity w              ;|Velocity|              ;Pressure                ;Distribution            ;Levels                  ;
0 1.21415 9.99976 -7.03259e-05 -1.78525e-05 9.99976 16.5277 1 1 
2 1.21417 9.99914 -9.37612e-05 -3.80685e-05 9.99914 16.572 1 1 
4 1.21417 9.99935 -0.000240923 -0.000159995 9.99935 16.5661 1 1 
6 1.21416 10.0003 -0.000334984 -0.000226221 10.0003 16.5435 1 1 
8 1.21417 10.0014 -0.000443001 -0.000306418 10.0014 16.5546 1 1 
10 1.21416 10.0024 -0.000549324 -0.00037088 10.0024 16.5369 1 1 
12 1.21416 10.0026 -0.000648286 -0.000445811 10.0026 16.5375 1 1 
14 1.21415 10.0041 -0.0007734 -0.00053259 10.0041 16.5211 1 1 
16 1.21415 10.005 -0.000846942 -0.000576353 10.005 16.5338 1 1 
18 1.21415 10.0051 -0.000940499 -0.000642507 10.0051 16.5243 1 1 
20 1.21413 10.0061 -0.00108289 -0.000747156 10.0061 16.4878 1 1 
22 1.21415 10.0069 -0.00117701 -0.000823455 10.0069 16.5214 1 1 
24 1.21415 10.0081 -0.00129112 -0.000917153 10.0081 16.5182 1 1 
26 1.21413 10.0088 -0.00139089 -0.000975357 10.0088 16.4956 1 1 
28 1.21413 10.009 -0.00150631 -0.00105145 10.009 16.4946 1 1 
30 1.21413 10.0098 -0.00159482 -0.00112113 10.0098 16.4831 1 1 
32 1.21413 10.0099 -0.00171925 -0.00120677 10.0099 16.4922 1 1 
32 1.21413 10.0099 -0.00171925 -0.00120677 10.0099 16.4922 1 1 
34 1.21412 10.0103 -0.00178549 -0.0012441 10.0103 16.4777 1 1 
36 1.21412 10.0102 -0.00190772 -0.00133014 10.0102 16.4715 1 1 
38 1.21411 10.0112 -0.0020148 -0.00140788 10.0112 16.4546 1 1 
40 1.21412 10.012 -0.00210854 -0.00148391 10.012 16.4655 1 1 
42 1.21412 10.0124 -0.00222785 -0.0015656 10.0124 16.4708 1 1 
44 1.21411 10.0127 -0.00231814 -0.00160021 10.0127 16.4487 1 1 
46 1.21411 10.0125 -0.00244248 -0.00169415 10.0125 16.4525 1 1 
48 1.2141 10.0135 -0.00257374 -0.00181089 10.0135 16.4363 1 1 
50 1.2141 10.0148 -0.00265622 -0.00182931 10.0148 16.4431 1 1 
52 1.2141 10.0148 -0.00274861 -0.00188977 10.0148 16.4419 1 1 
54 1.21409 10.0146 -0.00287246 -0.00197268 10.0146 16.4251 1 1 
56 1.2141 10.0161 -0.00297378 -0.00203095 10.0161 16.429 1 1 
58 1.2141 10.0168 -0.00311444 -0.00215208 10.0168 16.4325 1 1 
60 1.21409 10.0173 -0.0032025 -0.00220469 10.0173 16.4131 1 1 
62 1.21409 10.0174 -0.00332139 -0.00229751 10.0174 16.4164 1 1 
64 1.21409 10.0182 -0.00341849 -0.0023572 10.0182 16.414 1 1 
64 1.21409 10.0182 -0.00341849 -0.0023572 10.0182 16.414 2 1 
66 1.21409 10.0192 -0.00352452 -0.00243685 10.0192 16.4239 2 1 
68 1.21408 10.0205 -0.00365939 -0.00253107 10.0205 16.3972 2 1 
70 1.21408 10.0206 -0.00378346 -0.00262629 10.0206 16.405 2 1 
72 1.21408 10.0207 -0.00389458 -0.00270547 10.0207 16.4099 2 1 
74 1.21407 10.0213 -0.00399859 -0.00275146 10.0213 16.3868 2 1 
76 1.21409 10.0214 -0.00410515 -0.00283867 10.0214 16.4179 2 1 
78 1.21407 10.0234 -0.00420916 -0.00289602 10.0234 16.3877 2 1 
80 1.21407 10.0237 -0.00433395 -0.00298498 10.0237 16.3859 2 1 
82 1.21408 10.0239 -0.00445562 -0.0030992 10.0239 16.3938 2 1 
84 1.21407 10.0245 -0.00455744 -0.00314322 10.0245 16.391 2 1 
86 1.21408 10.0247 -0.00466271 -0.0031989 10.0247 16.3988 2 1 
88 1.21407 10.0256 -0.00481243 -0.00332055 10.0256 16.3803 2 1 
90 1.21407 10.0261 -0.00489496 -0.00336785 10.0261 16.3811 2 1 
92 1.21407 10.0262 -0.00503893 -0.00345817 10.0262 16.3816 2 1 
94 1.21407 10.0264 -0.00516779 -0.00354243 10.0264 16.3845 2 1 
96 1.21407 10.027 -0.00525824 -0.00358851 10.027 16.3872 2 1 
96 1.21407 10.027 -0.00525824 -0.00358851 10.027 16.3872 2 1 
98 1.21407 10.0282 -0.00543076 -0.00369793 10.0282 16.3806 2 1 
100 1.21407 10.029 -0.00553295 -0.00375974 10.029 16.3784 2 1 
102 1.21406 10.0294 -0.00564279 -0.00385728 10.0294 16.3677 2 1 
104 1.21407 10.0289 -0.00581207 -0.00398079 10.0289 16.3862 2 1 
106 1.21407 10.0294 -0.00590178 -0.00401026 10.0294 16.3824 2 1 
108 1.21407 10.0293 -0.00605593 -0.00412285 10.0293 16.3868 2 1 
110 1.21406 10.0297 -0.00617705 -0.00420996 10.0297 16.3697 2 1 
112 1.21406 10.0308 -0.00630429 -0.00428705 10.0308 16.357 2 1 
114 1.21407 10.0302 -0.00643482 -0.00435932 10.0302 16.3895 2 1 
116 1.21407 10.0317 -0.00657017 -0.0044565 10.0317 16.378 2 1 
118 1.21407 10.0329 -0.00668346 -0.00452671 10.0329 16.3846 2 1 
120 1.21408 10.0324 -0.00679823 -0.00457288 10.0324 16.4025 2 1 
122 1.21406 10.033 -0.00694925 -0.00468732 10.033 16.3653 2 1 
124 1.21406 10.0326 -0.00706456 -0.00478978 10.0326 16.3643 2 1 
126 1.21409 10.0318 -0.00721779 -0.00489796 10.0318 16.4171 2 1 
128 1.21407 10.0335 -0.00732782 -0.0049347 10.0335 16.3737 2 1 
128 1.21407 10.0335 -0.00732782 -0.0049347 10.0335 16.3737 10 1 
130 1.21407 10.034 -0.00749619 -0.00508423 10.034 16.3873 10 1 
132 1.21408 10.0352 -0.00760343 -0.00514575 10.0352 16.4045 10 1 
134 1.21407 10.0358 -0.00772994 -0.00519934 10.0358 16.3897 10 1 
136 1.21409 10.0346 -0.00787667 -0.00528781 10.0347 16.411 10 1 
138 1.21407 10.0348 -0.00800257 -0.00538204 10.0348 16.3882 10 1 
140 1.21408 10.0356 -0.00814133 -0.00548906 10.0356 16.4048 10 1 
142 1.21408 10.0366 -0.00826986 -0.00550893 10.0366 16.4063 10 1 
144 1.21408 10.0371 -0.00841329 -0.0056251 10.0371 16.4067 10 1 
146 1.2141 10.0378 -0.0085461 -0.0057215 10.0378 16.4348 10 1 
148 1.2141 10.0372 -0.00869742 -0.00580227 10.0373 16.432 10 1 
150 1.21408 10.037 -0.00882062 -0.00588963 10.037 16.4016 10 1 
152 1.21409 10.0377 -0.00895689 -0.00598736 10.0377 16.423 10 1 
154 1.21411 10.0381 -0.0090516 -0.00603786 10.0381 16.4466 10 1 
156 1.2141 10.039 -0.00920079 -0.00613991 10.039 16.4352 10 1 
158 1.21411 10.0393 -0.00932633 -0.00621173 10.0393 16.4529 10 1 
160 1.21412 10.0383 -0.00941702 -0.00626619 10.0383 16.4655 10 1 
160 1.21412 10.0383 -0.00941702 -0.00626619 10.0383 16.4655 10 1 
162 1.2141 10.039 -0.00956389 -0.00638326 10.039 16.4298 10 1 
164 1.21411 10.0392 -0.00970465 -0.00642036 10.0392 16.4463 10 1 
166 1.21414 10.0377 -0.00987494 -0.00652873 10.0377 16.5135 10 1 
168 1.21411 10.0399 -0.0100252 -0.00665117 10.0399 16.4575 10 1 
170 1.21412 10.0394 -0.0101528 -0.00672443 10.0394 16.4809 10 1 
172 1.21414 10.0394 -0.010287 -0.00678516 10.0394 16.5018 10 1 
174 1.21412 10.0415 -0.0103793 -0.00685087 10.0415 16.466 10 1 
176 1.21416 10.04 -0.0105439 -0.00693129 10.04 16.545 10 1 
178 1.21415 10.0402 -0.0106624 -0.00701058 10.0402 16.526 10 1 
180 1.21415 10.0397 -0.0108084 -0.00714497 10.0397 16.522 10 1 
182 1.21415 10.0378 -0.0109709 -0.00726472 10.0378 16.5279 10 1 
184 1.21413 10.0377 -0.0111412 -0.00739275 10.0377 16.4997 10 1 
186 1.21418 10.0393 -0.0112911 -0.00745375 10.0393 16.5778 10 1 
188 1.21419 10.0402 -0.011394 -0.00747132 10.0402 16.6056 10 1 
190 1.21418 10.04 -0.0115967 -0.00760767 10.04 16.5762 10 1 
192 1.21417 10.0403 -0.0116361 -0.00761098 10.0403 16.572 10 1 
194 1.21419 10.0381 -0.0118774 -0.00778863 10.0381 16.6055 10 1 
196 1.2142 10.0361 -0.0121155 -0.00797815 10.0361 16.6222 10 1 
198 1.21421 10.0369 -0.0121741 -0.0079605 10.0369 16.6265 10 1 
200 1.21424 10.0364 -0.0124174 -0.00815377 10.0364 16.689 10 1 
202 1.21424 10.0365 -0.0124797 -0.0082178 10.0365 16.6815 10 1 
204 1.2142 10.0375 -0.0125698 -0.00823941 10.0376 16.618 10 1 
206 1.21426 10.035 -0.0128766 -0.00848836 10.035 16.7245 10 1 
208 1.21429 10.0348 -0.0130983 -0.00859269 10.0348 16.7875 10 1 
210 1.21425 10.0373 -0.0132244 -0.00863477 10.0374 16.715 10 1 
212 1.21432 10.0324 -0.013404 -0.00881805 10.0324 16.8285 10 1 
214 1.2143 10.029 -0.0135385 -0.0088961 10.0291 16.797 10 1 
216 1.21427 10.027 -0.0137998 -0.00904895 10.027 16.7527 10 1 
218 1.21434 10.0225 -0.0141072 -0.00927327 10.0225 16.8795 10 1 
220 1.21435 10.0269 -0.0142418 -0.00941373 10.0269 16.883 10 1 
222 1.21438 10.0289 -0.0143769 -0.00949692 10.0289 16.9489 10 1 
224 1.21439 10.0251 -0.0145268 -0.00949336 10.0251 16.9657 10 1 
224 1.21439 10.0251 -0.0145268 -0.00949336 10.0251 16.9657 10 1 
226 1.21442 10.0227 -0.0147403 -0.00965279 10.0227 17.0075 10 1 
228 1.21444 10.0156 -0.0150012 -0.00990194 10.0156 17.0561 10 1 
230 1.21444 10.0095 -0.0153014 -0.0101524 10.0095 17.053 10 1 
232 1.21446 10.0109 -0.0154899 -0.0102707 10.0109 17.0789 10 1 
234 1.2145 10.0099 -0.0156508 -0.0103067 10.0099 17.1675 10 1 
236 1.21459 10.0036 -0.0158799 -0.0105089 10.0036 17.3308 10 1 
238 1.21454 10.0031 -0.0160614 -0.0106728 10.0031 17.2243 10 1 
240 1.21464 9.99428 -0.0164432 -0.0109945 9.99431 17.4077 10 1 
242 1.21467 9.98764 -0.0166821 -0.0111679 9.98766 17.4673 10 1 
244 1.21461 9.9883 -0.0168128 -0.0112405 9.98832 17.3545 10 1 
246 1.2148 9.97925 -0.0170833 -0.0114413 9.97927 17.693 10 1 
248 1.21483 9.97261 -0.0172225 -0.011497 9.97264 17.7478 10 1 
250 1.21483 9.96383 -0.0175138 -0.0117314 9.96386 17.7554 10 1 
252 1.21489 9.95515 -0.0179429 -0.0121096 9.95518 17.8617 10 1 
254 1.21499 9.94624 -0.0180816 -0.0121742 9.94626 18.0449 10 1 
256 1.21506 9.93647 -0.0182906 -0.0123387 9.93649 18.169 10 1 
256 1.21506 9.93647 -0.0182906 -0.0123387 9.93649 18.169 11 1 
258 1.21512 9.92402 -0.0186376 -0.0126342 9.92405 18.2734 11 1 
260 1.21528 9.91061 -0.0189151 -0.0128544 9.91063 18.571 11 1 
262 1.21538 9.89471 -0.0192535 -0.0131265 9.89474 18.7498 11 1 
264 1.21538 9.87809 -0.0194402 -0.0132425 9.87812 18.7429 11 1 
266 1.21555 9.86273 -0.0196876 -0.013471 9.86276 19.0581 11 1 
268 1.21592 9.83263 -0.0199931 -0.0137465 9.83267 19.7155 11 1 
270 1.21585 9.81243 -0.0203025 -0.0139542 9.81247 19.5999 11 1 
272 1.21602 9.78245 -0.0204909 -0.014052 9.78249 19.9085 11 1 
274 1.2165 9.74034 -0.0207653 -0.0143115 9.74038 20.7659 11 1 
276 1.2165 9.71312 -0.0210226 -0.014511 9.71315 20.7668 11 1 
278 1.2168 9.67069 -0.0212923 -0.014707 9.67072 21.31 11 1 
280 1.21737 9.62652 -0.0215569 -0.0149006 9.62657 22.3511 11 1 
282 1.21776 9.56715 -0.0216903 -0.0149937 9.56728 23.0398 11 1 
284 1.21803 9.47839 -0.0217807 -0.0151075 9.47859 23.5321 11 1 
286 1.21839 9.38799 -0.0219605 -0.0152313 9.38812 24.1822 11 1 
288 1.21908 9.30306 -0.0222078 -0.0154264 9.30311 25.4246 11 1 
288 1.21908 9.30306 -0.0222078 -0.0154264 9.30311 25.4246 11 1 
290 1.21989 9.22922 -0.0223721 -0.0155537 9.22928 26.8997 11 1 
292 1.22057 9.13002 -0.0226429 -0.0157741 9.13016 28.1177 11 1 
294 1.22112 8.99301 -0.0227403 -0.0158747 8.99331 29.1107 11 1 
296 1.22189 8.85217 -0.0226783 -0.0158149 8.8524 30.5016 11 1 
298 1.2175 8.68068 -0.0227296 -0.0158803 8.68081 22.5852 11 1 
300 1.21002 8.61069 -0.0227087 -0.0158603 8.61083 9.07179 11 1 
302 1.20769 8.58291 -0.0229664 -0.0160409 8.583 4.85698 11 1 
304 1.20832 8.46663 -0.0231261 -0.016161 8.46679 6.00183 11 1 
306 1.2091 8.33572 -0.0231568 -0.0161716 8.33594 7.40182 11 1 
308 1.20967 8.21563 -0.0231888 -0.016199 8.21587 8.43303 11 1 
310 1.21004 8.12604 -0.0231947 -0.01618 8.12622 9.10138 11 1 
312 1.21053 8.02942 -0.0233974 -0.0163301 8.0295 9.98561 11 1 
314 1.211 7.95817 -0.0237361 -0.0165609 7.95825 10.8316 11 1 
316 1.21136 7.90583 -0.0239376 -0.0166929 7.9059 11.4825 11 1 
318 1.21169 7.83695 -0.0240394 -0.0167733 7.83702 12.079 11 1 
320 1.21196 7.79354 -0.0241238 -0.0168131 7.7936 12.5695 11 1 
320 1.21196 7.79354 -0.0241238 -0.0168131 7.7936 12.5695 15 1 
322 1.21222 7.76388 -0.0244045 -0.0170083 7.76394 13.0488 15 1 
324 1.21249 7.71754 -0.024646 -0.017173 7.7176 13.5212 15 1 
326 1.21268 7.68363 -0.0246398 -0.0171427 7.68369 13.8711 15 1 
328 1.21284 7.65392 -0.024667 -0.0171421 7.65398 14.1642 15 1 
330 1.21295 7.62032 -0.0248845 -0.0172859 7.6204 14.3568 15 1 
332 1.21313 7.59946 -0.0250664 -0.0174044 7.59953 14.6782 15 1 
334 1.21332 7.57049 -0.0251494 -0.0174443 7.57056 15.0206 15 1 
336 1.2133 7.53544 -0.0253033 -0.017509 7.53551 14.9895 15 1 
338 1.21335 7.51653 -0.025543 -0.0176535 7.5166 15.0747 15 1 
340 1.21356 7.50093 -0.02587 -0.0178995 7.50101 15.4531 15 1 
342 1.21365 7.48378 -0.0260668 -0.018024 7.48385 15.6156 15 1 
344 1.21364 7.46235 -0.0262515 -0.0180913 7.46242 15.5977 15 1 
346 1.21364 7.43873 -0.0265761 -0.0182993 7.4388 15.6103 15 1 
348 1.21376 7.43578 -0.0270299 -0.0186399 7.43585 15.8311 15 1 
350 1.2139 7.43603 -0.0273665 -0.0188556 7.4361 16.0847 15 1 
352 1.21387 7.41883 -0.0276235 -0.0189809 7.41891 16.029 15 1 
354 1.21388 7.40917 -0.0279369 -0.0191915 7.40925 16.0329 15 1 
356 1.21398 7.40942 -0.0283966 -0.0195344 7.4095 16.2151 15 1 
358 1.21402 7.40819 -0.0288038 -0.0197805 7.40827 16.295 15 1 
360 1.21407 7.41011 -0.0290636 -0.0199036 7.41019 16.3777 15 1 
362 1.21411 7.40883 -0.0293067 -0.0200651 7.40892 16.4461 15 1 
364 1.21412 7.40604 -0.0296401 -0.020298 7.40613 16.4742 15 1 
366 1.21415 7.40807 -0.0299986 -0.0205175 7.40816 16.5354 15 1 
368 1.21419 7.41069 -0.0302678 -0.0206802 7.41078 16.5979 15 1 
370 1.21425 7.41568 -0.030408 -0.0207582 7.41577 16.6996 15 1 
372 1.21427 7.41719 -0.0306254 -0.0208782 7.41728 16.7426 15 1 
374 1.21426 7.41403 -0.0309351 -0.0210802 7.41413 16.7284 15 1 
376 1.2143 7.41632 -0.0311558 -0.0212179 7.41642 16.7969 15 1 
378 1.21433 7.41908 -0.0313093 -0.0212813 7.41918 16.8482 15 1 
380 1.21436 7.42083 -0.0315097 -0.0213779 7.42092 16.9026 15 1 
382 1.21439 7.42292 -0.0317472 -0.0215184 7.42302 16.9636 15 1 
384 1.21438 7.41855 -0.0319791 -0.0216536 7.41865 16.9451 15 1 
384 1.21438 7.41855 -0.0319791 -0.0216536 7.41865 16.9451 16 1 
386 1.2144 7.41584 -0.0321578 -0.0217482 7.41594 16.9752 16 1 
388 1.21443 7.41876 -0.0323353 -0.021842 7.41886 17.0396 16 1 
390 1.21445 7.41782 -0.0325878 -0.021971 7.41792 17.0677 16 1 
392 1.21447 7.4144 -0.0327829 -0.02208 7.41451 17.1053 16 1 
394 1.21447 7.40989 -0.0329714 -0.0222094 7.41 17.1074 16 1 
396 1.21447 7.40445 -0.0331999 -0.0223364 7.40456 17.1031 16 1 
398 1.21449 7.4024 -0.033405 -0.0224216 7.40251 17.1412 16 1 
400 1.21451 7.39998 -0.0335698 -0.0225145 7.40009 17.1849 16 1 
402 1.21452 7.3939 -0.0338064 -0.022664 7.39401 17.204 16 1 
404 1.21451 7.38651 -0.0340534 -0.0227895 7.38662 17.1726 16 1 
406 1.21451 7.38023 -0.0342192 -0.0228621 7.38035 17.1807 16 1 
408 1.21455 7.37675 -0.034399 -0.0229473 7.37687 17.2431 16 1 
410 1.21455 7.37191 -0.0346758 -0.0231102 7.37203 17.2462 16 1 
412 1.21454 7.36449 -0.0349448 -0.0232768 7.36461 17.236 16 1 
414 1.21456 7.35855 -0.0351451 -0.0233719 7.35868 17.26 16 1 
416 1.21456 7.35277 -0.0353669 -0.0234849 7.3529 17.276 16 1 
416 1.21456 7.35277 -0.0353669 -0.0234849 7.3529 17.276 16 1 
418 1.21457 7.34692 -0.0356442 -0.0236695 7.34705 17.2841 16 1 
420 1.21457 7.3424 -0.0359239 -0.0238431 7.34253 17.2913 16 1 
422 1.21459 7.33702 -0.0362087 -0.0239893 7.33716 17.3169 16 1 
424 1.2146 7.33117 -0.0364813 -0.0241407 7.33131 17.3349 16 1 
426 1.21459 7.32523 -0.0367812 -0.024328 7.32537 17.3173 16 1 
428 1.21459 7.31938 -0.0371023 -0.0245033 7.31952 17.3224 16 1 
430 1.21461 7.31592 -0.0374332 -0.0246647 7.31606 17.3557 16 1 
432 1.21462 7.31225 -0.0377673 -0.0248417 7.31239 17.3703 16 1 
434 1.21461 7.30608 -0.0381032 -0.0250197 7.30622 17.3586 16 1 
436 1.21461 7.30075 -0.0384452 -0.0251937 7.30089 17.3518 16 1 
438 1.21462 7.29756 -0.0387865 -0.0253689 7.29771 17.3723 16 1 
440 1.21463 7.29519 -0.0391249 -0.025526 7.29534 17.3877 16 1 
442 1.21463 7.29235 -0.0394885 -0.0257088 7.2925 17.3925 16 1 
444 1.21463 7.28869 -0.0398276 -0.025906 7.28884 17.3997 16 1 
446 1.21463 7.28597 -0.0401558 -0.0260728 7.28613 17.3951 16 1 
448 1.21463 7.28464 -0.0405234 -0.0262424 7.2848 17.4008 16 1 
448 1.21463 7.28464 -0.0405234 -0.0262424 7.2848 17.4008 17 1 
450 1.21465 7.28386 -0.0408838 -0.0264281 7.28402 17.4247 17 1 
452 1.21465 7.28351 -0.0412348 -0.0266303 7.28368 17.4344 17 1 
454 1.21465 7.28263 -0.0416337 -0.0268601 7.2828 17.4358 17 1 
456 1.21465 7.28173 -0.0420387 -0.0270699 7.2819 17.437 17 1 
458 1.21466 7.28204 -0.0423725 -0.0272358 7.28221 17.44 17 1 
460 1.21466 7.28328 -0.042754 -0.0274516 7.28346 17.4552 17 1 
462 1.21467 7.28477 -0.0431846 -0.0276959 7.28495 17.4698 17 1 
464 1.21467 7.28555 -0.0436012 -0.0279284 7.28573 17.4717 17 1 
466 1.21467 7.28584 -0.0439786 -0.0281286 7.28603 17.4636 17 1 
468 1.21467 7.28758 -0.0443791 -0.0283459 7.28777 17.4682 17 1 
470 1.21468 7.29023 -0.044778 -0.0285668 7.29042 17.4837 17 1 
472 1.21468 7.29225 -0.0451679 -0.0287607 7.29244 17.489 17 1 
474 1.21469 7.29422 -0.0455603 -0.0289603 7.29442 17.4939 17 1 
476 1.21468 7.29598 -0.0459234 -0.0291618 7.29619 17.4928 17 1 
478 1.21468 7.29815 -0.0462811 -0.0293259 7.29835 17.4892 17 1 
480 1.21469 7.30146 -0.0466749 -0.0295111 7.30167 17.506 17 1 
480 1.21469 7.30146 -0.0466749 -0.0295111 7.30167 17.506 17 1 
482 1.2147 7.30465 -0.0470705 -0.0297297 7.30487 17.5207 17 1 
484 1.2147 7.30732 -0.0474144 -0.0299094 7.30753 17.5189 17 1 
486 1.2147 7.30994 -0.0477976 -0.0300777 7.31015 17.5206 17 1 
488 1.2147 7.31284 -0.0481947 -0.0302572 7.31306 17.5282 17 1 
490 1.21471 7.31663 -0.0485205 -0.0304194 7.31685 17.5384 17 1 
492 1.21472 7.32062 -0.0488732 -0.0305877 7.32084 17.5489 17 1 
494 1.21472 7.32386 -0.0492823 -0.03076 7.32409 17.5547 17 1 
496 1.21472 7.32696 -0.0496449 -0.0309251 7.32719 17.559 17 1 
498 1.21472 7.3304 -0.0499384 -0.0310591 7.33063 17.5579 17 1 
500 1.21472 7.33453 -0.0502934 -0.0311912 7.33477 17.5648 17 1 
502 1.21473 7.33891 -0.0506805 -0.031354 7.33916 17.5813 17 1 
504 1.21473 7.34233 -0.0510282 -0.0315239 7.34257 17.5826 17 1 
506 1.21473 7.34562 -0.0513563 -0.0316537 7.34586 17.5776 17 1 
508 1.21473 7.34963 -0.0516856 -0.0317689 7.34988 17.5831 17 1 
510 1.21474 7.35363 -0.052037 -0.0319252 7.35389 17.593 17 1 
512 1.21474 7.35745 -0.0523909 -0.0320895 7.35771 17.5981 17 1 
512 1.21474 7.35745 -0.0523909 -0.0320895 7.35771 17.5981 25 1 
514 1.21474 7.36112 -0.0527354 -0.0322211 7.36138 17.6009 25 1 
516 1.21475 7.36456 -0.0530622 -0.0323518 7.36482 17.6044 25 1 
518 1.21475 7.36792 -0.0533682 -0.0324777 7.36819 17.6092 25 1 
520 1.21475 7.37141 -0.0537272 -0.0326171 7.37168 17.6153 25 1 
522 1.21476 7.37501 -0.0540858 -0.0327541 7.37528 17.6245 25 1 
524 1.21476 7.37831 -0.0544148 -0.0328964 7.37859 17.6316 25 1 
526 1.21476 7.38111 -0.0547567 -0.0330259 7.38139 17.6329 25 1 
528 1.21477 7.38404 -0.055121 -0.0331487 7.38432 17.6394 25 1 
530 1.21477 7.38716 -0.0554623 -0.0332934 7.38745 17.6495 25 1 
532 1.21477 7.3901 -0.0558397 -0.0334618 7.39039 17.6542 25 1 
534 1.21478 7.3929 -0.0562088 -0.0335958 7.39319 17.6589 25 1 
536 1.21478 7.3954 -0.05656 -0.0337433 7.39569 17.6657 25 1 
538 1.21478 7.39786 -0.0569614 -0.033929 7.39816 17.668 25 1 
540 1.21478 7.40034 -0.0573246 -0.0340732 7.40064 17.6676 25 1 
542 1.21478 7.40271 -0.0577463 -0.0342498 7.40301 17.6739 25 1 
544 1.21479 7.40522 -0.0581336 -0.0344219 7.40553 17.6798 25 1 
544 1.21479 7.40522 -0.0581336 -0.0344219 7.40553 17.6798 25 1 
546 1.21479 7.40735 -0.0585547 -0.034609 7.40766 17.6783 25 1 
548 1.21479 7.40913 -0.058975 -0.0347916 7.40945 17.6747 25 1 
550 1.21479 7.4112 -0.0593872 -0.0349623 7.41152 17.6772 25 1 
552 1.21479 7.41324 -0.0598316 -0.0351536 7.41356 17.6795 25 1 
554 1.21479 7.41522 -0.0602638 -0.0353498 7.41555 17.6794 25 1 
556 1.21479 7.41714 -0.0607477 -0.0355562 7.41748 17.6841 25 1 
558 1.21479 7.41857 -0.061168 -0.0357213 7.41891 17.6805 25 1 
560 1.21479 7.42009 -0.0616485 -0.0359245 7.42043 17.6766 25 1 
562 1.21479 7.422 -0.0621231 -0.0361084 7.42235 17.682 25 1 
564 1.21479 7.42362 -0.0626016 -0.0362988 7.42398 17.6864 25 1 
566 1.21479 7.42516 -0.0631029 -0.0364974 7.42552 17.6865 25 1 
568 1.21479 7.4264 -0.063585 -0.0366697 7.42676 17.6857 25 1 
570 1.21479 7.42756 -0.0640985 -0.0368535 7.42793 17.6849 25 1 
572 1.21479 7.4291 -0.0645985 -0.0370368 7.42947 17.6879 25 1 
574 1.2148 7.43048 -0.065132 -0.0372403 7.43086 17.693 25 1 
576 1.2148 7.43163 -0.0656632 -0.0374365 7.43202 17.6943 25 1 
576 1.2148 7.43163 -0.0656632 -0.0374365 7.43202 17.6943 26 1 
578 1.2148 7.4326 -0.06624 -0.0376565 7.43299 17.6943 26 1 
580 1.21479 7.4334 -0.0667884 -0.0378668 7.4338 17.691 26 1 
582 1.2148 7.43451 -0.0673894 -0.038111 7.43492 17.6936 26 1 
584 1.2148 7.43561 -0.067991 -0.0383422 7.43602 17.6992 26 1 
586 1.2148 7.4363 -0.0685821 -0.0385831 7.43672 17.6944 26 1 
588 1.2148 7.43691 -0.0692351 -0.0388454 7.43734 17.695 26 1 
590 1.2148 7.43749 -0.0698226 -0.0390727 7.43792 17.6948 26 1 
592 1.2148 7.4381 -0.0704984 -0.0393527 7.43854 17.6927 26 1 
594 1.2148 7.43895 -0.0711467 -0.0396097 7.4394 17.6961 26 1 
596 1.2148 7.43938 -0.0717966 -0.0398577 7.43984 17.6968 26 1 
598 1.21479 7.43959 -0.072478 -0.0401344 7.44005 17.6897 26 1 
600 1.21479 7.43987 -0.073125 -0.0403846 7.44034 17.6862 26 1 
602 1.21479 7.44034 -0.073829 -0.0406437 7.44082 17.6883 26 1 
604 1.21479 7.44082 -0.074484 -0.0408968 7.44131 17.6865 26 1 
606 1.21479 7.44097 -0.0751885 -0.041152 7.44146 17.6815 26 1 
608 1.21479 7.44114 -0.0758682 -0.0413903 7.44164 17.6779 26 1 
608 1.21479 7.44114 -0.0758682 -0.0413903 7.44164 17.6779 26 1 
610 1.21479 7.44145 -0.0765529 -0.0416236 7.44196 17.6745 26 1 
612 1.21478 7.44174 -0.07725 -0.0418759 7.44226 17.6693 26 1 
614 1.21478 7.44204 -0.0779079 -0.042083 7.44257 17.667 26 1 
616 1.21478 7.44258 -0.0786151 -0.0423139 7.44312 17.664 26 1 
618 1.21478 7.44275 -0.07929 -0.0425328 7.44329 17.6582 26 1 
620 1.21477 7.443 -0.0799677 -0.0427312 7.44355 17.6502 26 1 
622 1.21477 7.44347 -0.0806161 -0.0429102 7.44404 17.6461 26 1 
624 1.21477 7.44408 -0.0812954 -0.0431169 7.44465 17.644 26 1 
626 1.21477 7.44451 -0.0819576 -0.0433057 7.44509 17.6411 26 1 
628 1.21476 7.44486 -0.0826159 -0.0434812 7.44544 17.6323 26 1 
630 1.21476 7.44531 -0.0832647 -0.043648 7.44591 17.6277 26 1 
632 1.21476 7.44585 -0.0839128 -0.0438202 7.44645 17.6248 26 1 
634 1.21475 7.44644 -0.0845595 -0.0439834 7.44705 17.6197 26 1 
636 1.21475 7.44691 -0.0852004 -0.0441484 7.44753 17.6174 26 1 
638 1.21475 7.44729 -0.0858289 -0.044313 7.44792 17.6125 26 1 
640 1.21475 7.44754 -0.0864452 -0.044471 7.44817 17.6083 26 1 
642 1.21475 7.44802 -0.087084 -0.0446426 7.44867 17.6033 26 1 
644 1.21475 7.44835 -0.0877034 -0.0448009 7.449 17.6025 26 1 
646 1.21474 7.4485 -0.0883265 -0.0449689 7.44916 17.6005 26 1 
648 1.21474 7.44879 -0.0889627 -0.0451405 7.44946 17.5942 26 1 
650 1.21474 7.44878 -0.089573 -0.0452986 7.44946 17.5956 26 1 
652 1.21474 7.44899 -0.0902415 -0.0454959 7.44967 17.5921 26 1 
654 1.21474 7.44899 -0.090889 -0.0456732 7.44968 17.5883 26 1 
656 1.21474 7.44897 -0.091522 -0.045858 7.44967 17.5877 26 1 
658 1.21473 7.44917 -0.0922376 -0.0460847 7.44988 17.5833 26 1 
660 1.21473 7.44885 -0.09285 -0.0462455 7.44957 17.5835 26 1 
662 1.21473 7.44891 -0.0935726 -0.0464906 7.44964 17.5776 26 1 
664 1.21473 7.44878 -0.0942215 -0.0466809 7.44953 17.5774 26 1 
666 1.21473 7.44863 -0.0948589 -0.0468684 7.44938 17.5759 26 1 
668 1.21473 7.44843 -0.0956039 -0.0471292 7.44919 17.5717 26 1 
670 1.21473 7.44825 -0.0961899 -0.0472599 7.44902 17.569 26 1 
672 1.21473 7.44794 -0.0968854 -0.0474825 7.44872 17.569 26 1 
672 1.21473 7.44794 -0.0968854 -0.0474825 7.44872 17.569 27 1 
674 1.21473 7.44752 -0.0975619 -0.0476623 7.44831 17.568 27 1 
676 1.21472 7.44735 -0.0980909 -0.0477664 7.44814 17.5649 27 1 
678 1.21473 7.44662 -0.0987498 -0.0479368 7.44743 17.5701 27 1 
680 1.21472 7.4462 -0.0993113 -0.0480605 7.44702 17.5636 27 1 
682 1.21473 7.4454 -0.0998033 -0.0481249 7.44622 17.5681 27 1 
684 1.21473 7.44479 -0.100466 -0.0483007 7.44563 17.5692 27 1 
686 1.21473 7.44398 -0.100901 -0.0483376 7.44482 17.5713 27 1 
688 1.21473 7.44313 -0.101491 -0.0484515 7.44398 17.5752 27 1 
690 1.21473 7.44222 -0.101942 -0.0484806 7.44308 17.5758 27 1 
692 1.21473 7.44127 -0.102398 -0.0485133 7.44214 17.5776 27 1 
694 1.21473 7.44023 -0.102906 -0.048574 7.4411 17.5812 27 1 
696 1.21473 7.43923 -0.103337 -0.0485922 7.4401 17.5833 27 1 
698 1.21473 7.4385 -0.103735 -0.0486101 7.43938 17.5807 27 1 
700 1.21474 7.43726 -0.104234 -0.048655 7.43815 17.5872 27 1 
702 1.21474 7.43628 -0.104556 -0.0486023 7.43717 17.5859 27 1 
704 1.21473 7.43525 -0.104896 -0.0485523 7.43615 17.5811 27 1 
704 1.21473 7.43525 -0.104896 -0.0485523 7.43615 17.5811 31 1 
706 1.21474 7.43411 -0.105349 -0.0486034 7.43502 17.5869 31 1 
708 1.21474 7.43323 -0.105633 -0.0485216 7.43414 17.5911 31 1 
710 1.21474 7.43239 -0.106115 -0.0485639 7.43331 17.5852 31 1 
712 1.21474 7.43147 -0.106394 -0.0485397 7.43239 17.588 31 1 
714 1.21474 7.43044 -0.106882 -0.0485387 7.43136 17.5963 31 1 
716 1.21474 7.42983 -0.107095 -0.0484312 7.43077 17.5878 31 1 
718 1.21474 7.42902 -0.107517 -0.0484774 7.42996 17.5933 31 1 
720 1.21474 7.42863 -0.107909 -0.048507 7.42958 17.601 31 1 
722 1.21475 7.42824 -0.108159 -0.0484419 7.42919 17.6036 31 1 
724 1.21475 7.42789 -0.108719 -0.0485657 7.42885 17.6022 31 1 
726 1.21475 7.4278 -0.10882 -0.0483958 7.42875 17.6074 31 1 
728 1.21475 7.42747 -0.109333 -0.0484765 7.42843 17.6193 31 1 
730 1.21475 7.42763 -0.109463 -0.048365 7.4286 17.6087 31 1 
732 1.21475 7.42779 -0.109699 -0.0482854 7.42876 17.6138 31 1 
734 1.21476 7.42797 -0.110141 -0.0483786 7.42894 17.6272 31 1 
736 1.21476 7.42857 -0.109906 -0.0480377 7.42954 17.6209 31 1 
738 1.21475 7.42948 -0.110485 -0.0481367 7.43046 17.6151 31 1 
740 1.21476 7.42979 -0.110271 -0.0478742 7.43077 17.6333 31 1 
742 1.21476 7.43073 -0.110479 -0.0477802 7.4317 17.6296 31 1 
744 1.21476 7.43135 -0.110923 -0.0478887 7.43233 17.6215 31 1 
746 1.21476 7.43245 -0.110659 -0.0476198 7.43342 17.6308 31 1 
748 1.21477 7.43349 -0.111009 -0.0475677 7.43448 17.6415 31 1 
750 1.21476 7.43451 -0.111039 -0.0474112 7.43549 17.6317 31 1 
752 1.21475 7.43683 -0.111308 -0.0474652 7.43782 17.6197 31 1 
752 1.21475 7.43683 -0.111308 -0.0474652 7.43782 17.6197 31 1 
754 1.21478 7.43737 -0.111265 -0.0472422 7.43835 17.6578 31 1 
756 1.21476 7.43931 -0.111315 -0.0470655 7.44029 17.6364 31 1 
758 1.21475 7.44168 -0.11147 -0.0470734 7.44267 17.6142 31 1 
760 1.21477 7.44315 -0.111418 -0.04673 7.44413 17.6499 31 1 
762 1.21477 7.44538 -0.111528 -0.0466358 7.44636 17.6412 31 1 
764 1.21474 7.44884 -0.111683 -0.046728 7.44983 17.598 31 1 
766 1.21476 7.44989 -0.111557 -0.046436 7.45087 17.635 31 1 
768 1.21475 7.45344 -0.111651 -0.0462096 7.45442 17.6137 31 1 
770 1.21473 7.45656 -0.112525 -0.0467827 7.45756 17.5816 31 1 
772 1.21473 7.45891 -0.112523 -0.0466232 7.45991 17.5822 31 1 
774 1.21472 7.46306 -0.112943 -0.0466919 7.46406 17.5525 31 1 
776 1.2147 7.46779 -0.113538 -0.0468386 7.46881 17.5181 31 1 
778 1.21468 7.47399 -0.11361 -0.0466185 7.475 17.492 31 1 
780 1.21468 7.47817 -0.113744 -0.0465349 7.47918 17.4896 31 1 
782 1.21463 7.48501 -0.114941 -0.0471682 7.48605 17.3926 31 1 
784 1.2146 7.48944 -0.117146 -0.0484571 7.49052 17.3426 31 1 
786 1.21455 7.50063 -0.117658 -0.0484721 7.50171 17.2467 31 1 
788 1.21454 7.50979 -0.118099 -0.0482545 7.51088 17.2403 31 1 
790 1.21447 7.52139 -0.119328 -0.0484412 7.5225 17.1115 31 1 
792 1.21437 7.53517 -0.121496 -0.0492869 7.53631 16.9277 31 1 
794 1.21433 7.54872 -0.122478 -0.0494601 7.54988 16.8597 31 1 
796 1.21426 7.56681 -0.120576 -0.0473444 7.56792 16.7193 31 1 
798 1.21417 7.58051 -0.115796 -0.0425139 7.58153 16.5695 31 1 
800 1.21411 7.58881 -0.112166 -0.0391606 7.58974 16.4469 31 1 
