27.1694;r ;Density                 ;Velocity u              ;Velocity v              ;Velocity w              ;|Velocity|              ;Pressure                ;Distribution            ;Levels                  ;
0 1.204 9.99878 -6.61708e-05 -3.05046e-05 9.99878 -1.80323 1 1 
2 1.20403 9.99776 -7.23152e-05 -5.61671e-05 9.99776 -1.74422 1 1 
4 1.20405 9.99717 -0.000124645 -0.000137698 9.99717 -1.7206 1 1 
6 1.20404 9.99828 -0.00020257 -0.000239146 9.99828 -1.73299 1 1 
8 1.20404 9.99938 -0.000253534 -0.000309107 9.99938 -1.73239 1 1 
10 1.20403 9.99895 -0.000312082 -0.000358633 9.99895 -1.74923 1 1 
12 1.20405 9.99857 -0.000389162 -0.000459443 9.99857 -1.72425 1 1 
14 1.20405 9.9998 -0.000477424 -0.000568587 9.9998 -1.71193 1 1 
16 1.20407 9.9999 -0.000483004 -0.000590333 9.9999 -1.6882 1 1 
18 1.20406 9.99951 -0.000540993 -0.000663581 9.99951 -1.70411 1 1 
20 1.20403 9.99981 -0.000618908 -0.000755094 9.99981 -1.75938 1 1 
22 1.20405 9.99969 -0.000631959 -0.000799564 9.99969 -1.72146 1 1 
24 1.20406 10.0006 -0.000701965 -0.000889305 10.0006 -1.69305 1 1 
26 1.20406 10.0005 -0.000785142 -0.000980157 10.0005 -1.7034 1 1 
28 1.20406 10.0002 -0.00085266 -0.00105169 10.0002 -1.69647 1 1 
30 1.20407 10.0011 -0.000894861 -0.00112662 10.0011 -1.67108 1 1 
32 1.20409 10.0004 -0.000974655 -0.00121687 10.0004 -1.64074 1 1 
32 1.20409 10.0004 -0.000974655 -0.00121687 10.0004 -1.64074 1 1 
34 1.20408 10.0004 -0.000986083 -0.00124751 10.0004 -1.66279 1 1 
36 1.20408 10.0001 -0.00106697 -0.0013448 10.0001 -1.67079 1 1 
38 1.20407 9.99963 -0.00115494 -0.00145437 9.99963 -1.68073 1 1 
40 1.20408 9.99964 -0.00121355 -0.00153578 9.99964 -1.65869 1 1 
42 1.20409 9.99973 -0.00130118 -0.00163539 9.99973 -1.63529 1 1 
44 1.20409 9.99902 -0.00135006 -0.00169665 9.99902 -1.63495 1 1 
46 1.2041 9.99852 -0.00144316 -0.0018026 9.99852 -1.61906 1 1 
48 1.2041 9.99932 -0.00155047 -0.00193958 9.99933 -1.63021 1 1 
50 1.20412 9.99961 -0.00163157 -0.00202206 9.99961 -1.59216 1 1 
52 1.20414 9.99913 -0.00174169 -0.00215831 9.99913 -1.55734 1 1 
54 1.20412 9.99865 -0.00182871 -0.00224362 9.99865 -1.58495 1 1 
56 1.20413 9.99896 -0.00191628 -0.00234267 9.99896 -1.56406 1 1 
58 1.20415 9.99854 -0.0020649 -0.00252575 9.99854 -1.53211 1 1 
60 1.20413 9.99835 -0.00209598 -0.00257617 9.99835 -1.56959 1 1 
62 1.20414 9.99775 -0.00217796 -0.0026811 9.99775 -1.55587 1 1 
64 1.20415 9.99752 -0.00230625 -0.00280572 9.99752 -1.53154 1 1 
64 1.20415 9.99752 -0.00230625 -0.00280572 9.99752 -1.53154 2 1 
66 1.20417 9.99737 -0.00236381 -0.00289307 9.99737 -1.50616 2 1 
68 1.20417 9.99838 -0.00243532 -0.0029789 9.99838 -1.50074 2 1 
70 1.20419 9.99864 -0.00257918 -0.00315994 9.99864 -1.46994 2 1 
72 1.2042 9.99794 -0.00266652 -0.00327486 9.99794 -1.44537 2 1 
74 1.2042 9.99725 -0.00267022 -0.00327236 9.99725 -1.44045 2 1 
76 1.20423 9.99628 -0.00278537 -0.00342404 9.99629 -1.38657 2 1 
78 1.20421 9.99718 -0.0029077 -0.0035709 9.99718 -1.41841 2 1 
80 1.2042 9.99687 -0.00293538 -0.0036294 9.99687 -1.44672 2 1 
82 1.2042 9.99621 -0.00302418 -0.0037498 9.99621 -1.44398 2 1 
84 1.20422 9.99561 -0.00317815 -0.00389866 9.99561 -1.40132 2 1 
86 1.20426 9.99494 -0.00321605 -0.00394042 9.99494 -1.3387 2 1 
88 1.20426 9.9955 -0.00325699 -0.00400945 9.99551 -1.33843 2 1 
90 1.20427 9.99565 -0.00339817 -0.00417117 9.99565 -1.32248 2 1 
92 1.20427 9.99498 -0.00355834 -0.00435084 9.99499 -1.31386 2 1 
94 1.20428 9.99428 -0.00354234 -0.00436218 9.99428 -1.29279 2 1 
96 1.2043 9.99381 -0.00357145 -0.00441492 9.99381 -1.25791 2 1 
96 1.2043 9.99381 -0.00357145 -0.00441492 9.99381 -1.25791 2 1 
98 1.2043 9.9944 -0.00378506 -0.00463284 9.99441 -1.27145 2 1 
100 1.20429 9.99483 -0.00378614 -0.00466892 9.99483 -1.28723 2 1 
102 1.20429 9.99415 -0.00378141 -0.00470089 9.99415 -1.27747 2 1 
104 1.20432 9.9933 -0.00399321 -0.00492465 9.9933 -1.23439 2 1 
106 1.20433 9.99315 -0.00407336 -0.00501549 9.99316 -1.20805 2 1 
108 1.20435 9.99184 -0.00404531 -0.00500458 9.99184 -1.16789 2 1 
110 1.20434 9.99234 -0.00409781 -0.0050745 9.99234 -1.18614 2 1 
112 1.20434 9.99308 -0.00433196 -0.00533765 9.99308 -1.19466 2 1 
114 1.20437 9.99138 -0.00441128 -0.00543677 9.99139 -1.13736 2 1 
116 1.20438 9.99217 -0.00436241 -0.00540624 9.99217 -1.12792 2 1 
118 1.20439 9.99221 -0.00446818 -0.00553126 9.99221 -1.1061 2 1 
120 1.20439 9.99107 -0.00466903 -0.00573225 9.99107 -1.10494 2 1 
122 1.20436 9.99191 -0.00468063 -0.00576402 9.99191 -1.15676 2 1 
124 1.20437 9.99042 -0.00462419 -0.00573626 9.99042 -1.13079 2 1 
126 1.20442 9.98854 -0.00483347 -0.00595991 9.98854 -1.05372 2 1 
128 1.2044 9.98995 -0.00495959 -0.0060902 9.98995 -1.08272 2 1 
128 1.2044 9.98995 -0.00495959 -0.0060902 9.98995 -1.08272 10 1 
130 1.20442 9.99003 -0.00489721 -0.00605854 9.99003 -1.0466 10 1 
132 1.20443 9.9909 -0.00488501 -0.00604178 9.99091 -1.02426 10 1 
134 1.20443 9.99099 -0.00515936 -0.00632585 9.99099 -1.0349 10 1 
136 1.20445 9.98915 -0.00535062 -0.0065529 9.98915 -0.997657 10 1 
138 1.20443 9.98877 -0.00527575 -0.00650264 9.98878 -1.02545 10 1 
140 1.20443 9.98876 -0.00526672 -0.00652665 9.98876 -1.02544 10 1 
142 1.20443 9.98882 -0.00552494 -0.00674173 9.98882 -1.03145 10 1 
144 1.20443 9.98911 -0.00566697 -0.00690131 9.98911 -1.03821 10 1 
146 1.20445 9.98925 -0.00547277 -0.00673461 9.98925 -0.985149 10 1 
148 1.20447 9.98776 -0.00527938 -0.00657473 9.98777 -0.957122 10 1 
150 1.20445 9.98743 -0.00538608 -0.00672533 9.98743 -0.996715 10 1 
152 1.20446 9.98787 -0.00563337 -0.00695901 9.98788 -0.976826 10 1 
154 1.20447 9.98789 -0.00558167 -0.00689521 9.98789 -0.952031 10 1 
156 1.20446 9.98869 -0.00542375 -0.00677413 9.98869 -0.970877 10 1 
158 1.20447 9.9879 -0.00539658 -0.006783 9.98791 -0.953376 10 1 
160 1.20447 9.98553 -0.00542708 -0.0068357 9.98553 -0.959113 10 1 
160 1.20447 9.98553 -0.00542708 -0.0068357 9.98553 -0.959113 10 1 
162 1.20444 9.98542 -0.0053082 -0.00675341 9.98543 -1.00578 10 1 
164 1.20446 9.98485 -0.00497484 -0.00639836 9.98485 -0.983245 10 1 
166 1.20449 9.9833 -0.00484019 -0.00624966 9.98331 -0.92523 10 1 
168 1.20446 9.98564 -0.00515366 -0.00657774 9.98565 -0.983018 10 1 
170 1.20447 9.98454 -0.00571379 -0.00714822 9.98455 -0.950669 10 1 
172 1.20449 9.98401 -0.00610355 -0.00752208 9.98401 -0.929144 10 1 
174 1.20446 9.98522 -0.00600599 -0.00743451 9.98522 -0.973479 10 1 
176 1.20449 9.98245 -0.00566115 -0.00707333 9.98245 -0.917235 10 1 
178 1.20447 9.98253 -0.00524438 -0.00669003 9.98253 -0.957218 10 1 
180 1.20446 9.98195 -0.00499281 -0.00647657 9.98196 -0.973829 10 1 
182 1.20446 9.97993 -0.00494897 -0.00642794 9.97993 -0.974033 10 1 
184 1.20444 9.98001 -0.00497265 -0.0064707 9.98002 -1.00549 10 1 
186 1.20448 9.9813 -0.00498751 -0.0064792 9.9813 -0.938369 10 1 
188 1.20449 9.98198 -0.00496073 -0.00642625 9.98199 -0.919413 10 1 
190 1.20447 9.98186 -0.00501683 -0.00646568 9.98187 -0.952645 10 1 
192 1.20446 9.98157 -0.00491131 -0.00638796 9.98157 -0.97183 10 1 
194 1.20446 9.9787 -0.00499484 -0.0064788 9.9787 -0.966763 10 1 
196 1.20446 9.9763 -0.00510866 -0.00657655 9.97631 -0.966523 10 1 
198 1.20446 9.97646 -0.00502622 -0.0064658 9.97646 -0.970321 10 1 
200 1.20449 9.97551 -0.00514426 -0.00658998 9.97551 -0.926432 10 1 
202 1.20447 9.97497 -0.00504892 -0.00655398 9.97498 -0.957522 10 1 
204 1.20442 9.97552 -0.00495676 -0.00644996 9.97552 -1.04463 10 1 
206 1.20447 9.97281 -0.0051028 -0.00657568 9.97282 -0.949378 10 1 
208 1.20451 9.97231 -0.00513081 -0.00655859 9.97232 -0.889452 10 1 
210 1.20446 9.97417 -0.00505437 -0.00647775 9.97418 -0.975162 10 1 
212 1.2045 9.96874 -0.00505533 -0.00654786 9.96875 -0.894262 10 1 
214 1.20447 9.96515 -0.00504064 -0.00653368 9.96516 -0.95238 10 1 
216 1.20445 9.96278 -0.00510922 -0.00656964 9.96279 -1.00064 10 1 
218 1.2045 9.95809 -0.00522156 -0.00666139 9.9581 -0.896963 10 1 
220 1.20448 9.96195 -0.00517478 -0.00668032 9.96195 -0.931258 10 1 
222 1.20451 9.96329 -0.00512038 -0.00663368 9.9633 -0.87635 10 1 
224 1.20453 9.9594 -0.0050627 -0.00647471 9.95941 -0.850749 10 1 
224 1.20453 9.9594 -0.0050627 -0.00647471 9.95941 -0.850749 10 1 
226 1.20455 9.95677 -0.005068 -0.0064784 9.95677 -0.817626 10 1 
228 1.20456 9.94948 -0.00513274 -0.00660414 9.94949 -0.801183 10 1 
230 1.20453 9.94308 -0.0052264 -0.0067286 9.94308 -0.846127 10 1 
232 1.20454 9.94395 -0.00522391 -0.00671476 9.94396 -0.839442 10 1 
234 1.20459 9.94284 -0.00517425 -0.00659827 9.94285 -0.737444 10 1 
236 1.20468 9.93655 -0.00515949 -0.00662364 9.93655 -0.578015 10 1 
238 1.2046 9.93576 -0.00512843 -0.00661393 9.93577 -0.725635 10 1 
240 1.20467 9.92686 -0.00529311 -0.00675512 9.92687 -0.598666 10 1 
242 1.20468 9.9204 -0.00532931 -0.00678807 9.92041 -0.574272 10 1 
244 1.20461 9.92062 -0.00523858 -0.00671077 9.92063 -0.706433 10 1 
246 1.20479 9.9112 -0.00526459 -0.00671487 9.91121 -0.386966 10 1 
248 1.20481 9.90485 -0.00518372 -0.00659655 9.90485 -0.344387 10 1 
250 1.2048 9.89643 -0.00522807 -0.00666237 9.89643 -0.363446 10 1 
252 1.20483 9.8883 -0.00541375 -0.00684543 9.88831 -0.298967 10 1 
254 1.20491 9.87945 -0.00530609 -0.00670584 9.87945 -0.160389 10 1 
256 1.20496 9.86936 -0.00530757 -0.00671267 9.86936 -0.0713019 10 1 
256 1.20496 9.86936 -0.00530757 -0.00671267 9.86936 -0.0713019 11 1 
258 1.205 9.85673 -0.00534941 -0.00678496 9.85674 -0.00188039 11 1 
260 1.20515 9.8435 -0.005338 -0.00676612 9.84351 0.264068 11 1 
262 1.20523 9.82815 -0.00544222 -0.00684103 9.82816 0.418078 11 1 
264 1.20521 9.81176 -0.00540585 -0.00677396 9.81177 0.374333 11 1 
266 1.20536 9.79652 -0.00539272 -0.0067815 9.79653 0.649479 11 1 
268 1.20571 9.76666 -0.00545386 -0.00684833 9.76667 1.27664 11 1 
270 1.20564 9.7468 -0.00553166 -0.00687849 9.74681 1.14799 11 1 
272 1.20579 9.71719 -0.005461 -0.00678638 9.7172 1.4209 11 1 
274 1.20623 9.67544 -0.00545997 -0.00682768 9.67545 2.22627 11 1 
276 1.20622 9.64855 -0.00552048 -0.00686237 9.64856 2.20021 11 1 
278 1.20649 9.60607 -0.00555638 -0.0068835 9.60608 2.69973 11 1 
280 1.20704 9.56214 -0.00558005 -0.00689606 9.56215 3.6894 11 1 
282 1.20741 9.50339 -0.00555649 -0.00685592 9.50349 4.34794 11 1 
284 1.20766 9.41527 -0.00554237 -0.00686896 9.41544 4.80686 11 1 
286 1.208 9.32567 -0.0055656 -0.00685896 9.32577 5.41382 11 1 
288 1.20867 9.24171 -0.00559772 -0.00688211 9.24173 6.62443 11 1 
288 1.20867 9.24171 -0.00559772 -0.00688211 9.24173 6.62443 11 1 
290 1.20947 9.16885 -0.00556424 -0.00684866 9.16887 8.07227 11 1 
292 1.21011 9.06998 -0.00564719 -0.0069185 9.07008 9.22697 11 1 
294 1.21062 8.93351 -0.00563379 -0.00691051 8.93376 10.15 11 1 
296 1.21136 8.79365 -0.0055447 -0.00678441 8.79384 11.4844 11 1 
298 1.20707 8.62362 -0.00558666 -0.00680032 8.62371 3.7378 11 1 
300 1.19975 8.55385 -0.00549192 -0.00671452 8.55395 -9.4842 11 1 
302 1.19747 8.52574 -0.00554773 -0.00676379 8.52579 -13.6096 11 1 
304 1.19809 8.4107 -0.00561875 -0.00680506 8.41082 -12.488 11 1 
306 1.19883 8.28089 -0.0055483 -0.00672268 8.28106 -11.1505 11 1 
308 1.19937 8.16174 -0.0055277 -0.00668609 8.16193 -10.1684 11 1 
310 1.19973 8.07281 -0.00545938 -0.00659991 8.07295 -9.52064 11 1 
312 1.2002 7.97678 -0.00546949 -0.00662306 7.97681 -8.67164 11 1 
314 1.20064 7.90625 -0.00555776 -0.00669971 7.90628 -7.8738 11 1 
316 1.20098 7.85447 -0.00560914 -0.00673469 7.85449 -7.25475 11 1 
318 1.20131 7.78625 -0.00560704 -0.0067378 7.78626 -6.66348 11 1 
320 1.20158 7.74322 -0.00557212 -0.00668906 7.74323 -6.17866 11 1 
320 1.20158 7.74322 -0.00557212 -0.00668906 7.74323 -6.17866 15 1 
322 1.20183 7.71421 -0.00563432 -0.00674636 7.71422 -5.72255 15 1 
324 1.20208 7.66835 -0.00568183 -0.00678784 7.66836 -5.27811 15 1 
326 1.20226 7.63435 -0.00561576 -0.00670626 7.63436 -4.94174 15 1 
328 1.20242 7.60466 -0.00556201 -0.00664703 7.60468 -4.66464 15 1 
330 1.20251 7.57144 -0.00561097 -0.00668651 7.57146 -4.50231 15 1 
332 1.20268 7.55091 -0.00565517 -0.00672409 7.55093 -4.19706 15 1 
334 1.20288 7.52185 -0.00565619 -0.00672529 7.52187 -3.83803 15 1 
336 1.20286 7.48688 -0.00566544 -0.00671692 7.4869 -3.86118 15 1 
338 1.20289 7.46815 -0.00569902 -0.00674475 7.46817 -3.8162 15 1 
340 1.20309 7.45275 -0.00576286 -0.00683327 7.45277 -3.45628 15 1 
342 1.20319 7.43526 -0.00578386 -0.00685482 7.43528 -3.26666 15 1 
344 1.20318 7.41358 -0.00575434 -0.00680471 7.41359 -3.29325 15 1 
346 1.20316 7.38991 -0.00578747 -0.00685279 7.38992 -3.32654 15 1 
348 1.20328 7.38657 -0.0059334 -0.00702597 7.38658 -3.10001 15 1 
350 1.20345 7.38639 -0.00601427 -0.00710189 7.3864 -2.80355 15 1 
352 1.20341 7.36919 -0.00598606 -0.00706467 7.3692 -2.87259 15 1 
354 1.20339 7.35981 -0.00600092 -0.00710544 7.35982 -2.90772 15 1 
356 1.2035 7.35919 -0.00612874 -0.00726235 7.3592 -2.71254 15 1 
358 1.20355 7.35709 -0.00622738 -0.00733754 7.35709 -2.61264 15 1 
360 1.20358 7.35902 -0.00621889 -0.00730972 7.35903 -2.56176 15 1 
362 1.20362 7.35751 -0.00620626 -0.00733066 7.35752 -2.49906 15 1 
364 1.20366 7.35394 -0.0062925 -0.00742445 7.35394 -2.42272 15 1 
366 1.2037 7.35615 -0.00639203 -0.00750059 7.35616 -2.34864 15 1 
368 1.20372 7.35937 -0.00636583 -0.00749857 7.35938 -2.31549 15 1 
370 1.20377 7.36291 -0.00626707 -0.00743089 7.36292 -2.21973 15 1 
372 1.2038 7.36284 -0.00625374 -0.0074015 7.36284 -2.17325 15 1 
374 1.20378 7.36046 -0.00631041 -0.00744858 7.36047 -2.19965 15 1 
376 1.20384 7.3634 -0.0063156 -0.00747362 7.36341 -2.09814 15 1 
378 1.2039 7.36486 -0.00629589 -0.00746387 7.36487 -1.98919 15 1 
380 1.20391 7.36625 -0.00633479 -0.00749575 7.36626 -1.9604 15 1 
382 1.20393 7.36924 -0.00639563 -0.00754656 7.36924 -1.93911 15 1 
384 1.20395 7.36378 -0.00639244 -0.00753605 7.36378 -1.90354 15 1 
384 1.20395 7.36378 -0.00639244 -0.00753605 7.36378 -1.90354 16 1 
386 1.20397 7.3594 -0.0063157 -0.00747311 7.35941 -1.8516 16 1 
388 1.20398 7.36303 -0.00627035 -0.00744072 7.36303 -1.8451 16 1 
390 1.20402 7.36246 -0.00631462 -0.00746546 7.36247 -1.7755 16 1 
392 1.20408 7.35771 -0.00636166 -0.00751211 7.35772 -1.65726 16 1 
394 1.20405 7.35318 -0.00640923 -0.0075935 7.35319 -1.72354 16 1 
396 1.20403 7.34813 -0.00647339 -0.00765773 7.34814 -1.75796 16 1 
398 1.20412 7.34481 -0.00646835 -0.00764196 7.34482 -1.59539 16 1 
400 1.20414 7.34198 -0.00640174 -0.00761331 7.34199 -1.54545 16 1 
402 1.20411 7.33665 -0.00642102 -0.00765552 7.33666 -1.61526 16 1 
404 1.20412 7.32873 -0.00650686 -0.0077222 7.32873 -1.5839 16 1 
406 1.20415 7.32245 -0.00652015 -0.00775302 7.32245 -1.53668 16 1 
408 1.20415 7.32057 -0.00650222 -0.00776519 7.32058 -1.53893 16 1 
410 1.2042 7.31558 -0.00653758 -0.00781257 7.31559 -1.45187 16 1 
412 1.20424 7.30696 -0.00656081 -0.00785624 7.30697 -1.37778 16 1 
414 1.20419 7.30147 -0.00653928 -0.00785047 7.30148 -1.46911 16 1 
416 1.20418 7.29577 -0.00653016 -0.00786891 7.29578 -1.47383 16 1 
416 1.20418 7.29577 -0.00653016 -0.00786891 7.29578 -1.47383 16 1 
418 1.20424 7.28998 -0.00655167 -0.00795163 7.28999 -1.36611 16 1 
420 1.20423 7.28787 -0.00659387 -0.00803143 7.28788 -1.38589 16 1 
422 1.20426 7.28415 -0.00665262 -0.00808129 7.28416 -1.3344 16 1 
424 1.20434 7.27746 -0.00669967 -0.0081382 7.27747 -1.19301 16 1 
426 1.2043 7.27106 -0.00673301 -0.00821942 7.27107 -1.26458 16 1 
428 1.20425 7.26496 -0.00677262 -0.00828086 7.26497 -1.34892 16 1 
430 1.2043 7.26149 -0.00681452 -0.00831221 7.2615 -1.26167 16 1 
432 1.20432 7.26043 -0.00686866 -0.00835671 7.26044 -1.23397 16 1 
434 1.20431 7.25735 -0.00693128 -0.00841439 7.25736 -1.24992 16 1 
436 1.20435 7.2532 -0.00701451 -0.00849709 7.25321 -1.17696 16 1 
438 1.20438 7.25092 -0.0071005 -0.00858598 7.25093 -1.11372 16 1 
440 1.20439 7.24886 -0.00715778 -0.00863238 7.24887 -1.10453 16 1 
442 1.20437 7.24569 -0.00723467 -0.00870618 7.2457 -1.13421 16 1 
444 1.20434 7.24461 -0.00732396 -0.0088354 7.24462 -1.18632 16 1 
446 1.20437 7.24786 -0.00737706 -0.00891653 7.24787 -1.14203 16 1 
448 1.20443 7.25206 -0.00739985 -0.00891925 7.25207 -1.03358 16 1 
448 1.20443 7.25206 -0.00739985 -0.00891925 7.25207 -1.03358 17 1 
450 1.20443 7.25329 -0.00738196 -0.00888812 7.2533 -1.02067 17 1 
452 1.20442 7.25158 -0.00736801 -0.00890452 7.25159 -1.04989 17 1 
454 1.20443 7.24937 -0.00744532 -0.009026 7.24938 -1.02854 17 1 
456 1.20445 7.25018 -0.00758122 -0.00918147 7.25019 -0.990075 17 1 
458 1.20446 7.25649 -0.00767819 -0.00930828 7.2565 -0.978042 17 1 
460 1.20445 7.26802 -0.00773745 -0.00942382 7.26803 -0.994791 17 1 
462 1.20448 7.28185 -0.00777569 -0.00948123 7.28186 -0.946067 17 1 
464 1.20453 7.29274 -0.00774934 -0.00943429 7.29275 -0.852074 17 1 
466 1.20452 7.29706 -0.0076695 -0.00933501 7.29707 -0.862366 17 1 
468 1.20449 7.29711 -0.00762645 -0.00930385 7.29712 -0.912595 17 1 
470 1.2045 7.29775 -0.0076669 -0.00938239 7.29776 -0.907398 17 1 
472 1.20452 7.30243 -0.00778415 -0.00952346 7.30245 -0.863208 17 1 
474 1.20455 7.31315 -0.0079546 -0.00972691 7.31316 -0.804293 17 1 
476 1.20455 7.32974 -0.0081096 -0.00993504 7.32976 -0.810868 17 1 
478 1.20455 7.34998 -0.00817714 -0.0100048 7.35 -0.807495 17 1 
480 1.2046 7.37014 -0.00812938 -0.00991521 7.37015 -0.718325 17 1 
480 1.2046 7.37014 -0.00812938 -0.00991521 7.37015 -0.718325 17 1 
482 1.20461 7.38313 -0.00797249 -0.00972977 7.38315 -0.696112 17 1 
484 1.20459 7.38389 -0.00780347 -0.00952651 7.3839 -0.745147 17 1 
486 1.20458 7.37825 -0.00777936 -0.00944705 7.37826 -0.761506 17 1 
488 1.20461 7.37592 -0.00792628 -0.00959112 7.37593 -0.710341 17 1 
490 1.20466 7.38249 -0.00815017 -0.00991638 7.38251 -0.609728 17 1 
492 1.20465 7.4012 -0.00842516 -0.0102781 7.40122 -0.625864 17 1 
494 1.20461 7.43073 -0.00867297 -0.0105176 7.43076 -0.700217 17 1 
496 1.20465 7.46644 -0.00871524 -0.0105599 7.46647 -0.629307 17 1 
498 1.2047 7.50191 -0.00854396 -0.0103926 7.50194 -0.53285 17 1 
500 1.20472 7.52784 -0.00829831 -0.0100621 7.52786 -0.501355 17 1 
502 1.20472 7.53889 -0.00802469 -0.00968118 7.5389 -0.499381 17 1 
504 1.20472 7.53505 -0.00771267 -0.00930469 7.53506 -0.511646 17 1 
506 1.20473 7.51603 -0.00741939 -0.00894309 7.51605 -0.491046 17 1 
508 1.20472 7.48395 -0.00720551 -0.00866036 7.48397 -0.506736 17 1 
510 1.2047 7.4446 -0.00708628 -0.00852979 7.44462 -0.548931 17 1 
512 1.20472 7.40459 -0.00711043 -0.00859 7.40461 -0.499336 17 1 
512 1.20472 7.40459 -0.00711043 -0.00859 7.40461 -0.499336 25 1 
514 1.20477 7.37116 -0.00731192 -0.00883598 7.37118 -0.415086 25 1 
516 1.20478 7.35002 -0.00762398 -0.00924108 7.35003 -0.398671 25 1 
518 1.20477 7.34629 -0.0079878 -0.00973257 7.3463 -0.410382 25 1 
520 1.2048 7.36428 -0.00838705 -0.0102109 7.36429 -0.359353 25 1 
522 1.20484 7.40395 -0.0087798 -0.0106569 7.40398 -0.286106 25 1 
524 1.20487 7.46232 -0.00912949 -0.0110944 7.46237 -0.236363 25 1 
526 1.20492 7.53765 -0.00946271 -0.0114827 7.53772 -0.150818 25 1 
528 1.20498 7.62976 -0.00978259 -0.0118028 7.62984 -0.0428468 25 1 
530 1.20503 7.73482 -0.0100309 -0.0120763 7.73492 0.0488824 25 1 
532 1.20505 7.84897 -0.010179 -0.012256 7.84909 0.0899447 25 1 
534 1.20506 7.97115 -0.010263 -0.0123257 7.97127 0.112573 25 1 
536 1.20513 8.09952 -0.0103195 -0.0123572 8.09965 0.233294 25 1 
538 1.20519 8.23123 -0.0103801 -0.012403 8.23137 0.350471 25 1 
540 1.2052 8.36283 -0.0104406 -0.0124277 8.36297 0.360904 25 1 
542 1.2052 8.49322 -0.0104615 -0.0123957 8.49335 0.354104 25 1 
544 1.20521 8.62274 -0.0104077 -0.0122894 8.62287 0.378707 25 1 
544 1.20521 8.62274 -0.0104077 -0.0122894 8.62287 0.378707 25 1 
546 1.20523 8.7494 -0.0102771 -0.0121094 8.74953 0.411835 25 1 
548 1.20521 8.87016 -0.0101414 -0.0119048 8.87028 0.375242 25 1 
550 1.20517 8.98456 -0.0100261 -0.0117144 8.98466 0.312268 25 1 
552 1.20518 9.09343 -0.00990134 -0.0115394 9.09352 0.324002 25 1 
554 1.20521 9.19634 -0.0097569 -0.0113353 9.19642 0.383936 25 1 
556 1.20522 9.29114 -0.00960452 -0.0110911 9.2912 0.390874 25 1 
558 1.20515 9.37601 -0.00943578 -0.0108465 9.37606 0.268708 25 1 
560 1.2051 9.45283 -0.00924619 -0.0105867 9.45288 0.173001 25 1 
562 1.20511 9.52295 -0.00906768 -0.0103108 9.52299 0.194232 25 1 
564 1.20514 9.58435 -0.00889047 -0.0100553 9.58438 0.248126 25 1 
566 1.20512 9.63595 -0.00873082 -0.00983675 9.63597 0.220129 25 1 
568 1.20504 9.67882 -0.00858997 -0.00960984 9.67884 0.0777332 25 1 
570 1.20502 9.71468 -0.00844793 -0.00936924 9.71469 0.036277 25 1 
572 1.20505 9.74577 -0.00832521 -0.00916956 9.74578 0.0959473 25 1 
574 1.20506 9.77119 -0.00823602 -0.00900898 9.7712 0.109053 25 1 
576 1.20502 9.79011 -0.00816113 -0.0088645 9.79012 0.0276076 25 1 
576 1.20502 9.79011 -0.00816113 -0.0088645 9.79012 0.0276076 26 1 
578 1.20496 9.80592 -0.00808507 -0.00874052 9.80593 -0.0666131 26 1 
580 1.205 9.8208 -0.00803608 -0.00864967 9.82081 0.00324025 26 1 
582 1.20505 9.8355 -0.00799237 -0.00853732 9.83551 0.0835296 26 1 
584 1.20501 9.84722 -0.00793061 -0.00840596 9.84723 0.0200481 26 1 
586 1.20493 9.85447 -0.00789753 -0.00832055 9.85447 -0.134018 26 1 
588 1.20489 9.86265 -0.00789158 -0.00825262 9.86266 -0.203509 26 1 
590 1.20496 9.87314 -0.00788908 -0.00819607 9.87315 -0.0656954 26 1 
592 1.20503 9.88348 -0.00787371 -0.00815273 9.88349 0.057182 26 1 
594 1.20499 9.89093 -0.00786252 -0.00810956 9.89093 -0.0152079 26 1 
596 1.20489 9.89539 -0.00780807 -0.00800964 9.8954 -0.203803 26 1 
598 1.20486 9.9008 -0.00771176 -0.00787823 9.90081 -0.247785 26 1 
600 1.20495 9.90892 -0.00767677 -0.00781193 9.90892 -0.0918394 26 1 
602 1.20502 9.91648 -0.00770465 -0.00781137 9.91649 0.0284206 26 1 
604 1.20497 9.91955 -0.0076797 -0.00776567 9.91956 -0.0492148 26 1 
606 1.20486 9.92089 -0.00760332 -0.00767447 9.9209 -0.255107 26 1 
608 1.20484 9.92466 -0.00754659 -0.00759597 9.92466 -0.282328 26 1 
608 1.20484 9.92466 -0.00754659 -0.00759597 9.92466 -0.282328 26 1 
610 1.20494 9.93104 -0.00749571 -0.00750588 9.93104 -0.108579 26 1 
612 1.20499 9.93651 -0.00744516 -0.00743099 9.93651 -0.0179272 26 1 
614 1.20492 9.93807 -0.00741691 -0.00738637 9.93807 -0.136525 26 1 
616 1.20484 9.93799 -0.00741564 -0.00734363 9.93799 -0.294207 26 1 
618 1.20485 9.93973 -0.00739356 -0.00727108 9.93973 -0.273619 26 1 
620 1.20494 9.94408 -0.00733638 -0.00718718 9.94408 -0.114169 26 1 
622 1.20498 9.94739 -0.0072951 -0.00712361 9.9474 -0.0301997 26 1 
624 1.20491 9.94706 -0.00728963 -0.00708162 9.94706 -0.163954 26 1 
626 1.20482 9.94547 -0.00727773 -0.0070344 9.94548 -0.33402 26 1 
628 1.20482 9.9472 -0.00725168 -0.00698079 9.9472 -0.320642 26 1 
630 1.20491 9.95108 -0.00719663 -0.00690298 9.95109 -0.154741 26 1 
632 1.20496 9.95269 -0.00714667 -0.00682564 9.9527 -0.0691551 26 1 
634 1.20489 9.95207 -0.00713324 -0.00679537 9.95208 -0.194643 26 1 
636 1.20482 9.95056 -0.00711594 -0.00676961 9.95057 -0.332934 26 1 
638 1.20482 9.95156 -0.00705853 -0.0066975 9.95156 -0.319085 26 1 
640 1.2049 9.95483 -0.00701237 -0.00663521 9.95484 -0.188497 26 1 
642 1.20493 9.95628 -0.00697448 -0.00659999 9.95629 -0.117793 26 1 
644 1.20488 9.9553 -0.00692407 -0.00654512 9.95531 -0.216218 26 1 
646 1.20481 9.95383 -0.00687528 -0.00647785 9.95383 -0.352265 26 1 
648 1.20481 9.95486 -0.00683552 -0.00644404 9.95487 -0.345142 26 1 
650 1.20488 9.95848 -0.00680224 -0.00641571 9.95849 -0.211351 26 1 
652 1.20492 9.96126 -0.00676483 -0.00637213 9.96127 -0.145706 26 1 
654 1.20487 9.961 -0.00670292 -0.00631207 9.96101 -0.234791 26 1 
656 1.20481 9.96002 -0.00664795 -0.00625693 9.96002 -0.348872 26 1 
658 1.2048 9.96058 -0.00660406 -0.00620048 9.96058 -0.361869 26 1 
660 1.20485 9.9622 -0.00656015 -0.00615262 9.96221 -0.264524 26 1 
662 1.2049 9.96403 -0.00649771 -0.00609358 9.96404 -0.17646 26 1 
664 1.20488 9.96455 -0.00643604 -0.0060368 9.96456 -0.221324 26 1 
666 1.20482 9.96381 -0.00640082 -0.00600222 9.96381 -0.318416 26 1 
668 1.2048 9.9641 -0.00634883 -0.00594974 9.9641 -0.358467 26 1 
670 1.20483 9.96611 -0.00629975 -0.00590019 9.96611 -0.309192 26 1 
672 1.20486 9.96857 -0.00624252 -0.00584321 9.96858 -0.246082 26 1 
672 1.20486 9.96857 -0.00624252 -0.00584321 9.96858 -0.246082 27 1 
674 1.20486 9.96971 -0.00616599 -0.00576787 9.96971 -0.254644 27 1 
676 1.20483 9.96969 -0.00610175 -0.00569642 9.96969 -0.301912 27 1 
678 1.20481 9.96922 -0.00607349 -0.00566078 9.96923 -0.334922 27 1 
680 1.20482 9.96896 -0.00604066 -0.00563218 9.96896 -0.319515 27 1 
682 1.20485 9.96977 -0.00597338 -0.00556833 9.96977 -0.272068 27 1 
684 1.20485 9.96993 -0.00590742 -0.00548921 9.96993 -0.263061 27 1 
686 1.20482 9.96912 -0.00583712 -0.00542003 9.96912 -0.322648 27 1 
688 1.2048 9.96934 -0.00576353 -0.00535568 9.96935 -0.364313 27 1 
690 1.20481 9.97036 -0.00574269 -0.00531887 9.97036 -0.345167 27 1 
692 1.20484 9.97196 -0.00572523 -0.00528851 9.97196 -0.296414 27 1 
694 1.20485 9.97288 -0.00567177 -0.0052477 9.97289 -0.275728 27 1 
696 1.20483 9.97129 -0.00557607 -0.00515515 9.9713 -0.313406 27 1 
698 1.2048 9.96977 -0.00548802 -0.0050562 9.96977 -0.36416 27 1 
700 1.20479 9.96846 -0.00543061 -0.00499636 9.96846 -0.374384 27 1 
702 1.20482 9.96845 -0.0054156 -0.00497269 9.96845 -0.328756 27 1 
704 1.20484 9.97076 -0.0054228 -0.00496821 9.97076 -0.286593 27 1 
704 1.20484 9.97076 -0.0054228 -0.00496821 9.97076 -0.286593 31 1 
706 1.20482 9.97052 -0.00537754 -0.00492834 9.97052 -0.325626 31 1 
708 1.20478 9.97088 -0.00528701 -0.0048317 9.97088 -0.390712 31 1 
710 1.20476 9.97157 -0.00519892 -0.00472663 9.97158 -0.425625 31 1 
712 1.20477 9.97044 -0.00512591 -0.00466451 9.97044 -0.412099 31 1 
714 1.20481 9.97173 -0.00510443 -0.0046432 9.97173 -0.34363 31 1 
716 1.20481 9.97084 -0.00513058 -0.00464515 9.97085 -0.350396 31 1 
718 1.20476 9.96898 -0.00510391 -0.00461385 9.96898 -0.428225 31 1 
720 1.20473 9.97008 -0.00501019 -0.00452092 9.97008 -0.478741 31 1 
722 1.20472 9.97019 -0.00489496 -0.00440351 9.97019 -0.49914 31 1 
724 1.20476 9.97255 -0.00481861 -0.00431457 9.97255 -0.440206 31 1 
726 1.20481 9.9755 -0.00479512 -0.00428385 9.9755 -0.346997 31 1 
728 1.2048 9.97322 -0.0047935 -0.00428686 9.97322 -0.361284 31 1 
730 1.20476 9.97127 -0.00477431 -0.00426017 9.97127 -0.432739 31 1 
732 1.20472 9.96808 -0.00468778 -0.00415928 9.96808 -0.512628 31 1 
734 1.20471 9.96677 -0.00456705 -0.00404463 9.96677 -0.520602 31 1 
736 1.20478 9.97254 -0.00449911 -0.00398315 9.97254 -0.404546 31 1 
738 1.20483 9.97496 -0.00447151 -0.0039458 9.97496 -0.309614 31 1 
740 1.20483 9.97487 -0.00444843 -0.00391409 9.97487 -0.301591 31 1 
742 1.20478 9.97242 -0.00437875 -0.00384025 9.97243 -0.399119 31 1 
744 1.20472 9.96673 -0.00429284 -0.00375163 9.96673 -0.507197 31 1 
746 1.20474 9.96734 -0.00422967 -0.00368035 9.96735 -0.471141 31 1 
748 1.2048 9.96947 -0.00418693 -0.00361904 9.96947 -0.356596 31 1 
750 1.20486 9.97111 -0.00416016 -0.00359475 9.97112 -0.261094 31 1 
752 1.20487 9.9749 -0.00411776 -0.00356172 9.9749 -0.236869 31 1 
752 1.20487 9.9749 -0.00411776 -0.00356172 9.9749 -0.236869 31 1 
754 1.2048 9.97192 -0.00404415 -0.00346825 9.97192 -0.360726 31 1 
756 1.20476 9.96965 -0.00395678 -0.00337715 9.96965 -0.434557 31 1 
758 1.20478 9.96932 -0.0038855 -0.00331778 9.96932 -0.397662 31 1 
760 1.20483 9.96711 -0.00385116 -0.00327868 9.96711 -0.30413 31 1 
762 1.20491 9.97098 -0.00385683 -0.0032694 9.97098 -0.154277 31 1 
764 1.2049 9.97214 -0.00382412 -0.00322808 9.97214 -0.179021 31 1 
766 1.20482 9.97132 -0.00374221 -0.0031372 9.97132 -0.331888 31 1 
768 1.20477 9.97207 -0.0036739 -0.00306468 9.97207 -0.417201 31 1 
770 1.20478 9.96851 -0.00363486 -0.00301506 9.96851 -0.397333 31 1 
772 1.20489 9.96974 -0.00362605 -0.0029912 9.96974 -0.204928 31 1 
774 1.20498 9.97161 -0.00359572 -0.00296301 9.97161 -0.037659 31 1 
776 1.20495 9.97012 -0.00352651 -0.00288683 9.97012 -0.0839417 31 1 
778 1.20488 9.97335 -0.00343861 -0.00278423 9.97335 -0.222066 31 1 
780 1.2048 9.97123 -0.00335681 -0.00270073 9.97124 -0.36795 31 1 
782 1.20481 9.96948 -0.00335077 -0.00269394 9.96948 -0.334239 31 1 
784 1.20491 9.97099 -0.00336173 -0.002697 9.97099 -0.170556 31 1 
786 1.20496 9.96861 -0.00333053 -0.00265225 9.96861 -0.0783511 31 1 
788 1.20501 9.97361 -0.00329578 -0.00260322 9.97361 0.0120042 31 1 
790 1.20498 9.97476 -0.00324679 -0.00255476 9.97476 -0.0275738 31 1 
792 1.20491 9.97187 -0.00314537 -0.00245187 9.97187 -0.156174 31 1 
794 1.20488 9.97289 -0.00307746 -0.00237077 9.97289 -0.22407 31 1 
796 1.20485 9.96753 -0.00304648 -0.00232572 9.96753 -0.271197 31 1 
798 1.20494 9.96996 -0.00303379 -0.00229481 9.96996 -0.103441 31 1 
800 1.20504 9.97676 -0.00305019 -0.00230367 9.97676 0.0714137 31 1 
