38.0372;r ;Density                 ;Velocity u              ;Velocity v              ;Velocity w              ;|Velocity|              ;Pressure                ;Distribution            ;Levels                  ;
0 1.20302 9.99904 -8.09213e-05 -2.92591e-05 9.99904 -3.58524 1 1 
2 1.20303 9.9982 -0.00010569 -8.50999e-05 9.9982 -3.55863 1 1 
4 1.20302 9.99769 -0.00015304 -0.000163074 9.99769 -3.58278 1 1 
6 1.20301 9.99789 -0.000196183 -0.000226178 9.99789 -3.60282 1 1 
8 1.20302 9.99835 -0.000266483 -0.000322404 9.99835 -3.57255 1 1 
10 1.20303 9.99859 -0.000312753 -0.000374782 9.99859 -3.56271 1 1 
12 1.20304 9.99826 -0.000351482 -0.000429437 9.99826 -3.54349 1 1 
14 1.20304 9.99919 -0.000415539 -0.000506216 9.99919 -3.53992 1 1 
16 1.20306 9.99931 -0.000442665 -0.000558031 9.99931 -3.50477 1 1 
18 1.20306 9.99854 -0.000497107 -0.000624042 9.99854 -3.50089 1 1 
20 1.20304 9.99876 -0.000563135 -0.000693011 9.99876 -3.53761 1 1 
22 1.20306 9.99888 -0.000576496 -0.00072886 9.99888 -3.50347 1 1 
24 1.20307 9.99959 -0.000630785 -0.000806035 9.99959 -3.48535 1 1 
26 1.20308 9.99901 -0.000651123 -0.0008256 9.99901 -3.47344 1 1 
28 1.20309 9.99807 -0.000655418 -0.000831022 9.99807 -3.45482 1 1 
30 1.20308 9.99856 -0.000658126 -0.000866295 9.99856 -3.46559 1 1 
32 1.2031 9.99804 -0.000720057 -0.000939976 9.99804 -3.43789 1 1 
32 1.2031 9.99804 -0.000720057 -0.000939976 9.99804 -3.43789 1 1 
34 1.20311 9.99774 -0.000737236 -0.000972385 9.99774 -3.41051 1 1 
36 1.20312 9.99719 -0.00081699 -0.00107207 9.99719 -3.38678 1 1 
38 1.20313 9.99716 -0.000885224 -0.00116087 9.99716 -3.38046 1 1 
40 1.20315 9.99689 -0.000919562 -0.00122631 9.99689 -3.34306 1 1 
42 1.20316 9.99659 -0.000968274 -0.00128492 9.99659 -3.33088 1 1 
44 1.20314 9.99592 -0.000985014 -0.00129971 9.99592 -3.35798 1 1 
46 1.20316 9.99482 -0.00104433 -0.00137336 9.99482 -3.3324 1 1 
48 1.20317 9.99509 -0.00110932 -0.00147665 9.99509 -3.29766 1 1 
50 1.2032 9.996 -0.00112487 -0.00148303 9.996 -3.24729 1 1 
52 1.20322 9.99572 -0.00117849 -0.00156485 9.99572 -3.21147 1 1 
54 1.20323 9.99451 -0.0012899 -0.00169416 9.99451 -3.1892 1 1 
56 1.20324 9.99486 -0.00136917 -0.00178091 9.99486 -3.17056 1 1 
58 1.20324 9.99494 -0.00144668 -0.00188929 9.99494 -3.17241 1 1 
60 1.20324 9.99408 -0.00146003 -0.00191554 9.99408 -3.17454 1 1 
62 1.20327 9.99286 -0.00155757 -0.0020429 9.99286 -3.13364 1 1 
64 1.20328 9.99364 -0.0016535 -0.00214309 9.99364 -3.09849 1 1 
64 1.20328 9.99364 -0.0016535 -0.00214309 9.99364 -3.09849 2 1 
66 1.20332 9.99432 -0.00169611 -0.00221083 9.99432 -3.03741 2 1 
68 1.20334 9.99494 -0.00179153 -0.00232932 9.99494 -3.00173 2 1 
70 1.20336 9.99463 -0.00193128 -0.00250886 9.99463 -2.96565 2 1 
72 1.20337 9.99362 -0.00201965 -0.00262068 9.99362 -2.9524 2 1 
74 1.20336 9.99269 -0.00206878 -0.00267382 9.9927 -2.95422 2 1 
76 1.20339 9.99198 -0.00218239 -0.00283727 9.99198 -2.91289 2 1 
78 1.20338 9.9932 -0.00227561 -0.00294935 9.9932 -2.92565 2 1 
80 1.20341 9.99299 -0.00234252 -0.00304024 9.99299 -2.87222 2 1 
82 1.20345 9.99273 -0.00245699 -0.00320166 9.99273 -2.7959 2 1 
84 1.20348 9.99296 -0.0025714 -0.00331142 9.99296 -2.74479 2 1 
86 1.20351 9.9927 -0.00263665 -0.00337131 9.9927 -2.69837 2 1 
88 1.20351 9.99237 -0.00274948 -0.0035248 9.99237 -2.69459 2 1 
90 1.20352 9.99164 -0.00284336 -0.00365444 9.99164 -2.68074 2 1 
92 1.20352 9.99088 -0.00295015 -0.00376797 9.99088 -2.66555 2 1 
94 1.20354 9.98986 -0.00302208 -0.0038531 9.98987 -2.63685 2 1 
96 1.20357 9.9894 -0.00308018 -0.00394315 9.98941 -2.58929 2 1 
96 1.20357 9.9894 -0.00308018 -0.00394315 9.98941 -2.58929 2 1 
98 1.20359 9.99047 -0.00323123 -0.00408858 9.99047 -2.54108 2 1 
100 1.20362 9.99117 -0.00329088 -0.00416592 9.99117 -2.4964 2 1 
102 1.20364 9.99091 -0.00339855 -0.00431603 9.99091 -2.46033 2 1 
104 1.20368 9.98973 -0.0035458 -0.00448207 9.98973 -2.38425 2 1 
106 1.2037 9.98924 -0.00356563 -0.00450375 9.98924 -2.34582 2 1 
108 1.20372 9.98817 -0.00366416 -0.00461227 9.98817 -2.31967 2 1 
110 1.20372 9.98765 -0.00372512 -0.00468953 9.98765 -2.31541 2 1 
112 1.20372 9.9875 -0.0037615 -0.00474779 9.9875 -2.31555 2 1 
114 1.20375 9.98617 -0.00385553 -0.0048501 9.98618 -2.25631 2 1 
116 1.20378 9.98713 -0.00397386 -0.00498546 9.98713 -2.19973 2 1 
118 1.20382 9.98745 -0.00400534 -0.00504114 9.98745 -2.12809 2 1 
120 1.20385 9.98659 -0.0040629 -0.00510384 9.98659 -2.06827 2 1 
122 1.20387 9.98689 -0.0042019 -0.00527017 9.98689 -2.04349 2 1 
124 1.20391 9.98542 -0.00424645 -0.00535043 9.98542 -1.97624 2 1 
126 1.20395 9.98415 -0.00432652 -0.00543748 9.98416 -1.90547 2 1 
128 1.20393 9.985 -0.00442878 -0.0055452 9.985 -1.92754 2 1 
128 1.20393 9.985 -0.00442878 -0.0055452 9.985 -1.92754 10 1 
130 1.20397 9.984 -0.00454746 -0.00571096 9.984 -1.8598 10 1 
132 1.204 9.98439 -0.00452102 -0.00569471 9.98439 -1.80372 10 1 
134 1.20401 9.98429 -0.00458464 -0.00576485 9.9843 -1.78206 10 1 
136 1.20405 9.98211 -0.00470769 -0.00591194 9.98212 -1.71277 10 1 
138 1.20406 9.98177 -0.00473475 -0.00595917 9.98177 -1.69277 10 1 
140 1.2041 9.98208 -0.00476739 -0.00602748 9.98208 -1.62244 10 1 
142 1.20415 9.98212 -0.00492639 -0.00615965 9.98212 -1.54346 10 1 
144 1.20418 9.98178 -0.00503716 -0.00631152 9.98179 -1.4819 10 1 
146 1.20422 9.98139 -0.00501972 -0.00631579 9.98139 -1.41193 10 1 
148 1.20424 9.97987 -0.00514309 -0.00644646 9.97987 -1.36675 10 1 
150 1.20425 9.97917 -0.00532661 -0.0066642 9.97918 -1.36082 10 1 
152 1.20428 9.97873 -0.00539274 -0.00672903 9.97873 -1.30451 10 1 
154 1.20432 9.97795 -0.00537901 -0.00671577 9.97795 -1.22767 10 1 
156 1.20434 9.97813 -0.00557479 -0.00694887 9.97814 -1.18832 10 1 
158 1.20438 9.97735 -0.00569448 -0.0070986 9.97735 -1.12429 10 1 
160 1.20441 9.97549 -0.00565679 -0.00708 9.9755 -1.06321 10 1 
160 1.20441 9.97549 -0.00565679 -0.00708 9.9755 -1.06321 10 1 
162 1.20441 9.97549 -0.00580161 -0.00725697 9.97549 -1.05828 10 1 
164 1.20445 9.97498 -0.00601418 -0.00746501 9.97499 -0.991974 10 1 
166 1.20453 9.97318 -0.00608846 -0.00756279 9.97319 -0.857411 10 1 
168 1.20452 9.9746 -0.00611068 -0.00761983 9.97461 -0.857983 10 1 
170 1.20457 9.97283 -0.00629341 -0.00781961 9.97283 -0.78447 10 1 
172 1.2046 9.97202 -0.00644004 -0.00797017 9.97203 -0.713974 10 1 
174 1.2046 9.97342 -0.0063727 -0.00794602 9.97342 -0.713439 10 1 
176 1.20467 9.97099 -0.00647834 -0.00803576 9.971 -0.604337 10 1 
178 1.20467 9.9703 -0.00665918 -0.00824934 9.9703 -0.589568 10 1 
180 1.2047 9.96862 -0.00672486 -0.00836352 9.96862 -0.548987 10 1 
182 1.20473 9.96596 -0.00674993 -0.0083949 9.96597 -0.48672 10 1 
184 1.20474 9.96528 -0.00693476 -0.00861394 9.96529 -0.464222 10 1 
186 1.20481 9.96585 -0.00709006 -0.00878968 9.96586 -0.34969 10 1 
188 1.20484 9.966 -0.00704238 -0.00874567 9.96601 -0.290612 10 1 
190 1.20484 9.96539 -0.00713734 -0.00883419 9.9654 -0.29067 10 1 
192 1.20486 9.96467 -0.00722444 -0.00895425 9.96467 -0.250358 10 1 
194 1.20491 9.96111 -0.00740667 -0.00916554 9.96112 -0.165455 10 1 
196 1.20494 9.9579 -0.00744984 -0.00921993 9.9579 -0.113103 10 1 
198 1.20495 9.95775 -0.00744538 -0.00919625 9.95775 -0.0818236 10 1 
200 1.205 9.95686 -0.00777895 -0.0095367 9.95687 0.00375162 10 1 
202 1.20501 9.95589 -0.00774834 -0.00958202 9.9559 0.0230855 10 1 
204 1.205 9.95567 -0.0076254 -0.00947678 9.95568 -0.00131294 10 1 
206 1.20508 9.9525 -0.00791654 -0.00977875 9.95251 0.138923 10 1 
208 1.20513 9.95144 -0.00816815 -0.00998592 9.95145 0.233711 10 1 
210 1.20511 9.95298 -0.00808099 -0.00989026 9.95299 0.195695 10 1 
212 1.20519 9.94727 -0.00802381 -0.00991873 9.94728 0.334942 10 1 
214 1.20518 9.94306 -0.00818111 -0.0100979 9.94307 0.334207 10 1 
216 1.20518 9.94016 -0.00847478 -0.0103655 9.94017 0.319527 10 1 
218 1.20526 9.9344 -0.00858003 -0.010471 9.93441 0.468267 10 1 
220 1.20528 9.93772 -0.00848649 -0.0104673 9.93773 0.49913 10 1 
222 1.20533 9.93955 -0.00863286 -0.010621 9.93957 0.595324 10 1 
224 1.20536 9.93514 -0.00881301 -0.0106935 9.93515 0.643412 10 1 
224 1.20536 9.93514 -0.00881301 -0.0106935 9.93515 0.643412 10 1 
226 1.2054 9.93139 -0.00879721 -0.0107038 9.93141 0.714435 10 1 
228 1.20544 9.92353 -0.00878239 -0.0107905 9.92354 0.791437 10 1 
230 1.20545 9.9169 -0.00903798 -0.0110835 9.91691 0.820635 10 1 
232 1.20549 9.91757 -0.00926307 -0.0112794 9.91758 0.879816 10 1 
234 1.20555 9.91548 -0.00919407 -0.0111479 9.91549 0.995398 10 1 
236 1.20565 9.90797 -0.00908802 -0.0111071 9.90798 1.17916 10 1 
238 1.20561 9.90706 -0.00922798 -0.0112817 9.90708 1.09568 10 1 
240 1.20572 9.89825 -0.0096997 -0.011736 9.89827 1.29505 10 1 
242 1.20576 9.89115 -0.00980597 -0.0118471 9.89116 1.37709 10 1 
244 1.20572 9.8907 -0.00963058 -0.011703 9.89072 1.29796 10 1 
246 1.20592 9.88077 -0.00975658 -0.0118374 9.88078 1.66432 10 1 
248 1.20597 9.87404 -0.0099596 -0.0120076 9.87406 1.75242 10 1 
250 1.20599 9.86525 -0.0101405 -0.0121913 9.86526 1.78132 10 1 
252 1.20605 9.85595 -0.0101659 -0.0122255 9.85596 1.89401 10 1 
254 1.20616 9.84608 -0.00991704 -0.0119952 9.84609 2.09335 10 1 
256 1.20624 9.83565 -0.0100305 -0.0121441 9.83566 2.24436 10 1 
256 1.20624 9.83565 -0.0100305 -0.0121441 9.83566 2.24436 11 1 
258 1.20631 9.82303 -0.0103069 -0.0124401 9.82305 2.36965 11 1 
260 1.20648 9.80949 -0.0103298 -0.0124481 9.80951 2.67759 11 1 
262 1.20659 9.79322 -0.0102974 -0.0124083 9.79324 2.8666 11 1 
264 1.2066 9.7762 -0.0102046 -0.0123176 9.77621 2.88346 11 1 
266 1.20678 9.76014 -0.0102781 -0.012434 9.76016 3.21455 11 1 
268 1.20714 9.72907 -0.0103321 -0.0125085 9.72908 3.87156 11 1 
270 1.20709 9.70784 -0.0101675 -0.0122973 9.70787 3.78356 11 1 
272 1.20727 9.67734 -0.00982674 -0.0119304 9.67736 4.10315 11 1 
274 1.20774 9.63534 -0.00985072 -0.0119992 9.63536 4.9478 11 1 
276 1.20775 9.60818 -0.0102932 -0.0124133 9.60819 4.95889 11 1 
278 1.20804 9.56551 -0.0108273 -0.0129223 9.56553 5.49603 11 1 
280 1.20861 9.52111 -0.0111025 -0.0131759 9.52114 6.52187 11 1 
282 1.20899 9.46181 -0.0109611 -0.0130141 9.46192 7.21231 11 1 
284 1.20927 9.37331 -0.0106082 -0.0126935 9.37348 7.71606 11 1 
286 1.20963 9.28335 -0.0103048 -0.0123673 9.28345 8.35822 11 1 
288 1.21029 9.19888 -0.010149 -0.0122103 9.1989 9.55911 11 1 
288 1.21029 9.19888 -0.010149 -0.0122103 9.1989 9.55911 11 1 
290 1.21109 9.12542 -0.0100592 -0.0121212 9.12545 10.995 11 1 
292 1.21175 9.02719 -0.0101583 -0.0122067 9.0273 12.1903 11 1 
294 1.21229 8.89144 -0.0101657 -0.0122121 8.89171 13.1696 11 1 
296 1.21304 8.75182 -0.0100916 -0.0120943 8.75202 14.5291 11 1 
298 1.20881 8.58189 -0.0101263 -0.0120996 8.58199 6.8895 11 1 
300 1.20157 8.51063 -0.0100105 -0.0119926 8.51074 -6.19171 11 1 
302 1.1993 8.48122 -0.0100811 -0.012058 8.48127 -10.2943 11 1 
304 1.19992 8.36583 -0.0101586 -0.0121056 8.36596 -9.1761 11 1 
306 1.20068 8.23577 -0.0101163 -0.0120528 8.23596 -7.80661 11 1 
308 1.20123 8.1163 -0.0101211 -0.0120383 8.1165 -6.80512 11 1 
310 1.20159 8.02696 -0.0100833 -0.0119829 8.02711 -6.15389 11 1 
312 1.20207 7.93056 -0.0101301 -0.0120527 7.93061 -5.29594 11 1 
314 1.20252 7.85922 -0.0102465 -0.0121655 7.85926 -4.4747 11 1 
316 1.20287 7.80659 -0.01031 -0.0122147 7.80661 -3.84303 11 1 
318 1.20319 7.7376 -0.0103257 -0.0122402 7.73762 -3.26631 11 1 
320 1.20346 7.69386 -0.0103179 -0.0122207 7.69389 -2.78165 11 1 
320 1.20346 7.69386 -0.0103179 -0.0122207 7.69389 -2.78165 15 1 
322 1.20372 7.66373 -0.0104272 -0.0123273 7.66375 -2.31422 15 1 
324 1.20397 7.61696 -0.010523 -0.0124222 7.61698 -1.86179 15 1 
326 1.20415 7.58235 -0.0104811 -0.0123636 7.58237 -1.5297 15 1 
328 1.20431 7.55194 -0.010447 -0.0123206 7.55197 -1.25297 15 1 
330 1.20441 7.51783 -0.0105252 -0.0123919 7.51786 -1.0672 15 1 
332 1.20458 7.49637 -0.0105851 -0.0124499 7.4964 -0.755644 15 1 
334 1.20477 7.46686 -0.0105864 -0.0124508 7.46689 -0.423783 15 1 
336 1.20474 7.4311 -0.0106131 -0.0124589 7.43113 -0.462054 15 1 
338 1.20478 7.4112 -0.0106765 -0.0125213 7.41123 -0.391028 15 1 
340 1.20498 7.39476 -0.0107911 -0.0126667 7.39479 -0.0298702 15 1 
342 1.20507 7.37683 -0.0108569 -0.0127302 7.37686 0.121151 15 1 
344 1.20505 7.35448 -0.0108709 -0.0127221 7.35451 0.0903418 15 1 
346 1.20504 7.32983 -0.0109511 -0.0128254 7.32985 0.0762914 15 1 
348 1.20515 7.32584 -0.0111286 -0.0130392 7.32586 0.271172 15 1 
350 1.20528 7.32523 -0.0112383 -0.0131428 7.32526 0.513915 15 1 
352 1.20525 7.30728 -0.0112609 -0.0131568 7.3073 0.450184 15 1 
354 1.20524 7.29669 -0.0113238 -0.013248 7.29671 0.427848 15 1 
356 1.20532 7.29586 -0.0115002 -0.0134561 7.29588 0.572017 15 1 
358 1.20535 7.29379 -0.0116439 -0.0135801 7.29381 0.623887 15 1 
360 1.20538 7.29498 -0.0116722 -0.0135922 7.295 0.683317 15 1 
362 1.2054 7.29287 -0.0116837 -0.0136378 7.29289 0.727483 15 1 
364 1.2054 7.28932 -0.0117905 -0.0137546 7.28935 0.72999 15 1 
366 1.20542 7.29056 -0.0119233 -0.0138646 7.29058 0.764484 15 1 
368 1.20544 7.29242 -0.0119498 -0.0139109 7.29245 0.802375 15 1 
370 1.20549 7.29662 -0.0118944 -0.0138842 7.29665 0.884411 15 1 
372 1.20551 7.29751 -0.0119251 -0.0139034 7.29754 0.914504 15 1 
374 1.20549 7.29383 -0.0120311 -0.0140029 7.29385 0.888804 15 1 
376 1.20552 7.29527 -0.0120568 -0.014042 7.2953 0.937243 15 1 
378 1.20553 7.29705 -0.0120229 -0.0140097 7.29707 0.958269 15 1 
380 1.20555 7.2979 -0.0120248 -0.0140025 7.29793 0.98925 15 1 
382 1.20558 7.29944 -0.0120719 -0.0140415 7.29947 1.04231 15 1 
384 1.20557 7.29462 -0.0121211 -0.0140835 7.29465 1.02592 15 1 
384 1.20557 7.29462 -0.0121211 -0.0140835 7.29465 1.02592 16 1 
386 1.20559 7.2913 -0.012135 -0.0141024 7.29133 1.0573 16 1 
388 1.20561 7.29366 -0.0121576 -0.0141281 7.29368 1.10865 16 1 
390 1.20562 7.29207 -0.0122105 -0.014164 7.29209 1.12357 16 1 
392 1.20563 7.28796 -0.0122258 -0.0141844 7.28799 1.13964 16 1 
394 1.20562 7.28278 -0.0122436 -0.0142293 7.2828 1.11593 16 1 
396 1.20561 7.27658 -0.0123027 -0.014274 7.27661 1.10174 16 1 
398 1.20563 7.2741 -0.0123182 -0.0142709 7.27413 1.12897 16 1 
400 1.20565 7.2714 -0.0122809 -0.0142694 7.27143 1.16689 16 1 
402 1.20565 7.26491 -0.0123178 -0.014325 7.26494 1.17556 16 1 
404 1.20563 7.25714 -0.0123976 -0.0143766 7.25716 1.13023 16 1 
406 1.20562 7.25036 -0.0124094 -0.0143941 7.25039 1.12679 16 1 
408 1.20565 7.24637 -0.0123993 -0.0144102 7.2464 1.16875 16 1 
410 1.20564 7.24094 -0.0124527 -0.0144778 7.24097 1.15465 16 1 
412 1.20562 7.23262 -0.0124972 -0.0145413 7.23265 1.1152 16 1 
414 1.20561 7.2259 -0.0124997 -0.014548 7.22592 1.10222 16 1 
416 1.20561 7.21951 -0.0125159 -0.0145773 7.21953 1.0978 16 1 
416 1.20561 7.21951 -0.0125159 -0.0145773 7.21953 1.0978 16 1 
418 1.20561 7.21321 -0.0125509 -0.0146629 7.21324 1.09932 16 1 
420 1.20561 7.20824 -0.0125997 -0.0147428 7.20827 1.10677 16 1 
422 1.20562 7.20201 -0.0126709 -0.0148104 7.20203 1.12115 16 1 
424 1.20562 7.19519 -0.0127323 -0.014887 7.19522 1.11338 16 1 
426 1.20559 7.18823 -0.0127904 -0.0149816 7.18826 1.05971 16 1 
428 1.20557 7.18118 -0.0128732 -0.0150661 7.18121 1.02304 16 1 
430 1.20557 7.17648 -0.0129668 -0.0151414 7.17651 1.02479 16 1 
432 1.20557 7.17158 -0.0130552 -0.0152266 7.17161 1.02175 16 1 
434 1.20555 7.16449 -0.013137 -0.0153043 7.16452 0.997101 16 1 
436 1.20554 7.1582 -0.0132287 -0.0153816 7.15823 0.970692 16 1 
438 1.20553 7.15369 -0.01333 -0.0154732 7.15372 0.965535 16 1 
440 1.20553 7.14996 -0.0134175 -0.0155453 7.14999 0.96391 16 1 
442 1.20553 7.1456 -0.0135127 -0.0156312 7.14564 0.950204 16 1 
444 1.2055 7.1404 -0.0136001 -0.0157383 7.14043 0.91047 16 1 
446 1.20547 7.13631 -0.0136697 -0.0158069 7.13634 0.852285 16 1 
448 1.20546 7.13383 -0.0137517 -0.0158613 7.13386 0.828515 16 1 
448 1.20546 7.13383 -0.0137517 -0.0158613 7.13386 0.828515 17 1 
450 1.20547 7.13189 -0.0138111 -0.0159307 7.13192 0.843855 17 1 
452 1.20547 7.12999 -0.0138634 -0.0160201 7.13002 0.849 17 1 
454 1.20546 7.12755 -0.013967 -0.0161364 7.12758 0.821821 17 1 
456 1.20543 7.1254 -0.0140626 -0.016222 7.12543 0.778674 17 1 
458 1.20541 7.1247 -0.0140877 -0.0162618 7.12473 0.746194 17 1 
460 1.20541 7.12489 -0.0141143 -0.0163259 7.12492 0.734632 17 1 
462 1.2054 7.12536 -0.0141873 -0.0164081 7.12539 0.725411 17 1 
464 1.20539 7.12499 -0.0142524 -0.0164778 7.12502 0.700473 17 1 
466 1.20537 7.12414 -0.0143007 -0.0165373 7.12417 0.660294 17 1 
468 1.20535 7.12477 -0.0143687 -0.0166169 7.1248 0.636618 17 1 
470 1.20535 7.12636 -0.0144476 -0.0167174 7.12639 0.635759 17 1 
472 1.20534 7.12794 -0.0145221 -0.0167971 7.12798 0.615934 17 1 
474 1.20532 7.12948 -0.0145856 -0.0168654 7.12952 0.5794 17 1 
476 1.2053 7.13067 -0.0146224 -0.0169225 7.1307 0.538219 17 1 
478 1.20528 7.1321 -0.0146485 -0.0169427 7.13214 0.502665 17 1 
480 1.20528 7.13481 -0.0147227 -0.0170011 7.13484 0.497417 17 1 
480 1.20528 7.13481 -0.0147227 -0.0170011 7.13484 0.497417 17 1 
482 1.20528 7.13799 -0.0148179 -0.0171197 7.13802 0.49695 17 1 
484 1.20526 7.14102 -0.0149069 -0.0172316 7.14106 0.473584 17 1 
486 1.20525 7.14458 -0.0150287 -0.0173322 7.14462 0.443663 17 1 
488 1.20523 7.14849 -0.0151307 -0.0174117 7.14853 0.408432 17 1 
490 1.20521 7.1534 -0.0151362 -0.0174394 7.15344 0.371331 17 1 
492 1.20519 7.15852 -0.0151399 -0.0174459 7.15855 0.348996 17 1 
494 1.20519 7.16255 -0.0152181 -0.0174808 7.16258 0.339796 17 1 
496 1.20519 7.16717 -0.0152983 -0.0175671 7.16721 0.337106 17 1 
498 1.20518 7.17314 -0.0153738 -0.0176741 7.17318 0.320212 17 1 
500 1.20517 7.18097 -0.0154959 -0.0177753 7.18101 0.298833 17 1 
502 1.20515 7.18931 -0.0155943 -0.0178603 7.18935 0.279498 17 1 
504 1.20514 7.1961 -0.0155828 -0.0178635 7.19614 0.24556 17 1 
506 1.20512 7.20207 -0.0155162 -0.0177779 7.20211 0.213529 17 1 
508 1.20511 7.20812 -0.0154983 -0.0177221 7.20815 0.197573 17 1 
510 1.20511 7.21454 -0.0155593 -0.0177915 7.21458 0.196728 17 1 
512 1.20511 7.2217 -0.0156964 -0.0179541 7.22174 0.196365 17 1 
512 1.20511 7.2217 -0.0156964 -0.0179541 7.22174 0.196365 25 1 
514 1.2051 7.2311 -0.0158469 -0.0181009 7.23114 0.18448 25 1 
516 1.20509 7.24188 -0.0159018 -0.0181651 7.24192 0.161029 25 1 
518 1.20507 7.25256 -0.0158408 -0.0181129 7.2526 0.134108 25 1 
520 1.20506 7.26229 -0.015721 -0.0179532 7.26233 0.111816 25 1 
522 1.20506 7.27002 -0.0155969 -0.0177846 7.27006 0.102662 25 1 
524 1.20505 7.2762 -0.0155316 -0.0177181 7.27624 0.0991381 25 1 
526 1.20505 7.28137 -0.0155962 -0.0177705 7.28141 0.0896068 25 1 
528 1.20505 7.28823 -0.0157473 -0.0179048 7.28827 0.0815137 25 1 
530 1.20504 7.29816 -0.015898 -0.0180899 7.2982 0.0654879 25 1 
532 1.20503 7.31114 -0.0160018 -0.0182228 7.31118 0.0510466 25 1 
534 1.20502 7.32582 -0.0160201 -0.0182171 7.32586 0.0373446 25 1 
536 1.20501 7.33991 -0.0159215 -0.0180855 7.33995 0.0238749 25 1 
538 1.20501 7.35221 -0.0157279 -0.0178646 7.35225 0.025017 25 1 
540 1.20502 7.36086 -0.0155248 -0.0176059 7.3609 0.0275523 25 1 
542 1.20501 7.36665 -0.0153938 -0.0174213 7.36669 0.0240379 25 1 
544 1.205 7.37138 -0.0154 -0.01741 7.37142 -0.000357999 25 1 
544 1.205 7.37138 -0.0154 -0.01741 7.37142 -0.000357999 25 1 
546 1.20499 7.37756 -0.0155387 -0.0175626 7.3776 -0.0246018 25 1 
548 1.20499 7.38718 -0.0157448 -0.0177955 7.38722 -0.020352 25 1 
550 1.205 7.40148 -0.0159207 -0.0179812 7.40153 -0.00793143 25 1 
552 1.20499 7.41919 -0.0159969 -0.0180517 7.41923 -0.0187521 25 1 
554 1.20498 7.43817 -0.0159545 -0.0179774 7.43821 -0.0354952 25 1 
556 1.20499 7.45607 -0.0157643 -0.0177063 7.45611 -0.021054 25 1 
558 1.205 7.46936 -0.0154433 -0.0172823 7.4694 -0.00670438 25 1 
560 1.20499 7.47754 -0.0150928 -0.0168296 7.47757 -0.0134785 25 1 
562 1.20499 7.47995 -0.0148345 -0.0164744 7.47999 -0.0181362 25 1 
564 1.20499 7.47873 -0.0147196 -0.0163009 7.47877 -0.0262839 25 1 
566 1.20497 7.47822 -0.0147506 -0.0163112 7.47826 -0.054862 25 1 
568 1.20496 7.48141 -0.014918 -0.0164644 7.48144 -0.0689529 25 1 
570 1.20498 7.48979 -0.0151599 -0.0166996 7.48982 -0.036488 25 1 
572 1.20501 7.5045 -0.0153961 -0.0169379 7.50454 0.0255986 25 1 
574 1.20503 7.52399 -0.0155806 -0.0171097 7.52403 0.0505929 25 1 
576 1.20501 7.54591 -0.0156528 -0.0171342 7.54595 0.0177711 25 1 
576 1.20501 7.54591 -0.0156528 -0.0171342 7.54595 0.0177711 26 1 
578 1.20499 7.56819 -0.0155021 -0.0169112 7.56823 -0.023373 26 1 
580 1.20497 7.58709 -0.015069 -0.0163824 7.58713 -0.0506463 26 1 
582 1.20499 7.59862 -0.0143405 -0.0155026 7.59865 -0.0271687 26 1 
584 1.20502 7.59604 -0.0133646 -0.0143309 7.59607 0.0422623 26 1 
586 1.20504 7.57421 -0.0122862 -0.0130422 7.57424 0.0739038 26 1 
588 1.20502 7.53292 -0.011288 -0.0118289 7.53296 0.0384175 26 1 
590 1.205 7.47573 -0.0105549 -0.0109336 7.47578 -0.00452899 26 1 
592 1.20499 7.40926 -0.0102208 -0.0105356 7.40932 -0.0249166 26 1 
594 1.20498 7.34358 -0.01034 -0.0106581 7.34363 -0.0398854 26 1 
596 1.20498 7.2861 -0.0108533 -0.0112276 7.28615 -0.0407666 26 1 
598 1.20499 7.24249 -0.0116204 -0.0121173 7.24253 -0.0156482 26 1 
600 1.20499 7.21699 -0.0125166 -0.0131635 7.21702 -0.0172009 26 1 
602 1.20497 7.20977 -0.0133974 -0.0141751 7.2098 -0.0557656 26 1 
604 1.20497 7.21888 -0.0141386 -0.0150406 7.21891 -0.0579789 26 1 
606 1.20499 7.24342 -0.0147421 -0.0157525 7.24346 -0.0122831 26 1 
608 1.20503 7.28239 -0.0152503 -0.0163384 7.28244 0.0499822 26 1 
608 1.20503 7.28239 -0.0152503 -0.0163384 7.28244 0.0499822 26 1 
610 1.20507 7.33233 -0.0156891 -0.0168209 7.33239 0.129526 26 1 
612 1.2051 7.39097 -0.0160652 -0.0172175 7.39104 0.189756 26 1 
614 1.20511 7.45745 -0.0163637 -0.0175318 7.45753 0.194105 26 1 
616 1.20511 7.53081 -0.0165989 -0.0177745 7.53089 0.200981 26 1 
618 1.20514 7.60962 -0.0167878 -0.0179719 7.60971 0.255047 26 1 
620 1.20517 7.69387 -0.0169169 -0.0180987 7.69396 0.313155 26 1 
622 1.2052 7.78285 -0.0170137 -0.0181767 7.78295 0.364843 26 1 
624 1.20525 7.87469 -0.0171131 -0.0182504 7.87479 0.455166 26 1 
626 1.20529 7.96867 -0.0171954 -0.0183101 7.96877 0.518975 26 1 
628 1.20528 8.06453 -0.0172409 -0.0183354 8.06464 0.5102 26 1 
630 1.20529 8.16118 -0.017233 -0.0183154 8.16129 0.527008 26 1 
632 1.20532 8.259 -0.0171896 -0.0182581 8.25911 0.576814 26 1 
634 1.20533 8.35789 -0.0171354 -0.0181746 8.358 0.59992 26 1 
636 1.20535 8.45591 -0.0170546 -0.0180606 8.45602 0.635984 26 1 
638 1.20538 8.55189 -0.0169328 -0.0179051 8.55199 0.679362 26 1 
640 1.20537 8.64675 -0.0168012 -0.0177233 8.64685 0.674938 26 1 
642 1.20537 8.74004 -0.0166652 -0.017555 8.74013 0.673919 26 1 
644 1.20539 8.83038 -0.0165043 -0.0173875 8.83046 0.708421 26 1 
646 1.20539 8.91817 -0.016313 -0.0171551 8.91825 0.710652 26 1 
648 1.20538 9.00235 -0.0160797 -0.0168674 9.00242 0.68674 26 1 
650 1.20539 9.08237 -0.0158387 -0.0165743 9.08244 0.699486 26 1 
652 1.2054 9.15873 -0.01561 -0.0162937 9.1588 0.714118 26 1 
654 1.20539 9.2313 -0.015382 -0.0160236 9.23136 0.708759 26 1 
656 1.20539 9.30007 -0.0151375 -0.0157385 9.30012 0.707506 26 1 
658 1.20538 9.36468 -0.0148936 -0.0154484 9.36473 0.678867 26 1 
660 1.20536 9.42489 -0.0146478 -0.0151538 9.42493 0.653096 26 1 
662 1.20537 9.48061 -0.0143977 -0.0148386 9.48065 0.673792 26 1 
664 1.20538 9.5327 -0.0141526 -0.0145243 9.53274 0.680837 26 1 
666 1.20537 9.58169 -0.0139227 -0.0142475 9.58172 0.663746 26 1 
668 1.20537 9.62699 -0.013706 -0.013974 9.62702 0.669811 26 1 
670 1.20537 9.66826 -0.0134852 -0.0136695 9.66829 0.675292 26 1 
672 1.20536 9.70514 -0.0132633 -0.0133714 9.70517 0.658687 26 1 
672 1.20536 9.70514 -0.0132633 -0.0133714 9.70517 0.658687 27 1 
674 1.20536 9.73752 -0.0130256 -0.0130708 9.73755 0.659026 27 1 
676 1.20537 9.76585 -0.0127714 -0.0127615 9.76587 0.662691 27 1 
678 1.20536 9.79087 -0.0125251 -0.0124771 9.79089 0.644182 27 1 
680 1.20535 9.81286 -0.0123189 -0.0122296 9.81288 0.639644 27 1 
682 1.20536 9.83144 -0.0121366 -0.0120068 9.83146 0.655809 27 1 
684 1.20537 9.84675 -0.0119769 -0.0118143 9.84677 0.665981 27 1 
686 1.20537 9.85904 -0.0118452 -0.0116801 9.85905 0.667314 27 1 
688 1.20537 9.86963 -0.0116805 -0.0115233 9.86964 0.665509 27 1 
690 1.20538 9.87947 -0.0115106 -0.0113488 9.87949 0.681111 27 1 
692 1.20539 9.887 -0.0114024 -0.0112353 9.88701 0.704031 27 1 
694 1.20539 9.89272 -0.0113347 -0.0111637 9.89273 0.704137 27 1 
696 1.20538 9.8976 -0.0112653 -0.0110888 9.89761 0.687647 27 1 
698 1.20537 9.90234 -0.0112069 -0.0110128 9.90236 0.667649 27 1 
700 1.20537 9.90718 -0.011142 -0.0109369 9.90719 0.673055 27 1 
702 1.20539 9.91128 -0.0110677 -0.0108478 9.91129 0.708858 27 1 
704 1.20541 9.915 -0.0110248 -0.0107722 9.91501 0.736561 27 1 
704 1.20541 9.915 -0.0110248 -0.0107722 9.91501 0.736561 31 1 
706 1.20541 9.91862 -0.0109962 -0.0107171 9.91863 0.732334 31 1 
708 1.2054 9.92229 -0.0109782 -0.0106539 9.9223 0.728771 31 1 
710 1.20542 9.92528 -0.0109504 -0.0105663 9.92529 0.75599 31 1 
712 1.20543 9.92792 -0.0108867 -0.0104613 9.92793 0.771438 31 1 
714 1.20541 9.93092 -0.0108138 -0.0103385 9.93093 0.739323 31 1 
716 1.2054 9.93371 -0.010776 -0.0102378 9.93372 0.724329 31 1 
718 1.20543 9.93632 -0.0107701 -0.0101849 9.93633 0.767886 31 1 
720 1.20545 9.93901 -0.0107658 -0.0101264 9.93903 0.813003 31 1 
722 1.20545 9.94152 -0.0107458 -0.0100598 9.94153 0.80477 31 1 
724 1.20543 9.94349 -0.0106995 -0.00998266 9.9435 0.773034 31 1 
726 1.20544 9.94545 -0.0106562 -0.00989954 9.94546 0.793159 31 1 
728 1.20546 9.94764 -0.0106094 -0.00981413 9.94766 0.833803 31 1 
730 1.20546 9.94954 -0.0105672 -0.00977389 9.94955 0.834941 31 1 
732 1.20546 9.95041 -0.0105001 -0.00971857 9.95042 0.823764 31 1 
734 1.20546 9.95172 -0.010419 -0.00962278 9.95173 0.834273 31 1 
736 1.20547 9.95388 -0.0103546 -0.00954054 9.95389 0.84542 31 1 
738 1.20547 9.95524 -0.0103052 -0.00949558 9.95525 0.853017 31 1 
740 1.20548 9.95602 -0.0102477 -0.00942323 9.95603 0.873966 31 1 
742 1.20549 9.95731 -0.0102117 -0.00934241 9.95732 0.890963 31 1 
744 1.2055 9.9595 -0.0101955 -0.00929315 9.95951 0.902933 31 1 
746 1.20551 9.96087 -0.0101451 -0.00921844 9.96088 0.918867 31 1 
748 1.20551 9.96138 -0.0100793 -0.00909446 9.96139 0.916704 31 1 
750 1.2055 9.96223 -0.0100086 -0.00896128 9.96224 0.904019 31 1 
752 1.20551 9.9635 -0.0099643 -0.00888221 9.9635 0.923123 31 1 
752 1.20551 9.9635 -0.0099643 -0.00888221 9.9635 0.923123 31 1 
754 1.20553 9.96479 -0.00994214 -0.00881336 9.9648 0.963185 31 1 
756 1.20555 9.96586 -0.00993239 -0.00876133 9.96587 0.994324 31 1 
758 1.20554 9.96621 -0.00989099 -0.00867834 9.96622 0.983703 31 1 
760 1.20553 9.96634 -0.00979063 -0.00856449 9.96635 0.952561 31 1 
762 1.20554 9.96704 -0.00971815 -0.00845154 9.96705 0.969772 31 1 
764 1.20556 9.96774 -0.00970092 -0.00838417 9.96774 1.01308 31 1 
766 1.20557 9.96867 -0.00965309 -0.00831237 9.96868 1.03653 31 1 
768 1.20557 9.96889 -0.0095937 -0.00824692 9.9689 1.0265 31 1 
770 1.20557 9.96935 -0.00957809 -0.00819025 9.96936 1.02934 31 1 
772 1.20559 9.97021 -0.00954084 -0.00812866 9.97022 1.07024 31 1 
774 1.20559 9.96991 -0.00947234 -0.00805666 9.96992 1.07211 31 1 
776 1.20558 9.97014 -0.00945242 -0.00797817 9.97015 1.04762 31 1 
778 1.20559 9.97112 -0.00942789 -0.00793425 9.97112 1.07248 31 1 
780 1.20562 9.97173 -0.00935209 -0.00787388 9.97173 1.11892 31 1 
782 1.20562 9.9718 -0.00928089 -0.00777837 9.97181 1.12704 31 1 
784 1.20561 9.9716 -0.00925813 -0.00770829 9.97161 1.10348 31 1 
786 1.20562 9.97167 -0.0092305 -0.00768603 9.97168 1.12144 31 1 
788 1.20565 9.9723 -0.00919449 -0.00764515 9.97231 1.17467 31 1 
790 1.20565 9.97249 -0.00916442 -0.00760496 9.97249 1.17133 31 1 
792 1.20564 9.97192 -0.00911309 -0.00755643 9.97192 1.15542 31 1 
794 1.20565 9.97158 -0.0090538 -0.00746588 9.97159 1.175 31 1 
796 1.20567 9.97186 -0.00900348 -0.00737584 9.97187 1.20505 31 1 
798 1.20568 9.97215 -0.00899052 -0.00734673 9.97215 1.2281 31 1 
800 1.20568 9.97211 -0.00899675 -0.00735857 9.97212 1.23203 31 1 
