111.395;r ;Density                 ;Velocity u              ;Velocity v              ;Velocity w              ;|Velocity|              ;Pressure                ;Distribution            ;Levels                  ;
0 1.21178 9.99957 -8.03874e-05 -3.00392e-05 9.99957 12.2475 1 1 
2 1.21181 9.99882 -0.000106591 -5.77704e-05 9.99882 12.2938 1 1 
4 1.2118 9.99876 -0.000271241 -0.000196654 9.99876 12.2914 1 1 
6 1.21179 9.99942 -0.000376035 -0.000281206 9.99942 12.2712 1 1 
8 1.2118 10.0003 -0.000498081 -0.000378402 10.0003 12.2847 1 1 
10 1.21179 10.001 -0.000614359 -0.000455955 10.001 12.2688 1 1 
12 1.21179 10.0009 -0.000723596 -0.000545648 10.0009 12.2716 1 1 
14 1.21179 10.0021 -0.000863892 -0.000648539 10.0021 12.257 1 1 
16 1.21179 10.0028 -0.00095451 -0.000710535 10.0028 12.2706 1 1 
18 1.21179 10.0027 -0.00106135 -0.000793244 10.0027 12.2621 1 1 
20 1.21177 10.0035 -0.00121907 -0.000918365 10.0035 12.2262 1 1 
22 1.21179 10.004 -0.00133323 -0.00101698 10.004 12.2603 1 1 
24 1.21179 10.005 -0.00146315 -0.00112486 10.005 12.257 1 1 
26 1.21177 10.0054 -0.00157607 -0.00119786 10.0054 12.234 1 1 
28 1.21177 10.0054 -0.00170865 -0.00129267 10.0054 12.2332 1 1 
30 1.21177 10.006 -0.00181838 -0.00138398 10.006 12.2209 1 1 
32 1.21177 10.0059 -0.0019607 -0.00148382 10.0059 12.2288 1 1 
32 1.21177 10.0059 -0.0019607 -0.00148382 10.0059 12.2288 1 1 
34 1.21176 10.006 -0.00204312 -0.00153839 10.006 12.2137 1 1 
36 1.21176 10.0057 -0.00218479 -0.0016531 10.0057 12.2062 1 1 
38 1.21175 10.0066 -0.00231077 -0.00175702 10.0066 12.1877 1 1 
40 1.21175 10.0071 -0.00241771 -0.00184799 10.0071 12.1972 1 1 
42 1.21176 10.0073 -0.00255061 -0.0019446 10.0073 12.2014 1 1 
44 1.21174 10.0074 -0.00265427 -0.00199629 10.0074 12.1772 1 1 
46 1.21174 10.007 -0.00279388 -0.0021085 10.007 12.1789 1 1 
48 1.21173 10.0078 -0.00293564 -0.00223257 10.0078 12.1615 1 1 
50 1.21174 10.0089 -0.00302607 -0.00226222 10.0089 12.1664 1 1 
52 1.21173 10.0086 -0.00313854 -0.00235082 10.0087 12.1631 1 1 
54 1.21172 10.0083 -0.00328054 -0.0024589 10.0083 12.1439 1 1 
56 1.21172 10.0096 -0.00339373 -0.0025312 10.0096 12.1465 1 1 
58 1.21173 10.0101 -0.00355577 -0.00267193 10.0101 12.1477 1 1 
60 1.21171 10.0104 -0.00366584 -0.00274533 10.0104 12.1252 1 1 
62 1.21171 10.0103 -0.00379473 -0.00284537 10.0103 12.1262 1 1 
64 1.21171 10.0109 -0.00390494 -0.00291404 10.0109 12.1219 1 1 
64 1.21171 10.0109 -0.00390494 -0.00291404 10.0109 12.1219 2 1 
66 1.21172 10.0117 -0.00402677 -0.00300831 10.0117 12.1292 2 1 
68 1.2117 10.0129 -0.00416914 -0.00311048 10.0129 12.0992 2 1 
70 1.2117 10.0128 -0.00430022 -0.0032162 10.0128 12.1044 2 1 
72 1.2117 10.0127 -0.00442868 -0.00331886 10.0127 12.1066 2 1 
74 1.21169 10.0132 -0.00454307 -0.00338526 10.0132 12.0803 2 1 
76 1.2117 10.0131 -0.0046623 -0.0034906 10.0131 12.108 2 1 
78 1.21168 10.0148 -0.00478424 -0.00356642 10.0148 12.0742 2 1 
80 1.21168 10.0151 -0.00492213 -0.00367157 10.0151 12.0692 2 1 
82 1.21168 10.0151 -0.0050617 -0.00380243 10.0151 12.0728 2 1 
84 1.21168 10.0156 -0.00517813 -0.00385341 10.0156 12.0665 2 1 
86 1.21168 10.0156 -0.00528929 -0.00390983 10.0156 12.0707 2 1 
88 1.21167 10.0162 -0.00545443 -0.00404708 10.0162 12.0476 2 1 
90 1.21167 10.0167 -0.00555607 -0.0041158 10.0167 12.0439 2 1 
92 1.21167 10.0165 -0.00570149 -0.00421212 10.0165 12.0397 2 1 
94 1.21167 10.0166 -0.00583948 -0.004308 10.0166 12.0388 2 1 
96 1.21166 10.0172 -0.00595433 -0.00437959 10.0172 12.0363 2 1 
96 1.21166 10.0172 -0.00595433 -0.00437959 10.0172 12.0363 2 1 
98 1.21166 10.0182 -0.00613209 -0.00449452 10.0182 12.0239 2 1 
100 1.21165 10.0189 -0.00622884 -0.00454514 10.0189 12.0164 2 1 
102 1.21164 10.0191 -0.006352 -0.00465137 10.0191 11.9994 2 1 
104 1.21165 10.0186 -0.00653124 -0.0047887 10.0186 12.0116 2 1 
106 1.21164 10.0189 -0.00661493 -0.0048145 10.0189 12.0015 2 1 
108 1.21164 10.0187 -0.00676525 -0.00492185 10.0187 11.999 2 1 
110 1.21163 10.0191 -0.00689236 -0.00501589 10.0191 11.9752 2 1 
112 1.21162 10.0201 -0.00702496 -0.00510649 10.0201 11.9544 2 1 
114 1.21163 10.0193 -0.00715358 -0.00517837 10.0193 11.9789 2 1 
116 1.21162 10.0207 -0.00728227 -0.00526222 10.0207 11.9594 2 1 
118 1.21162 10.0219 -0.00740736 -0.0053436 10.0219 11.9571 2 1 
120 1.21163 10.0213 -0.0075393 -0.00541093 10.0214 11.9666 2 1 
122 1.2116 10.0219 -0.00768536 -0.00551441 10.0219 11.92 2 1 
124 1.21159 10.0214 -0.0078031 -0.00560423 10.0214 11.9105 2 1 
126 1.21162 10.0206 -0.00798459 -0.00573703 10.0206 11.9536 2 1 
128 1.21159 10.0221 -0.00809881 -0.00578213 10.0221 11.9009 2 1 
128 1.21159 10.0221 -0.00809881 -0.00578213 10.0221 11.9009 10 1 
130 1.21159 10.0226 -0.00825265 -0.00590581 10.0226 11.9064 10 1 
132 1.2116 10.0237 -0.00837815 -0.0059766 10.0237 11.9141 10 1 
134 1.21158 10.0243 -0.00852178 -0.00606011 10.0243 11.8912 10 1 
136 1.21159 10.023 -0.0086577 -0.00614423 10.023 11.9034 10 1 
138 1.21157 10.023 -0.00878788 -0.00622608 10.023 11.8719 10 1 
140 1.21158 10.0238 -0.00894538 -0.00634451 10.0238 11.8805 10 1 
142 1.21157 10.0246 -0.00907658 -0.00638358 10.0246 11.8736 10 1 
144 1.21157 10.0251 -0.00921745 -0.0065039 10.0251 11.867 10 1 
146 1.21158 10.0257 -0.00936421 -0.00660308 10.0257 11.8875 10 1 
148 1.21158 10.025 -0.0095264 -0.00669847 10.025 11.8767 10 1 
150 1.21155 10.0247 -0.00965755 -0.0068059 10.0247 11.8391 10 1 
152 1.21156 10.0252 -0.00980443 -0.00690008 10.0252 11.8529 10 1 
154 1.21157 10.0255 -0.00991158 -0.00693187 10.0255 11.8689 10 1 
156 1.21156 10.0263 -0.0100792 -0.00704403 10.0263 11.8506 10 1 
158 1.21157 10.0265 -0.0102157 -0.00712967 10.0265 11.8604 10 1 
160 1.21157 10.0254 -0.0103108 -0.00717743 10.0254 11.8647 10 1 
160 1.21157 10.0254 -0.0103108 -0.00717743 10.0254 11.8647 10 1 
162 1.21154 10.026 -0.010473 -0.00730647 10.026 11.8204 10 1 
164 1.21155 10.026 -0.0106234 -0.00737308 10.026 11.8277 10 1 
166 1.21158 10.0245 -0.0107919 -0.00749381 10.0245 11.8865 10 1 
168 1.21154 10.0267 -0.010957 -0.00761979 10.0267 11.8216 10 1 
170 1.21155 10.026 -0.0111008 -0.00770071 10.026 11.8364 10 1 
172 1.21156 10.0259 -0.0112308 -0.00776171 10.0259 11.848 10 1 
174 1.21153 10.028 -0.0113325 -0.00782243 10.0281 11.8027 10 1 
176 1.21157 10.0265 -0.0115272 -0.00790272 10.0265 11.8721 10 1 
178 1.21156 10.0265 -0.0116453 -0.00797256 10.0265 11.8436 10 1 
180 1.21155 10.0259 -0.0117809 -0.00810202 10.0259 11.8313 10 1 
182 1.21155 10.024 -0.011965 -0.00822878 10.024 11.8286 10 1 
184 1.21153 10.0238 -0.0121474 -0.00835264 10.0238 11.7918 10 1 
186 1.21157 10.0252 -0.0122887 -0.00841816 10.0252 11.8611 10 1 
188 1.21158 10.0261 -0.012399 -0.00845533 10.0261 11.8809 10 1 
190 1.21156 10.0259 -0.0126134 -0.00858277 10.0259 11.8446 10 1 
192 1.21155 10.0261 -0.012656 -0.00856722 10.0261 11.8329 10 1 
194 1.21157 10.0237 -0.0129027 -0.00875412 10.0237 11.859 10 1 
196 1.21157 10.0216 -0.0131298 -0.00892695 10.0217 11.8682 10 1 
198 1.21157 10.0223 -0.0131841 -0.00887285 10.0224 11.8654 10 1 
200 1.2116 10.0217 -0.0134377 -0.00906035 10.0217 11.9198 10 1 
202 1.21159 10.0216 -0.0134891 -0.00911778 10.0217 11.9049 10 1 
204 1.21155 10.0227 -0.0135601 -0.00910559 10.0227 11.8348 10 1 
206 1.21161 10.0201 -0.0138713 -0.00932708 10.0201 11.9323 10 1 
208 1.21164 10.0198 -0.0140864 -0.00941972 10.0198 11.9862 10 1 
210 1.21159 10.0223 -0.0141696 -0.00942857 10.0223 11.9054 10 1 
212 1.21165 10.0173 -0.0143232 -0.00957247 10.0173 12.0095 10 1 
214 1.21163 10.0139 -0.0144453 -0.00961862 10.014 11.9692 10 1 
216 1.2116 10.0118 -0.0146722 -0.00973749 10.0118 11.9162 10 1 
218 1.21166 10.0073 -0.0149553 -0.00993125 10.0073 12.0333 10 1 
220 1.21166 10.0117 -0.0150806 -0.010028 10.0117 12.0274 10 1 
222 1.21169 10.0136 -0.0151898 -0.0100539 10.0136 12.0835 10 1 
224 1.21169 10.0098 -0.0153102 -0.0100045 10.0098 12.0918 10 1 
224 1.21169 10.0098 -0.0153102 -0.0100045 10.0098 12.0918 10 1 
226 1.21171 10.0073 -0.0154921 -0.0101138 10.0073 12.1248 10 1 
228 1.21174 10.0002 -0.0156948 -0.0102874 10.0002 12.1652 10 1 
230 1.21173 9.99401 -0.0159451 -0.0104852 9.99403 12.1552 10 1 
232 1.21174 9.99526 -0.0161083 -0.0105752 9.99528 12.1741 10 1 
234 1.21179 9.99421 -0.0162218 -0.0105428 9.99423 12.2556 10 1 
236 1.21187 9.98787 -0.016392 -0.0106591 9.98789 12.4118 10 1 
238 1.21181 9.98725 -0.0165412 -0.010761 9.98727 12.3009 10 1 
240 1.21191 9.97836 -0.0168826 -0.0110099 9.97838 12.4781 10 1 
242 1.21194 9.97166 -0.0170543 -0.0110948 9.97168 12.5328 10 1 
244 1.21187 9.97217 -0.0171215 -0.0110973 9.97219 12.4159 10 1 
246 1.21206 9.96301 -0.0173366 -0.0112266 9.96303 12.7488 10 1 
248 1.21209 9.95623 -0.0174268 -0.0112014 9.95626 12.7993 10 1 
250 1.21209 9.94733 -0.0176544 -0.011345 9.94735 12.8025 10 1 
252 1.21214 9.93859 -0.0179998 -0.0116208 9.93861 12.9051 10 1 
254 1.21224 9.92949 -0.0180812 -0.0116009 9.92951 13.0834 10 1 
256 1.21231 9.91966 -0.0182324 -0.0116893 9.91969 13.2039 10 1 
256 1.21231 9.91966 -0.0182324 -0.0116893 9.91969 13.2039 11 1 
258 1.21237 9.9071 -0.0184784 -0.0118768 9.90712 13.3042 11 1 
260 1.21253 9.89354 -0.0186689 -0.0119935 9.89357 13.5965 11 1 
262 1.21262 9.87753 -0.0189643 -0.0121882 9.87756 13.7713 11 1 
264 1.21262 9.86077 -0.0190793 -0.0122053 9.8608 13.7614 11 1 
266 1.21279 9.84531 -0.0192281 -0.0123091 9.84534 14.0724 11 1 
268 1.21315 9.81511 -0.0194843 -0.012495 9.81515 14.7232 11 1 
270 1.21309 9.7948 -0.0197565 -0.0126354 9.79483 14.6067 11 1 
272 1.21326 9.76468 -0.0198635 -0.0126388 9.76472 14.9117 11 1 
274 1.21373 9.72247 -0.0200709 -0.0128049 9.7225 15.762 11 1 
276 1.21373 9.6951 -0.0202983 -0.0129421 9.69514 15.7616 11 1 
278 1.21402 9.65254 -0.0205211 -0.0130755 9.65257 16.3008 11 1 
280 1.2146 9.60828 -0.0207162 -0.0131959 9.60833 17.3342 11 1 
282 1.21498 9.54885 -0.0208151 -0.0132457 9.54898 18.0178 11 1 
284 1.21525 9.4601 -0.0208966 -0.013343 9.4603 18.5076 11 1 
286 1.2156 9.3697 -0.0210484 -0.013432 9.36983 19.153 11 1 
288 1.21629 9.28474 -0.0212729 -0.0135779 9.28478 20.3864 11 1 
288 1.21629 9.28474 -0.0212729 -0.0135779 9.28478 20.3864 11 1 
290 1.2171 9.21086 -0.0214453 -0.013676 9.21091 21.852 11 1 
292 1.21777 9.11168 -0.0217205 -0.0138756 9.11181 23.0627 11 1 
294 1.21831 8.97478 -0.0218188 -0.0139604 8.97507 24.0495 11 1 
296 1.21908 8.83407 -0.0217769 -0.013908 8.8343 25.431 11 1 
298 1.21473 8.66275 -0.0218512 -0.0139978 8.66287 17.5725 11 1 
300 1.2073 8.5925 -0.0218392 -0.0139867 8.59264 4.15143 11 1 
302 1.20498 8.56433 -0.0221152 -0.014164 8.56441 -0.0380885 11 1 
304 1.20561 8.44809 -0.0223189 -0.0143126 8.44824 1.1002 11 1 
306 1.20638 8.3173 -0.0223939 -0.0143517 8.31752 2.49279 11 1 
308 1.20695 8.19723 -0.0224783 -0.0144125 8.19746 3.5188 11 1 
310 1.20732 8.10765 -0.0225373 -0.0144406 8.10783 4.18482 11 1 
312 1.2078 8.01103 -0.0227799 -0.0146331 8.01111 5.06559 11 1 
314 1.20827 7.93971 -0.0231608 -0.0149012 7.93978 5.90892 11 1 
316 1.20863 7.88728 -0.0234174 -0.0150787 7.88734 6.55879 11 1 
318 1.20896 7.81827 -0.0235803 -0.0152006 7.81833 7.15409 11 1 
320 1.20923 7.77476 -0.0237283 -0.0152798 7.77481 7.64519 11 1 
320 1.20923 7.77476 -0.0237283 -0.0152798 7.77481 7.64519 15 1 
322 1.2095 7.74489 -0.0240735 -0.0155208 7.74495 8.12446 15 1 
324 1.20976 7.69842 -0.0243795 -0.0157463 7.69848 8.59737 15 1 
326 1.20995 7.66434 -0.0244502 -0.0157988 7.6644 8.94892 15 1 
328 1.21012 7.63441 -0.0245645 -0.0158829 7.63447 9.24333 15 1 
330 1.21023 7.60067 -0.0248742 -0.0161047 7.60074 9.43862 15 1 
332 1.2104 7.57955 -0.0251454 -0.0163041 7.57962 9.76112 15 1 
334 1.21059 7.55041 -0.0253133 -0.0164373 7.55048 10.1054 15 1 
336 1.21058 7.51513 -0.0255501 -0.0165973 7.51521 10.0783 15 1 
338 1.21063 7.49594 -0.025877 -0.0168314 7.49602 10.1663 15 1 
340 1.21084 7.48011 -0.0262945 -0.0171576 7.48019 10.5465 15 1 
342 1.21093 7.4626 -0.02658 -0.0173605 7.46268 10.7114 15 1 
344 1.21092 7.44093 -0.0268523 -0.0175044 7.44101 10.698 15 1 
346 1.21093 7.41694 -0.02726 -0.0177859 7.41701 10.7145 15 1 
348 1.21106 7.41356 -0.0277905 -0.0181954 7.41363 10.9378 15 1 
350 1.2112 7.41349 -0.0281946 -0.0184741 7.41357 11.1949 15 1 
352 1.21117 7.39579 -0.0285142 -0.0186543 7.39587 11.1439 15 1 
354 1.21117 7.38573 -0.0288908 -0.0189195 7.38581 11.1533 15 1 
356 1.21128 7.38551 -0.0294133 -0.0193184 7.38559 11.3394 15 1 
358 1.21132 7.38371 -0.0298796 -0.0196177 7.3838 11.423 15 1 
360 1.21137 7.38514 -0.0301891 -0.019786 7.38523 11.5103 15 1 
362 1.21141 7.38329 -0.030472 -0.0199832 7.38338 11.5832 15 1 
364 1.21143 7.37997 -0.0308392 -0.0202487 7.38007 11.6169 15 1 
366 1.21147 7.38141 -0.0312304 -0.0204993 7.38151 11.6836 15 1 
368 1.21151 7.38343 -0.0315323 -0.0206898 7.38353 11.7514 15 1 
370 1.21157 7.38784 -0.0316989 -0.0207911 7.38794 11.8586 15 1 
372 1.21159 7.38868 -0.0319333 -0.0209255 7.38878 11.907 15 1 
374 1.21159 7.38491 -0.0322555 -0.0211383 7.38502 11.8994 15 1 
376 1.21163 7.38657 -0.032485 -0.021287 7.38667 11.9745 15 1 
378 1.21166 7.38863 -0.0326478 -0.0213643 7.38873 12.0325 15 1 
380 1.2117 7.38971 -0.0328547 -0.0214706 7.38981 12.0939 15 1 
382 1.21173 7.39112 -0.0330964 -0.0216149 7.39123 12.1622 15 1 
384 1.21173 7.38603 -0.0333313 -0.0217513 7.38614 12.1521 15 1 
384 1.21173 7.38603 -0.0333313 -0.0217513 7.38614 12.1521 16 1 
386 1.21175 7.38263 -0.0335112 -0.021848 7.38274 12.1907 16 1 
388 1.21179 7.38481 -0.0336893 -0.0219452 7.38492 12.2633 16 1 
390 1.21181 7.38314 -0.0339459 -0.0220761 7.38325 12.2997 16 1 
392 1.21183 7.37897 -0.0341418 -0.0221833 7.37908 12.3453 16 1 
394 1.21184 7.37374 -0.0343282 -0.0223063 7.37385 12.356 16 1 
396 1.21184 7.36754 -0.0345526 -0.022426 7.36765 12.3607 16 1 
398 1.21187 7.36472 -0.034754 -0.022505 7.36484 12.4076 16 1 
400 1.2119 7.36157 -0.0349151 -0.0225938 7.36169 12.4601 16 1 
402 1.21191 7.35468 -0.0351512 -0.0227409 7.35481 12.4872 16 1 
404 1.2119 7.34651 -0.0353966 -0.0228621 7.34663 12.4644 16 1 
406 1.21191 7.33945 -0.0355632 -0.0229304 7.33957 12.4809 16 1 
408 1.21195 7.33517 -0.0357451 -0.0230111 7.33529 12.5516 16 1 
410 1.21196 7.32951 -0.0360243 -0.0231699 7.32964 12.5639 16 1 
412 1.21196 7.32126 -0.0362986 -0.0233347 7.32139 12.5628 16 1 
414 1.21197 7.31446 -0.0365045 -0.0234311 7.3146 12.5951 16 1 
416 1.21199 7.30781 -0.0367381 -0.0235502 7.30794 12.6195 16 1 
416 1.21199 7.30781 -0.0367381 -0.0235502 7.30794 12.6195 16 1 
418 1.212 7.30108 -0.0370299 -0.0237425 7.30122 12.6367 16 1 
420 1.21201 7.29565 -0.0373251 -0.0239259 7.29579 12.653 16 1 
422 1.21202 7.28937 -0.0376251 -0.024081 7.28951 12.6876 16 1 
424 1.21204 7.28256 -0.0379139 -0.0242419 7.2827 12.714 16 1 
426 1.21203 7.27566 -0.0382369 -0.0244422 7.2758 12.7052 16 1 
428 1.21204 7.26879 -0.0385813 -0.0246343 7.26894 12.7186 16 1 
430 1.21206 7.26431 -0.0389419 -0.0248199 7.26446 12.7604 16 1 
432 1.21208 7.25957 -0.0393069 -0.025024 7.25972 12.7836 16 1 
434 1.21208 7.2523 -0.0396809 -0.0252327 7.25245 12.7809 16 1 
436 1.21208 7.24584 -0.0400619 -0.0254367 7.246 12.7826 16 1 
438 1.21209 7.24145 -0.0404481 -0.0256462 7.24161 12.8107 16 1 
440 1.21211 7.23787 -0.0408396 -0.0258457 7.23804 12.8345 16 1 
442 1.21211 7.23374 -0.0412613 -0.0260772 7.2339 12.8477 16 1 
444 1.21212 7.22882 -0.041663 -0.0263295 7.22899 12.8646 16 1 
446 1.21212 7.22477 -0.0420562 -0.0265557 7.22494 12.8693 16 1 
448 1.21213 7.22207 -0.0424996 -0.0267922 7.22224 12.8842 16 1 
448 1.21213 7.22207 -0.0424996 -0.0267922 7.22224 12.8842 17 1 
450 1.21215 7.21991 -0.0429349 -0.0270415 7.22009 12.9171 17 1 
452 1.21216 7.21812 -0.0433633 -0.0273097 7.2183 12.9361 17 1 
454 1.21217 7.21583 -0.0438387 -0.0276087 7.21602 12.9478 17 1 
456 1.21217 7.21344 -0.0443275 -0.0278959 7.21363 12.9593 17 1 
458 1.21218 7.21233 -0.0447577 -0.0281504 7.21253 12.9733 17 1 
460 1.2122 7.21206 -0.0452428 -0.0284601 7.21225 12.9981 17 1 
462 1.21221 7.21207 -0.0457809 -0.0287979 7.21227 13.0227 17 1 
464 1.21222 7.21139 -0.0462941 -0.0291134 7.21159 13.035 17 1 
466 1.21222 7.2102 -0.0467714 -0.0294008 7.21041 13.0376 17 1 
468 1.21223 7.21055 -0.0472787 -0.029717 7.21076 13.0531 17 1 
470 1.21224 7.21177 -0.0478002 -0.0300542 7.21199 13.0787 17 1 
472 1.21225 7.21247 -0.0483267 -0.0303772 7.21269 13.0942 17 1 
474 1.21226 7.21314 -0.0488604 -0.0307087 7.21338 13.1084 17 1 
476 1.21226 7.21373 -0.0493678 -0.0310408 7.21397 13.1172 17 1 
478 1.21227 7.21475 -0.049862 -0.0313275 7.21499 13.1229 17 1 
480 1.21228 7.21702 -0.0503964 -0.0316399 7.21727 13.1491 17 1 
480 1.21228 7.21702 -0.0503964 -0.0316399 7.21727 13.1491 17 1 
482 1.21229 7.21928 -0.0509328 -0.0319886 7.21953 13.1724 17 1 
484 1.2123 7.22107 -0.0514168 -0.0323008 7.22133 13.1789 17 1 
486 1.2123 7.22301 -0.0519394 -0.0326012 7.22327 13.1894 17 1 
488 1.21231 7.22528 -0.0524782 -0.0329137 7.22555 13.2054 17 1 
490 1.21232 7.2286 -0.0529506 -0.0332122 7.22887 13.2247 17 1 
492 1.21233 7.23221 -0.0534479 -0.0335128 7.23248 13.2439 17 1 
494 1.21234 7.23522 -0.0540079 -0.0338227 7.2355 13.2593 17 1 
496 1.21235 7.2382 -0.054513 -0.0341239 7.23848 13.2732 17 1 
498 1.21235 7.24168 -0.0549516 -0.0343962 7.24197 13.2832 17 1 
500 1.21236 7.24597 -0.0554475 -0.0346649 7.24627 13.3022 17 1 
502 1.21238 7.25058 -0.0559781 -0.0349639 7.25088 13.3307 17 1 
504 1.21239 7.25442 -0.056466 -0.035266 7.25472 13.3454 17 1 
506 1.21239 7.25816 -0.0569243 -0.0355171 7.25847 13.3531 17 1 
508 1.2124 7.26283 -0.0573805 -0.0357474 7.26314 13.3727 17 1 
510 1.21242 7.26759 -0.0578518 -0.0360136 7.26791 13.3967 17 1 
512 1.21243 7.27224 -0.0583299 -0.0362912 7.27257 13.4162 17 1 
512 1.21243 7.27224 -0.0583299 -0.0362912 7.27257 13.4162 25 1 
514 1.21244 7.2769 -0.0587867 -0.0365289 7.27723 13.4331 25 1 
516 1.21245 7.28139 -0.059222 -0.0367611 7.28173 13.4497 25 1 
518 1.21246 7.28598 -0.0596251 -0.036975 7.28631 13.4673 25 1 
520 1.21247 7.29077 -0.0600787 -0.0372001 7.29112 13.4854 25 1 
522 1.21248 7.29582 -0.0605314 -0.0374238 7.29617 13.5069 25 1 
524 1.21249 7.30061 -0.0609469 -0.0376477 7.30096 13.5256 25 1 
526 1.2125 7.30503 -0.0613783 -0.037857 7.30539 13.5382 25 1 
528 1.2125 7.30964 -0.0618101 -0.038038 7.31 13.5547 25 1 
530 1.21252 7.31449 -0.0622127 -0.0382304 7.31485 13.5748 25 1 
532 1.21252 7.3193 -0.0626273 -0.0384263 7.31967 13.5912 25 1 
534 1.21253 7.32393 -0.0630287 -0.0385806 7.3243 13.6072 25 1 
536 1.21254 7.32841 -0.0634045 -0.0387394 7.32879 13.6263 25 1 
538 1.21255 7.33283 -0.0638156 -0.0389264 7.33321 13.6409 25 1 
540 1.21256 7.33731 -0.0641877 -0.0390707 7.3377 13.654 25 1 
542 1.21257 7.34173 -0.0646046 -0.0392324 7.34212 13.6741 25 1 
544 1.21258 7.34629 -0.0649865 -0.0393907 7.34669 13.6945 25 1 
544 1.21258 7.34629 -0.0649865 -0.0393907 7.34669 13.6945 25 1 
546 1.21259 7.35054 -0.0653918 -0.0395494 7.35094 13.7094 25 1 
548 1.2126 7.35441 -0.0657934 -0.039695 7.35481 13.722 25 1 
550 1.21261 7.35861 -0.066172 -0.0398178 7.35902 13.7403 25 1 
552 1.21262 7.3627 -0.0665745 -0.039953 7.36311 13.758 25 1 
554 1.21263 7.36681 -0.0669557 -0.0400819 7.36723 13.7745 25 1 
556 1.21264 7.37079 -0.0673689 -0.0402048 7.37121 13.7948 25 1 
558 1.21264 7.37431 -0.0677374 -0.0402989 7.37473 13.8075 25 1 
560 1.21265 7.37789 -0.0681428 -0.0404102 7.37832 13.8197 25 1 
562 1.21266 7.38176 -0.0685442 -0.0405051 7.38219 13.8401 25 1 
564 1.21267 7.38541 -0.0689493 -0.040605 7.38585 13.8598 25 1 
566 1.21268 7.38883 -0.0693617 -0.0407065 7.38928 13.8746 25 1 
568 1.21269 7.39203 -0.0697663 -0.0407951 7.39247 13.8898 25 1 
570 1.2127 7.39504 -0.0701977 -0.0408904 7.39549 13.9041 25 1 
572 1.21271 7.39839 -0.0706227 -0.040992 7.39884 13.922 25 1 
574 1.21272 7.40156 -0.0710763 -0.041103 7.40202 13.9415 25 1 
576 1.21273 7.40443 -0.0715263 -0.0412058 7.40489 13.9574 25 1 
576 1.21273 7.40443 -0.0715263 -0.0412058 7.40489 13.9574 26 1 
578 1.21274 7.40715 -0.0720075 -0.0413225 7.40761 13.9727 26 1 
580 1.21274 7.40962 -0.0724641 -0.0414282 7.41009 13.9848 26 1 
582 1.21275 7.41243 -0.0729708 -0.04157 7.4129 14.0034 26 1 
584 1.21276 7.41513 -0.0734708 -0.041697 7.41561 14.0238 26 1 
586 1.21277 7.41747 -0.0739824 -0.0418528 7.41796 14.0346 26 1 
588 1.21278 7.41965 -0.0745437 -0.0420209 7.42015 14.0499 26 1 
590 1.21279 7.42179 -0.0750534 -0.0421666 7.42229 14.0647 26 1 
592 1.21279 7.42391 -0.0756507 -0.0423678 7.42441 14.0778 26 1 
594 1.2128 7.42617 -0.0762259 -0.0425541 7.42668 14.0953 26 1 
596 1.21281 7.42805 -0.0768146 -0.0427484 7.42857 14.1112 26 1 
598 1.21282 7.42954 -0.0774401 -0.0429772 7.43007 14.1191 26 1 
600 1.21282 7.43114 -0.0780535 -0.0431977 7.43167 14.1314 26 1 
602 1.21283 7.43278 -0.078729 -0.043434 7.43332 14.1489 26 1 
604 1.21284 7.43431 -0.0793709 -0.0436842 7.43486 14.1626 26 1 
606 1.21285 7.43545 -0.0800681 -0.0439472 7.43601 14.1732 26 1 
608 1.21285 7.43642 -0.0807555 -0.0442153 7.43699 14.1849 26 1 
608 1.21285 7.43642 -0.0807555 -0.0442153 7.43699 14.1849 26 1 
610 1.21286 7.43747 -0.0814696 -0.0444986 7.43805 14.1975 26 1 
612 1.21287 7.43829 -0.0821977 -0.0448106 7.43888 14.2082 26 1 
614 1.21287 7.43902 -0.0829258 -0.0451076 7.43962 14.2218 26 1 
616 1.21288 7.43984 -0.0837053 -0.0454363 7.44045 14.2343 26 1 
618 1.21289 7.44015 -0.0844752 -0.0457767 7.44077 14.2448 26 1 
620 1.21289 7.44039 -0.0852574 -0.0461087 7.44102 14.2524 26 1 
622 1.2129 7.44073 -0.0860228 -0.0464384 7.44138 14.2633 26 1 
624 1.2129 7.44108 -0.0868386 -0.0468078 7.44174 14.2763 26 1 
626 1.21291 7.44111 -0.087637 -0.0471572 7.44177 14.2885 26 1 
628 1.21291 7.441 -0.0884442 -0.0475068 7.44168 14.2946 26 1 
630 1.21292 7.44081 -0.0892433 -0.0478516 7.4415 14.3044 26 1 
632 1.21293 7.4406 -0.0900525 -0.0482122 7.44131 14.3164 26 1 
634 1.21293 7.44036 -0.0908598 -0.0485634 7.44107 14.3252 26 1 
636 1.21294 7.43986 -0.0916671 -0.0489233 7.44058 14.3367 26 1 
638 1.21294 7.43925 -0.092477 -0.0492843 7.43999 14.3463 26 1 
640 1.21295 7.43839 -0.0932729 -0.0496335 7.43914 14.3564 26 1 
642 1.21295 7.43768 -0.0940987 -0.0500005 7.43844 14.3658 26 1 
644 1.21296 7.43675 -0.0948943 -0.0503456 7.43753 14.3784 26 1 
646 1.21297 7.43554 -0.0956988 -0.0507059 7.43633 14.3892 26 1 
648 1.21297 7.43445 -0.0965075 -0.0510557 7.43525 14.3967 26 1 
650 1.21298 7.43303 -0.0972782 -0.0513763 7.43385 14.4114 26 1 
652 1.21298 7.43172 -0.0981068 -0.0517322 7.43255 14.4212 26 1 
654 1.21299 7.4302 -0.0988967 -0.0520504 7.43105 14.4302 26 1 
656 1.213 7.42855 -0.0996724 -0.0523679 7.4294 14.4425 26 1 
658 1.213 7.4271 -0.100516 -0.052711 7.42797 14.4516 26 1 
660 1.21301 7.42515 -0.101235 -0.0529716 7.42603 14.4648 26 1 
662 1.21301 7.42351 -0.102084 -0.0533181 7.4244 14.4727 26 1 
664 1.21302 7.42171 -0.102828 -0.053582 7.42262 14.4863 26 1 
666 1.21303 7.4199 -0.103575 -0.0538423 7.42082 14.4978 26 1 
668 1.21303 7.41806 -0.104411 -0.0541623 7.41899 14.5067 26 1 
670 1.21304 7.41634 -0.105092 -0.0543452 7.41728 14.5176 26 1 
672 1.21305 7.41455 -0.105886 -0.0546315 7.41551 14.5315 26 1 
672 1.21305 7.41455 -0.105886 -0.0546315 7.41551 14.5315 27 1 
674 1.21305 7.41272 -0.106653 -0.0548599 7.41369 14.544 27 1 
676 1.21306 7.41132 -0.107281 -0.0550108 7.4123 14.5535 27 1 
678 1.21307 7.40942 -0.108035 -0.0552238 7.41041 14.5703 27 1 
680 1.21307 7.40803 -0.108692 -0.0553888 7.40903 14.5762 27 1 
682 1.21308 7.40641 -0.109268 -0.0554807 7.40743 14.5923 27 1 
684 1.21309 7.40511 -0.110015 -0.0556822 7.40614 14.605 27 1 
686 1.21309 7.40383 -0.110497 -0.0557277 7.40486 14.6182 27 1 
688 1.2131 7.40253 -0.111156 -0.0558585 7.40358 14.6324 27 1 
690 1.21311 7.40139 -0.111656 -0.0558894 7.40244 14.6432 27 1 
692 1.21311 7.40025 -0.11215 -0.0559235 7.40131 14.6555 27 1 
694 1.21312 7.39911 -0.112687 -0.0559798 7.40018 14.6711 27 1 
696 1.21313 7.3981 -0.113126 -0.0559832 7.39917 14.6857 27 1 
698 1.21314 7.39737 -0.113542 -0.0559957 7.39845 14.6957 27 1 
700 1.21315 7.3962 -0.114035 -0.0560194 7.3973 14.7149 27 1 
702 1.21315 7.39523 -0.114342 -0.0559446 7.39633 14.7273 27 1 
704 1.21316 7.39428 -0.114649 -0.0558594 7.39538 14.7364 27 1 
704 1.21316 7.39428 -0.114649 -0.0558594 7.39538 14.7364 31 1 
706 1.21317 7.39314 -0.115065 -0.0558757 7.39425 14.756 31 1 
708 1.21318 7.39224 -0.115302 -0.0557662 7.39335 14.7748 31 1 
710 1.21318 7.39131 -0.115732 -0.0557769 7.39243 14.7822 31 1 
712 1.21319 7.39018 -0.115938 -0.0557032 7.3913 14.7981 31 1 
714 1.2132 7.38886 -0.116363 -0.0556729 7.38998 14.8196 31 1 
716 1.21321 7.38777 -0.116481 -0.0555092 7.3889 14.8241 31 1 
718 1.21322 7.38639 -0.116815 -0.0555163 7.38753 14.841 31 1 
720 1.21323 7.38523 -0.117107 -0.0554966 7.38637 14.8601 31 1 
722 1.21323 7.38398 -0.117233 -0.0553572 7.38512 14.8735 31 1 
724 1.21324 7.38261 -0.117721 -0.0554514 7.38375 14.8821 31 1 
726 1.21325 7.38133 -0.117713 -0.0552163 7.38248 14.8984 31 1 
728 1.21326 7.37966 -0.118181 -0.0553017 7.38081 14.9203 31 1 
730 1.21326 7.37825 -0.118274 -0.0551816 7.3794 14.9215 31 1 
732 1.21327 7.37677 -0.118466 -0.0550925 7.37793 14.9364 31 1 
734 1.21328 7.37517 -0.118904 -0.0552158 7.37634 14.9607 31 1 
736 1.21329 7.37378 -0.118642 -0.0548489 7.37494 14.9689 31 1 
738 1.21329 7.37258 -0.11923 -0.0549675 7.37375 14.9726 31 1 
740 1.21331 7.37078 -0.118997 -0.0546905 7.37194 15.0014 31 1 
742 1.21331 7.36938 -0.119214 -0.0545973 7.37055 15.0112 31 1 
744 1.21331 7.3677 -0.119655 -0.0546886 7.36888 15.011 31 1 
746 1.21332 7.36646 -0.119312 -0.0543452 7.36763 15.0297 31 1 
748 1.21333 7.36499 -0.119621 -0.0542498 7.36616 15.053 31 1 
750 1.21333 7.36353 -0.119581 -0.0539869 7.3647 15.0521 31 1 
752 1.21333 7.3632 -0.119834 -0.0539893 7.36438 15.0481 31 1 
752 1.21333 7.3632 -0.119834 -0.0539893 7.36438 15.0481 31 1 
754 1.21336 7.36109 -0.119775 -0.0537307 7.36227 15.0952 31 1 
756 1.21335 7.36029 -0.11983 -0.0535116 7.36147 15.0839 31 1 
758 1.21334 7.35995 -0.120005 -0.0534835 7.36113 15.0683 31 1 
760 1.21337 7.35866 -0.119984 -0.0531193 7.35984 15.1139 31 1 
762 1.21337 7.35807 -0.120128 -0.0529619 7.35925 15.1169 31 1 
764 1.21335 7.35883 -0.120247 -0.0529312 7.36 15.0821 31 1 
766 1.21338 7.35721 -0.120123 -0.0525522 7.35838 15.1297 31 1 
768 1.21337 7.3582 -0.12028 -0.0522428 7.35938 15.1211 31 1 
770 1.21336 7.35892 -0.121189 -0.0527182 7.36011 15.1018 31 1 
772 1.21337 7.35909 -0.121211 -0.0524612 7.36028 15.114 31 1 
774 1.21336 7.3612 -0.121758 -0.0524929 7.3624 15.0995 31 1 
776 1.21335 7.36415 -0.122528 -0.0526049 7.36537 15.0801 31 1 
778 1.21334 7.36879 -0.122724 -0.0523253 7.37 15.0664 31 1 
780 1.21335 7.3716 -0.123007 -0.0522043 7.37282 15.0796 31 1 
782 1.2133 7.3773 -0.124409 -0.0528078 7.37854 15.0004 31 1 
784 1.21329 7.38096 -0.126905 -0.0541463 7.38225 14.9651 31 1 
786 1.21324 7.39148 -0.127583 -0.0541172 7.39279 14.8884 31 1 
788 1.21325 7.40051 -0.128288 -0.0539106 7.40182 14.896 31 1 
790 1.21319 7.41211 -0.129817 -0.0541594 7.41345 14.7888 31 1 
792 1.2131 7.42602 -0.132334 -0.0550297 7.42741 14.6262 31 1 
794 1.21307 7.44036 -0.133687 -0.0552223 7.44178 14.5698 31 1 
796 1.213 7.45911 -0.132145 -0.0530503 7.46048 14.4515 31 1 
798 1.21292 7.47502 -0.128356 -0.0483186 7.47629 14.302 31 1 
800 1.21284 7.48517 -0.12543 -0.045048 7.48637 14.1684 31 1 
