86.9422;r ;Density                 ;Velocity u              ;Velocity v              ;Velocity w              ;|Velocity|              ;Pressure                ;Distribution            ;Levels                  ;
0 1.2207 9.99971 -7.28089e-05 -1.06323e-05 9.99971 28.3591 1 1 
2 1.22072 9.99904 -8.6341e-05 -1.95483e-05 9.99904 28.4026 1 1 
4 1.22072 9.99909 -0.000201687 -0.000118306 9.99909 28.398 1 1 
6 1.22071 9.99986 -0.000272959 -0.000166638 9.99986 28.3783 1 1 
8 1.22072 10.0008 -0.000361554 -0.000233911 10.0008 28.3902 1 1 
10 1.22071 10.0016 -0.000447885 -0.000285223 10.0016 28.3722 1 1 
12 1.22071 10.0016 -0.000526336 -0.000351187 10.0016 28.3711 1 1 
14 1.2207 10.0029 -0.000627393 -0.000430274 10.0029 28.3549 1 1 
16 1.22071 10.0037 -0.000680108 -0.000465142 10.0037 28.3681 1 1 
18 1.2207 10.0036 -0.000758538 -0.000520771 10.0036 28.3566 1 1 
20 1.22068 10.0045 -0.000885678 -0.000619943 10.0045 28.3196 1 1 
22 1.2207 10.0051 -0.000965316 -0.000689246 10.0051 28.3519 1 1 
24 1.22069 10.0062 -0.00106997 -0.000775007 10.0062 28.3469 1 1 
26 1.22068 10.0067 -0.00116778 -0.000831297 10.0067 28.322 1 1 
28 1.22068 10.0067 -0.00127863 -0.000905882 10.0067 28.319 1 1 
30 1.22067 10.0074 -0.0013555 -0.000972612 10.0074 28.3064 1 1 
32 1.22067 10.0074 -0.00147481 -0.00106709 10.0074 28.3117 1 1 
32 1.22067 10.0074 -0.00147481 -0.00106709 10.0074 28.3117 1 1 
34 1.22066 10.0076 -0.00154295 -0.00111938 10.0076 28.2942 1 1 
36 1.22066 10.0073 -0.0016592 -0.00122367 10.0073 28.2859 1 1 
38 1.22065 10.0083 -0.00176225 -0.00132118 10.0083 28.2659 1 1 
40 1.22065 10.0089 -0.00185451 -0.00141336 10.0089 28.2736 1 1 
42 1.22065 10.0091 -0.00197649 -0.00150966 10.0091 28.276 1 1 
44 1.22064 10.0093 -0.00207397 -0.00156655 10.0093 28.252 1 1 
46 1.22064 10.009 -0.00221088 -0.0016786 10.009 28.2519 1 1 
48 1.22063 10.0098 -0.00235508 -0.0018121 10.0098 28.2315 1 1 
50 1.22063 10.0109 -0.00245685 -0.00186486 10.0109 28.2349 1 1 
52 1.22063 10.0107 -0.00257386 -0.00197378 10.0107 28.2307 1 1 
54 1.22062 10.0104 -0.00271236 -0.00208948 10.0104 28.2112 1 1 
56 1.22062 10.0117 -0.0028208 -0.00217151 10.0117 28.2114 1 1 
58 1.22062 10.0121 -0.00298042 -0.00233568 10.0121 28.2106 1 1 
60 1.22061 10.0125 -0.00309012 -0.0024352 10.0125 28.1877 1 1 
62 1.2206 10.0124 -0.00323362 -0.00255865 10.0124 28.1864 1 1 
64 1.2206 10.013 -0.00336448 -0.00265806 10.013 28.1824 1 1 
64 1.2206 10.013 -0.00336448 -0.00265806 10.013 28.1824 2 1 
66 1.22061 10.0138 -0.00351306 -0.00279859 10.0138 28.1897 2 1 
68 1.22059 10.015 -0.00368046 -0.00294729 10.015 28.1578 2 1 
70 1.22059 10.0148 -0.0038282 -0.003082 10.0148 28.1612 2 1 
72 1.22059 10.0147 -0.00396266 -0.00321796 10.0147 28.1605 2 1 
74 1.22058 10.0151 -0.00410717 -0.00334975 10.0151 28.1332 2 1 
76 1.22059 10.0151 -0.00424992 -0.0035071 10.0151 28.158 2 1 
78 1.22057 10.0168 -0.00438276 -0.00361397 10.0168 28.1219 2 1 
80 1.22057 10.0169 -0.0045585 -0.00377356 10.0169 28.1151 2 1 
82 1.22057 10.017 -0.00474847 -0.00397168 10.017 28.1153 2 1 
84 1.22056 10.0175 -0.00489311 -0.00406968 10.0175 28.1044 2 1 
86 1.22056 10.0174 -0.00503585 -0.00417805 10.0174 28.1037 2 1 
88 1.22054 10.018 -0.00524982 -0.00439014 10.018 28.0777 2 1 
90 1.22054 10.0185 -0.00539975 -0.00453973 10.0185 28.0696 2 1 
92 1.22053 10.0184 -0.00559492 -0.00471259 10.0184 28.0595 2 1 
94 1.22053 10.0183 -0.00578819 -0.00488982 10.0183 28.0531 2 1 
96 1.22053 10.0189 -0.00595744 -0.00504713 10.0189 28.0445 2 1 
96 1.22053 10.0189 -0.00595744 -0.00504713 10.0189 28.0445 2 1 
98 1.22052 10.0199 -0.00619594 -0.00525624 10.0199 28.0251 2 1 
100 1.22051 10.0206 -0.00635009 -0.00539878 10.0206 28.0125 2 1 
102 1.2205 10.0207 -0.00651181 -0.00557837 10.0207 27.9913 2 1 
104 1.2205 10.0202 -0.00674383 -0.00580139 10.0202 27.9982 2 1 
106 1.22049 10.0205 -0.00689661 -0.00593117 10.0205 27.982 2 1 
108 1.22049 10.0202 -0.00709446 -0.00611619 10.0202 27.9734 2 1 
110 1.22047 10.0205 -0.00725572 -0.00626776 10.0205 27.9453 2 1 
112 1.22046 10.0215 -0.00743897 -0.00643612 10.0215 27.9177 2 1 
114 1.22047 10.0206 -0.00762166 -0.0065967 10.0207 27.9367 2 1 
116 1.22045 10.0219 -0.00778469 -0.00674556 10.0219 27.9141 2 1 
118 1.22045 10.0229 -0.00793959 -0.00688448 10.0229 27.9066 2 1 
120 1.22045 10.0224 -0.00810291 -0.00701999 10.0224 27.9105 2 1 
122 1.22042 10.0228 -0.00827662 -0.00718912 10.0228 27.8592 2 1 
124 1.22042 10.0221 -0.00840375 -0.00732194 10.0221 27.846 2 1 
126 1.22044 10.0212 -0.00858583 -0.00748379 10.0212 27.8842 2 1 
128 1.22041 10.0226 -0.0087149 -0.00758182 10.0226 27.8263 2 1 
128 1.22041 10.0226 -0.0087149 -0.00758182 10.0226 27.8263 10 1 
130 1.22041 10.0229 -0.00889315 -0.00777167 10.0229 27.8264 10 1 
132 1.22041 10.0239 -0.00901502 -0.00786952 10.024 27.8274 10 1 
134 1.22039 10.0243 -0.00915409 -0.00797576 10.0244 27.7968 10 1 
136 1.22039 10.0231 -0.00931028 -0.00812167 10.0231 27.8024 10 1 
138 1.22037 10.0229 -0.00944153 -0.00824485 10.0229 27.7637 10 1 
140 1.22037 10.0235 -0.00956814 -0.00836368 10.0235 27.7638 10 1 
142 1.22036 10.0243 -0.00969488 -0.00842921 10.0243 27.7485 10 1 
144 1.22035 10.0245 -0.00984668 -0.00859592 10.0245 27.7332 10 1 
146 1.22036 10.025 -0.00996524 -0.00869845 10.0251 27.7439 10 1 
148 1.22035 10.0242 -0.0101043 -0.00879582 10.0242 27.7213 10 1 
150 1.22032 10.0238 -0.010228 -0.00892472 10.0238 27.673 10 1 
152 1.22032 10.0242 -0.0103598 -0.00904006 10.0242 27.6757 10 1 
154 1.22032 10.0243 -0.010438 -0.00908308 10.0243 27.6792 10 1 
156 1.22031 10.025 -0.0105804 -0.00920642 10.025 27.6484 10 1 
158 1.22031 10.025 -0.0106981 -0.00931305 10.025 27.645 10 1 
160 1.2203 10.0238 -0.0107837 -0.00939093 10.0238 27.6371 10 1 
160 1.2203 10.0238 -0.0107837 -0.00939093 10.0238 27.6371 10 1 
162 1.22027 10.0242 -0.0109296 -0.00953388 10.0243 27.5809 10 1 
164 1.22027 10.024 -0.0110528 -0.00960099 10.024 27.5751 10 1 
166 1.22029 10.0224 -0.011209 -0.0097349 10.0224 27.6199 10 1 
168 1.22025 10.0243 -0.0113628 -0.00987864 10.0243 27.5413 10 1 
170 1.22025 10.0235 -0.0114751 -0.0099651 10.0235 27.5423 10 1 
172 1.22025 10.0233 -0.0115822 -0.0100366 10.0233 27.5388 10 1 
174 1.22021 10.0251 -0.0116795 -0.0101259 10.0251 27.4775 10 1 
176 1.22024 10.0233 -0.0118453 -0.010219 10.0233 27.5325 10 1 
178 1.22022 10.0232 -0.0119334 -0.0102954 10.0232 27.4875 10 1 
180 1.2202 10.0224 -0.01207 -0.0104471 10.0224 27.4589 10 1 
182 1.22019 10.0204 -0.0122379 -0.0105813 10.0204 27.4404 10 1 
184 1.22016 10.0199 -0.0123869 -0.0107045 10.0199 27.3849 10 1 
186 1.22019 10.0212 -0.0125185 -0.0107899 10.0212 27.4348 10 1 
188 1.22019 10.0219 -0.0126246 -0.0108463 10.0219 27.4337 10 1 
190 1.22016 10.0214 -0.0127999 -0.0109711 10.0214 27.3778 10 1 
192 1.22014 10.0215 -0.0128098 -0.010969 10.0215 27.3464 10 1 
194 1.22014 10.0189 -0.0130488 -0.0111824 10.019 27.349 10 1 
196 1.22013 10.0167 -0.0132691 -0.0113589 10.0168 27.3358 10 1 
198 1.22012 10.0172 -0.013295 -0.0113147 10.0173 27.3103 10 1 
200 1.22014 10.0165 -0.0135413 -0.0115384 10.0165 27.3405 10 1 
202 1.22012 10.0163 -0.0135956 -0.0116219 10.0164 27.3024 10 1 
204 1.22006 10.0172 -0.0136564 -0.0116144 10.0172 27.209 10 1 
206 1.2201 10.0144 -0.0139434 -0.011848 10.0144 27.2829 10 1 
208 1.22012 10.014 -0.0141475 -0.0119697 10.014 27.3111 10 1 
210 1.22006 10.0162 -0.0142398 -0.0120034 10.0162 27.206 10 1 
212 1.22011 10.0111 -0.0143832 -0.0121527 10.0112 27.2853 10 1 
214 1.22007 10.0076 -0.014481 -0.0122127 10.0076 27.2186 10 1 
216 1.22003 10.0052 -0.0146976 -0.0123624 10.0053 27.1401 10 1 
218 1.22008 10.0006 -0.0149886 -0.0125853 10.0006 27.2317 10 1 
220 1.22006 10.0048 -0.0151096 -0.0127063 10.0048 27.2001 10 1 
222 1.22008 10.0065 -0.0152077 -0.0127638 10.0066 27.2295 10 1 
224 1.22006 10.0026 -0.015333 -0.0127533 10.0026 27.2103 10 1 
224 1.22006 10.0026 -0.015333 -0.0127533 10.0026 27.2103 10 1 
226 1.22007 9.99993 -0.015514 -0.0128833 9.99995 27.2142 10 1 
228 1.22007 9.99273 -0.0157074 -0.0130743 9.99275 27.2261 10 1 
230 1.22005 9.98641 -0.0159495 -0.0132987 9.98643 27.1859 10 1 
232 1.22004 9.98756 -0.016119 -0.0134182 9.98758 27.174 10 1 
234 1.22007 9.98645 -0.0162396 -0.0134165 9.98647 27.2248 10 1 
236 1.22014 9.97997 -0.0164054 -0.0135537 9.98 27.3486 10 1 
238 1.22006 9.97931 -0.0165554 -0.0136843 9.97934 27.2053 10 1 
240 1.22014 9.9703 -0.0168993 -0.0139731 9.97032 27.3482 10 1 
242 1.22015 9.96353 -0.0170817 -0.0140965 9.96356 27.3685 10 1 
244 1.22007 9.96395 -0.017152 -0.0141226 9.96397 27.2183 10 1 
246 1.22023 9.95471 -0.0173625 -0.0142815 9.95473 27.5164 10 1 
248 1.22024 9.948 -0.0174597 -0.0142999 9.94802 27.5323 10 1 
250 1.22022 9.93902 -0.017682 -0.014467 9.93905 27.4989 10 1 
252 1.22026 9.93021 -0.0180103 -0.0147453 9.93024 27.5643 10 1 
254 1.22034 9.92109 -0.0180756 -0.014753 9.92112 27.7068 10 1 
256 1.22039 9.91124 -0.0182248 -0.0148708 9.91126 27.7909 10 1 
256 1.22039 9.91124 -0.0182248 -0.0148708 9.91126 27.7909 11 1 
258 1.22042 9.89868 -0.0184503 -0.0150558 9.89871 27.8548 11 1 
260 1.22056 9.88501 -0.0186207 -0.0151691 9.88504 28.1098 11 1 
262 1.22064 9.86901 -0.0189064 -0.0153849 9.86904 28.2455 11 1 
264 1.22061 9.85229 -0.0190075 -0.0154127 9.85232 28.1974 11 1 
266 1.22076 9.83676 -0.01913 -0.015511 9.83679 28.4706 11 1 
268 1.2211 9.80662 -0.0193543 -0.0157047 9.80666 29.084 11 1 
270 1.22101 9.78633 -0.0195899 -0.0158505 9.78637 28.9267 11 1 
272 1.22116 9.75626 -0.0196653 -0.0158484 9.7563 29.1914 11 1 
274 1.22161 9.71409 -0.0198299 -0.0159934 9.71413 30.0013 11 1 
276 1.22159 9.68673 -0.0200234 -0.0161152 9.68677 29.9573 11 1 
278 1.22186 9.64435 -0.0202126 -0.0162415 9.64439 30.4579 11 1 
280 1.22241 9.6002 -0.0203709 -0.0163385 9.60025 31.4521 11 1 
282 1.22277 9.54087 -0.0204338 -0.0163523 9.54099 32.093 11 1 
284 1.22302 9.45235 -0.0204669 -0.0163968 9.45254 32.5401 11 1 
286 1.22335 9.36217 -0.0205631 -0.0164365 9.3623 33.1429 11 1 
288 1.22401 9.27748 -0.0207303 -0.0165455 9.27753 34.335 11 1 
288 1.22401 9.27748 -0.0207303 -0.0165455 9.27753 34.335 11 1 
290 1.2248 9.20383 -0.0208405 -0.0166022 9.20388 35.7599 11 1 
292 1.22545 9.10491 -0.0210413 -0.0167501 9.10505 36.9307 11 1 
294 1.22597 8.96843 -0.0210665 -0.0167699 8.96872 37.8762 11 1 
296 1.22671 8.8281 -0.0209624 -0.0166354 8.82833 39.2144 11 1 
298 1.22231 8.65721 -0.0209698 -0.0166278 8.65733 31.2699 11 1 
300 1.21482 8.58734 -0.0208947 -0.0165377 8.58748 17.7343 11 1 
302 1.21246 8.55971 -0.0210983 -0.0166494 8.5598 13.473 11 1 
304 1.21306 8.44421 -0.0212213 -0.0166989 8.44436 14.5672 11 1 
306 1.21381 8.31416 -0.021212 -0.0166451 8.31438 15.9141 11 1 
308 1.21435 8.19495 -0.0212093 -0.0166039 8.19518 16.892 11 1 
310 1.21469 8.10614 -0.0211801 -0.016522 8.10632 17.507 11 1 
312 1.21515 8.01046 -0.0213359 -0.0166196 8.01053 18.3394 11 1 
314 1.21559 7.94016 -0.0216224 -0.0167968 7.94023 19.1365 11 1 
316 1.21593 7.88865 -0.0217872 -0.01687 7.8887 19.7376 11 1 
318 1.21623 7.82072 -0.0218555 -0.0168883 7.82078 20.2816 11 1 
320 1.21647 7.77814 -0.0218994 -0.0168678 7.7782 20.72 11 1 
320 1.21647 7.77814 -0.0218994 -0.0168678 7.7782 20.72 15 1 
322 1.21671 7.74925 -0.0221211 -0.0170057 7.7493 21.1468 15 1 
324 1.21694 7.70388 -0.0223143 -0.0171207 7.70393 21.5675 15 1 
326 1.21711 7.67088 -0.0222867 -0.01704 7.67094 21.8676 15 1 
328 1.21724 7.64205 -0.0222918 -0.0169862 7.64211 22.1105 15 1 
330 1.21732 7.60946 -0.0224701 -0.0170771 7.60953 22.2524 15 1 
332 1.21747 7.58952 -0.0226185 -0.0171543 7.58959 22.5207 15 1 
334 1.21763 7.56153 -0.0226789 -0.0171624 7.56159 22.8106 15 1 
336 1.21758 7.5276 -0.0228036 -0.0171928 7.52766 22.7305 15 1 
338 1.2176 7.50974 -0.0230117 -0.0172984 7.50981 22.7661 15 1 
340 1.21779 7.49516 -0.0233015 -0.0175009 7.49522 23.0933 15 1 
342 1.21785 7.47902 -0.0234729 -0.0175867 7.47908 23.2043 15 1 
344 1.21781 7.4586 -0.0236165 -0.0176164 7.45866 23.1344 15 1 
346 1.21779 7.43596 -0.02389 -0.0177913 7.43602 23.0953 15 1 
348 1.21788 7.43392 -0.0242922 -0.0180937 7.43398 23.2653 15 1 
350 1.21799 7.43497 -0.0245844 -0.0182601 7.43503 23.4682 15 1 
352 1.21793 7.41855 -0.0247814 -0.0183192 7.41862 23.3611 15 1 
354 1.21791 7.40958 -0.0250183 -0.0184553 7.40964 23.3118 15 1 
356 1.21798 7.41031 -0.0253853 -0.0187201 7.41038 23.4408 15 1 
358 1.21799 7.4096 -0.0257046 -0.0188927 7.40967 23.4693 15 1 
360 1.21801 7.41187 -0.0258913 -0.0189458 7.41195 23.4994 15 1 
362 1.21802 7.41083 -0.0260696 -0.0190379 7.4109 23.5138 15 1 
364 1.218 7.40825 -0.0263439 -0.019204 7.40833 23.4878 15 1 
366 1.21801 7.41028 -0.0266409 -0.0193573 7.41036 23.4944 15 1 
368 1.21801 7.41296 -0.0268426 -0.0194522 7.41303 23.5022 15 1 
370 1.21804 7.41785 -0.0269288 -0.0194669 7.41793 23.5492 15 1 
372 1.21803 7.41919 -0.027094 -0.0195235 7.41926 23.5391 15 1 
374 1.21799 7.41591 -0.0273501 -0.0196615 7.41598 23.4711 15 1 
376 1.218 7.41785 -0.0275249 -0.0197386 7.41793 23.4823 15 1 
378 1.218 7.42019 -0.0276351 -0.0197437 7.42027 23.4754 15 1 
380 1.21799 7.42149 -0.027786 -0.0197787 7.42157 23.472 15 1 
382 1.218 7.42311 -0.0279762 -0.019861 7.42319 23.4769 15 1 
384 1.21796 7.41829 -0.0281694 -0.0199447 7.41837 23.4029 15 1 
384 1.21796 7.41829 -0.0281694 -0.0199447 7.41837 23.4029 16 1 
386 1.21794 7.41505 -0.0283186 -0.019996 7.41513 23.3769 16 1 
388 1.21795 7.41731 -0.0284751 -0.0200546 7.41739 23.3841 16 1 
390 1.21793 7.41569 -0.0287 -0.0201472 7.41578 23.3527 16 1 
392 1.21792 7.41156 -0.0288795 -0.0202261 7.41164 23.3305 16 1 
394 1.21789 7.40633 -0.0290555 -0.020331 7.40642 23.2736 16 1 
396 1.21785 7.40007 -0.0292724 -0.020435 7.40015 23.21 16 1 
398 1.21784 7.39709 -0.0294649 -0.0204976 7.39718 23.189 16 1 
400 1.21783 7.39381 -0.0296192 -0.0205674 7.3939 23.1737 16 1 
402 1.21781 7.38671 -0.0298479 -0.0206964 7.38681 23.1326 16 1 
404 1.21776 7.37826 -0.0300942 -0.0208051 7.37835 23.0406 16 1 
406 1.21773 7.37087 -0.03026 -0.0208633 7.37097 22.9876 16 1 
408 1.21773 7.36613 -0.030432 -0.0209326 7.36622 22.9891 16 1 
410 1.2177 7.36001 -0.0306956 -0.0210808 7.3601 22.9313 16 1 
412 1.21766 7.35118 -0.0309546 -0.0212343 7.35128 22.8587 16 1 
414 1.21763 7.3437 -0.0311563 -0.0213197 7.3438 22.82 16 1 
416 1.21761 7.33634 -0.0313776 -0.0214229 7.33644 22.774 16 1 
416 1.21761 7.33634 -0.0313776 -0.0214229 7.33644 22.774 16 1 
418 1.21758 7.32876 -0.0316443 -0.0215941 7.32886 22.7204 16 1 
420 1.21755 7.32238 -0.0319169 -0.0217585 7.32248 22.6657 16 1 
422 1.21753 7.31505 -0.0321947 -0.021897 7.31516 22.6289 16 1 
424 1.2175 7.30707 -0.0324615 -0.0220418 7.30718 22.5831 16 1 
426 1.21746 7.29888 -0.032751 -0.0222216 7.29899 22.5007 16 1 
428 1.21742 7.29061 -0.0330664 -0.0223918 7.29072 22.4404 16 1 
430 1.21741 7.28459 -0.0333927 -0.0225515 7.2847 22.4085 16 1 
432 1.21738 7.27824 -0.0337226 -0.0227276 7.27836 22.3581 16 1 
434 1.21734 7.26921 -0.0340565 -0.02291 7.26932 22.2813 16 1 
436 1.21729 7.26084 -0.0343931 -0.0230855 7.26096 22.2076 16 1 
438 1.21727 7.25443 -0.0347264 -0.0232593 7.25455 22.1591 16 1 
440 1.21724 7.24868 -0.0350576 -0.0234116 7.2488 22.1059 16 1 
442 1.2172 7.24229 -0.0354118 -0.0235869 7.24242 22.0418 16 1 
444 1.21717 7.23495 -0.0357477 -0.0237811 7.23507 21.9797 16 1 
446 1.21713 7.22832 -0.0360732 -0.0239448 7.22845 21.9055 16 1 
448 1.21709 7.22294 -0.0364291 -0.0241034 7.22307 21.8405 16 1 
448 1.21709 7.22294 -0.0364291 -0.0241034 7.22307 21.8405 17 1 
450 1.21707 7.21797 -0.0367588 -0.0242641 7.2181 21.7925 17 1 
452 1.21703 7.21324 -0.0370664 -0.0244307 7.21337 21.7293 17 1 
454 1.21699 7.2079 -0.0374232 -0.0246266 7.20804 21.6596 17 1 
456 1.21695 7.20232 -0.0377875 -0.0248061 7.20246 21.5891 17 1 
458 1.21691 7.19796 -0.0380952 -0.0249544 7.1981 21.5202 17 1 
460 1.21688 7.19437 -0.0384413 -0.0251466 7.19452 21.4625 17 1 
462 1.21685 7.19095 -0.0388333 -0.0253625 7.1911 21.4031 17 1 
464 1.21681 7.18681 -0.0391968 -0.0255561 7.18697 21.3315 17 1 
466 1.21676 7.18211 -0.0395212 -0.025719 7.18226 21.2492 17 1 
468 1.21673 7.17888 -0.0398662 -0.0258934 7.17904 21.1802 17 1 
470 1.21669 7.17655 -0.0402164 -0.0260779 7.17671 21.1212 17 1 
472 1.21665 7.17364 -0.0405695 -0.0262472 7.1738 21.051 17 1 
474 1.21662 7.17069 -0.0409243 -0.0264218 7.17086 20.9798 17 1 
476 1.21657 7.16767 -0.0412546 -0.0265948 7.16783 20.9024 17 1 
478 1.21653 7.16511 -0.0415696 -0.0267221 7.16528 20.8225 17 1 
480 1.2165 7.16382 -0.0419217 -0.0268737 7.164 20.763 17 1 
480 1.2165 7.16382 -0.0419217 -0.0268737 7.164 20.763 17 1 
482 1.21646 7.16254 -0.0422681 -0.0270515 7.16272 20.7008 17 1 
484 1.21642 7.1608 -0.0425684 -0.0271892 7.16098 20.6206 17 1 
486 1.21637 7.15917 -0.0429048 -0.0273145 7.15935 20.5437 17 1 
488 1.21633 7.15795 -0.0432556 -0.0274536 7.15813 20.4729 17 1 
490 1.2163 7.15777 -0.0435395 -0.0275763 7.15795 20.4052 17 1 
492 1.21626 7.15787 -0.0438505 -0.0277044 7.15806 20.3369 17 1 
494 1.21622 7.15743 -0.0442201 -0.027842 7.15762 20.2642 17 1 
496 1.21618 7.15693 -0.0445432 -0.0279729 7.15712 20.1908 17 1 
498 1.21613 7.15696 -0.04481 -0.0280807 7.15715 20.1121 17 1 
500 1.2161 7.1578 -0.0451411 -0.0281915 7.158 20.0414 17 1 
502 1.21606 7.15897 -0.045501 -0.0283363 7.15917 19.9799 17 1 
504 1.21602 7.15937 -0.0458218 -0.028484 7.15957 19.904 17 1 
506 1.21597 7.15964 -0.0461193 -0.0285858 7.15985 19.8205 17 1 
508 1.21593 7.16084 -0.0464292 -0.0286802 7.16105 19.7469 17 1 
510 1.21589 7.16212 -0.0467543 -0.0288127 7.16233 19.6775 17 1 
512 1.21585 7.16329 -0.047082 -0.0289554 7.1635 19.6037 17 1 
512 1.21585 7.16329 -0.047082 -0.0289554 7.1635 19.6037 25 1 
514 1.21581 7.16443 -0.0474084 -0.0290733 7.16465 19.5263 25 1 
516 1.21577 7.1654 -0.0477233 -0.0291926 7.16562 19.4477 25 1 
518 1.21572 7.16648 -0.0480106 -0.0293055 7.1667 19.3709 25 1 
520 1.21568 7.16779 -0.0483487 -0.0294346 7.16801 19.2952 25 1 
522 1.21564 7.16929 -0.0486903 -0.0295654 7.16952 19.2224 25 1 
524 1.2156 7.17056 -0.0490002 -0.0296974 7.17078 19.1452 25 1 
526 1.21555 7.17141 -0.0493271 -0.0298136 7.17164 19.0612 25 1 
528 1.21551 7.17245 -0.0496625 -0.0299136 7.17269 18.9821 25 1 
530 1.21547 7.17379 -0.0499843 -0.0300413 7.17403 18.9069 25 1 
532 1.21542 7.17507 -0.0503337 -0.0301802 7.17531 18.8282 25 1 
534 1.21538 7.17627 -0.0506747 -0.0302823 7.17651 18.749 25 1 
536 1.21534 7.17728 -0.0510065 -0.0303959 7.17752 18.6721 25 1 
538 1.21529 7.17833 -0.0513642 -0.0305295 7.17858 18.5914 25 1 
540 1.21525 7.17949 -0.0516923 -0.0306271 7.17975 18.5095 25 1 
542 1.21521 7.18066 -0.0520558 -0.0307409 7.18092 18.4356 25 1 
544 1.21517 7.18207 -0.052399 -0.0308526 7.18233 18.3629 25 1 
544 1.21517 7.18207 -0.052399 -0.0308526 7.18233 18.3629 25 1 
546 1.21512 7.18314 -0.0527624 -0.0309677 7.1834 18.2834 25 1 
548 1.21508 7.184 -0.0531218 -0.0310654 7.18426 18.2006 25 1 
550 1.21503 7.18516 -0.0534581 -0.0311368 7.18542 18.1233 25 1 
552 1.21499 7.1864 -0.0538144 -0.0312189 7.18667 18.0479 25 1 
554 1.21495 7.18775 -0.0541634 -0.031303 7.18802 17.9735 25 1 
556 1.21491 7.18907 -0.0545371 -0.031377 7.18935 17.9032 25 1 
558 1.21487 7.19011 -0.0548588 -0.0314081 7.19038 17.8248 25 1 
560 1.21482 7.1912 -0.0552199 -0.0314645 7.19148 17.7452 25 1 
562 1.21478 7.19277 -0.0555814 -0.0315124 7.19305 17.6731 25 1 
564 1.21474 7.1942 -0.055938 -0.031557 7.19449 17.6003 25 1 
566 1.2147 7.1956 -0.0563065 -0.0316031 7.19589 17.5245 25 1 
568 1.21466 7.19688 -0.0566745 -0.031638 7.19718 17.4507 25 1 
570 1.21462 7.19815 -0.0570874 -0.0316986 7.19844 17.3752 25 1 
572 1.21458 7.19987 -0.0574921 -0.0317657 7.20017 17.3012 25 1 
574 1.21454 7.20152 -0.0579084 -0.0318363 7.20183 17.2287 25 1 
576 1.2145 7.20315 -0.0583237 -0.0319002 7.20346 17.1533 25 1 
576 1.2145 7.20315 -0.0583237 -0.0319002 7.20346 17.1533 26 1 
578 1.21446 7.20473 -0.058773 -0.0319821 7.20504 17.08 26 1 
580 1.21441 7.20631 -0.0592008 -0.0320606 7.20663 17.0035 26 1 
582 1.21437 7.20831 -0.0596702 -0.0321674 7.20863 16.9319 26 1 
584 1.21433 7.21031 -0.0601453 -0.0322726 7.21063 16.8614 26 1 
586 1.21429 7.2121 -0.0606321 -0.032405 7.21243 16.7805 26 1 
588 1.21425 7.21382 -0.0611693 -0.0325573 7.21415 16.7048 26 1 
590 1.21421 7.21566 -0.061654 -0.032684 7.216 16.631 26 1 
592 1.21417 7.21764 -0.0622083 -0.0328536 7.21798 16.5577 26 1 
594 1.21413 7.21986 -0.0627561 -0.0330237 7.22021 16.4884 26 1 
596 1.21409 7.22187 -0.0633169 -0.0331959 7.22222 16.4143 26 1 
598 1.21404 7.22369 -0.0638926 -0.0333862 7.22405 16.331 26 1 
600 1.214 7.22572 -0.0644517 -0.033563 7.22608 16.2554 26 1 
602 1.21396 7.22809 -0.0650691 -0.0337603 7.22846 16.1847 26 1 
604 1.21392 7.23051 -0.0656947 -0.0340031 7.23089 16.111 26 1 
606 1.21388 7.23268 -0.0663528 -0.034252 7.23307 16.0353 26 1 
608 1.21384 7.23484 -0.0669837 -0.0344773 7.23523 15.9589 26 1 
608 1.21384 7.23484 -0.0669837 -0.0344773 7.23523 15.9589 26 1 
610 1.21379 7.23706 -0.0675747 -0.0346629 7.23746 15.8831 26 1 
612 1.21375 7.23918 -0.0681566 -0.034847 7.23959 15.8044 26 1 
614 1.21371 7.24133 -0.0687284 -0.0350162 7.24174 15.7319 26 1 
616 1.21367 7.24361 -0.0693485 -0.0352152 7.24403 15.6613 26 1 
618 1.21363 7.24551 -0.0699303 -0.0353957 7.24593 15.5869 26 1 
620 1.21359 7.24736 -0.0704658 -0.0355185 7.24779 15.5076 26 1 
622 1.21354 7.2493 -0.0709841 -0.0356226 7.24973 15.4307 26 1 
624 1.2135 7.25136 -0.07158 -0.0357999 7.25181 15.3572 26 1 
626 1.21346 7.25318 -0.0722556 -0.0360555 7.25363 15.2852 26 1 
628 1.21342 7.25499 -0.0730152 -0.0363792 7.25545 15.2104 26 1 
630 1.21338 7.25681 -0.073783 -0.0367167 7.25727 15.1397 26 1 
632 1.21334 7.25871 -0.0745188 -0.0370246 7.25919 15.0682 26 1 
634 1.2133 7.26059 -0.0751747 -0.0372495 7.26107 14.9926 26 1 
636 1.21326 7.26233 -0.0757902 -0.0374256 7.26282 14.9186 26 1 
638 1.21322 7.26409 -0.0763756 -0.0375883 7.26459 14.8467 26 1 
640 1.21318 7.26567 -0.0769824 -0.0377777 7.26618 14.7795 26 1 
642 1.21314 7.26753 -0.0776516 -0.0380166 7.26805 14.71 26 1 
644 1.21311 7.26901 -0.0783246 -0.0382757 7.26953 14.642 26 1 
646 1.21307 7.27025 -0.079025 -0.0385621 7.27078 14.5691 26 1 
648 1.21302 7.2716 -0.0797155 -0.0388341 7.27214 14.4923 26 1 
650 1.21299 7.27258 -0.0803811 -0.0390927 7.27313 14.429 26 1 
652 1.21295 7.27381 -0.0810905 -0.039375 7.27437 14.3622 26 1 
654 1.21292 7.27465 -0.0817658 -0.0396413 7.27522 14.2969 26 1 
656 1.21288 7.27533 -0.0824339 -0.0399128 7.27591 14.2317 26 1 
658 1.21284 7.27609 -0.0831235 -0.0401826 7.27667 14.1574 26 1 
660 1.2128 7.27622 -0.0837418 -0.0404038 7.27682 14.0911 26 1 
662 1.21276 7.27672 -0.0844263 -0.040669 7.27732 14.0216 26 1 
664 1.21273 7.277 -0.08504 -0.0408826 7.27761 13.9626 26 1 
666 1.2127 7.27716 -0.0856429 -0.0410973 7.27778 13.9029 26 1 
668 1.21266 7.27716 -0.0863044 -0.0413401 7.27779 13.8348 26 1 
670 1.21262 7.27711 -0.0868022 -0.0414729 7.27774 13.7682 26 1 
672 1.21259 7.27685 -0.0874182 -0.0416739 7.2775 13.7054 26 1 
672 1.21259 7.27685 -0.0874182 -0.0416739 7.2775 13.7054 27 1 
674 1.21255 7.2766 -0.0879775 -0.0418172 7.27725 13.644 27 1 
676 1.21252 7.27655 -0.0884418 -0.0419135 7.27721 13.5835 27 1 
678 1.21249 7.27601 -0.0890084 -0.0420521 7.27668 13.5283 27 1 
680 1.21245 7.27575 -0.0894552 -0.0421375 7.27642 13.4589 27 1 
682 1.21242 7.27507 -0.0898535 -0.0421835 7.27575 13.3979 27 1 
684 1.21238 7.27474 -0.0903415 -0.0422836 7.27543 13.3358 27 1 
686 1.21235 7.27422 -0.0906588 -0.0422773 7.2749 13.2797 27 1 
688 1.21232 7.27374 -0.0910927 -0.0423261 7.27443 13.2258 27 1 
690 1.21229 7.27316 -0.0914094 -0.0423114 7.27385 13.1671 27 1 
692 1.21226 7.2725 -0.091737 -0.0422992 7.2732 13.1058 27 1 
694 1.21222 7.27173 -0.0920946 -0.0423079 7.27244 13.048 27 1 
696 1.21219 7.27102 -0.0923673 -0.0422683 7.27173 12.9918 27 1 
698 1.21216 7.27061 -0.0926029 -0.0422323 7.27133 12.9335 27 1 
700 1.21213 7.26965 -0.0929296 -0.042216 7.27036 12.8864 27 1 
702 1.2121 7.26888 -0.0930708 -0.0421054 7.2696 12.8298 27 1 
704 1.21207 7.26792 -0.093271 -0.0420245 7.26864 12.7697 27 1 
704 1.21207 7.26792 -0.093271 -0.0420245 7.26864 12.7697 31 1 
706 1.21204 7.26684 -0.0935389 -0.0420169 7.26757 12.7189 31 1 
708 1.21201 7.26592 -0.0936906 -0.0419122 7.26664 12.6692 31 1 
710 1.21198 7.26497 -0.0939269 -0.0418758 7.26569 12.6132 31 1 
712 1.21196 7.26379 -0.0940157 -0.0418157 7.26452 12.5645 31 1 
714 1.21193 7.26221 -0.0942507 -0.0417335 7.26294 12.518 31 1 
716 1.21189 7.26091 -0.0942388 -0.041573 7.26164 12.4518 31 1 
718 1.21187 7.25912 -0.0943926 -0.0415258 7.25986 12.4041 31 1 
720 1.21184 7.25766 -0.0945145 -0.0414549 7.2584 12.3611 31 1 
722 1.21182 7.25598 -0.0945371 -0.0413188 7.25672 12.3131 31 1 
724 1.21179 7.25415 -0.0947693 -0.041293 7.25488 12.2592 31 1 
726 1.21176 7.25234 -0.0946885 -0.0411159 7.25307 12.2111 31 1 
728 1.21174 7.24986 -0.094882 -0.0410591 7.2506 12.1704 31 1 
730 1.2117 7.24801 -0.0947904 -0.0409143 7.24875 12.1047 31 1 
732 1.21168 7.2458 -0.09482 -0.0408031 7.24653 12.0655 31 1 
734 1.21166 7.24326 -0.0950276 -0.0408099 7.24399 12.0343 31 1 
736 1.21163 7.24131 -0.0947563 -0.0405573 7.24204 11.974 31 1 
738 1.2116 7.23926 -0.0951683 -0.0405916 7.24001 11.924 31 1 
740 1.21159 7.23661 -0.0949101 -0.0403883 7.23735 11.8945 31 1 
742 1.21155 7.23488 -0.094976 -0.0402728 7.23562 11.8357 31 1 
744 1.21153 7.23247 -0.0952759 -0.0403595 7.23321 11.7888 31 1 
746 1.21151 7.23065 -0.094872 -0.0400817 7.23138 11.7565 31 1 
748 1.21149 7.22879 -0.0950109 -0.0399273 7.22952 11.7145 31 1 
750 1.21146 7.22685 -0.095003 -0.0398387 7.22759 11.6595 31 1 
752 1.21143 7.22624 -0.0951597 -0.03985 7.22698 11.6081 31 1 
752 1.21143 7.22624 -0.0951597 -0.03985 7.22698 11.6081 31 1 
754 1.21142 7.22395 -0.0951338 -0.0396889 7.22469 11.5964 31 1 
756 1.21138 7.22332 -0.0952141 -0.0396032 7.22406 11.5258 31 1 
758 1.21135 7.22288 -0.0953432 -0.0396333 7.22362 11.4694 31 1 
760 1.21134 7.2219 -0.0951596 -0.0392566 7.22263 11.4603 31 1 
762 1.21131 7.22183 -0.0952268 -0.0391883 7.22257 11.4039 31 1 
764 1.21127 7.22295 -0.0953733 -0.0392919 7.22368 11.3279 31 1 
766 1.21127 7.22195 -0.0951 -0.0388997 7.22268 11.3263 31 1 
768 1.21124 7.22353 -0.0950204 -0.0386106 7.22427 11.2622 31 1 
770 1.2112 7.22493 -0.0958527 -0.0390981 7.22567 11.1919 31 1 
772 1.21118 7.22588 -0.0958315 -0.0388958 7.22663 11.1596 31 1 
774 1.21114 7.2287 -0.0959434 -0.0387115 7.22945 11.0973 31 1 
776 1.2111 7.2325 -0.0961919 -0.038616 7.23325 11.0225 31 1 
778 1.21107 7.2376 -0.096035 -0.0381627 7.23834 10.9691 31 1 
780 1.21105 7.24127 -0.0958408 -0.0378039 7.242 10.9314 31 1 
782 1.21098 7.24742 -0.0964479 -0.0380166 7.24816 10.8055 31 1 
784 1.21094 7.25118 -0.0979815 -0.0386935 7.25195 10.7253 31 1 
786 1.21087 7.2625 -0.0980428 -0.0383372 7.26327 10.5959 31 1 
788 1.21086 7.2705 -0.0978306 -0.0376421 7.27126 10.5776 31 1 
790 1.21076 7.28246 -0.0984236 -0.0371494 7.28322 10.4036 31 1 
792 1.21065 7.29607 -0.0997387 -0.0373546 7.29685 10.203 31 1 
794 1.21061 7.30875 -0.0997027 -0.0369735 7.30953 10.1298 31 1 
796 1.21051 7.32695 -0.0973285 -0.0347485 7.32768 9.9476 31 1 
798 1.21043 7.33792 -0.0924249 -0.0302927 7.33857 9.80783 31 1 
800 1.21038 7.34391 -0.0887539 -0.0272095 7.3445 9.71214 31 1 
