111.395;r ;Density                 ;Velocity u              ;Velocity v              ;Velocity w              ;|Velocity|              ;Pressure                ;Distribution            ;Levels                  ;
0 1.22017 9.99957 -0.000114039 2.42922e-06 9.99957 27.4013 1 1 
2 1.22019 9.99838 -0.000123785 -4.84761e-05 9.99838 27.4456 1 1 
4 1.2202 9.99773 -0.000343077 -0.000212504 9.99773 27.4504 1 1 
6 1.22019 9.99795 -0.000469594 -0.000325252 9.99795 27.4428 1 1 
8 1.2202 9.99805 -0.000611436 -0.000439131 9.99805 27.4591 1 1 
10 1.2202 9.9981 -0.000740944 -0.000536597 9.9981 27.4488 1 1 
12 1.2202 9.99736 -0.000876659 -0.000642659 9.99736 27.4615 1 1 
14 1.2202 9.99785 -0.00107082 -0.000771387 9.99785 27.4543 1 1 
16 1.22021 9.99777 -0.00118513 -0.000850706 9.99777 27.4759 1 1 
18 1.22021 9.99689 -0.00132154 -0.000947393 9.99689 27.4696 1 1 
20 1.22019 9.99716 -0.00150604 -0.00108162 9.99716 27.442 1 1 
22 1.22022 9.99719 -0.00166936 -0.00119049 9.99719 27.4917 1 1 
24 1.22022 9.9977 -0.0018353 -0.00131233 9.99771 27.4903 1 1 
26 1.22021 9.9973 -0.00197432 -0.00139447 9.9973 27.4751 1 1 
28 1.22022 9.99668 -0.00213876 -0.00150108 9.99668 27.4824 1 1 
30 1.22021 9.99677 -0.00229352 -0.00160159 9.99677 27.4768 1 1 
32 1.22022 9.99604 -0.00247765 -0.00171965 9.99604 27.4952 1 1 
32 1.22022 9.99604 -0.00247765 -0.00171965 9.99604 27.4952 1 1 
34 1.22022 9.99562 -0.00259033 -0.00178575 9.99562 27.4839 1 1 
36 1.22022 9.99477 -0.00278313 -0.00190173 9.99478 27.4875 1 1 
38 1.22021 9.99512 -0.00293331 -0.00201628 9.99512 27.4791 1 1 
40 1.22022 9.99504 -0.00308234 -0.00212571 9.99504 27.4911 1 1 
42 1.22023 9.99446 -0.0032489 -0.00224654 9.99446 27.5032 1 1 
44 1.22022 9.99392 -0.00340159 -0.0023157 9.99392 27.4882 1 1 
46 1.22022 9.99299 -0.00359078 -0.00243674 9.99299 27.4983 1 1 
48 1.22022 9.99322 -0.00377218 -0.0025761 9.99322 27.4873 1 1 
50 1.22022 9.99371 -0.0039046 -0.0026383 9.99371 27.4991 1 1 
52 1.22023 9.99284 -0.00405851 -0.00274523 9.99284 27.5058 1 1 
54 1.22022 9.99184 -0.00424846 -0.00286556 9.99184 27.4924 1 1 
56 1.22023 9.99247 -0.00439631 -0.0029535 9.99247 27.5039 1 1 
58 1.22023 9.99239 -0.0046094 -0.00311486 9.99239 27.5113 1 1 
60 1.22022 9.99204 -0.00476472 -0.00321787 9.99204 27.4971 1 1 
62 1.22023 9.99143 -0.0049221 -0.00334569 9.99143 27.5064 1 1 
64 1.22023 9.9915 -0.00508659 -0.00342614 9.9915 27.5102 1 1 
64 1.22023 9.9915 -0.00508659 -0.00342614 9.9915 27.5102 2 1 
66 1.22024 9.9915 -0.00525239 -0.00354004 9.99151 27.5273 2 1 
68 1.22023 9.99214 -0.00544044 -0.00367762 9.99214 27.5011 2 1 
70 1.22023 9.99149 -0.00562112 -0.00379479 9.99149 27.5167 2 1 
72 1.22024 9.99063 -0.00578801 -0.00391938 9.99063 27.5271 2 1 
74 1.22023 9.99056 -0.00593978 -0.0040122 9.99056 27.5061 2 1 
76 1.22025 9.99005 -0.0061116 -0.0041449 9.99005 27.5475 2 1 
78 1.22024 9.99112 -0.00627766 -0.0042379 9.99112 27.5205 2 1 
80 1.22024 9.9907 -0.00645765 -0.00436427 9.99071 27.5217 2 1 
82 1.22024 9.99008 -0.00666089 -0.00451711 9.99008 27.5333 2 1 
84 1.22024 9.98983 -0.00681181 -0.00459801 9.98983 27.5359 2 1 
86 1.22025 9.98938 -0.0069594 -0.00468112 9.98938 27.5501 2 1 
88 1.22024 9.98947 -0.00718097 -0.00483647 9.98947 27.5346 2 1 
90 1.22025 9.98915 -0.00731319 -0.00493457 9.98916 27.5414 2 1 
92 1.22025 9.98859 -0.00751659 -0.00504663 9.98859 27.5419 2 1 
94 1.22025 9.98788 -0.00770765 -0.00516754 9.98789 27.5509 2 1 
96 1.22026 9.9878 -0.00787099 -0.00526087 9.98781 27.5581 2 1 
96 1.22026 9.9878 -0.00787099 -0.00526087 9.98781 27.5581 2 1 
98 1.22025 9.9884 -0.00808677 -0.00539594 9.9884 27.5533 2 1 
100 1.22026 9.9885 -0.008215 -0.00546026 9.98851 27.5549 2 1 
102 1.22025 9.98802 -0.00839447 -0.00560267 9.98803 27.5497 2 1 
104 1.22026 9.98682 -0.0086352 -0.00575109 9.98682 27.5674 2 1 
106 1.22026 9.98627 -0.00875862 -0.00579869 9.98627 27.5655 2 1 
108 1.22027 9.98521 -0.00895691 -0.00593921 9.98521 27.5738 2 1 
110 1.22025 9.98545 -0.00912643 -0.00604556 9.98545 27.5513 2 1 
112 1.22025 9.98579 -0.00931769 -0.00614661 9.9858 27.5475 2 1 
114 1.22027 9.98465 -0.00948742 -0.00623786 9.98465 27.5828 2 1 
116 1.22026 9.98568 -0.00967592 -0.00635659 9.98569 27.5688 2 1 
118 1.22027 9.98563 -0.00984465 -0.00646 9.98564 27.5779 2 1 
120 1.22028 9.98425 -0.010024 -0.00655558 9.98425 27.5916 2 1 
122 1.22025 9.98421 -0.010226 -0.00665813 9.98422 27.5498 2 1 
124 1.22025 9.98285 -0.0104018 -0.00678472 9.98286 27.5524 2 1 
126 1.22028 9.98168 -0.0106284 -0.0069344 9.98169 27.6083 2 1 
128 1.22026 9.98294 -0.0107804 -0.00697994 9.98295 27.5611 2 1 
128 1.22026 9.98294 -0.0107804 -0.00697994 9.98295 27.5611 10 1 
130 1.22027 9.98267 -0.0109781 -0.00715084 9.98268 27.5763 10 1 
132 1.22028 9.98314 -0.0111597 -0.00723356 9.98315 27.5916 10 1 
134 1.22027 9.98286 -0.0113568 -0.00732423 9.98287 27.5745 10 1 
136 1.22028 9.98062 -0.0115148 -0.00743989 9.98063 27.598 10 1 
138 1.22026 9.98029 -0.0117133 -0.00754698 9.9803 27.5708 10 1 
140 1.22028 9.98048 -0.0119023 -0.00767326 9.98049 27.594 10 1 
142 1.22028 9.98054 -0.0120637 -0.00773302 9.98055 27.5959 10 1 
144 1.22027 9.98054 -0.0122628 -0.00786425 9.98055 27.5899 10 1 
146 1.2203 9.98018 -0.0124621 -0.0079738 9.98019 27.6306 10 1 
148 1.22029 9.97859 -0.0126722 -0.00809654 9.9786 27.6263 10 1 
150 1.22027 9.97795 -0.0128259 -0.008199 9.97796 27.5892 10 1 
152 1.22029 9.97763 -0.0130089 -0.00830426 9.97764 27.6247 10 1 
154 1.22031 9.97715 -0.0131525 -0.00836751 9.97716 27.6497 10 1 
156 1.2203 9.97752 -0.0133745 -0.00848762 9.97753 27.637 10 1 
158 1.22032 9.97652 -0.0135557 -0.00858345 9.97653 27.6651 10 1 
160 1.22032 9.97462 -0.0136831 -0.00865813 9.97463 27.6788 10 1 
160 1.22032 9.97462 -0.0136831 -0.00865813 9.97463 27.6788 10 1 
162 1.2203 9.97487 -0.0139044 -0.00880956 9.97489 27.6372 10 1 
164 1.22032 9.97379 -0.0140747 -0.0088911 9.97381 27.6652 10 1 
166 1.22036 9.97159 -0.0142998 -0.00901356 9.97161 27.7414 10 1 
168 1.22032 9.97326 -0.0145214 -0.00915372 9.97327 27.6768 10 1 
170 1.22034 9.97125 -0.0146927 -0.00926129 9.97127 27.7122 10 1 
172 1.22035 9.9707 -0.0148841 -0.00932476 9.97071 27.7297 10 1 
174 1.22033 9.97195 -0.0150323 -0.00940866 9.97196 27.6926 10 1 
176 1.22038 9.96896 -0.0152618 -0.00951305 9.96898 27.7858 10 1 
178 1.22037 9.96865 -0.0154344 -0.00960383 9.96867 27.7578 10 1 
180 1.22037 9.96731 -0.0156169 -0.00975212 9.96733 27.7605 10 1 
182 1.22038 9.96436 -0.0158296 -0.0098891 9.96438 27.7737 10 1 
184 1.22036 9.9636 -0.0160575 -0.0100199 9.96361 27.7389 10 1 
186 1.22041 9.96392 -0.0162157 -0.0100973 9.96394 27.8268 10 1 
188 1.22042 9.96334 -0.0163719 -0.0101682 9.96336 27.8586 10 1 
190 1.22041 9.96274 -0.0166417 -0.0103161 9.96276 27.8261 10 1 
192 1.22041 9.96208 -0.0166961 -0.0103029 9.9621 27.833 10 1 
194 1.22043 9.95837 -0.0170442 -0.0105117 9.95839 27.8736 10 1 
196 1.22044 9.95533 -0.0172781 -0.0106391 9.95535 27.8904 10 1 
198 1.22045 9.95463 -0.0173586 -0.0105964 9.95465 27.899 10 1 
200 1.22049 9.95287 -0.0176522 -0.0108485 9.95289 27.9748 10 1 
202 1.22048 9.95238 -0.0177222 -0.0108903 9.9524 27.9649 10 1 
204 1.22045 9.95263 -0.0178486 -0.0108964 9.95265 27.9068 10 1 
206 1.22053 9.94881 -0.0182127 -0.0111287 9.94883 28.0435 10 1 
208 1.22056 9.94728 -0.0184216 -0.0112249 9.94731 28.1028 10 1 
210 1.22052 9.94753 -0.0185403 -0.0112403 9.94756 28.0302 10 1 
212 1.22059 9.94051 -0.0187725 -0.0114187 9.94054 28.1543 10 1 
214 1.22057 9.93597 -0.0188973 -0.0114684 9.93599 28.1153 10 1 
216 1.22055 9.93261 -0.0191714 -0.0115937 9.93264 28.0926 10 1 
218 1.22063 9.92787 -0.0194979 -0.0117753 9.9279 28.2357 10 1 
220 1.22064 9.93161 -0.0196366 -0.0118744 9.93164 28.2475 10 1 
222 1.22068 9.93114 -0.0197789 -0.0119725 9.93117 28.3281 10 1 
224 1.22069 9.92544 -0.0199272 -0.0119178 9.92547 28.3356 10 1 
224 1.22069 9.92544 -0.0199272 -0.0119178 9.92547 28.3356 10 1 
226 1.22072 9.9203 -0.0201926 -0.0120166 9.92033 28.3905 10 1 
228 1.22075 9.91022 -0.0204219 -0.0122555 9.91025 28.455 10 1 
230 1.22076 9.90269 -0.0206718 -0.0124997 9.90271 28.4609 10 1 
232 1.22078 9.90305 -0.0209183 -0.0125578 9.90308 28.501 10 1 
234 1.22085 9.89985 -0.0210888 -0.0125273 9.89988 28.6262 10 1 
236 1.22095 9.8912 -0.0212675 -0.0126657 9.89123 28.8046 10 1 
238 1.22089 9.88794 -0.021433 -0.0127662 9.88798 28.6948 10 1 
240 1.22102 9.87519 -0.0218314 -0.0130508 9.87522 28.9303 10 1 
242 1.22106 9.86602 -0.0220809 -0.0131777 9.86605 29.0021 10 1 
244 1.221 9.86374 -0.022176 -0.0131834 9.86377 28.9021 10 1 
246 1.22123 9.85086 -0.0223852 -0.0133182 9.85089 29.3072 10 1 
248 1.22127 9.84055 -0.0225006 -0.0133044 9.84058 29.3912 10 1 
250 1.22129 9.82706 -0.0228198 -0.0135333 9.8271 29.4273 10 1 
252 1.22137 9.81418 -0.0232091 -0.0138693 9.81422 29.5762 10 1 
254 1.22151 9.80083 -0.0232919 -0.0138238 9.80087 29.8226 10 1 
256 1.22161 9.78535 -0.023471 -0.013939 9.78539 30.0082 10 1 
256 1.22161 9.78535 -0.023471 -0.013939 9.78539 30.0082 11 1 
258 1.22169 9.76741 -0.0237797 -0.0141726 9.76745 30.1414 11 1 
260 1.22191 9.7473 -0.0240132 -0.0143191 9.74734 30.5466 11 1 
262 1.22206 9.7235 -0.0243256 -0.0145177 9.72355 30.8093 11 1 
264 1.22206 9.70005 -0.0244572 -0.0145668 9.70009 30.8139 11 1 
266 1.22232 9.67517 -0.0245955 -0.014681 9.67521 31.2775 11 1 
268 1.22276 9.634 -0.0248592 -0.014889 9.63405 32.0757 11 1 
270 1.22272 9.6044 -0.0251709 -0.0150466 9.60446 32.0073 11 1 
272 1.22299 9.56126 -0.0252711 -0.0150893 9.56132 32.4907 11 1 
274 1.22356 9.50405 -0.0254735 -0.0152882 9.50411 33.5259 11 1 
276 1.22362 9.46199 -0.0257005 -0.0154234 9.46205 33.6345 11 1 
278 1.22404 9.40044 -0.0258987 -0.0155691 9.4005 34.3955 11 1 
280 1.22477 9.33554 -0.0260603 -0.015699 9.33562 35.7173 11 1 
282 1.22528 9.25257 -0.0261097 -0.0157347 9.25278 36.6318 11 1 
284 1.22568 9.13256 -0.026092 -0.0157978 9.13289 37.346 11 1 
286 1.22621 9.00823 -0.0261401 -0.0158629 9.00845 38.319 11 1 
288 1.22709 8.89405 -0.026268 -0.0159892 8.89417 39.894 11 1 
288 1.22709 8.89405 -0.026268 -0.0159892 8.89417 39.894 11 1 
290 1.22813 8.78331 -0.0263037 -0.0160497 8.78346 41.7769 11 1 
292 1.22901 8.64271 -0.026321 -0.0161829 8.64308 43.3718 11 1 
294 1.22973 8.46192 -0.0259027 -0.0159788 8.46254 44.6761 11 1 
296 1.23062 8.27928 -0.024579 -0.0154403 8.27976 46.2795 11 1 
298 1.22467 8.06711 -0.0258932 -0.0180235 8.16924 35.5275 11 1 
300 1.21435 7.99353 -0.0270943 -0.0228508 8.12541 16.8877 11 1 
302 1.21098 7.95669 -0.0247223 -0.0261821 8.03347 10.8052 11 1 
304 1.21196 7.77237 -0.0217262 -0.0283105 7.83419 12.5707 11 1 
306 1.21309 7.58224 -0.0196869 -0.0300973 7.62688 14.6131 11 1 
308 1.21399 7.40815 -0.0182918 -0.0318528 7.44337 16.2325 11 1 
310 1.21458 7.26196 -0.0170632 -0.0330712 7.28131 17.2952 11 1 
312 1.21525 7.12195 -0.0160707 -0.0344801 7.14068 18.523 11 1 
314 1.21586 7.00981 -0.0153009 -0.0358134 7.02672 19.6071 11 1 
316 1.21636 6.92043 -0.0145387 -0.0370968 6.93637 20.5207 11 1 
318 1.2168 6.82147 -0.0137658 -0.0383343 6.83272 21.3064 11 1 
320 1.21711 6.74101 -0.0130086 -0.0394547 6.7516 21.8805 11 1 
320 1.21711 6.74101 -0.0130086 -0.0394547 6.7516 21.8805 15 1 
322 1.21745 6.68541 -0.0125187 -0.0405574 6.6956 22.4862 15 1 
324 1.21782 6.62617 -0.0119914 -0.041788 6.63579 23.1604 15 1 
326 1.21809 6.56888 -0.0112526 -0.0428561 6.5769 23.6404 15 1 
328 1.21828 6.51805 -0.0106188 -0.0439333 6.52577 23.9848 15 1 
330 1.21843 6.4705 -0.0101187 -0.0450451 6.47752 24.2509 15 1 
332 1.21868 6.43763 -0.00955907 -0.0460884 6.44456 24.7123 15 1 
334 1.21895 6.40285 -0.00891075 -0.0471505 6.40911 25.1938 15 1 
336 1.21897 6.35514 -0.00835506 -0.0483092 6.36121 25.2312 15 1 
338 1.21904 6.32043 -0.00791284 -0.049352 6.32625 25.3589 15 1 
340 1.21929 6.29984 -0.00755566 -0.0504317 6.3055 25.8139 15 1 
342 1.21943 6.27584 -0.0070713 -0.0514254 6.28111 26.0714 15 1 
344 1.21947 6.24441 -0.00658539 -0.0523393 6.24966 26.1374 15 1 
346 1.21951 6.212 -0.00619982 -0.053391 6.21694 26.2073 15 1 
348 1.21964 6.19649 -0.00599736 -0.0545205 6.20129 26.4511 15 1 
350 1.2198 6.18841 -0.00573042 -0.055385 6.19299 26.7399 15 1 
352 1.21982 6.16545 -0.00531221 -0.0562151 6.16997 26.7746 15 1 
354 1.21986 6.1436 -0.00495054 -0.0571186 6.14788 26.8353 15 1 
356 1.21996 6.13262 -0.00478538 -0.0581477 6.13676 27.0271 15 1 
358 1.22002 6.1219 -0.00460908 -0.059056 6.12587 27.1363 15 1 
360 1.22009 6.1137 -0.00427553 -0.0597755 6.11763 27.2579 15 1 
362 1.22016 6.10466 -0.00389937 -0.0605478 6.10838 27.3753 15 1 
364 1.22019 6.09165 -0.00363845 -0.0614582 6.09525 27.4449 15 1 
366 1.22023 6.08255 -0.00343365 -0.0622542 6.086 27.5173 15 1 
368 1.22029 6.07786 -0.0031183 -0.0630246 6.08128 27.6094 15 1 
370 1.22036 6.07448 -0.00273893 -0.063737 6.07778 27.7482 15 1 
372 1.2204 6.06815 -0.00242097 -0.0644962 6.07134 27.8215 15 1 
374 1.22041 6.05854 -0.00212979 -0.0653373 6.06161 27.8429 15 1 
376 1.22046 6.05255 -0.0017669 -0.0661107 6.0556 27.9284 15 1 
378 1.22051 6.04927 -0.00137455 -0.0667939 6.05226 28.0087 15 1 
380 1.22055 6.04627 -0.00102195 -0.0675669 6.04918 28.0951 15 1 
382 1.2206 6.04209 -0.000711712 -0.0683988 6.04492 28.1689 15 1 
384 1.2206 6.03328 -0.000294955 -0.0692125 6.03609 28.1862 15 1 
384 1.2206 6.03328 -0.000294955 -0.0692125 6.03609 28.1862 16 1 
386 1.22064 6.02627 0.000194666 -0.069976 6.02902 28.2443 16 1 
388 1.22068 6.02424 0.000588546 -0.0707548 6.02696 28.3187 16 1 
390 1.22071 6.02017 0.00089835 -0.0716359 6.02285 28.3751 16 1 
392 1.22074 6.01355 0.00135341 -0.0724726 6.01621 28.4355 16 1 
394 1.22076 6.00603 0.00187102 -0.0733157 6.00864 28.4602 16 1 
396 1.22077 5.99841 0.00230514 -0.0741735 6.00102 28.4854 16 1 
398 1.2208 5.99345 0.00272735 -0.0750284 5.99604 28.5413 16 1 
400 1.22084 5.98913 0.00321971 -0.0758765 5.99169 28.6062 16 1 
402 1.22086 5.98209 0.00366899 -0.0768054 5.98463 28.6488 16 1 
404 1.22086 5.97324 0.00408654 -0.0776862 5.97578 28.6469 16 1 
406 1.22088 5.96589 0.00462061 -0.0785564 5.9684 28.6817 16 1 
408 1.22092 5.96104 0.00512293 -0.0794328 5.96354 28.7511 16 1 
410 1.22093 5.95514 0.00548981 -0.0803888 5.95762 28.7753 16 1 
412 1.22094 5.94771 0.00586977 -0.0812939 5.95019 28.7971 16 1 
414 1.22096 5.94096 0.00635006 -0.0821972 5.94341 28.8353 16 1 
416 1.22098 5.93419 0.00677913 -0.0830998 5.93663 28.8629 16 1 
416 1.22098 5.93419 0.00677913 -0.0830998 5.93663 28.8629 16 1 
418 1.22099 5.9278 0.00714876 -0.0840298 5.93022 28.8869 16 1 
420 1.22101 5.92245 0.00748006 -0.0849095 5.92488 28.913 16 1 
422 1.22103 5.91685 0.00780352 -0.0858355 5.91926 28.955 16 1 
424 1.22105 5.91069 0.00812839 -0.0867162 5.91307 28.9835 16 1 
426 1.22105 5.90392 0.00845223 -0.0875979 5.90629 28.9842 16 1 
428 1.22106 5.89785 0.00873084 -0.0884553 5.90022 29.0066 16 1 
430 1.22108 5.89387 0.00897179 -0.0893486 5.89621 29.0484 16 1 
432 1.2211 5.88963 0.0091818 -0.0902132 5.89195 29.0756 16 1 
434 1.2211 5.88365 0.00942112 -0.0910876 5.88596 29.085 16 1 
436 1.22111 5.87815 0.00964792 -0.0919442 5.88046 29.0986 16 1 
438 1.22113 5.87446 0.00984753 -0.0928169 5.87674 29.1281 16 1 
440 1.22114 5.87159 0.010029 -0.0936662 5.87387 29.1515 16 1 
442 1.22115 5.86843 0.0101796 -0.0945729 5.87068 29.1731 16 1 
444 1.22116 5.86492 0.0103413 -0.0954561 5.86717 29.1977 16 1 
446 1.22117 5.8618 0.0105185 -0.0963282 5.86404 29.2079 16 1 
448 1.22118 5.85966 0.0106635 -0.0972159 5.86188 29.2264 16 1 
448 1.22118 5.85966 0.0106635 -0.0972159 5.86188 29.2264 17 1 
450 1.2212 5.85835 0.0108 -0.0981327 5.86056 29.2575 17 1 
452 1.22121 5.85719 0.010939 -0.0990339 5.8594 29.2781 17 1 
454 1.22122 5.85568 0.0110507 -0.099983 5.85788 29.2953 17 1 
456 1.22123 5.85424 0.0111787 -0.100921 5.85644 29.3124 17 1 
458 1.22124 5.85344 0.0113493 -0.101836 5.85564 29.3292 17 1 
460 1.22125 5.85347 0.0114653 -0.102769 5.85567 29.3525 17 1 
462 1.22126 5.85388 0.0115469 -0.103763 5.85608 29.3774 17 1 
464 1.22127 5.85376 0.0116555 -0.104724 5.85596 29.3952 17 1 
466 1.22128 5.85331 0.0117854 -0.105636 5.85551 29.405 17 1 
468 1.22129 5.85384 0.011889 -0.106559 5.85603 29.4228 17 1 
470 1.2213 5.85515 0.0119854 -0.107528 5.85734 29.448 17 1 
472 1.22131 5.85624 0.0120841 -0.10845 5.85844 29.4662 17 1 
474 1.22132 5.85729 0.0121592 -0.109378 5.85948 29.484 17 1 
476 1.22133 5.85838 0.0122665 -0.110296 5.86058 29.4985 17 1 
478 1.22134 5.8597 0.012405 -0.111205 5.86191 29.5102 17 1 
480 1.22135 5.86188 0.0125124 -0.112086 5.86408 29.5342 17 1 
480 1.22135 5.86188 0.0125124 -0.112086 5.86408 29.5342 17 1 
482 1.22136 5.86435 0.0126036 -0.112989 5.86656 29.5579 17 1 
484 1.22137 5.86647 0.0127286 -0.113865 5.86868 29.5712 17 1 
486 1.22138 5.8686 0.0128268 -0.114736 5.87081 29.5855 17 1 
488 1.22139 5.87104 0.0129101 -0.115555 5.87325 29.6036 17 1 
490 1.2214 5.87409 0.0130289 -0.116356 5.87631 29.6233 17 1 
492 1.22141 5.87746 0.013115 -0.117119 5.87967 29.644 17 1 
494 1.22142 5.88046 0.0131395 -0.117855 5.88268 29.6627 17 1 
496 1.22143 5.88328 0.0131949 -0.118522 5.88549 29.6794 17 1 
498 1.22144 5.88637 0.0133153 -0.119166 5.88858 29.6934 17 1 
500 1.22145 5.88993 0.013393 -0.119787 5.89215 29.7125 17 1 
502 1.22146 5.89372 0.0134357 -0.120423 5.89593 29.7377 17 1 
504 1.22147 5.89693 0.0135104 -0.121034 5.89914 29.7544 17 1 
506 1.22148 5.89987 0.0136081 -0.121608 5.90208 29.7652 17 1 
508 1.22149 5.9034 0.0136976 -0.122133 5.90561 29.7834 17 1 
510 1.2215 5.90693 0.0137735 -0.122673 5.90914 29.8045 17 1 
512 1.22151 5.91013 0.0138403 -0.123182 5.91234 29.8213 17 1 
512 1.22151 5.91013 0.0138403 -0.123182 5.91234 29.8213 25 1 
514 1.22152 5.91334 0.0139202 -0.123655 5.91554 29.8376 25 1 
516 1.22153 5.9164 0.0140093 -0.124088 5.9186 29.8538 25 1 
518 1.22154 5.91923 0.014106 -0.124502 5.92143 29.8686 25 1 
520 1.22155 5.92206 0.0141884 -0.124885 5.92425 29.8845 25 1 
522 1.22155 5.92494 0.0142709 -0.125264 5.92713 29.9026 25 1 
524 1.22156 5.92756 0.0143625 -0.125611 5.92974 29.9188 25 1 
526 1.22157 5.92975 0.014464 -0.125934 5.93193 29.9308 25 1 
528 1.22158 5.93189 0.0145548 -0.126224 5.93406 29.9453 25 1 
530 1.22159 5.93407 0.0146823 -0.126511 5.93624 29.9622 25 1 
532 1.22159 5.93597 0.0147833 -0.126789 5.93813 29.9743 25 1 
534 1.2216 5.93767 0.0149108 -0.127029 5.93983 29.9877 25 1 
536 1.22161 5.93924 0.015049 -0.127237 5.94139 30.0037 25 1 
538 1.22162 5.94049 0.0151737 -0.127463 5.94263 30.0139 25 1 
540 1.22162 5.9416 0.0153411 -0.127638 5.94373 30.0236 25 1 
542 1.22163 5.94265 0.0154846 -0.127829 5.94477 30.0377 25 1 
544 1.22164 5.94356 0.0156531 -0.127991 5.94568 30.0501 25 1 
544 1.22164 5.94356 0.0156531 -0.127991 5.94568 30.0501 25 1 
546 1.22164 5.94416 0.0158152 -0.128161 5.94627 30.0594 25 1 
548 1.22165 5.94451 0.0160187 -0.128329 5.94662 30.0684 25 1 
550 1.22165 5.94482 0.0162268 -0.12851 5.94691 30.0798 25 1 
552 1.22166 5.945 0.0164397 -0.128691 5.94709 30.0901 25 1 
554 1.22166 5.94511 0.0166825 -0.128898 5.9472 30.0999 25 1 
556 1.22167 5.94508 0.0169077 -0.129119 5.94716 30.1125 25 1 
558 1.22168 5.9447 0.0171819 -0.12935 5.94678 30.1199 25 1 
560 1.22168 5.94423 0.0174264 -0.129609 5.9463 30.127 25 1 
562 1.22169 5.94392 0.0176867 -0.129883 5.94599 30.1401 25 1 
564 1.22169 5.94344 0.0179312 -0.130187 5.94551 30.1518 25 1 
566 1.2217 5.94275 0.0181772 -0.130517 5.94482 30.1601 25 1 
568 1.2217 5.94187 0.0184163 -0.130853 5.94395 30.1689 25 1 
570 1.22171 5.94086 0.0186342 -0.131225 5.94294 30.1773 25 1 
572 1.22171 5.93997 0.0188573 -0.131617 5.94205 30.1879 25 1 
574 1.22172 5.939 0.0190468 -0.132049 5.94108 30.2001 25 1 
576 1.22172 5.93777 0.0192482 -0.132499 5.93985 30.2093 25 1 
576 1.22172 5.93777 0.0192482 -0.132499 5.93985 30.2093 26 1 
578 1.22173 5.93633 0.0194307 -0.132998 5.93843 30.2171 26 1 
580 1.22173 5.93483 0.0196221 -0.133533 5.93693 30.2245 26 1 
582 1.22174 5.9334 0.0197993 -0.134117 5.93551 30.2357 26 1 
584 1.22175 5.93182 0.0199589 -0.134728 5.93394 30.2468 26 1 
586 1.22175 5.93002 0.0201316 -0.135373 5.93215 30.2545 26 1 
588 1.22176 5.92809 0.0202533 -0.136056 5.93023 30.2649 26 1 
590 1.22176 5.92599 0.0204074 -0.136756 5.92815 30.273 26 1 
592 1.22176 5.92381 0.0205157 -0.137501 5.92597 30.2807 26 1 
594 1.22177 5.92171 0.0206279 -0.138258 5.92389 30.292 26 1 
596 1.22178 5.91928 0.0207314 -0.139035 5.92147 30.3023 26 1 
598 1.22178 5.9166 0.0208017 -0.139849 5.9188 30.3076 26 1 
600 1.22178 5.91397 0.0208788 -0.140659 5.91619 30.3155 26 1 
602 1.22179 5.91136 0.020892 -0.141493 5.9136 30.3259 26 1 
604 1.22179 5.90867 0.0209418 -0.142312 5.91092 30.3327 26 1 
606 1.2218 5.90579 0.0209406 -0.143143 5.90805 30.3389 26 1 
608 1.2218 5.90294 0.0209272 -0.143946 5.90522 30.3463 26 1 
608 1.2218 5.90294 0.0209272 -0.143946 5.90522 30.3463 26 1 
610 1.2218 5.90017 0.0208888 -0.144727 5.90247 30.3532 26 1 
612 1.22181 5.89738 0.0208279 -0.14549 5.89969 30.3587 26 1 
614 1.22181 5.89465 0.0207779 -0.146186 5.89697 30.3668 26 1 
616 1.22182 5.89205 0.020666 -0.146847 5.89438 30.3735 26 1 
618 1.22182 5.88938 0.0205686 -0.14745 5.89173 30.3788 26 1 
620 1.22182 5.88686 0.0204546 -0.147979 5.8892 30.3852 26 1 
622 1.22183 5.88456 0.0203674 -0.148439 5.88692 30.3925 26 1 
624 1.22183 5.88241 0.020241 -0.14885 5.88477 30.4009 26 1 
626 1.22184 5.8803 0.0201323 -0.149184 5.88267 30.4101 26 1 
628 1.22184 5.87836 0.0200529 -0.149431 5.88073 30.4174 26 1 
630 1.22184 5.87662 0.0199692 -0.149614 5.87898 30.4264 26 1 
632 1.22185 5.87508 0.0198996 -0.149713 5.87744 30.4373 26 1 
634 1.22186 5.87369 0.0198688 -0.149708 5.87605 30.4475 26 1 
636 1.22186 5.87247 0.019865 -0.149622 5.87482 30.4573 26 1 
638 1.22187 5.87133 0.0198749 -0.149449 5.87366 30.4694 26 1 
640 1.22188 5.87036 0.0199552 -0.149187 5.87269 30.4814 26 1 
642 1.22188 5.86965 0.0200571 -0.148846 5.87197 30.4924 26 1 
644 1.22189 5.86893 0.0202181 -0.148425 5.87122 30.5063 26 1 
646 1.2219 5.86822 0.0204439 -0.147943 5.8705 30.5199 26 1 
648 1.2219 5.86772 0.0206798 -0.147374 5.86998 30.53 26 1 
650 1.22191 5.86716 0.0210028 -0.146737 5.8694 30.5452 26 1 
652 1.22192 5.86669 0.0213199 -0.146045 5.86891 30.5595 26 1 
654 1.22193 5.86618 0.0217008 -0.14527 5.86837 30.5714 26 1 
656 1.22193 5.86557 0.0221244 -0.144458 5.86774 30.5861 26 1 
658 1.22194 5.86508 0.0225075 -0.143591 5.86722 30.6003 26 1 
660 1.22195 5.86431 0.0230159 -0.142635 5.86643 30.6157 26 1 
662 1.22196 5.86362 0.0234574 -0.141656 5.86571 30.6275 26 1 
664 1.22197 5.86273 0.0239644 -0.140633 5.86479 30.6432 26 1 
666 1.22197 5.86172 0.0244886 -0.139512 5.86376 30.6584 26 1 
668 1.22198 5.8606 0.0249563 -0.138401 5.8626 30.6713 26 1 
670 1.22199 5.85945 0.0254882 -0.137171 5.86141 30.6851 26 1 
672 1.222 5.85802 0.0259842 -0.135924 5.85995 30.7019 26 1 
672 1.222 5.85802 0.0259842 -0.135924 5.85995 30.7019 27 1 
674 1.222 5.85643 0.0264137 -0.134685 5.85833 30.7147 27 1 
676 1.22201 5.85485 0.0269414 -0.133315 5.85672 30.7258 27 1 
678 1.22202 5.85282 0.0274113 -0.131977 5.85466 30.7438 27 1 
680 1.22203 5.85094 0.0278715 -0.13057 5.85274 30.7542 27 1 
682 1.22203 5.84866 0.0284297 -0.129095 5.85043 30.7679 27 1 
684 1.22204 5.84639 0.0288373 -0.127616 5.84812 30.7817 27 1 
686 1.22205 5.84387 0.0293536 -0.12605 5.84556 30.7955 27 1 
688 1.22206 5.84129 0.0298065 -0.124439 5.84295 30.8077 27 1 
690 1.22206 5.83861 0.0302331 -0.122828 5.84023 30.8206 27 1 
692 1.22207 5.83591 0.0307003 -0.121138 5.8375 30.834 27 1 
694 1.22208 5.83307 0.0310331 -0.119515 5.83462 30.8486 27 1 
696 1.22209 5.83031 0.0314144 -0.11783 5.83182 30.861 27 1 
698 1.22209 5.82777 0.0317822 -0.116132 5.82924 30.8736 27 1 
700 1.2221 5.82514 0.0320675 -0.114439 5.82657 30.8918 27 1 
702 1.22211 5.82271 0.0323936 -0.112676 5.8241 30.9048 27 1 
704 1.22212 5.82047 0.0327234 -0.110858 5.82183 30.9153 27 1 
704 1.22212 5.82047 0.0327234 -0.110858 5.82183 30.9153 31 1 
706 1.22213 5.81836 0.0329094 -0.109083 5.81968 30.934 31 1 
708 1.22214 5.81662 0.03317 -0.10723 5.8179 30.9505 31 1 
710 1.22214 5.81531 0.0333186 -0.105364 5.81656 30.9604 31 1 
712 1.22215 5.81428 0.0336084 -0.103512 5.81549 30.9786 31 1 
714 1.22216 5.81341 0.0336957 -0.101683 5.81458 31.0006 31 1 
716 1.22217 5.81317 0.0340375 -0.0997633 5.81431 31.0086 31 1 
718 1.22218 5.81327 0.0342139 -0.0979084 5.81438 31.0245 31 1 
720 1.22219 5.81386 0.034417 -0.0960244 5.81493 31.0499 31 1 
722 1.2222 5.81502 0.0347111 -0.0940733 5.81606 31.0643 31 1 
724 1.22221 5.8166 0.0349014 -0.0921046 5.81759 31.0766 31 1 
726 1.22222 5.81857 0.0351981 -0.0900877 5.81954 31.1018 31 1 
728 1.22223 5.82077 0.0354337 -0.0881237 5.8217 31.1249 31 1 
730 1.22224 5.82368 0.0358343 -0.0860218 5.82458 31.1328 31 1 
732 1.22225 5.82717 0.036202 -0.0839866 5.82803 31.1546 31 1 
734 1.22227 5.83078 0.0365346 -0.0819777 5.83161 31.1867 31 1 
736 1.22227 5.835 0.0373219 -0.0796816 5.83581 31.1977 31 1 
738 1.22228 5.84002 0.0375783 -0.0776747 5.8408 31.2068 31 1 
740 1.2223 5.84453 0.0384098 -0.0753758 5.84528 31.2468 31 1 
742 1.22231 5.84988 0.0390744 -0.0731715 5.8506 31.2607 31 1 
744 1.22231 5.85562 0.0395613 -0.0710511 5.85632 31.2618 31 1 
746 1.22233 5.86148 0.0404773 -0.0687848 5.86215 31.2959 31 1 
748 1.22234 5.86746 0.0414078 -0.06634 5.8681 31.3218 31 1 
750 1.22234 5.87386 0.0422947 -0.0639359 5.87448 31.317 31 1 
752 1.22235 5.88109 0.0430008 -0.0618321 5.88168 31.3302 31 1 
752 1.22235 5.88109 0.0430008 -0.0618321 5.88168 31.3302 31 1 
754 1.22237 5.88675 0.0440203 -0.0593542 5.88733 31.3788 31 1 
756 1.22236 5.8939 0.045163 -0.0568144 5.89445 31.3645 31 1 
758 1.22236 5.90136 0.0458686 -0.054764 5.9019 31.3591 31 1 
760 1.22239 5.90748 0.0471645 -0.0519596 5.908 31.4124 31 1 
762 1.22239 5.91471 0.0481472 -0.049477 5.91522 31.4059 31 1 
764 1.22237 5.92308 0.0489362 -0.0474255 5.92357 31.3754 31 1 
766 1.2224 5.92865 0.050167 -0.0447183 5.92913 31.4302 31 1 
768 1.22239 5.93685 0.0513239 -0.0420695 5.93731 31.4155 31 1 
770 1.22238 5.94466 0.0515342 -0.0403029 5.94511 31.3854 31 1 
772 1.22239 5.95173 0.0525233 -0.037831 5.95217 31.4047 31 1 
774 1.22238 5.95989 0.0532302 -0.0354225 5.96031 31.3988 31 1 
776 1.22236 5.96936 0.0538132 -0.0332268 5.96978 31.3484 31 1 
778 1.22234 5.9799 0.0545312 -0.0308566 5.98031 31.3279 31 1 
780 1.22235 5.98903 0.0552291 -0.0282681 5.98943 31.343 31 1 
782 1.22231 6.00036 0.0551209 -0.0266894 6.00075 31.2583 31 1 
784 1.22226 6.01035 0.0536454 -0.02571 6.01071 31.1797 31 1 
786 1.22222 6.02726 0.0541452 -0.0231571 6.02762 31.1016 31 1 
788 1.22222 6.04204 0.0547067 -0.0210967 6.0424 31.1026 31 1 
790 1.22212 6.06217 0.0538171 -0.0190464 6.06251 30.9294 31 1 
792 1.22203 6.08225 0.0516232 -0.0177931 6.08256 30.7678 31 1 
794 1.22198 6.10563 0.0515133 -0.015928 6.10593 30.6757 31 1 
796 1.22188 6.13436 0.052224 -0.0117365 6.13466 30.4872 31 1 
798 1.22174 6.16315 0.0526491 -0.00824194 6.16345 30.2348 31 1 
800 1.22162 6.18342 0.0525536 -0.00763459 6.18372 30.0197 31 1 
