51.6219;r ;Density                 ;Velocity u              ;Velocity v              ;Velocity w              ;|Velocity|              ;Pressure                ;Distribution            ;Levels                  ;
0 1.20565 10.0001 -8.8832e-05 3.62665e-06 10.0001 1.17313 1 1 
2 1.20567 9.99933 -9.76765e-05 -3.62309e-05 9.99933 1.21006 1 1 
4 1.20567 9.99954 -0.000223533 -0.000146877 9.99954 1.20341 1 1 
6 1.20565 10.0008 -0.000322541 -0.000235814 10.0008 1.1831 1 1 
8 1.20565 10.0021 -0.000395954 -0.000305012 10.0021 1.18228 1 1 
10 1.20564 10.0031 -0.000463657 -0.000358265 10.0031 1.15853 1 1 
12 1.20564 10.0033 -0.000554999 -0.000433823 10.0033 1.15926 1 1 
14 1.20563 10.0049 -0.000690142 -0.000532258 10.0049 1.139 1 1 
16 1.20564 10.0057 -0.000770133 -0.000601072 10.0057 1.14956 1 1 
18 1.20562 10.0057 -0.00088681 -0.000690856 10.0057 1.12618 1 1 
20 1.20559 10.0069 -0.00100131 -0.000778471 10.0069 1.07404 1 1 
22 1.20561 10.0078 -0.00104856 -0.000795978 10.0078 1.09755 1 1 
24 1.20559 10.0094 -0.00112883 -0.000856622 10.0094 1.07347 1 1 
26 1.20558 10.0099 -0.00119973 -0.000897136 10.0099 1.04395 1 1 
28 1.20557 10.0101 -0.00127943 -0.000948428 10.0101 1.03387 1 1 
30 1.20556 10.0112 -0.00136406 -0.00101719 10.0112 1.00978 1 1 
32 1.20556 10.0114 -0.00149631 -0.00112467 10.0114 1.02034 1 1 
32 1.20556 10.0114 -0.00149631 -0.00112467 10.0114 1.02034 1 1 
34 1.20555 10.0119 -0.00155348 -0.00116207 10.0119 0.998631 1 1 
36 1.20554 10.0121 -0.00168517 -0.00125174 10.0121 0.978032 1 1 
38 1.20552 10.0136 -0.00179217 -0.00135258 10.0136 0.936964 1 1 
40 1.20551 10.0146 -0.00190299 -0.00145114 10.0146 0.927474 1 1 
42 1.20552 10.0147 -0.00203302 -0.00156144 10.0147 0.934976 1 1 
44 1.2055 10.0146 -0.00213944 -0.00162218 10.0146 0.904378 1 1 
46 1.20549 10.0146 -0.00228214 -0.00172841 10.0146 0.881386 1 1 
48 1.20546 10.016 -0.00241672 -0.00185807 10.016 0.831157 1 1 
50 1.20545 10.0176 -0.00249775 -0.00190658 10.0176 0.808522 1 1 
52 1.20545 10.0174 -0.00259819 -0.0019952 10.0174 0.807584 1 1 
54 1.20544 10.0171 -0.00275109 -0.0021171 10.0171 0.796118 1 1 
56 1.20544 10.0187 -0.00287089 -0.00221584 10.0187 0.792931 1 1 
58 1.20543 10.02 -0.00303603 -0.00236777 10.02 0.768187 1 1 
60 1.2054 10.0208 -0.00315751 -0.00247253 10.0208 0.715103 1 1 
62 1.20539 10.0207 -0.00330254 -0.00262986 10.0207 0.711272 1 1 
64 1.2054 10.0214 -0.00343131 -0.00271208 10.0214 0.717201 1 1 
64 1.2054 10.0214 -0.00343131 -0.00271208 10.0214 0.717201 2 1 
66 1.20539 10.0223 -0.00354911 -0.00282248 10.0223 0.702336 2 1 
68 1.20534 10.024 -0.00371329 -0.00297744 10.024 0.619197 2 1 
70 1.20533 10.0242 -0.0038768 -0.00312237 10.0242 0.594175 2 1 
72 1.20533 10.0237 -0.00401484 -0.00326281 10.0237 0.600231 2 1 
74 1.20532 10.0242 -0.00414475 -0.00337632 10.0242 0.577845 2 1 
76 1.20532 10.0249 -0.00427563 -0.00351824 10.0249 0.573472 2 1 
78 1.20528 10.0272 -0.00441521 -0.0036314 10.0272 0.497539 2 1 
80 1.20527 10.0274 -0.00459675 -0.00380629 10.0274 0.491799 2 1 
82 1.20528 10.0274 -0.00478406 -0.00398572 10.0274 0.505873 2 1 
84 1.20527 10.028 -0.00490018 -0.00408116 10.028 0.482058 2 1 
86 1.20525 10.0284 -0.00504016 -0.0042038 10.0284 0.446204 2 1 
88 1.20522 10.0292 -0.00523946 -0.00438815 10.0292 0.395765 2 1 
90 1.20522 10.0295 -0.00532457 -0.00448897 10.0295 0.396058 2 1 
92 1.20521 10.0296 -0.00550772 -0.00463034 10.0296 0.375204 2 1 
94 1.20519 10.0296 -0.00567912 -0.00478251 10.0296 0.338672 2 1 
96 1.20517 10.0303 -0.00578844 -0.00487881 10.0303 0.314222 2 1 
96 1.20517 10.0303 -0.00578844 -0.00487881 10.0303 0.314222 2 1 
98 1.20516 10.0317 -0.00598602 -0.00504086 10.0317 0.29601 2 1 
100 1.20516 10.0326 -0.00610534 -0.00513927 10.0326 0.286041 2 1 
102 1.20514 10.033 -0.00622711 -0.00527409 10.033 0.2615 2 1 
104 1.20514 10.0328 -0.0064163 -0.0054255 10.0328 0.259343 2 1 
106 1.20514 10.0332 -0.00651966 -0.00550176 10.0332 0.251206 2 1 
108 1.20514 10.033 -0.0066871 -0.00565069 10.033 0.248369 2 1 
110 1.20511 10.034 -0.00678324 -0.00573416 10.034 0.203963 2 1 
112 1.2051 10.0351 -0.00690787 -0.00583334 10.0351 0.187057 2 1 
114 1.20512 10.0348 -0.00704336 -0.00594286 10.0348 0.217883 2 1 
116 1.20511 10.037 -0.00720211 -0.00606538 10.037 0.198429 2 1 
118 1.20511 10.0378 -0.00732051 -0.00616971 10.0378 0.197323 2 1 
120 1.20511 10.0372 -0.00743962 -0.00626658 10.0372 0.205166 2 1 
122 1.20509 10.0382 -0.00759564 -0.00637234 10.0382 0.16749 2 1 
124 1.2051 10.0379 -0.00772054 -0.00648983 10.0379 0.172644 2 1 
126 1.20512 10.0378 -0.00786873 -0.00662038 10.0378 0.224181 2 1 
128 1.2051 10.0399 -0.00792714 -0.00664648 10.0399 0.176674 2 1 
128 1.2051 10.0399 -0.00792714 -0.00664648 10.0399 0.176674 10 1 
130 1.20511 10.0405 -0.00807279 -0.00682106 10.0405 0.19816 10 1 
132 1.20512 10.0422 -0.00821259 -0.00690283 10.0422 0.217264 10 1 
134 1.20511 10.0428 -0.0083159 -0.00695194 10.0428 0.192941 10 1 
136 1.20512 10.0413 -0.00837168 -0.00703254 10.0413 0.209332 10 1 
138 1.20511 10.0421 -0.00854666 -0.00716329 10.0421 0.194453 10 1 
140 1.20513 10.0435 -0.00867225 -0.00726552 10.0436 0.234348 10 1 
142 1.20513 10.0446 -0.00870398 -0.0072484 10.0446 0.238333 10 1 
144 1.20512 10.0455 -0.00883178 -0.00737103 10.0455 0.22368 10 1 
146 1.20514 10.0459 -0.0090018 -0.0074977 10.0459 0.255377 10 1 
148 1.20514 10.0453 -0.00909383 -0.00755479 10.0453 0.24841 10 1 
150 1.20511 10.0454 -0.00909423 -0.00755506 10.0454 0.204002 10 1 
152 1.20513 10.0457 -0.00920334 -0.00764148 10.0457 0.2273 10 1 
154 1.20514 10.046 -0.00927448 -0.00769243 10.046 0.245034 10 1 
156 1.20512 10.0474 -0.00936252 -0.00774615 10.0474 0.224268 10 1 
158 1.20514 10.0471 -0.00941499 -0.00777569 10.0471 0.244617 10 1 
160 1.20514 10.0458 -0.00945202 -0.00781143 10.0458 0.248548 10 1 
160 1.20514 10.0458 -0.00945202 -0.00781143 10.0458 0.248548 10 1 
162 1.20511 10.0467 -0.00958867 -0.00791659 10.0467 0.194096 10 1 
164 1.20512 10.0463 -0.0096235 -0.00790864 10.0463 0.214505 10 1 
166 1.20516 10.0448 -0.00966869 -0.007901 10.0448 0.282997 10 1 
168 1.20511 10.0469 -0.0097621 -0.00797613 10.0469 0.202507 10 1 
170 1.20512 10.0452 -0.00988968 -0.00810935 10.0452 0.217825 10 1 
172 1.20512 10.0452 -0.00998494 -0.0081385 10.0452 0.222957 10 1 
174 1.2051 10.0469 -0.00993832 -0.0081023 10.0469 0.180967 10 1 
176 1.20515 10.0442 -0.0100794 -0.0081968 10.0443 0.266154 10 1 
178 1.20513 10.0445 -0.010217 -0.00831007 10.0445 0.228704 10 1 
180 1.20512 10.0436 -0.0102391 -0.00834087 10.0436 0.224326 10 1 
182 1.20513 10.041 -0.0102976 -0.00838269 10.041 0.231952 10 1 
184 1.2051 10.0407 -0.0105118 -0.00856525 10.0407 0.187527 10 1 
186 1.20515 10.0412 -0.0105892 -0.0086188 10.0412 0.262677 10 1 
188 1.20516 10.0409 -0.0105617 -0.0085688 10.0409 0.285428 10 1 
190 1.20514 10.0408 -0.0107566 -0.00872181 10.0408 0.244604 10 1 
192 1.20513 10.0404 -0.0107822 -0.00875038 10.0404 0.239679 10 1 
194 1.20515 10.037 -0.0109718 -0.00887136 10.037 0.26687 10 1 
196 1.20515 10.0343 -0.0110866 -0.00894491 10.0343 0.277768 10 1 
198 1.20516 10.0339 -0.0111416 -0.00896524 10.0339 0.285713 10 1 
200 1.2052 10.0325 -0.0113722 -0.00921542 10.0325 0.356993 10 1 
202 1.20519 10.0323 -0.0112999 -0.00917259 10.0323 0.336592 10 1 
204 1.20515 10.0326 -0.0113737 -0.0091924 10.0326 0.268108 10 1 
206 1.20522 10.0291 -0.0117416 -0.00949892 10.0291 0.397592 10 1 
208 1.20525 10.0279 -0.0118287 -0.0095349 10.0279 0.449721 10 1 
210 1.20521 10.0284 -0.0118248 -0.00950852 10.0284 0.371108 10 1 
212 1.20527 10.0215 -0.0120526 -0.00977501 10.0215 0.489813 10 1 
214 1.20525 10.0169 -0.0121198 -0.00983987 10.0169 0.445824 10 1 
216 1.20523 10.0136 -0.0122279 -0.00987538 10.0136 0.418295 10 1 
218 1.20531 10.0091 -0.0124935 -0.0100864 10.0091 0.560647 10 1 
220 1.20532 10.013 -0.0126135 -0.010248 10.013 0.577708 10 1 
222 1.20537 10.0125 -0.0126158 -0.0102647 10.0125 0.66132 10 1 
224 1.20537 10.0067 -0.0126622 -0.0101725 10.0067 0.666666 10 1 
224 1.20537 10.0067 -0.0126622 -0.0101725 10.0067 0.666666 10 1 
226 1.2054 10.0015 -0.012943 -0.0103718 10.0015 0.716 10 1 
228 1.20543 9.99138 -0.0131118 -0.0106073 9.9914 0.776079 10 1 
230 1.20543 9.98384 -0.0132008 -0.0107272 9.98385 0.782535 10 1 
232 1.20546 9.98424 -0.0134035 -0.0108179 9.98426 0.824157 10 1 
234 1.20553 9.98106 -0.0135458 -0.01087 9.98108 0.952371 10 1 
236 1.20563 9.97216 -0.0135602 -0.0109257 9.97218 1.1382 10 1 
238 1.20557 9.96879 -0.0136243 -0.0109826 9.96881 1.02806 10 1 
240 1.2057 9.95606 -0.0140139 -0.0113402 9.95608 1.25553 10 1 
242 1.20573 9.94689 -0.0141559 -0.0114458 9.94691 1.32545 10 1 
244 1.20568 9.9447 -0.014078 -0.0113282 9.94472 1.23064 10 1 
246 1.20591 9.93174 -0.0142447 -0.0114738 9.93176 1.64135 10 1 
248 1.20596 9.92138 -0.0143454 -0.0115136 9.9214 1.73084 10 1 
250 1.20598 9.90781 -0.0144919 -0.0116509 9.90783 1.76806 10 1 
252 1.20605 9.89457 -0.0147407 -0.0118943 9.89459 1.90463 10 1 
254 1.20618 9.88085 -0.0147734 -0.0118604 9.88087 2.13879 10 1 
256 1.20629 9.8651 -0.0148272 -0.0119218 9.86512 2.32715 10 1 
256 1.20629 9.8651 -0.0148272 -0.0119218 9.86512 2.32715 11 1 
258 1.20637 9.84697 -0.0149323 -0.0120394 9.84699 2.47407 11 1 
260 1.2066 9.8268 -0.0151223 -0.0121892 9.82682 2.89232 11 1 
262 1.20675 9.80284 -0.0153938 -0.0123947 9.80287 3.15825 11 1 
264 1.20675 9.77908 -0.015351 -0.0123382 9.7791 3.16323 11 1 
266 1.20701 9.75386 -0.0153876 -0.012418 9.75388 3.62816 11 1 
268 1.20745 9.71192 -0.0156337 -0.0126583 9.71195 4.42288 11 1 
270 1.20741 9.68154 -0.015794 -0.0127065 9.68158 4.34662 11 1 
272 1.20767 9.63795 -0.0157142 -0.0126391 9.63799 4.83035 11 1 
274 1.20826 9.58021 -0.0158596 -0.0128335 9.58025 5.88076 11 1 
276 1.20832 9.53768 -0.0160281 -0.0129176 9.53771 6.00519 11 1 
278 1.20875 9.47559 -0.0160492 -0.0129336 9.47562 6.77925 11 1 
280 1.20949 9.40983 -0.0161805 -0.0130717 9.40988 8.11244 11 1 
282 1.21 9.32569 -0.0162724 -0.0131498 9.32588 9.02721 11 1 
284 1.21039 9.20424 -0.0161699 -0.0131081 9.20454 9.73492 11 1 
286 1.21093 9.07843 -0.0161635 -0.0131124 9.07861 10.7098 11 1 
288 1.21181 8.96299 -0.0163064 -0.0132627 8.96308 12.2979 11 1 
288 1.21181 8.96299 -0.0163064 -0.0132627 8.96308 12.2979 11 1 
290 1.21286 8.85129 -0.0163015 -0.0132878 8.85141 14.2008 11 1 
292 1.21376 8.70941 -0.0163017 -0.013373 8.70975 15.8166 11 1 
294 1.21449 8.52678 -0.016084 -0.013237 8.52737 17.1369 11 1 
296 1.21538 8.34186 -0.0152332 -0.012745 8.3423 18.7539 11 1 
298 1.2094 8.12663 -0.0158833 -0.0145676 8.22688 7.95589 11 1 
300 1.19906 8.05251 -0.0162508 -0.0178911 8.18192 -10.7253 11 1 
302 1.1957 8.01639 -0.0143811 -0.0199211 8.09183 -16.7919 11 1 
304 1.19668 7.83122 -0.0121999 -0.0210826 7.89202 -15.02 11 1 
306 1.19782 7.64006 -0.0106608 -0.0220789 7.68402 -12.9743 11 1 
308 1.19872 7.46493 -0.00958132 -0.0231101 7.49964 -11.3509 11 1 
310 1.19931 7.31792 -0.00864683 -0.0237791 7.33696 -10.2824 11 1 
312 1.19999 7.17699 -0.00786332 -0.0246081 7.19542 -9.04973 11 1 
314 1.20059 7.0643 -0.00725754 -0.0254173 7.08095 -7.96123 11 1 
316 1.2011 6.97464 -0.00666358 -0.0261958 6.99033 -7.03696 11 1 
318 1.20155 6.87534 -0.00605757 -0.0269271 6.8864 -6.23539 11 1 
320 1.20187 6.79482 -0.00544979 -0.0275447 6.80522 -5.65244 11 1 
320 1.20187 6.79482 -0.00544979 -0.0275447 6.80522 -5.65244 15 1 
322 1.20221 6.73923 -0.00505794 -0.0281907 6.74926 -5.04294 15 1 
324 1.20259 6.67988 -0.00462918 -0.028911 6.68934 -4.36193 15 1 
326 1.20286 6.62262 -0.00403082 -0.0294743 6.6305 -3.87424 15 1 
328 1.20305 6.57198 -0.00351368 -0.0300682 6.57956 -3.52351 15 1 
330 1.2032 6.52469 -0.00310965 -0.0307201 6.53159 -3.24953 15 1 
332 1.20346 6.49218 -0.00265651 -0.0313233 6.49899 -2.7778 15 1 
334 1.20373 6.45776 -0.00212952 -0.0319502 6.46391 -2.28692 15 1 
336 1.20376 6.41041 -0.00167029 -0.0326644 6.41637 -2.24032 15 1 
338 1.20384 6.37611 -0.00129173 -0.0333203 6.38182 -2.10419 15 1 
340 1.20409 6.35597 -0.000983089 -0.0340278 6.36153 -1.64521 15 1 
342 1.20423 6.33252 -0.000605168 -0.0346673 6.33768 -1.38299 15 1 
344 1.20428 6.30165 -0.000183916 -0.0352277 6.3068 -1.30704 15 1 
346 1.20432 6.26986 0.000189697 -0.0359513 6.27469 -1.22563 15 1 
348 1.20446 6.2551 0.000410581 -0.0368473 6.2598 -0.971167 15 1 
350 1.20463 6.24783 0.000679826 -0.0375654 6.2523 -0.675472 15 1 
352 1.20465 6.22561 0.00107992 -0.0381963 6.23003 -0.636546 15 1 
354 1.20469 6.20443 0.00139074 -0.0388605 6.2086 -0.567811 15 1 
356 1.2048 6.19404 0.0015281 -0.0395638 6.19807 -0.364801 15 1 
358 1.20486 6.18398 0.00170936 -0.0400975 6.18785 -0.24736 15 1 
360 1.20493 6.17651 0.00200745 -0.0405118 6.18033 -0.120661 15 1 
362 1.205 6.16794 0.0022473 -0.0409719 6.17154 0.00353588 15 1 
364 1.20504 6.15511 0.0023206 -0.0413362 6.15858 0.0795314 15 1 
366 1.20508 6.14621 0.00241625 -0.0414181 6.14953 0.153084 15 1 
368 1.20514 6.14205 0.00276141 -0.0416157 6.14534 0.248263 15 1 
370 1.20522 6.13936 0.00319762 -0.0422045 6.14252 0.399725 15 1 
372 1.20527 6.13357 0.00347073 -0.0430647 6.13662 0.487807 15 1 
374 1.20529 6.12419 0.00357779 -0.0437469 6.1271 0.516804 15 1 
376 1.20533 6.1181 0.00368266 -0.0438786 6.121 0.601011 15 1 
378 1.20537 6.1147 0.00380636 -0.0436301 6.11753 0.67669 15 1 
380 1.20542 6.11168 0.0039189 -0.0434691 6.11442 0.763193 15 1 
382 1.20547 6.10751 0.00402776 -0.043565 6.11015 0.842507 15 1 
384 1.20548 6.0986 0.00423908 -0.0438168 6.10122 0.865546 15 1 
384 1.20548 6.0986 0.00423908 -0.0438168 6.10122 0.865546 16 1 
386 1.20552 6.09143 0.00452526 -0.0441025 6.09399 0.930426 16 1 
388 1.20556 6.0893 0.00473185 -0.044402 6.09182 1.0133 16 1 
390 1.2056 6.08511 0.0048895 -0.0447423 6.08758 1.07494 16 1 
392 1.20563 6.07815 0.00514399 -0.045011 6.0806 1.13384 16 1 
394 1.20564 6.07009 0.0054406 -0.0452654 6.07248 1.15299 16 1 
396 1.20565 6.06191 0.00566498 -0.0455109 6.06429 1.17421 16 1 
398 1.20568 6.05646 0.0059034 -0.0457301 6.05881 1.23042 16 1 
400 1.20572 6.05163 0.00620936 -0.0459348 6.05395 1.29794 16 1 
402 1.20574 6.04396 0.00646536 -0.0461992 6.04624 1.34072 16 1 
404 1.20574 6.03443 0.00666942 -0.04641 6.03671 1.33668 16 1 
406 1.20576 6.02642 0.00698392 -0.0465936 6.02866 1.37337 16 1 
408 1.2058 6.02082 0.00730215 -0.046778 6.02303 1.44573 16 1 
410 1.20581 6.01402 0.00749714 -0.0470306 6.0162 1.46766 16 1 
412 1.20582 6.00563 0.00767324 -0.0472558 6.0078 1.48465 16 1 
414 1.20584 5.99788 0.00791923 -0.0474756 6.00001 1.51998 16 1 
416 1.20586 5.99001 0.00812905 -0.0476889 5.99212 1.54593 16 1 
416 1.20586 5.99001 0.00812905 -0.0476889 5.99212 1.54593 16 1 
418 1.20587 5.98234 0.00830298 -0.0479239 5.98442 1.56245 16 1 
420 1.20587 5.97557 0.00844103 -0.0481327 5.97765 1.57428 16 1 
422 1.20589 5.96858 0.00857175 -0.0483605 5.97062 1.60862 16 1 
424 1.20591 5.9611 0.00870958 -0.0485401 5.96311 1.64502 16 1 
426 1.20592 5.95305 0.00885404 -0.0487219 5.95503 1.65936 16 1 
428 1.20593 5.94541 0.00895298 -0.048892 5.94738 1.68271 16 1 
430 1.20594 5.93947 0.00901873 -0.0490868 5.94141 1.70527 16 1 
432 1.20595 5.93307 0.00905633 -0.0492631 5.93497 1.71072 16 1 
434 1.20595 5.92497 0.00913041 -0.0494363 5.92685 1.71037 16 1 
436 1.20595 5.91748 0.00920618 -0.0495808 5.91934 1.72228 16 1 
438 1.20597 5.91158 0.00927782 -0.0497278 5.91341 1.75113 16 1 
440 1.20598 5.90624 0.00934508 -0.0498532 5.90805 1.76331 16 1 
442 1.20598 5.90058 0.00939546 -0.0500255 5.90236 1.76835 16 1 
444 1.20599 5.89462 0.0094345 -0.050193 5.89638 1.79333 16 1 
446 1.206 5.88903 0.00950329 -0.0503365 5.89076 1.81248 16 1 
448 1.20601 5.88422 0.00957373 -0.050472 5.88593 1.82258 16 1 
448 1.20601 5.88422 0.00957373 -0.050472 5.88593 1.82258 17 1 
450 1.20601 5.88002 0.00965971 -0.0506146 5.8817 1.82711 17 1 
452 1.20601 5.87592 0.00973423 -0.0507546 5.87759 1.82448 17 1 
454 1.20602 5.87162 0.00976827 -0.0509498 5.87326 1.83383 17 1 
456 1.20602 5.86759 0.00981731 -0.0511267 5.86922 1.84653 17 1 
458 1.20603 5.86423 0.00992203 -0.051259 5.86584 1.85292 17 1 
460 1.20603 5.86167 0.0100127 -0.0513854 5.86327 1.8672 17 1 
462 1.20604 5.85965 0.0100848 -0.0515588 5.86123 1.88662 17 1 
464 1.20605 5.8573 0.0101712 -0.0517148 5.85887 1.89724 17 1 
466 1.20605 5.85463 0.0102691 -0.0518354 5.85618 1.89713 17 1 
468 1.20605 5.85288 0.0103551 -0.0519598 5.85442 1.8983 17 1 
470 1.20605 5.85209 0.0104524 -0.052115 5.85361 1.90179 17 1 
472 1.20605 5.85143 0.0105473 -0.0522283 5.85294 1.90561 17 1 
474 1.20606 5.85104 0.0106234 -0.0523419 5.85253 1.91983 17 1 
476 1.20607 5.8508 0.0107112 -0.0524615 5.85228 1.93164 17 1 
478 1.20607 5.85076 0.0108287 -0.0525546 5.85223 1.92732 17 1 
480 1.20607 5.85171 0.0109334 -0.0526181 5.85316 1.9285 17 1 
480 1.20607 5.85171 0.0109334 -0.0526181 5.85316 1.9285 17 1 
482 1.20608 5.85321 0.0110529 -0.0526917 5.85465 1.94424 17 1 
484 1.20609 5.85477 0.0111913 -0.0527615 5.8562 1.96219 17 1 
486 1.2061 5.85653 0.0112975 -0.0528408 5.85794 1.97908 17 1 
488 1.2061 5.85846 0.0113826 -0.0529043 5.85986 1.98365 17 1 
490 1.20609 5.86089 0.0115212 -0.0529548 5.86228 1.97045 17 1 
492 1.20609 5.86382 0.0116698 -0.0529797 5.8652 1.96096 17 1 
494 1.20609 5.86675 0.0117743 -0.0529888 5.86811 1.97008 17 1 
496 1.2061 5.86977 0.0118882 -0.0529815 5.87112 1.99295 17 1 
498 1.20612 5.87301 0.0120258 -0.0529764 5.87435 2.01522 17 1 
500 1.20612 5.87652 0.0121129 -0.0529588 5.87785 2.02579 17 1 
502 1.20612 5.88004 0.0121885 -0.0529442 5.88136 2.02728 17 1 
504 1.20612 5.88288 0.0123118 -0.0529128 5.88418 2.02237 17 1 
506 1.20612 5.88559 0.0124698 -0.0528553 5.88688 2.0169 17 1 
508 1.20612 5.88905 0.0126047 -0.0528081 5.89033 2.02743 17 1 
510 1.20613 5.89258 0.0127261 -0.0528233 5.89385 2.04692 17 1 
512 1.20614 5.89581 0.0128475 -0.052875 5.89707 2.05106 17 1 
512 1.20614 5.89581 0.0128475 -0.052875 5.89707 2.05106 25 1 
514 1.20613 5.89907 0.0129838 -0.0529289 5.90032 2.04756 25 1 
516 1.20613 5.90235 0.0131311 -0.0529524 5.9036 2.04783 25 1 
518 1.20614 5.90585 0.0132682 -0.0529442 5.90709 2.0522 25 1 
520 1.20615 5.90971 0.0133603 -0.0528974 5.91094 2.0688 25 1 
522 1.20615 5.91372 0.013428 -0.0528333 5.91494 2.08569 25 1 
524 1.20616 5.91744 0.0134972 -0.0527525 5.91864 2.08796 25 1 
526 1.20615 5.92064 0.0135735 -0.0526488 5.92183 2.07528 25 1 
528 1.20614 5.92391 0.0136571 -0.0525359 5.9251 2.06287 25 1 
530 1.20615 5.92747 0.0137465 -0.0524512 5.92865 2.07068 25 1 
532 1.20615 5.93116 0.0138096 -0.0523846 5.93233 2.08487 25 1 
534 1.20616 5.93498 0.0138728 -0.052314 5.93614 2.09467 25 1 
536 1.20616 5.93884 0.0139407 -0.0522559 5.93998 2.09927 25 1 
538 1.20616 5.94265 0.0140137 -0.0522012 5.94379 2.09287 25 1 
540 1.20616 5.94668 0.0141052 -0.0521084 5.94781 2.09224 25 1 
542 1.20616 5.95111 0.0142085 -0.0519933 5.95223 2.10212 25 1 
544 1.20617 5.95539 0.0143168 -0.0518501 5.95651 2.11083 25 1 
544 1.20617 5.95539 0.0143168 -0.0518501 5.95651 2.11083 25 1 
546 1.20617 5.95907 0.014444 -0.0516859 5.96017 2.10956 25 1 
548 1.20616 5.9624 0.0145686 -0.0515348 5.96349 2.09272 25 1 
550 1.20615 5.96598 0.0146765 -0.0514316 5.96707 2.07798 25 1 
552 1.20616 5.97023 0.0147563 -0.0514138 5.97132 2.08696 25 1 
554 1.20617 5.97521 0.0148195 -0.0514698 5.9763 2.11656 25 1 
556 1.20618 5.98066 0.0148879 -0.0515233 5.98174 2.13665 25 1 
558 1.20617 5.986 0.0149991 -0.0515114 5.98709 2.12184 25 1 
560 1.20616 5.99111 0.0151663 -0.0514065 5.99219 2.08998 25 1 
562 1.20615 5.99633 0.0153495 -0.0512478 5.99741 2.07474 25 1 
564 1.20615 6.0016 0.0155036 -0.0510997 6.00268 2.08284 25 1 
566 1.20616 6.00683 0.015584 -0.0510017 6.0079 2.10431 25 1 
568 1.20617 6.01192 0.0155819 -0.0509835 6.01299 2.11996 25 1 
570 1.20617 6.01688 0.015559 -0.0510441 6.01795 2.10773 25 1 
572 1.20615 6.02265 0.0155659 -0.0511634 6.02373 2.07639 25 1 
574 1.20614 6.02977 0.0155903 -0.0513034 6.03085 2.05741 25 1 
576 1.20615 6.03797 0.0156007 -0.0513949 6.03906 2.07037 25 1 
576 1.20615 6.03797 0.0156007 -0.0513949 6.03906 2.07037 26 1 
578 1.20616 6.04674 0.0156042 -0.0513735 6.04782 2.09854 26 1 
580 1.20616 6.05508 0.0156146 -0.0512314 6.05616 2.10414 26 1 
582 1.20615 6.06239 0.0156254 -0.0510041 6.06346 2.07692 26 1 
584 1.20613 6.06865 0.0156226 -0.050703 6.06972 2.0387 26 1 
586 1.20612 6.07448 0.0155618 -0.0504114 6.07553 2.01985 26 1 
588 1.20613 6.08082 0.0154412 -0.0502152 6.08187 2.03475 26 1 
590 1.20614 6.08769 0.0152783 -0.0502044 6.08873 2.06141 26 1 
592 1.20615 6.09499 0.0150653 -0.0503789 6.09603 2.06854 26 1 
594 1.20613 6.10312 0.0148201 -0.0505761 6.10417 2.04354 26 1 
596 1.2061 6.11206 0.0145467 -0.0506297 6.11311 1.99438 26 1 
598 1.20609 6.12204 0.0142589 -0.0503934 6.12308 1.96217 26 1 
600 1.20609 6.13272 0.013893 -0.049792 6.13373 1.97345 26 1 
602 1.20611 6.14284 0.0133865 -0.0488082 6.14381 2.00105 26 1 
604 1.20611 6.15076 0.0127512 -0.0474369 6.15168 2.00677 26 1 
606 1.20609 6.15528 0.0120206 -0.0458545 6.15614 1.97445 26 1 
608 1.20607 6.15665 0.011336 -0.0443269 6.15745 1.92692 26 1 
608 1.20607 6.15665 0.011336 -0.0443269 6.15745 1.92692 26 1 
610 1.20605 6.15573 0.0107492 -0.0431606 6.15648 1.89467 26 1 
612 1.20605 6.15404 0.0101814 -0.0424558 6.15477 1.89101 26 1 
614 1.20606 6.15336 0.00949237 -0.042089 6.15407 1.91128 26 1 
616 1.20606 6.15447 0.00856532 -0.0418095 6.15516 1.91648 26 1 
618 1.20604 6.15737 0.00744456 -0.0412527 6.15803 1.88542 26 1 
620 1.20601 6.16135 0.0061233 -0.0399503 6.16196 1.83002 26 1 
622 1.20599 6.16487 0.00448433 -0.0373852 6.16539 1.78502 26 1 
624 1.20599 6.16499 0.00238149 -0.0332942 6.1654 1.78175 26 1 
626 1.206 6.15806 -0.000126545 -0.027884 6.15834 1.80203 26 1 
628 1.20601 6.14124 -0.00278518 -0.0219509 6.14141 1.81721 26 1 
630 1.20599 6.11372 -0.00527876 -0.0165854 6.11382 1.7958 26 1 
632 1.20596 6.07791 -0.00741749 -0.0125929 6.07797 1.73318 26 1 
634 1.20592 6.03835 -0.00918234 -0.0102883 6.0384 1.66082 26 1 
636 1.20589 6.00014 -0.0106457 -0.00946026 6.00018 1.61583 26 1 
638 1.20589 5.9677 -0.0119305 -0.00972715 5.96774 1.61484 26 1 
640 1.2059 5.94333 -0.0131427 -0.010642 5.94337 1.62407 26 1 
642 1.20589 5.92767 -0.0142689 -0.011857 5.92771 1.61506 26 1 
644 1.20587 5.92064 -0.0152905 -0.0131297 5.92068 1.56892 26 1 
646 1.20583 5.92201 -0.0161852 -0.0143219 5.92207 1.49645 26 1 
648 1.2058 5.9319 -0.01692 -0.0153299 5.93196 1.44393 26 1 
650 1.2058 5.9495 -0.0175384 -0.0161493 5.94957 1.43715 26 1 
652 1.20581 5.97382 -0.0180862 -0.0167787 5.9739 1.47064 26 1 
654 1.20583 6.00363 -0.0185936 -0.0172466 6.00372 1.50346 26 1 
656 1.20583 6.03751 -0.0190824 -0.017577 6.0376 1.50824 26 1 
658 1.20582 6.07495 -0.0195682 -0.0177642 6.07505 1.47375 26 1 
660 1.20578 6.11532 -0.0200687 -0.0178243 6.11543 1.41664 26 1 
662 1.20576 6.1591 -0.0205546 -0.0177577 6.15921 1.37933 26 1 
664 1.20577 6.2064 -0.0210357 -0.0175562 6.20651 1.38976 26 1 
666 1.2058 6.25645 -0.0215251 -0.0172638 6.25655 1.44435 26 1 
668 1.20583 6.30882 -0.0220098 -0.0168727 6.30892 1.49918 26 1 
670 1.20584 6.36215 -0.0225204 -0.016446 6.36225 1.52605 26 1 
672 1.20583 6.41627 -0.0230635 -0.015969 6.41638 1.49935 26 1 
672 1.20583 6.41627 -0.0230635 -0.015969 6.41638 1.49935 27 1 
674 1.2058 6.47123 -0.0236078 -0.0154455 6.47133 1.44441 27 1 
676 1.20578 6.52743 -0.0241301 -0.0148604 6.52753 1.4049 27 1 
678 1.20578 6.58555 -0.024636 -0.0142157 6.58565 1.40196 27 1 
680 1.20581 6.64501 -0.0251445 -0.0135601 6.64511 1.457 27 1 
682 1.20584 6.70579 -0.0256424 -0.0129037 6.70589 1.5226 27 1 
684 1.20587 6.76647 -0.0261696 -0.0122735 6.76657 1.56919 27 1 
686 1.20586 6.82669 -0.0267002 -0.0116396 6.82679 1.55963 27 1 
688 1.20584 6.8869 -0.0271748 -0.0110092 6.887 1.50833 27 1 
690 1.20581 6.94714 -0.0276088 -0.0103567 6.94724 1.46909 27 1 
692 1.2058 7.00842 -0.0280028 -0.0096852 7.00851 1.44787 27 1 
694 1.20582 7.07007 -0.0283979 -0.00905086 7.07016 1.48212 27 1 
696 1.20585 7.13246 -0.0287968 -0.00848527 7.13256 1.53029 27 1 
698 1.20587 7.1949 -0.0291796 -0.00797718 7.195 1.57964 27 1 
700 1.20589 7.25648 -0.0295405 -0.00748971 7.25659 1.60654 27 1 
702 1.20588 7.3177 -0.0298378 -0.00703798 7.31781 1.58238 27 1 
704 1.20586 7.37786 -0.0300922 -0.00660427 7.37797 1.55873 27 1 
704 1.20586 7.37786 -0.0300922 -0.00660427 7.37797 1.55873 31 1 
706 1.20584 7.43817 -0.0303116 -0.00620319 7.43827 1.52171 31 1 
708 1.20584 7.49866 -0.0304968 -0.00583642 7.49876 1.51494 31 1 
710 1.20585 7.55905 -0.0306429 -0.00551715 7.55916 1.53495 31 1 
712 1.20587 7.61964 -0.0307897 -0.00528169 7.61974 1.56495 31 1 
714 1.2059 7.67956 -0.0308907 -0.00506945 7.67967 1.62263 31 1 
716 1.20591 7.73971 -0.0309938 -0.00493339 7.73982 1.64261 31 1 
718 1.20591 7.79863 -0.0310671 -0.00485665 7.79874 1.65187 31 1 
720 1.2059 7.85667 -0.031068 -0.00480368 7.85677 1.62924 31 1 
722 1.20588 7.9147 -0.0310251 -0.00479751 7.91481 1.58666 31 1 
724 1.20588 7.97244 -0.0309373 -0.00485923 7.97254 1.5809 31 1 
726 1.20588 8.03116 -0.030823 -0.00496012 8.03126 1.58271 31 1 
728 1.20591 8.08964 -0.0307197 -0.00509865 8.08974 1.63624 31 1 
730 1.20593 8.14841 -0.0306109 -0.00533316 8.14851 1.68595 31 1 
732 1.20595 8.20743 -0.0305109 -0.00564088 8.20753 1.7086 31 1 
734 1.20596 8.26545 -0.030392 -0.00597567 8.26555 1.73479 31 1 
736 1.20595 8.32283 -0.0301518 -0.0063232 8.32292 1.72488 31 1 
738 1.20594 8.38086 -0.0299167 -0.00677069 8.38095 1.70227 31 1 
740 1.20594 8.43898 -0.0296917 -0.00718127 8.43906 1.70124 31 1 
742 1.20596 8.49676 -0.0294141 -0.00757706 8.49685 1.73405 31 1 
744 1.20598 8.5553 -0.0291254 -0.008021 8.55538 1.76131 31 1 
746 1.206 8.61335 -0.0288641 -0.00843664 8.61344 1.80214 31 1 
748 1.20604 8.67041 -0.0285835 -0.00890604 8.67049 1.87297 31 1 
750 1.20605 8.72711 -0.0283508 -0.00947031 8.72718 1.89201 31 1 
752 1.20606 8.78357 -0.0280476 -0.00987658 8.78365 1.9057 31 1 
752 1.20606 8.78357 -0.0280476 -0.00987658 8.78365 1.9057 31 1 
754 1.20608 8.83835 -0.0277454 -0.0101401 8.83842 1.95066 31 1 
756 1.20609 8.89172 -0.0274534 -0.0104402 8.89179 1.97431 31 1 
758 1.2061 8.94525 -0.0272134 -0.0107348 8.94532 1.98794 31 1 
760 1.20612 8.99733 -0.026995 -0.0109772 8.9974 2.02527 31 1 
762 1.20615 9.04777 -0.0266292 -0.0111511 9.04784 2.07799 31 1 
764 1.20615 9.09845 -0.0263617 -0.0113776 9.09852 2.07671 31 1 
766 1.20618 9.14686 -0.0261209 -0.011504 9.14693 2.12347 31 1 
768 1.20622 9.19452 -0.0257161 -0.0114472 9.19458 2.20073 31 1 
770 1.20624 9.24101 -0.0255631 -0.0115923 9.24106 2.24268 31 1 
772 1.20627 9.28526 -0.025354 -0.0116407 9.28532 2.29387 31 1 
774 1.20629 9.32844 -0.024964 -0.0115878 9.3285 2.3245 31 1 
776 1.20631 9.36904 -0.0246886 -0.0117957 9.3691 2.36293 31 1 
778 1.20632 9.40853 -0.0245609 -0.0119808 9.40858 2.37518 31 1 
780 1.20633 9.44595 -0.0241743 -0.0118484 9.446 2.41045 31 1 
782 1.20638 9.48083 -0.0234715 -0.0115471 9.48087 2.49088 31 1 
784 1.2064 9.51407 -0.0231479 -0.0116926 9.51411 2.52967 31 1 
786 1.20643 9.54492 -0.0229357 -0.0119751 9.54496 2.5895 31 1 
788 1.20648 9.57322 -0.0224949 -0.0120796 9.57326 2.6715 31 1 
790 1.20652 9.5994 -0.0218567 -0.011973 9.59944 2.74226 31 1 
792 1.20658 9.62219 -0.0213361 -0.0121009 9.62223 2.8534 31 1 
794 1.20663 9.64305 -0.020712 -0.012278 9.64309 2.93706 31 1 
796 1.20669 9.66069 -0.0199735 -0.0119781 9.66072 3.05405 31 1 
798 1.20676 9.67624 -0.0194044 -0.0118704 9.67626 3.18259 31 1 
800 1.20678 9.6847 -0.0191478 -0.0119453 9.68473 3.211 31 1 
