0,1.22373,9.9994,-0.000107177,9.28469e-06,9.9994,33.835,1,1,
2,1.22376,9.99805,-9.7652e-05,-2.19714e-05,9.99805,33.8813,1,1,
4,1.22376,9.99708,-0.000285606,-0.000154114,9.99708,33.8903,1,1,
6,1.22376,9.99698,-0.000376201,-0.000240872,9.99698,33.8871,1,1,
8,1.22377,9.99676,-0.000485585,-0.000335169,9.99676,33.9075,1,1,
10,1.22377,9.99648,-0.000584128,-0.000416032,9.99648,33.9016,1,1,
12,1.22378,9.99541,-0.000691289,-0.000506781,9.99541,33.9192,1,1,
14,1.22378,9.99553,-0.00085258,-0.000617007,9.99553,33.9169,1,1,
16,1.22379,9.99513,-0.000929542,-0.0006707,9.99513,33.9437,1,1,
18,1.22379,9.99393,-0.00103702,-0.000743849,9.99393,33.9423,1,1,
20,1.22378,9.99385,-0.00119257,-0.000855643,9.99385,33.9202,1,1,
22,1.22381,9.99357,-0.00131774,-0.000937882,9.99357,33.9753,1,1,
24,1.22381,9.99373,-0.00144312,-0.00103621,9.99373,33.9793,1,1,
26,1.22381,9.99299,-0.00155242,-0.00110563,9.993,33.9705,1,1,
28,1.22381,9.99203,-0.00168179,-0.0011964,9.99203,33.9843,1,1,
30,1.22381,9.99173,-0.00179908,-0.001277,9.99173,33.9845,1,1,
32,1.22383,9.99069,-0.00194935,-0.00137557,9.99069,34.0092,1,1,
32,1.22383,9.99069,-0.00194935,-0.00137557,9.99069,34.0092,1,1,
34,1.22383,9.98991,-0.00203391,-0.00142315,9.98991,34.0044,1,1,
36,1.22383,9.98872,-0.00219034,-0.00151177,9.98872,34.0146,1,1,
38,1.22383,9.98875,-0.00230204,-0.00159447,9.98875,34.013,1,1,
40,1.22384,9.98827,-0.00241601,-0.00168248,9.98827,34.0316,1,1,
42,1.22385,9.98736,-0.00254846,-0.00178537,9.98736,34.0514,1,1,
44,1.22385,9.98645,-0.00265777,-0.00182835,9.98645,34.0428,1,1,
46,1.22386,9.98515,-0.00280815,-0.00192206,9.98515,34.0596,1,1,
48,1.22385,9.98507,-0.0029593,-0.00204924,9.98507,34.0562,1,1,
50,1.22387,9.98521,-0.00305953,-0.00209562,9.98521,34.0749,1,1,
52,1.22387,9.98404,-0.00316841,-0.00216447,9.98404,34.0886,1,1,
54,1.22387,9.98269,-0.00332018,-0.00225118,9.98269,34.0824,1,1,
56,1.22388,9.98294,-0.00343429,-0.00232053,9.98294,34.1014,1,1,
58,1.22389,9.98254,-0.00359751,-0.00245279,9.98255,34.1162,1,1,
60,1.22388,9.98184,-0.00370312,-0.00252206,9.98184,34.1088,1,1,
62,1.22389,9.98086,-0.00382477,-0.00263006,9.98086,34.125,1,1,
64,1.2239,9.98061,-0.0039568,-0.00270128,9.98062,34.1367,1,1,
64,1.2239,9.98061,-0.0039568,-0.00270128,9.98062,34.1367,2,1,
66,1.22391,9.98027,-0.00408984,-0.00280272,9.98027,34.1608,2,1,
68,1.2239,9.9806,-0.00424214,-0.00291231,9.9806,34.142,2,1,
70,1.22392,9.97956,-0.00439707,-0.00300634,9.97956,34.1655,2,1,
72,1.22392,9.97834,-0.00453298,-0.00310953,9.97834,34.1833,2,1,
74,1.22392,9.97798,-0.00463722,-0.00316825,9.97798,34.1702,2,1,
76,1.22394,9.97709,-0.00475352,-0.00326605,9.97709,34.2187,2,1,
78,1.22393,9.97783,-0.00487445,-0.00334186,9.97783,34.2002,2,1,
80,1.22394,9.97708,-0.00501411,-0.00346162,9.97708,34.2093,2,1,
82,1.22395,9.97612,-0.00517071,-0.00359551,9.97612,34.2284,2,1,
84,1.22396,9.97554,-0.00528627,-0.00365696,9.97554,34.2394,2,1,
86,1.22397,9.97468,-0.00542134,-0.00373057,9.97468,34.262,2,1,
88,1.22396,9.97443,-0.00561267,-0.00386096,9.97443,34.2551,2,1,
90,1.22397,9.97379,-0.0057037,-0.00393208,9.97379,34.2703,2,1,
92,1.22398,9.97283,-0.0058692,-0.00403248,9.97284,34.2795,2,1,
94,1.22399,9.97179,-0.00601284,-0.00414132,9.97179,34.2978,2,1,
96,1.224,9.97135,-0.00612154,-0.00421778,9.97135,34.3136,2,1,
96,1.224,9.97135,-0.00612154,-0.00421778,9.97135,34.3136,2,1,
98,1.224,9.97155,-0.00629097,-0.00433146,9.97155,34.3177,2,1,
100,1.22401,9.97127,-0.00637821,-0.00437169,9.97128,34.3289,2,1,
102,1.22401,9.9704,-0.00652883,-0.00449699,9.97041,34.3332,2,1,
104,1.22402,9.96885,-0.00674567,-0.00463469,9.96885,34.3604,2,1,
106,1.22403,9.96792,-0.00684689,-0.00467633,9.96792,34.3684,2,1,
108,1.22404,9.96645,-0.0070073,-0.00481058,9.96646,34.3873,2,1,
110,1.22403,9.9663,-0.00713335,-0.00490783,9.96631,34.3754,2,1,
112,1.22403,9.96624,-0.00728184,-0.00499614,9.96624,34.3819,2,1,
114,1.22406,9.96466,-0.0074062,-0.00506485,9.96467,34.4278,2,1,
116,1.22406,9.96529,-0.00753824,-0.00515593,9.9653,34.4254,2,1,
118,1.22407,9.96487,-0.00765838,-0.0052393,9.96487,34.4459,2,1,
120,1.22408,9.9631,-0.00780347,-0.00532667,9.9631,34.4711,2,1,
122,1.22407,9.96262,-0.00797453,-0.00542785,9.96263,34.4411,2,1,
124,1.22408,9.96083,-0.00809516,-0.00553724,9.96083,34.4557,2,1,
126,1.22411,9.95925,-0.00828053,-0.00567308,9.95926,34.5232,2,1,
128,1.22409,9.96006,-0.00840614,-0.00571033,9.96006,34.4879,2,1,
128,1.22409,9.96006,-0.00840614,-0.00571033,9.96006,34.4879,10,1,
130,1.22411,9.95936,-0.0085554,-0.00585877,9.95937,34.5156,10,1,
132,1.22412,9.95942,-0.00868913,-0.00592112,9.95943,34.5427,10,1,
134,1.22412,9.95877,-0.00885117,-0.00600652,9.95877,34.5373,10,1,
136,1.22414,9.95614,-0.00896334,-0.00611313,9.95615,34.5722,10,1,
138,1.22413,9.95538,-0.00909853,-0.00619931,9.95539,34.5559,10,1,
140,1.22415,9.95518,-0.00923065,-0.00630229,9.95519,34.5897,10,1,
142,1.22416,9.95485,-0.00936465,-0.00635304,9.95486,34.6018,10,1,
144,1.22416,9.95448,-0.0095394,-0.0064808,9.95448,34.6064,10,1,
146,1.22419,9.95377,-0.00969904,-0.00657724,9.95378,34.6566,10,1,
148,1.22419,9.95183,-0.0098652,-0.00668472,9.95183,34.661,10,1,
150,1.22417,9.95088,-0.00998332,-0.00678034,9.95088,34.6332,10,1,
152,1.2242,9.95018,-0.0101208,-0.00687946,9.95019,34.6769,10,1,
154,1.22422,9.94937,-0.0101996,-0.00692232,9.94938,34.7103,10,1,
156,1.22421,9.9494,-0.0103682,-0.00702354,9.94941,34.7062,10,1,
158,1.22423,9.94804,-0.0105122,-0.00711139,9.94805,34.742,10,1,
160,1.22425,9.94587,-0.010591,-0.00717262,9.94588,34.7639,10,1,
160,1.22425,9.94587,-0.010591,-0.00717262,9.94588,34.7639,10,1,
162,1.22423,9.94577,-0.0107609,-0.00730465,9.94578,34.7299,10,1,
164,1.22425,9.94438,-0.0108871,-0.00737572,9.94439,34.7662,10,1,
166,1.22429,9.94188,-0.0110724,-0.00749122,9.94189,34.8508,10,1,
168,1.22426,9.9432,-0.0112387,-0.00761229,9.94321,34.7948,10,1,
170,1.22429,9.94089,-0.0113474,-0.00768954,9.9409,34.8398,10,1,
172,1.2243,9.93995,-0.0114904,-0.00773637,9.93996,34.8657,10,1,
174,1.22429,9.94087,-0.0115848,-0.00780615,9.94088,34.8378,10,1,
176,1.22434,9.93759,-0.0117606,-0.00790419,9.9376,34.9402,10,1,
178,1.22433,9.93692,-0.0118835,-0.00798781,9.93693,34.9214,10,1,
180,1.22434,9.93527,-0.0120155,-0.00812773,9.93528,34.9341,10,1,
182,1.22435,9.93199,-0.0121738,-0.008252,9.932,34.9562,10,1,
184,1.22434,9.93089,-0.0123363,-0.00834934,9.93091,34.9306,10,1,
186,1.22439,9.93085,-0.0124319,-0.00838672,9.93086,35.027,10,1,
188,1.22441,9.92991,-0.0125334,-0.00844249,9.92992,35.0668,10,1,
190,1.2244,9.92906,-0.0127504,-0.00859204,9.92907,35.0434,10,1,
192,1.22441,9.92809,-0.0127498,-0.00857178,9.92811,35.0585,10,1,
194,1.22444,9.92406,-0.0130394,-0.00876292,9.92407,35.1061,10,1,
196,1.22445,9.92075,-0.0132255,-0.00888429,9.92076,35.13,10,1,
198,1.22446,9.91976,-0.0132406,-0.00882353,9.91978,35.1455,10,1,
200,1.2245,9.91772,-0.0134726,-0.00904366,9.91774,35.228,10,1,
202,1.2245,9.91692,-0.0134973,-0.00907386,9.91693,35.2253,10,1,
204,1.22447,9.91688,-0.013572,-0.00907182,9.91689,35.1748,10,1,
206,1.22455,9.91281,-0.0138834,-0.00927812,9.91282,35.3183,10,1,
208,1.22459,9.91095,-0.0140407,-0.00933271,9.91096,35.3836,10,1,
210,1.22455,9.91089,-0.0141012,-0.00934011,9.91091,35.3194,10,1,
212,1.22463,9.90358,-0.0142661,-0.00952575,9.90359,35.4518,10,1,
214,1.22461,9.89874,-0.0143375,-0.00955911,9.89875,35.4212,10,1,
216,1.2246,9.89506,-0.0145597,-0.00965556,9.89508,35.4077,10,1,
218,1.22469,9.88997,-0.0148306,-0.00983192,9.88998,35.56,10,1,
220,1.2247,9.89336,-0.0149092,-0.00992182,9.89338,35.5809,10,1,
222,1.22475,9.89256,-0.0149862,-0.00997254,9.89258,35.6704,10,1,
224,1.22476,9.88655,-0.0150822,-0.00988573,9.88656,35.689,10,1,
224,1.22476,9.88655,-0.0150822,-0.00988573,9.88656,35.689,10,1,
226,1.22479,9.88106,-0.0152918,-0.00998472,9.88108,35.754,10,1,
228,1.22484,9.87067,-0.0154606,-0.0101999,9.87069,35.8281,10,1,
230,1.22484,9.86283,-0.0156573,-0.0103901,9.86284,35.8442,10,1,
232,1.22487,9.86281,-0.0158594,-0.0104387,9.86283,35.8938,10,1,
234,1.22495,9.85929,-0.0159617,-0.0104163,9.85931,36.0281,10,1,
236,1.22505,9.85038,-0.0160558,-0.0105226,9.8504,36.2145,10,1,
238,1.22499,9.84682,-0.0161806,-0.0106123,9.84684,36.1141,10,1,
240,1.22513,9.8338,-0.0165323,-0.0109056,9.83383,36.3572,10,1,
242,1.22517,9.82435,-0.0167181,-0.0110149,9.82437,36.4356,10,1,
244,1.22512,9.82178,-0.0167692,-0.01098,9.82181,36.3438,10,1,
246,1.22535,9.80869,-0.016935,-0.0110963,9.80872,36.7547,10,1,
248,1.2254,9.79815,-0.0169888,-0.0110711,9.79818,36.8452,10,1,
250,1.22542,9.78448,-0.0172292,-0.0112575,9.7845,36.8875,10,1,
252,1.22551,9.77138,-0.0175547,-0.0115474,9.77141,37.0423,10,1,
254,1.22565,9.75782,-0.0175749,-0.0114857,9.75785,37.2942,10,1,
256,1.22575,9.74218,-0.0176922,-0.0115809,9.7422,37.485,10,1,
256,1.22575,9.74218,-0.0176922,-0.0115809,9.7422,37.485,11,1,
258,1.22583,9.72405,-0.017924,-0.0117559,9.72408,37.6247,11,1,
260,1.22606,9.70376,-0.0181073,-0.0118675,9.70379,38.0341,11,1,
262,1.22621,9.67982,-0.0183682,-0.0120579,9.67985,38.3017,11,1,
264,1.22621,9.65619,-0.0184345,-0.0120741,9.65622,38.3132,11,1,
266,1.22647,9.63117,-0.0185146,-0.0121427,9.6312,38.7811,11,1,
268,1.22691,9.58994,-0.0187283,-0.0123204,9.58998,39.5812,11,1,
270,1.22688,9.56022,-0.0189804,-0.0124462,9.56026,39.52,11,1,
272,1.22715,9.51704,-0.0190185,-0.0124484,9.51709,40.0082,11,1,
274,1.22772,9.45985,-0.0191649,-0.0125934,9.45988,41.0428,11,1,
276,1.22779,9.41775,-0.0193461,-0.0126859,9.41779,41.1572,11,1,
278,1.22821,9.35624,-0.0194716,-0.012786,9.35628,41.921,11,1,
280,1.22894,9.29141,-0.0195807,-0.0128659,9.29147,43.2388,11,1,
282,1.22945,9.20867,-0.0196182,-0.0128695,9.20886,44.1537,11,1,
284,1.22984,9.08903,-0.019599,-0.0129175,9.08933,44.8709,11,1,
286,1.23038,8.96511,-0.0196283,-0.0129638,8.9653,45.8436,11,1,
288,1.23125,8.85127,-0.0197122,-0.0130436,8.85137,47.4122,11,1,
288,1.23125,8.85127,-0.0197122,-0.0130436,8.85137,47.4122,11,1,
290,1.23229,8.74082,-0.0197101,-0.0130604,8.74094,49.2867,11,1,
292,1.23317,8.60078,-0.0197102,-0.0131421,8.60112,50.8776,11,1,
294,1.23389,8.42078,-0.0193835,-0.0129376,8.42137,52.1782,11,1,
296,1.23477,8.23915,-0.0183722,-0.0124593,8.2396,53.7702,11,1,
298,1.22886,8.02843,-0.0193271,-0.0144874,8.13175,43.1028,11,1,
300,1.21861,7.95469,-0.0200926,-0.0182087,8.08816,24.5886,11,1,
302,1.21526,7.91694,-0.01815,-0.0206813,7.99456,18.5385,11,1,
304,1.21624,7.73276,-0.0157654,-0.0222072,7.79518,20.3039,11,1,
306,1.21737,7.54286,-0.0141059,-0.023479,7.58789,22.3447,11,1,
308,1.21827,7.36901,-0.0129592,-0.02475,7.40452,23.9635,11,1,
310,1.21886,7.22294,-0.01195,-0.0256074,7.24244,25.0269,11,1,
312,1.21953,7.08308,-0.0111285,-0.0266225,7.10196,26.2531,11,1,
314,1.22013,6.97096,-0.0104888,-0.02758,6.98799,27.3364,11,1,
316,1.22064,6.88147,-0.00985461,-0.0284977,6.89752,28.2497,11,1,
318,1.22107,6.78253,-0.00920866,-0.029375,6.79385,29.0352,11,1,
320,1.22139,6.70193,-0.0085682,-0.0301356,6.71257,29.6105,11,1,
320,1.22139,6.70193,-0.0085682,-0.0301356,6.71257,29.6105,15,1,
322,1.22173,6.64605,-0.00815627,-0.0308916,6.6563,30.2163,15,1,
324,1.2221,6.58667,-0.0077161,-0.031749,6.59633,30.8902,15,1,
326,1.22237,6.52918,-0.00710256,-0.0324711,6.53721,31.3708,15,1,
328,1.22256,6.47809,-0.00656976,-0.0332054,6.48583,31.7167,15,1,
330,1.22271,6.4303,-0.00614954,-0.033983,6.43734,31.985,15,1,
332,1.22296,6.3971,-0.00568298,-0.0347154,6.40405,32.4466,15,1,
334,1.22323,6.36206,-0.00514412,-0.035453,6.36831,32.9283,15,1,
336,1.22325,6.3141,-0.0046784,-0.0362592,6.32017,32.9694,15,1,
338,1.22333,6.27906,-0.00429757,-0.0369852,6.28486,33.0996,15,1,
340,1.22358,6.2581,-0.00398679,-0.0377621,6.26374,33.5552,15,1,
342,1.22372,6.23374,-0.00357382,-0.0384765,6.23899,33.815,15,1,
344,1.22376,6.20198,-0.00314694,-0.0391157,6.20721,33.8846,15,1,
346,1.2238,6.16924,-0.00280577,-0.0398733,6.17414,33.958,15,1,
348,1.22394,6.15327,-0.00262647,-0.0407217,6.15804,34.2036,15,1,
350,1.2241,6.14474,-0.00237922,-0.0413563,6.14927,34.4943,15,1,
352,1.22412,6.12142,-0.00198635,-0.0419443,6.1259,34.5331,15,1,
354,1.22415,6.09919,-0.00164539,-0.0426138,6.10342,34.5974,15,1,
356,1.22426,6.08777,-0.0014751,-0.0434142,6.09186,34.7914,15,1,
358,1.22432,6.07662,-0.00128732,-0.0441113,6.08054,34.9034,15,1,
360,1.22439,6.068,-0.000957794,-0.0446468,6.07188,35.0282,15,1,
362,1.22446,6.05856,-0.000595344,-0.0452366,6.06222,35.1489,15,1,
364,1.2245,6.04516,-0.00034699,-0.0459565,6.0487,35.2217,15,1,
366,1.22454,6.03563,-0.000141103,-0.0465829,6.03901,35.2969,15,1,
368,1.22459,6.03052,0.0001839,-0.0471799,6.03387,35.3916,15,1,
370,1.22467,6.02672,0.000567762,-0.0477319,6.02995,35.5334,15,1,
372,1.22472,6.02,0.000872888,-0.0483389,6.02311,35.6104,15,1,
374,1.22473,6.01006,0.00114488,-0.0490164,6.01304,35.6355,15,1,
376,1.22478,6.00368,0.00149219,-0.0496313,6.00665,35.7239,15,1,
378,1.22482,6.00003,0.0018761,-0.0501593,6.00293,35.8072,15,1,
380,1.22487,5.99667,0.0022216,-0.050767,5.99949,35.8966,15,1,
382,1.22492,5.99215,0.00251701,-0.0514314,5.99488,35.9739,15,1,
384,1.22493,5.98302,0.00289641,-0.0520843,5.98573,35.995,15,1,
384,1.22493,5.98302,0.00289641,-0.0520843,5.98573,35.995,16,1,
386,1.22496,5.97568,0.00333702,-0.0526907,5.97833,36.056,16,1,
388,1.225,5.97328,0.00369579,-0.0533086,5.97591,36.1324,16,1,
390,1.22504,5.96887,0.00398149,-0.0539992,5.97145,36.1909,16,1,
392,1.22507,5.96192,0.00439422,-0.0546523,5.96447,36.2536,16,1,
394,1.22509,5.95409,0.00485208,-0.0553148,5.95659,36.2809,16,1,
396,1.2251,5.94616,0.00522512,-0.0559925,5.94866,36.3082,16,1,
398,1.22513,5.94084,0.0055884,-0.0566538,5.94331,36.3653,16,1,
400,1.22517,5.93617,0.00602262,-0.057303,5.93861,36.4308,16,1,
402,1.22519,5.92877,0.00641233,-0.0580162,5.93118,36.4742,16,1,
404,1.22519,5.91955,0.00676416,-0.0586885,5.92196,36.4738,16,1,
406,1.22521,5.91183,0.00721884,-0.0593394,5.9142,36.5099,16,1,
408,1.22525,5.90657,0.00765199,-0.0599851,5.90892,36.5798,16,1,
410,1.22527,5.90022,0.00794991,-0.0606821,5.90255,36.6042,16,1,
412,1.22528,5.89232,0.00824821,-0.0613271,5.89465,36.6264,16,1,
414,1.2253,5.88506,0.008637,-0.0619544,5.88735,36.6653,16,1,
416,1.22532,5.87776,0.00899369,-0.0625742,5.88003,36.694,16,1,
416,1.22532,5.87776,0.00899369,-0.0625742,5.88003,36.694,16,1,
418,1.22533,5.87079,0.00930811,-0.063218,5.87304,36.7191,16,1,
420,1.22534,5.86479,0.00958651,-0.0638324,5.86704,36.7456,16,1,
422,1.22537,5.8585,0.00984462,-0.0644787,5.86072,36.7871,16,1,
424,1.22538,5.85161,0.0101095,-0.0650653,5.8538,36.8154,16,1,
426,1.22538,5.8441,0.0103801,-0.0656359,5.84626,36.8168,16,1,
428,1.2254,5.83725,0.0106114,-0.0661784,5.83941,36.84,16,1,
430,1.22542,5.83243,0.0108099,-0.0667423,5.83455,36.882,16,1,
432,1.22543,5.82729,0.0109912,-0.0672743,5.8294,36.9087,16,1,
434,1.22544,5.82037,0.011213,-0.0678043,5.82245,36.9175,16,1,
436,1.22545,5.81387,0.0114354,-0.0683097,5.81593,36.9308,16,1,
438,1.22546,5.8091,0.0116437,-0.0688193,5.81113,36.9604,16,1,
440,1.22548,5.80507,0.0118511,-0.0693007,5.80708,36.9841,16,1,
442,1.22549,5.80065,0.0120448,-0.0698342,5.80263,37.0056,16,1,
444,1.2255,5.79579,0.0122563,-0.0703541,5.79776,37.0293,16,1,
446,1.22551,5.79123,0.0124991,-0.0708576,5.79317,37.0387,16,1,
448,1.22552,5.78757,0.0127339,-0.0713608,5.78949,37.0567,16,1,
448,1.22552,5.78757,0.0127339,-0.0713608,5.78949,37.0567,17,1,
450,1.22553,5.78468,0.0129743,-0.0718794,5.78658,37.0877,17,1,
452,1.22554,5.78186,0.0132213,-0.0723824,5.78375,37.1082,17,1,
454,1.22555,5.77861,0.0134519,-0.0729304,5.78048,37.1247,17,1,
456,1.22556,5.77533,0.0137096,-0.073468,5.77719,37.1402,17,1,
458,1.22557,5.77262,0.0140261,-0.0739768,5.77446,37.1554,17,1,
460,1.22558,5.77064,0.0143111,-0.0745012,5.77247,37.1773,17,1,
462,1.2256,5.76899,0.0145847,-0.0750824,5.7708,37.2008,17,1,
464,1.2256,5.76671,0.0149002,-0.075649,5.76852,37.2172,17,1,
466,1.22561,5.76404,0.0152517,-0.0761818,5.76583,37.225,17,1,
468,1.22562,5.76227,0.0156004,-0.0767342,5.76406,37.2402,17,1,
470,1.22563,5.76124,0.0159579,-0.0773384,5.76301,37.2629,17,1,
472,1.22564,5.75995,0.0163287,-0.0779036,5.76172,37.2791,17,1,
474,1.22565,5.75857,0.0166807,-0.0784722,5.76032,37.2949,17,1,
476,1.22565,5.75719,0.0170677,-0.0790333,5.75893,37.3069,17,1,
478,1.22566,5.75598,0.0174833,-0.0795871,5.75772,37.3161,17,1,
480,1.22567,5.75559,0.0178807,-0.0801266,5.75732,37.3372,17,1,
480,1.22567,5.75559,0.0178807,-0.0801266,5.75732,37.3372,17,1,
482,1.22568,5.75545,0.01827,-0.0807008,5.75716,37.3581,17,1,
484,1.22569,5.75491,0.018701,-0.0812584,5.75662,37.3687,17,1,
486,1.2257,5.75434,0.0191159,-0.0818159,5.75604,37.3804,17,1,
488,1.2257,5.75406,0.0195342,-0.0823488,5.75575,37.3956,17,1,
490,1.22571,5.75435,0.0199967,-0.0828997,5.75604,37.4118,17,1,
492,1.22572,5.75494,0.0204441,-0.0834547,5.75663,37.4289,17,1,
494,1.22573,5.75516,0.020835,-0.084022,5.75684,37.444,17,1,
496,1.22574,5.75518,0.0212548,-0.0845667,5.75686,37.457,17,1,
498,1.22574,5.7555,0.0217265,-0.0851133,5.75717,37.467,17,1,
500,1.22575,5.75628,0.022143,-0.085654,5.75796,37.4817,17,1,
502,1.22576,5.75732,0.0225109,-0.0862221,5.75899,37.5025,17,1,
504,1.22577,5.75782,0.0229052,-0.0867827,5.75948,37.515,17,1,
506,1.22577,5.75807,0.0233067,-0.0873236,5.75974,37.5219,17,1,
508,1.22578,5.75897,0.0236955,-0.0878371,5.76063,37.5359,17,1,
510,1.22579,5.75993,0.0240649,-0.0883866,5.76159,37.5524,17,1,
512,1.2258,5.76062,0.0244237,-0.088932,5.76229,37.5647,17,1,
512,1.2258,5.76062,0.0244237,-0.088932,5.76229,37.5647,25,1,
514,1.2258,5.76142,0.0247768,-0.0894661,5.76308,37.5763,25,1,
516,1.22581,5.76217,0.0251275,-0.0899858,5.76382,37.5878,25,1,
518,1.22582,5.7628,0.0254742,-0.0905061,5.76446,37.5982,25,1,
520,1.22582,5.76358,0.0257976,-0.0910107,5.76524,37.6096,25,1,
522,1.22583,5.76453,0.0261004,-0.0915236,5.76619,37.6227,25,1,
524,1.22584,5.76539,0.0263956,-0.092019,5.76705,37.6338,25,1,
526,1.22584,5.76598,0.0266846,-0.0924945,5.76763,37.6411,25,1,
528,1.22584,5.76669,0.0269513,-0.0929513,5.76834,37.6509,25,1,
530,1.22585,5.76762,0.0272405,-0.093409,5.76927,37.6628,25,1,
532,1.22586,5.76843,0.0274941,-0.0938603,5.77008,37.6704,25,1,
534,1.22586,5.76924,0.0277607,-0.0942855,5.77089,37.6795,25,1,
536,1.22587,5.7701,0.0280337,-0.0946901,5.77174,37.6911,25,1,
538,1.22587,5.77082,0.0282854,-0.0951099,5.77246,37.6972,25,1,
540,1.22587,5.77159,0.0285636,-0.0954833,5.77323,37.7035,25,1,
542,1.22588,5.7725,0.0288192,-0.0958753,5.77413,37.7145,25,1,
544,1.22589,5.77345,0.0290966,-0.0962455,5.77508,37.7238,25,1,
544,1.22589,5.77345,0.0290966,-0.0962455,5.77508,37.7238,25,1,
546,1.22589,5.77428,0.0293648,-0.0966128,5.77592,37.7305,25,1,
548,1.22589,5.77506,0.0296618,-0.0969704,5.77669,37.7368,25,1,
550,1.2259,5.77595,0.0299524,-0.0973371,5.77758,37.7451,25,1,
552,1.2259,5.77691,0.0302519,-0.0976915,5.77855,37.7524,25,1,
554,1.2259,5.77796,0.0305633,-0.0980543,5.77959,37.7594,25,1,
556,1.22591,5.77904,0.0308568,-0.0984157,5.78067,37.7692,25,1,
558,1.22591,5.77992,0.0311976,-0.0987701,5.78156,37.7735,25,1,
560,1.22591,5.78085,0.0315251,-0.0991312,5.78249,37.7773,25,1,
562,1.22592,5.78208,0.0318682,-0.0994852,5.78372,37.7864,25,1,
564,1.22592,5.78328,0.0322077,-0.0998496,5.78492,37.794,25,1,
566,1.22593,5.78439,0.0325691,-0.100217,5.78604,37.7986,25,1,
568,1.22593,5.78547,0.0329369,-0.100576,5.78712,37.8038,25,1,
570,1.22593,5.78653,0.033302,-0.10095,5.78818,37.8081,25,1,
572,1.22593,5.78782,0.0336971,-0.101331,5.78948,37.8135,25,1,
574,1.22594,5.78916,0.0340843,-0.101733,5.79083,37.8205,25,1,
576,1.22594,5.79037,0.0344922,-0.102126,5.79204,37.8247,25,1,
576,1.22594,5.79037,0.0344922,-0.102126,5.79204,37.8247,26,1,
578,1.22594,5.79152,0.034891,-0.102529,5.79319,37.8278,26,1,
580,1.22594,5.79273,0.0353149,-0.102931,5.79441,37.8306,26,1,
582,1.22595,5.79412,0.0357364,-0.103351,5.7958,37.8363,26,1,
584,1.22595,5.79546,0.0361554,-0.103772,5.79715,37.8408,26,1,
586,1.22595,5.79671,0.0365957,-0.104187,5.79841,37.8419,26,1,
588,1.22595,5.79796,0.0370169,-0.104612,5.79967,37.8457,26,1,
590,1.22595,5.79917,0.0374818,-0.105035,5.80089,37.8475,26,1,
592,1.22595,5.80041,0.0379195,-0.105476,5.80213,37.8484,26,1,
594,1.22596,5.80183,0.0383666,-0.105899,5.80356,37.8522,26,1,
596,1.22596,5.80303,0.0388246,-0.106326,5.80477,37.855,26,1,
598,1.22596,5.8041,0.0392763,-0.106768,5.80584,37.8527,26,1,
600,1.22596,5.80529,0.0397475,-0.107192,5.80704,37.8531,26,1,
602,1.22596,5.80657,0.0401644,-0.107629,5.80833,37.8562,26,1,
604,1.22596,5.80782,0.0406267,-0.108045,5.80959,37.8559,26,1,
606,1.22596,5.80892,0.0410563,-0.108473,5.81069,37.8549,26,1,
608,1.22596,5.81006,0.0414894,-0.10888,5.81184,37.8547,26,1,
608,1.22596,5.81006,0.0414894,-0.10888,5.81184,37.8547,26,1,
610,1.22596,5.81127,0.0418987,-0.109283,5.81306,37.8544,26,1,
612,1.22596,5.81245,0.0423073,-0.109684,5.81424,37.8525,26,1,
614,1.22596,5.81364,0.0427409,-0.110053,5.81543,37.853,26,1,
616,1.22596,5.8149,0.0431327,-0.110432,5.8167,37.8524,26,1,
618,1.22596,5.81604,0.0435381,-0.110799,5.81784,37.8505,26,1,
620,1.22595,5.81725,0.0439249,-0.111138,5.81905,37.8493,26,1,
622,1.22595,5.81858,0.0443246,-0.111462,5.82039,37.8485,26,1,
624,1.22595,5.81996,0.0446764,-0.111794,5.82177,37.8486,26,1,
626,1.22595,5.82129,0.0450356,-0.112102,5.8231,37.8486,26,1,
628,1.22595,5.82268,0.0453852,-0.112375,5.8245,37.8465,26,1,
630,1.22595,5.82416,0.0457041,-0.11263,5.82597,37.8462,26,1,
632,1.22595,5.82575,0.0459944,-0.112853,5.82756,37.8475,26,1,
634,1.22595,5.82737,0.0462746,-0.113033,5.82918,37.8479,26,1,
636,1.22595,5.82906,0.0465275,-0.113175,5.83087,37.8474,26,1,
638,1.22595,5.83077,0.0467413,-0.113272,5.83258,37.8484,26,1,
640,1.22595,5.83258,0.0469732,-0.113328,5.83438,37.8497,26,1,
642,1.22595,5.83462,0.0471698,-0.113354,5.83641,37.8496,26,1,
644,1.22596,5.83664,0.0473689,-0.113341,5.83843,37.8522,26,1,
646,1.22596,5.83868,0.0475669,-0.113295,5.84046,37.8546,26,1,
648,1.22596,5.84097,0.0477342,-0.113189,5.84275,37.853,26,1,
650,1.22596,5.84326,0.047929,-0.113051,5.84503,37.8567,26,1,
652,1.22596,5.84574,0.0480826,-0.112868,5.8475,37.8591,26,1,
654,1.22596,5.84824,0.0482619,-0.112614,5.84999,37.8595,26,1,
656,1.22596,5.85079,0.0484608,-0.112332,5.85253,37.8619,26,1,
658,1.22596,5.85357,0.0486065,-0.112001,5.85529,37.864,26,1,
660,1.22596,5.85621,0.0488472,-0.111588,5.85792,37.8678,26,1,
662,1.22596,5.85911,0.0490305,-0.111133,5.86081,37.8675,26,1,
664,1.22597,5.8619,0.0492548,-0.110645,5.86358,37.8718,26,1,
666,1.22597,5.86474,0.0495298,-0.11006,5.8664,37.8754,26,1,
668,1.22597,5.86757,0.0497733,-0.109475,5.86922,37.8765,26,1,
670,1.22597,5.87049,0.0500908,-0.108787,5.87213,37.8788,26,1,
672,1.22597,5.87324,0.0504397,-0.108047,5.87486,37.8847,26,1,
672,1.22597,5.87324,0.0504397,-0.108047,5.87486,37.8847,27,1,
674,1.22598,5.87595,0.0507498,-0.107305,5.87755,37.8867,27,1,
676,1.22598,5.87874,0.0511835,-0.106435,5.88032,37.8873,27,1,
678,1.22598,5.88115,0.0515944,-0.105551,5.88271,37.8953,27,1,
680,1.22598,5.88376,0.0519989,-0.104593,5.8853,37.8951,27,1,
682,1.22598,5.88598,0.0525328,-0.103554,5.8875,37.8985,27,1,
684,1.22598,5.88819,0.0529779,-0.102498,5.88969,37.902,27,1,
686,1.22599,5.8901,0.0535384,-0.101353,5.89158,37.9054,27,1,
688,1.22599,5.89188,0.0541021,-0.100134,5.89333,37.907,27,1,
690,1.22599,5.89339,0.0546869,-0.0988709,5.89482,37.9097,27,1,
692,1.22599,5.8947,0.0553683,-0.0974999,5.89611,37.9121,27,1,
694,1.22599,5.89559,0.0559919,-0.0961366,5.89698,37.9151,27,1,
696,1.22599,5.89626,0.0567194,-0.0946611,5.89762,37.9158,27,1,
698,1.22599,5.89678,0.0574935,-0.0931087,5.89812,37.916,27,1,
700,1.22599,5.89678,0.0582319,-0.0915467,5.89809,37.9219,27,1,
702,1.22599,5.89652,0.0590658,-0.089858,5.89782,37.9217,27,1,
704,1.22599,5.89595,0.0599577,-0.0880929,5.89722,37.9184,27,1,
704,1.22599,5.89595,0.0599577,-0.0880929,5.89722,37.9184,31,1,
706,1.226,5.8949,0.0607897,-0.0863283,5.89615,37.9235,31,1,
708,1.226,5.89364,0.0617317,-0.0844628,5.89487,37.9247,31,1,
710,1.22599,5.89214,0.0626484,-0.0824895,5.89334,37.9193,31,1,
712,1.22599,5.89025,0.0636649,-0.0805103,5.89142,37.9217,31,1,
714,1.226,5.88778,0.0645596,-0.0784411,5.88893,37.9274,31,1,
716,1.22599,5.88521,0.0656785,-0.0762818,5.88634,37.9175,31,1,
718,1.22599,5.88227,0.0666657,-0.0740902,5.88338,37.9151,31,1,
720,1.226,5.87904,0.0677295,-0.0718402,5.88013,37.9224,31,1,
722,1.22599,5.87568,0.0688812,-0.0694952,5.87674,37.9158,31,1,
724,1.22599,5.872,0.0700024,-0.0670785,5.87304,37.9083,31,1,
726,1.22599,5.86808,0.0711778,-0.0646305,5.86911,37.913,31,1,
728,1.22599,5.86367,0.0723056,-0.0621597,5.86468,37.9139,31,1,
730,1.22598,5.85928,0.0735941,-0.0595555,5.86027,37.899,31,1,
732,1.22598,5.85493,0.0747567,-0.0570167,5.85591,37.8972,31,1,
734,1.22599,5.84995,0.0759537,-0.0544066,5.85091,37.9086,31,1,
736,1.22598,5.84511,0.0774738,-0.0516046,5.84606,37.8944,31,1,
738,1.22597,5.84069,0.0785208,-0.0489758,5.84163,37.878,31,1,
740,1.22598,5.83497,0.0799852,-0.0461577,5.83589,37.9001,31,1,
742,1.22598,5.82988,0.0813222,-0.0433746,5.8308,37.8861,31,1,
744,1.22596,5.82491,0.0824378,-0.0407178,5.82582,37.8604,31,1,
746,1.22597,5.81947,0.0838067,-0.037999,5.82037,37.8783,31,1,
748,1.22597,5.81408,0.0852761,-0.0350113,5.81498,37.8784,31,1,
750,1.22595,5.80903,0.0865424,-0.0322196,5.80993,37.8452,31,1,
752,1.22595,5.8045,0.0875237,-0.0297082,5.8054,37.8411,31,1,
752,1.22595,5.8045,0.0875237,-0.0297082,5.8054,37.8411,31,1,
754,1.22597,5.79839,0.0888458,-0.0268434,5.79928,37.868,31,1,
756,1.22594,5.79399,0.0901582,-0.0240103,5.79489,37.8229,31,1,
758,1.22593,5.78985,0.0908677,-0.0217221,5.79075,37.7982,31,1,
760,1.22595,5.78441,0.0922541,-0.0186346,5.78531,37.8348,31,1,
762,1.22593,5.78059,0.093245,-0.0159893,5.7815,37.7977,31,1,
764,1.2259,5.77814,0.0937994,-0.013826,5.77904,37.7441,31,1,
766,1.22592,5.77315,0.0947948,-0.0110783,5.77405,37.7846,31,1,
768,1.2259,5.77134,0.0958131,-0.00837444,5.77225,37.7455,31,1,
770,1.22586,5.76965,0.0958477,-0.00651371,5.77055,37.6873,31,1,
772,1.22587,5.76765,0.0963449,-0.00415626,5.76856,37.6916,31,1,
774,1.22586,5.76723,0.0968418,-0.00172004,5.76814,37.6712,31,1,
776,1.22581,5.76894,0.0972747,0.000579387,5.76985,37.5918,31,1,
778,1.22579,5.77222,0.0977504,0.00297228,5.77314,37.5514,31,1,
780,1.22579,5.77498,0.0981604,0.00554847,5.77591,37.5557,31,1,
782,1.22574,5.78053,0.0979465,0.00714044,5.78144,37.4545,31,1,
784,1.22568,5.78524,0.096763,0.00859874,5.78613,37.3515,31,1,
786,1.22563,5.79781,0.0974995,0.0113553,5.79871,37.2593,31,1,
788,1.22563,5.8082,0.098466,0.0138806,5.80912,37.2546,31,1,
790,1.22552,5.82521,0.0982463,0.0165156,5.82613,37.0562,31,1,
792,1.22542,5.84214,0.0970561,0.0185056,5.84304,36.8833,31,1,
794,1.22537,5.86275,0.0980513,0.0210914,5.86367,36.7855,31,1,
796,1.22525,5.88977,0.100236,0.0258802,5.89074,36.5804,31,1,
798,1.22511,5.9159,0.10196,0.0305019,5.91692,36.3299,31,1,
800,1.225,5.93472,0.102374,0.0317225,5.93575,36.1207,31,1,
