108.678;r ;Density                 ;Velocity u              ;Velocity v              ;Velocity w              ;|Velocity|              ;Pressure                ;Distribution            ;Levels                  ;
0 1.20957 10.0024 0.000139115 0.000324286 10.0024 8.26312 1 1 
4 1.20957 10.005 0.000130997 0.000436841 10.005 8.25886 1 1 
8 1.20957 10.0071 6.02807e-05 0.000711564 10.0071 8.25635 1 1 
12 1.20953 10.0093 -2.17824e-05 0.000962394 10.0093 8.17348 1 1 
16 1.20953 10.011 1.1009e-05 0.00129439 10.011 8.17437 1 1 
20 1.20954 10.0125 -9.86616e-05 0.00149007 10.0125 8.19233 1 1 
24 1.20949 10.0154 -4.13395e-05 0.00186658 10.0154 8.11476 1 1 
28 1.2095 10.0156 -0.000143886 0.0020766 10.0156 8.13265 1 1 
32 1.20946 10.0189 -0.000178621 0.00238787 10.0189 8.05583 1 1 
36 1.20947 10.0201 -0.000136381 0.00272755 10.0201 8.07249 1 1 
40 1.20946 10.0223 -0.000241603 0.00297942 10.0223 8.06003 1 1 
44 1.20944 10.0238 -0.000278911 0.00325983 10.0238 8.018 1 1 
48 1.20942 10.0246 -0.000334719 0.00357279 10.0246 7.99105 1 1 
52 1.2094 10.0267 -0.000368669 0.00385178 10.0267 7.94277 1 1 
56 1.20942 10.0268 -0.000418495 0.00414918 10.0268 7.97703 1 1 
60 1.20937 10.03 -0.000459503 0.00448213 10.03 7.9011 1 1 
64 1.20939 10.0297 -0.000565032 0.00470531 10.0297 7.92975 1 1 
64 1.20939 10.0297 -0.000565032 0.00470531 10.0297 7.92975 2 1 
68 1.20935 10.0326 -0.00051942 0.00514091 10.0326 7.86463 2 1 
72 1.20935 10.0342 -0.000577214 0.00545471 10.0342 7.85432 2 1 
76 1.20934 10.0354 -0.000718379 0.00566949 10.0354 7.84029 2 1 
80 1.20933 10.0368 -0.0006844 0.00609778 10.0368 7.81478 2 1 
84 1.20933 10.0388 -0.00073752 0.00641204 10.0388 7.81245 2 1 
88 1.2093 10.042 -0.000835489 0.0067391 10.042 7.76253 2 1 
92 1.20931 10.0433 -0.000755384 0.00718574 10.0433 7.7837 2 1 
96 1.20927 10.047 -0.000930203 0.00739465 10.047 7.70853 2 1 
100 1.20929 10.0462 -0.000838686 0.00787615 10.0462 7.75044 2 1 
104 1.20927 10.0473 -0.000973319 0.00821128 10.0473 7.71421 2 1 
108 1.20924 10.0486 -0.000984512 0.00856215 10.0486 7.66222 2 1 
112 1.20924 10.0506 -0.000981328 0.00896128 10.0506 7.6607 2 1 
116 1.20923 10.053 -0.00110858 0.00935477 10.053 7.64797 2 1 
120 1.20921 10.0562 -0.00107991 0.00973351 10.0562 7.61014 2 1 
124 1.20923 10.0573 -0.00119404 0.0100474 10.0573 7.63501 2 1 
128 1.20922 10.0573 -0.00118309 0.0105004 10.0573 7.63043 2 1 
128 1.20922 10.0573 -0.00118309 0.0105004 10.0573 7.63043 10 1 
132 1.20916 10.0608 -0.00130823 0.0108325 10.0608 7.51175 10 1 
136 1.20919 10.0589 -0.00127928 0.0112647 10.0589 7.5693 10 1 
140 1.20918 10.0611 -0.00141713 0.0115986 10.0611 7.54199 10 1 
144 1.20914 10.0632 -0.00143573 0.0121133 10.0633 7.48206 10 1 
148 1.20918 10.0629 -0.00144291 0.0124392 10.0629 7.55165 10 1 
152 1.20914 10.067 -0.00159261 0.0128519 10.0671 7.47472 10 1 
156 1.20911 10.0679 -0.00151108 0.0134073 10.068 7.42691 10 1 
160 1.20916 10.0665 -0.00175473 0.0137654 10.0665 7.52205 10 1 
160 1.20916 10.0665 -0.00175473 0.0137654 10.0665 7.52205 10 1 
164 1.20909 10.0702 -0.00170875 0.0141911 10.0702 7.3935 10 1 
168 1.20913 10.0688 -0.00185024 0.014611 10.0688 7.45817 10 1 
172 1.20912 10.0696 -0.00195793 0.0150813 10.0696 7.44525 10 1 
176 1.20906 10.0748 -0.00190453 0.0155592 10.0748 7.33641 10 1 
180 1.20914 10.0707 -0.00195329 0.0162102 10.0707 7.47209 10 1 
184 1.20909 10.0722 -0.00212325 0.0165432 10.0722 7.38264 10 1 
188 1.20909 10.0725 -0.00220188 0.0170722 10.0726 7.38805 10 1 
192 1.20909 10.0692 -0.00219165 0.0176207 10.0692 7.3943 10 1 
196 1.20907 10.0706 -0.00257246 0.0178246 10.0706 7.35287 10 1 
200 1.20908 10.0711 -0.00236608 0.0185573 10.0711 7.3689 10 1 
204 1.20912 10.0712 -0.00264837 0.0189926 10.0713 7.44162 10 1 
208 1.20915 10.0713 -0.00285494 0.0195161 10.0714 7.49638 10 1 
212 1.2091 10.0704 -0.00274813 0.0201791 10.0704 7.40885 10 1 
216 1.20916 10.0644 -0.00320909 0.0203923 10.0644 7.51973 10 1 
220 1.20918 10.0552 -0.00323277 0.0208837 10.0552 7.55884 10 1 
224 1.20913 10.0508 -0.00317189 0.0215888 10.0509 7.46319 10 1 
224 1.20913 10.0508 -0.00317189 0.0215888 10.0509 7.46319 10 1 
228 1.20926 10.0453 -0.00362021 0.0217608 10.0454 7.68694 10 1 
232 1.20928 10.0424 -0.00368614 0.0223779 10.0425 7.73067 10 1 
236 1.20932 10.0355 -0.00376982 0.0230779 10.0355 7.80222 10 1 
240 1.20939 10.0287 -0.00411545 0.0232464 10.0287 7.92912 10 1 
244 1.20955 10.0103 -0.00412086 0.0241106 10.0103 8.21243 10 1 
248 1.20964 9.98609 -0.00468685 0.0243361 9.98613 8.38397 10 1 
252 1.20961 9.97666 -0.0050104 0.0246086 9.97671 8.323 10 1 
256 1.21004 9.94043 -0.00501733 0.025474 9.94047 9.10973 10 1 
256 1.21004 9.94043 -0.00501733 0.025474 9.94047 9.10973 11 1 
260 1.21012 9.90703 -0.00535604 0.0258171 9.90709 9.25464 11 1 
264 1.21025 9.87355 -0.00555689 0.0261964 9.87361 9.48783 11 1 
268 1.21097 9.80795 -0.00594087 0.0266972 9.80803 10.7913 11 1 
272 1.21146 9.73376 -0.00638325 0.0269902 9.73386 11.6632 11 1 
276 1.21165 9.64708 -0.00664426 0.0273305 9.64726 12.0059 11 1 
280 1.21266 9.4979 -0.00699328 0.0276721 9.49807 13.8346 11 1 
284 1.21383 9.35401 -0.00724164 0.028007 9.35414 15.9532 11 1 
288 1.2147 9.19786 -0.00746619 0.0282207 9.19802 17.5129 11 1 
292 1.21506 9.06991 -0.00789224 0.0286229 9.0702 18.1669 11 1 
296 1.2115 9.31606 -0.00817796 0.0293655 9.31725 11.7446 11 1 
300 1.20607 9.70671 -0.00872901 0.0302964 9.70773 1.93694 11 1 
304 1.20353 9.74911 -0.00910218 0.0309837 9.74982 -2.65146 11 1 
308 1.20359 9.52182 -0.00928028 0.0308944 9.52283 -2.55395 11 1 
312 1.2045 9.23777 -0.0095443 0.0307077 9.23852 -0.907021 11 1 
316 1.20534 8.98193 -0.00973868 0.0308207 8.98251 0.616779 11 1 
320 1.20598 8.778 -0.0100003 0.0310195 8.77841 1.77128 11 1 
320 1.20598 8.778 -0.0100003 0.0310195 8.77841 1.77128 15 1 
324 1.20652 8.60641 -0.0102514 0.0314795 8.60673 2.7378 15 1 
328 1.20694 8.46206 -0.0105777 0.0318103 8.46231 3.49526 15 1 
332 1.20732 8.33866 -0.0108562 0.0323247 8.33887 4.1926 15 1 
336 1.20755 8.22502 -0.0110794 0.0331674 8.22517 4.61507 15 1 
340 1.20768 8.12637 -0.0113604 0.034007 8.12652 4.83865 15 1 
344 1.20793 8.04708 -0.0116149 0.0347609 8.04722 5.29031 15 1 
348 1.20812 7.97555 -0.0119047 0.0355527 7.9757 5.63976 15 1 
352 1.20821 7.90735 -0.0121324 0.03646 7.90749 5.79264 15 1 
356 1.20828 7.84385 -0.012303 0.0374982 7.84399 5.91807 15 1 
360 1.20835 7.78718 -0.0125247 0.0385024 7.78731 6.05371 15 1 
364 1.20847 7.74144 -0.0127686 0.0393714 7.74158 6.26915 15 1 
368 1.20853 7.6988 -0.0129521 0.0402425 7.69894 6.38114 15 1 
372 1.20854 7.65425 -0.0130786 0.0412727 7.6544 6.39393 15 1 
376 1.2086 7.61472 -0.0132015 0.0423643 7.61487 6.49765 15 1 
380 1.20863 7.5792 -0.0134035 0.0433188 7.57935 6.55103 15 1 
384 1.20864 7.54643 -0.013628 0.0442434 7.54659 6.5681 15 1 
384 1.20864 7.54643 -0.013628 0.0442434 7.54659 6.5681 16 1 
388 1.20867 7.51717 -0.0138022 0.0452703 7.51734 6.6286 16 1 
392 1.20869 7.48725 -0.0139426 0.0463745 7.48743 6.66109 16 1 
396 1.20869 7.45806 -0.0141291 0.0474695 7.45824 6.66352 16 1 
400 1.20868 7.43213 -0.0143871 0.0485838 7.43232 6.64543 16 1 
404 1.20868 7.40787 -0.0146008 0.0496817 7.40807 6.65533 16 1 
408 1.20871 7.38551 -0.0147271 0.0508449 7.38572 6.69374 16 1 
412 1.2087 7.36369 -0.0148231 0.0520656 7.36391 6.68933 16 1 
416 1.20869 7.34151 -0.0149669 0.0533324 7.34174 6.66399 16 1 
420 1.20868 7.32077 -0.0151259 0.0546367 7.32101 6.64782 16 1 
424 1.20869 7.30226 -0.0152584 0.0559539 7.30251 6.65619 16 1 
428 1.20869 7.28473 -0.015318 0.0572706 7.28498 6.66123 16 1 
432 1.20868 7.26676 -0.0154163 0.0587171 7.26703 6.63998 16 1 
436 1.20867 7.24875 -0.0155872 0.0601423 7.24903 6.63358 16 1 
440 1.20866 7.23174 -0.0157421 0.0615269 7.23204 6.61349 16 1 
444 1.20865 7.21521 -0.0158866 0.0629411 7.21551 6.58865 16 1 
448 1.20865 7.19914 -0.0160548 0.0643732 7.19946 6.59448 16 1 
448 1.20865 7.19914 -0.0160548 0.0643732 7.19946 6.59448 17 1 
452 1.20864 7.18319 -0.0161953 0.0657533 7.18352 6.58123 17 1 
456 1.20863 7.16654 -0.0164064 0.0671502 7.16688 6.55889 17 1 
460 1.20862 7.15008 -0.0166668 0.068544 7.15044 6.53811 17 1 
464 1.20861 7.1342 -0.0168748 0.0699518 7.13458 6.51196 17 1 
468 1.2086 7.11875 -0.0171046 0.0713608 7.11914 6.51067 17 1 
472 1.2086 7.10425 -0.0174052 0.0727926 7.10465 6.50411 17 1 
476 1.20859 7.08964 -0.0176953 0.0742506 7.09006 6.47972 17 1 
480 1.20858 7.07459 -0.0180049 0.0757228 7.07502 6.4591 17 1 
484 1.20857 7.06093 -0.0183356 0.0772387 7.06139 6.44206 17 1 
488 1.20857 7.04836 -0.0186873 0.0788011 7.04883 6.44198 17 1 
492 1.20856 7.03559 -0.0190631 0.0804129 7.03608 6.42918 17 1 
496 1.20855 7.0233 -0.0194605 0.082022 7.02382 6.41197 17 1 
500 1.20855 7.01127 -0.0199117 0.0837288 7.01181 6.40839 17 1 
504 1.20853 6.99935 -0.0203798 0.085532 6.99991 6.38042 17 1 
508 1.20853 6.98912 -0.0208926 0.0874066 6.9897 6.37109 17 1 
512 1.20853 6.98013 -0.0214484 0.0893172 6.98074 6.38274 17 1 
512 1.20853 6.98013 -0.0214484 0.0893172 6.98074 6.38274 25 1 
516 1.20852 6.97139 -0.0220483 0.0913549 6.97203 6.36097 25 1 
520 1.20851 6.96346 -0.022689 0.0934718 6.96413 6.3413 25 1 
524 1.20851 6.95699 -0.0233456 0.0956727 6.95769 6.33282 25 1 
528 1.2085 6.95246 -0.0240565 0.0979395 6.95319 6.32095 25 1 
532 1.2085 6.94944 -0.0248211 0.100263 6.95021 6.31908 25 1 
536 1.20849 6.9471 -0.0255674 0.102643 6.9479 6.30428 25 1 
540 1.20848 6.9457 -0.0263824 0.105119 6.94655 6.2813 25 1 
544 1.20847 6.94557 -0.0272082 0.107606 6.94645 6.26541 25 1 
548 1.20846 6.94701 -0.0280578 0.110167 6.94794 6.24856 25 1 
552 1.20846 6.94991 -0.0289232 0.112799 6.95089 6.24208 25 1 
556 1.20844 6.95332 -0.0298099 0.115433 6.95434 6.21975 25 1 
560 1.20843 6.95715 -0.0307255 0.118185 6.95822 6.19121 25 1 
564 1.20842 6.9624 -0.0316322 0.120931 6.96352 6.17248 25 1 
568 1.2084 6.96879 -0.0325678 0.123754 6.96997 6.14931 25 1 
572 1.2084 6.97625 -0.0334949 0.126628 6.97748 6.13239 25 1 
576 1.20838 6.98417 -0.0344272 0.129494 6.98546 6.11264 25 1 
576 1.20838 6.98417 -0.0344272 0.129494 6.98546 6.11264 26 1 
580 1.20836 6.99245 -0.0353775 0.132455 6.99379 6.07727 26 1 
584 1.20835 7.00155 -0.0363104 0.135426 7.00295 6.05192 26 1 
588 1.20834 7.01171 -0.0372459 0.138439 7.01318 6.03019 26 1 
592 1.20832 7.02232 -0.0381943 0.141465 7.02385 6.00497 26 1 
596 1.20831 7.03324 -0.039089 0.144525 7.03484 5.97909 26 1 
600 1.20829 7.0444 -0.0400096 0.147597 7.04606 5.94697 26 1 
604 1.20828 7.05571 -0.0409058 0.15073 7.05744 5.91838 26 1 
608 1.20826 7.06797 -0.0417861 0.153799 7.06977 5.88878 26 1 
608 1.20826 7.06797 -0.0417861 0.153799 7.06977 5.88878 26 1 
612 1.20825 7.08012 -0.0426643 0.156883 7.08199 5.86604 26 1 
616 1.20823 7.09257 -0.0435342 0.160067 7.09451 5.83741 26 1 
620 1.20821 7.10484 -0.0444115 0.16314 7.10685 5.80555 26 1 
624 1.2082 7.11729 -0.0452656 0.166343 7.11938 5.77679 26 1 
628 1.20818 7.13018 -0.0461067 0.169483 7.13235 5.74938 26 1 
632 1.20817 7.14311 -0.0469602 0.172647 7.14535 5.72499 26 1 
636 1.20816 7.15628 -0.0478084 0.175853 7.15861 5.70128 26 1 
640 1.20814 7.1692 -0.0486247 0.17904 7.1716 5.67338 26 1 
644 1.20813 7.18237 -0.0494385 0.18228 7.18485 5.64601 26 1 
648 1.20812 7.19577 -0.0502283 0.185407 7.19834 5.62799 26 1 
652 1.2081 7.20937 -0.0509763 0.188672 7.21202 5.60401 26 1 
656 1.20809 7.22266 -0.0517589 0.191767 7.22539 5.58669 26 1 
660 1.20808 7.23628 -0.0525289 0.194931 7.2391 5.56416 26 1 
664 1.20807 7.24955 -0.0532241 0.197975 7.25245 5.54679 26 1 
668 1.20806 7.26294 -0.0540202 0.201062 7.26592 5.53002 26 1 
672 1.20805 7.27683 -0.0547018 0.204117 7.2799 5.51005 26 1 
672 1.20805 7.27683 -0.0547018 0.204117 7.2799 5.51005 27 1 
676 1.20805 7.28999 -0.0553651 0.207017 7.29314 5.50646 27 1 
680 1.20804 7.30392 -0.0562035 0.210212 7.30716 5.4844 27 1 
684 1.20803 7.31697 -0.0567829 0.212802 7.32028 5.47601 27 1 
688 1.20802 7.33076 -0.0575997 0.215917 7.33417 5.4617 27 1 
692 1.20802 7.34422 -0.0582309 0.218562 7.3477 5.45618 27 1 
696 1.20802 7.35815 -0.0588778 0.221407 7.36171 5.44618 27 1 
700 1.20801 7.37225 -0.0596535 0.224292 7.37591 5.44082 27 1 
704 1.20801 7.38596 -0.0602526 0.226914 7.38969 5.43673 27 1 
704 1.20801 7.38596 -0.0602526 0.226914 7.38969 5.43673 31 1 
708 1.20801 7.39984 -0.0608613 0.229568 7.40365 5.42892 31 1 
712 1.208 7.41422 -0.0614734 0.231947 7.4181 5.42101 31 1 
716 1.208 7.42841 -0.0619476 0.234625 7.43238 5.42483 31 1 
720 1.208 7.44277 -0.0624685 0.237348 7.44682 5.4265 31 1 
724 1.20799 7.45812 -0.0631135 0.239709 7.46224 5.40495 31 1 
728 1.208 7.47216 -0.063451 0.242048 7.47636 5.42412 31 1 
732 1.208 7.48745 -0.063913 0.244994 7.49174 5.41396 31 1 
736 1.20799 7.50311 -0.0643288 0.246391 7.50743 5.39804 31 1 
740 1.208 7.51795 -0.0645882 0.249261 7.52236 5.42015 31 1 
744 1.20799 7.53373 -0.0647366 0.251426 7.53821 5.40562 31 1 
748 1.20798 7.54931 -0.0653063 0.254331 7.55388 5.39065 31 1 
752 1.20797 7.56643 -0.0648272 0.256601 7.57107 5.37205 31 1 
756 1.20799 7.58148 -0.0653709 0.258662 7.58618 5.40136 31 1 
760 1.20795 7.60103 -0.0663638 0.262031 7.60584 5.32212 31 1 
764 1.20794 7.62002 -0.0664745 0.264341 7.6249 5.30756 31 1 
768 1.20795 7.63886 -0.0670433 0.266648 7.64381 5.32304 31 1 
772 1.20788 7.66016 -0.0668478 0.271367 7.66526 5.20391 31 1 
776 1.20782 7.6815 -0.0667872 0.278154 7.68683 5.09936 31 1 
780 1.20774 7.71291 -0.0685981 0.280943 7.71834 4.94643 31 1 
784 1.2077 7.74472 -0.0718705 0.286209 7.75035 4.87346 31 1 
788 1.20749 7.79177 -0.0731478 0.295787 7.79774 4.50418 31 1 
792 1.20728 7.84358 -0.0748621 0.312362 7.85019 4.12674 31 1 
796 1.20694 7.92147 -0.0796892 0.335684 7.92903 3.49948 31 1 
800 1.20661 7.97948 -0.0825411 0.347315 7.98753 2.8999 31 1 
