65.2066;r ;Density                 ;Velocity u              ;Velocity v              ;Velocity w              ;|Velocity|              ;Pressure                ;Distribution            ;Levels                  ;
0 1.20915 10.0005 0.000149353 7.82586e-05 10.0005 7.49227 1 1 
4 1.20916 10.0015 9.31242e-05 0.000157197 10.0015 7.50971 1 1 
8 1.20918 10.0005 -1.23291e-05 0.000129799 10.0005 7.54497 1 1 
12 1.20915 9.99974 -0.00012802 0.000145273 9.99974 7.49568 1 1 
16 1.20917 9.99831 -0.000128521 0.000207344 9.99831 7.53792 1 1 
20 1.20921 9.99666 -0.000284778 0.000128038 9.99667 7.59617 1 1 
24 1.20918 9.99638 -0.000273665 0.000223679 9.99639 7.5566 1 1 
28 1.20922 9.99362 -0.000427278 0.000141033 9.99362 7.61456 1 1 
32 1.2092 9.99401 -0.000520291 0.000165242 9.99401 7.58338 1 1 
36 1.20923 9.992 -0.000531209 0.000207881 9.992 7.6435 1 1 
40 1.20924 9.99111 -0.000689029 0.000161741 9.99111 7.66524 1 1 
44 1.20924 9.98955 -0.000775318 0.000155419 9.98955 7.66444 1 1 
48 1.20925 9.98719 -0.000881195 0.000165411 9.98719 7.68338 1 1 
52 1.20925 9.98616 -0.000973325 0.000130837 9.98616 7.67811 1 1 
56 1.20929 9.98328 -0.00107114 0.000122625 9.98328 7.75331 1 1 
60 1.20928 9.98337 -0.00115842 0.000151481 9.98337 7.72338 1 1 
64 1.20932 9.97987 -0.00131675 5.06996e-05 9.97988 7.79537 1 1 
64 1.20932 9.97987 -0.00131675 5.06996e-05 9.97988 7.79537 2 1 
68 1.2093 9.97957 -0.0013317 0.000162533 9.97957 7.77011 2 1 
72 1.20932 9.97798 -0.00142725 0.000145026 9.97798 7.80489 2 1 
76 1.20934 9.976 -0.00160075 4.17578e-05 9.97601 7.83812 2 1 
80 1.20935 9.97432 -0.00162311 0.000131385 9.97432 7.85641 2 1 
84 1.20937 9.97323 -0.00173208 9.71642e-05 9.97323 7.89658 2 1 
88 1.20937 9.97315 -0.00184745 9.6554e-05 9.97315 7.89651 2 1 
92 1.20941 9.97118 -0.00180338 0.000197736 9.97118 7.9652 2 1 
96 1.20939 9.97165 -0.00202652 6.14834e-05 9.97165 7.93191 2 1 
100 1.20944 9.96754 -0.00195988 0.000218396 9.96754 8.01392 2 1 
104 1.20944 9.96536 -0.00211465 0.000190935 9.96536 8.02428 2 1 
108 1.20944 9.96353 -0.00216817 0.000161471 9.96353 8.02623 2 1 
112 1.20947 9.96225 -0.00221614 0.000181189 9.96225 8.07737 2 1 
116 1.20949 9.96107 -0.00236229 0.000220719 9.96107 8.11102 2 1 
120 1.20949 9.96106 -0.00232896 0.000222748 9.96106 8.11707 2 1 
124 1.20953 9.95878 -0.00246353 0.000139735 9.95879 8.18502 2 1 
128 1.20955 9.95529 -0.00249729 0.000195161 9.95529 8.2243 2 1 
128 1.20955 9.95529 -0.00249729 0.000195161 9.95529 8.2243 10 1 
132 1.20952 9.95537 -0.00264807 0.000169815 9.95537 8.15953 10 1 
136 1.20958 9.95006 -0.00263501 0.000208512 9.95006 8.27138 10 1 
140 1.20959 9.94891 -0.00282343 9.31725e-05 9.94891 8.2913 10 1 
144 1.20958 9.94756 -0.00288303 0.000178058 9.94757 8.2777 10 1 
148 1.20965 9.94381 -0.0028925 0.000114104 9.94381 8.39509 10 1 
152 1.20963 9.94462 -0.00302537 0.00014515 9.94462 8.36361 10 1 
156 1.20963 9.942 -0.00294817 0.000271461 9.94201 8.37063 10 1 
160 1.20972 9.93682 -0.00316921 0.000236785 9.93682 8.51709 10 1 
160 1.20972 9.93682 -0.00316921 0.000236785 9.93682 8.51709 10 1 
164 1.20967 9.937 -0.00307502 0.000328432 9.937 8.43175 10 1 
168 1.20973 9.9321 -0.00318094 0.000358667 9.9321 8.54526 10 1 
172 1.20975 9.9296 -0.00326243 0.000407784 9.92961 8.58352 10 1 
176 1.20972 9.93109 -0.00316972 0.000474095 9.93109 8.53057 10 1 
180 1.20983 9.92331 -0.0031816 0.000740929 9.92332 8.7156 10 1 
184 1.2098 9.92146 -0.00331952 0.000677312 9.92146 8.67682 10 1 
188 1.20983 9.91822 -0.00332997 0.000818834 9.91822 8.73187 10 1 
192 1.20986 9.91117 -0.00327155 0.000933031 9.91117 8.78428 10 1 
196 1.20987 9.90886 -0.00358193 0.000767813 9.90886 8.79503 10 1 
200 1.20991 9.90569 -0.00329555 0.00113028 9.90569 8.86567 10 1 
204 1.20998 9.90219 -0.00348326 0.00115065 9.90219 8.99481 10 1 
208 1.21004 9.89853 -0.00358679 0.00126183 9.89853 9.09985 10 1 
212 1.21002 9.89383 -0.00341487 0.00153568 9.89385 9.06404 10 1 
216 1.21011 9.88382 -0.00378031 0.00139573 9.88383 9.23082 10 1 
220 1.21016 9.87089 -0.00365457 0.00154287 9.8709 9.31791 10 1 
224 1.21014 9.86264 -0.00348469 0.00185827 9.86265 9.28006 10 1 
224 1.21014 9.86264 -0.00348469 0.00185827 9.86265 9.28006 10 1 
228 1.21029 9.85308 -0.00384526 0.00160968 9.85309 9.56306 10 1 
232 1.21035 9.84649 -0.00379612 0.00188463 9.8465 9.66495 10 1 
236 1.21042 9.83546 -0.00376247 0.00218024 9.83548 9.79686 10 1 
240 1.21053 9.82424 -0.00399995 0.00194549 9.82425 9.98549 10 1 
244 1.21072 9.80119 -0.00389915 0.0023512 9.8012 10.3327 10 1 
248 1.21085 9.77261 -0.00435635 0.00220244 9.77262 10.559 10 1 
252 1.21086 9.75825 -0.00454087 0.00209806 9.75826 10.5811 10 1 
256 1.21133 9.71681 -0.00445871 0.002494 9.71682 11.4378 10 1 
256 1.21133 9.71681 -0.00445871 0.002494 9.71682 11.4378 11 1 
260 1.21145 9.67841 -0.00469805 0.00247475 9.67844 11.6459 11 1 
264 1.21163 9.6389 -0.0047684 0.00251632 9.63893 11.9743 11 1 
268 1.21239 9.56713 -0.005052 0.00257603 9.56718 13.3497 11 1 
272 1.21291 9.48639 -0.00537978 0.00246845 9.48647 14.2849 11 1 
276 1.21316 9.39162 -0.00552982 0.00251658 9.39177 14.7356 11 1 
280 1.21422 9.23419 -0.00579507 0.00256237 9.23433 16.6576 11 1 
284 1.21543 9.0812 -0.00594995 0.00262789 9.0813 18.8393 11 1 
288 1.21634 8.91408 -0.00609044 0.00272122 8.91421 20.4771 11 1 
292 1.21674 8.77891 -0.00643413 0.00271397 8.77918 21.2098 11 1 
296 1.21325 9.02675 -0.00665919 0.00289494 9.02801 14.9065 11 1 
300 1.20787 9.4209 -0.00709842 0.00294542 9.42196 5.19204 11 1 
304 1.20534 9.4565 -0.00736041 0.00306066 9.45722 0.616042 11 1 
308 1.20541 9.21307 -0.00746008 0.00311446 9.21414 0.747462 11 1 
312 1.20636 8.91199 -0.00764426 0.00308965 8.91278 2.45858 11 1 
316 1.20724 8.63998 -0.00775544 0.0031793 8.64058 4.04581 11 1 
320 1.20792 8.42008 -0.0079377 0.00326051 8.4205 5.26778 11 1 
320 1.20792 8.42008 -0.0079377 0.00326051 8.4205 5.26778 15 1 
324 1.20849 8.23411 -0.00812281 0.00344411 8.23443 6.29585 15 1 
328 1.20894 8.0762 -0.00839167 0.00350375 8.07643 7.11832 15 1 
332 1.20936 7.93979 -0.00862769 0.00362198 7.93996 7.88321 15 1 
336 1.20964 7.81426 -0.00882529 0.00391379 7.81436 8.38043 15 1 
340 1.20981 7.70418 -0.00909632 0.00414012 7.70428 8.68435 15 1 
344 1.2101 7.61419 -0.00935646 0.00433164 7.61427 9.20799 15 1 
348 1.21033 7.53267 -0.00965958 0.00452395 7.53274 9.63087 15 1 
352 1.21046 7.45488 -0.00990394 0.00479484 7.45494 9.86573 15 1 
356 1.21058 7.38236 -0.0100852 0.00515734 7.38241 10.0783 15 1 
360 1.2107 7.31709 -0.0103178 0.00550399 7.31712 10.3016 15 1 
364 1.21087 7.26297 -0.0105632 0.00577111 7.26301 10.5984 15 1 
368 1.21098 7.21227 -0.0107461 0.00608631 7.21231 10.7938 15 1 
372 1.21104 7.16013 -0.0108575 0.00655536 7.16016 10.9017 15 1 
376 1.21114 7.11363 -0.0109651 0.00705761 7.11366 11.0992 15 1 
380 1.21122 7.07166 -0.0111489 0.00743775 7.07169 11.2427 15 1 
384 1.21128 7.03287 -0.0113545 0.00781003 7.0329 11.3476 15 1 
384 1.21128 7.03287 -0.0113545 0.00781003 7.0329 11.3476 16 1 
388 1.21136 6.99804 -0.0115098 0.00831956 6.99808 11.4931 16 1 
392 1.21143 6.96326 -0.0116335 0.00886676 6.9633 11.6138 16 1 
396 1.21148 6.92975 -0.0118016 0.00936003 6.92978 11.7042 16 1 
400 1.21152 6.89995 -0.0120375 0.00985707 6.89999 11.7688 16 1 
404 1.21156 6.87239 -0.012252 0.0104002 6.87243 11.8531 16 1 
408 1.21162 6.84721 -0.0123821 0.0109898 6.84725 11.9584 16 1 
412 1.21165 6.82324 -0.0124792 0.0115919 6.82328 12.0181 16 1 
416 1.21168 6.79962 -0.0126115 0.0122171 6.79966 12.057 16 1 
420 1.2117 6.77809 -0.0127628 0.0128717 6.77813 12.1048 16 1 
424 1.21174 6.75923 -0.0129062 0.013515 6.75927 12.1726 16 1 
428 1.21177 6.74182 -0.0129843 0.0141602 6.74186 12.2279 16 1 
432 1.21178 6.72446 -0.0130933 0.0148725 6.7245 12.252 16 1 
436 1.2118 6.70763 -0.0132648 0.0155655 6.70768 12.2897 16 1 
440 1.21182 6.69227 -0.0134162 0.0162141 6.69231 12.3158 16 1 
444 1.21183 6.67762 -0.0135597 0.016886 6.67766 12.3385 16 1 
448 1.21186 6.66378 -0.0137328 0.0175461 6.66383 12.3893 16 1 
448 1.21186 6.66378 -0.0137328 0.0175461 6.66383 12.3893 17 1 
452 1.21188 6.65029 -0.0138938 0.0181753 6.65033 12.4212 17 1 
456 1.21189 6.63641 -0.0141218 0.0187866 6.63647 12.4415 17 1 
460 1.2119 6.62305 -0.0143988 0.0194029 6.62311 12.4605 17 1 
464 1.21191 6.6104 -0.014608 0.0200173 6.61045 12.4771 17 1 
468 1.21193 6.59842 -0.0148343 0.0206499 6.59847 12.5216 17 1 
472 1.21195 6.58743 -0.0151055 0.0213066 6.58749 12.5613 17 1 
476 1.21196 6.57632 -0.0153736 0.0219746 6.57638 12.5786 17 1 
480 1.21197 6.56465 -0.0156468 0.0226619 6.56471 12.5961 17 1 
484 1.21199 6.5543 -0.0159296 0.0233863 6.55437 12.6168 17 1 
488 1.21201 6.54499 -0.0162106 0.0241672 6.54506 12.6564 17 1 
492 1.21202 6.53563 -0.0164999 0.0249734 6.5357 12.6879 17 1 
496 1.21204 6.52682 -0.0167998 0.0258001 6.5269 12.7154 17 1 
500 1.21206 6.51811 -0.0171154 0.0266524 6.51819 12.7499 17 1 
504 1.21206 6.50938 -0.0174346 0.0275679 6.50947 12.75 17 1 
508 1.21207 6.50202 -0.0177447 0.0284955 6.50211 12.766 17 1 
512 1.21209 6.49576 -0.0180889 0.0294164 6.49585 12.8075 17 1 
512 1.21209 6.49576 -0.0180889 0.0294164 6.49585 12.8075 25 1 
516 1.2121 6.48932 -0.0184607 0.030388 6.48942 12.823 25 1 
520 1.21211 6.48316 -0.0188529 0.0313578 6.48327 12.8415 25 1 
524 1.21212 6.4777 -0.0192626 0.0323413 6.47781 12.8621 25 1 
528 1.21213 6.47336 -0.0197098 0.033332 6.47348 12.8715 25 1 
532 1.21213 6.4699 -0.0201986 0.034329 6.47003 12.8856 25 1 
536 1.21213 6.46666 -0.0206929 0.0353415 6.46679 12.8872 25 1 
540 1.21214 6.46399 -0.0212343 0.036362 6.46413 12.889 25 1 
544 1.21214 6.46229 -0.021824 0.0373635 6.46244 12.8965 25 1 
548 1.21214 6.46195 -0.0224264 0.0383809 6.4621 12.904 25 1 
552 1.21215 6.46288 -0.0230273 0.0394471 6.46304 12.9112 25 1 
556 1.21214 6.46417 -0.0236956 0.0404724 6.46434 12.8992 25 1 
560 1.21213 6.46577 -0.0243554 0.0415336 6.46595 12.8813 25 1 
564 1.21212 6.46888 -0.0250581 0.0425583 6.46906 12.8674 25 1 
568 1.21212 6.47309 -0.0257902 0.0435857 6.47329 12.8559 25 1 
572 1.21211 6.47844 -0.0265196 0.0446245 6.47864 12.8491 25 1 
576 1.21211 6.48441 -0.0272961 0.0456342 6.48463 12.839 25 1 
576 1.21211 6.48441 -0.0272961 0.0456342 6.48463 12.839 26 1 
580 1.21209 6.49057 -0.0280587 0.0466863 6.4908 12.8115 26 1 
584 1.21208 6.4977 -0.0288563 0.047692 6.49794 12.7859 26 1 
588 1.21206 6.50586 -0.0296719 0.0487335 6.50611 12.7557 26 1 
592 1.21204 6.51457 -0.0305188 0.0497378 6.51483 12.7193 26 1 
596 1.21202 6.52399 -0.0313497 0.0507419 6.52426 12.6822 26 1 
600 1.212 6.53382 -0.0321819 0.0517735 6.53411 12.6442 26 1 
604 1.21198 6.54423 -0.0330181 0.0528143 6.54453 12.6127 26 1 
608 1.21196 6.55552 -0.0338552 0.0537928 6.55583 12.5802 26 1 
608 1.21196 6.55552 -0.0338552 0.0537928 6.55583 12.5802 26 1 
612 1.21195 6.56698 -0.0347179 0.0547508 6.5673 12.546 26 1 
616 1.21192 6.57894 -0.0355915 0.055769 6.57927 12.496 26 1 
620 1.21189 6.59086 -0.0365054 0.0567189 6.5912 12.4441 26 1 
624 1.21186 6.60344 -0.0374219 0.0577056 6.6038 12.3889 26 1 
628 1.21183 6.61685 -0.0383298 0.0586568 6.61722 12.3412 26 1 
632 1.21181 6.63075 -0.039281 0.0596203 6.63114 12.3012 26 1 
636 1.21178 6.64555 -0.0402307 0.0605445 6.64595 12.2543 26 1 
640 1.21176 6.66063 -0.0411869 0.061515 6.66105 12.21 26 1 
644 1.21173 6.67643 -0.0421363 0.062519 6.67686 12.1644 26 1 
648 1.21171 6.69306 -0.0430724 0.0634259 6.6935 12.1232 26 1 
652 1.21168 6.71007 -0.044037 0.0644252 6.71053 12.0701 26 1 
656 1.21166 6.72701 -0.0449693 0.0652876 6.72749 12.0217 26 1 
660 1.21162 6.74455 -0.0458972 0.0661843 6.74503 11.9661 26 1 
664 1.21159 6.76215 -0.0468255 0.0670895 6.76265 11.9099 26 1 
668 1.21157 6.77981 -0.0477628 0.0680398 6.78033 11.8702 26 1 
672 1.21155 6.79834 -0.0486408 0.068961 6.79887 11.8229 26 1 
672 1.21155 6.79834 -0.0486408 0.068961 6.79887 11.8229 27 1 
676 1.21152 6.81639 -0.0495374 0.0699296 6.81694 11.782 27 1 
680 1.21149 6.83503 -0.05047 0.0708957 6.83559 11.7294 27 1 
684 1.21147 6.85364 -0.0513009 0.0717991 6.85421 11.6776 27 1 
688 1.21143 6.8728 -0.0522015 0.0728326 6.87339 11.6225 27 1 
692 1.21141 6.89225 -0.0529991 0.073669 6.89285 11.5708 27 1 
696 1.21138 6.91188 -0.0538259 0.0747505 6.91249 11.5208 27 1 
700 1.21135 6.93154 -0.0547163 0.0756045 6.93218 11.4658 27 1 
704 1.21131 6.95143 -0.0555037 0.0765087 6.95208 11.4011 27 1 
704 1.21131 6.95143 -0.0555037 0.0765087 6.95208 11.4011 31 1 
708 1.21129 6.9711 -0.0562189 0.0775931 6.97177 11.3605 31 1 
712 1.21126 6.9916 -0.0570155 0.07849 6.99228 11.2997 31 1 
716 1.21123 7.01244 -0.0577668 0.079618 7.01314 11.2462 31 1 
720 1.2112 7.03434 -0.0585538 0.0808824 7.03505 11.2002 31 1 
724 1.21117 7.05732 -0.0594894 0.0818015 7.05805 11.1379 31 1 
728 1.21114 7.08138 -0.0602614 0.0829637 7.08213 11.0868 31 1 
732 1.2111 7.10778 -0.0610045 0.0844013 7.10855 11.0215 31 1 
736 1.21109 7.13396 -0.0618679 0.0849938 7.13474 10.9947 31 1 
740 1.21105 7.16193 -0.0623782 0.0862277 7.16273 10.9352 31 1 
744 1.21102 7.19101 -0.0630318 0.0873654 7.19183 10.8714 31 1 
748 1.21102 7.21811 -0.0637121 0.0881993 7.21894 10.87 31 1 
752 1.21097 7.24788 -0.0636126 0.0893814 7.24872 10.7795 31 1 
756 1.21095 7.27535 -0.0647578 0.0900106 7.27621 10.7439 31 1 
760 1.21093 7.30471 -0.0657367 0.0906624 7.30557 10.7111 31 1 
764 1.21091 7.33284 -0.0658193 0.0914777 7.33371 10.6831 31 1 
768 1.21088 7.35986 -0.0665379 0.0925613 7.36074 10.6185 31 1 
772 1.21083 7.38791 -0.0669365 0.0950169 7.38883 10.5331 31 1 
776 1.21081 7.41734 -0.066695 0.0971672 7.41829 10.4897 31 1 
780 1.21074 7.45475 -0.0678991 0.0968379 7.4557 10.3677 31 1 
784 1.2107 7.49 -0.0701226 0.0979645 7.49098 10.3042 31 1 
788 1.21054 7.54116 -0.0703814 0.102013 7.5422 9.99995 31 1 
792 1.2104 7.5975 -0.0700582 0.107832 7.59863 9.76101 31 1 
796 1.21013 7.67892 -0.0708386 0.115386 7.68018 9.25937 31 1 
800 1.20983 7.73794 -0.0714804 0.119379 7.73927 8.727 31 1 
