81.5083;r ;Density                 ;Velocity u              ;Velocity v              ;Velocity w              ;|Velocity|              ;Pressure                ;Distribution            ;Levels                  ;
0 1.2194 10.0001 8.84127e-05 0.000128893 10.0001 26.0185 1 1 
4 1.21941 10.0008 9.30222e-06 0.000199488 10.0008 26.0365 1 1 
8 1.21944 9.99932 -0.000167405 0.000223608 9.99932 26.0767 1 1 
12 1.21941 9.99799 -0.000340936 0.000272037 9.99799 26.0336 1 1 
16 1.21944 9.99608 -0.000395727 0.000383998 9.99608 26.0774 1 1 
20 1.21947 9.99403 -0.000583158 0.000381697 9.99403 26.1315 1 1 
24 1.21944 9.99336 -0.00060478 0.000548915 9.99336 26.0886 1 1 
28 1.21947 9.99006 -0.000802732 0.000529985 9.99006 26.1426 1 1 
32 1.21945 9.98995 -0.00094592 0.000615374 9.98995 26.0995 1 1 
36 1.21948 9.98773 -0.00102595 0.00069465 9.98773 26.148 1 1 
40 1.21948 9.98663 -0.00127119 0.000629323 9.98663 26.1601 1 1 
44 1.21947 9.98478 -0.00142748 0.000620237 9.98478 26.1449 1 1 
48 1.21947 9.9824 -0.00160508 0.000667717 9.98241 26.1414 1 1 
52 1.21946 9.98143 -0.00178379 0.00065425 9.98143 26.1116 1 1 
56 1.21948 9.9784 -0.00197728 0.000634085 9.97841 26.1607 1 1 
60 1.21945 9.97854 -0.00213859 0.000691623 9.97854 26.0998 1 1 
64 1.21947 9.97537 -0.00235439 0.000667331 9.97537 26.1397 1 1 
64 1.21947 9.97537 -0.00235439 0.000667331 9.97537 26.1397 2 1 
68 1.21944 9.97533 -0.00244114 0.000821017 9.97533 26.0802 2 1 
72 1.21944 9.97401 -0.00262104 0.000811841 9.97401 26.076 2 1 
76 1.21943 9.97243 -0.00284198 0.00077684 9.97243 26.0653 2 1 
80 1.21942 9.97105 -0.00288288 0.000986759 9.97105 26.0387 2 1 
84 1.21941 9.97022 -0.00304467 0.00100783 9.97023 26.0325 2 1 
88 1.21938 9.97072 -0.0032245 0.00105586 9.97073 25.9821 2 1 
92 1.21939 9.96947 -0.00321072 0.00127099 9.96947 25.9993 2 1 
96 1.21935 9.97046 -0.00345933 0.00123971 9.97046 25.9161 2 1 
100 1.21937 9.96702 -0.00344718 0.00143915 9.96702 25.95 2 1 
104 1.21934 9.96564 -0.00366292 0.00149614 9.96564 25.906 2 1 
108 1.21931 9.96436 -0.00374456 0.00160576 9.96437 25.8455 2 1 
112 1.2193 9.96375 -0.00381836 0.00172674 9.96375 25.834 2 1 
116 1.21929 9.96363 -0.00401816 0.00182266 9.96363 25.8096 2 1 
120 1.21926 9.96455 -0.00405294 0.00194035 9.96456 25.7609 2 1 
124 1.21927 9.96306 -0.00422843 0.00202492 9.96306 25.774 2 1 
128 1.21926 9.96062 -0.00427697 0.00218864 9.96062 25.7533 2 1 
128 1.21926 9.96062 -0.00427697 0.00218864 9.96062 25.7533 10 1 
132 1.21918 9.96164 -0.00446214 0.00223461 9.96165 25.6215 10 1 
136 1.21921 9.95716 -0.00449268 0.00244007 9.95716 25.665 10 1 
140 1.21918 9.95709 -0.00468477 0.00253814 9.9571 25.6185 10 1 
144 1.21914 9.95678 -0.00473816 0.00275182 9.95679 25.539 10 1 
148 1.21917 9.95399 -0.00479692 0.00278642 9.954 25.5912 10 1 
152 1.21911 9.95589 -0.00499473 0.00298728 9.9559 25.4916 10 1 
156 1.21907 9.95433 -0.00495135 0.00327873 9.95434 25.4231 10 1 
160 1.21911 9.95031 -0.00521537 0.0033363 9.95031 25.4936 10 1 
160 1.21911 9.95031 -0.00521537 0.0033363 9.95031 25.4936 10 1 
164 1.21903 9.95171 -0.00520361 0.00352026 9.95171 25.3337 10 1 
168 1.21905 9.94776 -0.00539306 0.00371107 9.94777 25.3712 10 1 
172 1.21902 9.94616 -0.00551378 0.00390652 9.94617 25.325 10 1 
176 1.21894 9.94877 -0.00547317 0.00408428 9.94878 25.1839 10 1 
180 1.219 9.94221 -0.00557389 0.00448173 9.94221 25.2811 10 1 
184 1.21892 9.94132 -0.00579405 0.00455487 9.94132 25.1505 10 1 
188 1.2189 9.93899 -0.00586694 0.00478866 9.939 25.1145 10 1 
192 1.21888 9.93308 -0.00590247 0.00500926 9.93308 25.0745 10 1 
196 1.21883 9.93188 -0.00633492 0.00498081 9.93189 24.9855 10 1 
200 1.21881 9.92962 -0.00615371 0.00544774 9.92963 24.9477 10 1 
204 1.21882 9.92711 -0.00644743 0.00553408 9.92712 24.9674 10 1 
208 1.21882 9.9245 -0.00668812 0.0057522 9.92451 24.9649 10 1 
212 1.21874 9.92075 -0.00664181 0.00617151 9.92077 24.8184 10 1 
216 1.21877 9.91177 -0.00709703 0.00609945 9.91178 24.8708 10 1 
220 1.21875 9.89965 -0.0071003 0.00626682 9.89966 24.8406 10 1 
224 1.21866 9.89237 -0.00709162 0.00669309 9.89238 24.6784 10 1 
224 1.21866 9.89237 -0.00709162 0.00669309 9.89238 24.6784 10 1 
228 1.21875 9.88399 -0.00757253 0.00661195 9.884 24.8362 10 1 
232 1.21874 9.87832 -0.0076129 0.00694972 9.87834 24.8094 10 1 
236 1.21874 9.86843 -0.00772047 0.00729554 9.86845 24.8118 10 1 
240 1.21877 9.85845 -0.00809101 0.00723418 9.85846 24.8678 10 1 
244 1.21888 9.83648 -0.00807783 0.00782189 9.8365 25.0752 10 1 
248 1.21893 9.80908 -0.00861792 0.00772882 9.8091 25.1616 10 1 
252 1.21886 9.79626 -0.00891502 0.00774045 9.79627 25.0358 10 1 
256 1.21925 9.75644 -0.00891977 0.00836569 9.75645 25.7465 10 1 
256 1.21925 9.75644 -0.00891977 0.00836569 9.75645 25.7465 11 1 
260 1.21929 9.71949 -0.00921075 0.00847776 9.71953 25.806 11 1 
264 1.21938 9.6818 -0.00934677 0.00861753 9.68184 25.9769 11 1 
268 1.22006 9.61207 -0.00969584 0.00889243 9.61212 27.1983 11 1 
272 1.22049 9.53342 -0.010073 0.00898814 9.5335 27.977 11 1 
276 1.22065 9.4413 -0.0102452 0.0091375 9.44146 28.26 11 1 
280 1.22162 9.28683 -0.0105247 0.00931086 9.28698 30.0178 11 1 
284 1.22274 9.13679 -0.0107107 0.0095166 9.1369 32.0384 11 1 
288 1.22355 8.97299 -0.0108787 0.00965408 8.97313 33.5103 11 1 
292 1.22387 8.83994 -0.0112835 0.00978164 8.84021 34.0777 11 1 
296 1.22028 9.08611 -0.0115854 0.0101747 9.08733 27.6001 11 1 
300 1.21481 9.47817 -0.012171 0.0105278 9.47921 17.7159 11 1 
304 1.21219 9.51641 -0.0125073 0.010867 9.51712 12.9864 11 1 
308 1.21217 9.27878 -0.0125208 0.0109773 9.27983 12.9574 11 1 
312 1.21303 8.98333 -0.012597 0.0110288 8.9841 14.4969 11 1 
316 1.21381 8.7161 -0.012623 0.0112523 8.7167 15.9135 11 1 
320 1.21439 8.50019 -0.0127243 0.0115014 8.5006 16.9665 11 1 
320 1.21439 8.50019 -0.0127243 0.0115014 8.5006 16.9665 15 1 
324 1.21487 8.31735 -0.0128445 0.0119013 8.31767 17.8266 15 1 
328 1.21523 8.16203 -0.0130454 0.0121809 8.16227 18.4792 15 1 
332 1.21556 8.02787 -0.013225 0.0125648 8.02805 19.0728 15 1 
336 1.21574 7.90423 -0.0133741 0.0131815 7.90436 19.3971 15 1 
340 1.21581 7.79586 -0.0135904 0.0137607 7.79597 19.5253 15 1 
344 1.216 7.70735 -0.0137793 0.0142943 7.70745 19.8736 15 1 
348 1.21614 7.62717 -0.0140064 0.0148496 7.62726 20.1197 15 1 
352 1.21617 7.5507 -0.0141806 0.0155027 7.55079 20.1747 15 1 
356 1.21619 7.47958 -0.014299 0.0162662 7.47966 20.2045 15 1 
360 1.21621 7.41589 -0.0144683 0.0170065 7.41595 20.2437 15 1 
364 1.21627 7.36358 -0.0146506 0.0176476 7.36365 20.3571 15 1 
368 1.21628 7.31486 -0.014774 0.0183151 7.31493 20.3667 15 1 
372 1.21623 7.26484 -0.0148431 0.0191285 7.26491 20.2842 15 1 
376 1.21623 7.22041 -0.0149179 0.0199755 7.22047 20.2914 15 1 
380 1.21621 7.18045 -0.0150787 0.0206816 7.18052 20.2465 15 1 
384 1.21616 7.14357 -0.0152698 0.0213632 7.14364 20.1657 15 1 
384 1.21616 7.14357 -0.0152698 0.0213632 7.14364 20.1657 16 1 
388 1.21614 7.1105 -0.0154172 0.0221616 7.11057 20.1281 16 1 
392 1.21611 7.07729 -0.015545 0.0230047 7.07737 20.0652 16 1 
396 1.21606 7.04511 -0.0157262 0.023804 7.04518 19.9731 16 1 
400 1.216 7.01645 -0.0159838 0.0246094 7.01652 19.8606 16 1 
404 1.21595 6.98975 -0.0162076 0.0254331 6.98983 19.7763 16 1 
408 1.21592 6.96515 -0.0163571 0.0263021 6.96524 19.7192 16 1 
412 1.21586 6.94133 -0.01648 0.0271972 6.94142 19.62 16 1 
416 1.2158 6.91746 -0.0166486 0.0281198 6.91756 19.5025 16 1 
420 1.21574 6.8953 -0.016833 0.029073 6.8954 19.396 16 1 
424 1.21569 6.87549 -0.0169983 0.0300227 6.87559 19.3134 16 1 
428 1.21564 6.85676 -0.0170915 0.0309692 6.85687 19.2273 16 1 
432 1.21558 6.83776 -0.0172168 0.0319989 6.83787 19.1164 16 1 
436 1.21553 6.81896 -0.0174159 0.0329939 6.81907 19.0212 16 1 
440 1.21547 6.8014 -0.0176024 0.0339392 6.80152 18.913 16 1 
444 1.21541 6.7845 -0.0177836 0.0349058 6.78463 18.8011 16 1 
448 1.21536 6.76847 -0.0179888 0.0358636 6.7686 18.7204 16 1 
448 1.21536 6.76847 -0.0179888 0.0358636 6.7686 18.7204 17 1 
452 1.21531 6.75301 -0.018181 0.0367684 6.75315 18.6223 17 1 
456 1.21525 6.73736 -0.0184424 0.0376546 6.7375 18.5152 17 1 
460 1.21519 6.72224 -0.0187576 0.0385163 6.72239 18.4084 17 1 
464 1.21513 6.70788 -0.0190259 0.0393555 6.70803 18.2976 17 1 
468 1.21508 6.69415 -0.0193204 0.0401854 6.69431 18.2117 17 1 
472 1.21503 6.6815 -0.0196889 0.0410168 6.68166 18.121 17 1 
476 1.21497 6.6689 -0.0200604 0.0418571 6.66907 18.0124 17 1 
480 1.21491 6.65606 -0.0204669 0.0427083 6.65624 17.9059 17 1 
484 1.21486 6.64499 -0.0209024 0.0436015 6.64517 17.8017 17 1 
488 1.21481 6.63547 -0.0213689 0.0445449 6.63566 17.7125 17 1 
492 1.21475 6.62654 -0.0218709 0.0455284 6.62674 17.6121 17 1 
496 1.21469 6.61899 -0.0223895 0.0465251 6.61919 17.5084 17 1 
500 1.21464 6.6125 -0.0229423 0.047588 6.61272 17.4161 17 1 
504 1.21458 6.60694 -0.0234902 0.0487256 6.60716 17.2982 17 1 
508 1.21452 6.60365 -0.0240461 0.0499027 6.60388 17.1979 17 1 
512 1.21448 6.60218 -0.0246176 0.0510902 6.60243 17.1175 17 1 
512 1.21448 6.60218 -0.0246176 0.0510902 6.60243 17.1175 25 1 
516 1.21441 6.60126 -0.0252094 0.0523567 6.60152 17.0038 25 1 
520 1.21435 6.60128 -0.0258147 0.0536518 6.60155 16.8906 25 1 
524 1.21429 6.60263 -0.026416 0.0549735 6.60291 16.7865 25 1 
528 1.21423 6.60574 -0.0270546 0.0563333 6.60604 16.6776 25 1 
532 1.21418 6.61019 -0.0277136 0.057721 6.6105 16.5784 25 1 
536 1.21412 6.61506 -0.0283478 0.0591467 6.61539 16.467 25 1 
540 1.21405 6.62054 -0.0290194 0.0606114 6.62088 16.3462 25 1 
544 1.21399 6.62675 -0.0296854 0.062079 6.6271 16.2294 25 1 
548 1.21392 6.63415 -0.030359 0.0635679 6.63453 16.111 25 1 
552 1.21386 6.64246 -0.0310277 0.0650957 6.64285 16.0022 25 1 
556 1.21379 6.65076 -0.0317341 0.0665911 6.65117 15.8794 25 1 
560 1.21372 6.65893 -0.0324631 0.0681196 6.65936 15.7503 25 1 
564 1.21365 6.66787 -0.0332014 0.0696178 6.66832 15.6287 25 1 
568 1.21358 6.67737 -0.0339752 0.0711154 6.67783 15.5027 25 1 
572 1.21352 6.68733 -0.0347546 0.0726267 6.68782 15.3826 25 1 
576 1.21345 6.69729 -0.035565 0.0741069 6.69779 15.2602 25 1 
576 1.21345 6.69729 -0.035565 0.0741069 6.69779 15.2602 26 1 
580 1.21337 6.707 -0.0364009 0.0756088 6.70752 15.1227 26 1 
584 1.2133 6.71702 -0.0372342 0.0771021 6.71756 14.996 26 1 
588 1.21323 6.72753 -0.0380808 0.0786195 6.72809 14.8694 26 1 
592 1.21316 6.73798 -0.038943 0.0801243 6.73857 14.7415 26 1 
596 1.21309 6.74831 -0.0397512 0.081657 6.74892 14.6145 26 1 
600 1.21302 6.7584 -0.0405732 0.0832037 6.75903 14.4802 26 1 
604 1.21295 6.76822 -0.0413664 0.0848108 6.76888 14.3516 26 1 
608 1.21287 6.77854 -0.0421223 0.0863841 6.77922 14.2192 26 1 
608 1.21287 6.77854 -0.0421223 0.0863841 6.77922 14.2192 26 1 
612 1.2128 6.78848 -0.0428555 0.0879744 6.78919 14.0947 26 1 
616 1.21273 6.79836 -0.0435592 0.0896672 6.79909 13.965 26 1 
620 1.21266 6.80784 -0.0442513 0.0912928 6.8086 13.834 26 1 
624 1.21259 6.8172 -0.0449048 0.0930084 6.81798 13.7054 26 1 
628 1.21252 6.82679 -0.0455239 0.0947054 6.82759 13.5759 26 1 
632 1.21245 6.83619 -0.0461519 0.0964096 6.83703 13.4509 26 1 
636 1.21238 6.8457 -0.0467601 0.0981505 6.84656 13.3237 26 1 
640 1.21231 6.85495 -0.0473444 0.0999191 6.85585 13.1954 26 1 
644 1.21224 6.8642 -0.0479257 0.101716 6.86512 13.0708 26 1 
648 1.21217 6.87391 -0.0484966 0.103455 6.87486 12.951 26 1 
652 1.2121 6.88378 -0.0490314 0.10532 6.88477 12.8256 26 1 
656 1.21204 6.8935 -0.0496303 0.107085 6.89451 12.7083 26 1 
660 1.21197 6.90383 -0.0501949 0.108882 6.90487 12.5836 26 1 
664 1.2119 6.91389 -0.0507157 0.110681 6.91497 12.4684 26 1 
668 1.21184 6.92445 -0.0513236 0.112489 6.92556 12.3543 26 1 
672 1.21177 6.9357 -0.051796 0.114296 6.93684 12.236 26 1 
672 1.21177 6.9357 -0.051796 0.114296 6.93684 12.236 27 1 
676 1.21172 6.94654 -0.0522929 0.116061 6.94771 12.1335 27 1 
680 1.21165 6.95827 -0.0528746 0.117932 6.95947 12.0144 27 1 
684 1.21159 6.96937 -0.0532425 0.119507 6.9706 11.912 27 1 
688 1.21153 6.98136 -0.053791 0.121386 6.98263 11.8034 27 1 
692 1.21148 6.99311 -0.0541656 0.122982 6.9944 11.705 27 1 
696 1.21142 7.00546 -0.0545406 0.124796 7.00679 11.6002 27 1 
700 1.21137 7.01782 -0.0550109 0.126525 7.01918 11.503 27 1 
704 1.21131 7.03015 -0.0553218 0.128141 7.03154 11.4019 27 1 
704 1.21131 7.03015 -0.0553218 0.128141 7.03154 11.4019 31 1 
708 1.21126 7.04247 -0.0556132 0.129786 7.04389 11.305 31 1 
712 1.21121 7.05522 -0.0559213 0.131246 7.05666 11.2113 31 1 
716 1.21116 7.06776 -0.0560687 0.132942 7.06924 11.1185 31 1 
720 1.21111 7.08034 -0.0562977 0.134706 7.08185 11.0307 31 1 
724 1.21105 7.0938 -0.056621 0.136025 7.09533 10.9236 31 1 
728 1.21101 7.10582 -0.0567016 0.137511 7.10738 10.8527 31 1 
732 1.21095 7.11938 -0.056862 0.139422 7.12098 10.75 31 1 
736 1.2109 7.13258 -0.0570838 0.140147 7.13419 10.6553 31 1 
740 1.21086 7.1451 -0.0570796 0.141956 7.14674 10.5867 31 1 
744 1.2108 7.15914 -0.0570769 0.143339 7.1608 10.4715 31 1 
748 1.21075 7.17237 -0.0574755 0.145074 7.17407 10.3889 31 1 
752 1.21069 7.18755 -0.0568267 0.146643 7.18928 10.2864 31 1 
756 1.21065 7.2012 -0.057347 0.147741 7.20294 10.2137 31 1 
760 1.21057 7.21916 -0.0581597 0.149508 7.22094 10.0671 31 1 
764 1.21053 7.23676 -0.0581842 0.150749 7.23857 9.98471 31 1 
768 1.21048 7.25478 -0.0585588 0.152097 7.25662 9.89853 31 1 
772 1.21037 7.27476 -0.0582988 0.155465 7.27665 9.70529 31 1 
776 1.21028 7.2958 -0.0577843 0.159294 7.29777 9.53865 31 1 
780 1.21016 7.32702 -0.0591749 0.159692 7.32901 9.32234 31 1 
784 1.21008 7.35756 -0.0619382 0.161875 7.35962 9.17047 31 1 
788 1.20982 7.40521 -0.0624432 0.167542 7.40739 8.70064 31 1 
792 1.20959 7.45796 -0.0627991 0.177283 7.46036 8.28651 31 1 
796 1.20921 7.53831 -0.0657015 0.190599 7.54108 7.60851 31 1 
800 1.20885 7.59871 -0.0678253 0.197247 7.60165 6.95675 31 1 
