19.0186;r ;Density                 ;Velocity u              ;Velocity v              ;Velocity w              ;|Velocity|              ;Pressure                ;Distribution            ;Levels                  ;
0 1.20452 9.99873 0.000117618 4.68571e-05 9.99873 -0.87537 1 1 
4 1.20452 10.0005 0.000129452 5.04347e-05 10.0005 -0.871695 1 1 
8 1.2045 10.0012 0.000126232 3.0798e-05 10.0012 -0.899022 1 1 
12 1.20439 10.0009 0.000106273 2.1152e-05 10.0009 -1.10278 1 1 
16 1.2044 9.99939 0.000157539 2.98948e-05 9.99939 -1.08811 1 1 
20 1.20448 9.99828 0.000113042 -6.98641e-05 9.99828 -0.93765 1 1 
24 1.20448 9.99798 0.000156809 -4.96438e-05 9.99798 -0.936098 1 1 
28 1.2045 9.99658 0.000144778 -9.87922e-05 9.99658 -0.903092 1 1 
32 1.20441 10.0013 0.000169532 -9.11325e-05 10.0013 -1.06932 1 1 
36 1.20447 10.0014 0.000178039 -0.000145386 10.0014 -0.964785 1 1 
40 1.20454 9.99876 3.48128e-06 -0.00032739 9.99876 -0.837979 1 1 
44 1.20449 9.99638 7.20113e-05 -0.000229433 9.99638 -0.91768 1 1 
48 1.20445 9.99718 0.000232964 -7.57302e-05 9.99718 -0.992159 1 1 
52 1.20439 10.0003 6.22659e-05 -0.000326687 10.0003 -1.10014 1 1 
56 1.20444 9.99831 -0.000109735 -0.000545368 9.99831 -1.00548 1 1 
60 1.20448 9.99668 2.69211e-05 -0.00032208 9.99668 -0.946626 1 1 
64 1.20449 9.99475 0.000146991 -0.000232337 9.99475 -0.928556 1 1 
64 1.20449 9.99475 0.000146991 -0.000232337 9.99475 -0.928556 2 1 
68 1.20445 9.99931 0.000196011 -0.000199163 9.99931 -0.99552 2 1 
72 1.20442 10.0011 0.000369051 -3.69944e-05 10.0011 -1.04431 2 1 
76 1.20441 10.0005 0.000827285 0.000436453 10.0005 -1.07383 2 1 
80 1.20447 9.99593 0.00111737 0.000725994 9.99593 -0.950206 2 1 
84 1.20454 9.99317 0.000674954 0.000203688 9.99317 -0.823484 2 1 
88 1.20451 9.99708 0.00021739 -0.00025882 9.99708 -0.889431 2 1 
92 1.20443 9.99972 0.000433545 -9.90717e-05 9.99972 -1.03342 2 1 
96 1.20432 10.0037 0.000726791 0.000141596 10.0037 -1.22977 2 1 
100 1.2044 9.99958 0.00112492 0.000450965 9.99959 -1.08206 2 1 
104 1.20449 9.99637 0.00111146 0.000479277 9.99637 -0.924353 2 1 
108 1.2045 9.99522 0.00110621 0.000456761 9.99522 -0.894928 2 1 
112 1.20446 9.99655 0.00122571 0.00055174 9.99655 -0.971515 2 1 
116 1.20438 9.99894 0.00118856 0.000550313 9.99894 -1.11929 2 1 
120 1.20435 10.0008 0.00120454 0.000457579 10.0008 -1.16906 2 1 
124 1.20444 9.99871 0.00108767 0.000364114 9.99871 -1.00978 2 1 
128 1.20453 9.99435 0.00118855 0.000407528 9.99435 -0.842133 2 1 
128 1.20453 9.99435 0.00118855 0.000407528 9.99435 -0.842133 10 1 
132 1.20449 9.99609 0.00116957 0.000381457 9.9961 -0.922079 10 1 
136 1.20442 9.99384 0.00135622 0.000527181 9.99384 -1.05 10 1 
140 1.20432 9.99469 0.0012709 0.000458405 9.99469 -1.2258 10 1 
144 1.20433 9.99471 0.00130281 0.000467348 9.99471 -1.20207 10 1 
148 1.20448 9.99143 0.0012761 0.000300125 9.99144 -0.944715 10 1 
152 1.20449 9.99294 0.0011634 0.000273625 9.99294 -0.916455 10 1 
156 1.20444 9.99282 0.00135549 0.000412826 9.99282 -1.01644 10 1 
160 1.20445 9.99058 0.00122605 0.000319695 9.99058 -0.991615 10 1 
160 1.20445 9.99058 0.00122605 0.000319695 9.99058 -0.991615 10 1 
164 1.20437 9.99345 0.00138745 0.000358526 9.99346 -1.13633 10 1 
168 1.20442 9.99039 0.00135186 0.000329386 9.9904 -1.04867 10 1 
172 1.20447 9.98846 0.00132987 0.000303584 9.98846 -0.964646 10 1 
176 1.20444 9.99051 0.00143233 0.000246897 9.99052 -1.00345 10 1 
180 1.20451 9.98312 0.00147918 0.000431471 9.98312 -0.886625 10 1 
184 1.20443 9.98246 0.00138907 0.000285328 9.98246 -1.03204 10 1 
188 1.20443 9.98274 0.00141434 0.000271727 9.98274 -1.02379 10 1 
192 1.20449 9.97928 0.00145679 0.000217498 9.97929 -0.92833 10 1 
196 1.20449 9.97785 0.00118037 -8.62779e-05 9.97785 -0.929938 10 1 
200 1.20448 9.97365 0.00149249 0.000158167 9.97365 -0.931674 10 1 
204 1.20456 9.97078 0.00138998 9.30695e-05 9.97079 -0.803655 10 1 
208 1.20466 9.97099 0.00129946 6.50891e-05 9.971 -0.620344 10 1 
212 1.20462 9.96988 0.00153571 0.00019661 9.96989 -0.692825 10 1 
216 1.20462 9.96022 0.00120715 -0.000155185 9.96023 -0.689237 10 1 
220 1.20462 9.94667 0.00134785 -0.000167456 9.94667 -0.690968 10 1 
224 1.20464 9.93985 0.00155786 3.62046e-05 9.93986 -0.647329 10 1 
224 1.20464 9.93985 0.00155786 3.62046e-05 9.93986 -0.647329 10 1 
228 1.20486 9.93329 0.00120089 -0.000415817 9.93329 -0.254788 10 1 
232 1.20489 9.92913 0.00124814 -0.000390309 9.92914 -0.195104 10 1 
236 1.2049 9.91938 0.00123546 -0.000354204 9.91939 -0.175471 10 1 
240 1.20498 9.90909 0.000986953 -0.000753377 9.90909 -0.0447325 10 1 
244 1.20516 9.88744 0.00114182 -0.000535106 9.88745 0.283773 10 1 
248 1.20528 9.86078 0.00076775 -0.000918911 9.86079 0.513446 10 1 
252 1.20531 9.84947 0.000650989 -0.00113587 9.84948 0.552017 10 1 
256 1.20581 9.81177 0.000809361 -0.000831992 9.81178 1.45442 10 1 
256 1.20581 9.81177 0.000809361 -0.000831992 9.81178 1.45442 11 1 
260 1.20591 9.77565 0.00062984 -0.00110167 9.77567 1.64281 11 1 
264 1.20599 9.73699 0.000624462 -0.0013356 9.73702 1.78393 11 1 
268 1.20668 9.66679 0.000386726 -0.0013883 9.66683 3.02795 11 1 
272 1.20724 9.59088 2.83516e-05 -0.00169349 9.59095 4.05481 11 1 
276 1.20759 9.50338 -0.000126181 -0.00198239 9.50353 4.67632 11 1 
280 1.20865 9.35001 -0.00031689 -0.00217563 9.35014 6.59014 11 1 
284 1.20971 9.19828 -0.000422323 -0.00222862 9.19837 8.49981 11 1 
288 1.2105 9.035 -0.000539697 -0.00231144 9.03512 9.9304 11 1 
292 1.21098 8.90666 -0.000794922 -0.00262146 8.90691 10.7995 11 1 
296 1.20761 9.15994 -0.00092751 -0.00273461 9.16116 4.71292 11 1 
300 1.2022 9.55522 -0.00119221 -0.00301009 9.55625 -5.05418 11 1 
304 1.19953 9.59206 -0.00133929 -0.0032035 9.59275 -9.88461 11 1 
308 1.19952 9.3555 -0.00149649 -0.00331473 9.35651 -9.88932 11 1 
312 1.20055 9.06612 -0.00177763 -0.00352159 9.06686 -8.03108 11 1 
316 1.20154 8.80585 -0.00194205 -0.00367876 8.80641 -6.25802 11 1 
320 1.20217 8.59386 -0.0021174 -0.00387506 8.59423 -5.11305 11 1 
320 1.20217 8.59386 -0.0021174 -0.00387506 8.59423 -5.11305 15 1 
324 1.20261 8.41382 -0.00221902 -0.00395111 8.4141 -4.32321 15 1 
328 1.20301 8.2657 -0.0023621 -0.00410825 8.2659 -3.58946 15 1 
332 1.20351 8.14307 -0.00242808 -0.00422121 8.14322 -2.68269 15 1 
336 1.20386 8.02993 -0.00245038 -0.00420787 8.03002 -2.06525 15 1 
340 1.20397 7.92842 -0.00256715 -0.00431034 7.92849 -1.86019 15 1 
344 1.20416 7.84574 -0.00267989 -0.00446637 7.8458 -1.51381 15 1 
348 1.20438 7.77423 -0.00280641 -0.00461006 7.77429 -1.12864 15 1 
352 1.20456 7.70963 -0.00285051 -0.00468404 7.70967 -0.787319 15 1 
356 1.20471 7.64981 -0.00285586 -0.00471429 7.64984 -0.515944 15 1 
360 1.20477 7.59487 -0.00299531 -0.00485048 7.59489 -0.423846 15 1 
364 1.20482 7.55119 -0.0031706 -0.00509073 7.55121 -0.327645 15 1 
368 1.20489 7.514 -0.00320956 -0.00520594 7.51403 -0.202034 15 1 
372 1.20499 7.47816 -0.00302515 -0.00503678 7.47817 -0.0176751 15 1 
376 1.20515 7.44771 -0.00272988 -0.00474789 7.44772 0.272175 15 1 
380 1.20522 7.42023 -0.00253661 -0.00462131 7.42024 0.404921 15 1 
384 1.20523 7.39686 -0.00256694 -0.00472646 7.39687 0.416624 15 1 
384 1.20523 7.39686 -0.00256694 -0.00472646 7.39687 0.416624 16 1 
388 1.20528 7.38153 -0.0028148 -0.00495133 7.38154 0.511786 16 1 
392 1.20537 7.36987 -0.0031091 -0.00524689 7.36988 0.669567 16 1 
396 1.20543 7.35827 -0.00332269 -0.00551017 7.35828 0.771501 16 1 
400 1.20539 7.34461 -0.00334527 -0.00552054 7.34462 0.700421 16 1 
404 1.20531 7.3302 -0.00308891 -0.00522453 7.33022 0.56113 16 1 
408 1.2053 7.32522 -0.00264038 -0.00482134 7.32523 0.542967 16 1 
412 1.2054 7.3349 -0.00229763 -0.00457065 7.33491 0.721775 16 1 
416 1.20561 7.35201 -0.00225966 -0.00457592 7.35202 1.10714 16 1 
420 1.20584 7.36055 -0.00243812 -0.00473984 7.36056 1.52048 16 1 
424 1.20595 7.34387 -0.00264434 -0.00494606 7.34391 1.70699 16 1 
428 1.20585 7.29999 -0.00266439 -0.00502458 7.30005 1.52888 16 1 
432 1.20562 7.24869 -0.00246823 -0.00483402 7.24874 1.12764 16 1 
436 1.20547 7.22346 -0.00217588 -0.00451874 7.22348 0.841244 16 1 
440 1.20548 7.25198 -0.00184099 -0.00426773 7.252 0.867551 16 1 
444 1.20569 7.34274 -0.00158278 -0.00409082 7.34281 1.24801 16 1 
448 1.20603 7.48911 -0.00147904 -0.00400806 7.48928 1.8649 16 1 
448 1.20603 7.48911 -0.00147904 -0.00400806 7.48928 1.8649 17 1 
452 1.20635 7.67777 -0.0014707 -0.00407529 7.67804 2.43414 17 1 
456 1.20654 7.89437 -0.00162561 -0.00424679 7.89472 2.78402 17 1 
460 1.20659 8.12725 -0.00188411 -0.00442462 8.12764 2.87917 17 1 
464 1.20654 8.36528 -0.00190532 -0.00446049 8.36568 2.77779 17 1 
468 1.20645 8.5993 -0.0017343 -0.00431809 8.59967 2.6229 17 1 
472 1.20639 8.82439 -0.00151311 -0.00404122 8.82471 2.50214 17 1 
476 1.20636 9.03394 -0.00125212 -0.00374944 9.0342 2.46431 17 1 
480 1.20639 9.22177 -0.00104303 -0.00351497 9.22196 2.51197 17 1 
484 1.20645 9.3854 -0.000865004 -0.00331353 9.38553 2.62676 17 1 
488 1.20653 9.52156 -0.000685869 -0.00309208 9.52165 2.75698 17 1 
492 1.20656 9.62935 -0.00058965 -0.00293284 9.62941 2.81648 17 1 
496 1.20656 9.71185 -0.000603563 -0.00289136 9.71188 2.81806 17 1 
500 1.2065 9.77257 -0.000706704 -0.00285003 9.77259 2.71462 17 1 
504 1.20636 9.81858 -0.000794714 -0.00267471 9.81859 2.45549 17 1 
508 1.2062 9.85559 -0.000922929 -0.00255293 9.8556 2.17378 17 1 
512 1.20606 9.88464 -0.00102014 -0.00245367 9.88465 1.91963 17 1 
512 1.20606 9.88464 -0.00102014 -0.00245367 9.88465 1.91963 25 1 
516 1.20592 9.90621 -0.0010747 -0.00229175 9.90622 1.66908 25 1 
520 1.20583 9.92139 -0.00116325 -0.0021867 9.92139 1.49777 25 1 
524 1.20575 9.93261 -0.00123145 -0.00212146 9.93261 1.35985 25 1 
528 1.20567 9.94291 -0.00126923 -0.00198752 9.94291 1.21031 25 1 
532 1.2056 9.95265 -0.00129841 -0.0018207 9.95265 1.0755 25 1 
536 1.20553 9.95956 -0.00129914 -0.00166404 9.95956 0.954417 25 1 
540 1.2055 9.96385 -0.00130788 -0.00155965 9.96385 0.903072 25 1 
544 1.2055 9.96813 -0.00138646 -0.00154367 9.96814 0.906972 25 1 
548 1.2055 9.9733 -0.00140539 -0.0014586 9.9733 0.89852 25 1 
552 1.20549 9.97781 -0.00137627 -0.0013219 9.97781 0.879181 25 1 
556 1.20546 9.98173 -0.00138461 -0.00124839 9.98173 0.837302 25 1 
560 1.20543 9.98349 -0.00141056 -0.00121491 9.98349 0.782105 25 1 
564 1.20542 9.98508 -0.00141843 -0.00113241 9.98508 0.755213 25 1 
568 1.20543 9.99053 -0.00143719 -0.0010809 9.99053 0.768996 25 1 
572 1.20544 9.99233 -0.00142824 -0.00102277 9.99233 0.798372 25 1 
576 1.20545 9.99369 -0.0014794 -0.00103553 9.99369 0.807583 25 1 
576 1.20545 9.99369 -0.0014794 -0.00103553 9.99369 0.807583 26 1 
580 1.20542 9.99749 -0.00143676 -0.00092855 9.99749 0.757802 26 1 
584 1.20539 9.99644 -0.00142985 -0.000850327 9.99644 0.701457 26 1 
588 1.20541 10.0002 -0.00144977 -0.000838778 10.0002 0.746809 26 1 
592 1.20541 10.003 -0.00149072 -0.000850211 10.003 0.735377 26 1 
596 1.20538 10.0011 -0.001502 -0.000809674 10.0011 0.68536 26 1 
600 1.20541 10.0048 -0.00145563 -0.000730808 10.0048 0.733892 26 1 
604 1.20539 10.0039 -0.0014315 -0.00066929 10.0039 0.705089 26 1 
608 1.20538 10.0052 -0.0014586 -0.000651505 10.0052 0.682552 26 1 
608 1.20538 10.0052 -0.0014586 -0.000651505 10.0052 0.682552 26 1 
612 1.2054 10.0094 -0.00150358 -0.000696003 10.0094 0.731039 26 1 
616 1.20536 10.0052 -0.00147092 -0.000653085 10.0052 0.658401 26 1 
620 1.20535 10.0082 -0.00150273 -0.00064161 10.0082 0.637435 26 1 
624 1.20538 10.0089 -0.00148932 -0.00059884 10.0089 0.677952 26 1 
628 1.20536 10.0058 -0.00147162 -0.000565187 10.0058 0.656728 26 1 
632 1.20536 10.012 -0.0014329 -0.000507671 10.012 0.647005 26 1 
636 1.20535 10.0081 -0.0014422 -0.000519721 10.0081 0.632819 26 1 
640 1.20535 10.0078 -0.00148582 -0.000550679 10.0078 0.638936 26 1 
644 1.20533 10.0122 -0.0015245 -0.000576661 10.0122 0.602489 26 1 
648 1.20534 10.0065 -0.00150513 -0.00055179 10.0065 0.620973 26 1 
652 1.20539 10.012 -0.00146798 -0.000493893 10.012 0.71038 26 1 
656 1.20531 10.0104 -0.00140919 -0.000433944 10.0104 0.567437 26 1 
660 1.20528 10.0069 -0.001405 -0.000428088 10.0069 0.510306 26 1 
664 1.20533 10.012 -0.0014942 -0.000504979 10.012 0.591522 26 1 
668 1.2053 10.0064 -0.00150537 -0.000526484 10.0064 0.536954 26 1 
672 1.20535 10.0124 -0.00147931 -0.000490353 10.0124 0.633376 26 1 
672 1.20535 10.0124 -0.00147931 -0.000490353 10.0124 0.633376 27 1 
676 1.20532 10.0108 -0.00145501 -0.00043519 10.0108 0.581858 27 1 
680 1.20529 10.0071 -0.00144454 -0.000437531 10.0071 0.523209 27 1 
684 1.20533 10.0129 -0.0014501 -0.00047941 10.0129 0.59203 27 1 
688 1.20527 10.0061 -0.00149701 -0.000512311 10.0061 0.481113 27 1 
692 1.20531 10.0123 -0.00149865 -0.000504326 10.0123 0.562341 27 1 
696 1.20527 10.0095 -0.00147727 -0.000496891 10.0095 0.496271 27 1 
700 1.20524 10.0064 -0.00141854 -0.000443663 10.0064 0.424978 27 1 
704 1.20528 10.0115 -0.00138004 -0.000424437 10.0115 0.506163 27 1 
704 1.20528 10.0115 -0.00138004 -0.000424437 10.0115 0.506163 31 1 
708 1.20526 10.0062 -0.00141944 -0.000472684 10.0062 0.463411 31 1 
712 1.20534 10.0138 -0.00150509 -0.000551883 10.0138 0.622487 31 1 
716 1.2053 10.0094 -0.00156301 -0.000608303 10.0094 0.535168 31 1 
720 1.20523 10.0086 -0.00149342 -0.000574933 10.0086 0.4112 31 1 
724 1.20522 10.0103 -0.00137585 -0.000477494 10.0103 0.391293 31 1 
728 1.20516 10.0034 -0.00136226 -0.000444667 10.0034 0.286491 31 1 
732 1.20525 10.0114 -0.00137729 -0.000486035 10.0114 0.453665 31 1 
736 1.20528 10.0089 -0.00139671 -0.000551084 10.0089 0.498224 31 1 
740 1.2053 10.0113 -0.00146219 -0.00060835 10.0113 0.545224 31 1 
744 1.20528 10.0103 -0.00148021 -0.000628527 10.0103 0.510179 31 1 
748 1.20516 10.0039 -0.00147896 -0.000666605 10.0039 0.297803 31 1 
752 1.20515 10.0094 -0.00148694 -0.000681102 10.0094 0.274805 31 1 
756 1.20522 10.006 -0.00149158 -0.000696868 10.006 0.390893 31 1 
760 1.20532 10.0119 -0.00139189 -0.000617189 10.0119 0.571743 31 1 
764 1.20518 10.008 -0.00127345 -0.000505218 10.008 0.330522 31 1 
768 1.2051 10.006 -0.00125411 -0.000516865 10.006 0.182078 31 1 
772 1.20522 10.0133 -0.00140529 -0.000704463 10.0133 0.400437 31 1 
776 1.20529 10.0106 -0.00164012 -0.000946045 10.0106 0.517306 31 1 
780 1.20528 10.015 -0.00173247 -0.00103495 10.015 0.507059 31 1 
784 1.20516 10.0031 -0.00158311 -0.00092209 10.0031 0.295548 31 1 
788 1.20518 10.0044 -0.00131119 -0.000680062 10.0044 0.326685 31 1 
792 1.2051 9.9988 -0.00117205 -0.000555801 9.9988 0.173992 31 1 
796 1.20513 9.99812 -0.00116063 -0.000585358 9.99812 0.240348 31 1 
800 1.20535 10.0189 -0.00115974 -0.000607434 10.0189 0.626371 31 1 
