29.8864;r ;Density                 ;Velocity u              ;Velocity v              ;Velocity w              ;|Velocity|              ;Pressure                ;Distribution            ;Levels                  ;
0 1.20558 9.99922 0.000167038 2.06558e-05 9.99922 1.05073 1 1 
4 1.20558 10.0002 8.12006e-05 -2.78079e-05 10.0002 1.05306 1 1 
8 1.20559 9.99947 -8.54952e-05 -0.000300432 9.99947 1.06882 1 1 
12 1.20556 9.99881 -0.000254319 -0.000561017 9.99881 1.00619 1 1 
16 1.20559 9.99711 -0.000296705 -0.000724366 9.99711 1.06023 1 1 
20 1.20563 9.99588 -0.000491044 -0.000991719 9.99588 1.1442 1 1 
24 1.20562 9.99584 -0.000479551 -0.00106813 9.99584 1.11649 1 1 
28 1.20564 9.993 -0.000621033 -0.00131444 9.993 1.16236 1 1 
32 1.2056 9.99427 -0.000674984 -0.00143699 9.99427 1.07695 1 1 
36 1.20562 9.99172 -0.000691067 -0.00155687 9.99172 1.11392 1 1 
40 1.20563 9.9904 -0.000796963 -0.00169313 9.9904 1.12997 1 1 
44 1.20562 9.98944 -0.000863845 -0.00183858 9.98944 1.12142 1 1 
48 1.20562 9.98731 -0.000887605 -0.0019342 9.98731 1.12102 1 1 
52 1.20559 9.98736 -0.000875959 -0.00200729 9.98737 1.06335 1 1 
56 1.20563 9.98535 -0.00092614 -0.00210734 9.98535 1.14568 1 1 
60 1.20564 9.98533 -0.000981522 -0.00220821 9.98533 1.15119 1 1 
64 1.20567 9.98197 -0.00107294 -0.00240105 9.98197 1.21421 1 1 
64 1.20567 9.98197 -0.00107294 -0.00240105 9.98197 1.21421 2 1 
68 1.20564 9.98223 -0.00102591 -0.00236461 9.98223 1.14756 2 1 
72 1.20561 9.9817 -0.00112764 -0.00251366 9.9817 1.10391 2 1 
76 1.20561 9.98114 -0.00119296 -0.00268379 9.98114 1.09519 2 1 
80 1.20562 9.97964 -0.00109242 -0.00262062 9.97964 1.1122 2 1 
84 1.20562 9.97826 -0.00117006 -0.00277114 9.97826 1.12021 2 1 
88 1.2056 9.97932 -0.00126613 -0.00286514 9.97932 1.07668 2 1 
92 1.20561 9.97871 -0.0010782 -0.00274475 9.97871 1.10406 2 1 
96 1.20558 9.98009 -0.00123941 -0.00297788 9.98009 1.04019 2 1 
100 1.20561 9.97736 -0.00117635 -0.00300216 9.97736 1.09717 2 1 
104 1.20559 9.97604 -0.00127181 -0.00308674 9.97604 1.07026 2 1 
108 1.20557 9.97482 -0.00125718 -0.00313426 9.97482 1.03694 2 1 
112 1.20558 9.97487 -0.00127392 -0.00327395 9.97487 1.04765 2 1 
116 1.20557 9.97465 -0.00138387 -0.00335995 9.97465 1.02408 2 1 
120 1.20553 9.97569 -0.00122865 -0.00335791 9.97569 0.961858 2 1 
124 1.20554 9.97486 -0.00134117 -0.00347356 9.97486 0.979791 2 1 
128 1.20555 9.97295 -0.00132519 -0.00353085 9.97295 0.99766 2 1 
128 1.20555 9.97295 -0.00132519 -0.00353085 9.97295 0.99766 10 1 
132 1.2055 9.97511 -0.00130203 -0.00354533 9.97512 0.899283 10 1 
136 1.20554 9.97084 -0.00111776 -0.0034784 9.97084 0.967421 10 1 
140 1.20552 9.97043 -0.00128941 -0.0037003 9.97043 0.942364 10 1 
144 1.20549 9.97041 -0.00133016 -0.00373876 9.97041 0.880421 10 1 
148 1.20553 9.96771 -0.0011689 -0.00372607 9.96771 0.961589 10 1 
152 1.20549 9.97064 -0.00124875 -0.00374547 9.97065 0.889434 10 1 
156 1.20546 9.97052 -0.00131226 -0.00397362 9.97053 0.826582 10 1 
160 1.2055 9.96724 -0.00157405 -0.00426628 9.96724 0.900586 10 1 
160 1.2055 9.96724 -0.00157405 -0.00426628 9.96724 0.900586 10 1 
164 1.20541 9.97001 -0.00128168 -0.00409537 9.97001 0.744154 10 1 
168 1.20544 9.96724 -0.00126347 -0.00405869 9.96724 0.789446 10 1 
172 1.20543 9.96616 -0.00149304 -0.00429492 9.96617 0.775362 10 1 
176 1.20537 9.96943 -0.00141219 -0.00438397 9.96943 0.661816 10 1 
180 1.20544 9.96318 -0.000902843 -0.00374871 9.96318 0.794555 10 1 
184 1.20539 9.96317 -0.00040525 -0.00331834 9.96317 0.700467 10 1 
188 1.20537 9.96169 -0.000267062 -0.00322191 9.96169 0.670982 10 1 
192 1.20536 9.95651 -0.000607625 -0.0036795 9.95651 0.654775 10 1 
196 1.20534 9.95731 -0.00135646 -0.00447018 9.95731 0.610514 10 1 
200 1.20533 9.95681 -0.00110778 -0.00435999 9.95681 0.601259 10 1 
204 1.20535 9.95555 -0.000944157 -0.00423257 9.95556 0.633792 10 1 
208 1.20536 9.95446 -0.000679665 -0.00392513 9.95447 0.651726 10 1 
212 1.20532 9.95276 -0.000300886 -0.0036148 9.95277 0.575233 10 1 
216 1.20541 9.94578 -0.000618461 -0.00391202 9.94579 0.739975 10 1 
220 1.20543 9.93491 -0.000522687 -0.00401126 9.93491 0.772075 10 1 
224 1.20535 9.92902 -0.000401541 -0.00392276 9.92903 0.629697 10 1 
224 1.20535 9.92902 -0.000401541 -0.00392276 9.92903 0.629697 10 1 
228 1.20545 9.9221 -0.000784614 -0.00440237 9.92211 0.817352 10 1 
232 1.20547 9.91751 -0.00075789 -0.00440801 9.91752 0.846933 10 1 
236 1.20551 9.90846 -0.000725707 -0.0043308 9.90847 0.929091 10 1 
240 1.20557 9.89898 -0.00096581 -0.00469653 9.89898 1.03532 10 1 
244 1.20571 9.87827 -0.000822414 -0.0044285 9.87828 1.28888 10 1 
248 1.20581 9.85224 -0.00123616 -0.00478399 9.85225 1.46552 10 1 
252 1.20579 9.84057 -0.00139962 -0.0050919 9.84058 1.42938 10 1 
256 1.20622 9.80236 -0.00128157 -0.00487048 9.80237 2.20969 10 1 
256 1.20622 9.80236 -0.00128157 -0.00487048 9.80237 2.20969 11 1 
260 1.20629 9.76639 -0.00149799 -0.00508259 9.76641 2.32479 11 1 
264 1.20641 9.72992 -0.00152028 -0.00524369 9.72995 2.55543 11 1 
268 1.20713 9.66159 -0.00173413 -0.00532276 9.66163 3.85208 11 1 
272 1.2076 9.58402 -0.00200714 -0.00556406 9.58409 4.69347 11 1 
276 1.20779 9.49371 -0.00213086 -0.00567302 9.49385 5.03132 11 1 
280 1.2088 9.34044 -0.00233168 -0.00576086 9.34057 6.8569 11 1 
284 1.20996 9.1922 -0.00243829 -0.00580322 9.1923 8.96387 11 1 
288 1.21082 9.03074 -0.00256796 -0.0058112 9.03087 10.5116 11 1 
292 1.21117 8.8994 -0.00285004 -0.00601132 8.89966 11.1427 11 1 
296 1.20762 9.14961 -0.00296859 -0.00605852 9.15083 4.7395 11 1 
300 1.2022 9.54568 -0.00326695 -0.00635098 9.54671 -5.06368 11 1 
304 1.19962 9.58562 -0.00342894 -0.00647936 9.58632 -9.72169 11 1 
308 1.19962 9.34914 -0.00351431 -0.00638856 9.35017 -9.71298 11 1 
312 1.20051 9.05529 -0.00366956 -0.00634924 9.05604 -8.11883 11 1 
316 1.20135 8.79128 -0.00372779 -0.00627442 8.79186 -6.59259 11 1 
320 1.20198 8.5793 -0.00384644 -0.0062631 8.57969 -5.4494 11 1 
320 1.20198 8.5793 -0.00384644 -0.0062631 8.57969 -5.4494 15 1 
324 1.20249 8.40047 -0.00394461 -0.00619642 8.40077 -4.53375 15 1 
328 1.20289 8.24933 -0.00410562 -0.00623221 8.24954 -3.80572 15 1 
332 1.20327 8.11941 -0.00418686 -0.00622402 8.11957 -3.12419 15 1 
336 1.20348 8.00067 -0.0041955 -0.00608751 8.00077 -2.7427 15 1 
340 1.20358 7.89684 -0.00426724 -0.00603721 7.89693 -2.5672 15 1 
344 1.20381 7.81292 -0.00434648 -0.00602971 7.81299 -2.14375 15 1 
348 1.20399 7.73814 -0.00447769 -0.00604724 7.73821 -1.83273 15 1 
352 1.20405 7.66689 -0.00454715 -0.0060165 7.66694 -1.71967 15 1 
356 1.20411 7.60049 -0.00453056 -0.00591167 7.60054 -1.59918 15 1 
360 1.20418 7.54187 -0.00455203 -0.00581298 7.5419 -1.48279 15 1 
364 1.20427 7.49516 -0.00459335 -0.00577575 7.49519 -1.30978 15 1 
368 1.20433 7.45142 -0.00458796 -0.00570498 7.45145 -1.2179 15 1 
372 1.20432 7.40582 -0.00453252 -0.0055306 7.40584 -1.23619 15 1 
376 1.20434 7.36628 -0.00447482 -0.0053554 7.3663 -1.18916 15 1 
380 1.20436 7.33092 -0.00448832 -0.00529506 7.33093 -1.15953 15 1 
384 1.20436 7.29845 -0.00452863 -0.00524319 7.29847 -1.16128 15 1 
384 1.20436 7.29845 -0.00452863 -0.00524319 7.29847 -1.16128 16 1 
388 1.20437 7.2704 -0.00453153 -0.00506964 7.27042 -1.14482 16 1 
392 1.20438 7.24284 -0.00451129 -0.00489505 7.24286 -1.12438 16 1 
396 1.20438 7.21736 -0.00452986 -0.00480815 7.21738 -1.12357 16 1 
400 1.20434 7.1958 -0.0045706 -0.00468783 7.19582 -1.18354 16 1 
404 1.20432 7.17619 -0.00453197 -0.00444261 7.17621 -1.23013 16 1 
408 1.20432 7.15888 -0.00438769 -0.00415504 7.1589 -1.22591 16 1 
412 1.20432 7.14254 -0.00425301 -0.0039342 7.14256 -1.22254 16 1 
416 1.20431 7.12574 -0.00422277 -0.0037825 7.12576 -1.24771 16 1 
420 1.20427 7.11011 -0.00423999 -0.00362678 7.11012 -1.3193 16 1 
424 1.20424 7.0965 -0.00417521 -0.00340925 7.09651 -1.37448 16 1 
428 1.20422 7.0845 -0.00390744 -0.00306069 7.08451 -1.40978 16 1 
432 1.2042 7.07357 -0.00358764 -0.00262882 7.07358 -1.44547 16 1 
436 1.2042 7.06389 -0.00339398 -0.00228576 7.0639 -1.43847 16 1 
440 1.2042 7.05557 -0.00327105 -0.00207753 7.05558 -1.43636 16 1 
444 1.20419 7.04719 -0.00316174 -0.0018391 7.0472 -1.46566 16 1 
448 1.20415 7.03967 -0.00301701 -0.00154353 7.03968 -1.53301 16 1 
448 1.20415 7.03967 -0.00301701 -0.00154353 7.03968 -1.53301 17 1 
452 1.2041 7.03427 -0.00280044 -0.00128476 7.03427 -1.63327 17 1 
456 1.20408 7.03117 -0.00263773 -0.00105681 7.03117 -1.66081 17 1 
460 1.20409 7.03077 -0.0025366 -0.00082592 7.03078 -1.63991 17 1 
464 1.20411 7.03042 -0.00237774 -0.000615014 7.03042 -1.61617 17 1 
468 1.20411 7.02882 -0.00219474 -0.000427786 7.02882 -1.61157 17 1 
472 1.20407 7.02894 -0.002008 -0.0002144 7.02895 -1.68792 17 1 
476 1.20404 7.03318 -0.00182632 4.55925e-05 7.03319 -1.74229 17 1 
480 1.20403 7.04499 -0.00173337 0.000246252 7.04499 -1.74426 17 1 
484 1.20404 7.06755 -0.00174493 0.000320551 7.06756 -1.72805 17 1 
488 1.20407 7.09667 -0.00178871 0.000385364 7.09668 -1.67799 17 1 
492 1.20407 7.12367 -0.00172569 0.000580839 7.12367 -1.68604 17 1 
496 1.20405 7.14063 -0.00147359 0.000975226 7.14063 -1.71889 17 1 
500 1.20404 7.14402 -0.00112456 0.00151027 7.14402 -1.74103 17 1 
504 1.20401 7.13819 -0.000842809 0.00199359 7.1382 -1.78162 17 1 
508 1.20404 7.13292 -0.000816454 0.00223731 7.13292 -1.72987 17 1 
512 1.2041 7.13705 -0.000973842 0.00228911 7.13705 -1.63038 17 1 
512 1.2041 7.13705 -0.000973842 0.00228911 7.13705 -1.63038 25 1 
516 1.2041 7.15652 -0.00110853 0.00239399 7.15653 -1.61802 25 1 
520 1.20407 7.19555 -0.00111427 0.00264755 7.19558 -1.67642 25 1 
524 1.20405 7.25672 -0.000986697 0.00300336 7.25677 -1.71569 25 1 
528 1.20409 7.34115 -0.000839394 0.00338975 7.34124 -1.65213 25 1 
532 1.20417 7.44751 -0.000744822 0.00370447 7.44763 -1.49957 25 1 
536 1.20427 7.57061 -0.000739424 0.00389127 7.57075 -1.31957 25 1 
540 1.20433 7.7067 -0.000875437 0.00384208 7.70687 -1.2018 25 1 
544 1.20434 7.85397 -0.00108757 0.00370136 7.85417 -1.1888 25 1 
548 1.20433 8.01093 -0.00120076 0.00374369 8.01115 -1.2099 25 1 
552 1.20434 8.17538 -0.00118454 0.00396224 8.17559 -1.19055 25 1 
556 1.2044 8.34266 -0.00111495 0.00420003 8.34287 -1.08077 25 1 
560 1.20447 8.51036 -0.00107016 0.00434426 8.51057 -0.948898 25 1 
564 1.20452 8.67568 -0.0012044 0.00431522 8.67587 -0.858799 25 1 
568 1.20456 8.83448 -0.00144451 0.00422472 8.83465 -0.802977 25 1 
572 1.20455 8.98431 -0.00163266 0.00421439 8.98446 -0.821339 25 1 
576 1.2045 9.12354 -0.00169376 0.00430759 9.12366 -0.89925 25 1 
576 1.2045 9.12354 -0.00169376 0.00430759 9.12366 -0.89925 26 1 
580 1.20446 9.25098 -0.00160432 0.00447908 9.25108 -0.967274 26 1 
584 1.20447 9.36665 -0.00150972 0.00463826 9.36673 -0.965582 26 1 
588 1.2045 9.46999 -0.00154264 0.00472441 9.47005 -0.899246 26 1 
592 1.20453 9.55909 -0.00168012 0.00473022 9.55913 -0.854307 26 1 
596 1.20452 9.63416 -0.00181262 0.00469621 9.63419 -0.871541 26 1 
600 1.2045 9.69559 -0.00189382 0.00468166 9.69562 -0.904023 26 1 
604 1.20448 9.74637 -0.00194753 0.00470094 9.74638 -0.941508 26 1 
608 1.20446 9.78883 -0.00203956 0.00464578 9.78884 -0.969382 26 1 
608 1.20446 9.78883 -0.00203956 0.00464578 9.78884 -0.969382 26 1 
612 1.20447 9.82366 -0.00213049 0.00454008 9.82367 -0.95471 26 1 
616 1.20448 9.85246 -0.00218825 0.00447136 9.85246 -0.933914 26 1 
620 1.20448 9.87554 -0.00228239 0.00437684 9.87555 -0.939483 26 1 
624 1.20446 9.8953 -0.00237773 0.00428542 9.8953 -0.982863 26 1 
628 1.20444 9.91198 -0.00245993 0.00424593 9.91198 -1.00273 26 1 
632 1.20447 9.92619 -0.00254027 0.00423223 9.9262 -0.96345 26 1 
636 1.20447 9.93849 -0.00263792 0.00417554 9.93849 -0.952813 26 1 
640 1.20446 9.9468 -0.00271575 0.00409203 9.9468 -0.983552 26 1 
644 1.20445 9.9531 -0.00273819 0.00404453 9.9531 -0.993755 26 1 
648 1.20446 9.95895 -0.0027606 0.00401276 9.95895 -0.975445 26 1 
652 1.20449 9.96502 -0.00278946 0.00394216 9.96502 -0.923376 26 1 
656 1.20452 9.97027 -0.00280408 0.00385815 9.97027 -0.868459 26 1 
660 1.20452 9.97269 -0.0028456 0.00372261 9.97269 -0.869589 26 1 
664 1.2045 9.97345 -0.0028965 0.00355938 9.97345 -0.894597 26 1 
668 1.20452 9.97441 -0.00286732 0.00345322 9.97441 -0.870125 26 1 
672 1.20455 9.9761 -0.00280849 0.00338073 9.9761 -0.811201 26 1 
672 1.20455 9.9761 -0.00280849 0.00338073 9.9761 -0.811201 27 1 
676 1.20456 9.97938 -0.00283826 0.00322661 9.97939 -0.786082 27 1 
680 1.20457 9.98156 -0.00285342 0.00306097 9.98156 -0.769225 27 1 
684 1.20461 9.98171 -0.00283962 0.00292568 9.98171 -0.713178 27 1 
688 1.20464 9.98261 -0.00286707 0.0027283 9.98261 -0.648725 27 1 
692 1.20463 9.98162 -0.00289757 0.00252314 9.98162 -0.669433 27 1 
696 1.20459 9.97982 -0.00283113 0.0024308 9.97982 -0.738971 27 1 
700 1.2046 9.97908 -0.00276316 0.00234106 9.97908 -0.720751 27 1 
704 1.20465 9.97805 -0.00274056 0.00219133 9.97805 -0.640733 27 1 
704 1.20465 9.97805 -0.00274056 0.00219133 9.97805 -0.640733 31 1 
708 1.20469 9.97988 -0.00280018 0.00196807 9.97988 -0.555196 31 1 
712 1.20469 9.98158 -0.00286674 0.0017456 9.98158 -0.56287 31 1 
716 1.20464 9.97977 -0.00288162 0.00158949 9.97977 -0.643636 31 1 
720 1.20464 9.9777 -0.0028051 0.0015312 9.9777 -0.654522 31 1 
724 1.20467 9.97658 -0.00268797 0.00150466 9.97658 -0.589212 31 1 
728 1.2047 9.97632 -0.00274547 0.00131727 9.97632 -0.53502 31 1 
732 1.20472 9.9792 -0.00284991 0.00107223 9.9792 -0.514386 31 1 
736 1.2047 9.97989 -0.00289929 0.000890012 9.97989 -0.534311 31 1 
740 1.20468 9.97734 -0.00283242 0.000827072 9.97735 -0.586362 31 1 
744 1.20468 9.97876 -0.00272499 0.000796382 9.97876 -0.572239 31 1 
748 1.20471 9.97784 -0.00265978 0.000742799 9.97784 -0.523567 31 1 
752 1.20476 9.97808 -0.00272873 0.000574692 9.97808 -0.434819 31 1 
756 1.20475 9.97962 -0.00285287 0.000339473 9.97962 -0.449771 31 1 
760 1.20468 9.97921 -0.00291456 0.000149929 9.97921 -0.569939 31 1 
764 1.20471 9.98302 -0.00285131 0.000101847 9.98302 -0.530846 31 1 
768 1.20475 9.98137 -0.00274923 8.93832e-05 9.98137 -0.444646 31 1 
772 1.20477 9.97931 -0.00266649 7.34641e-05 9.97931 -0.423839 31 1 
776 1.20475 9.98208 -0.00271501 -6.62197e-05 9.98208 -0.455191 31 1 
780 1.20476 9.98225 -0.00283959 -0.000279922 9.98225 -0.439485 31 1 
784 1.2048 9.98526 -0.00295398 -0.000505565 9.98527 -0.363079 31 1 
788 1.20479 9.98777 -0.00290455 -0.000577945 9.98777 -0.375922 31 1 
792 1.20474 9.9823 -0.00277357 -0.000558602 9.9823 -0.463971 31 1 
796 1.20474 9.98109 -0.00269799 -0.000565658 9.98109 -0.467198 31 1 
800 1.20477 9.98497 -0.00260486 -0.000493589 9.98497 -0.415005 31 1 
