10.8678;r ;Density                 ;Velocity u              ;Velocity v              ;Velocity w              ;|Velocity|              ;Pressure                ;Distribution            ;Levels                  ;
0 1.20498 9.98136 -3.31267e-05 -0.000107341 9.98136 -0.0408823 1 1 
4 1.20476 9.98495 -7.75646e-05 -0.000158992 9.98495 -0.441749 1 1 
8 1.2044 9.99992 -0.000542721 -0.000632177 9.99992 -1.07706 1 1 
12 1.20489 10.0123 -0.000731611 -0.000841877 10.0123 -0.195698 1 1 
16 1.20578 10.0142 -0.000111675 -0.000249352 10.0142 1.40363 1 1 
20 1.20544 10.0277 -3.22551e-05 -0.000156098 10.0277 0.795828 1 1 
24 1.20478 10.0343 -0.000338011 -0.000428907 10.0343 -0.395265 1 1 
28 1.20498 10.0159 -0.000374165 -0.000474834 10.0159 -0.0340083 1 1 
32 1.20514 10.0103 -8.90839e-05 -0.000208208 10.0103 0.249709 1 1 
36 1.20506 10.0222 0.000415266 0.000314712 10.0222 0.116528 1 1 
40 1.20519 10.0321 0.00081272 0.000706996 10.0321 0.35042 1 1 
44 1.2055 10.0298 0.00132255 0.00120161 10.0298 0.902798 1 1 
48 1.20538 10.0277 0.001786 0.00168304 10.0277 0.679659 1 1 
52 1.20492 10.0313 0.00203792 0.00189759 10.0313 -0.14212 1 1 
56 1.205 10.0246 0.00209663 0.00193552 10.0246 -0.00324792 1 1 
60 1.2052 10.0226 0.00189381 0.00177695 10.0226 0.357218 1 1 
64 1.20523 10.0303 0.00150264 0.00137516 10.0303 0.421044 1 1 
64 1.20523 10.0303 0.00150264 0.00137516 10.0303 0.421044 2 1 
68 1.20533 10.0395 0.00120331 0.00110686 10.0395 0.597 2 1 
72 1.20547 10.0423 0.000975704 0.000880046 10.0423 0.849065 2 1 
76 1.20551 10.043 0.000702305 0.000619673 10.043 0.924427 2 1 
80 1.20545 10.0397 0.000703272 0.000623313 10.0397 0.811821 2 1 
84 1.20526 10.0339 0.000563127 0.000474001 10.0339 0.462442 2 1 
88 1.20505 10.0294 0.000560308 0.000517184 10.0294 0.0968085 2 1 
92 1.205 10.0221 0.00070965 0.000601501 10.0221 0.00211983 2 1 
96 1.20483 10.0196 0.00065404 0.000550444 10.0196 -0.3015 2 1 
100 1.2047 10.0168 0.000828273 0.000721009 10.0168 -0.550001 2 1 
104 1.20468 10.0143 0.000767727 0.000687559 10.0143 -0.57685 2 1 
108 1.20466 10.0121 0.000820511 0.000692347 10.0121 -0.616906 2 1 
112 1.20466 10.0114 0.000853151 0.000711917 10.0114 -0.61491 2 1 
116 1.20466 10.0102 0.000847987 0.000783791 10.0102 -0.610377 2 1 
120 1.20462 10.0114 0.000915291 0.000756136 10.0114 -0.680598 2 1 
124 1.20463 10.0114 0.000920688 0.000776904 10.0114 -0.671061 2 1 
128 1.20462 10.0104 0.00103652 0.000858073 10.0104 -0.682101 2 1 
128 1.20462 10.0104 0.00103652 0.000858073 10.0104 -0.682101 10 1 
132 1.20467 10.0111 0.000902605 0.000742059 10.0111 -0.597831 10 1 
136 1.20473 10.0074 0.00102074 0.000815228 10.0074 -0.494956 10 1 
140 1.20463 10.0095 0.000962992 0.000780449 10.0095 -0.67215 10 1 
144 1.20462 10.0099 0.0010209 0.000862584 10.0099 -0.680471 10 1 
148 1.20469 10.0065 0.00112307 0.000829737 10.0065 -0.560884 10 1 
152 1.20471 10.0076 0.00107024 0.000839161 10.0076 -0.532551 10 1 
156 1.20473 10.0078 0.00119821 0.000955837 10.0078 -0.483868 10 1 
160 1.20469 10.0058 0.00101452 0.000813853 10.0058 -0.55315 10 1 
160 1.20469 10.0058 0.00101452 0.000813853 10.0058 -0.55315 10 1 
164 1.20463 10.0065 0.00113469 0.000816503 10.0065 -0.659646 10 1 
168 1.20476 10.0028 0.00111887 0.000832147 10.0028 -0.436424 10 1 
172 1.20476 10.0022 0.00117704 0.000906974 10.0022 -0.439676 10 1 
176 1.20473 10.0056 0.00131698 0.00091902 10.0056 -0.495122 10 1 
180 1.20478 10.0008 0.00131862 0.00101181 10.0008 -0.393075 10 1 
184 1.20474 9.99993 0.00120252 0.000902723 9.99993 -0.464477 10 1 
188 1.2048 9.99621 0.00123981 0.000922267 9.99621 -0.356529 10 1 
192 1.20479 9.99151 0.00140611 0.000978397 9.99151 -0.38083 10 1 
196 1.20479 9.99247 0.00115585 0.000713023 9.99247 -0.380134 10 1 
200 1.20483 9.99151 0.00146928 0.000958296 9.99151 -0.302944 10 1 
204 1.20488 9.9888 0.00135705 0.000912226 9.98881 -0.214002 10 1 
208 1.20494 9.98601 0.00128959 0.000852019 9.98602 -0.109208 10 1 
212 1.2049 9.98459 0.00154242 0.00107019 9.9846 -0.1883 10 1 
216 1.20497 9.97739 0.00114893 0.000714393 9.9774 -0.0483945 10 1 
220 1.20501 9.96609 0.00131116 0.000674666 9.96609 0.0265703 10 1 
224 1.205 9.95968 0.00152749 0.000924795 9.95968 -0.00264218 10 1 
224 1.205 9.95968 0.00152749 0.000924795 9.95968 -0.00264218 10 1 
228 1.20513 9.95265 0.00124005 0.000614866 9.95265 0.238067 10 1 
232 1.20513 9.94877 0.00136296 0.000707286 9.94877 0.232418 10 1 
236 1.20521 9.94021 0.00141454 0.000779816 9.94022 0.381315 10 1 
240 1.20531 9.93134 0.00125149 0.000472495 9.93134 0.565432 10 1 
244 1.20549 9.911 0.00141744 0.00074679 9.91101 0.87891 10 1 
248 1.20559 9.88746 0.0010564 0.000414701 9.88747 1.06537 10 1 
252 1.20555 9.87784 0.000881353 5.83855e-05 9.87785 0.997573 10 1 
256 1.20604 9.83966 0.00107589 0.000383377 9.83967 1.87114 10 1 
256 1.20604 9.83966 0.00107589 0.000383377 9.83967 1.87114 11 1 
260 1.20613 9.80637 0.000922399 0.000266036 9.8064 2.038 11 1 
264 1.20626 9.77277 0.000960845 0.000122418 9.77279 2.27 11 1 
268 1.20699 9.70639 0.000777239 1.15368e-05 9.70643 3.58841 11 1 
272 1.20748 9.63139 0.000490111 -0.000207979 9.63145 4.47467 11 1 
276 1.2077 9.54475 0.000455555 -0.000273034 9.54489 4.883 11 1 
280 1.20871 9.39633 0.000300642 -0.000407867 9.39646 6.69522 11 1 
284 1.20988 9.25261 0.000267579 -0.000419356 9.25269 8.80674 11 1 
288 1.21076 9.09725 0.000129716 -0.000494665 9.09736 10.4107 11 1 
292 1.21112 8.97258 -0.000105047 -0.000713586 8.97284 11.0613 11 1 
296 1.20758 9.22542 -0.000131877 -0.000714086 9.22663 4.65179 11 1 
300 1.20216 9.6237 -0.000295061 -0.000871872 9.62472 -5.13824 11 1 
304 1.19962 9.67057 -0.000357449 -0.000963586 9.67123 -9.72431 11 1 
308 1.19967 9.4452 -0.000429346 -0.00097023 9.44616 -9.62275 11 1 
312 1.20059 9.16349 -0.000585371 -0.00105893 9.16417 -7.97357 11 1 
316 1.20143 8.91142 -0.000618946 -0.00108399 8.91192 -6.44878 11 1 
320 1.20208 8.71274 -0.000684043 -0.00114916 8.71307 -5.27393 11 1 
320 1.20208 8.71274 -0.000684043 -0.00114916 8.71307 -5.27393 15 1 
324 1.20263 8.54803 -0.000717367 -0.00110576 8.54828 -4.28188 15 1 
328 1.20306 8.41216 -0.000837475 -0.00119273 8.41233 -3.50951 15 1 
332 1.20345 8.29994 -0.00086034 -0.0012502 8.30006 -2.7927 15 1 
336 1.2037 8.20274 -0.000798538 -0.00113302 8.20279 -2.35286 15 1 
340 1.20383 8.12518 -0.000781755 -0.00106811 8.12523 -2.11739 15 1 
344 1.2041 8.06569 -0.000777388 -0.00106444 8.06573 -1.63059 15 1 
348 1.20432 8.00644 -0.000819015 -0.00109051 8.00649 -1.22695 15 1 
352 1.20442 7.94638 -0.000778888 -0.00103105 7.94641 -1.04846 15 1 
356 1.20451 7.89878 -0.000678429 -0.00088067 7.8988 -0.890845 15 1 
360 1.20462 7.8736 -0.000618555 -0.000780557 7.8736 -0.693222 15 1 
364 1.20478 7.86495 -0.000622366 -0.000812899 7.86495 -0.399551 15 1 
368 1.20488 7.84375 -0.000584093 -0.000799354 7.84378 -0.208135 15 1 
372 1.20492 7.80197 -0.000460383 -0.000633502 7.80201 -0.140889 15 1 
376 1.20503 7.77458 -0.000336182 -0.000497154 7.77459 0.0592809 15 1 
380 1.20516 7.80489 -0.000370658 -0.000569031 7.80493 0.290096 15 1 
384 1.2053 7.92177 -0.000438079 -0.000629494 7.92191 0.545504 15 1 
384 1.2053 7.92177 -0.000438079 -0.000629494 7.92191 0.545504 16 1 
388 1.20547 8.12297 -0.000487813 -0.000622507 8.12328 0.847017 16 1 
392 1.20557 8.37802 -0.00043035 -0.000593402 8.37846 1.02509 16 1 
396 1.2056 8.65701 -0.000380077 -0.000635567 8.6575 1.08606 16 1 
400 1.20559 8.93121 -0.000419357 -0.000647394 8.93164 1.06562 16 1 
404 1.20557 9.17303 -0.000489324 -0.000616493 9.17332 1.02395 16 1 
408 1.20555 9.36969 -0.000481301 -0.000545762 9.36985 0.995429 16 1 
412 1.2055 9.51647 -0.000437474 -0.000523622 9.51656 0.895454 16 1 
416 1.20542 9.62005 -0.000496234 -0.000561983 9.6201 0.766352 16 1 
420 1.20539 9.69636 -0.000564675 -0.00046906 9.69639 0.712415 16 1 
424 1.2054 9.75523 -0.0006002 -0.000384447 9.75525 0.72072 16 1 
428 1.20536 9.79949 -0.0004978 -0.000360504 9.7995 0.6523 16 1 
432 1.2053 9.83182 -0.000375955 -0.00032167 9.83183 0.540549 16 1 
436 1.20526 9.85611 -0.000327217 -0.000253974 9.85611 0.46185 16 1 
440 1.20523 9.87539 -0.000322869 -0.000269698 9.87539 0.408139 16 1 
444 1.20526 9.89489 -0.000248819 -0.000190936 9.8949 0.469572 16 1 
448 1.2053 9.91005 -0.000279476 -0.000210139 9.91005 0.53625 16 1 
448 1.2053 9.91005 -0.000279476 -0.000210139 9.91005 0.53625 17 1 
452 1.20526 9.92191 -0.000275906 -0.000248789 9.92191 0.467616 17 1 
456 1.20524 9.93519 -0.0003454 -0.000309466 9.93519 0.43538 17 1 
460 1.20519 9.93919 -0.000407528 -0.000345593 9.9392 0.345524 17 1 
464 1.20516 9.94751 -0.000300128 -0.000265294 9.94751 0.284866 17 1 
468 1.20522 9.95913 -0.000279754 -0.000233069 9.95913 0.401101 17 1 
472 1.20522 9.96036 -0.000382121 -0.000322829 9.96036 0.388791 17 1 
476 1.20522 9.97037 -0.000506547 -0.000459233 9.97037 0.401094 17 1 
480 1.20519 9.97142 -0.000507845 -0.000439095 9.97142 0.337235 17 1 
484 1.20515 9.97264 -0.000514195 -0.000463724 9.97264 0.275105 17 1 
488 1.20523 9.98571 -0.000512251 -0.000462395 9.98571 0.420427 17 1 
492 1.20519 9.98026 -0.000532961 -0.000461449 9.98026 0.348981 17 1 
496 1.20519 9.98764 -0.000555773 -0.000506157 9.98764 0.334359 17 1 
500 1.20517 9.98822 -0.000558085 -0.000499942 9.98823 0.299453 17 1 
504 1.20513 9.98352 -0.000561526 -0.00049782 9.98352 0.243225 17 1 
508 1.20525 9.99903 -0.000594085 -0.000560944 9.99903 0.450985 17 1 
512 1.20516 9.99098 -0.000623483 -0.000592571 9.99098 0.297754 17 1 
512 1.20516 9.99098 -0.000623483 -0.000592571 9.99098 0.297754 25 1 
516 1.20513 9.995 -0.000621381 -0.000565213 9.995 0.234136 25 1 
520 1.20519 9.99735 -0.000599686 -0.000543459 9.99735 0.342984 25 1 
524 1.20518 9.99148 -0.000582056 -0.000533011 9.99148 0.326605 25 1 
528 1.20521 10.0035 -0.000607643 -0.000554051 10.0035 0.371983 25 1 
532 1.20514 9.99488 -0.000619871 -0.000575499 9.99489 0.249966 25 1 
536 1.20519 10.0023 -0.000630089 -0.000582199 10.0023 0.347995 25 1 
540 1.20512 9.99982 -0.00061902 -0.000558991 9.99982 0.220807 25 1 
544 1.20509 9.99553 -0.000589157 -0.000548971 9.99553 0.156581 25 1 
548 1.20526 10.0066 -0.000576648 -0.000533489 10.0066 0.464041 25 1 
552 1.20521 9.99663 -0.000580757 -0.000524014 9.99663 0.379299 25 1 
556 1.20517 10.0075 -0.000630755 -0.000595297 10.0075 0.311216 25 1 
560 1.20506 9.9972 -0.000611352 -0.000578853 9.9972 0.109833 25 1 
564 1.20515 10.0028 -0.000549011 -0.000502041 10.0028 0.271842 25 1 
568 1.2052 10.0047 -0.000545603 -0.000502357 10.0047 0.363219 25 1 
572 1.20516 10.0001 -0.00056306 -0.000525148 10.0001 0.284133 25 1 
576 1.20519 10.0085 -0.000597758 -0.000560733 10.0085 0.336367 25 1 
576 1.20519 10.0085 -0.000597758 -0.000560733 10.0085 0.336367 26 1 
580 1.20512 9.9977 -0.000568558 -0.000537276 9.99771 0.222536 26 1 
584 1.2052 10.0079 -0.000526257 -0.000500411 10.0079 0.361935 26 1 
588 1.20512 9.99947 -0.000540421 -0.000510192 9.99947 0.220726 26 1 
592 1.20514 10.0057 -0.000535837 -0.000487921 10.0057 0.244393 26 1 
596 1.20516 10.0036 -0.000533589 -0.000492886 10.0036 0.286142 26 1 
600 1.20524 10.0071 -0.000498185 -0.000478767 10.0071 0.442287 26 1 
604 1.20517 10.0042 -0.000510061 -0.000486592 10.0042 0.31286 26 1 
608 1.20503 10.0001 -0.000538927 -0.000514111 10.0001 0.0609569 26 1 
608 1.20503 10.0001 -0.000538927 -0.000514111 10.0001 0.0609569 26 1 
612 1.20512 10.0057 -0.000495714 -0.000474221 10.0057 0.222433 26 1 
616 1.20534 10.0076 -0.00051738 -0.00048516 10.0076 0.612628 26 1 
620 1.20529 10.0087 -0.000512301 -0.000482524 10.0087 0.524111 26 1 
624 1.20499 9.99919 -0.000475648 -0.00045043 9.99919 -0.0264566 26 1 
628 1.20504 10.0033 -0.000477715 -0.000447379 10.0033 0.0720019 26 1 
632 1.2053 10.0085 -0.000457971 -0.000431987 10.0085 0.535836 26 1 
636 1.20534 10.0105 -0.000480878 -0.000473348 10.0105 0.621166 26 1 
640 1.20506 10.0016 -0.000491205 -0.000486629 10.0016 0.115946 26 1 
644 1.20502 10.0017 -0.000461699 -0.00043911 10.0017 0.0366216 26 1 
648 1.2053 10.0083 -0.000473478 -0.000450383 10.0083 0.54903 26 1 
652 1.20537 10.0113 -0.000474445 -0.000451956 10.0113 0.668869 26 1 
656 1.20511 10.0048 -0.00047337 -0.000449451 10.0048 0.193748 26 1 
660 1.20504 10.0024 -0.000482265 -0.000472411 10.0024 0.065888 26 1 
664 1.20525 10.0073 -0.000444404 -0.000441633 10.0073 0.448406 26 1 
668 1.20535 10.0104 -0.000413074 -0.000402009 10.0104 0.632955 26 1 
672 1.20519 10.0064 -0.00044477 -0.000428957 10.0064 0.341693 26 1 
672 1.20519 10.0064 -0.00044477 -0.000428957 10.0064 0.341693 27 1 
676 1.20508 10.0037 -0.000481283 -0.000466824 10.0037 0.139003 27 1 
680 1.20521 10.0074 -0.000485155 -0.000472375 10.0074 0.373097 27 1 
684 1.20533 10.0102 -0.000473751 -0.000469273 10.0102 0.599752 27 1 
688 1.20522 10.0071 -0.000396083 -0.000393456 10.0071 0.406191 27 1 
692 1.20509 10.0043 -0.000347796 -0.000341561 10.0043 0.169352 27 1 
696 1.20521 10.0075 -0.000431817 -0.000419916 10.0075 0.370776 27 1 
700 1.20535 10.0113 -0.000481522 -0.000469742 10.0113 0.636006 27 1 
704 1.20527 10.0089 -0.000477934 -0.000478022 10.0089 0.48249 27 1 
704 1.20527 10.0089 -0.000477934 -0.000478022 10.0089 0.48249 31 1 
708 1.20509 10.0039 -0.000412653 -0.000414336 10.0039 0.162792 31 1 
712 1.20511 10.0042 -0.000297149 -0.000296077 10.0042 0.19896 31 1 
716 1.20531 10.0101 -0.000295128 -0.000286219 10.0101 0.558724 31 1 
720 1.20538 10.0127 -0.000373965 -0.000356007 10.0127 0.688074 31 1 
724 1.20523 10.008 -0.000450352 -0.000437345 10.008 0.415801 31 1 
728 1.20506 10.0031 -0.000425506 -0.000426801 10.0031 0.109753 31 1 
732 1.2051 10.0045 -0.000297546 -0.000315255 10.0045 0.175092 31 1 
736 1.20528 10.0095 -0.000213094 -0.000243928 10.0095 0.508385 31 1 
740 1.20534 10.0109 -0.000238613 -0.000269806 10.0109 0.618772 31 1 
744 1.20521 10.0074 -0.000327495 -0.00035121 10.0074 0.388133 31 1 
748 1.20509 10.0037 -0.000369929 -0.000390901 10.0037 0.156654 31 1 
752 1.20512 10.0039 -0.000306939 -0.000329991 10.0039 0.209594 31 1 
756 1.20524 10.0079 -0.000195212 -0.00022747 10.0079 0.43969 31 1 
760 1.20533 10.0097 -0.000161374 -0.000204852 10.0097 0.587774 31 1 
764 1.20529 10.0075 -0.000254706 -0.000298022 10.0075 0.526017 31 1 
768 1.20518 10.0052 -0.000365334 -0.000391518 10.0052 0.332784 31 1 
772 1.20513 10.0041 -0.000380206 -0.000383729 10.0041 0.228232 31 1 
776 1.20513 10.0044 -0.000252906 -0.00023714 10.0044 0.23542 31 1 
780 1.20513 10.005 -3.62382e-05 -1.0264e-05 10.005 0.235781 31 1 
784 1.20512 10.0037 9.79838e-05 0.000116696 10.0037 0.215492 31 1 
788 1.2051 10.0025 8.1848e-05 8.10588e-05 10.0025 0.181634 31 1 
792 1.20509 10.0039 -4.33453e-05 -6.36278e-05 10.0039 0.157688 31 1 
796 1.20512 10.0059 -0.000177004 -0.000208222 10.0059 0.220895 31 1 
800 1.20516 10.0066 -0.000224992 -0.000258908 10.0066 0.285305 31 1 
