100.527;r ;Density                 ;Velocity u              ;Velocity v              ;Velocity w              ;|Velocity|              ;Pressure                ;Distribution            ;Levels                  ;
0 1.21397 10.0023 0.000133291 0.000279345 10.0023 16.1954 1 1 
4 1.21396 10.0049 0.000126809 0.000406239 10.0049 16.1909 1 1 
8 1.21396 10.0069 5.14638e-05 0.000645094 10.0069 16.1891 1 1 
12 1.21392 10.009 -2.61313e-05 0.000882919 10.009 16.1072 1 1 
16 1.21392 10.0107 1.717e-05 0.00120608 10.0107 16.1094 1 1 
20 1.21393 10.0121 -9.66401e-05 0.00138478 10.0121 16.1281 1 1 
24 1.21389 10.0149 -4.77385e-05 0.00173414 10.0149 16.0512 1 1 
28 1.2139 10.0151 -0.00013528 0.00193333 10.0151 16.0706 1 1 
32 1.21386 10.0184 -0.000155528 0.00223664 10.0184 15.9947 1 1 
36 1.21387 10.0195 -0.000123551 0.00255054 10.0195 16.0125 1 1 
40 1.21386 10.0217 -0.000242151 0.00276677 10.0217 16.0009 1 1 
44 1.21384 10.0232 -0.000265117 0.00303517 10.0232 15.9605 1 1 
48 1.21382 10.024 -0.000313961 0.00332792 10.024 15.9357 1 1 
52 1.2138 10.0261 -0.000370905 0.00356182 10.0261 15.8893 1 1 
56 1.21382 10.0262 -0.000431177 0.00382781 10.0262 15.9262 1 1 
60 1.21378 10.0294 -0.000458307 0.00414764 10.0294 15.8529 1 1 
64 1.21379 10.0291 -0.00056425 0.00433575 10.0291 15.8851 1 1 
64 1.21379 10.0291 -0.00056425 0.00433575 10.0291 15.8851 2 1 
68 1.21376 10.0321 -0.000543478 0.00472159 10.0321 15.824 2 1 
72 1.21376 10.0336 -0.000612123 0.00500927 10.0336 15.8178 2 1 
76 1.21375 10.0348 -0.000743814 0.00520638 10.0348 15.8087 2 1 
80 1.21374 10.0362 -0.000723738 0.00557213 10.0362 15.7891 2 1 
84 1.21374 10.0382 -0.000808631 0.00581889 10.0382 15.7933 2 1 
88 1.21372 10.0413 -0.000920365 0.00612537 10.0413 15.7499 2 1 
92 1.21374 10.0426 -0.000844842 0.00653578 10.0426 15.7782 2 1 
96 1.2137 10.0463 -0.00104646 0.00665053 10.0463 15.7105 2 1 
100 1.21373 10.0455 -0.000988426 0.00705542 10.0455 15.7607 2 1 
104 1.21371 10.0466 -0.00114371 0.00736625 10.0466 15.7324 2 1 
108 1.21369 10.0478 -0.00117957 0.00766383 10.0478 15.6883 2 1 
112 1.21369 10.0499 -0.00121952 0.00794261 10.0499 15.6955 2 1 
116 1.21369 10.0523 -0.00138629 0.00824758 10.0523 15.6906 2 1 
120 1.21367 10.0555 -0.00138432 0.00859457 10.0555 15.6608 2 1 
124 1.21369 10.0566 -0.00152645 0.00883966 10.0566 15.6936 2 1 
128 1.21369 10.0566 -0.00155891 0.00916327 10.0566 15.6965 2 1 
128 1.21369 10.0566 -0.00155891 0.00916327 10.0566 15.6965 10 1 
132 1.21363 10.0602 -0.00173388 0.00940605 10.0602 15.5849 10 1 
136 1.21366 10.0582 -0.00174041 0.00980865 10.0582 15.6485 10 1 
140 1.21365 10.0604 -0.00191278 0.0100592 10.0604 15.6279 10 1 
144 1.21362 10.0626 -0.00199116 0.0104138 10.0626 15.5738 10 1 
148 1.21366 10.0624 -0.0020615 0.0106255 10.0624 15.6493 10 1 
152 1.21362 10.0665 -0.00224215 0.0109936 10.0665 15.5776 10 1 
156 1.2136 10.0674 -0.00219831 0.0114429 10.0674 15.5342 10 1 
160 1.21366 10.0661 -0.00250997 0.0116427 10.0661 15.6347 10 1 
160 1.21366 10.0661 -0.00250997 0.0116427 10.0661 15.6347 10 1 
164 1.21359 10.0698 -0.00252942 0.0119667 10.0699 15.51 10 1 
168 1.21363 10.0684 -0.00271679 0.0123168 10.0684 15.5791 10 1 
172 1.21362 10.0693 -0.00287718 0.0126562 10.0693 15.5707 10 1 
176 1.21356 10.0745 -0.00290372 0.0129499 10.0745 15.4654 10 1 
180 1.21364 10.0704 -0.00303333 0.0134554 10.0704 15.6045 10 1 
184 1.21359 10.072 -0.00326818 0.0136713 10.072 15.5189 10 1 
188 1.2136 10.0724 -0.00341226 0.0140579 10.0724 15.5286 10 1 
192 1.2136 10.069 -0.00349555 0.0144264 10.0691 15.5385 10 1 
196 1.21358 10.0705 -0.00396628 0.0144722 10.0705 15.5003 10 1 
200 1.21359 10.071 -0.00381457 0.0150868 10.071 15.5198 10 1 
204 1.21363 10.0711 -0.00413752 0.0153991 10.0712 15.5962 10 1 
208 1.21367 10.0712 -0.00440064 0.0157624 10.0712 15.6542 10 1 
212 1.21362 10.0703 -0.00433967 0.0162831 10.0703 15.5702 10 1 
216 1.21368 10.0643 -0.00482017 0.0164005 10.0643 15.6842 10 1 
220 1.21371 10.0551 -0.00488172 0.0167769 10.0551 15.7266 10 1 
224 1.21365 10.0508 -0.00489505 0.0173047 10.0508 15.6331 10 1 
224 1.21365 10.0508 -0.00489505 0.0173047 10.0508 15.6331 10 1 
228 1.21378 10.0453 -0.00542566 0.0172787 10.0453 15.8594 10 1 
232 1.21381 10.0424 -0.00556704 0.0177287 10.0424 15.9061 10 1 
236 1.21385 10.0354 -0.00572929 0.0182453 10.0354 15.9799 10 1 
240 1.21392 10.0286 -0.00615395 0.01821 10.0286 16.1093 10 1 
244 1.21408 10.0103 -0.00624564 0.0188612 10.0103 16.3951 10 1 
248 1.21417 9.9862 -0.00687751 0.0189386 9.98623 16.5691 10 1 
252 1.21414 9.97682 -0.00724664 0.0190768 9.97685 16.5091 10 1 
256 1.21458 9.9407 -0.00730338 0.0197804 9.94073 17.2985 10 1 
256 1.21458 9.9407 -0.00730338 0.0197804 9.94073 17.2985 11 1 
260 1.21466 9.9074 -0.00768779 0.0199885 9.90745 17.4459 11 1 
264 1.21479 9.87405 -0.00790417 0.0202841 9.8741 17.6798 11 1 
268 1.21551 9.80862 -0.00826873 0.0207083 9.80869 18.9857 11 1 
272 1.216 9.73463 -0.00868805 0.0208989 9.73472 19.8604 11 1 
276 1.21619 9.6483 -0.00893263 0.0211644 9.64847 20.203 11 1 
280 1.2172 9.49954 -0.00924832 0.0214856 9.49969 22.0324 11 1 
284 1.21837 9.35609 -0.00945465 0.0217942 9.3562 24.1527 11 1 
288 1.21924 9.20054 -0.00965421 0.0219696 9.20069 25.7129 11 1 
292 1.2196 9.07283 -0.0100791 0.0222769 9.0731 26.3674 11 1 
296 1.21604 9.31778 -0.0103582 0.0229161 9.31894 19.9442 11 1 
300 1.21061 9.70679 -0.0109159 0.0236669 9.70779 10.1356 11 1 
304 1.20807 9.74907 -0.0112603 0.0242668 9.74977 5.54816 11 1 
308 1.20812 9.5228 -0.0113415 0.0242908 9.52379 5.64429 11 1 
312 1.20903 9.23985 -0.0114979 0.0242362 9.24058 7.28731 11 1 
316 1.20988 8.98495 -0.011594 0.0244368 8.98551 8.80673 11 1 
320 1.21051 8.78172 -0.0117601 0.0246966 8.78211 9.95556 11 1 
320 1.21051 8.78172 -0.0117601 0.0246966 8.78211 9.95556 15 1 
324 1.21104 8.61061 -0.011922 0.0251847 8.61092 10.9162 15 1 
328 1.21146 8.46652 -0.0121606 0.0255449 8.46675 11.6667 15 1 
332 1.21184 8.34318 -0.012362 0.0260578 8.34337 12.3565 15 1 
336 1.21207 8.22941 -0.0125219 0.0268598 8.22955 12.771 15 1 
340 1.21219 8.13038 -0.0127468 0.0276412 8.13051 12.9858 15 1 
344 1.21244 8.05049 -0.0129478 0.0283433 8.05061 13.4294 15 1 
348 1.21262 7.97816 -0.0131896 0.0290691 7.97828 13.7702 15 1 
352 1.2127 7.90895 -0.0133784 0.029895 7.90906 13.9139 15 1 
356 1.21277 7.8443 -0.0135179 0.0308379 7.84441 14.0307 15 1 
360 1.21284 7.78626 -0.0137131 0.0317446 7.78636 14.1576 15 1 
364 1.21295 7.73899 -0.0139324 0.0325202 7.7391 14.3645 15 1 
368 1.21301 7.69464 -0.0140939 0.0332987 7.69475 14.4675 15 1 
372 1.21301 7.6482 -0.0142021 0.0342276 7.64832 14.4714 15 1 
376 1.21306 7.60665 -0.0143105 0.0352055 7.60676 14.5664 15 1 
380 1.21309 7.56892 -0.0145016 0.0360395 7.56904 14.6107 15 1 
384 1.21309 7.53381 -0.0147192 0.0368393 7.53393 14.6188 15 1 
384 1.21309 7.53381 -0.0147192 0.0368393 7.53393 14.6188 16 1 
388 1.21312 7.502 -0.0148889 0.0377405 7.50213 14.6701 16 1 
392 1.21313 7.46931 -0.0150278 0.0387045 7.46945 14.6929 16 1 
396 1.21313 7.43711 -0.0152159 0.0396427 7.43725 14.6852 16 1 
400 1.21311 7.40793 -0.0154741 0.0405946 7.40808 14.6565 16 1 
404 1.21311 7.38029 -0.0156872 0.0415466 7.38045 14.6557 16 1 
408 1.21313 7.35447 -0.0158148 0.0425621 7.35463 14.6824 16 1 
412 1.21312 7.32921 -0.0159156 0.043628 7.32938 14.6657 16 1 
416 1.2131 7.30366 -0.016066 0.0447312 7.30383 14.6277 16 1 
420 1.21308 7.27958 -0.0162287 0.0458663 7.27976 14.5979 16 1 
424 1.21308 7.25771 -0.0163657 0.0470046 7.2579 14.5921 16 1 
428 1.21307 7.23668 -0.0164288 0.0481353 7.23688 14.5823 16 1 
432 1.21305 7.21502 -0.0165297 0.0493798 7.21522 14.5454 16 1 
436 1.21304 7.19306 -0.016701 0.0506024 7.19327 14.5224 16 1 
440 1.21302 7.17191 -0.0168593 0.0517908 7.17213 14.4851 16 1 
444 1.213 7.15111 -0.0170135 0.0530192 7.15134 14.4419 16 1 
448 1.21299 7.13081 -0.0171987 0.0542715 7.13105 14.4291 16 1 
448 1.21299 7.13081 -0.0171987 0.0542715 7.13105 14.4291 17 1 
452 1.21297 7.11089 -0.0173665 0.0554878 7.11114 14.3972 17 1 
456 1.21295 7.09066 -0.0176117 0.0567268 7.09092 14.3557 17 1 
460 1.21293 7.07114 -0.0179113 0.0579689 7.07142 14.3153 17 1 
464 1.2129 7.05276 -0.0181579 0.0592223 7.05304 14.2694 17 1 
468 1.21289 7.03539 -0.0184227 0.060478 7.03569 14.2483 17 1 
472 1.21287 7.01953 -0.0187557 0.0617586 7.01984 14.2214 17 1 
476 1.21285 7.00415 -0.0190773 0.0630678 7.00447 14.1767 17 1 
480 1.21283 6.98892 -0.0194212 0.0643993 6.98925 14.1356 17 1 
484 1.2128 6.97573 -0.0197877 0.0657893 6.97608 14.0975 17 1 
488 1.21279 6.96434 -0.0201812 0.0672438 6.9647 14.0756 17 1 
492 1.21277 6.95358 -0.0206018 0.0687637 6.95395 14.0411 17 1 
496 1.21275 6.94417 -0.0210397 0.070298 6.94456 14.0021 17 1 
500 1.21274 6.93588 -0.0215227 0.0719307 6.93629 13.9758 17 1 
504 1.21271 6.92849 -0.0220059 0.0736551 6.92892 13.9244 17 1 
508 1.21269 6.92342 -0.0225084 0.0754358 6.92387 13.8906 17 1 
512 1.21268 6.9201 -0.0230272 0.0772368 6.92058 13.8771 17 1 
512 1.21268 6.9201 -0.0230272 0.0772368 6.92058 13.8771 25 1 
516 1.21266 6.91733 -0.0235638 0.0791406 6.91783 13.8297 25 1 
520 1.21263 6.91548 -0.0241175 0.0810999 6.916 13.7835 25 1 
524 1.21261 6.91497 -0.0246663 0.0831102 6.91552 13.7473 25 1 
528 1.21259 6.91619 -0.0252532 0.0851641 6.91676 13.7055 25 1 
532 1.21257 6.91865 -0.0258794 0.0872514 6.91925 13.6726 25 1 
536 1.21254 6.92142 -0.0264787 0.0893808 6.92205 13.6262 25 1 
540 1.21251 6.92473 -0.0271375 0.0915757 6.92538 13.5707 25 1 
544 1.21249 6.92878 -0.0278004 0.0937665 6.92947 13.5213 25 1 
548 1.21246 6.93395 -0.0284813 0.0960067 6.93468 13.4701 25 1 
552 1.21243 6.94004 -0.0291702 0.0982987 6.9408 13.4285 25 1 
556 1.2124 6.94608 -0.0298824 0.100584 6.94687 13.3708 25 1 
560 1.21237 6.95201 -0.0306219 0.102955 6.95284 13.3067 25 1 
564 1.21234 6.95881 -0.0313576 0.105316 6.95968 13.2519 25 1 
568 1.2123 6.96628 -0.0321302 0.107733 6.96719 13.1926 25 1 
572 1.21227 6.97436 -0.0329007 0.110193 6.9753 13.1392 25 1 
576 1.21224 6.98253 -0.0336926 0.112643 6.98352 13.0829 25 1 
576 1.21224 6.98253 -0.0336926 0.112643 6.98352 13.0829 26 1 
580 1.2122 6.99075 -0.03451 0.115162 6.99179 13.0107 26 1 
584 1.21217 6.99953 -0.0353201 0.117682 7.00061 12.9495 26 1 
588 1.21214 7.00916 -0.0361462 0.120222 7.01028 12.8912 26 1 
592 1.2121 7.01903 -0.0369952 0.122756 7.0202 12.8294 26 1 
596 1.21207 7.02907 -0.037807 0.125296 7.03029 12.7675 26 1 
600 1.21203 7.03922 -0.0386589 0.127834 7.04048 12.6986 26 1 
604 1.21199 7.04947 -0.0395091 0.130416 7.05078 12.6338 26 1 
608 1.21196 7.06065 -0.0403678 0.132917 7.06201 12.567 26 1 
608 1.21196 7.06065 -0.0403678 0.132917 7.06201 12.567 26 1 
612 1.21192 7.07175 -0.0412485 0.135411 7.07317 12.5072 26 1 
616 1.21189 7.08327 -0.0421465 0.137978 7.08474 12.4413 26 1 
620 1.21185 7.09475 -0.0430763 0.140425 7.09628 12.3715 26 1 
624 1.21181 7.10663 -0.0440081 0.142971 7.10821 12.3051 26 1 
628 1.21178 7.11915 -0.0449428 0.145443 7.12078 12.2391 26 1 
632 1.21174 7.13195 -0.0459096 0.147918 7.13363 12.1764 26 1 
636 1.21171 7.14523 -0.0468787 0.150415 7.14697 12.1133 26 1 
640 1.21167 7.15854 -0.0478303 0.152897 7.16034 12.0456 26 1 
644 1.21163 7.17233 -0.0487795 0.155412 7.17418 11.9793 26 1 
648 1.2116 7.1866 -0.0497088 0.15783 7.1885 11.9208 26 1 
652 1.21156 7.20131 -0.050589 0.160393 7.20328 11.8571 26 1 
656 1.21153 7.21591 -0.0515064 0.162813 7.21793 11.8002 26 1 
660 1.2115 7.23112 -0.0523934 0.165305 7.2332 11.7371 26 1 
664 1.21147 7.24613 -0.0531915 0.167732 7.24826 11.6802 26 1 
668 1.21144 7.26143 -0.054061 0.170202 7.26363 11.6232 26 1 
672 1.2114 7.27738 -0.0547757 0.172675 7.27964 11.563 26 1 
672 1.2114 7.27738 -0.0547757 0.172675 7.27964 11.563 27 1 
676 1.21138 7.29259 -0.0554367 0.175036 7.2949 11.5193 27 1 
680 1.21134 7.30864 -0.056219 0.177674 7.31102 11.4566 27 1 
684 1.21132 7.32367 -0.0567048 0.179794 7.32609 11.4076 27 1 
688 1.21128 7.33937 -0.0573759 0.182412 7.34186 11.3519 27 1 
692 1.21126 7.35449 -0.0578274 0.184611 7.35704 11.3052 27 1 
696 1.21123 7.36987 -0.0582578 0.18702 7.37247 11.2525 27 1 
700 1.2112 7.3851 -0.0587847 0.189462 7.38776 11.2059 27 1 
704 1.21118 7.39958 -0.0591094 0.191652 7.4023 11.1577 27 1 
704 1.21118 7.39958 -0.0591094 0.191652 7.4023 11.1577 31 1 
708 1.21115 7.41395 -0.0594394 0.193893 7.41673 11.107 31 1 
712 1.21112 7.42834 -0.0597551 0.19587 7.43116 11.0563 31 1 
716 1.2111 7.44217 -0.0599382 0.198123 7.44505 11.0148 31 1 
720 1.21107 7.45572 -0.0601773 0.200421 7.45865 10.9717 31 1 
724 1.21104 7.46992 -0.060548 0.202313 7.47291 10.9042 31 1 
728 1.21102 7.48239 -0.0606341 0.204249 7.48543 10.8792 31 1 
732 1.21099 7.4958 -0.0608365 0.206693 7.49889 10.8195 31 1 
736 1.21096 7.50913 -0.0610568 0.207697 7.51225 10.758 31 1 
740 1.21094 7.52116 -0.0611007 0.210056 7.52435 10.733 31 1 
744 1.2109 7.53419 -0.0610621 0.211768 7.53741 10.6632 31 1 
748 1.21087 7.54645 -0.0614751 0.214153 7.54974 10.6011 31 1 
752 1.21083 7.56002 -0.0608072 0.216046 7.56335 10.5308 31 1 
756 1.21081 7.57158 -0.0612188 0.217658 7.57496 10.5018 31 1 
760 1.21074 7.58731 -0.0620421 0.220404 7.59077 10.3681 31 1 
764 1.2107 7.60245 -0.0620458 0.222324 7.60595 10.3029 31 1 
768 1.21068 7.61748 -0.0623986 0.224308 7.62104 10.2547 31 1 
772 1.21058 7.63482 -0.0619951 0.228696 7.6385 10.0738 31 1 
776 1.21049 7.65251 -0.0616183 0.234689 7.65636 9.91118 31 1 
780 1.21037 7.68058 -0.0631153 0.236975 7.6845 9.69595 31 1 
784 1.21029 7.70901 -0.0660584 0.241652 7.71309 9.55852 31 1 
788 1.21004 7.75375 -0.0668668 0.250473 7.7581 9.10345 31 1 
792 1.20979 7.80385 -0.0678842 0.265668 7.8087 8.65861 31 1 
796 1.2094 7.88135 -0.0718524 0.28707 7.88696 7.94843 31 1 
800 1.20903 7.93996 -0.074405 0.297904 7.94596 7.28732 31 1 
