16.3017;r ;Density                 ;Velocity u              ;Velocity v              ;Velocity w              ;|Velocity|              ;Pressure                ;Distribution            ;Levels                  ;
0 1.2044 9.9967 8.51432e-05 8.6322e-07 9.9967 -1.08201 1 1 
4 1.20438 9.99982 4.51078e-05 -2.06791e-05 9.99983 -1.12228 1 1 
8 1.20434 10.0018 8.01551e-05 -3.8726e-05 10.0018 -1.19649 1 1 
12 1.20433 10.0007 0.000173655 2.12661e-05 10.0007 -1.21495 1 1 
16 1.20435 9.99718 0.000179657 -7.79214e-06 9.99718 -1.16985 1 1 
20 1.20434 9.9957 0.000101845 -0.000144973 9.9957 -1.18385 1 1 
24 1.20436 9.99762 0.00013088 -9.84667e-05 9.99762 -1.1579 1 1 
28 1.20436 9.99753 -8.68542e-05 -0.000296679 9.99753 -1.15912 1 1 
32 1.2043 9.99951 -3.71718e-05 -0.000200913 9.99951 -1.26242 1 1 
36 1.20436 9.99738 0.000215714 8.37533e-06 9.99738 -1.1607 1 1 
40 1.20434 9.99841 9.18264e-05 -0.000106447 9.99841 -1.18908 1 1 
44 1.20437 9.99808 6.40215e-05 -0.000113274 9.99808 -1.12963 1 1 
48 1.20442 9.99646 0.000514472 0.000348147 9.99646 -1.0448 1 1 
52 1.20439 9.9984 0.0010756 0.000879081 9.9984 -1.10909 1 1 
56 1.2044 9.99667 0.000937195 0.00070529 9.99667 -1.07723 1 1 
60 1.20432 9.99763 0.000359523 0.000139934 9.99763 -1.22618 1 1 
64 1.20436 9.99556 0.000127725 -0.000197373 9.99556 -1.16424 1 1 
64 1.20436 9.99556 0.000127725 -0.000197373 9.99556 -1.16424 2 1 
68 1.20437 9.99667 0.000571181 0.000237711 9.99667 -1.14029 2 1 
72 1.20433 9.9971 0.00105514 0.00070966 9.9971 -1.21493 2 1 
76 1.20435 9.99682 0.00119435 0.000870151 9.99682 -1.1709 2 1 
80 1.20435 9.99736 0.00119611 0.000855207 9.99736 -1.16757 2 1 
84 1.20434 9.99726 0.00108709 0.000705293 9.99726 -1.1838 2 1 
88 1.20437 9.997 0.00105976 0.000713758 9.997 -1.138 2 1 
92 1.2044 9.99661 0.00117813 0.000797237 9.99661 -1.08929 2 1 
96 1.2044 9.99796 0.00110542 0.000686322 9.99796 -1.07897 2 1 
100 1.2044 9.99365 0.00123 0.000782165 9.99365 -1.07701 2 1 
104 1.20427 9.99169 0.00121139 0.000827537 9.99169 -1.31638 2 1 
108 1.20429 9.99086 0.00126046 0.000841625 9.99086 -1.28566 2 1 
112 1.20441 9.9938 0.00132246 0.000880933 9.9938 -1.06647 2 1 
116 1.20445 9.99543 0.00124156 0.000827705 9.99543 -1.0024 2 1 
120 1.20436 9.99445 0.00130149 0.000788265 9.99445 -1.15512 2 1 
124 1.20427 9.99177 0.00123093 0.000751629 9.99177 -1.3232 2 1 
128 1.20432 9.99049 0.00127778 0.000753582 9.99049 -1.23572 2 1 
128 1.20432 9.99049 0.00127778 0.000753582 9.99049 -1.23572 10 1 
132 1.2044 9.99476 0.00118846 0.000650375 9.99476 -1.08832 10 1 
136 1.2045 9.99169 0.00138464 0.000827016 9.99169 -0.902748 10 1 
140 1.20444 9.99153 0.00143797 0.000909913 9.99153 -1.00482 10 1 
144 1.2043 9.99219 0.00154469 0.00100256 9.99219 -1.27073 10 1 
148 1.20428 9.98825 0.00150716 0.000805707 9.98825 -1.30526 10 1 
152 1.2043 9.98862 0.00135264 0.000737187 9.98862 -1.27295 10 1 
156 1.20442 9.98909 0.00146416 0.000800329 9.98909 -1.05632 10 1 
160 1.20457 9.98981 0.00137723 0.000731407 9.98981 -0.783371 10 1 
160 1.20457 9.98981 0.00137723 0.000731407 9.98981 -0.783371 10 1 
164 1.20445 9.99438 0.00149359 0.000770789 9.99438 -0.985936 10 1 
168 1.20437 9.98802 0.0013653 0.000684323 9.98802 -1.13057 10 1 
172 1.2043 9.98195 0.00130662 0.000594154 9.98195 -1.258 10 1 
176 1.20435 9.98482 0.0014458 0.000590481 9.98482 -1.17608 10 1 
180 1.2046 9.98476 0.00166146 0.000940782 9.98476 -0.725883 10 1 
184 1.20458 9.98836 0.00170701 0.000901305 9.98836 -0.760429 10 1 
188 1.20444 9.98306 0.0018295 0.00100519 9.98306 -1.01083 10 1 
192 1.20431 9.97316 0.0017933 0.00090785 9.97316 -1.24398 10 1 
196 1.20438 9.97366 0.00134313 0.000460697 9.97366 -1.12587 10 1 
200 1.20465 9.97683 0.00151665 0.000547497 9.97683 -0.630464 10 1 
204 1.2048 9.97829 0.00132066 0.000404847 9.97829 -0.364454 10 1 
208 1.20466 9.97441 0.0012862 0.000434257 9.97442 -0.608017 10 1 
212 1.20442 9.96728 0.00161552 0.000661942 9.96729 -1.05543 10 1 
216 1.20449 9.95884 0.00136644 0.000435068 9.95885 -0.920362 10 1 
220 1.20474 9.95123 0.00151656 0.000496501 9.95123 -0.468945 10 1 
224 1.20487 9.94823 0.00171784 0.000715936 9.94824 -0.242725 10 1 
224 1.20487 9.94823 0.00171784 0.000715936 9.94824 -0.242725 10 1 
228 1.20495 9.94048 0.00146463 0.0003111 9.94049 -0.0943249 10 1 
232 1.20483 9.9335 0.00157225 0.000404037 9.93351 -0.299426 10 1 
236 1.20484 9.9243 0.00153017 0.000472115 9.92431 -0.294881 10 1 
240 1.20505 9.91844 0.00119344 -4.09725e-05 9.91844 0.0826926 10 1 
244 1.20538 9.90126 0.00120955 3.91901e-06 9.90127 0.695042 10 1 
248 1.20553 9.87554 0.000676503 -0.000431215 9.87555 0.956847 10 1 
252 1.2054 9.86139 0.00040495 -0.000741137 9.8614 0.730817 10 1 
256 1.20571 9.82087 0.000652796 -0.000415378 9.82088 1.28973 10 1 
256 1.20571 9.82087 0.000652796 -0.000415378 9.82088 1.28973 11 1 
260 1.20579 9.78614 0.000680749 -0.000462225 9.78617 1.42699 11 1 
264 1.20608 9.75378 0.00083901 -0.000421461 9.75381 1.94302 11 1 
268 1.20698 9.69039 0.000788195 -0.000289049 9.69044 3.57791 11 1 
272 1.20755 9.61563 0.000552601 -0.00055638 9.6157 4.60755 11 1 
276 1.20776 9.52591 0.000312934 -0.000912877 9.52606 4.99133 11 1 
280 1.20879 9.37499 -0.000207826 -0.00132094 9.37512 6.8523 11 1 
284 1.21001 9.2303 -0.00058722 -0.00162104 9.23039 9.04964 11 1 
288 1.21094 9.07189 -0.000871322 -0.00191052 9.072 10.7259 11 1 
292 1.21131 8.94169 -0.00107743 -0.00212842 8.94194 11.3998 11 1 
296 1.20772 9.18884 -0.000947082 -0.00191765 9.19004 4.91548 11 1 
300 1.20226 9.58207 -0.000946855 -0.00192327 9.58309 -4.95501 11 1 
304 1.19975 9.6251 -0.000907701 -0.00193003 9.62578 -9.47604 11 1 
308 1.19997 9.39863 -0.00106581 -0.00202191 9.39962 -9.08496 11 1 
312 1.20111 9.11751 -0.00146942 -0.00234433 9.11822 -7.02828 11 1 
316 1.20215 8.86349 -0.00178875 -0.00264753 8.86403 -5.15472 11 1 
320 1.20286 8.65781 -0.00203469 -0.00288516 8.65817 -3.8622 11 1 
320 1.20286 8.65781 -0.00203469 -0.00288516 8.65817 -3.8622 15 1 
324 1.20335 8.48183 -0.00208318 -0.00286728 8.4821 -2.97512 15 1 
328 1.20368 8.33211 -0.00207855 -0.00284745 8.33231 -2.38912 15 1 
332 1.204 8.20488 -0.00189525 -0.0026894 8.20502 -1.81391 15 1 
336 1.20425 8.0911 -0.00162371 -0.00237496 8.09118 -1.35779 15 1 
340 1.20448 7.99609 -0.00147198 -0.00220841 7.99616 -0.946339 15 1 
344 1.20487 7.92363 -0.00142213 -0.0021818 7.92369 -0.234768 15 1 
348 1.2052 7.86051 -0.00149222 -0.00224128 7.86056 0.36034 15 1 
352 1.20537 7.80046 -0.00154731 -0.00232234 7.8005 0.676208 15 1 
356 1.20547 7.74303 -0.00156512 -0.00235487 7.74306 0.843079 15 1 
360 1.20549 7.69033 -0.00165764 -0.00241502 7.69035 0.88869 15 1 
364 1.20551 7.64869 -0.00175958 -0.00257657 7.6487 0.915332 15 1 
368 1.20544 7.61276 -0.00179977 -0.00270724 7.61278 0.791713 15 1 
372 1.20532 7.5793 -0.00174316 -0.00266812 7.57931 0.571574 15 1 
376 1.20527 7.5541 -0.00164565 -0.00257854 7.5541 0.494722 15 1 
380 1.20524 7.53159 -0.00160148 -0.0026078 7.5316 0.440997 15 1 
384 1.20522 7.50825 -0.00159978 -0.00266139 7.50826 0.392475 15 1 
384 1.20522 7.50825 -0.00159978 -0.00266139 7.50826 0.392475 16 1 
388 1.20522 7.48961 -0.00157744 -0.00258575 7.48963 0.39469 16 1 
392 1.20521 7.47904 -0.00147394 -0.00249837 7.47904 0.379743 16 1 
396 1.20521 7.4782 -0.0013958 -0.00250675 7.4782 0.371479 16 1 
400 1.20521 7.47823 -0.00140767 -0.00251299 7.47824 0.386676 16 1 
404 1.20525 7.46128 -0.00142334 -0.00245744 7.46131 0.446192 16 1 
408 1.20529 7.42105 -0.00132725 -0.00235727 7.42112 0.523269 16 1 
412 1.2053 7.3711 -0.00120843 -0.00229695 7.37116 0.535101 16 1 
416 1.2053 7.34194 -0.00116075 -0.00227036 7.34195 0.533801 16 1 
420 1.20532 7.36651 -0.0011525 -0.00221167 7.36653 0.586582 16 1 
424 1.2054 7.45986 -0.00113202 -0.00216847 7.45995 0.718289 16 1 
428 1.2055 7.6172 -0.00102558 -0.002187 7.61742 0.903318 16 1 
432 1.2056 7.82318 -0.000851769 -0.00209111 7.82352 1.07545 16 1 
436 1.20567 8.06215 -0.000757683 -0.00193521 8.06258 1.21462 16 1 
440 1.20571 8.31964 -0.00070099 -0.00185172 8.3201 1.28247 16 1 
444 1.20573 8.57844 -0.000650691 -0.00178191 8.57887 1.31186 16 1 
448 1.20574 8.82554 -0.000582664 -0.00164986 8.82591 1.34333 16 1 
448 1.20574 8.82554 -0.000582664 -0.00164986 8.82591 1.34333 17 1 
452 1.20574 9.05209 -0.000425708 -0.00150538 9.05238 1.33682 17 1 
456 1.20572 9.24848 -0.000364319 -0.00141167 9.24868 1.30549 17 1 
460 1.20567 9.4108 -0.000430782 -0.00138608 9.41093 1.20971 17 1 
464 1.2056 9.53971 -0.000321906 -0.00133746 9.53979 1.07466 17 1 
468 1.20556 9.63809 -0.000202846 -0.00130133 9.63813 1.01535 17 1 
472 1.20555 9.71378 -0.000208584 -0.00129795 9.7138 0.987685 17 1 
476 1.20552 9.77055 -0.000234827 -0.00132266 9.77056 0.93215 17 1 
480 1.20548 9.81253 -0.000241425 -0.00130251 9.81253 0.869414 17 1 
484 1.20544 9.84711 -0.000222864 -0.00117679 9.84712 0.799605 17 1 
488 1.20543 9.87448 -0.000236433 -0.00100214 9.87448 0.774047 17 1 
492 1.20542 9.89542 -0.00032217 -0.000924593 9.89542 0.759501 17 1 
496 1.20541 9.91273 -0.000427995 -0.000966061 9.91273 0.747255 17 1 
500 1.20541 9.92455 -0.000490903 -0.000944197 9.92455 0.746606 17 1 
504 1.20538 9.93442 -0.000526287 -0.000817405 9.93442 0.691913 17 1 
508 1.20536 9.94469 -0.000561935 -0.000707099 9.94469 0.657461 17 1 
512 1.20536 9.9521 -0.000633533 -0.000663396 9.9521 0.65772 17 1 
512 1.20536 9.9521 -0.000633533 -0.000663396 9.9521 0.65772 25 1 
516 1.20535 9.95958 -0.000672934 -0.000568082 9.95958 0.629573 25 1 
520 1.20534 9.96415 -0.000728451 -0.000564653 9.96416 0.613261 25 1 
524 1.20534 9.96665 -0.000769545 -0.00055158 9.96665 0.611617 25 1 
528 1.20534 9.97403 -0.000855365 -0.000517992 9.97403 0.618399 25 1 
532 1.20533 9.97764 -0.000899899 -0.000470722 9.97764 0.596813 25 1 
536 1.20531 9.98088 -0.000861876 -0.000386291 9.98088 0.568497 25 1 
540 1.2053 9.98445 -0.000825325 -0.00030428 9.98445 0.547227 25 1 
544 1.20528 9.98401 -0.000912126 -0.000358207 9.98401 0.512346 25 1 
548 1.20531 9.98988 -0.000926723 -0.000303379 9.98988 0.556046 25 1 
552 1.20531 9.99215 -0.000974748 -0.000260949 9.99215 0.565249 25 1 
556 1.20529 9.99201 -0.0009986 -0.00029932 9.99201 0.517264 25 1 
560 1.20528 9.99609 -0.000951407 -0.000253821 9.99609 0.499906 25 1 
564 1.20526 9.99407 -0.00101695 -0.000238102 9.99407 0.476191 25 1 
568 1.20529 9.99827 -0.00103067 -0.000212471 9.99827 0.529053 25 1 
572 1.20531 10.0012 -0.00105199 -0.000247112 10.0012 0.559944 25 1 
576 1.20528 9.99759 -0.00105761 -0.000241466 9.99759 0.500885 25 1 
576 1.20528 9.99759 -0.00105761 -0.000241466 9.99759 0.500885 26 1 
580 1.20527 10.0014 -0.00104116 -0.00019521 10.0014 0.494324 26 1 
584 1.20525 9.9976 -0.000995558 -0.000136315 9.9976 0.4517 26 1 
588 1.20528 9.99981 -0.00104881 -0.000190826 9.99981 0.50608 26 1 
592 1.20532 10.0061 -0.00106682 -0.000203586 10.0061 0.582227 26 1 
596 1.20528 10.0004 -0.00110013 -0.000225725 10.0004 0.498967 26 1 
600 1.20529 10.005 -0.00108937 -0.000204061 10.005 0.527787 26 1 
604 1.20527 10.0026 -0.00106308 -0.000178736 10.0026 0.4796 26 1 
608 1.20523 10.0006 -0.00110238 -0.000231075 10.0006 0.410065 26 1 
608 1.20523 10.0006 -0.00110238 -0.000231075 10.0006 0.410065 26 1 
612 1.20527 10.0082 -0.00109623 -0.000234068 10.0082 0.482813 26 1 
616 1.20523 10.0011 -0.00110035 -0.000242044 10.0011 0.41789 26 1 
620 1.20524 10.0068 -0.00105561 -0.000197311 10.0068 0.429482 26 1 
624 1.20523 10.0061 -0.00103331 -0.000186721 10.0061 0.409924 26 1 
628 1.20522 10.0017 -0.00105092 -0.000221415 10.0017 0.401502 26 1 
632 1.20528 10.0113 -0.00110616 -0.000295935 10.0113 0.498371 26 1 
636 1.20521 10.0036 -0.00113335 -0.000328229 10.0036 0.37302 26 1 
640 1.20523 10.0092 -0.001124 -0.000305686 10.0092 0.412584 26 1 
644 1.2052 10.0058 -0.00103869 -0.000243909 10.0058 0.361862 26 1 
648 1.20516 10.0011 -0.000934374 -0.000171546 10.0011 0.281017 26 1 
652 1.20519 10.01 -0.000918591 -0.000171073 10.01 0.339725 26 1 
656 1.20515 10.0029 -0.000984323 -0.0002666 10.0029 0.270901 26 1 
660 1.20529 10.0126 -0.0011357 -0.000413577 10.0126 0.519552 26 1 
664 1.2053 10.0079 -0.00120172 -0.000465781 10.0079 0.543166 26 1 
668 1.20522 10.0061 -0.00105755 -0.00037246 10.0061 0.396726 26 1 
672 1.20512 10.0072 -0.000852062 -0.000190447 10.0072 0.211347 26 1 
672 1.20512 10.0072 -0.000852062 -0.000190447 10.0072 0.211347 27 1 
676 1.20507 10.0008 -0.00081216 -0.000141626 10.0008 0.122867 27 1 
680 1.20523 10.0107 -0.000903361 -0.000281059 10.0107 0.423054 27 1 
684 1.20524 10.0047 -0.00103087 -0.00043647 10.0047 0.431329 27 1 
688 1.20522 10.0097 -0.00109725 -0.00049716 10.0097 0.394715 27 1 
692 1.20523 10.01 -0.00104353 -0.000468896 10.01 0.414438 27 1 
696 1.20523 10.0049 -0.000948868 -0.000392126 10.0049 0.41222 27 1 
700 1.20515 10.0081 -0.000852076 -0.000301915 10.0081 0.275823 27 1 
704 1.20506 10.0009 -0.000806029 -0.000290156 10.0009 0.113922 27 1 
704 1.20506 10.0009 -0.000806029 -0.000290156 10.0009 0.113922 31 1 
708 1.20525 10.0103 -0.000859997 -0.000373419 10.0103 0.454089 31 1 
712 1.20525 10.0063 -0.000973103 -0.000493714 10.0063 0.453214 31 1 
716 1.20518 10.0096 -0.00100987 -0.000545113 10.0096 0.326145 31 1 
720 1.2052 10.0067 -0.000928869 -0.000498449 10.0067 0.355707 31 1 
724 1.20521 10.0048 -0.000835457 -0.00042935 10.0048 0.38598 31 1 
728 1.20517 10.0087 -0.000838263 -0.000430314 10.0087 0.302 31 1 
732 1.20511 10.0019 -0.000864651 -0.000464674 10.0019 0.201624 31 1 
736 1.2052 10.0106 -0.000867721 -0.000494113 10.0106 0.362566 31 1 
740 1.20524 10.0059 -0.000899014 -0.000552299 10.0059 0.425348 31 1 
744 1.20527 10.0099 -0.000905033 -0.000576556 10.0099 0.491356 31 1 
748 1.20513 10.0035 -0.000896361 -0.000585607 10.0035 0.239232 31 1 
752 1.20513 10.0058 -0.000858604 -0.000554097 10.0058 0.229442 31 1 
756 1.20517 10.0058 -0.00081144 -0.000515751 10.0058 0.298547 31 1 
760 1.20524 10.0089 -0.000807391 -0.00052866 10.0089 0.434833 31 1 
764 1.20523 10.0074 -0.000839661 -0.000575541 10.0074 0.410646 31 1 
768 1.2051 10.0034 -0.000875019 -0.000631516 10.0034 0.17358 31 1 
772 1.20515 10.0065 -0.000880965 -0.000671463 10.0065 0.266893 31 1 
776 1.20528 10.008 -0.000889289 -0.000701189 10.008 0.512235 31 1 
780 1.20522 10.0092 -0.000864101 -0.000666293 10.0092 0.395895 31 1 
784 1.20507 10.002 -0.000819511 -0.000622117 10.002 0.124193 31 1 
788 1.20511 10.0052 -0.000812057 -0.000630443 10.0052 0.189831 31 1 
792 1.20526 10.0086 -0.000817183 -0.000645654 10.0086 0.466583 31 1 
796 1.20529 10.0078 -0.000866315 -0.000703164 10.0078 0.521688 31 1 
800 1.20515 10.0001 -0.00091301 -0.000756947 10.0001 0.276787 31 1 
