47.0937;r ;Density                 ;Velocity u              ;Velocity v              ;Velocity w              ;|Velocity|              ;Pressure                ;Distribution            ;Levels                  ;
0 1.20283 10.0026 -2.48486e-05 -4.751e-06 10.0026 -3.92666 1 1 
1.33334 1.20286 10.0023 -2.89533e-05 2.93465e-05 10.0023 -3.86868 1 1 
2.66666 1.20291 10.002 1.72119e-05 0.00015516 10.002 -3.76765 1 1 
4 1.20297 10.0017 5.98234e-05 0.000263831 10.0017 -3.66177 1 1 
5.33334 1.20303 10.0011 9.43827e-05 0.000369219 10.0011 -3.56648 1 1 
6.66666 1.20306 10.0014 0.000147328 0.00050607 10.0014 -3.50479 1 1 
8 1.20308 10.0017 0.00020302 0.000624087 10.0017 -3.46074 1 1 
9.33334 1.2031 10.001 0.000282047 0.000759819 10.001 -3.43887 1 1 
10.6667 1.2031 10.0015 0.000369415 0.000928825 10.0015 -3.42704 1 1 
12 1.2031 10.0027 0.000437668 0.00106331 10.0027 -3.4287 1 1 
13.3333 1.20309 10.002 0.000517683 0.00119216 10.002 -3.45385 1 1 
14.6667 1.20306 10.0019 0.000640115 0.0013715 10.0019 -3.51124 1 1 
16 1.20302 10.0025 0.000720771 0.00150783 10.0025 -3.58192 1 1 
17.3333 1.20297 10.0031 0.00081344 0.00164259 10.0031 -3.67437 1 1 
18.6667 1.20293 10.0035 0.000884481 0.00175713 10.0035 -3.74068 1 1 
20 1.20288 10.0037 0.000990901 0.00189752 10.0037 -3.83174 1 1 
21.3333 1.2028 10.0046 0.00105441 0.00199598 10.0046 -3.96643 1 1 
21.3333 1.2028 10.0046 0.00105441 0.00199598 10.0046 -3.96643 1 1 
22.6667 1.20277 10.0049 0.00108432 0.00205509 10.0049 -4.03646 1 1 
24 1.20271 10.0047 0.00115387 0.00215089 10.0047 -4.13805 1 1 
25.3333 1.20265 10.0052 0.00119322 0.0022212 10.0052 -4.24142 1 1 
26.6667 1.2026 10.0058 0.00121572 0.00225653 10.0058 -4.3313 1 1 
28 1.20256 10.0054 0.00122491 0.00228491 10.0054 -4.41523 1 1 
29.3333 1.20254 10.0055 0.00126724 0.00235814 10.0055 -4.43921 1 1 
30.6667 1.20251 10.0064 0.00125402 0.00236 10.0064 -4.50311 1 1 
32 1.20248 10.0061 0.00125102 0.0023731 10.0061 -4.55847 1 1 
33.3333 1.20249 10.0056 0.00123382 0.00238928 10.0056 -4.53934 1 1 
34.6667 1.20248 10.0059 0.00121537 0.00240641 10.0059 -4.55396 1 1 
36 1.20248 10.0066 0.0011994 0.00241369 10.0066 -4.55909 1 1 
37.3333 1.20251 10.0063 0.00117699 0.00242054 10.0063 -4.48982 1 1 
38.6667 1.20254 10.0063 0.00116353 0.00245239 10.0063 -4.44193 1 1 
40 1.20258 10.0075 0.00117333 0.00252061 10.0075 -4.36871 1 1 
41.3333 1.20263 10.0079 0.00112334 0.0025224 10.0079 -4.28247 1 1 
42.6667 1.20267 10.0074 0.00111994 0.0025688 10.0074 -4.20608 1 1 
42.6667 1.20267 10.0074 0.00111994 0.0025688 10.0074 -4.20608 2 1 
44 1.20274 10.0076 0.00115032 0.00268071 10.0076 -4.07571 2 1 
45.3333 1.2028 10.0086 0.00111479 0.00270635 10.0086 -3.9758 2 1 
46.6667 1.20286 10.008 0.00113774 0.00279605 10.008 -3.86635 2 1 
48 1.20294 10.0081 0.00118478 0.00292861 10.0081 -3.72522 2 1 
49.3333 1.20301 10.009 0.00120172 0.00302072 10.009 -3.6017 2 1 
50.6667 1.20306 10.0092 0.00127106 0.00317605 10.0092 -3.50514 2 1 
52 1.20312 10.0084 0.00130098 0.00329111 10.0084 -3.39207 2 1 
53.3333 1.20319 10.0084 0.0013801 0.00346707 10.0084 -3.2754 2 1 
54.6667 1.20323 10.01 0.00147195 0.00364271 10.01 -3.2031 2 1 
56 1.20327 10.0097 0.00150192 0.00376043 10.0097 -3.12023 2 1 
57.3333 1.2033 10.0082 0.00160101 0.00395268 10.0082 -3.06713 2 1 
58.6667 1.20331 10.009 0.00167825 0.00412715 10.009 -3.0513 2 1 
60 1.20333 10.0099 0.00172708 0.00426258 10.0099 -3.02179 2 1 
61.3333 1.20332 10.0087 0.00177878 0.00438209 10.0087 -3.03559 2 1 
62.6667 1.2033 10.0088 0.0018816 0.00457951 10.0088 -3.06948 2 1 
64 1.20329 10.0092 0.00193096 0.00470095 10.0092 -3.08989 2 1 
64 1.20329 10.0092 0.00193096 0.00470095 10.0092 -3.08989 2 1 
65.3333 1.20324 10.0096 0.00197774 0.00480669 10.0096 -3.185 2 1 
66.6667 1.20321 10.0093 0.00204972 0.00495785 10.0093 -3.22725 2 1 
68 1.20317 10.0097 0.00211321 0.00508548 10.0097 -3.31397 2 1 
69.3333 1.20309 10.0106 0.00213777 0.00515468 10.0106 -3.44185 2 1 
70.6667 1.20306 10.01 0.00215178 0.0052131 10.01 -3.50635 2 1 
72 1.20301 10.01 0.00217487 0.00529086 10.01 -3.60112 2 1 
73.3333 1.20297 10.0108 0.00220887 0.00536529 10.0108 -3.67338 2 1 
74.6667 1.2029 10.0115 0.00220232 0.00538822 10.0115 -3.79538 2 1 
76 1.20285 10.0101 0.00219091 0.00541453 10.0101 -3.8816 2 1 
77.3333 1.20284 10.0105 0.00220983 0.00548591 10.0105 -3.91006 2 1 
78.6667 1.2028 10.0124 0.00217557 0.00547478 10.0124 -3.9817 2 1 
80 1.20278 10.0116 0.0021578 0.00547739 10.0116 -4.00861 2 1 
81.3333 1.20278 10.0108 0.00213741 0.00550776 10.0108 -4.01571 2 1 
82.6667 1.20277 10.0115 0.00211889 0.00552759 10.0115 -4.0229 2 1 
84 1.20278 10.0117 0.00206063 0.00547766 10.0117 -4.01253 2 1 
85.3333 1.20279 10.0112 0.0020152 0.00546913 10.0112 -3.99198 2 1 
85.3333 1.20279 10.0112 0.0020152 0.00546913 10.0112 -3.99198 3 1 
86.6667 1.20283 10.0107 0.00200343 0.00552298 10.0107 -3.92244 3 1 
88 1.20287 10.0117 0.00194383 0.00549327 10.0117 -3.85312 3 1 
89.3333 1.20291 10.0119 0.00190574 0.00547788 10.0119 -3.77482 3 1 
90.6667 1.20295 10.0105 0.00189586 0.00551929 10.0105 -3.70192 3 1 
92 1.203 10.0105 0.00188401 0.00556826 10.0106 -3.60651 3 1 
93.3333 1.20306 10.0109 0.00186008 0.00558581 10.0109 -3.4957 3 1 
94.6667 1.20311 10.0103 0.00182841 0.00559714 10.0103 -3.41979 3 1 
96 1.20319 10.0096 0.00185823 0.00570745 10.0096 -3.27034 3 1 
97.3333 1.20325 10.0106 0.00189311 0.00579551 10.0106 -3.16819 3 1 
98.6667 1.20329 10.0104 0.00184328 0.00580095 10.0104 -3.09661 3 1 
100 1.20336 10.0085 0.0019284 0.00595668 10.0085 -2.9673 3 1 
101.333 1.20339 10.008 0.00200689 0.00611394 10.0081 -2.90782 3 1 
102.667 1.20343 10.0086 0.0020287 0.006216 10.0086 -2.82833 3 1 
104 1.20348 10.0091 0.00210359 0.0063479 10.0091 -2.73944 3 1 
105.333 1.20351 10.0084 0.00219374 0.00653558 10.0084 -2.68855 3 1 
106.667 1.20355 10.0086 0.0022757 0.00668964 10.0086 -2.62735 3 1 
106.667 1.20355 10.0086 0.0022757 0.00668964 10.0086 -2.62735 3 1 
108 1.20356 10.0086 0.0022951 0.00677423 10.0086 -2.5942 3 1 
109.333 1.20357 10.0066 0.00240852 0.00696789 10.0066 -2.57915 3 1 
110.667 1.2036 10.0057 0.00251702 0.00716792 10.0057 -2.52958 3 1 
112 1.2036 10.0068 0.00258064 0.00728652 10.0068 -2.52767 3 1 
113.333 1.20361 10.0067 0.00261323 0.00738174 10.0067 -2.51839 3 1 
114.667 1.20362 10.0063 0.00271438 0.00759324 10.0063 -2.49881 3 1 
116 1.2036 10.0069 0.00284608 0.00778578 10.0069 -2.52884 3 1 
117.333 1.20361 10.0058 0.002866 0.00786506 10.0058 -2.51232 3 1 
118.667 1.20359 10.0059 0.00290817 0.00797919 10.0059 -2.55533 3 1 
120 1.20359 10.0044 0.00299924 0.00815019 10.0044 -2.5424 3 1 
121.333 1.2036 10.004 0.00307827 0.00827797 10.004 -2.52644 3 1 
122.667 1.20359 10.0057 0.00309953 0.00832512 10.0057 -2.55007 3 1 
124 1.20361 10.0045 0.00313792 0.00842631 10.0045 -2.51841 3 1 
125.333 1.20359 10.0051 0.00322736 0.00858822 10.0051 -2.54663 3 1 
126.667 1.2036 10.0052 0.00321884 0.0086022 10.0052 -2.52975 3 1 
128 1.20359 10.0041 0.00317898 0.00858412 10.0041 -2.54234 3 1 
128 1.20359 10.0041 0.00317898 0.00858412 10.0041 -2.54234 3 1 
129.333 1.2036 10.0031 0.00316058 0.00864669 10.0031 -2.53611 3 1 
130.667 1.20362 10.0029 0.0032207 0.00874871 10.0029 -2.49025 3 1 
132 1.20363 10.0041 0.00320979 0.00876209 10.0042 -2.4716 3 1 
133.333 1.20366 10.0038 0.00317497 0.00878346 10.0038 -2.4157 3 1 
134.667 1.20367 10.0034 0.00319176 0.00885818 10.0034 -2.40824 3 1 
136 1.20368 10.0029 0.00321152 0.00887915 10.0029 -2.3797 3 1 
137.333 1.2037 10.0025 0.00320153 0.00888721 10.0025 -2.34024 3 1 
138.667 1.20373 10.0019 0.00319455 0.0089332 10.0019 -2.29123 3 1 
140 1.20377 10.002 0.00323158 0.00902831 10.002 -2.23042 3 1 
141.333 1.20379 10.0022 0.00323537 0.00904919 10.0022 -2.18241 3 1 
142.667 1.20382 10.0016 0.00325959 0.00909895 10.0016 -2.13516 3 1 
144 1.20383 10.0012 0.00324636 0.00917871 10.0012 -2.10823 3 1 
145.333 1.20386 10.0003 0.00328807 0.00924928 10.0003 -2.06139 3 1 
146.667 1.2039 10.0001 0.00331146 0.00930524 10.0002 -1.97943 3 1 
148 1.20394 9.99983 0.00334274 0.00939796 9.99983 -1.91446 3 1 
149.333 1.20397 9.99909 0.00337569 0.00950548 9.99909 -1.86944 3 1 
149.333 1.20397 9.99909 0.00337569 0.00950548 9.99909 -1.86944 3 1 
150.667 1.204 9.99911 0.00344437 0.00960865 9.99912 -1.80571 3 1 
152 1.20402 9.99903 0.00350079 0.00972669 9.99903 -1.76849 3 1 
153.333 1.20404 9.99847 0.0035372 0.00984203 9.99848 -1.73518 3 1 
154.667 1.20407 9.99766 0.00355915 0.00992081 9.99767 -1.67386 3 1 
156 1.20411 9.99691 0.0036354 0.0100402 9.99692 -1.60401 3 1 
157.333 1.20414 9.99699 0.00370878 0.0101712 9.997 -1.56206 3 1 
158.667 1.20416 9.99693 0.00370674 0.0102554 9.99693 -1.52073 3 1 
160 1.20419 9.99606 0.00378325 0.0103831 9.99606 -1.46805 3 1 
161.333 1.20419 9.9959 0.00384263 0.010493 9.9959 -1.45704 3 1 
162.667 1.20422 9.99488 0.00387497 0.0105803 9.99488 -1.404 3 1 
164 1.20426 9.99359 0.00390166 0.0106567 9.9936 -1.34466 3 1 
165.333 1.20426 9.99461 0.0039678 0.010779 9.99461 -1.33623 3 1 
166.667 1.20429 9.99401 0.00402654 0.0108994 9.99402 -1.2748 3 1 
168 1.20429 9.99306 0.00400357 0.0109236 9.99306 -1.28766 3 1 
169.333 1.2043 9.99259 0.00403003 0.0110173 9.99259 -1.2732 3 1 
170.667 1.20435 9.99258 0.00412204 0.0111743 9.99259 -1.18195 3 1 
170.667 1.20435 9.99258 0.00412204 0.0111743 9.99259 -1.18195 11 1 
172 1.20434 9.99338 0.0041207 0.0112199 9.99339 -1.19735 11 1 
173.333 1.20435 9.99148 0.0041164 0.0112677 9.99149 -1.18065 11 1 
174.667 1.20437 9.99054 0.00415475 0.0113795 9.99054 -1.13236 11 1 
176 1.20438 9.99003 0.00417259 0.0114448 9.99003 -1.11231 11 1 
177.333 1.20439 9.98875 0.00415058 0.0114474 9.98876 -1.1 11 1 
178.667 1.20441 9.98806 0.00417036 0.0115112 9.98806 -1.07271 11 1 
180 1.20442 9.98794 0.00424675 0.0116588 9.98795 -1.04097 11 1 
181.333 1.20443 9.98908 0.0042329 0.0116908 9.98909 -1.02943 11 1 
182.667 1.20446 9.98832 0.00424095 0.0117509 9.98833 -0.981937 11 1 
184 1.20449 9.98612 0.00428809 0.0118661 9.98613 -0.918946 11 1 
185.333 1.20449 9.98521 0.00430011 0.0119139 9.98522 -0.927937 11 1 
186.667 1.2045 9.98343 0.00424419 0.0119009 9.98343 -0.908181 11 1 
188 1.20454 9.98245 0.00425788 0.01197 9.98246 -0.836808 11 1 
189.333 1.20455 9.98423 0.00436693 0.0121262 9.98424 -0.805265 11 1 
190.667 1.20459 9.98397 0.00437236 0.0121586 9.98398 -0.742912 11 1 
192 1.20461 9.98189 0.00439465 0.0122713 9.9819 -0.699745 11 1 
192 1.20461 9.98189 0.00439465 0.0122713 9.9819 -0.699745 11 1 
193.333 1.20462 9.98066 0.00448718 0.012398 9.98067 -0.677843 11 1 
194.667 1.20465 9.97905 0.00444737 0.0124176 9.97906 -0.638446 11 1 
196 1.20467 9.97793 0.00447751 0.0125187 9.97794 -0.5971 11 1 
197.333 1.2047 9.97828 0.00457614 0.012661 9.97829 -0.538258 11 1 
198.667 1.20475 9.97723 0.00456666 0.0127208 9.97724 -0.459445 11 1 
200 1.20477 9.97638 0.00470826 0.0129158 9.97639 -0.414813 11 1 
201.333 1.20477 9.9748 0.00467231 0.0129528 9.97482 -0.415134 11 1 
202.667 1.2048 9.97023 0.00459426 0.0129022 9.97024 -0.353241 11 1 
204 1.20482 9.96973 0.00475388 0.013142 9.96974 -0.325058 11 1 
205.333 1.20484 9.97144 0.00471469 0.0131644 9.97145 -0.28837 11 1 
206.667 1.20491 9.9706 0.00478985 0.0132909 9.97061 -0.1621 11 1 
208 1.20491 9.97081 0.00499694 0.0135501 9.97082 -0.169727 11 1 
209.333 1.20491 9.96879 0.0049212 0.0135422 9.9688 -0.15436 11 1 
210.667 1.20496 9.96407 0.00491495 0.0135969 9.96408 -0.0752542 11 1 
212 1.20496 9.96078 0.00497223 0.013664 9.96079 -0.0766865 11 1 
213.333 1.20498 9.95887 0.00500131 0.0137836 9.95888 -0.0335576 11 1 
213.333 1.20498 9.95887 0.00500131 0.0137836 9.95888 -0.0335576 11 1 
214.667 1.20502 9.95834 0.00500547 0.0138817 9.95836 0.0418239 11 1 
216 1.20504 9.95849 0.00504531 0.0139814 9.9585 0.0696809 11 1 
217.333 1.20505 9.95859 0.00514648 0.0140912 9.9586 0.0923928 11 1 
218.667 1.20511 9.9569 0.0051267 0.0141551 9.95691 0.192151 11 1 
220 1.20513 9.95415 0.00513518 0.014259 9.95417 0.230479 11 1 
221.333 1.20513 9.94984 0.0052315 0.0143621 9.94986 0.237333 11 1 
222.667 1.20516 9.94421 0.00522816 0.0144087 9.94422 0.284472 11 1 
224 1.20516 9.94283 0.0051409 0.0144261 9.94285 0.288689 11 1 
225.333 1.20521 9.94201 0.0051391 0.0144872 9.94203 0.3825 11 1 
226.667 1.20528 9.94052 0.00526619 0.0146158 9.94054 0.498083 11 1 
228 1.20529 9.94034 0.00530679 0.0147279 9.94036 0.522712 11 1 
229.333 1.20532 9.93476 0.00523724 0.0147818 9.93477 0.576313 11 1 
230.667 1.20534 9.92849 0.0051796 0.0147795 9.9285 0.610269 11 1 
232 1.20533 9.92537 0.00519042 0.0147889 9.92538 0.604153 11 1 
233.333 1.2054 9.92285 0.00520007 0.0148593 9.92287 0.731282 11 1 
234.667 1.2055 9.92111 0.00529249 0.0150353 9.92112 0.902455 11 1 
234.667 1.2055 9.92111 0.00529249 0.0150353 9.92112 0.902455 11 1 
236 1.20547 9.91862 0.00536346 0.0151904 9.91863 0.857676 11 1 
237.333 1.20551 9.91202 0.00528363 0.0151386 9.91203 0.918148 11 1 
238.667 1.20557 9.90513 0.00513907 0.0150379 9.90514 1.03359 11 1 
240 1.20557 9.90209 0.00514897 0.0151394 9.90211 1.03048 11 1 
241.333 1.20567 9.89695 0.00530059 0.015357 9.89696 1.21265 11 1 
242.667 1.2057 9.89547 0.00530785 0.0154148 9.89548 1.25705 11 1 
244 1.20575 9.88892 0.00522408 0.0153796 9.88894 1.3548 11 1 
245.333 1.20578 9.88079 0.00515155 0.0153745 9.88081 1.40095 11 1 
246.667 1.20581 9.87485 0.00528172 0.0155977 9.87487 1.4563 11 1 
248 1.20593 9.86724 0.00512752 0.0154834 9.86726 1.67761 11 1 
249.333 1.20594 9.86326 0.00523987 0.0156672 9.86327 1.69512 11 1 
250.667 1.20601 9.85436 0.00535438 0.0158697 9.85437 1.81599 11 1 
252 1.20604 9.8471 0.00507283 0.0156272 9.84712 1.88455 11 1 
253.333 1.20616 9.83542 0.00510386 0.0157471 9.83544 2.09506 11 1 
254.667 1.2062 9.82767 0.00514565 0.0158508 9.82768 2.17252 11 1 
256 1.20625 9.81952 0.00513629 0.0158941 9.81953 2.24944 11 1 
256 1.20625 9.81952 0.00513629 0.0158941 9.81953 2.24944 13 1 
257.333 1.2064 9.8067 0.00514307 0.0159685 9.80671 2.52587 13 1 
258.667 1.20642 9.79729 0.00492988 0.0158221 9.79731 2.55901 13 1 
260 1.2065 9.78359 0.00493153 0.0158762 9.78361 2.70366 13 1 
261.333 1.20665 9.76821 0.00505457 0.0160335 9.76822 2.97915 13 1 
262.667 1.20676 9.75263 0.0049161 0.0160132 9.75265 3.1748 13 1 
264 1.20677 9.7424 0.0048269 0.0160038 9.74242 3.19892 13 1 
265.333 1.20695 9.72491 0.00482578 0.0160495 9.72493 3.52016 13 1 
266.667 1.20719 9.69981 0.00480022 0.0161334 9.69983 3.9476 13 1 
268 1.20712 9.68448 0.00466409 0.0160736 9.68449 3.83739 13 1 
269.333 1.20732 9.66245 0.00467586 0.0160967 9.66247 4.18381 13 1 
270.667 1.2077 9.63074 0.00466384 0.0161533 9.63075 4.88568 13 1 
272 1.20755 9.61818 0.00457521 0.0161558 9.6182 4.60091 13 1 
273.333 1.20782 9.58606 0.00452651 0.0161358 9.58608 5.09599 13 1 
274.667 1.20834 9.54323 0.00450697 0.0161778 9.54325 6.03408 13 1 
276 1.20819 9.52204 0.00446698 0.0162211 9.52207 5.7585 13 1 
277.333 1.2085 9.4755 0.00433518 0.0161307 9.47553 6.32583 13 1 
277.333 1.2085 9.4755 0.00433518 0.0161307 9.47553 6.32583 13 1 
278.667 1.20898 9.43046 0.00427457 0.0160571 9.43049 7.18793 13 1 
280 1.20907 9.38917 0.00427237 0.0161196 9.3892 7.35062 13 1 
281.333 1.20937 9.33033 0.00419302 0.0161589 9.33036 7.89103 13 1 
282.667 1.20975 9.28509 0.00405557 0.0160802 9.28511 8.58255 13 1 
284 1.21026 9.23896 0.00399512 0.0160406 9.23898 9.49763 13 1 
285.333 1.21077 9.17659 0.00394855 0.0160176 9.17666 10.4146 13 1 
286.667 1.21102 9.0913 0.00377955 0.0158251 9.09147 10.8685 13 1 
288 1.21133 8.98935 0.00364339 0.015681 8.9895 11.4349 13 1 
289.333 1.21193 8.90729 0.00360935 0.0157327 8.90733 12.5118 13 1 
290.667 1.21272 8.83102 0.00349693 0.0156784 8.83105 13.9485 13 1 
292 1.21331 8.73595 0.00336127 0.0155199 8.73601 15.0147 13 1 
293.333 1.21365 8.63621 0.00330644 0.0154875 8.63632 15.6332 13 1 
294.667 1.2143 8.51855 0.00321577 0.0154168 8.51875 16.7975 13 1 
296 1.21513 8.39543 0.00305136 0.0153 8.39558 18.2892 13 1 
297.333 1.21562 8.28769 0.0029834 0.0152062 8.28776 19.1897 13 1 
298.667 1.20989 8.1161 0.00287407 0.0149047 8.11625 8.82716 13 1 
298.667 1.20989 8.1161 0.00287407 0.0149047 8.11625 8.82716 14 1 
300 1.20023 8.06379 0.0026973 0.0148118 8.0639 -8.62016 14 1 
301.333 1.19673 8.07544 0.00262638 0.0148373 8.07553 -14.9302 14 1 
302.667 1.19751 7.97085 0.00251675 0.0147135 7.97096 -13.5256 14 1 
304 1.19815 7.85634 0.00235895 0.0146048 7.85646 -12.3819 14 1 
305.333 1.19854 7.74183 0.00221631 0.0144502 7.74204 -11.6596 14 1 
306.667 1.19905 7.64255 0.00208225 0.0143046 7.64272 -10.753 14 1 
308 1.19947 7.53946 0.0019337 0.0141891 7.53953 -9.98264 14 1 
309.333 1.1999 7.45262 0.00174 0.0140952 7.45267 -9.22076 14 1 
310.667 1.20038 7.38014 0.0016708 0.0141237 7.38017 -8.35104 14 1 
312 1.20078 7.30431 0.00153685 0.0140199 7.30433 -7.62478 14 1 
313.333 1.20113 7.24283 0.00133279 0.0138027 7.24286 -6.98401 14 1 
314.667 1.20149 7.18207 0.00127042 0.01381 7.18211 -6.34816 14 1 
316 1.20171 7.11345 0.00107402 0.0136499 7.11351 -5.94953 14 1 
317.333 1.20193 7.05726 0.000893418 0.0134116 7.05731 -5.5497 14 1 
318.667 1.20226 7.0088 0.00087049 0.0133855 7.00884 -4.94069 14 1 
320 1.20248 6.9555 0.000692784 0.0132933 6.95555 -4.55714 14 1 
320 1.20248 6.9555 0.000692784 0.0132933 6.95555 -4.55714 14 1 
321.333 1.20255 6.90429 0.000416498 0.0130848 6.90434 -4.42819 14 1 
322.667 1.20274 6.86003 0.000314072 0.0130351 6.86009 -4.08282 14 1 
324 1.20297 6.81719 0.00022113 0.0130226 6.81723 -3.6726 14 1 
325.333 1.20305 6.78062 -4.17751e-05 0.0129061 6.78064 -3.5179 14 1 
326.667 1.20317 6.75333 -0.000205781 0.0128839 6.75335 -3.29806 14 1 
328 1.20338 6.72583 -0.000212972 0.0129857 6.72585 -2.92906 14 1 
329.333 1.20349 6.69862 -0.000350275 0.0129937 6.69864 -2.72587 14 1 
330.667 1.20353 6.67395 -0.000551011 0.0129652 6.67396 -2.64831 14 1 
332 1.20362 6.65542 -0.000599711 0.013058 6.65543 -2.48478 14 1 
333.333 1.20382 6.6481 -0.0006557 0.0131381 6.64812 -2.1352 14 1 
334.667 1.20397 6.63487 -0.00087629 0.0130624 6.63489 -1.85301 14 1 
336 1.20395 6.61179 -0.00108899 0.012934 6.6118 -1.90063 14 1 
337.333 1.20396 6.59697 -0.00111713 0.0129349 6.59699 -1.88007 14 1 
338.667 1.20414 6.58892 -0.00107681 0.0130298 6.58893 -1.55779 14 1 
340 1.20429 6.58183 -0.00112337 0.0130673 6.58185 -1.28124 14 1 
341.333 1.2043 6.56784 -0.00122265 0.0130362 6.56785 -1.26205 14 1 
341.333 1.2043 6.56784 -0.00122265 0.0130362 6.56785 -1.26205 15 1 
342.667 1.20426 6.54271 -0.00129422 0.0130295 6.54273 -1.34328 15 1 
344 1.20434 6.52827 -0.00141192 0.0129712 6.52828 -1.19662 15 1 
345.333 1.20448 6.52416 -0.00172521 0.0126918 6.52418 -0.943677 15 1 
346.667 1.20451 6.51037 -0.00217248 0.0122792 6.51039 -0.889989 15 1 
348 1.20451 6.48968 -0.00246385 0.0120519 6.4897 -0.882479 15 1 
349.333 1.20452 6.46772 -0.00242954 0.0122022 6.46774 -0.862043 15 1 
350.667 1.20456 6.45553 -0.00219883 0.0125524 6.45555 -0.794019 15 1 
352 1.20466 6.45166 -0.00204162 0.0127712 6.45168 -0.619218 15 1 
353.333 1.20467 6.43262 -0.0021027 0.0128078 6.43263 -0.59759 15 1 
354.667 1.20465 6.41057 -0.00226589 0.012804 6.41059 -0.634882 15 1 
356 1.2047 6.40171 -0.00237032 0.0128349 6.40172 -0.541703 15 1 
357.333 1.20473 6.39162 -0.00246126 0.0128564 6.39164 -0.487051 15 1 
358.667 1.20475 6.38027 -0.00261036 0.0128707 6.38029 -0.444571 15 1 
360 1.20478 6.36868 -0.00276662 0.012897 6.36869 -0.404798 15 1 
361.333 1.20477 6.35452 -0.00285821 0.0129781 6.35453 -0.409764 15 1 
362.667 1.2048 6.34733 -0.00291508 0.0131001 6.34735 -0.353818 15 1 
362.667 1.2048 6.34733 -0.00291508 0.0131001 6.34735 -0.353818 15 1 
364 1.20483 6.34237 -0.0030195 0.0132092 6.34239 -0.299859 15 1 
365.333 1.20484 6.33477 -0.00316807 0.0132699 6.33478 -0.282245 15 1 
366.667 1.20486 6.32841 -0.00327261 0.0133417 6.32842 -0.25662 15 1 
368 1.20487 6.3216 -0.00332361 0.0134761 6.32162 -0.237172 15 1 
369.333 1.20489 6.31875 -0.00339171 0.0136369 6.31877 -0.195126 15 1 
370.667 1.2049 6.31796 -0.00350682 0.0137353 6.31797 -0.181641 15 1 
372 1.2049 6.31394 -0.0036224 0.0137865 6.31395 -0.176314 15 1 
373.333 1.20493 6.31249 -0.00369211 0.0138752 6.31251 -0.121324 15 1 
374.667 1.20493 6.31105 -0.00374158 0.014023 6.31106 -0.118291 15 1 
376 1.20493 6.30914 -0.0038192 0.0141373 6.30916 -0.126289 15 1 
377.333 1.20495 6.31152 -0.00392962 0.0141773 6.31153 -0.0880087 15 1 
378.667 1.20496 6.31133 -0.00404589 0.0141978 6.31135 -0.0680406 15 1 
380 1.20498 6.30999 -0.00413619 0.0142716 6.31001 -0.0315737 15 1 
381.333 1.20499 6.31172 -0.00421683 0.0143659 6.31174 -0.0135254 15 1 
382.667 1.20498 6.31113 -0.0043265 0.0144026 6.31115 -0.0450643 15 1 
384 1.20498 6.31128 -0.00443877 0.0144129 6.3113 -0.0435209 15 1 
384 1.20498 6.31128 -0.00443877 0.0144129 6.3113 -0.0435209 15 1 
385.333 1.20498 6.31298 -0.00454004 0.0144744 6.313 -0.0350461 15 1 
386.667 1.20499 6.31179 -0.00464763 0.0145356 6.31181 -0.0268584 15 1 
388 1.20501 6.31178 -0.00474794 0.0145654 6.3118 0.0158224 15 1 
389.333 1.20501 6.31271 -0.00486849 0.0145716 6.31273 0.0234402 15 1 
390.667 1.205 6.31174 -0.00501797 0.0145623 6.31176 -0.00759173 15 1 
392 1.20499 6.31089 -0.00512114 0.0145974 6.31091 -0.0173593 15 1 
393.333 1.20499 6.30911 -0.00519179 0.0146585 6.30913 -0.0143471 15 1 
394.667 1.20499 6.30723 -0.00530173 0.0146621 6.30725 -0.0115708 15 1 
396 1.205 6.30645 -0.00542768 0.0146394 6.30647 -0.00384774 15 1 
397.333 1.205 6.30409 -0.00552419 0.0146745 6.30411 -0.00753527 15 1 
398.667 1.20498 6.30096 -0.0056054 0.0147457 6.30098 -0.0443341 15 1 
400 1.20495 6.29764 -0.00569486 0.0147766 6.29766 -0.0831882 15 1 
401.333 1.20496 6.29397 -0.00578913 0.0147982 6.29399 -0.0700461 15 1 
402.667 1.20498 6.29194 -0.00590221 0.0148393 6.29196 -0.0422238 15 1 
404 1.20497 6.28891 -0.00604842 0.0148412 6.28893 -0.0572231 15 1 
405.333 1.20495 6.28374 -0.00616603 0.0148715 6.28376 -0.084487 15 1 
405.333 1.20495 6.28374 -0.00616603 0.0148715 6.28376 -0.084487 15 1 
406.667 1.20494 6.27974 -0.00623026 0.01499 6.27976 -0.104509 15 1 
408 1.20493 6.27592 -0.00631983 0.0150788 6.27594 -0.134007 15 1 
409.333 1.20491 6.27136 -0.00645578 0.0150841 6.27138 -0.159874 15 1 
410.667 1.2049 6.26724 -0.00658325 0.0151174 6.26727 -0.172038 15 1 
412 1.20491 6.26311 -0.00668319 0.0152331 6.26314 -0.166998 15 1 
413.333 1.20491 6.25952 -0.00679556 0.0153281 6.25955 -0.157174 15 1 
414.667 1.2049 6.25533 -0.00694743 0.0153292 6.25536 -0.186756 15 1 
416 1.20487 6.24974 -0.00708482 0.0153649 6.24977 -0.241058 15 1 
417.333 1.20485 6.24579 -0.00717824 0.0154824 6.24581 -0.263963 15 1 
418.667 1.20485 6.24263 -0.00728893 0.0155663 6.24265 -0.264587 15 1 
420 1.20485 6.23828 -0.00743914 0.0156052 6.2383 -0.270639 15 1 
421.333 1.20484 6.23427 -0.00759102 0.0156665 6.2343 -0.286834 15 1 
422.667 1.20482 6.23033 -0.00771565 0.0157442 6.23035 -0.325261 15 1 
424 1.20479 6.22641 -0.0078199 0.0158344 6.22643 -0.379115 15 1 
425.333 1.20477 6.22323 -0.00793934 0.015951 6.22326 -0.414276 15 1 
426.667 1.20477 6.21992 -0.00807555 0.0160684 6.21995 -0.413012 15 1 
426.667 1.20477 6.21992 -0.00807555 0.0160684 6.21995 -0.413012 20 1 
428 1.20478 6.21747 -0.00821697 0.016138 6.2175 -0.39622 20 1 
429.333 1.20478 6.21566 -0.00837747 0.0161952 6.21569 -0.401338 20 1 
430.667 1.20475 6.21268 -0.00853538 0.0163004 6.21271 -0.445741 20 1 
432 1.20471 6.20975 -0.00866633 0.0164327 6.20977 -0.516294 20 1 
433.333 1.20468 6.20757 -0.00877386 0.0165653 6.20759 -0.572052 20 1 
434.667 1.20468 6.20602 -0.00887794 0.016704 6.20605 -0.580676 20 1 
436 1.20469 6.20556 -0.00901935 0.0168116 6.20559 -0.567208 20 1 
437.333 1.20468 6.20493 -0.00918942 0.0168931 6.20496 -0.571355 20 1 
438.667 1.20467 6.2041 -0.0093386 0.0170042 6.20413 -0.594784 20 1 
440 1.20465 6.20366 -0.00947739 0.0171467 6.20369 -0.632324 20 1 
441.333 1.20462 6.20282 -0.00962117 0.0172671 6.20285 -0.681879 20 1 
442.667 1.2046 6.20269 -0.00975406 0.0173626 6.20272 -0.721184 20 1 
444 1.20459 6.20352 -0.00988454 0.0174814 6.20356 -0.738507 20 1 
445.333 1.20458 6.20389 -0.0100264 0.0176282 6.20392 -0.752051 20 1 
446.667 1.20457 6.20466 -0.010179 0.0177517 6.20469 -0.76927 20 1 
448 1.20456 6.20595 -0.0103249 0.0178565 6.20599 -0.789926 20 1 
448 1.20456 6.20595 -0.0103249 0.0178565 6.20599 -0.789926 20 1 
449.333 1.20454 6.2068 -0.0104575 0.0179797 6.20684 -0.824899 20 1 
450.667 1.20452 6.20802 -0.0105919 0.0181128 6.20806 -0.866249 20 1 
452 1.2045 6.20969 -0.010722 0.0182425 6.20973 -0.895955 20 1 
453.333 1.20449 6.21142 -0.0108609 0.0183555 6.21146 -0.914026 20 1 
454.667 1.20449 6.21358 -0.0110285 0.0184384 6.21362 -0.928615 20 1 
456 1.20447 6.21581 -0.0111874 0.0185446 6.21585 -0.954169 20 1 
457.333 1.20445 6.21787 -0.0113011 0.0186879 6.21791 -0.998099 20 1 
458.667 1.20442 6.22014 -0.0113973 0.0188282 6.22018 -1.04381 20 1 
460 1.20441 6.22293 -0.0114933 0.0189885 6.22297 -1.06944 20 1 
461.333 1.2044 6.22643 -0.0116102 0.0191383 6.22647 -1.07627 20 1 
462.667 1.2044 6.22991 -0.0117622 0.0192035 6.22995 -1.08869 20 1 
464 1.20438 6.23307 -0.0119109 0.0192559 6.23311 -1.11698 20 1 
465.333 1.20436 6.23637 -0.0120357 0.019397 6.23641 -1.15912 20 1 
466.667 1.20433 6.23967 -0.0121437 0.0195813 6.23971 -1.20855 20 1 
468 1.20431 6.24356 -0.0122362 0.0197248 6.2436 -1.24032 20 1 
469.333 1.20431 6.24831 -0.0123114 0.0198532 6.24835 -1.25331 20 1 
469.333 1.20431 6.24831 -0.0123114 0.0198532 6.24835 -1.25331 20 1 
470.667 1.2043 6.25267 -0.0123866 0.0200158 6.25271 -1.2682 20 1 
472 1.20429 6.25685 -0.0124919 0.0201649 6.2569 -1.28468 20 1 
473.333 1.20428 6.26162 -0.0126302 0.0202607 6.26167 -1.30801 20 1 
474.667 1.20425 6.26601 -0.0127683 0.0203624 6.26606 -1.3465 20 1 
476 1.20423 6.27008 -0.0128825 0.0205105 6.27013 -1.39199 20 1 
477.333 1.20421 6.27484 -0.012972 0.020674 6.27489 -1.43058 20 1 
478.667 1.2042 6.27997 -0.0130427 0.0208346 6.28002 -1.45047 20 1 
480 1.20419 6.2851 -0.0131073 0.0209785 6.28515 -1.45714 20 1 
481.333 1.20419 6.29023 -0.0131862 0.0211065 6.29028 -1.46541 20 1 
482.667 1.20418 6.29507 -0.0132857 0.0212173 6.29512 -1.48793 20 1 
484 1.20415 6.29957 -0.0134015 0.0213099 6.29962 -1.53045 20 1 
485.333 1.20413 6.30405 -0.0135276 0.0214168 6.3041 -1.57975 20 1 
486.667 1.20411 6.3088 -0.0136359 0.0215591 6.30885 -1.61641 20 1 
488 1.2041 6.31389 -0.0137106 0.0216926 6.31394 -1.63382 20 1 
489.333 1.20409 6.31924 -0.0137775 0.02179 6.31929 -1.64075 20 1 
490.667 1.20409 6.32451 -0.0138562 0.0218787 6.32456 -1.65186 20 1 
490.667 1.20409 6.32451 -0.0138562 0.0218787 6.32456 -1.65186 20 1 
492 1.20407 6.32911 -0.0139466 0.0219729 6.32917 -1.67797 20 1 
493.333 1.20405 6.33334 -0.0140507 0.0220594 6.3334 -1.71619 20 1 
494.667 1.20403 6.33814 -0.0141668 0.0221547 6.3382 -1.74987 20 1 
496 1.20402 6.34329 -0.0142739 0.0222732 6.34335 -1.77437 20 1 
497.333 1.204 6.34806 -0.014348 0.0223894 6.34812 -1.79973 20 1 
498.667 1.20399 6.35287 -0.0143971 0.0224866 6.35293 -1.82685 20 1 
500 1.20398 6.35793 -0.0144581 0.0225775 6.35798 -1.84705 20 1 
501.333 1.20397 6.36272 -0.014534 0.0226664 6.36278 -1.86286 20 1 
502.667 1.20396 6.36729 -0.0146087 0.0227518 6.36734 -1.88303 20 1 
504 1.20395 6.37173 -0.0147002 0.0228409 6.37179 -1.90374 20 1 
505.333 1.20393 6.37608 -0.0148065 0.0229477 6.37613 -1.9267 20 1 
506.667 1.20392 6.38056 -0.014881 0.0230708 6.38062 -1.95678 20 1 
508 1.2039 6.38504 -0.0149014 0.0232061 6.3851 -1.98195 20 1 
509.333 1.20389 6.38917 -0.0149031 0.0233232 6.38923 -2.003 20 1 
510.667 1.20387 6.39293 -0.0149131 0.0234001 6.39299 -2.0336 20 1 
512 1.20386 6.39635 -0.0149343 0.0234906 6.39641 -2.06284 20 1 
512 1.20386 6.39635 -0.0149343 0.0234906 6.39641 -2.06284 21 1 
513.333 1.20385 6.39967 -0.0149891 0.0236165 6.39973 -2.07699 21 1 
514.667 1.20384 6.40318 -0.015074 0.023734 6.40324 -2.08687 21 1 
516 1.20384 6.40685 -0.0151423 0.0238519 6.40691 -2.09966 21 1 
517.333 1.20383 6.41056 -0.0151862 0.0239915 6.41063 -2.11519 21 1 
518.667 1.20381 6.41396 -0.0151993 0.024118 6.41403 -2.14171 21 1 
520 1.20379 6.41682 -0.0151724 0.0242154 6.41688 -2.17704 21 1 
521.333 1.20378 6.41955 -0.0151392 0.0243138 6.41962 -2.21212 21 1 
522.667 1.20376 6.42216 -0.0151463 0.0244211 6.42222 -2.24106 21 1 
524 1.20375 6.42466 -0.0151868 0.0245415 6.42473 -2.25782 21 1 
525.333 1.20374 6.42767 -0.0152269 0.0246944 6.42774 -2.26828 21 1 
526.667 1.20374 6.43113 -0.0152796 0.024862 6.4312 -2.27384 21 1 
528 1.20374 6.43495 -0.015349 0.0249899 6.43502 -2.2758 21 1 
529.333 1.20373 6.43893 -0.0153701 0.0250659 6.439 -2.28936 21 1 
530.667 1.20372 6.44216 -0.0153188 0.0251194 6.44223 -2.3166 21 1 
532 1.2037 6.44478 -0.0152648 0.025169 6.44485 -2.35116 21 1 
533.333 1.20368 6.44726 -0.0152344 0.0252486 6.44732 -2.38507 21 1 
533.333 1.20368 6.44726 -0.0152344 0.0252486 6.44732 -2.38507 21 1 
534.667 1.20366 6.44954 -0.0152221 0.0253852 6.44961 -2.41203 21 1 
536 1.20365 6.45234 -0.0152521 0.0255374 6.45241 -2.4311 21 1 
537.333 1.20365 6.45609 -0.015319 0.0256809 6.45616 -2.43033 21 1 
538.667 1.20366 6.4603 -0.0153666 0.0258074 6.46037 -2.42134 21 1 
540 1.20366 6.46441 -0.0153587 0.0258607 6.46448 -2.42218 21 1 
541.333 1.20366 6.468 -0.0153001 0.025844 6.46807 -2.42297 21 1 
542.667 1.20365 6.47085 -0.0152115 0.0258222 6.47092 -2.43592 21 1 
544 1.20363 6.47262 -0.015129 0.0258285 6.47268 -2.4715 21 1 
545.333 1.20361 6.47346 -0.0150751 0.0258845 6.47353 -2.51607 21 1 
546.667 1.20359 6.47433 -0.0150631 0.0260071 6.4744 -2.55466 21 1 
548 1.20358 6.4761 -0.0150919 0.0261735 6.47617 -2.56691 21 1 
549.333 1.20358 6.47902 -0.0151316 0.0263053 6.47909 -2.55607 21 1 
550.667 1.2036 6.48222 -0.015136 0.0263594 6.48229 -2.53624 21 1 
552 1.2036 6.48478 -0.0150767 0.026358 6.48485 -2.52092 21 1 
553.333 1.2036 6.48652 -0.0149665 0.0263049 6.48659 -2.52938 21 1 
554.667 1.20359 6.48703 -0.0148402 0.0262219 6.4871 -2.55135 21 1 
554.667 1.20359 6.48703 -0.0148402 0.0262219 6.4871 -2.55135 22 1 
556 1.20357 6.48622 -0.0147313 0.0261905 6.48629 -2.58068 22 1 
557.333 1.20355 6.48493 -0.014675 0.0262534 6.485 -2.61842 22 1 
558.667 1.20353 6.48389 -0.0146941 0.0264014 6.48396 -2.64677 22 1 
560 1.20353 6.48374 -0.0147657 0.0266139 6.48381 -2.66223 22 1 
561.333 1.20353 6.48498 -0.0148522 0.0268426 6.48506 -2.66315 22 1 
562.667 1.20353 6.48748 -0.0149042 0.0270028 6.48755 -2.65439 22 1 
564 1.20354 6.49024 -0.0148738 0.0270399 6.49031 -2.64526 22 1 
565.333 1.20354 6.49223 -0.0147578 0.0269594 6.4923 -2.63566 22 1 
566.667 1.20354 6.49297 -0.0145889 0.0268106 6.49304 -2.64157 22 1 
568 1.20353 6.49227 -0.0144243 0.0266678 6.49234 -2.65745 22 1 
569.333 1.20352 6.49041 -0.0143398 0.0266296 6.49048 -2.67378 22 1 
570.667 1.20351 6.48843 -0.0143683 0.0267771 6.4885 -2.69727 22 1 
572 1.2035 6.48764 -0.0145101 0.0271027 6.48771 -2.71701 22 1 
573.333 1.20349 6.48909 -0.0147237 0.0275287 6.48917 -2.733 22 1 
574.667 1.20348 6.49333 -0.0149368 0.0279307 6.4934 -2.73666 22 1 
576 1.20349 6.49966 -0.0150809 0.0281521 6.49974 -2.72819 22 1 
576 1.20349 6.49966 -0.0150809 0.0281521 6.49974 -2.72819 22 1 
577.333 1.20349 6.50659 -0.0150754 0.0281256 6.50667 -2.7252 22 1 
578.667 1.2035 6.51274 -0.0148922 0.0278904 6.51282 -2.71159 22 1 
580 1.20351 6.51705 -0.014606 0.0275425 6.51713 -2.69507 22 1 
581.333 1.20351 6.51898 -0.0143355 0.0272421 6.51905 -2.68904 22 1 
582.667 1.20351 6.51911 -0.0141979 0.0271492 6.51918 -2.68638 22 1 
584 1.20351 6.51905 -0.0142696 0.0273313 6.51912 -2.7003 22 1 
585.333 1.20349 6.52085 -0.014538 0.0277687 6.52093 -2.72417 22 1 
586.667 1.20348 6.52606 -0.0149069 0.0283655 6.52613 -2.74359 22 1 
588 1.20348 6.53504 -0.0152403 0.0289506 6.53513 -2.74922 22 1 
589.333 1.20349 6.54737 -0.0154367 0.0293202 6.54746 -2.73616 22 1 
590.667 1.2035 6.56141 -0.0154403 0.0293445 6.5615 -2.71492 22 1 
592 1.20351 6.57462 -0.0152447 0.0290257 6.5747 -2.6917 22 1 
593.333 1.20351 6.58522 -0.0148948 0.0284792 6.58529 -2.68244 22 1 
594.667 1.20351 6.59231 -0.0145014 0.0279011 6.59238 -2.68625 22 1 
596 1.20351 6.59645 -0.0141905 0.0275081 6.59653 -2.6855 22 1 
597.333 1.20352 6.59929 -0.0140571 0.0274303 6.59936 -2.67908 22 1 
597.333 1.20352 6.59929 -0.0140571 0.0274303 6.59936 -2.67908 24 1 
598.667 1.20353 6.60252 -0.0141589 0.0276874 6.60259 -2.66293 24 1 
600 1.20353 6.60816 -0.0144658 0.0282291 6.60823 -2.64667 24 1 
601.333 1.20354 6.61742 -0.0148843 0.0289045 6.6175 -2.6383 24 1 
602.667 1.20354 6.6305 -0.0152811 0.0295372 6.63059 -2.63832 24 1 
604 1.20353 6.64704 -0.0155456 0.0299918 6.64713 -2.64899 24 1 
605.333 1.20353 6.66575 -0.015622 0.03017 6.66584 -2.65212 24 1 
606.667 1.20354 6.68497 -0.0154929 0.0300379 6.68505 -2.6438 24 1 
608 1.20355 6.70296 -0.0151958 0.0296338 6.70305 -2.62503 24 1 
609.333 1.20356 6.7183 -0.0147966 0.0290597 6.71838 -2.59515 24 1 
610.667 1.20358 6.73027 -0.0143846 0.0284744 6.73035 -2.57289 24 1 
612 1.20358 6.73901 -0.0140732 0.0280636 6.73909 -2.56658 24 1 
613.333 1.20358 6.74602 -0.0139573 0.0279793 6.7461 -2.57285 24 1 
614.667 1.20358 6.75375 -0.0140706 0.0282488 6.75382 -2.56919 24 1 
616 1.20359 6.76425 -0.0143756 0.0288038 6.76432 -2.54717 24 1 
617.333 1.2036 6.77892 -0.0147858 0.0295257 6.77901 -2.52228 24 1 
618.667 1.20362 6.79805 -0.0151957 0.0302439 6.79814 -2.49634 24 1 
618.667 1.20362 6.79805 -0.0151957 0.0302439 6.79814 -2.49634 24 1 
620 1.20362 6.82073 -0.0154964 0.0307837 6.82083 -2.48949 24 1 
621.333 1.20362 6.84581 -0.0156239 0.0310378 6.84591 -2.50004 24 1 
622.667 1.20361 6.87176 -0.0155629 0.0309654 6.87186 -2.50448 24 1 
624 1.20362 6.89702 -0.01529 0.0305644 6.89711 -2.49284 24 1 
625.333 1.20364 6.91965 -0.0148379 0.0299142 6.91974 -2.46105 24 1 
626.667 1.20365 6.93822 -0.0143121 0.0291559 6.9383 -2.43207 24 1 
628 1.20367 6.95257 -0.0138385 0.0284673 6.95265 -2.41081 24 1 
629.333 1.20367 6.96337 -0.0135322 0.0280364 6.96344 -2.40389 24 1 
630.667 1.20367 6.97303 -0.0134647 0.0279915 6.9731 -2.40778 24 1 
632 1.20368 6.98417 -0.0136274 0.0283226 6.98424 -2.39185 24 1 
633.333 1.20369 6.99833 -0.0138922 0.0288312 6.99841 -2.36752 24 1 
634.667 1.20371 7.01569 -0.0140424 0.0291729 7.01577 -2.33576 24 1 
636 1.20372 7.03418 -0.0138305 0.0289483 7.03426 -2.30738 24 1 
637.333 1.20373 7.04932 -0.0130628 0.0278367 7.04938 -2.29475 24 1 
638.667 1.20374 7.05538 -0.0117265 0.0258195 7.05544 -2.28303 24 1 
640 1.20374 7.04849 -0.0100299 0.0232321 7.04853 -2.28262 24 1 
640 1.20374 7.04849 -0.0100299 0.0232321 7.04853 -2.28262 24 1 
641.333 1.20374 7.02622 -0.00830623 0.0206013 7.02626 -2.27693 24 1 
642.667 1.20375 6.98979 -0.00688421 0.0184564 6.98983 -2.2614 24 1 
644 1.20375 6.94339 -0.00599571 0.0171443 6.94343 -2.25231 24 1 
645.333 1.20375 6.89169 -0.00573764 0.0167986 6.89174 -2.25116 24 1 
646.667 1.20375 6.84058 -0.00605685 0.0173189 6.84062 -2.26475 24 1 
648 1.20374 6.79443 -0.0068092 0.018469 6.79448 -2.27139 24 1 
649.333 1.20374 6.75651 -0.00781044 0.0200204 6.75655 -2.27207 24 1 
650.667 1.20374 6.72838 -0.00888947 0.0217286 6.72843 -2.26738 24 1 
652 1.20375 6.71043 -0.00993771 0.0234371 6.71048 -2.25457 24 1 
653.333 1.20375 6.70196 -0.0108843 0.0250199 6.70201 -2.25562 24 1 
654.667 1.20376 6.70173 -0.011722 0.0264076 6.70179 -2.24807 24 1 
656 1.20376 6.70934 -0.0124384 0.0275874 6.70941 -2.23433 24 1 
657.333 1.20377 6.72349 -0.01304 0.0285728 6.72357 -2.21573 24 1 
658.667 1.20379 6.74322 -0.0135405 0.0294204 6.7433 -2.18767 24 1 
660 1.2038 6.76744 -0.0139284 0.0301402 6.76753 -2.16533 24 1 
661.333 1.20381 6.79541 -0.0142348 0.0307633 6.7955 -2.14257 24 1 
661.333 1.20381 6.79541 -0.0142348 0.0307633 6.7955 -2.14257 24 1 
662.667 1.20382 6.8269 -0.0144886 0.0312834 6.82699 -2.13644 24 1 
664 1.20382 6.86137 -0.0146994 0.0317079 6.86147 -2.12215 24 1 
665.333 1.20384 6.89826 -0.0148657 0.0320586 6.89837 -2.09882 24 1 
666.667 1.20385 6.93757 -0.0149824 0.0323634 6.93768 -2.07973 24 1 
668 1.20386 6.97874 -0.0150725 0.0326332 6.97885 -2.05125 24 1 
669.333 1.20388 7.02164 -0.0151456 0.0328392 7.02175 -2.02773 24 1 
670.667 1.20389 7.06595 -0.0152045 0.0330071 7.06606 -2.00399 24 1 
672 1.20389 7.11126 -0.0152509 0.0331344 7.11137 -2.00075 24 1 
673.333 1.2039 7.15797 -0.015254 0.033231 7.15808 -1.99539 24 1 
674.667 1.20391 7.20533 -0.0152351 0.033323 7.20544 -1.97007 24 1 
676 1.20392 7.25403 -0.0152054 0.0333804 7.25415 -1.95 24 1 
677.333 1.20393 7.30331 -0.0151819 0.0334004 7.30342 -1.92716 24 1 
678.667 1.20394 7.35311 -0.015167 0.0333895 7.35322 -1.91141 24 1 
680 1.20395 7.40325 -0.0151452 0.0333582 7.40336 -1.90327 24 1 
681.333 1.20395 7.45366 -0.0151036 0.0333169 7.45377 -1.89921 24 1 
682.667 1.20395 7.50475 -0.0150267 0.0332517 7.50486 -1.89007 24 1 
682.667 1.20395 7.50475 -0.0150267 0.0332517 7.50486 -1.89007 31 1 
684 1.20397 7.55592 -0.014965 0.0331999 7.55603 -1.86471 31 1 
685.333 1.20398 7.60756 -0.0148981 0.0331216 7.60767 -1.84759 31 1 
686.667 1.20399 7.65898 -0.0148334 0.0330192 7.65909 -1.83086 31 1 
688 1.20399 7.71039 -0.0147894 0.0328934 7.7105 -1.81876 31 1 
689.333 1.20399 7.76158 -0.0147289 0.0327731 7.76168 -1.82612 31 1 
690.667 1.20399 7.81273 -0.0146396 0.0326669 7.81283 -1.83003 31 1 
692 1.20399 7.86392 -0.0145306 0.0325369 7.86402 -1.82006 31 1 
693.333 1.20401 7.91516 -0.0144452 0.0324153 7.91526 -1.7944 31 1 
694.667 1.20401 7.96624 -0.0143851 0.032261 7.96634 -1.78132 31 1 
696 1.20402 8.01698 -0.0143333 0.0321186 8.01708 -1.77401 31 1 
697.333 1.20402 8.06737 -0.014282 0.031975 8.06746 -1.76598 31 1 
698.667 1.20402 8.11758 -0.0142175 0.0318324 8.11767 -1.76939 31 1 
700 1.20402 8.16754 -0.0141316 0.0317067 8.16763 -1.77252 31 1 
701.333 1.20402 8.21756 -0.0140532 0.0315865 8.21765 -1.76586 31 1 
702.667 1.20403 8.26758 -0.0140124 0.0314632 8.26766 -1.75309 31 1 
704 1.20403 8.31731 -0.0139931 0.0313058 8.3174 -1.74464 31 1 
704 1.20403 8.31731 -0.0139931 0.0313058 8.3174 -1.74464 31 1 
705.333 1.20404 8.36707 -0.0139719 0.0311654 8.36716 -1.73998 31 1 
706.667 1.20404 8.41657 -0.0139477 0.0310352 8.41666 -1.73895 31 1 
708 1.20404 8.46628 -0.0139071 0.0309215 8.46637 -1.74183 31 1 
709.333 1.20404 8.51579 -0.0138682 0.0308122 8.51587 -1.73889 31 1 
710.667 1.20405 8.56526 -0.0138386 0.0306725 8.56534 -1.72108 31 1 
712 1.20405 8.6146 -0.0138083 0.030521 8.61468 -1.71405 31 1 
713.333 1.20405 8.66398 -0.0137924 0.0303517 8.66406 -1.71655 31 1 
714.667 1.20405 8.71305 -0.0137682 0.0301887 8.71313 -1.719 31 1 
716 1.20405 8.76133 -0.013731 0.0300308 8.76141 -1.72332 31 1 
717.333 1.20404 8.80939 -0.0136795 0.029876 8.80946 -1.7344 31 1 
718.667 1.20404 8.85769 -0.0136273 0.0297194 8.85776 -1.73322 31 1 
720 1.20405 8.90573 -0.0135814 0.0295155 8.9058 -1.7091 31 1 
721.333 1.20406 8.95298 -0.0135393 0.0293048 8.95306 -1.69614 31 1 
722.667 1.20406 8.99917 -0.0135045 0.0291032 8.99924 -1.70189 31 1 
724 1.20405 9.04498 -0.0134568 0.0288812 9.04506 -1.70862 31 1 
725.333 1.20405 9.0902 -0.0134132 0.0286344 9.09027 -1.71371 31 1 
725.333 1.20405 9.0902 -0.0134132 0.0286344 9.09027 -1.71371 31 1 
726.667 1.20405 9.13446 -0.0133478 0.028372 9.13453 -1.71967 31 1 
728 1.20405 9.17778 -0.0132533 0.0281266 9.17785 -1.72452 31 1 
729.333 1.20405 9.22037 -0.0131922 0.0278475 9.22044 -1.71302 31 1 
730.667 1.20406 9.26221 -0.0131345 0.0275489 9.26227 -1.69842 31 1 
732 1.20406 9.30233 -0.0130463 0.0272433 9.30239 -1.70049 31 1 
733.333 1.20406 9.34104 -0.0129461 0.02691 9.3411 -1.7009 31 1 
734.667 1.20406 9.37824 -0.0128525 0.0265646 9.37829 -1.69004 31 1 
736 1.20406 9.41418 -0.0127456 0.0261718 9.41424 -1.69422 31 1 
737.333 1.20405 9.44858 -0.0126195 0.0257887 9.44863 -1.70702 31 1 
738.667 1.20406 9.48102 -0.0125013 0.0254256 9.48107 -1.69291 31 1 
740 1.20407 9.51201 -0.0123927 0.0250561 9.51205 -1.68824 31 1 
741.333 1.20405 9.54172 -0.0122822 0.0247192 9.54177 -1.70805 31 1 
742.667 1.20405 9.56924 -0.0121836 0.024389 9.56929 -1.70874 31 1 
744 1.20406 9.59555 -0.0121035 0.024081 9.59559 -1.69732 31 1 
745.333 1.20405 9.62151 -0.0120406 0.0237779 9.62156 -1.71546 31 1 
746.667 1.20405 9.64625 -0.0120056 0.0234778 9.64629 -1.7125 31 1 
746.667 1.20405 9.64625 -0.0120056 0.0234778 9.64629 -1.7125 31 1 
748 1.20406 9.66929 -0.0119587 0.0232066 9.66933 -1.69763 31 1 
749.333 1.20404 9.69185 -0.0119265 0.0229763 9.69188 -1.72649 31 1 
750.667 1.20403 9.71411 -0.0119075 0.0228053 9.71415 -1.75762 31 1 
752 1.20403 9.73492 -0.0119271 0.0225583 9.73496 -1.7436 31 1 
753.333 1.20404 9.75562 -0.0119145 0.0223139 9.75565 -1.73731 31 1 
754.667 1.20402 9.77635 -0.0118841 0.022103 9.77639 -1.76327 31 1 
756 1.20403 9.79551 -0.0119171 0.02187 9.79555 -1.74936 31 1 
757.333 1.20404 9.81415 -0.011929 0.0216179 9.81418 -1.73937 31 1 
758.667 1.20403 9.83232 -0.0119235 0.0213399 9.83235 -1.7588 31 1 
760 1.20402 9.84905 -0.0118572 0.0210337 9.84908 -1.76185 31 1 
761.333 1.20403 9.86419 -0.0117994 0.0207173 9.86422 -1.7538 31 1 
762.667 1.20403 9.87858 -0.011767 0.0204043 9.87861 -1.75093 31 1 
764 1.20403 9.89168 -0.0116526 0.0200392 9.89171 -1.75024 31 1 
765.333 1.20405 9.90236 -0.0115205 0.0196475 9.90238 -1.72408 31 1 
766.667 1.20405 9.91163 -0.0114575 0.019273 9.91165 -1.72132 31 1 
768 1.20404 9.9195 -0.0114141 0.018873 9.91952 -1.73577 31 1 
768 1.20404 9.9195 -0.0114141 0.018873 9.91952 -1.73577 32 1 
769.333 1.20405 9.92568 -0.0113364 0.018478 9.9257 -1.72494 32 1 
770.667 1.20405 9.93045 -0.0112186 0.0181445 9.93048 -1.7125 32 1 
772 1.20405 9.93423 -0.0111455 0.0178539 9.93425 -1.71143 32 1 
773.333 1.20405 9.93681 -0.0111445 0.0175384 9.93684 -1.71762 32 1 
774.667 1.20406 9.93848 -0.0111639 0.0172405 9.9385 -1.70433 32 1 
776 1.20406 9.93985 -0.0111842 0.0170499 9.93987 -1.70412 32 1 
777.333 1.20405 9.94083 -0.0112233 0.0168937 9.94086 -1.71138 32 1 
778.667 1.20406 9.94137 -0.0112495 0.01671 9.94139 -1.70618 32 1 
780 1.20405 9.94175 -0.0112759 0.0165781 9.94177 -1.71567 32 1 
781.333 1.20404 9.9424 -0.011373 0.0164186 9.94242 -1.72874 32 1 
782.667 1.20404 9.94335 -0.0114423 0.0162832 9.94337 -1.73389 32 1 
784 1.20405 9.94432 -0.0114998 0.0161912 9.94434 -1.72256 32 1 
785.333 1.20405 9.94573 -0.0116421 0.0160488 9.94576 -1.7216 32 1 
786.667 1.20404 9.9472 -0.0117377 0.015906 9.94722 -1.73604 32 1 
788 1.20405 9.94869 -0.0117719 0.0157655 9.94871 -1.7111 32 1 
789.333 1.20406 9.95031 -0.0118586 0.0157246 9.95033 -1.70496 32 1 
790.667 1.20405 9.95175 -0.0119158 0.0156054 9.95177 -1.71503 32 1 
792 1.20405 9.95292 -0.0119257 0.0154126 9.95294 -1.71025 32 1 
793.333 1.20406 9.95431 -0.0119519 0.0151847 9.95433 -1.70241 32 1 
794.667 1.20407 9.95551 -0.0120407 0.0151056 9.95553 -1.68073 32 1 
796 1.20408 9.95657 -0.0120475 0.0149312 9.95659 -1.66636 32 1 
797.333 1.20409 9.95774 -0.0120509 0.0146865 9.95776 -1.64009 32 1 
798.667 1.20409 9.95884 -0.0122389 0.0146708 9.95886 -1.63939 32 1 
800 1.20408 9.95956 -0.0123621 0.014647 9.95958 -1.65818 32 1 
