59.7727;r ;Density                 ;Velocity u              ;Velocity v              ;Velocity w              ;|Velocity|              ;Pressure                ;Distribution            ;Levels                  ;
0 1.20454 10.0006 0.000172795 0.000257214 10.0006 -0.833529 1 1 
1.33334 1.20451 10.0018 3.20797e-05 3.92101e-05 10.0018 -0.88501 1 1 
2.66666 1.20448 10.0038 -0.00025124 -0.000382299 10.0039 -0.938991 1 1 
4 1.20444 10.0048 -0.000485841 -0.000740344 10.0048 -1.01594 1 1 
5.33334 1.20442 10.0057 -0.000634126 -0.000940922 10.0057 -1.05073 1 1 
6.66666 1.20446 10.0071 -0.000820411 -0.00116659 10.0072 -0.96978 1 1 
8 1.20449 10.0078 -0.00101208 -0.00140763 10.0078 -0.929783 1 1 
9.33334 1.20456 10.0082 -0.00114043 -0.00151246 10.0083 -0.786019 1 1 
10.6667 1.20468 10.0095 -0.00127738 -0.00162313 10.0096 -0.570717 1 1 
12 1.20477 10.0103 -0.00137695 -0.00168921 10.0104 -0.422177 1 1 
13.3333 1.20492 10.0105 -0.00142974 -0.00163612 10.0106 -0.152883 1 1 
14.6667 1.20507 10.011 -0.00146813 -0.00156354 10.0111 0.117604 1 1 
16 1.20518 10.0114 -0.00143098 -0.00139274 10.0115 0.322179 1 1 
17.3333 1.20532 10.0119 -0.00135649 -0.00114049 10.012 0.584052 1 1 
18.6667 1.20543 10.012 -0.00127923 -0.000882383 10.0121 0.783454 1 1 
20 1.20553 10.0121 -0.00108923 -0.00047345 10.0122 0.963125 1 1 
21.3333 1.20564 10.0129 -0.000893606 -6.24568e-05 10.0129 1.14997 1 1 
21.3333 1.20564 10.0129 -0.000893606 -6.24568e-05 10.0129 1.14997 1 1 
22.6667 1.20567 10.0125 -0.000657086 0.000381128 10.0126 1.20913 1 1 
24 1.2057 10.0124 -0.000341209 0.000960295 10.0124 1.26855 1 1 
25.3333 1.20574 10.013 -7.72853e-05 0.00145214 10.013 1.32928 1 1 
26.6667 1.20568 10.0131 0.000234526 0.00196079 10.0131 1.22234 1 1 
28 1.20562 10.013 0.000599227 0.00257605 10.013 1.12293 1 1 
29.3333 1.20556 10.0134 0.000908655 0.00309275 10.0134 1.01329 1 1 
30.6667 1.20543 10.0141 0.00122015 0.00357456 10.0142 0.783861 1 1 
32 1.20531 10.0147 0.00155058 0.00408741 10.0148 0.562592 1 1 
33.3333 1.20515 10.0147 0.00181769 0.00449303 10.0148 0.267435 1 1 
34.6667 1.20497 10.0152 0.0020778 0.00486891 10.0152 -0.0473504 1 1 
36 1.20483 10.0169 0.00227196 0.00514406 10.017 -0.299324 1 1 
37.3333 1.20464 10.0174 0.00240747 0.00532167 10.0175 -0.650154 1 1 
38.6667 1.20444 10.0179 0.00253988 0.00550017 10.018 -1.00268 1 1 
40 1.2043 10.0198 0.00257169 0.00551362 10.0199 -1.2637 1 1 
41.3333 1.20413 10.021 0.00252924 0.00541209 10.021 -1.57852 1 1 
42.6667 1.20397 10.0221 0.00248868 0.00534043 10.0221 -1.86776 1 1 
42.6667 1.20397 10.0221 0.00248868 0.00534043 10.0221 -1.86776 2 1 
44 1.20383 10.0233 0.0023467 0.00511073 10.0233 -2.12026 2 1 
45.3333 1.20367 10.0248 0.00212834 0.00474596 10.0249 -2.39788 2 1 
46.6667 1.20358 10.0266 0.00191876 0.00442672 10.0267 -2.55804 2 1 
48 1.20348 10.028 0.0016322 0.00400567 10.028 -2.74005 2 1 
49.3333 1.20337 10.029 0.00129391 0.00349765 10.029 -2.93674 2 1 
50.6667 1.20334 10.0308 0.000948128 0.00299128 10.0308 -2.99453 2 1 
52 1.20331 10.0319 0.000558299 0.00244702 10.0319 -3.05357 2 1 
53.3333 1.2033 10.0328 0.000200042 0.00197783 10.0328 -3.07247 2 1 
54.6667 1.20333 10.0344 -0.000196524 0.00143577 10.0344 -3.00751 2 1 
56 1.20337 10.0352 -0.000565065 0.000941355 10.0352 -2.94948 2 1 
57.3333 1.20346 10.036 -0.000839799 0.000629419 10.036 -2.7871 2 1 
58.6667 1.20357 10.037 -0.00116266 0.000256826 10.037 -2.58511 2 1 
60 1.20365 10.0376 -0.00141991 -3.70271e-05 10.0377 -2.4321 2 1 
61.3333 1.20379 10.0383 -0.00157581 -0.00014377 10.0383 -2.18016 2 1 
62.6667 1.20394 10.0392 -0.00170639 -0.000205199 10.0392 -1.92127 2 1 
64 1.20407 10.0394 -0.00178708 -0.000211246 10.0394 -1.68077 2 1 
64 1.20407 10.0394 -0.00178708 -0.000211246 10.0394 -1.68077 2 1 
65.3333 1.20422 10.0404 -0.00178348 -7.95212e-05 10.0404 -1.40741 2 1 
66.6667 1.20436 10.0406 -0.00171945 0.000146035 10.0407 -1.16421 2 1 
68 1.20449 10.0408 -0.00160234 0.000451898 10.0408 -0.917089 2 1 
69.3333 1.20465 10.0415 -0.00146265 0.000778791 10.0416 -0.623495 2 1 
70.6667 1.20476 10.0415 -0.00122212 0.00123501 10.0415 -0.424593 2 1 
72 1.20486 10.0419 -0.000918853 0.0018134 10.0419 -0.246922 2 1 
73.3333 1.205 10.0421 -0.000647098 0.00231525 10.0421 -0.00864179 2 1 
74.6667 1.20506 10.0424 -0.000317798 0.00287928 10.0425 0.117183 2 1 
76 1.20513 10.0429 9.27832e-05 0.00358328 10.0429 0.227093 2 1 
77.3333 1.20515 10.043 0.00044647 0.00418079 10.043 0.272896 2 1 
78.6667 1.20515 10.0432 0.00076229 0.00470757 10.0432 0.262202 2 1 
80 1.20517 10.044 0.00112767 0.00530984 10.044 0.3119 2 1 
81.3333 1.2051 10.0443 0.00145187 0.00584511 10.0443 0.178792 2 1 
82.6667 1.205 10.0438 0.0017179 0.00628882 10.0438 0.0071465 2 1 
84 1.20497 10.044 0.00191352 0.00662338 10.044 -0.0543651 2 1 
85.3333 1.20484 10.0453 0.00213024 0.00697346 10.0454 -0.282564 2 1 
85.3333 1.20484 10.0453 0.00213024 0.00697346 10.0454 -0.282564 3 1 
86.6667 1.2047 10.0458 0.00231328 0.00730008 10.0458 -0.541305 3 1 
88 1.2046 10.0459 0.00233994 0.00738417 10.0459 -0.724016 3 1 
89.3333 1.20446 10.0467 0.0023954 0.00746621 10.0467 -0.981119 3 1 
90.6667 1.2043 10.0482 0.00246062 0.00758921 10.0483 -1.27331 3 1 
92 1.20414 10.048 0.00237098 0.0074882 10.0481 -1.55069 3 1 
93.3333 1.20399 10.0474 0.0022444 0.00729793 10.0475 -1.82849 3 1 
94.6667 1.20384 10.0498 0.00210367 0.00711247 10.0498 -2.09895 3 1 
96 1.20369 10.0509 0.00189334 0.00683407 10.051 -2.36055 3 1 
97.3333 1.20356 10.0507 0.00161835 0.00643128 10.0507 -2.59541 3 1 
98.6667 1.20346 10.0519 0.00127191 0.00595564 10.0519 -2.78437 3 1 
100 1.20334 10.0534 0.00101687 0.00558279 10.0534 -2.99012 3 1 
101.333 1.20328 10.0539 0.000699058 0.0051525 10.0539 -3.11437 3 1 
102.667 1.20325 10.0542 0.000340268 0.00465498 10.0542 -3.15753 3 1 
104 1.2032 10.0564 0.000128902 0.00432635 10.0564 -3.24654 3 1 
105.333 1.20322 10.0584 -9.66716e-05 0.00405616 10.0584 -3.21486 3 1 
106.667 1.20325 10.0585 -0.000401613 0.00363562 10.0585 -3.156 3 1 
106.667 1.20325 10.0585 -0.000401613 0.00363562 10.0585 -3.156 3 1 
108 1.20327 10.0585 -0.00062708 0.00333605 10.0585 -3.131 3 1 
109.333 1.20335 10.06 -0.000739167 0.00322689 10.06 -2.98238 3 1 
110.667 1.20342 10.0607 -0.00094137 0.00298011 10.0608 -2.85316 3 1 
112 1.20349 10.0606 -0.00108157 0.00281761 10.0606 -2.72688 3 1 
113.333 1.20364 10.0622 -0.00113402 0.00281979 10.0622 -2.45585 3 1 
114.667 1.20373 10.0643 -0.0011456 0.00286313 10.0643 -2.29612 3 1 
116 1.20381 10.0643 -0.00111489 0.00293469 10.0643 -2.14472 3 1 
117.333 1.204 10.0627 -0.00108732 0.00307335 10.0627 -1.81504 3 1 
118.667 1.20407 10.0646 -0.000908528 0.00337827 10.0646 -1.67331 3 1 
120 1.20417 10.0646 -0.000707116 0.0037235 10.0646 -1.49571 3 1 
121.333 1.20431 10.0629 -0.000561384 0.0040117 10.0629 -1.25483 3 1 
122.667 1.20437 10.0643 -0.00030321 0.00444038 10.0643 -1.14122 3 1 
124 1.20445 10.0657 3.34014e-05 0.00498389 10.0657 -0.987793 3 1 
125.333 1.20449 10.0656 0.000281862 0.0054003 10.0656 -0.922854 3 1 
126.667 1.20452 10.0635 0.000524354 0.00581364 10.0635 -0.87427 3 1 
128 1.20454 10.0642 0.000876359 0.00637054 10.0642 -0.835981 3 1 
128 1.20454 10.0642 0.000876359 0.00637054 10.0642 -0.835981 3 1 
129.333 1.20452 10.0649 0.00114036 0.0068107 10.0649 -0.871212 3 1 
130.667 1.20449 10.063 0.00138873 0.00720414 10.063 -0.92911 3 1 
132 1.20445 10.0636 0.00164817 0.00766196 10.0636 -0.991407 3 1 
133.333 1.2044 10.0654 0.00192003 0.00811038 10.0654 -1.08599 3 1 
134.667 1.20431 10.0652 0.00212522 0.00844863 10.0652 -1.24564 3 1 
136 1.20424 10.0629 0.00228174 0.00874207 10.0629 -1.37279 3 1 
137.333 1.20415 10.0633 0.00247962 0.00910229 10.0633 -1.54318 3 1 
138.667 1.20404 10.0655 0.00263432 0.00935579 10.0655 -1.72853 3 1 
140 1.20395 10.0653 0.0026948 0.00948668 10.0653 -1.9037 3 1 
141.333 1.20385 10.0646 0.0027255 0.00963194 10.0647 -2.08136 3 1 
142.667 1.20376 10.0664 0.00279626 0.00978799 10.0664 -2.23478 3 1 
144 1.20367 10.0674 0.00275482 0.00977385 10.0674 -2.41071 3 1 
145.333 1.20359 10.0655 0.00269672 0.00973562 10.0655 -2.54746 3 1 
146.667 1.20355 10.0664 0.00262577 0.00974635 10.0664 -2.62075 3 1 
148 1.2035 10.0691 0.00255983 0.00968853 10.0692 -2.71606 3 1 
149.333 1.20345 10.069 0.00242679 0.00953088 10.069 -2.79328 3 1 
149.333 1.20345 10.069 0.00242679 0.00953088 10.069 -2.79328 3 1 
150.667 1.20346 10.0681 0.00229978 0.00943039 10.0681 -2.77684 3 1 
152 1.20347 10.0697 0.00220493 0.00938349 10.0697 -2.76842 3 1 
153.333 1.20346 10.0713 0.00208516 0.00924326 10.0713 -2.78327 3 1 
154.667 1.20348 10.0701 0.00191659 0.00905265 10.0702 -2.74571 3 1 
156 1.20353 10.0697 0.00180363 0.00897231 10.0697 -2.6556 3 1 
157.333 1.20357 10.072 0.00171706 0.00887935 10.072 -2.5775 3 1 
158.667 1.20361 10.0721 0.00157107 0.00870621 10.0721 -2.50335 3 1 
160 1.20367 10.0699 0.00149984 0.00865358 10.07 -2.40551 3 1 
161.333 1.20371 10.0707 0.00144052 0.00864221 10.0707 -2.32886 3 1 
162.667 1.20377 10.0716 0.00139052 0.00858117 10.0716 -2.22749 3 1 
164 1.20381 10.0697 0.00133744 0.00853303 10.0697 -2.14492 3 1 
165.333 1.20384 10.0694 0.00132793 0.00860483 10.0694 -2.10083 3 1 
166.667 1.20389 10.0696 0.00136633 0.00870363 10.0697 -1.99934 3 1 
168 1.20389 10.0697 0.00136919 0.00872248 10.0697 -1.99743 3 1 
169.333 1.20389 10.0683 0.00141765 0.00887864 10.0683 -2.00124 3 1 
170.667 1.20392 10.0677 0.00154208 0.00914814 10.0677 -1.94188 3 1 
170.667 1.20392 10.0677 0.00154208 0.00914814 10.0677 -1.94188 11 1 
172 1.2039 10.0694 0.00163222 0.00931218 10.0694 -1.98134 11 1 
173.333 1.20389 10.0677 0.00175196 0.00952369 10.0677 -2.0031 11 1 
174.667 1.20388 10.0661 0.00188153 0.00984273 10.0661 -2.01914 11 1 
176 1.20386 10.066 0.00200869 0.0101145 10.066 -2.06729 11 1 
177.333 1.20383 10.0658 0.00215483 0.0103351 10.0658 -2.11984 11 1 
178.667 1.2038 10.0648 0.00229664 0.0106215 10.0649 -2.16347 11 1 
180 1.20379 10.0642 0.00246291 0.0109931 10.0643 -2.1942 11 1 
181.333 1.20376 10.0665 0.00260445 0.0112652 10.0665 -2.23538 11 1 
182.667 1.20375 10.0669 0.00276707 0.0115515 10.0669 -2.2557 11 1 
184 1.20375 10.0644 0.0028896 0.0118641 10.0644 -2.25875 11 1 
185.333 1.20373 10.0636 0.00298125 0.0120954 10.0636 -2.29741 11 1 
186.667 1.20373 10.0631 0.00305088 0.0122555 10.0632 -2.29368 11 1 
188 1.20375 10.0627 0.00311912 0.0124374 10.0627 -2.25749 11 1 
189.333 1.20375 10.0638 0.00320709 0.012661 10.0638 -2.25955 11 1 
190.667 1.20378 10.0639 0.00324276 0.0127668 10.0639 -2.19827 11 1 
192 1.20381 10.0633 0.00328993 0.0129054 10.0633 -2.14949 11 1 
192 1.20381 10.0633 0.00328993 0.0129054 10.0633 -2.14949 11 1 
193.333 1.20381 10.062 0.0032898 0.0129716 10.062 -2.14876 11 1 
194.667 1.20382 10.0595 0.00317522 0.0129397 10.0595 -2.12452 11 1 
196 1.20385 10.0591 0.00320604 0.013016 10.0591 -2.08119 11 1 
197.333 1.20387 10.0604 0.00321215 0.0130331 10.0604 -2.03903 11 1 
198.667 1.2039 10.0586 0.00303401 0.0129231 10.0586 -1.99382 11 1 
200 1.20391 10.0571 0.00310722 0.0130317 10.0571 -1.97544 11 1 
201.333 1.20389 10.0564 0.00302631 0.0129805 10.0564 -2.00642 11 1 
202.667 1.20389 10.052 0.0027768 0.0127286 10.052 -2.00733 11 1 
204 1.20387 10.0502 0.00278235 0.0128092 10.0502 -2.04861 11 1 
205.333 1.20386 10.0519 0.00270988 0.0127797 10.0519 -2.06228 11 1 
206.667 1.20389 10.052 0.00268273 0.0127712 10.052 -2.00368 11 1 
208 1.20384 10.0516 0.00270007 0.0128361 10.0516 -2.09989 11 1 
209.333 1.20381 10.0485 0.00255791 0.0127845 10.0485 -2.14727 11 1 
210.667 1.20383 10.0446 0.00256505 0.0128649 10.0446 -2.11899 11 1 
212 1.20378 10.0421 0.00253268 0.012856 10.0421 -2.19804 11 1 
213.333 1.20377 10.0394 0.0024475 0.0129165 10.0394 -2.22565 11 1 
213.333 1.20377 10.0394 0.0024475 0.0129165 10.0394 -2.22565 11 1 
214.667 1.20379 10.0386 0.0024654 0.0130858 10.0387 -2.18024 11 1 
216 1.2038 10.0402 0.0025068 0.013227 10.0402 -2.17457 11 1 
217.333 1.20379 10.0404 0.00254183 0.0133202 10.0404 -2.19189 11 1 
218.667 1.20383 10.0377 0.00252664 0.0134734 10.0377 -2.1094 11 1 
220 1.20386 10.0357 0.00260047 0.0137065 10.0357 -2.05048 11 1 
221.333 1.20387 10.0325 0.00270492 0.0138508 10.0326 -2.03802 11 1 
222.667 1.2039 10.0262 0.00267422 0.0139237 10.0262 -1.98817 11 1 
224 1.20393 10.0245 0.002624 0.0140535 10.0245 -1.93756 11 1 
225.333 1.20401 10.0249 0.0026698 0.0141959 10.0249 -1.79592 11 1 
226.667 1.20407 10.0235 0.00280205 0.0143486 10.0236 -1.67245 11 1 
228 1.20409 10.022 0.00287657 0.0145425 10.022 -1.63879 11 1 
229.333 1.20415 10.0166 0.0028735 0.0146898 10.0166 -1.53696 11 1 
230.667 1.20419 10.0116 0.00282265 0.0146706 10.0116 -1.45969 11 1 
232 1.20419 10.0079 0.00283535 0.0146667 10.0079 -1.47057 11 1 
233.333 1.20425 10.0041 0.00290129 0.0148116 10.0041 -1.35631 11 1 
234.667 1.20434 10.0028 0.00302044 0.0149844 10.0028 -1.19076 11 1 
234.667 1.20434 10.0028 0.00302044 0.0149844 10.0028 -1.19076 11 1 
236 1.2043 10.0004 0.0030591 0.0150467 10.0004 -1.26585 11 1 
237.333 1.20431 9.99241 0.00299981 0.0149967 9.99242 -1.24111 11 1 
238.667 1.20437 9.98528 0.00291913 0.0149735 9.98529 -1.14713 11 1 
240 1.20434 9.98296 0.00292364 0.0150362 9.98297 -1.20031 11 1 
241.333 1.20439 9.97691 0.0030352 0.0151783 9.97692 -1.10435 11 1 
242.667 1.20438 9.97409 0.00309426 0.015297 9.9741 -1.12249 11 1 
244 1.20442 9.96802 0.00306793 0.0153333 9.96804 -1.05598 11 1 
245.333 1.20441 9.96037 0.00296732 0.0152839 9.96039 -1.06585 11 1 
246.667 1.2044 9.95331 0.00309533 0.0155205 9.95332 -1.08962 11 1 
248 1.20449 9.94503 0.00302551 0.01554 9.94505 -0.914896 11 1 
249.333 1.20449 9.94183 0.00317632 0.0157751 9.94184 -0.919667 11 1 
250.667 1.20454 9.93294 0.00326903 0.0159679 9.93295 -0.829634 11 1 
252 1.20457 9.92483 0.00303635 0.0158209 9.92484 -0.78056 11 1 
253.333 1.20469 9.91354 0.00313964 0.0160619 9.91355 -0.560739 11 1 
254.667 1.20474 9.90629 0.00318148 0.0161753 9.90631 -0.477837 11 1 
256 1.20478 9.89732 0.00315183 0.0162336 9.89734 -0.405975 11 1 
256 1.20478 9.89732 0.00315183 0.0162336 9.89734 -0.405975 13 1 
257.333 1.20494 9.88399 0.00324366 0.016444 9.884 -0.103196 13 1 
258.667 1.20499 9.87516 0.00313212 0.0164014 9.87518 -0.0230849 13 1 
260 1.20508 9.86142 0.00312077 0.0164212 9.86143 0.14523 13 1 
261.333 1.20524 9.84534 0.00325156 0.0165862 9.84536 0.438378 13 1 
262.667 1.20537 9.82979 0.00321213 0.0166622 9.82981 0.675005 13 1 
264 1.20541 9.81959 0.00317059 0.0166448 9.8196 0.732841 13 1 
265.333 1.20559 9.80133 0.00314561 0.0166265 9.80134 1.06026 13 1 
266.667 1.20583 9.77553 0.00316822 0.0167618 9.77555 1.49948 13 1 
268 1.20578 9.76018 0.00311724 0.0167464 9.7602 1.40557 13 1 
269.333 1.20597 9.73791 0.00311609 0.0166687 9.73792 1.7476 13 1 
270.667 1.20635 9.70527 0.00306715 0.016644 9.70529 2.44266 13 1 
272 1.20619 9.69258 0.00303727 0.016693 9.6926 2.15079 13 1 
273.333 1.20646 9.66067 0.00305331 0.0166758 9.6607 2.6289 13 1 
274.667 1.20696 9.61702 0.00300161 0.0166158 9.61705 3.54082 13 1 
276 1.20679 9.59508 0.00295138 0.0166241 9.59511 3.23222 13 1 
277.333 1.20709 9.54848 0.00290402 0.0165907 9.54851 3.78015 13 1 
277.333 1.20709 9.54848 0.00290402 0.0165907 9.54851 3.78015 13 1 
278.667 1.20756 9.50313 0.00289874 0.0165244 9.50317 4.62661 13 1 
280 1.20764 9.4613 0.00288974 0.0165629 9.46134 4.76482 13 1 
281.333 1.20793 9.40244 0.00285533 0.0166377 9.40246 5.29186 13 1 
282.667 1.20831 9.35724 0.00282583 0.0166304 9.35726 5.97969 13 1 
284 1.20882 9.31077 0.00280578 0.0165983 9.31079 6.89397 13 1 
285.333 1.20932 9.2482 0.00276204 0.0165612 9.24827 7.8102 13 1 
286.667 1.20958 9.16293 0.00269453 0.0164389 9.1631 8.26581 13 1 
288 1.2099 9.06092 0.00265407 0.0163527 9.06107 8.85036 13 1 
289.333 1.21051 8.97879 0.0026276 0.0163947 8.97883 9.95308 13 1 
290.667 1.21132 8.90245 0.00258524 0.0163823 8.90249 11.4103 13 1 
292 1.21192 8.80712 0.00255464 0.0162597 8.80718 12.4902 13 1 
293.333 1.21227 8.70707 0.00252093 0.0161915 8.70717 13.1223 13 1 
294.667 1.21292 8.58934 0.00247467 0.0161208 8.58954 14.311 13 1 
296 1.21377 8.46625 0.00240919 0.0160416 8.4664 15.8347 13 1 
297.333 1.21428 8.35859 0.00237262 0.015896 8.35865 16.762 13 1 
298.667 1.20855 8.18743 0.0022794 0.0155203 8.18757 6.41262 13 1 
298.667 1.20855 8.18743 0.0022794 0.0155203 8.18757 6.41262 14 1 
300 1.19891 8.13542 0.00219725 0.0154458 8.13553 -11.0083 14 1 
301.333 1.19542 8.14686 0.0022041 0.0154575 8.14695 -17.296 14 1 
302.667 1.19621 8.04191 0.00212952 0.0152816 8.04201 -15.8812 14 1 
304 1.19685 7.92695 0.00209582 0.0152178 7.92706 -14.7221 14 1 
305.333 1.19725 7.81206 0.0020678 0.0150875 7.81227 -13.9945 14 1 
306.667 1.19776 7.71251 0.00196754 0.0148779 7.71267 -13.0752 14 1 
308 1.19821 7.60911 0.00194745 0.0147961 7.60918 -12.2733 14 1 
309.333 1.19864 7.52205 0.00188531 0.0147553 7.5221 -11.4835 14 1 
310.667 1.19913 7.44907 0.00185634 0.0147384 7.44911 -10.6113 14 1 
312 1.19952 7.37218 0.00184768 0.0146679 7.37221 -9.89126 14 1 
313.333 1.19988 7.30961 0.00177515 0.014476 7.30964 -9.24694 14 1 
314.667 1.20024 7.24788 0.00175844 0.0144107 7.24792 -8.60272 14 1 
316 1.20047 7.17847 0.00169778 0.0142754 7.17853 -8.18277 14 1 
317.333 1.20071 7.12172 0.00165134 0.0140675 7.12178 -7.74214 14 1 
318.667 1.20107 7.07244 0.00163862 0.0139446 7.07249 -7.10227 14 1 
320 1.20128 7.0179 0.00158656 0.0138771 7.01795 -6.71383 14 1 
320 1.20128 7.0179 0.00158656 0.0138771 7.01795 -6.71383 14 1 
321.333 1.20136 6.96537 0.00154023 0.013798 6.96543 -6.58301 14 1 
322.667 1.20155 6.91976 0.00152662 0.0137177 6.91982 -6.22407 14 1 
324 1.20179 6.87557 0.001527 0.0136711 6.87562 -5.79889 14 1 
325.333 1.20189 6.83779 0.00151199 0.0137216 6.83781 -5.61986 14 1 
326.667 1.20203 6.80929 0.00149424 0.0137956 6.80931 -5.35636 14 1 
328 1.20226 6.78065 0.00148632 0.0138161 6.78067 -4.95107 14 1 
329.333 1.20238 6.75228 0.00147563 0.0138324 6.7523 -4.73301 14 1 
330.667 1.20243 6.7261 0.00146496 0.0138789 6.72612 -4.6443 14 1 
332 1.20253 6.70577 0.0014549 0.0139078 6.70579 -4.46803 14 1 
333.333 1.20273 6.69678 0.00144474 0.0139217 6.69679 -4.10547 14 1 
334.667 1.2029 6.68207 0.00143647 0.013934 6.68208 -3.79537 14 1 
336 1.2029 6.65749 0.00141008 0.0138742 6.6575 -3.79597 14 1 
337.333 1.20293 6.64123 0.0013782 0.0137773 6.64124 -3.7382 14 1 
338.667 1.20311 6.63177 0.00136739 0.0137119 6.63179 -3.40911 14 1 
340 1.20327 6.62295 0.00137466 0.0136543 6.62297 -3.13005 14 1 
341.333 1.20329 6.60704 0.00135332 0.0135509 6.60706 -3.09087 14 1 
341.333 1.20329 6.60704 0.00135332 0.0135509 6.60706 -3.09087 15 1 
342.667 1.20326 6.58041 0.00129488 0.0134185 6.58043 -3.14677 15 1 
344 1.20336 6.56471 0.00127648 0.01332 6.56473 -2.97142 15 1 
345.333 1.20351 6.55899 0.00130879 0.0132466 6.559 -2.68273 15 1 
346.667 1.20356 6.54345 0.00129492 0.0131293 6.54346 -2.60015 15 1 
348 1.20357 6.52122 0.00123441 0.0129863 6.52124 -2.57688 15 1 
349.333 1.20359 6.49755 0.00122474 0.0129413 6.49757 -2.53865 15 1 
350.667 1.20365 6.48332 0.00127375 0.0129649 6.48334 -2.44325 15 1 
352 1.20376 6.47749 0.0013011 0.0129084 6.47751 -2.24606 15 1 
353.333 1.20378 6.45659 0.0012587 0.0128251 6.45661 -2.20519 15 1 
354.667 1.20378 6.43268 0.00120208 0.0128096 6.4327 -2.20911 15 1 
356 1.20385 6.42219 0.00121752 0.0128519 6.42221 -2.07602 15 1 
357.333 1.2039 6.41075 0.00125693 0.0128842 6.41076 -1.98904 15 1 
358.667 1.20394 6.39788 0.00121938 0.0128899 6.3979 -1.92127 15 1 
360 1.20397 6.38454 0.00114871 0.0128858 6.38456 -1.86109 15 1 
361.333 1.20398 6.36883 0.00117141 0.0129614 6.36884 -1.84699 15 1 
362.667 1.20402 6.36046 0.00124127 0.0130861 6.36048 -1.76238 15 1 
362.667 1.20402 6.36046 0.00124127 0.0130861 6.36048 -1.76238 15 1 
364 1.20408 6.35437 0.00123419 0.0131768 6.35439 -1.66599 15 1 
365.333 1.20411 6.34564 0.00119183 0.0132259 6.34565 -1.60403 15 1 
366.667 1.20415 6.33822 0.00120812 0.0132939 6.33823 -1.54088 15 1 
368 1.20417 6.33013 0.00124387 0.0133914 6.33015 -1.4923 15 1 
369.333 1.20421 6.32569 0.00125799 0.0135201 6.3257 -1.4349 15 1 
370.667 1.20422 6.32337 0.00127064 0.01362 6.32338 -1.40992 15 1 
372 1.20424 6.31817 0.00126417 0.0136382 6.31818 -1.37433 15 1 
373.333 1.2043 6.31587 0.00125697 0.0136532 6.31588 -1.27097 15 1 
374.667 1.20433 6.31373 0.00128757 0.013753 6.31375 -1.21522 15 1 
376 1.20435 6.31116 0.00129573 0.0138147 6.31118 -1.1709 15 1 
377.333 1.20439 6.31265 0.00124294 0.0137641 6.31267 -1.09441 15 1 
378.667 1.20441 6.31117 0.00121642 0.0137301 6.31119 -1.06733 15 1 
380 1.20443 6.30834 0.00125982 0.0137925 6.30836 -1.03273 15 1 
381.333 1.20445 6.30896 0.00127886 0.0138307 6.30898 -0.988998 15 1 
382.667 1.20446 6.30778 0.00124783 0.0137898 6.3078 -0.973083 15 1 
384 1.20449 6.30745 0.00124938 0.013754 6.30746 -0.91925 15 1 
384 1.20449 6.30745 0.00124938 0.013754 6.30746 -0.91925 15 1 
385.333 1.20453 6.30854 0.0012537 0.0137488 6.30856 -0.856323 15 1 
386.667 1.20455 6.30659 0.00120552 0.0136912 6.3066 -0.805859 15 1 
388 1.20459 6.3056 0.00117708 0.0136263 6.30562 -0.740459 15 1 
389.333 1.20461 6.30549 0.00116005 0.0135719 6.3055 -0.710201 15 1 
390.667 1.20461 6.3037 0.00108242 0.0134528 6.30372 -0.708118 15 1 
392 1.20462 6.30216 0.00103555 0.0133491 6.30218 -0.688003 15 1 
393.333 1.20463 6.29942 0.00106853 0.0133162 6.29943 -0.661525 15 1 
394.667 1.20465 6.29639 0.00106906 0.0132312 6.2964 -0.632695 15 1 
396 1.20467 6.29485 0.00100231 0.0130662 6.29486 -0.59026 15 1 
397.333 1.2047 6.29213 0.000967509 0.0129735 6.29215 -0.537639 15 1 
398.667 1.20472 6.28863 0.0010021 0.0129809 6.28865 -0.50356 15 1 
400 1.20473 6.28476 0.001012 0.012915 6.28477 -0.493055 15 1 
401.333 1.20474 6.28017 0.000954054 0.0127507 6.28019 -0.462678 15 1 
402.667 1.20476 6.27659 0.000884015 0.0126158 6.27661 -0.430352 15 1 
404 1.20476 6.27195 0.000828669 0.0125025 6.27196 -0.441796 15 1 
405.333 1.20475 6.26589 0.000778519 0.0123805 6.2659 -0.447679 15 1 
405.333 1.20475 6.26589 0.000778519 0.0123805 6.2659 -0.447679 15 1 
406.667 1.20478 6.26148 0.000721584 0.0122597 6.26149 -0.405273 15 1 
408 1.2048 6.25699 0.000671921 0.0121314 6.257 -0.357506 15 1 
409.333 1.20481 6.25136 0.000659971 0.0120198 6.25138 -0.337773 15 1 
410.667 1.20482 6.24587 0.000654812 0.0119659 6.24588 -0.329574 15 1 
412 1.20483 6.24021 0.000606277 0.0119397 6.24022 -0.304024 15 1 
413.333 1.20485 6.23535 0.000533342 0.0118619 6.23536 -0.270389 15 1 
414.667 1.20485 6.23014 0.000474635 0.0117036 6.23016 -0.264883 15 1 
416 1.20485 6.22334 0.000429459 0.0115514 6.22335 -0.270513 15 1 
417.333 1.20486 6.21773 0.000368997 0.0114152 6.21774 -0.256618 15 1 
418.667 1.20487 6.21246 0.000314534 0.011295 6.21247 -0.243263 15 1 
420 1.20487 6.20581 0.000365954 0.0113173 6.20582 -0.232371 15 1 
421.333 1.20489 6.2002 0.000501511 0.0114652 6.20021 -0.206998 15 1 
422.667 1.2049 6.19546 0.000538704 0.0114747 6.19547 -0.182301 15 1 
424 1.20491 6.19056 0.000340891 0.0112002 6.19057 -0.171312 15 1 
425.333 1.20491 6.18574 -4.12137e-05 0.0107731 6.18575 -0.164847 15 1 
426.667 1.20491 6.1803 -0.000377772 0.0104281 6.18031 -0.154306 15 1 
426.667 1.20491 6.1803 -0.000377772 0.0104281 6.18031 -0.154306 20 1 
428 1.20492 6.1755 -0.000483082 0.0102913 6.17551 -0.143307 20 1 
429.333 1.20492 6.17178 -0.000382171 0.0103686 6.17179 -0.135886 20 1 
430.667 1.20493 6.16774 -0.000208745 0.0105515 6.16775 -0.128729 20 1 
432 1.20493 6.16413 -8.50947e-05 0.0106689 6.16414 -0.121786 20 1 
433.333 1.20494 6.16101 -5.97996e-05 0.0106532 6.16102 -0.111185 20 1 
434.667 1.20495 6.15801 -0.000110318 0.0105598 6.15802 -0.0897353 20 1 
436 1.20496 6.15561 -0.000215859 0.0104192 6.15562 -0.0705874 20 1 
437.333 1.20496 6.153 -0.000331105 0.0102742 6.15301 -0.0660998 20 1 
438.667 1.20497 6.1506 -0.000406458 0.0101762 6.1506 -0.0611816 20 1 
440 1.20497 6.14892 -0.000474332 0.0101084 6.14893 -0.0483124 20 1 
441.333 1.20498 6.14701 -0.000555844 0.0100114 6.14702 -0.0377997 20 1 
442.667 1.20498 6.14571 -0.000627565 0.0098867 6.14572 -0.0291623 20 1 
444 1.20499 6.14502 -0.000684369 0.00979782 6.14503 -0.0202303 20 1 
445.333 1.20499 6.14372 -0.000732666 0.00975476 6.14373 -0.0139393 20 1 
446.667 1.205 6.14301 -0.000780175 0.00968694 6.14302 -0.00366316 20 1 
448 1.20501 6.14296 -0.000826652 0.00959241 6.14297 0.00902341 20 1 
448 1.20501 6.14296 -0.000826652 0.00959241 6.14297 0.00902341 20 1 
449.333 1.20501 6.14248 -0.000875534 0.00950682 6.14249 0.010705 20 1 
450.667 1.205 6.14234 -0.000927844 0.00942847 6.14235 0.00755225 20 1 
452 1.20501 6.14259 -0.000960163 0.0093571 6.1426 0.0125312 20 1 
453.333 1.20501 6.14284 -0.000975005 0.00929648 6.14285 0.0246861 20 1 
454.667 1.20502 6.14357 -0.00100198 0.0092244 6.14358 0.0413307 20 1 
456 1.20503 6.14449 -0.00102082 0.00916365 6.14449 0.0555429 20 1 
457.333 1.20503 6.1453 -0.00100823 0.0091152 6.14531 0.0564946 20 1 
458.667 1.20503 6.14606 -0.000993422 0.00905083 6.14607 0.0491215 20 1 
460 1.20503 6.14701 -0.000980735 0.00901261 6.14702 0.0519047 20 1 
461.333 1.20504 6.14856 -0.000971086 0.00899078 6.14857 0.0648449 20 1 
462.667 1.20504 6.15005 -0.000966159 0.00891323 6.15006 0.0674645 20 1 
464 1.20503 6.15134 -0.000942403 0.0088281 6.15135 0.0596307 20 1 
465.333 1.20503 6.15294 -0.000904976 0.0088107 6.15295 0.0538571 20 1 
466.667 1.20503 6.15454 -0.00087737 0.00881138 6.15455 0.0514078 20 1 
468 1.20503 6.1566 -0.000857539 0.00874861 6.15661 0.0629573 20 1 
469.333 1.20505 6.15925 -0.000829255 0.00867116 6.15926 0.0826616 20 1 
469.333 1.20505 6.15925 -0.000829255 0.00867116 6.15926 0.0826616 20 1 
470.667 1.20505 6.16119 -0.000785097 0.00866039 6.1612 0.0872808 20 1 
472 1.20505 6.16302 -0.000740429 0.00866825 6.16302 0.0868054 20 1 
473.333 1.20505 6.16565 -0.000712882 0.00863073 6.16565 0.0922127 20 1 
474.667 1.20505 6.16789 -0.000690836 0.00858248 6.1679 0.0940459 20 1 
476 1.20505 6.16981 -0.000666946 0.00855406 6.16981 0.0919566 20 1 
477.333 1.20505 6.17205 -0.000646881 0.0085152 6.17206 0.0900408 20 1 
478.667 1.20505 6.17416 -0.000632887 0.0084648 6.17416 0.08508 20 1 
480 1.20504 6.17612 -0.000620359 0.00841575 6.17613 0.0768873 20 1 
481.333 1.20504 6.1782 -0.000607919 0.00837456 6.17821 0.0745371 20 1 
482.667 1.20504 6.18037 -0.000592587 0.00832808 6.18038 0.080622 20 1 
484 1.20505 6.18251 -0.000578153 0.00825902 6.18251 0.0851521 20 1 
485.333 1.20505 6.18447 -0.000571138 0.00819473 6.18448 0.0841213 20 1 
486.667 1.20505 6.18638 -0.000558149 0.00815611 6.18639 0.085802 20 1 
488 1.20505 6.18836 -0.000545733 0.00810648 6.18837 0.092063 20 1 
489.333 1.20506 6.19045 -0.000547744 0.00802941 6.19046 0.0997334 20 1 
490.667 1.20506 6.19253 -0.000552263 0.00795675 6.19254 0.103807 20 1 
490.667 1.20506 6.19253 -0.000552263 0.00795675 6.19254 0.103807 20 1 
492 1.20505 6.19418 -0.000544595 0.00790161 6.19419 0.0969219 20 1 
493.333 1.20505 6.19564 -0.000539625 0.00783062 6.19564 0.0855769 20 1 
494.667 1.20504 6.19765 -0.000542339 0.00775143 6.19765 0.0805238 20 1 
496 1.20504 6.19975 -0.000542566 0.00768161 6.19975 0.0799774 20 1 
497.333 1.20504 6.20139 -0.00054064 0.00761464 6.20139 0.0738825 20 1 
498.667 1.20504 6.20311 -0.000538918 0.0075419 6.20311 0.0647104 20 1 
500 1.20503 6.20515 -0.00055522 0.00747723 6.20516 0.060884 20 1 
501.333 1.20503 6.20729 -0.000566483 0.00742537 6.20729 0.0578869 20 1 
502.667 1.20503 6.2094 -0.000556066 0.00736683 6.20941 0.057204 20 1 
504 1.20504 6.21155 -0.000551865 0.00729861 6.21156 0.0636992 20 1 
505.333 1.20504 6.2136 -0.000561558 0.00723149 6.21361 0.0672532 20 1 
506.667 1.20503 6.21554 -0.000572593 0.00717971 6.21554 0.0583963 20 1 
508 1.20503 6.21753 -0.000571803 0.00714721 6.21753 0.0482046 20 1 
509.333 1.20502 6.21948 -0.000569612 0.0071049 6.21949 0.0431497 20 1 
510.667 1.20502 6.22135 -0.000569744 0.00703981 6.22136 0.0362508 20 1 
512 1.20502 6.22322 -0.000560617 0.00698414 6.22323 0.0319099 20 1 
512 1.20502 6.22322 -0.000560617 0.00698414 6.22323 0.0319099 21 1 
513.333 1.20502 6.22512 -0.0005649 0.0069481 6.22512 0.0306976 21 1 
514.667 1.20501 6.22683 -0.000588907 0.00687338 6.22683 0.0258122 21 1 
516 1.20501 6.22844 -0.00060384 0.00679162 6.22845 0.0177464 21 1 
517.333 1.20501 6.23006 -0.000620873 0.00673202 6.23007 0.00906523 21 1 
518.667 1.205 6.23147 -0.000640644 0.00667411 6.23147 -0.00121505 21 1 
520 1.20499 6.23282 -0.00064227 0.00661084 6.23283 -0.00936841 21 1 
521.333 1.20499 6.23439 -0.000646072 0.0065355 6.23439 -0.0114242 21 1 
522.667 1.20499 6.23588 -0.000676557 0.00644953 6.23589 -0.0127088 21 1 
524 1.20499 6.23718 -0.000702998 0.00634514 6.23718 -0.0148448 21 1 
525.333 1.20499 6.23845 -0.000697792 0.00625454 6.23846 -0.0154397 21 1 
526.667 1.20499 6.23963 -0.000709056 0.00618036 6.23963 -0.013891 21 1 
528 1.20499 6.24094 -0.000763356 0.00608382 6.24094 -0.0122422 21 1 
529.333 1.20499 6.24229 -0.000808945 0.00597045 6.24229 -0.0129955 21 1 
530.667 1.20499 6.24328 -0.000821691 0.00585318 6.24328 -0.0192107 21 1 
532 1.20499 6.24428 -0.000844333 0.00573493 6.24428 -0.024509 21 1 
533.333 1.20499 6.24542 -0.000865975 0.00562039 6.24543 -0.0228028 21 1 
533.333 1.20499 6.24542 -0.000865975 0.00562039 6.24543 -0.0228028 21 1 
534.667 1.20499 6.24639 -0.000871913 0.00552653 6.24639 -0.0206798 21 1 
536 1.20499 6.24743 -0.000894423 0.00541307 6.24743 -0.0105532 21 1 
537.333 1.205 6.24872 -0.000946346 0.00529072 6.24872 0.00857759 21 1 
538.667 1.20501 6.24984 -0.000989897 0.00518854 6.24984 0.0189768 21 1 
540 1.20501 6.25059 -0.00101018 0.00506717 6.25059 0.0193868 21 1 
541.333 1.20501 6.25123 -0.00102051 0.00494585 6.25124 0.0235691 21 1 
542.667 1.20502 6.25214 -0.00101881 0.00483571 6.25214 0.0384487 21 1 
544 1.20503 6.25303 -0.00103222 0.00472913 6.25303 0.0589201 21 1 
545.333 1.20504 6.25351 -0.00105095 0.00462027 6.25351 0.078746 21 1 
546.667 1.20505 6.25383 -0.00106803 0.00452807 6.25383 0.0968734 21 1 
548 1.20506 6.25426 -0.00107575 0.00446569 6.25426 0.113537 21 1 
549.333 1.20507 6.25473 -0.00107005 0.00438768 6.25473 0.131583 21 1 
550.667 1.20508 6.25499 -0.00106134 0.00428331 6.25499 0.151494 21 1 
552 1.20509 6.25477 -0.00104189 0.00418415 6.25477 0.168009 21 1 
553.333 1.2051 6.2544 -0.0010188 0.00410244 6.2544 0.184971 21 1 
554.667 1.20511 6.25403 -0.00101299 0.0040249 6.25404 0.203773 21 1 
554.667 1.20511 6.25403 -0.00101299 0.0040249 6.25404 0.203773 22 1 
556 1.20512 6.25334 -0.00100243 0.00397579 6.25334 0.215924 22 1 
557.333 1.20512 6.25254 -0.000983597 0.00395151 6.25254 0.225789 22 1 
558.667 1.20513 6.25173 -0.000972601 0.00391157 6.25174 0.237179 22 1 
560 1.20514 6.25076 -0.000953001 0.00385606 6.25077 0.248973 22 1 
561.333 1.20515 6.24978 -0.000928953 0.00379633 6.24978 0.265444 22 1 
562.667 1.20515 6.24867 -0.000895269 0.00373356 6.24867 0.27992 22 1 
564 1.20516 6.24707 -0.000861506 0.00367943 6.24707 0.28571 22 1 
565.333 1.20516 6.24518 -0.000836053 0.00365419 6.24518 0.2868 22 1 
566.667 1.20516 6.24336 -0.000821939 0.00365319 6.24336 0.289252 22 1 
568 1.20517 6.24184 -0.000828329 0.00366383 6.24184 0.298971 22 1 
569.333 1.20517 6.24053 -0.000846126 0.00365509 6.24053 0.314011 22 1 
570.667 1.20518 6.23918 -0.000850567 0.0036281 6.23918 0.324893 22 1 
572 1.20518 6.23764 -0.000823125 0.00358488 6.23765 0.329264 22 1 
573.333 1.20518 6.23588 -0.000783209 0.00353668 6.23588 0.330924 22 1 
574.667 1.20519 6.23415 -0.000757636 0.00349623 6.23415 0.337607 22 1 
576 1.20519 6.23246 -0.000769525 0.00346944 6.23246 0.350635 22 1 
576 1.20519 6.23246 -0.000769525 0.00346944 6.23246 0.350635 22 1 
577.333 1.2052 6.23078 -0.000814487 0.00348102 6.23078 0.361592 22 1 
578.667 1.20521 6.22942 -0.000859938 0.0035183 6.22942 0.372687 22 1 
580 1.20521 6.22851 -0.000897752 0.00354871 6.22851 0.381714 22 1 
581.333 1.20521 6.22772 -0.000920236 0.00352869 6.22772 0.386893 22 1 
582.667 1.20522 6.22693 -0.00092105 0.00347938 6.22693 0.394438 22 1 
584 1.20522 6.2261 -0.000912761 0.00339512 6.2261 0.40615 22 1 
585.333 1.20523 6.22514 -0.000916126 0.00331386 6.22514 0.42288 22 1 
586.667 1.20524 6.22414 -0.000938847 0.00329646 6.22414 0.434984 22 1 
588 1.20524 6.2231 -0.000987453 0.00333931 6.2231 0.440328 22 1 
589.333 1.20525 6.22252 -0.00106462 0.00341289 6.22252 0.447772 22 1 
590.667 1.20526 6.22262 -0.00115158 0.00346156 6.22262 0.460976 22 1 
592 1.20526 6.22305 -0.00122192 0.00348354 6.22305 0.477154 22 1 
593.333 1.20527 6.22355 -0.00125287 0.00344549 6.22355 0.490755 22 1 
594.667 1.20528 6.22382 -0.00125264 0.00336902 6.22382 0.503493 22 1 
596 1.20529 6.22378 -0.00124103 0.00331275 6.22378 0.5181 22 1 
597.333 1.20529 6.22351 -0.00126241 0.0032976 6.22351 0.532042 22 1 
597.333 1.20529 6.22351 -0.00126241 0.0032976 6.22351 0.532042 24 1 
598.667 1.2053 6.22318 -0.00132755 0.00334463 6.22319 0.540602 24 1 
600 1.20531 6.22317 -0.00143109 0.0034449 6.22317 0.553033 24 1 
601.333 1.20532 6.22379 -0.0015606 0.00359314 6.22379 0.573895 24 1 
602.667 1.20533 6.22503 -0.00166761 0.00371339 6.22503 0.5966 24 1 
604 1.20534 6.22651 -0.00173223 0.0037953 6.22651 0.617281 24 1 
605.333 1.20535 6.22796 -0.00174007 0.00381505 6.22796 0.635405 24 1 
606.667 1.20536 6.22911 -0.00173087 0.00380456 6.22912 0.652566 24 1 
608 1.20537 6.22978 -0.00172828 0.00382416 6.22978 0.665416 24 1 
609.333 1.20538 6.23021 -0.00176615 0.00389787 6.23021 0.677777 24 1 
610.667 1.20538 6.23105 -0.00186182 0.00406634 6.23105 0.692789 24 1 
612 1.2054 6.23257 -0.00198573 0.00429693 6.23257 0.715572 24 1 
613.333 1.20541 6.23491 -0.0021199 0.00458511 6.23492 0.745672 24 1 
614.667 1.20543 6.238 -0.00221949 0.00484675 6.238 0.770867 24 1 
616 1.20543 6.24133 -0.00227226 0.00503422 6.24133 0.784637 24 1 
617.333 1.20544 6.24479 -0.00227458 0.00514587 6.2448 0.792251 24 1 
618.667 1.20545 6.24813 -0.00224737 0.00519771 6.24813 0.80622 24 1 
618.667 1.20545 6.24813 -0.00224737 0.00519771 6.24813 0.80622 24 1 
620 1.20546 6.25116 -0.00222188 0.00526078 6.25116 0.823546 24 1 
621.333 1.20547 6.25396 -0.00222603 0.00537927 6.25397 0.843403 24 1 
622.667 1.20548 6.25705 -0.00230079 0.005611 6.25705 0.865978 24 1 
624 1.20549 6.26095 -0.00242548 0.00592696 6.26095 0.889757 24 1 
625.333 1.2055 6.26571 -0.00256304 0.0062967 6.26571 0.909702 24 1 
626.667 1.20551 6.27123 -0.00268375 0.0066265 6.27123 0.920318 24 1 
628 1.20552 6.27751 -0.00274845 0.00685498 6.27751 0.93133 24 1 
629.333 1.20553 6.28413 -0.00272628 0.00696031 6.28414 0.951319 24 1 
630.667 1.20554 6.29052 -0.00264551 0.00695532 6.29052 0.982314 24 1 
632 1.20556 6.29611 -0.00253655 0.00691257 6.29611 1.0123 24 1 
633.333 1.20557 6.30067 -0.0024595 0.00690763 6.30068 1.0244 24 1 
634.667 1.20557 6.30478 -0.002467 0.00704269 6.30478 1.03376 24 1 
636 1.20559 6.30928 -0.00256576 0.00732781 6.30929 1.05675 24 1 
637.333 1.2056 6.31516 -0.0027444 0.00773375 6.31517 1.08082 24 1 
638.667 1.20561 6.3223 -0.0029317 0.00818077 6.32231 1.10663 24 1 
640 1.20563 6.33064 -0.00306678 0.00854027 6.33065 1.13083 24 1 
640 1.20563 6.33064 -0.00306678 0.00854027 6.33065 1.13083 24 1 
641.333 1.20564 6.33968 -0.00309247 0.00874124 6.33969 1.15716 24 1 
642.667 1.20566 6.3484 -0.00299106 0.00872325 6.3484 1.18782 24 1 
644 1.20567 6.35598 -0.00280949 0.00853028 6.35599 1.20765 24 1 
645.333 1.20568 6.36162 -0.00261123 0.00829951 6.36163 1.22077 24 1 
646.667 1.20568 6.36576 -0.00247245 0.00815236 6.36576 1.23409 24 1 
648 1.2057 6.36925 -0.00245258 0.00823639 6.36926 1.25584 24 1 
649.333 1.20571 6.37307 -0.00257666 0.00858859 6.37307 1.28922 24 1 
650.667 1.20573 6.37857 -0.00282862 0.0091452 6.37858 1.31844 24 1 
652 1.20575 6.38603 -0.00313106 0.00978461 6.38604 1.34717 24 1 
653.333 1.20576 6.39537 -0.00340529 0.0103589 6.39538 1.37306 24 1 
654.667 1.20577 6.40621 -0.00354293 0.0106947 6.40622 1.38692 24 1 
656 1.20578 6.41705 -0.00351835 0.0107688 6.41706 1.40159 24 1 
657.333 1.20578 6.42734 -0.00333719 0.0106082 6.42735 1.4159 24 1 
658.667 1.2058 6.43582 -0.00305236 0.0102906 6.43583 1.44381 24 1 
660 1.20582 6.44208 -0.00278231 0.0100195 6.44209 1.48003 24 1 
661.333 1.20583 6.44667 -0.0026136 0.00991014 6.44668 1.5076 24 1 
661.333 1.20583 6.44667 -0.0026136 0.00991014 6.44668 1.5076 24 1 
662.667 1.20585 6.45017 -0.00261898 0.0100864 6.45018 1.53174 24 1 
664 1.20586 6.45444 -0.00281024 0.0105701 6.45445 1.54981 24 1 
665.333 1.20587 6.46052 -0.00313693 0.0112498 6.46053 1.57331 24 1 
666.667 1.20588 6.46914 -0.00351098 0.0120666 6.46915 1.59764 24 1 
668 1.2059 6.48048 -0.00384562 0.0128461 6.48049 1.62107 24 1 
669.333 1.20592 6.49418 -0.00408229 0.0134125 6.4942 1.65379 24 1 
670.667 1.20594 6.50923 -0.00416663 0.0137567 6.50925 1.6917 24 1 
672 1.20595 6.52409 -0.00405521 0.0138204 6.52411 1.72418 24 1 
673.333 1.20596 6.53754 -0.00380232 0.0136237 6.53756 1.74182 24 1 
674.667 1.20597 6.54866 -0.00345453 0.0133517 6.54868 1.75859 24 1 
676 1.20599 6.55765 -0.00310434 0.0130641 6.55767 1.78587 24 1 
677.333 1.20601 6.56473 -0.00287563 0.0129302 6.56475 1.82583 24 1 
678.667 1.20603 6.57063 -0.00281867 0.0130377 6.57065 1.86678 24 1 
680 1.20605 6.57658 -0.00293123 0.0134302 6.57659 1.89623 24 1 
681.333 1.20606 6.58369 -0.00318736 0.0141025 6.58371 1.92293 24 1 
682.667 1.20608 6.59334 -0.00353594 0.0149025 6.59336 1.94914 24 1 
682.667 1.20608 6.59334 -0.00353594 0.0149025 6.59336 1.94914 31 1 
684 1.2061 6.60587 -0.00387262 0.0158038 6.60589 1.97826 31 1 
685.333 1.20611 6.62122 -0.00416464 0.0165846 6.62125 2.00534 31 1 
686.667 1.20612 6.63888 -0.00438862 0.0171506 6.63891 2.0307 31 1 
688 1.20614 6.6578 -0.00441826 0.0174777 6.65783 2.0646 31 1 
689.333 1.20617 6.67681 -0.00427527 0.0174688 6.67684 2.1073 31 1 
690.667 1.20619 6.69427 -0.00397782 0.0172044 6.6943 2.14678 31 1 
692 1.2062 6.70897 -0.00352144 0.0167354 6.70899 2.17485 31 1 
693.333 1.20622 6.72027 -0.00303366 0.0161777 6.72029 2.20059 31 1 
694.667 1.20623 6.72794 -0.00258648 0.015683 6.72796 2.2303 31 1 
696 1.20625 6.73307 -0.00226136 0.0154019 6.73309 2.25801 31 1 
697.333 1.20627 6.73662 -0.00213413 0.0154123 6.73664 2.29018 31 1 
698.667 1.20629 6.73998 -0.00219104 0.0157457 6.74 2.32632 31 1 
700 1.20631 6.74488 -0.00238446 0.016322 6.7449 2.36042 31 1 
701.333 1.20633 6.75186 -0.00267777 0.0170485 6.75188 2.40458 31 1 
702.667 1.20635 6.76159 -0.00298645 0.0178548 6.76161 2.44072 31 1 
704 1.20637 6.7739 -0.00327773 0.0185572 6.77393 2.46609 31 1 
704 1.20637 6.7739 -0.00327773 0.0185572 6.77393 2.46609 31 1 
705.333 1.20638 6.78846 -0.00351445 0.019127 6.78849 2.49324 31 1 
706.667 1.2064 6.8047 -0.00358671 0.0195336 6.80473 2.53106 31 1 
708 1.20643 6.82175 -0.0035452 0.0197228 6.82178 2.57486 31 1 
709.333 1.20644 6.83838 -0.00340087 0.0197341 6.83841 2.60857 31 1 
710.667 1.20646 6.85363 -0.00312187 0.0196075 6.85366 2.63808 31 1 
712 1.20648 6.86741 -0.00285066 0.0194474 6.86744 2.66872 31 1 
713.333 1.2065 6.87991 -0.00266498 0.0193039 6.87994 2.70926 31 1 
714.667 1.20653 6.8916 -0.00256984 0.0193729 6.89162 2.75858 31 1 
716 1.20655 6.90349 -0.00262804 0.0197904 6.90352 2.79637 31 1 
717.333 1.20657 6.91694 -0.00280535 0.0203361 6.91698 2.8291 31 1 
718.667 1.20659 6.93295 -0.00309833 0.0211821 6.93299 2.86733 31 1 
720 1.2066 6.95233 -0.00335447 0.0219277 6.95237 2.89869 31 1 
721.333 1.20663 6.97363 -0.00343957 0.0223087 6.97367 2.93669 31 1 
722.667 1.20664 6.99532 -0.00319191 0.0222401 6.99536 2.96806 31 1 
724 1.20666 7.01402 -0.00244509 0.0211414 7.01406 3.006 31 1 
725.333 1.20669 7.02548 -0.00120044 0.0193033 7.02551 3.05558 31 1 
725.333 1.20669 7.02548 -0.00120044 0.0193033 7.02551 3.05558 31 1 
726.667 1.20672 7.02579 0.000522509 0.0167127 7.02581 3.09974 31 1 
728 1.20674 7.01228 0.00242112 0.0137907 7.01229 3.13707 31 1 
729.333 1.20675 6.98494 0.00410646 0.0112904 6.98496 3.16241 31 1 
730.667 1.20677 6.94546 0.00534832 0.00923422 6.94549 3.19684 31 1 
732 1.20678 6.89887 0.00606041 0.00831455 6.8989 3.22151 31 1 
733.333 1.2068 6.84897 0.00610534 0.00846659 6.849 3.24984 31 1 
734.667 1.20682 6.80099 0.00578197 0.00935148 6.80102 3.28001 31 1 
736 1.20683 6.75827 0.00509428 0.0111106 6.7583 3.308 31 1 
737.333 1.20685 6.72259 0.00399045 0.0129533 6.72261 3.34007 31 1 
738.667 1.20687 6.69558 0.00304611 0.0150065 6.6956 3.36884 31 1 
740 1.20688 6.67655 0.0020977 0.0170696 6.67658 3.40025 31 1 
741.333 1.2069 6.66578 0.00118279 0.0187676 6.66581 3.42624 31 1 
742.667 1.20692 6.66175 0.000551427 0.02056 6.66179 3.46838 31 1 
744 1.20695 6.66399 -3.46984e-05 0.0219486 6.66403 3.51611 31 1 
745.333 1.20697 6.67139 -0.000603281 0.0231103 6.67143 3.56321 31 1 
746.667 1.207 6.68308 -0.000982522 0.0242551 6.68312 3.60497 31 1 
746.667 1.207 6.68308 -0.000982522 0.0242551 6.68312 3.60497 31 1 
748 1.20702 6.6981 -0.0012559 0.0251089 6.69815 3.65373 31 1 
749.333 1.20705 6.71673 -0.00149305 0.0259801 6.71679 3.69582 31 1 
750.667 1.20708 6.73773 -0.0016666 0.0267398 6.73779 3.74826 31 1 
752 1.20711 6.76103 -0.0017699 0.0273272 6.76109 3.81444 31 1 
753.333 1.20715 6.78625 -0.00183259 0.0278612 6.78631 3.87543 31 1 
754.667 1.20717 6.81309 -0.00195369 0.0283696 6.81315 3.92434 31 1 
756 1.2072 6.84135 -0.00198413 0.02878 6.84142 3.97645 31 1 
757.333 1.20724 6.87014 -0.00188059 0.029212 6.87021 4.04451 31 1 
758.667 1.20727 6.90079 -0.00191344 0.029567 6.90087 4.09362 31 1 
760 1.2073 6.93141 -0.00185207 0.0299116 6.93148 4.16163 31 1 
761.333 1.20734 6.96349 -0.00165694 0.0302856 6.96356 4.2261 31 1 
762.667 1.20738 6.99584 -0.00167399 0.0304447 6.99592 4.29481 31 1 
764 1.20741 7.02871 -0.00170573 0.030698 7.02879 4.35946 31 1 
765.333 1.20745 7.06185 -0.00150224 0.0309185 7.06193 4.42457 31 1 
766.667 1.20749 7.09543 -0.00127099 0.0311159 7.09551 4.49194 31 1 
768 1.20753 7.1293 -0.00113444 0.0314155 7.12938 4.5648 31 1 
768 1.20753 7.1293 -0.00113444 0.0314155 7.12938 4.5648 32 1 
769.333 1.20757 7.16315 -0.00107517 0.0316159 7.16323 4.63806 32 1 
770.667 1.20761 7.19815 -0.000902995 0.0317476 7.19823 4.70526 32 1 
772 1.20766 7.23167 -0.000748885 0.0317846 7.23175 4.79943 32 1 
773.333 1.20769 7.26553 -0.000598703 0.0318788 7.26561 4.85309 32 1 
774.667 1.20772 7.30038 -0.000380129 0.032191 7.30046 4.91158 32 1 
776 1.20779 7.3349 -0.000201736 0.0323221 7.33498 5.03441 32 1 
777.333 1.20785 7.3677 4.18887e-05 0.0323411 7.36778 5.14697 32 1 
778.667 1.20786 7.4031 0.000321334 0.0324701 7.40318 5.15707 32 1 
780 1.20792 7.43545 0.0005552 0.0327654 7.43553 5.2787 32 1 
781.333 1.20799 7.46934 0.000825695 0.0327772 7.46942 5.39564 32 1 
782.667 1.20802 7.50336 0.00108627 0.0328581 7.50344 5.45972 32 1 
784 1.20808 7.53536 0.00163671 0.0330628 7.53544 5.56271 32 1 
785.333 1.20815 7.5672 0.00185958 0.0333172 7.56728 5.68832 32 1 
786.667 1.20821 7.5983 0.00171572 0.0330514 7.59838 5.78958 32 1 
788 1.20824 7.63103 0.00219956 0.0329295 7.63111 5.85005 32 1 
789.333 1.20833 7.6617 0.00315527 0.033664 7.66179 6.01028 32 1 
790.667 1.20841 7.69373 0.00418806 0.0343236 7.69382 6.15457 32 1 
792 1.20847 7.7214 0.00461393 0.0343044 7.72149 6.25957 32 1 
793.333 1.20849 7.75151 0.00516083 0.0344517 7.7516 6.31168 32 1 
794.667 1.20859 7.78098 0.00585678 0.0352086 7.78107 6.49291 32 1 
796 1.20868 7.81298 0.00644617 0.0357741 7.81307 6.64154 32 1 
797.333 1.20873 7.84328 0.00787162 0.0374179 7.84338 6.73868 32 1 
798.667 1.20868 7.8822 0.00879611 0.0411737 7.88232 6.65251 32 1 
800 1.20857 7.91133 0.00870519 0.0436642 7.91148 6.44967 32 1 
