27.1694;r ;Density                 ;Velocity u              ;Velocity v              ;Velocity w              ;|Velocity|              ;Pressure                ;Distribution            ;Levels                  ;
0 1.20472 9.99812 -0.000259445 0.003627 9.99812 -0.505192 1 1 
4 1.20471 9.998 -0.00036179 -0.00051839 9.998 -0.528096 1 1 
8 1.20469 9.99722 -0.000591423 -0.00204874 9.99722 -0.561865 1 1 
12 1.20469 9.99618 -0.000756007 -0.00288164 9.99618 -0.564929 1 1 
16 1.20472 9.99523 -0.00104007 -0.00319612 9.99523 -0.512073 1 1 
20 1.20475 9.9941 -0.0012371 -0.00346729 9.9941 -0.452536 1 1 
24 1.20475 9.99386 -0.00152897 -0.00413281 9.99386 -0.459489 1 1 
28 1.20472 9.99446 -0.00156572 -0.00463885 9.99446 -0.5001 1 1 
32 1.20473 9.99438 -0.00170992 -0.00425666 9.99439 -0.484966 1 1 
36 1.20477 9.99248 -0.00194243 -0.00452954 9.99248 -0.40848 1 1 
40 1.2048 9.99022 -0.00200207 -0.00509874 9.99022 -0.361436 1 1 
44 1.20479 9.98986 -0.0021718 -0.00619277 9.98986 -0.37657 1 1 
48 1.20477 9.98993 -0.00238163 -0.00692757 9.98993 -0.41459 1 1 
52 1.20478 9.98879 -0.00261391 -0.00715925 9.9888 -0.388258 1 1 
56 1.20483 9.98707 -0.00265038 -0.00649764 9.98707 -0.298758 1 1 
60 1.20486 9.98591 -0.00293075 -0.00649808 9.98592 -0.244647 1 1 
64 1.20486 9.98567 -0.00301547 -0.00656179 9.98568 -0.260664 1 1 
64 1.20486 9.98567 -0.00301547 -0.00656179 9.98568 -0.260664 2 1 
68 1.20485 9.98444 -0.00311954 -0.00703312 9.98445 -0.271447 2 1 
72 1.20486 9.9832 -0.00334125 -0.007874 9.9832 -0.245296 2 1 
76 1.20489 9.98284 -0.00358402 -0.008825 9.98285 -0.194698 2 1 
80 1.20493 9.98214 -0.00370755 -0.0101989 9.98215 -0.134098 2 1 
84 1.20492 9.98235 -0.00390327 -0.0115761 9.98236 -0.142949 2 1 
88 1.20493 9.9811 -0.00425999 -0.0121463 9.98111 -0.128904 2 1 
92 1.20498 9.97794 -0.0043979 -0.0116975 9.97795 -0.0370325 2 1 
96 1.205 9.9764 -0.00445352 -0.0106102 9.97641 -0.000627571 2 1 
100 1.20498 9.9764 -0.00473853 -0.0110641 9.97641 -0.0297787 2 1 
104 1.20498 9.97565 -0.00500393 -0.0112463 9.97566 -0.0307987 2 1 
108 1.205 9.97529 -0.00495269 -0.0118188 9.9753 0.00541522 2 1 
112 1.20505 9.97549 -0.00522463 -0.012137 9.9755 0.0866851 2 1 
116 1.2051 9.97451 -0.00568746 -0.0132707 9.97452 0.183131 2 1 
120 1.20511 9.97379 -0.00579268 -0.0145477 9.97381 0.190452 2 1 
124 1.20509 9.97255 -0.00562278 -0.0147894 9.97257 0.157401 2 1 
128 1.2051 9.97018 -0.00602588 -0.0140337 9.97019 0.185712 2 1 
128 1.2051 9.97018 -0.00602588 -0.0140337 9.97019 0.185712 10 1 
132 1.20513 9.968 -0.00671602 -0.0134482 9.96801 0.235722 10 1 
136 1.20514 9.967 -0.00671988 -0.0130691 9.96701 0.260528 10 1 
140 1.20517 9.96684 -0.00647273 -0.0140248 9.96686 0.311754 10 1 
144 1.20519 9.96676 -0.00696353 -0.0154395 9.96678 0.344554 10 1 
148 1.20519 9.96601 -0.00792523 -0.0165143 9.96603 0.342804 10 1 
152 1.20522 9.96273 -0.00778232 -0.0177795 9.96276 0.399401 10 1 
156 1.20524 9.95931 -0.00640352 -0.0171086 9.95932 0.433093 10 1 
160 1.20524 9.95825 -0.00538565 -0.0160421 9.95827 0.435913 10 1 
160 1.20524 9.95825 -0.00538565 -0.0160421 9.95827 0.435913 10 1 
164 1.20528 9.95638 -0.00588399 -0.0150629 9.95639 0.513579 10 1 
168 1.2053 9.95429 -0.00714468 -0.0150243 9.95431 0.534247 10 1 
172 1.20529 9.95196 -0.00758389 -0.0149792 9.95197 0.522126 10 1 
176 1.20533 9.9474 -0.00701476 -0.0154506 9.94742 0.589929 10 1 
180 1.20534 9.94313 -0.00578641 -0.0160169 9.94315 0.61813 10 1 
184 1.20534 9.94042 -0.00519655 -0.016233 9.94044 0.620894 10 1 
188 1.20539 9.93757 -0.00496403 -0.0168001 9.93759 0.713297 10 1 
192 1.20545 9.93341 -0.00513761 -0.0152012 9.93343 0.808833 10 1 
196 1.20544 9.9311 -0.00524127 -0.014923 9.93112 0.788146 10 1 
200 1.20548 9.92605 -0.00523758 -0.0141292 9.92606 0.871632 10 1 
204 1.20557 9.91758 -0.00540965 -0.0128509 9.9176 1.03524 10 1 
208 1.2056 9.9093 -0.00528429 -0.0117328 9.90931 1.08514 10 1 
212 1.20565 9.89693 -0.00563047 -0.0132761 9.89695 1.16556 10 1 
216 1.20571 9.88457 -0.00571459 -0.0167939 9.88459 1.28333 10 1 
220 1.20578 9.87386 -0.00610631 -0.0202979 9.87389 1.41629 10 1 
224 1.20587 9.86441 -0.00597075 -0.018511 9.86444 1.56344 10 1 
224 1.20587 9.86441 -0.00597075 -0.018511 9.86444 1.56344 10 1 
228 1.20601 9.85421 -0.0060536 -0.0140432 9.85422 1.82637 10 1 
232 1.20621 9.83523 -0.00611276 -0.0107017 9.83525 2.18259 10 1 
236 1.20626 9.80971 -0.00617561 -0.0084925 9.80973 2.28284 10 1 
240 1.20635 9.78179 -0.00653135 -0.00775072 9.78181 2.43126 10 1 
244 1.20667 9.74749 -0.00667391 -0.00786499 9.74751 3.01996 10 1 
248 1.20688 9.71011 -0.00709547 -0.00658392 9.71013 3.39983 10 1 
252 1.20703 9.67034 -0.00714964 0.00106509 9.67036 3.66493 10 1 
256 1.20756 9.61065 -0.00749059 0.00915598 9.61069 4.61511 10 1 
256 1.20756 9.61065 -0.00749059 0.00915598 9.61069 4.61511 11 1 
260 1.20806 9.5316 -0.00773746 0.0186725 9.53165 5.53548 11 1 
264 1.20834 9.44828 -0.00792092 0.0392826 9.44843 6.02438 11 1 
268 1.20922 9.33596 -0.00825422 0.0760233 9.33638 7.61622 11 1 
272 1.21047 9.17604 -0.00845011 0.134189 9.17735 9.87368 11 1 
276 1.21109 8.99506 -0.00870219 0.217777 8.99811 10.9926 11 1 
280 1.21225 8.76092 -0.00892165 0.339406 8.76866 13.0893 11 1 
284 1.21406 8.48325 -0.00910645 0.547471 8.50279 16.3631 11 1 
288 1.21491 8.22941 -0.00924651 0.833868 8.27388 17.8929 11 1 
292 1.21414 7.7441 -0.00924387 0.818546 7.79203 16.5021 11 1 
296 1.20996 6.81999 -0.0092851 0.203282 6.8472 8.95892 11 1 
300 1.20388 5.82197 -0.00929099 -0.679228 5.89716 -2.02244 11 1 
304 1.19989 5.15042 -0.0092422 -1.27024 5.31752 -9.22521 11 1 
308 1.19813 4.78833 -0.0091688 -1.24698 4.9522 -12.4094 11 1 
312 1.19787 4.49046 -0.00905462 -0.910711 4.58536 -12.8751 11 1 
316 1.1986 4.14411 -0.00894888 -0.583663 4.18877 -11.5545 11 1 
320 1.19949 3.80797 -0.00882371 -0.334121 3.82478 -9.94906 11 1 
320 1.19949 3.80797 -0.00882371 -0.334121 3.82478 -9.94906 15 1 
324 1.20017 3.50279 -0.00870452 -0.166488 3.50946 -8.72056 15 1 
328 1.20067 3.20797 -0.00872638 -0.0497624 3.21079 -7.82897 15 1 
332 1.20118 2.93068 -0.008889 0.016256 2.9328 -6.89818 15 1 
336 1.20165 2.6924 -0.00901792 0.0591041 2.69467 -6.05699 15 1 
340 1.20199 2.49414 -0.00915296 0.0815999 2.49726 -5.44509 15 1 
344 1.20228 2.32599 -0.00948277 0.0932631 2.32957 -4.9086 15 1 
348 1.20257 2.18417 -0.00995164 0.0948064 2.18754 -4.38922 15 1 
352 1.20281 2.0687 -0.0104674 0.0907731 2.07163 -3.95129 15 1 
356 1.20304 1.98709 -0.0110567 0.0841031 1.98954 -3.54248 15 1 
360 1.20327 1.94588 -0.0117021 0.0796413 1.94796 -3.11601 15 1 
364 1.20348 1.93883 -0.0123622 0.0769319 1.94067 -2.74597 15 1 
368 1.20365 1.95662 -0.0129929 0.0746149 1.95831 -2.43484 15 1 
372 1.20382 1.99633 -0.0136101 0.0735799 1.99795 -2.12334 15 1 
376 1.204 2.05784 -0.014268 0.075962 2.05953 -1.80847 15 1 
380 1.20416 2.13902 -0.0149059 0.0795053 2.14084 -1.52004 15 1 
384 1.20428 2.23533 -0.0154347 0.0814102 2.23721 -1.29704 15 1 
384 1.20428 2.23533 -0.0154347 0.0814102 2.23721 -1.29704 16 1 
388 1.20437 2.34369 -0.0157618 0.0802147 2.34551 -1.13294 16 1 
392 1.20447 2.46457 -0.0158647 0.0761045 2.46626 -0.961994 16 1 
396 1.20458 2.59809 -0.0158298 0.0687651 2.59957 -0.74994 16 1 
400 1.2047 2.74179 -0.015804 0.0576445 2.74301 -0.539598 16 1 
404 1.20479 2.89239 -0.0157854 0.0424758 2.89335 -0.385243 16 1 
408 1.20484 3.04831 -0.0156327 0.0243073 3.04908 -0.29599 16 1 
412 1.20486 3.21001 -0.015296 0.00453704 3.21069 -0.24971 16 1 
416 1.20489 3.37755 -0.0148124 -0.0160192 3.37827 -0.201648 16 1 
420 1.20494 3.54919 -0.0142266 -0.037139 3.55006 -0.117219 16 1 
424 1.20499 3.72313 -0.0135825 -0.0577376 3.72424 -0.0247708 16 1 
428 1.20502 3.89893 -0.0129625 -0.0764374 3.90032 0.0435249 16 1 
432 1.20506 4.07653 -0.0123449 -0.0924892 4.0782 0.101045 16 1 
436 1.20508 4.25502 -0.0116887 -0.105281 4.25692 0.13602 16 1 
440 1.20507 4.43352 -0.0109907 -0.113962 4.43557 0.130146 16 1 
444 1.20507 4.61219 -0.0102354 -0.117845 4.61426 0.128823 16 1 
448 1.20509 4.79169 -0.00947586 -0.116219 4.79366 0.155531 16 1 
448 1.20509 4.79169 -0.00947586 -0.116219 4.79366 0.155531 17 1 
452 1.2051 4.97239 -0.008763 -0.108651 4.97413 0.182303 17 1 
456 1.20512 5.15405 -0.00811449 -0.0949241 5.15549 0.21286 17 1 
460 1.20513 5.33666 -0.00754133 -0.0748872 5.33777 0.240684 17 1 
464 1.20513 5.5209 -0.00706178 -0.0486063 5.52171 0.236672 17 1 
468 1.20512 5.70707 -0.00659764 -0.0165051 5.7077 0.215067 17 1 
472 1.20511 5.89526 -0.00611183 0.0209971 5.89593 0.19149 17 1 
476 1.2051 6.08595 -0.00569249 0.0632548 6.08694 0.171519 17 1 
480 1.20509 6.27909 -0.00537183 0.109068 6.28073 0.170683 17 1 
484 1.2051 6.47392 -0.0051019 0.157189 6.47654 0.179872 17 1 
488 1.2051 6.66965 -0.00488241 0.206436 6.67358 0.184256 17 1 
492 1.20509 6.86571 -0.00470068 0.255481 6.87121 0.165305 17 1 
496 1.20507 7.06131 -0.00448066 0.303066 7.06856 0.119154 17 1 
500 1.20505 7.255 -0.00424377 0.347836 7.26408 0.0889137 17 1 
504 1.20504 7.44566 -0.00402039 0.388229 7.45651 0.0674053 17 1 
508 1.20501 7.63252 -0.00385791 0.422814 7.64491 0.0248328 17 1 
512 1.205 7.81433 -0.00373735 0.450424 7.82794 0.00154917 17 1 
512 1.205 7.81433 -0.00373735 0.450424 7.82794 0.00154917 25 1 
516 1.205 7.99009 -0.00365678 0.470121 8.00448 0.00472258 25 1 
520 1.205 8.15885 -0.00357994 0.481266 8.17353 -0.00808843 25 1 
524 1.20497 8.31936 -0.00350222 0.483527 8.33383 -0.0570625 25 1 
528 1.20493 8.47078 -0.00342144 0.476792 8.48455 -0.124135 25 1 
532 1.2049 8.61302 -0.00329363 0.460972 8.62565 -0.171828 25 1 
536 1.20489 8.74664 -0.00318756 0.436107 8.75776 -0.205441 25 1 
540 1.20487 8.87217 -0.00306739 0.403078 8.88153 -0.23483 25 1 
544 1.20485 8.98967 -0.00294424 0.363608 8.9972 -0.278738 25 1 
548 1.2048 9.09952 -0.00283217 0.31963 9.10527 -0.360194 25 1 
552 1.20476 9.2023 -0.00269573 0.272708 9.20646 -0.434682 25 1 
556 1.20473 9.29862 -0.00254305 0.224183 9.30142 -0.487944 25 1 
560 1.2047 9.38894 -0.0024242 0.175589 9.39067 -0.537266 25 1 
564 1.20468 9.47264 -0.00236732 0.129285 9.47359 -0.571968 25 1 
568 1.20467 9.5484 -0.00231206 0.0879099 9.54885 -0.601488 25 1 
572 1.20464 9.61561 -0.00222318 0.0543134 9.6158 -0.64675 25 1 
576 1.20461 9.67434 -0.00211683 0.0304794 9.67441 -0.708203 25 1 
576 1.20461 9.67434 -0.00211683 0.0304794 9.67441 -0.708203 26 1 
580 1.20458 9.7246 -0.00200483 0.0164749 9.72463 -0.752446 26 1 
584 1.20457 9.76719 -0.00190074 0.0106293 9.76721 -0.77355 26 1 
588 1.20456 9.80303 -0.00183702 0.0094333 9.80304 -0.791399 26 1 
592 1.20455 9.83307 -0.00176946 0.00930406 9.83308 -0.80727 26 1 
596 1.20454 9.85849 -0.00167951 0.00848632 9.8585 -0.830392 26 1 
600 1.20453 9.87965 -0.00155865 0.00675286 9.87966 -0.84859 26 1 
604 1.20452 9.89788 -0.00144666 0.00461354 9.89788 -0.86209 26 1 
608 1.20452 9.91356 -0.00135053 0.0026956 9.91356 -0.873782 26 1 
608 1.20452 9.91356 -0.00135053 0.0026956 9.91356 -0.873782 26 1 
612 1.20452 9.92566 -0.00124028 0.00135967 9.92566 -0.874516 26 1 
616 1.2045 9.93519 -0.00112929 0.000474599 9.9352 -0.900542 26 1 
620 1.20448 9.94342 -0.00106808 -0.000378111 9.94342 -0.934564 26 1 
624 1.20448 9.95053 -0.00100561 -0.00100123 9.95053 -0.936584 26 1 
628 1.20448 9.95664 -0.000889601 -0.00146652 9.95664 -0.930951 26 1 
632 1.20448 9.96149 -0.000745185 -0.00162923 9.96149 -0.94201 26 1 
636 1.20446 9.96495 -0.000625759 -0.00181172 9.96495 -0.981469 26 1 
640 1.20444 9.96782 -0.000553386 -0.0019036 9.96782 -1.01325 26 1 
644 1.20444 9.97079 -0.000472835 -0.00183679 9.97079 -1.0085 26 1 
648 1.20444 9.97381 -0.000380537 -0.00189208 9.97381 -1.01377 26 1 
652 1.20443 9.97586 -0.000285758 -0.00225884 9.97586 -1.03373 26 1 
656 1.20442 9.97666 -0.000202987 -0.00276215 9.97666 -1.05386 26 1 
660 1.2044 9.97762 -0.00010978 -0.0029037 9.97762 -1.07938 26 1 
664 1.2044 9.97887 -1.22388e-05 -0.00281412 9.97887 -1.08804 26 1 
668 1.2044 9.97974 5.54774e-05 -0.00289782 9.97975 -1.08947 26 1 
672 1.20439 9.98 9.2142e-05 -0.00315392 9.98 -1.10868 26 1 
672 1.20439 9.98 9.2142e-05 -0.00315392 9.98 -1.10868 27 1 
676 1.20436 9.97935 0.000142672 -0.00331134 9.97935 -1.15489 27 1 
680 1.20433 9.9787 0.000238857 -0.00316161 9.9787 -1.21407 27 1 
684 1.2043 9.97839 0.000371544 -0.00317863 9.97839 -1.25927 27 1 
688 1.20429 9.97899 0.000490715 -0.00315962 9.97899 -1.27645 27 1 
692 1.20429 9.98002 0.000570734 -0.00299768 9.98002 -1.27642 27 1 
696 1.20429 9.98009 0.000626058 -0.00272433 9.98009 -1.28149 27 1 
700 1.20427 9.98007 0.00068757 -0.00247663 9.98007 -1.32188 27 1 
704 1.20421 9.98036 0.000735496 -0.00236995 9.98036 -1.43155 27 1 
704 1.20421 9.98036 0.000735496 -0.00236995 9.98036 -1.43155 31 1 
708 1.20413 9.98074 0.000867692 -0.00224986 9.98075 -1.57413 31 1 
712 1.20407 9.98105 0.00102584 -0.00201509 9.98105 -1.67448 31 1 
716 1.20405 9.98162 0.00115967 -0.00181403 9.98162 -1.71443 31 1 
720 1.20405 9.98278 0.00122902 -0.00172739 9.98278 -1.72406 31 1 
724 1.20404 9.98384 0.00127752 -0.00160467 9.98384 -1.73681 31 1 
728 1.20401 9.98409 0.00134597 -0.00111778 9.98409 -1.79661 31 1 
732 1.20395 9.98337 0.00149526 -0.000846501 9.98337 -1.90048 31 1 
736 1.2039 9.98222 0.00169909 -0.000751034 9.98222 -1.97791 31 1 
740 1.2039 9.98188 0.00185665 -0.000417819 9.98188 -1.97967 31 1 
744 1.20393 9.98225 0.00197964 0.000135556 9.98225 -1.93717 31 1 
748 1.20394 9.98227 0.00200877 0.000252996 9.98227 -1.91845 31 1 
752 1.20393 9.98133 0.00205772 4.41256e-05 9.98133 -1.94136 31 1 
756 1.20391 9.97957 0.00217298 -5.95058e-05 9.97957 -1.97745 31 1 
760 1.2039 9.97796 0.00231636 0.000320771 9.97796 -1.99526 31 1 
764 1.2039 9.97731 0.00246643 0.00105279 9.97731 -1.98589 31 1 
768 1.20391 9.97754 0.00260111 0.00164209 9.97754 -1.96686 31 1 
772 1.20392 9.97713 0.00264416 0.0019117 9.97713 -1.94756 31 1 
776 1.20394 9.97667 0.00265315 0.00163957 9.97667 -1.90893 31 1 
780 1.20396 9.97621 0.00268424 0.00156525 9.97621 -1.88217 31 1 
784 1.20394 9.97584 0.00272129 0.00159295 9.97584 -1.90919 31 1 
788 1.20392 9.97571 0.00282766 0.00208047 9.97571 -1.95564 31 1 
792 1.20391 9.97513 0.00292537 0.00251471 9.97513 -1.96052 31 1 
796 1.20396 9.97619 0.00294553 0.0029673 9.97619 -1.8725 31 1 
800 1.204 9.97746 0.00295164 0.00322722 9.97746 -1.8001 31 1 
