92.376;r ;Density                 ;Velocity u              ;Velocity v              ;Velocity w              ;|Velocity|              ;Pressure                ;Distribution            ;Levels                  ;
0 1.22225 10.0001 -0.000205492 0.00322402 10.0001 31.1588 1 1 
4 1.22223 10.0012 -0.000349242 -0.000425091 10.0012 31.1286 1 1 
8 1.22221 10.003 -0.000652097 -0.000956004 10.003 31.0881 1 1 
12 1.2222 10.0052 -0.000895919 -0.00136288 10.0052 31.0623 1 1 
16 1.22218 10.0078 -0.00126589 -0.0016521 10.0078 31.0356 1 1 
20 1.22217 10.0099 -0.00151337 -0.00174621 10.0099 31.0102 1 1 
24 1.22215 10.0124 -0.00187636 -0.00211577 10.0124 30.9782 1 1 
28 1.22213 10.015 -0.0021224 -0.00171028 10.015 30.9477 1 1 
32 1.22212 10.0175 -0.00242314 -0.00121194 10.0175 30.9195 1 1 
36 1.2221 10.0196 -0.00274344 -0.00104583 10.0196 30.883 1 1 
40 1.22208 10.0211 -0.00305935 -0.00122657 10.0211 30.8473 1 1 
44 1.22206 10.0232 -0.0034139 -0.00126367 10.0232 30.8147 1 1 
48 1.22204 10.0257 -0.00372624 -0.00125971 10.0257 30.7792 1 1 
52 1.22202 10.0277 -0.0041116 -0.00135791 10.0277 30.7436 1 1 
56 1.222 10.0296 -0.00438981 -0.000975042 10.0296 30.7108 1 1 
60 1.22198 10.0315 -0.00476052 -0.000746515 10.0315 30.679 1 1 
64 1.22196 10.0339 -0.0050347 -0.000224067 10.0339 30.6347 1 1 
64 1.22196 10.0339 -0.0050347 -0.000224067 10.0339 30.6347 2 1 
68 1.22194 10.0357 -0.0053881 -1.67462e-05 10.0357 30.6066 2 1 
72 1.22192 10.0375 -0.00573813 0.000153983 10.0375 30.5615 2 1 
76 1.22189 10.04 -0.0060669 0.000146196 10.04 30.5092 2 1 
80 1.22189 10.0421 -0.00641868 2.43704e-05 10.0421 30.5077 2 1 
84 1.22187 10.0448 -0.00676019 -0.000255096 10.0448 30.4655 2 1 
88 1.22183 10.0465 -0.00709796 -0.000635674 10.0465 30.4044 2 1 
92 1.22182 10.0471 -0.0074708 -0.000445761 10.0471 30.3766 2 1 
96 1.22179 10.0488 -0.00779596 0.000688863 10.0488 30.3293 2 1 
100 1.22176 10.0512 -0.00812466 0.00102608 10.0512 30.2801 2 1 
104 1.22176 10.053 -0.0084539 0.00179854 10.053 30.2643 2 1 
108 1.22173 10.0553 -0.00876113 0.00167184 10.0553 30.2123 2 1 
112 1.22169 10.0582 -0.00917652 0.00184083 10.0582 30.1516 2 1 
116 1.22169 10.0601 -0.00952782 0.000889079 10.0601 30.145 2 1 
120 1.22167 10.0616 -0.00990606 0.00020809 10.0616 30.1018 2 1 
124 1.22163 10.0623 -0.0102575 4.98431e-05 10.0623 30.0297 2 1 
128 1.2216 10.0623 -0.0106063 0.000925979 10.0623 29.9881 2 1 
128 1.2216 10.0623 -0.0106063 0.000925979 10.0623 29.9881 10 1 
132 1.22158 10.0636 -0.0109565 0.00185369 10.0636 29.9427 10 1 
136 1.22154 10.0662 -0.0113471 0.00293381 10.0662 29.8818 10 1 
140 1.22154 10.0681 -0.0118233 0.00262556 10.0681 29.8676 10 1 
144 1.22152 10.0694 -0.012208 0.00197594 10.0694 29.8354 10 1 
148 1.22147 10.0708 -0.0126308 0.00198472 10.0708 29.7488 10 1 
152 1.22145 10.0707 -0.0130801 0.00142143 10.0707 29.7175 10 1 
156 1.22143 10.0705 -0.013546 0.00145519 10.0705 29.6739 10 1 
160 1.22139 10.0718 -0.0139729 0.00145279 10.0718 29.6044 10 1 
160 1.22139 10.0718 -0.0139729 0.00145279 10.0718 29.6044 10 1 
164 1.2214 10.0717 -0.0143836 0.00214105 10.0717 29.6135 10 1 
168 1.22137 10.0716 -0.0148321 0.00307567 10.0716 29.5618 10 1 
172 1.22132 10.0717 -0.0152645 0.00397564 10.0717 29.473 10 1 
176 1.22132 10.0696 -0.0158374 0.00415101 10.0696 29.471 10 1 
180 1.2213 10.0676 -0.016107 0.00369155 10.0676 29.4347 10 1 
184 1.22126 10.0673 -0.0166409 0.00312752 10.0673 29.3657 10 1 
188 1.22126 10.0671 -0.01704 0.00220113 10.0672 29.3775 10 1 
192 1.22128 10.0653 -0.0175933 0.00376445 10.0653 29.4003 10 1 
196 1.22123 10.0649 -0.0180159 0.00452755 10.0649 29.3116 10 1 
200 1.22124 10.0617 -0.0183272 0.00568648 10.0617 29.3342 10 1 
204 1.22129 10.0551 -0.0188481 0.00752174 10.0552 29.4284 10 1 
208 1.22127 10.0492 -0.0190272 0.00918255 10.0492 29.3876 10 1 
212 1.22127 10.0393 -0.0196938 0.00786172 10.0393 29.3786 10 1 
216 1.22129 10.0292 -0.0201335 0.00493972 10.0292 29.4321 10 1 
220 1.22134 10.0204 -0.0209166 0.0022084 10.0204 29.5147 10 1 
224 1.22138 10.0126 -0.0211569 0.0048259 10.0126 29.5888 10 1 
224 1.22138 10.0126 -0.0211569 0.0048259 10.0126 29.5888 10 1 
228 1.22148 10.004 -0.0215894 0.00997902 10.004 29.7705 10 1 
232 1.22163 9.98631 -0.0220159 0.0139072 9.98635 30.0458 10 1 
236 1.22165 9.96191 -0.0224667 0.0166937 9.96196 30.0705 10 1 
240 1.22171 9.93512 -0.0231886 0.0179671 9.93518 30.1895 10 1 
244 1.22205 9.90157 -0.0236992 0.0186417 9.90163 30.7917 10 1 
248 1.22226 9.86486 -0.0245001 0.0207558 9.86493 31.1699 10 1 
252 1.22239 9.82509 -0.0249214 0.0292614 9.82518 31.4062 10 1 
256 1.22291 9.76476 -0.0255842 0.0380967 9.76491 32.3514 10 1 
256 1.22291 9.76476 -0.0255842 0.0380967 9.76491 32.3514 11 1 
260 1.22342 9.68468 -0.026159 0.0484711 9.68488 33.2757 11 1 
264 1.22369 9.60012 -0.0266894 0.070092 9.60049 33.7608 11 1 
268 1.22461 9.48639 -0.0273754 0.1081 9.48715 35.4143 11 1 
272 1.22591 9.32383 -0.027889 0.16775 9.32571 37.7662 11 1 
276 1.22655 9.14005 -0.0283605 0.253197 9.14403 38.9225 11 1 
280 1.22775 8.90164 -0.028748 0.377345 8.91087 41.0892 11 1 
284 1.22962 8.61839 -0.0290405 0.589283 8.6405 44.4755 11 1 
288 1.23049 8.35948 -0.0291571 0.8806 8.40816 46.0339 11 1 
292 1.22966 7.86322 -0.02895 0.863105 7.91536 44.5438 11 1 
296 1.22528 6.92091 -0.028706 0.235186 6.94941 36.6367 11 1 
300 1.21892 5.90592 -0.0283441 -0.662913 5.97923 25.1513 11 1 
304 1.21475 5.22416 -0.0277208 -1.2633 5.3877 17.618 11 1 
308 1.2129 4.85746 -0.0269337 -1.23876 5.01726 14.2673 11 1 
312 1.21261 4.55635 -0.0259878 -0.896907 4.64743 13.7504 11 1 
316 1.21337 4.20764 -0.0250109 -0.564527 4.24927 15.1122 11 1 
320 1.21429 3.87156 -0.0239875 -0.311192 3.88633 16.7872 11 1 
320 1.21429 3.87156 -0.0239875 -0.311192 3.88633 16.7872 15 1 
324 1.215 3.56883 -0.0229822 -0.141884 3.57446 18.0704 15 1 
328 1.21551 3.27815 -0.0222989 -0.0244252 3.28072 18.9853 15 1 
332 1.21603 3.00598 -0.0218988 0.0418673 3.00837 19.9288 15 1 
336 1.21651 2.77478 -0.0215516 0.0858094 2.77774 20.7967 15 1 
340 1.21688 2.58553 -0.0213529 0.110506 2.5897 21.4514 15 1 
344 1.2172 2.42614 -0.0215736 0.124259 2.43108 22.0313 15 1 
348 1.2175 2.28998 -0.0221654 0.127281 2.29493 22.5723 15 1 
352 1.21774 2.17417 -0.0229991 0.125475 2.1789 23.0031 15 1 
356 1.21795 2.0841 -0.024151 0.121204 2.08853 23.3937 15 1 
360 1.21818 2.02609 -0.0256985 0.117485 2.03021 23.8069 15 1 
364 1.21838 1.99491 -0.0275662 0.113018 1.99867 24.1612 15 1 
368 1.21853 1.98269 -0.029556 0.106636 1.98604 24.435 15 1 
372 1.21866 1.98773 -0.0315887 0.0996355 1.99067 24.6823 15 1 
376 1.2188 2.01074 -0.0337143 0.0949048 2.0134 24.9193 15 1 
380 1.21892 2.04988 -0.0358793 0.0915856 2.05236 25.1364 15 1 
384 1.21901 2.10009 -0.0380335 0.0884856 2.10243 25.3099 15 1 
384 1.21901 2.10009 -0.0380335 0.0884856 2.10243 25.3099 16 1 
388 1.21908 2.1574 -0.0401185 0.0852849 2.1596 25.4332 16 1 
392 1.21914 2.22158 -0.0420925 0.0829203 2.22367 25.5329 16 1 
396 1.21919 2.29256 -0.0439853 0.0815533 2.29458 25.6256 16 1 
400 1.21923 2.36806 -0.045909 0.0807208 2.37004 25.7022 16 1 
404 1.21925 2.44551 -0.0478202 0.0796904 2.44743 25.7464 16 1 
408 1.21926 2.52413 -0.0495826 0.0786278 2.526 25.7585 16 1 
412 1.21926 2.60455 -0.0512331 0.0780737 2.60639 25.7569 16 1 
416 1.21926 2.68672 -0.0528877 0.0781556 2.68854 25.7544 16 1 
420 1.21925 2.76916 -0.0545678 0.0782015 2.77096 25.7427 16 1 
424 1.21923 2.85045 -0.0561955 0.0781547 2.85223 25.7064 16 1 
428 1.2192 2.93095 -0.0577294 0.0783398 2.93271 25.6508 16 1 
432 1.21917 3.01178 -0.0591811 0.0787943 3.01353 25.592 16 1 
436 1.21914 3.09237 -0.0606325 0.0794044 3.09412 25.5341 16 1 
440 1.2191 3.17147 -0.0621136 0.0801475 3.17322 25.4683 16 1 
444 1.21906 3.24905 -0.0635624 0.080851 3.2508 25.3885 16 1 
448 1.21901 3.32567 -0.064954 0.0815612 3.32742 25.2981 16 1 
448 1.21901 3.32567 -0.064954 0.0815612 3.32742 25.2981 17 1 
452 1.21896 3.40147 -0.0662835 0.0823376 3.40323 25.2069 17 1 
456 1.21891 3.47626 -0.0676086 0.0831717 3.47801 25.1171 17 1 
460 1.21885 3.5496 -0.0689863 0.0840217 3.55137 25.0219 17 1 
464 1.2188 3.6214 -0.0703642 0.0848176 3.62317 24.9188 17 1 
468 1.21874 3.69183 -0.0716672 0.0854457 3.6936 24.8102 17 1 
472 1.21867 3.76103 -0.0729406 0.0860595 3.76281 24.6983 17 1 
476 1.21861 3.82913 -0.0742336 0.0867452 3.83091 24.5876 17 1 
480 1.21855 3.8959 -0.0755838 0.0873651 3.89769 24.4764 17 1 
484 1.21849 3.96097 -0.0769145 0.087852 3.96276 24.3579 17 1 
488 1.21842 4.02452 -0.0782155 0.0882921 4.02631 24.2338 17 1 
492 1.21835 4.08691 -0.0795102 0.08871 4.08871 24.1088 17 1 
496 1.21828 4.14819 -0.0808166 0.0891166 4.15 23.9837 17 1 
500 1.21821 4.20824 -0.0821854 0.0895108 4.21005 23.8587 17 1 
504 1.21814 4.26672 -0.083585 0.0898548 4.26854 23.7296 17 1 
508 1.21806 4.32374 -0.0849676 0.0901454 4.32556 23.5934 17 1 
512 1.21799 4.37973 -0.0863405 0.0904125 4.38156 23.4565 17 1 
512 1.21799 4.37973 -0.0863405 0.0904125 4.38156 23.4565 25 1 
516 1.21791 4.43494 -0.0877664 0.0906771 4.43678 23.3232 25 1 
520 1.21784 4.48903 -0.0892485 0.0909215 4.49088 23.1883 25 1 
524 1.21776 4.54167 -0.0907744 0.0911201 4.54353 23.0493 25 1 
528 1.21768 4.59321 -0.092278 0.0912425 4.59508 22.9056 25 1 
532 1.2176 4.64401 -0.0937928 0.0912926 4.64589 22.7632 25 1 
536 1.21753 4.69414 -0.0953586 0.0912872 4.69603 22.6236 25 1 
540 1.21745 4.74337 -0.0969551 0.0912406 4.74527 22.4832 25 1 
544 1.21737 4.79138 -0.0985683 0.0911377 4.7933 22.341 25 1 
548 1.21729 4.83853 -0.100179 0.0908829 4.84045 22.1935 25 1 
552 1.21721 4.88519 -0.101761 0.0905127 4.88712 22.0508 25 1 
556 1.21713 4.93137 -0.103348 0.0901121 4.9333 21.9104 25 1 
560 1.21705 4.97664 -0.104971 0.0896289 4.97858 21.7695 25 1 
564 1.21697 5.02095 -0.106578 0.0890208 5.0229 21.6285 25 1 
568 1.21689 5.06459 -0.108139 0.0883111 5.06654 21.484 25 1 
572 1.21682 5.10782 -0.109632 0.0875257 5.10977 21.3445 25 1 
576 1.21674 5.15054 -0.111087 0.086679 5.15249 21.2089 25 1 
576 1.21674 5.15054 -0.111087 0.086679 5.15249 21.2089 26 1 
580 1.21667 5.19242 -0.112503 0.0857774 5.19438 21.071 26 1 
584 1.21659 5.23338 -0.113849 0.0848304 5.23533 20.9335 26 1 
588 1.21651 5.27379 -0.115089 0.0838201 5.27573 20.7959 26 1 
592 1.21644 5.31376 -0.116219 0.0827617 5.3157 20.6622 26 1 
596 1.21637 5.35313 -0.117261 0.0817268 5.35506 20.5306 26 1 
600 1.21629 5.39166 -0.118209 0.0806733 5.39358 20.3985 26 1 
604 1.21622 5.42924 -0.119058 0.0796672 5.43116 20.2681 26 1 
608 1.21615 5.46638 -0.119735 0.0786674 5.46828 20.1353 26 1 
608 1.21615 5.46638 -0.119735 0.0786674 5.46828 20.1353 26 1 
612 1.21608 5.50286 -0.12027 0.0776867 5.50475 20.0087 26 1 
616 1.21601 5.5388 -0.120671 0.0768556 5.54067 19.8821 26 1 
620 1.21594 5.57372 -0.12092 0.0760423 5.57557 19.7561 26 1 
624 1.21587 5.60785 -0.121023 0.0753536 5.60968 19.6301 26 1 
628 1.2158 5.64137 -0.120933 0.0747447 5.64318 19.5058 26 1 
632 1.21573 5.67431 -0.120702 0.074249 5.6761 19.3839 26 1 
636 1.21567 5.70647 -0.120299 0.0738489 5.70823 19.2638 26 1 
640 1.2156 5.73779 -0.11972 0.0735771 5.73953 19.1435 26 1 
644 1.21553 5.76827 -0.119009 0.0734343 5.76998 19.0237 26 1 
648 1.21547 5.79801 -0.118129 0.0732973 5.79969 18.9059 26 1 
652 1.2154 5.82743 -0.117021 0.0733769 5.82908 18.7878 26 1 
656 1.21534 5.85569 -0.115828 0.0734133 5.85731 18.6758 26 1 
660 1.21527 5.8835 -0.114471 0.0735267 5.88508 18.5566 26 1 
664 1.21521 5.91025 -0.112928 0.0737955 5.9118 18.4453 26 1 
668 1.21515 5.93658 -0.111294 0.0739253 5.9381 18.3311 26 1 
672 1.21509 5.9625 -0.109502 0.0740765 5.96398 18.2181 26 1 
672 1.21509 5.9625 -0.109502 0.0740765 5.96398 18.2181 27 1 
676 1.21503 5.98731 -0.107523 0.0742378 5.98874 18.1127 27 1 
680 1.21496 6.01209 -0.105536 0.0743681 6.01349 17.9955 27 1 
684 1.21491 6.03543 -0.103309 0.0743064 6.03678 17.8911 27 1 
688 1.21484 6.05909 -0.101086 0.0741779 6.0604 17.7779 27 1 
692 1.21479 6.08171 -0.0986667 0.0739157 6.08297 17.6753 27 1 
696 1.21472 6.1045 -0.0961669 0.0735427 6.10571 17.5599 27 1 
700 1.21467 6.12637 -0.0936492 0.0729496 6.12753 17.4607 27 1 
704 1.21461 6.14798 -0.0910374 0.0722894 6.14909 17.3524 27 1 
704 1.21461 6.14798 -0.0910374 0.0722894 6.14909 17.3524 31 1 
708 1.21454 6.16946 -0.088274 0.0711358 6.17051 17.2378 31 1 
712 1.21449 6.19063 -0.0855269 0.0699019 6.19162 17.1382 31 1 
716 1.21443 6.21169 -0.0825444 0.0685628 6.21263 17.0293 31 1 
720 1.21437 6.23229 -0.0796727 0.0669596 6.23317 16.9193 31 1 
724 1.2143 6.25417 -0.0768443 0.0650916 6.25499 16.7976 31 1 
728 1.21425 6.2745 -0.0736552 0.0629454 6.27526 16.7089 31 1 
732 1.21418 6.29589 -0.0706816 0.0611668 6.29659 16.585 31 1 
736 1.2141 6.31826 -0.0675075 0.0580466 6.3189 16.4448 31 1 
740 1.21406 6.33879 -0.0643861 0.0558223 6.33937 16.3696 31 1 
744 1.21398 6.3612 -0.0609464 0.0532643 6.36172 16.2264 31 1 
748 1.2139 6.38448 -0.0581858 0.0503951 6.38496 16.0712 31 1 
752 1.21384 6.4083 -0.0542247 0.0480768 6.40873 15.9694 31 1 
756 1.21378 6.43147 -0.0511114 0.0450162 6.43184 15.8521 31 1 
760 1.21365 6.45902 -0.0483244 0.0422033 6.45936 15.6325 31 1 
764 1.21358 6.48685 -0.04524 0.0395096 6.48714 15.5031 31 1 
768 1.21352 6.51579 -0.0426206 0.0369768 6.51605 15.3919 31 1 
772 1.21338 6.54675 -0.0383242 0.036744 6.54698 15.137 31 1 
776 1.21323 6.58049 -0.0341696 0.0369386 6.5807 14.8593 31 1 
780 1.21309 6.62442 -0.0328916 0.0334634 6.62462 14.618 31 1 
784 1.21297 6.67041 -0.0327363 0.0323946 6.67061 14.3904 31 1 
788 1.21264 6.73515 -0.0291354 0.0356278 6.73536 13.802 31 1 
792 1.21237 6.80534 -0.0270372 0.0430895 6.80561 13.311 31 1 
796 1.21195 6.90692 -0.0294234 0.0558665 6.90733 12.5542 31 1 
800 1.21157 6.97909 -0.0312929 0.0630907 6.97959 11.8665 31 1 
