86.9422;r ;Density                 ;Velocity u              ;Velocity v              ;Velocity w              ;|Velocity|              ;Pressure                ;Distribution            ;Levels                  ;
0 1.22437 9.99904 -0.000219409 0.00317955 9.99904 34.9903 1 1 
4 1.22436 9.99928 -0.000371132 -0.000439695 9.99928 34.9707 1 1 
8 1.22435 9.99931 -0.000700439 -0.000990935 9.99931 34.9508 1 1 
12 1.22435 9.99972 -0.000970564 -0.00143112 9.99972 34.9437 1 1 
16 1.22434 10.0006 -0.00136748 -0.00177925 10.0006 34.935 1 1 
20 1.22434 10.001 -0.00164498 -0.00192285 10.001 34.9278 1 1 
24 1.22433 10.0018 -0.00202873 -0.00234445 10.0018 34.9124 1 1 
28 1.22432 10.0027 -0.00228552 -0.00198472 10.0027 34.8978 1 1 
32 1.22431 10.0034 -0.00259513 -0.00150852 10.0034 34.8859 1 1 
36 1.2243 10.0038 -0.00291805 -0.0013438 10.0038 34.8641 1 1 
40 1.22429 10.0036 -0.00323215 -0.0015464 10.0036 34.8416 1 1 
44 1.22428 10.004 -0.00358784 -0.00158441 10.004 34.823 1 1 
48 1.22427 10.0047 -0.00389642 -0.00158204 10.0047 34.8005 1 1 
52 1.22425 10.005 -0.00427709 -0.00171307 10.005 34.7753 1 1 
56 1.22424 10.0051 -0.00455666 -0.00138573 10.0051 34.7525 1 1 
60 1.22423 10.0054 -0.00492312 -0.00119658 10.0054 34.7307 1 1 
64 1.22421 10.0061 -0.00520555 -0.000740802 10.0061 34.6933 1 1 
64 1.22421 10.0061 -0.00520555 -0.000740802 10.0061 34.6933 2 1 
68 1.22419 10.0061 -0.00558422 -0.000603778 10.0061 34.6697 2 1 
72 1.22417 10.0063 -0.00594426 -0.000477998 10.0063 34.6284 2 1 
76 1.22414 10.0071 -0.00627328 -0.000508953 10.0071 34.5784 2 1 
80 1.22414 10.0076 -0.0066387 -0.000663715 10.0076 34.5757 2 1 
84 1.22412 10.0087 -0.00700149 -0.000964153 10.0087 34.5298 2 1 
88 1.22408 10.0089 -0.00735816 -0.00139454 10.0089 34.4638 2 1 
92 1.22406 10.0081 -0.00776878 -0.00130127 10.0081 34.4288 2 1 
96 1.22403 10.0083 -0.00814181 -0.000289797 10.0083 34.3708 2 1 
100 1.22399 10.0093 -0.00851001 -3.99787e-05 10.0093 34.3095 2 1 
104 1.22398 10.0098 -0.00887853 0.000634831 10.0098 34.2811 2 1 
108 1.22394 10.0108 -0.00922582 0.000430017 10.0108 34.2146 2 1 
112 1.2239 10.0125 -0.00967245 0.000585519 10.0125 34.1367 2 1 
116 1.22389 10.0131 -0.0100456 -0.000354814 10.0131 34.1121 2 1 
120 1.22385 10.0135 -0.0104175 -0.00106905 10.0135 34.0524 2 1 
124 1.2238 10.013 -0.0107486 -0.00123888 10.013 33.963 2 1 
128 1.22377 10.0118 -0.0110861 -0.000316652 10.0118 33.9027 2 1 
128 1.22377 10.0118 -0.0110861 -0.000316652 10.0118 33.9027 10 1 
132 1.22373 10.012 -0.0113963 0.000608676 10.012 33.8395 10 1 
136 1.22369 10.0134 -0.0117153 0.00167414 10.0134 33.7626 10 1 
140 1.22368 10.0142 -0.0121372 0.00142091 10.0142 33.732 10 1 
144 1.22365 10.0144 -0.0124583 0.000851562 10.0144 33.6841 10 1 
148 1.22359 10.0146 -0.0127652 0.000928466 10.0146 33.584 10 1 
152 1.22357 10.0134 -0.0131066 0.000454328 10.0134 33.5386 10 1 
156 1.22354 10.0121 -0.0134921 0.000626706 10.0121 33.4817 10 1 
160 1.22349 10.0123 -0.0137956 0.000733996 10.0123 33.4015 10 1 
160 1.22349 10.0123 -0.0137956 0.000733996 10.0123 33.4015 10 1 
164 1.22349 10.0109 -0.0140599 0.00148654 10.0109 33.399 10 1 
168 1.22346 10.0097 -0.0144057 0.00252082 10.0097 33.3357 10 1 
172 1.2234 10.0086 -0.0147372 0.00352649 10.0086 33.2378 10 1 
176 1.22339 10.0054 -0.0151672 0.00378677 10.0054 33.2255 10 1 
180 1.22337 10.0023 -0.0153288 0.00342563 10.0023 33.1769 10 1 
184 1.22332 10.0009 -0.0157876 0.00300166 10.0009 33.0975 10 1 
188 1.22332 9.99958 -0.0160949 0.00216202 9.99959 33.0988 10 1 
192 1.22333 9.9967 -0.0165374 0.00375219 9.99672 33.1071 10 1 
196 1.22327 9.99525 -0.0168788 0.00460754 9.99527 33.0067 10 1 
200 1.22328 9.99102 -0.0171314 0.00587888 9.99104 33.0168 10 1 
204 1.22332 9.98354 -0.0175576 0.00776893 9.98356 33.0929 10 1 
208 1.22329 9.97666 -0.0176409 0.00946776 9.97669 33.0368 10 1 
212 1.22328 9.9658 -0.0182391 0.00823452 9.96583 33.014 10 1 
216 1.2233 9.95481 -0.0186395 0.00540821 9.95483 33.0474 10 1 
220 1.22333 9.94519 -0.0193355 0.00273499 9.94522 33.1092 10 1 
224 1.22336 9.93649 -0.0194957 0.0053842 9.93652 33.1656 10 1 
224 1.22336 9.93649 -0.0194957 0.0053842 9.93652 33.1656 10 1 
228 1.22345 9.92713 -0.019899 0.0105546 9.92716 33.3242 10 1 
232 1.22359 9.90874 -0.0202775 0.0144996 9.90879 33.574 10 1 
236 1.22359 9.88364 -0.0206491 0.0172652 9.8837 33.5794 10 1 
240 1.22364 9.85618 -0.0213318 0.0185233 9.85624 33.6749 10 1 
244 1.22396 9.82204 -0.0218329 0.0191663 9.8221 34.2435 10 1 
248 1.22415 9.78477 -0.0225833 0.0211967 9.78483 34.5937 10 1 
252 1.22427 9.74453 -0.0229763 0.0295634 9.74462 34.8046 10 1 
256 1.22477 9.68398 -0.0236411 0.0383019 9.68412 35.7097 10 1 
256 1.22477 9.68398 -0.0236411 0.0383019 9.68412 35.7097 11 1 
260 1.22526 9.60384 -0.0242113 0.0485555 9.60403 36.5935 11 1 
264 1.22551 9.51923 -0.0247388 0.0699247 9.51959 37.047 11 1 
268 1.2264 9.4058 -0.0254309 0.107486 9.40655 38.6474 11 1 
272 1.22766 9.24412 -0.0259499 0.166457 9.24598 40.9319 11 1 
276 1.22828 9.06137 -0.0264323 0.250956 9.0653 42.0437 11 1 
280 1.22944 8.82456 -0.0268458 0.373745 8.83368 44.1474 11 1 
284 1.23127 8.54341 -0.0271738 0.583397 8.56527 47.4455 11 1 
288 1.2321 8.28632 -0.0273322 0.871683 8.33443 48.9502 11 1 
292 1.23128 7.79463 -0.0271812 0.854617 7.84619 47.4605 11 1 
296 1.22696 6.8612 -0.0269936 0.233025 6.8894 39.6624 11 1 
300 1.22069 5.85486 -0.0266904 -0.656554 5.92739 28.343 11 1 
304 1.21657 5.17839 -0.0261407 -1.25114 5.34021 20.9022 11 1 
308 1.21473 4.81476 -0.0254361 -1.22646 4.97279 17.5729 11 1 
312 1.21443 4.51699 -0.0245787 -0.886997 4.60685 17.0303 11 1 
316 1.21515 4.17275 -0.0237158 -0.556864 4.21363 18.3371 11 1 
320 1.21605 3.84164 -0.0228632 -0.305006 3.85598 19.9529 11 1 
320 1.21605 3.84164 -0.0228632 -0.305006 3.85598 19.9529 15 1 
324 1.21673 3.54411 -0.0220548 -0.136429 3.54949 21.182 15 1 
328 1.21721 3.25861 -0.0215266 -0.0198551 3.26108 22.049 15 1 
332 1.2177 2.9908 -0.0212142 0.0450372 2.99318 22.9427 15 1 
336 1.21815 2.76208 -0.0208886 0.0868554 2.76505 23.7562 15 1 
340 1.21848 2.57249 -0.0206338 0.109423 2.5766 24.3521 15 1 
344 1.21877 2.40918 -0.0207099 0.121793 2.41403 24.8672 15 1 
348 1.21903 2.26495 -0.0210714 0.124488 2.26984 25.3351 15 1 
352 1.21922 2.13684 -0.0216056 0.123098 2.14158 25.6852 15 1 
356 1.21939 2.03094 -0.0224267 0.119513 2.03546 25.9899 15 1 
360 1.21957 1.95486 -0.0236585 0.11642 1.95914 26.314 15 1 
364 1.21971 1.90489 -0.0252715 0.11253 1.90884 26.578 15 1 
368 1.21982 1.87475 -0.027107 0.106692 1.8783 26.7634 15 1 
372 1.21991 1.86424 -0.0291019 0.100212 1.86737 26.9266 15 1 
376 1.22 1.87502 -0.0312925 0.0958972 1.87788 27.086 15 1 
380 1.22008 1.90544 -0.033587 0.0927838 1.90811 27.2321 15 1 
384 1.22014 1.95013 -0.0358904 0.0896015 1.95265 27.3401 15 1 
384 1.22014 1.95013 -0.0358904 0.0896015 1.95265 27.3401 16 1 
388 1.22017 2.00476 -0.0381121 0.0861432 2.00712 27.4044 16 1 
392 1.2202 2.06869 -0.0401956 0.0834759 2.07093 27.4506 16 1 
396 1.22022 2.14125 -0.0421676 0.0818011 2.1434 27.4932 16 1 
400 1.22024 2.21956 -0.0441286 0.0806312 2.22165 27.5214 16 1 
404 1.22024 2.30064 -0.0460305 0.0792828 2.30267 27.5196 16 1 
408 1.22022 2.38349 -0.0477401 0.0779779 2.38545 27.4872 16 1 
412 1.22019 2.4685 -0.049304 0.0772639 2.47041 27.4411 16 1 
416 1.22017 2.55537 -0.0508356 0.0772271 2.55725 27.3936 16 1 
420 1.22013 2.64239 -0.0523486 0.0771717 2.64423 27.3366 16 1 
424 1.22009 2.72802 -0.0537738 0.0770445 2.72982 27.2539 16 1 
428 1.22003 2.81257 -0.0550844 0.0771899 2.81434 27.1502 16 1 
432 1.21997 2.89707 -0.0562968 0.0776379 2.89883 27.0424 16 1 
436 1.21991 2.98091 -0.057489 0.0782393 2.98265 26.9339 16 1 
440 1.21985 3.06273 -0.0586972 0.0789592 3.06446 26.8147 16 1 
444 1.21977 3.1425 -0.0598703 0.079653 3.14422 26.6794 16 1 
448 1.21969 3.2208 -0.0609934 0.0803769 3.22251 26.5319 16 1 
448 1.21969 3.2208 -0.0609934 0.0803769 3.22251 26.5319 17 1 
452 1.21961 3.29779 -0.0620664 0.081182 3.29949 26.3814 17 1 
456 1.21952 3.37327 -0.0631509 0.0820502 3.37497 26.2297 17 1 
460 1.21943 3.44685 -0.0643071 0.0829431 3.44855 26.0706 17 1 
464 1.21934 3.51845 -0.0654852 0.0838002 3.52016 25.902 17 1 
468 1.21924 3.58833 -0.0666258 0.0845185 3.59003 25.7258 17 1 
472 1.21914 3.65669 -0.067778 0.0852402 3.6584 25.5447 17 1 
476 1.21904 3.72372 -0.0689862 0.0860366 3.72544 25.3634 17 1 
480 1.21894 3.78923 -0.0702835 0.0867641 3.79096 25.1799 17 1 
484 1.21883 3.85292 -0.0716075 0.0873545 3.85465 24.9878 17 1 
488 1.21872 3.91505 -0.0729465 0.0878897 3.91679 24.7895 17 1 
492 1.21861 3.97604 -0.0743223 0.0883719 3.97778 24.5896 17 1 
496 1.2185 4.03597 -0.0757481 0.0887958 4.03773 24.3886 17 1 
500 1.21839 4.09478 -0.0772668 0.0891509 4.09654 24.187 17 1 
504 1.21828 4.15215 -0.0788501 0.089393 4.15392 23.9812 17 1 
508 1.21816 4.20823 -0.0804422 0.0895171 4.21 23.7679 17 1 
512 1.21804 4.26348 -0.0820526 0.089546 4.26526 23.5539 17 1 
512 1.21804 4.26348 -0.0820526 0.089546 4.26526 23.5539 25 1 
516 1.21792 4.31814 -0.0837301 0.0894928 4.31993 23.3432 25 1 
520 1.21781 4.37189 -0.085468 0.0893424 4.37368 23.1307 25 1 
524 1.21769 4.42438 -0.0872519 0.0890851 4.42618 22.9139 25 1 
528 1.21756 4.47596 -0.0890131 0.0887038 4.47777 22.6926 25 1 
532 1.21744 4.52697 -0.0907746 0.0882135 4.52878 22.4725 25 1 
536 1.21732 4.57745 -0.0925675 0.0876422 4.57927 22.2547 25 1 
540 1.2172 4.62717 -0.0943647 0.0870292 4.62899 22.036 25 1 
544 1.21708 4.67577 -0.0961445 0.0863814 4.67759 21.8157 25 1 
548 1.21695 4.72358 -0.0978867 0.0856229 4.72541 21.5902 25 1 
552 1.21683 4.77095 -0.0995601 0.0848194 4.77278 21.3693 25 1 
556 1.21671 4.81786 -0.101194 0.0840575 4.81969 21.1509 25 1 
560 1.21659 4.86385 -0.102809 0.083318 4.86568 20.9319 25 1 
564 1.21647 4.90886 -0.104357 0.0825622 4.9107 20.7127 25 1 
568 1.21634 4.95313 -0.10581 0.0818357 4.95498 20.4904 25 1 
572 1.21622 4.99693 -0.10715 0.0811753 4.99877 20.2732 25 1 
576 1.21611 5.04012 -0.108402 0.0805839 5.04196 20.0603 25 1 
576 1.21611 5.04012 -0.108402 0.0805839 5.04196 20.0603 26 1 
580 1.21599 5.08238 -0.109572 0.0800857 5.08422 19.8457 26 1 
584 1.21587 5.1236 -0.110634 0.0796727 5.12544 19.6326 26 1 
588 1.21575 5.16414 -0.111562 0.0793417 5.16599 19.4198 26 1 
592 1.21564 5.20411 -0.112354 0.079079 5.20595 19.212 26 1 
596 1.21552 5.24335 -0.113045 0.078938 5.24519 19.0071 26 1 
600 1.21541 5.28163 -0.11363 0.0788771 5.28347 18.803 26 1 
604 1.2153 5.31881 -0.114115 0.0789243 5.32065 18.6023 26 1 
608 1.21519 5.35546 -0.114443 0.0790147 5.35729 18.4002 26 1 
608 1.21519 5.35546 -0.114443 0.0790147 5.35729 18.4002 26 1 
612 1.21508 5.39132 -0.114647 0.0791434 5.39314 18.2068 26 1 
616 1.21497 5.42654 -0.11475 0.079403 5.42836 18.0147 26 1 
620 1.21487 5.46068 -0.114734 0.0796255 5.46249 17.8251 26 1 
624 1.21477 5.49396 -0.114627 0.0799041 5.49576 17.6381 26 1 
628 1.21466 5.5266 -0.114374 0.0801415 5.52839 17.454 26 1 
632 1.21456 5.55863 -0.114049 0.0803543 5.56041 17.2748 26 1 
636 1.21447 5.58989 -0.113619 0.0805036 5.59164 17.0992 26 1 
640 1.21437 5.62036 -0.113083 0.080584 5.6221 16.9257 26 1 
644 1.21428 5.65007 -0.112495 0.0805785 5.65179 16.7549 26 1 
648 1.21418 5.67912 -0.111819 0.0803576 5.68081 16.5877 26 1 
652 1.21409 5.708 -0.110991 0.0801055 5.70966 16.4225 26 1 
656 1.214 5.73588 -0.110171 0.0795527 5.73751 16.2649 26 1 
660 1.21391 5.7635 -0.10926 0.078835 5.76509 16.1026 26 1 
664 1.21383 5.79033 -0.108243 0.078026 5.79189 15.9493 26 1 
668 1.21374 5.81699 -0.10722 0.0768464 5.81851 15.7951 26 1 
672 1.21366 5.84351 -0.106099 0.0754742 5.84497 15.6442 26 1 
672 1.21366 5.84351 -0.106099 0.0754742 5.84497 15.6442 27 1 
676 1.21358 5.86929 -0.104868 0.0739044 5.8707 15.501 27 1 
680 1.2135 5.89535 -0.10368 0.0721473 5.89672 15.3493 27 1 
684 1.21342 5.92034 -0.102308 0.0700779 5.92165 15.2117 27 1 
688 1.21334 5.94604 -0.101004 0.0678298 5.9473 15.0656 27 1 
692 1.21327 5.97108 -0.0995239 0.0654109 5.97228 14.9325 27 1 
696 1.21319 5.99666 -0.0980012 0.0628898 5.99781 14.7892 27 1 
700 1.21312 6.0217 -0.0965026 0.0601967 6.02279 14.6631 27 1 
704 1.21304 6.04693 -0.0949145 0.0575187 6.04796 14.5279 27 1 
704 1.21304 6.04693 -0.0949145 0.0575187 6.04796 14.5279 31 1 
708 1.21297 6.07231 -0.0931775 0.0545558 6.07329 14.3923 31 1 
712 1.2129 6.09772 -0.0914632 0.0516642 6.09864 14.2725 31 1 
716 1.21283 6.1234 -0.0895307 0.0489249 6.12426 14.1417 31 1 
720 1.21276 6.14886 -0.0876773 0.0462789 6.14967 14.0176 31 1 
724 1.21269 6.17575 -0.0858514 0.0436147 6.17651 13.8844 31 1 
728 1.21263 6.20144 -0.0836938 0.0411727 6.20216 13.7811 31 1 
732 1.21256 6.22846 -0.0816598 0.039372 6.22913 13.6496 31 1 
736 1.21248 6.25634 -0.0794622 0.0367659 6.25696 13.5103 31 1 
740 1.21243 6.2827 -0.0772396 0.0355249 6.2833 13.4292 31 1 
744 1.21235 6.31109 -0.074738 0.034273 6.31164 13.2843 31 1 
748 1.21228 6.34006 -0.0728275 0.03336 6.34058 13.1439 31 1 
752 1.21222 6.36973 -0.0697001 0.0333361 6.37022 13.0477 31 1 
756 1.21216 6.39884 -0.0674556 0.0330091 6.3993 12.9331 31 1 
760 1.21205 6.43195 -0.0655108 0.0334472 6.43239 12.7408 31 1 
764 1.21199 6.46526 -0.0630753 0.0343184 6.46568 12.6339 31 1 
768 1.21194 6.49937 -0.0610721 0.0358724 6.49977 12.5355 31 1 
772 1.21181 6.5352 -0.0575663 0.0399393 6.5356 12.3097 31 1 
776 1.21169 6.57334 -0.0541285 0.0446837 6.57374 12.0766 31 1 
780 1.21157 6.62091 -0.0533285 0.0462486 6.62132 11.8693 31 1 
784 1.21146 6.66999 -0.0534966 0.0506179 6.67044 11.6726 31 1 
788 1.21118 6.73608 -0.0502394 0.0594216 6.73659 11.154 31 1 
792 1.21094 6.80662 -0.048048 0.0733213 6.80727 10.7267 31 1 
796 1.21055 6.9068 -0.0495968 0.0929977 6.90774 10.0317 31 1 
800 1.2102 6.97732 -0.0507694 0.103348 6.97841 9.38808 31 1 
