27.1694;r ;Density                 ;Velocity u              ;Velocity v              ;Velocity w              ;|Velocity|              ;Pressure                ;Distribution            ;Levels                  ;
0 1.20516 9.99853 3.58702e-05 -5.69525e-05 9.99853 0.293874 1 1 
4 1.20516 9.99918 -6.13403e-05 -0.000136509 9.99918 0.288636 1 1 
8 1.20516 9.99799 -0.000396033 -0.00053511 9.99799 0.283189 1 1 
12 1.20515 9.99689 -0.000647488 -0.000830267 9.99689 0.278219 1 1 
16 1.20518 9.99679 -0.000773516 -0.00103925 9.99679 0.319106 1 1 
20 1.20519 9.99565 -0.00105584 -0.00136279 9.99565 0.348269 1 1 
24 1.20517 9.99545 -0.00123839 -0.00160062 9.99545 0.307191 1 1 
28 1.20521 9.99347 -0.00143387 -0.00189904 9.99347 0.371758 1 1 
32 1.20524 9.99344 -0.00162742 -0.00211682 9.99344 0.435863 1 1 
36 1.20525 9.99358 -0.001841 -0.00233226 9.99358 0.457323 1 1 
40 1.20525 9.99161 -0.00204072 -0.00257542 9.99162 0.443522 1 1 
44 1.20523 9.98895 -0.00222526 -0.00281108 9.98895 0.412363 1 1 
48 1.20521 9.98798 -0.00239615 -0.00296156 9.98798 0.387374 1 1 
52 1.20524 9.98656 -0.00257987 -0.00320004 9.98656 0.428841 1 1 
56 1.20527 9.98497 -0.00275895 -0.00343524 9.98497 0.487662 1 1 
60 1.20525 9.98575 -0.00300769 -0.00368185 9.98575 0.455422 1 1 
64 1.2053 9.9834 -0.00321255 -0.0038902 9.98341 0.541209 1 1 
64 1.2053 9.9834 -0.00321255 -0.0038902 9.98341 0.541209 2 1 
68 1.20534 9.98345 -0.00336966 -0.00407125 9.98345 0.610338 2 1 
72 1.20536 9.9834 -0.00365752 -0.0043998 9.9834 0.651126 2 1 
76 1.20535 9.98195 -0.00392566 -0.00474091 9.98195 0.628273 2 1 
80 1.20533 9.98001 -0.00409028 -0.00490398 9.98002 0.594975 2 1 
84 1.20533 9.97962 -0.00423745 -0.00510014 9.97962 0.602778 2 1 
88 1.20536 9.97889 -0.0045043 -0.00534431 9.9789 0.649266 2 1 
92 1.20537 9.97821 -0.00456208 -0.00541354 9.97822 0.668817 2 1 
96 1.20535 9.97936 -0.00474315 -0.00565571 9.97936 0.6284 2 1 
100 1.20539 9.9774 -0.00489926 -0.0058622 9.97741 0.706596 2 1 
104 1.20542 9.97591 -0.00518906 -0.00613568 9.97591 0.76054 2 1 
108 1.20545 9.97468 -0.00525624 -0.00623501 9.97469 0.816842 2 1 
112 1.20546 9.97468 -0.00536089 -0.00641352 9.97468 0.828386 2 1 
116 1.20545 9.97445 -0.00575347 -0.00673279 9.97445 0.81161 2 1 
120 1.20545 9.97537 -0.0058232 -0.00690077 9.97537 0.807088 2 1 
124 1.20547 9.97366 -0.00592383 -0.00702039 9.97366 0.855223 2 1 
128 1.20547 9.97137 -0.00618925 -0.00730624 9.97138 0.85026 2 1 
128 1.20547 9.97137 -0.00618925 -0.00730624 9.97138 0.85026 10 1 
132 1.20544 9.97187 -0.00658774 -0.00776149 9.97187 0.799064 10 1 
136 1.20549 9.96887 -0.00661178 -0.00789276 9.96888 0.886979 10 1 
140 1.20548 9.97071 -0.00659552 -0.00784703 9.97072 0.869864 10 1 
144 1.20549 9.97054 -0.00673903 -0.0080072 9.97055 0.887397 10 1 
148 1.20554 9.96832 -0.00702323 -0.00844934 9.96833 0.968064 10 1 
152 1.20553 9.97017 -0.00709123 -0.00840406 9.97018 0.962793 10 1 
156 1.20555 9.96727 -0.00655382 -0.00789453 9.96728 1.0007 10 1 
160 1.20556 9.96367 -0.00648976 -0.00781397 9.96367 1.01741 10 1 
160 1.20556 9.96367 -0.00648976 -0.00781397 9.96367 1.01741 10 1 
164 1.2055 9.96509 -0.00675166 -0.00818895 9.9651 0.909167 10 1 
168 1.20553 9.96228 -0.0071961 -0.00865157 9.96229 0.960792 10 1 
172 1.20555 9.9603 -0.007306 -0.00882415 9.96031 0.987078 10 1 
176 1.2055 9.96515 -0.00696151 -0.00865741 9.96516 0.901291 10 1 
180 1.20559 9.96154 -0.00653069 -0.00812715 9.96155 1.06937 10 1 
184 1.20559 9.96084 -0.0064125 -0.00808192 9.96085 1.06661 10 1 
188 1.20558 9.96073 -0.0063719 -0.00805301 9.96074 1.05125 10 1 
192 1.20563 9.95375 -0.0064099 -0.00810404 9.95376 1.13599 10 1 
196 1.20558 9.95331 -0.00678027 -0.00848656 9.95332 1.05085 10 1 
200 1.20559 9.95475 -0.00667415 -0.00851758 9.95476 1.06206 10 1 
204 1.20566 9.95276 -0.00675431 -0.00859202 9.95277 1.18389 10 1 
208 1.20564 9.95111 -0.00684276 -0.00862878 9.95112 1.16468 10 1 
212 1.20559 9.94863 -0.00677715 -0.00866234 9.94864 1.06053 10 1 
216 1.20568 9.94011 -0.00692504 -0.00887285 9.94012 1.22784 10 1 
220 1.20576 9.93321 -0.00687242 -0.00899184 9.93322 1.36801 10 1 
224 1.20572 9.93096 -0.00683266 -0.00888995 9.93097 1.30082 10 1 
224 1.20572 9.93096 -0.00683266 -0.00888995 9.93097 1.30082 10 1 
228 1.20583 9.92295 -0.0069645 -0.009088 9.92296 1.50356 10 1 
232 1.20584 9.91979 -0.00696218 -0.00916663 9.9198 1.51138 10 1 
236 1.20583 9.91382 -0.00705889 -0.00922842 9.91384 1.49607 10 1 
240 1.20591 9.90481 -0.0070948 -0.00941921 9.90483 1.63927 10 1 
244 1.20602 9.89232 -0.00709872 -0.00939931 9.89233 1.83571 10 1 
248 1.20611 9.8705 -0.00741623 -0.00966152 9.87051 2.00509 10 1 
252 1.20605 9.8597 -0.00738334 -0.00982631 9.85971 1.89421 10 1 
256 1.20634 9.83866 -0.00727683 -0.00958726 9.83867 2.42846 10 1 
256 1.20634 9.83866 -0.00727683 -0.00958726 9.83867 2.42846 11 1 
260 1.20658 9.80762 -0.00738819 -0.00970053 9.80766 2.84705 11 1 
264 1.2065 9.78235 -0.00730752 -0.00988398 9.78239 2.70669 11 1 
268 1.20698 9.73676 -0.00742258 -0.00982858 9.7368 3.57003 11 1 
272 1.20761 9.67553 -0.00764914 -0.0101077 9.67557 4.70904 11 1 
276 1.20772 9.60268 -0.00768567 -0.0101987 9.60283 4.91509 11 1 
280 1.20823 9.48237 -0.00786363 -0.0102812 9.48252 5.8375 11 1 
284 1.2093 9.35745 -0.00779033 -0.0102212 9.3575 7.76123 11 1 
288 1.21042 9.20459 -0.00777024 -0.0101237 9.2047 9.79227 11 1 
292 1.21171 8.966 -0.00791618 -0.0102331 8.96669 12.1143 11 1 
296 1.20816 8.66166 -0.00753999 -0.00975688 8.66247 5.70972 11 1 
300 1.20157 8.44084 -0.00764682 -0.00974049 8.44109 -6.19755 11 1 
304 1.20005 8.28418 -0.00773662 -0.0097729 8.28453 -8.94903 11 1 
308 1.20123 8.0984 -0.00768054 -0.00963815 8.09902 -6.81328 11 1 
312 1.2019 7.90491 -0.00781038 -0.00964808 7.90548 -5.59219 11 1 
316 1.20241 7.72661 -0.00765068 -0.00943132 7.72693 -4.67554 11 1 
320 1.20285 7.62123 -0.00760264 -0.00937385 7.62137 -3.87951 11 1 
320 1.20285 7.62123 -0.00760264 -0.00937385 7.62137 -3.87951 15 1 
324 1.20337 7.54721 -0.00755522 -0.00924318 7.54726 -2.94131 15 1 
328 1.20384 7.50288 -0.00768118 -0.00936972 7.50292 -2.09953 15 1 
332 1.20414 7.46396 -0.00783483 -0.00956414 7.464 -1.5608 15 1 
336 1.20414 7.41329 -0.00786344 -0.0094958 7.41331 -1.55215 15 1 
340 1.20422 7.39349 -0.00786164 -0.0094714 7.39351 -1.41626 15 1 
344 1.20451 7.39372 -0.00783326 -0.00951478 7.39374 -0.878128 15 1 
348 1.20467 7.38475 -0.0079275 -0.00956695 7.38476 -0.601265 15 1 
352 1.20471 7.37588 -0.00792958 -0.00947869 7.3759 -0.526515 15 1 
356 1.20474 7.3637 -0.00773655 -0.00926109 7.36372 -0.478275 15 1 
360 1.20477 7.3537 -0.00755774 -0.00904575 7.35372 -0.41203 15 1 
364 1.20492 7.35941 -0.00752809 -0.00898459 7.35943 -0.138321 15 1 
368 1.205 7.36064 -0.00758163 -0.0090168 7.36065 -0.00618439 15 1 
372 1.20497 7.35124 -0.00756383 -0.00892778 7.35125 -0.0582153 15 1 
376 1.20498 7.34293 -0.00739509 -0.00871056 7.34294 -0.0296151 15 1 
380 1.20497 7.33394 -0.00722793 -0.00854965 7.33395 -0.0573117 15 1 
384 1.20495 7.32961 -0.00705686 -0.00833936 7.32962 -0.0925493 15 1 
384 1.20495 7.32961 -0.00705686 -0.00833936 7.32962 -0.0925493 16 1 
388 1.20498 7.32852 -0.00685924 -0.0080117 7.32853 -0.0302435 16 1 
392 1.20502 7.31951 -0.0066374 -0.00774217 7.31952 0.0423392 16 1 
396 1.20502 7.30865 -0.00659781 -0.00763917 7.30866 0.033131 16 1 
400 1.20497 7.3018 -0.00681601 -0.00767484 7.30181 -0.053704 16 1 
404 1.20497 7.29669 -0.00690278 -0.00765843 7.2967 -0.0525922 16 1 
408 1.20497 7.29283 -0.00668537 -0.00738178 7.29284 -0.052184 16 1 
412 1.20488 7.28763 -0.00636957 -0.00694385 7.28764 -0.220061 16 1 
416 1.20482 7.28082 -0.00613323 -0.00659573 7.28083 -0.317568 16 1 
420 1.20486 7.27641 -0.00596006 -0.00636708 7.27641 -0.253617 16 1 
424 1.2049 7.27637 -0.00581219 -0.00621417 7.27638 -0.185352 16 1 
428 1.20491 7.27638 -0.0056542 -0.0060622 7.27639 -0.165952 16 1 
432 1.20487 7.27181 -0.00547151 -0.00574209 7.27182 -0.235946 16 1 
436 1.20478 7.26818 -0.00521526 -0.00535115 7.26819 -0.402485 16 1 
440 1.2047 7.27074 -0.00482971 -0.00501336 7.27075 -0.548426 16 1 
444 1.2047 7.27681 -0.00444092 -0.00459564 7.27681 -0.541039 16 1 
448 1.20475 7.28388 -0.00412257 -0.0041599 7.28389 -0.451908 16 1 
448 1.20475 7.28388 -0.00412257 -0.0041599 7.28389 -0.451908 17 1 
452 1.20476 7.2879 -0.00386508 -0.00392865 7.2879 -0.44095 17 1 
456 1.20472 7.28608 -0.00373823 -0.00383109 7.28608 -0.511328 17 1 
460 1.20465 7.2848 -0.00357054 -0.00362108 7.2848 -0.635228 17 1 
464 1.2046 7.29099 -0.00319555 -0.00327508 7.29099 -0.718701 17 1 
468 1.20462 7.30751 -0.00289039 -0.00303728 7.30752 -0.695162 17 1 
472 1.20462 7.33257 -0.00272881 -0.00294926 7.33257 -0.685938 17 1 
476 1.20459 7.35721 -0.00254002 -0.00278113 7.35721 -0.738209 17 1 
480 1.20456 7.3736 -0.00227168 -0.00245204 7.3736 -0.801307 17 1 
484 1.20455 7.37921 -0.00196115 -0.0021491 7.37922 -0.806147 17 1 
488 1.20457 7.37342 -0.00169822 -0.00192555 7.37342 -0.770783 17 1 
492 1.20453 7.36028 -0.00154373 -0.00168239 7.36028 -0.850648 17 1 
496 1.20447 7.35017 -0.00138713 -0.00138312 7.35017 -0.955294 17 1 
500 1.20447 7.35494 -0.00114522 -0.00107832 7.35495 -0.953576 17 1 
504 1.20449 7.38378 -0.000881262 -0.000785861 7.38379 -0.929543 17 1 
508 1.20452 7.4402 -0.000769386 -0.000547673 7.44024 -0.859264 17 1 
512 1.20457 7.52168 -0.000724747 -0.000362997 7.52175 -0.785382 17 1 
512 1.20457 7.52168 -0.000724747 -0.000362997 7.52175 -0.785382 25 1 
516 1.20456 7.62564 -0.000628145 -0.000196496 7.62576 -0.794222 25 1 
520 1.20456 7.75172 -0.000427393 4.75999e-06 7.75188 -0.790134 25 1 
524 1.20459 7.8985 -0.00020763 0.000261651 7.8987 -0.743835 25 1 
528 1.20465 8.06277 -0.000116589 0.000525304 8.063 -0.631307 25 1 
532 1.20474 8.23856 -0.00011688 0.000697725 8.2388 -0.478313 25 1 
536 1.20478 8.41769 -0.000112967 0.000852737 8.41793 -0.397488 25 1 
540 1.20479 8.59553 -8.18395e-05 0.000995639 8.59577 -0.386957 25 1 
544 1.20476 8.77093 -2.40607e-05 0.00114978 8.77115 -0.427401 25 1 
548 1.20476 8.94022 0.000105461 0.00143269 8.94041 -0.426486 25 1 
552 1.20481 9.09924 0.000147184 0.00166383 9.0994 -0.334546 25 1 
556 1.20484 9.2434 0.000121983 0.00177302 9.24353 -0.293722 25 1 
560 1.2048 9.37037 0.000131661 0.00189796 9.37047 -0.368392 25 1 
564 1.20474 9.48236 0.000148174 0.00206757 9.48244 -0.474266 25 1 
568 1.20473 9.57897 0.000157327 0.00227481 9.57902 -0.490365 25 1 
572 1.20478 9.65928 0.000134551 0.00248469 9.65931 -0.404908 25 1 
576 1.20479 9.72375 0.000100356 0.00262422 9.72377 -0.385356 25 1 
576 1.20479 9.72375 0.000100356 0.00262422 9.72377 -0.385356 26 1 
580 1.20472 9.77338 0.000129298 0.00276292 9.77339 -0.514469 26 1 
584 1.20466 9.81404 0.000187093 0.00292482 9.81405 -0.606753 26 1 
588 1.2047 9.85031 0.000143811 0.00295498 9.85032 -0.535946 26 1 
592 1.20476 9.8808 9.45518e-05 0.00291155 9.8808 -0.439602 26 1 
596 1.20477 9.90389 8.63871e-05 0.00291069 9.90389 -0.421363 26 1 
600 1.2047 9.91956 7.67327e-05 0.00294604 9.91957 -0.536706 26 1 
604 1.20462 9.9319 8.71707e-05 0.00302548 9.9319 -0.686563 26 1 
608 1.20466 9.94506 7.09828e-05 0.00307346 9.94507 -0.620579 26 1 
608 1.20466 9.94506 7.09828e-05 0.00307346 9.94507 -0.620579 26 1 
612 1.20475 9.95822 1.10281e-05 0.00303144 9.95822 -0.445188 26 1 
616 1.20478 9.96632 -5.82113e-05 0.00296084 9.96632 -0.389879 26 1 
620 1.20471 9.96973 -6.82604e-05 0.00292378 9.96973 -0.530488 26 1 
624 1.20461 9.97202 -3.04463e-05 0.00290404 9.97202 -0.710778 26 1 
628 1.20464 9.97449 -1.64057e-05 0.00287216 9.97449 -0.644766 26 1 
632 1.20475 9.97961 7.48426e-06 0.00285239 9.97961 -0.453671 26 1 
636 1.20479 9.98382 1.35327e-05 0.00277796 9.98383 -0.381842 26 1 
640 1.20473 9.98272 -5.82861e-05 0.00261288 9.98272 -0.478874 26 1 
644 1.20464 9.98172 -0.000102149 0.00247577 9.98172 -0.647956 26 1 
648 1.20463 9.98333 -1.71752e-05 0.00247993 9.98333 -0.66553 26 1 
652 1.20471 9.98561 0.000111924 0.00252383 9.98561 -0.521139 26 1 
656 1.20477 9.98853 0.00015039 0.00246446 9.98853 -0.41837 26 1 
660 1.20475 9.98742 4.15252e-05 0.00228248 9.98742 -0.45804 26 1 
664 1.20468 9.98465 -6.3685e-05 0.00207689 9.98465 -0.571112 26 1 
668 1.20468 9.98567 -8.57731e-05 0.00192431 9.98567 -0.577861 26 1 
672 1.20473 9.98689 -1.06075e-05 0.00192539 9.98689 -0.480218 26 1 
672 1.20473 9.98689 -1.06075e-05 0.00192539 9.98689 -0.480218 27 1 
676 1.20473 9.98704 0.000102537 0.00196422 9.98704 -0.479802 27 1 
680 1.20469 9.9861 0.000179775 0.00192218 9.9861 -0.560171 27 1 
684 1.20465 9.98272 0.000197082 0.00186555 9.98272 -0.625851 27 1 
688 1.20469 9.98268 6.63369e-05 0.00167151 9.98268 -0.567463 27 1 
692 1.20478 9.98742 -3.54604e-05 0.00146124 9.98742 -0.399635 27 1 
696 1.20479 9.98823 -5.6617e-05 0.00133903 9.98823 -0.379116 27 1 
700 1.20473 9.98826 5.79557e-05 0.00136807 9.98826 -0.494502 27 1 
704 1.20464 9.9863 0.000244781 0.00146288 9.9863 -0.654264 27 1 
704 1.20464 9.9863 0.000244781 0.00146288 9.9863 -0.654264 31 1 
708 1.2046 9.98389 0.000275491 0.00142797 9.98389 -0.713541 31 1 
712 1.2047 9.98977 0.000155276 0.00123926 9.98977 -0.540161 31 1 
716 1.20478 9.992 1.43654e-05 0.0010348 9.992 -0.40358 31 1 
720 1.20476 9.99067 -2.09838e-05 0.000914796 9.99067 -0.442002 31 1 
724 1.20467 9.99019 0.00011888 0.000970993 9.99019 -0.590259 31 1 
728 1.2046 9.98697 0.000271391 0.00105817 9.98697 -0.727554 31 1 
732 1.20465 9.99112 0.000312212 0.00103514 9.99112 -0.631305 31 1 
736 1.20477 9.99723 0.000209249 0.000861109 9.99723 -0.41417 31 1 
740 1.20481 9.9951 6.14679e-05 0.000663466 9.9951 -0.343691 31 1 
744 1.20475 9.99307 2.8064e-05 0.000546753 9.99307 -0.443352 31 1 
748 1.20463 9.98648 0.000163208 0.000600194 9.98648 -0.675708 31 1 
752 1.20457 9.98411 0.000317647 0.000718287 9.98411 -0.769728 31 1 
756 1.2047 9.9937 0.000395784 0.000736008 9.9937 -0.534747 31 1 
760 1.20485 9.99803 0.000327031 0.000602677 9.99803 -0.264416 31 1 
764 1.20493 10.0014 0.000111719 0.000341982 10.0014 -0.124192 31 1 
768 1.20486 9.99677 -1.96651e-05 0.000169625 9.99677 -0.248361 31 1 
772 1.20472 9.98572 1.02664e-05 0.000121968 9.98572 -0.512696 31 1 
776 1.20467 9.98739 0.000151443 0.000189083 9.98739 -0.604257 31 1 
780 1.2047 9.99074 0.000293493 0.000314013 9.99074 -0.540658 31 1 
784 1.20483 9.99688 0.000329761 0.000309503 9.99688 -0.309818 31 1 
788 1.20496 10.0022 0.000171383 7.45999e-05 10.0022 -0.0737052 31 1 
792 1.20497 9.99498 7.21944e-06 -0.000135542 9.99498 -0.0490304 31 1 
796 1.20493 9.99386 -7.02423e-05 -0.000252151 9.99386 -0.119598 31 1 
800 1.20492 9.99869 -9.36237e-05 -0.000285987 9.99869 -0.144724 31 1 
