146.715;r ;Density                 ;Velocity u              ;Velocity v              ;Velocity w              ;|Velocity|              ;Pressure                ;Distribution            ;Levels                  ;
0 1.19099 10.0003 3.42462e-06 0.000172299 10.0003 -25.3125 1 1 
4 1.19101 10.0012 -6.56168e-05 0.000258412 10.0012 -25.2739 1 1 
8 1.19101 10.0016 -0.000374692 0.000362787 10.0016 -25.263 1 1 
12 1.19098 10.0025 -0.000656747 0.000464421 10.0025 -25.3201 1 1 
16 1.19099 10.0037 -0.000855514 0.000624598 10.0037 -25.3068 1 1 
20 1.19101 10.0035 -0.00114124 0.000671994 10.0035 -25.2686 1 1 
24 1.19098 10.0048 -0.00136245 0.000825373 10.0048 -25.3195 1 1 
28 1.19099 10.005 -0.0016278 0.000911446 10.005 -25.31 1 1 
32 1.19098 10.0059 -0.00189207 0.0010375 10.0059 -25.3199 1 1 
36 1.19098 10.0073 -0.00207251 0.00121207 10.0073 -25.3263 1 1 
40 1.19099 10.0075 -0.0023699 0.00130415 10.0075 -25.3012 1 1 
44 1.19098 10.0069 -0.00261287 0.00141915 10.0069 -25.3298 1 1 
48 1.19096 10.0077 -0.00287553 0.00158944 10.0077 -25.3593 1 1 
52 1.19097 10.0079 -0.00311535 0.00170853 10.0079 -25.3491 1 1 
56 1.19097 10.0069 -0.0033852 0.00184201 10.0069 -25.3381 1 1 
60 1.19095 10.0083 -0.00366537 0.00198042 10.0083 -25.3696 1 1 
64 1.19097 10.0074 -0.00393848 0.00210513 10.0074 -25.3444 1 1 
64 1.19097 10.0074 -0.00393848 0.00210513 10.0074 -25.3444 2 1 
68 1.19095 10.0079 -0.00416328 0.00228966 10.0079 -25.3732 2 1 
72 1.19095 10.0087 -0.00444394 0.00242705 10.0087 -25.3737 2 1 
76 1.19095 10.0086 -0.00473978 0.00251999 10.0086 -25.375 2 1 
80 1.19096 10.0078 -0.00501341 0.00270353 10.0078 -25.3639 2 1 
84 1.19094 10.0095 -0.00523458 0.00291083 10.0095 -25.3891 2 1 
88 1.19095 10.0104 -0.00553288 0.00305553 10.0104 -25.3846 2 1 
92 1.19096 10.0111 -0.00575583 0.00328421 10.0111 -25.3529 2 1 
96 1.19094 10.0138 -0.00608818 0.00337162 10.0138 -25.4013 2 1 
100 1.19096 10.0114 -0.00626372 0.00364092 10.0114 -25.3544 2 1 
104 1.19095 10.0106 -0.006584 0.00380403 10.0106 -25.3773 2 1 
108 1.19094 10.0109 -0.00682146 0.00400029 10.0109 -25.3984 2 1 
112 1.19095 10.0113 -0.00704894 0.00420852 10.0113 -25.383 2 1 
116 1.19095 10.0127 -0.00739216 0.0044329 10.0127 -25.3833 2 1 
120 1.19094 10.0147 -0.00759419 0.00465401 10.0147 -25.3928 2 1 
124 1.19096 10.0133 -0.00789124 0.0048085 10.0134 -25.3522 2 1 
128 1.19096 10.0129 -0.0081684 0.00508428 10.0129 -25.3624 2 1 
128 1.19096 10.0129 -0.0081684 0.00508428 10.0129 -25.3624 10 1 
132 1.19093 10.0141 -0.00842752 0.00531266 10.0141 -25.4187 10 1 
136 1.19096 10.0113 -0.00863561 0.00553603 10.0113 -25.3589 10 1 
140 1.19094 10.0133 -0.00898965 0.00574654 10.0133 -25.3938 10 1 
144 1.19094 10.0131 -0.00920665 0.00608028 10.0131 -25.3871 10 1 
148 1.19098 10.0117 -0.0094449 0.00623634 10.0117 -25.3314 10 1 
152 1.19095 10.0146 -0.00978782 0.00651947 10.0146 -25.3851 10 1 
156 1.19095 10.0132 -0.00993199 0.00693062 10.0132 -25.3777 10 1 
160 1.19098 10.0112 -0.010353 0.00714868 10.0112 -25.3214 10 1 
160 1.19098 10.0112 -0.010353 0.00714868 10.0112 -25.3214 10 1 
164 1.19095 10.0136 -0.0105544 0.00736434 10.0136 -25.3813 10 1 
168 1.19099 10.0114 -0.0108073 0.00773663 10.0114 -25.3116 10 1 
172 1.191 10.0096 -0.0110952 0.00806895 10.0096 -25.2899 10 1 
176 1.19094 10.0145 -0.0112684 0.00838307 10.0145 -25.3979 10 1 
180 1.19103 10.0108 -0.0114698 0.00892741 10.0108 -25.2364 10 1 
184 1.19101 10.0099 -0.0118149 0.00918397 10.0099 -25.2631 10 1 
188 1.19099 10.01 -0.0120534 0.00960923 10.0101 -25.3144 10 1 
192 1.19104 10.0031 -0.0122108 0.0100852 10.0031 -25.22 10 1 
196 1.191 10.0036 -0.0127192 0.0102548 10.0036 -25.2795 10 1 
200 1.19102 10.0068 -0.0127842 0.0107856 10.0068 -25.2505 10 1 
204 1.19111 10.0052 -0.013069 0.0112664 10.0052 -25.0894 10 1 
208 1.19112 10.0042 -0.0133654 0.0117677 10.0042 -25.0689 10 1 
212 1.19107 10.0022 -0.0135432 0.0122321 10.0022 -25.1526 10 1 
216 1.19116 9.99412 -0.0139271 0.012538 9.99415 -25.0026 10 1 
220 1.19119 9.98739 -0.0141099 0.0129258 9.98742 -24.9441 10 1 
224 1.19112 9.98448 -0.0142763 0.0135443 9.9845 -25.0678 10 1 
224 1.19112 9.98448 -0.0142763 0.0135443 9.9845 -25.0678 10 1 
228 1.19126 9.97741 -0.0146495 0.0139144 9.97743 -24.8143 10 1 
232 1.19131 9.97557 -0.0148351 0.0144222 9.97559 -24.7349 10 1 
236 1.19132 9.97002 -0.0151459 0.0149819 9.97005 -24.7119 10 1 
240 1.1914 9.96138 -0.0153638 0.0153797 9.96141 -24.567 10 1 
244 1.19151 9.94922 -0.0155792 0.0160261 9.94926 -24.3698 10 1 
248 1.19163 9.92816 -0.0161402 0.0163819 9.9282 -24.1474 10 1 
252 1.19158 9.91716 -0.0163716 0.0168016 9.9172 -24.2405 10 1 
256 1.19187 9.89552 -0.0165351 0.0176352 9.89556 -23.716 10 1 
256 1.19187 9.89552 -0.0165351 0.0176352 9.89556 -23.716 11 1 
260 1.19212 9.86431 -0.0168756 0.0181347 9.86437 -23.2666 11 1 
264 1.19206 9.83891 -0.0170414 0.0186021 9.83897 -23.3648 11 1 
268 1.19256 9.79309 -0.0173981 0.0192448 9.79316 -22.4733 11 1 
272 1.19319 9.73077 -0.0178002 0.019645 9.73084 -21.3324 11 1 
276 1.19332 9.65771 -0.0179612 0.0201846 9.6579 -21.104 11 1 
280 1.19387 9.53705 -0.0182993 0.0206245 9.53724 -20.1019 11 1 
284 1.19499 9.41177 -0.0184614 0.0212307 9.41185 -18.0866 11 1 
288 1.19613 9.2582 -0.018704 0.0218728 9.25834 -16.0193 11 1 
292 1.19742 9.01677 -0.0190848 0.0221138 9.01751 -13.7003 11 1 
296 1.19387 8.70976 -0.0186907 0.0222995 8.71061 -20.1074 11 1 
300 1.18727 8.48723 -0.0188198 0.022648 8.48753 -32.0278 11 1 
304 1.18575 8.32945 -0.0190121 0.023473 8.32986 -34.7774 11 1 
308 1.18696 8.14254 -0.018946 0.0240087 8.14322 -32.591 11 1 
312 1.1877 7.94839 -0.0191644 0.0243888 7.94901 -31.2553 11 1 
316 1.18827 7.76995 -0.0192074 0.0250914 7.77033 -30.2269 11 1 
320 1.18871 7.66307 -0.0194192 0.0258071 7.66327 -29.4231 11 1 
320 1.18871 7.66307 -0.0194192 0.0258071 7.66327 -29.4231 15 1 
324 1.1892 7.58725 -0.0196881 0.0268844 7.58736 -28.5342 15 1 
328 1.18966 7.54179 -0.0200647 0.02776 7.54189 -27.7029 15 1 
332 1.18998 7.50228 -0.0204371 0.0285971 7.50239 -27.1318 15 1 
336 1.19001 7.45184 -0.0207407 0.0297958 7.45193 -27.0771 15 1 
340 1.19012 7.43214 -0.0210655 0.0310051 7.43224 -26.8749 15 1 
344 1.19047 7.43267 -0.0213547 0.0320876 7.43277 -26.2506 15 1 
348 1.19065 7.42355 -0.0217383 0.0331082 7.42366 -25.9268 15 1 
352 1.19068 7.41389 -0.0220275 0.0341384 7.41401 -25.8637 15 1 
356 1.19071 7.40142 -0.0222077 0.0353522 7.40155 -25.8124 15 1 
360 1.19078 7.3916 -0.0224232 0.036672 7.39173 -25.6883 15 1 
364 1.19095 7.39751 -0.0226984 0.0377909 7.39764 -25.3692 15 1 
368 1.19103 7.39772 -0.0229263 0.0387774 7.39786 -25.2316 15 1 
372 1.19102 7.38671 -0.0230336 0.0399642 7.38686 -25.2595 15 1 
376 1.19106 7.37827 -0.0230524 0.0412915 7.37842 -25.176 15 1 
380 1.19108 7.37017 -0.0232236 0.0424703 7.37033 -25.1368 15 1 
384 1.19112 7.36576 -0.0235165 0.0435731 7.36593 -25.078 15 1 
384 1.19112 7.36576 -0.0235165 0.0435731 7.36593 -25.078 16 1 
388 1.19118 7.36334 -0.0237056 0.0446764 7.36351 -24.9652 16 1 
392 1.19119 7.35289 -0.0237572 0.0458791 7.35307 -24.9403 16 1 
396 1.19117 7.33972 -0.0239131 0.0471225 7.33991 -24.9768 16 1 
400 1.19115 7.32984 -0.0243271 0.0483801 7.33005 -25.0129 16 1 
404 1.19118 7.3228 -0.0246375 0.0495347 7.32302 -24.9623 16 1 
408 1.19123 7.31732 -0.0247498 0.050812 7.31755 -24.8768 16 1 
412 1.19122 7.30871 -0.0248587 0.0521266 7.30894 -24.888 16 1 
416 1.1912 7.29717 -0.0251119 0.0534283 7.29741 -24.9336 16 1 
420 1.19118 7.28767 -0.0253687 0.0548484 7.28793 -24.9556 16 1 
424 1.1912 7.28223 -0.0255181 0.0563046 7.2825 -24.9223 16 1 
428 1.19123 7.27855 -0.0255874 0.0576944 7.27883 -24.8675 16 1 
432 1.19123 7.27158 -0.0257276 0.0592385 7.27187 -24.8786 16 1 
436 1.19121 7.26248 -0.0259354 0.0608416 7.26279 -24.9019 16 1 
440 1.1912 7.25579 -0.026104 0.062349 7.25611 -24.9205 16 1 
444 1.1912 7.2507 -0.0262915 0.0639199 7.25104 -24.9251 16 1 
448 1.19123 7.24649 -0.0264858 0.0655739 7.24684 -24.8777 16 1 
448 1.19123 7.24649 -0.0264858 0.0655739 7.24684 -24.8777 17 1 
452 1.19123 7.24165 -0.0266435 0.0671542 7.24201 -24.8671 17 1 
456 1.19121 7.23451 -0.0269212 0.0686932 7.23489 -24.903 17 1 
460 1.1912 7.22798 -0.0272648 0.0702572 7.22838 -24.9278 17 1 
464 1.1912 7.2237 -0.0274988 0.071893 7.22412 -24.9283 17 1 
468 1.19122 7.22053 -0.0277739 0.0735089 7.22096 -24.8918 17 1 
472 1.19123 7.2178 -0.0281459 0.0750233 7.21825 -24.8743 17 1 
476 1.19121 7.21361 -0.0285099 0.0766317 7.21407 -24.9043 17 1 
480 1.1912 7.20861 -0.0288921 0.0783108 7.20909 -24.9261 17 1 
484 1.1912 7.20677 -0.0293034 0.0800067 7.20728 -24.9177 17 1 
488 1.19123 7.20722 -0.0297087 0.0817005 7.20774 -24.8802 17 1 
492 1.19123 7.20691 -0.0301826 0.0834763 7.20745 -24.869 17 1 
496 1.19122 7.20607 -0.0306923 0.0852916 7.20664 -24.8829 17 1 
500 1.19123 7.20554 -0.0312264 0.0871848 7.20614 -24.8768 17 1 
504 1.19122 7.20633 -0.0317585 0.0891538 7.20695 -24.8843 17 1 
508 1.19124 7.20968 -0.0323509 0.0911653 7.21033 -24.8601 17 1 
512 1.19126 7.21344 -0.0329668 0.093185 7.21412 -24.8152 17 1 
512 1.19126 7.21344 -0.0329668 0.093185 7.21412 -24.8152 25 1 
516 1.19125 7.21588 -0.0336457 0.0953393 7.21659 -24.8279 25 1 
520 1.19125 7.21849 -0.0343309 0.097529 7.21923 -24.8431 25 1 
524 1.19125 7.22232 -0.0350194 0.0998017 7.2231 -24.8287 25 1 
528 1.19127 7.22822 -0.0358079 0.10212 7.22903 -24.8083 25 1 
532 1.19128 7.23464 -0.0366308 0.104468 7.23548 -24.7835 25 1 
536 1.19128 7.23972 -0.0374279 0.106892 7.2406 -24.786 25 1 
540 1.19127 7.24443 -0.0383139 0.109423 7.24536 -24.8036 25 1 
544 1.19127 7.25051 -0.0392339 0.111946 7.25148 -24.8009 25 1 
548 1.19128 7.25808 -0.0401789 0.114549 7.2591 -24.7892 25 1 
552 1.19129 7.26606 -0.0411481 0.117235 7.26712 -24.7726 25 1 
556 1.19128 7.27317 -0.0421903 0.119887 7.27428 -24.7812 25 1 
560 1.19127 7.27933 -0.0432619 0.122734 7.2805 -24.8051 25 1 
564 1.19126 7.28744 -0.0443642 0.125565 7.28866 -24.8087 25 1 
568 1.19127 7.2964 -0.0455129 0.12846 7.29767 -24.8065 25 1 
572 1.19127 7.30565 -0.0466932 0.131429 7.30698 -24.8033 25 1 
576 1.19127 7.31463 -0.0479339 0.1344 7.31602 -24.8084 25 1 
576 1.19127 7.31463 -0.0479339 0.1344 7.31602 -24.8084 26 1 
580 1.19125 7.32277 -0.0492022 0.137519 7.32423 -24.8417 26 1 
584 1.19124 7.33213 -0.0505252 0.14063 7.33365 -24.8539 26 1 
588 1.19124 7.34273 -0.0518784 0.143822 7.34432 -24.8508 26 1 
592 1.19124 7.35329 -0.0532877 0.147044 7.35495 -24.8592 26 1 
596 1.19123 7.36335 -0.0546802 0.150331 7.36509 -24.8774 26 1 
600 1.19121 7.37351 -0.0561203 0.153675 7.37533 -24.8996 26 1 
604 1.19121 7.38395 -0.0575957 0.157143 7.38585 -24.9172 26 1 
608 1.1912 7.39543 -0.0590671 0.160544 7.39741 -24.9332 26 1 
608 1.1912 7.39543 -0.0590671 0.160544 7.39741 -24.9332 26 1 
612 1.1912 7.40713 -0.0605708 0.163998 7.40919 -24.9351 26 1 
616 1.19118 7.41844 -0.0620751 0.167577 7.42059 -24.958 26 1 
620 1.19117 7.42973 -0.0636538 0.171095 7.43197 -24.9813 26 1 
624 1.19116 7.44127 -0.0652252 0.17472 7.44361 -25.0022 26 1 
628 1.19115 7.45348 -0.0668093 0.178297 7.45591 -25.0195 26 1 
632 1.19114 7.46613 -0.0684647 0.181914 7.46866 -25.0269 26 1 
636 1.19113 7.47867 -0.0701239 0.185556 7.4813 -25.044 26 1 
640 1.19112 7.49089 -0.0718069 0.189213 7.49362 -25.0659 26 1 
644 1.19111 7.50343 -0.0735414 0.192969 7.50627 -25.0918 26 1 
648 1.19111 7.51659 -0.0752629 0.196583 7.51954 -25.0968 26 1 
652 1.1911 7.53011 -0.0770259 0.200396 7.53317 -25.1116 26 1 
656 1.19109 7.54327 -0.0788202 0.204042 7.54644 -25.1239 26 1 
660 1.19108 7.55658 -0.0806456 0.207831 7.55986 -25.14 26 1 
664 1.19107 7.56976 -0.0824253 0.211484 7.57316 -25.1599 26 1 
668 1.19107 7.58331 -0.084333 0.215293 7.58683 -25.1673 26 1 
672 1.19106 7.59754 -0.086103 0.219106 7.60119 -25.1808 26 1 
672 1.19106 7.59754 -0.086103 0.219106 7.60119 -25.1808 27 1 
676 1.19106 7.61119 -0.0879006 0.222812 7.61496 -25.1796 27 1 
680 1.19105 7.62521 -0.0898979 0.226844 7.62911 -25.1997 27 1 
684 1.19104 7.63856 -0.09153 0.230261 7.64258 -25.2089 27 1 
688 1.19104 7.65275 -0.0935688 0.234453 7.65691 -25.2196 27 1 
692 1.19104 7.66679 -0.0952504 0.23791 7.67107 -25.2238 27 1 
696 1.19103 7.68114 -0.0971064 0.241958 7.68557 -25.2272 27 1 
700 1.19103 7.69543 -0.0990704 0.245829 7.7 -25.237 27 1 
704 1.19102 7.70932 -0.100796 0.249526 7.71401 -25.2452 27 1 
704 1.19102 7.70932 -0.100796 0.249526 7.71401 -25.2452 31 1 
708 1.19102 7.72348 -0.102566 0.253404 7.72832 -25.25 31 1 
712 1.19102 7.7381 -0.104356 0.256907 7.74307 -25.258 31 1 
716 1.19102 7.7524 -0.106086 0.260927 7.75752 -25.2563 31 1 
720 1.19102 7.76687 -0.107757 0.264703 7.77212 -25.2572 31 1 
724 1.19101 7.78191 -0.109794 0.268669 7.78732 -25.2769 31 1 
728 1.19101 7.79616 -0.111375 0.272183 7.80171 -25.2713 31 1 
732 1.19101 7.81118 -0.113208 0.276469 7.8169 -25.2756 31 1 
736 1.191 7.82648 -0.114927 0.279294 7.83231 -25.2859 31 1 
740 1.191 7.84162 -0.116523 0.283445 7.84761 -25.2848 31 1 
744 1.191 7.85692 -0.118262 0.287454 7.86307 -25.2909 31 1 
748 1.19099 7.87205 -0.12017 0.29137 7.87836 -25.3015 31 1 
752 1.19097 7.88919 -0.121478 0.295407 7.89566 -25.3339 31 1 
756 1.19099 7.90461 -0.123644 0.299312 7.91124 -25.3056 31 1 
760 1.19096 7.92332 -0.126222 0.304069 7.93016 -25.3592 31 1 
764 1.19094 7.94185 -0.127843 0.30772 7.94884 -25.3886 31 1 
768 1.19094 7.96002 -0.130104 0.311947 7.96719 -25.388 31 1 
772 1.1909 7.98104 -0.132241 0.318758 7.9885 -25.4758 31 1 
776 1.19085 8.00192 -0.134585 0.326916 8.00974 -25.5539 31 1 
780 1.19077 8.03098 -0.138406 0.331873 8.03904 -25.6965 31 1 
784 1.19073 8.06088 -0.143683 0.339664 8.06932 -25.7675 31 1 
788 1.19057 8.10296 -0.148063 0.351993 8.11197 -26.0582 31 1 
792 1.19039 8.14991 -0.154334 0.371443 8.15986 -26.384 31 1 
796 1.1901 8.21814 -0.164613 0.398521 8.22949 -26.9189 31 1 
800 1.18982 8.2676 -0.170089 0.412451 8.27967 -27.411 31 1 
