124.979;r ;Density                 ;Velocity u              ;Velocity v              ;Velocity w              ;|Velocity|              ;Pressure                ;Distribution            ;Levels                  ;
0 1.19611 10.0007 2.45734e-05 0.000147819 10.0007 -16.0581 1 1 
4 1.19613 10.0019 -3.38183e-05 0.00022047 10.0019 -16.0225 1 1 
8 1.19613 10.0029 -0.000308221 0.000264088 10.0029 -16.0185 1 1 
12 1.1961 10.0044 -0.000560273 0.000326191 10.0044 -16.0824 1 1 
16 1.1961 10.0062 -0.000730164 0.000436108 10.0062 -16.0754 1 1 
20 1.19612 10.0065 -0.000990347 0.00043448 10.0065 -16.0425 1 1 
24 1.19609 10.0084 -0.00117931 0.000533171 10.0084 -16.0995 1 1 
28 1.19609 10.0092 -0.00140934 0.000574084 10.0092 -16.0953 1 1 
32 1.19608 10.0107 -0.00163946 0.000659763 10.0107 -16.1102 1 1 
36 1.19607 10.0127 -0.00179079 0.000782443 10.0127 -16.1219 1 1 
40 1.19609 10.0135 -0.00205445 0.00082099 10.0135 -16.1005 1 1 
44 1.19607 10.0134 -0.00226423 0.000898745 10.0134 -16.1338 1 1 
48 1.19605 10.0147 -0.0025027 0.00101905 10.0147 -16.1682 1 1 
52 1.19605 10.0155 -0.00271527 0.00107082 10.0155 -16.1615 1 1 
56 1.19606 10.0151 -0.00295117 0.00114225 10.0151 -16.1545 1 1 
60 1.19604 10.0171 -0.0032024 0.00123635 10.0171 -16.1905 1 1 
64 1.19605 10.0168 -0.00345168 0.00130776 10.0168 -16.1688 1 1 
64 1.19605 10.0168 -0.00345168 0.00130776 10.0168 -16.1688 2 1 
68 1.19603 10.0179 -0.00364689 0.00142293 10.0179 -16.2016 2 1 
72 1.19603 10.0192 -0.00388339 0.0015111 10.0192 -16.206 2 1 
76 1.19602 10.0197 -0.00414004 0.00157436 10.0197 -16.2113 2 1 
80 1.19603 10.0195 -0.00437658 0.00171172 10.0195 -16.2034 2 1 
84 1.19601 10.0217 -0.0045556 0.00185329 10.0217 -16.232 2 1 
88 1.19601 10.0232 -0.00480301 0.00195239 10.0232 -16.2314 2 1 
92 1.19603 10.0245 -0.00497629 0.0021508 10.0245 -16.2031 2 1 
96 1.196 10.0277 -0.00527242 0.0021771 10.0277 -16.2554 2 1 
100 1.19603 10.0258 -0.00540903 0.00238011 10.0258 -16.2105 2 1 
104 1.19601 10.0255 -0.00568042 0.00250078 10.0255 -16.237 2 1 
108 1.196 10.0264 -0.00586574 0.00265907 10.0264 -16.2619 2 1 
112 1.196 10.0273 -0.00605258 0.00279676 10.0273 -16.2488 2 1 
116 1.196 10.0292 -0.00636238 0.00294471 10.0292 -16.2521 2 1 
120 1.196 10.0318 -0.00651238 0.0031169 10.0318 -16.2649 2 1 
124 1.19602 10.031 -0.00675903 0.00321636 10.031 -16.2268 2 1 
128 1.19601 10.031 -0.00699574 0.00341278 10.031 -16.2395 2 1 
128 1.19601 10.031 -0.00699574 0.00341278 10.031 -16.2395 10 1 
132 1.19598 10.0328 -0.00722178 0.00356569 10.0328 -16.2992 10 1 
136 1.19601 10.0305 -0.00738421 0.00374059 10.0305 -16.2417 10 1 
140 1.19599 10.033 -0.00768537 0.00389111 10.033 -16.2796 10 1 
144 1.19599 10.0334 -0.00786506 0.00413168 10.0334 -16.2751 10 1 
148 1.19602 10.0325 -0.00806251 0.00421035 10.0325 -16.2212 10 1 
152 1.19599 10.0359 -0.00835376 0.0044457 10.0359 -16.2781 10 1 
156 1.19599 10.0351 -0.00844476 0.00478016 10.0351 -16.273 10 1 
160 1.19602 10.0336 -0.00881979 0.00490034 10.0336 -16.2184 10 1 
160 1.19602 10.0336 -0.00881979 0.00490034 10.0336 -16.2184 10 1 
164 1.19599 10.0365 -0.00897652 0.00506264 10.0365 -16.281 10 1 
168 1.19602 10.0348 -0.00916956 0.00538647 10.0348 -16.213 10 1 
172 1.19603 10.0336 -0.00940461 0.00563154 10.0336 -16.1936 10 1 
176 1.19597 10.039 -0.00952881 0.00584736 10.0391 -16.3055 10 1 
180 1.19606 10.0359 -0.00967579 0.00632886 10.0359 -16.1449 10 1 
184 1.19605 10.0355 -0.00996123 0.00651694 10.0355 -16.1742 10 1 
188 1.19601 10.0362 -0.0101477 0.00683979 10.0362 -16.2295 10 1 
192 1.19607 10.0298 -0.0102556 0.00720988 10.0298 -16.1365 10 1 
196 1.19603 10.0309 -0.0107088 0.00731025 10.0309 -16.1997 10 1 
200 1.19605 10.0347 -0.010711 0.00777092 10.0347 -16.1738 10 1 
204 1.19613 10.0336 -0.0109494 0.00813211 10.0337 -16.0139 10 1 
208 1.19614 10.0331 -0.0111985 0.00851914 10.0331 -15.996 10 1 
212 1.1961 10.0318 -0.0113165 0.00890869 10.0318 -16.0844 10 1 
216 1.19618 10.0242 -0.0116426 0.00913021 10.0242 -15.9364 10 1 
220 1.19621 10.0181 -0.0117797 0.00939139 10.0181 -15.8795 10 1 
224 1.19614 10.0157 -0.0119007 0.00989222 10.0157 -16.0089 10 1 
224 1.19614 10.0157 -0.0119007 0.00989222 10.0157 -16.0089 10 1 
228 1.19628 10.0092 -0.0122057 0.0101768 10.0092 -15.7557 10 1 
232 1.19632 10.0079 -0.0123329 0.0105903 10.0079 -15.6781 10 1 
236 1.19633 10.0029 -0.0125899 0.01103 10.0029 -15.6588 10 1 
240 1.19641 9.99478 -0.0127551 0.0113267 9.9948 -15.5159 10 1 
244 1.19652 9.98311 -0.0129082 0.0118781 9.98313 -15.3198 10 1 
248 1.19664 9.96255 -0.0134089 0.0121287 9.96258 -15.0976 10 1 
252 1.19659 9.95201 -0.0135883 0.0124214 9.95204 -15.1959 10 1 
256 1.19688 9.93081 -0.0136895 0.0131391 9.93084 -14.6684 10 1 
256 1.19688 9.93081 -0.0136895 0.0131391 9.93084 -14.6684 11 1 
260 1.19713 9.89999 -0.0139618 0.0135456 9.90004 -14.2175 11 1 
264 1.19707 9.875 -0.0140602 0.0139118 9.87505 -14.3205 11 1 
268 1.19757 9.82946 -0.0143517 0.0144562 9.82951 -13.422 11 1 
272 1.19821 9.7674 -0.0146865 0.0147565 9.76746 -12.2698 11 1 
276 1.19833 9.69447 -0.0147804 0.0152188 9.69464 -12.0432 11 1 
280 1.19889 9.57377 -0.0150639 0.0155878 9.57395 -11.0335 11 1 
284 1.20002 9.44841 -0.0151701 0.0160914 9.44848 -8.99492 11 1 
288 1.20118 9.29446 -0.0153578 0.0166298 9.29459 -6.90663 11 1 
292 1.20247 9.05251 -0.0157103 0.0167942 9.05324 -4.56203 11 1 
296 1.19887 8.74441 -0.0153547 0.0170044 8.74524 -11.0644 11 1 
300 1.19219 8.5219 -0.0154774 0.0172877 8.52219 -23.1423 11 1 
304 1.19065 8.36435 -0.0156213 0.0179846 8.36474 -25.9247 11 1 
308 1.19187 8.17688 -0.015547 0.0184658 8.17754 -23.7173 11 1 
312 1.19262 7.98259 -0.0157497 0.0187769 7.9832 -22.3677 11 1 
316 1.19319 7.80364 -0.0157638 0.0193929 7.804 -21.3328 11 1 
320 1.19364 7.69689 -0.0159339 0.019994 7.69707 -20.5231 11 1 
320 1.19364 7.69689 -0.0159339 0.019994 7.69707 -20.5231 15 1 
324 1.19413 7.62125 -0.0161316 0.0209064 7.62133 -19.6277 15 1 
328 1.1946 7.57585 -0.0164397 0.021616 7.57592 -18.7926 15 1 
332 1.19491 7.53688 -0.0167452 0.0222896 7.53696 -18.2168 15 1 
336 1.19494 7.48653 -0.0169669 0.0233029 7.4866 -18.1672 15 1 
340 1.19505 7.46731 -0.0172068 0.024318 7.46738 -17.9657 15 1 
344 1.1954 7.46836 -0.0174196 0.0252139 7.46843 -17.3373 15 1 
348 1.19558 7.45957 -0.0177314 0.0260512 7.45964 -17.0139 15 1 
352 1.19562 7.4506 -0.0179606 0.0269126 7.45068 -16.9507 15 1 
356 1.19564 7.43852 -0.018079 0.0279392 7.4386 -16.9022 15 1 
360 1.19571 7.42932 -0.0182295 0.0290511 7.42941 -16.7775 15 1 
364 1.19589 7.43585 -0.0184499 0.0299651 7.43594 -16.4555 15 1 
368 1.19597 7.43663 -0.018632 0.030777 7.43672 -16.3167 15 1 
372 1.19595 7.42631 -0.0186928 0.0317938 7.4264 -16.344 15 1 
376 1.196 7.41845 -0.0186543 0.0329441 7.41855 -16.2589 15 1 
380 1.19602 7.41105 -0.0187629 0.0339287 7.41115 -16.2173 15 1 
384 1.19606 7.40729 -0.0189993 0.0348354 7.4074 -16.1561 15 1 
384 1.19606 7.40729 -0.0189993 0.0348354 7.4074 -16.1561 16 1 
388 1.19612 7.40559 -0.019149 0.0357719 7.4057 -16.0388 16 1 
392 1.19614 7.3958 -0.0191636 0.036788 7.39592 -16.0111 16 1 
396 1.19612 7.38335 -0.0192776 0.0378178 7.38348 -16.0443 16 1 
400 1.1961 7.37418 -0.0196524 0.0388368 7.37431 -16.0774 16 1 
404 1.19613 7.36786 -0.0199356 0.0397804 7.368 -16.0221 16 1 
408 1.19618 7.36318 -0.0200143 0.0408411 7.36333 -15.9311 16 1 
412 1.19618 7.35525 -0.0200814 0.0419372 7.35541 -15.9389 16 1 
416 1.19615 7.34455 -0.0202866 0.0430091 7.34471 -15.9801 16 1 
420 1.19614 7.33578 -0.0204934 0.0441851 7.33595 -15.9984 16 1 
424 1.19616 7.33115 -0.0205956 0.0453952 7.33133 -15.9603 16 1 
428 1.1962 7.32833 -0.0206263 0.0465309 7.32851 -15.9003 16 1 
432 1.19619 7.32216 -0.0207262 0.0478057 7.32235 -15.9076 16 1 
436 1.19618 7.31396 -0.0208943 0.0491255 7.31416 -15.9268 16 1 
440 1.19617 7.30818 -0.021029 0.050338 7.30838 -15.9415 16 1 
444 1.19617 7.30399 -0.0211861 0.0515958 7.30421 -15.9425 16 1 
448 1.1962 7.30077 -0.0213601 0.0529246 7.30099 -15.8907 16 1 
448 1.1962 7.30077 -0.0213601 0.0529246 7.30099 -15.8907 17 1 
452 1.19621 7.29687 -0.0215 0.0541668 7.2971 -15.8762 17 1 
456 1.19619 7.29065 -0.0217699 0.0553447 7.29089 -15.9094 17 1 
460 1.19618 7.28511 -0.0221085 0.0565263 7.28537 -15.9309 17 1 
464 1.19618 7.28164 -0.0223449 0.057763 7.28191 -15.9292 17 1 
468 1.1962 7.27938 -0.0226273 0.0589731 7.27966 -15.8891 17 1 
472 1.19621 7.27745 -0.0230107 0.0600693 7.27774 -15.8689 17 1 
476 1.1962 7.27407 -0.0233887 0.0612482 7.27437 -15.897 17 1 
480 1.19619 7.26989 -0.0237816 0.062486 7.2702 -15.9163 17 1 
484 1.19619 7.26879 -0.0242102 0.0637355 7.26911 -15.9062 17 1 
488 1.19622 7.27006 -0.0246258 0.0649735 7.27039 -15.8658 17 1 
492 1.19622 7.27046 -0.0251087 0.0662836 7.2708 -15.8526 17 1 
496 1.19622 7.27049 -0.0256232 0.0676316 7.27085 -15.8643 17 1 
500 1.19622 7.27073 -0.026152 0.0690306 7.27111 -15.8562 17 1 
504 1.19622 7.27234 -0.0266799 0.0705096 7.27273 -15.8615 17 1 
508 1.19623 7.27644 -0.027252 0.0720122 7.27684 -15.8356 17 1 
512 1.19626 7.28098 -0.0278583 0.0735291 7.2814 -15.7881 17 1 
512 1.19626 7.28098 -0.0278583 0.0735291 7.2814 -15.7881 25 1 
516 1.19625 7.2843 -0.028507 0.0751418 7.28475 -15.7987 25 1 
520 1.19625 7.28767 -0.0291688 0.076787 7.28814 -15.8129 25 1 
524 1.19625 7.29238 -0.0298305 0.0784934 7.29287 -15.7956 25 1 
528 1.19627 7.2989 -0.0305829 0.080227 7.2994 -15.7745 25 1 
532 1.19628 7.30619 -0.0313782 0.0819922 7.30671 -15.7468 25 1 
536 1.19628 7.31201 -0.0321229 0.0838081 7.31256 -15.7484 25 1 
540 1.19627 7.31755 -0.0329708 0.0857222 7.31813 -15.7646 25 1 
544 1.19627 7.32447 -0.0338332 0.087611 7.32507 -15.7598 25 1 
548 1.19628 7.3327 -0.0347192 0.0895632 7.33333 -15.7476 25 1 
552 1.19629 7.34165 -0.0356357 0.0915859 7.34231 -15.7281 25 1 
556 1.19629 7.34942 -0.0366066 0.0935567 7.3501 -15.7372 25 1 
560 1.19628 7.35654 -0.037627 0.0956928 7.35726 -15.7587 25 1 
564 1.19627 7.36537 -0.0386486 0.0977997 7.36612 -15.7627 25 1 
568 1.19628 7.37522 -0.0397412 0.0999598 7.376 -15.7592 25 1 
572 1.19628 7.3854 -0.0408478 0.102168 7.38622 -15.7547 25 1 
576 1.19627 7.39516 -0.0420157 0.104377 7.39602 -15.7608 25 1 
576 1.19627 7.39516 -0.0420157 0.104377 7.39602 -15.7608 26 1 
580 1.19626 7.40447 -0.0432206 0.106691 7.40537 -15.7928 26 1 
584 1.19625 7.41459 -0.0444555 0.108982 7.41553 -15.8068 26 1 
588 1.19625 7.42648 -0.0457439 0.11135 7.42746 -15.8022 26 1 
592 1.19625 7.43798 -0.0470618 0.113698 7.439 -15.8125 26 1 
596 1.19624 7.44918 -0.0483788 0.116115 7.45024 -15.8305 26 1 
600 1.19622 7.46049 -0.0497367 0.118544 7.4616 -15.8542 26 1 
604 1.19621 7.47179 -0.0511264 0.12107 7.47294 -15.8737 26 1 
608 1.1962 7.48453 -0.0525206 0.123539 7.48573 -15.8895 26 1 
608 1.1962 7.48453 -0.0525206 0.123539 7.48573 -15.8895 26 1 
612 1.1962 7.49699 -0.053926 0.126018 7.49825 -15.8951 26 1 
616 1.19619 7.5095 -0.0553529 0.128647 7.51081 -15.9176 26 1 
620 1.19617 7.52161 -0.056826 0.131191 7.52297 -15.9444 26 1 
624 1.19616 7.53407 -0.0582986 0.133853 7.53548 -15.9669 26 1 
628 1.19615 7.54721 -0.0597569 0.13647 7.54869 -15.9866 26 1 
632 1.19614 7.56061 -0.0612723 0.139122 7.56214 -15.9961 26 1 
636 1.19613 7.57421 -0.062789 0.141808 7.5758 -16.0146 26 1 
640 1.19612 7.58711 -0.0643061 0.144511 7.58876 -16.041 26 1 
644 1.1961 7.60048 -0.0658654 0.147303 7.6022 -16.0667 26 1 
648 1.1961 7.61425 -0.0673926 0.149952 7.61602 -16.0756 26 1 
652 1.19609 7.62845 -0.0689381 0.152761 7.63029 -16.093 26 1 
656 1.19608 7.64216 -0.0705223 0.155442 7.64407 -16.106 26 1 
660 1.19607 7.65577 -0.0721165 0.158196 7.65775 -16.1259 26 1 
664 1.19606 7.66919 -0.0736722 0.160878 7.67123 -16.1479 26 1 
668 1.19605 7.68269 -0.0753253 0.163632 7.6848 -16.1571 26 1 
672 1.19605 7.69696 -0.0768382 0.166412 7.69914 -16.1732 26 1 
672 1.19605 7.69696 -0.0768382 0.166412 7.69914 -16.1732 27 1 
676 1.19605 7.71028 -0.0783931 0.16909 7.71253 -16.1736 27 1 
680 1.19603 7.72373 -0.0801259 0.172003 7.72606 -16.1968 27 1 
684 1.19603 7.73635 -0.0815209 0.174433 7.73875 -16.2081 27 1 
688 1.19602 7.74961 -0.08327 0.17744 7.75209 -16.2212 27 1 
692 1.19602 7.7625 -0.0847076 0.179913 7.76505 -16.2281 27 1 
696 1.19601 7.7756 -0.0862666 0.182828 7.77823 -16.2337 27 1 
700 1.19601 7.78827 -0.0879528 0.18558 7.79098 -16.2449 27 1 
704 1.196 7.80047 -0.0894419 0.188205 7.80325 -16.2588 27 1 
704 1.196 7.80047 -0.0894419 0.188205 7.80325 -16.2588 31 1 
708 1.196 7.81248 -0.0908985 0.190938 7.81534 -16.2651 31 1 
712 1.19599 7.82505 -0.0924139 0.193452 7.82799 -16.2736 31 1 
716 1.19599 7.83715 -0.0938435 0.196317 7.84017 -16.2782 31 1 
720 1.19599 7.84891 -0.0952574 0.199103 7.85201 -16.2818 31 1 
724 1.19597 7.8612 -0.0969549 0.201867 7.86439 -16.3047 31 1 
728 1.19597 7.87241 -0.0982448 0.204363 7.87568 -16.3022 31 1 
732 1.19597 7.885 -0.0997788 0.207575 7.88837 -16.3141 31 1 
736 1.19596 7.89687 -0.101162 0.209469 7.9003 -16.322 31 1 
740 1.19596 7.90859 -0.102479 0.212571 7.91212 -16.3246 31 1 
744 1.19595 7.92081 -0.103863 0.215399 7.92442 -16.3485 31 1 
748 1.19595 7.93216 -0.105458 0.218336 7.93587 -16.3466 31 1 
752 1.19593 7.94577 -0.106282 0.221335 7.94956 -16.3882 31 1 
756 1.19593 7.95758 -0.108224 0.22406 7.96147 -16.3792 31 1 
760 1.19591 7.97288 -0.110536 0.227484 7.97689 -16.4236 31 1 
764 1.19589 7.98743 -0.11178 0.2301 7.99153 -16.4545 31 1 
768 1.19588 8.00222 -0.113592 0.233328 8.00643 -16.4746 31 1 
772 1.19582 8.01931 -0.115344 0.238736 8.0237 -16.5742 31 1 
776 1.19578 8.03709 -0.117258 0.244955 8.04168 -16.6505 31 1 
780 1.19569 8.06347 -0.120499 0.248071 8.06819 -16.8089 31 1 
784 1.19564 8.08983 -0.125302 0.253696 8.09479 -16.9036 31 1 
788 1.19545 8.13124 -0.129119 0.26345 8.13655 -17.2444 31 1 
792 1.19526 8.1778 -0.134417 0.278585 8.18367 -17.6012 31 1 
796 1.19493 8.24858 -0.143814 0.300347 8.25534 -18.1954 31 1 
800 1.19462 8.30128 -0.149177 0.311928 8.30852 -18.7521 31 1 
