38.0372;r ;Density                 ;Velocity u              ;Velocity v              ;Velocity w              ;|Velocity|              ;Pressure                ;Distribution            ;Levels                  ;
0 1.20534 9.99997 2.91455e-05 -4.60086e-05 9.99997 0.613812 1 1 
4 1.20536 10.0011 -8.49997e-05 -0.000152007 10.0011 0.643013 1 1 
8 1.20536 10.002 -0.000332554 -0.000438474 10.002 0.644042 1 1 
12 1.20532 10.0037 -0.000622061 -0.000731066 10.0037 0.573517 1 1 
16 1.20532 10.0054 -0.000799803 -0.000972422 10.0054 0.573571 1 1 
20 1.20534 10.0054 -0.00111703 -0.00130277 10.0054 0.617885 1 1 
24 1.20531 10.0069 -0.00131299 -0.00153795 10.0069 0.55575 1 1 
28 1.2053 10.0077 -0.00153801 -0.00185234 10.0077 0.549992 1 1 
32 1.2053 10.0094 -0.00177081 -0.00213003 10.0094 0.549552 1 1 
36 1.2053 10.0111 -0.00197273 -0.00236881 10.0111 0.542455 1 1 
40 1.2053 10.012 -0.00227741 -0.00270871 10.012 0.549888 1 1 
44 1.20528 10.0123 -0.00252155 -0.00301732 10.0123 0.500897 1 1 
48 1.20525 10.013 -0.00278441 -0.00333184 10.013 0.459343 1 1 
52 1.20526 10.0134 -0.00304695 -0.00368522 10.0134 0.468105 1 1 
56 1.20525 10.0128 -0.00333386 -0.00400512 10.0128 0.452171 1 1 
60 1.20522 10.0147 -0.00358873 -0.00430083 10.0147 0.390689 1 1 
64 1.20523 10.0148 -0.00386624 -0.00467488 10.0148 0.411701 1 1 
64 1.20523 10.0148 -0.00386624 -0.00467488 10.0148 0.411701 2 1 
68 1.20521 10.016 -0.00412319 -0.004993 10.016 0.387258 2 1 
72 1.20522 10.0172 -0.00444866 -0.00537481 10.0172 0.390435 2 1 
76 1.20521 10.0183 -0.00478272 -0.00579988 10.0183 0.374191 2 1 
80 1.2052 10.0181 -0.00509561 -0.00617292 10.0181 0.358622 2 1 
84 1.20517 10.02 -0.00533269 -0.00649407 10.02 0.307561 2 1 
88 1.20516 10.022 -0.00566998 -0.006887 10.022 0.282454 2 1 
92 1.20516 10.0232 -0.00594088 -0.00721594 10.0232 0.287462 2 1 
96 1.20513 10.026 -0.00630576 -0.00768485 10.026 0.23077 2 1 
100 1.20516 10.0245 -0.00649602 -0.00792058 10.0245 0.285133 2 1 
104 1.20514 10.0245 -0.00685478 -0.00827782 10.0245 0.255169 2 1 
108 1.20512 10.0258 -0.00712079 -0.00861452 10.0258 0.213384 2 1 
112 1.20511 10.0271 -0.00732226 -0.00893683 10.0271 0.204102 2 1 
116 1.2051 10.0289 -0.00768726 -0.00926623 10.0289 0.178045 2 1 
120 1.20509 10.0318 -0.00788649 -0.00957908 10.0318 0.158293 2 1 
124 1.20511 10.0313 -0.00810264 -0.00989358 10.0313 0.191838 2 1 
128 1.20509 10.0313 -0.00833274 -0.0101473 10.0313 0.162898 2 1 
128 1.20509 10.0313 -0.00833274 -0.0101473 10.0313 0.162898 10 1 
132 1.20505 10.0338 -0.00858951 -0.0104565 10.0338 0.0829277 10 1 
136 1.20507 10.0317 -0.00869897 -0.0106555 10.0317 0.124674 10 1 
140 1.20505 10.0337 -0.00892545 -0.0108736 10.0338 0.0874192 10 1 
144 1.20505 10.0345 -0.00913606 -0.0111197 10.0345 0.085623 10 1 
148 1.20506 10.0337 -0.0093441 -0.0114982 10.0337 0.104305 10 1 
152 1.20502 10.0367 -0.0095254 -0.0115853 10.0367 0.028792 10 1 
156 1.20502 10.0365 -0.0095528 -0.0116642 10.0365 0.0355432 10 1 
160 1.20504 10.0357 -0.00997193 -0.0120708 10.0357 0.0726581 10 1 
160 1.20504 10.0357 -0.00997193 -0.0120708 10.0357 0.0726581 10 1 
164 1.20499 10.0385 -0.0100697 -0.0123079 10.0385 -0.0101958 10 1 
168 1.20502 10.0363 -0.0101257 -0.0123489 10.0363 0.0445661 10 1 
172 1.20503 10.0346 -0.0103479 -0.0125594 10.0346 0.0492922 10 1 
176 1.20496 10.0404 -0.0105452 -0.0128905 10.0404 -0.0713818 10 1 
180 1.20504 10.0375 -0.0105664 -0.0128231 10.0375 0.0668963 10 1 
184 1.205 10.0359 -0.0106923 -0.0130304 10.0359 0.00807985 10 1 
188 1.20497 10.0358 -0.0108716 -0.0132004 10.0358 -0.0558571 10 1 
192 1.20501 10.0295 -0.0109865 -0.0133413 10.0295 0.0268212 10 1 
196 1.20497 10.0303 -0.0112829 -0.0136098 10.0303 -0.0563459 10 1 
200 1.20498 10.0337 -0.0111766 -0.0136124 10.0338 -0.0386814 10 1 
204 1.20506 10.0324 -0.0114138 -0.0138167 10.0324 0.108693 10 1 
208 1.20506 10.0317 -0.011602 -0.0139068 10.0318 0.105706 10 1 
212 1.205 10.0302 -0.0115166 -0.0138565 10.0302 -0.0052194 10 1 
216 1.20507 10.0213 -0.0117129 -0.0140885 10.0214 0.124481 10 1 
220 1.2051 10.0139 -0.0118229 -0.0143579 10.0139 0.174609 10 1 
224 1.20502 10.011 -0.011829 -0.0142666 10.011 0.0291079 10 1 
224 1.20502 10.011 -0.011829 -0.0142666 10.011 0.0291079 10 1 
228 1.20515 10.0038 -0.0119037 -0.0143708 10.0038 0.263413 10 1 
232 1.20518 10.0026 -0.0119527 -0.014507 10.0027 0.332693 10 1 
236 1.20518 9.99799 -0.0122688 -0.0147725 9.99802 0.332166 10 1 
240 1.20525 9.98907 -0.0123592 -0.0149841 9.98909 0.459111 10 1 
244 1.20536 9.97648 -0.01222 -0.0148128 9.97651 0.652426 10 1 
248 1.20548 9.95543 -0.0125529 -0.0150503 9.95545 0.858902 10 1 
252 1.20541 9.94444 -0.0127908 -0.0154408 9.94447 0.747561 10 1 
256 1.2057 9.92235 -0.0128408 -0.0153337 9.92239 1.27133 10 1 
256 1.2057 9.92235 -0.0128408 -0.0153337 9.92239 1.27133 11 1 
260 1.20595 9.88984 -0.0126662 -0.0151064 9.88989 1.71079 11 1 
264 1.20588 9.86355 -0.0121115 -0.0147267 9.86359 1.59001 11 1 
268 1.20637 9.81724 -0.012 -0.0143964 9.81729 2.47975 11 1 
272 1.20701 9.75452 -0.0123076 -0.014737 9.75457 3.63416 11 1 
276 1.20714 9.68159 -0.0124855 -0.0149644 9.68175 3.8659 11 1 
280 1.2077 9.56082 -0.0125988 -0.0149527 9.56099 4.87393 11 1 
284 1.20882 9.43467 -0.0122271 -0.0145655 9.43473 6.90681 11 1 
288 1.20998 9.28022 -0.011858 -0.0140768 9.28033 8.99561 11 1 
292 1.21128 9.03776 -0.0117971 -0.0139333 9.03847 11.3349 11 1 
296 1.20766 8.72939 -0.0112667 -0.0132684 8.73021 4.80402 11 1 
300 1.20095 8.50681 -0.0112282 -0.0130512 8.50707 -7.3085 11 1 
304 1.19941 8.34903 -0.0111689 -0.012847 8.34939 -10.1035 11 1 
308 1.20063 8.16169 -0.0109575 -0.0124837 8.16232 -7.8967 11 1 
312 1.20138 7.96728 -0.0110037 -0.0123349 7.96786 -6.5427 11 1 
316 1.20195 7.78807 -0.0108201 -0.011986 7.7884 -5.50432 11 1 
320 1.2024 7.68114 -0.0107518 -0.011803 7.6813 -4.69961 11 1 
320 1.2024 7.68114 -0.0107518 -0.011803 7.6813 -4.69961 15 1 
324 1.20289 7.60565 -0.0106861 -0.0115662 7.6057 -3.80372 15 1 
328 1.20336 7.56015 -0.0107444 -0.0115171 7.56019 -2.96467 15 1 
332 1.20367 7.52089 -0.0107936 -0.0115107 7.52093 -2.39575 15 1 
336 1.2037 7.47081 -0.0107353 -0.0112752 7.47083 -2.3551 15 1 
340 1.20381 7.45139 -0.0106823 -0.0110762 7.45141 -2.15187 15 1 
344 1.20416 7.45216 -0.0105956 -0.0109214 7.45219 -1.52008 15 1 
348 1.20433 7.44374 -0.0106016 -0.0108081 7.44376 -1.21127 15 1 
352 1.20435 7.43469 -0.0105521 -0.0105961 7.43471 -1.17438 15 1 
356 1.20437 7.42239 -0.0103812 -0.0102639 7.42242 -1.13986 15 1 
360 1.20444 7.41321 -0.0102275 -0.00993436 7.41323 -1.0196 15 1 
364 1.20461 7.41937 -0.0101414 -0.00973302 7.41939 -0.707608 15 1 
368 1.20468 7.41966 -0.010057 -0.00953742 7.41968 -0.585731 15 1 
372 1.20465 7.40879 -0.0098635 -0.00914239 7.4088 -0.624638 15 1 
376 1.2047 7.40007 -0.00954223 -0.00866168 7.40008 -0.54807 15 1 
380 1.20472 7.39205 -0.00933684 -0.00837718 7.39206 -0.508547 15 1 
384 1.20475 7.38773 -0.00926736 -0.0081467 7.38774 -0.446212 15 1 
384 1.20475 7.38773 -0.00926736 -0.0081467 7.38774 -0.446212 16 1 
388 1.20482 7.38472 -0.00915683 -0.00776699 7.38473 -0.328005 16 1 
392 1.20484 7.37357 -0.00889118 -0.00735997 7.37359 -0.290302 16 1 
396 1.20483 7.35984 -0.00870138 -0.00705424 7.35985 -0.313992 16 1 
400 1.20481 7.34902 -0.00875403 -0.00681632 7.34903 -0.340603 16 1 
404 1.20484 7.34119 -0.00873591 -0.00652648 7.3412 -0.288154 16 1 
408 1.20489 7.33446 -0.00847163 -0.00611577 7.33448 -0.204987 16 1 
412 1.20489 7.32442 -0.00819375 -0.00572981 7.32443 -0.201444 16 1 
416 1.20488 7.31211 -0.00807415 -0.00545657 7.31212 -0.212092 16 1 
420 1.20489 7.3014 -0.0079596 -0.005124 7.30141 -0.20133 16 1 
424 1.20492 7.29465 -0.00773356 -0.00474027 7.29466 -0.152375 16 1 
428 1.20494 7.28919 -0.00741476 -0.00439749 7.2892 -0.107829 16 1 
432 1.20493 7.27969 -0.00713344 -0.00396346 7.2797 -0.135024 16 1 
436 1.20492 7.26913 -0.00691768 -0.00351689 7.26914 -0.147616 16 1 
440 1.20493 7.26114 -0.00668589 -0.00320152 7.26115 -0.135021 16 1 
444 1.20494 7.25489 -0.00648259 -0.0028932 7.2549 -0.111266 16 1 
448 1.20497 7.24924 -0.00625218 -0.00248369 7.24924 -0.0574668 16 1 
448 1.20497 7.24924 -0.00625218 -0.00248369 7.24924 -0.0574668 17 1 
452 1.20497 7.24221 -0.00594638 -0.00209232 7.24222 -0.0625301 17 1 
456 1.20494 7.23395 -0.00572373 -0.00180222 7.23395 -0.102564 17 1 
460 1.20494 7.22616 -0.00558718 -0.00152912 7.22616 -0.112863 17 1 
464 1.20495 7.22007 -0.00536426 -0.00122696 7.22007 -0.0925626 17 1 
468 1.20497 7.21485 -0.00517171 -0.000952273 7.21485 -0.0478314 17 1 
472 1.20498 7.20995 -0.00503144 -0.0007534 7.20995 -0.0436761 17 1 
476 1.20496 7.20518 -0.00486036 -0.000529969 7.20518 -0.0799397 17 1 
480 1.20495 7.20033 -0.00472491 -0.000245321 7.20033 -0.0985796 17 1 
484 1.20496 7.19932 -0.00461866 1.58323e-05 7.19932 -0.0753863 17 1 
488 1.20499 7.20087 -0.0044888 0.000285733 7.20087 -0.0220092 17 1 
492 1.205 7.20132 -0.00437034 0.000598642 7.20132 -0.00754864 17 1 
496 1.20498 7.2016 -0.0042899 0.000899462 7.2016 -0.0302412 17 1 
500 1.20498 7.20175 -0.0042115 0.00115864 7.20175 -0.0335506 17 1 
504 1.20499 7.20405 -0.00410738 0.00150874 7.20405 -0.0244752 17 1 
508 1.20501 7.2102 -0.00404852 0.00191467 7.2102 0.00995582 17 1 
512 1.20503 7.21842 -0.00400769 0.00227111 7.21842 0.0529763 17 1 
512 1.20503 7.21842 -0.00400769 0.00227111 7.21842 0.0529763 25 1 
516 1.20502 7.22649 -0.00398327 0.00260205 7.2265 0.0445696 25 1 
520 1.20502 7.23468 -0.00393574 0.00295118 7.23468 0.0401645 25 1 
524 1.20503 7.24405 -0.00386996 0.00336259 7.24405 0.0595912 25 1 
528 1.20504 7.2541 -0.00383644 0.00378719 7.2541 0.0743796 25 1 
532 1.20507 7.26387 -0.00378754 0.00413537 7.26388 0.117699 25 1 
536 1.20507 7.27255 -0.00370986 0.00450367 7.27256 0.133803 25 1 
540 1.20505 7.28412 -0.00371207 0.00484334 7.28413 0.0906509 25 1 
544 1.20504 7.30161 -0.00378575 0.00512878 7.30162 0.0687042 25 1 
548 1.20507 7.32451 -0.00379221 0.00548326 7.32452 0.117292 25 1 
552 1.2051 7.35168 -0.00375186 0.00586891 7.35169 0.183025 25 1 
556 1.2051 7.37858 -0.00372607 0.0061989 7.37859 0.181655 25 1 
560 1.20508 7.4018 -0.00367821 0.00651155 7.40181 0.148373 25 1 
564 1.20508 7.42062 -0.003666 0.0067686 7.42063 0.14395 25 1 
568 1.20507 7.43517 -0.00367121 0.0070031 7.43518 0.131556 25 1 
572 1.20507 7.4463 -0.00361471 0.00732529 7.44631 0.122863 25 1 
576 1.20509 7.45618 -0.0035555 0.00766151 7.45619 0.15532 25 1 
576 1.20509 7.45618 -0.0035555 0.00766151 7.45619 0.15532 26 1 
580 1.20509 7.46827 -0.00351773 0.00795986 7.46828 0.160025 26 1 
584 1.20508 7.48771 -0.00351095 0.00825544 7.48772 0.135741 26 1 
588 1.20507 7.51694 -0.00352167 0.00856075 7.51696 0.123767 26 1 
592 1.20506 7.55579 -0.00350975 0.00885752 7.55581 0.111497 26 1 
596 1.20507 7.60587 -0.00349724 0.00907026 7.60591 0.118982 26 1 
600 1.20509 7.66798 -0.00347666 0.00924199 7.66803 0.159603 26 1 
604 1.20512 7.74167 -0.00344825 0.00941636 7.74173 0.208768 26 1 
608 1.20512 7.82638 -0.00343887 0.00953525 7.82646 0.225604 26 1 
608 1.20512 7.82638 -0.00343887 0.00953525 7.82646 0.225604 26 1 
612 1.20513 7.92112 -0.00345912 0.009628 7.92122 0.22583 26 1 
616 1.20513 8.02492 -0.0035116 0.00970253 8.02503 0.240564 26 1 
620 1.20514 8.1385 -0.00363483 0.00968049 8.13862 0.247586 26 1 
624 1.20515 8.26043 -0.00375403 0.0095924 8.26056 0.273451 26 1 
628 1.2052 8.38775 -0.00383476 0.00951128 8.38788 0.361674 26 1 
632 1.20524 8.51834 -0.00392262 0.0094232 8.51848 0.429043 26 1 
636 1.20523 8.6502 -0.00406921 0.00926163 8.65034 0.413453 26 1 
640 1.20522 8.78041 -0.00430393 0.00902064 8.78054 0.389781 26 1 
644 1.20522 8.90744 -0.00448199 0.00872683 8.90755 0.393612 26 1 
648 1.20521 9.02982 -0.0045183 0.00846807 9.02992 0.38617 26 1 
652 1.2052 9.14557 -0.00451924 0.00823798 9.14567 0.365464 26 1 
656 1.2052 9.25391 -0.00450332 0.00801575 9.25399 0.359044 26 1 
660 1.20519 9.35338 -0.00450027 0.00775052 9.35345 0.341551 26 1 
664 1.20516 9.44406 -0.00456699 0.00734443 9.44411 0.291541 26 1 
668 1.20515 9.52474 -0.00462345 0.00690412 9.52478 0.264748 26 1 
672 1.20515 9.59481 -0.00461985 0.00655916 9.59485 0.263385 26 1 
672 1.20515 9.59481 -0.00461985 0.00655916 9.59485 0.263385 27 1 
676 1.20512 9.6551 -0.00456037 0.0063314 9.65512 0.218784 27 1 
680 1.20509 9.70621 -0.00449304 0.00614239 9.70623 0.165105 27 1 
684 1.20508 9.74889 -0.00443505 0.00594604 9.7489 0.146293 27 1 
688 1.20508 9.78495 -0.00437333 0.0057519 9.78496 0.138343 27 1 
692 1.20507 9.8161 -0.00434256 0.00560076 9.8161 0.117946 27 1 
696 1.20505 9.84214 -0.00435351 0.00545725 9.84214 0.0838821 27 1 
700 1.20503 9.86372 -0.00432251 0.00533644 9.86373 0.0533846 27 1 
704 1.20501 9.88237 -0.0042093 0.00524836 9.88238 0.0163206 27 1 
704 1.20501 9.88237 -0.0042093 0.00524836 9.88238 0.0163206 31 1 
708 1.20501 9.89978 -0.00412039 0.00510668 9.89978 0.0110388 31 1 
712 1.20501 9.91482 -0.00408123 0.00493037 9.91483 0.0265643 31 1 
716 1.20501 9.92626 -0.00402505 0.00477848 9.92626 0.0164812 31 1 
720 1.20499 9.93531 -0.00395353 0.00464345 9.93531 -0.01523 31 1 
724 1.20498 9.94387 -0.0039119 0.00449832 9.94388 -0.032546 31 1 
728 1.20499 9.95105 -0.00388071 0.00433688 9.95105 -0.0220584 31 1 
732 1.20497 9.9566 -0.00383415 0.00416886 9.95661 -0.0527404 31 1 
736 1.20493 9.96094 -0.00373508 0.00408548 9.96094 -0.123175 31 1 
740 1.20491 9.96348 -0.00361842 0.00402427 9.96348 -0.161724 31 1 
744 1.20493 9.96777 -0.00355201 0.00387289 9.96777 -0.125958 31 1 
748 1.20496 9.97252 -0.00351904 0.00368238 9.97252 -0.0799104 31 1 
752 1.20496 9.9763 -0.00348807 0.00352036 9.97631 -0.0706749 31 1 
756 1.20494 9.97895 -0.00340409 0.00338714 9.97895 -0.101852 31 1 
760 1.20491 9.9795 -0.00325819 0.00331023 9.9795 -0.162065 31 1 
764 1.20488 9.9811 -0.00308306 0.00325959 9.9811 -0.222471 31 1 
768 1.20487 9.98358 -0.00293202 0.00318011 9.98358 -0.239313 31 1 
772 1.2049 9.986 -0.00283592 0.00307707 9.986 -0.178158 31 1 
776 1.20492 9.98885 -0.00277061 0.00291691 9.98885 -0.137091 31 1 
780 1.2049 9.99033 -0.00265971 0.00281829 9.99033 -0.176077 31 1 
784 1.20486 9.98979 -0.00249595 0.00278783 9.98979 -0.247852 31 1 
788 1.20485 9.99047 -0.00229115 0.00275024 9.99047 -0.27087 31 1 
792 1.20487 9.99237 -0.00212549 0.00264195 9.99237 -0.231837 31 1 
796 1.2049 9.99378 -0.00200661 0.00251931 9.99378 -0.188979 31 1 
800 1.20491 9.99456 -0.00193242 0.00249372 9.99456 -0.170959 31 1 
