0,1.20442,9.99677,-5.73701e-06,-6.66676e-05,9.99677,-1.04383,1,1,
4,1.20442,9.99902,-8.22796e-05,-0.000138831,9.99902,-1.05611,1,1,
8,1.20437,10.001,-0.000169106,-0.000241138,10.001,-1.1334,1,1,
12,1.20438,9.99951,-0.000178695,-0.000279357,9.99951,-1.12783,1,1,
16,1.20439,9.99665,-0.000276275,-0.00039571,9.99665,-1.10058,1,1,
20,1.20438,9.99542,-0.0004743,-0.000624181,9.99542,-1.12882,1,1,
24,1.2044,9.99708,-0.000576495,-0.000719125,9.99708,-1.08514,1,1,
28,1.20439,9.99821,-0.000845911,-0.000968789,9.99821,-1.11035,1,1,
32,1.20435,9.99934,-0.000948595,-0.00102027,9.99934,-1.1683,1,1,
36,1.20438,9.99894,-0.000873677,-0.000941321,9.99895,-1.11399,1,1,
40,1.20438,9.99907,-0.00112524,-0.00120243,9.99908,-1.1136,1,1,
44,1.20442,9.9979,-0.00132147,-0.00137443,9.9979,-1.05588,1,1,
48,1.20444,9.99749,-0.00100009,-0.00101779,9.99749,-1.00457,1,1,
52,1.20443,9.99936,-0.000457462,-0.000490775,9.99936,-1.0325,1,1,
56,1.20444,9.99872,-0.000528703,-0.000588966,9.99872,-1.01842,1,1,
60,1.20438,9.99898,-0.00101792,-0.00105528,9.99898,-1.12893,1,1,
64,1.20439,9.99692,-0.00114215,-0.00123855,9.99692,-1.09371,1,1,
64,1.20439,9.99692,-0.00114215,-0.00123855,9.99692,-1.09371,2,1,
68,1.20442,9.99685,-0.000767507,-0.000893388,9.99685,-1.05458,2,1,
72,1.20437,9.99759,-0.000331613,-0.000452987,9.99759,-1.13395,2,1,
76,1.20439,9.9969,-0.000157254,-0.000268095,9.9969,-1.09298,2,1,
80,1.20439,9.99688,-0.00024889,-0.000362705,9.99688,-1.09279,2,1,
84,1.20438,9.99787,-0.000342355,-0.000474514,9.99787,-1.12602,2,1,
88,1.20443,9.99698,-0.000366333,-0.000497357,9.99698,-1.02126,2,1,
92,1.20445,9.99755,-0.000352675,-0.000481526,9.99755,-0.996003,2,1,
96,1.20446,9.99899,-0.000380302,-0.000550329,9.99899,-0.979588,2,1,
100,1.20446,9.99455,-0.000329957,-0.000519071,9.99455,-0.981349,2,1,
104,1.20432,9.99165,-0.000378797,-0.000514709,9.99165,-1.22329,2,1,
108,1.20435,9.99059,-0.000362637,-0.000525654,9.99059,-1.18107,2,1,
112,1.20447,9.99366,-0.000340288,-0.000540245,9.99366,-0.964126,2,1,
116,1.20451,9.99607,-0.000465961,-0.000616699,9.99607,-0.891691,2,1,
120,1.20443,9.99489,-0.00046065,-0.000682825,9.99489,-1.02385,2,1,
124,1.20433,9.9913,-0.000538584,-0.000787863,9.9913,-1.21092,2,1,
128,1.20437,9.99021,-0.000599388,-0.000831098,9.99021,-1.14681,2,1,
128,1.20437,9.99021,-0.000599388,-0.000831098,9.99021,-1.14681,10,1,
132,1.20447,9.99291,-0.000639789,-0.000896284,9.99291,-0.949599,10,1,
136,1.20457,9.9903,-0.000515995,-0.000810666,9.9903,-0.781552,10,1,
140,1.2045,9.99105,-0.000522068,-0.000772058,9.99105,-0.905829,10,1,
144,1.20438,9.99081,-0.000443579,-0.000709525,9.99081,-1.1173,10,1,
148,1.20434,9.98702,-0.000536601,-0.000951159,9.98702,-1.18417,10,1,
152,1.20436,9.987,-0.000721182,-0.00104751,9.987,-1.16004,10,1,
156,1.20449,9.98642,-0.000678163,-0.00105689,9.98642,-0.915462,10,1,
160,1.20462,9.98804,-0.000779766,-0.00114298,9.98804,-0.692645,10,1,
160,1.20462,9.98804,-0.000779766,-0.00114298,9.98804,-0.692645,10,1,
164,1.20454,9.99167,-0.000763303,-0.00119371,9.99167,-0.825374,10,1,
168,1.20445,9.98579,-0.000864741,-0.00127592,9.98579,-0.991031,10,1,
172,1.20437,9.97885,-0.000961528,-0.00138936,9.97885,-1.14,10,1,
176,1.2044,9.98196,-0.000907421,-0.00147391,9.98196,-1.07809,10,1,
180,1.20466,9.98334,-0.000709908,-0.00118015,9.98334,-0.607291,10,1,
184,1.20466,9.98585,-0.000711505,-0.00124217,9.98585,-0.606225,10,1,
188,1.20448,9.98142,-0.0006284,-0.00116103,9.98143,-0.941658,10,1,
192,1.20438,9.96908,-0.000702595,-0.00128188,9.96908,-1.1121,10,1,
196,1.20443,9.96956,-0.00114688,-0.00168533,9.96956,-1.03489,10,1,
200,1.20469,9.97651,-0.00115205,-0.00179582,9.97652,-0.553519,10,1,
204,1.20487,9.97777,-0.00124878,-0.00185614,9.97777,-0.240881,10,1,
208,1.2047,9.97402,-0.00126878,-0.00183104,9.97403,-0.54356,10,1,
212,1.20444,9.96726,-0.0011075,-0.001761,9.96727,-1.00403,10,1,
216,1.20452,9.95797,-0.00121507,-0.00187447,9.95797,-0.859258,10,1,
220,1.20477,9.95337,-0.00115655,-0.00191161,9.95338,-0.410654,10,1,
224,1.20486,9.95333,-0.00109056,-0.00180273,9.95333,-0.248511,10,1,
224,1.20486,9.95333,-0.00109056,-0.00180273,9.95333,-0.248511,10,1,
228,1.20494,9.94575,-0.00115253,-0.00198187,9.94575,-0.103973,10,1,
232,1.20483,9.94077,-0.00110018,-0.0019751,9.94077,-0.302872,10,1,
236,1.20479,9.93433,-0.00128938,-0.0020742,9.93433,-0.380978,10,1,
240,1.205,9.92793,-0.00143386,-0.00240491,9.92793,-0.00804339,10,1,
244,1.20528,9.91805,-0.00154924,-0.00254211,9.91806,0.503873,10,1,
248,1.20544,9.89711,-0.00202119,-0.0028566,9.89712,0.791669,10,1,
252,1.20528,9.88284,-0.00215039,-0.00310691,9.88285,0.500378,10,1,
256,1.20544,9.85807,-0.00199286,-0.00287123,9.85808,0.787489,10,1,
256,1.20544,9.85807,-0.00199286,-0.00287123,9.85808,0.787489,11,1,
260,1.20566,9.82707,-0.00192412,-0.00282953,9.8271,1.2008,11,1,
264,1.20573,9.80479,-0.00170845,-0.00278939,9.80482,1.31844,11,1,
268,1.20638,9.76329,-0.00169545,-0.00260171,9.76332,2.4937,11,1,
272,1.20709,9.70245,-0.00186598,-0.0029005,9.70249,3.77587,11,1,
276,1.20723,9.6285,-0.00202609,-0.0031662,9.62865,4.03257,11,1,
280,1.20781,9.50864,-0.00255858,-0.00356353,9.50878,5.07769,11,1,
284,1.20897,9.38545,-0.00278235,-0.00380134,9.38549,7.17311,11,1,
288,1.21016,9.23367,-0.00297253,-0.00399667,9.23376,9.31501,11,1,
292,1.21143,8.993,-0.00319616,-0.00422406,8.99369,11.6231,11,1,
296,1.20781,8.68496,-0.00284969,-0.00380123,8.68575,5.08339,11,1,
300,1.20113,8.46137,-0.00280127,-0.00370738,8.46162,-6.99081,11,1,
304,1.19964,8.30511,-0.002701,-0.0036328,8.30545,-9.68761,11,1,
308,1.20101,8.12388,-0.00274285,-0.00363779,8.1245,-7.20474,11,1,
312,1.20197,7.93778,-0.00317766,-0.00400001,7.93834,-5.47657,11,1,
316,1.20273,7.76604,-0.0034102,-0.00422511,7.76636,-4.10286,11,1,
320,1.20325,7.66322,-0.00362065,-0.00445871,7.66336,-3.15509,11,1,
320,1.20325,7.66322,-0.00362065,-0.00445871,7.66336,-3.15509,15,1,
324,1.20371,7.58824,-0.00362668,-0.00439211,7.58828,-2.33143,15,1,
328,1.20408,7.54116,-0.00361132,-0.00438577,7.54119,-1.65584,15,1,
332,1.20433,7.50098,-0.00347069,-0.00432864,7.50101,-1.21373,15,1,
336,1.20436,7.45279,-0.00318455,-0.00403497,7.4528,-1.16018,15,1,
340,1.20456,7.43834,-0.00296786,-0.00384066,7.43836,-0.8026,15,1,
344,1.20503,7.44581,-0.00286427,-0.00378174,7.44582,0.0590854,15,1,
348,1.20534,7.44441,-0.00293071,-0.003849,7.44442,0.614666,15,1,
352,1.20547,7.44169,-0.00298456,-0.00395754,7.4417,0.844675,15,1,
356,1.20552,7.43262,-0.00296897,-0.00395654,7.43264,0.939001,15,1,
360,1.20554,7.42485,-0.00296109,-0.00388749,7.42486,0.980209,15,1,
364,1.20562,7.43498,-0.00299102,-0.00400274,7.43499,1.12791,15,1,
368,1.20557,7.44195,-0.00302742,-0.00419653,7.44196,1.03132,15,1,
372,1.20542,7.43984,-0.00295369,-0.00413161,7.43985,0.759538,15,1,
376,1.20536,7.44098,-0.00272686,-0.00388399,7.44099,0.651655,15,1,
380,1.20532,7.43802,-0.00258222,-0.00384936,7.43802,0.572716,15,1,
384,1.2053,7.4305,-0.00257403,-0.00391087,7.43051,0.546163,15,1,
384,1.2053,7.4305,-0.00257403,-0.00391087,7.43051,0.546163,16,1,
388,1.20531,7.42294,-0.00258686,-0.00381124,7.42294,0.568523,16,1,
392,1.20528,7.41872,-0.0024292,-0.0036671,7.41872,0.511495,16,1,
396,1.20524,7.43089,-0.00230645,-0.00362683,7.4309,0.437128,16,1,
400,1.20523,7.45421,-0.00240816,-0.00361546,7.45422,0.409789,16,1,
404,1.20527,7.46513,-0.00244966,-0.0035356,7.46514,0.488295,16,1,
408,1.20533,7.44923,-0.00223496,-0.00333409,7.44926,0.587799,16,1,
412,1.20531,7.41117,-0.00202116,-0.00319722,7.4112,0.553207,16,1,
416,1.20527,7.3797,-0.00197212,-0.00317893,7.37971,0.481336,16,1,
420,1.20526,7.39241,-0.00192234,-0.00306511,7.39243,0.469737,16,1,
424,1.20531,7.46935,-0.00179366,-0.00291878,7.46943,0.566716,16,1,
428,1.20542,7.60947,-0.00160486,-0.00289104,7.60967,0.764541,16,1,
432,1.20552,7.79876,-0.00140286,-0.00272226,7.79908,0.939875,16,1,
436,1.20559,8.02394,-0.00126287,-0.00248155,8.02436,1.06412,16,1,
440,1.20564,8.27386,-0.00112566,-0.00238709,8.27433,1.14749,16,1,
444,1.20568,8.53142,-0.00100415,-0.00226679,8.53187,1.22061,16,1,
448,1.20573,8.78127,-0.000876548,-0.00203907,8.78166,1.31882,16,1,
448,1.20573,8.78127,-0.000876548,-0.00203907,8.78166,1.31882,17,1,
452,1.20575,9.01161,-0.0006486,-0.00185625,9.01192,1.35178,17,1,
456,1.20572,9.21113,-0.00055106,-0.00178602,9.21134,1.30581,17,1,
460,1.20567,9.37697,-0.000592921,-0.00174801,9.3771,1.20251,17,1,
464,1.2056,9.51106,-0.000416423,-0.00163536,9.51115,1.08902,17,1,
468,1.20559,9.61518,-0.000212532,-0.00154689,9.61523,1.06363,17,1,
472,1.20558,9.69483,-0.000185699,-0.00157733,9.69486,1.04589,17,1,
476,1.20554,9.75427,-0.000187723,-0.00159799,9.75428,0.969594,17,1,
480,1.20549,9.79811,-0.000152574,-0.00148403,9.79812,0.886628,17,1,
484,1.20545,9.83488,-6.32994e-05,-0.00129521,9.83488,0.821863,17,1,
488,1.20545,9.86569,-1.85564e-05,-0.00112907,9.86569,0.820181,17,1,
492,1.20545,9.88859,-9.48461e-05,-0.00103358,9.88859,0.816726,17,1,
496,1.20544,9.9066,-0.000171188,-0.00102122,9.9066,0.791631,17,1,
500,1.20543,9.91926,-0.000152436,-0.000971443,9.91926,0.771831,17,1,
504,1.2054,9.9305,-0.000155406,-0.000841086,9.9305,0.719574,17,1,
508,1.20539,9.94259,-0.000161303,-0.000694268,9.9426,0.698524,17,1,
512,1.20539,9.951,-0.000164122,-0.000585129,9.951,0.706471,17,1,
512,1.20539,9.951,-0.000164122,-0.000585129,9.951,0.706471,25,1,
516,1.20537,9.95867,-0.00018901,-0.000478546,9.95867,0.673487,25,1,
520,1.20535,9.96298,-0.000188698,-0.000474127,9.96298,0.63664,25,1,
524,1.20535,9.96592,-0.000141222,-0.000406425,9.96592,0.63789,25,1,
528,1.20536,9.97403,-0.000198531,-0.000304706,9.97403,0.659032,25,1,
532,1.20536,9.9791,-0.0002449,-0.000274302,9.9791,0.654247,25,1,
536,1.20535,9.98247,-0.000146877,-0.000187877,9.98248,0.62447,25,1,
540,1.20531,9.98438,-0.000108533,-9.40327e-05,9.98438,0.568139,25,1,
544,1.20529,9.98401,-0.000174475,-0.000110426,9.98401,0.529968,25,1,
548,1.20533,9.99067,-0.000131386,-1.55199e-05,9.99067,0.591458,25,1,
552,1.20534,9.99408,-0.00014594,5.33008e-05,9.99408,0.616148,25,1,
556,1.20532,9.9942,-0.000195704,-1.64942e-05,9.9942,0.574615,25,1,
560,1.2053,9.99641,-0.000144171,2.8401e-05,9.99641,0.533285,25,1,
564,1.20527,9.99401,-0.000142737,0.000109587,9.99401,0.492887,25,1,
568,1.20531,9.9998,-0.000135874,0.000148918,9.99981,0.567212,25,1,
572,1.20533,10.0029,-0.000164871,0.000114555,10.0029,0.604898,25,1,
576,1.2053,9.99897,-0.000169845,0.000117232,9.99897,0.534483,25,1,
576,1.2053,9.99897,-0.000169845,0.000117232,9.99897,0.534483,26,1,
580,1.20528,10.002,-0.000119158,0.000180995,10.002,0.512612,26,1,
584,1.20525,9.99715,-8.04202e-05,0.000256316,9.99715,0.450886,26,1,
588,1.2053,10.0017,-0.000120429,0.000225122,10.0017,0.541658,26,1,
592,1.20535,10.0079,-0.000142246,0.00019595,10.0079,0.632182,26,1,
596,1.20529,10.0008,-0.000173512,0.000176411,10.0008,0.526697,26,1,
600,1.2053,10.0061,-0.000149563,0.000210476,10.0061,0.544094,26,1,
604,1.20525,10.0018,-0.000115946,0.000262142,10.0018,0.456603,26,1,
608,1.20524,10.0019,-0.000146722,0.00023311,10.0019,0.426181,26,1,
608,1.20524,10.0019,-0.000146722,0.00023311,10.0019,0.426181,26,1,
612,1.2053,10.0098,-0.000147206,0.00020225,10.0098,0.53301,26,1,
616,1.20525,10.0015,-0.000164077,0.000193132,10.0015,0.44376,26,1,
620,1.20524,10.0079,-0.000134298,0.000246364,10.0079,0.441334,26,1,
624,1.20522,10.0049,-9.26359e-05,0.000271544,10.0049,0.390159,26,1,
628,1.20523,10.0026,-0.000116467,0.000247588,10.0026,0.410881,26,1,
632,1.20528,10.0119,-0.000178644,0.000173848,10.0119,0.50606,26,1,
636,1.20521,10.0044,-0.000208216,0.000128196,10.0044,0.378421,26,1,
640,1.20523,10.0099,-0.000208973,0.000163571,10.0099,0.411779,26,1,
644,1.20519,10.0046,-0.000134582,0.000231401,10.0046,0.347722,26,1,
648,1.20517,10.002,-3.89789e-05,0.000292082,10.002,0.310743,26,1,
652,1.2052,10.01,-3.50174e-05,0.000298372,10.01,0.355655,26,1,
656,1.20516,10.0039,-0.000111784,0.000203666,10.0039,0.282278,26,1,
660,1.20527,10.0122,-0.000261362,6.63919e-05,10.0122,0.495039,26,1,
664,1.20528,10.0069,-0.000337445,1.42445e-05,10.0069,0.511961,26,1,
668,1.20522,10.0066,-0.000215243,9.31968e-05,10.0066,0.403473,26,1,
672,1.20512,10.0071,-3.69892e-05,0.00026353,10.0071,0.222394,26,1,
672,1.20512,10.0071,-3.69892e-05,0.00026353,10.0071,0.222394,27,1,
676,1.20508,10.0018,-1.26774e-05,0.000305477,10.0018,0.143562,27,1,
680,1.20523,10.0102,-0.000117764,0.000163111,10.0102,0.414546,27,1,
684,1.20523,10.0037,-0.000247804,2.11873e-05,10.0037,0.417709,27,1,
688,1.20522,10.0095,-0.000316016,-3.60492e-05,10.0095,0.393219,27,1,
692,1.20522,10.0096,-0.000291383,-2.34729e-05,10.0096,0.400859,27,1,
696,1.20523,10.0056,-0.000228302,4.11814e-05,10.0056,0.415517,27,1,
700,1.20515,10.0073,-0.000149906,0.000111353,10.0073,0.271554,27,1,
704,1.20507,10.0002,-0.000115767,0.000121021,10.0002,0.120269,27,1,
704,1.20507,10.0002,-0.000115767,0.000121021,10.0002,0.120269,31,1,
708,1.20525,10.0095,-0.000186001,4.02191e-05,10.0095,0.456735,31,1,
712,1.20525,10.0063,-0.0003148,-8.45748e-05,10.0063,0.450335,31,1,
716,1.20518,10.0096,-0.000375016,-0.000150103,10.0096,0.331854,31,1,
720,1.20519,10.0059,-0.000306268,-0.000111685,10.0059,0.345499,31,1,
724,1.20521,10.0046,-0.000235248,-5.36064e-05,10.0046,0.37902,31,1,
728,1.20517,10.0075,-0.000267443,-6.74317e-05,10.0075,0.302827,31,1,
732,1.20512,10.002,-0.000310266,-0.000109427,10.002,0.216916,31,1,
736,1.2052,10.0101,-0.000338546,-0.00015922,10.0101,0.366758,31,1,
740,1.20524,10.006,-0.000381891,-0.000223358,10.006,0.4377,31,1,
744,1.20527,10.0092,-0.000403787,-0.000254789,10.0092,0.493675,31,1,
748,1.20513,10.0027,-0.000422009,-0.000276586,10.0027,0.240632,31,1,
752,1.20512,10.0054,-0.000407459,-0.000260508,10.0054,0.225328,31,1,
756,1.20517,10.0057,-0.000370612,-0.00023223,10.0057,0.306978,31,1,
760,1.20526,10.009,-0.000376894,-0.000245765,10.009,0.463513,31,1,
764,1.20524,10.0067,-0.000442162,-0.000318882,10.0067,0.433072,31,1,
768,1.2051,10.0028,-0.000493687,-0.000387714,10.0028,0.175808,31,1,
772,1.20515,10.0059,-0.000510272,-0.00043089,10.0059,0.273107,31,1,
776,1.2053,10.0084,-0.000538259,-0.000482195,10.0084,0.534861,31,1,
780,1.20523,10.0094,-0.000534787,-0.000466386,10.0094,0.422838,31,1,
784,1.20508,10.0018,-0.000517766,-0.000448812,10.0018,0.141927,31,1,
788,1.2051,10.0044,-0.000518685,-0.00046184,10.0044,0.183789,31,1,
792,1.20527,10.0084,-0.000537436,-0.000480574,10.0084,0.486414,31,1,
796,1.2053,10.0095,-0.000598926,-0.000551094,10.0095,0.538734,31,1,
800,1.20515,10.0031,-0.000644825,-0.000606329,10.0031,0.27939,31,1,
