0,1.19313,10.0005,1.38152e-05,0.000158859,10.0005,-21.4476,1,1,
4,1.19315,10.0015,-5.1963e-05,0.000236032,10.0015,-21.4101,1,1,
8,1.19315,10.0021,-0.000345373,0.000305379,10.0021,-21.4019,1,1,
12,1.19312,10.0032,-0.000614413,0.000379673,10.0032,-21.4613,1,1,
16,1.19312,10.0047,-0.00080181,0.000509182,10.0047,-21.4505,1,1,
20,1.19314,10.0047,-0.00107848,0.00052851,10.0047,-21.4138,1,1,
24,1.19312,10.0062,-0.00128789,0.000646837,10.0062,-21.4668,1,1,
28,1.19312,10.0066,-0.00153721,0.000704333,10.0066,-21.459,1,1,
32,1.19311,10.0078,-0.00178861,0.000805081,10.0078,-21.4701,1,1,
36,1.19311,10.0094,-0.00196017,0.000949316,10.0094,-21.4784,1,1,
40,1.19312,10.0098,-0.00224167,0.00100946,10.0098,-21.4537,1,1,
44,1.19311,10.0094,-0.00247002,0.00109688,10.0094,-21.4839,1,1,
48,1.19309,10.0103,-0.00272118,0.00124161,10.0103,-21.5145,1,1,
52,1.19309,10.0108,-0.00294932,0.00132513,10.0108,-21.5052,1,1,
56,1.1931,10.01,-0.00320241,0.00142159,10.01,-21.4955,1,1,
60,1.19308,10.0116,-0.00346983,0.00153151,10.0116,-21.5279,1,1,
64,1.19309,10.0109,-0.00373644,0.00162921,10.0109,-21.504,1,1,
64,1.19309,10.0109,-0.00373644,0.00162921,10.0109,-21.504,2,1,
68,1.19308,10.0116,-0.00394415,0.00177924,10.0116,-21.534,2,1,
72,1.19308,10.0126,-0.00420485,0.00187651,10.0126,-21.5358,2,1,
76,1.19308,10.0126,-0.00449021,0.00194523,10.0126,-21.5386,2,1,
80,1.19308,10.0121,-0.00475065,0.00210824,10.0121,-21.5288,2,1,
84,1.19307,10.0139,-0.00495229,0.00227573,10.0139,-21.5555,2,1,
88,1.19307,10.0151,-0.00522943,0.00238164,10.0151,-21.5528,2,1,
92,1.19308,10.0159,-0.00543712,0.00259218,10.0159,-21.5229,2,1,
96,1.19306,10.0188,-0.00575386,0.00265328,10.0188,-21.5735,2,1,
100,1.19308,10.0166,-0.00590692,0.00287856,10.0166,-21.5282,2,1,
104,1.19307,10.016,-0.00621211,0.00300345,10.016,-21.5535,2,1,
108,1.19305,10.0165,-0.00643353,0.0031803,10.0165,-21.5772,2,1,
112,1.19306,10.017,-0.00664023,0.0033571,10.017,-21.564,2,1,
116,1.19306,10.0186,-0.00696414,0.00353409,10.0186,-21.5668,2,1,
120,1.19305,10.0208,-0.00714541,0.00372661,10.0208,-21.5796,2,1,
124,1.19307,10.0197,-0.00742165,0.00386055,10.0198,-21.5412,2,1,
128,1.19307,10.0194,-0.0076719,0.00410044,10.0194,-21.5546,2,1,
128,1.19307,10.0194,-0.0076719,0.00410044,10.0194,-21.5546,10,1,
132,1.19303,10.0209,-0.00791444,0.00428144,10.0209,-21.6141,10,1,
136,1.19307,10.0183,-0.00810427,0.00447554,10.0183,-21.5569,10,1,
140,1.19304,10.0204,-0.00842299,0.00466653,10.0204,-21.5957,10,1,
144,1.19305,10.0205,-0.00861062,0.00495784,10.0205,-21.5915,10,1,
148,1.19308,10.0192,-0.00883683,0.00506501,10.0193,-21.5394,10,1,
152,1.19304,10.0224,-0.00916085,0.00532428,10.0224,-21.5964,10,1,
156,1.19305,10.0213,-0.0092706,0.00570251,10.0213,-21.5925,10,1,
160,1.19307,10.0195,-0.00966989,0.00586334,10.0195,-21.5397,10,1,
160,1.19307,10.0195,-0.00966989,0.00586334,10.0195,-21.5397,10,1,
164,1.19304,10.0221,-0.0098674,0.00603571,10.0221,-21.6027,10,1,
168,1.19308,10.0201,-0.0100974,0.00637583,10.0201,-21.5369,10,1,
172,1.19309,10.0186,-0.0103484,0.00666703,10.0186,-21.5183,10,1,
176,1.19302,10.0237,-0.0105014,0.00692569,10.0237,-21.6307,10,1,
180,1.19311,10.0202,-0.0106911,0.0074331,10.0203,-21.472,10,1,
184,1.1931,10.0196,-0.0109996,0.00766065,10.0196,-21.5021,10,1,
188,1.19306,10.02,-0.0111934,0.00804583,10.02,-21.5578,10,1,
192,1.19312,10.0133,-0.0113271,0.00847492,10.0133,-21.4662,10,1,
196,1.19308,10.014,-0.0118123,0.00860784,10.0141,-21.5298,10,1,
200,1.19309,10.0175,-0.0118316,0.00910532,10.0175,-21.5041,10,1,
204,1.19318,10.0162,-0.0120783,0.0095381,10.0162,-21.346,10,1,
208,1.19319,10.0154,-0.0123514,0.00999064,10.0154,-21.3289,10,1,
212,1.19314,10.0136,-0.0124955,0.0104181,10.0137,-21.4169,10,1,
216,1.19322,10.0058,-0.0128314,0.0106886,10.0058,-21.27,10,1,
220,1.19325,9.99934,-0.0129832,0.0110263,9.99935,-21.2148,10,1,
224,1.19318,9.99668,-0.0131323,0.0115864,9.9967,-21.3431,10,1,
224,1.19318,9.99668,-0.0131323,0.0115864,9.9967,-21.3431,10,1,
228,1.19332,9.98988,-0.0134649,0.0118989,9.98989,-21.0921,10,1,
232,1.19336,9.98826,-0.013609,0.0123556,9.98828,-21.0164,10,1,
236,1.19338,9.98301,-0.0138966,0.0128612,9.98303,-20.997,10,1,
240,1.19345,9.9746,-0.0140964,0.0131978,9.97462,-20.856,10,1,
244,1.19356,9.96271,-0.0142719,0.0137837,9.96274,-20.6613,10,1,
248,1.19368,9.94187,-0.0147981,0.0140877,9.9419,-20.4421,10,1,
252,1.19363,9.93113,-0.0150159,0.0144423,9.93116,-20.5397,10,1,
256,1.19392,9.90972,-0.015149,0.0152045,9.90975,-20.0164,10,1,
256,1.19392,9.90972,-0.015149,0.0152045,9.90975,-20.0164,11,1,
260,1.19417,9.87868,-0.0154458,0.0156434,9.87873,-19.5696,11,1,
264,1.19411,9.85355,-0.015577,0.0160582,9.85361,-19.6716,11,1,
268,1.1946,9.80785,-0.0159048,0.0166505,9.80791,-18.7806,11,1,
272,1.19524,9.74574,-0.0162675,0.0169926,9.7458,-17.6369,11,1,
276,1.19536,9.67271,-0.016385,0.0174898,9.67289,-17.4125,11,1,
280,1.19592,9.55215,-0.0166952,0.0178961,9.55233,-16.409,11,1,
284,1.19704,9.42686,-0.0168256,0.0184525,9.42694,-14.3865,11,1,
288,1.19818,9.27317,-0.0170337,0.0190353,9.2733,-12.3131,11,1,
292,1.19947,9.03167,-0.0173954,0.0192311,9.0324,-9.98441,11,1,
296,1.1959,8.72416,-0.0170171,0.0194307,8.725,-16.4339,11,1,
300,1.18927,8.50184,-0.0171405,0.0197434,8.50213,-28.4197,11,1,
304,1.18773,8.34412,-0.0173088,0.0204949,8.34451,-31.1852,11,1,
308,1.18895,8.1571,-0.0172425,0.0209973,8.15776,-28.9911,11,1,
312,1.18969,7.96301,-0.0174569,0.0213329,7.96363,-27.6502,11,1,
316,1.19026,7.7843,-0.0174898,0.0219764,7.78467,-26.6215,11,1,
320,1.19071,7.67773,-0.0176842,0.0226208,7.67792,-25.8148,11,1,
320,1.19071,7.67773,-0.0176842,0.0226208,7.67792,-25.8148,15,1,
324,1.1912,7.60194,-0.0179163,0.0236051,7.60204,-24.9252,15,1,
328,1.19166,7.55662,-0.0182574,0.0243936,7.55671,-24.0929,15,1,
332,1.19198,7.51748,-0.0185934,0.0251466,7.51757,-23.5205,15,1,
336,1.19201,7.467,-0.0188503,0.0262496,7.46707,-23.4701,15,1,
340,1.19212,7.44769,-0.019127,0.0273587,7.44777,-23.268,15,1,
344,1.19246,7.44837,-0.0193683,0.0283466,7.44846,-22.6441,15,1,
348,1.19264,7.43942,-0.0197066,0.0292777,7.43951,-22.3217,15,1,
352,1.19268,7.43011,-0.0199538,0.0302284,7.4302,-22.2597,15,1,
356,1.1927,7.41769,-0.0200851,0.0313581,7.41779,-22.212,15,1,
360,1.19277,7.40819,-0.0202482,0.0325865,7.4083,-22.0888,15,1,
364,1.19295,7.41428,-0.0204741,0.0336182,7.41438,-21.7711,15,1,
368,1.19302,7.41468,-0.0206624,0.034529,7.41479,-21.6349,15,1,
372,1.19301,7.40392,-0.020735,0.0356364,7.40404,-21.6649,15,1,
376,1.19305,7.39563,-0.0207145,0.0368783,7.39575,-21.5835,15,1,
380,1.19307,7.38779,-0.0208444,0.0379622,7.38792,-21.5458,15,1,
384,1.1931,7.3836,-0.0210953,0.0389752,7.38374,-21.4888,15,1,
384,1.1931,7.3836,-0.0210953,0.0389752,7.38374,-21.4888,16,1,
388,1.19317,7.38143,-0.0212487,0.0400084,7.38157,-21.3771,16,1,
392,1.19318,7.3712,-0.021262,0.0411376,7.37135,-21.354,16,1,
396,1.19316,7.35829,-0.0213711,0.0422968,7.35845,-21.3919,16,1,
400,1.19314,7.34859,-0.0217357,0.0434597,7.34876,-21.4303,16,1,
404,1.19316,7.3418,-0.0220019,0.0445356,7.34197,-21.3806,16,1,
408,1.19321,7.33651,-0.0220684,0.0457288,7.3367,-21.2962,16,1,
412,1.1932,7.32804,-0.0221285,0.0469586,7.32823,-21.3092,16,1,
416,1.19318,7.31673,-0.0223306,0.0481686,7.31693,-21.3559,16,1,
420,1.19316,7.30735,-0.0225349,0.0494905,7.30755,-21.3799,16,1,
424,1.19318,7.30212,-0.0226339,0.0508504,7.30233,-21.3475,16,1,
428,1.19321,7.29863,-0.022658,0.0521392,7.29885,-21.2938,16,1,
432,1.1932,7.29181,-0.0227511,0.0535758,7.29204,-21.3066,16,1,
436,1.19319,7.28298,-0.0229154,0.0550643,7.28323,-21.3309,16,1,
440,1.19318,7.27652,-0.0230406,0.056453,7.27678,-21.3511,16,1,
444,1.19318,7.2717,-0.023186,0.0579039,7.27197,-21.3572,16,1,
448,1.1932,7.26785,-0.0233367,0.059436,7.26813,-21.3107,16,1,
448,1.1932,7.26785,-0.0233367,0.059436,7.26813,-21.3107,17,1,
452,1.19321,7.26328,-0.0234494,0.0608927,7.26358,-21.3017,17,1,
456,1.19319,7.25653,-0.0236876,0.0623027,7.25684,-21.339,17,1,
460,1.19317,7.25037,-0.0239874,0.0637244,7.25069,-21.3653,17,1,
464,1.19317,7.2464,-0.0241847,0.0652156,7.24673,-21.3676,17,1,
468,1.19319,7.24363,-0.0244203,0.0666814,7.24398,-21.332,17,1,
472,1.1932,7.24119,-0.0247586,0.0680448,7.24155,-21.3165,17,1,
476,1.19318,7.2374,-0.0250876,0.0694978,7.23778,-21.348,17,1,
480,1.19317,7.23272,-0.025433,0.0710141,7.23312,-21.3716,17,1,
484,1.19317,7.23125,-0.0258181,0.0725489,7.23166,-21.3649,17,1,
488,1.19319,7.23207,-0.0261919,0.0740666,7.23249,-21.329,17,1,
492,1.1932,7.23213,-0.0266453,0.0756641,7.23257,-21.3194,17,1,
496,1.19319,7.23176,-0.0271317,0.0772869,7.23223,-21.3347,17,1,
500,1.19319,7.23162,-0.0276511,0.0789729,7.2321,-21.3305,17,1,
504,1.19319,7.23287,-0.0281703,0.0807303,7.23337,-21.339,17,1,
508,1.1932,7.23655,-0.0287444,0.0825111,7.23708,-21.3171,17,1,
512,1.19322,7.24085,-0.0293554,0.0843103,7.2414,-21.2725,17,1,
512,1.19322,7.24085,-0.0293554,0.0843103,7.2414,-21.2725,25,1,
516,1.19321,7.24374,-0.030012,0.0862117,7.24431,-21.2872,25,1,
520,1.19321,7.24679,-0.0306913,0.0881607,7.24739,-21.3038,25,1,
524,1.19321,7.25106,-0.0313614,0.0901659,7.25169,-21.2903,25,1,
528,1.19322,7.25724,-0.0321398,0.0922063,7.2579,-21.2719,25,1,
532,1.19324,7.2642,-0.0329577,0.0942673,7.26488,-21.2472,25,1,
536,1.19323,7.26953,-0.0337413,0.0963736,7.27025,-21.252,25,1,
540,1.19322,7.27468,-0.0346393,0.0985845,7.27543,-21.2697,25,1,
544,1.19322,7.28097,-0.0355585,0.100745,7.28175,-21.2689,25,1,
548,1.19323,7.28878,-0.0365291,0.102983,7.2896,-21.2582,25,1,
552,1.19324,7.29707,-0.0375254,0.105268,7.29793,-21.2419,25,1,
556,1.19323,7.30425,-0.0386062,0.107507,7.30514,-21.2526,25,1,
560,1.19322,7.31073,-0.039736,0.109915,7.31166,-21.2759,25,1,
564,1.19322,7.31879,-0.0408804,0.112284,7.31976,-21.2822,25,1,
568,1.19322,7.32801,-0.0420998,0.114722,7.32903,-21.279,25,1,
572,1.19322,7.33726,-0.0433255,0.117197,7.33832,-21.2774,25,1,
576,1.19322,7.34632,-0.0446277,0.119702,7.34743,-21.2831,25,1,
576,1.19322,7.34632,-0.0446277,0.119702,7.34743,-21.2831,26,1,
580,1.1932,7.3546,-0.0459426,0.122317,7.35576,-21.3166,26,1,
584,1.19319,7.36383,-0.0473008,0.124934,7.36505,-21.3306,26,1,
588,1.19319,7.3747,-0.0486975,0.127636,7.37597,-21.3263,26,1,
592,1.19319,7.38509,-0.050124,0.130341,7.38641,-21.3372,26,1,
596,1.19318,7.39533,-0.0515526,0.133139,7.39671,-21.3538,26,1,
600,1.19316,7.4054,-0.053003,0.135954,7.40684,-21.378,26,1,
604,1.19315,7.41584,-0.0545037,0.138915,7.41734,-21.3953,26,1,
608,1.19315,7.42746,-0.0559877,0.141796,7.42902,-21.4109,26,1,
608,1.19315,7.42746,-0.0559877,0.141796,7.42902,-21.4109,26,1,
612,1.19314,7.43901,-0.057498,0.144729,7.44064,-21.4144,26,1,
616,1.19313,7.45055,-0.0590224,0.147811,7.45226,-21.4352,26,1,
620,1.19312,7.46166,-0.0605903,0.15081,7.46343,-21.4607,26,1,
624,1.19311,7.4734,-0.0621659,0.153955,7.47524,-21.4799,26,1,
628,1.1931,7.48564,-0.0637134,0.157033,7.48756,-21.4981,26,1,
632,1.19309,7.49841,-0.0653355,0.160191,7.5004,-21.5044,26,1,
636,1.19309,7.51118,-0.0669439,0.163378,7.51326,-21.521,26,1,
640,1.19307,7.52338,-0.0685512,0.166599,7.52554,-21.5442,26,1,
644,1.19306,7.53623,-0.0702081,0.169942,7.53847,-21.5674,26,1,
648,1.19306,7.54947,-0.0718189,0.173136,7.5518,-21.5739,26,1,
652,1.19305,7.56338,-0.0734798,0.17656,7.5658,-21.5873,26,1,
656,1.19304,7.57674,-0.0751562,0.179826,7.57925,-21.5988,26,1,
660,1.19303,7.59026,-0.0768568,0.183234,7.59287,-21.615,26,1,
664,1.19302,7.60383,-0.0785139,0.186532,7.60652,-21.6339,26,1,
668,1.19302,7.61764,-0.0802778,0.189946,7.62043,-21.6408,26,1,
672,1.19301,7.63241,-0.0819273,0.1934,7.6353,-21.6527,26,1,
672,1.19301,7.63241,-0.0819273,0.1934,7.6353,-21.6527,27,1,
676,1.19301,7.64631,-0.0835946,0.196718,7.64929,-21.651,27,1,
680,1.193,7.66071,-0.0854726,0.20035,7.6638,-21.6699,27,1,
684,1.193,7.67445,-0.0869867,0.203382,7.67764,-21.6779,27,1,
688,1.19299,7.68892,-0.0888954,0.207114,7.69222,-21.6878,27,1,
692,1.19299,7.70334,-0.0904784,0.210196,7.70674,-21.6904,27,1,
696,1.19299,7.71796,-0.0921964,0.213776,7.72147,-21.6928,27,1,
700,1.19299,7.73249,-0.0940731,0.217236,7.73612,-21.7,27,1,
704,1.19298,7.74646,-0.0956934,0.220463,7.75019,-21.7094,27,1,
704,1.19298,7.74646,-0.0956934,0.220463,7.75019,-21.7094,31,1,
708,1.19298,7.76069,-0.0973489,0.223888,7.76453,-21.7119,31,1,
712,1.19298,7.77556,-0.0990368,0.226991,7.7795,-21.7169,31,1,
716,1.19298,7.78978,-0.100656,0.230541,7.79385,-21.7167,31,1,
720,1.19298,7.80414,-0.102251,0.233917,7.80832,-21.7151,31,1,
724,1.19297,7.8189,-0.104147,0.23733,7.8232,-21.7345,31,1,
728,1.19297,7.83306,-0.10565,0.240441,7.83746,-21.7267,31,1,
732,1.19297,7.84803,-0.107361,0.2442,7.85257,-21.7326,31,1,
736,1.19297,7.86272,-0.108988,0.246637,7.86735,-21.738,31,1,
740,1.19297,7.8774,-0.110486,0.250237,7.88215,-21.736,31,1,
744,1.19296,7.89223,-0.112106,0.253646,7.8971,-21.7491,31,1,
748,1.19296,7.90664,-0.113929,0.257062,7.91164,-21.747,31,1,
752,1.19294,7.92272,-0.115033,0.260493,7.92784,-21.7844,31,1,
756,1.19295,7.93748,-0.117191,0.263816,7.94273,-21.7609,31,1,
760,1.19293,7.95514,-0.119679,0.26776,7.96055,-21.8062,31,1,
764,1.19291,7.97233,-0.121192,0.270856,7.97786,-21.8331,31,1,
768,1.19291,7.98947,-0.123256,0.274444,7.99514,-21.8401,31,1,
772,1.19286,8.00883,-0.125282,0.280481,8.01473,-21.9315,31,1,
776,1.19282,8.02876,-0.127486,0.287545,8.03492,-22.0014,31,1,
780,1.19274,8.05633,-0.131029,0.291411,8.06267,-22.1521,31,1,
784,1.19269,8.08483,-0.13616,0.2981,8.09148,-22.229,31,1,
788,1.19252,8.12636,-0.140284,0.308932,8.13346,-22.5429,31,1,
792,1.19233,8.17292,-0.146219,0.326208,8.18076,-22.8801,31,1,
796,1.19202,8.24258,-0.156192,0.350592,8.25155,-23.4411,31,1,
800,1.19173,8.29321,-0.161601,0.36323,8.30277,-23.9712,31,1,
