48.905;r ;Density                 ;Velocity u              ;Velocity v              ;Velocity w              ;|Velocity|              ;Pressure                ;Distribution            ;Levels                  ;
0 1.20646 9.99994 -5.35639e-05 -7.97525e-07 9.99994 2.64176 1 1 
2 1.20649 9.99936 -7.38615e-05 -4.60004e-05 9.99936 2.68776 1 1 
4 1.20648 9.99954 -0.000156245 -0.000158717 9.99954 2.66917 1 1 
6 1.20645 10.0004 -0.000220759 -0.000242339 10.0004 2.62438 1 1 
8 1.20645 10.0015 -0.000294255 -0.000335257 10.0015 2.62695 1 1 
10 1.20644 10.0024 -0.000357636 -0.000399793 10.0024 2.6006 1 1 
12 1.20644 10.0025 -0.000417093 -0.000478937 10.0025 2.5951 1 1 
14 1.20642 10.004 -0.000497223 -0.000572644 10.004 2.56738 1 1 
16 1.20642 10.0049 -0.000542376 -0.000640555 10.0049 2.56135 1 1 
18 1.20642 10.0048 -0.000617688 -0.000730642 10.0048 2.55584 1 1 
20 1.20639 10.0055 -0.000738815 -0.000859399 10.0055 2.51938 1 1 
22 1.2064 10.0058 -0.000801275 -0.000949488 10.0058 2.53695 1 1 
24 1.2064 10.0068 -0.000896165 -0.00106952 10.0068 2.52508 1 1 
26 1.20638 10.0073 -0.000984777 -0.00116153 10.0073 2.49583 1 1 
28 1.20638 10.0069 -0.00108566 -0.00126791 10.0069 2.4968 1 1 
30 1.20637 10.0072 -0.00115435 -0.00136484 10.0072 2.48308 1 1 
32 1.20638 10.0069 -0.00126571 -0.00149306 10.0069 2.48704 1 1 
32 1.20638 10.0069 -0.00126571 -0.00149306 10.0069 2.48704 1 1 
34 1.20638 10.0068 -0.0013275 -0.00157745 10.0068 2.49168 1 1 
36 1.20638 10.0061 -0.00143576 -0.00170501 10.0061 2.50159 1 1 
38 1.20637 10.0065 -0.00154005 -0.00183046 10.0065 2.47952 1 1 
40 1.20637 10.007 -0.00162811 -0.00195419 10.007 2.47957 1 1 
42 1.20637 10.0072 -0.00174295 -0.00208113 10.0072 2.48054 1 1 
44 1.20636 10.0069 -0.00184731 -0.00218165 10.0069 2.46068 1 1 
46 1.20636 10.0061 -0.00199476 -0.002351 10.0061 2.46095 1 1 
48 1.20635 10.0065 -0.0021272 -0.00252266 10.0065 2.44063 1 1 
50 1.20636 10.0071 -0.00220071 -0.00259024 10.0071 2.45102 1 1 
52 1.20636 10.0068 -0.00229578 -0.00271493 10.0068 2.44835 1 1 
54 1.20634 10.0065 -0.00242908 -0.00286411 10.0065 2.42014 1 1 
56 1.20633 10.0079 -0.00253346 -0.00298172 10.0079 2.40423 1 1 
58 1.20632 10.0083 -0.00269195 -0.00317517 10.0083 2.39191 1 1 
60 1.20631 10.0083 -0.00278119 -0.00328189 10.0083 2.37452 1 1 
62 1.20631 10.0078 -0.00289612 -0.00342113 10.0078 2.37194 1 1 
64 1.2063 10.0081 -0.0029961 -0.00353043 10.0081 2.35552 1 1 
64 1.2063 10.0081 -0.0029961 -0.00353043 10.0081 2.35552 2 1 
66 1.20631 10.0088 -0.00309158 -0.00365259 10.0088 2.35754 2 1 
68 1.20628 10.0102 -0.00321947 -0.00379921 10.0102 2.31785 2 1 
70 1.20628 10.0103 -0.00335685 -0.00396765 10.0103 2.30648 2 1 
72 1.20627 10.0099 -0.00346845 -0.004114 10.0099 2.28831 2 1 
74 1.20624 10.0099 -0.00355863 -0.00420678 10.0099 2.24862 2 1 
76 1.20626 10.0098 -0.00364731 -0.00432974 10.0098 2.27798 2 1 
78 1.20624 10.0114 -0.00372634 -0.00442357 10.0114 2.24084 2 1 
80 1.20623 10.0114 -0.003829 -0.00455567 10.0114 2.21763 2 1 
82 1.20622 10.0114 -0.00394484 -0.00470933 10.0114 2.2012 2 1 
84 1.2062 10.012 -0.00403909 -0.00478934 10.012 2.1751 2 1 
86 1.2062 10.0119 -0.00412276 -0.00487698 10.0119 2.16703 2 1 
88 1.20618 10.0121 -0.00424655 -0.00503583 10.0121 2.13107 2 1 
90 1.20617 10.0122 -0.00429708 -0.00510944 10.0122 2.10982 2 1 
92 1.20616 10.0122 -0.00440258 -0.00521659 10.0122 2.0944 2 1 
94 1.20615 10.0125 -0.00451407 -0.00534277 10.0126 2.07677 2 1 
96 1.20614 10.0131 -0.00457368 -0.00542648 10.0131 2.05409 2 1 
96 1.20614 10.0131 -0.00457368 -0.00542648 10.0131 2.05409 2 1 
98 1.20612 10.0138 -0.00469755 -0.00554448 10.0138 2.02272 2 1 
100 1.2061 10.0143 -0.00475929 -0.00561456 10.0143 1.99258 2 1 
102 1.20608 10.0143 -0.0048327 -0.00572791 10.0143 1.9562 2 1 
104 1.20608 10.0136 -0.0049426 -0.00586041 10.0136 1.94791 2 1 
106 1.20606 10.0139 -0.0049881 -0.00590859 10.0139 1.91252 2 1 
108 1.20605 10.0136 -0.00511387 -0.00603643 10.0136 1.89001 2 1 
110 1.20603 10.0139 -0.00515741 -0.00610055 10.0139 1.85235 2 1 
112 1.20601 10.0146 -0.00520225 -0.00617812 10.0146 1.81923 2 1 
114 1.20601 10.0137 -0.0052945 -0.00627905 10.0137 1.8204 2 1 
116 1.20598 10.0152 -0.00535913 -0.00635475 10.0152 1.76426 2 1 
118 1.20596 10.0162 -0.005396 -0.00641402 10.0162 1.73686 2 1 
120 1.20596 10.0153 -0.00548595 -0.00650454 10.0154 1.73624 2 1 
122 1.20593 10.0157 -0.00558529 -0.00661302 10.0157 1.67672 2 1 
124 1.20591 10.0149 -0.00556798 -0.00662551 10.0149 1.64383 2 1 
126 1.20591 10.0141 -0.00562482 -0.00669716 10.0141 1.64541 2 1 
128 1.20586 10.0156 -0.00568316 -0.00675159 10.0156 1.55679 2 1 
128 1.20586 10.0156 -0.00568316 -0.00675159 10.0156 1.55679 10 1 
130 1.20586 10.0157 -0.00576571 -0.00686853 10.0157 1.54744 10 1 
132 1.20586 10.0166 -0.00576105 -0.00687447 10.0166 1.54422 10 1 
134 1.20583 10.0169 -0.00578677 -0.00689754 10.0169 1.50723 10 1 
136 1.20582 10.0159 -0.00583328 -0.00695454 10.0159 1.48996 10 1 
138 1.20578 10.0161 -0.00587725 -0.00701841 10.0161 1.41781 10 1 
140 1.20577 10.0164 -0.00591124 -0.00708849 10.0164 1.39716 10 1 
142 1.20576 10.0167 -0.00593143 -0.0070692 10.0167 1.37292 10 1 
144 1.20574 10.0168 -0.00600815 -0.00718175 10.0168 1.34334 10 1 
146 1.20573 10.0174 -0.00608146 -0.00728171 10.0174 1.31975 10 1 
148 1.2057 10.0168 -0.00610782 -0.00730955 10.0168 1.26001 10 1 
150 1.20567 10.0163 -0.00611812 -0.00735282 10.0163 1.20423 10 1 
152 1.20567 10.0165 -0.0062373 -0.00748676 10.0165 1.21875 10 1 
154 1.20567 10.0167 -0.00627142 -0.00753252 10.0167 1.21381 10 1 
156 1.20564 10.0176 -0.00627156 -0.00755589 10.0176 1.14985 10 1 
158 1.20562 10.0175 -0.00632428 -0.00762567 10.0175 1.11324 10 1 
160 1.2056 10.0161 -0.00641786 -0.00775105 10.0161 1.08934 10 1 
160 1.2056 10.0161 -0.00641786 -0.00775105 10.0161 1.08934 10 1 
162 1.20557 10.0162 -0.00647716 -0.00785179 10.0162 1.02441 10 1 
164 1.20555 10.0159 -0.00648644 -0.00784485 10.0159 0.996637 10 1 
166 1.20557 10.0144 -0.00662312 -0.0079941 10.0144 1.02106 10 1 
168 1.20552 10.0163 -0.00673552 -0.00813814 10.0163 0.934255 10 1 
170 1.20551 10.0154 -0.00674195 -0.00816452 10.0154 0.925906 10 1 
172 1.2055 10.0151 -0.00681654 -0.0082466 10.0152 0.908805 10 1 
174 1.20546 10.0169 -0.00690491 -0.00838169 10.0169 0.828524 10 1 
176 1.20548 10.0148 -0.00698822 -0.00845043 10.0148 0.868004 10 1 
178 1.20545 10.0148 -0.00700917 -0.00849799 10.0148 0.814222 10 1 
180 1.20543 10.0139 -0.00714662 -0.00868729 10.0139 0.769359 10 1 
182 1.20541 10.0117 -0.00727066 -0.00883494 10.0117 0.735999 10 1 
184 1.20537 10.0111 -0.00732839 -0.0089295 10.0111 0.668368 10 1 
186 1.20539 10.0122 -0.00744179 -0.00903858 10.0122 0.702432 10 1 
188 1.20538 10.0127 -0.00753318 -0.00912636 10.0127 0.690444 10 1 
190 1.20535 10.0121 -0.00760474 -0.00921682 10.0121 0.627096 10 1 
192 1.20532 10.012 -0.007531 -0.0091905 10.012 0.586028 10 1 
194 1.20532 10.0094 -0.00776585 -0.0094408 10.0095 0.578586 10 1 
196 1.20531 10.0071 -0.00794937 -0.00962414 10.0071 0.558542 10 1 
198 1.20529 10.0071 -0.00788203 -0.00955304 10.0071 0.527838 10 1 
200 1.2053 10.0063 -0.00809227 -0.00979351 10.0063 0.548837 10 1 
202 1.20527 10.006 -0.00811638 -0.00989092 10.006 0.495195 10 1 
204 1.20522 10.0062 -0.00806854 -0.00983403 10.0062 0.389601 10 1 
206 1.20525 10.0033 -0.00828015 -0.0100485 10.0033 0.454936 10 1 
208 1.20527 10.0029 -0.00845866 -0.0101948 10.0029 0.478873 10 1 
210 1.20521 10.005 -0.00845798 -0.010182 10.005 0.372221 10 1 
212 1.20525 9.99975 -0.00847116 -0.0102648 9.99977 0.448705 10 1 
214 1.20521 9.99591 -0.00852346 -0.010335 9.99592 0.379041 10 1 
216 1.20516 9.99335 -0.00868852 -0.010477 9.99336 0.295647 10 1 
218 1.20521 9.98859 -0.00883936 -0.0106108 9.9886 0.386404 10 1 
220 1.2052 9.9924 -0.00886028 -0.0106955 9.99241 0.352341 10 1 
222 1.2052 9.99384 -0.00892252 -0.0107631 9.99385 0.369391 10 1 
224 1.20519 9.9896 -0.00893362 -0.0106772 9.98961 0.342344 10 1 
224 1.20519 9.9896 -0.00893362 -0.0106772 9.98961 0.342344 10 1 
226 1.20519 9.98624 -0.00897388 -0.0107259 9.98625 0.346126 10 1 
228 1.2052 9.97873 -0.00911605 -0.0109279 9.97874 0.361547 10 1 
230 1.20518 9.97241 -0.00926816 -0.0111079 9.97242 0.326589 10 1 
232 1.20517 9.97302 -0.00926801 -0.0111034 9.97303 0.3154 10 1 
234 1.2052 9.97153 -0.00929356 -0.0110779 9.97154 0.364691 10 1 
236 1.20527 9.96488 -0.00941422 -0.0112454 9.96489 0.487694 10 1 
238 1.20519 9.96389 -0.00943587 -0.0112858 9.96391 0.351207 10 1 
240 1.20528 9.95474 -0.00961374 -0.0114587 9.95475 0.499122 10 1 
242 1.20528 9.94757 -0.00972503 -0.0115929 9.94758 0.514615 10 1 
244 1.2052 9.94748 -0.00971764 -0.0116057 9.9475 0.356981 10 1 
246 1.20536 9.93787 -0.00974944 -0.011621 9.93788 0.657441 10 1 
248 1.20538 9.93072 -0.00972394 -0.0115733 9.93073 0.689427 10 1 
250 1.20537 9.92151 -0.0099187 -0.0118026 9.92152 0.663081 10 1 
252 1.2054 9.91237 -0.0101423 -0.0120315 9.91239 0.72919 10 1 
254 1.20549 9.90264 -0.010008 -0.0118731 9.90265 0.877906 10 1 
256 1.20554 9.89238 -0.010118 -0.0120013 9.89239 0.973529 10 1 
256 1.20554 9.89238 -0.010118 -0.0120013 9.89239 0.973529 11 1 
258 1.20558 9.87963 -0.0103532 -0.0122848 9.87964 1.04591 11 1 
260 1.20572 9.86535 -0.0103774 -0.0123141 9.86537 1.2999 11 1 
262 1.20579 9.84862 -0.0104968 -0.0124091 9.84864 1.43581 11 1 
264 1.20577 9.83154 -0.0106243 -0.0125204 9.83156 1.39568 11 1 
266 1.20593 9.8156 -0.0107356 -0.0126746 9.81561 1.68258 11 1 
268 1.20628 9.78497 -0.0107836 -0.0127441 9.78499 2.30516 11 1 
270 1.20619 9.76434 -0.0109674 -0.0128758 9.76436 2.15832 11 1 
272 1.20634 9.73389 -0.0111175 -0.0130052 9.73392 2.4239 11 1 
274 1.20679 9.69127 -0.011174 -0.0131305 9.69129 3.24138 11 1 
276 1.20678 9.6634 -0.011185 -0.0131344 9.66341 3.22427 11 1 
278 1.20706 9.62045 -0.0113673 -0.0132952 9.62047 3.72776 11 1 
280 1.20761 9.57583 -0.0115715 -0.0134861 9.57586 4.71498 11 1 
282 1.20797 9.51589 -0.011533 -0.0134532 9.51599 5.36088 11 1 
284 1.20822 9.42677 -0.0115068 -0.0134754 9.42695 5.81576 11 1 
286 1.20856 9.33646 -0.01169 -0.0136261 9.33657 6.4292 11 1 
288 1.20922 9.25155 -0.0118319 -0.0137594 9.25158 7.62929 11 1 
288 1.20922 9.25155 -0.0118319 -0.0137594 9.25158 7.62929 11 1 
290 1.21001 9.17731 -0.0117634 -0.013706 9.17735 9.0492 11 1 
292 1.21065 9.07794 -0.0119147 -0.0138623 9.07805 10.213 11 1 
294 1.21118 8.94115 -0.0120423 -0.0140042 8.94142 11.1697 11 1 
296 1.21193 8.80049 -0.011937 -0.0138807 8.80069 12.5176 11 1 
298 1.20763 8.62946 -0.0119481 -0.0138855 8.62956 4.75142 11 1 
300 1.20029 8.55868 -0.0119554 -0.0138966 8.5588 -8.5106 11 1 
302 1.19798 8.52967 -0.0120626 -0.0139914 8.52973 -12.6744 11 1 
304 1.19859 8.41356 -0.0120808 -0.0139958 8.41369 -11.5755 11 1 
306 1.19934 8.28322 -0.0121025 -0.0140283 8.28341 -10.2186 11 1 
308 1.1999 8.16342 -0.0121356 -0.0140448 8.16363 -9.21631 11 1 
310 1.20025 8.07382 -0.0120304 -0.0139201 8.07397 -8.58553 11 1 
312 1.20071 7.9773 -0.0121126 -0.0140344 7.97735 -7.74913 11 1 
314 1.20116 7.90599 -0.0123115 -0.014251 7.90603 -6.93267 11 1 
316 1.20151 7.85357 -0.0123829 -0.0143198 7.8536 -6.30577 11 1 
318 1.20182 7.78476 -0.012425 -0.0143682 7.78479 -5.74285 11 1 
320 1.20208 7.74099 -0.0124479 -0.0143832 7.74102 -5.27837 11 1 
320 1.20208 7.74099 -0.0124479 -0.0143832 7.74102 -5.27837 15 1 
322 1.20233 7.71083 -0.0125627 -0.0145077 7.71086 -4.82381 15 1 
324 1.20257 7.66437 -0.0126937 -0.0146395 7.6644 -4.38259 15 1 
326 1.20276 7.63007 -0.0126743 -0.0146051 7.6301 -4.05159 15 1 
328 1.20291 7.59988 -0.0126148 -0.0145526 7.59991 -3.77092 15 1 
330 1.20301 7.56615 -0.0127193 -0.01466 7.56619 -3.60114 15 1 
332 1.20317 7.54496 -0.012844 -0.0147744 7.54499 -3.30275 15 1 
334 1.20336 7.51542 -0.0128359 -0.0147642 7.51545 -2.96979 15 1 
336 1.20333 7.47998 -0.0128701 -0.014791 7.48002 -3.01187 15 1 
338 1.20337 7.46078 -0.0130718 -0.0149958 7.46082 -2.94759 15 1 
340 1.20357 7.44463 -0.0133129 -0.0152597 7.44467 -2.58406 15 1 
342 1.20365 7.42683 -0.0133532 -0.015294 7.42687 -2.4354 15 1 
344 1.20363 7.40489 -0.0133464 -0.0152763 7.40492 -2.47206 15 1 
346 1.20364 7.38048 -0.0134877 -0.0154541 7.38051 -2.4645 15 1 
348 1.20376 7.3767 -0.0136882 -0.0157026 7.37673 -2.24357 15 1 
350 1.20389 7.37642 -0.0137591 -0.015779 7.37645 -2.0013 15 1 
352 1.20386 7.35832 -0.0138123 -0.0158322 7.35835 -2.06364 15 1 
354 1.20385 7.34702 -0.0139279 -0.015985 7.34705 -2.06964 15 1 
356 1.20394 7.34537 -0.0139898 -0.0160923 7.3454 -1.91488 15 1 
358 1.20398 7.34258 -0.0138719 -0.0159676 7.34261 -1.84711 15 1 
360 1.20403 7.34327 -0.0137931 -0.0158778 7.3433 -1.74906 15 1 
362 1.20407 7.34087 -0.0140173 -0.0161323 7.3409 -1.67395 15 1 
364 1.20408 7.33671 -0.0144538 -0.0165708 7.33674 -1.65924 15 1 
366 1.20411 7.33675 -0.0147148 -0.0168019 7.33678 -1.60809 15 1 
368 1.20414 7.33751 -0.0145883 -0.0166955 7.33754 -1.55239 15 1 
370 1.20419 7.34107 -0.0142465 -0.0163873 7.3411 -1.4556 15 1 
372 1.20423 7.34122 -0.0140485 -0.0161786 7.34126 -1.39958 15 1 
374 1.20422 7.33664 -0.0140542 -0.0161711 7.33668 -1.40331 15 1 
376 1.20425 7.3373 -0.0140575 -0.0161787 7.33733 -1.34676 15 1 
378 1.20428 7.3382 -0.0140049 -0.0161195 7.33823 -1.30257 15 1 
380 1.20431 7.3381 -0.0139609 -0.016059 7.33813 -1.24686 15 1 
382 1.20434 7.33867 -0.013957 -0.0160406 7.3387 -1.18436 15 1 
384 1.20434 7.33278 -0.013958 -0.0160285 7.33281 -1.18737 15 1 
384 1.20434 7.33278 -0.013958 -0.0160285 7.33281 -1.18737 16 1 
386 1.20437 7.32827 -0.0139193 -0.0159876 7.3283 -1.13575 16 1 
388 1.20441 7.32932 -0.0138862 -0.0159506 7.32935 -1.06642 16 1 
390 1.20442 7.32641 -0.0138845 -0.0159254 7.32644 -1.04549 16 1 
392 1.20444 7.32087 -0.013831 -0.0158689 7.3209 -1.01119 16 1 
394 1.20444 7.31429 -0.0137739 -0.0158331 7.31432 -1.00687 16 1 
396 1.20445 7.30687 -0.0137797 -0.01582 7.3069 -1.00127 16 1 
398 1.20448 7.30296 -0.0137711 -0.0157849 7.30299 -0.94401 16 1 
400 1.20451 7.29861 -0.0137116 -0.0157523 7.29864 -0.88003 16 1 
402 1.20453 7.29036 -0.0137067 -0.0157592 7.29039 -0.851457 16 1 
404 1.20451 7.28068 -0.013717 -0.0157344 7.28071 -0.885906 16 1 
406 1.20451 7.2721 -0.0136516 -0.015665 7.27213 -0.881495 16 1 
408 1.20455 7.26633 -0.013587 -0.0156168 7.26636 -0.804435 16 1 
410 1.20457 7.25931 -0.0136212 -0.0156568 7.25934 -0.774038 16 1 
412 1.20457 7.24959 -0.0136604 -0.0157044 7.24963 -0.770263 16 1 
414 1.20459 7.24103 -0.0136377 -0.0156748 7.24106 -0.749123 16 1 
416 1.20459 7.2324 -0.0135976 -0.0156394 7.23243 -0.73688 16 1 
416 1.20459 7.2324 -0.0135976 -0.0156394 7.23243 -0.73688 16 1 
418 1.2046 7.22381 -0.0135766 -0.0156621 7.22384 -0.719518 16 1 
420 1.20462 7.21679 -0.0135909 -0.015699 7.21682 -0.687486 16 1 
422 1.20465 7.20891 -0.0136323 -0.0157248 7.20894 -0.636427 16 1 
424 1.20466 7.20013 -0.0136466 -0.0157438 7.20016 -0.605243 16 1 
426 1.20465 7.19082 -0.0136525 -0.0157766 7.19085 -0.623322 16 1 
428 1.20465 7.18164 -0.0136789 -0.0157939 7.18167 -0.624319 16 1 
430 1.20468 7.17505 -0.0137212 -0.0158054 7.17508 -0.582419 16 1 
432 1.2047 7.16828 -0.0137781 -0.0158435 7.16832 -0.538638 16 1 
434 1.20471 7.15887 -0.0138382 -0.0158898 7.1589 -0.524401 16 1 
436 1.20471 7.15001 -0.0138964 -0.0159269 7.15004 -0.530587 16 1 
438 1.20471 7.14304 -0.013939 -0.0159482 7.14307 -0.520368 16 1 
440 1.20473 7.13699 -0.0139615 -0.0159371 7.13702 -0.496093 16 1 
442 1.20475 7.13079 -0.0140078 -0.0159556 7.13082 -0.460144 16 1 
444 1.20477 7.12394 -0.0140625 -0.0160185 7.12398 -0.42228 16 1 
446 1.20477 7.11768 -0.01411 -0.0160566 7.11771 -0.413832 16 1 
448 1.20477 7.11224 -0.0141662 -0.0160755 7.11227 -0.412512 16 1 
448 1.20477 7.11224 -0.0141662 -0.0160755 7.11227 -0.412512 17 1 
450 1.20478 7.1074 -0.0141869 -0.0160903 7.10743 -0.402698 17 1 
452 1.20479 7.10345 -0.0141916 -0.0161141 7.10349 -0.386515 17 1 
454 1.20481 7.0994 -0.0142584 -0.0161792 7.09944 -0.344693 17 1 
456 1.20483 7.0953 -0.0143308 -0.0162315 7.09534 -0.298967 17 1 
458 1.20484 7.09216 -0.0143384 -0.0162414 7.09219 -0.280601 17 1 
460 1.20484 7.08962 -0.0143532 -0.0162731 7.08965 -0.28257 17 1 
462 1.20485 7.0873 -0.014404 -0.016317 7.08734 -0.27709 17 1 
464 1.20486 7.08467 -0.014434 -0.0163428 7.0847 -0.250525 17 1 
466 1.20488 7.08211 -0.0144441 -0.0163572 7.08214 -0.217616 17 1 
468 1.2049 7.08112 -0.0144846 -0.0163972 7.08116 -0.179383 17 1 
470 1.20492 7.08055 -0.0145413 -0.0164576 7.08058 -0.152745 17 1 
472 1.20491 7.07912 -0.0145767 -0.0164783 7.07915 -0.160483 17 1 
474 1.20491 7.07788 -0.0145854 -0.0164795 7.07791 -0.166046 17 1 
476 1.20492 7.07709 -0.0145751 -0.0164814 7.07712 -0.142485 17 1 
478 1.20495 7.07707 -0.0145721 -0.0164576 7.0771 -0.0934715 17 1 
480 1.20498 7.07817 -0.0146197 -0.0164753 7.07821 -0.0385639 17 1 
480 1.20498 7.07817 -0.0146197 -0.0164753 7.07821 -0.0385639 17 1 
482 1.20498 7.07887 -0.0146672 -0.016529 7.07891 -0.028217 17 1 
484 1.20497 7.0787 -0.0146715 -0.0165364 7.07874 -0.0500157 17 1 
486 1.20497 7.0788 -0.0146794 -0.0165043 7.07884 -0.0500361 17 1 
488 1.20499 7.07987 -0.0146752 -0.0164625 7.0799 -0.023005 17 1 
490 1.20502 7.08225 -0.0146285 -0.0164244 7.08228 0.0288314 17 1 
492 1.20504 7.08481 -0.0146352 -0.0164172 7.08485 0.0807088 17 1 
494 1.20506 7.08631 -0.0147125 -0.0164327 7.08634 0.101231 17 1 
496 1.20505 7.08735 -0.0147326 -0.0164379 7.08738 0.0955878 17 1 
498 1.20504 7.08892 -0.0146826 -0.0163968 7.08896 0.0799443 17 1 
500 1.20505 7.09168 -0.0146563 -0.0163185 7.09172 0.0989747 17 1 
502 1.20509 7.09518 -0.0146513 -0.0162681 7.09521 0.158558 17 1 
504 1.20511 7.09795 -0.0146352 -0.0162529 7.09798 0.204694 17 1 
506 1.20513 7.10018 -0.0146326 -0.016227 7.10022 0.227989 17 1 
508 1.20513 7.10289 -0.0146499 -0.0161944 7.10292 0.234014 17 1 
510 1.20513 7.10566 -0.0146391 -0.0161615 7.1057 0.232362 17 1 
512 1.20514 7.10855 -0.0146032 -0.0161106 7.10858 0.250212 17 1 
512 1.20514 7.10855 -0.0146032 -0.0161106 7.10858 0.250212 25 1 
514 1.20516 7.11185 -0.0145714 -0.0160363 7.11189 0.282982 25 1 
516 1.20518 7.11517 -0.0145225 -0.0159582 7.11521 0.32618 25 1 
518 1.2052 7.1183 -0.0144764 -0.0158993 7.11833 0.36574 25 1 
520 1.20521 7.12122 -0.0144666 -0.0158422 7.12125 0.379647 25 1 
522 1.20521 7.12409 -0.0144499 -0.0157738 7.12413 0.382626 25 1 
524 1.20522 7.12702 -0.014401 -0.0157086 7.12705 0.39008 25 1 
526 1.20523 7.13005 -0.0143549 -0.0156194 7.13008 0.416649 25 1 
528 1.20526 7.13348 -0.0143161 -0.0155156 7.13352 0.463538 25 1 
530 1.20528 7.13719 -0.0142651 -0.0154303 7.13722 0.500841 25 1 
532 1.20529 7.14041 -0.0142234 -0.0153439 7.14044 0.517109 25 1 
534 1.20529 7.14314 -0.014204 -0.0152552 7.14317 0.525906 25 1 
536 1.2053 7.14585 -0.0141801 -0.0151868 7.14588 0.536527 25 1 
538 1.20531 7.14898 -0.0141428 -0.0151206 7.14901 0.551686 25 1 
540 1.20532 7.15277 -0.0140947 -0.0150157 7.15281 0.581046 25 1 
542 1.20535 7.15705 -0.0140376 -0.0148871 7.15708 0.624925 25 1 
544 1.20536 7.16136 -0.0139646 -0.0147474 7.16139 0.658726 25 1 
544 1.20536 7.16136 -0.0139646 -0.0147474 7.16139 0.658726 25 1 
546 1.20537 7.16479 -0.013892 -0.0146076 7.16482 0.670037 25 1 
548 1.20537 7.16735 -0.0138436 -0.0144851 7.16738 0.672436 25 1 
550 1.20538 7.17015 -0.0138055 -0.014366 7.17018 0.680504 25 1 
552 1.20539 7.17364 -0.0137665 -0.0142566 7.17367 0.701222 25 1 
554 1.20541 7.17796 -0.0137372 -0.0141579 7.17798 0.740495 25 1 
556 1.20544 7.18302 -0.0137068 -0.014033 7.18305 0.787698 25 1 
558 1.20545 7.18781 -0.0136363 -0.0138627 7.18784 0.813171 25 1 
560 1.20545 7.19201 -0.0135385 -0.0136612 7.19203 0.818621 25 1 
562 1.20545 7.19571 -0.0134573 -0.0134553 7.19573 0.818576 25 1 
564 1.20545 7.19867 -0.0133974 -0.013276 7.1987 0.820503 25 1 
566 1.20547 7.20182 -0.0133616 -0.0131341 7.20185 0.845159 25 1 
568 1.20549 7.20594 -0.0133777 -0.0130396 7.20597 0.887806 25 1 
570 1.20552 7.21113 -0.0134186 -0.0129668 7.21115 0.931761 25 1 
572 1.20553 7.2175 -0.0134266 -0.0128651 7.21753 0.966241 25 1 
574 1.20554 7.22389 -0.0133924 -0.0127057 7.22392 0.976292 25 1 
576 1.20554 7.22935 -0.0133192 -0.0124793 7.22937 0.973997 25 1 
576 1.20554 7.22935 -0.0133192 -0.0124793 7.22937 0.973997 26 1 
578 1.20554 7.23377 -0.0132148 -0.0122193 7.23379 0.971991 26 1 
580 1.20554 7.23719 -0.0131307 -0.0119996 7.23721 0.976297 26 1 
582 1.20556 7.2409 -0.0131185 -0.0118641 7.24092 1.0063 26 1 
584 1.20558 7.24576 -0.0131905 -0.0118158 7.24578 1.05311 26 1 
586 1.20561 7.25167 -0.0133165 -0.0118365 7.25169 1.0983 26 1 
588 1.20563 7.25898 -0.0134182 -0.0118313 7.259 1.13138 26 1 
590 1.20563 7.26709 -0.0134497 -0.011739 7.26712 1.13423 26 1 
592 1.20562 7.27492 -0.0133983 -0.0115535 7.27495 1.12338 26 1 
594 1.20562 7.28182 -0.0132713 -0.0112655 7.28184 1.1206 26 1 
596 1.20562 7.28693 -0.0131127 -0.0109494 7.28695 1.12528 26 1 
598 1.20563 7.29052 -0.0129846 -0.0106887 7.29054 1.14586 26 1 
600 1.20566 7.29395 -0.0129713 -0.0105419 7.29397 1.18773 26 1 
602 1.20569 7.29834 -0.0130897 -0.0105365 7.29836 1.2451 26 1 
604 1.20571 7.30434 -0.0132798 -0.0106224 7.30436 1.27905 26 1 
606 1.2057 7.31197 -0.0134807 -0.0107115 7.312 1.27269 26 1 
608 1.20569 7.32101 -0.0136111 -0.0107072 7.32103 1.25444 26 1 
608 1.20569 7.32101 -0.0136111 -0.0107072 7.32103 1.25444 26 1 
610 1.20568 7.3307 -0.0136049 -0.0105512 7.33072 1.23423 26 1 
612 1.20568 7.33958 -0.0134459 -0.0102303 7.3396 1.23687 26 1 
614 1.2057 7.3467 -0.0131946 -0.00980281 7.34672 1.2661 26 1 
616 1.20572 7.35139 -0.0129696 -0.00939642 7.3514 1.30728 26 1 
618 1.20575 7.35373 -0.0128602 -0.00912475 7.35375 1.35408 26 1 
620 1.20576 7.35527 -0.0129045 -0.00902381 7.35528 1.37056 26 1 
622 1.20576 7.35772 -0.0130993 -0.00907392 7.35774 1.36623 26 1 
624 1.20575 7.36256 -0.0133915 -0.00923295 7.36258 1.35627 26 1 
626 1.20574 7.3703 -0.0136837 -0.00938885 7.37032 1.34307 26 1 
628 1.20574 7.38096 -0.0139177 -0.0094753 7.38098 1.34376 26 1 
630 1.20575 7.39374 -0.0140355 -0.00945099 7.39376 1.35577 26 1 
632 1.20577 7.40645 -0.014002 -0.00924694 7.40647 1.38886 26 1 
634 1.20578 7.41779 -0.0138276 -0.00887838 7.41781 1.41771 26 1 
636 1.20579 7.42598 -0.0135254 -0.0083955 7.426 1.4305 26 1 
638 1.2058 7.43011 -0.0131879 -0.00788448 7.43013 1.44041 26 1 
640 1.2058 7.43073 -0.012932 -0.00743057 7.43074 1.44261 26 1 
642 1.20581 7.42838 -0.0127937 -0.00709626 7.4284 1.45468 26 1 
644 1.20581 7.42488 -0.0127916 -0.00693424 7.4249 1.4545 26 1 
646 1.2058 7.4216 -0.0129318 -0.00692644 7.42161 1.44411 26 1 
648 1.2058 7.42064 -0.0132273 -0.00707861 7.42065 1.44543 26 1 
650 1.2058 7.42416 -0.0136762 -0.00738509 7.42417 1.45314 26 1 
652 1.20582 7.43375 -0.0142483 -0.0078142 7.43377 1.47502 26 1 
654 1.20583 7.45026 -0.0148563 -0.00827243 7.45029 1.49513 26 1 
656 1.20584 7.47254 -0.0153306 -0.00859541 7.47257 1.51916 26 1 
658 1.20585 7.49892 -0.0154905 -0.00859731 7.49895 1.53562 26 1 
660 1.20585 7.5242 -0.0151649 -0.00809615 7.52422 1.53947 26 1 
662 1.20586 7.54257 -0.014255 -0.0070023 7.54259 1.55109 26 1 
664 1.20586 7.54701 -0.0128095 -0.00535328 7.54702 1.55994 26 1 
666 1.20586 7.53138 -0.0110963 -0.00342578 7.5314 1.55804 26 1 
668 1.20585 7.49595 -0.00949375 -0.00162478 7.49597 1.5337 26 1 
670 1.20584 7.44341 -0.00835292 -0.000326334 7.44345 1.5176 26 1 
672 1.20584 7.3817 -0.00791587 0.000249996 7.38175 1.51199 26 1 
672 1.20584 7.3817 -0.00791587 0.000249996 7.38175 1.51199 27 1 
674 1.20584 7.31966 -0.00820944 9.78278e-05 7.3197 1.51295 27 1 
676 1.20585 7.26461 -0.00907771 -0.000628973 7.26464 1.52795 27 1 
678 1.20584 7.22189 -0.0102658 -0.0016667 7.22191 1.52501 27 1 
680 1.20584 7.19328 -0.0115484 -0.002816 7.1933 1.51514 27 1 
682 1.20583 7.18027 -0.0127405 -0.00388884 7.18029 1.49622 27 1 
684 1.20583 7.18067 -0.0137832 -0.00479283 7.18068 1.49696 27 1 
686 1.20584 7.19336 -0.0146731 -0.00554278 7.19338 1.51904 27 1 
688 1.20585 7.21625 -0.0153686 -0.0061206 7.21627 1.54309 27 1 
690 1.20587 7.24689 -0.0159458 -0.00657523 7.24692 1.57662 27 1 
692 1.20588 7.28474 -0.0164174 -0.00692544 7.28477 1.58398 27 1 
694 1.20588 7.32741 -0.016823 -0.00722612 7.32746 1.59349 27 1 
696 1.20589 7.37541 -0.0171269 -0.00745963 7.37546 1.61315 27 1 
698 1.20592 7.42752 -0.0173439 -0.00761558 7.42756 1.66262 27 1 
700 1.20596 7.48296 -0.0175326 -0.00773775 7.48301 1.73399 27 1 
702 1.20599 7.54144 -0.0176585 -0.00781922 7.54149 1.78091 27 1 
704 1.20601 7.6012 -0.0177926 -0.00791985 7.60126 1.82088 27 1 
704 1.20601 7.6012 -0.0177926 -0.00791985 7.60126 1.82088 31 1 
706 1.20601 7.66308 -0.0179266 -0.00802167 7.66314 1.82272 31 1 
708 1.20601 7.72665 -0.0180443 -0.00811571 7.7267 1.82698 31 1 
710 1.20603 7.792 -0.0181088 -0.00819442 7.79206 1.85185 31 1 
712 1.20604 7.85909 -0.0181471 -0.00825281 7.85915 1.88523 31 1 
714 1.20607 7.92725 -0.0181745 -0.00830724 7.92731 1.93824 31 1 
716 1.20609 7.99701 -0.0182051 -0.0083776 7.99707 1.96059 31 1 
718 1.20611 8.06736 -0.0182796 -0.00849701 8.06742 1.99709 31 1 
720 1.20612 8.13834 -0.0183134 -0.00859596 8.1384 2.01532 31 1 
722 1.20612 8.21016 -0.0182979 -0.00867038 8.21022 2.01834 31 1 
724 1.20614 8.28257 -0.0182988 -0.00878155 8.28263 2.05591 31 1 
726 1.20615 8.35606 -0.0182788 -0.00883792 8.35613 2.08376 31 1 
728 1.20618 8.42928 -0.0182318 -0.00886188 8.42934 2.13631 31 1 
730 1.20619 8.50242 -0.0181846 -0.008936 8.50249 2.15617 31 1 
732 1.2062 8.57528 -0.0181238 -0.00899342 8.57534 2.15878 31 1 
734 1.2062 8.64719 -0.0180061 -0.00898046 8.64725 2.17208 31 1 
736 1.2062 8.71914 -0.0178409 -0.00897914 8.7192 2.17415 31 1 
738 1.20623 8.79024 -0.0176724 -0.00898879 8.7903 2.21636 31 1 
740 1.20624 8.86041 -0.0174997 -0.00894197 8.86047 2.24051 31 1 
742 1.20624 8.92862 -0.0173387 -0.00896444 8.92867 2.24677 31 1 
744 1.20625 8.99499 -0.0171003 -0.00898648 8.99504 2.25039 31 1 
746 1.20625 9.0602 -0.0168385 -0.0089354 9.06025 2.25852 31 1 
748 1.20626 9.12294 -0.0165848 -0.00890077 9.12299 2.28463 31 1 
750 1.20626 9.18384 -0.0162968 -0.00888633 9.18388 2.27604 31 1 
752 1.20627 9.24155 -0.015955 -0.008802 9.24159 2.2914 31 1 
752 1.20627 9.24155 -0.015955 -0.008802 9.24159 2.2914 31 1 
754 1.20628 9.2962 -0.0155858 -0.00869132 9.29623 2.30335 31 1 
756 1.20626 9.34871 -0.0152742 -0.00867969 9.34875 2.27126 31 1 
758 1.20627 9.39802 -0.014931 -0.00865067 9.39805 2.29128 31 1 
760 1.20628 9.44449 -0.014514 -0.00856545 9.44452 2.30362 31 1 
762 1.20627 9.48781 -0.0141298 -0.00850127 9.48783 2.29764 31 1 
764 1.20628 9.52861 -0.0137961 -0.00850513 9.52863 2.30782 31 1 
766 1.20629 9.56683 -0.0134696 -0.00853038 9.56686 2.32826 31 1 
768 1.20629 9.60225 -0.0131399 -0.00854958 9.60227 2.33576 31 1 
770 1.20628 9.63584 -0.012813 -0.00855758 9.63586 2.30631 31 1 
772 1.20629 9.66678 -0.0124919 -0.00855109 9.6668 2.33118 31 1 
774 1.2063 9.69599 -0.0122172 -0.00863508 9.69601 2.34244 31 1 
776 1.20629 9.72357 -0.0119015 -0.00874237 9.72359 2.33735 31 1 
778 1.20632 9.74849 -0.0115532 -0.00875703 9.7485 2.39018 31 1 
780 1.20633 9.77125 -0.0112492 -0.00873437 9.77126 2.40361 31 1 
782 1.20633 9.7919 -0.0110028 -0.00885645 9.79191 2.40284 31 1 
784 1.20635 9.81054 -0.0107361 -0.00900797 9.81055 2.43465 31 1 
786 1.20636 9.82733 -0.0103581 -0.00886429 9.82734 2.4654 31 1 
788 1.20638 9.84255 -0.0101069 -0.00886326 9.84256 2.49428 31 1 
790 1.2064 9.85582 -0.00991136 -0.00902172 9.85583 2.52351 31 1 
792 1.20642 9.86706 -0.00962362 -0.00906371 9.86707 2.57087 31 1 
794 1.20644 9.87691 -0.00932872 -0.00900571 9.87691 2.6017 31 1 
796 1.20647 9.8852 -0.00904872 -0.00893479 9.88521 2.65158 31 1 
798 1.20653 9.89092 -0.00838216 -0.00874218 9.89092 2.76324 31 1 
800 1.20656 9.89297 -0.0078491 -0.00851178 9.89298 2.8243 31 1 
