116.829;r ;Density                 ;Velocity u              ;Velocity v              ;Velocity w              ;|Velocity|              ;Pressure                ;Distribution            ;Levels                  ;
0 1.21025 9.99966 -7.66868e-05 -2.58632e-05 9.99966 9.48026 1 1 
2 1.21027 9.99896 -0.000100125 -4.87498e-05 9.99896 9.52586 1 1 
4 1.21027 9.99899 -0.000265724 -0.000180332 9.99899 9.52271 1 1 
6 1.21026 9.99976 -0.00036497 -0.000260109 9.99976 9.50304 1 1 
8 1.21027 10.0007 -0.000483094 -0.00035467 10.0007 9.51632 1 1 
10 1.21026 10.0015 -0.000598629 -0.000430951 10.0015 9.50098 1 1 
12 1.21026 10.0014 -0.000705019 -0.000517031 10.0014 9.50491 1 1 
14 1.21026 10.0027 -0.000835129 -0.000616252 10.0027 9.49216 1 1 
16 1.21026 10.0035 -0.000915629 -0.000673119 10.0035 9.50706 1 1 
18 1.21026 10.0034 -0.00102047 -0.000749286 10.0034 9.49933 1 1 
20 1.21024 10.0043 -0.00117652 -0.000868372 10.0043 9.46603 1 1 
22 1.21026 10.0048 -0.0012844 -0.000965128 10.0048 9.50101 1 1 
24 1.21026 10.006 -0.00141485 -0.00107423 10.006 9.49938 1 1 
26 1.21025 10.0064 -0.00153595 -0.00114873 10.0064 9.47808 1 1 
28 1.21025 10.0063 -0.00166905 -0.00124725 10.0063 9.47874 1 1 
30 1.21024 10.0071 -0.00176985 -0.00134099 10.0071 9.46803 1 1 
32 1.21025 10.007 -0.001912 -0.00144264 10.007 9.47574 1 1 
32 1.21025 10.007 -0.001912 -0.00144264 10.007 9.47574 1 1 
34 1.21024 10.0072 -0.00199648 -0.00149477 10.0072 9.46215 1 1 
36 1.21023 10.0069 -0.00213349 -0.00160671 10.0069 9.45548 1 1 
38 1.21022 10.0079 -0.00226064 -0.00171408 10.0079 9.43768 1 1 
40 1.21023 10.0085 -0.00237577 -0.00180927 10.0085 9.44868 1 1 
42 1.21023 10.0086 -0.00251956 -0.00191389 10.0087 9.45426 1 1 
44 1.21022 10.0088 -0.00262666 -0.00197302 10.0088 9.43231 1 1 
46 1.21022 10.0085 -0.00276366 -0.00208698 10.0085 9.43533 1 1 
48 1.21022 10.0094 -0.00291296 -0.00221726 10.0094 9.42042 1 1 
50 1.21022 10.0105 -0.00301195 -0.00225308 10.0105 9.42902 1 1 
52 1.21022 10.0102 -0.00312011 -0.00233968 10.0102 9.4285 1 1 
54 1.21021 10.0099 -0.00326792 -0.00245315 10.0099 9.41325 1 1 
56 1.21021 10.0112 -0.00340253 -0.00254293 10.0112 9.41947 1 1 
58 1.21022 10.0117 -0.00357226 -0.00269186 10.0117 9.42522 1 1 
60 1.21021 10.012 -0.00368238 -0.00276929 10.012 9.40751 1 1 
62 1.21021 10.0119 -0.00382493 -0.00288719 10.0119 9.41269 1 1 
64 1.21021 10.0126 -0.00394965 -0.00296922 10.0126 9.41476 1 1 
64 1.21021 10.0126 -0.00394965 -0.00296922 10.0126 9.41476 2 1 
66 1.21022 10.0134 -0.00407255 -0.00306588 10.0134 9.42735 2 1 
68 1.21021 10.0146 -0.00422391 -0.00318147 10.0146 9.40291 2 1 
70 1.21021 10.0145 -0.00437565 -0.0033064 10.0145 9.41397 2 1 
72 1.21022 10.0144 -0.00451963 -0.00342113 10.0144 9.42172 2 1 
74 1.21021 10.0149 -0.00464688 -0.00349959 10.0149 9.40255 2 1 
76 1.21022 10.0148 -0.00477311 -0.00361719 10.0148 9.43655 2 1 
78 1.21021 10.0165 -0.00490686 -0.00370935 10.0165 9.41055 2 1 
80 1.21021 10.0168 -0.00506401 -0.0038337 10.0168 9.41348 2 1 
82 1.21022 10.0168 -0.00520933 -0.00397444 10.0168 9.42415 2 1 
84 1.21022 10.0173 -0.00533584 -0.00403769 10.0173 9.42642 2 1 
86 1.21023 10.0172 -0.00547388 -0.00411719 10.0172 9.43918 2 1 
88 1.21022 10.0178 -0.00565163 -0.00426547 10.0178 9.4257 2 1 
90 1.21022 10.0183 -0.00575116 -0.00433533 10.0183 9.4318 2 1 
92 1.21022 10.018 -0.00590904 -0.0044473 10.018 9.43662 2 1 
94 1.21023 10.0181 -0.00606139 -0.0045613 10.0181 9.44535 2 1 
96 1.21023 10.0187 -0.00617449 -0.0046431 10.0187 9.4522 2 1 
96 1.21023 10.0187 -0.00617449 -0.0046431 10.0187 9.4522 2 1 
98 1.21023 10.0195 -0.00636001 -0.00477497 10.0195 9.44903 2 1 
100 1.21023 10.0202 -0.00647876 -0.00484675 10.0202 9.45224 2 1 
102 1.21023 10.0203 -0.0066164 -0.00496374 10.0203 9.44479 2 1 
104 1.21024 10.0197 -0.00680247 -0.00510991 10.0197 9.46703 2 1 
106 1.21024 10.02 -0.00690418 -0.00515256 10.02 9.46657 2 1 
108 1.21024 10.0197 -0.00706794 -0.00526875 10.0197 9.47335 2 1 
110 1.21024 10.02 -0.00720214 -0.0053715 10.02 9.45988 2 1 
112 1.21023 10.0208 -0.00734676 -0.00548115 10.0209 9.44826 2 1 
114 1.21025 10.02 -0.0074947 -0.00557622 10.02 9.48321 2 1 
116 1.21025 10.0213 -0.00764606 -0.00568175 10.0213 9.47408 2 1 
118 1.21025 10.0224 -0.00778322 -0.00577677 10.0224 9.4816 2 1 
120 1.21026 10.0217 -0.00792135 -0.00585141 10.0217 9.50151 2 1 
122 1.21024 10.0221 -0.00808867 -0.00597369 10.0221 9.46576 2 1 
124 1.21024 10.0215 -0.00821919 -0.00607566 10.0215 9.46756 2 1 
126 1.21027 10.0205 -0.00839326 -0.00620493 10.0205 9.5216 2 1 
128 1.21025 10.0219 -0.00852528 -0.00627117 10.0219 9.48034 2 1 
128 1.21025 10.0219 -0.00852528 -0.00627117 10.0219 9.48034 10 1 
130 1.21026 10.0222 -0.00870686 -0.0064231 10.0222 9.49679 10 1 
132 1.21027 10.0232 -0.00882972 -0.0064926 10.0232 9.51504 10 1 
134 1.21026 10.0236 -0.00897526 -0.00657732 10.0236 9.50234 10 1 
136 1.21027 10.0222 -0.00914115 -0.00669337 10.0222 9.52543 10 1 
138 1.21026 10.022 -0.00928632 -0.00679365 10.022 9.50444 10 1 
140 1.21027 10.0226 -0.00944141 -0.0069077 10.0226 9.52264 10 1 
142 1.21027 10.0233 -0.00959926 -0.00696766 10.0233 9.52545 10 1 
144 1.21028 10.0236 -0.0097716 -0.0071171 10.0236 9.52813 10 1 
146 1.21029 10.0241 -0.00992435 -0.00721634 10.0241 9.55787 10 1 
148 1.21029 10.0232 -0.0100906 -0.00730433 10.0232 9.55584 10 1 
150 1.21027 10.0227 -0.010234 -0.00741792 10.0227 9.52793 10 1 
152 1.21029 10.0232 -0.010397 -0.00752988 10.0232 9.55091 10 1 
154 1.2103 10.0233 -0.0105114 -0.00757511 10.0233 9.57541 10 1 
156 1.2103 10.0239 -0.0106814 -0.00769419 10.0239 9.56591 10 1 
158 1.21031 10.0239 -0.0108343 -0.00780499 10.0239 9.58463 10 1 
160 1.21031 10.0227 -0.0109509 -0.00788121 10.0227 9.59912 10 1 
160 1.21031 10.0227 -0.0109509 -0.00788121 10.0227 9.59912 10 1 
162 1.2103 10.0231 -0.0111164 -0.00800931 10.0231 9.56469 10 1 
164 1.21031 10.0229 -0.0112743 -0.0080753 10.0229 9.58257 10 1 
166 1.21034 10.0212 -0.0114636 -0.00821149 10.0212 9.65143 10 1 
168 1.21031 10.0232 -0.0116343 -0.00834298 10.0232 9.59649 10 1 
170 1.21033 10.0224 -0.0117772 -0.008422 10.0224 9.62154 10 1 
172 1.21034 10.022 -0.0119233 -0.0084979 10.022 9.64338 10 1 
174 1.21032 10.024 -0.0120325 -0.00856933 10.024 9.6091 10 1 
176 1.21036 10.0222 -0.012222 -0.0086495 10.0222 9.68866 10 1 
178 1.21035 10.0221 -0.0123573 -0.00873307 10.0221 9.66972 10 1 
180 1.21035 10.0213 -0.0125125 -0.00887553 10.0213 9.66711 10 1 
182 1.21036 10.0192 -0.0126979 -0.00900674 10.0192 9.67374 10 1 
184 1.21034 10.0188 -0.0128941 -0.00914859 10.0188 9.64623 10 1 
186 1.21038 10.0201 -0.013055 -0.00922342 10.0201 9.72489 10 1 
188 1.2104 10.0207 -0.0131643 -0.00924949 10.0208 9.75358 10 1 
190 1.21038 10.0204 -0.0133798 -0.00938578 10.0204 9.72618 10 1 
192 1.21038 10.0204 -0.0134285 -0.00937814 10.0204 9.72275 10 1 
194 1.2104 10.0178 -0.0136776 -0.009546 10.0178 9.75627 10 1 
196 1.21041 10.0156 -0.0139131 -0.00972011 10.0156 9.77424 10 1 
198 1.21041 10.0161 -0.0139804 -0.00970263 10.0161 9.77994 10 1 
200 1.21045 10.0154 -0.014244 -0.00991355 10.0154 9.84313 10 1 
202 1.21045 10.0152 -0.0143121 -0.00997215 10.0152 9.83705 10 1 
204 1.21041 10.016 -0.0144002 -0.00996611 10.016 9.77562 10 1 
206 1.21047 10.0132 -0.0147139 -0.0101948 10.0132 9.88243 10 1 
208 1.21051 10.0127 -0.0149448 -0.0102847 10.0127 9.9453 10 1 
210 1.21047 10.0149 -0.0150456 -0.0102805 10.0149 9.87492 10 1 
212 1.21053 10.0098 -0.0151908 -0.0104201 10.0098 9.98925 10 1 
214 1.21051 10.0062 -0.0153126 -0.0104776 10.0062 9.95868 10 1 
216 1.21049 10.0038 -0.0155609 -0.0106012 10.0038 9.91577 10 1 
218 1.21056 9.99909 -0.0158497 -0.010791 9.99911 10.0428 10 1 
220 1.21056 10.0033 -0.0159679 -0.0109028 10.0033 10.0472 10 1 
222 1.2106 10.005 -0.0160936 -0.0109583 10.005 10.1138 10 1 
224 1.21061 10.001 -0.016232 -0.0109109 10.001 10.1327 10 1 
224 1.21061 10.001 -0.016232 -0.0109109 10.001 10.1327 10 1 
226 1.21063 9.99821 -0.0164181 -0.0110165 9.99823 10.1755 10 1 
228 1.21066 9.99085 -0.016641 -0.0112129 9.99087 10.2253 10 1 
230 1.21066 9.98446 -0.0169057 -0.0114069 9.98448 10.2238 10 1 
232 1.21068 9.98555 -0.0170768 -0.0114797 9.98557 10.2518 10 1 
234 1.21073 9.98431 -0.0172116 -0.0114734 9.98433 10.3418 10 1 
236 1.21082 9.97772 -0.0173951 -0.0116172 9.97774 10.5051 10 1 
238 1.21076 9.97698 -0.0175583 -0.0117172 9.977 10.4026 10 1 
240 1.21086 9.96786 -0.0179387 -0.011983 9.96789 10.5858 10 1 
242 1.21089 9.96098 -0.0181384 -0.0121044 9.96101 10.647 10 1 
244 1.21083 9.96131 -0.0182151 -0.0121286 9.96134 10.537 10 1 
246 1.21102 9.952 -0.0184556 -0.0122751 9.95203 10.8752 10 1 
248 1.21105 9.94514 -0.0185727 -0.0122745 9.94516 10.9328 10 1 
250 1.21106 9.93599 -0.0188135 -0.0124345 9.93601 10.9414 10 1 
252 1.21112 9.92709 -0.0191776 -0.0127085 9.92712 11.0498 10 1 
254 1.21122 9.91785 -0.0192807 -0.0126825 9.91788 11.2332 10 1 
256 1.21129 9.90785 -0.0194377 -0.0127854 9.90788 11.3592 10 1 
256 1.21129 9.90785 -0.0194377 -0.0127854 9.90788 11.3592 11 1 
258 1.21135 9.89514 -0.01969 -0.0129984 9.89517 11.4657 11 1 
260 1.21151 9.88144 -0.0198862 -0.013111 9.88147 11.7632 11 1 
262 1.21161 9.86529 -0.0201977 -0.0133019 9.86533 11.9439 11 1 
264 1.21161 9.84831 -0.0203421 -0.0133411 9.84834 11.9396 11 1 
266 1.21179 9.83271 -0.0205072 -0.0134521 9.83275 12.2559 11 1 
268 1.21215 9.80234 -0.0207681 -0.0136247 9.80238 12.9099 11 1 
270 1.21209 9.78188 -0.0210483 -0.0137741 9.78192 12.8002 11 1 
272 1.21226 9.75162 -0.0211595 -0.013799 9.75166 13.11 11 1 
274 1.21273 9.70931 -0.0213626 -0.0139562 9.70935 13.9623 11 1 
276 1.21273 9.68184 -0.0215962 -0.014075 9.68188 13.9676 11 1 
278 1.21303 9.63909 -0.0218386 -0.0142007 9.63912 14.5094 11 1 
280 1.21361 9.59478 -0.0220436 -0.0143074 9.59482 15.5445 11 1 
282 1.21399 9.53522 -0.0221418 -0.0143359 9.53535 16.2306 11 1 
284 1.21426 9.44642 -0.0222172 -0.0144187 9.44661 16.7248 11 1 
286 1.21462 9.35598 -0.0223605 -0.0145032 9.35611 17.3731 11 1 
288 1.2153 9.27094 -0.0225737 -0.0146349 9.27098 18.6061 11 1 
288 1.2153 9.27094 -0.0225737 -0.0146349 9.27098 18.6061 11 1 
290 1.21611 9.19702 -0.0227304 -0.0147042 9.19708 20.0713 11 1 
292 1.21678 9.09775 -0.022983 -0.0148677 9.09789 21.2824 11 1 
294 1.21733 8.96093 -0.023046 -0.0149093 8.96122 22.2716 11 1 
296 1.21809 8.82023 -0.0229633 -0.0148077 8.82046 23.6523 11 1 
298 1.21377 8.64896 -0.0230029 -0.0148514 8.64909 15.8355 11 1 
300 1.20637 8.57843 -0.0229754 -0.0148131 8.57858 2.47706 11 1 
302 1.20406 8.54984 -0.0232423 -0.0149611 8.54992 -1.69342 11 1 
304 1.20469 8.43361 -0.0234189 -0.0150631 8.43377 -0.554658 11 1 
306 1.20546 8.30275 -0.0234603 -0.0150615 8.30297 0.836037 11 1 
308 1.20603 8.18266 -0.0234997 -0.0150843 8.18289 1.86262 11 1 
310 1.2064 8.09299 -0.0235156 -0.0150724 8.09317 2.52972 11 1 
312 1.20689 7.9962 -0.0237326 -0.0152218 7.99628 3.4093 11 1 
314 1.20735 7.9248 -0.0240944 -0.0154396 7.92487 4.25288 11 1 
316 1.20771 7.87214 -0.0243266 -0.0155645 7.8722 4.90285 11 1 
318 1.20804 7.803 -0.0244566 -0.0156355 7.80306 5.49905 11 1 
320 1.20832 7.75928 -0.0245639 -0.0156665 7.75935 5.99113 11 1 
320 1.20832 7.75928 -0.0245639 -0.0156665 7.75935 5.99113 15 1 
322 1.20858 7.72916 -0.0248691 -0.0158563 7.72922 6.47087 15 1 
324 1.20884 7.68252 -0.0251383 -0.0160293 7.68258 6.94485 15 1 
326 1.20904 7.64818 -0.0251629 -0.0160228 7.64825 7.29766 15 1 
328 1.2092 7.61802 -0.0252203 -0.01604 7.61808 7.59429 15 1 
330 1.20931 7.58403 -0.0254674 -0.0161903 7.5841 7.79205 15 1 
332 1.20949 7.56267 -0.0256807 -0.0163195 7.56274 8.11631 15 1 
334 1.20968 7.53325 -0.0258035 -0.016386 7.53332 8.4618 15 1 
336 1.20967 7.49769 -0.0260065 -0.0164809 7.49776 8.43754 15 1 
338 1.20972 7.47824 -0.0262987 -0.0166473 7.47832 8.52849 15 1 
340 1.20993 7.46207 -0.0266727 -0.0169065 7.46215 8.91013 15 1 
342 1.21003 7.44431 -0.0269074 -0.0170502 7.44439 9.07774 15 1 
344 1.21002 7.42235 -0.0271316 -0.0171366 7.42243 9.06687 15 1 
346 1.21003 7.39804 -0.0275051 -0.0173631 7.39812 9.08546 15 1 
348 1.21015 7.39438 -0.0280166 -0.0177253 7.39446 9.31046 15 1 
350 1.2103 7.39394 -0.0284103 -0.0179693 7.39401 9.56855 15 1 
352 1.21027 7.37602 -0.0287176 -0.0181206 7.3761 9.52105 15 1 
354 1.21028 7.36564 -0.0290773 -0.0183577 7.36573 9.53253 15 1 
356 1.21038 7.3651 -0.0295858 -0.0187277 7.36518 9.71956 15 1 
358 1.21043 7.36307 -0.0300505 -0.0190046 7.36315 9.80536 15 1 
360 1.21048 7.36415 -0.0303705 -0.0191604 7.36424 9.89412 15 1 
362 1.21052 7.36206 -0.0306721 -0.0193559 7.36216 9.96968 15 1 
364 1.21054 7.35847 -0.031065 -0.0196311 7.35857 10.0056 15 1 
366 1.21058 7.35962 -0.0314927 -0.0199013 7.35972 10.0739 15 1 
368 1.21062 7.36142 -0.0318429 -0.0201216 7.36152 10.1436 15 1 
370 1.21068 7.36554 -0.0320687 -0.020268 7.36564 10.2518 15 1 
372 1.2107 7.36617 -0.0323719 -0.0204619 7.36627 10.3026 15 1 
374 1.2107 7.36217 -0.0327656 -0.0207398 7.36227 10.2974 15 1 
376 1.21074 7.36357 -0.0330677 -0.0209565 7.36368 10.3738 15 1 
378 1.21078 7.36543 -0.0333068 -0.0211048 7.36554 10.4334 15 1 
380 1.21081 7.36629 -0.0335934 -0.0212826 7.3664 10.4961 15 1 
382 1.21085 7.36749 -0.0339179 -0.0214983 7.3676 10.5657 15 1 
384 1.21084 7.36222 -0.0342409 -0.021708 7.36234 10.5572 15 1 
384 1.21084 7.36222 -0.0342409 -0.021708 7.36234 10.5572 16 1 
386 1.21087 7.35864 -0.034509 -0.0218808 7.35876 10.5976 16 1 
388 1.21091 7.36063 -0.034769 -0.0220544 7.36074 10.6714 16 1 
390 1.21093 7.35878 -0.0351018 -0.0222603 7.3589 10.7086 16 1 
392 1.21095 7.35444 -0.03537 -0.0224428 7.35456 10.7551 16 1 
394 1.21096 7.34902 -0.035634 -0.0226436 7.34914 10.7671 16 1 
396 1.21096 7.34267 -0.0359406 -0.0228415 7.3428 10.7735 16 1 
398 1.21099 7.33968 -0.0362247 -0.0229955 7.3398 10.8214 16 1 
400 1.21102 7.33636 -0.0364628 -0.0231556 7.33649 10.8751 16 1 
402 1.21104 7.32928 -0.0367664 -0.0233695 7.32942 10.9032 16 1 
404 1.21102 7.32091 -0.0370742 -0.0235559 7.32104 10.8814 16 1 
406 1.21103 7.31367 -0.0373028 -0.0236881 7.3138 10.8991 16 1 
408 1.21107 7.30914 -0.0375482 -0.0238295 7.30928 10.9708 16 1 
410 1.21108 7.30329 -0.037887 -0.0240431 7.30343 10.9844 16 1 
412 1.21108 7.2948 -0.0382127 -0.024256 7.29494 10.9841 16 1 
414 1.2111 7.28771 -0.0384639 -0.0243973 7.28786 11.0168 16 1 
416 1.21111 7.28079 -0.0387398 -0.0245597 7.28094 11.042 16 1 
416 1.21111 7.28079 -0.0387398 -0.0245597 7.28094 11.042 16 1 
418 1.21112 7.27376 -0.0390758 -0.0247955 7.27391 11.0601 16 1 
420 1.21113 7.26799 -0.03941 -0.0250189 7.26815 11.0772 16 1 
422 1.21115 7.26138 -0.0397445 -0.025211 7.26153 11.1124 16 1 
424 1.21117 7.25419 -0.0400632 -0.0254031 7.25435 11.139 16 1 
426 1.21116 7.24687 -0.0404159 -0.0256299 7.24704 11.1303 16 1 
428 1.21117 7.23961 -0.0407847 -0.025841 7.23977 11.1443 16 1 
430 1.21119 7.23467 -0.0411654 -0.0260427 7.23483 11.1863 16 1 
432 1.21121 7.22949 -0.041548 -0.0262646 7.22966 11.2102 16 1 
434 1.2112 7.22169 -0.0419332 -0.026488 7.22187 11.2075 16 1 
436 1.21121 7.21475 -0.0423201 -0.026702 7.21492 11.2093 16 1 
438 1.21122 7.20983 -0.0427054 -0.0269127 7.21001 11.2371 16 1 
440 1.21123 7.20571 -0.0430993 -0.0271134 7.20589 11.2606 16 1 
442 1.21124 7.20108 -0.0435219 -0.0273454 7.20127 11.2744 16 1 
444 1.21125 7.19557 -0.0439205 -0.0275969 7.19576 11.2908 16 1 
446 1.21125 7.19099 -0.0443076 -0.0278215 7.19118 11.2952 16 1 
448 1.21126 7.18773 -0.0447416 -0.0280523 7.18793 11.3094 16 1 
448 1.21126 7.18773 -0.0447416 -0.0280523 7.18793 11.3094 17 1 
450 1.21128 7.18503 -0.0451677 -0.0282939 7.18523 11.3418 17 1 
452 1.21129 7.1827 -0.045583 -0.0285484 7.18291 11.3605 17 1 
454 1.2113 7.17988 -0.0460487 -0.028834 7.18009 11.372 17 1 
456 1.2113 7.17696 -0.046524 -0.0291072 7.17717 11.3832 17 1 
458 1.21131 7.17529 -0.0469384 -0.0293464 7.1755 11.3966 17 1 
460 1.21132 7.17451 -0.047403 -0.0296367 7.17473 11.4212 17 1 
462 1.21134 7.17396 -0.0479188 -0.029954 7.17419 11.4455 17 1 
464 1.21134 7.17275 -0.0484148 -0.0302513 7.17298 11.4581 17 1 
466 1.21134 7.17101 -0.0488716 -0.0305167 7.17125 11.4607 17 1 
468 1.21135 7.17079 -0.0493627 -0.0308113 7.17103 11.476 17 1 
470 1.21137 7.17143 -0.0498639 -0.0311247 7.17168 11.5015 17 1 
472 1.21138 7.17153 -0.050373 -0.0314281 7.17178 11.5169 17 1 
474 1.21138 7.1716 -0.0508915 -0.0317422 7.17186 11.5312 17 1 
476 1.21139 7.17154 -0.0513842 -0.0320592 7.1718 11.5397 17 1 
478 1.21139 7.17195 -0.0518723 -0.0323349 7.17221 11.5456 17 1 
480 1.21141 7.17355 -0.0523988 -0.0326342 7.17381 11.571 17 1 
480 1.21141 7.17355 -0.0523988 -0.0326342 7.17381 11.571 17 1 
482 1.21142 7.17513 -0.0529326 -0.0329746 7.17541 11.5939 17 1 
484 1.21142 7.17623 -0.0534117 -0.0332794 7.17651 11.6002 17 1 
486 1.21143 7.17744 -0.053936 -0.0335798 7.17772 11.6102 17 1 
488 1.21144 7.179 -0.0544758 -0.0338923 7.17929 11.6258 17 1 
490 1.21145 7.18155 -0.0549496 -0.0341926 7.18185 11.6446 17 1 
492 1.21146 7.1844 -0.0554559 -0.0345035 7.1847 11.6636 17 1 
494 1.21147 7.18659 -0.0560264 -0.0348254 7.1869 11.6782 17 1 
496 1.21147 7.18876 -0.0565488 -0.0351459 7.18907 11.6917 17 1 
498 1.21148 7.1914 -0.0570047 -0.0354399 7.19172 11.7015 17 1 
500 1.21149 7.19481 -0.0575275 -0.0357376 7.19513 11.72 17 1 
502 1.2115 7.19857 -0.0580873 -0.0360705 7.19889 11.7481 17 1 
504 1.21151 7.20149 -0.0586054 -0.0364091 7.20182 11.762 17 1 
506 1.21152 7.20434 -0.0591022 -0.036705 7.20468 11.7693 17 1 
508 1.21153 7.20809 -0.0595983 -0.0369836 7.20843 11.7879 17 1 
510 1.21154 7.21194 -0.0601167 -0.0373038 7.21229 11.8111 17 1 
512 1.21155 7.21569 -0.0606366 -0.0376331 7.21605 11.8302 17 1 
512 1.21155 7.21569 -0.0606366 -0.0376331 7.21605 11.8302 25 1 
514 1.21156 7.21942 -0.0611452 -0.0379287 7.21978 11.8464 25 1 
516 1.21157 7.22303 -0.0616337 -0.0382241 7.22339 11.8625 25 1 
518 1.21158 7.22668 -0.0620933 -0.0385052 7.22705 11.8792 25 1 
520 1.21159 7.23059 -0.0626093 -0.0387997 7.23097 11.8971 25 1 
522 1.2116 7.23472 -0.0631168 -0.039085 7.2351 11.9184 25 1 
524 1.21161 7.23862 -0.063595 -0.0393727 7.23901 11.9372 25 1 
526 1.21162 7.24219 -0.0640817 -0.0396487 7.24259 11.9502 25 1 
528 1.21163 7.24593 -0.0645829 -0.0399125 7.24633 11.9669 25 1 
530 1.21164 7.24998 -0.06506 -0.0401891 7.25039 11.9876 25 1 
532 1.21165 7.25396 -0.065557 -0.0404728 7.25437 12.0039 25 1 
534 1.21165 7.25784 -0.0660486 -0.0407207 7.25826 12.0203 25 1 
536 1.21167 7.26158 -0.0665032 -0.0409654 7.262 12.0395 25 1 
538 1.21167 7.26533 -0.0670052 -0.0412461 7.26576 12.0546 25 1 
540 1.21168 7.26919 -0.0674535 -0.0414777 7.26963 12.0675 25 1 
542 1.21169 7.27302 -0.0679555 -0.0417314 7.27346 12.0868 25 1 
544 1.2117 7.27709 -0.06841 -0.0419673 7.27754 12.1071 25 1 
544 1.2117 7.27709 -0.06841 -0.0419673 7.27754 12.1071 25 1 
546 1.21171 7.28084 -0.0688872 -0.0422019 7.28129 12.121 25 1 
548 1.21172 7.2844 -0.0693627 -0.0424304 7.28485 12.1335 25 1 
550 1.21173 7.28827 -0.0698112 -0.042628 7.28874 12.151 25 1 
552 1.21174 7.29218 -0.0702981 -0.0428469 7.29264 12.1684 25 1 
554 1.21175 7.29614 -0.0707501 -0.0430567 7.29662 12.1839 25 1 
556 1.21176 7.30007 -0.0712441 -0.0432635 7.30055 12.2029 25 1 
558 1.21176 7.3037 -0.0716786 -0.0434325 7.30418 12.2157 25 1 
560 1.21177 7.30741 -0.0721615 -0.0436257 7.3079 12.228 25 1 
562 1.21178 7.3116 -0.072639 -0.0438028 7.3121 12.2492 25 1 
564 1.21179 7.31559 -0.0731148 -0.0439778 7.31609 12.268 25 1 
566 1.2118 7.31951 -0.0736123 -0.0441603 7.32001 12.2826 25 1 
568 1.21181 7.32326 -0.0740779 -0.0443105 7.32377 12.2972 25 1 
570 1.21182 7.32695 -0.0745727 -0.0444658 7.32747 12.3115 25 1 
572 1.21183 7.33111 -0.0750423 -0.044613 7.33164 12.3301 25 1 
574 1.21184 7.33515 -0.0755435 -0.0447668 7.33567 12.3499 25 1 
576 1.21185 7.33902 -0.0760358 -0.0449092 7.33955 12.3662 25 1 
576 1.21185 7.33902 -0.0760358 -0.0449092 7.33955 12.3662 26 1 
578 1.21185 7.34274 -0.0765627 -0.045067 7.34328 12.3801 26 1 
580 1.21186 7.34639 -0.0770674 -0.0452205 7.34693 12.3922 26 1 
582 1.21187 7.35039 -0.0776146 -0.0454043 7.35094 12.4111 26 1 
584 1.21188 7.35438 -0.0781716 -0.0455782 7.35494 12.4323 26 1 
586 1.21189 7.35807 -0.0787139 -0.045765 7.35864 12.444 26 1 
588 1.2119 7.3616 -0.0793132 -0.0459654 7.36218 12.4591 26 1 
590 1.21191 7.36516 -0.0798471 -0.0461327 7.36574 12.4738 26 1 
592 1.21191 7.36868 -0.0804626 -0.0463486 7.36927 12.4868 26 1 
594 1.21192 7.37244 -0.0810506 -0.0465451 7.37304 12.5052 26 1 
596 1.21193 7.37577 -0.0816333 -0.0467317 7.37637 12.5218 26 1 
598 1.21194 7.37875 -0.082256 -0.0469523 7.37936 12.5304 26 1 
600 1.21194 7.38178 -0.0828424 -0.0471521 7.3824 12.5421 26 1 
602 1.21195 7.38485 -0.0834907 -0.0473566 7.38548 12.5587 26 1 
604 1.21196 7.38784 -0.084081 -0.0475572 7.38847 12.5716 26 1 
606 1.21197 7.39038 -0.0847274 -0.0477678 7.39102 12.5816 26 1 
608 1.21197 7.39278 -0.0853558 -0.0479758 7.39343 12.5934 26 1 
608 1.21197 7.39278 -0.0853558 -0.0479758 7.39343 12.5934 26 1 
610 1.21198 7.39514 -0.0859938 -0.0481789 7.3958 12.6041 26 1 
612 1.21198 7.39731 -0.0866456 -0.0484058 7.39798 12.6133 26 1 
614 1.21199 7.39932 -0.0872726 -0.0485992 7.39999 12.6249 26 1 
616 1.212 7.40139 -0.0879536 -0.0488191 7.40207 12.6354 26 1 
618 1.212 7.40295 -0.0886127 -0.0490351 7.40365 12.645 26 1 
620 1.212 7.40436 -0.0892774 -0.0492302 7.40506 12.6518 26 1 
622 1.21201 7.40587 -0.0899161 -0.049417 7.40659 12.6621 26 1 
624 1.21202 7.40732 -0.0905975 -0.0496413 7.40804 12.6735 26 1 
626 1.21202 7.40842 -0.0912708 -0.0498544 7.40916 12.6843 26 1 
628 1.21203 7.40936 -0.0919413 -0.0500567 7.4101 12.6894 26 1 
630 1.21203 7.41022 -0.0926172 -0.0502565 7.41097 12.699 26 1 
632 1.21204 7.41103 -0.0932948 -0.0504651 7.41179 12.7109 26 1 
634 1.21204 7.41179 -0.0939789 -0.0506667 7.41256 12.7191 26 1 
636 1.21205 7.41231 -0.0946616 -0.0508799 7.41309 12.7294 26 1 
638 1.21205 7.41267 -0.0953468 -0.0510944 7.41346 12.7372 26 1 
640 1.21206 7.41286 -0.0960224 -0.051302 7.41366 12.7461 26 1 
642 1.21206 7.41318 -0.0967271 -0.0515291 7.41399 12.7546 26 1 
644 1.21207 7.41332 -0.0974174 -0.0517446 7.41414 12.7662 26 1 
646 1.21207 7.4132 -0.0981088 -0.0519751 7.41403 12.7758 26 1 
648 1.21208 7.41315 -0.0988146 -0.0522082 7.414 12.7808 26 1 
650 1.21208 7.41283 -0.099483 -0.0524223 7.41368 12.793 26 1 
652 1.21209 7.41259 -0.100211 -0.0526804 7.41346 12.8017 26 1 
654 1.21209 7.41219 -0.100918 -0.0529213 7.41307 12.8095 26 1 
656 1.2121 7.41165 -0.101602 -0.0531642 7.41254 12.8209 26 1 
658 1.2121 7.41127 -0.10238 -0.0534492 7.41217 12.8288 26 1 
660 1.21211 7.41038 -0.103024 -0.0536499 7.41129 12.8394 26 1 
662 1.21211 7.40975 -0.1038 -0.0539486 7.41068 12.8453 26 1 
664 1.21212 7.40896 -0.104476 -0.0541774 7.40989 12.8576 26 1 
666 1.21212 7.40807 -0.105156 -0.05441 7.40901 12.8676 26 1 
668 1.21213 7.4071 -0.105933 -0.0547239 7.40806 12.8752 26 1 
670 1.21213 7.40609 -0.106558 -0.0548973 7.40706 12.8833 26 1 
672 1.21214 7.40492 -0.107307 -0.0551914 7.4059 12.894 26 1 
672 1.21214 7.40492 -0.107307 -0.0551914 7.4059 12.894 27 1 
674 1.21214 7.4036 -0.10804 -0.0554441 7.4046 12.9038 27 1 
676 1.21215 7.40252 -0.108642 -0.0556354 7.40352 12.9109 27 1 
678 1.21216 7.40084 -0.109382 -0.0559093 7.40186 12.9269 27 1 
680 1.21216 7.39941 -0.110043 -0.0561503 7.40045 12.9305 27 1 
682 1.21217 7.39759 -0.110636 -0.056329 7.39863 12.9439 27 1 
684 1.21217 7.39588 -0.111414 -0.0566362 7.39693 12.9544 27 1 
686 1.21218 7.39395 -0.11195 -0.0567966 7.39502 12.9658 27 1 
688 1.21219 7.39186 -0.11267 -0.0570536 7.39294 12.9791 27 1 
690 1.21219 7.38969 -0.113254 -0.0572293 7.39078 12.9892 27 1 
692 1.2122 7.38735 -0.113845 -0.057416 7.38845 13.0006 27 1 
694 1.21221 7.3848 -0.114496 -0.0576244 7.38591 13.0143 27 1 
696 1.21221 7.38226 -0.115081 -0.0578037 7.38338 13.0274 27 1 
698 1.21222 7.37982 -0.115649 -0.0579905 7.38095 13.0364 27 1 
700 1.21223 7.37691 -0.116336 -0.0582024 7.37806 13.055 27 1 
702 1.21223 7.37406 -0.116844 -0.0583142 7.37522 13.0665 27 1 
704 1.21224 7.37118 -0.117368 -0.0584166 7.37235 13.0737 27 1 
704 1.21224 7.37118 -0.117368 -0.0584166 7.37235 13.0737 31 1 
706 1.21225 7.36814 -0.118002 -0.0586213 7.36932 13.0915 31 1 
708 1.21226 7.36527 -0.118479 -0.0586944 7.36645 13.1079 31 1 
710 1.21226 7.36248 -0.119144 -0.0588766 7.36368 13.1146 31 1 
712 1.21227 7.35951 -0.119564 -0.0589529 7.36071 13.1303 31 1 
714 1.21228 7.35646 -0.120224 -0.0590703 7.35768 13.1512 31 1 
716 1.21228 7.35373 -0.120537 -0.0590081 7.35496 13.1555 31 1 
718 1.21229 7.35083 -0.121076 -0.0591101 7.35207 13.1712 31 1 
720 1.2123 7.34828 -0.121536 -0.0591517 7.34952 13.1897 31 1 
722 1.21231 7.34582 -0.121805 -0.0590456 7.34707 13.2028 31 1 
724 1.21231 7.3434 -0.122416 -0.0591548 7.34466 13.2123 31 1 
726 1.21232 7.34121 -0.122495 -0.0588923 7.34247 13.229 31 1 
728 1.21234 7.33887 -0.123062 -0.0589576 7.34014 13.2501 31 1 
730 1.21234 7.33685 -0.123214 -0.0587755 7.33813 13.2518 31 1 
732 1.21234 7.33502 -0.12346 -0.0586168 7.33629 13.2658 31 1 
734 1.21236 7.3332 -0.123919 -0.0586657 7.33449 13.2889 31 1 
736 1.21236 7.33164 -0.123654 -0.0582014 7.33292 13.2985 31 1 
738 1.21236 7.33056 -0.124233 -0.0582223 7.33185 13.3014 31 1 
740 1.21238 7.32896 -0.123984 -0.0578377 7.33024 13.3288 31 1 
742 1.21239 7.3278 -0.124154 -0.0576204 7.32908 13.3404 31 1 
744 1.21238 7.32653 -0.124541 -0.0575885 7.32782 13.3391 31 1 
746 1.2124 7.32574 -0.124156 -0.0571442 7.32702 13.3575 31 1 
748 1.21241 7.32479 -0.124373 -0.0569223 7.32607 13.3825 31 1 
750 1.21241 7.32388 -0.124247 -0.0565351 7.32515 13.3822 31 1 
752 1.21241 7.3241 -0.124435 -0.0564553 7.32538 13.3774 31 1 
752 1.21241 7.3241 -0.124435 -0.0564553 7.32538 13.3774 31 1 
754 1.21243 7.32258 -0.124317 -0.0561108 7.32385 13.4248 31 1 
756 1.21243 7.32233 -0.124323 -0.0558191 7.3236 13.4156 31 1 
758 1.21242 7.3226 -0.124457 -0.0557331 7.32387 13.3991 31 1 
760 1.21244 7.32189 -0.124434 -0.0553427 7.32317 13.4446 31 1 
762 1.21245 7.32186 -0.124559 -0.0551613 7.32313 13.4475 31 1 
764 1.21242 7.32319 -0.124666 -0.0551302 7.32447 13.4113 31 1 
766 1.21245 7.32205 -0.124542 -0.0547649 7.32332 13.4573 31 1 
768 1.21244 7.32346 -0.124753 -0.0544783 7.32474 13.4472 31 1 
770 1.21243 7.32454 -0.125647 -0.0549559 7.32583 13.4254 31 1 
772 1.21244 7.32492 -0.125653 -0.054698 7.3262 13.4353 31 1 
774 1.21243 7.32722 -0.126227 -0.0547753 7.32852 13.4176 31 1 
776 1.21242 7.33017 -0.127016 -0.0549016 7.33148 13.3958 31 1 
778 1.21241 7.33479 -0.127154 -0.0546164 7.3361 13.3771 31 1 
780 1.21241 7.33732 -0.127367 -0.0544824 7.33863 13.3876 31 1 
782 1.21236 7.34264 -0.128767 -0.0551098 7.34398 13.303 31 1 
784 1.21234 7.34588 -0.131313 -0.0564999 7.34728 13.2605 31 1 
786 1.2123 7.35562 -0.132011 -0.0564717 7.35703 13.1817 31 1 
788 1.2123 7.36416 -0.132746 -0.0562998 7.36558 13.1782 31 1 
790 1.21224 7.37477 -0.134345 -0.0566281 7.37622 13.0686 31 1 
792 1.21214 7.38775 -0.136964 -0.0575544 7.38925 12.8972 31 1 
794 1.2121 7.40123 -0.138515 -0.0578146 7.40276 12.827 31 1 
796 1.21203 7.41887 -0.137058 -0.0555994 7.42036 12.7042 31 1 
798 1.21194 7.43426 -0.133207 -0.05074 7.43564 12.5381 31 1 
800 1.21186 7.44427 -0.130214 -0.047408 7.44557 12.3931 31 1 
