57.0558;r ;Density                 ;Velocity u              ;Velocity v              ;Velocity w              ;|Velocity|              ;Pressure                ;Distribution            ;Levels                  ;
0 1.20543 9.9991 1.88801e-05 -5.05247e-05 9.9991 0.768827 1 1 
4 1.20545 9.99917 -6.10157e-05 -6.41763e-05 9.99917 0.817474 1 1 
8 1.20547 9.9976 -0.000347894 -0.000351356 9.9976 0.852271 1 1 
12 1.20545 9.99646 -0.000619839 -0.000560713 9.99646 0.820814 1 1 
16 1.20548 9.99568 -0.000782937 -0.00072873 9.99568 0.859896 1 1 
20 1.20551 9.99333 -0.00106071 -0.000984875 9.99333 0.921716 1 1 
24 1.20549 9.99275 -0.00127792 -0.00119134 9.99275 0.888875 1 1 
28 1.20551 9.99115 -0.00152436 -0.00145718 9.99115 0.923749 1 1 
32 1.20553 9.99007 -0.00176002 -0.0016542 9.99007 0.949589 1 1 
36 1.20554 9.98948 -0.00193154 -0.00180942 9.98948 0.971891 1 1 
40 1.20556 9.98795 -0.00220924 -0.00206668 9.98795 1.01773 1 1 
44 1.20556 9.98536 -0.00243534 -0.00230513 9.98536 1.01816 1 1 
48 1.20557 9.98396 -0.0026941 -0.00251816 9.98397 1.02137 1 1 
52 1.20558 9.98241 -0.00294082 -0.00278672 9.98241 1.0548 1 1 
56 1.2056 9.97961 -0.00321791 -0.00303508 9.97962 1.08578 1 1 
60 1.2056 9.97888 -0.00349645 -0.00326828 9.97888 1.08406 1 1 
64 1.20563 9.97614 -0.00375868 -0.00355165 9.97615 1.14218 1 1 
64 1.20563 9.97614 -0.00375868 -0.00355165 9.97615 1.14218 2 1 
68 1.20563 9.975 -0.0039704 -0.00378274 9.97501 1.13774 2 1 
72 1.20564 9.97377 -0.00422887 -0.00400488 9.97377 1.16294 2 1 
76 1.20566 9.97189 -0.00448046 -0.00424127 9.97189 1.19771 2 1 
80 1.20569 9.96948 -0.00470513 -0.00444688 9.96949 1.23837 2 1 
84 1.20568 9.96924 -0.00488358 -0.00467196 9.96924 1.23509 2 1 
88 1.2057 9.9683 -0.00515222 -0.00492019 9.96831 1.26736 2 1 
92 1.20574 9.96712 -0.0053228 -0.00504053 9.96712 1.32982 2 1 
96 1.20572 9.96779 -0.00559657 -0.00536053 9.96779 1.30432 2 1 
100 1.20576 9.96357 -0.0057348 -0.00552563 9.96357 1.3731 2 1 
104 1.20576 9.96105 -0.00600678 -0.00573828 9.96105 1.38028 2 1 
108 1.20577 9.95971 -0.00617988 -0.0058784 9.95972 1.3898 2 1 
112 1.2058 9.95829 -0.00635065 -0.00611284 9.95829 1.43731 2 1 
116 1.20581 9.95785 -0.00665419 -0.00635763 9.95785 1.4694 2 1 
120 1.20582 9.9581 -0.00678346 -0.00654375 9.9581 1.47808 2 1 
124 1.20585 9.95489 -0.0070098 -0.00676639 9.9549 1.5323 2 1 
128 1.20586 9.95253 -0.00723818 -0.00694149 9.95253 1.54697 2 1 
128 1.20586 9.95253 -0.00723818 -0.00694149 9.95253 1.54697 10 1 
132 1.20584 9.95214 -0.00743587 -0.0071625 9.95215 1.52051 10 1 
136 1.20589 9.94753 -0.00755897 -0.0073264 9.94753 1.60965 10 1 
140 1.20589 9.9478 -0.00783618 -0.00749305 9.94781 1.59986 10 1 
144 1.2059 9.94606 -0.0079813 -0.00761569 9.94607 1.62726 10 1 
148 1.20594 9.94299 -0.00813328 -0.00795078 9.943 1.69944 10 1 
152 1.20592 9.94421 -0.00839578 -0.00808888 9.94422 1.66331 10 1 
156 1.20594 9.94096 -0.00847202 -0.00810519 9.94096 1.69262 10 1 
160 1.20598 9.93723 -0.0088268 -0.00839077 9.93724 1.76751 10 1 
160 1.20598 9.93723 -0.0088268 -0.00839077 9.93724 1.76751 10 1 
164 1.20596 9.93831 -0.0089578 -0.00865008 9.93832 1.72698 10 1 
168 1.20601 9.93457 -0.00914563 -0.00877492 9.93458 1.81643 10 1 
172 1.20603 9.93086 -0.00938084 -0.00892797 9.93087 1.85476 10 1 
176 1.20598 9.93417 -0.0095172 -0.00916083 9.93418 1.76136 10 1 
180 1.20607 9.92909 -0.00966649 -0.00916556 9.9291 1.93062 10 1 
184 1.20606 9.92653 -0.00994805 -0.00945702 9.92654 1.909 10 1 
188 1.20603 9.92522 -0.010136 -0.0095495 9.92523 1.8677 10 1 
192 1.2061 9.91693 -0.010279 -0.00966749 9.91694 1.97945 10 1 
196 1.20607 9.91604 -0.0107621 -0.0101155 9.91605 1.93607 10 1 
200 1.20609 9.91801 -0.0107796 -0.0101694 9.91803 1.976 10 1 
204 1.20619 9.91517 -0.0110164 -0.0102638 9.91519 2.14076 10 1 
208 1.2062 9.91256 -0.0112799 -0.0103938 9.91257 2.1608 10 1 
212 1.20615 9.90917 -0.0114123 -0.0105429 9.90919 2.07831 10 1 
216 1.20623 9.89974 -0.0117186 -0.0107964 9.89976 2.22421 10 1 
220 1.20626 9.89163 -0.011835 -0.0109798 9.89164 2.28265 10 1 
224 1.2062 9.88748 -0.0119846 -0.0110123 9.8875 2.17343 10 1 
224 1.2062 9.88748 -0.0119846 -0.0110123 9.8875 2.17343 10 1 
228 1.20635 9.87943 -0.0123085 -0.0113514 9.87945 2.43163 10 1 
232 1.20639 9.87639 -0.0124178 -0.0114587 9.87641 2.50774 10 1 
236 1.2064 9.86948 -0.0126659 -0.0115657 9.8695 2.53149 10 1 
240 1.20648 9.85947 -0.0128669 -0.0118433 9.85949 2.67326 10 1 
244 1.20658 9.84617 -0.0130475 -0.0119466 9.8462 2.86102 10 1 
248 1.2067 9.82406 -0.0135321 -0.0122805 9.82408 3.07467 10 1 
252 1.20665 9.81166 -0.013698 -0.0125645 9.81169 2.97835 10 1 
256 1.20693 9.78888 -0.0138353 -0.0125107 9.78891 3.49203 10 1 
256 1.20693 9.78888 -0.0138353 -0.0125107 9.78891 3.49203 11 1 
260 1.20718 9.75683 -0.0141459 -0.0127389 9.75688 3.93504 11 1 
264 1.20713 9.73052 -0.0142683 -0.013006 9.73057 3.84235 11 1 
268 1.20761 9.68386 -0.0145898 -0.0130787 9.68391 4.7222 11 1 
272 1.20824 9.62134 -0.0149568 -0.0134094 9.6214 5.84369 11 1 
276 1.20836 9.54793 -0.0151045 -0.0135297 9.5481 6.06173 11 1 
280 1.2089 9.42693 -0.0154132 -0.0136518 9.4271 7.04357 11 1 
284 1.20999 9.30174 -0.0155407 -0.0136988 9.30181 9.02146 11 1 
288 1.21112 9.14897 -0.0157901 -0.0137565 9.14909 11.0535 11 1 
292 1.21239 8.90965 -0.016167 -0.0140244 8.91036 13.3453 11 1 
296 1.2089 8.60519 -0.0157912 -0.0135553 8.60601 7.04392 11 1 
300 1.20239 8.38268 -0.0158883 -0.0134234 8.38295 -4.71982 11 1 
304 1.20087 8.22407 -0.0160008 -0.0132754 8.22444 -7.46104 11 1 
308 1.20206 8.03788 -0.0158625 -0.0129282 8.03851 -5.30781 11 1 
312 1.20279 7.84449 -0.0159813 -0.0127863 7.84507 -3.99213 11 1 
316 1.20335 7.66605 -0.015916 -0.0124627 7.6664 -2.98772 11 1 
320 1.20378 7.55827 -0.0159956 -0.0122929 7.55844 -2.19916 11 1 
320 1.20378 7.55827 -0.0159956 -0.0122929 7.55844 -2.19916 15 1 
324 1.20427 7.4811 -0.016108 -0.0120535 7.48116 -1.32475 15 1 
328 1.20472 7.43381 -0.0163173 -0.0119923 7.43387 -0.508589 15 1 
332 1.20503 7.39255 -0.0164934 -0.0119585 7.3926 0.0499628 15 1 
336 1.20506 7.3399 -0.0165834 -0.0116957 7.33993 0.101774 15 1 
340 1.20517 7.31772 -0.0167134 -0.0114885 7.31776 0.304962 15 1 
344 1.20551 7.31553 -0.0168109 -0.0113191 7.31556 0.919793 15 1 
348 1.20568 7.30361 -0.0169839 -0.0111663 7.30364 1.235 15 1 
352 1.20572 7.29128 -0.0170923 -0.0109317 7.29131 1.30142 15 1 
356 1.20575 7.27594 -0.017083 -0.0105782 7.27598 1.36316 15 1 
360 1.20583 7.26342 -0.0170868 -0.0101998 7.26346 1.49432 15 1 
364 1.206 7.26624 -0.0171501 -0.00994251 7.26627 1.81459 15 1 
368 1.20608 7.26319 -0.0171859 -0.00967412 7.26322 1.95842 15 1 
372 1.20608 7.24906 -0.0170767 -0.00917338 7.24909 1.94344 15 1 
376 1.20613 7.23765 -0.0168693 -0.00861305 7.23768 2.04116 15 1 
380 1.20616 7.22678 -0.0168358 -0.00829663 7.2268 2.1029 15 1 
384 1.20621 7.21942 -0.0169247 -0.00801153 7.21945 2.1876 15 1 
384 1.20621 7.21942 -0.0169247 -0.00801153 7.21945 2.1876 16 1 
388 1.20628 7.21418 -0.0169076 -0.00751911 7.2142 2.31936 16 1 
392 1.20631 7.20105 -0.0167615 -0.00702865 7.20107 2.36203 16 1 
396 1.2063 7.18525 -0.0167499 -0.00668676 7.18527 2.35335 16 1 
400 1.2063 7.17263 -0.0169643 -0.00638419 7.17266 2.35173 16 1 
404 1.20635 7.16288 -0.0170483 -0.00596933 7.16291 2.43158 16 1 
408 1.20641 7.1547 -0.0169014 -0.00543142 7.15473 2.54302 16 1 
412 1.20642 7.14325 -0.0167648 -0.0049293 7.14328 2.56314 16 1 
416 1.20641 7.12895 -0.0167685 -0.004521 7.12898 2.54919 16 1 
420 1.20641 7.11677 -0.0167306 -0.0040109 7.1168 2.55305 16 1 
424 1.20645 7.10885 -0.0165391 -0.00339928 7.10887 2.61897 16 1 
428 1.2065 7.10287 -0.0162323 -0.00278739 7.1029 2.7136 16 1 
432 1.20652 7.09363 -0.0159767 -0.00207697 7.09365 2.73999 16 1 
436 1.20652 7.08249 -0.0157708 -0.00135842 7.08251 2.7453 16 1 
440 1.20652 7.0737 -0.0155078 -0.000738751 7.07372 2.75355 16 1 
444 1.20654 7.06669 -0.0152324 -6.71989e-05 7.06671 2.7809 16 1 
448 1.20658 7.06098 -0.0149346 0.000699498 7.061 2.86225 16 1 
448 1.20658 7.06098 -0.0149346 0.000699498 7.061 2.86225 17 1 
452 1.20661 7.05488 -0.0145963 0.00141377 7.0549 2.9062 17 1 
456 1.20661 7.0467 -0.0143524 0.00203452 7.04672 2.9053 17 1 
460 1.20662 7.03924 -0.0141713 0.00265262 7.03926 2.91755 17 1 
464 1.20663 7.03406 -0.0138681 0.00332749 7.03408 2.94662 17 1 
468 1.20667 7.03025 -0.0136174 0.00397117 7.03027 3.00991 17 1 
472 1.20669 7.027 -0.0134537 0.00453015 7.02701 3.06032 17 1 
476 1.2067 7.02244 -0.0132728 0.00509887 7.02246 3.07406 17 1 
480 1.20671 7.01727 -0.0131065 0.00573411 7.01728 3.09599 17 1 
484 1.20674 7.01516 -0.0129626 0.00635455 7.01517 3.14169 17 1 
488 1.20678 7.01518 -0.0128224 0.00695491 7.01519 3.21394 17 1 
492 1.2068 7.01438 -0.0127289 0.00758478 7.0144 3.25592 17 1 
496 1.20682 7.01325 -0.0126736 0.00824831 7.01327 3.27897 17 1 
500 1.20684 7.01236 -0.0126086 0.00889425 7.01238 3.33174 17 1 
504 1.20687 7.01259 -0.0125328 0.00957026 7.01261 3.37645 17 1 
508 1.20691 7.0151 -0.0124976 0.0102553 7.01512 3.44929 17 1 
512 1.20696 7.01797 -0.012479 0.0109551 7.01799 3.5367 17 1 
512 1.20696 7.01797 -0.012479 0.0109551 7.01799 3.5367 25 1 
516 1.20698 7.01944 -0.0125123 0.0116724 7.01946 3.56825 25 1 
520 1.207 7.02083 -0.0125333 0.0123789 7.02085 3.60456 25 1 
524 1.20703 7.02334 -0.0125593 0.0130844 7.02337 3.66956 25 1 
528 1.20707 7.02756 -0.0126526 0.0138017 7.02759 3.73922 25 1 
532 1.20711 7.03246 -0.0127729 0.0144913 7.03249 3.81889 25 1 
536 1.20715 7.03586 -0.0128383 0.0152157 7.03588 3.8784 25 1 
540 1.20717 7.03893 -0.0129489 0.0159351 7.03896 3.92487 25 1 
544 1.20721 7.04325 -0.0131246 0.0165932 7.04329 3.98596 25 1 
548 1.20725 7.04855 -0.0132832 0.0172705 7.04858 4.05832 25 1 
552 1.20729 7.05442 -0.0134667 0.0179653 7.05445 4.13238 25 1 
556 1.20732 7.05903 -0.0136964 0.0186151 7.05907 4.18406 25 1 
560 1.20734 7.06299 -0.0139196 0.0192678 7.06303 4.22477 25 1 
564 1.20737 7.06855 -0.0141675 0.0199036 7.06859 4.28673 25 1 
568 1.20741 7.075 -0.014455 0.0205112 7.07505 4.35686 25 1 
572 1.20745 7.08172 -0.0147646 0.021138 7.08177 4.42175 25 1 
576 1.20748 7.0882 -0.0151109 0.0217336 7.08825 4.4754 25 1 
576 1.20748 7.0882 -0.0151109 0.0217336 7.08825 4.4754 26 1 
580 1.20749 7.09407 -0.0154575 0.0223009 7.09412 4.50588 26 1 
584 1.20752 7.10104 -0.0158214 0.0228573 7.10109 4.54895 26 1 
588 1.20755 7.10947 -0.0162383 0.0234214 7.10952 4.6088 26 1 
592 1.20758 7.1175 -0.0166634 0.0239875 7.11756 4.65644 26 1 
596 1.2076 7.12512 -0.0170808 0.0245144 7.12518 4.70302 26 1 
600 1.20763 7.13281 -0.0175148 0.0250576 7.13288 4.74316 26 1 
604 1.20764 7.14106 -0.0179615 0.0256147 7.14113 4.77632 26 1 
608 1.20767 7.15044 -0.0184229 0.0261172 7.15051 4.82339 26 1 
608 1.20767 7.15044 -0.0184229 0.0261172 7.15051 4.82339 26 1 
612 1.2077 7.16036 -0.0189143 0.0266379 7.16044 4.87261 26 1 
616 1.20772 7.17019 -0.0194056 0.0272279 7.17027 4.91587 26 1 
620 1.20774 7.18002 -0.0199254 0.0277773 7.1801 4.95657 26 1 
624 1.20777 7.19042 -0.0204506 0.028291 7.19051 5.00196 26 1 
628 1.2078 7.20153 -0.020948 0.0288258 7.20162 5.05549 26 1 
632 1.20783 7.21321 -0.0215205 0.0293457 7.2133 5.11122 26 1 
636 1.20786 7.22535 -0.0220964 0.0298488 7.22545 5.16301 26 1 
640 1.20789 7.23745 -0.022689 0.030435 7.23756 5.21303 26 1 
644 1.20791 7.25058 -0.0232998 0.0310096 7.25069 5.26485 26 1 
648 1.20795 7.26535 -0.0238843 0.0315413 7.26546 5.32239 26 1 
652 1.20798 7.2808 -0.0245406 0.032129 7.28091 5.37783 26 1 
656 1.208 7.29648 -0.025146 0.0326605 7.2966 5.42734 26 1 
660 1.20803 7.31205 -0.0257796 0.0331555 7.31217 5.46804 26 1 
664 1.20804 7.32794 -0.0264308 0.0336557 7.32807 5.49075 26 1 
668 1.20806 7.34394 -0.0270554 0.0342292 7.34408 5.53418 26 1 
672 1.20808 7.36118 -0.0277123 0.0348498 7.36132 5.56615 26 1 
672 1.20808 7.36118 -0.0277123 0.0348498 7.36132 5.56615 27 1 
676 1.2081 7.37883 -0.0283783 0.0355158 7.37897 5.59414 27 1 
680 1.20811 7.39711 -0.0291001 0.0361358 7.39726 5.62272 27 1 
684 1.20812 7.41744 -0.0297359 0.0366829 7.4176 5.6275 27 1 
688 1.20812 7.43929 -0.0303797 0.0373283 7.43946 5.6441 27 1 
692 1.20813 7.46384 -0.0310492 0.0379529 7.464 5.64569 27 1 
696 1.20814 7.48926 -0.0316942 0.0386456 7.48943 5.66591 27 1 
700 1.20814 7.51539 -0.0323146 0.03925 7.51557 5.6758 27 1 
704 1.20815 7.5412 -0.0328836 0.0397386 7.54139 5.6862 27 1 
704 1.20815 7.5412 -0.0328836 0.0397386 7.54139 5.6862 31 1 
708 1.20817 7.56558 -0.0333261 0.0403807 7.56576 5.71838 31 1 
712 1.20816 7.58949 -0.033889 0.0407867 7.58968 5.71591 31 1 
716 1.20818 7.61137 -0.0344413 0.0413819 7.61157 5.74593 31 1 
720 1.2082 7.63345 -0.0348607 0.0421853 7.63365 5.77638 31 1 
724 1.20822 7.65427 -0.0355026 0.042707 7.65447 5.81819 31 1 
728 1.20823 7.67702 -0.0360306 0.0433896 7.67724 5.83896 31 1 
732 1.20826 7.7002 -0.0365709 0.0440953 7.70042 5.89358 31 1 
736 1.2083 7.72411 -0.037222 0.0446641 7.72434 5.96369 31 1 
740 1.2083 7.75306 -0.0377452 0.0456641 7.7533 5.96919 31 1 
744 1.20836 7.78324 -0.0385214 0.046648 7.78348 6.06585 31 1 
748 1.20843 7.81667 -0.0391175 0.0473934 7.81693 6.18716 31 1 
752 1.20843 7.85574 -0.0394025 0.0485951 7.856 6.19831 31 1 
756 1.20848 7.89661 -0.0405541 0.04924 7.89689 6.29445 31 1 
760 1.20855 7.94206 -0.0413094 0.0496904 7.94235 6.41498 31 1 
764 1.20859 7.99023 -0.0415484 0.0507367 7.99052 6.48172 31 1 
768 1.20863 8.04194 -0.0426086 0.0516135 8.04224 6.55248 31 1 
772 1.2087 8.09613 -0.0434028 0.0530053 8.09645 6.68942 31 1 
776 1.20877 8.15365 -0.043356 0.0541465 8.15398 6.80906 31 1 
780 1.20878 8.21632 -0.0442104 0.0538654 8.21665 6.82831 31 1 
784 1.20886 8.27775 -0.0455806 0.054518 8.27809 6.96544 31 1 
788 1.20886 8.35047 -0.0455283 0.0566739 8.35083 6.98067 31 1 
792 1.2089 8.42467 -0.0446877 0.0588775 8.42505 7.03675 31 1 
796 1.20888 8.50923 -0.0434509 0.061471 8.50962 7.00559 31 1 
800 1.20878 8.56082 -0.0426662 0.0629764 8.56121 6.8341 31 1 
