24.4525;r ;Density                 ;Velocity u              ;Velocity v              ;Velocity w              ;|Velocity|              ;Pressure                ;Distribution            ;Levels                  ;
0 1.2042 9.99848 -5.90827e-05 -2.74059e-05 9.99848 -1.43886 1 1 
2 1.20423 9.99787 -7.70033e-05 -6.50666e-05 9.99787 -1.39607 1 1 
4 1.20424 9.99775 -0.000114333 -0.000129996 9.99775 -1.36874 1 1 
6 1.20426 9.99788 -0.000157814 -0.000201422 9.99788 -1.33892 1 1 
8 1.20426 9.99807 -0.000208188 -0.000273144 9.99807 -1.34428 1 1 
10 1.20423 9.99822 -0.000282937 -0.000335543 9.99822 -1.38563 1 1 
12 1.20423 9.99863 -0.00035422 -0.000433734 9.99863 -1.38562 1 1 
14 1.20422 10.0003 -0.000453869 -0.000544197 10.0003 -1.41739 1 1 
16 1.20423 9.99955 -0.000486856 -0.00059917 9.99955 -1.39034 1 1 
18 1.20423 9.99844 -0.000563563 -0.000702995 9.99844 -1.38471 1 1 
20 1.20422 9.99932 -0.000689144 -0.000843127 9.99932 -1.40631 1 1 
22 1.20425 10 -0.000742372 -0.000921786 10 -1.35806 1 1 
24 1.20424 10.0016 -0.000812245 -0.0010082 10.0016 -1.38016 1 1 
26 1.20422 10.0015 -0.000904487 -0.00110717 10.0015 -1.40502 1 1 
28 1.20422 10.0006 -0.00101947 -0.00122437 10.0006 -1.4006 1 1 
30 1.20421 10.001 -0.00107905 -0.00131414 10.0011 -1.42732 1 1 
32 1.20421 10.0002 -0.00119866 -0.00144952 10.0002 -1.42259 1 1 
32 1.20421 10.0002 -0.00119866 -0.00144952 10.0002 -1.42259 1 1 
34 1.2042 9.99997 -0.00128508 -0.00155941 9.99997 -1.43655 1 1 
36 1.20419 10.0003 -0.0013692 -0.0016562 10.0003 -1.45809 1 1 
38 1.20418 10.0003 -0.00142364 -0.00173926 10.0003 -1.48007 1 1 
40 1.20419 9.99998 -0.00147367 -0.00181963 9.99998 -1.45423 1 1 
42 1.20421 10.0007 -0.00153843 -0.0019005 10.0007 -1.43418 1 1 
44 1.2042 10.0005 -0.00158714 -0.00196207 10.0005 -1.4408 1 1 
46 1.20419 9.99954 -0.0017414 -0.00212362 9.99954 -1.4615 1 1 
48 1.20417 9.99972 -0.00183821 -0.00224181 9.99972 -1.50171 1 1 
50 1.20419 10.0001 -0.00186665 -0.00227664 10.0001 -1.46592 1 1 
52 1.20418 10.0004 -0.00199954 -0.00243831 10.0004 -1.47396 1 1 
54 1.20416 9.99962 -0.00208352 -0.00253146 9.99962 -1.52147 1 1 
56 1.20416 9.99909 -0.00206627 -0.00252304 9.99909 -1.51832 1 1 
58 1.20416 9.99942 -0.0022004 -0.00269058 9.99942 -1.52536 1 1 
60 1.20415 10.0003 -0.0023145 -0.00282047 10.0003 -1.53691 1 1 
62 1.20416 10.0001 -0.00229753 -0.0028212 10.0001 -1.51088 1 1 
64 1.20416 10.0005 -0.0023375 -0.00285866 10.0005 -1.51784 1 1 
64 1.20416 10.0005 -0.0023375 -0.00285866 10.0005 -1.51784 2 1 
66 1.20418 10.0003 -0.00252126 -0.00307038 10.0003 -1.48771 2 1 
68 1.20417 10.0008 -0.00262382 -0.00318468 10.0008 -1.50448 2 1 
70 1.20415 10.001 -0.00266187 -0.00326941 10.001 -1.53798 2 1 
72 1.20414 9.99942 -0.00277422 -0.00341824 9.99942 -1.55075 2 1 
74 1.20412 9.9986 -0.0028235 -0.00346678 9.9986 -1.59122 2 1 
76 1.20413 9.99881 -0.00277989 -0.003457 9.99881 -1.57679 2 1 
78 1.20412 10.0003 -0.00284966 -0.00354414 10.0003 -1.58422 2 1 
80 1.20413 10.0004 -0.00301755 -0.00373419 10.0004 -1.57227 2 1 
82 1.20414 10.0002 -0.00303514 -0.00377686 10.0002 -1.55909 2 1 
84 1.20414 10.0001 -0.00304631 -0.00378575 10.0001 -1.55153 2 1 
86 1.20415 10.0002 -0.003266 -0.00400624 10.0002 -1.54419 2 1 
88 1.20414 10.0003 -0.0034253 -0.00419778 10.0003 -1.562 2 1 
90 1.20413 9.9992 -0.00331119 -0.00411564 9.9992 -1.56808 2 1 
92 1.20411 9.99855 -0.00339442 -0.00422039 9.99855 -1.60618 2 1 
94 1.2041 9.99838 -0.00361451 -0.00444608 9.99838 -1.61744 2 1 
96 1.20412 9.99834 -0.00355713 -0.00440099 9.99835 -1.58835 2 1 
96 1.20412 9.99834 -0.00355713 -0.00440099 9.99835 -1.58835 2 1 
98 1.20411 9.99954 -0.00349202 -0.0043313 9.99954 -1.60863 2 1 
100 1.20411 10.0001 -0.00362615 -0.00447722 10.0001 -1.60762 2 1 
102 1.20414 9.99934 -0.00383193 -0.00470208 9.99934 -1.56127 2 1 
104 1.20414 9.99869 -0.00382778 -0.00471296 9.99869 -1.547 2 1 
106 1.20413 9.99914 -0.00378312 -0.00468514 9.99914 -1.57975 2 1 
108 1.20412 9.99838 -0.00411306 -0.00501444 9.99838 -1.58514 2 1 
110 1.20411 9.99844 -0.00429938 -0.00520456 9.99844 -1.6092 2 1 
112 1.20411 9.99865 -0.00416657 -0.00511178 9.99866 -1.60598 2 1 
114 1.20413 9.99739 -0.00413486 -0.0050963 9.9974 -1.56334 2 1 
116 1.20413 9.99895 -0.00440032 -0.00535809 9.99895 -1.57189 2 1 
118 1.20413 9.99958 -0.00446125 -0.00542739 9.99958 -1.57452 2 1 
120 1.20413 9.99841 -0.00418763 -0.00517018 9.99841 -1.56566 2 1 
122 1.20413 9.99877 -0.00406773 -0.0050781 9.99877 -1.57534 2 1 
124 1.20414 9.99766 -0.00428095 -0.00532248 9.99767 -1.5579 2 1 
126 1.20415 9.9965 -0.00453671 -0.00557672 9.99651 -1.52691 2 1 
128 1.20414 9.99753 -0.00441961 -0.0054475 9.99753 -1.55754 2 1 
128 1.20414 9.99753 -0.00441961 -0.0054475 9.99753 -1.55754 10 1 
130 1.20416 9.99699 -0.00425474 -0.00533612 9.997 -1.51844 10 1 
132 1.20415 9.99798 -0.00422778 -0.0053338 9.99798 -1.53346 10 1 
134 1.20414 9.99756 -0.00421179 -0.00533654 9.99756 -1.54964 10 1 
136 1.20417 9.99464 -0.00393927 -0.00506616 9.99465 -1.50371 10 1 
138 1.20415 9.99453 -0.00363417 -0.00475186 9.99453 -1.53528 10 1 
140 1.20417 9.99525 -0.00372254 -0.00486267 9.99525 -1.49316 10 1 
142 1.20419 9.99544 -0.00427945 -0.00537858 9.99544 -1.46019 10 1 
144 1.20419 9.99562 -0.0048564 -0.00597601 9.99563 -1.47211 10 1 
146 1.2042 9.99546 -0.00502031 -0.0061534 9.99546 -1.44453 10 1 
148 1.20421 9.99316 -0.00473679 -0.00586423 9.99316 -1.4352 10 1 
150 1.20419 9.99233 -0.00427121 -0.00542512 9.99233 -1.46893 10 1 
152 1.2042 9.99241 -0.00396124 -0.00511907 9.99241 -1.44563 10 1 
154 1.20422 9.99183 -0.00379465 -0.0049395 9.99183 -1.40716 10 1 
156 1.20423 9.99323 -0.0038069 -0.00495978 9.99323 -1.39431 10 1 
158 1.20424 9.99369 -0.00383758 -0.0049953 9.9937 -1.36938 10 1 
160 1.20424 9.99197 -0.00383044 -0.00499967 9.99197 -1.36432 10 1 
160 1.20424 9.99197 -0.00383044 -0.00499967 9.99197 -1.36432 10 1 
162 1.20423 9.99196 -0.00387358 -0.00506772 9.99197 -1.38724 10 1 
164 1.20426 9.99102 -0.00391608 -0.00508091 9.99102 -1.34323 10 1 
166 1.20431 9.98887 -0.00397288 -0.00512358 9.98887 -1.25064 10 1 
168 1.20428 9.99077 -0.00401438 -0.00519028 9.99077 -1.30698 10 1 
170 1.20428 9.98936 -0.00401638 -0.00520602 9.98936 -1.30924 10 1 
172 1.20428 9.98825 -0.00400936 -0.00518041 9.98825 -1.29402 10 1 
174 1.20428 9.98937 -0.00394609 -0.00513476 9.98937 -1.29418 10 1 
176 1.20435 9.98699 -0.00395653 -0.0051218 9.98699 -1.1771 10 1 
178 1.20434 9.98665 -0.00397001 -0.00515347 9.98665 -1.18547 10 1 
180 1.20434 9.98558 -0.00402122 -0.00523695 9.98558 -1.19228 10 1 
182 1.20434 9.98295 -0.00409898 -0.00531788 9.98295 -1.18452 10 1 
184 1.20434 9.98209 -0.00414066 -0.00537972 9.98209 -1.20048 10 1 
186 1.20439 9.98274 -0.00412615 -0.00535981 9.98275 -1.10809 10 1 
188 1.20441 9.98277 -0.00407845 -0.00529895 9.98277 -1.06879 10 1 
190 1.2044 9.98218 -0.00414598 -0.00535959 9.98219 -1.08549 10 1 
192 1.2044 9.98159 -0.00403377 -0.00527584 9.9816 -1.08991 10 1 
194 1.20442 9.97879 -0.00410918 -0.00535727 9.97879 -1.05278 10 1 
196 1.20444 9.97629 -0.00421952 -0.00545077 9.97629 -1.01682 10 1 
198 1.20444 9.97581 -0.00413183 -0.00533714 9.97581 -1.0175 10 1 
200 1.20448 9.97477 -0.00425281 -0.00547312 9.97477 -0.948125 10 1 
202 1.20449 9.97458 -0.00419133 -0.00547139 9.97458 -0.913553 10 1 
204 1.20447 9.97526 -0.00415646 -0.00542696 9.97526 -0.957687 10 1 
206 1.20452 9.9719 -0.00432433 -0.00558384 9.97191 -0.862779 10 1 
208 1.20455 9.97077 -0.00435621 -0.0055702 9.97078 -0.812166 10 1 
210 1.20451 9.97237 -0.00426322 -0.00547195 9.97237 -0.889451 10 1 
212 1.20457 9.96675 -0.00423883 -0.00551627 9.96675 -0.774089 10 1 
214 1.20456 9.9632 -0.00422167 -0.00550012 9.96321 -0.786607 10 1 
216 1.20456 9.96066 -0.00430568 -0.005552 9.96067 -0.802383 10 1 
218 1.20464 9.95585 -0.00446705 -0.00569625 9.95585 -0.653481 10 1 
220 1.20463 9.95958 -0.00444522 -0.005745 9.95959 -0.667988 10 1 
222 1.20466 9.96094 -0.00440247 -0.00570973 9.96094 -0.611639 10 1 
224 1.20469 9.95685 -0.00435459 -0.00556156 9.95685 -0.568598 10 1 
224 1.20469 9.95685 -0.00435459 -0.00556156 9.95685 -0.568598 10 1 
226 1.2047 9.95358 -0.00436366 -0.00557562 9.95358 -0.540626 10 1 
228 1.20472 9.94582 -0.0044329 -0.00570317 9.94582 -0.504661 10 1 
230 1.20473 9.93934 -0.00452218 -0.00581596 9.93935 -0.489306 10 1 
232 1.20475 9.94057 -0.00452603 -0.0058176 9.94057 -0.447941 10 1 
234 1.2048 9.93904 -0.00449021 -0.00572111 9.93905 -0.363218 10 1 
236 1.20488 9.93242 -0.00449076 -0.00575536 9.93243 -0.210331 10 1 
238 1.20483 9.93158 -0.004485 -0.00577571 9.93158 -0.306834 10 1 
240 1.20493 9.92207 -0.00466393 -0.00594359 9.92208 -0.117534 10 1 
242 1.20497 9.915 -0.00470293 -0.00597971 9.915 -0.0585321 10 1 
244 1.2049 9.91496 -0.00460333 -0.00589593 9.91497 -0.18027 10 1 
246 1.20507 9.90562 -0.00463382 -0.00591892 9.90562 0.132584 10 1 
248 1.2051 9.89893 -0.00456986 -0.00582021 9.89894 0.179813 10 1 
250 1.20512 9.89013 -0.00463374 -0.00589617 9.89013 0.218859 10 1 
252 1.20519 9.88112 -0.004841 -0.00610006 9.88112 0.344218 10 1 
254 1.20528 9.87161 -0.00474677 -0.00598573 9.87161 0.499272 10 1 
256 1.20533 9.86135 -0.00476494 -0.00601472 9.86135 0.598549 10 1 
256 1.20533 9.86135 -0.00476494 -0.00601472 9.86135 0.598549 11 1 
258 1.20539 9.84878 -0.00481184 -0.00609185 9.84879 0.695741 11 1 
260 1.20554 9.83521 -0.00480802 -0.00607932 9.83522 0.976261 11 1 
262 1.20563 9.81899 -0.00491384 -0.00615538 9.81899 1.14198 11 1 
264 1.20564 9.80259 -0.00488244 -0.00609689 9.8026 1.15545 11 1 
266 1.20582 9.78743 -0.0048738 -0.00612354 9.78743 1.48226 11 1 
268 1.20616 9.75725 -0.00496681 -0.00623429 9.75726 2.103 11 1 
270 1.20608 9.7366 -0.00509989 -0.0063117 9.73661 1.95402 11 1 
272 1.20625 9.70653 -0.00505008 -0.0062344 9.70654 2.25193 11 1 
274 1.20671 9.66464 -0.00504403 -0.00627768 9.66465 3.09545 11 1 
276 1.20671 9.63783 -0.00509994 -0.00631442 9.63783 3.0889 11 1 
278 1.207 9.59547 -0.00513069 -0.00632814 9.59547 3.60681 11 1 
280 1.20754 9.55111 -0.00515834 -0.00634836 9.55112 4.59194 11 1 
282 1.2079 9.49197 -0.00515142 -0.00632947 9.49206 5.24581 11 1 
284 1.20819 9.40429 -0.00516988 -0.00637239 9.40445 5.75519 11 1 
286 1.20855 9.31509 -0.00521505 -0.00638312 9.31518 6.41085 11 1 
288 1.2092 9.23043 -0.00525923 -0.00642636 9.23044 7.58935 11 1 
288 1.2092 9.23043 -0.00525923 -0.00642636 9.23044 7.58935 11 1 
290 1.20998 9.15683 -0.00522689 -0.00639808 9.15685 8.99082 11 1 
292 1.21063 9.05848 -0.00529804 -0.00645524 9.05858 10.1782 11 1 
294 1.21116 8.92226 -0.00528431 -0.0064538 8.92251 11.1232 11 1 
296 1.21187 8.78158 -0.00521944 -0.00636212 8.78177 12.4164 11 1 
298 1.20761 8.61198 -0.00528632 -0.00640928 8.61206 4.71955 11 1 
300 1.20036 8.54316 -0.00519732 -0.00632941 8.54327 -8.38047 11 1 
302 1.19807 8.51486 -0.00525154 -0.00637725 8.51491 -12.5109 11 1 
304 1.19864 8.39853 -0.00532926 -0.00642836 8.39864 -11.4827 11 1 
306 1.19939 8.26838 -0.005266 -0.0063546 8.26856 -10.1368 11 1 
308 1.19996 8.14952 -0.00525359 -0.00633152 8.14971 -9.11067 11 1 
310 1.2003 8.06038 -0.005204 -0.0062749 8.06052 -8.49633 11 1 
312 1.20076 7.9645 -0.00524773 -0.00633616 7.96454 -7.64968 11 1 
314 1.20125 7.89452 -0.00536904 -0.00644377 7.89455 -6.77826 11 1 
316 1.2016 7.84268 -0.00543507 -0.00649428 7.84269 -6.14662 11 1 
318 1.20188 7.77339 -0.00542165 -0.00649044 7.7734 -5.64074 11 1 
320 1.20212 7.73018 -0.00536544 -0.00642702 7.73019 -5.19308 11 1 
320 1.20212 7.73018 -0.00536544 -0.00642702 7.73019 -5.19308 15 1 
322 1.2024 7.7014 -0.00542157 -0.00648458 7.70141 -4.69882 15 1 
324 1.20265 7.65562 -0.00549943 -0.00656067 7.65563 -4.24408 15 1 
326 1.20282 7.62196 -0.00548912 -0.00654006 7.62197 -3.93417 15 1 
328 1.20298 7.59273 -0.00546385 -0.00651276 7.59274 -3.6526 15 1 
330 1.20307 7.55929 -0.00550679 -0.00654941 7.5593 -3.49095 15 1 
332 1.2032 7.5382 -0.00553895 -0.00658028 7.53821 -3.24471 15 1 
334 1.20338 7.50969 -0.00553248 -0.00657971 7.5097 -2.93412 15 1 
336 1.20337 7.47541 -0.00553974 -0.00657178 7.47543 -2.95224 15 1 
338 1.2034 7.45682 -0.00557403 -0.00659999 7.45684 -2.89117 15 1 
340 1.20359 7.44153 -0.00564172 -0.00669104 7.44154 -2.54712 15 1 
342 1.20368 7.42499 -0.0056679 -0.00671734 7.425 -2.39265 15 1 
344 1.20364 7.40381 -0.00562768 -0.00665835 7.40382 -2.45423 15 1 
346 1.20361 7.37997 -0.0056219 -0.00667314 7.37998 -2.51018 15 1 
348 1.20373 7.37751 -0.00569999 -0.00678609 7.37752 -2.30143 15 1 
350 1.20387 7.3786 -0.00573308 -0.00681638 7.3786 -2.03563 15 1 
352 1.20382 7.36123 -0.00570441 -0.00677528 7.36124 -2.13693 15 1 
354 1.20378 7.35144 -0.0057323 -0.00682537 7.35145 -2.2015 15 1 
356 1.20388 7.3527 -0.00583962 -0.00696375 7.35271 -2.02158 15 1 
358 1.20393 7.35231 -0.00589451 -0.00700198 7.35231 -1.92788 15 1 
360 1.20395 7.35386 -0.00584943 -0.00694426 7.35387 -1.90428 15 1 
362 1.20395 7.35246 -0.00580556 -0.00693751 7.35247 -1.89488 15 1 
364 1.20398 7.35078 -0.00585207 -0.00699203 7.35079 -1.84823 15 1 
366 1.20402 7.35371 -0.00591502 -0.00702378 7.35372 -1.77504 15 1 
368 1.20401 7.35615 -0.00587289 -0.00700128 7.35616 -1.78239 15 1 
370 1.20403 7.36078 -0.00577923 -0.00694934 7.36079 -1.75446 15 1 
372 1.20405 7.36309 -0.00578061 -0.00694628 7.3631 -1.71231 15 1 
374 1.20406 7.36134 -0.00584363 -0.00699713 7.36135 -1.70127 15 1 
376 1.20408 7.36417 -0.00583259 -0.00699695 7.36418 -1.65298 15 1 
378 1.20408 7.3671 -0.00577216 -0.00694782 7.36711 -1.6527 15 1 
380 1.2041 7.36965 -0.00576399 -0.00694089 7.36966 -1.6252 15 1 
382 1.20414 7.37305 -0.00580189 -0.00697744 7.37306 -1.55662 15 1 
384 1.20412 7.36956 -0.00581718 -0.00698632 7.36956 -1.5849 15 1 
384 1.20412 7.36956 -0.00581718 -0.00698632 7.36956 -1.5849 16 1 
386 1.20411 7.36714 -0.00577749 -0.00695331 7.36715 -1.6101 16 1 
388 1.20412 7.37103 -0.00573677 -0.00692163 7.37103 -1.58651 16 1 
390 1.20414 7.37205 -0.00573734 -0.00691019 7.37205 -1.54466 16 1 
392 1.20417 7.37008 -0.00573375 -0.00691424 7.37009 -1.49415 16 1 
394 1.20415 7.36573 -0.00574986 -0.00696167 7.36573 -1.5351 16 1 
396 1.20412 7.36051 -0.00578787 -0.00699402 7.36052 -1.58903 16 1 
398 1.20415 7.36022 -0.00575702 -0.00695231 7.36022 -1.5403 16 1 
400 1.20418 7.36008 -0.00567959 -0.00691876 7.36008 -1.47773 16 1 
402 1.20417 7.35528 -0.00568453 -0.00694827 7.35528 -1.50102 16 1 
404 1.20413 7.34894 -0.00573104 -0.00696546 7.34895 -1.57515 16 1 
406 1.20414 7.34461 -0.00568034 -0.00691872 7.34461 -1.54757 16 1 
408 1.20418 7.34228 -0.00560316 -0.00687686 7.34229 -1.47952 16 1 
410 1.20414 7.33663 -0.00561174 -0.006914 7.33664 -1.54886 16 1 
412 1.2041 7.32964 -0.00563365 -0.00695877 7.32965 -1.6176 16 1 
414 1.20415 7.32791 -0.00562448 -0.00694697 7.32791 -1.54415 16 1 
416 1.20419 7.32662 -0.00561103 -0.00694808 7.32663 -1.45558 16 1 
416 1.20419 7.32662 -0.00561103 -0.00694808 7.32663 -1.45558 16 1 
418 1.20417 7.32189 -0.00558923 -0.00699405 7.3219 -1.49081 16 1 
420 1.20412 7.31728 -0.00557906 -0.00702528 7.31729 -1.59409 16 1 
422 1.20412 7.3133 -0.00560152 -0.00703691 7.3133 -1.5862 16 1 
424 1.20417 7.30938 -0.00562137 -0.0070736 7.30939 -1.49415 16 1 
426 1.20417 7.30568 -0.00562645 -0.00713638 7.30569 -1.49863 16 1 
428 1.20413 7.30417 -0.00565593 -0.00718372 7.30418 -1.57616 16 1 
430 1.20413 7.30664 -0.00569781 -0.00719787 7.30664 -1.58007 16 1 
432 1.20416 7.30657 -0.00571597 -0.00719641 7.30658 -1.51111 16 1 
434 1.20416 7.29991 -0.00569701 -0.00717497 7.29992 -1.5171 16 1 
436 1.20412 7.29328 -0.00571309 -0.00719374 7.29329 -1.58992 16 1 
438 1.20414 7.29175 -0.00580616 -0.00729023 7.29175 -1.55331 16 1 
440 1.20418 7.29533 -0.00592947 -0.0074103 7.29534 -1.47708 16 1 
442 1.20415 7.30333 -0.00603087 -0.00752767 7.30334 -1.52991 16 1 
444 1.20412 7.31324 -0.00604478 -0.0075793 7.31325 -1.59221 16 1 
446 1.20415 7.32047 -0.005966 -0.00748698 7.32047 -1.54123 16 1 
448 1.20416 7.32222 -0.00586605 -0.0073381 7.32222 -1.51218 16 1 
448 1.20416 7.32222 -0.00586605 -0.0073381 7.32222 -1.51218 17 1 
450 1.20413 7.31984 -0.00578991 -0.00726601 7.31984 -1.57 17 1 
452 1.20415 7.31684 -0.00579096 -0.00731945 7.31684 -1.5349 17 1 
454 1.20421 7.31805 -0.00591358 -0.00748055 7.31806 -1.4198 17 1 
456 1.20418 7.32722 -0.00608349 -0.00765841 7.32722 -1.48203 17 1 
458 1.20411 7.34268 -0.00616392 -0.00777003 7.34269 -1.61297 17 1 
460 1.20416 7.36104 -0.0061375 -0.00779024 7.36105 -1.5198 17 1 
462 1.20424 7.37794 -0.00602936 -0.00766642 7.37795 -1.36824 17 1 
464 1.20422 7.38317 -0.00585162 -0.00744049 7.38318 -1.41205 17 1 
466 1.20415 7.3743 -0.00572028 -0.00728611 7.3743 -1.52683 17 1 
468 1.20414 7.3663 -0.00576464 -0.00735402 7.3663 -1.55788 17 1 
470 1.20419 7.37124 -0.00598567 -0.00763844 7.37125 -1.47207 17 1 
472 1.20428 7.38864 -0.00625121 -0.00795625 7.38866 -1.30525 17 1 
474 1.20426 7.41633 -0.0064163 -0.00815914 7.41635 -1.33815 17 1 
476 1.20412 7.45227 -0.00640232 -0.00817069 7.45229 -1.58606 17 1 
478 1.20417 7.48939 -0.00627286 -0.00800333 7.48941 -1.49858 17 1 
480 1.20437 7.51703 -0.00612902 -0.00777955 7.51704 -1.13673 17 1 
480 1.20437 7.51703 -0.00612902 -0.00777955 7.51704 -1.13673 17 1 
482 1.20433 7.52722 -0.00595328 -0.00754161 7.52723 -1.20407 17 1 
484 1.20416 7.51888 -0.00571583 -0.00724094 7.51889 -1.52405 17 1 
486 1.20417 7.49913 -0.00549348 -0.00693117 7.49914 -1.49488 17 1 
488 1.20429 7.47719 -0.00536685 -0.00674326 7.4772 -1.27712 17 1 
490 1.20435 7.45265 -0.00534758 -0.00674673 7.45266 -1.17614 17 1 
492 1.20431 7.4239 -0.00548955 -0.00693484 7.42391 -1.25052 17 1 
494 1.2042 7.4049 -0.00576237 -0.00723089 7.4049 -1.44173 17 1 
496 1.20425 7.40788 -0.00602166 -0.00757658 7.40789 -1.34886 17 1 
498 1.20447 7.43 -0.00624925 -0.00793241 7.43002 -0.960556 17 1 
500 1.20448 7.46991 -0.00654846 -0.00830108 7.46994 -0.938572 17 1 
502 1.20432 7.52947 -0.00690898 -0.00872554 7.52951 -1.22925 17 1 
504 1.20437 7.60967 -0.00721273 -0.00911952 7.60974 -1.13163 17 1 
506 1.2046 7.71171 -0.00742964 -0.00938884 7.7118 -0.726414 17 1 
508 1.2047 7.82796 -0.00758443 -0.00956106 7.82808 -0.542576 17 1 
510 1.20464 7.9489 -0.00768606 -0.0096946 7.94903 -0.654634 17 1 
512 1.20455 8.07792 -0.00776379 -0.00980079 8.07806 -0.804414 17 1 
512 1.20455 8.07792 -0.00776379 -0.00980079 8.07806 -0.804414 25 1 
514 1.20464 8.21854 -0.00784921 -0.00986245 8.21869 -0.651085 25 1 
516 1.20486 8.36373 -0.00789814 -0.00989047 8.36387 -0.252012 25 1 
518 1.20491 8.50498 -0.00788586 -0.00988721 8.50513 -0.155802 25 1 
520 1.20475 8.63913 -0.00785504 -0.00982768 8.63927 -0.444733 25 1 
522 1.20464 8.77051 -0.00780418 -0.00971731 8.77064 -0.646631 25 1 
524 1.20471 8.90229 -0.0076792 -0.00955421 8.9024 -0.520123 25 1 
526 1.20487 9.02872 -0.00752831 -0.00934833 9.02882 -0.233323 25 1 
528 1.20489 9.14272 -0.00741157 -0.00915717 9.14281 -0.196991 25 1 
530 1.20472 9.24365 -0.00729976 -0.00899805 9.24373 -0.498231 25 1 
532 1.2046 9.33594 -0.00714928 -0.00879905 9.336 -0.714597 25 1 
534 1.20466 9.42322 -0.00698109 -0.00856189 9.42327 -0.616337 25 1 
536 1.2048 9.50214 -0.0068327 -0.00835693 9.50218 -0.36717 25 1 
538 1.20482 9.56684 -0.00669703 -0.00817011 9.56687 -0.318326 25 1 
540 1.20465 9.61746 -0.0065805 -0.00798759 9.61748 -0.635608 25 1 
542 1.2045 9.65839 -0.00645996 -0.00780618 9.6584 -0.910062 25 1 
544 1.20454 9.69656 -0.00633042 -0.00763087 9.69658 -0.836686 25 1 
544 1.20454 9.69656 -0.00633042 -0.00763087 9.69658 -0.836686 25 1 
546 1.20466 9.7324 -0.00624434 -0.00750157 9.73241 -0.618441 25 1 
548 1.20473 9.75958 -0.00618784 -0.00738207 9.75959 -0.495896 25 1 
550 1.20464 9.77832 -0.00614061 -0.00727726 9.77832 -0.657419 25 1 
552 1.20448 9.7927 -0.00608046 -0.00720386 9.7927 -0.933443 25 1 
554 1.20447 9.80821 -0.00604846 -0.0071625 9.80822 -0.95476 25 1 
556 1.20457 9.82637 -0.00604274 -0.00711153 9.82637 -0.777166 25 1 
558 1.20466 9.8413 -0.00600775 -0.00703749 9.8413 -0.61298 25 1 
560 1.20463 9.85137 -0.00599243 -0.0069909 9.85138 -0.662791 25 1 
562 1.20449 9.85912 -0.0060246 -0.00696022 9.85912 -0.924876 25 1 
564 1.20442 9.86664 -0.00604001 -0.00692361 9.86664 -1.04067 25 1 
566 1.20449 9.87738 -0.00600519 -0.00686413 9.87739 -0.914505 25 1 
568 1.2046 9.88898 -0.00596015 -0.00677742 9.88898 -0.727204 25 1 
570 1.20464 9.89641 -0.00592815 -0.00669048 9.89642 -0.64852 25 1 
572 1.20456 9.90124 -0.00593721 -0.00665631 9.90124 -0.78819 25 1 
574 1.20447 9.90491 -0.00595711 -0.00664934 9.90492 -0.95065 25 1 
576 1.20448 9.90981 -0.00596451 -0.00661628 9.90981 -0.942362 25 1 
576 1.20448 9.90981 -0.00596451 -0.00661628 9.90981 -0.942362 26 1 
578 1.20454 9.91709 -0.005961 -0.00655744 9.91709 -0.829212 26 1 
580 1.2046 9.92259 -0.0059346 -0.00650465 9.92259 -0.724708 26 1 
582 1.20459 9.92577 -0.00587823 -0.00643325 9.92577 -0.731724 26 1 
584 1.20452 9.92778 -0.00584101 -0.00635738 9.92778 -0.858958 26 1 
586 1.20449 9.92957 -0.00586393 -0.00634642 9.92958 -0.923447 26 1 
588 1.20454 9.93379 -0.00587804 -0.00633239 9.9338 -0.833983 26 1 
590 1.20459 9.93787 -0.00583091 -0.00625156 9.93787 -0.734778 26 1 
592 1.20461 9.9398 -0.00577906 -0.00616174 9.93981 -0.706202 26 1 
594 1.20457 9.94116 -0.00577405 -0.00610552 9.94117 -0.778687 26 1 
596 1.20452 9.94168 -0.00580636 -0.00609422 9.94169 -0.864703 26 1 
598 1.20454 9.94286 -0.00580961 -0.00606601 9.94286 -0.822571 26 1 
600 1.20459 9.94671 -0.00581453 -0.00603039 9.94671 -0.745138 26 1 
602 1.20462 9.94962 -0.00582732 -0.00599598 9.94962 -0.681617 26 1 
604 1.20462 9.95004 -0.00577236 -0.0059075 9.95004 -0.685637 26 1 
606 1.20456 9.95025 -0.00569923 -0.00581484 9.95025 -0.799265 26 1 
608 1.20454 9.95081 -0.00568884 -0.00578782 9.95082 -0.827333 26 1 
608 1.20454 9.95081 -0.00568884 -0.00578782 9.95082 -0.827333 26 1 
610 1.20459 9.95378 -0.00571309 -0.00577764 9.95378 -0.732348 26 1 
612 1.20465 9.9575 -0.00571111 -0.00575273 9.95751 -0.630021 26 1 
614 1.20468 9.95901 -0.00567339 -0.00571708 9.95901 -0.586421 26 1 
616 1.20463 9.9595 -0.00563842 -0.00567184 9.9595 -0.660129 26 1 
618 1.20457 9.95893 -0.005612 -0.0056277 9.95894 -0.777784 26 1 
620 1.20457 9.95947 -0.00556028 -0.0055701 9.95947 -0.770115 26 1 
622 1.20464 9.96272 -0.00554116 -0.00553767 9.96272 -0.649791 26 1 
624 1.2047 9.96619 -0.0055591 -0.00554924 9.96619 -0.54955 26 1 
626 1.20471 9.96783 -0.00553712 -0.00553649 9.96784 -0.527215 26 1 
628 1.20466 9.96763 -0.0054711 -0.00545807 9.96763 -0.607726 26 1 
630 1.20462 9.96669 -0.00540184 -0.0053715 9.9667 -0.691358 26 1 
632 1.20462 9.96744 -0.00536137 -0.00533422 9.96744 -0.681781 26 1 
634 1.20467 9.97029 -0.00535816 -0.00533457 9.97029 -0.603774 26 1 
636 1.20474 9.97298 -0.0053567 -0.00531748 9.97298 -0.461027 26 1 
638 1.20476 9.97361 -0.00532191 -0.00527284 9.97361 -0.431982 26 1 
640 1.2047 9.97208 -0.00528398 -0.0052353 9.97208 -0.550758 26 1 
642 1.20465 9.97099 -0.00526107 -0.00520937 9.971 -0.637243 26 1 
644 1.20464 9.97106 -0.00521309 -0.0051539 9.97106 -0.652432 26 1 
646 1.2047 9.97327 -0.00516448 -0.00511571 9.97327 -0.532875 26 1 
648 1.2048 9.9767 -0.00513203 -0.00509042 9.9767 -0.366515 26 1 
650 1.20484 9.97708 -0.00510188 -0.00503968 9.97708 -0.296769 26 1 
652 1.20478 9.97592 -0.00505311 -0.00498139 9.97592 -0.389036 26 1 
654 1.20469 9.97338 -0.00501179 -0.00495639 9.97338 -0.565087 26 1 
656 1.20466 9.97243 -0.00500828 -0.00495167 9.97244 -0.613473 26 1 
658 1.20472 9.97512 -0.00499635 -0.00492609 9.97512 -0.503045 26 1 
660 1.20483 9.97763 -0.00497782 -0.00491957 9.97763 -0.301351 26 1 
662 1.20491 9.98062 -0.00495993 -0.00489991 9.98062 -0.171379 26 1 
664 1.20489 9.98062 -0.00490738 -0.00483968 9.98063 -0.198068 26 1 
666 1.20481 9.97681 -0.00484122 -0.00478834 9.97681 -0.351628 26 1 
668 1.20472 9.97489 -0.00477565 -0.00472224 9.97489 -0.49851 26 1 
670 1.20472 9.9746 -0.00475384 -0.00468346 9.9746 -0.500313 26 1 
672 1.20482 9.97743 -0.00475785 -0.00470265 9.97743 -0.326471 26 1 
672 1.20482 9.97743 -0.00475785 -0.00470265 9.97743 -0.326471 27 1 
674 1.20496 9.98257 -0.00479189 -0.00474589 9.98257 -0.0742326 27 1 
676 1.20501 9.98403 -0.00481502 -0.00474408 9.98404 0.0242826 27 1 
678 1.20498 9.9833 -0.00473289 -0.00465885 9.9833 -0.0439428 27 1 
680 1.20486 9.98005 -0.00461012 -0.00454396 9.98006 -0.253686 27 1 
682 1.20477 9.9766 -0.00448684 -0.00441658 9.9766 -0.409806 27 1 
684 1.20482 9.97875 -0.00447735 -0.00439969 9.97875 -0.333904 27 1 
686 1.20493 9.98175 -0.00454325 -0.00446884 9.98175 -0.123947 27 1 
688 1.20508 9.98588 -0.0046012 -0.00452871 9.98588 0.142974 27 1 
690 1.20516 9.9896 -0.00462186 -0.00453795 9.98961 0.293783 27 1 
692 1.20512 9.98657 -0.00453734 -0.00445185 9.98657 0.218793 27 1 
694 1.20501 9.98325 -0.00441569 -0.00433714 9.98325 0.0185858 27 1 
696 1.20492 9.97981 -0.00428937 -0.00420248 9.97981 -0.151086 27 1 
698 1.20489 9.97816 -0.00422142 -0.00412939 9.97817 -0.202133 27 1 
700 1.20498 9.98316 -0.00423127 -0.00414239 9.98316 -0.0404212 27 1 
702 1.20514 9.98749 -0.00425308 -0.00415609 9.98749 0.246572 27 1 
704 1.20527 9.99277 -0.00431688 -0.00421748 9.99277 0.489242 27 1 
704 1.20527 9.99277 -0.00431688 -0.00421748 9.99277 0.489242 31 1 
706 1.20531 9.9954 -0.00429937 -0.00420648 9.99541 0.568321 31 1 
708 1.20524 9.99114 -0.0042146 -0.00410786 9.99114 0.438539 31 1 
710 1.20514 9.98889 -0.00410133 -0.00399062 9.98889 0.250794 31 1 
712 1.20503 9.98449 -0.00394571 -0.0038501 9.98449 0.0552443 31 1 
714 1.205 9.98142 -0.00387484 -0.00376329 9.98142 0.00503977 31 1 
716 1.2051 9.98607 -0.00388994 -0.00376072 9.98607 0.18678 31 1 
718 1.20523 9.98806 -0.00396871 -0.0038461 9.98806 0.416999 31 1 
720 1.20538 9.99421 -0.00409023 -0.00396232 9.99421 0.693898 31 1 
722 1.20548 9.99916 -0.00418077 -0.00403907 9.99916 0.86153 31 1 
724 1.20543 9.99635 -0.00421568 -0.00407069 9.99635 0.777456 31 1 
726 1.20535 9.99745 -0.00416513 -0.00401461 9.99745 0.639916 31 1 
728 1.20524 9.99214 -0.00403044 -0.00387508 9.99215 0.440834 31 1 
730 1.20519 9.98914 -0.00386754 -0.00370561 9.98915 0.336475 31 1 
732 1.20525 9.99266 -0.00369714 -0.00352125 9.99266 0.454024 31 1 
734 1.20536 9.99138 -0.00359001 -0.00341033 9.99138 0.655137 31 1 
736 1.20556 9.99938 -0.0035934 -0.00340924 9.99939 1.01784 31 1 
738 1.20573 10.0051 -0.00370244 -0.00349921 10.0051 1.31206 31 1 
740 1.20581 10.0074 -0.00384542 -0.00363162 10.0074 1.45422 31 1 
742 1.20585 10.0151 -0.00396914 -0.00374962 10.0151 1.53099 31 1 
744 1.20579 10.011 -0.00401274 -0.00378555 10.011 1.42433 31 1 
746 1.20574 10.0089 -0.00398617 -0.00374474 10.0089 1.33803 31 1 
748 1.2057 10.0072 -0.00391522 -0.00365242 10.0072 1.27013 31 1 
750 1.20565 9.99952 -0.00385425 -0.00358598 9.99952 1.18165 31 1 
752 1.20571 10.0035 -0.00379338 -0.00352527 10.0035 1.27436 31 1 
752 1.20571 10.0035 -0.00379338 -0.00352527 10.0035 1.27436 31 1 
754 1.20579 10.0059 -0.0037139 -0.00342626 10.0059 1.41867 31 1 
756 1.20593 10.0133 -0.00364774 -0.00334573 10.0133 1.68029 31 1 
758 1.20611 10.0258 -0.00358065 -0.00328133 10.0258 2.00275 31 1 
760 1.20619 10.025 -0.00355398 -0.00324654 10.025 2.14939 31 1 
762 1.20627 10.0275 -0.00355926 -0.00323295 10.0275 2.28687 31 1 
764 1.20626 10.0236 -0.00355733 -0.00321053 10.0236 2.27423 31 1 
766 1.20621 10.0182 -0.0034874 -0.00313021 10.0182 2.18862 31 1 
768 1.20623 10.0244 -0.00338929 -0.00302929 10.0244 2.21856 31 1 
770 1.20618 10.0211 -0.00326981 -0.00289368 10.0211 2.14027 31 1 
772 1.20618 10.0253 -0.0031381 -0.00274565 10.0253 2.13621 31 1 
774 1.20618 10.0265 -0.00298603 -0.00258578 10.0265 2.13745 31 1 
776 1.20617 10.0218 -0.00282535 -0.00240778 10.0219 2.12111 31 1 
778 1.20624 10.0273 -0.00268253 -0.00225132 10.0273 2.23267 31 1 
780 1.20623 10.0201 -0.00257803 -0.00213884 10.0201 2.22166 31 1 
782 1.20628 10.0218 -0.00253896 -0.00208516 10.0218 2.31109 31 1 
784 1.20628 10.0241 -0.00248867 -0.00201947 10.0241 2.30825 31 1 
786 1.20621 10.0207 -0.00240795 -0.00192031 10.0207 2.17863 31 1 
788 1.20621 10.0293 -0.00238466 -0.00187194 10.0293 2.18879 31 1 
790 1.2061 10.0216 -0.00237061 -0.00185365 10.0216 1.99318 31 1 
792 1.20601 10.0171 -0.0023379 -0.00181074 10.0171 1.82952 31 1 
794 1.20593 10.0113 -0.00232291 -0.00177232 10.0113 1.68357 31 1 
796 1.2058 10.0006 -0.00229342 -0.00173256 10.0006 1.44828 31 1 
798 1.20575 10.0077 -0.00227162 -0.00169131 10.0077 1.34883 31 1 
800 1.20573 10.0121 -0.00226129 -0.00166985 10.0121 1.31128 31 1 
