10.8678;r ;Density                 ;Velocity u              ;Velocity v              ;Velocity w              ;|Velocity|              ;Pressure                ;Distribution            ;Levels                  ;
0 1.20464 9.97789 0.000246274 0.00026361 9.97789 -0.655923 1 1 
2 1.20458 9.97902 6.25065e-05 8.02843e-05 9.97902 -0.758555 1 1 
4 1.2043 9.99833 -0.000219257 -0.000186616 9.99833 -1.26793 1 1 
6 1.20457 10.015 -0.000259926 -0.000219149 10.015 -0.772687 1 1 
8 1.20521 10.0075 -0.000656147 -0.000633512 10.0075 0.378852 1 1 
10 1.20482 10.0036 -0.00131105 -0.00128907 10.0036 -0.331254 1 1 
12 1.2043 9.99905 -0.00108455 -0.00106329 9.99905 -1.26326 1 1 
14 1.20458 9.99281 -0.000246659 -0.000235458 9.99281 -0.759672 1 1 
16 1.20495 10.0053 0.000233279 0.000229837 10.0053 -0.0817112 1 1 
18 1.20528 10.0208 0.000224409 0.000207038 10.0208 0.507282 1 1 
20 1.20542 10.0207 0.000139313 0.000120352 10.0207 0.760558 1 1 
22 1.205 10.0126 0.000138951 0.000116231 10.0126 0.00613072 1 1 
24 1.20461 10.0031 0.000235708 0.000209551 10.0031 -0.71112 1 1 
26 1.20469 9.99916 0.000526268 0.000491929 9.99916 -0.562162 1 1 
28 1.20497 10.0088 0.000899244 0.0008617 10.0088 -0.0609058 1 1 
30 1.20525 10.0214 0.00119169 0.00114763 10.0214 0.443961 1 1 
32 1.20534 10.0246 0.00123953 0.00119105 10.0246 0.608564 1 1 
32 1.20534 10.0246 0.00123953 0.00119105 10.0246 0.608564 1 1 
34 1.20521 10.0185 0.00104708 0.00100165 10.0185 0.383108 1 1 
36 1.20496 10.0132 0.000685782 0.0006427 10.0132 -0.0644306 1 1 
38 1.20482 10.0171 0.000345844 0.000306392 10.0171 -0.31927 1 1 
40 1.20521 10.0218 0.000121605 7.94538e-05 10.0218 0.383958 1 1 
42 1.2056 10.0309 -0.00012514 -0.000177665 10.0309 1.08971 1 1 
44 1.20558 10.0413 -0.000228064 -0.000285056 10.0413 1.03875 1 1 
46 1.20545 10.0382 -0.000206499 -0.00026127 10.0382 0.81401 1 1 
48 1.20524 10.0269 7.95785e-05 2.10306e-05 10.0269 0.437593 1 1 
50 1.20499 10.0203 0.000597611 0.000544957 10.0203 -0.0233369 1 1 
52 1.20492 10.0219 0.00106978 0.00100919 10.0219 -0.152459 1 1 
54 1.2052 10.0291 0.00150484 0.00143692 10.0291 0.354664 1 1 
56 1.20565 10.0408 0.00176325 0.00169611 10.0408 1.17251 1 1 
58 1.20592 10.0523 0.00185612 0.00178211 10.0523 1.66147 1 1 
60 1.20595 10.0572 0.00181739 0.00174342 10.0572 1.7094 1 1 
62 1.20582 10.0514 0.00168362 0.00160597 10.0514 1.47421 1 1 
64 1.20554 10.0404 0.00142145 0.0013493 10.0404 0.966714 1 1 
64 1.20554 10.0404 0.00142145 0.0013493 10.0404 0.966714 2 1 
66 1.20521 10.0283 0.00113395 0.00105414 10.0283 0.373626 2 1 
68 1.20496 10.0204 0.000874535 0.000802234 10.0204 -0.0696561 2 1 
70 1.20482 10.0189 0.000646456 0.000577449 10.0189 -0.318359 2 1 
72 1.2049 10.0207 0.000512845 0.000430668 10.0207 -0.184009 2 1 
74 1.20511 10.0257 0.000397902 0.000313733 10.0257 0.194577 2 1 
76 1.20524 10.0333 0.000325825 0.00023204 10.0333 0.425878 2 1 
78 1.20542 10.038 0.000276324 0.00018357 10.038 0.753608 2 1 
80 1.20553 10.0398 0.000276516 0.000178682 10.0398 0.949707 2 1 
82 1.20547 10.0401 0.000265351 0.000168637 10.0401 0.841625 2 1 
84 1.2054 10.0366 0.000306137 0.000209045 10.0366 0.721712 2 1 
86 1.20527 10.0331 0.000338578 0.00023166 10.0331 0.481525 2 1 
88 1.20511 10.029 0.000307567 0.000200334 10.029 0.197855 2 1 
90 1.20502 10.0227 0.000343276 0.000239058 10.0227 0.0376791 2 1 
92 1.20493 10.0188 0.000293351 0.000191702 10.0188 -0.131316 2 1 
94 1.20479 10.0168 0.000296105 0.000174499 10.0168 -0.373763 2 1 
96 1.20477 10.013 0.000372219 0.000250309 10.013 -0.409242 2 1 
96 1.20477 10.013 0.000372219 0.000250309 10.013 -0.409242 2 1 
98 1.20471 10.0128 0.000330661 0.000222291 10.0128 -0.525951 2 1 
100 1.20467 10.0125 0.000350031 0.000228293 10.0125 -0.596715 2 1 
102 1.2047 10.0109 0.000313874 0.000187073 10.0109 -0.535474 2 1 
104 1.20465 10.0113 0.000257726 0.000140927 10.0113 -0.625687 2 1 
106 1.20469 10.0101 0.00030423 0.000175907 10.0101 -0.563839 2 1 
108 1.20468 10.0094 0.000301538 0.000168301 10.0094 -0.57414 2 1 
110 1.20463 10.0111 0.000319338 0.00019947 10.0111 -0.675484 2 1 
112 1.20467 10.0099 0.000293058 0.000152855 10.0099 -0.592583 2 1 
114 1.20467 10.0089 0.000261812 0.000122178 10.0089 -0.595772 2 1 
116 1.20463 10.0115 0.000244287 0.000107581 10.0115 -0.667315 2 1 
118 1.2047 10.0102 0.000255865 0.000117947 10.0102 -0.537846 2 1 
120 1.20472 10.0089 0.000293382 0.000142301 10.0089 -0.502262 2 1 
122 1.20462 10.0114 0.000296732 0.000143227 10.0114 -0.684756 2 1 
124 1.20464 10.0094 0.000277511 0.00012085 10.0094 -0.654464 2 1 
126 1.20468 10.008 0.000217726 6.05376e-05 10.008 -0.570334 2 1 
128 1.20466 10.0101 0.000211114 6.31024e-05 10.0101 -0.609195 2 1 
128 1.20466 10.0101 0.000211114 6.31024e-05 10.0101 -0.609195 10 1 
130 1.20471 10.0093 0.000218553 3.84926e-05 10.0093 -0.521994 10 1 
132 1.20469 10.0104 0.000242835 7.7968e-05 10.0104 -0.566561 10 1 
134 1.20464 10.0103 0.000276895 0.000110384 10.0103 -0.651347 10 1 
136 1.20466 10.0079 0.000274245 9.56654e-05 10.0079 -0.605478 10 1 
138 1.20467 10.0082 0.000226411 4.39271e-05 10.0082 -0.591442 10 1 
140 1.20468 10.009 0.000198164 9.48188e-06 10.009 -0.575842 10 1 
142 1.20468 10.0089 0.000191017 7.17313e-06 10.0089 -0.571848 10 1 
144 1.20468 10.0093 0.000210867 1.85125e-05 10.0093 -0.571039 10 1 
146 1.20468 10.0092 0.000232338 3.99855e-05 10.0092 -0.570079 10 1 
148 1.20469 10.0072 0.000233912 3.74717e-05 10.0072 -0.562832 10 1 
150 1.20465 10.0079 0.000220521 1.27901e-05 10.0079 -0.628046 10 1 
152 1.20467 10.0079 0.000152511 -5.01687e-05 10.0079 -0.594674 10 1 
154 1.20471 10.007 0.000167119 -4.23922e-05 10.007 -0.517565 10 1 
156 1.2047 10.0088 0.000177969 -3.2628e-05 10.0088 -0.549349 10 1 
158 1.2047 10.0083 0.00020551 -6.91653e-07 10.0083 -0.540251 10 1 
160 1.20469 10.0055 0.000210255 -2.29757e-05 10.0055 -0.557834 10 1 
160 1.20469 10.0055 0.000210255 -2.29757e-05 10.0055 -0.557834 10 1 
162 1.20466 10.0061 0.000150706 -7.63532e-05 10.0061 -0.620569 10 1 
164 1.20468 10.0063 0.000138109 -7.50974e-05 10.0063 -0.571846 10 1 
166 1.20475 10.0046 0.000117232 -0.000101209 10.0046 -0.456813 10 1 
168 1.20471 10.0071 0.000133678 -0.000109864 10.0071 -0.51832 10 1 
170 1.2047 10.0053 0.00012666 -0.000120067 10.0053 -0.55069 10 1 
172 1.2047 10.0037 0.000111301 -0.000125162 10.0037 -0.542139 10 1 
174 1.2047 10.0056 0.000122995 -0.000128078 10.0056 -0.544245 10 1 
176 1.20474 10.0041 0.000114826 -0.000130921 10.0041 -0.462633 10 1 
178 1.20474 10.004 0.000110444 -0.000140619 10.004 -0.470424 10 1 
180 1.20472 10.0031 0.000105958 -0.000157109 10.0031 -0.508751 10 1 
182 1.20472 10 5.43102e-05 -0.000211042 10 -0.507282 10 1 
184 1.20471 9.99975 1.72246e-05 -0.000263933 9.99975 -0.515465 10 1 
186 1.20475 10.0023 4.66538e-05 -0.000234853 10.0023 -0.458889 10 1 
188 1.20478 10.0017 5.04012e-05 -0.000209688 10.0017 -0.397414 10 1 
190 1.20475 10.0011 -4.16426e-06 -0.00026773 10.0011 -0.447235 10 1 
192 1.20474 10.0012 9.31869e-05 -0.000185141 10.0012 -0.47336 10 1 
194 1.20477 9.99723 3.21677e-05 -0.00026561 9.99723 -0.419858 10 1 
196 1.20478 9.99512 -8.16431e-05 -0.000385117 9.99512 -0.399969 10 1 
198 1.20477 9.99613 4.91715e-06 -0.000268018 9.99613 -0.41131 10 1 
200 1.2048 9.99438 -8.84758e-05 -0.000364656 9.99438 -0.35903 10 1 
202 1.2048 9.99355 -1.91454e-05 -0.000334424 9.99355 -0.368038 10 1 
204 1.20475 9.99556 4.20777e-05 -0.000293319 9.99556 -0.451489 10 1 
206 1.20482 9.99288 -0.000126227 -0.000444283 9.99288 -0.318675 10 1 
208 1.20486 9.99136 -0.000161697 -0.000411487 9.99136 -0.252059 10 1 
210 1.20481 9.99335 -0.000111378 -0.000380767 9.99335 -0.343362 10 1 
212 1.20489 9.98824 -9.93614e-05 -0.000437003 9.98824 -0.206408 10 1 
214 1.20485 9.9845 -5.17832e-05 -0.000386368 9.9845 -0.269654 10 1 
216 1.20481 9.98199 -0.000121284 -0.000443287 9.98199 -0.339347 10 1 
218 1.2049 9.9772 -0.000246982 -0.000550145 9.9772 -0.184486 10 1 
220 1.20488 9.98092 -0.000215949 -0.000569023 9.98093 -0.210223 10 1 
222 1.20492 9.98242 -0.000194955 -0.00055149 9.98242 -0.141181 10 1 
224 1.20495 9.97938 -0.000161546 -0.000443239 9.97938 -0.0948278 10 1 
224 1.20495 9.97938 -0.000161546 -0.000443239 9.97938 -0.0948278 10 1 
226 1.20495 9.97658 -0.000183903 -0.000478488 9.97658 -0.0815335 10 1 
228 1.20498 9.96824 -0.000231618 -0.000582196 9.96825 -0.0349154 10 1 
230 1.20497 9.96231 -0.000301398 -0.000684803 9.96231 -0.0590858 10 1 
232 1.20497 9.9635 -0.000313016 -0.000658405 9.9635 -0.0559566 10 1 
234 1.20503 9.9622 -0.000301658 -0.000597078 9.9622 0.0510131 10 1 
236 1.20513 9.95593 -0.000302969 -0.000631004 9.95593 0.230454 10 1 
238 1.20507 9.95489 -0.000258065 -0.00063287 9.95489 0.119601 10 1 
240 1.20515 9.94587 -0.000400487 -0.000770134 9.94587 0.267169 10 1 
242 1.20518 9.93957 -0.000437186 -0.000786547 9.93957 0.324481 10 1 
244 1.20511 9.93963 -0.000371424 -0.000752068 9.93963 0.201633 10 1 
246 1.20529 9.92969 -0.00044222 -0.000824666 9.9297 0.52798 10 1 
248 1.20534 9.92345 -0.000374831 -0.000713405 9.92345 0.613406 10 1 
250 1.20533 9.91482 -0.000428442 -0.00076017 9.91482 0.603674 10 1 
252 1.20538 9.90576 -0.000607105 -0.000981442 9.90576 0.686999 10 1 
254 1.20548 9.89724 -0.000491082 -0.000863737 9.89724 0.859122 10 1 
256 1.20554 9.88747 -0.000514962 -0.00086746 9.88747 0.968912 10 1 
256 1.20554 9.88747 -0.000514962 -0.00086746 9.88747 0.968912 11 1 
258 1.2056 9.87464 -0.000577407 -0.00094344 9.87464 1.08454 11 1 
260 1.20576 9.86191 -0.000617163 -0.000978793 9.86191 1.36991 11 1 
262 1.20585 9.84619 -0.000740347 -0.00112211 9.8462 1.5327 11 1 
264 1.20584 9.82934 -0.000681343 -0.00103323 9.82934 1.52234 11 1 
266 1.20601 9.81482 -0.000665922 -0.00101587 9.81482 1.82371 11 1 
268 1.20637 9.78514 -0.000733847 -0.00113631 9.78514 2.4666 11 1 
270 1.20629 9.7655 -0.000836903 -0.00119219 9.76551 2.32961 11 1 
272 1.20646 9.73652 -0.000821646 -0.00112595 9.73653 2.63097 11 1 
274 1.20693 9.69451 -0.000859364 -0.00119635 9.69451 3.47855 11 1 
276 1.20692 9.6674 -0.000939722 -0.00128072 9.66741 3.46783 11 1 
278 1.20721 9.62602 -0.000932467 -0.00128491 9.62602 3.99878 11 1 
280 1.20777 9.58251 -0.000973019 -0.00131865 9.58252 5.00421 11 1 
282 1.20814 9.52376 -0.000996663 -0.00131619 9.52385 5.66839 11 1 
284 1.20841 9.43654 -0.00104361 -0.00139542 9.43669 6.15969 11 1 
286 1.20876 9.34735 -0.00109801 -0.00143274 9.34744 6.79069 11 1 
288 1.20943 9.26358 -0.00114641 -0.00147591 9.26359 7.99321 11 1 
288 1.20943 9.26358 -0.00114641 -0.00147591 9.26359 7.99321 11 1 
290 1.21022 9.19101 -0.0011149 -0.00146329 9.19103 9.43543 11 1 
292 1.21088 9.09272 -0.00119564 -0.0015495 9.09282 10.6277 11 1 
294 1.21142 8.95725 -0.00122264 -0.0015669 8.9575 11.5903 11 1 
296 1.21217 8.81837 -0.00120776 -0.00152314 8.81856 12.9528 11 1 
298 1.20786 8.64885 -0.0013188 -0.00165129 8.64893 5.16213 11 1 
300 1.20049 8.58061 -0.00125142 -0.00160066 8.5807 -8.15508 11 1 
302 1.19818 8.55427 -0.00131714 -0.00164683 8.55431 -12.3158 11 1 
304 1.1988 8.4398 -0.00142242 -0.00174387 8.43991 -11.2052 11 1 
306 1.19955 8.31106 -0.00140231 -0.00173388 8.31123 -9.84404 11 1 
308 1.20012 8.19353 -0.00145937 -0.00177941 8.19371 -8.82309 11 1 
310 1.20048 8.10689 -0.00146455 -0.00176795 8.10702 -8.17038 11 1 
312 1.20095 8.01305 -0.00151638 -0.00184641 8.01307 -7.31759 11 1 
314 1.20141 7.94417 -0.00158058 -0.001912 7.94419 -6.48884 11 1 
316 1.20175 7.89518 -0.00163019 -0.00194309 7.89519 -5.86543 11 1 
318 1.20207 7.83049 -0.00164714 -0.00197531 7.8305 -5.2985 11 1 
320 1.20234 7.79038 -0.00161841 -0.00194558 7.79038 -4.80564 11 1 
320 1.20234 7.79038 -0.00161841 -0.00194558 7.79038 -4.80564 15 1 
322 1.2026 7.76411 -0.00169388 -0.00202595 7.76411 -4.34134 15 1 
324 1.20285 7.72258 -0.00175863 -0.00209631 7.72258 -3.89069 15 1 
326 1.20304 7.69228 -0.00176667 -0.00208559 7.69229 -3.54338 15 1 
328 1.20318 7.66483 -0.00176014 -0.0020803 7.66484 -3.28081 15 1 
330 1.20328 7.63625 -0.00180778 -0.00214648 7.63626 -3.10797 15 1 
332 1.20346 7.62272 -0.0018373 -0.00217344 7.62273 -2.78275 15 1 
334 1.20363 7.59946 -0.0018315 -0.00216265 7.59947 -2.47108 15 1 
336 1.2036 7.56898 -0.0018455 -0.0021704 7.56899 -2.52418 15 1 
338 1.20365 7.55604 -0.00186243 -0.00218829 7.55605 -2.4316 15 1 
340 1.20385 7.54681 -0.00190894 -0.0022541 7.54681 -2.07697 15 1 
342 1.20393 7.5376 -0.00194984 -0.0022804 7.5376 -1.93781 15 1 
344 1.20392 7.52857 -0.00189803 -0.00220996 7.52858 -1.9437 15 1 
346 1.20393 7.51498 -0.0018623 -0.00219577 7.51498 -1.94183 15 1 
348 1.20403 7.51406 -0.00193512 -0.00229203 7.51406 -1.75104 15 1 
350 1.20417 7.51692 -0.00198472 -0.002324 7.51692 -1.50546 15 1 
352 1.20413 7.5096 -0.00194591 -0.00227279 7.5096 -1.57131 15 1 
354 1.20413 7.51767 -0.00192578 -0.00227927 7.51768 -1.57703 15 1 
356 1.20424 7.54331 -0.00201531 -0.002379 7.54333 -1.37298 15 1 
358 1.20428 7.56256 -0.00204384 -0.00237401 7.56257 -1.29329 15 1 
360 1.20432 7.56639 -0.0019836 -0.00229066 7.56639 -1.23458 15 1 
362 1.20436 7.55973 -0.00194455 -0.00228636 7.55973 -1.16328 15 1 
364 1.20437 7.56414 -0.00204143 -0.00239741 7.56415 -1.13881 15 1 
366 1.2044 7.59054 -0.00212603 -0.00244648 7.59055 -1.08096 15 1 
368 1.20445 7.62213 -0.00203683 -0.00236153 7.62214 -0.98925 15 1 
370 1.20451 7.63664 -0.00187836 -0.00223695 7.63664 -0.878597 15 1 
372 1.20453 7.62576 -0.0018413 -0.00217943 7.62577 -0.852655 15 1 
374 1.20453 7.61405 -0.00194265 -0.00226159 7.61405 -0.845596 15 1 
376 1.20458 7.62708 -0.00195788 -0.00230618 7.62709 -0.752285 15 1 
378 1.20463 7.65441 -0.001883 -0.00223601 7.65442 -0.676395 15 1 
380 1.20468 7.68015 -0.00182445 -0.00216079 7.68015 -0.57417 15 1 
382 1.20473 7.69421 -0.00184755 -0.00218288 7.69421 -0.492758 15 1 
384 1.20473 7.69833 -0.0018668 -0.00221726 7.69833 -0.492489 15 1 
384 1.20473 7.69833 -0.0018668 -0.00221726 7.69833 -0.492489 16 1 
386 1.20478 7.71994 -0.00187606 -0.00223572 7.71995 -0.389267 16 1 
388 1.20488 7.77635 -0.00192243 -0.00226279 7.77639 -0.218884 16 1 
390 1.20498 7.86661 -0.00198719 -0.00232498 7.86669 -0.0396634 16 1 
392 1.2051 7.98955 -0.00202746 -0.00240271 7.98969 0.188572 16 1 
394 1.20519 8.13765 -0.00206228 -0.00245165 8.13784 0.347149 16 1 
396 1.20526 8.30346 -0.0020961 -0.0024506 8.30369 0.464951 16 1 
398 1.20533 8.47979 -0.00205308 -0.00240254 8.48002 0.596075 16 1 
400 1.20538 8.65587 -0.00196949 -0.00236019 8.65609 0.695302 16 1 
402 1.20542 8.82207 -0.00195173 -0.00234134 8.82225 0.750558 16 1 
404 1.2054 8.97292 -0.00198396 -0.00235428 8.97306 0.723994 16 1 
406 1.20539 9.10935 -0.00188605 -0.00228079 9.10947 0.708256 16 1 
408 1.2054 9.23017 -0.00177187 -0.00216669 9.23026 0.726708 16 1 
410 1.20537 9.33314 -0.00176244 -0.00214263 9.3332 0.669969 16 1 
412 1.20533 9.41916 -0.00176437 -0.00217497 9.41921 0.598444 16 1 
414 1.2053 9.4913 -0.00169902 -0.00211208 9.49133 0.541523 16 1 
416 1.20526 9.55311 -0.00162169 -0.00200936 9.55313 0.478051 16 1 
416 1.20526 9.55311 -0.00162169 -0.00200936 9.55313 0.478051 16 1 
418 1.20523 9.60538 -0.00158523 -0.00200044 9.6054 0.422152 16 1 
420 1.20521 9.65077 -0.00156013 -0.00201429 9.65079 0.378792 16 1 
422 1.20522 9.68988 -0.00155012 -0.00200238 9.68988 0.396788 16 1 
424 1.20522 9.72244 -0.00155748 -0.00201368 9.72245 0.400904 16 1 
426 1.20517 9.74929 -0.00156667 -0.00206801 9.74929 0.299066 16 1 
428 1.20513 9.77234 -0.00154293 -0.00204727 9.77234 0.22995 16 1 
430 1.20514 9.79521 -0.00150637 -0.00196606 9.79521 0.251584 16 1 
432 1.20513 9.8157 -0.00150329 -0.00197716 9.8157 0.234888 16 1 
434 1.20511 9.83189 -0.001534 -0.00201342 9.83189 0.200524 16 1 
436 1.20511 9.84587 -0.00160017 -0.00204531 9.84587 0.204776 16 1 
438 1.20511 9.86069 -0.001643 -0.00208388 9.86069 0.205818 16 1 
440 1.20511 9.87428 -0.00161978 -0.00205135 9.87428 0.19026 16 1 
442 1.2051 9.88484 -0.0016105 -0.00203481 9.88484 0.181586 16 1 
444 1.2051 9.89528 -0.00158981 -0.00203531 9.89528 0.173499 16 1 
446 1.20507 9.90343 -0.00161898 -0.00205427 9.90344 0.131158 16 1 
448 1.20508 9.91259 -0.00163221 -0.00204711 9.91259 0.143789 16 1 
448 1.20508 9.91259 -0.00163221 -0.00204711 9.91259 0.143789 17 1 
450 1.20509 9.92092 -0.00160525 -0.00203692 9.92092 0.16313 17 1 
452 1.20509 9.92713 -0.00159531 -0.00204381 9.92713 0.158812 17 1 
454 1.2051 9.93435 -0.00163417 -0.0020715 9.93435 0.185213 17 1 
456 1.20507 9.93755 -0.0016548 -0.00207119 9.93756 0.12765 17 1 
458 1.20506 9.94225 -0.00157401 -0.002005 9.94225 0.0995426 17 1 
460 1.20508 9.94861 -0.00153313 -0.0019905 9.94862 0.140221 17 1 
462 1.20508 9.95316 -0.00156156 -0.00199475 9.95316 0.152295 17 1 
464 1.20508 9.95665 -0.0016068 -0.00201475 9.95665 0.151883 17 1 
466 1.20506 9.9569 -0.00157759 -0.00201035 9.9569 0.102418 17 1 
468 1.20506 9.96133 -0.00154145 -0.00198499 9.96133 0.114478 17 1 
470 1.20508 9.96453 -0.00151918 -0.00194424 9.96453 0.137743 17 1 
472 1.20507 9.9674 -0.00152829 -0.00193189 9.9674 0.13233 17 1 
474 1.20507 9.97036 -0.00155977 -0.00196393 9.97036 0.1343 17 1 
476 1.20505 9.96922 -0.00154243 -0.00197116 9.96922 0.0926761 17 1 
478 1.20505 9.97382 -0.00150907 -0.00191862 9.97382 0.0993095 17 1 
480 1.20506 9.9741 -0.0015055 -0.00188033 9.9741 0.112582 17 1 
480 1.20506 9.9741 -0.0015055 -0.00188033 9.9741 0.112582 17 1 
482 1.20508 9.97624 -0.00151823 -0.00191204 9.97624 0.147061 17 1 
484 1.20509 9.98001 -0.0014833 -0.00189239 9.98002 0.153976 17 1 
486 1.20505 9.97692 -0.00149262 -0.00186386 9.97692 0.0834002 17 1 
488 1.20505 9.98215 -0.00151718 -0.00186283 9.98215 0.0971112 17 1 
490 1.20503 9.98026 -0.00147591 -0.00185201 9.98026 0.0555358 17 1 
492 1.20506 9.98198 -0.00145342 -0.00183624 9.98198 0.116082 17 1 
494 1.20511 9.9877 -0.00148502 -0.0018169 9.9877 0.202709 17 1 
496 1.20503 9.98137 -0.00146856 -0.00179436 9.98137 0.0534163 17 1 
498 1.20503 9.98707 -0.00142833 -0.00178619 9.98707 0.0587303 17 1 
500 1.20507 9.98693 -0.00144803 -0.00178063 9.98693 0.123853 17 1 
502 1.20507 9.98658 -0.00146219 -0.00176072 9.98658 0.129499 17 1 
504 1.20507 9.99191 -0.00144155 -0.00174678 9.99191 0.128684 17 1 
506 1.20504 9.98486 -0.00140812 -0.00172629 9.98486 0.0680648 17 1 
508 1.20507 9.99143 -0.00141501 -0.00171607 9.99143 0.12766 17 1 
510 1.20503 9.99061 -0.00141736 -0.00168751 9.99061 0.0622471 17 1 
512 1.20504 9.98901 -0.00137447 -0.0016586 9.98901 0.0756262 17 1 
512 1.20504 9.98901 -0.00137447 -0.0016586 9.98901 0.0756262 25 1 
514 1.20511 9.9968 -0.00137538 -0.00166506 9.9968 0.202958 25 1 
516 1.20503 9.98864 -0.00139844 -0.00165458 9.98864 0.0581562 25 1 
518 1.20505 9.99391 -0.00139817 -0.00165155 9.99391 0.09479 25 1 
520 1.20507 9.99336 -0.00137613 -0.00163075 9.99336 0.124108 25 1 
522 1.20504 9.99138 -0.00135291 -0.00158682 9.99138 0.0651749 25 1 
524 1.20507 9.99843 -0.00131989 -0.00156068 9.99843 0.134285 25 1 
526 1.20506 9.99172 -0.00130435 -0.00154164 9.99172 0.107618 25 1 
528 1.20508 9.99764 -0.00134076 -0.00154437 9.99764 0.136362 25 1 
530 1.20502 9.99428 -0.00133808 -0.00154394 9.99428 0.0353385 25 1 
532 1.20505 9.99392 -0.00130066 -0.00151516 9.99392 0.0877229 25 1 
534 1.20513 10.0013 -0.00129815 -0.00149257 10.0013 0.234061 25 1 
536 1.20504 9.99291 -0.00131968 -0.0015091 9.99291 0.0688564 25 1 
538 1.20505 9.99895 -0.00129848 -0.00149259 9.99895 0.0869162 25 1 
540 1.20504 9.9954 -0.00124816 -0.00142665 9.9954 0.0717064 25 1 
542 1.20505 9.99682 -0.0012241 -0.00139018 9.99682 0.0990113 25 1 
544 1.20509 10.0016 -0.00123835 -0.00140356 10.0016 0.165519 25 1 
544 1.20509 10.0016 -0.00123835 -0.00140356 10.0016 0.165519 25 1 
546 1.20506 9.99455 -0.00126374 -0.00142672 9.99455 0.104283 25 1 
548 1.2051 10.0022 -0.00125881 -0.0014105 10.0022 0.181178 25 1 
550 1.20502 9.99506 -0.00121407 -0.00135638 9.99506 0.038875 25 1 
552 1.20503 9.99934 -0.00120247 -0.00134755 9.99934 0.0615946 25 1 
554 1.20508 10.0005 -0.0012137 -0.00135111 10.0005 0.141762 25 1 
556 1.20509 9.99708 -0.0011921 -0.00131901 9.99708 0.162936 25 1 
558 1.20511 10.003 -0.00117052 -0.00130105 10.003 0.190678 25 1 
560 1.205 9.99456 -0.00116709 -0.00129504 9.99456 0.00702956 25 1 
562 1.20507 10.0033 -0.00117377 -0.00128687 10.0033 0.121115 25 1 
564 1.20509 9.99957 -0.00116357 -0.00127238 9.99957 0.155217 25 1 
566 1.20509 10.0008 -0.00113265 -0.00124903 10.0008 0.168065 25 1 
568 1.20506 10.0008 -0.00112459 -0.00123544 10.0008 0.113885 25 1 
570 1.20503 9.99574 -0.00113225 -0.00122874 9.99574 0.0510047 25 1 
572 1.2051 10.005 -0.00111536 -0.00121454 10.005 0.189356 25 1 
574 1.20506 9.99798 -0.00109633 -0.00119423 9.99798 0.101223 25 1 
576 1.2051 10.0047 -0.00108515 -0.00117325 10.0047 0.185071 25 1 
576 1.2051 10.0047 -0.00108515 -0.00117325 10.0047 0.185071 26 1 
578 1.20507 9.99822 -0.00106605 -0.001158 9.99822 0.122985 26 1 
580 1.20506 10.0011 -0.00105881 -0.00115122 10.0011 0.1095 26 1 
582 1.20506 10.0018 -0.00107076 -0.00114626 10.0018 0.108204 26 1 
584 1.20509 10.0008 -0.00106749 -0.00113756 10.0008 0.168343 26 1 
586 1.20512 10.0051 -0.00103745 -0.0011213 10.0051 0.211123 26 1 
588 1.20503 9.99635 -0.0010056 -0.00108209 9.99635 0.0490422 26 1 
590 1.20509 10.0044 -0.00100015 -0.00106701 10.0044 0.159388 26 1 
592 1.20507 9.99891 -0.00100831 -0.00108526 9.99891 0.134537 26 1 
594 1.20512 10.0064 -0.00100737 -0.00107535 10.0064 0.209984 26 1 
596 1.20506 9.99993 -0.00098033 -0.00103252 9.99993 0.10264 26 1 
598 1.20508 10.0031 -0.000930929 -0.000996796 10.0031 0.147147 26 1 
600 1.20505 9.99971 -0.000934794 -0.0010021 9.99971 0.0820831 26 1 
602 1.20508 10.002 -0.000974736 -0.00102691 10.002 0.140431 26 1 
604 1.20515 10.0041 -0.000969833 -0.00102882 10.0041 0.276236 26 1 
606 1.20512 10.0028 -0.000931995 -0.000987646 10.0028 0.21734 26 1 
608 1.20501 10.002 -0.000877713 -0.000921557 10.002 0.0172711 26 1 
608 1.20501 10.002 -0.000877713 -0.000921557 10.002 0.0172711 26 1 
610 1.20501 9.99993 -0.000835804 -0.000887816 9.99993 0.0235699 26 1 
612 1.20516 10.0055 -0.000858888 -0.000912788 10.0055 0.29421 26 1 
614 1.20512 10.0019 -0.000909263 -0.000952376 10.0019 0.222381 26 1 
616 1.20504 10.0019 -0.000908056 -0.000950588 10.0019 0.0716795 26 1 
618 1.20507 10.0006 -0.000873451 -0.000920018 10.0006 0.122382 26 1 
620 1.20517 10.0057 -0.000813441 -0.000853446 10.0057 0.299216 26 1 
622 1.20506 10.0021 -0.00077256 -0.000806578 10.0021 0.104347 26 1 
624 1.20499 10.0015 -0.000800708 -0.000841685 10.0015 -0.0179415 26 1 
626 1.20513 10.0031 -0.000816685 -0.000856166 10.0031 0.232378 26 1 
628 1.20521 10.0054 -0.000822814 -0.000852876 10.0054 0.387212 26 1 
630 1.20504 10.0002 -0.000799689 -0.000836531 10.0002 0.0647308 26 1 
632 1.20498 10.0005 -0.000734852 -0.000767311 10.0005 -0.0311257 26 1 
634 1.20516 10.0052 -0.000716996 -0.00073719 10.0052 0.291909 26 1 
636 1.20519 10.006 -0.000712968 -0.000746554 10.006 0.33881 26 1 
638 1.20499 10.0006 -0.000733838 -0.000769598 10.0006 -0.0105036 26 1 
640 1.20501 10.0005 -0.000753047 -0.000774848 10.0005 0.00957634 26 1 
642 1.20523 10.0057 -0.0007098 -0.000735402 10.0057 0.412805 26 1 
644 1.2052 10.0053 -0.000685067 -0.000710148 10.0053 0.355494 26 1 
646 1.20494 9.9995 -0.000654547 -0.000670122 9.9995 -0.116666 26 1 
648 1.20499 10.001 -0.000638426 -0.000658637 10.001 -0.0177754 26 1 
650 1.20528 10.0077 -0.000663199 -0.000688664 10.0077 0.506955 26 1 
652 1.20523 10.0062 -0.000656756 -0.000674348 10.0062 0.416617 26 1 
654 1.20492 9.9988 -0.000648806 -0.000659647 9.9988 -0.140939 26 1 
656 1.20496 9.99997 -0.000627738 -0.000641692 9.99997 -0.0675148 26 1 
658 1.20528 10.0079 -0.000590033 -0.00060116 10.0079 0.514166 26 1 
660 1.20526 10.0072 -0.00058057 -0.000585621 10.0072 0.461436 26 1 
662 1.20493 9.99914 -0.000586635 -0.000597141 9.99914 -0.119604 26 1 
664 1.20496 10 -0.000597446 -0.000607306 10 -0.0686561 26 1 
666 1.20529 10.0083 -0.000595715 -0.000599395 10.0083 0.528832 26 1 
668 1.20528 10.0082 -0.00056382 -0.000570288 10.0082 0.510271 26 1 
670 1.20496 9.99978 -0.000526765 -0.000531648 9.99978 -0.0776504 26 1 
672 1.20493 9.99911 -0.000522672 -0.000519844 9.99911 -0.117445 26 1 
672 1.20493 9.99911 -0.000522672 -0.000519844 9.99911 -0.117445 27 1 
674 1.20526 10.0076 -0.000535676 -0.000533934 10.0076 0.471092 27 1 
676 1.20534 10.0097 -0.000546281 -0.000549777 10.0097 0.606857 27 1 
678 1.20503 10.0018 -0.000541042 -0.000542633 10.0018 0.0499404 27 1 
680 1.2049 9.99861 -0.000498787 -0.000497739 9.99861 -0.17251 27 1 
682 1.20519 10.0059 -0.000470593 -0.000469985 10.0059 0.346503 27 1 
684 1.20536 10.0102 -0.000479606 -0.000476616 10.0102 0.646798 27 1 
686 1.20511 10.0039 -0.000500106 -0.000493248 10.0039 0.202242 27 1 
688 1.20493 9.99909 -0.000513319 -0.000510342 9.99909 -0.132313 27 1 
690 1.20512 10.0044 -0.000489043 -0.000490767 10.0044 0.214594 27 1 
692 1.20533 10.0099 -0.000443426 -0.000442823 10.0099 0.589823 27 1 
694 1.20519 10.0061 -0.000414594 -0.000411217 10.0061 0.343939 27 1 
696 1.20498 10.0005 -0.000428426 -0.00042024 10.0005 -0.0437366 27 1 
698 1.20509 10.0034 -0.000476681 -0.00046644 10.0034 0.157085 27 1 
700 1.20531 10.0093 -0.000492617 -0.000483937 10.0093 0.567544 27 1 
702 1.20525 10.0078 -0.000444638 -0.00043621 10.0078 0.4497 27 1 
704 1.20502 10.0016 -0.000396112 -0.000390685 10.0016 0.0352884 27 1 
704 1.20502 10.0016 -0.000396112 -0.000390685 10.0016 0.0352884 31 1 
706 1.20502 10.0014 -0.000372871 -0.000366456 10.0014 0.0351107 31 1 
708 1.20526 10.0083 -0.000394534 -0.000383938 10.0083 0.471015 31 1 
710 1.20534 10.0106 -0.000447452 -0.000435206 10.0106 0.623022 31 1 
712 1.20512 10.0044 -0.000444805 -0.000431702 10.0044 0.212621 31 1 
714 1.20497 10.0005 -0.000413604 -0.000402829 10.0005 -0.0576669 31 1 
716 1.20513 10.0049 -0.000373892 -0.000365386 10.0049 0.240173 31 1 
718 1.20533 10.0101 -0.000345765 -0.000335763 10.0101 0.594035 31 1 
720 1.20526 10.0084 -0.000368253 -0.000356002 10.0084 0.470366 31 1 
722 1.20505 10.0025 -0.00038122 -0.000366586 10.0025 0.0932179 31 1 
724 1.20504 10.0024 -0.000376843 -0.000361877 10.0024 0.0737241 31 1 
726 1.20524 10.0082 -0.000364648 -0.000354012 10.0082 0.438615 31 1 
728 1.20533 10.0102 -0.000337707 -0.000329854 10.0102 0.590974 31 1 
730 1.20517 10.0059 -0.000330036 -0.000323075 10.0059 0.313475 31 1 
732 1.20504 10.0022 -0.000327174 -0.00031812 10.0022 0.0743826 31 1 
734 1.20513 10.0047 -0.00030859 -0.000294591 10.0047 0.235917 31 1 
736 1.2053 10.0099 -0.000307188 -0.000293159 10.0099 0.545612 31 1 
738 1.20529 10.0097 -0.000315945 -0.000305366 10.0097 0.531605 31 1 
740 1.20512 10.0047 -0.000312197 -0.000306402 10.0047 0.219307 31 1 
742 1.20505 10.0026 -0.000312646 -0.000312185 10.0026 0.082891 31 1 
744 1.20518 10.0062 -0.000274882 -0.000275667 10.0062 0.317817 31 1 
746 1.20532 10.0103 -0.000234234 -0.000232855 10.0103 0.581819 31 1 
748 1.20528 10.009 -0.000245505 -0.000243834 10.009 0.496792 31 1 
750 1.20512 10.0043 -0.000263797 -0.000263648 10.0043 0.211976 31 1 
752 1.20508 10.0032 -0.000290567 -0.000292393 10.0032 0.140906 31 1 
752 1.20508 10.0032 -0.000290567 -0.000292393 10.0032 0.140906 31 1 
754 1.20521 10.0068 -0.000284764 -0.000290416 10.0068 0.375961 31 1 
756 1.20533 10.0098 -0.000228443 -0.000238777 10.0098 0.605037 31 1 
758 1.20528 10.0079 -0.0001903 -0.000203014 10.0079 0.513667 31 1 
760 1.20513 10.0031 -0.000193626 -0.000207376 10.0031 0.241583 31 1 
762 1.20509 10.0019 -0.000225611 -0.00024182 10.0019 0.158367 31 1 
764 1.20519 10.006 -0.000252514 -0.000268522 10.006 0.351038 31 1 
766 1.20531 10.0099 -0.000221155 -0.000236393 10.0099 0.558622 31 1 
768 1.20528 10.0087 -0.000156472 -0.000172758 10.0087 0.49811 31 1 
770 1.20514 10.0039 -0.000126722 -0.000143522 10.0039 0.245265 31 1 
772 1.20508 10.001 -0.000163781 -0.000180267 10.001 0.139338 31 1 
774 1.20516 10.0035 -0.000259766 -0.00027602 10.0035 0.296664 31 1 
776 1.20528 10.0081 -0.00034186 -0.000357348 10.0081 0.500153 31 1 
778 1.20527 10.0094 -0.000325317 -0.000337378 10.0094 0.48476 31 1 
780 1.20512 10.0058 -0.000219591 -0.000227144 10.0058 0.225939 31 1 
782 1.20502 10.0013 -0.000104828 -0.000104106 10.0013 0.0314546 31 1 
784 1.20507 10.0017 -8.05044e-05 -7.34917e-05 10.0017 0.127588 31 1 
786 1.20522 10.0073 -0.000188366 -0.000179464 10.0073 0.390665 31 1 
788 1.20531 10.0119 -0.000326312 -0.000318898 10.0119 0.563372 31 1 
790 1.20526 10.0098 -0.000397286 -0.000396236 10.0098 0.469449 31 1 
792 1.20509 10.0028 -0.000317859 -0.00032128 10.0028 0.154511 31 1 
794 1.20493 9.99811 -0.000123112 -0.000130008 9.99811 -0.124726 31 1 
796 1.20494 10.0002 1.10676e-05 3.42752e-06 10.0002 -0.108596 31 1 
798 1.20513 10.0065 5.92465e-05 5.67783e-05 10.0065 0.243117 31 1 
800 1.20527 10.01 7.39756e-05 7.50383e-05 10.01 0.489431 31 1 
