124.979;r ;Density                 ;Velocity u              ;Velocity v              ;Velocity w              ;|Velocity|              ;Pressure                ;Distribution            ;Levels                  ;
0 1.20898 9.99939 -9.081e-05 -3.78977e-05 9.99939 7.18184 1 1 
2 1.209 9.99846 -0.000125438 -7.38559e-05 9.99846 7.22946 1 1 
4 1.209 9.99807 -0.000317721 -0.000226978 9.99807 7.23159 1 1 
6 1.209 9.99839 -0.000431364 -0.000323066 9.99839 7.21719 1 1 
8 1.20901 9.99889 -0.000564295 -0.000434354 9.99889 7.23545 1 1 
10 1.209 9.99927 -0.000694976 -0.000529097 9.99927 7.22485 1 1 
12 1.209 9.99879 -0.000819971 -0.000633045 9.99879 7.23336 1 1 
14 1.209 9.99968 -0.000975896 -0.000751281 9.99968 7.22549 1 1 
16 1.20901 10 -0.0010834 -0.00083459 10 7.24484 1 1 
18 1.20901 9.99948 -0.00121331 -0.000936626 9.99948 7.24211 1 1 
20 1.20899 9.99992 -0.00139206 -0.00107127 9.99992 7.21396 1 1 
22 1.20902 10.0001 -0.00152323 -0.0011829 10.0001 7.25437 1 1 
24 1.20902 10.0007 -0.00167118 -0.0013101 10.0007 7.25758 1 1 
26 1.20901 10.0007 -0.00180466 -0.00139867 10.0007 7.24196 1 1 
28 1.20901 10.0003 -0.00195451 -0.00150455 10.0003 7.2486 1 1 
30 1.20901 10.0006 -0.00207206 -0.00160811 10.0006 7.24365 1 1 
32 1.20902 10.0001 -0.0022157 -0.00172279 10.0001 7.25736 1 1 
32 1.20902 10.0001 -0.0022157 -0.00172279 10.0001 7.25736 1 1 
34 1.20901 9.99987 -0.00230311 -0.00178605 9.99987 7.25011 1 1 
36 1.20901 9.99916 -0.00245132 -0.00190488 9.99916 7.25018 1 1 
38 1.20901 9.99969 -0.00259619 -0.00202726 9.99969 7.23844 1 1 
40 1.20902 9.99987 -0.00273299 -0.00214735 9.99987 7.25563 1 1 
42 1.20902 9.99961 -0.00289531 -0.00226386 9.99961 7.26772 1 1 
44 1.20901 9.99937 -0.00302175 -0.00232426 9.99937 7.2516 1 1 
46 1.20902 9.99864 -0.00317023 -0.00244402 9.99864 7.26011 1 1 
48 1.20901 9.9991 -0.00332364 -0.00258572 9.9991 7.25094 1 1 
50 1.20902 9.9998 -0.00342622 -0.00262511 9.9998 7.26478 1 1 
52 1.20902 9.99917 -0.00354404 -0.00271304 9.99917 7.26906 1 1 
54 1.20902 9.99843 -0.00369063 -0.00282971 9.99843 7.25794 1 1 
56 1.20902 9.99935 -0.0038144 -0.00291786 9.99935 7.26905 1 1 
58 1.20903 9.99946 -0.00399178 -0.00307227 9.99946 7.27905 1 1 
60 1.20902 9.99939 -0.0041166 -0.00315745 9.99939 7.26491 1 1 
62 1.20903 9.99897 -0.00426369 -0.00327958 9.99897 7.27419 1 1 
64 1.20903 9.99917 -0.00439596 -0.00337124 9.99917 7.28003 1 1 
64 1.20903 9.99917 -0.00439596 -0.00337124 9.99917 7.28003 2 1 
66 1.20904 9.99958 -0.00453367 -0.00347248 9.99958 7.29657 2 1 
68 1.20903 10.0004 -0.00468964 -0.00358081 10.0004 7.27566 2 1 
70 1.20904 9.9998 -0.00483684 -0.00370295 9.9998 7.29019 2 1 
72 1.20904 9.99934 -0.0049836 -0.00382455 9.99934 7.30238 2 1 
74 1.20903 9.99943 -0.00511764 -0.00391235 9.99943 7.28564 2 1 
76 1.20905 9.99901 -0.00524385 -0.00403093 9.99902 7.3227 2 1 
78 1.20904 10.0003 -0.00537195 -0.00412088 10.0003 7.29996 2 1 
80 1.20904 10.0001 -0.00552617 -0.00424216 10.0001 7.30513 2 1 
82 1.20905 9.99981 -0.00567528 -0.00437473 9.99982 7.31868 2 1 
84 1.20905 9.99983 -0.00580185 -0.00443259 9.99983 7.32225 2 1 
86 1.20906 9.99942 -0.00593084 -0.00450786 9.99942 7.3373 2 1 
88 1.20906 9.99969 -0.00611988 -0.00466998 9.99969 7.32503 2 1 
90 1.20906 9.99978 -0.00623187 -0.00475525 9.99978 7.33125 2 1 
92 1.20906 9.99922 -0.00637779 -0.00486218 9.99922 7.33798 2 1 
94 1.20907 9.99883 -0.00652973 -0.00497737 9.99883 7.34761 2 1 
96 1.20907 9.99909 -0.00666019 -0.00506292 9.99909 7.35564 2 1 
96 1.20907 9.99909 -0.00666019 -0.00506292 9.99909 7.35564 2 1 
98 1.20907 9.99963 -0.00684977 -0.00518498 9.99964 7.35358 2 1 
100 1.20907 9.99986 -0.00696253 -0.00525106 9.99986 7.35812 2 1 
102 1.20907 9.99971 -0.00711322 -0.00538265 9.99972 7.35326 2 1 
104 1.20908 9.99874 -0.00731636 -0.00554698 9.99874 7.37636 2 1 
106 1.20908 9.99868 -0.00741678 -0.00559453 9.99869 7.37848 2 1 
108 1.20909 9.99795 -0.0075825 -0.0057189 9.99795 7.38806 2 1 
110 1.20908 9.99796 -0.00773344 -0.00583319 9.99796 7.37774 2 1 
112 1.20908 9.99849 -0.00789238 -0.00594409 9.9985 7.36951 2 1 
114 1.2091 9.99721 -0.00804548 -0.00603963 9.99721 7.40678 2 1 
116 1.2091 9.9982 -0.00819855 -0.00615252 9.99821 7.40222 2 1 
118 1.2091 9.99893 -0.00835549 -0.00626869 9.99894 7.41287 2 1 
120 1.20912 9.99791 -0.00851465 -0.00636853 9.99792 7.43619 2 1 
122 1.2091 9.99792 -0.00868144 -0.00649792 9.99792 7.40438 2 1 
124 1.2091 9.99693 -0.00882469 -0.00661395 9.99694 7.40943 2 1 
126 1.20913 9.99574 -0.00903477 -0.00677133 9.99574 7.46709 2 1 
128 1.20911 9.9967 -0.00917655 -0.00684328 9.99671 7.42872 2 1 
128 1.20911 9.9967 -0.00917655 -0.00684328 9.99671 7.42872 10 1 
130 1.20912 9.99671 -0.00935546 -0.00699825 9.99672 7.44927 10 1 
132 1.20914 9.9974 -0.00950782 -0.00710359 9.99741 7.47088 10 1 
134 1.20913 9.99746 -0.00968251 -0.00721974 9.99747 7.46093 10 1 
136 1.20915 9.99577 -0.0098466 -0.00733511 9.99578 7.48771 10 1 
138 1.20914 9.99528 -0.0100074 -0.00745257 9.99529 7.46984 10 1 
140 1.20915 9.99567 -0.0102028 -0.0076037 9.99568 7.49161 10 1 
142 1.20915 9.99603 -0.0103733 -0.00767702 9.99604 7.49777 10 1 
144 1.20915 9.99597 -0.0105492 -0.00783746 9.99598 7.50395 10 1 
146 1.20917 9.99629 -0.0107204 -0.00796697 9.9963 7.53716 10 1 
148 1.20917 9.9951 -0.0109126 -0.00808675 9.99511 7.53766 10 1 
150 1.20916 9.99432 -0.0110692 -0.00821016 9.99433 7.51311 10 1 
152 1.20917 9.99445 -0.01124 -0.00833171 9.99446 7.5394 10 1 
154 1.20919 9.99433 -0.0113813 -0.00840477 9.99434 7.56683 10 1 
156 1.20919 9.99473 -0.0115887 -0.00855775 9.99474 7.56051 10 1 
158 1.2092 9.99439 -0.0117605 -0.0086851 9.9944 7.58197 10 1 
160 1.20921 9.993 -0.0118897 -0.00877981 9.99301 7.59906 10 1 
160 1.20921 9.993 -0.0118897 -0.00877981 9.99301 7.59906 10 1 
162 1.20919 9.99318 -0.0120897 -0.00895243 9.99319 7.56766 10 1 
164 1.2092 9.99265 -0.0122801 -0.00904215 9.99266 7.58783 10 1 
166 1.20924 9.99071 -0.0124776 -0.0091703 9.99072 7.65965 10 1 
168 1.20921 9.99244 -0.0126753 -0.00932672 9.99245 7.60828 10 1 
170 1.20923 9.99138 -0.0128626 -0.00945539 9.99139 7.63564 10 1 
172 1.20924 9.99081 -0.0130329 -0.00955312 9.99082 7.6605 10 1 
174 1.20922 9.99243 -0.0131629 -0.00964066 9.99244 7.62869 10 1 
176 1.20927 9.99051 -0.0133886 -0.00976969 9.99052 7.71148 10 1 
178 1.20926 9.99011 -0.0135439 -0.00988621 9.99013 7.6961 10 1 
180 1.20926 9.989 -0.0137057 -0.0100266 9.98901 7.6965 10 1 
182 1.20927 9.98675 -0.0139125 -0.0101633 9.98676 7.7074 10 1 
184 1.20925 9.98602 -0.0141383 -0.0103342 9.98603 7.68232 10 1 
186 1.2093 9.98707 -0.0143224 -0.0104394 9.98708 7.76385 10 1 
188 1.20932 9.98749 -0.0144594 -0.0104935 9.9875 7.79536 10 1 
190 1.2093 9.98686 -0.0146994 -0.010654 9.98687 7.77137 10 1 
192 1.2093 9.98673 -0.0147713 -0.0106792 9.98675 7.77212 10 1 
194 1.20932 9.98381 -0.0150457 -0.0108782 9.98383 7.80776 10 1 
196 1.20933 9.98143 -0.0152944 -0.0110578 9.98145 7.82935 10 1 
198 1.20934 9.98172 -0.0153832 -0.0110518 9.98173 7.83809 10 1 
200 1.20938 9.98068 -0.0156809 -0.011292 9.9807 7.90407 10 1 
202 1.20937 9.98026 -0.0157752 -0.0113696 9.98028 7.90144 10 1 
204 1.20934 9.98089 -0.0158833 -0.0113707 9.98091 7.84419 10 1 
206 1.2094 9.97791 -0.0162133 -0.0116172 9.97793 7.95375 10 1 
208 1.20944 9.97716 -0.0164499 -0.0117369 9.97718 8.01892 10 1 
210 1.2094 9.97922 -0.0165627 -0.0117613 9.97925 7.95321 10 1 
212 1.20947 9.97386 -0.0167442 -0.0119271 9.97388 8.07039 10 1 
214 1.20945 9.97007 -0.0168943 -0.0120012 9.97009 8.044 10 1 
216 1.20943 9.96745 -0.0171576 -0.0121405 9.96748 8.00464 10 1 
218 1.2095 9.96256 -0.0174799 -0.0123589 9.96258 8.13494 10 1 
220 1.20951 9.96653 -0.0176382 -0.0124969 9.96655 8.1429 10 1 
222 1.20955 9.96799 -0.0177659 -0.0125568 9.96802 8.21191 10 1 
224 1.20956 9.96388 -0.0179117 -0.012527 9.96391 8.23585 10 1 
224 1.20956 9.96388 -0.0179117 -0.012527 9.96391 8.23585 10 1 
226 1.20958 9.96091 -0.018133 -0.012662 9.96094 8.28138 10 1 
228 1.20961 9.95339 -0.0183728 -0.0128706 9.95342 8.33441 10 1 
230 1.20962 9.94681 -0.0186509 -0.0130843 9.94683 8.33662 10 1 
232 1.20963 9.94769 -0.0188481 -0.013185 9.94772 8.3676 10 1 
234 1.20968 9.94636 -0.0190089 -0.0131888 9.94639 8.46145 10 1 
236 1.20978 9.93956 -0.019213 -0.0133333 9.93959 8.62641 10 1 
238 1.20972 9.93868 -0.0193839 -0.0134441 9.93871 8.52902 10 1 
240 1.20983 9.92942 -0.0197728 -0.0137352 9.92945 8.71516 10 1 
242 1.20986 9.92236 -0.0199895 -0.0138786 9.92239 8.77928 10 1 
244 1.2098 9.92251 -0.0200729 -0.0139062 9.92254 8.67455 10 1 
246 1.20999 9.91302 -0.0203207 -0.0140541 9.91305 9.01417 10 1 
248 1.21002 9.90606 -0.0204632 -0.0140626 9.90609 9.07609 10 1 
250 1.21003 9.89676 -0.0207259 -0.0142287 9.8968 9.08848 10 1 
252 1.21009 9.88769 -0.0210852 -0.0145054 9.88772 9.20089 10 1 
254 1.2102 9.87833 -0.0211999 -0.0145118 9.87837 9.3881 10 1 
256 1.21027 9.86818 -0.0213855 -0.0146382 9.86821 9.51698 10 1 
256 1.21027 9.86818 -0.0213855 -0.0146382 9.86821 9.51698 11 1 
258 1.21033 9.85535 -0.0216514 -0.0148386 9.85538 9.62788 11 1 
260 1.2105 9.84149 -0.0218607 -0.0149525 9.84152 9.92705 11 1 
262 1.2106 9.82525 -0.0222012 -0.0151674 9.82529 10.1105 11 1 
264 1.2106 9.80821 -0.0223593 -0.0152091 9.80825 10.1116 11 1 
266 1.21077 9.79245 -0.0225314 -0.0153243 9.79249 10.4294 11 1 
268 1.21114 9.76208 -0.022806 -0.015522 9.76213 11.0821 11 1 
270 1.21108 9.74152 -0.0230994 -0.0156829 9.74157 10.9774 11 1 
272 1.21125 9.7112 -0.0232189 -0.0156994 9.71125 11.2891 11 1 
274 1.21172 9.66892 -0.0234367 -0.0158618 9.66897 12.1375 11 1 
276 1.21172 9.6414 -0.0236859 -0.0159961 9.64145 12.1468 11 1 
278 1.21202 9.5987 -0.0239387 -0.0161349 9.59874 12.6888 11 1 
280 1.21259 9.5544 -0.0241527 -0.0162603 9.55446 13.7165 11 1 
282 1.21297 9.49501 -0.0242567 -0.0163087 9.49514 14.4002 11 1 
284 1.21325 9.40648 -0.0243327 -0.0163918 9.40668 14.8952 11 1 
286 1.2136 9.31627 -0.0244825 -0.0164648 9.31641 15.5403 11 1 
288 1.21428 9.23142 -0.024718 -0.0165966 9.23148 16.7637 11 1 
288 1.21428 9.23142 -0.024718 -0.0165966 9.23148 16.7637 11 1 
290 1.21509 9.15767 -0.0249005 -0.0166685 9.15774 18.2177 11 1 
292 1.21575 9.05878 -0.0251649 -0.0168318 9.05893 19.422 11 1 
294 1.2163 8.92241 -0.0252271 -0.0168794 8.92271 20.4049 11 1 
296 1.21705 8.78225 -0.0251413 -0.0167883 8.78249 21.7743 11 1 
298 1.21278 8.61161 -0.025172 -0.0168322 8.61174 14.0494 11 1 
300 1.20546 8.54067 -0.0251465 -0.0167968 8.54083 0.830563 11 1 
302 1.20317 8.51158 -0.0254335 -0.0169559 8.51168 -3.30127 11 1 
304 1.2038 8.39561 -0.0256098 -0.0170416 8.39578 -2.17053 11 1 
306 1.20456 8.2652 -0.0256524 -0.0170266 8.26543 -0.788625 11 1 
308 1.20513 8.14543 -0.0256933 -0.0170469 8.14568 0.23306 11 1 
310 1.2055 8.05589 -0.0257152 -0.0170401 8.05609 0.897758 11 1 
312 1.20598 7.95936 -0.0259506 -0.0172025 7.95945 1.77438 11 1 
314 1.20645 7.88794 -0.0263392 -0.0174352 7.88802 2.61432 11 1 
316 1.20681 7.8353 -0.0265844 -0.0175622 7.83537 3.26335 11 1 
318 1.20714 7.76618 -0.0267243 -0.0176389 7.76626 3.85881 11 1 
320 1.20741 7.72235 -0.0268475 -0.0176874 7.72243 4.35133 11 1 
320 1.20741 7.72235 -0.0268475 -0.0176874 7.72243 4.35133 15 1 
322 1.20768 7.69214 -0.0271774 -0.017904 7.69222 4.8323 15 1 
324 1.20794 7.64538 -0.027462 -0.0180886 7.64545 5.30653 15 1 
326 1.20813 7.61095 -0.0274797 -0.0180613 7.61103 5.66162 15 1 
328 1.2083 7.58063 -0.0275323 -0.0180538 7.58071 5.96063 15 1 
330 1.20841 7.5465 -0.0277881 -0.0181969 7.54659 6.16222 15 1 
332 1.20859 7.52496 -0.0280085 -0.0183354 7.52504 6.48897 15 1 
334 1.20879 7.49538 -0.0281249 -0.01841 7.49546 6.83691 15 1 
336 1.20878 7.45971 -0.0283174 -0.0185005 7.4598 6.81933 15 1 
338 1.20883 7.44001 -0.0286052 -0.0186503 7.4401 6.91471 15 1 
340 1.20904 7.42367 -0.0289876 -0.0188954 7.42376 7.29911 15 1 
342 1.20914 7.40569 -0.0292261 -0.0190284 7.40578 7.47135 15 1 
344 1.20913 7.38349 -0.0294557 -0.0191124 7.38358 7.46668 15 1 
346 1.20915 7.35902 -0.0298353 -0.0193401 7.35911 7.49184 15 1 
348 1.20927 7.35506 -0.0303442 -0.0196928 7.35515 7.72065 15 1 
350 1.20942 7.35436 -0.0307269 -0.0199129 7.35446 7.98298 15 1 
352 1.2094 7.33621 -0.0310291 -0.0200407 7.33631 7.94238 15 1 
354 1.20941 7.3256 -0.0313855 -0.0202549 7.32569 7.9605 15 1 
356 1.20951 7.32475 -0.0318859 -0.0206013 7.32485 8.15245 15 1 
358 1.20956 7.32244 -0.0323309 -0.0208443 7.32254 8.24383 15 1 
360 1.20962 7.32328 -0.0326215 -0.0209523 7.32338 8.33891 15 1 
362 1.20966 7.32087 -0.0328943 -0.0210949 7.32098 8.4205 15 1 
364 1.20969 7.31709 -0.0332548 -0.0213149 7.31719 8.46367 15 1 
366 1.20973 7.3179 -0.0336399 -0.0215243 7.31801 8.53794 15 1 
368 1.20977 7.31942 -0.0339373 -0.0216763 7.31953 8.61399 15 1 
370 1.20983 7.3233 -0.0340905 -0.0217398 7.32341 8.72894 15 1 
372 1.20986 7.32356 -0.0343167 -0.0218412 7.32368 8.78561 15 1 
374 1.20987 7.31941 -0.0346394 -0.0220253 7.31953 8.78822 15 1 
376 1.20991 7.32048 -0.0348713 -0.0221428 7.3206 8.87035 15 1 
378 1.20995 7.32208 -0.0350397 -0.022189 7.3222 8.93613 15 1 
380 1.20999 7.32274 -0.0352453 -0.0222595 7.32286 9.00496 15 1 
382 1.21003 7.3236 -0.0354868 -0.0223727 7.32372 9.07945 15 1 
384 1.21003 7.31818 -0.0357218 -0.0224854 7.3183 9.07806 15 1 
384 1.21003 7.31818 -0.0357218 -0.0224854 7.3183 9.07806 16 1 
386 1.21005 7.3143 -0.0359008 -0.022564 7.31442 9.1235 16 1 
388 1.21009 7.31606 -0.0360767 -0.022646 7.31618 9.20258 16 1 
390 1.21012 7.31399 -0.0363326 -0.0227555 7.31412 9.24514 16 1 
392 1.21015 7.30938 -0.0365327 -0.0228434 7.3095 9.29665 16 1 
394 1.21016 7.30378 -0.0367294 -0.0229527 7.3039 9.3146 16 1 
396 1.21016 7.29716 -0.036971 -0.0230676 7.29729 9.3261 16 1 
398 1.21019 7.29394 -0.037185 -0.0231394 7.29407 9.37948 16 1 
400 1.21023 7.29038 -0.0373519 -0.0232146 7.29051 9.43819 16 1 
402 1.21024 7.28309 -0.0375929 -0.0233464 7.28323 9.47181 16 1 
404 1.21024 7.27448 -0.0378463 -0.0234556 7.27462 9.45578 16 1 
406 1.21025 7.26701 -0.0380326 -0.023519 7.26715 9.47893 16 1 
408 1.21029 7.26227 -0.0382367 -0.0235979 7.26241 9.55579 16 1 
410 1.2103 7.2562 -0.0385323 -0.0237562 7.25634 9.57507 16 1 
412 1.2103 7.2475 -0.0388127 -0.0239173 7.24765 9.58068 16 1 
414 1.21033 7.2402 -0.0390278 -0.0240099 7.24035 9.61894 16 1 
416 1.21034 7.2331 -0.0392797 -0.0241242 7.23325 9.65014 16 1 
416 1.21034 7.2331 -0.0392797 -0.0241242 7.23325 9.65014 16 1 
418 1.21036 7.22585 -0.039597 -0.0243096 7.226 9.67378 16 1 
420 1.21037 7.21993 -0.0399149 -0.0244893 7.22008 9.69722 16 1 
422 1.21039 7.21312 -0.0402322 -0.024645 7.21328 9.73852 16 1 
424 1.21041 7.20578 -0.0405461 -0.0248156 7.20594 9.77161 16 1 
426 1.21041 7.19833 -0.0409027 -0.025029 7.19849 9.76978 16 1 
428 1.21042 7.1909 -0.0412885 -0.0252366 7.19106 9.79009 16 1 
430 1.21045 7.18585 -0.0416926 -0.0254422 7.18602 9.83873 16 1 
432 1.21046 7.18051 -0.0421006 -0.0256741 7.18069 9.86881 16 1 
434 1.21047 7.17265 -0.0425168 -0.025917 7.17283 9.87349 16 1 
436 1.21047 7.16559 -0.0429332 -0.0261538 7.16577 9.882 16 1 
438 1.21049 7.16058 -0.0433589 -0.0263949 7.16076 9.91623 16 1 
440 1.21051 7.15636 -0.0437995 -0.0266288 7.15655 9.94587 16 1 
442 1.21052 7.15161 -0.0442761 -0.0268973 7.1518 9.96581 16 1 
444 1.21053 7.14602 -0.0447291 -0.0271868 7.14621 9.98872 16 1 
446 1.21054 7.14132 -0.0451694 -0.0274505 7.14152 9.99933 16 1 
448 1.21055 7.13796 -0.0456586 -0.0277267 7.13816 10.0198 16 1 
448 1.21055 7.13796 -0.0456586 -0.0277267 7.13816 10.0198 17 1 
450 1.21057 7.13511 -0.04614 -0.0280199 7.13531 10.0577 17 1 
452 1.21058 7.13263 -0.0466152 -0.0283335 7.13284 10.0824 17 1 
454 1.21059 7.12962 -0.0471419 -0.0286789 7.12984 10.0998 17 1 
456 1.2106 7.12651 -0.0476828 -0.0290123 7.12673 10.1171 17 1 
458 1.21061 7.12462 -0.0481627 -0.0293113 7.12485 10.1364 17 1 
460 1.21063 7.12359 -0.0486944 -0.0296609 7.12382 10.1667 17 1 
462 1.21065 7.12278 -0.0492747 -0.0300389 7.12301 10.1967 17 1 
464 1.21066 7.12127 -0.0498294 -0.0303975 7.12151 10.2149 17 1 
466 1.21066 7.11924 -0.0503456 -0.0307271 7.11948 10.2239 17 1 
468 1.21067 7.11867 -0.0508944 -0.0310822 7.11892 10.2449 17 1 
470 1.21069 7.11897 -0.051452 -0.0314501 7.11922 10.2761 17 1 
472 1.2107 7.11869 -0.0520126 -0.0318017 7.11895 10.2971 17 1 
474 1.21071 7.11837 -0.0525764 -0.0321597 7.11863 10.3172 17 1 
476 1.21072 7.11789 -0.0531103 -0.0325217 7.11816 10.3319 17 1 
478 1.21073 7.11785 -0.0536307 -0.0328421 7.11813 10.3439 17 1 
480 1.21074 7.11898 -0.0541873 -0.0331848 7.11926 10.3756 17 1 
480 1.21074 7.11898 -0.0541873 -0.0331848 7.11926 10.3756 17 1 
482 1.21076 7.1201 -0.0547484 -0.0335607 7.12038 10.4047 17 1 
484 1.21077 7.1207 -0.0552429 -0.0338873 7.12099 10.4176 17 1 
486 1.21078 7.12137 -0.0557804 -0.0342049 7.12167 10.4343 17 1 
488 1.21079 7.12239 -0.0563234 -0.0345284 7.12269 10.4569 17 1 
490 1.2108 7.12435 -0.0568001 -0.0348401 7.12466 10.4824 17 1 
492 1.21082 7.12662 -0.057298 -0.0351553 7.12694 10.5083 17 1 
494 1.21083 7.12821 -0.0578517 -0.0354761 7.12853 10.5302 17 1 
496 1.21084 7.12977 -0.0583511 -0.0357884 7.1301 10.551 17 1 
498 1.21085 7.13176 -0.0587757 -0.0360644 7.13209 10.5677 17 1 
500 1.21086 7.13453 -0.059267 -0.0363412 7.13487 10.5931 17 1 
502 1.21088 7.13761 -0.0597867 -0.0366468 7.13795 10.6278 17 1 
504 1.2109 7.13985 -0.0602654 -0.0369593 7.1402 10.6486 17 1 
506 1.2109 7.14205 -0.0607123 -0.0372204 7.14241 10.663 17 1 
508 1.21092 7.14507 -0.0611569 -0.0374619 7.14543 10.6884 17 1 
510 1.21093 7.14826 -0.0616186 -0.0377403 7.14862 10.7187 17 1 
512 1.21095 7.15127 -0.0620801 -0.0380253 7.15164 10.7438 17 1 
512 1.21095 7.15127 -0.0620801 -0.0380253 7.15164 10.7438 25 1 
514 1.21096 7.15428 -0.0625317 -0.038276 7.15465 10.7662 25 1 
516 1.21097 7.15714 -0.0629533 -0.0385173 7.15752 10.7887 25 1 
518 1.21099 7.16006 -0.0633564 -0.03875 7.16045 10.8121 25 1 
520 1.211 7.16325 -0.0638062 -0.0389933 7.16364 10.8367 25 1 
522 1.21101 7.16661 -0.0642542 -0.0392334 7.167 10.8638 25 1 
524 1.21103 7.16978 -0.0646649 -0.0394681 7.17018 10.8887 25 1 
526 1.21104 7.17253 -0.0650842 -0.0396894 7.17293 10.907 25 1 
528 1.21105 7.17552 -0.0655228 -0.0399 7.17593 10.9295 25 1 
530 1.21107 7.17876 -0.0659345 -0.0401233 7.17918 10.9554 25 1 
532 1.21108 7.18195 -0.0663771 -0.0403618 7.18237 10.977 25 1 
534 1.21109 7.18502 -0.0668077 -0.0405636 7.18545 10.9984 25 1 
536 1.2111 7.18791 -0.0672163 -0.0407721 7.18835 11.0219 25 1 
538 1.21111 7.19083 -0.0676613 -0.04101 7.19127 11.0415 25 1 
540 1.21112 7.19379 -0.0680621 -0.0412054 7.19423 11.0585 25 1 
542 1.21114 7.19677 -0.068519 -0.0414249 7.19722 11.0827 25 1 
544 1.21115 7.19987 -0.0689321 -0.0416334 7.20033 11.1063 25 1 
544 1.21115 7.19987 -0.0689321 -0.0416334 7.20033 11.1063 25 1 
546 1.21116 7.20274 -0.0693853 -0.0418478 7.2032 11.1242 25 1 
548 1.21117 7.20531 -0.069823 -0.0420533 7.20578 11.1402 25 1 
550 1.21118 7.20821 -0.0702522 -0.0422453 7.20868 11.1613 25 1 
552 1.21119 7.21114 -0.0707072 -0.0424522 7.21161 11.1823 25 1 
554 1.2112 7.21404 -0.0711454 -0.0426645 7.21452 11.2007 25 1 
556 1.21121 7.21697 -0.0716256 -0.0428738 7.21745 11.2235 25 1 
558 1.21122 7.21948 -0.0720613 -0.0430557 7.21997 11.2389 25 1 
560 1.21123 7.22216 -0.0725546 -0.0432644 7.22265 11.2539 25 1 
562 1.21124 7.22518 -0.0730331 -0.0434568 7.22568 11.2769 25 1 
564 1.21126 7.22808 -0.0735283 -0.0436647 7.22859 11.2987 25 1 
566 1.21126 7.23085 -0.0740322 -0.0438764 7.23137 11.3157 25 1 
568 1.21127 7.23345 -0.0745377 -0.0440806 7.23397 11.3319 25 1 
570 1.21128 7.23603 -0.0750707 -0.0442877 7.23656 11.3487 25 1 
572 1.21129 7.23896 -0.075601 -0.0445011 7.23949 11.3684 25 1 
574 1.21131 7.24189 -0.0761738 -0.0447293 7.24243 11.3899 25 1 
576 1.21132 7.24454 -0.0767355 -0.0449496 7.24509 11.4076 25 1 
576 1.21132 7.24454 -0.0767355 -0.0449496 7.24509 11.4076 26 1 
578 1.21132 7.24714 -0.0773392 -0.0451916 7.2477 11.4237 26 1 
580 1.21133 7.24962 -0.0779119 -0.0454224 7.25019 11.4379 26 1 
582 1.21134 7.25248 -0.078549 -0.0456966 7.25305 11.4583 26 1 
584 1.21136 7.25537 -0.0791824 -0.0459484 7.25595 11.4807 26 1 
586 1.21136 7.25793 -0.0798266 -0.046227 7.25852 11.4939 26 1 
588 1.21137 7.26046 -0.0805253 -0.0465155 7.26106 11.5112 26 1 
590 1.21138 7.26296 -0.0811705 -0.0467815 7.26357 11.5274 26 1 
592 1.21139 7.26558 -0.0819076 -0.0471041 7.2662 11.5426 26 1 
594 1.2114 7.26842 -0.0826071 -0.0474013 7.26905 11.5624 26 1 
596 1.21141 7.27095 -0.0833259 -0.0477091 7.27159 11.5805 26 1 
598 1.21142 7.27322 -0.0840803 -0.0480416 7.27387 11.5912 26 1 
600 1.21142 7.27562 -0.0848207 -0.0483594 7.27628 11.6044 26 1 
602 1.21144 7.27821 -0.0856149 -0.0486749 7.27888 11.6236 26 1 
604 1.21144 7.28077 -0.0863587 -0.048998 7.28145 11.6383 26 1 
606 1.21145 7.28306 -0.0871646 -0.0493364 7.28375 11.6501 26 1 
608 1.21146 7.28524 -0.0879443 -0.0496676 7.28595 11.6635 26 1 
608 1.21146 7.28524 -0.0879443 -0.0496676 7.28595 11.6635 26 1 
610 1.21146 7.2876 -0.0887509 -0.0499939 7.28831 11.6767 26 1 
612 1.21147 7.28986 -0.0895622 -0.0503357 7.29059 11.6884 26 1 
614 1.21148 7.29211 -0.0903711 -0.0506558 7.29284 11.7025 26 1 
616 1.21149 7.29456 -0.0912136 -0.0509919 7.29531 11.7154 26 1 
618 1.21149 7.29657 -0.0920444 -0.0513356 7.29733 11.7265 26 1 
620 1.2115 7.29863 -0.0928795 -0.0516594 7.2994 11.7355 26 1 
622 1.2115 7.30087 -0.0936898 -0.051973 7.30166 11.7473 26 1 
624 1.21151 7.30323 -0.0945535 -0.0523204 7.30403 11.7612 26 1 
626 1.21152 7.30535 -0.0953946 -0.0526376 7.30616 11.7737 26 1 
628 1.21152 7.30741 -0.0962369 -0.0529469 7.30824 11.78 26 1 
630 1.21153 7.30953 -0.0970575 -0.0532323 7.31037 11.7906 26 1 
632 1.21153 7.3117 -0.0978863 -0.0535272 7.31256 11.8036 26 1 
634 1.21154 7.314 -0.0987125 -0.0538103 7.31487 11.813 26 1 
636 1.21155 7.31613 -0.0995306 -0.0541009 7.317 11.8245 26 1 
638 1.21155 7.31824 -0.100362 -0.0543866 7.31913 11.8342 26 1 
640 1.21156 7.32026 -0.101164 -0.0546452 7.32116 11.8434 26 1 
642 1.21156 7.32251 -0.102002 -0.0549297 7.32343 11.8528 26 1 
644 1.21157 7.32471 -0.102797 -0.0551826 7.32563 11.8654 26 1 
646 1.21158 7.32672 -0.103597 -0.0554551 7.32766 11.8764 26 1 
648 1.21158 7.32893 -0.104395 -0.0557097 7.32989 11.8832 26 1 
650 1.21159 7.3309 -0.105153 -0.0559273 7.33187 11.8959 26 1 
652 1.21159 7.33305 -0.105954 -0.0561762 7.33403 11.9062 26 1 
654 1.2116 7.33507 -0.10671 -0.0563885 7.33606 11.9145 26 1 
656 1.2116 7.33703 -0.107437 -0.0565972 7.33804 11.9267 26 1 
658 1.21161 7.33917 -0.108232 -0.0568255 7.34019 11.9361 26 1 
660 1.21161 7.34084 -0.108886 -0.0569657 7.34187 11.9472 26 1 
662 1.21162 7.34277 -0.10965 -0.0571904 7.34381 11.9542 26 1 
664 1.21162 7.34446 -0.110318 -0.0573435 7.34552 11.9662 26 1 
666 1.21163 7.34611 -0.110974 -0.0574795 7.34718 11.9765 26 1 
668 1.21163 7.34758 -0.11171 -0.0576939 7.34865 11.9846 26 1 
670 1.21164 7.34906 -0.112308 -0.0577657 7.35014 11.9933 26 1 
672 1.21165 7.35027 -0.112981 -0.0579382 7.35137 12.0043 26 1 
672 1.21165 7.35027 -0.112981 -0.0579382 7.35137 12.0043 27 1 
674 1.21165 7.35128 -0.113668 -0.0580717 7.35239 12.0143 27 1 
676 1.21166 7.3525 -0.114188 -0.0581164 7.35362 12.0208 27 1 
678 1.21166 7.35303 -0.114851 -0.058244 7.35416 12.0356 27 1 
680 1.21167 7.35387 -0.115428 -0.0583208 7.35501 12.039 27 1 
682 1.21167 7.35423 -0.115908 -0.0583216 7.35537 12.0513 27 1 
684 1.21168 7.35469 -0.116592 -0.0584687 7.35585 12.0608 27 1 
686 1.21168 7.35492 -0.116999 -0.0584425 7.35608 12.0699 27 1 
688 1.21169 7.35495 -0.117613 -0.0585135 7.35612 12.0808 27 1 
690 1.21169 7.35491 -0.11806 -0.0584854 7.35609 12.0881 27 1 
692 1.2117 7.35469 -0.118526 -0.0584834 7.35588 12.0966 27 1 
694 1.2117 7.35428 -0.119042 -0.058492 7.35548 12.1074 27 1 
696 1.21171 7.35385 -0.119488 -0.0584758 7.35505 12.1162 27 1 
698 1.21171 7.35355 -0.119923 -0.0584691 7.35476 12.1216 27 1 
700 1.21172 7.35272 -0.120458 -0.0584728 7.35394 12.1353 27 1 
702 1.21172 7.35196 -0.120822 -0.0583883 7.35319 12.1423 27 1 
704 1.21172 7.3511 -0.121168 -0.0582857 7.35233 12.1446 27 1 
704 1.21172 7.3511 -0.121168 -0.0582857 7.35233 12.1446 31 1 
706 1.21173 7.35 -0.121653 -0.0583166 7.35124 12.1579 31 1 
708 1.21174 7.34903 -0.121961 -0.0582133 7.35028 12.1693 31 1 
710 1.21174 7.34803 -0.122487 -0.0582405 7.34928 12.1699 31 1 
712 1.21174 7.34675 -0.122765 -0.0581601 7.348 12.1808 31 1 
714 1.21175 7.34523 -0.123277 -0.0581366 7.34649 12.1955 31 1 
716 1.21175 7.34389 -0.123464 -0.0579586 7.34516 12.194 31 1 
718 1.21176 7.34222 -0.123872 -0.0579595 7.34349 12.2031 31 1 
720 1.21176 7.34071 -0.124238 -0.0579266 7.34199 12.2158 31 1 
722 1.21177 7.33914 -0.124418 -0.0577522 7.34042 12.2221 31 1 
724 1.21177 7.33742 -0.124967 -0.0578126 7.33871 12.2248 31 1 
726 1.21177 7.33573 -0.124985 -0.0575037 7.33702 12.2356 31 1 
728 1.21178 7.33371 -0.125514 -0.0575728 7.33501 12.2488 31 1 
730 1.21178 7.33177 -0.12565 -0.0573963 7.33307 12.2451 31 1 
732 1.21178 7.32982 -0.125919 -0.0572672 7.33112 12.2515 31 1 
734 1.21179 7.32782 -0.126393 -0.0573659 7.32913 12.2669 31 1 
736 1.21179 7.32578 -0.126185 -0.0569509 7.32709 12.2717 31 1 
738 1.21179 7.32409 -0.12686 -0.0570594 7.32541 12.266 31 1 
740 1.2118 7.32173 -0.126706 -0.056755 7.32305 12.2855 31 1 
742 1.21181 7.31956 -0.127026 -0.0566733 7.32089 12.2918 31 1 
744 1.2118 7.31729 -0.127538 -0.0567432 7.31862 12.2813 31 1 
746 1.21181 7.3153 -0.127339 -0.0564494 7.31663 12.2916 31 1 
748 1.21182 7.313 -0.127732 -0.0563822 7.31434 12.311 31 1 
750 1.21181 7.31066 -0.12777 -0.0560797 7.31199 12.3022 31 1 
752 1.2118 7.30931 -0.128194 -0.0561677 7.31065 12.2882 31 1 
752 1.2118 7.30931 -0.128194 -0.0561677 7.31065 12.2882 31 1 
754 1.21183 7.3061 -0.128268 -0.0559625 7.30744 12.3284 31 1 
756 1.21182 7.30409 -0.128495 -0.055794 7.30543 12.3117 31 1 
758 1.2118 7.30262 -0.128837 -0.0558429 7.30398 12.2853 31 1 
760 1.21182 7.3 -0.129078 -0.0556203 7.30135 12.324 31 1 
762 1.21182 7.29804 -0.129423 -0.0555334 7.2994 12.3199 31 1 
764 1.2118 7.29743 -0.129749 -0.0555989 7.2988 12.2738 31 1 
766 1.21182 7.2943 -0.129872 -0.0553607 7.29567 12.3124 31 1 
768 1.21181 7.29374 -0.130383 -0.0551899 7.29512 12.2952 31 1 
770 1.21179 7.29289 -0.131536 -0.0557627 7.2943 12.2641 31 1 
772 1.21179 7.29137 -0.131814 -0.0556087 7.29278 12.2664 31 1 
774 1.21178 7.29191 -0.132736 -0.0558478 7.29334 12.2414 31 1 
776 1.21176 7.2931 -0.133895 -0.0560824 7.29455 12.2129 31 1 
778 1.21175 7.29622 -0.134357 -0.0558912 7.29768 12.184 31 1 
780 1.21175 7.29723 -0.134886 -0.0558517 7.2987 12.1888 31 1 
782 1.2117 7.30117 -0.136687 -0.0566062 7.30268 12.0973 31 1 
784 1.21167 7.30342 -0.13967 -0.058157 7.305 12.0445 31 1 
786 1.21162 7.31191 -0.14069 -0.0581895 7.3135 11.9646 31 1 
788 1.21162 7.31993 -0.14179 -0.0580804 7.32154 11.9486 31 1 
790 1.21155 7.32973 -0.143746 -0.0585048 7.33138 11.8381 31 1 
792 1.21146 7.34204 -0.146709 -0.0594837 7.34376 11.662 31 1 
794 1.21141 7.35532 -0.148621 -0.0597361 7.35707 11.5793 31 1 
796 1.21134 7.37244 -0.147328 -0.0573263 7.37415 11.457 31 1 
798 1.21124 7.38838 -0.143547 -0.0522062 7.38998 11.2772 31 1 
800 1.21116 7.399 -0.140535 -0.0487521 7.40051 11.1207 31 1 
