51.6219;r ;Density                 ;Velocity u              ;Velocity v              ;Velocity w              ;|Velocity|              ;Pressure                ;Distribution            ;Levels                  ;
0 1.20571 9.99963 -6.10412e-05 -1.04423e-05 9.99963 1.28725 1 1 
2 1.20573 9.99898 -7.55785e-05 -4.71172e-05 9.99898 1.32699 1 1 
4 1.20573 9.9991 -0.000151327 -0.000152516 9.9991 1.31589 1 1 
6 1.20571 10.0001 -0.000209866 -0.000226954 10.0001 1.28806 1 1 
8 1.20572 10.0014 -0.000265442 -0.000298204 10.0014 1.29323 1 1 
10 1.20571 10.0022 -0.000310748 -0.000347478 10.0022 1.2777 1 1 
12 1.20571 10.0024 -0.000369038 -0.000422343 10.0024 1.28199 1 1 
14 1.2057 10.0041 -0.000443373 -0.00050385 10.0041 1.26427 1 1 
16 1.20571 10.0049 -0.000491281 -0.00056863 10.0049 1.27364 1 1 
18 1.20569 10.005 -0.000568194 -0.000659237 10.005 1.25473 1 1 
20 1.20567 10.006 -0.000663882 -0.000760066 10.006 1.20711 1 1 
22 1.20568 10.0066 -0.000678752 -0.000796228 10.0066 1.22986 1 1 
24 1.20567 10.008 -0.000732173 -0.000869919 10.008 1.21314 1 1 
26 1.20565 10.0086 -0.000779955 -0.000920119 10.0086 1.18112 1 1 
28 1.20565 10.0086 -0.000835392 -0.000976676 10.0086 1.17153 1 1 
30 1.20564 10.0096 -0.000879084 -0.00104758 10.0096 1.15221 1 1 
32 1.20564 10.0098 -0.000967468 -0.00115255 10.0098 1.16051 1 1 
32 1.20564 10.0098 -0.000967468 -0.00115255 10.0098 1.16051 1 1 
34 1.20563 10.0101 -0.000999316 -0.00120054 10.0101 1.14456 1 1 
36 1.20562 10.0101 -0.00108658 -0.00130252 10.0101 1.12698 1 1 
38 1.2056 10.0113 -0.00117173 -0.00140341 10.0113 1.09097 1 1 
40 1.2056 10.0123 -0.00124259 -0.00150285 10.0123 1.08724 1 1 
42 1.2056 10.0125 -0.00134355 -0.00161165 10.0125 1.08937 1 1 
44 1.20559 10.0124 -0.00140693 -0.00167061 10.0124 1.0591 1 1 
46 1.20558 10.0123 -0.001502 -0.00177888 10.0123 1.04211 1 1 
48 1.20555 10.0135 -0.00160255 -0.00191291 10.0135 1.00004 1 1 
50 1.20555 10.0148 -0.00165113 -0.00194989 10.0148 0.985397 1 1 
52 1.20554 10.0147 -0.00171674 -0.00203792 10.0147 0.979829 1 1 
54 1.20553 10.0145 -0.00182817 -0.00216129 10.0145 0.96535 1 1 
56 1.20553 10.016 -0.00191316 -0.00225839 10.016 0.964618 1 1 
58 1.20553 10.017 -0.00204087 -0.00241503 10.017 0.949641 1 1 
60 1.2055 10.0177 -0.00212215 -0.00251302 10.0177 0.902975 1 1 
62 1.2055 10.0176 -0.00223748 -0.0026574 10.0176 0.894887 1 1 
64 1.2055 10.0182 -0.00231634 -0.00274948 10.0182 0.896921 1 1 
64 1.2055 10.0182 -0.00231634 -0.00274948 10.0182 0.896921 2 1 
66 1.20549 10.0191 -0.00239995 -0.00285741 10.0191 0.887926 2 1 
68 1.20545 10.0206 -0.00251946 -0.00299525 10.0206 0.818568 2 1 
70 1.20544 10.0208 -0.002642 -0.00314999 10.0208 0.796664 2 1 
72 1.20544 10.0205 -0.00275142 -0.00329004 10.0205 0.801399 2 1 
74 1.20543 10.0208 -0.00285314 -0.00339557 10.0208 0.783432 2 1 
76 1.20543 10.0213 -0.00294699 -0.00353278 10.0213 0.784114 2 1 
78 1.2054 10.0235 -0.00305273 -0.00365447 10.0235 0.715638 2 1 
80 1.20539 10.0237 -0.00320132 -0.00382943 10.0237 0.709513 2 1 
82 1.2054 10.0237 -0.0033336 -0.00400565 10.0237 0.721681 2 1 
84 1.20539 10.0242 -0.003424 -0.00409024 10.0242 0.702091 2 1 
86 1.20537 10.0244 -0.00353123 -0.00420341 10.0244 0.675706 2 1 
88 1.20535 10.0252 -0.00368695 -0.00438959 10.0252 0.630314 2 1 
90 1.20535 10.0255 -0.00375383 -0.0044804 10.0255 0.626225 2 1 
92 1.20534 10.0254 -0.0038809 -0.00462077 10.0254 0.612935 2 1 
94 1.20532 10.0256 -0.00401071 -0.00477176 10.0256 0.585537 2 1 
96 1.20532 10.0263 -0.00408963 -0.00487262 10.0263 0.569269 2 1 
96 1.20532 10.0263 -0.00408963 -0.00487262 10.0263 0.569269 2 1 
98 1.20531 10.0274 -0.0042524 -0.00503023 10.0274 0.55232 2 1 
100 1.2053 10.0283 -0.00434715 -0.00513933 10.0283 0.541447 2 1 
102 1.20529 10.0286 -0.00443623 -0.00527456 10.0286 0.517966 2 1 
104 1.20529 10.0283 -0.00457677 -0.00543669 10.0283 0.522313 2 1 
106 1.20528 10.0289 -0.00463832 -0.00550352 10.0289 0.513548 2 1 
108 1.20528 10.0288 -0.00476572 -0.00563786 10.0288 0.506487 2 1 
110 1.20526 10.0292 -0.00484297 -0.00573568 10.0292 0.472962 2 1 
112 1.20525 10.0303 -0.00492368 -0.00584444 10.0303 0.452886 2 1 
114 1.20527 10.0297 -0.00502511 -0.00595619 10.0297 0.482624 2 1 
116 1.20526 10.0314 -0.00513543 -0.00607533 10.0314 0.463602 2 1 
118 1.20525 10.0328 -0.00522946 -0.00618811 10.0328 0.458128 2 1 
120 1.20526 10.0322 -0.00531031 -0.00627891 10.0322 0.471564 2 1 
122 1.20524 10.033 -0.00542146 -0.00641103 10.033 0.436256 2 1 
124 1.20524 10.0328 -0.0055051 -0.00652174 10.0328 0.43454 2 1 
126 1.20527 10.0322 -0.00562224 -0.00664913 10.0322 0.479751 2 1 
128 1.20524 10.0339 -0.0056572 -0.00668758 10.0339 0.431162 2 1 
128 1.20524 10.0339 -0.0056572 -0.00668758 10.0339 0.431162 10 1 
130 1.20525 10.0344 -0.00577709 -0.0068471 10.0344 0.445677 10 1 
132 1.20526 10.0359 -0.0058702 -0.00694286 10.0359 0.462001 10 1 
134 1.20524 10.0366 -0.00592928 -0.00700244 10.0366 0.440793 10 1 
136 1.20525 10.0354 -0.0059822 -0.00708104 10.0354 0.455654 10 1 
138 1.20524 10.0358 -0.00609478 -0.00720844 10.0358 0.437803 10 1 
140 1.20526 10.0369 -0.00619458 -0.00732672 10.0369 0.462929 10 1 
142 1.20526 10.0379 -0.00621647 -0.0073191 10.0379 0.463274 10 1 
144 1.20525 10.0383 -0.00629959 -0.00745243 10.0383 0.453213 10 1 
146 1.20526 10.039 -0.00641293 -0.00757873 10.039 0.471202 10 1 
148 1.20526 10.0384 -0.00647355 -0.00762997 10.0384 0.465713 10 1 
150 1.20524 10.0381 -0.00647351 -0.00766602 10.0381 0.428025 10 1 
152 1.20524 10.0386 -0.00655184 -0.00775474 10.0386 0.437355 10 1 
154 1.20525 10.0389 -0.00659038 -0.00779236 10.0389 0.457561 10 1 
156 1.20524 10.0399 -0.00663604 -0.00785962 10.0399 0.442427 10 1 
158 1.20525 10.0399 -0.00665974 -0.00790349 10.0399 0.450496 10 1 
160 1.20525 10.0388 -0.00667474 -0.00794264 10.0388 0.454058 10 1 
160 1.20525 10.0388 -0.00667474 -0.00794264 10.0388 0.454058 10 1 
162 1.20523 10.0392 -0.00675441 -0.00805024 10.0392 0.412024 10 1 
164 1.20523 10.039 -0.00678254 -0.00805506 10.039 0.422165 10 1 
166 1.20526 10.0375 -0.00679837 -0.0080811 10.0375 0.478522 10 1 
168 1.20523 10.0393 -0.00684716 -0.0081611 10.0393 0.409241 10 1 
170 1.20523 10.0382 -0.0069334 -0.00826922 10.0382 0.420572 10 1 
172 1.20524 10.038 -0.0069783 -0.00831628 10.038 0.431976 10 1 
174 1.20522 10.0398 -0.00692744 -0.00829928 10.0398 0.390536 10 1 
176 1.20526 10.0378 -0.0070288 -0.0083799 10.0378 0.46418 10 1 
178 1.20524 10.0377 -0.00709984 -0.00848175 10.0378 0.436717 10 1 
180 1.20524 10.0369 -0.00710374 -0.00853359 10.0369 0.425147 10 1 
182 1.20524 10.0346 -0.00714872 -0.00858769 10.0346 0.428823 10 1 
184 1.20522 10.034 -0.00728891 -0.00876003 10.034 0.393353 10 1 
186 1.20525 10.035 -0.00735424 -0.00882445 10.035 0.455024 10 1 
188 1.20526 10.0355 -0.00730833 -0.00876962 10.0355 0.474752 10 1 
190 1.20525 10.0349 -0.00744149 -0.00890729 10.0349 0.445072 10 1 
192 1.20524 10.0347 -0.0074396 -0.00894711 10.0348 0.431532 10 1 
194 1.20525 10.0321 -0.00754924 -0.00907046 10.0321 0.452329 10 1 
196 1.20526 10.0296 -0.00767394 -0.0091911 10.0296 0.46804 10 1 
198 1.20526 10.0298 -0.00769551 -0.00920657 10.0298 0.474443 10 1 
200 1.20529 10.0289 -0.00787644 -0.00941837 10.0289 0.530822 10 1 
202 1.20529 10.0284 -0.00780695 -0.00942195 10.0284 0.515441 10 1 
204 1.20525 10.0288 -0.0078309 -0.00943762 10.0288 0.448592 10 1 
206 1.2053 10.0258 -0.00811253 -0.00972663 10.0258 0.547491 10 1 
208 1.20533 10.0251 -0.00820061 -0.00978605 10.0251 0.602861 10 1 
210 1.20529 10.027 -0.00819196 -0.0097723 10.027 0.529529 10 1 
212 1.20535 10.0216 -0.00833141 -0.00998605 10.0216 0.637263 10 1 
214 1.20533 10.0175 -0.00838256 -0.0100562 10.0175 0.60159 10 1 
216 1.20531 10.0146 -0.00847061 -0.0101242 10.0147 0.556543 10 1 
218 1.20538 10.0097 -0.00869765 -0.010342 10.0097 0.680323 10 1 
220 1.20538 10.0136 -0.00879282 -0.0105092 10.0136 0.683263 10 1 
222 1.20542 10.0149 -0.00878173 -0.0105133 10.0149 0.751163 10 1 
224 1.20543 10.0104 -0.00879759 -0.0104446 10.0104 0.767866 10 1 
224 1.20543 10.0104 -0.00879759 -0.0104446 10.0104 0.767866 10 1 
226 1.20544 10.0072 -0.0089684 -0.0106334 10.0072 0.798114 10 1 
228 1.20546 9.99941 -0.00911243 -0.0108391 9.99942 0.839409 10 1 
230 1.20546 9.99265 -0.00921495 -0.0109652 9.99266 0.839377 10 1 
232 1.20548 9.99335 -0.00931209 -0.0110595 9.99336 0.866012 10 1 
234 1.20553 9.99173 -0.00939992 -0.0111025 9.99174 0.955486 10 1 
236 1.20562 9.98463 -0.00943362 -0.011188 9.98465 1.12138 10 1 
238 1.20556 9.98335 -0.00946261 -0.0112382 9.98336 1.01583 10 1 
240 1.20566 9.97389 -0.00977174 -0.0115375 9.9739 1.19124 10 1 
242 1.20569 9.9667 -0.00985767 -0.0116378 9.96671 1.25023 10 1 
244 1.20563 9.96666 -0.00976012 -0.011562 9.96667 1.14242 10 1 
246 1.20582 9.95684 -0.00990059 -0.0116927 9.95686 1.48228 10 1 
248 1.20585 9.94949 -0.00996819 -0.0117302 9.9495 1.54389 10 1 
250 1.20586 9.93993 -0.0100502 -0.0118387 9.93995 1.54849 10 1 
252 1.20591 9.93041 -0.0102564 -0.0120527 9.93042 1.64888 10 1 
254 1.20601 9.92051 -0.0102671 -0.0120388 9.92053 1.8297 10 1 
256 1.20608 9.9099 -0.010321 -0.0121058 9.90991 1.95418 10 1 
256 1.20608 9.9099 -0.010321 -0.0121058 9.90991 1.95418 11 1 
258 1.20614 9.89671 -0.0103893 -0.0122222 9.89673 2.06751 11 1 
260 1.20631 9.88253 -0.0104975 -0.0123342 9.88254 2.37495 11 1 
262 1.20641 9.86585 -0.0107271 -0.0125315 9.86586 2.55444 11 1 
264 1.20641 9.84848 -0.0106842 -0.0124784 9.8485 2.54881 11 1 
266 1.20659 9.83226 -0.0106968 -0.0125474 9.83227 2.86678 11 1 
268 1.20694 9.80108 -0.0108865 -0.0127554 9.8011 3.51236 11 1 
270 1.20688 9.77982 -0.0110237 -0.0128341 9.77984 3.39371 11 1 
272 1.20705 9.74905 -0.0109527 -0.0127501 9.74907 3.7052 11 1 
274 1.20753 9.7062 -0.0110554 -0.0129163 9.70622 4.56272 11 1 
276 1.20753 9.67816 -0.0112106 -0.0130426 9.67818 4.57667 11 1 
278 1.20784 9.63488 -0.0112605 -0.0130719 9.6349 5.12648 11 1 
280 1.20841 9.58979 -0.0113434 -0.0131589 9.58982 6.15737 11 1 
282 1.20878 9.52966 -0.011444 -0.013255 9.52977 6.8332 11 1 
284 1.20905 9.4402 -0.0114524 -0.013283 9.44037 7.32199 11 1 
286 1.20941 9.3489 -0.0114565 -0.013255 9.34901 7.96683 11 1 
288 1.21009 9.26329 -0.0116171 -0.0134261 9.26332 9.19313 11 1 
288 1.21009 9.26329 -0.0116171 -0.0134261 9.26332 9.19313 11 1 
290 1.2109 9.18892 -0.0117201 -0.0135474 9.18896 10.6577 11 1 
292 1.21157 9.0892 -0.0118327 -0.0136579 9.08931 11.8747 11 1 
294 1.21212 8.95201 -0.0118993 -0.0137373 8.95228 12.864 11 1 
296 1.21288 8.81096 -0.0118948 -0.0137152 8.81116 14.2368 11 1 
298 1.20858 8.63909 -0.0119048 -0.0137152 8.63919 6.47251 11 1 
300 1.20124 8.56775 -0.0118346 -0.0136459 8.56787 -6.79698 11 1 
302 1.19895 8.53853 -0.0120048 -0.0138102 8.5386 -10.9315 11 1 
304 1.19958 8.42179 -0.0120822 -0.013886 8.42192 -9.78826 11 1 
306 1.20035 8.29056 -0.0120628 -0.0138743 8.29075 -8.40243 11 1 
308 1.20091 8.17004 -0.012102 -0.0138853 8.17025 -7.38146 11 1 
310 1.20128 8.07985 -0.0120485 -0.0138121 8.08001 -6.71537 11 1 
312 1.20177 7.98267 -0.0121319 -0.0139261 7.98272 -5.83689 11 1 
314 1.20224 7.91072 -0.0123128 -0.0141134 7.91077 -4.9938 11 1 
316 1.2026 7.85764 -0.0124008 -0.0141988 7.85768 -4.33937 11 1 
318 1.20293 7.78815 -0.0124542 -0.0142691 7.78819 -3.73872 11 1 
320 1.2032 7.74403 -0.0124598 -0.0142637 7.74406 -3.24498 11 1 
320 1.2032 7.74403 -0.0124598 -0.0142637 7.74406 -3.24498 15 1 
322 1.20347 7.71354 -0.0125784 -0.0143811 7.71357 -2.76374 15 1 
324 1.20373 7.66647 -0.0127198 -0.014529 7.6665 -2.28745 15 1 
326 1.20393 7.63169 -0.0126861 -0.0144863 7.63172 -1.93262 15 1 
328 1.20409 7.60111 -0.0126364 -0.0144276 7.60114 -1.63628 15 1 
330 1.20421 7.56682 -0.0127475 -0.0145312 7.56686 -1.43385 15 1 
332 1.20439 7.54522 -0.0128222 -0.0146146 7.54525 -1.09904 15 1 
334 1.20459 7.51558 -0.0128021 -0.0146082 7.51561 -0.74636 15 1 
336 1.20457 7.47984 -0.0128604 -0.0146506 7.47987 -0.768996 15 1 
338 1.20463 7.46015 -0.0129664 -0.0147572 7.46019 -0.676562 15 1 
340 1.20484 7.44375 -0.0130936 -0.0149206 7.44379 -0.287237 15 1 
342 1.20494 7.42569 -0.0131932 -0.015015 7.42573 -0.112555 15 1 
344 1.20493 7.40339 -0.0132615 -0.015059 7.40342 -0.123412 15 1 
346 1.20494 7.37887 -0.0133552 -0.0151869 7.3789 -0.101689 15 1 
348 1.20508 7.37512 -0.0135734 -0.0154562 7.37515 0.1355 15 1 
350 1.20522 7.37456 -0.0137667 -0.0156449 7.37459 0.404396 15 1 
352 1.2052 7.35628 -0.0138291 -0.0156921 7.35631 0.357131 15 1 
354 1.2052 7.34546 -0.0139084 -0.0158042 7.34549 0.365859 15 1 
356 1.20531 7.34466 -0.0141991 -0.0161378 7.34469 0.559166 15 1 
358 1.20536 7.34261 -0.0144915 -0.0164097 7.34264 0.658243 15 1 
360 1.20542 7.34366 -0.0145861 -0.0164784 7.34369 0.753591 15 1 
362 1.20546 7.34116 -0.0146281 -0.0165499 7.34119 0.827169 15 1 
364 1.20548 7.33697 -0.0148077 -0.0167447 7.33701 0.86441 15 1 
366 1.20552 7.33767 -0.0149808 -0.0169007 7.33771 0.938983 15 1 
368 1.20556 7.33935 -0.0149669 -0.0169097 7.33939 1.01334 15 1 
370 1.20562 7.34318 -0.0148933 -0.0168684 7.34321 1.12701 15 1 
372 1.20566 7.34302 -0.0149997 -0.0169666 7.34306 1.18447 15 1 
374 1.20566 7.33807 -0.0151212 -0.0170843 7.3381 1.18344 15 1 
376 1.2057 7.33854 -0.0149583 -0.0169385 7.33858 1.26496 15 1 
378 1.20574 7.33962 -0.014686 -0.0166711 7.33965 1.32968 15 1 
380 1.20577 7.33969 -0.0146759 -0.0166488 7.33973 1.38773 15 1 
382 1.2058 7.34006 -0.0149749 -0.0169274 7.3401 1.45108 15 1 
384 1.2058 7.33391 -0.0152875 -0.017218 7.33395 1.44706 15 1 
384 1.2058 7.33391 -0.0152875 -0.017218 7.33395 1.44706 16 1 
386 1.20583 7.32939 -0.015332 -0.0172583 7.32942 1.49931 16 1 
388 1.20587 7.33054 -0.0151485 -0.017074 7.33058 1.58016 16 1 
390 1.20589 7.32784 -0.0149342 -0.0168381 7.32788 1.61386 16 1 
392 1.20592 7.32266 -0.0147528 -0.0166531 7.3227 1.65867 16 1 
394 1.20593 7.31637 -0.0146718 -0.0165894 7.3164 1.67412 16 1 
396 1.20593 7.30901 -0.0146898 -0.0165808 7.30905 1.68049 16 1 
398 1.20595 7.30501 -0.0146848 -0.0165418 7.30504 1.72361 16 1 
400 1.20598 7.30058 -0.0146226 -0.0165028 7.30061 1.77456 16 1 
402 1.206 7.29247 -0.0146195 -0.0165086 7.29251 1.80603 16 1 
404 1.20599 7.28309 -0.0146306 -0.0164805 7.28312 1.78783 16 1 
406 1.206 7.27472 -0.0145514 -0.016392 7.27475 1.80575 16 1 
408 1.20604 7.26893 -0.0144508 -0.0163012 7.26896 1.87622 16 1 
410 1.20604 7.26174 -0.0144318 -0.0162809 7.26177 1.88704 16 1 
412 1.20604 7.25196 -0.0144177 -0.0162702 7.252 1.88498 16 1 
414 1.20606 7.24358 -0.0143655 -0.0162082 7.24362 1.91933 16 1 
416 1.20608 7.23523 -0.0143216 -0.0161631 7.23527 1.94322 16 1 
416 1.20608 7.23523 -0.0143216 -0.0161631 7.23527 1.94322 16 1 
418 1.20608 7.2267 -0.0142989 -0.0161756 7.22673 1.95314 16 1 
420 1.20609 7.21938 -0.014292 -0.0161834 7.21941 1.96248 16 1 
422 1.2061 7.21118 -0.0143007 -0.01617 7.21122 1.99543 16 1 
424 1.20612 7.20255 -0.0142906 -0.0161589 7.20258 2.02194 16 1 
426 1.20611 7.19375 -0.0142834 -0.0161735 7.19378 2.01274 16 1 
428 1.20612 7.18492 -0.0143062 -0.0161818 7.18496 2.02829 16 1 
430 1.20615 7.17842 -0.0143487 -0.0161856 7.17846 2.07047 16 1 
432 1.20616 7.17155 -0.0143982 -0.0162117 7.17159 2.08994 16 1 
434 1.20615 7.16194 -0.0144453 -0.0162425 7.16198 2.07733 16 1 
436 1.20614 7.15308 -0.0144958 -0.0162659 7.15312 2.06328 16 1 
438 1.20615 7.14636 -0.0145411 -0.0162833 7.1464 2.08299 16 1 
440 1.20617 7.14056 -0.0145658 -0.0162704 7.14059 2.10913 16 1 
442 1.20618 7.13419 -0.0146062 -0.0162791 7.13423 2.12746 16 1 
444 1.20618 7.12675 -0.0146502 -0.0163253 7.12678 2.1397 16 1 
446 1.20618 7.12015 -0.0146909 -0.0163508 7.12019 2.12958 16 1 
448 1.20618 7.1149 -0.0147427 -0.0163592 7.11494 2.13876 16 1 
448 1.20618 7.1149 -0.0147427 -0.0163592 7.11494 2.13876 17 1 
450 1.2062 7.11024 -0.01476 -0.0163617 7.11028 2.17168 17 1 
452 1.20621 7.10587 -0.0147621 -0.0163764 7.10591 2.18299 17 1 
454 1.20621 7.10077 -0.0148228 -0.0164308 7.1008 2.17874 17 1 
456 1.2062 7.09558 -0.0148904 -0.0164723 7.09561 2.17134 17 1 
458 1.20621 7.09176 -0.0149081 -0.0164854 7.09179 2.17997 17 1 
460 1.20622 7.08904 -0.0149446 -0.0165321 7.08908 2.20961 17 1 
462 1.20624 7.08659 -0.0150133 -0.0165886 7.08663 2.23119 17 1 
464 1.20624 7.08322 -0.0150528 -0.0166188 7.08326 2.23425 17 1 
466 1.20623 7.07929 -0.0150678 -0.0166293 7.07932 2.22259 17 1 
468 1.20623 7.07695 -0.0151064 -0.0166593 7.07699 2.22473 17 1 
470 1.20624 7.07568 -0.0151616 -0.0167128 7.07571 2.24706 17 1 
472 1.20625 7.0739 -0.0152143 -0.0167478 7.07394 2.25694 17 1 
474 1.20625 7.07205 -0.0152626 -0.0167839 7.07209 2.26004 17 1 
476 1.20625 7.07014 -0.0152932 -0.0168184 7.07018 2.25588 17 1 
478 1.20624 7.06877 -0.015316 -0.0168119 7.06881 2.24811 17 1 
480 1.20626 7.06874 -0.0153673 -0.0168259 7.06877 2.26796 17 1 
480 1.20626 7.06874 -0.0153673 -0.0168259 7.06877 2.26796 17 1 
482 1.20627 7.06875 -0.0154014 -0.0168618 7.06879 2.28511 17 1 
484 1.20626 7.06835 -0.0153998 -0.0168607 7.06839 2.28203 17 1 
486 1.20627 7.06812 -0.0154311 -0.0168471 7.06815 2.28726 17 1 
488 1.20627 7.06847 -0.0154811 -0.0168521 7.06851 2.29509 17 1 
490 1.20628 7.06986 -0.0154758 -0.0168488 7.0699 2.30836 17 1 
492 1.20628 7.07139 -0.0154815 -0.0168379 7.07143 2.31559 17 1 
494 1.20628 7.07228 -0.0155338 -0.0168219 7.07232 2.30432 17 1 
496 1.20627 7.0732 -0.0155341 -0.0167975 7.07324 2.30206 17 1 
498 1.20628 7.07496 -0.0154975 -0.0167627 7.075 2.30915 17 1 
500 1.20629 7.07785 -0.0155178 -0.0167284 7.07789 2.33545 17 1 
502 1.20631 7.081 -0.015559 -0.0167214 7.08104 2.36901 17 1 
504 1.20631 7.08311 -0.0155426 -0.0166982 7.08315 2.364 17 1 
506 1.2063 7.08499 -0.0154932 -0.0166175 7.08503 2.34506 17 1 
508 1.2063 7.0879 -0.0154708 -0.0165365 7.08793 2.34588 17 1 
510 1.20631 7.09113 -0.0154578 -0.0164957 7.09116 2.36912 17 1 
512 1.20633 7.09433 -0.0154502 -0.0164717 7.09436 2.39446 17 1 
512 1.20633 7.09433 -0.0154502 -0.0164717 7.09436 2.39446 25 1 
514 1.20633 7.0975 -0.0154469 -0.0164234 7.09754 2.39638 25 1 
516 1.20632 7.10033 -0.0154054 -0.0163478 7.10037 2.39154 25 1 
518 1.20632 7.10331 -0.0153419 -0.0162652 7.10335 2.39267 25 1 
520 1.20633 7.1067 -0.015303 -0.0161748 7.10674 2.40695 25 1 
522 1.20635 7.11032 -0.0152751 -0.016093 7.11035 2.43332 25 1 
524 1.20636 7.11365 -0.0152343 -0.0160332 7.11369 2.44887 25 1 
526 1.20636 7.11636 -0.0152027 -0.0159535 7.1164 2.44881 25 1 
528 1.20635 7.11927 -0.0151776 -0.0158579 7.1193 2.44206 25 1 
530 1.20635 7.12264 -0.0151396 -0.0157836 7.12267 2.44363 25 1 
532 1.20636 7.12607 -0.0151049 -0.0157076 7.1261 2.45762 25 1 
534 1.20637 7.12937 -0.0150705 -0.0156033 7.1294 2.47497 25 1 
536 1.20638 7.13229 -0.0150201 -0.0155021 7.13232 2.48622 25 1 
538 1.20638 7.1351 -0.0149751 -0.0154179 7.13514 2.48566 25 1 
540 1.20638 7.13801 -0.0149506 -0.0153328 7.13805 2.48866 25 1 
542 1.20639 7.14118 -0.0149438 -0.0152609 7.14122 2.50406 25 1 
544 1.20639 7.14475 -0.0149338 -0.0151909 7.14478 2.51831 25 1 
544 1.20639 7.14475 -0.0149338 -0.0151909 7.14478 2.51831 25 1 
546 1.2064 7.14797 -0.0148965 -0.0150943 7.148 2.52049 25 1 
548 1.20639 7.15057 -0.0148378 -0.0149603 7.1506 2.5165 25 1 
550 1.20639 7.15328 -0.0147694 -0.0148044 7.15331 2.5189 25 1 
552 1.2064 7.15619 -0.0147277 -0.01469 7.15622 2.52436 25 1 
554 1.2064 7.15926 -0.014746 -0.0146424 7.15929 2.53605 25 1 
556 1.20642 7.16267 -0.0147955 -0.0146055 7.1627 2.55827 25 1 
558 1.20642 7.16609 -0.0148133 -0.014531 7.16612 2.56549 25 1 
560 1.20642 7.16984 -0.0147702 -0.0143916 7.16987 2.55752 25 1 
562 1.20642 7.17383 -0.0146947 -0.0141991 7.17386 2.5584 25 1 
564 1.20642 7.17735 -0.0146063 -0.0139961 7.17738 2.5636 25 1 
566 1.20642 7.18052 -0.0145386 -0.0138192 7.18055 2.5734 25 1 
568 1.20643 7.18354 -0.014544 -0.0137065 7.18357 2.58472 25 1 
570 1.20643 7.18675 -0.0145963 -0.0136397 7.18677 2.58783 25 1 
572 1.20643 7.19073 -0.0146417 -0.0135758 7.19076 2.59033 25 1 
574 1.20643 7.19538 -0.0146489 -0.0134699 7.19541 2.5879 25 1 
576 1.20643 7.20019 -0.0146087 -0.0132928 7.20022 2.58839 25 1 
576 1.20643 7.20019 -0.0146087 -0.0132928 7.20022 2.58839 26 1 
578 1.20644 7.20469 -0.0145293 -0.0130677 7.20472 2.59959 26 1 
580 1.20645 7.20841 -0.0144456 -0.0128503 7.20843 2.61128 26 1 
582 1.20645 7.21167 -0.0144075 -0.0126821 7.2117 2.62119 26 1 
584 1.20645 7.21471 -0.0144172 -0.0125643 7.21474 2.61726 26 1 
586 1.20644 7.21771 -0.014485 -0.012519 7.21774 2.60405 26 1 
588 1.20644 7.22182 -0.0145742 -0.0124929 7.22185 2.599 26 1 
590 1.20644 7.22724 -0.0146385 -0.0124396 7.22726 2.60412 26 1 
592 1.20645 7.23335 -0.0146703 -0.0123544 7.23337 2.62185 26 1 
594 1.20646 7.23933 -0.0146391 -0.0121794 7.23936 2.64084 26 1 
596 1.20646 7.24382 -0.0145613 -0.0119538 7.24384 2.63901 26 1 
598 1.20645 7.24679 -0.0144713 -0.0117378 7.24682 2.6197 26 1 
600 1.20644 7.24949 -0.0144658 -0.0115959 7.24951 2.6092 26 1 
602 1.20645 7.2528 -0.0145872 -0.0115834 7.25282 2.61361 26 1 
604 1.20645 7.25743 -0.0147654 -0.0116515 7.25746 2.62279 26 1 
606 1.20646 7.26341 -0.0149602 -0.0117297 7.26343 2.62872 26 1 
608 1.20646 7.27052 -0.0150918 -0.0117207 7.27054 2.63071 26 1 
608 1.20646 7.27052 -0.0150918 -0.0117207 7.27054 2.63071 26 1 
610 1.20645 7.27801 -0.0151136 -0.0115996 7.27804 2.62718 26 1 
612 1.20645 7.28443 -0.0150243 -0.0113623 7.28445 2.61377 26 1 
614 1.20644 7.28945 -0.0148796 -0.0110555 7.28948 2.60822 26 1 
616 1.20645 7.29307 -0.0147922 -0.0108011 7.29309 2.61212 26 1 
618 1.20645 7.29544 -0.0148165 -0.0106754 7.29546 2.6171 26 1 
620 1.20645 7.29799 -0.014967 -0.0106915 7.29801 2.61816 26 1 
622 1.20645 7.30211 -0.015214 -0.0107877 7.30214 2.61261 26 1 
624 1.20644 7.30822 -0.0154958 -0.0109351 7.30824 2.60452 26 1 
626 1.20643 7.31616 -0.0157148 -0.0110131 7.31619 2.58797 26 1 
628 1.20643 7.32512 -0.0158132 -0.0109444 7.32514 2.57968 26 1 
630 1.20643 7.33403 -0.0157742 -0.010743 7.33405 2.58964 26 1 
632 1.20644 7.34147 -0.0156322 -0.0104288 7.34149 2.60386 26 1 
634 1.20644 7.34621 -0.015465 -0.01008 7.34624 2.60506 26 1 
636 1.20643 7.34827 -0.0153276 -0.00976567 7.34829 2.58872 26 1 
638 1.20642 7.34865 -0.0153098 -0.00959907 7.34868 2.56557 26 1 
640 1.20641 7.34959 -0.0154811 -0.00960789 7.34962 2.54597 26 1 
642 1.20641 7.35251 -0.015783 -0.00974819 7.35254 2.55172 26 1 
644 1.20642 7.35819 -0.0161445 -0.00996977 7.35822 2.57213 26 1 
646 1.20643 7.36659 -0.016482 -0.0101552 7.36661 2.58254 26 1 
648 1.20643 7.37689 -0.0167073 -0.0102241 7.37691 2.5766 26 1 
650 1.20642 7.38814 -0.0168002 -0.0101512 7.38817 2.55736 26 1 
652 1.2064 7.39872 -0.0167562 -0.00993082 7.39875 2.53619 26 1 
654 1.20639 7.40788 -0.0165891 -0.00958764 7.40791 2.51949 26 1 
656 1.2064 7.41462 -0.0163376 -0.00917269 7.41464 2.52883 26 1 
658 1.20641 7.41807 -0.0160654 -0.00872644 7.4181 2.55532 26 1 
660 1.20643 7.41806 -0.0158348 -0.00831768 7.41809 2.57463 26 1 
662 1.20642 7.41486 -0.0156854 -0.00799968 7.41488 2.57168 26 1 
664 1.20641 7.40997 -0.0156739 -0.00782804 7.40999 2.54718 26 1 
666 1.20639 7.40509 -0.0158465 -0.00784676 7.40511 2.51876 26 1 
668 1.20638 7.40278 -0.0162229 -0.0080619 7.4028 2.50039 26 1 
670 1.20639 7.40544 -0.0167974 -0.00848245 7.40546 2.51867 26 1 
672 1.20641 7.41457 -0.0175201 -0.00905067 7.4146 2.55381 26 1 
672 1.20641 7.41457 -0.0175201 -0.00905067 7.4146 2.55381 27 1 
674 1.20643 7.43089 -0.018275 -0.00965071 7.43092 2.58566 27 1 
676 1.20644 7.45348 -0.0188747 -0.0100983 7.45351 2.59722 27 1 
678 1.20643 7.47981 -0.0191277 -0.0102001 7.47985 2.57448 27 1 
680 1.20641 7.50532 -0.018816 -0.00976683 7.50535 2.54876 27 1 
682 1.20641 7.52437 -0.0178201 -0.00870377 7.5244 2.53799 27 1 
684 1.20642 7.52972 -0.0162377 -0.00707882 7.52974 2.55979 27 1 
686 1.20643 7.51607 -0.0143814 -0.00518148 7.51609 2.58984 27 1 
688 1.20645 7.48263 -0.0126594 -0.00345797 7.48266 2.61258 27 1 
690 1.20645 7.43255 -0.0114569 -0.00224036 7.43259 2.62545 27 1 
692 1.20644 7.37305 -0.0110112 -0.00173232 7.37309 2.60899 27 1 
694 1.20643 7.31237 -0.0113284 -0.00195018 7.31241 2.58574 27 1 
696 1.20641 7.25852 -0.0122418 -0.00274889 7.25856 2.54867 27 1 
698 1.2064 7.2166 -0.0135004 -0.00388193 7.21662 2.52982 27 1 
700 1.20641 7.18889 -0.014849 -0.00508111 7.18891 2.54142 27 1 
702 1.20642 7.17576 -0.0161088 -0.00621698 7.17578 2.56574 27 1 
704 1.20645 7.17532 -0.0172091 -0.00719726 7.17534 2.61706 27 1 
704 1.20645 7.17532 -0.0172091 -0.00719726 7.17534 2.61706 31 1 
706 1.20647 7.18599 -0.0181128 -0.00797888 7.18602 2.64949 31 1 
708 1.20648 7.2058 -0.0188413 -0.00860286 7.20583 2.67299 31 1 
710 1.20648 7.23284 -0.0194285 -0.00911043 7.23288 2.68168 31 1 
712 1.20649 7.2661 -0.0199137 -0.00952611 7.26615 2.68297 31 1 
714 1.20651 7.30463 -0.0202889 -0.00983936 7.30468 2.72164 31 1 
716 1.20653 7.34828 -0.0206236 -0.0101395 7.34834 2.76491 31 1 
718 1.20657 7.39557 -0.0208945 -0.0104004 7.39562 2.83782 31 1 
720 1.20661 7.44547 -0.0210934 -0.0106102 7.44553 2.90255 31 1 
722 1.20663 7.49763 -0.0212519 -0.0107933 7.49769 2.94744 31 1 
724 1.20666 7.55144 -0.0213463 -0.0109319 7.55151 2.99644 31 1 
726 1.20667 7.60743 -0.0214269 -0.011039 7.6075 3.02495 31 1 
728 1.2067 7.66455 -0.0214746 -0.0111502 7.66462 3.0751 31 1 
730 1.20672 7.72272 -0.0214975 -0.0112865 7.72279 3.11149 31 1 
732 1.20674 7.78278 -0.0215558 -0.0114536 7.78285 3.14723 31 1 
734 1.20678 7.84365 -0.0216113 -0.011608 7.84371 3.20905 31 1 
736 1.20681 7.90527 -0.021621 -0.0117232 7.90534 3.26772 31 1 
738 1.20684 7.96869 -0.021633 -0.0118796 7.96876 3.32431 31 1 
740 1.20688 8.03286 -0.0216419 -0.0120129 8.03293 3.39142 31 1 
742 1.20692 8.09705 -0.0216251 -0.0121747 8.09712 3.46647 31 1 
744 1.20694 8.1624 -0.0216184 -0.0123503 8.16247 3.49812 31 1 
746 1.20696 8.22814 -0.021647 -0.0125323 8.22821 3.53826 31 1 
748 1.20699 8.29391 -0.0216447 -0.0127238 8.29398 3.59329 31 1 
750 1.207 8.36031 -0.0216348 -0.0129198 8.36038 3.61706 31 1 
752 1.20704 8.42734 -0.021532 -0.0130072 8.42741 3.67823 31 1 
752 1.20704 8.42734 -0.021532 -0.0130072 8.42741 3.67823 31 1 
754 1.20709 8.49447 -0.0214161 -0.013058 8.49454 3.77648 31 1 
756 1.20714 8.56115 -0.0213756 -0.0132354 8.56122 3.85896 31 1 
758 1.20717 8.62826 -0.0213471 -0.01341 8.62833 3.92819 31 1 
760 1.20721 8.69413 -0.0212665 -0.0135511 8.6942 4.00028 31 1 
762 1.20725 8.75812 -0.0210049 -0.0135877 8.75819 4.05633 31 1 
764 1.20725 8.82233 -0.0208096 -0.0136484 8.8224 4.06534 31 1 
766 1.20728 8.88434 -0.0206812 -0.0137589 8.88441 4.12604 31 1 
768 1.20733 8.94574 -0.0203506 -0.0137206 8.94581 4.21051 31 1 
770 1.20737 9.00616 -0.020172 -0.0137907 9.00622 4.27208 31 1 
772 1.20741 9.06411 -0.0199935 -0.0138587 9.06417 4.35924 31 1 
774 1.20745 9.1205 -0.0196748 -0.0138733 9.12055 4.4324 31 1 
776 1.20749 9.17391 -0.0193433 -0.0139745 9.17396 4.50426 31 1 
778 1.20753 9.22528 -0.0190838 -0.0139947 9.22533 4.56148 31 1 
780 1.20756 9.27375 -0.0186702 -0.0138927 9.27379 4.62867 31 1 
782 1.20762 9.31895 -0.0180487 -0.0136882 9.31899 4.72922 31 1 
784 1.20765 9.36128 -0.0177216 -0.0137267 9.36132 4.79047 31 1 
786 1.20769 9.40049 -0.0174389 -0.0138504 9.40053 4.86028 31 1 
788 1.20775 9.43636 -0.0170323 -0.0138869 9.4364 4.95873 31 1 
790 1.2078 9.46952 -0.0164802 -0.0136947 9.46955 5.05777 31 1 
792 1.20788 9.49889 -0.0159772 -0.0136825 9.49892 5.20523 31 1 
794 1.20796 9.52559 -0.0153836 -0.0137503 9.52561 5.34161 31 1 
796 1.20805 9.54825 -0.0146099 -0.0133589 9.54827 5.51425 31 1 
798 1.20815 9.5683 -0.0140347 -0.0131451 9.56832 5.68968 31 1 
800 1.20818 9.57902 -0.0138082 -0.0131565 9.57904 5.74168 31 1 
