73.3574;r ;Density                 ;Velocity u              ;Velocity v              ;Velocity w              ;|Velocity|              ;Pressure                ;Distribution            ;Levels                  ;
0 1.21115 9.99859 -9.56561e-06 -1.48068e-05 9.99859 11.1054 1 1 
4 1.21118 9.99816 -9.14711e-05 -9.21165e-06 9.99816 11.1623 1 1 
8 1.21121 9.99577 -0.000409527 -0.00024308 9.99577 11.2148 1 1 
12 1.2112 9.99382 -0.000697203 -0.000392352 9.99382 11.1994 1 1 
16 1.21123 9.99222 -0.000899299 -0.000528621 9.99222 11.2527 1 1 
20 1.21127 9.98919 -0.00118462 -0.000737951 9.98919 11.3338 1 1 
24 1.21127 9.98765 -0.00140192 -0.000852478 9.98765 11.3262 1 1 
28 1.2113 9.98496 -0.00167263 -0.00104711 9.98496 11.3851 1 1 
32 1.21133 9.9831 -0.00193929 -0.00120867 9.9831 11.4277 1 1 
36 1.21135 9.98183 -0.00211064 -0.00130541 9.98183 11.47 1 1 
40 1.21139 9.97931 -0.00239731 -0.00146817 9.97931 11.5406 1 1 
44 1.2114 9.97591 -0.00264451 -0.00162134 9.97591 11.561 1 1 
48 1.21141 9.974 -0.00291909 -0.00177067 9.974 11.5837 1 1 
52 1.21145 9.97158 -0.0031578 -0.00195905 9.97158 11.6417 1 1 
56 1.21148 9.96794 -0.00341966 -0.00209245 9.96794 11.6992 1 1 
60 1.21149 9.96682 -0.00370473 -0.00223993 9.96682 11.7163 1 1 
64 1.21153 9.96338 -0.00397217 -0.00243466 9.96338 11.7863 1 1 
64 1.21153 9.96338 -0.00397217 -0.00243466 9.96338 11.7863 2 1 
68 1.21153 9.96141 -0.00418849 -0.00255223 9.96141 11.8022 2 1 
72 1.21156 9.95963 -0.00445944 -0.00269779 9.95963 11.8501 2 1 
76 1.21159 9.95694 -0.00475365 -0.00289886 9.95694 11.8988 2 1 
80 1.21162 9.95369 -0.00501484 -0.00303697 9.9537 11.9573 2 1 
84 1.21163 9.95288 -0.00522078 -0.0031557 9.95288 11.9802 2 1 
88 1.21167 9.9512 -0.00550346 -0.00332472 9.9512 12.0395 2 1 
92 1.21171 9.94927 -0.00570595 -0.00339726 9.94927 12.1272 2 1 
96 1.21172 9.94934 -0.00601735 -0.00364163 9.94935 12.1324 2 1 
100 1.21177 9.94444 -0.00618083 -0.0037042 9.94444 12.2332 2 1 
104 1.21179 9.9409 -0.006488 -0.0038722 9.94091 12.2687 2 1 
108 1.21181 9.93853 -0.00672268 -0.00402071 9.93853 12.3075 2 1 
112 1.21185 9.93643 -0.00695969 -0.00420213 9.93643 12.3796 2 1 
116 1.21188 9.93517 -0.00730043 -0.00434285 9.93517 12.4346 2 1 
120 1.21191 9.93458 -0.00748949 -0.00448853 9.93458 12.4784 2 1 
124 1.21196 9.93102 -0.00779709 -0.00472524 9.93103 12.5692 2 1 
128 1.21198 9.92817 -0.00807705 -0.00484344 9.92818 12.6042 2 1 
128 1.21198 9.92817 -0.00807705 -0.00484344 9.92818 12.6042 10 1 
132 1.21197 9.92706 -0.00832163 -0.00498799 9.92706 12.5893 10 1 
136 1.21202 9.92214 -0.00853586 -0.00515505 9.92215 12.6852 10 1 
140 1.21202 9.92222 -0.0088924 -0.00533695 9.92223 12.6767 10 1 
144 1.21203 9.92017 -0.00909379 -0.00540387 9.92018 12.7051 10 1 
148 1.21207 9.91699 -0.00932701 -0.00568014 9.917 12.778 10 1 
152 1.21205 9.91842 -0.00967453 -0.00579664 9.91842 12.7366 10 1 
156 1.21206 9.91551 -0.00980625 -0.00577178 9.91551 12.7518 10 1 
160 1.21209 9.91202 -0.0101966 -0.00598465 9.91203 12.8103 10 1 
160 1.21209 9.91202 -0.0101966 -0.00598465 9.91203 12.8103 10 1 
164 1.21206 9.91308 -0.0103835 -0.00618477 9.91308 12.7487 10 1 
168 1.21209 9.90956 -0.0106226 -0.00623263 9.90956 12.8129 10 1 
172 1.2121 9.90648 -0.0108738 -0.00628268 9.90649 12.8306 10 1 
176 1.21204 9.91013 -0.011004 -0.00641893 9.91014 12.7198 10 1 
180 1.21213 9.90524 -0.0111767 -0.00634173 9.90525 12.8738 10 1 
184 1.21211 9.90308 -0.0114969 -0.00652213 9.90309 12.8418 10 1 
188 1.21208 9.902 -0.0116948 -0.00649705 9.90201 12.788 10 1 
192 1.21213 9.89383 -0.0118048 -0.006487 9.89384 12.8776 10 1 
196 1.21209 9.89296 -0.0122658 -0.00679769 9.89297 12.8151 10 1 
200 1.21211 9.89469 -0.0123053 -0.00673949 9.8947 12.8461 10 1 
204 1.2122 9.89184 -0.0125483 -0.00673464 9.89186 13.0059 10 1 
208 1.21221 9.88952 -0.012784 -0.00673425 9.88954 13.0248 10 1 
212 1.21217 9.88622 -0.0129358 -0.00677727 9.88623 12.9462 10 1 
216 1.21225 9.87678 -0.0133122 -0.00698016 9.8768 13.0972 10 1 
220 1.21228 9.86876 -0.0134537 -0.00708762 9.86877 13.1531 10 1 
224 1.21222 9.86456 -0.0135878 -0.00699376 9.86458 13.0326 10 1 
224 1.21222 9.86456 -0.0135878 -0.00699376 9.86458 13.0326 10 1 
228 1.21236 9.85629 -0.0139276 -0.00720532 9.8563 13.2851 10 1 
232 1.2124 9.8532 -0.0140667 -0.00720091 9.85322 13.3619 10 1 
236 1.21241 9.84649 -0.0143009 -0.00713823 9.84651 13.3869 10 1 
240 1.21249 9.83678 -0.0144434 -0.00721206 9.83679 13.5308 10 1 
244 1.2126 9.8235 -0.0145832 -0.00712806 9.82352 13.7219 10 1 
248 1.21272 9.80145 -0.015055 -0.00729145 9.80147 13.9373 10 1 
252 1.21266 9.7894 -0.0152143 -0.0073864 9.78943 13.8426 10 1 
256 1.21295 9.76694 -0.0153137 -0.00711376 9.76696 14.3582 10 1 
256 1.21295 9.76694 -0.0153137 -0.00711376 9.76696 14.3582 11 1 
260 1.21319 9.73509 -0.0155652 -0.00714161 9.73513 14.7973 11 1 
264 1.21314 9.70891 -0.0156364 -0.00720087 9.70895 14.6951 11 1 
268 1.21362 9.66255 -0.0159206 -0.00705072 9.6626 15.5673 11 1 
272 1.21424 9.60023 -0.0162306 -0.00713811 9.60028 16.6881 11 1 
276 1.21436 9.5272 -0.0162974 -0.00705449 9.52736 16.908 11 1 
280 1.21491 9.40726 -0.0165401 -0.0070145 9.40742 17.8911 11 1 
284 1.216 9.28291 -0.0166087 -0.00685452 9.28297 19.8673 11 1 
288 1.21712 9.13068 -0.0167697 -0.0066611 9.13079 21.8932 11 1 
292 1.21838 8.8923 -0.0170694 -0.00674718 8.89299 24.1751 11 1 
296 1.21489 8.58914 -0.016639 -0.00628356 8.58994 17.8551 11 1 
300 1.20836 8.36758 -0.0166922 -0.00604857 8.36784 6.06864 11 1 
304 1.20683 8.2099 -0.0167591 -0.00568657 8.21026 3.3114 11 1 
308 1.20802 8.02509 -0.0165911 -0.00523598 8.02571 5.44941 11 1 
312 1.20873 7.83315 -0.0167079 -0.00500727 7.83373 6.74626 11 1 
316 1.20928 7.65631 -0.0166495 -0.00458911 7.65664 7.7323 11 1 
320 1.20971 7.55028 -0.0167499 -0.00430022 7.55044 8.50068 11 1 
320 1.20971 7.55028 -0.0167499 -0.00430022 7.55044 8.50068 15 1 
324 1.21018 7.47474 -0.0169003 -0.00389349 7.4748 9.34975 15 1 
328 1.21061 7.42897 -0.017166 -0.00368227 7.42901 10.1376 15 1 
332 1.21091 7.38927 -0.0174318 -0.00352043 7.38931 10.6659 15 1 
336 1.21091 7.33833 -0.0176256 -0.00311703 7.33836 10.6788 15 1 
340 1.211 7.31801 -0.0178464 -0.00275676 7.31804 10.8411 15 1 
344 1.21132 7.31755 -0.0180301 -0.0024446 7.31758 11.4208 15 1 
348 1.21148 7.30731 -0.0183018 -0.00215578 7.30734 11.6993 15 1 
352 1.21149 7.29667 -0.0184902 -0.00178052 7.2967 11.7182 15 1 
356 1.21149 7.28298 -0.0185554 -0.0012697 7.28301 11.7216 15 1 
360 1.21153 7.2721 -0.0186546 -0.000741391 7.27213 11.7989 15 1 
364 1.21168 7.27677 -0.0188114 -0.000353821 7.27679 12.0694 15 1 
368 1.21173 7.27579 -0.0189367 1.79831e-05 7.27582 12.163 15 1 
372 1.21169 7.26381 -0.0189345 0.000610019 7.26384 12.0927 15 1 
376 1.21172 7.2543 -0.0188402 0.00126541 7.25432 12.1303 15 1 
380 1.21171 7.24531 -0.0188939 0.00170647 7.24534 12.1251 15 1 
384 1.21172 7.23994 -0.0190683 0.00209521 7.23997 12.1382 15 1 
384 1.21172 7.23994 -0.0190683 0.00209521 7.23997 12.1382 16 1 
388 1.21176 7.23665 -0.0191476 0.002649 7.23668 12.2057 16 1 
392 1.21175 7.22546 -0.019084 0.00324103 7.22549 12.1867 16 1 
396 1.2117 7.21162 -0.0191294 0.00374159 7.21165 12.1082 16 1 
400 1.21166 7.20107 -0.0194242 0.00418918 7.2011 12.0278 16 1 
404 1.21166 7.19336 -0.0196427 0.00465089 7.1934 12.0333 16 1 
408 1.21169 7.18727 -0.0196593 0.00521431 7.18731 12.0753 16 1 
412 1.21166 7.17802 -0.0196759 0.00577231 7.17806 12.0211 16 1 
416 1.21161 7.16602 -0.0198271 0.00626588 7.16606 11.9315 16 1 
420 1.21157 7.156 -0.0199726 0.00683129 7.15603 11.8635 16 1 
424 1.21156 7.1501 -0.0200155 0.00743931 7.15013 11.8529 16 1 
428 1.21157 7.146 -0.0199773 0.00800777 7.14603 11.863 16 1 
432 1.21154 7.13856 -0.0199989 0.00869016 7.1386 11.8043 16 1 
436 1.2115 7.12906 -0.0200718 0.00940085 7.12909 11.7319 16 1 
440 1.21146 7.12184 -0.0200863 0.0100118 7.12187 11.6632 16 1 
444 1.21143 7.11616 -0.0201057 0.0106665 7.1162 11.6108 16 1 
448 1.21143 7.11136 -0.020115 0.0114072 7.11141 11.6103 16 1 
448 1.21143 7.11136 -0.020115 0.0114072 7.11141 11.6103 17 1 
452 1.21141 7.10574 -0.0200851 0.0120938 7.10578 11.5711 17 1 
456 1.21136 7.09765 -0.0201534 0.0127074 7.09769 11.4818 17 1 
460 1.21131 7.09009 -0.020268 0.0133363 7.09014 11.3999 17 1 
464 1.21128 7.0845 -0.020254 0.0140276 7.08455 11.3428 17 1 
468 1.21127 7.07997 -0.0202655 0.0147158 7.08002 11.3264 17 1 
472 1.21125 7.07565 -0.0203699 0.0153252 7.0757 11.2912 17 1 
476 1.2112 7.06971 -0.0204462 0.0159857 7.06976 11.2033 17 1 
480 1.21116 7.06279 -0.0205295 0.0167123 7.06284 11.1208 17 1 
484 1.21113 7.05888 -0.0206254 0.01744 7.05894 11.0667 17 1 
488 1.21111 7.05723 -0.0207122 0.018165 7.05728 11.0441 17 1 
492 1.21109 7.0548 -0.0208702 0.0189299 7.05486 10.9981 17 1 
496 1.21105 7.05198 -0.0210661 0.0197313 7.05204 10.926 17 1 
500 1.21102 7.04939 -0.021272 0.0205306 7.04945 10.8699 17 1 
504 1.21098 7.04813 -0.0214679 0.0213791 7.0482 10.7942 17 1 
508 1.21095 7.04937 -0.021695 0.0222429 7.04944 10.7487 17 1 
512 1.21094 7.05123 -0.0219458 0.0231097 7.0513 10.7269 17 1 
512 1.21094 7.05123 -0.0219458 0.0231097 7.0513 10.7269 25 1 
516 1.2109 7.05185 -0.0222561 0.0239946 7.05193 10.6499 25 1 
520 1.21085 7.05265 -0.0225749 0.0248716 7.05273 10.5692 25 1 
524 1.21082 7.05469 -0.0229065 0.0257419 7.05477 10.5145 25 1 
528 1.21079 7.05861 -0.0233343 0.0266141 7.0587 10.4603 25 1 
532 1.21076 7.06331 -0.0237865 0.0274662 7.0634 10.4108 25 1 
536 1.21072 7.06664 -0.0242147 0.0283398 7.06674 10.3349 25 1 
540 1.21067 7.06977 -0.0247152 0.0292271 7.06987 10.2445 25 1 
544 1.21063 7.07424 -0.0252508 0.0300687 7.07435 10.1714 25 1 
548 1.21059 7.08021 -0.025788 0.0309278 7.08033 10.1041 25 1 
552 1.21056 7.08691 -0.0263088 0.0318633 7.08703 10.0416 25 1 
556 1.21051 7.09268 -0.0268783 0.0327591 7.09281 9.95512 25 1 
560 1.21046 7.09788 -0.0274156 0.0337319 7.09801 9.8565 25 1 
564 1.21041 7.10495 -0.0279544 0.0347064 7.10509 9.77148 25 1 
568 1.21036 7.11304 -0.0284826 0.0356962 7.11318 9.68908 25 1 
572 1.21032 7.12151 -0.0289784 0.0367504 7.12167 9.60319 25 1 
576 1.21027 7.12984 -0.0294911 0.0377988 7.13 9.50988 25 1 
576 1.21027 7.12984 -0.0294911 0.0377988 7.13 9.50988 26 1 
580 1.2102 7.13777 -0.0299779 0.0388855 7.13794 9.39615 26 1 
584 1.21015 7.14674 -0.0304779 0.0399602 7.14692 9.30321 26 1 
588 1.2101 7.15731 -0.0309952 0.0410742 7.1575 9.21947 26 1 
592 1.21005 7.16749 -0.0315271 0.0421559 7.16769 9.11646 26 1 
596 1.20998 7.17738 -0.0320227 0.0432581 7.17758 9.0038 26 1 
600 1.20992 7.1875 -0.0325422 0.0443779 7.18772 8.88694 26 1 
604 1.20986 7.19773 -0.0330739 0.045529 7.19796 8.78124 26 1 
608 1.2098 7.20928 -0.033604 0.0466053 7.20951 8.67651 26 1 
608 1.2098 7.20928 -0.033604 0.0466053 7.20951 8.67651 26 1 
612 1.20975 7.22052 -0.0341532 0.047655 7.22076 8.57764 26 1 
616 1.20968 7.23159 -0.0347058 0.0488037 7.23184 8.45624 26 1 
620 1.20961 7.24233 -0.0353002 0.0498679 7.24259 8.33251 26 1 
624 1.20955 7.25337 -0.0358811 0.050962 7.25363 8.217 26 1 
628 1.20949 7.26496 -0.036444 0.052033 7.26524 8.10373 26 1 
632 1.20943 7.27655 -0.0370733 0.0530772 7.27684 7.99877 26 1 
636 1.20936 7.28816 -0.0376914 0.0541273 7.28846 7.87554 26 1 
640 1.20929 7.29906 -0.0383205 0.0552119 7.29937 7.74638 26 1 
644 1.20922 7.31041 -0.0389562 0.0563149 7.31073 7.62392 26 1 
648 1.20916 7.32216 -0.0395701 0.057312 7.3225 7.51734 26 1 
652 1.2091 7.3342 -0.0402083 0.0584296 7.33455 7.40257 26 1 
656 1.20903 7.34548 -0.0408707 0.0594524 7.34584 7.28646 26 1 
660 1.20896 7.35679 -0.0415209 0.0605197 7.35715 7.15801 26 1 
664 1.20889 7.36804 -0.0421615 0.0615971 7.36842 7.03052 26 1 
668 1.20883 7.37931 -0.0428511 0.0626699 7.3797 6.92275 26 1 
672 1.20877 7.39144 -0.0434246 0.0637784 7.39184 6.81027 26 1 
672 1.20877 7.39144 -0.0434246 0.0637784 7.39184 6.81027 27 1 
676 1.20871 7.40241 -0.0440483 0.0648402 7.40282 6.70594 27 1 
680 1.20864 7.41358 -0.0447303 0.065956 7.41401 6.57887 27 1 
684 1.20858 7.42398 -0.0452607 0.0669517 7.42442 6.46059 27 1 
688 1.20851 7.43509 -0.0459508 0.0681341 7.43555 6.34643 27 1 
692 1.20846 7.4462 -0.0464786 0.0691337 7.44666 6.24263 27 1 
696 1.2084 7.45744 -0.0470577 0.0703854 7.45792 6.14083 27 1 
700 1.20834 7.46825 -0.047743 0.0713772 7.46874 6.03447 27 1 
704 1.20827 7.47871 -0.0482757 0.0723736 7.47921 5.91099 27 1 
704 1.20827 7.47871 -0.0482757 0.0723736 7.47921 5.91099 31 1 
708 1.20822 7.48911 -0.0487592 0.0734696 7.48963 5.81249 31 1 
712 1.20816 7.49996 -0.0493033 0.0744272 7.50049 5.71021 31 1 
716 1.20811 7.51054 -0.0497638 0.0756276 7.51109 5.60849 31 1 
720 1.20805 7.52083 -0.0502424 0.0768294 7.5214 5.51414 31 1 
724 1.20799 7.53154 -0.0508816 0.0777683 7.53211 5.39615 31 1 
728 1.20794 7.54161 -0.0513602 0.0787294 7.5422 5.30347 31 1 
732 1.20787 7.55319 -0.0517944 0.080082 7.55379 5.19212 31 1 
736 1.20783 7.56391 -0.0523245 0.0805987 7.56453 5.10654 31 1 
740 1.20777 7.57457 -0.0526267 0.0818833 7.5752 5.00724 31 1 
744 1.2077 7.58636 -0.0530329 0.0830918 7.587 4.88035 31 1 
748 1.20766 7.59638 -0.0535423 0.0842064 7.59704 4.81233 31 1 
752 1.20759 7.60933 -0.053339 0.0856647 7.61 4.66977 31 1 
756 1.20753 7.62116 -0.0542792 0.0864254 7.62184 4.57318 31 1 
760 1.20747 7.63579 -0.0552103 0.0874598 7.63649 4.46076 31 1 
764 1.20741 7.6506 -0.0553743 0.0885164 7.65132 4.35364 31 1 
768 1.20734 7.66559 -0.0559432 0.0899843 7.66632 4.2181 31 1 
772 1.20724 7.68285 -0.0562027 0.0928636 7.68362 4.0408 31 1 
776 1.20716 7.70169 -0.0558992 0.0953102 7.70249 3.89842 31 1 
780 1.20703 7.72909 -0.0570357 0.0952744 7.72989 3.66142 31 1 
784 1.20693 7.75525 -0.0592622 0.0967628 7.75609 3.48549 31 1 
788 1.20668 7.79733 -0.0595598 0.101158 7.79823 3.04006 31 1 
792 1.20645 7.8453 -0.0594669 0.107543 7.84629 2.6244 31 1 
796 1.20608 7.91899 -0.0610522 0.116356 7.92013 1.94398 31 1 
800 1.20573 7.97426 -0.062333 0.121157 7.97549 1.31518 31 1 
