32.6033;r ;Density                 ;Velocity u              ;Velocity v              ;Velocity w              ;|Velocity|              ;Pressure                ;Distribution            ;Levels                  ;
0 1.20455 9.99952 -6.02496e-05 -2.78259e-05 9.99952 -0.820938 1 1 
2 1.20457 9.99885 -8.53154e-05 -7.61614e-05 9.99885 -0.780279 1 1 
4 1.20456 9.99856 -0.00012422 -0.000147835 9.99856 -0.786786 1 1 
6 1.20455 9.99884 -0.000182342 -0.00022629 9.99884 -0.809926 1 1 
8 1.20456 9.99931 -0.000259287 -0.000325992 9.99931 -0.789136 1 1 
10 1.20456 9.9995 -0.000345401 -0.00042275 9.9995 -0.795668 1 1 
12 1.20455 9.99938 -0.000418016 -0.000524141 9.99938 -0.808592 1 1 
14 1.20454 10.0006 -0.000490429 -0.000618008 10.0006 -0.831594 1 1 
16 1.20455 10.0011 -0.000525908 -0.000676386 10.0011 -0.821678 1 1 
18 1.20454 10.001 -0.000596124 -0.000769666 10.001 -0.830432 1 1 
20 1.20453 10.0016 -0.000716609 -0.000908196 10.0016 -0.849377 1 1 
22 1.20455 10.0016 -0.000799217 -0.00102944 10.0016 -0.813508 1 1 
24 1.20454 10.0026 -0.000886965 -0.0011431 10.0026 -0.824191 1 1 
26 1.20452 10.0029 -0.000959095 -0.00122441 10.0029 -0.863051 1 1 
28 1.2045 10.0026 -0.00107148 -0.00135202 10.0026 -0.894298 1 1 
30 1.20449 10.0032 -0.00114453 -0.00145716 10.0032 -0.91763 1 1 
32 1.2045 10.0027 -0.00121582 -0.00153838 10.0027 -0.906537 1 1 
32 1.2045 10.0027 -0.00121582 -0.00153838 10.0027 -0.906537 1 1 
34 1.2045 10.0024 -0.00124624 -0.00158874 10.0024 -0.911781 1 1 
36 1.20449 10.002 -0.00134307 -0.00171707 10.002 -0.924407 1 1 
38 1.20446 10.0031 -0.00141426 -0.0018118 10.0031 -0.974141 1 1 
40 1.20446 10.0039 -0.00147907 -0.0019053 10.0039 -0.979718 1 1 
42 1.20446 10.0038 -0.00158956 -0.00203341 10.0038 -0.968687 1 1 
44 1.20446 10.0032 -0.00164568 -0.00209129 10.0032 -0.975457 1 1 
46 1.20446 10.0025 -0.00175501 -0.00220441 10.0025 -0.977291 1 1 
48 1.20443 10.0035 -0.00187153 -0.00235442 10.0035 -1.02053 1 1 
50 1.20443 10.0046 -0.00189223 -0.00237326 10.0046 -1.03415 1 1 
52 1.20442 10.0041 -0.00193329 -0.0024288 10.0041 -1.05294 1 1 
54 1.2044 10.0032 -0.00200535 -0.00249966 10.0032 -1.07497 1 1 
56 1.20441 10.0042 -0.00203367 -0.00253544 10.0042 -1.06264 1 1 
58 1.20441 10.0048 -0.00212469 -0.00265672 10.0048 -1.06873 1 1 
60 1.20438 10.0053 -0.00218638 -0.00273289 10.0053 -1.1132 1 1 
62 1.20437 10.0054 -0.00225011 -0.00282257 10.0054 -1.13371 1 1 
64 1.20436 10.0061 -0.00230916 -0.00288239 10.0061 -1.14925 1 1 
64 1.20436 10.0061 -0.00230916 -0.00288239 10.0061 -1.14925 2 1 
66 1.20436 10.0068 -0.00239468 -0.0029903 10.0068 -1.14883 2 1 
68 1.20433 10.0074 -0.00247116 -0.00307185 10.0074 -1.20444 2 1 
70 1.20432 10.007 -0.00251261 -0.00314619 10.007 -1.2344 2 1 
72 1.2043 10.0071 -0.00259758 -0.00325739 10.0071 -1.25568 2 1 
74 1.20428 10.0076 -0.00265603 -0.00330948 10.0076 -1.29995 2 1 
76 1.20428 10.0077 -0.00264351 -0.00333972 10.0077 -1.30833 2 1 
78 1.20423 10.0097 -0.0026684 -0.00338178 10.0097 -1.38689 2 1 
80 1.20422 10.0099 -0.00277252 -0.00350539 10.0099 -1.41214 2 1 
82 1.20422 10.01 -0.00282 -0.00358173 10.01 -1.41615 2 1 
84 1.20421 10.0102 -0.00284243 -0.00360281 10.0102 -1.4293 2 1 
86 1.2042 10.0097 -0.00293376 -0.00370038 10.0097 -1.4422 2 1 
88 1.20416 10.0107 -0.00300929 -0.00379897 10.0107 -1.50883 2 1 
90 1.20414 10.0113 -0.00296163 -0.00377843 10.0113 -1.55085 2 1 
92 1.20412 10.0112 -0.00308057 -0.00391419 10.0112 -1.59103 2 1 
94 1.2041 10.0112 -0.0032303 -0.00407345 10.0112 -1.62236 2 1 
96 1.2041 10.0109 -0.00322377 -0.00407677 10.0109 -1.62552 2 1 
96 1.2041 10.0109 -0.00322377 -0.00407677 10.0109 -1.62552 2 1 
98 1.20409 10.0114 -0.00332547 -0.00417578 10.0114 -1.64853 2 1 
100 1.20406 10.0124 -0.00341684 -0.00428923 10.0124 -1.69197 2 1 
102 1.20404 10.0127 -0.00344772 -0.00435362 10.0127 -1.74008 2 1 
104 1.20403 10.0124 -0.00352171 -0.00444618 10.0124 -1.75334 2 1 
106 1.20402 10.0131 -0.00362784 -0.00456641 10.0131 -1.77021 2 1 
108 1.20402 10.0121 -0.00378084 -0.00473503 10.0122 -1.76783 2 1 
110 1.204 10.0119 -0.0037952 -0.00475791 10.0119 -1.81045 2 1 
112 1.20397 10.0128 -0.00389472 -0.00488725 10.0128 -1.86381 2 1 
114 1.20396 10.0122 -0.00406436 -0.00507901 10.0122 -1.87872 2 1 
116 1.20393 10.0138 -0.00411005 -0.00514187 10.0138 -1.93298 2 1 
118 1.20392 10.0143 -0.00411498 -0.00516587 10.0143 -1.94874 2 1 
120 1.20393 10.0129 -0.0042367 -0.0052876 10.0129 -1.93662 2 1 
122 1.2039 10.0138 -0.00432843 -0.00540746 10.0138 -1.98217 2 1 
124 1.20389 10.0135 -0.00430125 -0.00542251 10.0135 -2.00763 2 1 
126 1.2039 10.0125 -0.00446053 -0.00559126 10.0125 -1.9958 2 1 
128 1.20386 10.014 -0.0046033 -0.00572209 10.014 -2.06458 2 1 
128 1.20386 10.014 -0.0046033 -0.00572209 10.014 -2.06458 10 1 
130 1.20386 10.0133 -0.00464599 -0.00580943 10.0133 -2.05129 10 1 
132 1.20386 10.0138 -0.00464552 -0.00583829 10.0138 -2.0608 10 1 
134 1.20382 10.0144 -0.00478195 -0.0059921 10.0144 -2.12486 10 1 
136 1.20382 10.0127 -0.00485053 -0.0060716 10.0127 -2.13702 10 1 
138 1.20379 10.0125 -0.00484437 -0.00608558 10.0125 -2.17771 10 1 
140 1.2038 10.013 -0.00497522 -0.0062577 10.013 -2.17288 10 1 
142 1.20379 10.0131 -0.00513131 -0.00638663 10.0131 -2.18016 10 1 
144 1.20379 10.0135 -0.00512132 -0.00641441 10.0135 -2.19163 10 1 
146 1.2038 10.014 -0.00511841 -0.00643039 10.014 -2.17272 10 1 
148 1.20378 10.0128 -0.00531752 -0.00662722 10.0128 -2.20102 10 1 
150 1.20374 10.0123 -0.00542745 -0.0067816 10.0123 -2.27623 10 1 
152 1.20374 10.012 -0.00539114 -0.00677006 10.012 -2.27402 10 1 
154 1.20375 10.0117 -0.00541736 -0.00679162 10.0117 -2.25354 10 1 
156 1.20374 10.0128 -0.00562757 -0.00701958 10.0128 -2.28136 10 1 
158 1.20373 10.0124 -0.00564464 -0.00707042 10.0124 -2.28755 10 1 
160 1.20373 10.0107 -0.0055335 -0.00699457 10.0107 -2.28769 10 1 
160 1.20373 10.0107 -0.0055335 -0.00699457 10.0107 -2.28769 10 1 
162 1.20371 10.0112 -0.00569278 -0.00717503 10.0112 -2.33111 10 1 
164 1.20372 10.0108 -0.00591807 -0.0073747 10.0108 -2.31996 10 1 
166 1.20375 10.0087 -0.00594482 -0.00741834 10.0087 -2.25504 10 1 
168 1.20371 10.0101 -0.00589971 -0.00742084 10.0101 -2.32676 10 1 
170 1.20371 10.0087 -0.00604626 -0.00759227 10.0087 -2.32612 10 1 
172 1.20371 10.0085 -0.0062387 -0.00778337 10.0085 -2.33071 10 1 
174 1.20368 10.0098 -0.00616273 -0.00773584 10.0098 -2.37923 10 1 
176 1.20373 10.0071 -0.00614219 -0.00768852 10.0072 -2.29423 10 1 
178 1.20372 10.0072 -0.00628461 -0.0078615 10.0072 -2.31614 10 1 
180 1.20371 10.006 -0.00644242 -0.0080686 10.006 -2.33088 10 1 
182 1.20371 10.0032 -0.00641725 -0.00805362 10.0032 -2.32271 10 1 
184 1.2037 10.0026 -0.00639377 -0.00805454 10.0026 -2.35453 10 1 
186 1.20373 10.0038 -0.00658983 -0.00825 10.0038 -2.29316 10 1 
188 1.20374 10.0041 -0.00679348 -0.00844002 10.0041 -2.26912 10 1 
190 1.20373 10.0028 -0.00684431 -0.00849232 10.0028 -2.29691 10 1 
192 1.20372 10.0023 -0.00663569 -0.00833616 10.0023 -2.3171 10 1 
194 1.20373 9.99988 -0.00687203 -0.00858391 9.99989 -2.29993 10 1 
196 1.20375 9.99728 -0.00721708 -0.00890279 9.99729 -2.26425 10 1 
198 1.20376 9.99681 -0.00708516 -0.00874711 9.99681 -2.23916 10 1 
200 1.20378 9.99549 -0.00693729 -0.00862757 9.9955 -2.20015 10 1 
202 1.20377 9.99497 -0.00677464 -0.00854259 9.99498 -2.2245 10 1 
204 1.20375 9.99533 -0.00688948 -0.00865737 9.99534 -2.26687 10 1 
206 1.2038 9.99248 -0.00717192 -0.00892856 9.99248 -2.16283 10 1 
208 1.20383 9.99184 -0.00711305 -0.00881809 9.99185 -2.11174 10 1 
210 1.2038 9.99321 -0.0069082 -0.00861222 9.99322 -2.16223 10 1 
212 1.20387 9.98737 -0.00692268 -0.00871566 9.98738 -2.04721 10 1 
214 1.20384 9.98321 -0.00691416 -0.00872497 9.98322 -2.09183 10 1 
216 1.20382 9.9795 -0.00678203 -0.00856369 9.97951 -2.12388 10 1 
218 1.2039 9.97371 -0.00657181 -0.0083348 9.97372 -1.98809 10 1 
220 1.2039 9.97774 -0.00639071 -0.00821659 9.97775 -1.99305 10 1 
222 1.20394 9.97934 -0.00662558 -0.00845022 9.97934 -1.91991 10 1 
224 1.20396 9.97478 -0.00712143 -0.00884019 9.97479 -1.87507 10 1 
224 1.20396 9.97478 -0.00712143 -0.00884019 9.97479 -1.87507 10 1 
226 1.20398 9.97123 -0.00751343 -0.00922583 9.97123 -1.83528 10 1 
228 1.20401 9.96321 -0.00754399 -0.00931003 9.96322 -1.79469 10 1 
230 1.20402 9.95605 -0.00729137 -0.00908928 9.95606 -1.77565 10 1 
232 1.20403 9.95628 -0.00690031 -0.00869972 9.95629 -1.74354 10 1 
234 1.20408 9.95505 -0.00660039 -0.00833408 9.95506 -1.66494 10 1 
236 1.20418 9.94821 -0.00648898 -0.00824939 9.94821 -1.4812 10 1 
238 1.20413 9.94662 -0.00646108 -0.00823524 9.94663 -1.56322 10 1 
240 1.20423 9.93756 -0.00665249 -0.00840677 9.93756 -1.38861 10 1 
242 1.20428 9.93048 -0.00669867 -0.00843998 9.93049 -1.3091 10 1 
244 1.20423 9.93026 -0.00662869 -0.00837412 9.93027 -1.39374 10 1 
246 1.20441 9.92067 -0.00667942 -0.00841309 9.92067 -1.07101 10 1 
248 1.20444 9.91291 -0.00661773 -0.00831559 9.91292 -1.00864 10 1 
250 1.20446 9.90318 -0.00667859 -0.00838139 9.90318 -0.975892 10 1 
252 1.20452 9.89421 -0.00687472 -0.00856218 9.89422 -0.864192 10 1 
254 1.20463 9.88438 -0.00677673 -0.00843025 9.88439 -0.667063 10 1 
256 1.20471 9.87368 -0.00678577 -0.00844521 9.87368 -0.523909 10 1 
256 1.20471 9.87368 -0.00678577 -0.00844521 9.87368 -0.523909 11 1 
258 1.20477 9.86056 -0.00687349 -0.00855646 9.86057 -0.414441 11 1 
260 1.20495 9.84611 -0.00690505 -0.00857142 9.84612 -0.0971311 11 1 
262 1.20505 9.82915 -0.00702734 -0.00865923 9.82915 0.0985698 11 1 
264 1.20505 9.81159 -0.00699161 -0.00859654 9.8116 0.0898992 11 1 
266 1.20523 9.79538 -0.00697781 -0.00860579 9.79539 0.421265 11 1 
268 1.2056 9.7647 -0.00704937 -0.00868559 9.76471 1.08934 11 1 
270 1.20554 9.7437 -0.00715643 -0.00874499 9.74371 0.982069 11 1 
272 1.20572 9.71258 -0.00712861 -0.00869124 9.7126 1.30783 11 1 
274 1.2062 9.66978 -0.00715868 -0.00875915 9.66979 2.16408 11 1 
276 1.2062 9.64235 -0.00722111 -0.0087916 9.64236 2.17546 11 1 
278 1.20652 9.59942 -0.00726514 -0.008818 9.59943 2.74955 11 1 
280 1.2071 9.55458 -0.0073071 -0.00884549 9.5546 3.78761 11 1 
282 1.20747 9.49499 -0.00730739 -0.00882341 9.49509 4.45943 11 1 
284 1.20776 9.4058 -0.00731369 -0.00885366 9.40596 4.98202 11 1 
286 1.20812 9.31498 -0.0073494 -0.00885917 9.31507 5.63808 11 1 
288 1.20878 9.23 -0.00739215 -0.008893 9.23002 6.83327 11 1 
288 1.20878 9.23 -0.00739215 -0.008893 9.23002 6.83327 11 1 
290 1.2096 9.15573 -0.00736802 -0.0088648 9.15575 8.30873 11 1 
292 1.21029 9.05661 -0.00746832 -0.00895068 9.05671 9.55196 11 1 
294 1.21083 8.92028 -0.00747577 -0.00896039 8.92054 10.5309 11 1 
296 1.2116 8.77946 -0.00741418 -0.00885788 8.77965 11.9126 11 1 
298 1.20736 8.6083 -0.00746678 -0.00888515 8.60839 4.25438 11 1 
300 1.20007 8.53713 -0.00736647 -0.00879438 8.53724 -8.89812 11 1 
302 1.19781 8.5074 -0.00743289 -0.0088535 8.50745 -12.9872 11 1 
304 1.19845 8.39099 -0.00751569 -0.00890638 8.39111 -11.8341 11 1 
306 1.19921 8.26037 -0.00747974 -0.00885717 8.26055 -10.4502 11 1 
308 1.19979 8.14007 -0.00750274 -0.00886001 8.14027 -9.40411 11 1 
310 1.20017 8.04986 -0.00747185 -0.0088118 8.05 -8.72197 11 1 
312 1.20065 7.95288 -0.00751578 -0.00886904 7.95292 -7.85156 11 1 
314 1.20113 7.88104 -0.0076343 -0.0089737 7.88107 -6.9916 11 1 
316 1.2015 7.82791 -0.00770665 -0.00902944 7.82793 -6.31874 11 1 
318 1.20184 7.75865 -0.00771732 -0.00904639 7.75866 -5.71114 11 1 
320 1.20213 7.71472 -0.00770316 -0.00901751 7.71474 -5.18475 11 1 
320 1.20213 7.71472 -0.00770316 -0.00901751 7.71474 -5.18475 15 1 
322 1.20241 7.68407 -0.00780467 -0.00911403 7.68408 -4.67267 15 1 
324 1.20268 7.63676 -0.00789385 -0.00919728 7.63677 -4.19845 15 1 
326 1.20287 7.60181 -0.00786106 -0.00914977 7.60183 -3.84511 15 1 
328 1.20305 7.57108 -0.0078356 -0.00911807 7.5711 -3.52915 15 1 
330 1.20317 7.53677 -0.00790815 -0.00917741 7.53679 -3.30584 15 1 
332 1.20336 7.51518 -0.00795798 -0.00922051 7.5152 -2.95419 15 1 
334 1.20358 7.48563 -0.00796214 -0.009226 7.48565 -2.56867 15 1 
336 1.20359 7.45011 -0.00799094 -0.00923465 7.45013 -2.55232 15 1 
338 1.20365 7.43025 -0.00804846 -0.00928529 7.43028 -2.44287 15 1 
340 1.20386 7.41343 -0.00814597 -0.00941135 7.41346 -2.0596 15 1 
342 1.20396 7.39539 -0.00819642 -0.0094615 7.3954 -1.88599 15 1 
344 1.20397 7.37327 -0.00817983 -0.00942178 7.37328 -1.86327 15 1 
346 1.204 7.34883 -0.00821014 -0.0094687 7.34885 -1.8065 15 1 
348 1.20413 7.34503 -0.00834888 -0.00963922 7.34504 -1.56986 15 1 
350 1.20429 7.34453 -0.00844717 -0.00973339 7.34454 -1.2874 15 1 
352 1.20428 7.32675 -0.00846602 -0.00974249 7.32676 -1.29456 15 1 
354 1.2043 7.31645 -0.00852226 -0.00982586 7.31646 -1.26214 15 1 
356 1.20442 7.31584 -0.00867442 -0.0100102 7.31586 -1.05319 15 1 
358 1.20448 7.31387 -0.00878164 -0.0100953 7.31388 -0.939459 15 1 
360 1.20454 7.315 -0.00877466 -0.0100682 7.31501 -0.82542 15 1 
362 1.2046 7.31273 -0.00876764 -0.0100973 7.31275 -0.728825 15 1 
364 1.20462 7.30889 -0.00887458 -0.0102175 7.30891 -0.694918 15 1 
366 1.20466 7.30984 -0.00900731 -0.0103265 7.30985 -0.620002 15 1 
368 1.20472 7.31181 -0.00901605 -0.0103555 7.31182 -0.514168 15 1 
370 1.20479 7.31632 -0.00895041 -0.0103228 7.31633 -0.370976 15 1 
372 1.20484 7.31727 -0.00898948 -0.0103506 7.31729 -0.28124 15 1 
374 1.20486 7.31318 -0.0091023 -0.010458 7.3132 -0.254864 15 1 
376 1.2049 7.3145 -0.00913834 -0.0105157 7.31451 -0.173223 15 1 
378 1.20494 7.31627 -0.00912425 -0.0105113 7.31629 -0.107315 15 1 
380 1.20498 7.31673 -0.00914774 -0.0105269 7.31675 -0.0376992 15 1 
382 1.20502 7.318 -0.00920386 -0.0105811 7.31802 0.0426214 15 1 
384 1.20504 7.3128 -0.00925242 -0.0106329 7.31281 0.0674175 15 1 
384 1.20504 7.3128 -0.00925242 -0.0106329 7.31281 0.0674175 16 1 
386 1.20508 7.3094 -0.00928079 -0.0106718 7.30941 0.136731 16 1 
388 1.20513 7.31162 -0.00933359 -0.0107313 7.31163 0.22691 16 1 
390 1.20516 7.30943 -0.00941562 -0.0108007 7.30944 0.291178 16 1 
392 1.2052 7.30519 -0.00944993 -0.0108491 7.30521 0.355408 16 1 
394 1.20521 7.29971 -0.00947394 -0.0109127 7.29973 0.374206 16 1 
396 1.20522 7.29309 -0.00953246 -0.0109674 7.2931 0.394883 16 1 
398 1.20524 7.28992 -0.00955836 -0.0109779 7.28994 0.441555 16 1 
400 1.20528 7.2864 -0.00955757 -0.011017 7.28641 0.509435 16 1 
402 1.20531 7.27939 -0.00963891 -0.0111304 7.27941 0.564825 16 1 
404 1.20531 7.27094 -0.00973866 -0.0112165 7.27096 0.553513 16 1 
406 1.20533 7.2637 -0.00973673 -0.0112261 7.26371 0.597106 16 1 
408 1.20537 7.25934 -0.00971244 -0.0112304 7.25936 0.677261 16 1 
410 1.20539 7.25384 -0.00977042 -0.0113107 7.25386 0.699715 16 1 
412 1.2054 7.24518 -0.00982202 -0.0113943 7.2452 0.729332 16 1 
414 1.20542 7.23788 -0.0098261 -0.0114155 7.2379 0.759843 16 1 
416 1.20543 7.23096 -0.00985208 -0.0114623 7.23098 0.783925 16 1 
416 1.20543 7.23096 -0.00985208 -0.0114623 7.23098 0.783925 16 1 
418 1.20545 7.22393 -0.00990453 -0.0115681 7.22395 0.811513 16 1 
420 1.20546 7.21845 -0.00996521 -0.0116667 7.21847 0.833016 16 1 
422 1.20548 7.2118 -0.0100321 -0.0117462 7.21181 0.875083 16 1 
424 1.2055 7.20509 -0.0100805 -0.0118257 7.20511 0.902465 16 1 
426 1.2055 7.19828 -0.0101226 -0.0119135 7.1983 0.911462 16 1 
428 1.20552 7.19135 -0.0101825 -0.0119788 7.19136 0.94663 16 1 
430 1.20555 7.18652 -0.0102378 -0.0120186 7.18654 0.984454 16 1 
432 1.20555 7.18116 -0.0102998 -0.0120866 7.18118 0.995817 16 1 
434 1.20555 7.17367 -0.0103958 -0.0121955 7.17369 0.99765 16 1 
436 1.20557 7.16718 -0.0105391 -0.0123406 7.1672 1.02896 16 1 
438 1.20558 7.16317 -0.0106876 -0.0124885 7.16319 1.05391 16 1 
440 1.20558 7.15973 -0.0107784 -0.0125743 7.15975 1.04402 16 1 
442 1.20558 7.15581 -0.0108407 -0.012638 7.15584 1.05057 16 1 
444 1.2056 7.1515 -0.0108977 -0.0127242 7.15153 1.07647 16 1 
446 1.20561 7.14816 -0.0109781 -0.0128169 7.14818 1.10063 16 1 
448 1.20562 7.14609 -0.0111013 -0.0129318 7.14611 1.11902 16 1 
448 1.20562 7.14609 -0.0111013 -0.0129318 7.14611 1.11902 17 1 
450 1.20563 7.1449 -0.0111875 -0.0130461 7.14492 1.14152 17 1 
452 1.20564 7.14486 -0.0112412 -0.0131489 7.14488 1.15565 17 1 
454 1.20565 7.14474 -0.0113369 -0.0132718 7.14476 1.16512 17 1 
456 1.20565 7.14436 -0.0114378 -0.0133745 7.14438 1.17648 17 1 
458 1.20565 7.14448 -0.0114906 -0.0134499 7.14451 1.17286 17 1 
460 1.20565 7.14516 -0.0115509 -0.0135541 7.14518 1.18041 17 1 
462 1.20566 7.14676 -0.0116497 -0.0136767 7.14678 1.1947 17 1 
464 1.20567 7.14875 -0.0117256 -0.0137845 7.14877 1.20779 17 1 
466 1.20568 7.15132 -0.0117779 -0.0138774 7.15134 1.22022 17 1 
468 1.20569 7.1559 -0.011854 -0.0139744 7.15592 1.23913 17 1 
470 1.2057 7.16038 -0.0119309 -0.014061 7.16041 1.26427 17 1 
472 1.20569 7.16275 -0.0119936 -0.0141256 7.16277 1.25199 17 1 
474 1.20568 7.16445 -0.0120657 -0.0142241 7.16448 1.23029 17 1 
476 1.20568 7.16721 -0.0121586 -0.0143733 7.16723 1.2214 17 1 
478 1.20568 7.17263 -0.0122778 -0.0145159 7.17265 1.22861 17 1 
480 1.20569 7.18143 -0.0124177 -0.0146575 7.18146 1.24889 17 1 
480 1.20569 7.18143 -0.0124177 -0.0146575 7.18146 1.24889 17 1 
482 1.20569 7.19097 -0.0125037 -0.0147701 7.19099 1.24551 17 1 
484 1.20569 7.19874 -0.012496 -0.0147753 7.19876 1.24871 17 1 
486 1.2057 7.20416 -0.0124803 -0.0147243 7.20419 1.268 17 1 
488 1.20571 7.20755 -0.0125067 -0.0147259 7.20758 1.27353 17 1 
490 1.20569 7.21161 -0.0125695 -0.01484 7.21164 1.2497 17 1 
492 1.20568 7.21868 -0.0127413 -0.0150624 7.21871 1.23226 17 1 
494 1.20568 7.22946 -0.0130001 -0.0153171 7.22949 1.23593 17 1 
496 1.20569 7.24381 -0.0131693 -0.0155162 7.24385 1.24083 17 1 
498 1.20569 7.25974 -0.0131799 -0.0155703 7.25977 1.25202 17 1 
500 1.20569 7.27473 -0.0131126 -0.0154672 7.27476 1.24166 17 1 
502 1.20569 7.28639 -0.0130135 -0.015313 7.28642 1.24766 17 1 
504 1.2057 7.29365 -0.0129272 -0.0152185 7.29368 1.26138 17 1 
506 1.20569 7.29888 -0.0129424 -0.0152436 7.29891 1.25147 17 1 
508 1.20569 7.30582 -0.0130856 -0.0154035 7.30585 1.24201 17 1 
510 1.20568 7.31696 -0.0132777 -0.0156556 7.317 1.22615 17 1 
512 1.20568 7.33329 -0.013465 -0.0159042 7.33332 1.23015 17 1 
512 1.20568 7.33329 -0.013465 -0.0159042 7.33332 1.23015 25 1 
514 1.20568 7.35436 -0.0136094 -0.0160556 7.3544 1.2355 25 1 
516 1.20568 7.37738 -0.0136303 -0.016074 7.37742 1.23211 25 1 
518 1.20568 7.39837 -0.013506 -0.0159399 7.3984 1.22822 25 1 
520 1.20568 7.41429 -0.0132712 -0.0156441 7.41432 1.22989 25 1 
522 1.20569 7.42275 -0.0130128 -0.0153042 7.42278 1.24287 25 1 
524 1.20568 7.42394 -0.0128398 -0.0151073 7.42397 1.22779 25 1 
526 1.20566 7.42265 -0.0128589 -0.0151362 7.42267 1.19944 25 1 
528 1.20566 7.42511 -0.0130593 -0.0153631 7.42514 1.19067 25 1 
530 1.20566 7.43511 -0.0133391 -0.0157124 7.43514 1.19658 25 1 
532 1.20565 7.4535 -0.0136048 -0.0160341 7.45353 1.17822 25 1 
534 1.20563 7.47828 -0.0137752 -0.0162068 7.47831 1.14016 25 1 
536 1.20562 7.50654 -0.0137957 -0.0162219 7.50657 1.12377 25 1 
538 1.20563 7.53476 -0.0136433 -0.0160509 7.53479 1.14284 25 1 
540 1.20563 7.55688 -0.0133217 -0.0156375 7.55691 1.14128 25 1 
542 1.2056 7.56775 -0.0128266 -0.0150011 7.56778 1.08801 25 1 
544 1.20559 7.56429 -0.0122089 -0.0142403 7.56431 1.06029 25 1 
544 1.20559 7.56429 -0.0122089 -0.0142403 7.56431 1.06029 25 1 
546 1.20559 7.54355 -0.0115809 -0.0134712 7.54358 1.05794 25 1 
548 1.20558 7.50539 -0.0110606 -0.0128044 7.50543 1.05538 25 1 
550 1.20557 7.45386 -0.0107145 -0.0123355 7.4539 1.02116 25 1 
552 1.20553 7.3954 -0.0105964 -0.0121719 7.39544 0.966084 25 1 
554 1.20553 7.33884 -0.0107615 -0.0123529 7.33888 0.954512 25 1 
556 1.20553 7.29229 -0.0111867 -0.0128088 7.29233 0.956057 25 1 
558 1.20552 7.26111 -0.0117652 -0.0134573 7.26114 0.945135 25 1 
560 1.20553 7.24962 -0.0124172 -0.0141994 7.24965 0.952676 25 1 
562 1.20555 7.25882 -0.0130751 -0.0149167 7.25885 0.992704 25 1 
564 1.20557 7.28678 -0.0136706 -0.0155684 7.28682 1.0273 25 1 
566 1.20559 7.33161 -0.0141815 -0.0161492 7.33166 1.06141 25 1 
568 1.20562 7.39122 -0.0146244 -0.0166396 7.39128 1.11833 25 1 
570 1.20566 7.46362 -0.0150016 -0.0170384 7.4637 1.19337 25 1 
572 1.2057 7.5468 -0.0152902 -0.0173434 7.5469 1.26927 25 1 
574 1.20573 7.63839 -0.0155211 -0.0175733 7.63849 1.32596 25 1 
576 1.20576 7.73701 -0.0157004 -0.0177386 7.73712 1.37159 25 1 
576 1.20576 7.73701 -0.0157004 -0.0177386 7.73712 1.37159 26 1 
578 1.20579 7.84183 -0.0158256 -0.0178598 7.84195 1.42158 26 1 
580 1.20582 7.95129 -0.0159269 -0.0179519 7.95142 1.48263 26 1 
582 1.20585 8.06373 -0.0159966 -0.0179876 8.06386 1.5389 26 1 
584 1.20588 8.17744 -0.0160262 -0.0179874 8.17757 1.58723 26 1 
586 1.2059 8.29158 -0.016021 -0.0179658 8.29171 1.62319 26 1 
588 1.20592 8.40612 -0.0159863 -0.017889 8.40625 1.65657 26 1 
590 1.20593 8.51989 -0.0159182 -0.0177632 8.52001 1.67739 26 1 
592 1.20592 8.63186 -0.0158267 -0.0176205 8.63197 1.66382 26 1 
594 1.20591 8.74042 -0.0157286 -0.0174629 8.74053 1.64621 26 1 
596 1.20592 8.84425 -0.0155964 -0.0172657 8.84435 1.65929 26 1 
598 1.20593 8.94369 -0.0153971 -0.0170155 8.94379 1.68464 26 1 
600 1.20593 9.03991 -0.0151701 -0.0167353 9.04 1.68272 26 1 
602 1.20592 9.13279 -0.0149789 -0.0164665 9.13287 1.66833 26 1 
604 1.20591 9.22001 -0.0148067 -0.0162127 9.22008 1.65085 26 1 
606 1.20591 9.30056 -0.0146341 -0.0159696 9.30063 1.63564 26 1 
608 1.2059 9.37458 -0.0144563 -0.0157268 9.37464 1.61781 26 1 
608 1.2059 9.37458 -0.0144563 -0.0157268 9.37464 1.61781 26 1 
610 1.20587 9.4434 -0.0142326 -0.0154257 9.44345 1.57215 26 1 
612 1.20585 9.50799 -0.0139775 -0.0150836 9.50803 1.5267 26 1 
614 1.20584 9.5672 -0.0137231 -0.0147428 9.56724 1.51862 26 1 
616 1.20586 9.62011 -0.0134928 -0.0144314 9.62015 1.54629 26 1 
618 1.20587 9.66672 -0.0132848 -0.0141635 9.66675 1.57809 26 1 
620 1.20586 9.70815 -0.0130495 -0.0138656 9.70817 1.56153 26 1 
622 1.20583 9.74464 -0.0128137 -0.0135512 9.74466 1.49592 26 1 
624 1.20579 9.77503 -0.0126046 -0.0132821 9.77505 1.43544 26 1 
626 1.20579 9.79909 -0.0124316 -0.0130612 9.79911 1.432 26 1 
628 1.20581 9.81866 -0.0122765 -0.0128519 9.81868 1.46815 26 1 
630 1.20582 9.83618 -0.0121171 -0.0126361 9.83619 1.48674 26 1 
632 1.20582 9.85173 -0.0119842 -0.0124483 9.85174 1.47428 26 1 
634 1.2058 9.86425 -0.0118851 -0.0122856 9.86427 1.44673 26 1 
636 1.20579 9.8739 -0.0117914 -0.0121288 9.87391 1.42457 26 1 
638 1.20578 9.88246 -0.0117288 -0.0120297 9.88247 1.41715 26 1 
640 1.20579 9.89117 -0.0117086 -0.0119748 9.89118 1.43485 26 1 
642 1.20581 9.89809 -0.0116591 -0.0119018 9.8981 1.45479 26 1 
644 1.2058 9.90338 -0.0115714 -0.0118009 9.9034 1.44327 26 1 
646 1.20577 9.90881 -0.011484 -0.0116882 9.90883 1.39401 26 1 
648 1.20576 9.91484 -0.0114096 -0.0115885 9.91485 1.37145 26 1 
650 1.20579 9.92154 -0.0113885 -0.0115366 9.92155 1.42379 26 1 
652 1.20582 9.92739 -0.0114035 -0.0115287 9.92741 1.47726 26 1 
654 1.2058 9.93178 -0.0113692 -0.0114884 9.93179 1.45264 26 1 
656 1.20577 9.9352 -0.0112849 -0.0113834 9.93521 1.38806 26 1 
658 1.20576 9.93788 -0.0112086 -0.0112664 9.93789 1.37507 26 1 
660 1.20578 9.94003 -0.0111271 -0.0111654 9.94004 1.40414 26 1 
662 1.20578 9.94326 -0.011043 -0.0110522 9.94328 1.40722 26 1 
664 1.20577 9.94829 -0.0110218 -0.0109848 9.94831 1.39855 26 1 
666 1.20579 9.95305 -0.0110571 -0.0109865 9.95306 1.42926 26 1 
668 1.20582 9.95634 -0.0110218 -0.0109105 9.95635 1.47244 26 1 
670 1.2058 9.95774 -0.0109177 -0.0107632 9.95775 1.44448 26 1 
672 1.20574 9.95787 -0.0108179 -0.0106414 9.95788 1.33834 26 1 
672 1.20574 9.95787 -0.0108179 -0.0106414 9.95788 1.33834 27 1 
674 1.20572 9.95917 -0.0107654 -0.0105636 9.95918 1.30662 27 1 
676 1.20577 9.96237 -0.0107698 -0.010522 9.96239 1.39669 27 1 
678 1.20582 9.96697 -0.0107835 -0.0105203 9.96698 1.48303 27 1 
680 1.20582 9.97003 -0.0107402 -0.0104759 9.97005 1.48341 27 1 
682 1.20578 9.97023 -0.0106114 -0.0103283 9.97024 1.41248 27 1 
684 1.20575 9.97024 -0.0104968 -0.0101912 9.97025 1.3535 27 1 
686 1.20575 9.97092 -0.0104305 -0.010133 9.97093 1.354 27 1 
688 1.20577 9.97251 -0.0103801 -0.0100833 9.97252 1.38447 27 1 
690 1.20578 9.97477 -0.0103452 -0.0100196 9.97478 1.41551 27 1 
692 1.20579 9.97686 -0.0103089 -0.00997858 9.97687 1.43038 27 1 
694 1.20579 9.97861 -0.0102427 -0.00992479 9.97862 1.43514 27 1 
696 1.20579 9.97909 -0.0101533 -0.00981683 9.9791 1.42709 27 1 
698 1.20576 9.97817 -0.0100704 -0.00971821 9.97818 1.37169 27 1 
700 1.20573 9.97774 -0.010005 -0.00965992 9.97775 1.32128 27 1 
702 1.20575 9.97876 -0.00994219 -0.00958463 9.97877 1.35516 27 1 
704 1.20579 9.98098 -0.00989401 -0.00952255 9.98099 1.43191 27 1 
704 1.20579 9.98098 -0.00989401 -0.00952255 9.98099 1.43191 31 1 
706 1.2058 9.98278 -0.00983192 -0.00945706 9.98279 1.4441 31 1 
708 1.20577 9.98213 -0.00975658 -0.00938138 9.98213 1.38352 31 1 
710 1.20575 9.98082 -0.00969293 -0.00930807 9.98083 1.34878 31 1 
712 1.20576 9.98026 -0.00960541 -0.00922335 9.98027 1.36696 31 1 
714 1.20576 9.98015 -0.00952332 -0.00913893 9.98016 1.36763 31 1 
716 1.20574 9.98126 -0.00947753 -0.00908159 9.98127 1.34014 31 1 
718 1.20574 9.98208 -0.00943111 -0.00903307 9.98209 1.33172 31 1 
720 1.20575 9.98235 -0.0093791 -0.00897316 9.98236 1.35252 31 1 
722 1.20576 9.9824 -0.00929064 -0.00887293 9.9824 1.37684 31 1 
724 1.20576 9.98096 -0.00921275 -0.00879057 9.98097 1.37719 31 1 
726 1.20574 9.98011 -0.00915422 -0.00873578 9.98012 1.32806 31 1 
728 1.20571 9.98085 -0.00909967 -0.00866749 9.98086 1.28031 31 1 
730 1.20573 9.98226 -0.00906568 -0.00862814 9.98227 1.31427 31 1 
732 1.20574 9.98291 -0.00901962 -0.00859801 9.98292 1.34475 31 1 
734 1.20572 9.98164 -0.0089392 -0.00851942 9.98165 1.29712 31 1 
736 1.2057 9.98087 -0.00885383 -0.00842607 9.98088 1.27227 31 1 
738 1.20572 9.98149 -0.00880738 -0.00837372 9.98149 1.30547 31 1 
740 1.20573 9.98274 -0.0087689 -0.00833695 9.98275 1.32399 31 1 
742 1.20572 9.98393 -0.00871101 -0.00828194 9.98394 1.29784 31 1 
744 1.2057 9.98351 -0.0086215 -0.00818918 9.98351 1.25786 31 1 
746 1.20569 9.98297 -0.00853471 -0.00810324 9.98297 1.24569 31 1 
748 1.20571 9.98418 -0.00848949 -0.00805752 9.98418 1.27764 31 1 
750 1.20572 9.98496 -0.00844974 -0.00801734 9.98497 1.30159 31 1 
752 1.20569 9.98502 -0.00840912 -0.00797199 9.98502 1.24717 31 1 
752 1.20569 9.98502 -0.00840912 -0.00797199 9.98502 1.24717 31 1 
754 1.20566 9.98583 -0.00835216 -0.00790294 9.98583 1.1884 31 1 
756 1.20568 9.98658 -0.00825401 -0.00781059 9.98659 1.22922 31 1 
758 1.20571 9.98757 -0.00816012 -0.00772262 9.98758 1.2897 31 1 
760 1.2057 9.98787 -0.00809557 -0.00765258 9.98788 1.25849 31 1 
762 1.20566 9.98654 -0.00805345 -0.00761827 9.98654 1.19401 31 1 
764 1.20566 9.98748 -0.0079981 -0.00755709 9.98749 1.18364 31 1 
766 1.20567 9.98932 -0.00789597 -0.00744704 9.98933 1.20387 31 1 
768 1.20567 9.98876 -0.00780024 -0.00736465 9.98876 1.21577 31 1 
770 1.20566 9.9884 -0.00773237 -0.00729486 9.9884 1.19394 31 1 
772 1.20564 9.9881 -0.00768372 -0.0072281 9.98811 1.15427 31 1 
774 1.20565 9.98881 -0.0076392 -0.00718614 9.98881 1.17899 31 1 
776 1.20566 9.9895 -0.00757318 -0.00712124 9.98951 1.19342 31 1 
778 1.20562 9.9882 -0.00746412 -0.00700515 9.98821 1.1262 31 1 
780 1.20562 9.98794 -0.0073601 -0.00690447 9.98795 1.11069 31 1 
782 1.20563 9.9882 -0.007315 -0.00686522 9.9882 1.14262 31 1 
784 1.20564 9.98844 -0.00727865 -0.00683324 9.98845 1.15623 31 1 
786 1.20564 9.98843 -0.00720707 -0.00676724 9.98844 1.14931 31 1 
788 1.20559 9.98648 -0.00710887 -0.00666747 9.98649 1.06597 31 1 
790 1.20556 9.98603 -0.00699269 -0.00656192 9.98604 1.01285 31 1 
792 1.20561 9.98753 -0.00689847 -0.00647223 9.98754 1.09325 31 1 
794 1.20563 9.98632 -0.00688148 -0.00644092 9.98633 1.13597 31 1 
796 1.20559 9.98563 -0.0068559 -0.00641293 9.98563 1.07407 31 1 
798 1.20556 9.98588 -0.00677669 -0.00632644 9.98589 1.00983 31 1 
800 1.20555 9.98514 -0.00672847 -0.00627432 9.98514 0.984792 31 1 
