84.2252;r ;Density                 ;Velocity u              ;Velocity v              ;Velocity w              ;|Velocity|              ;Pressure                ;Distribution            ;Levels                  ;
0 1.21492 10.0004 1.59552e-05 5.51759e-05 10.0004 17.9231 1 1 
4 1.21494 10.0015 -4.38437e-05 0.000106791 10.0015 17.9578 1 1 
8 1.21494 10.0021 -0.000329705 -1.80435e-05 10.0021 17.9631 1 1 
12 1.21491 10.0032 -0.000582807 -7.61817e-05 10.0032 17.9 1 1 
16 1.21491 10.0046 -0.000758227 -0.000132784 10.0046 17.9047 1 1 
20 1.21493 10.0045 -0.00103311 -0.000276573 10.0045 17.9333 1 1 
24 1.21489 10.006 -0.00125972 -0.000327904 10.006 17.8706 1 1 
28 1.21489 10.0065 -0.00153894 -0.000453556 10.0065 17.8696 1 1 
32 1.21488 10.0076 -0.00181207 -0.000552226 10.0076 17.848 1 1 
36 1.21487 10.0091 -0.00200266 -0.00060547 10.0091 17.8271 1 1 
40 1.21488 10.0096 -0.00230009 -0.000717878 10.0096 17.8369 1 1 
44 1.21485 10.0091 -0.00251656 -0.000780423 10.0091 17.7921 1 1 
48 1.21482 10.0099 -0.00275053 -0.000827247 10.0099 17.7453 1 1 
52 1.21482 10.0103 -0.00296527 -0.000918852 10.0103 17.7357 1 1 
56 1.21481 10.0094 -0.00322032 -0.000961424 10.0094 17.7258 1 1 
60 1.21478 10.0109 -0.00350809 -0.00103646 10.0109 17.6726 1 1 
64 1.21478 10.01 -0.00380618 -0.00121642 10.01 17.6735 1 1 
64 1.21478 10.01 -0.00380618 -0.00121642 10.01 17.6735 2 1 
68 1.21475 10.0106 -0.00405851 -0.00133619 10.0106 17.6195 2 1 
72 1.21474 10.0114 -0.00436277 -0.00145681 10.0114 17.5924 2 1 
76 1.21472 10.0113 -0.00469644 -0.00164225 10.0113 17.5613 2 1 
80 1.21471 10.0106 -0.0050152 -0.00179713 10.0106 17.5406 2 1 
84 1.21468 10.0123 -0.00527484 -0.00190595 10.0123 17.4819 2 1 
88 1.21466 10.0133 -0.00560369 -0.0020242 10.0133 17.4526 2 1 
92 1.21466 10.0141 -0.00586705 -0.00209233 10.0141 17.4481 2 1 
96 1.21461 10.0167 -0.00623544 -0.00234962 10.0167 17.3595 2 1 
100 1.21461 10.0145 -0.00643098 -0.00237672 10.0145 17.3659 2 1 
104 1.21458 10.0137 -0.00676314 -0.00248047 10.0138 17.3022 2 1 
108 1.21454 10.0141 -0.00702128 -0.00258605 10.0141 17.2386 2 1 
112 1.21453 10.0145 -0.00725762 -0.00270755 10.0145 17.2086 2 1 
116 1.2145 10.016 -0.00760142 -0.00277579 10.016 17.1623 2 1 
120 1.21447 10.0181 -0.00779771 -0.00283843 10.0181 17.106 2 1 
124 1.21447 10.0169 -0.00808172 -0.0029817 10.0169 17.0984 2 1 
128 1.21443 10.0164 -0.0083333 -0.00301306 10.0164 17.0395 2 1 
128 1.21443 10.0164 -0.0083333 -0.00301306 10.0164 17.0395 10 1 
132 1.21438 10.0178 -0.00857857 -0.00307443 10.0178 16.9341 10 1 
136 1.21438 10.0151 -0.00877317 -0.00313743 10.0151 16.9441 10 1 
140 1.21433 10.0171 -0.00909265 -0.00322783 10.0171 16.8558 10 1 
144 1.21431 10.0171 -0.00927701 -0.00320443 10.0171 16.8102 10 1 
148 1.21431 10.0158 -0.00949922 -0.00335531 10.0158 16.8133 10 1 
152 1.21425 10.0187 -0.00981238 -0.0033672 10.0187 16.7047 10 1 
156 1.21422 10.0175 -0.00991844 -0.00328441 10.0175 16.6573 10 1 
160 1.21422 10.0157 -0.0103162 -0.0034107 10.0157 16.6568 10 1 
160 1.21422 10.0157 -0.0103162 -0.0034107 10.0157 16.6568 10 1 
164 1.21416 10.0181 -0.010505 -0.00348823 10.0181 16.5371 10 1 
168 1.21416 10.016 -0.0107153 -0.00344429 10.016 16.5495 10 1 
172 1.21414 10.0145 -0.0109521 -0.00344358 10.0145 16.5126 10 1 
176 1.21405 10.0195 -0.0110986 -0.00347759 10.0195 16.3418 10 1 
180 1.2141 10.016 -0.011272 -0.00327216 10.016 16.4433 10 1 
184 1.21405 10.0153 -0.0115583 -0.00335762 10.0153 16.3538 10 1 
188 1.21399 10.0156 -0.0117408 -0.00326299 10.0156 16.2384 10 1 
192 1.21401 10.0088 -0.011874 -0.00314826 10.0088 16.2698 10 1 
196 1.21394 10.0096 -0.01233 -0.00334036 10.0096 16.1433 10 1 
200 1.21392 10.0129 -0.0123203 -0.00316919 10.0129 16.1065 10 1 
204 1.21397 10.0115 -0.012559 -0.00305956 10.0115 16.2027 10 1 
208 1.21394 10.0107 -0.0128273 -0.00295528 10.0107 16.1568 10 1 
212 1.21386 10.009 -0.0129507 -0.00288743 10.009 16.0052 10 1 
216 1.21391 10.0012 -0.0132811 -0.00297563 10.0012 16.0887 10 1 
220 1.2139 9.99474 -0.0134409 -0.00296609 9.99475 16.0788 10 1 
224 1.21379 9.99208 -0.0135863 -0.00274979 9.9921 15.8835 10 1 
224 1.21379 9.99208 -0.0135863 -0.00274979 9.9921 15.8835 10 1 
228 1.2139 9.98537 -0.0138995 -0.00285824 9.98539 16.0725 10 1 
232 1.2139 9.9839 -0.0140512 -0.00278292 9.98392 16.0843 10 1 
236 1.21388 9.97867 -0.0143495 -0.00263069 9.97869 16.0391 10 1 
240 1.21392 9.97042 -0.0145291 -0.00263961 9.97044 16.1163 10 1 
244 1.214 9.95881 -0.0146927 -0.00251312 9.95883 16.2481 10 1 
248 1.21408 9.93824 -0.0152261 -0.00260777 9.93826 16.406 10 1 
252 1.21399 9.92771 -0.0154341 -0.00259241 9.92773 16.241 10 1 
256 1.21425 9.90663 -0.0155425 -0.00224252 9.90665 16.7074 10 1 
256 1.21425 9.90663 -0.0155425 -0.00224252 9.90665 16.7074 11 1 
260 1.21447 9.87605 -0.0158285 -0.00222958 9.87609 17.0968 11 1 
264 1.21437 9.8513 -0.015953 -0.00219459 9.85135 16.9265 11 1 
268 1.21484 9.80598 -0.0162584 -0.00195628 9.80602 17.7664 11 1 
272 1.21544 9.74438 -0.0165888 -0.00201254 9.74443 18.8628 11 1 
276 1.21553 9.67207 -0.0166881 -0.001874 9.67223 19.0259 11 1 
280 1.21606 9.55215 -0.0169678 -0.00174996 9.55231 19.9787 11 1 
284 1.21716 9.42755 -0.0170613 -0.0015417 9.42761 21.9673 11 1 
288 1.21829 9.27467 -0.0172386 -0.00131638 9.27478 24.009 11 1 
292 1.21957 9.03415 -0.0175729 -0.00137021 9.03486 26.3098 11 1 
296 1.21589 8.72772 -0.0171598 -0.00098712 8.72853 19.6762 11 1 
300 1.2091 8.50673 -0.0172211 -0.000769553 8.50699 7.40601 11 1 
304 1.2075 8.35084 -0.0173107 -0.000358694 8.3512 4.52073 11 1 
308 1.2087 8.16565 -0.0171664 7.14147e-05 8.16628 6.67977 11 1 
312 1.20941 7.97367 -0.0173135 0.000281535 7.97425 7.96973 11 1 
316 1.20995 7.79729 -0.0172899 0.000710709 7.79762 8.94214 11 1 
320 1.21036 7.69301 -0.0174282 0.00103581 7.69316 9.68425 11 1 
320 1.21036 7.69301 -0.0174282 0.00103581 7.69316 9.68425 15 1 
324 1.21082 7.61974 -0.0176102 0.00151886 7.6198 10.5107 15 1 
328 1.21124 7.57678 -0.0178868 0.00182368 7.57682 11.2767 15 1 
332 1.21152 7.53997 -0.0181443 0.00210835 7.54001 11.7751 15 1 
336 1.2115 7.49183 -0.0183116 0.00267608 7.49186 11.7397 15 1 
340 1.21156 7.47456 -0.018493 0.00321219 7.4746 11.8548 15 1 
344 1.21186 7.47732 -0.018637 0.00367172 7.47735 12.3989 15 1 
348 1.21199 7.47019 -0.0188725 0.00409287 7.47022 12.6325 15 1 
352 1.21197 7.46257 -0.0190212 0.00459196 7.4626 12.5981 15 1 
356 1.21195 7.45176 -0.0190483 0.00523833 7.4518 12.5474 15 1 
360 1.21196 7.44358 -0.0191078 0.00592029 7.44362 12.5699 15 1 
364 1.21208 7.45092 -0.0192223 0.00645565 7.45095 12.7895 15 1 
368 1.2121 7.4524 -0.0192958 0.00696263 7.45243 12.823 15 1 
372 1.21202 7.44258 -0.0192426 0.00768613 7.44261 12.6844 15 1 
376 1.21201 7.4351 -0.0190911 0.00849931 7.43513 12.6569 15 1 
380 1.21197 7.42791 -0.0190833 0.00912383 7.42794 12.5842 15 1 
384 1.21194 7.42422 -0.0191881 0.0097055 7.42426 12.5298 15 1 
384 1.21194 7.42422 -0.0191881 0.0097055 7.42426 12.5298 16 1 
388 1.21194 7.42237 -0.0191886 0.0104299 7.4224 12.53 16 1 
392 1.21189 7.41225 -0.019037 0.0112146 7.41228 12.4384 16 1 
396 1.2118 7.39927 -0.0189857 0.0119422 7.39931 12.284 16 1 
400 1.21171 7.38941 -0.0191812 0.0126344 7.38945 12.1287 16 1 
404 1.21168 7.38228 -0.0192863 0.0133277 7.38233 12.0628 16 1 
408 1.21166 7.37665 -0.0191866 0.0141264 7.37669 12.0329 16 1 
412 1.21159 7.3677 -0.0190854 0.0149306 7.36774 11.9032 16 1 
416 1.2115 7.35577 -0.019126 0.0156731 7.35581 11.7383 16 1 
420 1.21142 7.34569 -0.0191676 0.0164952 7.34574 11.5967 16 1 
424 1.21137 7.3396 -0.0191021 0.0173633 7.33964 11.5129 16 1 
428 1.21134 7.33514 -0.0189558 0.0181782 7.33519 11.4526 16 1 
432 1.21127 7.32723 -0.0188763 0.0191068 7.32728 11.3253 16 1 
436 1.21119 7.31705 -0.0188619 0.0200617 7.3171 11.1851 16 1 
440 1.21112 7.30915 -0.0188104 0.0209172 7.30921 11.0492 16 1 
444 1.21105 7.30278 -0.018773 0.0218095 7.30284 10.9281 16 1 
448 1.21101 7.29727 -0.0187365 0.0227767 7.29734 10.8604 16 1 
448 1.21101 7.29727 -0.0187365 0.0227767 7.29734 10.8604 17 1 
452 1.21096 7.29109 -0.0186597 0.023676 7.29115 10.7565 17 1 
456 1.21087 7.2826 -0.0186938 0.0244962 7.28267 10.6055 17 1 
460 1.21079 7.2748 -0.0187913 0.0253222 7.27487 10.4652 17 1 
464 1.21073 7.2692 -0.0187751 0.0261972 7.26927 10.349 17 1 
468 1.21069 7.26482 -0.0187901 0.027056 7.2649 10.2709 17 1 
472 1.21063 7.26085 -0.0189006 0.0278154 7.26093 10.1743 17 1 
476 1.21055 7.25551 -0.0189959 0.0286089 7.25559 10.0294 17 1 
480 1.21048 7.24935 -0.019116 0.0294468 7.24943 9.89326 17 1 
484 1.21042 7.24633 -0.019261 0.0302741 7.24642 9.78603 17 1 
488 1.21037 7.24561 -0.0194001 0.0310812 7.24571 9.70798 17 1 
492 1.21032 7.2441 -0.0196164 0.0319183 7.2442 9.60402 17 1 
496 1.21025 7.24223 -0.0198715 0.032771 7.24233 9.47556 17 1 
500 1.21019 7.24061 -0.0201528 0.0336146 7.24072 9.36845 17 1 
504 1.21012 7.24037 -0.0204361 0.0344939 7.24049 9.24657 17 1 
508 1.21007 7.24256 -0.0207716 0.0353805 7.24267 9.15469 17 1 
512 1.21003 7.24518 -0.0211383 0.0362569 7.2453 9.08403 17 1 
512 1.21003 7.24518 -0.0211383 0.0362569 7.2453 9.08403 25 1 
516 1.20996 7.24647 -0.0215524 0.0371694 7.24659 8.95514 25 1 
520 1.20989 7.24782 -0.0219733 0.0380846 7.24796 8.82486 25 1 
524 1.20983 7.25035 -0.0223909 0.0390088 7.25049 8.72592 25 1 
528 1.20978 7.25465 -0.0229007 0.0399422 7.2548 8.63016 25 1 
532 1.20973 7.2595 -0.0234279 0.0408679 7.25965 8.53935 25 1 
536 1.20966 7.2627 -0.0238998 0.0418327 7.26286 8.42057 25 1 
540 1.20959 7.2655 -0.0244416 0.0428327 7.26567 8.28803 25 1 
544 1.20953 7.26946 -0.0249979 0.0438021 7.26963 8.17652 25 1 
548 1.20947 7.27465 -0.0255577 0.0447961 7.27484 8.07356 25 1 
552 1.20942 7.28024 -0.0261213 0.0458457 7.28043 7.97603 25 1 
556 1.20935 7.28457 -0.0267444 0.0468448 7.28477 7.85162 25 1 
560 1.20927 7.28809 -0.0273763 0.0479206 7.2883 7.71547 25 1 
564 1.20921 7.29325 -0.0280271 0.0489825 7.29346 7.59952 25 1 
568 1.20915 7.2993 -0.0287193 0.0500354 7.29953 7.49191 25 1 
572 1.20909 7.30554 -0.0294253 0.0511276 7.30578 7.38429 25 1 
576 1.20902 7.31142 -0.0301819 0.0521976 7.31167 7.26769 25 1 
576 1.20902 7.31142 -0.0301819 0.0521976 7.31167 7.26769 26 1 
580 1.20894 7.31667 -0.0309548 0.0533 7.31693 7.12574 26 1 
584 1.20888 7.32281 -0.0317476 0.054398 7.32309 7.00648 26 1 
588 1.20882 7.33061 -0.0325735 0.0555344 7.33089 6.9042 26 1 
592 1.20876 7.33804 -0.0334307 0.0566505 7.33834 6.78912 26 1 
596 1.20869 7.34516 -0.0342655 0.0577841 7.34547 6.66714 26 1 
600 1.20862 7.3524 -0.0351496 0.0589181 7.35272 6.53844 26 1 
604 1.20855 7.35972 -0.0360586 0.0600831 7.36005 6.41912 26 1 
608 1.20849 7.36846 -0.0369729 0.0611867 7.36881 6.30304 26 1 
608 1.20849 7.36846 -0.0369729 0.0611867 7.36881 6.30304 26 1 
612 1.20843 7.3771 -0.0379231 0.0622622 7.37746 6.20021 26 1 
616 1.20837 7.38572 -0.0388945 0.0634298 7.3861 6.07925 26 1 
620 1.2083 7.39405 -0.0399348 0.0644948 7.39444 5.95408 26 1 
624 1.20823 7.40279 -0.0409705 0.0655899 7.4032 5.83481 26 1 
628 1.20817 7.4123 -0.041997 0.0666769 7.41272 5.71779 26 1 
632 1.20811 7.42217 -0.0430833 0.067757 7.4226 5.61482 26 1 
636 1.20804 7.43228 -0.0441498 0.0688616 7.43273 5.49945 26 1 
640 1.20798 7.44189 -0.0452114 0.0699953 7.44236 5.37809 26 1 
644 1.20791 7.45203 -0.0462478 0.0711858 7.45251 5.25974 26 1 
648 1.20785 7.46275 -0.0472412 0.0723255 7.46325 5.15533 26 1 
652 1.20779 7.47408 -0.0482084 0.0736276 7.4746 5.04364 26 1 
656 1.20773 7.48493 -0.0491773 0.074859 7.48547 4.93603 26 1 
660 1.20767 7.49608 -0.0500967 0.0761426 7.49663 4.82001 26 1 
664 1.2076 7.5072 -0.0509594 0.0774563 7.50777 4.70264 26 1 
668 1.20755 7.51856 -0.0518447 0.0788166 7.51916 4.60019 26 1 
672 1.20749 7.53088 -0.0525673 0.0802741 7.53149 4.49098 26 1 
672 1.20749 7.53088 -0.0525673 0.0802741 7.53149 4.49098 27 1 
676 1.20743 7.54235 -0.053331 0.0816844 7.54299 4.39555 27 1 
680 1.20737 7.5543 -0.0541554 0.0831868 7.55495 4.27841 27 1 
684 1.20731 7.5655 -0.054759 0.0844764 7.56617 4.17172 27 1 
688 1.20725 7.57745 -0.0555494 0.0860384 7.57815 4.06538 27 1 
692 1.2072 7.58915 -0.0561162 0.0873662 7.58986 3.96564 27 1 
696 1.20714 7.60114 -0.0567436 0.089 7.60188 3.86703 27 1 
700 1.20709 7.61265 -0.0574727 0.0904248 7.61341 3.76594 27 1 
704 1.20702 7.62391 -0.0580547 0.0918091 7.62468 3.65387 27 1 
704 1.20702 7.62391 -0.0580547 0.0918091 7.62468 3.65387 31 1 
708 1.20697 7.63507 -0.0586014 0.0932528 7.63587 3.55948 31 1 
712 1.20692 7.64662 -0.0591869 0.0945496 7.64744 3.46314 31 1 
716 1.20686 7.6577 -0.0596677 0.0960888 7.65853 3.36582 31 1 
720 1.20681 7.66833 -0.0601815 0.0975989 7.66919 3.27398 31 1 
724 1.20675 7.67943 -0.0608587 0.0989359 7.68031 3.1613 31 1 
728 1.2067 7.68938 -0.0613251 0.100245 7.69028 3.07542 31 1 
732 1.20664 7.7009 -0.0618556 0.102001 7.70183 2.97013 31 1 
736 1.2066 7.71134 -0.0624247 0.102781 7.71228 2.88449 31 1 
740 1.20655 7.72148 -0.0627917 0.104417 7.72244 2.79571 31 1 
744 1.20648 7.73257 -0.0632319 0.105912 7.73355 2.67149 31 1 
748 1.20644 7.74191 -0.0638474 0.10736 7.74292 2.60117 31 1 
752 1.20637 7.75387 -0.0636785 0.10912 7.75491 2.46923 31 1 
756 1.20632 7.76432 -0.0646944 0.11023 7.76537 2.37805 31 1 
760 1.20625 7.77766 -0.0658254 0.111679 7.77875 2.26285 31 1 
764 1.20619 7.79042 -0.0660679 0.112969 7.79152 2.15713 31 1 
768 1.20612 7.80339 -0.0666896 0.114719 7.80452 2.02992 31 1 
772 1.20602 7.81826 -0.0671019 0.118101 7.81944 1.84391 31 1 
776 1.20594 7.83433 -0.0671468 0.121255 7.83556 1.69002 31 1 
780 1.2058 7.85937 -0.0686161 0.121824 7.86062 1.44624 31 1 
784 1.2057 7.88353 -0.0713026 0.124102 7.88483 1.26098 31 1 
788 1.20544 7.92434 -0.0723015 0.129567 7.92575 0.798912 31 1 
792 1.2052 7.97109 -0.0732743 0.137661 7.97264 0.357895 31 1 
796 1.20481 8.04407 -0.0765506 0.149053 8.04586 -0.350219 31 1 
800 1.20445 8.09931 -0.07884 0.155286 8.10125 -0.996237 31 1 
