46.188;r ;Density                 ;Velocity u              ;Velocity v              ;Velocity w              ;|Velocity|              ;Pressure                ;Distribution            ;Levels                  ;
0 1.20293 10.0001 2.28723e-05 -5.1002e-05 10.0001 -3.73743 1 1 
4 1.20296 10.0008 -4.14298e-05 -8.79035e-05 10.0008 -3.68705 1 1 
8 1.20298 10.0009 -0.00024232 -0.000336501 10.0009 -3.65559 1 1 
12 1.20294 10.0018 -0.00047534 -0.00056636 10.0018 -3.71847 1 1 
16 1.20295 10.0027 -0.000610755 -0.000761286 10.0027 -3.70778 1 1 
20 1.20298 10.0022 -0.000863879 -0.0010421 10.0022 -3.6471 1 1 
24 1.20296 10.0033 -0.00102591 -0.00120741 10.0033 -3.69238 1 1 
28 1.20296 10.0029 -0.00121882 -0.00143868 10.0029 -3.67634 1 1 
32 1.20297 10.0036 -0.00141015 -0.00164783 10.0036 -3.66477 1 1 
36 1.20298 10.0049 -0.00155028 -0.00180339 10.0049 -3.65177 1 1 
40 1.203 10.0049 -0.00177819 -0.00203756 10.0049 -3.61372 1 1 
44 1.20299 10.0038 -0.0019468 -0.00221909 10.0038 -3.62608 1 1 
48 1.20299 10.0039 -0.00214809 -0.00241473 10.0039 -3.63295 1 1 
52 1.203 10.0039 -0.00234684 -0.00269291 10.0039 -3.60694 1 1 
56 1.20302 10.0026 -0.0025663 -0.00293645 10.0026 -3.57969 1 1 
60 1.20301 10.0033 -0.00279615 -0.00311888 10.0033 -3.59093 1 1 
64 1.20304 10.0021 -0.00305661 -0.00340767 10.0021 -3.54146 1 1 
64 1.20304 10.0021 -0.00305661 -0.00340767 10.0021 -3.54146 2 1 
68 1.20304 10.0026 -0.00325782 -0.00367303 10.0026 -3.54073 2 1 
72 1.20305 10.0026 -0.00350909 -0.00395594 10.0026 -3.51402 2 1 
76 1.20307 10.002 -0.00378189 -0.00422379 10.002 -3.49436 2 1 
80 1.20308 10.0013 -0.0040571 -0.00447438 10.0013 -3.47081 2 1 
84 1.20307 10.0027 -0.00426541 -0.00477249 10.0027 -3.48333 2 1 
88 1.20309 10.0033 -0.00455374 -0.00509365 10.0033 -3.45858 2 1 
92 1.20312 10.0037 -0.00476691 -0.00526153 10.0037 -3.40384 2 1 
96 1.2031 10.0061 -0.00509516 -0.00562005 10.0061 -3.44007 2 1 
100 1.20313 10.0034 -0.00524671 -0.00583864 10.0034 -3.38267 2 1 
104 1.20313 10.0022 -0.00552375 -0.00612596 10.0022 -3.37975 2 1 
108 1.20313 10.0024 -0.00574998 -0.00634986 10.0024 -3.37115 2 1 
112 1.20316 10.0025 -0.00599101 -0.00665329 10.0025 -3.32081 2 1 
116 1.20319 10.0033 -0.00632381 -0.00699265 10.0033 -3.27127 2 1 
120 1.2032 10.0048 -0.0064662 -0.00727754 10.0048 -3.24266 2 1 
124 1.20324 10.0026 -0.00674689 -0.00760312 10.0026 -3.17658 2 1 
128 1.20326 10.0012 -0.00704115 -0.00790103 10.0012 -3.14476 2 1 
128 1.20326 10.0012 -0.00704115 -0.00790103 10.0012 -3.14476 10 1 
132 1.20326 10.0019 -0.00729076 -0.00827077 10.0019 -3.13907 10 1 
136 1.20333 9.99764 -0.00746583 -0.00858504 9.99765 -3.0114 10 1 
140 1.20335 9.99837 -0.0078299 -0.00891953 9.99838 -2.98036 10 1 
144 1.20339 9.99788 -0.00805547 -0.00918556 9.99789 -2.91406 10 1 
148 1.20344 9.99567 -0.00825842 -0.00963759 9.99569 -2.80951 10 1 
152 1.20344 9.99769 -0.00861017 -0.00993686 9.9977 -2.80991 10 1 
156 1.20349 9.99554 -0.00879502 -0.0101666 9.99555 -2.72232 10 1 
160 1.20357 9.99253 -0.00924874 -0.0106226 9.99255 -2.5775 10 1 
160 1.20357 9.99253 -0.00924874 -0.0106226 9.99255 -2.5775 10 1 
164 1.20358 9.99408 -0.00946629 -0.0110129 9.99409 -2.56945 10 1 
168 1.20364 9.9909 -0.0097293 -0.0112945 9.99091 -2.4508 10 1 
172 1.20368 9.9883 -0.0100067 -0.0116302 9.98831 -2.38649 10 1 
176 1.20365 9.99292 -0.0102149 -0.0120069 9.99294 -2.43586 10 1 
180 1.20378 9.98834 -0.0104656 -0.0121204 9.98836 -2.19715 10 1 
184 1.20381 9.98641 -0.0108056 -0.0125489 9.98642 -2.14542 10 1 
188 1.20382 9.98638 -0.0110062 -0.0127917 9.98639 -2.1274 10 1 
192 1.2039 9.97876 -0.0111753 -0.0130066 9.97878 -1.98092 10 1 
196 1.2039 9.97854 -0.0116581 -0.0134464 9.97856 -1.99573 10 1 
200 1.20394 9.98168 -0.0116431 -0.0135395 9.9817 -1.9065 10 1 
204 1.20407 9.97946 -0.0118739 -0.0137583 9.97949 -1.67608 10 1 
208 1.20412 9.97732 -0.0121506 -0.0139683 9.97734 -1.58784 10 1 
212 1.20411 9.97466 -0.0122267 -0.0140898 9.97469 -1.61444 10 1 
216 1.20422 9.96595 -0.0124689 -0.0143734 9.96597 -1.41442 10 1 
220 1.20428 9.95861 -0.0125626 -0.0146401 9.95863 -1.30843 10 1 
224 1.20424 9.95475 -0.0126501 -0.0146552 9.95478 -1.37645 10 1 
224 1.20424 9.95475 -0.0126501 -0.0146552 9.95478 -1.37645 10 1 
228 1.20442 9.94682 -0.0128639 -0.0149188 9.94684 -1.05162 10 1 
232 1.2045 9.94472 -0.0129166 -0.0150536 9.94475 -0.902693 10 1 
236 1.20454 9.93868 -0.0131487 -0.0152038 9.93871 -0.822396 10 1 
240 1.20465 9.92904 -0.0132672 -0.015392 9.92907 -0.62811 10 1 
244 1.20479 9.91649 -0.0133045 -0.0153625 9.91652 -0.379692 10 1 
248 1.20494 9.8952 -0.013718 -0.0156854 9.89523 -0.102448 10 1 
252 1.20492 9.88345 -0.0138636 -0.0159892 9.88348 -0.138743 10 1 
256 1.20525 9.86115 -0.0139056 -0.0158416 9.86118 0.454689 10 1 
256 1.20525 9.86115 -0.0139056 -0.0158416 9.86118 0.454689 11 1 
260 1.20554 9.82914 -0.0140894 -0.015952 9.82919 0.972231 11 1 
264 1.20551 9.80299 -0.0141434 -0.0161745 9.80305 0.926699 11 1 
268 1.20604 9.75673 -0.0143905 -0.0161807 9.75679 1.87069 11 1 
272 1.2067 9.69404 -0.0145905 -0.0163505 9.6941 3.07056 11 1 
276 1.20686 9.62075 -0.0145829 -0.0163185 9.62093 3.36204 11 1 
280 1.20746 9.50038 -0.0148689 -0.016416 9.50056 4.43646 11 1 
284 1.20861 9.3749 -0.0149227 -0.0163791 9.37497 6.51587 11 1 
288 1.20978 9.22063 -0.0149244 -0.0161664 9.22076 8.63318 11 1 
292 1.21109 8.97904 -0.0151305 -0.0162491 8.97976 11.0087 11 1 
296 1.20758 8.67205 -0.014778 -0.0157603 8.67287 4.65592 11 1 
300 1.201 8.44886 -0.0148011 -0.0155498 8.44913 -7.22 11 1 
304 1.19951 8.2902 -0.0147369 -0.0152397 8.29058 -9.91786 11 1 
308 1.20075 8.10284 -0.0145908 -0.0148822 8.10348 -7.6691 11 1 
312 1.20152 7.90804 -0.0147655 -0.0148245 7.90864 -6.27737 11 1 
316 1.20212 7.72848 -0.0146321 -0.0144605 7.72883 -5.20169 11 1 
320 1.2026 7.62035 -0.0146955 -0.0143178 7.62052 -4.33857 11 1 
320 1.2026 7.62035 -0.0146955 -0.0143178 7.62052 -4.33857 15 1 
324 1.20313 7.54289 -0.0148803 -0.0142353 7.54296 -3.37651 15 1 
328 1.20363 7.49545 -0.0149874 -0.0141401 7.49551 -2.47922 15 1 
332 1.20397 7.45409 -0.0148775 -0.0138587 7.45415 -1.85696 15 1 
336 1.20403 7.40145 -0.0147691 -0.0134568 7.40149 -1.75032 15 1 
340 1.20418 7.37984 -0.0148629 -0.0133177 7.37988 -1.48408 15 1 
344 1.20455 7.37875 -0.0148937 -0.0132036 7.37878 -0.803748 15 1 
348 1.20476 7.36817 -0.0148386 -0.0129347 7.3682 -0.424499 15 1 
352 1.20484 7.35722 -0.0146284 -0.0124717 7.35725 -0.289923 15 1 
356 1.2049 7.3433 -0.0143361 -0.011934 7.34334 -0.172987 15 1 
360 1.205 7.33249 -0.0141291 -0.011459 7.33253 -0.00265542 15 1 
364 1.2052 7.33737 -0.014011 -0.0111239 7.3374 0.368839 15 1 
368 1.20532 7.33663 -0.0138825 -0.0107811 7.33666 0.5797 15 1 
372 1.20534 7.32509 -0.0136477 -0.0102387 7.32511 0.618764 15 1 
376 1.20542 7.31635 -0.0133231 -0.00964921 7.31637 0.756702 15 1 
380 1.20548 7.30799 -0.0131427 -0.00929323 7.308 0.858716 15 1 
384 1.20554 7.30307 -0.0130868 -0.00898322 7.30309 0.977087 15 1 
384 1.20554 7.30307 -0.0130868 -0.00898322 7.30309 0.977087 16 1 
388 1.20563 7.30047 -0.012964 -0.00848512 7.30049 1.13838 16 1 
392 1.20568 7.29014 -0.0126845 -0.00794129 7.29016 1.22194 16 1 
396 1.2057 7.2772 -0.0124873 -0.00749871 7.27722 1.26114 16 1 
400 1.20572 7.26773 -0.0125335 -0.00712803 7.26775 1.29624 16 1 
404 1.20578 7.26107 -0.0125167 -0.00671674 7.26109 1.4086 16 1 
408 1.20586 7.25553 -0.0122854 -0.00619794 7.25554 1.55052 16 1 
412 1.20588 7.24694 -0.0120444 -0.00569041 7.24696 1.58674 16 1 
416 1.20588 7.23579 -0.0119265 -0.00526783 7.23581 1.5953 16 1 
420 1.20591 7.22656 -0.0117877 -0.00476837 7.22658 1.63709 16 1 
424 1.20596 7.22143 -0.0115406 -0.00422551 7.22144 1.73539 16 1 
428 1.20603 7.21791 -0.0112199 -0.00373341 7.21792 1.85452 16 1 
432 1.20606 7.21075 -0.0109546 -0.00313953 7.21076 1.91037 16 1 
436 1.20608 7.20177 -0.0107464 -0.00252663 7.20178 1.94851 16 1 
440 1.2061 7.19513 -0.0105009 -0.00203116 7.19514 1.9782 16 1 
444 1.20612 7.18961 -0.0102635 -0.00152756 7.18962 2.02458 16 1 
448 1.20618 7.18498 -0.0100071 -0.000942419 7.18499 2.13029 16 1 
448 1.20618 7.18498 -0.0100071 -0.000942419 7.18499 2.13029 17 1 
452 1.20622 7.17987 -0.00971359 -0.000408216 7.17987 2.1947 17 1 
456 1.20623 7.17252 -0.00952468 2.78678e-05 7.17253 2.21887 17 1 
460 1.20625 7.16585 -0.00939923 0.000465253 7.16586 2.26537 17 1 
464 1.20629 7.16092 -0.00914934 0.000949067 7.16093 2.33147 17 1 
468 1.20634 7.15696 -0.00893605 0.00139897 7.15697 2.41836 17 1 
472 1.20637 7.15346 -0.00881007 0.00176402 7.15346 2.47603 17 1 
476 1.20638 7.14805 -0.0086657 0.00213841 7.14806 2.49592 17 1 
480 1.2064 7.14208 -0.00852821 0.00257381 7.14208 2.52925 17 1 
484 1.20644 7.1393 -0.00839722 0.00298837 7.13931 2.5985 17 1 
488 1.20649 7.13843 -0.00826212 0.0033993 7.13843 2.69837 17 1 
492 1.20653 7.13676 -0.00818984 0.0038374 7.13677 2.76687 17 1 
496 1.20655 7.13461 -0.00815157 0.00429524 7.13461 2.80057 17 1 
500 1.20658 7.13303 -0.00810203 0.00471526 7.13303 2.84537 17 1 
504 1.2066 7.1329 -0.00802649 0.00517 7.13291 2.89425 17 1 
508 1.20665 7.13506 -0.00797859 0.00566532 7.13506 2.97542 17 1 
512 1.2067 7.13791 -0.00795392 0.00615788 7.13792 3.06394 17 1 
512 1.2067 7.13791 -0.00795392 0.00615788 7.13792 3.06394 25 1 
516 1.20671 7.13947 -0.00796559 0.00664894 7.13948 3.09109 25 1 
520 1.20673 7.14072 -0.0079579 0.00711066 7.14073 3.12409 25 1 
524 1.20677 7.14337 -0.00793596 0.00760137 7.14338 3.19658 25 1 
528 1.20681 7.14822 -0.00795955 0.00813539 7.14823 3.26422 25 1 
532 1.20685 7.15428 -0.00800398 0.00862075 7.15429 3.33298 25 1 
536 1.20687 7.15934 -0.00801612 0.00912334 7.15935 3.3799 25 1 
540 1.20688 7.16438 -0.0080617 0.00961551 7.16439 3.39822 25 1 
544 1.20689 7.17156 -0.00815085 0.010048 7.17157 3.42016 25 1 
548 1.20692 7.18025 -0.00818398 0.010523 7.18027 3.46425 25 1 
552 1.20696 7.1894 -0.00823506 0.0110161 7.18942 3.54789 25 1 
556 1.20699 7.19784 -0.00834681 0.0114697 7.19785 3.60077 25 1 
560 1.20699 7.20617 -0.00843128 0.0119302 7.20619 3.59816 25 1 
564 1.207 7.21691 -0.0085361 0.012358 7.21693 3.61776 25 1 
568 1.20702 7.22958 -0.00868085 0.0127529 7.2296 3.65 25 1 
572 1.20704 7.24352 -0.00882341 0.0131544 7.24354 3.67827 25 1 
576 1.20705 7.25817 -0.00896516 0.0135473 7.25819 3.6956 25 1 
576 1.20705 7.25817 -0.00896516 0.0135473 7.25819 3.6956 26 1 
580 1.20705 7.27184 -0.00908067 0.0139084 7.27186 3.70168 26 1 
584 1.20707 7.2859 -0.00918342 0.0142759 7.28592 3.73663 26 1 
588 1.20708 7.30107 -0.00934306 0.0146602 7.3011 3.75329 26 1 
592 1.20707 7.31595 -0.00950781 0.0150468 7.31597 3.74667 26 1 
596 1.20708 7.33115 -0.00963418 0.0153881 7.33118 3.75529 26 1 
600 1.20708 7.34855 -0.00976147 0.0156754 7.34858 3.75172 26 1 
604 1.20707 7.36962 -0.00991596 0.0159705 7.36965 3.73929 26 1 
608 1.20707 7.39465 -0.0101 0.0162497 7.39469 3.73235 26 1 
608 1.20707 7.39465 -0.0101 0.0162497 7.39469 3.73235 26 1 
612 1.20708 7.42195 -0.0102617 0.0166029 7.42198 3.75086 26 1 
616 1.20708 7.44952 -0.0103629 0.0169963 7.44955 3.75134 26 1 
620 1.20706 7.47634 -0.0104155 0.0172458 7.47638 3.71248 26 1 
624 1.20705 7.5013 -0.0104673 0.0173882 7.50134 3.70468 26 1 
628 1.20705 7.52429 -0.0105663 0.0175743 7.52432 3.70297 26 1 
632 1.20705 7.54577 -0.0107178 0.0178558 7.5458 3.69538 26 1 
636 1.20704 7.5655 -0.0108036 0.0181509 7.56553 3.67673 26 1 
640 1.20702 7.58453 -0.0108332 0.0184158 7.58456 3.64325 26 1 
644 1.20701 7.60571 -0.0108571 0.0186724 7.60575 3.63625 26 1 
648 1.207 7.63182 -0.0109583 0.0190076 7.63186 3.61966 26 1 
652 1.207 7.66324 -0.0111516 0.0194318 7.66329 3.61117 26 1 
656 1.207 7.69998 -0.0112419 0.0198528 7.70003 3.61376 26 1 
660 1.20699 7.74339 -0.0112961 0.0202019 7.74344 3.59939 26 1 
664 1.20699 7.79391 -0.0113868 0.020517 7.79397 3.59143 26 1 
668 1.20699 7.85219 -0.011508 0.0208392 7.85226 3.59249 26 1 
672 1.20701 7.91729 -0.011639 0.0211711 7.91737 3.63068 26 1 
672 1.20701 7.91729 -0.011639 0.0211711 7.91737 3.63068 27 1 
676 1.20702 7.98819 -0.0117983 0.0214681 7.98828 3.63997 27 1 
680 1.207 8.06527 -0.0119548 0.0217052 8.06537 3.61332 27 1 
684 1.207 8.14783 -0.0121208 0.0219184 8.14793 3.62085 27 1 
688 1.20701 8.23751 -0.0123692 0.0221069 8.23762 3.63358 27 1 
692 1.20703 8.33366 -0.0126286 0.0222924 8.33378 3.67048 27 1 
696 1.20705 8.43481 -0.0128382 0.022404 8.43494 3.70565 27 1 
700 1.20707 8.53907 -0.0130367 0.0224087 8.53919 3.73762 27 1 
704 1.20707 8.64481 -0.0133132 0.0223006 8.64494 3.74634 27 1 
704 1.20707 8.64481 -0.0133132 0.0223006 8.64494 3.74634 31 1 
708 1.20706 8.75367 -0.0136197 0.0221975 8.7538 3.72134 31 1 
712 1.20708 8.86291 -0.0139135 0.0219675 8.86304 3.74842 31 1 
716 1.20707 8.97096 -0.0140992 0.0215818 8.97109 3.74766 31 1 
720 1.20708 9.07576 -0.0141416 0.0212181 9.07587 3.75141 31 1 
724 1.20709 9.17639 -0.0142127 0.020802 9.17649 3.76645 31 1 
728 1.20707 9.27314 -0.0142322 0.0204298 9.27324 3.73572 31 1 
732 1.20707 9.36462 -0.0142601 0.0200587 9.36471 3.7392 31 1 
736 1.20705 9.45047 -0.0143724 0.0196611 9.45055 3.71072 31 1 
740 1.20705 9.52808 -0.0143731 0.0193188 9.52815 3.69384 31 1 
744 1.20704 9.59822 -0.0143025 0.0189341 9.59828 3.67668 31 1 
748 1.20703 9.66135 -0.0143334 0.0184363 9.6614 3.66113 31 1 
752 1.20703 9.7175 -0.0142517 0.0180189 9.71755 3.65801 31 1 
756 1.20699 9.76678 -0.0139516 0.0177156 9.76682 3.5915 31 1 
760 1.20699 9.8084 -0.0136842 0.0175186 9.80844 3.58982 31 1 
764 1.20699 9.84393 -0.0135319 0.0171872 9.84396 3.59159 31 1 
768 1.20699 9.87371 -0.0133014 0.0167844 9.87374 3.60021 31 1 
772 1.20701 9.89859 -0.0131192 0.0164894 9.89861 3.62852 31 1 
776 1.20701 9.91944 -0.0130576 0.016156 9.91946 3.62366 31 1 
780 1.207 9.93625 -0.0127463 0.0156975 9.93628 3.60841 31 1 
784 1.20697 9.95035 -0.0124069 0.0153387 9.95037 3.55503 31 1 
788 1.20698 9.96264 -0.0121421 0.015159 9.96266 3.57759 31 1 
792 1.20703 9.97202 -0.0117903 0.0148576 9.97204 3.65787 31 1 
796 1.20706 9.9788 -0.0114687 0.0145652 9.97882 3.71622 31 1 
800 1.20707 9.98181 -0.0113276 0.0144468 9.98183 3.74664 31 1 
