152.149;r ;Density                 ;Velocity u              ;Velocity v              ;Velocity w              ;|Velocity|              ;Pressure                ;Distribution            ;Levels                  ;
0 1.18649 9.99988 2.30852e-05 0.000222303 9.99988 -33.4346 1 1 
4 1.18651 10.0006 -6.1665e-05 0.000359229 10.0006 -33.3979 1 1 
8 1.18652 10.0006 -0.000381318 0.000570379 10.0006 -33.3876 1 1 
12 1.18648 10.0014 -0.000678367 0.000766573 10.0014 -33.4449 1 1 
16 1.1865 10.0022 -0.000876775 0.00102761 10.0022 -33.4242 1 1 
20 1.18652 10.0016 -0.00117642 0.00114428 10.0016 -33.3829 1 1 
24 1.18649 10.0028 -0.00140177 0.00139546 10.0028 -33.438 1 1 
28 1.1865 10.0027 -0.00168262 0.00157845 10.0027 -33.4197 1 1 
32 1.1865 10.0038 -0.00195324 0.001802 10.0038 -33.4227 1 1 
36 1.18649 10.0051 -0.00214041 0.00207058 10.0051 -33.4285 1 1 
40 1.18651 10.0049 -0.00245258 0.0022511 10.0049 -33.3966 1 1 
44 1.1865 10.0041 -0.00270325 0.00246991 10.0041 -33.4207 1 1 
48 1.18648 10.0048 -0.00297546 0.00274085 10.0048 -33.4522 1 1 
52 1.18649 10.0046 -0.00322168 0.00295208 10.0047 -33.4312 1 1 
56 1.1865 10.0035 -0.00350031 0.00318555 10.0035 -33.4179 1 1 
60 1.18648 10.0049 -0.00379089 0.00342234 10.0049 -33.4487 1 1 
64 1.1865 10.0035 -0.00407609 0.00365139 10.0035 -33.4111 1 1 
64 1.1865 10.0035 -0.00407609 0.00365139 10.0035 -33.4111 2 1 
68 1.18649 10.004 -0.00430424 0.00394534 10.004 -33.4395 2 1 
72 1.18649 10.0045 -0.00459063 0.00419547 10.0045 -33.4393 2 1 
76 1.18649 10.004 -0.0049074 0.0043816 10.004 -33.4333 2 1 
80 1.1865 10.003 -0.00517328 0.0046964 10.0031 -33.4158 2 1 
84 1.18649 10.0047 -0.00540085 0.00501388 10.0047 -33.4416 2 1 
88 1.18649 10.0054 -0.00569467 0.00529268 10.0054 -33.4275 2 1 
92 1.18651 10.0059 -0.0059195 0.00564128 10.0059 -33.3911 2 1 
96 1.18648 10.0083 -0.00626046 0.0058368 10.0084 -33.443 2 1 
100 1.18652 10.0053 -0.00642111 0.00624693 10.0053 -33.3819 2 1 
104 1.18651 10.0041 -0.00676548 0.00652438 10.0041 -33.4063 2 1 
108 1.18649 10.0042 -0.00700393 0.00684795 10.0042 -33.4266 2 1 
112 1.18651 10.0043 -0.00722544 0.00718545 10.0043 -33.3979 2 1 
116 1.18651 10.0058 -0.00757967 0.007539 10.0058 -33.3994 2 1 
120 1.18651 10.0077 -0.00777833 0.00790047 10.0077 -33.4035 2 1 
124 1.18654 10.0057 -0.0080774 0.0081939 10.0057 -33.348 2 1 
128 1.18653 10.0047 -0.00835202 0.00859303 10.0047 -33.3627 2 1 
128 1.18653 10.0047 -0.00835202 0.00859303 10.0047 -33.3627 10 1 
132 1.1865 10.0056 -0.00861216 0.00895879 10.0056 -33.4195 10 1 
136 1.18654 10.0019 -0.00882328 0.00933398 10.002 -33.3433 10 1 
140 1.18652 10.004 -0.00918768 0.00968563 10.004 -33.3803 10 1 
144 1.18653 10.0036 -0.00939204 0.0101515 10.0036 -33.3667 10 1 
148 1.18657 10.0016 -0.00964198 0.0104525 10.0017 -33.2916 10 1 
152 1.18654 10.0046 -0.0099883 0.0109024 10.0046 -33.3511 10 1 
156 1.18655 10.0025 -0.0101181 0.0114661 10.0025 -33.3343 10 1 
160 1.18658 9.99958 -0.0105506 0.011826 9.99959 -33.265 10 1 
160 1.18658 9.99958 -0.0105506 0.011826 9.99959 -33.265 10 1 
164 1.18655 10.0019 -0.0107417 0.012206 10.0019 -33.334 10 1 
168 1.1866 9.99868 -0.0109883 0.0127652 9.99869 -33.2339 10 1 
172 1.18661 9.99663 -0.0112777 0.0132446 9.99665 -33.2124 10 1 
176 1.18655 10.0014 -0.0114452 0.0137384 10.0014 -33.3236 10 1 
180 1.18666 9.9962 -0.011635 0.0144906 9.99622 -33.127 10 1 
184 1.18664 9.99483 -0.0120021 0.0148857 9.99485 -33.1625 10 1 
188 1.18662 9.99415 -0.0122093 0.01551 9.99417 -33.2075 10 1 
192 1.18668 9.98571 -0.012374 0.0161604 9.98573 -33.0837 10 1 
196 1.18665 9.98602 -0.0128993 0.0165014 9.98604 -33.1462 10 1 
200 1.18667 9.98885 -0.0129366 0.0172459 9.98887 -33.1064 10 1 
204 1.18678 9.98582 -0.0132505 0.017917 9.98585 -32.9016 10 1 
208 1.1868 9.98318 -0.0135536 0.0186244 9.9832 -32.8679 10 1 
212 1.18675 9.97986 -0.0137097 0.019299 9.9799 -32.9646 10 1 
216 1.18686 9.96855 -0.0141151 0.0197628 9.96859 -32.7581 10 1 
220 1.18691 9.95911 -0.0142863 0.0203327 9.95914 -32.6817 10 1 
224 1.18682 9.95481 -0.0144591 0.0211441 9.95484 -32.8288 10 1 
224 1.18682 9.95481 -0.0144591 0.0211441 9.95484 -32.8288 10 1 
228 1.18702 9.9452 -0.0148809 0.0216759 9.94523 -32.4812 10 1 
232 1.18708 9.94163 -0.0150343 0.0224305 9.94167 -32.3604 10 1 
236 1.1871 9.93282 -0.0153641 0.0232092 9.93287 -32.324 10 1 
240 1.18722 9.9194 -0.0155812 0.0238077 9.91945 -32.1148 10 1 
244 1.18737 9.90063 -0.0158106 0.0246667 9.90069 -31.8422 10 1 
248 1.18753 9.8723 -0.0164557 0.0251559 9.87235 -31.5624 10 1 
252 1.1875 9.85534 -0.0166856 0.0257899 9.8554 -31.6047 10 1 
256 1.1879 9.82394 -0.0168492 0.0268882 9.824 -30.8893 10 1 
256 1.1879 9.82394 -0.0168492 0.0268882 9.824 -30.8893 11 1 
260 1.18821 9.78082 -0.0172063 0.0275382 9.78091 -30.327 11 1 
264 1.18819 9.7421 -0.0173896 0.0281936 9.74219 -30.3567 11 1 
268 1.18887 9.67679 -0.0178102 0.0290019 9.67689 -29.1279 11 1 
272 1.18968 9.58933 -0.0182321 0.0295569 9.58947 -27.6788 11 1 
276 1.18991 9.48347 -0.01837 0.0302259 9.48378 -27.2482 11 1 
280 1.19071 9.3207 -0.0187214 0.0307772 9.32102 -25.8144 11 1 
284 1.19217 9.14751 -0.0188914 0.031486 9.14769 -23.1683 11 1 
288 1.1937 8.92708 -0.0191447 0.0322023 8.92739 -20.4083 11 1 
292 1.19539 8.59124 -0.0194564 0.0323931 8.59265 -17.3576 11 1 
296 1.19076 8.1633 -0.0189153 0.0321042 8.16491 -25.7158 11 1 
300 1.18202 7.85123 -0.0189454 0.0323055 7.85184 -41.5083 11 1 
304 1.17983 7.62953 -0.0191161 0.0331576 7.63035 -45.457 11 1 
308 1.18137 7.36322 -0.0188501 0.0334387 7.36456 -42.6817 11 1 
312 1.18235 7.09388 -0.0189021 0.0335867 7.09509 -40.9194 11 1 
316 1.1831 6.84466 -0.0188555 0.0341601 6.84542 -39.5566 11 1 
320 1.18368 6.68371 -0.0189788 0.0349226 6.68415 -38.5138 11 1 
320 1.18368 6.68371 -0.0189788 0.0349226 6.68415 -38.5138 15 1 
324 1.1843 6.57213 -0.019233 0.0361366 6.57238 -37.3842 15 1 
328 1.1849 6.49951 -0.0195643 0.0371874 6.49972 -36.309 15 1 
332 1.18529 6.43174 -0.0199131 0.038233 6.43194 -35.605 15 1 
336 1.18536 6.35301 -0.0202153 0.0397797 6.35317 -35.4834 15 1 
340 1.18552 6.31179 -0.0205482 0.0413556 6.31196 -35.1795 15 1 
344 1.18594 6.29808 -0.0208224 0.0427379 6.29826 -34.4211 15 1 
348 1.18618 6.27588 -0.021187 0.0440242 6.27607 -33.9952 15 1 
352 1.18625 6.2493 -0.0214485 0.0453083 6.2495 -33.8751 15 1 
356 1.1863 6.21905 -0.0215487 0.0467829 6.21927 -33.7844 15 1 
360 1.18641 6.19614 -0.0217384 0.0484627 6.19637 -33.5845 15 1 
364 1.18662 6.19258 -0.0220213 0.0498959 6.19282 -33.1918 15 1 
368 1.18672 6.18235 -0.0222288 0.051129 6.1826 -33.0233 15 1 
372 1.18672 6.15882 -0.0222712 0.0525517 6.15909 -33.0147 15 1 
376 1.1868 6.13914 -0.0222454 0.0541962 6.13942 -32.8807 15 1 
380 1.18684 6.12232 -0.0223971 0.0557081 6.12261 -32.8086 15 1 
384 1.18688 6.10987 -0.0226806 0.0571198 6.11019 -32.7244 15 1 
384 1.18688 6.10987 -0.0226806 0.0571198 6.11019 -32.7244 16 1 
388 1.18696 6.10028 -0.0228286 0.0584978 6.10061 -32.5767 16 1 
392 1.187 6.08344 -0.0228313 0.0599914 6.08379 -32.5196 16 1 
396 1.18699 6.06428 -0.0229739 0.0616245 6.06464 -32.5338 16 1 
400 1.18699 6.05021 -0.0233793 0.0633233 6.0506 -32.5376 16 1 
404 1.18703 6.04068 -0.0237003 0.0649466 6.04109 -32.4545 16 1 
408 1.18709 6.0329 -0.0238423 0.0667017 6.03333 -32.3549 16 1 
412 1.18709 6.0229 -0.0240156 0.0685721 6.02335 -32.3468 16 1 
416 1.18708 6.01123 -0.0243089 0.0704533 6.0117 -32.3652 16 1 
420 1.18708 6.00232 -0.0246174 0.0724925 6.00281 -32.3656 16 1 
424 1.18711 5.99889 -0.024831 0.0745321 5.99941 -32.3118 16 1 
428 1.18715 5.99744 -0.0250067 0.0765304 5.99798 -32.2491 16 1 
432 1.18714 5.99319 -0.0252405 0.0786874 5.99376 -32.2512 16 1 
436 1.18715 5.98882 -0.0255381 0.0809011 5.98942 -32.2483 16 1 
440 1.18715 5.98736 -0.0258182 0.083007 5.98799 -32.2483 16 1 
444 1.18715 5.98782 -0.0261349 0.0851922 5.98848 -32.2458 16 1 
448 1.18718 5.99039 -0.0264355 0.0874154 5.99108 -32.1876 16 1 
448 1.18718 5.99039 -0.0264355 0.0874154 5.99108 -32.1876 17 1 
452 1.18719 5.99326 -0.0267191 0.0896131 5.99399 -32.1615 17 1 
456 1.18718 5.99495 -0.0271301 0.0918084 5.99571 -32.1796 17 1 
460 1.18718 5.99787 -0.0276101 0.0940415 5.99867 -32.1852 17 1 
464 1.18719 6.00312 -0.0279744 0.0963477 6.00396 -32.1725 17 1 
468 1.18721 6.01037 -0.0283826 0.0986621 6.01124 -32.1288 17 1 
472 1.18723 6.01874 -0.0288948 0.100938 6.01965 -32.1004 17 1 
476 1.18722 6.02614 -0.0293981 0.103351 6.02709 -32.1097 17 1 
480 1.18722 6.03338 -0.0299077 0.105862 6.03439 -32.1145 17 1 
484 1.18723 6.0435 -0.0304628 0.108417 6.04455 -32.0959 17 1 
488 1.18725 6.05586 -0.0310242 0.110977 6.05696 -32.0546 17 1 
492 1.18726 6.06792 -0.0316292 0.113661 6.06906 -32.0378 17 1 
496 1.18726 6.07989 -0.0322618 0.116404 6.08109 -32.0352 17 1 
500 1.18727 6.09227 -0.0329341 0.119249 6.09353 -32.0184 17 1 
504 1.18727 6.10542 -0.0336211 0.122174 6.10673 -32.0199 17 1 
508 1.18729 6.12065 -0.0343452 0.12517 6.12203 -31.9961 17 1 
512 1.18731 6.13665 -0.0350881 0.12819 6.1381 -31.9524 17 1 
512 1.18731 6.13665 -0.0350881 0.12819 6.1381 -31.9524 25 1 
516 1.18731 6.15168 -0.0358711 0.131352 6.15319 -31.9564 25 1 
520 1.1873 6.16658 -0.0366848 0.134593 6.16816 -31.9622 25 1 
524 1.18731 6.18244 -0.0375184 0.13793 6.1841 -31.9466 25 1 
528 1.18732 6.1997 -0.0384032 0.141307 6.20143 -31.9317 25 1 
532 1.18733 6.21769 -0.0393312 0.144748 6.21951 -31.9105 25 1 
536 1.18734 6.23488 -0.0402482 0.148267 6.23677 -31.9067 25 1 
540 1.18733 6.25149 -0.0412485 0.15193 6.25348 -31.9173 25 1 
544 1.18733 6.26896 -0.04228 0.155602 6.27104 -31.9162 25 1 
548 1.18734 6.28776 -0.0433181 0.159361 6.28993 -31.9068 25 1 
552 1.18734 6.30707 -0.0443667 0.163216 6.30934 -31.8927 25 1 
556 1.18734 6.32564 -0.045472 0.167068 6.32802 -31.8974 25 1 
560 1.18733 6.34374 -0.0466172 0.171094 6.34622 -31.9099 25 1 
564 1.18733 6.36282 -0.0477746 0.175113 6.36541 -31.9131 25 1 
568 1.18733 6.3827 -0.0489654 0.179232 6.3854 -31.9123 25 1 
572 1.18734 6.40313 -0.0501628 0.183378 6.40595 -31.9044 25 1 
576 1.18734 6.42315 -0.0514132 0.187561 6.4261 -31.9055 25 1 
576 1.18734 6.42315 -0.0514132 0.187561 6.4261 -31.9055 26 1 
580 1.18732 6.44253 -0.0526681 0.191866 6.44561 -31.9267 26 1 
584 1.18732 6.46271 -0.0539468 0.196185 6.46591 -31.9322 26 1 
588 1.18733 6.48388 -0.055249 0.200571 6.48722 -31.9253 26 1 
592 1.18732 6.50492 -0.056561 0.204956 6.5084 -31.9295 26 1 
596 1.18732 6.52577 -0.0578672 0.209419 6.52939 -31.9355 26 1 
600 1.18731 6.54652 -0.0591845 0.21389 6.55028 -31.9437 26 1 
604 1.18731 6.56738 -0.0605172 0.218492 6.57129 -31.9525 26 1 
608 1.18731 6.58908 -0.0618387 0.222984 6.59314 -31.9555 26 1 
608 1.18731 6.58908 -0.0618387 0.222984 6.59314 -31.9555 26 1 
612 1.18731 6.61072 -0.0631617 0.227537 6.61494 -31.9501 26 1 
616 1.18731 6.63235 -0.0644779 0.232175 6.63673 -31.9569 26 1 
620 1.1873 6.65369 -0.0658211 0.236679 6.65823 -31.9636 26 1 
624 1.1873 6.67528 -0.0671485 0.241351 6.67998 -31.9671 26 1 
628 1.1873 6.69712 -0.0684539 0.245885 6.70199 -31.9685 26 1 
632 1.1873 6.71927 -0.0698183 0.250471 6.72431 -31.9649 26 1 
636 1.18731 6.7414 -0.0711519 0.255015 6.7466 -31.961 26 1 
640 1.1873 6.763 -0.0724871 0.259545 6.76837 -31.9633 26 1 
644 1.1873 6.78497 -0.0738472 0.264119 6.79051 -31.9696 26 1 
648 1.18731 6.80697 -0.0751707 0.268486 6.81268 -31.9562 26 1 
652 1.18731 6.82929 -0.0765248 0.273089 6.83519 -31.9526 26 1 
656 1.18731 6.85124 -0.0778493 0.27733 6.85729 -31.9476 26 1 
660 1.18732 6.87322 -0.0792246 0.281815 6.87946 -31.9401 26 1 
664 1.18732 6.89496 -0.0804955 0.286005 6.90136 -31.936 26 1 
668 1.18732 6.91681 -0.0818973 0.290296 6.92339 -31.9268 26 1 
672 1.18733 6.9391 -0.0831871 0.294553 6.94585 -31.9184 26 1 
672 1.18733 6.9391 -0.0831871 0.294553 6.94585 -31.9184 27 1 
676 1.18734 6.96076 -0.0843908 0.298558 6.96768 -31.8981 27 1 
680 1.18734 6.98287 -0.0858232 0.302948 6.98997 -31.8949 27 1 
684 1.18735 7.0042 -0.0868862 0.306628 7.01145 -31.8824 27 1 
688 1.18736 7.02616 -0.0882741 0.310939 7.0336 -31.8698 27 1 
692 1.18736 7.0477 -0.0893284 0.314583 7.05529 -31.8546 27 1 
696 1.18737 7.06964 -0.0905097 0.318549 7.0774 -31.8393 27 1 
700 1.18738 7.09158 -0.0917376 0.322405 7.0995 -31.8266 27 1 
704 1.18739 7.11288 -0.0927511 0.32618 7.12097 -31.8078 27 1 
704 1.18739 7.11288 -0.0927511 0.32618 7.12097 -31.8078 31 1 
708 1.1874 7.13432 -0.0937827 0.329837 7.14256 -31.7948 31 1 
712 1.1874 7.15624 -0.0947887 0.333069 7.16462 -31.7876 31 1 
716 1.18742 7.1778 -0.0957059 0.33693 7.18635 -31.7579 31 1 
720 1.18743 7.19941 -0.0965143 0.340337 7.2081 -31.7411 31 1 
724 1.18742 7.22182 -0.097691 0.344002 7.23067 -31.7449 31 1 
728 1.18744 7.24301 -0.0983499 0.347157 7.252 -31.7133 31 1 
732 1.18745 7.26467 -0.0991753 0.351009 7.27383 -31.6951 31 1 
736 1.18745 7.28738 -0.0999403 0.353239 7.29663 -31.7068 31 1 
740 1.18746 7.30937 -0.100624 0.357006 7.31879 -31.675 31 1 
744 1.18748 7.33114 -0.101172 0.360367 7.3407 -31.6471 31 1 
748 1.18746 7.35406 -0.102068 0.364054 7.36379 -31.6778 31 1 
752 1.18746 7.37775 -0.102332 0.367328 7.38761 -31.677 31 1 
756 1.1875 7.39948 -0.103245 0.370562 7.40948 -31.6133 31 1 
760 1.18746 7.42557 -0.104527 0.375316 7.43579 -31.6847 31 1 
764 1.18744 7.451 -0.10516 0.379117 7.4614 -31.7108 31 1 
768 1.18747 7.47621 -0.106555 0.382634 7.48676 -31.6621 31 1 
772 1.18743 7.50453 -0.107134 0.388985 7.51539 -31.743 31 1 
776 1.18737 7.53247 -0.108194 0.399166 7.54383 -31.8432 31 1 
780 1.1873 7.56863 -0.111211 0.404654 7.58027 -31.9674 31 1 
784 1.18727 7.60743 -0.11583 0.414591 7.61963 -32.0188 31 1 
788 1.18714 7.65706 -0.118617 0.428759 7.67 -32.2671 31 1 
792 1.18696 7.70995 -0.12373 0.453601 7.72433 -32.5897 31 1 
796 1.18667 7.78454 -0.132817 0.486693 7.80092 -33.1014 31 1 
800 1.18643 7.83698 -0.136947 0.500686 7.8542 -33.5445 31 1 
