0,1.18944,10.0002,3.68284e-05,0.00019522,10.0002,-28.0997,1,1,
4,1.18946,10.0012,-4.16208e-05,0.000309095,10.0012,-28.066,1,1,
8,1.18946,10.0017,-0.000339488,0.000455433,10.0017,-28.062,1,1,
12,1.18943,10.0031,-0.000618366,0.000597366,10.0031,-28.1259,1,1,
16,1.18944,10.0044,-0.000797996,0.0008022,10.0044,-28.1114,1,1,
20,1.18946,10.0044,-0.00108345,0.000870614,10.0044,-28.0756,1,1,
24,1.18942,10.0061,-0.00129215,0.00106292,10.0061,-28.137,1,1,
28,1.18943,10.0066,-0.00155008,0.00119073,10.0066,-28.1243,1,1,
32,1.18942,10.0082,-0.00180458,0.00136201,10.0082,-28.1332,1,1,
36,1.18942,10.01,-0.00197643,0.00157869,10.01,-28.1447,1,1,
40,1.18943,10.0104,-0.00227051,0.00169746,10.0104,-28.1177,1,1,
44,1.18942,10.01,-0.00250161,0.00186013,10.01,-28.1477,1,1,
48,1.1894,10.0113,-0.00275591,0.00208212,10.0113,-28.1849,1,1,
52,1.1894,10.0116,-0.00298692,0.00223493,10.0116,-28.1689,1,1,
56,1.18941,10.011,-0.00324711,0.00240381,10.011,-28.1605,1,1,
60,1.18939,10.0129,-0.00351957,0.0025856,10.0129,-28.1969,1,1,
64,1.18941,10.012,-0.00378982,0.00276445,10.012,-28.1641,1,1,
64,1.18941,10.012,-0.00378982,0.00276445,10.012,-28.1641,2,1,
68,1.18939,10.013,-0.00400026,0.00299393,10.013,-28.1973,2,1,
72,1.18939,10.014,-0.00426689,0.00316954,10.014,-28.2024,2,1,
76,1.18939,10.014,-0.00456532,0.00330357,10.014,-28.2012,2,1,
80,1.18939,10.0135,-0.00481788,0.00356625,10.0135,-28.1884,2,1,
84,1.18938,10.0156,-0.00502911,0.00381114,10.0156,-28.219,2,1,
88,1.18938,10.0169,-0.00529999,0.00401767,10.0169,-28.2097,2,1,
92,1.1894,10.0178,-0.0055083,0.00431301,10.0178,-28.1782,2,1,
96,1.18937,10.0208,-0.00583322,0.00445415,10.0208,-28.235,2,1,
100,1.1894,10.0183,-0.0059724,0.00478744,10.0183,-28.1779,2,1,
104,1.18938,10.0176,-0.0062967,0.00499067,10.0176,-28.2077,2,1,
108,1.18937,10.0182,-0.00651525,0.00526055,10.0182,-28.2333,2,1,
112,1.18938,10.0188,-0.00671563,0.00553939,10.0188,-28.209,2,1,
116,1.18938,10.0208,-0.00704797,0.0058158,10.0208,-28.2155,2,1,
120,1.18937,10.0232,-0.00722408,0.00610644,10.0232,-28.225,2,1,
124,1.1894,10.0217,-0.00750187,0.00634824,10.0217,-28.1739,2,1,
128,1.18939,10.0212,-0.00775273,0.00668617,10.0212,-28.1938,2,1,
128,1.18939,10.0212,-0.00775273,0.00668617,10.0212,-28.1938,10,1,
132,1.18936,10.0226,-0.00799483,0.00696446,10.0226,-28.2564,10,1,
136,1.1894,10.0195,-0.00817785,0.00726978,10.0195,-28.1848,10,1,
140,1.18937,10.022,-0.00850662,0.00757045,10.022,-28.2276,10,1,
144,1.18938,10.0221,-0.00868179,0.0079669,10.0222,-28.2187,10,1,
148,1.18942,10.0207,-0.00891319,0.00817921,10.0207,-28.1491,10,1,
152,1.18938,10.0242,-0.00923738,0.00856524,10.0242,-28.2141,10,1,
156,1.18939,10.0226,-0.00933388,0.00906986,10.0226,-28.203,10,1,
160,1.18942,10.0202,-0.00974105,0.0093413,10.0202,-28.1386,10,1,
160,1.18942,10.0202,-0.00974105,0.0093413,10.0202,-28.1386,10,1,
164,1.18938,10.023,-0.00991896,0.00963345,10.023,-28.2131,10,1,
168,1.18943,10.0203,-0.0101437,0.0101164,10.0203,-28.1182,10,1,
172,1.18944,10.0188,-0.0103965,0.0105238,10.0188,-28.1014,10,1,
176,1.18938,10.0241,-0.0105342,0.0109214,10.0241,-28.2198,10,1,
180,1.18948,10.0194,-0.0107067,0.0115855,10.0194,-28.0263,10,1,
184,1.18946,10.0186,-0.0110397,0.0119161,10.0186,-28.0673,10,1,
188,1.18943,10.0184,-0.0111997,0.0124748,10.0184,-28.1184,10,1,
192,1.1895,10.0105,-0.0113286,0.0130359,10.0105,-27.998,10,1,
196,1.18946,10.0113,-0.0118283,0.0132886,10.0113,-28.0662,10,1,
200,1.18948,10.0147,-0.0118216,0.0139605,10.0147,-28.031,10,1,
204,1.18959,10.0121,-0.0120846,0.0145462,10.0122,-27.8297,10,1,
208,1.18961,10.01,-0.0123547,0.0151495,10.01,-27.7995,10,1,
212,1.18955,10.0072,-0.0124823,0.0157365,10.0072,-27.9029,10,1,
216,1.18966,9.99639,-0.0128422,0.0161255,9.99641,-27.6993,10,1,
220,1.18971,9.9874,-0.0129695,0.0166044,9.98743,-27.6263,10,1,
224,1.18962,9.98363,-0.0131131,0.0173105,9.98366,-27.7802,10,1,
224,1.18962,9.98363,-0.0131131,0.0173105,9.98366,-27.7802,10,1,
228,1.18981,9.97451,-0.0135008,0.0177367,9.97454,-27.4342,10,1,
232,1.18988,9.97139,-0.0136063,0.0184038,9.97142,-27.3167,10,1,
236,1.18989,9.96315,-0.0138968,0.0190761,9.96319,-27.2849,10,1,
240,1.19001,9.95014,-0.014092,0.0195568,9.95017,-27.08,10,1,
244,1.19016,9.93187,-0.0142801,0.0203075,9.93191,-26.8086,10,1,
248,1.19031,9.90393,-0.0148794,0.020697,9.90397,-26.5314,10,1,
252,1.19028,9.88747,-0.0150795,0.0212164,9.88752,-26.5794,10,1,
256,1.19068,9.85647,-0.0152105,0.0221901,9.85652,-25.8623,10,1,
256,1.19068,9.85647,-0.0152105,0.0221901,9.85652,-25.8623,11,1,
260,1.19099,9.81367,-0.0155235,0.0227336,9.81374,-25.2999,11,1,
264,1.19097,9.7754,-0.0156624,0.0232838,9.77547,-25.3349,11,1,
268,1.19166,9.71029,-0.0160517,0.023988,9.71038,-24.1,11,1,
272,1.19247,9.62305,-0.0164419,0.0244287,9.62317,-22.6399,11,1,
276,1.1927,9.51721,-0.0165454,0.0250027,9.5175,-22.2114,11,1,
280,1.1935,9.35437,-0.016872,0.0254706,9.35467,-20.7687,11,1,
284,1.19498,9.18093,-0.0170155,0.026082,9.18109,-18.0989,11,1,
288,1.19652,8.96002,-0.0172364,0.0267011,8.96032,-15.3149,11,1,
292,1.19822,8.62333,-0.017532,0.0268451,8.62473,-12.2378,11,1,
296,1.19354,8.19395,-0.0170263,0.0266491,8.19553,-20.6986,11,1,
300,1.1847,7.88179,-0.017063,0.0268264,7.88238,-36.662,11,1,
304,1.1825,7.66026,-0.0172147,0.0275618,7.66106,-40.6494,11,1,
308,1.18405,7.39336,-0.0169665,0.0278322,7.39467,-37.8498,11,1,
312,1.18503,7.12359,-0.0170294,0.0279544,7.12478,-36.0728,11,1,
316,1.18579,6.87392,-0.0169763,0.0284655,6.87465,-34.7002,11,1,
320,1.18637,6.71303,-0.017078,0.0291292,6.71343,-33.6505,11,1,
320,1.18637,6.71303,-0.017078,0.0291292,6.71343,-33.6505,15,1,
324,1.187,6.60165,-0.0172893,0.0301934,6.60187,-32.5133,15,1,
328,1.1876,6.52931,-0.017582,0.0310895,6.52948,-31.4315,15,1,
332,1.18799,6.46199,-0.0178937,0.0319696,6.46214,-30.7239,15,1,
336,1.18806,6.38361,-0.0181455,0.0333166,6.38372,-30.6053,15,1,
340,1.18822,6.34282,-0.0184233,0.0346835,6.34295,-30.3026,15,1,
344,1.18865,6.32969,-0.0186458,0.0358775,6.32982,-29.5408,15,1,
348,1.18888,6.30801,-0.0189596,0.036986,6.30815,-29.1151,15,1,
352,1.18895,6.28192,-0.0191714,0.038107,6.28206,-28.9979,15,1,
356,1.18899,6.25218,-0.0192211,0.0394136,6.25235,-28.9108,15,1,
360,1.1891,6.22979,-0.0193524,0.0408978,6.22996,-28.7136,15,1,
364,1.18932,6.22674,-0.0195795,0.0421429,6.22692,-28.3219,15,1,
368,1.18941,6.21706,-0.0197391,0.0432161,6.21724,-28.1563,15,1,
372,1.18941,6.19406,-0.0197366,0.0444883,6.19425,-28.1522,15,1,
376,1.18949,6.17488,-0.0196587,0.0459648,6.17508,-28.0221,15,1,
380,1.18952,6.1586,-0.0197534,0.0472883,6.15882,-27.9542,15,1,
384,1.18957,6.14668,-0.0199818,0.0485173,6.14691,-27.8743,15,1,
384,1.18957,6.14668,-0.0199818,0.0485173,6.14691,-27.8743,16,1,
388,1.18965,6.1376,-0.0200825,0.0497416,6.13784,-27.7303,16,1,
392,1.18968,6.12124,-0.0200332,0.0510705,6.12149,-27.6779,16,1,
396,1.18967,6.10248,-0.0201117,0.0525073,6.10275,-27.6976,16,1,
400,1.18966,6.08883,-0.0204485,0.0539922,6.08911,-27.7067,16,1,
404,1.1897,6.07968,-0.0207035,0.0554205,6.07998,-27.6281,16,1,
408,1.18976,6.07226,-0.0207784,0.0569745,6.07258,-27.5329,16,1,
412,1.18976,6.06263,-0.020878,0.0586283,6.06296,-27.5301,16,1,
416,1.18975,6.05131,-0.0210951,0.0602854,6.05165,-27.554,16,1,
420,1.18974,6.04278,-0.0213221,0.0620943,6.04314,-27.5597,16,1,
424,1.18977,6.03977,-0.0214524,0.0639096,6.04015,-27.5106,16,1,
428,1.1898,6.03875,-0.0215464,0.0656842,6.03915,-27.4525,16,1,
432,1.1898,6.03497,-0.0216946,0.0676131,6.03539,-27.4599,16,1,
436,1.1898,6.03112,-0.0219072,0.0695888,6.03157,-27.4621,16,1,
440,1.18979,6.03023,-0.0221035,0.0714548,6.03069,-27.4672,16,1,
444,1.18979,6.03129,-0.0223368,0.0733919,6.03178,-27.4697,16,1,
448,1.18982,6.03452,-0.0225573,0.0753749,6.03504,-27.4162,16,1,
448,1.18982,6.03452,-0.0225573,0.0753749,6.03504,-27.4162,17,1,
452,1.18983,6.03809,-0.0227576,0.0773293,6.03863,-27.3951,17,1,
456,1.18982,6.04055,-0.0230859,0.0792712,6.04111,-27.4183,17,1,
460,1.18981,6.04426,-0.0234798,0.0812412,6.04486,-27.4292,17,1,
464,1.18982,6.05035,-0.0237653,0.0832793,6.05097,-27.4215,17,1,
468,1.18984,6.05847,-0.0240982,0.0853146,6.05912,-27.3826,17,1,
472,1.18985,6.06771,-0.0245432,0.0872953,6.06839,-27.3592,17,1,
476,1.18985,6.07605,-0.0249832,0.0893926,6.07676,-27.3736,17,1,
480,1.18984,6.08418,-0.0254337,0.0915752,6.08492,-27.384,17,1,
484,1.18985,6.09525,-0.0259365,0.0937937,6.09603,-27.3703,17,1,
488,1.18987,6.10855,-0.026444,0.0960054,6.10936,-27.3341,17,1,
492,1.18987,6.12155,-0.0269985,0.0983297,6.1224,-27.3223,17,1,
496,1.18987,6.13451,-0.0275796,0.1007,6.1354,-27.3251,17,1,
500,1.18988,6.14782,-0.0282041,0.103146,6.14876,-27.3136,17,1,
504,1.18987,6.16194,-0.0288469,0.105654,6.16292,-27.3203,17,1,
508,1.18988,6.17808,-0.0295321,0.108198,6.1791,-27.3019,17,1,
512,1.18991,6.19499,-0.0302535,0.110749,6.19606,-27.2631,17,1,
512,1.18991,6.19499,-0.0302535,0.110749,6.19606,-27.2631,25,1,
516,1.1899,6.21087,-0.0310227,0.113392,6.21199,-27.2725,25,1,
520,1.18989,6.22657,-0.0318407,0.116084,6.22774,-27.284,25,1,
524,1.1899,6.24318,-0.0326937,0.118828,6.2444,-27.2735,25,1,
528,1.18991,6.26109,-0.0336154,0.121579,6.26236,-27.2642,25,1,
532,1.18991,6.27973,-0.0345982,0.124365,6.28106,-27.248,25,1,
536,1.18991,6.29744,-0.0355756,0.127191,6.29883,-27.25,25,1,
540,1.1899,6.31457,-0.0366554,0.130131,6.31602,-27.2662,25,1,
544,1.1899,6.33245,-0.0377712,0.133054,6.33397,-27.2708,25,1,
548,1.1899,6.35161,-0.0389005,0.136043,6.35319,-27.267,25,1,
552,1.18991,6.37126,-0.0400484,0.139105,6.3729,-27.2584,25,1,
556,1.1899,6.39005,-0.04125,0.142149,6.39176,-27.2691,25,1,
560,1.18989,6.40838,-0.0425009,0.145345,6.41017,-27.2874,25,1,
564,1.18989,6.42759,-0.0437564,0.148529,6.42946,-27.2965,25,1,
568,1.18989,6.44762,-0.04505,0.151794,6.44957,-27.3014,25,1,
572,1.18989,6.46814,-0.0463434,0.155083,6.47017,-27.2991,25,1,
576,1.18988,6.48822,-0.0476853,0.158404,6.49033,-27.306,25,1,
576,1.18988,6.48822,-0.0476853,0.158404,6.49033,-27.306,26,1,
580,1.18987,6.50769,-0.0490357,0.161838,6.50989,-27.3334,26,1,
584,1.18986,6.52784,-0.0503929,0.165286,6.53013,-27.3445,26,1,
588,1.18986,6.54911,-0.0517755,0.168805,6.55149,-27.343,26,1,
592,1.18986,6.57014,-0.0531529,0.172316,6.57262,-27.3531,26,1,
596,1.18985,6.59101,-0.0545193,0.175924,6.59358,-27.3643,26,1,
600,1.18984,6.6118,-0.0558944,0.179536,6.61447,-27.3789,26,1,
604,1.18983,6.63264,-0.0572743,0.183277,6.63542,-27.3926,26,1,
608,1.18983,6.65444,-0.0586357,0.186937,6.65733,-27.401,26,1,
608,1.18983,6.65444,-0.0586357,0.186937,6.65733,-27.401,26,1,
612,1.18983,6.67613,-0.059988,0.190635,6.67912,-27.4014,26,1,
616,1.18982,6.69785,-0.0613353,0.194461,6.70095,-27.4129,26,1,
620,1.18982,6.71922,-0.062695,0.19815,6.72244,-27.4252,26,1,
624,1.18981,6.74092,-0.0640335,0.201997,6.74426,-27.4341,26,1,
628,1.18981,6.7629,-0.0653334,0.205734,6.76635,-27.4407,26,1,
632,1.18981,6.78515,-0.0666809,0.209518,6.78872,-27.4414,26,1,
636,1.18981,6.80743,-0.0679985,0.213283,6.81111,-27.4428,26,1,
640,1.1898,6.82908,-0.0692912,0.217032,6.83288,-27.4509,26,1,
644,1.1898,6.85111,-0.0706042,0.220842,6.85504,-27.4608,26,1,
648,1.1898,6.87315,-0.0718628,0.224452,6.8772,-27.453,26,1,
652,1.1898,6.89551,-0.0731317,0.228289,6.89968,-27.4546,26,1,
656,1.1898,6.91735,-0.0743795,0.231841,6.92164,-27.4528,26,1,
660,1.1898,6.93918,-0.0756367,0.235554,6.94359,-27.4513,26,1,
664,1.1898,6.96073,-0.0768027,0.239089,6.96526,-27.4512,26,1,
668,1.18981,6.98223,-0.0780533,0.242653,6.98688,-27.4459,26,1,
672,1.18981,7.00417,-0.0791992,0.246241,7.00895,-27.442,26,1,
672,1.18981,7.00417,-0.0791992,0.246241,7.00895,-27.442,27,1,
676,1.18982,7.02527,-0.0802449,0.249589,7.03017,-27.4255,27,1,
680,1.18982,7.0467,-0.081496,0.253282,7.05172,-27.4263,27,1,
684,1.18982,7.06724,-0.0823836,0.25634,7.07237,-27.4165,27,1,
688,1.18983,7.0882,-0.0835536,0.259909,7.09346,-27.4089,27,1,
692,1.18983,7.10861,-0.0844313,0.262969,7.11398,-27.3959,27,1,
696,1.18984,7.12925,-0.0853602,0.266211,7.13474,-27.3851,27,1,
700,1.18985,7.14958,-0.0863731,0.269438,7.15518,-27.3729,27,1,
704,1.18985,7.16916,-0.0871792,0.272499,7.17487,-27.3605,27,1,
704,1.18985,7.16916,-0.0871792,0.272499,7.17487,-27.3605,31,1,
708,1.18986,7.18861,-0.087952,0.275399,7.19442,-27.35,31,1,
712,1.18986,7.20837,-0.0887471,0.278064,7.21428,-27.3419,31,1,
716,1.18987,7.22741,-0.0894158,0.281072,7.23343,-27.3201,31,1,
720,1.18988,7.24629,-0.0900419,0.283841,7.25241,-27.3044,31,1,
724,1.18988,7.26575,-0.0909546,0.286642,7.27197,-27.3111,31,1,
728,1.1899,7.28372,-0.0914191,0.28904,7.29003,-27.2805,31,1,
732,1.1899,7.30229,-0.0920648,0.292138,7.30871,-27.2705,31,1,
736,1.1899,7.3212,-0.0926539,0.293618,7.32767,-27.2796,31,1,
740,1.18991,7.33922,-0.0931625,0.296562,7.34581,-27.2479,31,1,
744,1.18992,7.35728,-0.0935715,0.299012,7.36396,-27.2378,31,1,
748,1.18991,7.37584,-0.0944304,0.301881,7.38263,-27.2576,31,1,
752,1.18991,7.39515,-0.0944201,0.304361,7.40202,-27.261,31,1,
756,1.18993,7.41273,-0.0953066,0.306696,7.4197,-27.2151,31,1,
760,1.18989,7.4344,-0.0966769,0.310342,7.44151,-27.2853,31,1,
764,1.18988,7.45541,-0.0972748,0.313196,7.46263,-27.3073,31,1,
768,1.1899,7.4765,-0.098502,0.315789,7.48382,-27.2786,31,1,
772,1.18984,7.50027,-0.0990519,0.321242,7.50781,-27.3774,31,1,
776,1.18978,7.52476,-0.1002,0.329721,7.53266,-27.4855,31,1,
780,1.18971,7.55798,-0.103215,0.333836,7.56607,-27.6244,31,1,
784,1.18966,7.59369,-0.107909,0.34174,7.60216,-27.7028,31,1,
788,1.18948,7.64319,-0.110859,0.354136,7.65221,-28.0284,31,1,
792,1.18928,7.69735,-0.116174,0.376176,7.70746,-28.3912,31,1,
796,1.18895,7.77729,-0.12605,0.406883,7.78901,-28.9882,31,1,
800,1.18865,7.83457,-0.130919,0.421233,7.84703,-29.5253,31,1,
