160.028;r ;Density                 ;Velocity u              ;Velocity v              ;Velocity w              ;|Velocity|              ;Pressure                ;Distribution            ;Levels                  ;
0 1.18077 10.0001 0.000100826 0.000214446 10.0001 -43.7657 1 1 
4 1.18079 10.0009 4.48307e-05 0.000362821 10.0009 -43.7313 1 1 
8 1.18079 10.0012 -0.000184361 0.000583746 10.0012 -43.725 1 1 
12 1.18076 10.0024 -0.000408572 0.000789966 10.0024 -43.7857 1 1 
16 1.18077 10.0035 -0.000523651 0.00106469 10.0035 -43.7688 1 1 
20 1.18079 10.0032 -0.000749054 0.00119009 10.0032 -43.7314 1 1 
24 1.18076 10.0047 -0.000891865 0.00144573 10.0047 -43.7899 1 1 
28 1.18076 10.005 -0.00109992 0.00163766 10.005 -43.7755 1 1 
32 1.18076 10.0064 -0.00128577 0.00187064 10.0064 -43.7823 1 1 
36 1.18076 10.0081 -0.00139627 0.0021461 10.0081 -43.7921 1 1 
40 1.18077 10.0082 -0.00163131 0.00232014 10.0082 -43.7636 1 1 
44 1.18076 10.0076 -0.00181048 0.00255328 10.0076 -43.7915 1 1 
48 1.18074 10.0087 -0.00199709 0.00283913 10.0087 -43.8273 1 1 
52 1.18075 10.0088 -0.00216179 0.00304952 10.0088 -43.8094 1 1 
56 1.18075 10.008 -0.00236376 0.0032816 10.008 -43.8005 1 1 
60 1.18073 10.0097 -0.00257717 0.00352841 10.0097 -43.8348 1 1 
64 1.18075 10.0087 -0.00278077 0.00377404 10.0087 -43.8011 1 1 
64 1.18075 10.0087 -0.00278077 0.00377404 10.0087 -43.8011 2 1 
68 1.18073 10.0094 -0.00292096 0.00405709 10.0094 -43.8331 2 1 
72 1.18073 10.0103 -0.00312794 0.00429846 10.0103 -43.8368 2 1 
76 1.18073 10.0101 -0.00334815 0.0045013 10.0101 -43.8346 2 1 
80 1.18074 10.0095 -0.0035296 0.00482075 10.0095 -43.8205 2 1 
84 1.18072 10.0114 -0.00367717 0.00513094 10.0114 -43.85 2 1 
88 1.18073 10.0124 -0.00388023 0.00541003 10.0124 -43.8393 2 1 
92 1.18075 10.0132 -0.0040064 0.00576758 10.0132 -43.8069 2 1 
96 1.18072 10.0159 -0.00424725 0.00596813 10.016 -43.8622 2 1 
100 1.18075 10.0132 -0.00432749 0.00636188 10.0132 -43.8041 2 1 
104 1.18073 10.0123 -0.00457888 0.00664082 10.0123 -43.8324 2 1 
108 1.18072 10.0127 -0.00472458 0.00698309 10.0127 -43.8563 2 1 
112 1.18073 10.0132 -0.00484418 0.00731521 10.0132 -43.8302 2 1 
116 1.18073 10.0149 -0.0051034 0.0076523 10.0149 -43.8363 2 1 
120 1.18073 10.0172 -0.00519843 0.00802339 10.0172 -43.8429 2 1 
124 1.18076 10.0154 -0.00538402 0.00832973 10.0154 -43.791 2 1 
128 1.18075 10.0147 -0.00556108 0.0087208 10.0147 -43.8098 2 1 
128 1.18075 10.0147 -0.00556108 0.0087208 10.0147 -43.8098 10 1 
132 1.18071 10.0159 -0.00572962 0.00906951 10.0159 -43.8692 10 1 
136 1.18075 10.0125 -0.00582472 0.00945309 10.0125 -43.7974 10 1 
140 1.18073 10.0149 -0.00607753 0.00982035 10.0149 -43.8379 10 1 
144 1.18074 10.0148 -0.0061716 0.0102652 10.0148 -43.8277 10 1 
148 1.18078 10.0131 -0.00631386 0.0105591 10.0131 -43.7566 10 1 
152 1.18074 10.0164 -0.00654129 0.0110242 10.0164 -43.8203 10 1 
156 1.18075 10.0146 -0.00654754 0.0115974 10.0146 -43.8071 10 1 
160 1.18078 10.0119 -0.00687561 0.0119358 10.012 -43.742 10 1 
160 1.18078 10.0119 -0.00687561 0.0119358 10.012 -43.742 10 1 
164 1.18074 10.0145 -0.00695282 0.0122921 10.0145 -43.8144 10 1 
168 1.1808 10.0116 -0.00707564 0.0128706 10.0117 -43.7188 10 1 
172 1.18081 10.0099 -0.00723894 0.0133485 10.0099 -43.7011 10 1 
176 1.18074 10.015 -0.00728739 0.0138131 10.015 -43.8165 10 1 
180 1.18085 10.0101 -0.00734722 0.0145493 10.0101 -43.6237 10 1 
184 1.18083 10.009 -0.00759374 0.0149697 10.009 -43.6627 10 1 
188 1.1808 10.0086 -0.00766589 0.0155961 10.0086 -43.7122 10 1 
192 1.18087 10.0005 -0.00769611 0.0162165 10.0005 -43.5908 10 1 
196 1.18083 10.0011 -0.00808722 0.0165478 10.0011 -43.6582 10 1 
200 1.18085 10.0043 -0.00798141 0.0173085 10.0043 -43.6217 10 1 
204 1.18096 10.0014 -0.00815392 0.0179712 10.0015 -43.4196 10 1 
208 1.18098 9.9991 -0.00832242 0.0186399 9.99913 -43.39 10 1 
212 1.18092 9.99613 -0.0083335 0.019314 9.99616 -43.4905 10 1 
216 1.18103 9.98503 -0.00860302 0.0197814 9.98506 -43.287 10 1 
220 1.18108 9.97587 -0.00863194 0.0203415 9.9759 -43.2141 10 1 
224 1.18099 9.97192 -0.00865558 0.0211189 9.97195 -43.3649 10 1 
224 1.18099 9.97192 -0.00865558 0.0211189 9.97195 -43.3649 10 1 
228 1.18118 9.96255 -0.0089269 0.0216534 9.96259 -43.0194 10 1 
232 1.18125 9.95929 -0.00892274 0.0224189 9.95932 -42.9025 10 1 
236 1.18127 9.95082 -0.00909071 0.0231745 9.95085 -42.8709 10 1 
240 1.18138 9.93754 -0.00916563 0.0237433 9.93758 -42.6639 10 1 
244 1.18153 9.9191 -0.00923863 0.0246015 9.91914 -42.3948 10 1 
248 1.18168 9.89099 -0.00972188 0.0250965 9.89104 -42.119 10 1 
252 1.18166 9.8743 -0.00978849 0.0256904 9.87435 -42.1633 10 1 
256 1.18205 9.84324 -0.00977109 0.0267713 9.84329 -41.4547 10 1 
256 1.18205 9.84324 -0.00977109 0.0267713 9.84329 -41.4547 11 1 
260 1.18236 9.8002 -0.00998377 0.0274096 9.80028 -40.8944 11 1 
264 1.18234 9.76166 -0.0100123 0.0280583 9.76174 -40.9274 11 1 
268 1.18302 9.69654 -0.010268 0.0288455 9.69663 -39.7036 11 1 
272 1.18382 9.60916 -0.0105438 0.0293677 9.60929 -38.2571 11 1 
276 1.18405 9.50331 -0.0105597 0.0300176 9.50361 -37.8327 11 1 
280 1.18484 9.34064 -0.0107961 0.030555 9.34095 -36.4067 11 1 
284 1.18631 9.16707 -0.0108387 0.0312416 9.16724 -33.7582 11 1 
288 1.18784 8.94591 -0.010949 0.0319337 8.94622 -30.9954 11 1 
292 1.18951 8.61041 -0.0112137 0.0320907 8.61179 -27.9734 11 1 
296 1.18486 8.18217 -0.0110171 0.0317321 8.18784 -36.369 11 1 
300 1.1761 7.87248 -0.0117348 0.0316986 7.87859 -52.2012 11 1 
304 1.17392 7.6536 -0.0126863 0.0321944 7.65881 -56.1403 11 1 
308 1.17545 7.38646 -0.0132874 0.0321926 7.39161 -53.3729 11 1 
312 1.17643 7.1188 -0.0140779 0.0321148 7.12306 -51.6058 11 1 
316 1.1772 6.87113 -0.0145922 0.032494 6.87434 -50.2075 11 1 
320 1.17778 6.70964 -0.0150429 0.0331028 6.71142 -49.1707 11 1 
320 1.17778 6.70964 -0.0150429 0.0331028 6.71142 -49.1707 15 1 
324 1.1784 6.5981 -0.0155729 0.0341468 6.59969 -48.0374 15 1 
328 1.179 6.52498 -0.0160995 0.0350558 6.52634 -46.9713 15 1 
332 1.17938 6.457 -0.0166041 0.0359584 6.45829 -46.2682 15 1 
336 1.17946 6.37851 -0.0170186 0.0373452 6.37934 -46.1389 15 1 
340 1.17962 6.33624 -0.0174461 0.0387752 6.33705 -45.8408 15 1 
344 1.18004 6.32152 -0.0178484 0.0400385 6.32234 -45.0919 15 1 
348 1.18027 6.29907 -0.0183518 0.0411939 6.29987 -44.6721 15 1 
352 1.18033 6.27218 -0.0187599 0.0423371 6.27287 -44.5521 15 1 
356 1.18039 6.24218 -0.0190608 0.0436926 6.24289 -44.4602 15 1 
360 1.18049 6.21923 -0.0194022 0.0452207 6.2199 -44.2699 15 1 
364 1.1807 6.21543 -0.0198092 0.046529 6.21611 -43.8829 15 1 
368 1.1808 6.20557 -0.0201784 0.0476608 6.20622 -43.7158 15 1 
372 1.1808 6.18242 -0.020375 0.0490112 6.18306 -43.7132 15 1 
376 1.18087 6.16336 -0.0204236 0.0505813 6.16398 -43.581 15 1 
380 1.18091 6.14726 -0.0206315 0.05201 6.14788 -43.5111 15 1 
384 1.18095 6.1352 -0.0208981 0.0533744 6.1358 -43.433 15 1 
384 1.18095 6.1352 -0.0208981 0.0533744 6.1358 -43.433 16 1 
388 1.18103 6.12616 -0.0210665 0.0547394 6.12676 -43.2893 16 1 
392 1.18106 6.11004 -0.0210612 0.0562251 6.11063 -43.2366 16 1 
396 1.18105 6.09157 -0.0210737 0.0578464 6.09216 -43.2533 16 1 
400 1.18105 6.07822 -0.0212778 0.0595406 6.07879 -43.2597 16 1 
404 1.18109 6.06925 -0.0214104 0.0611885 6.06983 -43.1821 16 1 
408 1.18115 6.062 -0.0213136 0.0629707 6.06258 -43.0876 16 1 
412 1.18115 6.05268 -0.0211824 0.0648577 6.05326 -43.0829 16 1 
416 1.18114 6.04163 -0.0211505 0.06677 6.0422 -43.1048 16 1 
420 1.18113 6.03335 -0.021064 0.0688415 6.03394 -43.1085 16 1 
424 1.18116 6.03041 -0.0208714 0.0709026 6.031 -43.0601 16 1 
428 1.18119 6.02941 -0.0206159 0.0729325 6.03002 -43.002 16 1 
432 1.18119 6.02572 -0.0203978 0.0751381 6.02634 -43.0081 16 1 
436 1.18119 6.02184 -0.0201823 0.0773859 6.02248 -43.0095 16 1 
440 1.18119 6.02087 -0.0199602 0.0795189 6.02152 -43.0128 16 1 
444 1.18119 6.02173 -0.019749 0.0817461 6.0224 -43.0153 16 1 
448 1.18121 6.02466 -0.0195165 0.0840178 6.02535 -42.9625 16 1 
448 1.18121 6.02466 -0.0195165 0.0840178 6.02535 -42.9625 17 1 
452 1.18123 6.02795 -0.0192363 0.086241 6.02867 -42.9406 17 1 
456 1.18121 6.03006 -0.0190859 0.088474 6.0308 -42.9629 17 1 
460 1.18121 6.03337 -0.0189822 0.0907479 6.03414 -42.9726 17 1 
464 1.18121 6.03897 -0.0187596 0.0930784 6.03977 -42.9649 17 1 
468 1.18123 6.04655 -0.0185576 0.0954082 6.04738 -42.9263 17 1 
472 1.18125 6.05523 -0.0184801 0.0977073 6.05609 -42.9024 17 1 
476 1.18124 6.06296 -0.0183528 0.100136 6.06386 -42.916 17 1 
480 1.18124 6.07045 -0.0182265 0.102639 6.07138 -42.9256 17 1 
484 1.18124 6.08082 -0.01813 0.105189 6.08179 -42.9114 17 1 
488 1.18126 6.09337 -0.0180484 0.107744 6.09438 -42.8755 17 1 
492 1.18127 6.10559 -0.0179783 0.110415 6.10665 -42.8635 17 1 
496 1.18127 6.11774 -0.0179345 0.11313 6.11884 -42.8655 17 1 
500 1.18127 6.13024 -0.0178974 0.115945 6.13139 -42.8536 17 1 
504 1.18127 6.14353 -0.0178765 0.118835 6.14473 -42.8599 17 1 
508 1.18128 6.15882 -0.0178712 0.121783 6.16007 -42.8416 17 1 
512 1.1813 6.17489 -0.0178771 0.124752 6.1762 -42.8032 17 1 
512 1.1813 6.17489 -0.0178771 0.124752 6.1762 -42.8032 25 1 
516 1.1813 6.18996 -0.0178965 0.127851 6.19133 -42.8122 25 1 
520 1.18129 6.20487 -0.017939 0.131027 6.2063 -42.8233 25 1 
524 1.1813 6.22073 -0.0179658 0.134287 6.22222 -42.8131 25 1 
528 1.1813 6.23792 -0.0180447 0.137585 6.23948 -42.8043 25 1 
532 1.18131 6.25582 -0.0181446 0.140944 6.25746 -42.7887 25 1 
536 1.18131 6.27289 -0.0182214 0.144374 6.27459 -42.7907 25 1 
540 1.1813 6.28937 -0.0183466 0.147945 6.29115 -42.8073 25 1 
544 1.1813 6.30662 -0.018494 0.15152 6.30848 -42.8125 25 1 
548 1.1813 6.32518 -0.0186278 0.155181 6.32712 -42.8094 25 1 
552 1.1813 6.34419 -0.0187596 0.158935 6.34622 -42.802 25 1 
556 1.1813 6.36244 -0.0189334 0.162686 6.36456 -42.8134 25 1 
560 1.18129 6.38016 -0.0191075 0.166608 6.38238 -42.8327 25 1 
564 1.18128 6.39883 -0.0192898 0.17053 6.40114 -42.8428 25 1 
568 1.18128 6.41826 -0.0194806 0.174547 6.42068 -42.8492 25 1 
572 1.18128 6.43821 -0.019663 0.178604 6.44073 -42.8487 25 1 
576 1.18127 6.45776 -0.0198799 0.182696 6.46038 -42.8569 25 1 
576 1.18127 6.45776 -0.0198799 0.182696 6.46038 -42.8569 26 1 
580 1.18126 6.4766 -0.0200719 0.186919 6.47934 -42.8858 26 1 
584 1.18125 6.49626 -0.0202768 0.191169 6.49911 -42.8987 26 1 
588 1.18125 6.51687 -0.020478 0.19548 6.51984 -42.8995 26 1 
592 1.18124 6.53738 -0.0206893 0.199814 6.54047 -42.9114 26 1 
596 1.18124 6.55767 -0.0208566 0.204213 6.56089 -42.9253 26 1 
600 1.18123 6.57786 -0.0210465 0.208647 6.58121 -42.9411 26 1 
604 1.18122 6.59818 -0.021206 0.213202 6.60167 -42.9576 26 1 
608 1.18121 6.61933 -0.0213598 0.217653 6.62295 -42.9687 26 1 
608 1.18121 6.61933 -0.0213598 0.217653 6.62295 -42.9687 26 1 
612 1.18121 6.64051 -0.0215121 0.222178 6.64427 -42.9707 26 1 
616 1.1812 6.66159 -0.0216285 0.226786 6.66549 -42.9858 26 1 
620 1.18119 6.68249 -0.0217852 0.231279 6.68654 -43 26 1 
624 1.18119 6.70356 -0.0218872 0.235925 6.70776 -43.0115 26 1 
628 1.18118 6.72499 -0.0219859 0.240476 6.72933 -43.0205 26 1 
632 1.18118 6.74677 -0.0221083 0.245049 6.75126 -43.0253 26 1 
636 1.18118 6.76847 -0.022212 0.249627 6.77311 -43.0289 26 1 
640 1.18117 6.78975 -0.022294 0.254192 6.79455 -43.0388 26 1 
644 1.18116 6.81132 -0.0223773 0.258805 6.81628 -43.054 26 1 
648 1.18117 6.83303 -0.022445 0.26325 6.83814 -43.0469 26 1 
652 1.18116 6.85502 -0.0224726 0.267896 6.8603 -43.0522 26 1 
656 1.18116 6.87671 -0.0225363 0.272251 6.88214 -43.0546 26 1 
660 1.18116 6.89836 -0.0225582 0.276807 6.90395 -43.0543 26 1 
664 1.18116 6.91978 -0.0225489 0.281131 6.92553 -43.0583 26 1 
668 1.18116 6.94133 -0.0225883 0.285526 6.94725 -43.0564 26 1 
672 1.18116 6.96323 -0.0225323 0.289909 6.96931 -43.0558 26 1 
672 1.18116 6.96323 -0.0225323 0.289909 6.96931 -43.0558 27 1 
676 1.18117 6.9846 -0.0224367 0.294065 6.99083 -43.0422 27 1 
680 1.18117 7.00623 -0.0224235 0.298554 7.01263 -43.0475 27 1 
684 1.18117 7.02715 -0.0222656 0.302402 7.0337 -43.0411 27 1 
688 1.18117 7.04858 -0.0222042 0.306786 7.0553 -43.0363 27 1 
692 1.18118 7.06955 -0.0220286 0.31061 7.07642 -43.0288 27 1 
696 1.18118 7.09085 -0.0218375 0.314642 7.09787 -43.0197 27 1 
700 1.18119 7.11206 -0.0217364 0.318595 7.11924 -43.0145 27 1 
704 1.18119 7.13264 -0.021481 0.322478 7.13997 -43.0021 27 1 
704 1.18119 7.13264 -0.021481 0.322478 7.13997 -43.0021 31 1 
708 1.1812 7.15311 -0.0212642 0.326147 7.16059 -42.9962 31 1 
712 1.1812 7.17419 -0.0210682 0.329456 7.18179 -42.9958 31 1 
716 1.18121 7.19467 -0.0207443 0.333264 7.20243 -42.9725 31 1 
720 1.18122 7.21527 -0.0204537 0.336695 7.22317 -42.9612 31 1 
724 1.18121 7.23652 -0.0203397 0.34029 7.24455 -42.9723 31 1 
728 1.18122 7.25638 -0.0200602 0.343365 7.26454 -42.946 31 1 
732 1.18123 7.27685 -0.0196929 0.347127 7.28517 -42.9348 31 1 
736 1.18122 7.29825 -0.0195683 0.349204 7.30664 -42.9534 31 1 
740 1.18124 7.31895 -0.0191946 0.352869 7.32749 -42.9244 31 1 
744 1.18125 7.33925 -0.0187952 0.356055 7.34792 -42.9046 31 1 
748 1.18123 7.36084 -0.0187064 0.359701 7.36966 -42.9416 31 1 
752 1.18122 7.38307 -0.0179193 0.362641 7.39201 -42.946 31 1 
756 1.18126 7.40334 -0.0180191 0.365681 7.4124 -42.8874 31 1 
760 1.18121 7.42826 -0.0181168 0.37038 7.43752 -42.9698 31 1 
764 1.18119 7.45244 -0.0177552 0.374132 7.46186 -42.9986 31 1 
768 1.18122 7.47642 -0.0180621 0.377249 7.48596 -42.9521 31 1 
772 1.18117 7.50352 -0.017231 0.383373 7.51334 -43.0481 31 1 
776 1.18111 7.53044 -0.0162282 0.39362 7.54076 -43.1585 31 1 
780 1.18103 7.56582 -0.0172022 0.399071 7.57638 -43.2918 31 1 
784 1.181 7.60467 -0.01895 0.4089 7.6157 -43.354 31 1 
788 1.18085 7.65443 -0.0184382 0.423154 7.66617 -43.6162 31 1 
792 1.18066 7.70743 -0.0173748 0.448362 7.72054 -43.9648 31 1 
796 1.18033 7.78604 -0.0175275 0.482083 7.80103 -44.5532 31 1 
800 1.18006 7.842 -0.017619 0.496791 7.8578 -45.0542 31 1 
