135.847;r ;Density                 ;Velocity u              ;Velocity v              ;Velocity w              ;|Velocity|              ;Pressure                ;Distribution            ;Levels                  ;
0 1.18763 10.0005 0.000106794 0.000165876 10.0005 -31.3663 1 1 
4 1.18765 10.0016 4.90164e-05 0.000276486 10.0016 -31.3348 1 1 
8 1.18765 10.0025 -0.000176785 0.000395015 10.0025 -31.3358 1 1 
12 1.18761 10.0043 -0.00039755 0.000511816 10.0043 -31.4043 1 1 
16 1.18762 10.006 -0.000510965 0.000687895 10.006 -31.3945 1 1 
20 1.18764 10.0063 -0.000736376 0.000733151 10.0063 -31.3638 1 1 
24 1.1876 10.0084 -0.00087647 0.00089866 10.0084 -31.4298 1 1 
28 1.1876 10.0093 -0.00107571 0.000996908 10.0093 -31.4224 1 1 
32 1.1876 10.0113 -0.00125982 0.00113681 10.0113 -31.436 1 1 
36 1.18759 10.0136 -0.00137309 0.00132615 10.0136 -31.4531 1 1 
40 1.1876 10.0143 -0.00160144 0.00141301 10.0143 -31.4305 1 1 
44 1.18758 10.0143 -0.00177412 0.00154987 10.0143 -31.4657 1 1 
48 1.18756 10.016 -0.00196247 0.00173896 10.016 -31.5089 1 1 
52 1.18756 10.0167 -0.00212888 0.00185901 10.0167 -31.4972 1 1 
56 1.18756 10.0164 -0.00232425 0.00199627 10.0164 -31.4946 1 1 
60 1.18754 10.0188 -0.00253216 0.00214499 10.0188 -31.5362 1 1 
64 1.18756 10.0182 -0.00274404 0.00229156 10.0182 -31.5086 1 1 
64 1.18756 10.0182 -0.00274404 0.00229156 10.0182 -31.5086 2 1 
68 1.18753 10.0196 -0.0028815 0.00248405 10.0196 -31.5473 2 1 
72 1.18753 10.021 -0.00307846 0.00262175 10.021 -31.5579 2 1 
76 1.18753 10.0214 -0.00330016 0.00272301 10.0214 -31.5622 2 1 
80 1.18753 10.0213 -0.00348793 0.0029467 10.0213 -31.5544 2 1 
84 1.18751 10.0238 -0.00363195 0.00315444 10.0238 -31.5907 2 1 
88 1.18751 10.0254 -0.00382858 0.00332198 10.0254 -31.5867 2 1 
92 1.18753 10.0268 -0.00396045 0.0035737 10.0268 -31.5612 2 1 
96 1.18749 10.0302 -0.00420581 0.0036768 10.0302 -31.6236 2 1 
100 1.18752 10.028 -0.00427774 0.00396637 10.028 -31.5714 2 1 
104 1.1875 10.0277 -0.00452621 0.00413055 10.0277 -31.6075 2 1 
108 1.18748 10.0287 -0.00467903 0.00436287 10.0287 -31.6389 2 1 
112 1.18749 10.0297 -0.00479429 0.00459489 10.0297 -31.6196 2 1 
116 1.18749 10.032 -0.00504311 0.00482221 10.032 -31.6325 2 1 
120 1.18748 10.0348 -0.0051386 0.00507302 10.0348 -31.6474 2 1 
124 1.1875 10.0337 -0.00533243 0.00526477 10.0337 -31.602 2 1 
128 1.18749 10.0336 -0.00550227 0.00555369 10.0336 -31.6284 2 1 
128 1.18749 10.0336 -0.00550227 0.00555369 10.0336 -31.6284 10 1 
132 1.18745 10.0354 -0.00566303 0.00578872 10.0354 -31.6963 10 1 
136 1.18749 10.0326 -0.00576284 0.00604385 10.0326 -31.6309 10 1 
140 1.18746 10.0355 -0.00601152 0.00629553 10.0355 -31.6799 10 1 
144 1.18746 10.0361 -0.00608692 0.00663537 10.0361 -31.6765 10 1 
148 1.1875 10.035 -0.0062297 0.00680126 10.035 -31.613 10 1 
152 1.18746 10.0389 -0.00646885 0.00713232 10.0389 -31.6848 10 1 
156 1.18746 10.0377 -0.00646919 0.00757945 10.0377 -31.6794 10 1 
160 1.18749 10.0356 -0.00678731 0.00779723 10.0356 -31.6213 10 1 
160 1.18749 10.0356 -0.00678731 0.00779723 10.0356 -31.6213 10 1 
164 1.18745 10.0388 -0.00687253 0.00802765 10.0388 -31.7021 10 1 
168 1.1875 10.0365 -0.00700613 0.00845308 10.0365 -31.6135 10 1 
172 1.1875 10.0354 -0.00715971 0.00879592 10.0354 -31.6032 10 1 
176 1.18743 10.0411 -0.007198 0.0091324 10.0411 -31.7285 10 1 
180 1.18754 10.0368 -0.00726414 0.00973114 10.0368 -31.5407 10 1 
184 1.18751 10.0363 -0.00750906 0.00999988 10.0363 -31.5881 10 1 
188 1.18748 10.0366 -0.00756174 0.010498 10.0366 -31.6467 10 1 
192 1.18754 10.029 -0.00758038 0.0109968 10.029 -31.5317 10 1 
196 1.1875 10.0302 -0.00797394 0.0111815 10.0302 -31.6077 10 1 
200 1.18752 10.0341 -0.00785801 0.0117777 10.0341 -31.5795 10 1 
204 1.18763 10.0318 -0.00801066 0.0122943 10.0318 -31.383 10 1 
208 1.18764 10.0301 -0.00817291 0.0128242 10.0301 -31.3604 10 1 
212 1.18758 10.0277 -0.00818208 0.0133452 10.0277 -31.4718 10 1 
216 1.18769 10.0172 -0.00843282 0.0136501 10.0172 -31.274 10 1 
220 1.18772 10.0086 -0.00845099 0.0140603 10.0086 -31.2079 10 1 
224 1.18763 10.0052 -0.00847725 0.0146942 10.0053 -31.3699 10 1 
224 1.18763 10.0052 -0.00847725 0.0146942 10.0053 -31.3699 10 1 
228 1.18782 9.99645 -0.00874198 0.0150444 9.99647 -31.0288 10 1 
232 1.18788 9.99373 -0.00872272 0.0156311 9.99375 -30.9183 10 1 
236 1.1879 9.98589 -0.00888752 0.0162236 9.98591 -30.8955 10 1 
240 1.18801 9.97314 -0.00896998 0.0166305 9.97316 -30.6955 10 1 
244 1.18815 9.95524 -0.00903203 0.0172963 9.95527 -30.4309 10 1 
248 1.1883 9.92765 -0.0095048 0.0176035 9.92768 -30.1599 10 1 
252 1.18827 9.91152 -0.00957756 0.0180261 9.91155 -30.2147 10 1 
256 1.18866 9.88094 -0.00956099 0.0189197 9.88097 -29.5053 10 1 
256 1.18866 9.88094 -0.00956099 0.0189197 9.88097 -29.5053 11 1 
260 1.18897 9.83831 -0.00975931 0.0193742 9.83837 -28.9459 11 1 
264 1.18895 9.80026 -0.00978 0.0198443 9.80032 -28.9891 11 1 
268 1.18963 9.73546 -0.0100374 0.0204669 9.73553 -27.7569 11 1 
272 1.19044 9.64828 -0.0103082 0.0208164 9.64838 -26.2975 11 1 
276 1.19067 9.54253 -0.0103106 0.0213214 9.54281 -25.8769 11 1 
280 1.19147 9.37978 -0.0105472 0.0217269 9.38007 -24.4397 11 1 
284 1.19295 9.20591 -0.0105871 0.0222674 9.20605 -21.7597 11 1 
288 1.1945 8.9843 -0.0106941 0.0228156 8.98458 -18.9634 11 1 
292 1.19619 8.64777 -0.01095 0.0229047 8.64913 -15.9056 11 1 
296 1.19146 8.2179 -0.0106957 0.0227089 8.2235 -24.4478 11 1 
300 1.18256 7.90815 -0.0112195 0.0226597 7.91417 -40.5277 11 1 
304 1.18035 7.68949 -0.0119096 0.0229954 7.69461 -44.5266 11 1 
308 1.1819 7.42177 -0.0122819 0.0229986 7.42685 -41.726 11 1 
312 1.18289 7.1537 -0.0128795 0.0228994 7.15789 -39.9399 11 1 
316 1.18367 6.90555 -0.0132325 0.0231897 6.9087 -38.5296 11 1 
320 1.18425 6.74429 -0.0135678 0.0236459 6.74602 -37.4847 11 1 
320 1.18425 6.74429 -0.0135678 0.0236459 6.74602 -37.4847 15 1 
324 1.18488 6.63308 -0.0139703 0.0244557 6.63461 -36.3426 15 1 
328 1.18547 6.56039 -0.0143958 0.0251314 6.56168 -35.2689 15 1 
332 1.18587 6.49311 -0.0148122 0.0257936 6.49433 -34.5622 15 1 
336 1.18593 6.41507 -0.0151286 0.02688 6.41583 -34.4395 15 1 
340 1.1861 6.37347 -0.0154539 0.0279908 6.3742 -34.1448 15 1 
344 1.18651 6.35958 -0.0157617 0.028967 6.36032 -33.3925 15 1 
348 1.18674 6.33777 -0.0161695 0.0298531 6.33849 -32.9751 15 1 
352 1.18681 6.31164 -0.016476 0.0307478 6.31226 -32.8607 15 1 
356 1.18685 6.28233 -0.016668 0.03184 6.28295 -32.776 15 1 
360 1.18696 6.26006 -0.0169019 0.0330694 6.26064 -32.5913 15 1 
364 1.18717 6.25703 -0.017212 0.034087 6.25761 -32.2071 15 1 
368 1.18726 6.24786 -0.0174877 0.0349684 6.24841 -32.0461 15 1 
372 1.18726 6.22543 -0.017595 0.03608 6.22597 -32.0517 15 1 
376 1.18732 6.20704 -0.0175675 0.0373811 6.20755 -31.9267 15 1 
380 1.18736 6.19161 -0.0177017 0.0385086 6.19212 -31.8647 15 1 
384 1.1874 6.18024 -0.0179093 0.0395761 6.18073 -31.7943 15 1 
384 1.1874 6.18024 -0.0179093 0.0395761 6.18073 -31.7943 16 1 
388 1.18747 6.17184 -0.0180251 0.040689 6.17232 -31.6578 16 1 
392 1.1875 6.15631 -0.0179729 0.0419031 6.15676 -31.6136 16 1 
396 1.18748 6.13836 -0.0179494 0.0432013 6.13881 -31.6398 16 1 
400 1.18747 6.12548 -0.0181268 0.0445426 6.12591 -31.656 16 1 
404 1.18751 6.11696 -0.0182399 0.0458615 6.11739 -31.5869 16 1 
408 1.18756 6.11014 -0.0181323 0.0473007 6.11056 -31.5006 16 1 
412 1.18756 6.10118 -0.0179944 0.0488165 6.1016 -31.5059 16 1 
416 1.18754 6.09053 -0.0179587 0.0503432 6.09093 -31.5376 16 1 
420 1.18753 6.08262 -0.0178763 0.0520131 6.08303 -31.5512 16 1 
424 1.18755 6.08009 -0.0176899 0.0536775 6.08049 -31.5118 16 1 
428 1.18758 6.07954 -0.0174477 0.0553076 6.07995 -31.4626 16 1 
432 1.18757 6.07627 -0.0172423 0.0571037 6.07668 -31.4789 16 1 
436 1.18757 6.07289 -0.0170513 0.0589249 6.07331 -31.4898 16 1 
440 1.18756 6.07243 -0.0168515 0.0606252 6.07285 -31.503 16 1 
444 1.18755 6.07383 -0.0166689 0.0624062 6.07426 -31.5153 16 1 
448 1.18758 6.07735 -0.0164643 0.0642367 6.07778 -31.4717 16 1 
448 1.18758 6.07735 -0.0164643 0.0642367 6.07778 -31.4717 17 1 
452 1.18758 6.08123 -0.0162156 0.0660143 6.08168 -31.4595 17 1 
456 1.18757 6.08397 -0.0160971 0.0677808 6.08443 -31.4918 17 1 
460 1.18755 6.08793 -0.0160283 0.0695808 6.0884 -31.5117 17 1 
464 1.18755 6.0942 -0.0158443 0.0714327 6.09469 -31.5137 17 1 
468 1.18757 6.10246 -0.0156884 0.0732784 6.10297 -31.485 17 1 
472 1.18758 6.11186 -0.0156611 0.0750804 6.11238 -31.4707 17 1 
476 1.18756 6.12033 -0.0155922 0.0769854 6.12088 -31.4948 17 1 
480 1.18755 6.12857 -0.0155267 0.0789571 6.12914 -31.5147 17 1 
484 1.18755 6.13972 -0.0154964 0.0809636 6.14031 -31.5109 17 1 
488 1.18757 6.15307 -0.0154771 0.0829686 6.15368 -31.4849 17 1 
492 1.18757 6.16611 -0.0154729 0.0850722 6.16675 -31.483 17 1 
496 1.18756 6.1791 -0.0154904 0.0872099 6.17977 -31.4957 17 1 
500 1.18756 6.19244 -0.0155214 0.0894166 6.19314 -31.4942 17 1 
504 1.18755 6.20658 -0.0155658 0.0916805 6.2073 -31.511 17 1 
508 1.18756 6.22269 -0.0156333 0.0939721 6.22345 -31.5034 17 1 
512 1.18757 6.23958 -0.0157245 0.0962649 6.24037 -31.4749 17 1 
512 1.18757 6.23958 -0.0157245 0.0962649 6.24037 -31.4749 25 1 
516 1.18756 6.25544 -0.0158418 0.0986406 6.25626 -31.4946 25 1 
520 1.18755 6.27111 -0.0159984 0.101057 6.27196 -31.5168 25 1 
524 1.18755 6.28766 -0.0161584 0.103512 6.28856 -31.517 25 1 
528 1.18755 6.30549 -0.0163876 0.105971 6.30642 -31.5189 25 1 
532 1.18755 6.32405 -0.0166582 0.108458 6.32502 -31.5137 25 1 
536 1.18755 6.34166 -0.0169154 0.11098 6.34267 -31.5265 25 1 
540 1.18753 6.35869 -0.0172465 0.113599 6.35974 -31.5544 25 1 
544 1.18752 6.37642 -0.0176065 0.116198 6.37752 -31.5704 25 1 
548 1.18752 6.39542 -0.017966 0.118855 6.39656 -31.5783 25 1 
552 1.18752 6.41489 -0.0183331 0.12158 6.41608 -31.5816 25 1 
556 1.1875 6.43349 -0.0187453 0.124284 6.43473 -31.6042 25 1 
560 1.18749 6.45161 -0.0191724 0.127123 6.4529 -31.6346 25 1 
564 1.18747 6.47057 -0.019601 0.12995 6.47192 -31.6559 25 1 
568 1.18746 6.49034 -0.0200536 0.132847 6.49174 -31.6734 25 1 
572 1.18746 6.51057 -0.0204929 0.135769 6.51203 -31.6837 25 1 
576 1.18745 6.53034 -0.0209721 0.138714 6.53186 -31.703 25 1 
576 1.18745 6.53034 -0.0209721 0.138714 6.53186 -31.703 26 1 
580 1.18743 6.54947 -0.0214372 0.14176 6.55105 -31.7436 26 1 
584 1.18741 6.56925 -0.0219046 0.144821 6.57089 -31.7674 26 1 
588 1.18741 6.59014 -0.0223799 0.147948 6.59184 -31.7794 26 1 
592 1.18739 6.61074 -0.0228513 0.151065 6.61251 -31.8028 26 1 
596 1.18738 6.63116 -0.0232845 0.154275 6.633 -31.8271 26 1 
600 1.18736 6.65146 -0.0237328 0.157486 6.65338 -31.8556 26 1 
604 1.18735 6.67179 -0.0241539 0.160823 6.67378 -31.8825 26 1 
608 1.18734 6.69306 -0.0245597 0.164079 6.69512 -31.9047 26 1 
608 1.18734 6.69306 -0.0245597 0.164079 6.69512 -31.9047 26 1 
612 1.18733 6.71416 -0.0249541 0.167369 6.7163 -31.9188 26 1 
616 1.18731 6.73528 -0.0253195 0.17079 6.7375 -31.9442 26 1 
620 1.1873 6.75602 -0.0257059 0.174072 6.75832 -31.9705 26 1 
624 1.18729 6.77705 -0.0260457 0.17751 6.77943 -31.993 26 1 
628 1.18728 6.79832 -0.0263598 0.180851 6.80079 -32.0139 26 1 
632 1.18727 6.81986 -0.0267026 0.18423 6.82241 -32.0285 26 1 
636 1.18726 6.84136 -0.0270221 0.187594 6.84399 -32.0439 26 1 
640 1.18725 6.86223 -0.0273101 0.190955 6.86495 -32.0663 26 1 
644 1.18723 6.88345 -0.0276008 0.194365 6.88626 -32.09 26 1 
648 1.18723 6.90462 -0.0278706 0.197598 6.90751 -32.0959 26 1 
652 1.18722 6.92613 -0.0281018 0.201033 6.92911 -32.112 26 1 
656 1.18722 6.94702 -0.0283646 0.204215 6.95009 -32.1237 26 1 
660 1.18721 6.9679 -0.0285909 0.207533 6.97106 -32.1358 26 1 
664 1.1872 6.98848 -0.0287787 0.21071 6.99172 -32.1498 26 1 
668 1.1872 7.00894 -0.0290117 0.213898 7.01227 -32.1578 26 1 
672 1.18719 7.02983 -0.0291502 0.217124 7.03325 -32.1673 26 1 
672 1.18719 7.02983 -0.0291502 0.217124 7.03325 -32.1673 27 1 
676 1.18719 7.04985 -0.0292459 0.220128 7.05336 -32.1646 27 1 
680 1.18718 7.07018 -0.0294357 0.223446 7.07378 -32.179 27 1 
684 1.18718 7.08953 -0.029436 0.22619 7.09321 -32.1819 27 1 
688 1.18718 7.10932 -0.029567 0.229391 7.11309 -32.1883 27 1 
692 1.18718 7.12851 -0.0295414 0.232162 7.13236 -32.1887 27 1 
696 1.18718 7.14793 -0.0294975 0.235084 7.15186 -32.1907 27 1 
700 1.18718 7.16694 -0.0295372 0.238 7.17096 -32.1906 27 1 
704 1.18718 7.18522 -0.0294125 0.240761 7.18932 -32.1929 27 1 
704 1.18718 7.18522 -0.0294125 0.240761 7.18932 -32.1929 31 1 
708 1.18718 7.20331 -0.0292879 0.243361 7.20748 -32.1943 31 1 
712 1.18717 7.22168 -0.0291625 0.245793 7.22593 -32.1979 31 1 
716 1.18718 7.23928 -0.0289157 0.248503 7.24361 -32.1905 31 1 
720 1.18718 7.25668 -0.0286868 0.251031 7.26108 -32.186 31 1 
724 1.18717 7.27467 -0.0285977 0.25355 7.27915 -32.2052 31 1 
728 1.18718 7.29099 -0.028296 0.255695 7.29554 -32.1856 31 1 
732 1.18718 7.30812 -0.0279591 0.258547 7.31276 -32.1909 31 1 
736 1.18717 7.32543 -0.0277968 0.259837 7.33009 -32.2094 31 1 
740 1.18718 7.34171 -0.027375 0.262512 7.34646 -32.1867 31 1 
744 1.18718 7.35832 -0.0269244 0.264781 7.36314 -32.1961 31 1 
748 1.18716 7.3751 -0.0268366 0.267408 7.38001 -32.2218 31 1 
752 1.18715 7.39271 -0.0258919 0.269626 7.39768 -32.2347 31 1 
756 1.18717 7.40869 -0.025922 0.271687 7.41373 -32.2082 31 1 
760 1.18712 7.42884 -0.0261265 0.275007 7.43398 -32.2904 31 1 
764 1.18711 7.44833 -0.0257314 0.277664 7.45356 -32.3149 31 1 
768 1.18712 7.46796 -0.0258634 0.279826 7.47326 -32.3029 31 1 
772 1.18705 7.49011 -0.0250384 0.284936 7.49558 -32.4224 31 1 
776 1.18698 7.51336 -0.0241769 0.292687 7.51911 -32.5445 31 1 
780 1.1869 7.5458 -0.0252855 0.296255 7.55167 -32.6968 31 1 
784 1.18684 7.581 -0.0273977 0.303083 7.58712 -32.7965 31 1 
788 1.18664 7.63109 -0.0272824 0.314599 7.63764 -33.1635 31 1 
792 1.18642 7.6862 -0.0271267 0.335151 7.6936 -33.5586 31 1 
796 1.18604 7.77155 -0.0292289 0.364238 7.78021 -34.25 31 1 
800 1.1857 7.83369 -0.0305356 0.378697 7.84298 -34.8688 31 1 
