2.71694;r ;Density                 ;Velocity u              ;Velocity v              ;Velocity w              ;|Velocity|              ;Pressure                ;Distribution            ;Levels                  ;
0 1.205 10 -1.30889e-14 9.00262e-15 10 -3.68506e-12 1 1 
4 1.205 10 -1.57067e-14 5.13979e-15 10 -3.68506e-12 1 1 
8 1.205 10 -1.21312e-14 -1.14927e-15 10 -4.07773e-12 1 1 
12 1.205 10 -4.53323e-15 2.36239e-15 10 -3.8663e-12 1 1 
16 1.205 10 1.88353e-15 9.28994e-15 10 -3.62465e-12 1 1 
20 1.205 10 6.38477e-17 4.46939e-15 10 -3.98712e-12 1 1 
24 1.205 10 -2.04315e-15 -6.70408e-16 10 -2.96013e-12 1 1 
28 1.205 10 -6.44869e-15 6.28906e-15 10 -2.53726e-12 1 1 
32 1.205 10 -1.40466e-15 1.1812e-15 10 -2.71849e-12 1 1 
36 1.205 10 1.02157e-14 -7.40641e-15 10 -2.205e-12 1 1 
40 1.205 10 4.43746e-15 -7.69373e-15 10 -2.29561e-12 1 1 
44 1.205 10 -3.41589e-15 -3.38396e-15 10 -2.2352e-12 1 1 
48 1.205 10 -2.84125e-15 -7.6618e-16 10 -1.54048e-12 1 1 
52 1.205 10 -3.99052e-15 -7.6618e-16 10 -1.29883e-12 1 1 
56 1.205 10 -3.57551e-15 9.8965e-15 10 -1.90294e-12 1 1 
60 1.205 10 -2.2347e-16 7.6618e-15 10 -2.14459e-12 1 1 
64 1.205 10 3.32012e-15 -1.69198e-15 10 -1.90294e-12 1 1 
64 1.205 10 3.32012e-15 -1.69198e-15 10 -1.90294e-12 2 1 
68 1.205 10 3.41589e-15 -5.84213e-15 10 -2.47685e-12 2 1 
72 1.205 10 -5.87405e-15 -2.58586e-15 10 -3.02054e-12 2 1 
76 1.205 10 -6.32099e-15 -2.36239e-15 10 -2.08418e-12 2 1 
80 1.205 10 1.75583e-15 -2.52201e-15 10 -1.32904e-12 2 1 
84 1.205 10 8.52376e-15 -1.44617e-14 10 -1.44986e-12 2 1 
88 1.205 10 7.82143e-15 -2.39751e-14 10 -7.55136e-13 2 1 
92 1.205 10 -4.82055e-15 -1.2195e-14 10 -1.05719e-12 2 1 
96 1.205 10 -1.9793e-14 3.44781e-15 10 -2.32582e-12 2 1 
100 1.205 9.99999 3.89508e-09 3.89508e-09 9.99999 0.000302685 2 1 
104 1.205 9.99998 8.7249e-09 -1.64471e-09 9.99998 -0.000488356 2 1 
108 1.205 10 1.16851e-07 1.82871e-07 10 -0.000915316 2 1 
112 1.205 10.0001 5.05136e-08 9.82237e-08 10.0001 0.00113704 2 1 
116 1.205 9.99998 -4.11949e-07 -4.55219e-07 9.99998 0.00319702 2 1 
120 1.205 9.99985 -1.93978e-06 -1.97078e-06 9.99985 -0.00349122 2 1 
124 1.205 9.99971 3.71088e-06 3.66166e-06 9.99971 -7.43238e-05 2 1 
128 1.205 9.99951 2.62485e-06 2.51525e-06 9.99951 0.00401922 2 1 
128 1.205 9.99951 2.62485e-06 2.51525e-06 9.99951 0.00401922 10 1 
132 1.20499 10.0002 -9.60158e-06 -9.65075e-06 10.0002 -0.0252047 10 1 
136 1.20502 10.0005 5.59391e-06 5.5333e-06 10.0005 0.0368052 10 1 
140 1.205 10.0006 3.9386e-06 4.16621e-06 10.0006 0.000908282 10 1 
144 1.20498 9.99973 -9.80998e-06 -9.21574e-06 9.99973 -0.0413033 10 1 
148 1.20502 9.99894 7.2283e-06 7.23283e-06 9.99894 0.0365618 10 1 
152 1.20499 10.0011 3.01749e-06 1.4204e-06 10.0011 -0.00923206 10 1 
156 1.20499 10.0005 -7.01889e-06 -7.14327e-06 10.0005 -0.0219 10 1 
160 1.20502 9.99862 3.38376e-06 4.31288e-06 9.99862 0.0375063 10 1 
160 1.20502 9.99862 3.38376e-06 4.31288e-06 9.99862 0.0375063 10 1 
164 1.20499 10.0009 4.19532e-08 2.13485e-06 10.0009 -0.0188873 10 1 
168 1.20501 10.0001 -4.30613e-06 -4.73027e-06 10.0001 0.0190054 10 1 
172 1.205 9.99879 5.66297e-08 -2.97027e-06 9.99879 -0.00361256 10 1 
176 1.20497 10.0007 6.00423e-06 7.82264e-06 10.0007 -0.053385 10 1 
180 1.20501 10.0001 5.14162e-06 5.28521e-06 10.0001 0.0214723 10 1 
184 1.20502 9.99935 -1.41076e-05 -1.61066e-05 9.99935 0.0273443 10 1 
188 1.20502 9.99983 1.62188e-06 4.07935e-06 9.99983 0.0373463 10 1 
192 1.20498 10.0015 6.36002e-06 9.12389e-06 10.0015 -0.0408642 10 1 
196 1.20499 9.99972 -4.22655e-06 -5.26364e-06 9.99972 -0.0186452 10 1 
200 1.20507 9.99647 8.9475e-06 4.48525e-06 9.99647 0.122429 10 1 
204 1.20539 9.98663 -7.39237e-06 -7.5885e-06 9.98663 0.706249 10 1 
208 1.20627 9.95171 4.64428e-06 4.00681e-06 9.95171 2.2983 10 1 
212 1.20758 9.90808 -6.24788e-06 -4.09008e-06 9.90808 4.65348 10 1 
216 1.20777 9.90625 -2.5061e-05 -9.25877e-06 9.90625 4.99707 10 1 
220 1.20535 9.9744 1.43542e-05 1.61052e-05 9.9744 0.625783 10 1 
224 1.20356 10.0257 1.52832e-05 4.63049e-06 10.0257 -2.59812 10 1 
224 1.20356 10.0257 1.52832e-05 4.63049e-06 10.0257 -2.59812 10 1 
228 1.20537 9.97701 -1.24811e-05 -9.5545e-07 9.97701 0.665126 10 1 
232 1.2064 9.94632 -4.05214e-05 -1.51244e-05 9.94632 2.52893 10 1 
236 1.20514 9.97183 -1.39578e-05 -1.30329e-05 9.97183 0.255548 10 1 
240 1.2049 9.97581 3.61462e-05 2.10281e-05 9.97582 -0.172451 10 1 
244 1.20562 9.95533 4.53929e-05 4.63254e-05 9.95533 1.11907 10 1 
248 1.20591 9.93277 1.89935e-05 2.85499e-05 9.93277 1.64893 10 1 
252 1.20567 9.93449 7.0312e-05 7.66482e-05 9.93449 1.20369 10 1 
256 1.20582 9.92442 0.000260874 0.000265809 9.92442 1.4748 10 1 
256 1.20582 9.92442 0.000260874 0.000265809 9.92442 1.4748 11 1 
260 1.20598 9.90587 0.000365893 0.000357596 9.90588 1.77842 11 1 
264 1.20601 9.8846 0.000441631 0.000430919 9.88461 1.82748 11 1 
268 1.20671 9.83712 0.000615212 0.000605316 9.83712 3.08866 11 1 
272 1.2071 9.79294 0.000759385 0.000735849 9.79297 3.7917 11 1 
276 1.20703 9.74849 0.000886026 0.000852782 9.74859 3.65888 11 1 
280 1.20782 9.63749 0.000942005 0.000908537 9.63757 5.0998 11 1 
284 1.20869 9.53733 0.00094433 0.00090028 9.53735 6.66857 11 1 
288 1.20944 9.45476 0.000970551 0.000909364 9.45478 8.02132 11 1 
292 1.21001 9.37568 0.000921494 0.000865402 9.37576 9.05495 11 1 
296 1.20695 9.55647 0.000827491 0.000780749 9.55705 3.51515 11 1 
300 1.2023 9.85892 0.000653846 0.000606319 9.85947 -4.87071 11 1 
304 1.2005 9.95406 0.000531426 0.000489049 9.95423 -8.13171 11 1 
308 1.20065 9.93786 0.000471099 0.000437875 9.93799 -7.84957 11 1 
312 1.20156 9.8974 0.000272161 0.000241896 9.8975 -6.21145 11 1 
316 1.20237 9.77206 0.000122339 9.78205e-05 9.77238 -4.75289 11 1 
320 1.20272 9.58896 4.35002e-05 2.03201e-05 9.58932 -4.111 11 1 
320 1.20272 9.58896 4.35002e-05 2.03201e-05 9.58932 -4.111 15 1 
324 1.20329 9.45633 -6.09244e-05 -8.19642e-05 9.45649 -3.08313 15 1 
328 1.20394 9.47075 -0.000141431 -0.000164289 9.47075 -1.90968 15 1 
332 1.20428 9.56147 -0.000298891 -0.000322052 9.56153 -1.29944 15 1 
336 1.20428 9.61993 -0.000373474 -0.000386655 9.61999 -1.29204 15 1 
340 1.20425 9.68542 -0.000415071 -0.000430344 9.68544 -1.34998 15 1 
344 1.20451 9.75569 -0.00060279 -0.000622642 9.75571 -0.889957 15 1 
348 1.20467 9.79856 -0.000677638 -0.00068698 9.79858 -0.588887 15 1 
352 1.20465 9.85255 -0.000789657 -0.000786665 9.85257 -0.640164 15 1 
356 1.20454 9.86456 -0.000890198 -0.000896229 9.86457 -0.829595 15 1 
360 1.20498 9.89678 -0.000840246 -0.000850463 9.89679 -0.0379164 15 1 
364 1.20489 9.91777 -0.000888148 -0.000887545 9.91778 -0.191274 15 1 
368 1.20438 9.92514 -0.000870898 -0.000875224 9.92514 -1.11407 15 1 
372 1.20456 9.94473 -0.000741762 -0.000744483 9.94473 -0.787567 15 1 
376 1.20523 9.95827 -0.000634284 -0.000629463 9.95827 0.415594 15 1 
380 1.20526 9.96939 -0.000501605 -0.000496235 9.96939 0.464553 15 1 
384 1.20436 9.95078 -0.000375094 -0.000373423 9.95078 -1.15899 15 1 
384 1.20436 9.95078 -0.000375094 -0.000373423 9.95078 -1.15899 16 1 
388 1.20428 9.96298 -0.000253939 -0.00025098 9.96298 -1.30465 16 1 
392 1.20513 9.98304 -0.000161306 -0.000153922 9.98304 0.229246 16 1 
396 1.2056 9.9959 -8.6619e-05 -8.62359e-05 9.9959 1.08891 16 1 
400 1.20491 9.98266 -2.84251e-05 -3.11448e-05 9.98266 -0.164368 16 1 
404 1.20425 9.96412 -2.66505e-05 -2.40538e-05 9.96412 -1.34791 16 1 
408 1.20445 9.97191 -2.20538e-05 -2.04573e-05 9.97191 -0.995071 16 1 
412 1.20519 9.99986 9.56337e-07 -1.36025e-06 9.99986 0.349709 16 1 
416 1.20576 10.0132 1.10813e-08 2.47383e-07 10.0132 1.37614 16 1 
420 1.20541 10.0025 -2.38023e-06 -1.72393e-06 10.0025 0.74377 16 1 
424 1.20456 9.97965 1.08159e-05 9.02088e-06 9.97965 -0.792204 16 1 
428 1.20397 9.96037 -2.8833e-06 -1.9958e-06 9.96037 -1.86031 16 1 
432 1.20381 9.95454 -1.20657e-05 -9.73672e-06 9.95454 -2.15376 16 1 
436 1.20401 9.9635 2.63173e-06 2.29655e-06 9.9635 -1.79522 16 1 
440 1.20439 9.97727 1.20236e-06 7.90365e-08 9.97727 -1.10503 16 1 
444 1.20466 9.98724 5.33655e-07 2.75286e-07 9.98724 -0.613177 16 1 
448 1.20484 9.99428 2.94204e-06 3.16733e-06 9.99428 -0.293778 16 1 
448 1.20484 9.99428 2.94204e-06 3.16733e-06 9.99428 -0.293778 17 1 
452 1.20495 9.99753 -1.66436e-06 -1.29037e-06 9.99753 -0.0915579 17 1 
456 1.20497 9.999 2.026e-06 2.08925e-06 9.999 -0.058135 17 1 
460 1.20499 9.99975 1.58815e-07 -6.49261e-08 9.99975 -0.0133816 17 1 
464 1.205 9.99975 -5.1531e-06 -5.28508e-06 9.99975 0.00752053 17 1 
468 1.20499 10.0001 -9.11805e-08 -1.17379e-08 10.0001 -0.00949854 17 1 
472 1.205 10.0001 3.49289e-06 3.55404e-06 10.0001 0.000683972 17 1 
476 1.205 9.99992 7.27685e-07 6.98933e-07 9.99992 0.00431506 17 1 
480 1.205 9.99997 -1.03121e-06 -1.05661e-06 9.99997 -0.00155992 17 1 
484 1.205 10 -4.40923e-07 -4.36841e-07 10 -0.000791421 17 1 
488 1.205 10 8.20436e-08 9.0698e-08 10 0.000329733 17 1 
492 1.205 9.99999 7.87542e-08 8.22651e-08 9.99999 0.000228824 17 1 
496 1.205 10 1.72713e-09 1.72719e-09 10 -0.000117911 17 1 
500 1.205 10 -2.80933e-15 -1.2195e-14 10 -2.65808e-12 17 1 
504 1.205 10 9.8965e-16 -5.90597e-15 10 -2.05397e-12 17 1 
508 1.205 10 4.40554e-15 -4.78863e-15 10 -1.99356e-12 17 1 
512 1.205 10 8.07682e-15 -6.48061e-15 10 -2.47685e-12 17 1 
512 1.205 10 8.07682e-15 -6.48061e-15 10 -2.47685e-12 25 1 
516 1.205 10 8.07682e-15 -9.44956e-15 10 -3.05075e-12 25 1 
520 1.205 10 3.8309e-16 -8.01297e-15 10 -2.50705e-12 25 1 
524 1.205 10 -2.9051e-15 -7.82143e-15 10 -1.93315e-12 25 1 
528 1.205 10 -1.11735e-15 -1.22589e-14 10 -2.2352e-12 25 1 
532 1.205 10 -5.23557e-15 -7.31064e-15 10 -2.17479e-12 25 1 
536 1.205 10 -3.16049e-15 4.40554e-15 10 -1.87274e-12 25 1 
540 1.205 10 2.55393e-15 1.095e-14 10 -2.02376e-12 25 1 
544 1.205 10 -2.55393e-16 -3.19242e-16 10 -1.54048e-12 25 1 
548 1.205 10 -1.5994e-14 -6.64023e-15 10 -2.08418e-12 25 1 
552 1.205 10 -1.71433e-14 -4.78863e-15 10 -3.29239e-12 25 1 
556 1.205 10 -1.17481e-14 -2.96895e-15 10 -2.71849e-12 25 1 
560 1.205 10 -8.7153e-15 -1.37274e-15 10 -1.96335e-12 25 1 
564 1.205 10 3.44781e-15 -7.08717e-15 10 -1.87274e-12 25 1 
568 1.205 10 4.18207e-15 -2.87318e-15 10 -1.14781e-12 25 1 
572 1.205 10 5.36326e-15 5.04402e-15 10 -3.3226e-13 25 1 
576 1.205 10 4.69286e-15 5.42711e-15 10 -1.0874e-12 25 1 
576 1.205 10 4.69286e-15 5.42711e-15 10 -1.0874e-12 26 1 
580 1.205 10 1.18758e-14 5.39519e-15 10 -2.62787e-12 26 1 
584 1.205 10 6.51253e-15 4.72478e-15 10 -2.92993e-12 26 1 
588 1.205 10 -6.9914e-15 2.107e-15 10 -2.86952e-12 26 1 
592 1.205 10 -5.36326e-15 5.10787e-16 10 -2.17479e-12 26 1 
596 1.205 10 -4.85248e-15 -8.61953e-16 10 -2.08418e-12 26 1 
600 1.205 10 -4.46939e-16 2.13892e-15 10 -2.62787e-12 26 1 
604 1.205 10 3.41589e-15 2.49009e-15 10 -1.84253e-12 26 1 
608 1.205 10 3.19242e-16 -2.61778e-15 10 -1.54048e-12 26 1 
608 1.205 10 3.19242e-16 -2.61778e-15 10 -1.54048e-12 26 1 
612 1.205 10 2.87318e-15 -1.18119e-14 10 -9.06163e-13 26 1 
616 1.205 10 8.17259e-15 -9.60918e-15 10 -1.35924e-12 26 1 
620 1.205 10 8.14067e-15 3.63936e-15 10 -2.29561e-12 26 1 
624 1.205 10 1.43659e-14 1.11096e-14 10 -2.35602e-12 26 1 
628 1.205 10 1.13969e-14 9.06647e-15 10 -2.92993e-12 26 1 
632 1.205 10 2.61778e-15 2.29854e-15 10 -3.05075e-12 26 1 
636 1.205 10 7.15102e-15 -4.21399e-15 10 -3.26219e-12 26 1 
640 1.205 10 1.35678e-14 -9.16224e-15 10 -2.96013e-12 26 1 
644 1.205 10 1.28654e-14 -4.78863e-16 10 -1.84253e-12 26 1 
648 1.205 10 1.02157e-15 8.93877e-16 10 -1.51027e-12 26 1 
652 1.205 10 -9.44956e-15 -1.28654e-14 10 -2.17479e-12 26 1 
656 1.205 10 -6.48061e-15 -7.02332e-15 10 -1.99356e-12 26 1 
660 1.205 10 -2.87318e-15 -4.56516e-15 10 -9.96779e-13 26 1 
664 1.205 10 5.68251e-15 -7.21487e-15 10 -1.99356e-12 26 1 
668 1.205 10 3.51166e-15 -7.27871e-15 10 -3.26219e-12 26 1 
672 1.205 10 4.24592e-15 -1.72391e-14 10 -2.41644e-12 26 1 
672 1.205 10 4.24592e-15 -1.72391e-14 10 -2.41644e-12 27 1 
676 1.205 10 1.4302e-14 -1.58663e-14 10 -1.75192e-12 27 1 
680 1.205 10 5.23557e-15 -9.60918e-15 10 -2.205e-12 27 1 
684 1.205 10 -4.50131e-15 -9.06647e-15 10 -2.14459e-12 27 1 
688 1.205 10 1.59621e-16 -1.14927e-14 10 -2.89972e-12 27 1 
692 1.205 10 -1.88353e-15 -7.69373e-15 10 -2.86952e-12 27 1 
696 1.205 10 -1.29293e-14 -9.89649e-16 10 -2.41644e-12 27 1 
700 1.205 10 -1.3887e-14 -4.21399e-15 10 -2.32582e-12 27 1 
704 1.205 10 -7.59796e-15 -9.8965e-16 10 -2.41644e-12 27 1 
704 1.205 10 -7.59796e-15 -9.8965e-16 10 -2.41644e-12 31 1 
708 1.205 10 -1.27697e-15 1.08542e-15 10 -2.86952e-12 31 1 
712 1.205 10 2.80933e-15 5.10787e-16 10 -2.86952e-12 31 1 
716 1.205 10 3.63936e-15 7.7895e-15 10 -2.65808e-12 31 1 
720 1.205 10 4.15015e-16 3.44781e-15 10 -2.99034e-12 31 1 
724 1.205 10 -1.9793e-15 -1.30889e-15 10 -2.7789e-12 31 1 
728 1.205 10 -2.52201e-15 1.94737e-15 10 -2.41644e-12 31 1 
732 1.205 10 3.25627e-15 1.08542e-15 10 -2.74869e-12 31 1 
736 1.205 10 6.89562e-15 2.64971e-15 10 -2.96013e-12 31 1 
740 1.205 10 -5.10787e-16 6.67215e-15 10 -2.65808e-12 31 1 
744 1.205 10 -1.59621e-15 7.34256e-16 10 -2.29561e-12 31 1 
748 1.205 10 -2.80933e-15 -2.74548e-15 10 -3.23198e-12 31 1 
752 1.205 10 -1.75583e-15 -1.91545e-16 10 -3.65486e-12 31 1 
756 1.205 10 -1.21312e-15 7.82143e-15 10 -3.29239e-12 31 1 
760 1.205 10 -8.30028e-16 1.02796e-14 10 -2.74869e-12 31 1 
764 1.205 10 4.62901e-15 6.0656e-15 10 -3.26219e-12 31 1 
768 1.205 10 -6.51253e-15 1.62813e-15 10 -3.41321e-12 31 1 
772 1.205 10 -5.55481e-15 -6.41676e-15 10 -2.71849e-12 31 1 
776 1.205 10 2.01122e-15 -6.70408e-15 10 -2.89972e-12 31 1 
780 1.205 10 -6.67215e-15 -1.66006e-15 10 -2.59767e-12 31 1 
784 1.205 10 -1.33443e-14 1.18119e-15 10 -2.29561e-12 31 1 
788 1.205 10 -9.25801e-15 1.14927e-15 10 -2.56746e-12 31 1 
792 1.205 10 -6.41676e-15 -7.6618e-16 10 -3.08095e-12 31 1 
796 1.205 10 -4.30976e-15 3.25627e-15 10 -3.53404e-12 31 1 
800 1.205 10 0 8.55568e-15 10 -3.50383e-12 31 1 
