146.715;r ;Density                 ;Velocity u              ;Velocity v              ;Velocity w              ;|Velocity|              ;Pressure                ;Distribution            ;Levels                  ;
0 1.20072 10.0005 8.77559e-05 0.000316075 10.0005 -7.72652 1 1 
4 1.20073 10.0023 3.20363e-05 0.000403273 10.0023 -7.70986 1 1 
8 1.20074 10.0029 -0.000144847 0.000659121 10.0029 -7.69305 1 1 
12 1.20071 10.0033 -0.00032066 0.000878257 10.0033 -7.75343 1 1 
16 1.20072 10.0039 -0.000386834 0.00119678 10.0039 -7.73371 1 1 
20 1.20074 10.0039 -0.000582195 0.00137615 10.0039 -7.69279 1 1 
24 1.20071 10.0051 -0.000647149 0.00170122 10.0051 -7.74467 1 1 
28 1.20073 10.0041 -0.000825232 0.00189848 10.0041 -7.71479 1 1 
32 1.2007 10.0054 -0.000956042 0.00218694 10.0054 -7.75956 1 1 
36 1.20072 10.0053 -0.00101004 0.00250793 10.0053 -7.73112 1 1 
40 1.20073 10.0059 -0.00120013 0.00273759 10.0059 -7.71875 1 1 
44 1.20071 10.0056 -0.00132898 0.00298645 10.0056 -7.74499 1 1 
48 1.20071 10.005 -0.00146868 0.00330107 10.005 -7.75024 1 1 
52 1.2007 10.0055 -0.00160295 0.00356902 10.0055 -7.77188 1 1 
56 1.20072 10.0041 -0.00174979 0.00383318 10.0041 -7.7265 1 1 
60 1.2007 10.0055 -0.00188179 0.00414318 10.0055 -7.77232 1 1 
64 1.20072 10.004 -0.00207267 0.00437238 10.004 -7.73522 1 1 
64 1.20072 10.004 -0.00207267 0.00437238 10.004 -7.73522 2 1 
68 1.2007 10.0049 -0.00214671 0.0047649 10.0049 -7.77113 2 1 
72 1.2007 10.0051 -0.00229675 0.0050339 10.0051 -7.76283 2 1 
76 1.20071 10.0046 -0.00251075 0.00524027 10.0046 -7.75747 2 1 
80 1.2007 10.0043 -0.00260914 0.00563365 10.0043 -7.76099 2 1 
84 1.20071 10.005 -0.00274879 0.00594763 10.005 -7.7503 2 1 
88 1.2007 10.0064 -0.00294918 0.0062275 10.0064 -7.77173 2 1 
92 1.20072 10.0065 -0.00299137 0.00664831 10.0065 -7.73156 2 1 
96 1.20069 10.0086 -0.00325126 0.00685745 10.0086 -7.77736 2 1 
100 1.20072 10.0063 -0.00328241 0.00728651 10.0063 -7.72733 2 1 
104 1.20071 10.0057 -0.00350102 0.00760183 10.0057 -7.7407 2 1 
108 1.2007 10.0055 -0.0036215 0.0079406 10.0055 -7.76435 2 1 
112 1.20071 10.0062 -0.00373118 0.00831401 10.0062 -7.75184 2 1 
116 1.20072 10.007 -0.00395028 0.00868147 10.007 -7.73848 2 1 
120 1.20071 10.0085 -0.00402636 0.0090536 10.0085 -7.75221 2 1 
124 1.20073 10.0081 -0.00423689 0.0093567 10.0081 -7.71686 2 1 
128 1.20074 10.0068 -0.00433976 0.00980753 10.0068 -7.69965 2 1 
128 1.20074 10.0068 -0.00433976 0.00980753 10.0068 -7.69965 10 1 
132 1.20069 10.0085 -0.00453095 0.0101438 10.0085 -7.78169 10 1 
136 1.20073 10.0055 -0.00461777 0.0105521 10.0055 -7.71633 10 1 
140 1.20072 10.0064 -0.00484477 0.0109077 10.0065 -7.7228 10 1 
144 1.20071 10.0068 -0.00495997 0.0114072 10.0068 -7.74661 10 1 
148 1.20075 10.0052 -0.00507771 0.0117112 10.0052 -7.67508 10 1 
152 1.20073 10.0076 -0.00532362 0.0121245 10.0076 -7.72036 10 1 
156 1.20072 10.0067 -0.00534828 0.0126932 10.0067 -7.73968 10 1 
160 1.20077 10.0044 -0.00567113 0.013066 10.0044 -7.6429 10 1 
160 1.20077 10.0044 -0.00567113 0.013066 10.0044 -7.6429 10 1 
164 1.20072 10.0065 -0.00574564 0.0134541 10.0065 -7.72593 10 1 
168 1.20076 10.0041 -0.00596229 0.0139078 10.0041 -7.65526 10 1 
172 1.20077 10.0032 -0.00614816 0.0144139 10.0032 -7.63735 10 1 
176 1.20072 10.0071 -0.006193 0.0148884 10.0072 -7.72316 10 1 
180 1.20081 10.0028 -0.00633525 0.0155497 10.0028 -7.57621 10 1 
184 1.20078 10.0026 -0.00658318 0.0159462 10.0026 -7.62064 10 1 
188 1.20079 10.0018 -0.00675259 0.0165027 10.0018 -7.61274 10 1 
192 1.2008 9.99682 -0.00680307 0.0170992 9.99683 -7.58049 10 1 
196 1.20079 9.99713 -0.00725527 0.017356 9.99714 -7.60209 10 1 
200 1.20082 9.99738 -0.00716583 0.0180969 9.9974 -7.55787 10 1 
204 1.20087 9.99698 -0.00744582 0.0186568 9.997 -7.4638 10 1 
208 1.2009 9.99644 -0.00771036 0.0192567 9.99646 -7.40157 10 1 
212 1.20087 9.99402 -0.00770514 0.019944 9.99405 -7.45536 10 1 
216 1.20093 9.98776 -0.00814491 0.0202806 9.98779 -7.35163 10 1 
220 1.20096 9.97939 -0.00823361 0.020837 9.97942 -7.29334 10 1 
224 1.20093 9.97532 -0.00825788 0.0216247 9.97535 -7.35529 10 1 
224 1.20093 9.97532 -0.00825788 0.0216247 9.97535 -7.35529 10 1 
228 1.20105 9.97002 -0.00868209 0.0219908 9.97005 -7.14366 10 1 
232 1.20107 9.96717 -0.00879945 0.0226598 9.96721 -7.09036 10 1 
236 1.20111 9.96084 -0.00894595 0.0234358 9.96088 -7.02153 10 1 
240 1.20118 9.95451 -0.00929622 0.0237491 9.95455 -6.89581 10 1 
244 1.2013 9.94037 -0.00938413 0.0246532 9.94042 -6.67482 10 1 
248 1.20141 9.91957 -0.00988729 0.0250902 9.91962 -6.48244 10 1 
252 1.20137 9.91249 -0.0101604 0.0255773 9.91254 -6.55664 10 1 
256 1.20171 9.88481 -0.0102318 0.0265533 9.88485 -5.94341 10 1 
256 1.20171 9.88481 -0.0102318 0.0265533 9.88485 -5.94341 11 1 
260 1.20182 9.85729 -0.0105701 0.0270925 9.85735 -5.73708 11 1 
264 1.20188 9.83286 -0.0107474 0.0276592 9.83292 -5.63569 11 1 
268 1.20243 9.7826 -0.011073 0.0283899 9.78267 -4.6376 11 1 
272 1.20288 9.72525 -0.0114619 0.0289156 9.72534 -3.83517 11 1 
276 1.20299 9.65954 -0.0116875 0.0294654 9.6597 -3.62162 11 1 
280 1.20372 9.53945 -0.0119971 0.0300191 9.5396 -2.30586 11 1 
284 1.20464 9.42972 -0.0122111 0.0306442 9.42981 -0.643079 11 1 
288 1.20536 9.31527 -0.0124168 0.0311937 9.31538 0.651974 11 1 
292 1.20581 9.20004 -0.0128189 0.0317556 9.20017 1.46123 11 1 
296 1.20303 9.35156 -0.0129905 0.0325259 9.35211 -3.55661 11 1 
300 1.19866 9.60984 -0.013522 0.0335962 9.61036 -11.4589 11 1 
304 1.19683 9.62594 -0.0138929 0.0347049 9.62642 -14.753 11 1 
308 1.19705 9.46814 -0.0140131 0.0350724 9.46881 -14.3587 11 1 
312 1.19777 9.2629 -0.0142321 0.0353626 9.2634 -13.0535 11 1 
316 1.1984 9.07657 -0.0143763 0.0359423 9.07695 -11.9273 11 1 
320 1.19888 8.93931 -0.0146041 0.0365392 8.93957 -11.0631 11 1 
320 1.19888 8.93931 -0.0146041 0.0365392 8.93957 -11.0631 15 1 
324 1.19932 8.82321 -0.0148173 0.0374067 8.82342 -10.2662 15 1 
328 1.19968 8.72949 -0.0151193 0.0380833 8.72967 -9.60832 15 1 
332 1.19999 8.65003 -0.0153906 0.0388579 8.65019 -9.05593 15 1 
336 1.20013 8.57131 -0.0156348 0.0399772 8.57144 -8.79039 15 1 
340 1.20023 8.50644 -0.0159238 0.0410756 8.50658 -8.61485 15 1 
344 1.20046 8.45721 -0.0161775 0.0420382 8.45735 -8.19258 15 1 
348 1.20063 8.40977 -0.0165011 0.0430469 8.40992 -7.89793 15 1 
352 1.20068 8.36287 -0.0167814 0.0441227 8.36302 -7.79899 15 1 
356 1.20073 8.3175 -0.0169918 0.0453613 8.31766 -7.70882 15 1 
360 1.2008 8.27642 -0.0172373 0.04659 8.27658 -7.59241 15 1 
364 1.20091 8.24524 -0.0175226 0.0476698 8.24541 -7.38681 15 1 
368 1.20097 8.21421 -0.0177662 0.0487008 8.21439 -7.2751 15 1 
372 1.20097 8.17941 -0.0179486 0.0499262 8.17959 -7.27166 15 1 
376 1.20102 8.14836 -0.0181087 0.0512225 8.14855 -7.18471 15 1 
380 1.20105 8.11956 -0.0183635 0.0523807 8.11976 -7.13164 15 1 
384 1.20107 8.09331 -0.0186721 0.0534924 8.09352 -7.10057 15 1 
384 1.20107 8.09331 -0.0186721 0.0534924 8.09352 -7.10057 16 1 
388 1.20111 8.06965 -0.0189302 0.0546643 8.06987 -7.02864 16 1 
392 1.20113 8.04382 -0.0191401 0.0559328 8.04404 -6.99473 16 1 
396 1.20113 8.01804 -0.0194202 0.0571987 8.01828 -6.99305 16 1 
400 1.20112 7.99504 -0.0198136 0.0584762 7.99529 -7.00034 16 1 
404 1.20114 7.97352 -0.0201453 0.0596984 7.97379 -6.97635 16 1 
408 1.20117 7.95388 -0.020369 0.060992 7.95415 -6.92265 16 1 
412 1.20118 7.93442 -0.0205859 0.0623662 7.9347 -6.90826 16 1 
416 1.20117 7.91389 -0.0208683 0.0637799 7.91418 -6.92418 16 1 
420 1.20116 7.89466 -0.0211493 0.065239 7.89497 -6.93036 16 1 
424 1.20118 7.87808 -0.0213841 0.0667006 7.87841 -6.90239 16 1 
428 1.2012 7.86279 -0.0215383 0.0681448 7.86312 -6.87126 16 1 
432 1.2012 7.84675 -0.0217399 0.0697612 7.8471 -6.86783 16 1 
436 1.2012 7.83002 -0.0220202 0.071398 7.83038 -6.86291 16 1 
440 1.2012 7.8143 -0.0222691 0.072969 7.81469 -6.8721 16 1 
444 1.2012 7.79969 -0.0225029 0.0745778 7.80009 -6.87097 16 1 
448 1.20122 7.78578 -0.0227596 0.0762434 7.7862 -6.83628 16 1 
448 1.20122 7.78578 -0.0227596 0.0762434 7.7862 -6.83628 17 1 
452 1.20122 7.77188 -0.0229976 0.0778627 7.77231 -6.82861 17 1 
456 1.20122 7.75685 -0.0233166 0.079482 7.7573 -6.83609 17 1 
460 1.20121 7.74212 -0.0236832 0.0811059 7.74259 -6.84085 17 1 
464 1.20121 7.72869 -0.0239848 0.0827559 7.72918 -6.84314 17 1 
468 1.20122 7.71552 -0.0243109 0.0843828 7.71603 -6.81863 17 1 
472 1.20124 7.70322 -0.0247227 0.0860006 7.70375 -6.80045 17 1 
476 1.20123 7.69038 -0.0251146 0.0876581 7.69093 -6.80905 17 1 
480 1.20123 7.67681 -0.0255415 0.0893545 7.67739 -6.81378 17 1 
484 1.20123 7.66524 -0.0259943 0.0910662 7.66584 -6.80669 17 1 
488 1.20125 7.65488 -0.0264577 0.0928282 7.65549 -6.77949 17 1 
492 1.20125 7.64441 -0.0269631 0.0946414 7.64505 -6.76708 17 1 
496 1.20125 7.63417 -0.0274944 0.0964511 7.63483 -6.76655 17 1 
500 1.20126 7.62439 -0.0280841 0.0983792 7.62508 -6.74716 17 1 
504 1.20126 7.61487 -0.0286561 0.100378 7.61559 -6.75351 17 1 
508 1.20127 7.60736 -0.0292812 0.10244 7.60812 -6.73465 17 1 
512 1.2013 7.60097 -0.0299304 0.104494 7.60175 -6.69198 17 1 
512 1.2013 7.60097 -0.0299304 0.104494 7.60175 -6.69198 25 1 
516 1.20129 7.5938 -0.0306236 0.106691 7.59462 -6.69486 25 1 
520 1.20129 7.58729 -0.0313482 0.108951 7.58814 -6.69257 25 1 
524 1.2013 7.58136 -0.032043 0.111278 7.58225 -6.67726 25 1 
528 1.20131 7.57744 -0.0328383 0.11371 7.57837 -6.65936 25 1 
532 1.20133 7.57425 -0.0336523 0.116159 7.57522 -6.63374 25 1 
536 1.20133 7.5705 -0.0344496 0.11872 7.57151 -6.62716 25 1 
540 1.20133 7.56728 -0.0353294 0.121391 7.56833 -6.62711 25 1 
544 1.20133 7.56456 -0.0362041 0.124061 7.56567 -6.62145 25 1 
548 1.20134 7.56345 -0.0371461 0.126862 7.56461 -6.60947 25 1 
552 1.20135 7.56288 -0.0380876 0.129721 7.56409 -6.5894 25 1 
556 1.20135 7.56229 -0.0390922 0.1326 7.56356 -6.5889 25 1 
560 1.20135 7.56118 -0.0401351 0.135676 7.5625 -6.59975 25 1 
564 1.20135 7.56148 -0.0411744 0.138721 7.56286 -6.59616 25 1 
568 1.20135 7.5629 -0.0422813 0.141893 7.56435 -6.59034 25 1 
572 1.20135 7.5644 -0.0433936 0.145134 7.56592 -6.58758 25 1 
576 1.20136 7.56647 -0.0445609 0.148392 7.56806 -6.58341 25 1 
576 1.20136 7.56647 -0.0445609 0.148392 7.56806 -6.58341 26 1 
580 1.20134 7.56799 -0.0457704 0.151794 7.56965 -6.60242 26 1 
584 1.20134 7.57066 -0.0470196 0.155208 7.5724 -6.60757 26 1 
588 1.20134 7.57433 -0.0482903 0.158679 7.57615 -6.60491 26 1 
592 1.20134 7.57811 -0.0496451 0.162245 7.58001 -6.60859 26 1 
596 1.20134 7.58224 -0.0509577 0.165835 7.58423 -6.61533 26 1 
600 1.20133 7.58611 -0.0523211 0.169504 7.58818 -6.63139 26 1 
604 1.20132 7.59084 -0.0537247 0.173328 7.59301 -6.63881 26 1 
608 1.20132 7.59639 -0.0551053 0.17705 7.59866 -6.65052 26 1 
608 1.20132 7.59639 -0.0551053 0.17705 7.59866 -6.65052 26 1 
612 1.20132 7.60217 -0.0565401 0.180906 7.60453 -6.64959 26 1 
616 1.20131 7.60817 -0.0579719 0.184847 7.61064 -6.66194 26 1 
620 1.2013 7.61411 -0.0594529 0.188739 7.61668 -6.67846 26 1 
624 1.2013 7.6207 -0.0609495 0.192786 7.62338 -6.6889 26 1 
628 1.20129 7.62782 -0.0624566 0.196743 7.63061 -6.70114 26 1 
632 1.20129 7.63551 -0.0640142 0.200781 7.63842 -6.70391 26 1 
636 1.20128 7.64326 -0.0656026 0.20485 7.64628 -6.71372 26 1 
640 1.20128 7.65106 -0.0672113 0.208932 7.65421 -6.72725 26 1 
644 1.20127 7.65925 -0.0688567 0.213111 7.66252 -6.74161 26 1 
648 1.20127 7.66806 -0.0704989 0.217169 7.67146 -6.74442 26 1 
652 1.20126 7.67736 -0.0721882 0.221443 7.68089 -6.75221 26 1 
656 1.20126 7.68639 -0.0739085 0.225537 7.69005 -6.75822 26 1 
660 1.20125 7.69597 -0.0756933 0.229855 7.69977 -6.76696 26 1 
664 1.20125 7.70534 -0.0773898 0.233918 7.70928 -6.77652 26 1 
668 1.20125 7.7153 -0.0792458 0.238281 7.71939 -6.78038 26 1 
672 1.20124 7.72598 -0.0809448 0.242569 7.73021 -6.78767 26 1 
672 1.20124 7.72598 -0.0809448 0.242569 7.73021 -6.78767 27 1 
676 1.20125 7.73598 -0.0826687 0.246772 7.74036 -6.78072 27 1 
680 1.20124 7.74686 -0.0846375 0.251432 7.75141 -6.79366 27 1 
684 1.20124 7.75699 -0.0861945 0.255244 7.76167 -6.79425 27 1 
688 1.20124 7.76806 -0.08818 0.260114 7.77292 -6.79933 27 1 
692 1.20124 7.77903 -0.0898148 0.264024 7.78403 -6.798 27 1 
696 1.20124 7.79018 -0.091597 0.268629 7.79535 -6.79623 27 1 
700 1.20123 7.80179 -0.0935534 0.273216 7.80713 -6.80092 27 1 
704 1.20124 7.81269 -0.0951833 0.277324 7.81819 -6.79756 27 1 
704 1.20124 7.81269 -0.0951833 0.277324 7.81819 -6.79756 31 1 
708 1.20124 7.82414 -0.0969947 0.281968 7.82982 -6.79815 31 1 
712 1.20123 7.83612 -0.0987317 0.285889 7.84196 -6.80503 31 1 
716 1.20124 7.84764 -0.100427 0.290586 7.85366 -6.79354 31 1 
720 1.20124 7.85949 -0.102144 0.295145 7.8657 -6.7889 31 1 
724 1.20123 7.87188 -0.104018 0.29944 7.87826 -6.80575 31 1 
728 1.20124 7.88402 -0.105677 0.30381 7.89058 -6.79107 31 1 
732 1.20124 7.89648 -0.107473 0.308623 7.90324 -6.79176 31 1 
736 1.20124 7.90937 -0.109183 0.312097 7.91628 -6.79939 31 1 
740 1.20124 7.92221 -0.110831 0.316939 7.92933 -6.79295 31 1 
744 1.20124 7.93533 -0.112437 0.321384 7.94263 -6.78954 31 1 
748 1.20124 7.94842 -0.114394 0.3263 7.95594 -6.79522 31 1 
752 1.20122 7.963 -0.115652 0.330664 7.97071 -6.83174 31 1 
756 1.20124 7.97625 -0.11777 0.335454 7.98418 -6.78333 31 1 
760 1.20121 7.99283 -0.120362 0.341092 8.00102 -6.84137 31 1 
764 1.2012 8.00933 -0.121979 0.345381 8.01771 -6.86541 31 1 
768 1.20121 8.02528 -0.124233 0.350209 8.03388 -6.84415 31 1 
772 1.20116 8.04417 -0.126208 0.357645 8.05311 -6.93242 31 1 
776 1.20113 8.06221 -0.128338 0.366913 8.07159 -6.99212 31 1 
780 1.20105 8.08831 -0.131906 0.372487 8.09796 -7.13811 31 1 
784 1.20103 8.1156 -0.137123 0.381061 8.12571 -7.17474 31 1 
788 1.20089 8.15285 -0.140955 0.393703 8.16358 -7.42226 31 1 
792 1.20072 8.19451 -0.145884 0.413722 8.20628 -7.73528 31 1 
796 1.20045 8.25505 -0.15356 0.440425 8.26825 -8.21024 31 1 
800 1.20021 8.29901 -0.157219 0.45338 8.3129 -8.66038 31 1 
