141.281;r ;Density                 ;Velocity u              ;Velocity v              ;Velocity w              ;|Velocity|              ;Pressure                ;Distribution            ;Levels                  ;
0 1.2243 9.99874 -4.05888e-05 8.2419e-06 9.99874 34.8578 1 1 
2 1.22433 9.99746 -5.25498e-05 -3.42983e-05 9.99746 34.9063 1 1 
4 1.22433 9.99645 -0.000162754 -0.000166664 9.99645 34.9145 1 1 
6 1.22433 9.99619 -0.00021549 -0.000240254 9.99619 34.9112 1 1 
8 1.22434 9.99599 -0.000288508 -0.000328972 9.99599 34.9347 1 1 
10 1.22434 9.99567 -0.000351591 -0.000395972 9.99567 34.9297 1 1 
12 1.22435 9.99456 -0.000407837 -0.000481366 9.99456 34.9488 1 1 
14 1.22435 9.9947 -0.000499739 -0.000591539 9.9947 34.9461 1 1 
16 1.22436 9.99422 -0.000527545 -0.000649345 9.99422 34.9741 1 1 
18 1.22436 9.99298 -0.000588115 -0.000727095 9.99298 34.9739 1 1 
20 1.22435 9.99282 -0.000695765 -0.000840272 9.99282 34.9507 1 1 
22 1.22438 9.99247 -0.000762217 -0.000930115 9.99247 35.0062 1 1 
24 1.22438 9.99257 -0.000840004 -0.00102858 9.99257 35.011 1 1 
26 1.22438 9.99176 -0.000907756 -0.00109279 9.99176 35.0012 1 1 
28 1.22438 9.99071 -0.00099397 -0.00118689 9.99071 35.0139 1 1 
30 1.22439 9.9903 -0.00104754 -0.00127672 9.9903 35.0149 1 1 
32 1.2244 9.98918 -0.00113381 -0.00137546 9.98918 35.038 1 1 
32 1.2244 9.98918 -0.00113381 -0.00137546 9.98918 35.038 1 1 
34 1.22439 9.98829 -0.00116654 -0.00142764 9.98829 35.032 1 1 
36 1.2244 9.98697 -0.00126132 -0.00153885 9.98697 35.041 1 1 
38 1.2244 9.98694 -0.00133627 -0.00162766 9.98694 35.037 1 1 
40 1.22441 9.98637 -0.00139726 -0.00171326 9.98637 35.0557 1 1 
42 1.22442 9.98543 -0.00149185 -0.00181949 9.98543 35.0747 1 1 
44 1.22441 9.9844 -0.00154665 -0.0018695 9.9844 35.0636 1 1 
46 1.22442 9.98297 -0.00163747 -0.00197376 9.98297 35.0777 1 1 
48 1.22442 9.98284 -0.00172605 -0.00209564 9.98284 35.0733 1 1 
50 1.22443 9.98285 -0.00176795 -0.00213182 9.98285 35.0908 1 1 
52 1.22443 9.98159 -0.00182952 -0.00221534 9.98159 35.102 1 1 
54 1.22443 9.98013 -0.00192336 -0.00231013 9.98013 35.0941 1 1 
56 1.22444 9.98032 -0.00199187 -0.00238766 9.98032 35.1106 1 1 
58 1.22445 9.97985 -0.00210771 -0.00253313 9.97985 35.124 1 1 
60 1.22444 9.97901 -0.00215783 -0.00259396 9.97902 35.1139 1 1 
62 1.22445 9.97799 -0.00223682 -0.00268763 9.97799 35.1283 1 1 
64 1.22445 9.97767 -0.00230391 -0.00276902 9.97767 35.1384 1 1 
64 1.22445 9.97767 -0.00230391 -0.00276902 9.97767 35.1384 2 1 
66 1.22447 9.9773 -0.00237026 -0.00286831 9.9773 35.16 2 1 
68 1.22445 9.9776 -0.00245972 -0.00297411 9.9776 35.1382 2 1 
70 1.22447 9.97645 -0.00254872 -0.00308261 9.97645 35.1594 2 1 
72 1.22447 9.97514 -0.00263772 -0.00318539 9.97514 35.1757 2 1 
74 1.22447 9.97466 -0.00270799 -0.00324915 9.97466 35.1589 2 1 
76 1.22449 9.97368 -0.00276568 -0.00333644 9.97368 35.2045 2 1 
78 1.22448 9.97436 -0.0028299 -0.00340169 9.97436 35.1832 2 1 
80 1.22448 9.97362 -0.002929 -0.00352942 9.97362 35.1887 2 1 
82 1.22449 9.97259 -0.00301658 -0.00367398 9.97259 35.2059 2 1 
84 1.2245 9.97194 -0.00306622 -0.00371595 9.97194 35.2139 2 1 
86 1.22451 9.97101 -0.00314165 -0.00378285 9.97102 35.2318 2 1 
88 1.2245 9.97066 -0.00326884 -0.00392405 9.97066 35.2219 2 1 
90 1.22451 9.97001 -0.00330221 -0.00396391 9.97001 35.2322 2 1 
92 1.22451 9.96899 -0.00339999 -0.0040527 9.969 35.2394 2 1 
94 1.22452 9.96795 -0.00349025 -0.0041621 9.96795 35.2533 2 1 
96 1.22452 9.96742 -0.00354084 -0.00424021 9.96742 35.2652 2 1 
96 1.22452 9.96742 -0.00354084 -0.00424021 9.96742 35.2652 2 1 
98 1.22452 9.96765 -0.00366575 -0.00436485 9.96765 35.2639 2 1 
100 1.22453 9.96727 -0.00369844 -0.00441453 9.96728 35.2713 2 1 
102 1.22453 9.96633 -0.00377866 -0.00453102 9.96633 35.2705 2 1 
104 1.22454 9.96471 -0.00390895 -0.00466524 9.96471 35.2937 2 1 
106 1.22454 9.96378 -0.00394473 -0.00467926 9.96378 35.2979 2 1 
108 1.22455 9.96231 -0.00405028 -0.00478718 9.96232 35.3121 2 1 
110 1.22454 9.96209 -0.00412285 -0.00488804 9.96209 35.2953 2 1 
112 1.22454 9.96202 -0.00419465 -0.00498688 9.96202 35.2953 2 1 
114 1.22456 9.96031 -0.00426123 -0.00506358 9.96031 35.3384 2 1 
116 1.22456 9.96093 -0.00433331 -0.00515505 9.96093 35.329 2 1 
118 1.22457 9.9605 -0.00439965 -0.0052357 9.9605 35.3461 2 1 
120 1.22458 9.95872 -0.00447967 -0.00530858 9.95872 35.3671 2 1 
122 1.22456 9.95819 -0.00458293 -0.00542066 9.95819 35.3298 2 1 
124 1.22457 9.95635 -0.00464953 -0.00552569 9.95635 35.3394 2 1 
126 1.2246 9.95467 -0.00476425 -0.00565558 9.95468 35.4028 2 1 
128 1.22458 9.95546 -0.00481526 -0.00569749 9.95546 35.3599 2 1 
128 1.22458 9.95546 -0.00481526 -0.00569749 9.95546 35.3599 10 1 
130 1.22459 9.95473 -0.00490359 -0.00581864 9.95474 35.3839 10 1 
132 1.2246 9.9548 -0.00495186 -0.0058597 9.9548 35.4055 10 1 
134 1.2246 9.95412 -0.00502891 -0.00594595 9.95413 35.3939 10 1 
136 1.22461 9.95145 -0.00511659 -0.00606346 9.95146 35.4232 10 1 
138 1.2246 9.95061 -0.00519754 -0.00616484 9.95061 35.3999 10 1 
140 1.22461 9.95041 -0.00528948 -0.0062806 9.95042 35.4276 10 1 
142 1.22462 9.95011 -0.00537096 -0.00631972 9.95012 35.4343 10 1 
144 1.22462 9.94968 -0.00545487 -0.00642998 9.94969 35.4346 10 1 
146 1.22464 9.94909 -0.00553478 -0.00650745 9.94909 35.4766 10 1 
148 1.22464 9.94699 -0.00562246 -0.00659242 9.94699 35.4752 10 1 
150 1.22462 9.9459 -0.00567541 -0.00668921 9.9459 35.4406 10 1 
152 1.22464 9.9453 -0.00576038 -0.0067957 9.9453 35.4772 10 1 
154 1.22466 9.94445 -0.00579296 -0.0068477 9.94445 35.5062 10 1 
156 1.22465 9.9445 -0.00588729 -0.00695406 9.94451 35.4947 10 1 
158 1.22467 9.94316 -0.00596683 -0.00702823 9.94317 35.5229 10 1 
160 1.22468 9.94088 -0.00601295 -0.00708097 9.94088 35.5395 10 1 
160 1.22468 9.94088 -0.00601295 -0.00708097 9.94088 35.5395 10 1 
162 1.22465 9.94071 -0.00610991 -0.00720764 9.94071 35.4983 10 1 
164 1.22467 9.93921 -0.00619112 -0.00727505 9.93921 35.5277 10 1 
166 1.22471 9.9367 -0.00630101 -0.0073965 9.9367 35.6079 10 1 
168 1.22468 9.93807 -0.00639428 -0.00752122 9.93808 35.544 10 1 
170 1.2247 9.93578 -0.0064332 -0.00758129 9.93578 35.5809 10 1 
172 1.22471 9.93481 -0.00647523 -0.00762492 9.93481 35.6037 10 1 
174 1.22469 9.93579 -0.00650114 -0.00767669 9.93579 35.5675 10 1 
176 1.22475 9.93257 -0.00662154 -0.00775508 9.93258 35.6648 10 1 
178 1.22473 9.93172 -0.00667679 -0.00784146 9.93173 35.6415 10 1 
180 1.22473 9.92995 -0.0067471 -0.00797686 9.92995 35.6428 10 1 
182 1.22474 9.92656 -0.00687018 -0.00809372 9.92656 35.6591 10 1 
184 1.22472 9.92539 -0.00696899 -0.00819773 9.9254 35.6267 10 1 
186 1.22478 9.92563 -0.00700279 -0.00822148 9.92564 35.72 10 1 
188 1.2248 9.92484 -0.00701741 -0.00823705 9.92485 35.7553 10 1 
190 1.22478 9.92373 -0.00714776 -0.00836512 9.92374 35.7231 10 1 
192 1.22478 9.92261 -0.0070667 -0.00832706 9.92262 35.7284 10 1 
194 1.2248 9.91846 -0.0072451 -0.00852001 9.91847 35.7696 10 1 
196 1.22481 9.91524 -0.00739926 -0.00865388 9.91525 35.7902 10 1 
198 1.22482 9.91454 -0.00736653 -0.00858754 9.91455 35.7992 10 1 
200 1.22486 9.91249 -0.00753205 -0.00878135 9.9125 35.8783 10 1 
202 1.22486 9.91152 -0.00747227 -0.00879868 9.91152 35.8676 10 1 
204 1.22482 9.91129 -0.00747087 -0.00877107 9.91129 35.8062 10 1 
206 1.2249 9.90704 -0.00771012 -0.00899422 9.90705 35.9448 10 1 
208 1.22493 9.90524 -0.00782123 -0.00904912 9.90525 36.0064 10 1 
210 1.22489 9.90548 -0.00780722 -0.00901558 9.90549 35.9328 10 1 
212 1.22497 9.89811 -0.00786826 -0.00914727 9.89812 36.0639 10 1 
214 1.22495 9.89315 -0.00787829 -0.00918065 9.89316 36.0265 10 1 
216 1.22493 9.8893 -0.00799253 -0.00927184 9.88931 36.002 10 1 
218 1.22501 9.88402 -0.00817344 -0.00942856 9.88403 36.1492 10 1 
220 1.22502 9.88756 -0.00820543 -0.00952579 9.88757 36.1653 10 1 
222 1.22507 9.88695 -0.00821471 -0.00955073 9.88696 36.2489 10 1 
224 1.22508 9.88077 -0.00823108 -0.00945066 9.88078 36.2632 10 1 
224 1.22508 9.88077 -0.00823108 -0.00945066 9.88078 36.2632 10 1 
226 1.22511 9.87517 -0.00831516 -0.00951518 9.87518 36.324 10 1 
228 1.22514 9.86479 -0.00844601 -0.00970655 9.8648 36.386 10 1 
230 1.22515 9.85666 -0.00858816 -0.0098954 9.85667 36.3983 10 1 
232 1.22518 9.85679 -0.00864866 -0.00994457 9.8568 36.4418 10 1 
234 1.22525 9.85341 -0.00867514 -0.00990435 9.85342 36.5702 10 1 
236 1.22535 9.84424 -0.00871573 -0.0100024 9.84425 36.7572 10 1 
238 1.22529 9.84085 -0.0087596 -0.0100702 9.84086 36.6432 10 1 
240 1.22542 9.82768 -0.00902385 -0.0103014 9.82769 36.8807 10 1 
242 1.22546 9.8181 -0.00910611 -0.0103798 9.81811 36.9558 10 1 
244 1.2254 9.81573 -0.00904945 -0.010365 9.81575 36.8545 10 1 
246 1.22563 9.80258 -0.00914699 -0.0104829 9.80259 37.2653 10 1 
248 1.22568 9.79192 -0.00911865 -0.0104222 9.79193 37.3512 10 1 
250 1.22569 9.77815 -0.00930731 -0.0105968 9.77816 37.3782 10 1 
252 1.22578 9.76506 -0.00957326 -0.0108418 9.76507 37.5273 10 1 
254 1.22592 9.75133 -0.00948521 -0.010726 9.75134 37.78 10 1 
256 1.22602 9.73575 -0.00952679 -0.0108034 9.73576 37.9601 10 1 
256 1.22602 9.73575 -0.00952679 -0.0108034 9.73576 37.9601 11 1 
258 1.22609 9.71776 -0.0096454 -0.0109791 9.71778 38.0959 11 1 
260 1.22632 9.69731 -0.00973385 -0.0110704 9.69733 38.5026 11 1 
262 1.22646 9.6733 -0.00993479 -0.011228 9.67332 38.7556 11 1 
264 1.22646 9.64955 -0.00995837 -0.0112098 9.64957 38.7586 11 1 
266 1.22672 9.62441 -0.00998122 -0.0112621 9.62442 39.231 11 1 
268 1.22716 9.58325 -0.0101218 -0.011417 9.58327 40.026 11 1 
270 1.22711 9.55364 -0.0102808 -0.0115267 9.55367 39.9427 11 1 
272 1.22738 9.51007 -0.0102858 -0.0115213 9.51009 40.4318 11 1 
274 1.22796 9.45286 -0.0103624 -0.0116455 9.45288 41.4666 11 1 
276 1.22801 9.41108 -0.0104803 -0.0117196 9.4111 41.5654 11 1 
278 1.22844 9.3496 -0.0105897 -0.0118056 9.34962 42.3315 11 1 
280 1.22916 9.28544 -0.010665 -0.0118709 9.28548 43.6391 11 1 
282 1.22966 9.20269 -0.010679 -0.0118597 9.20286 44.5499 11 1 
284 1.23007 9.08134 -0.0106948 -0.0119048 9.08163 45.2754 11 1 
286 1.23058 8.95755 -0.010761 -0.0119663 8.95773 46.1972 11 1 
288 1.23146 8.84287 -0.0108362 -0.0120452 8.8429 47.7866 11 1 
288 1.23146 8.84287 -0.0108362 -0.0120452 8.8429 47.7866 11 1 
290 1.23251 8.73546 -0.0108934 -0.0121009 8.73552 49.6869 11 1 
292 1.23338 8.59628 -0.0110373 -0.0122393 8.59649 51.2659 11 1 
294 1.23411 8.41235 -0.0110289 -0.0122141 8.41284 52.5776 11 1 
296 1.2351 8.21914 -0.0109717 -0.0121118 8.21951 54.3752 11 1 
298 1.22951 7.98174 -0.0109478 -0.0120858 7.98193 44.2664 11 1 
300 1.21977 7.87528 -0.0108205 -0.0120002 7.87551 26.6802 11 1 
302 1.21662 7.82676 -0.0108817 -0.0120726 7.82688 20.9827 11 1 
304 1.21742 7.66466 -0.0108883 -0.0120498 7.66487 22.4288 11 1 
306 1.21838 7.49017 -0.0107713 -0.0119206 7.49047 24.1594 11 1 
308 1.21912 7.3302 -0.0106823 -0.0118047 7.33054 25.5055 11 1 
310 1.2196 7.20234 -0.0105606 -0.0116743 7.20261 26.3662 11 1 
312 1.22018 7.06858 -0.0105388 -0.0117006 7.06869 27.4245 11 1 
314 1.22074 6.96683 -0.0106072 -0.011785 6.96692 28.4307 11 1 
316 1.22119 6.88724 -0.0106416 -0.011805 6.88729 29.237 11 1 
318 1.22159 6.79057 -0.010624 -0.0117824 6.79062 29.9655 11 1 
320 1.2219 6.72292 -0.0105439 -0.0116839 6.72296 30.5343 11 1 
320 1.2219 6.72292 -0.0105439 -0.0116839 6.72296 30.5343 15 1 
322 1.22222 6.67537 -0.010613 -0.0117666 6.6754 31.1101 15 1 
324 1.22256 6.61374 -0.0106702 -0.0118639 6.61377 31.7106 15 1 
326 1.2228 6.56319 -0.0105705 -0.0117788 6.56322 32.1566 15 1 
328 1.223 6.51763 -0.0104899 -0.0116824 6.51766 32.5076 15 1 
330 1.22314 6.47116 -0.0105162 -0.0116843 6.4712 32.7653 15 1 
332 1.22338 6.44048 -0.0105039 -0.0116828 6.44051 33.192 15 1 
334 1.22362 6.40135 -0.0104101 -0.0116308 6.40138 33.6262 15 1 
336 1.22362 6.35184 -0.0103561 -0.0115888 6.35188 33.6327 15 1 
338 1.22369 6.31965 -0.010351 -0.0115804 6.3197 33.7628 15 1 
340 1.22394 6.29559 -0.0104109 -0.0116596 6.29563 34.2114 15 1 
342 1.22406 6.26879 -0.0103823 -0.0116469 6.26882 34.4358 15 1 
344 1.22408 6.23435 -0.0103016 -0.0115779 6.23438 34.4601 15 1 
346 1.22411 6.19734 -0.0103267 -0.0116378 6.19737 34.5092 15 1 
348 1.22425 6.18376 -0.0104843 -0.0118211 6.18379 34.7672 15 1 
350 1.22441 6.17559 -0.0105519 -0.0118875 6.17562 35.0551 15 1 
352 1.2244 6.1477 -0.0105109 -0.0118564 6.14773 35.0451 15 1 
354 1.22443 6.12571 -0.0105282 -0.0119171 6.12573 35.0877 15 1 
356 1.22453 6.11583 -0.0106924 -0.0121271 6.11586 35.2846 15 1 
358 1.22459 6.10598 -0.0108162 -0.0122455 6.106 35.3908 15 1 
360 1.22466 6.09985 -0.0107934 -0.0122204 6.09987 35.508 15 1 
362 1.22472 6.09097 -0.0107664 -0.0122479 6.09099 35.6127 15 1 
364 1.22475 6.0797 -0.0108462 -0.0123631 6.07973 35.6701 15 1 
366 1.22479 6.07369 -0.0109269 -0.0124432 6.07371 35.7401 15 1 
368 1.22484 6.07093 -0.0109087 -0.0124572 6.07096 35.8336 15 1 
370 1.22492 6.07111 -0.0108176 -0.0124043 6.07114 35.9778 15 1 
372 1.22495 6.06692 -0.0108043 -0.0123948 6.06695 36.0405 15 1 
374 1.22496 6.05823 -0.0108341 -0.012446 6.05825 36.0483 15 1 
376 1.22501 6.05555 -0.010774 -0.0124222 6.05557 36.139 15 1 
378 1.22505 6.05454 -0.0106806 -0.012345 6.05457 36.2194 15 1 
380 1.2251 6.05335 -0.0106268 -0.0123037 6.05337 36.3032 15 1 
382 1.22514 6.05164 -0.0106047 -0.0123028 6.05166 36.3768 15 1 
384 1.22514 6.04297 -0.0105512 -0.0122704 6.04299 36.3829 15 1 
384 1.22514 6.04297 -0.0105512 -0.0122704 6.04299 36.3829 16 1 
386 1.22517 6.03669 -0.0104306 -0.0121868 6.03671 36.4374 16 1 
388 1.22522 6.03668 -0.010337 -0.0121325 6.0367 36.5158 16 1 
390 1.22525 6.03312 -0.0103286 -0.0121331 6.03314 36.5692 16 1 
392 1.22528 6.02652 -0.0102465 -0.0120796 6.02654 36.6246 16 1 
394 1.22529 6.01827 -0.0101286 -0.0120192 6.01829 36.6412 16 1 
396 1.2253 6.00969 -0.0100514 -0.0119641 6.00971 36.6606 16 1 
398 1.22533 6.0048 -0.00996263 -0.0118885 6.00482 36.7159 16 1 
400 1.22536 5.99959 -0.00982055 -0.0118108 5.99961 36.7792 16 1 
402 1.22538 5.99076 -0.00973909 -0.0117802 5.99078 36.8159 16 1 
404 1.22537 5.97982 -0.00968198 -0.0117306 5.97984 36.8019 16 1 
406 1.22539 5.97004 -0.00953921 -0.0116207 5.97006 36.8311 16 1 
408 1.22543 5.96371 -0.0093753 -0.0115087 5.96373 36.9028 16 1 
410 1.22544 5.95574 -0.00930113 -0.0114807 5.95576 36.9214 16 1 
412 1.22545 5.9449 -0.00923169 -0.011462 5.94493 36.9343 16 1 
414 1.22547 5.93525 -0.00910689 -0.0113706 5.93527 36.9669 16 1 
416 1.22548 5.92542 -0.00898376 -0.0112754 5.92545 36.9892 16 1 
416 1.22548 5.92542 -0.00898376 -0.0112754 5.92545 36.9892 16 1 
418 1.22549 5.91589 -0.0088932 -0.0112325 5.91591 37.0105 16 1 
420 1.2255 5.90772 -0.00881629 -0.0111988 5.90774 37.0332 16 1 
422 1.22552 5.89845 -0.00875858 -0.0111623 5.89847 37.0689 16 1 
424 1.22553 5.88847 -0.00867861 -0.0111111 5.88849 37.0904 16 1 
426 1.22553 5.87813 -0.00859397 -0.011064 5.87815 37.0839 16 1 
428 1.22554 5.8684 -0.00853579 -0.0110183 5.86842 37.1025 16 1 
430 1.22556 5.86126 -0.00850745 -0.0109838 5.86128 37.1424 16 1 
432 1.22557 5.8534 -0.00847405 -0.0109562 5.85342 37.1635 16 1 
434 1.22558 5.84323 -0.00841659 -0.010922 5.84325 37.1638 16 1 
436 1.22558 5.83405 -0.00836098 -0.0108922 5.83407 37.1696 16 1 
438 1.22559 5.82684 -0.00831037 -0.0108676 5.82686 37.1955 16 1 
440 1.2256 5.82069 -0.00825099 -0.0108181 5.82071 37.2166 16 1 
442 1.22561 5.81408 -0.00821236 -0.0107888 5.8141 37.2325 16 1 
444 1.22562 5.80651 -0.00815493 -0.0107731 5.80653 37.2489 16 1 
446 1.22562 5.79986 -0.00807507 -0.0107273 5.79987 37.2522 16 1 
448 1.22563 5.79456 -0.00801567 -0.0106825 5.79458 37.266 16 1 
448 1.22563 5.79456 -0.00801567 -0.0106825 5.79458 37.266 17 1 
450 1.22565 5.78998 -0.0079531 -0.01066 5.78999 37.2944 17 1 
452 1.22566 5.78573 -0.00788608 -0.0106505 5.78575 37.3106 17 1 
454 1.22566 5.78081 -0.00785404 -0.0106486 5.78083 37.3205 17 1 
456 1.22567 5.77597 -0.00781008 -0.0106217 5.77599 37.3297 17 1 
458 1.22567 5.77238 -0.00770273 -0.0105626 5.7724 37.3408 17 1 
460 1.22568 5.76963 -0.00763398 -0.0105342 5.76964 37.3598 17 1 
462 1.22569 5.76716 -0.00761257 -0.0105284 5.76717 37.3793 17 1 
464 1.2257 5.76407 -0.00756766 -0.0105183 5.76408 37.3892 17 1 
466 1.2257 5.76063 -0.00747101 -0.010465 5.76064 37.3906 17 1 
468 1.22571 5.7586 -0.00739544 -0.0104151 5.75861 37.402 17 1 
470 1.22572 5.75747 -0.007336 -0.01038 5.75748 37.4208 17 1 
472 1.22572 5.75601 -0.00727213 -0.0103314 5.75602 37.4324 17 1 
474 1.22573 5.75453 -0.00721148 -0.0102882 5.75454 37.4432 17 1 
476 1.22573 5.75302 -0.0071368 -0.0102386 5.75304 37.4484 17 1 
478 1.22573 5.75202 -0.00704131 -0.010145 5.75204 37.4523 17 1 
480 1.22575 5.7522 -0.00695326 -0.010063 5.75221 37.471 17 1 
480 1.22575 5.7522 -0.00695326 -0.010063 5.75221 37.471 17 1 
482 1.22575 5.75245 -0.00686172 -0.0100062 5.75247 37.4874 17 1 
484 1.22576 5.7523 -0.00674898 -0.00991529 5.75231 37.4919 17 1 
486 1.22576 5.75231 -0.00665597 -0.00980654 5.75232 37.4982 17 1 
488 1.22577 5.75271 -0.00654782 -0.00969603 5.75272 37.5087 17 1 
490 1.22577 5.75395 -0.00639254 -0.009576 5.75396 37.5211 17 1 
492 1.22578 5.75555 -0.00626139 -0.00945748 5.75556 37.534 17 1 
494 1.22579 5.75665 -0.0061684 -0.00933874 5.75666 37.544 17 1 
496 1.22579 5.75764 -0.006031 -0.00921355 5.75765 37.5514 17 1 
498 1.22579 5.75913 -0.00584506 -0.00906177 5.75914 37.5566 17 1 
500 1.2258 5.76125 -0.00571063 -0.00891162 5.76126 37.5678 17 1 
502 1.22581 5.76365 -0.00559017 -0.00878647 5.76366 37.5847 17 1 
504 1.22581 5.7654 -0.00543135 -0.00865809 5.76541 37.5923 17 1 
506 1.22581 5.76698 -0.00525682 -0.00848407 5.76698 37.5939 17 1 
508 1.22582 5.76932 -0.00508375 -0.00829488 5.76933 37.6031 17 1 
510 1.22583 5.77182 -0.00490514 -0.00812782 5.77183 37.616 17 1 
512 1.22583 5.77409 -0.00472847 -0.00796013 5.77409 37.6243 17 1 
512 1.22583 5.77409 -0.00472847 -0.00796013 5.77409 37.6243 25 1 
514 1.22583 5.77634 -0.00454696 -0.00776666 5.77634 37.6307 25 1 
516 1.22584 5.77855 -0.00435173 -0.00757332 5.77856 37.6374 25 1 
518 1.22584 5.78081 -0.00414378 -0.00737952 5.78082 37.6434 25 1 
520 1.22584 5.7832 -0.00395418 -0.00717843 5.7832 37.6504 25 1 
522 1.22585 5.78572 -0.00376709 -0.00698252 5.78573 37.6587 25 1 
524 1.22585 5.78818 -0.00357277 -0.00679573 5.78819 37.6653 25 1 
526 1.22585 5.79034 -0.00339101 -0.00658823 5.79034 37.6681 25 1 
528 1.22586 5.79258 -0.00321847 -0.00638654 5.79259 37.6723 25 1 
530 1.22586 5.79513 -0.0030173 -0.00619346 5.79514 37.6793 25 1 
532 1.22586 5.79756 -0.00284913 -0.00601394 5.79757 37.6827 25 1 
534 1.22586 5.79992 -0.00268142 -0.00581806 5.79993 37.687 25 1 
536 1.22587 5.8023 -0.00250343 -0.00563616 5.8023 37.6932 25 1 
538 1.22587 5.80457 -0.00234585 -0.00547478 5.80457 37.6945 25 1 
540 1.22587 5.80688 -0.00218349 -0.00529374 5.80689 37.6958 25 1 
542 1.22587 5.80932 -0.00204943 -0.00514144 5.80932 37.7016 25 1 
544 1.22588 5.8118 -0.00191638 -0.00499243 5.81181 37.7061 25 1 
544 1.22588 5.8118 -0.00191638 -0.00499243 5.81181 37.7061 25 1 
546 1.22588 5.81412 -0.00179813 -0.00485195 5.81413 37.7076 25 1 
548 1.22588 5.81634 -0.00168108 -0.00471776 5.81634 37.7082 25 1 
550 1.22588 5.81871 -0.00158482 -0.0045954 5.81871 37.7113 25 1 
552 1.22588 5.82112 -0.00148874 -0.00447393 5.82112 37.7134 25 1 
554 1.22588 5.82355 -0.00140568 -0.00437002 5.82355 37.715 25 1 
556 1.22588 5.82599 -0.00134903 -0.00427912 5.826 37.7192 25 1 
558 1.22588 5.82819 -0.00126968 -0.0041715 5.82819 37.7178 25 1 
560 1.22588 5.83035 -0.00120611 -0.00408266 5.83035 37.7155 25 1 
562 1.22588 5.83281 -0.00114437 -0.00399068 5.83281 37.7186 25 1 
564 1.22588 5.83518 -0.00109733 -0.00391125 5.83518 37.7207 25 1 
566 1.22588 5.83738 -0.00103865 -0.0038271 5.83738 37.7188 25 1 
568 1.22588 5.83943 -0.000977949 -0.00373863 5.83944 37.717 25 1 
570 1.22588 5.84142 -0.000926836 -0.003655 5.84142 37.7145 25 1 
572 1.22588 5.84358 -0.000861221 -0.00356926 5.84358 37.7132 25 1 
574 1.22588 5.84568 -0.000800217 -0.00348822 5.84568 37.7134 25 1 
576 1.22588 5.84756 -0.00072728 -0.00339551 5.84756 37.7102 25 1 
576 1.22588 5.84756 -0.00072728 -0.00339551 5.84756 37.7102 26 1 
578 1.22588 5.84926 -0.000650257 -0.00330354 5.84926 37.7057 26 1 
580 1.22587 5.8509 -0.00055644 -0.00320154 5.85091 37.7001 26 1 
582 1.22587 5.85267 -0.000462001 -0.0030944 5.85267 37.6982 26 1 
584 1.22587 5.85434 -0.000357833 -0.00298115 5.85434 37.6953 26 1 
586 1.22587 5.85576 -0.000226182 -0.0028496 5.85577 37.6882 26 1 
588 1.22586 5.85711 -0.000105123 -0.00271513 5.85711 37.6836 26 1 
590 1.22586 5.85835 5.77219e-05 -0.00254935 5.85835 37.6771 26 1 
592 1.22586 5.85954 0.000214202 -0.00239236 5.85954 37.6698 26 1 
594 1.22585 5.86087 0.000402915 -0.00220425 5.86087 37.6654 26 1 
596 1.22585 5.8619 0.000604737 -0.00199462 5.8619 37.6603 26 1 
598 1.22584 5.86272 0.000820313 -0.00178029 5.86272 37.6493 26 1 
600 1.22584 5.86357 0.00106533 -0.00153823 5.86357 37.6412 26 1 
602 1.22584 5.86449 0.00129974 -0.0012945 5.86449 37.6359 26 1 
604 1.22583 5.86535 0.00158657 -0.00101261 5.86535 37.6273 26 1 
606 1.22583 5.86596 0.00187686 -0.000726179 5.86596 37.6182 26 1 
608 1.22582 5.86658 0.00219246 -0.000413261 5.86658 37.6093 26 1 
608 1.22582 5.86658 0.00219246 -0.000413261 5.86658 37.6093 26 1 
610 1.22582 5.86721 0.00251354 -9.09087e-05 5.86721 37.6008 26 1 
612 1.22581 5.86776 0.00286051 0.000244437 5.86776 37.5905 26 1 
614 1.22581 5.8683 0.00324354 0.000618518 5.8683 37.5829 26 1 
616 1.2258 5.86887 0.00361385 0.000984747 5.86887 37.5747 26 1 
618 1.2258 5.86923 0.00401928 0.00137354 5.86923 37.5643 26 1 
620 1.22579 5.86959 0.00444789 0.00178266 5.86959 37.5548 26 1 
622 1.22579 5.87002 0.00489843 0.00221271 5.87002 37.5463 26 1 
624 1.22578 5.87044 0.0053452 0.00263412 5.87044 37.5389 26 1 
626 1.22578 5.87074 0.00582735 0.00308085 5.87074 37.5312 26 1 
628 1.22577 5.87098 0.00631472 0.00354318 5.87099 37.5214 26 1 
630 1.22577 5.87123 0.00681412 0.00400749 5.87124 37.5134 26 1 
632 1.22576 5.87154 0.00732522 0.00448027 5.87154 37.5066 26 1 
634 1.22576 5.87178 0.00784962 0.00496965 5.87179 37.5 26 1 
636 1.22576 5.87203 0.0083832 0.00546 5.87204 37.4921 26 1 
638 1.22575 5.87219 0.00892213 0.00595431 5.8722 37.4851 26 1 
640 1.22575 5.87232 0.0094815 0.0064603 5.87233 37.4794 26 1 
642 1.22575 5.87267 0.010038 0.00696223 5.87268 37.471 26 1 
644 1.22574 5.87288 0.010613 0.00747129 5.87289 37.4665 26 1 
646 1.22574 5.87302 0.0111847 0.00796878 5.87304 37.4621 26 1 
648 1.22573 5.87338 0.0117584 0.0084781 5.8734 37.4525 26 1 
650 1.22573 5.87357 0.0123412 0.00898557 5.87359 37.4499 26 1 
652 1.22573 5.87394 0.0129039 0.00946994 5.87396 37.4445 26 1 
654 1.22573 5.87426 0.0134792 0.00997204 5.87428 37.4378 26 1 
656 1.22572 5.87455 0.0140542 0.0104556 5.87458 37.4345 26 1 
658 1.22572 5.87508 0.0146032 0.0109104 5.87511 37.4291 26 1 
660 1.22572 5.87541 0.0151926 0.0114057 5.87544 37.4265 26 1 
662 1.22572 5.876 0.0157679 0.0118676 5.87603 37.4201 26 1 
664 1.22572 5.87653 0.0163369 0.0123259 5.87657 37.4174 26 1 
666 1.22571 5.87714 0.0169443 0.0128095 5.87718 37.4151 26 1 
668 1.22571 5.8778 0.0175145 0.0132528 5.87784 37.4104 26 1 
670 1.22571 5.87866 0.0181267 0.0137264 5.87871 37.406 26 1 
672 1.22571 5.87943 0.0187339 0.0141965 5.87948 37.4059 26 1 
672 1.22571 5.87943 0.0187339 0.0141965 5.87948 37.4059 27 1 
674 1.22571 5.88034 0.0193063 0.0146195 5.88039 37.4017 27 1 
676 1.2257 5.88147 0.0199557 0.0150886 5.88152 37.3967 27 1 
678 1.22571 5.88241 0.0205629 0.0155308 5.88247 37.3985 27 1 
680 1.2257 5.88378 0.021177 0.0159631 5.88384 37.3926 27 1 
682 1.2257 5.88497 0.0218442 0.0164356 5.88504 37.3911 27 1 
684 1.2257 5.88647 0.0224672 0.0168578 5.88653 37.3889 27 1 
686 1.2257 5.88792 0.0231404 0.0173201 5.88799 37.3877 27 1 
688 1.2257 5.88956 0.023835 0.0177933 5.88964 37.3845 27 1 
690 1.2257 5.89126 0.0245259 0.018251 5.89134 37.3832 27 1 
692 1.2257 5.89312 0.025284 0.0187712 5.89321 37.3812 27 1 
694 1.2257 5.89493 0.0259831 0.0192187 5.89502 37.3805 27 1 
696 1.22569 5.89686 0.0267615 0.0197295 5.89696 37.3787 27 1 
698 1.22569 5.89907 0.0275622 0.0202551 5.89917 37.375 27 1 
700 1.22569 5.90108 0.0283186 0.0207525 5.90118 37.3784 27 1 
702 1.22569 5.90325 0.0291834 0.0213156 5.90336 37.3756 27 1 
704 1.22569 5.90548 0.0300756 0.0219137 5.9056 37.3699 27 1 
704 1.22569 5.90548 0.0300756 0.0219137 5.9056 37.3699 31 1 
706 1.22569 5.90759 0.030914 0.0224436 5.90771 37.3733 31 1 
708 1.22569 5.90984 0.0318436 0.0230635 5.90998 37.3725 31 1 
710 1.22569 5.91215 0.0327935 0.0236975 5.91229 37.3663 31 1 
712 1.22569 5.9144 0.0337544 0.0243177 5.91454 37.3663 31 1 
714 1.22569 5.91635 0.0347189 0.0249745 5.91651 37.3704 31 1 
716 1.22568 5.91846 0.035821 0.0257138 5.91863 37.3604 31 1 
718 1.22568 5.92043 0.0368264 0.0263738 5.92061 37.3563 31 1 
720 1.22569 5.92228 0.0379367 0.0271213 5.92247 37.3629 31 1 
722 1.22568 5.92411 0.0390892 0.0278894 5.92431 37.3563 31 1 
724 1.22568 5.92573 0.0402551 0.0286871 5.92594 37.3468 31 1 
726 1.22568 5.92724 0.0414404 0.0295128 5.92746 37.35 31 1 
728 1.22568 5.92817 0.0426123 0.030324 5.9284 37.3512 31 1 
730 1.22567 5.92921 0.0439249 0.0312138 5.92945 37.3341 31 1 
732 1.22567 5.93024 0.0451283 0.0320625 5.9305 37.3301 31 1 
734 1.22567 5.93042 0.0463963 0.0329114 5.93069 37.3412 31 1 
736 1.22566 5.93074 0.0479029 0.0339643 5.93103 37.3232 31 1 
738 1.22565 5.93138 0.0491212 0.034881 5.93169 37.3033 31 1 
740 1.22566 5.93038 0.0505825 0.0359093 5.9307 37.3251 31 1 
742 1.22565 5.93001 0.0520898 0.0370188 5.93035 37.3045 31 1 
744 1.22564 5.92948 0.0533814 0.0379377 5.92985 37.2744 31 1 
746 1.22565 5.92814 0.0548871 0.0389973 5.92852 37.2904 31 1 
748 1.22564 5.92677 0.0566 0.0403873 5.92718 37.282 31 1 
750 1.22562 5.9254 0.0581805 0.0415519 5.92583 37.2431 31 1 
752 1.22561 5.92427 0.0595282 0.0425365 5.92472 37.2344 31 1 
752 1.22561 5.92427 0.0595282 0.0425365 5.92472 37.2344 31 1 
754 1.22562 5.92123 0.0612834 0.0439613 5.92171 37.2534 31 1 
756 1.22559 5.91973 0.0630813 0.0452973 5.92024 37.1983 31 1 
758 1.22558 5.91799 0.0643864 0.0462756 5.91853 37.1676 31 1 
760 1.22559 5.9147 0.0664783 0.0480737 5.91527 37.1949 31 1 
762 1.22556 5.91276 0.0683281 0.0495463 5.91337 37.1455 31 1 
764 1.22553 5.91165 0.0697399 0.0506197 5.91228 37.0837 31 1 
766 1.22555 5.90786 0.0716989 0.0522899 5.90853 37.1123 31 1 
768 1.22552 5.90672 0.0738205 0.0540831 5.90743 37.0608 31 1 
770 1.22548 5.90533 0.0752807 0.0551933 5.90607 36.9891 31 1 
772 1.22547 5.90319 0.0769481 0.0566917 5.90396 36.9798 31 1 
774 1.22545 5.90216 0.0790369 0.0584736 5.90298 36.9426 31 1 
776 1.2254 5.903 0.0811331 0.0602693 5.90387 36.8463 31 1 
778 1.22537 5.9045 0.0833072 0.0622957 5.90542 36.7921 31 1 
780 1.22536 5.90594 0.0853864 0.0641465 5.90691 36.7679 31 1 
782 1.22529 5.90915 0.0870081 0.0654977 5.91015 36.6562 31 1 
784 1.22522 5.91126 0.0880896 0.0666768 5.9123 36.5303 31 1 
786 1.22515 5.92141 0.0907057 0.0690939 5.92251 36.4042 31 1 
788 1.22515 5.92761 0.0937069 0.0715291 5.92878 36.3891 31 1 
790 1.22502 5.9419 0.0957852 0.0740092 5.94313 36.1523 31 1 
792 1.22491 5.95447 0.0971088 0.0756333 5.95574 35.9597 31 1 
794 1.22484 5.97065 0.100195 0.0777854 5.972 35.8328 31 1 
796 1.22471 5.99391 0.104823 0.0819005 5.99539 35.6007 31 1 
798 1.22459 6.01134 0.109251 0.0867857 6.01297 35.3754 31 1 
800 1.22448 6.02461 0.111494 0.089242 6.02631 35.1792 31 1 
