59.7727;r ;Density                 ;Velocity u              ;Velocity v              ;Velocity w              ;|Velocity|              ;Pressure                ;Distribution            ;Levels                  ;
0 1.20306 9.99892 -6.1844e-05 2.6865e-06 9.99892 -3.50067 1 1 
2 1.20309 9.99766 -8.94095e-05 -5.22509e-05 9.99766 -3.45135 1 1 
4 1.20309 9.9968 -0.000190327 -0.000180356 9.9968 -3.44434 1 1 
6 1.20309 9.99682 -0.00026589 -0.000267287 9.99682 -3.45077 1 1 
8 1.20311 9.99669 -0.000350486 -0.000359154 9.99669 -3.42235 1 1 
10 1.20311 9.99641 -0.000422277 -0.000426867 9.99641 -3.41845 1 1 
12 1.20311 9.99551 -0.000487885 -0.000508953 9.99551 -3.40643 1 1 
14 1.20311 9.99593 -0.000584209 -0.000613438 9.99593 -3.41657 1 1 
16 1.20313 9.99546 -0.000627887 -0.000674127 9.99546 -3.37536 1 1 
18 1.20314 9.99427 -0.000694884 -0.000746921 9.99427 -3.36378 1 1 
20 1.20313 9.99439 -0.000801577 -0.000853109 9.99439 -3.38562 1 1 
22 1.20316 9.99415 -0.000859396 -0.000929884 9.99415 -3.32407 1 1 
24 1.20317 9.99439 -0.000943806 -0.00102819 9.99439 -3.30443 1 1 
26 1.20317 9.99367 -0.00100532 -0.00108016 9.99367 -3.30569 1 1 
28 1.20318 9.99269 -0.00108043 -0.00115121 9.99269 -3.29632 1 1 
30 1.20318 9.9924 -0.00112502 -0.0012155 9.9924 -3.28814 1 1 
32 1.20321 9.99117 -0.00120738 -0.0013051 9.99117 -3.24138 1 1 
32 1.20321 9.99117 -0.00120738 -0.0013051 9.99117 -3.24138 1 1 
34 1.20321 9.99037 -0.00123718 -0.00134172 9.99037 -3.23119 1 1 
36 1.20322 9.98933 -0.00131891 -0.00142439 9.98933 -3.21893 1 1 
38 1.20322 9.9893 -0.00138614 -0.00150089 9.9893 -3.2145 1 1 
40 1.20324 9.98876 -0.00144098 -0.00158286 9.98876 -3.17548 1 1 
42 1.20326 9.98776 -0.00151048 -0.00165194 9.98776 -3.13959 1 1 
44 1.20326 9.98679 -0.00154717 -0.00167305 9.98679 -3.13788 1 1 
46 1.20328 9.98551 -0.00163813 -0.001774 9.98551 -3.10404 1 1 
48 1.20329 9.98529 -0.00171026 -0.00187722 9.98529 -3.08847 1 1 
50 1.20331 9.98535 -0.00172965 -0.00187465 9.98535 -3.05773 1 1 
52 1.20332 9.98414 -0.00178593 -0.0019447 9.98414 -3.03338 1 1 
54 1.20333 9.98266 -0.00186807 -0.00202646 9.98266 -3.02244 1 1 
56 1.20335 9.98283 -0.00190521 -0.00206386 9.98283 -2.98549 1 1 
58 1.20337 9.98235 -0.0020061 -0.00219086 9.98235 -2.94838 1 1 
60 1.20338 9.98162 -0.00204753 -0.00224949 9.98162 -2.93074 1 1 
62 1.2034 9.98066 -0.00211453 -0.00232592 9.98066 -2.89791 1 1 
64 1.20341 9.98031 -0.00217021 -0.00237874 9.98031 -2.87319 1 1 
64 1.20341 9.98031 -0.00217021 -0.00237874 9.98031 -2.87319 2 1 
66 1.20343 9.97978 -0.00221891 -0.00245487 9.97978 -2.82914 2 1 
68 1.20343 9.98002 -0.00228372 -0.00253674 9.98002 -2.82686 2 1 
70 1.20346 9.97884 -0.00236184 -0.00262853 9.97884 -2.78021 2 1 
72 1.20349 9.97745 -0.00243888 -0.00271997 9.97745 -2.73637 2 1 
74 1.20349 9.97717 -0.00249826 -0.002782 9.97717 -2.7324 2 1 
76 1.20352 9.97638 -0.00255503 -0.00287769 9.97638 -2.66514 2 1 
78 1.20353 9.97691 -0.00261987 -0.00293873 9.97691 -2.65808 2 1 
80 1.20355 9.97591 -0.00272176 -0.00305174 9.97591 -2.62516 2 1 
82 1.20357 9.97489 -0.00282072 -0.00319719 9.97489 -2.57942 2 1 
84 1.20359 9.97431 -0.00287947 -0.00324392 9.97431 -2.54549 2 1 
86 1.20361 9.97342 -0.00295096 -0.00330304 9.97342 -2.50266 2 1 
88 1.20362 9.973 -0.0030828 -0.00346112 9.973 -2.48576 2 1 
90 1.20364 9.97221 -0.00311992 -0.00353249 9.97221 -2.44743 2 1 
92 1.20366 9.97111 -0.00320644 -0.00361795 9.97111 -2.41256 2 1 
94 1.20369 9.96998 -0.00330626 -0.00372384 9.96998 -2.36796 2 1 
96 1.20371 9.96956 -0.00339031 -0.00382808 9.96956 -2.3232 2 1 
96 1.20371 9.96956 -0.00339031 -0.00382808 9.96956 -2.3232 2 1 
98 1.20373 9.96995 -0.00354531 -0.00397073 9.96995 -2.2943 2 1 
100 1.20375 9.96947 -0.00360041 -0.00402807 9.96947 -2.25474 2 1 
102 1.20377 9.96836 -0.0036846 -0.00414825 9.96836 -2.22362 2 1 
104 1.2038 9.96671 -0.00377533 -0.00425868 9.96671 -2.17316 2 1 
106 1.20382 9.96575 -0.00376151 -0.00424016 9.96575 -2.13971 2 1 
108 1.20384 9.96415 -0.00385806 -0.0043373 9.96415 -2.09098 2 1 
110 1.20385 9.96387 -0.00392768 -0.00442947 9.96387 -2.07303 2 1 
112 1.20387 9.96391 -0.00399695 -0.00452243 9.96391 -2.04141 2 1 
114 1.20391 9.96216 -0.00408709 -0.00461871 9.96217 -1.96704 2 1 
116 1.20393 9.96267 -0.00419347 -0.0047398 9.96267 -1.9406 2 1 
118 1.20396 9.96221 -0.00426863 -0.00483891 9.96222 -1.8873 2 1 
120 1.20399 9.96041 -0.00436506 -0.00493849 9.96042 -1.83018 2 1 
122 1.20399 9.95984 -0.00448809 -0.00506669 9.95984 -1.83071 2 1 
124 1.20401 9.95781 -0.00457311 -0.00518125 9.95781 -1.78979 2 1 
126 1.20406 9.95612 -0.00472321 -0.00535312 9.95612 -1.69685 2 1 
128 1.20405 9.95706 -0.00479511 -0.00542539 9.95706 -1.70742 2 1 
128 1.20405 9.95706 -0.00479511 -0.00542539 9.95706 -1.70742 10 1 
130 1.20409 9.95625 -0.00491049 -0.00557521 9.95625 -1.64679 10 1 
132 1.20412 9.9563 -0.00500911 -0.00568219 9.9563 -1.58329 10 1 
134 1.20414 9.95564 -0.0051425 -0.0058304 9.95564 -1.55686 10 1 
136 1.20417 9.95289 -0.00524341 -0.00594333 9.95289 -1.49658 10 1 
138 1.20418 9.95201 -0.00534155 -0.00604698 9.95201 -1.48695 10 1 
140 1.20421 9.95175 -0.00549146 -0.00623198 9.95175 -1.42131 10 1 
142 1.20424 9.9516 -0.00560649 -0.00632567 9.95161 -1.37344 10 1 
144 1.20426 9.95131 -0.00570803 -0.00646611 9.95132 -1.3351 10 1 
146 1.2043 9.95069 -0.00584994 -0.00661794 9.95069 -1.2592 10 1 
148 1.20432 9.94866 -0.00602655 -0.00680628 9.94867 -1.22766 10 1 
150 1.20432 9.94751 -0.00612681 -0.00695369 9.94752 -1.23014 10 1 
152 1.20436 9.94678 -0.00624758 -0.00707908 9.94679 -1.15681 10 1 
154 1.2044 9.9461 -0.00635618 -0.00718451 9.9461 -1.08538 10 1 
156 1.20442 9.94642 -0.00652939 -0.00738331 9.94642 -1.05422 10 1 
158 1.20446 9.94521 -0.00666007 -0.00755453 9.94522 -0.983314 10 1 
160 1.20448 9.94294 -0.00675305 -0.00767524 9.94295 -0.931633 10 1 
160 1.20448 9.94294 -0.00675305 -0.00767524 9.94295 -0.931633 10 1 
162 1.20448 9.94283 -0.00690843 -0.00785791 9.94283 -0.943943 10 1 
164 1.20451 9.94135 -0.00706988 -0.00801038 9.94136 -0.879569 10 1 
166 1.20458 9.93886 -0.00723829 -0.00820242 9.93886 -0.758472 10 1 
168 1.20457 9.94045 -0.00737151 -0.00835618 9.94046 -0.777727 10 1 
170 1.20461 9.93826 -0.00750083 -0.00849172 9.93826 -0.702765 10 1 
172 1.20464 9.93742 -0.00766 -0.00865789 9.93743 -0.648048 10 1 
174 1.20464 9.93844 -0.00774366 -0.00879007 9.93845 -0.651008 10 1 
176 1.20471 9.93524 -0.00787115 -0.00889134 9.93525 -0.516812 10 1 
178 1.20473 9.93478 -0.00797191 -0.00901481 9.93478 -0.49537 10 1 
180 1.20475 9.93325 -0.00811988 -0.0092179 9.93326 -0.450589 10 1 
182 1.20478 9.93001 -0.00828201 -0.00938676 9.93002 -0.392385 10 1 
184 1.20479 9.92891 -0.00841182 -0.00954355 9.92892 -0.3881 10 1 
186 1.20485 9.9291 -0.00851305 -0.0096365 9.9291 -0.267633 10 1 
188 1.20489 9.92854 -0.00860195 -0.00971065 9.92855 -0.204818 10 1 
190 1.20489 9.92769 -0.00877823 -0.00988221 9.9277 -0.199943 10 1 
192 1.20492 9.92682 -0.00873059 -0.00987644 9.92683 -0.145003 10 1 
194 1.20497 9.92305 -0.00893297 -0.0100912 9.92306 -0.0550542 10 1 
196 1.205 9.92005 -0.00912523 -0.0102658 9.92006 0.00524854 10 1 
198 1.20502 9.91934 -0.00914029 -0.0102564 9.91935 0.0447789 10 1 
200 1.20508 9.91722 -0.00933323 -0.0104775 9.91723 0.151925 10 1 
202 1.2051 9.91644 -0.00928245 -0.0105007 9.91646 0.176852 10 1 
204 1.20509 9.91664 -0.00934285 -0.0105308 9.91665 0.158958 10 1 
206 1.20519 9.91284 -0.00964052 -0.0108061 9.91285 0.344019 10 1 
208 1.20525 9.91128 -0.00972272 -0.0108442 9.91129 0.447693 10 1 
210 1.20523 9.91158 -0.00970903 -0.0108329 9.9116 0.406744 10 1 
212 1.20531 9.90426 -0.00986648 -0.0110537 9.90427 0.565083 10 1 
214 1.20531 9.89949 -0.00992789 -0.0111112 9.8995 0.56156 10 1 
216 1.20532 9.89604 -0.0100214 -0.0111796 9.89605 0.579648 10 1 
218 1.20543 9.89111 -0.010223 -0.0113714 9.89113 0.773414 10 1 
220 1.20546 9.89498 -0.0103127 -0.0115132 9.89499 0.83727 10 1 
222 1.20553 9.89464 -0.0103353 -0.0115276 9.89465 0.959012 10 1 
224 1.20555 9.88858 -0.0103144 -0.0114114 9.88859 0.999373 10 1 
224 1.20555 9.88858 -0.0103144 -0.0114114 9.88859 0.999373 10 1 
226 1.2056 9.88298 -0.0103964 -0.0115068 9.883 1.08769 10 1 
228 1.20566 9.87273 -0.0105812 -0.0117396 9.87275 1.1875 10 1 
230 1.20569 9.86511 -0.0107611 -0.0119314 9.86513 1.24376 10 1 
232 1.20574 9.86582 -0.0107642 -0.0119175 9.86583 1.33355 10 1 
234 1.20583 9.86275 -0.0107209 -0.0118059 9.86276 1.5036 10 1 
236 1.20596 9.85364 -0.0108082 -0.0119226 9.85365 1.72546 10 1 
238 1.20591 9.8504 -0.0109041 -0.0120388 9.85041 1.64505 10 1 
240 1.20606 9.8375 -0.0111062 -0.0122405 9.83752 1.91162 10 1 
242 1.20612 9.82811 -0.0111296 -0.0122627 9.82813 2.02592 10 1 
244 1.20609 9.82621 -0.011114 -0.0122415 9.82622 1.97251 10 1 
246 1.20634 9.81352 -0.0112048 -0.0123123 9.81354 2.42329 10 1 
248 1.20641 9.80297 -0.0110573 -0.0121484 9.80298 2.54515 10 1 
250 1.20644 9.78927 -0.0112217 -0.0123349 9.78929 2.60316 10 1 
252 1.20654 9.77627 -0.0115604 -0.0126603 9.77629 2.78332 10 1 
254 1.2067 9.76281 -0.0114399 -0.0125069 9.76282 3.07016 10 1 
256 1.20682 9.74762 -0.0114328 -0.0125283 9.74764 3.29293 10 1 
256 1.20682 9.74762 -0.0114328 -0.0125283 9.74764 3.29293 11 1 
258 1.20693 9.7299 -0.0116434 -0.0127742 9.72991 3.47725 11 1 
260 1.20717 9.70974 -0.0117712 -0.0128848 9.70976 3.9242 11 1 
262 1.20733 9.68589 -0.0118774 -0.0129736 9.68591 4.20671 11 1 
264 1.20735 9.66223 -0.0118957 -0.01298 9.66225 4.23608 11 1 
266 1.20762 9.63713 -0.0119712 -0.0130772 9.63715 4.73411 11 1 
268 1.20808 9.59604 -0.0120653 -0.0131795 9.59607 5.56215 11 1 
270 1.20806 9.5668 -0.0122177 -0.013287 9.56683 5.52992 11 1 
272 1.20835 9.52347 -0.0123177 -0.013366 9.52351 6.05859 11 1 
274 1.20894 9.46638 -0.0123995 -0.0134923 9.46641 7.12163 11 1 
276 1.20902 9.42465 -0.012474 -0.0135468 9.42468 7.25378 11 1 
278 1.20945 9.36308 -0.0126131 -0.0136775 9.3631 8.03923 11 1 
280 1.21018 9.29885 -0.0127212 -0.0137638 9.2989 9.36374 11 1 
282 1.2107 9.21613 -0.0127418 -0.013775 9.2163 10.3042 11 1 
284 1.21113 9.09493 -0.0127951 -0.0138739 9.09523 11.0695 11 1 
286 1.21166 8.97111 -0.0128963 -0.0139466 8.9713 12.028 11 1 
288 1.21255 8.85628 -0.0129927 -0.0140433 8.85632 13.636 11 1 
288 1.21255 8.85628 -0.0129927 -0.0140433 8.85632 13.636 11 1 
290 1.21361 8.74872 -0.0130634 -0.0141356 8.74878 15.543 11 1 
292 1.21448 8.60912 -0.0132135 -0.0142865 8.60934 17.1301 11 1 
294 1.21522 8.42477 -0.0132105 -0.0142883 8.42527 18.4607 11 1 
296 1.21623 8.23122 -0.0131586 -0.0142203 8.2316 20.2792 11 1 
298 1.21072 7.99343 -0.0131308 -0.0141811 7.99363 10.3342 11 1 
300 1.20113 7.88692 -0.0130422 -0.0141012 7.88716 -6.99455 11 1 
302 1.19804 7.83822 -0.0131805 -0.0142297 7.83835 -12.5797 11 1 
304 1.19884 7.67539 -0.0132361 -0.0142487 7.67561 -11.1204 11 1 
306 1.1998 7.49997 -0.0131646 -0.014167 7.50029 -9.38487 11 1 
308 1.20056 7.33916 -0.0131151 -0.0140932 7.33951 -8.02425 11 1 
310 1.20105 7.21072 -0.0130344 -0.0139814 7.211 -7.1333 11 1 
312 1.20166 7.07641 -0.0130669 -0.0140194 7.07653 -6.04156 11 1 
314 1.20223 6.9741 -0.0132012 -0.014131 6.9742 -5.00632 11 1 
316 1.20269 6.89381 -0.013294 -0.0141929 6.89388 -4.176 11 1 
318 1.2031 6.79632 -0.0133306 -0.0142247 6.79639 -3.42522 11 1 
320 1.20343 6.72793 -0.0132881 -0.0141557 6.72799 -2.83599 11 1 
320 1.20343 6.72793 -0.0132881 -0.0141557 6.72799 -2.83599 15 1 
322 1.20376 6.67968 -0.0133973 -0.0142479 6.67972 -2.2392 15 1 
324 1.20411 6.61743 -0.0135099 -0.0143527 6.61746 -1.60879 15 1 
326 1.20438 6.56644 -0.0134505 -0.0142713 6.56648 -1.12493 15 1 
328 1.20459 6.52038 -0.0134047 -0.0142029 6.52043 -0.740195 15 1 
330 1.20475 6.47326 -0.0134662 -0.0142399 6.47331 -0.456414 15 1 
332 1.205 6.44194 -0.0134806 -0.0142411 6.44199 -0.00379076 15 1 
334 1.20525 6.40217 -0.0134199 -0.0141743 6.40221 0.459407 15 1 
336 1.20527 6.35198 -0.0134058 -0.0141316 6.35203 0.495541 15 1 
338 1.20536 6.31916 -0.0134369 -0.0141413 6.31922 0.656391 15 1 
340 1.20563 6.2946 -0.0135491 -0.0142568 6.29465 1.13939 15 1 
342 1.20577 6.26731 -0.0135854 -0.014272 6.26736 1.39804 15 1 
344 1.2058 6.23225 -0.0135685 -0.0142223 6.2323 1.45075 15 1 
346 1.20585 6.1947 -0.013672 -0.0143267 6.19474 1.52936 15 1 
348 1.20601 6.18084 -0.0139133 -0.0145761 6.18089 1.82225 15 1 
350 1.20619 6.17248 -0.014062 -0.014706 6.17253 2.14177 15 1 
352 1.2062 6.14433 -0.014124 -0.0147504 6.14438 2.15949 15 1 
354 1.20624 6.12229 -0.0142491 -0.0148837 6.12233 2.23446 15 1 
356 1.20637 6.11261 -0.0145156 -0.0151652 6.11264 2.46915 15 1 
358 1.20644 6.10302 -0.0147382 -0.0153634 6.10306 2.60715 15 1 
360 1.20652 6.09722 -0.0148172 -0.0154238 6.09726 2.75094 15 1 
362 1.2066 6.08889 -0.014883 -0.0155169 6.08893 2.89281 15 1 
364 1.20666 6.07835 -0.0150636 -0.0157014 6.07839 2.99257 15 1 
366 1.20671 6.07307 -0.015262 -0.0158687 6.07311 3.09504 15 1 
368 1.20678 6.07113 -0.0153556 -0.0159677 6.07118 3.21614 15 1 
370 1.20688 6.07226 -0.0153841 -0.0160086 6.0723 3.39418 15 1 
372 1.20693 6.06908 -0.0155069 -0.0161068 6.06912 3.49243 15 1 
374 1.20695 6.06146 -0.0156541 -0.0162377 6.0615 3.5304 15 1 
376 1.20702 6.06003 -0.0156711 -0.0162558 6.06008 3.65512 15 1 
378 1.20709 6.06054 -0.0156765 -0.0162578 6.06058 3.78188 15 1 
380 1.20716 6.06092 -0.0157417 -0.0163173 6.06097 3.90871 15 1 
382 1.20722 6.06066 -0.0158249 -0.0163905 6.0607 4.01223 15 1 
384 1.20724 6.05339 -0.0158974 -0.0164445 6.05343 4.04868 15 1 
384 1.20724 6.05339 -0.0158974 -0.0164445 6.05343 4.04868 16 1 
386 1.20729 6.04865 -0.0159288 -0.016476 6.04869 4.13985 16 1 
388 1.20735 6.05029 -0.0159779 -0.0165283 6.05034 4.25365 16 1 
390 1.2074 6.04846 -0.0160967 -0.0166245 6.0485 4.33997 16 1 
392 1.20746 6.04372 -0.0161657 -0.0166925 6.04377 4.43577 16 1 
394 1.20749 6.03754 -0.0161963 -0.0167545 6.03759 4.50032 16 1 
396 1.20753 6.03114 -0.0162579 -0.0168053 6.03118 4.56085 16 1 
398 1.20758 6.02835 -0.0163709 -0.0168902 6.02839 4.65172 16 1 
400 1.20763 6.0252 -0.016513 -0.0170533 6.02525 4.75375 16 1 
402 1.20767 6.01858 -0.0166646 -0.0172195 6.01863 4.82815 16 1 
404 1.20768 6.00997 -0.016708 -0.0172394 6.01002 4.84509 16 1 
406 1.20772 6.00261 -0.0166787 -0.0172146 6.00266 4.90609 16 1 
408 1.20778 5.99873 -0.0167812 -0.0173387 5.99878 5.02193 16 1 
410 1.20782 5.99315 -0.0169968 -0.0175691 5.9932 5.08996 16 1 
412 1.20785 5.98468 -0.0170082 -0.0176047 5.98473 5.14638 16 1 
414 1.20789 5.97753 -0.0167989 -0.0174067 5.97758 5.22077 16 1 
416 1.20793 5.97035 -0.0167186 -0.0173312 5.9704 5.28734 16 1 
416 1.20793 5.97035 -0.0167186 -0.0173312 5.9704 5.28734 16 1 
418 1.20796 5.96329 -0.0169813 -0.0176135 5.96334 5.34888 16 1 
420 1.20799 5.95732 -0.0174314 -0.0180669 5.95737 5.4048 16 1 
422 1.20803 5.95018 -0.0177919 -0.0184062 5.95023 5.47435 16 1 
424 1.20806 5.9424 -0.0178863 -0.0184931 5.94246 5.53374 16 1 
426 1.20808 5.93426 -0.0178127 -0.0184331 5.93432 5.56498 16 1 
428 1.20811 5.9266 -0.0177647 -0.0183796 5.92666 5.62345 16 1 
430 1.20816 5.92147 -0.0178374 -0.0184286 5.92153 5.71147 16 1 
432 1.2082 5.91549 -0.0180004 -0.0185768 5.91555 5.78452 16 1 
434 1.20823 5.90692 -0.0181829 -0.0187567 5.90698 5.82986 16 1 
436 1.20825 5.89904 -0.0183597 -0.0189292 5.8991 5.87507 16 1 
438 1.20829 5.89293 -0.0185169 -0.0190852 5.89299 5.94283 16 1 
440 1.20832 5.88765 -0.0186572 -0.0192169 5.88771 6.00522 16 1 
442 1.20835 5.88162 -0.0188166 -0.0193736 5.88168 6.05366 16 1 
444 1.20838 5.87442 -0.0189548 -0.0195386 5.87449 6.09792 16 1 
446 1.2084 5.86812 -0.0190568 -0.0196511 5.86819 6.13631 16 1 
448 1.20843 5.86324 -0.0191546 -0.0197357 5.8633 6.19429 16 1 
448 1.20843 5.86324 -0.0191546 -0.0197357 5.8633 6.19429 17 1 
450 1.20847 5.85911 -0.0192192 -0.0198139 5.85918 6.27165 17 1 
452 1.20851 5.85531 -0.0192614 -0.019892 5.85538 6.34217 17 1 
454 1.20855 5.85081 -0.0193447 -0.0199833 5.85088 6.40775 17 1 
456 1.20858 5.84619 -0.0194127 -0.0200454 5.84626 6.46521 17 1 
458 1.20861 5.84263 -0.0194125 -0.0200658 5.84269 6.51385 17 1 
460 1.20864 5.8398 -0.0194304 -0.0201006 5.83987 6.56981 17 1 
462 1.20867 5.83728 -0.0194949 -0.0201577 5.83735 6.63204 17 1 
464 1.2087 5.83408 -0.0195399 -0.0202076 5.83415 6.6838 17 1 
466 1.20872 5.83039 -0.0195544 -0.0202303 5.83045 6.72356 17 1 
468 1.20875 5.82808 -0.0195976 -0.0202614 5.82815 6.77452 17 1 
470 1.20879 5.82671 -0.0196476 -0.0203031 5.82678 6.83968 17 1 
472 1.20882 5.82497 -0.0196799 -0.0203214 5.82504 6.90174 17 1 
474 1.20886 5.82319 -0.0197209 -0.0203502 5.82326 6.96538 17 1 
476 1.20889 5.82134 -0.0197754 -0.0203959 5.82141 7.02825 17 1 
478 1.20893 5.8199 -0.0198404 -0.020421 5.81997 7.08996 17 1 
480 1.20896 5.81942 -0.0199291 -0.0204738 5.81949 7.15781 17 1 
480 1.20896 5.81942 -0.0199291 -0.0204738 5.81949 7.15781 17 1 
482 1.20899 5.81876 -0.020002 -0.0205376 5.81883 7.21228 17 1 
484 1.20902 5.81753 -0.0200446 -0.0205584 5.8176 7.25272 17 1 
486 1.20904 5.81643 -0.02012 -0.0205747 5.8165 7.30001 17 1 
488 1.20907 5.81572 -0.0202161 -0.0206205 5.8158 7.35576 17 1 
490 1.20911 5.81581 -0.020291 -0.0206818 5.81588 7.41561 17 1 
492 1.20914 5.81626 -0.020395 -0.0207496 5.81633 7.47541 17 1 
494 1.20917 5.81618 -0.0205265 -0.0208066 5.81625 7.53326 17 1 
496 1.2092 5.81604 -0.0205969 -0.0208382 5.81611 7.59025 17 1 
498 1.20923 5.81639 -0.0206305 -0.0208503 5.81646 7.64934 17 1 
500 1.20927 5.81739 -0.0207345 -0.0208838 5.81746 7.71628 17 1 
502 1.20931 5.81863 -0.0208684 -0.0209597 5.8187 7.78381 17 1 
504 1.20934 5.81914 -0.0209678 -0.021032 5.81921 7.83507 17 1 
506 1.20936 5.81954 -0.0210468 -0.0210525 5.81961 7.87548 17 1 
508 1.20939 5.82082 -0.0211313 -0.0210595 5.8209 7.9255 17 1 
510 1.20942 5.82251 -0.0212199 -0.0210961 5.82258 7.98439 17 1 
512 1.20945 5.82419 -0.0213146 -0.0211404 5.82427 8.04547 17 1 
512 1.20945 5.82419 -0.0213146 -0.0211404 5.82427 8.04547 25 1 
514 1.20949 5.82595 -0.0214245 -0.0211737 5.82603 8.10907 25 1 
516 1.20952 5.82782 -0.0215139 -0.0211981 5.8279 8.16975 25 1 
518 1.20956 5.82991 -0.0215918 -0.0212224 5.82999 8.22809 25 1 
520 1.20959 5.83244 -0.0216967 -0.0212425 5.83252 8.2905 25 1 
522 1.20963 5.83547 -0.0218025 -0.0212625 5.83555 8.36074 25 1 
524 1.20967 5.83871 -0.021896 -0.0212848 5.83879 8.42906 25 1 
526 1.2097 5.84175 -0.0219928 -0.0212699 5.84183 8.48901 25 1 
528 1.20974 5.84504 -0.0220818 -0.0212401 5.84512 8.55399 25 1 
530 1.20978 5.84899 -0.0221617 -0.0212357 5.84907 8.63164 25 1 
532 1.20983 5.85313 -0.0222762 -0.0212474 5.85321 8.7165 25 1 
534 1.20987 5.85756 -0.0224006 -0.0212489 5.85764 8.79989 25 1 
536 1.20992 5.86233 -0.022506 -0.0212502 5.86241 8.88146 25 1 
538 1.20996 5.86731 -0.0225936 -0.021228 5.86739 8.96311 25 1 
540 1.21001 5.87259 -0.0226518 -0.0211511 5.87267 9.05059 25 1 
542 1.21006 5.87792 -0.0227069 -0.0210688 5.878 9.14038 25 1 
544 1.21011 5.88319 -0.022769 -0.0209924 5.88328 9.22288 25 1 
544 1.21011 5.88319 -0.022769 -0.0209924 5.88328 9.22288 25 1 
546 1.21015 5.88839 -0.0228406 -0.0209203 5.88848 9.30982 25 1 
548 1.21021 5.89388 -0.0229334 -0.0208725 5.89396 9.4089 25 1 
550 1.21027 5.89997 -0.0230464 -0.0208338 5.90006 9.51757 25 1 
552 1.21033 5.90646 -0.0231488 -0.0207775 5.90654 9.6238 25 1 
554 1.21038 5.91296 -0.023218 -0.0206877 5.91304 9.72239 25 1 
556 1.21043 5.91915 -0.0232527 -0.0205436 5.91923 9.81475 25 1 
558 1.21048 5.9246 -0.023248 -0.0203577 5.92468 9.89344 25 1 
560 1.21052 5.92966 -0.0232721 -0.0202006 5.92974 9.97153 25 1 
562 1.21057 5.93505 -0.0233772 -0.0201193 5.93513 10.0676 25 1 
564 1.21063 5.94067 -0.0235519 -0.020112 5.94075 10.1716 25 1 
566 1.21068 5.94634 -0.0237493 -0.0201287 5.94642 10.2629 25 1 
568 1.21072 5.95182 -0.023918 -0.0201058 5.9519 10.3321 25 1 
570 1.21075 5.95712 -0.0240193 -0.0199991 5.9572 10.3891 25 1 
572 1.21079 5.96243 -0.0240613 -0.0198355 5.96251 10.4604 25 1 
574 1.21084 5.96734 -0.0241247 -0.0196903 5.96743 10.5492 25 1 
576 1.21089 5.97156 -0.0242544 -0.0196051 5.97164 10.6342 25 1 
576 1.21089 5.97156 -0.0242544 -0.0196051 5.97164 10.6342 26 1 
578 1.21092 5.97515 -0.024464 -0.0196075 5.97524 10.7017 26 1 
580 1.21095 5.9787 -0.0247545 -0.0196947 5.97879 10.7539 26 1 
582 1.21098 5.98287 -0.0250526 -0.0197865 5.98296 10.8079 26 1 
584 1.21102 5.98772 -0.0253218 -0.0198391 5.98781 10.8695 26 1 
586 1.21106 5.9928 -0.0255282 -0.0198264 5.99288 10.9434 26 1 
588 1.21111 5.99771 -0.025661 -0.0197275 5.9978 11.0305 26 1 
590 1.21115 6.00177 -0.0257594 -0.0195847 6.00186 11.1094 26 1 
592 1.21118 6.00454 -0.0258662 -0.0194545 6.00462 11.1683 26 1 
594 1.21121 6.00669 -0.0260331 -0.019374 6.00678 11.2145 26 1 
596 1.21124 6.00862 -0.0262726 -0.0193723 6.0087 11.2696 26 1 
598 1.21128 6.01108 -0.0265887 -0.0194463 6.01117 11.3418 26 1 
600 1.21132 6.01474 -0.0269484 -0.0195496 6.01483 11.4226 26 1 
602 1.21137 6.01907 -0.0272676 -0.0196083 6.01917 11.4988 26 1 
604 1.2114 6.02331 -0.0274861 -0.0195611 6.02341 11.5552 26 1 
606 1.21142 6.02693 -0.02757 -0.0193663 6.02702 11.604 26 1 
608 1.21146 6.02966 -0.027594 -0.0190954 6.02975 11.6603 26 1 
608 1.21146 6.02966 -0.027594 -0.0190954 6.02975 11.6603 26 1 
610 1.21149 6.03131 -0.0276297 -0.018838 6.03141 11.7204 26 1 
612 1.21152 6.03211 -0.0277564 -0.0186729 6.03221 11.7826 26 1 
614 1.21156 6.03285 -0.0280382 -0.0186609 6.03294 11.8442 26 1 
616 1.21159 6.03424 -0.0284494 -0.0187658 6.03433 11.9032 26 1 
618 1.21162 6.03693 -0.0289658 -0.0189733 6.03703 11.9503 26 1 
620 1.21164 6.0411 -0.0294506 -0.0191525 6.0412 11.9877 26 1 
622 1.21166 6.04682 -0.0298564 -0.0192262 6.04692 12.0288 26 1 
624 1.21169 6.0534 -0.030123 -0.019161 6.0535 12.0808 26 1 
626 1.21172 6.05953 -0.0302196 -0.0189266 6.05963 12.1452 26 1 
628 1.21176 6.06439 -0.030211 -0.0185668 6.0645 12.2054 26 1 
630 1.21178 6.06728 -0.0301702 -0.0181812 6.06738 12.2545 26 1 
632 1.21181 6.06863 -0.0302234 -0.017882 6.06873 12.2983 26 1 
634 1.21183 6.06907 -0.0304225 -0.0177145 6.06917 12.3406 26 1 
636 1.21186 6.06956 -0.0308267 -0.0177451 6.06967 12.3835 26 1 
638 1.21188 6.07146 -0.0314299 -0.0179752 6.07157 12.4275 26 1 
640 1.21191 6.07568 -0.0321476 -0.0182963 6.0758 12.4848 26 1 
642 1.21195 6.08298 -0.0329184 -0.0186689 6.0831 12.5515 26 1 
644 1.21198 6.09302 -0.0336256 -0.0189845 6.09314 12.6142 26 1 
646 1.21201 6.10497 -0.0341705 -0.0191316 6.1051 12.6658 26 1 
648 1.21203 6.11788 -0.0344692 -0.0190366 6.11801 12.7059 26 1 
650 1.21206 6.12999 -0.0344501 -0.0186255 6.13011 12.7513 26 1 
652 1.21209 6.13933 -0.0341158 -0.0179301 6.13945 12.8017 26 1 
654 1.21211 6.14401 -0.0335431 -0.0169957 6.14412 12.8508 26 1 
656 1.21214 6.1428 -0.0329107 -0.0160232 6.14291 12.8991 26 1 
658 1.21217 6.1365 -0.0324973 -0.0152679 6.1366 12.9492 26 1 
660 1.2122 6.12712 -0.0325994 -0.0149725 6.12723 13.0037 26 1 
662 1.21223 6.11782 -0.0333553 -0.0152784 6.11793 13.0537 26 1 
664 1.21224 6.11299 -0.0347919 -0.0162086 6.11311 13.0839 26 1 
666 1.21226 6.11595 -0.0366971 -0.0175469 6.11608 13.1115 26 1 
668 1.21229 6.12879 -0.0387334 -0.0189866 6.12895 13.1587 26 1 
670 1.21231 6.15199 -0.0405267 -0.0202233 6.15217 13.2039 26 1 
672 1.21234 6.18222 -0.041644 -0.0208334 6.1824 13.2553 26 1 
672 1.21234 6.18222 -0.041644 -0.0208334 6.1824 13.2553 27 1 
674 1.21237 6.21424 -0.0417056 -0.020502 6.21442 13.3059 27 1 
676 1.21239 6.24122 -0.0404589 -0.0190235 6.24139 13.3423 27 1 
678 1.21241 6.25508 -0.0381118 -0.0165643 6.25522 13.3889 27 1 
680 1.21243 6.25119 -0.035259 -0.0136812 6.25131 13.4288 27 1 
682 1.21246 6.22823 -0.0327149 -0.0111012 6.22834 13.4655 27 1 
684 1.21247 6.19044 -0.0311255 -0.00939377 6.19054 13.492 27 1 
686 1.21249 6.14411 -0.0307487 -0.00874203 6.14423 13.5258 27 1 
688 1.21251 6.09627 -0.0314992 -0.00904662 6.09638 13.5655 27 1 
690 1.21252 6.0533 -0.0330105 -0.00999076 6.05342 13.5865 27 1 
692 1.21254 6.01785 -0.034968 -0.0112536 6.01797 13.619 27 1 
694 1.21256 5.99254 -0.0369879 -0.0125416 5.99267 13.6491 27 1 
696 1.21258 5.97717 -0.038932 -0.0137313 5.97731 13.6882 27 1 
698 1.2126 5.97118 -0.040705 -0.0147401 5.97134 13.7301 27 1 
700 1.21263 5.97328 -0.0422245 -0.0155191 5.97345 13.7783 27 1 
702 1.21266 5.98199 -0.0435625 -0.0160991 5.98217 13.8326 27 1 
704 1.21268 5.9972 -0.0446539 -0.0164781 5.99739 13.8704 27 1 
704 1.21268 5.9972 -0.0446539 -0.0164781 5.99739 13.8704 31 1 
706 1.21272 6.01681 -0.0456199 -0.0167465 6.01701 13.9361 31 1 
708 1.21275 6.04104 -0.0464693 -0.0168917 6.04125 13.9941 31 1 
710 1.21277 6.06877 -0.0472225 -0.0169561 6.06899 14.0378 31 1 
712 1.2128 6.0992 -0.0478414 -0.0169114 6.09943 14.0908 31 1 
714 1.21283 6.13279 -0.0484397 -0.0168297 6.13301 14.1436 31 1 
716 1.21287 6.16817 -0.0489677 -0.0167172 6.1684 14.2134 31 1 
718 1.2129 6.2062 -0.0493775 -0.0165098 6.20644 14.2741 31 1 
720 1.21294 6.24554 -0.0498519 -0.0162814 6.24578 14.3391 31 1 
722 1.21297 6.28623 -0.0502085 -0.0160603 6.28646 14.3963 31 1 
724 1.213 6.32859 -0.0505407 -0.0158052 6.32882 14.4415 31 1 
726 1.21303 6.37177 -0.0509555 -0.0155299 6.37201 14.5052 31 1 
728 1.21306 6.41607 -0.0511829 -0.0151709 6.41631 14.5649 31 1 
730 1.21309 6.46113 -0.0514106 -0.0147991 6.46137 14.6122 31 1 
732 1.21312 6.50735 -0.0517132 -0.0145317 6.50759 14.6638 31 1 
734 1.21316 6.55409 -0.051913 -0.0141874 6.55433 14.7422 31 1 
736 1.2132 6.60143 -0.0521765 -0.0138551 6.60167 14.8057 31 1 
738 1.21322 6.64902 -0.0523876 -0.0134754 6.64926 14.847 31 1 
740 1.21325 6.6974 -0.0525023 -0.0130436 6.69764 14.895 31 1 
742 1.21329 6.74505 -0.0527522 -0.0127878 6.7453 14.9681 31 1 
744 1.21331 6.7941 -0.052956 -0.0124547 6.79434 15.0078 31 1 
746 1.21334 6.8432 -0.0530545 -0.0120366 6.84344 15.0585 31 1 
748 1.21338 6.89137 -0.0533196 -0.0117543 6.89161 15.1377 31 1 
750 1.2134 6.94066 -0.0534078 -0.0113104 6.9409 15.1688 31 1 
752 1.21342 6.98929 -0.0534867 -0.0109148 6.98952 15.2128 31 1 
752 1.21342 6.98929 -0.0534867 -0.0109148 6.98952 15.2128 31 1 
754 1.21347 7.03828 -0.0536659 -0.0106057 7.03852 15.2912 31 1 
756 1.21351 7.08672 -0.0537917 -0.0102144 7.08695 15.3683 31 1 
758 1.21353 7.13596 -0.0539147 -0.00984665 7.13619 15.3988 31 1 
760 1.21356 7.18399 -0.0541071 -0.00956336 7.18423 15.4658 31 1 
762 1.21361 7.23133 -0.0542927 -0.00925831 7.23156 15.5449 31 1 
764 1.21362 7.27981 -0.0543109 -0.00877029 7.28003 15.5726 31 1 
766 1.21367 7.32664 -0.0543891 -0.0084305 7.32687 15.654 31 1 
768 1.21372 7.37374 -0.0545438 -0.00818938 7.37397 15.7478 31 1 
770 1.21375 7.4193 -0.0545151 -0.00766365 7.41953 15.8131 31 1 
772 1.21377 7.466 -0.0546418 -0.00725719 7.46623 15.838 31 1 
774 1.21384 7.51139 -0.0551109 -0.00739481 7.51162 15.9614 31 1 
776 1.21389 7.5572 -0.055083 -0.00699256 7.55742 16.0655 31 1 
778 1.21393 7.60164 -0.0545527 -0.00588456 7.60185 16.121 31 1 
780 1.21397 7.64431 -0.0546496 -0.00572616 7.64452 16.209 31 1 
782 1.21403 7.68784 -0.05513 -0.00589285 7.68805 16.3095 31 1 
784 1.21408 7.73015 -0.055403 -0.00552215 7.73037 16.4067 31 1 
786 1.21412 7.77293 -0.0548482 -0.00483234 7.77314 16.4644 31 1 
788 1.21418 7.81317 -0.0545576 -0.00466243 7.81338 16.586 31 1 
790 1.21422 7.8567 -0.0550246 -0.0043395 7.85691 16.6534 31 1 
792 1.2143 7.89643 -0.0549251 -0.0037641 7.89664 16.7915 31 1 
794 1.21433 7.93938 -0.0538631 -0.00338227 7.93958 16.8507 31 1 
796 1.21437 7.98102 -0.0527771 -0.00203917 7.98121 16.923 31 1 
798 1.21437 8.02713 -0.0536488 -0.0018035 8.02734 16.9199 31 1 
800 1.21429 8.05808 -0.0546675 -0.00242523 8.05829 16.7728 31 1 
