62.4897;r ;Density                 ;Velocity u              ;Velocity v              ;Velocity w              ;|Velocity|              ;Pressure                ;Distribution            ;Levels                  ;
0 1.20427 9.99841 -8.00231e-05 -1.17114e-05 9.99841 -1.31197 1 1 
2 1.2043 9.99685 -0.000115251 -7.15753e-05 9.99685 -1.26095 1 1 
4 1.20431 9.9954 -0.000239389 -0.000217701 9.9954 -1.24718 1 1 
6 1.20431 9.99487 -0.00033446 -0.000321773 9.99487 -1.2436 1 1 
8 1.20433 9.99438 -0.000442406 -0.000437039 9.99438 -1.21085 1 1 
10 1.20433 9.99366 -0.000542942 -0.000533073 9.99366 -1.20721 1 1 
12 1.20435 9.99205 -0.000638043 -0.0006468 9.99205 -1.18271 1 1 
14 1.20435 9.99172 -0.000765033 -0.000777552 9.99172 -1.18066 1 1 
16 1.20437 9.99074 -0.000825717 -0.000848204 9.99074 -1.14709 1 1 
18 1.20437 9.98902 -0.000903325 -0.000932147 9.98902 -1.14373 1 1 
20 1.20436 9.98847 -0.00103289 -0.00106426 9.98847 -1.16466 1 1 
22 1.20439 9.98764 -0.00111833 -0.00116601 9.98764 -1.1007 1 1 
24 1.2044 9.9875 -0.00122702 -0.00128897 9.9875 -1.07854 1 1 
26 1.20441 9.98652 -0.00132607 -0.00138189 9.98652 -1.07278 1 1 
28 1.20442 9.985 -0.00143799 -0.00149329 9.985 -1.05111 1 1 
30 1.20442 9.98405 -0.00150309 -0.00158049 9.98405 -1.04383 1 1 
32 1.20444 9.98239 -0.00159677 -0.00167978 9.98239 -1.01989 1 1 
32 1.20444 9.98239 -0.00159677 -0.00167978 9.98239 -1.01989 1 1 
34 1.20443 9.98108 -0.00164054 -0.00173349 9.98108 -1.02542 1 1 
36 1.20444 9.97936 -0.00174511 -0.00184678 9.97936 -1.00522 1 1 
38 1.20445 9.97882 -0.00183443 -0.00194383 9.97882 -0.992272 1 1 
40 1.20447 9.97805 -0.00190652 -0.00203669 9.97805 -0.960831 1 1 
42 1.20448 9.9767 -0.00199527 -0.00212796 9.9767 -0.933869 1 1 
44 1.20448 9.97521 -0.00204808 -0.00216828 9.97521 -0.934305 1 1 
46 1.2045 9.9735 -0.00214768 -0.00227209 9.9735 -0.911387 1 1 
48 1.2045 9.97291 -0.00223637 -0.00238804 9.97291 -0.911113 1 1 
50 1.20451 9.97252 -0.00227227 -0.00240251 9.97252 -0.882104 1 1 
52 1.20453 9.97085 -0.00232862 -0.00246948 9.97085 -0.856716 1 1 
54 1.20453 9.96906 -0.00241609 -0.00255605 9.96906 -0.855255 1 1 
56 1.20454 9.96882 -0.00247654 -0.00261684 9.96882 -0.830638 1 1 
58 1.20455 9.96791 -0.00258649 -0.00274385 9.96791 -0.808649 1 1 
60 1.20455 9.96682 -0.00262721 -0.00278934 9.96682 -0.809151 1 1 
62 1.20457 9.96541 -0.0027027 -0.00287141 9.96541 -0.783076 1 1 
64 1.20458 9.96467 -0.00276101 -0.00292384 9.96467 -0.759752 1 1 
64 1.20458 9.96467 -0.00276101 -0.00292384 9.96467 -0.759752 2 1 
66 1.2046 9.96391 -0.00280862 -0.00299282 9.96391 -0.725488 2 1 
68 1.20459 9.96391 -0.00289311 -0.00308795 9.96391 -0.736023 2 1 
70 1.20461 9.96243 -0.00297886 -0.00318369 9.96243 -0.704853 2 1 
72 1.20462 9.96058 -0.00303317 -0.00324858 9.96058 -0.679038 2 1 
74 1.20462 9.95971 -0.00308255 -0.00329845 9.95971 -0.687444 2 1 
76 1.20465 9.9585 -0.0031414 -0.00339258 9.9585 -0.632424 2 1 
78 1.20465 9.95885 -0.00318472 -0.00342435 9.95885 -0.640536 2 1 
80 1.20466 9.95772 -0.00326291 -0.00350852 9.95772 -0.621453 2 1 
82 1.20467 9.95638 -0.0033534 -0.00364308 9.95638 -0.592239 2 1 
84 1.20468 9.95544 -0.00338776 -0.00365864 9.95544 -0.57489 2 1 
86 1.2047 9.95418 -0.00342913 -0.00367905 9.95418 -0.542867 2 1 
88 1.2047 9.95343 -0.00354148 -0.00381368 9.95343 -0.53932 2 1 
90 1.20471 9.95242 -0.00356891 -0.00387308 9.95242 -0.52213 2 1 
92 1.20472 9.95112 -0.00364151 -0.00394394 9.95112 -0.505181 2 1 
94 1.20474 9.9497 -0.00370797 -0.00401473 9.94971 -0.477809 2 1 
96 1.20475 9.9489 -0.00374731 -0.00406903 9.9489 -0.454462 2 1 
96 1.20475 9.9489 -0.00374731 -0.00406903 9.9489 -0.454462 2 1 
98 1.20475 9.94894 -0.0038656 -0.00417554 9.94894 -0.44715 2 1 
100 1.20476 9.94825 -0.00389331 -0.00420975 9.94825 -0.429688 2 1 
102 1.20477 9.94686 -0.00396419 -0.00431303 9.94686 -0.414244 2 1 
104 1.20479 9.94491 -0.00407966 -0.00444108 9.94492 -0.372917 2 1 
106 1.2048 9.94378 -0.00410879 -0.00446718 9.94378 -0.357933 2 1 
108 1.20481 9.94204 -0.00421695 -0.00457887 9.94205 -0.338134 2 1 
110 1.20481 9.94154 -0.00428872 -0.00466754 9.94155 -0.344598 2 1 
112 1.20482 9.9413 -0.00437882 -0.00477835 9.9413 -0.327318 2 1 
114 1.20485 9.93932 -0.00445992 -0.00486601 9.93933 -0.26892 2 1 
116 1.20485 9.93958 -0.00453185 -0.00495052 9.93958 -0.268155 2 1 
118 1.20487 9.93881 -0.00459477 -0.00502612 9.93881 -0.241911 2 1 
120 1.20488 9.93675 -0.00467401 -0.00510591 9.93676 -0.209839 2 1 
122 1.20487 9.93604 -0.00477726 -0.00522166 9.93604 -0.234233 2 1 
124 1.20488 9.93396 -0.0048728 -0.00534147 9.93396 -0.209802 2 1 
126 1.20493 9.93215 -0.0050287 -0.00550078 9.93216 -0.127384 2 1 
128 1.20491 9.93289 -0.00506778 -0.00553609 9.9329 -0.15456 2 1 
128 1.20491 9.93289 -0.00506778 -0.00553609 9.9329 -0.15456 10 1 
130 1.20493 9.93187 -0.00513718 -0.00564708 9.93187 -0.120503 10 1 
132 1.20495 9.93162 -0.00518092 -0.00568658 9.93162 -0.0905719 10 1 
134 1.20495 9.93066 -0.00523869 -0.00574288 9.93066 -0.0928312 10 1 
136 1.20497 9.92773 -0.00528978 -0.00581004 9.92773 -0.0480241 10 1 
138 1.20497 9.92674 -0.00536395 -0.00589738 9.92675 -0.0546554 10 1 
140 1.20499 9.92637 -0.00545949 -0.00601701 9.92638 -0.0139987 10 1 
142 1.205 9.92601 -0.00553942 -0.00606798 9.92602 0.0048274 10 1 
144 1.20501 9.92543 -0.00564444 -0.00621682 9.92544 0.0192519 10 1 
146 1.20504 9.92447 -0.00574383 -0.00631976 9.92447 0.0777275 10 1 
148 1.20505 9.92228 -0.00585559 -0.00642505 9.92228 0.0908525 10 1 
150 1.20504 9.9211 -0.0059525 -0.00656291 9.9211 0.0699958 10 1 
152 1.20507 9.92022 -0.00606224 -0.00668134 9.92023 0.118994 10 1 
154 1.20509 9.91928 -0.00610235 -0.00671619 9.91928 0.159499 10 1 
156 1.20509 9.91926 -0.00623739 -0.0068721 9.91926 0.163123 10 1 
158 1.20511 9.91778 -0.00635779 -0.00702682 9.91778 0.206725 10 1 
160 1.20513 9.91525 -0.00640425 -0.00709254 9.91526 0.23657 10 1 
160 1.20513 9.91525 -0.00640425 -0.00709254 9.91526 0.23657 10 1 
162 1.20512 9.91495 -0.00651591 -0.00722193 9.91496 0.210226 10 1 
164 1.20514 9.91347 -0.00666058 -0.00735117 9.91348 0.25656 10 1 
166 1.2052 9.9108 -0.006795 -0.00751175 9.91081 0.355142 10 1 
168 1.20517 9.91207 -0.00689322 -0.00763567 9.91207 0.307976 10 1 
170 1.2052 9.90972 -0.00701905 -0.00776763 9.90972 0.354253 10 1 
172 1.20522 9.90867 -0.007154 -0.00790823 9.90868 0.391867 10 1 
174 1.20521 9.90948 -0.00720265 -0.00800533 9.90949 0.373441 10 1 
176 1.20527 9.90609 -0.00734558 -0.00811829 9.90609 0.482593 10 1 
178 1.20526 9.90533 -0.00745588 -0.00825199 9.90533 0.477532 10 1 
180 1.20528 9.9035 -0.00758412 -0.00844542 9.90351 0.497634 10 1 
182 1.20529 9.89998 -0.00775838 -0.00863516 9.89998 0.531807 10 1 
184 1.20528 9.89885 -0.00792138 -0.00881799 9.89886 0.514393 10 1 
186 1.20534 9.89899 -0.00802547 -0.00890695 9.899 0.620414 10 1 
188 1.20537 9.89809 -0.00812207 -0.0090035 9.8981 0.677265 10 1 
190 1.20537 9.89695 -0.00833366 -0.00922547 9.89696 0.664104 10 1 
192 1.20538 9.89585 -0.00831076 -0.00923596 9.89586 0.682719 10 1 
194 1.20541 9.89163 -0.00853283 -0.0094639 9.89163 0.738167 10 1 
196 1.20543 9.88829 -0.00876653 -0.00970171 9.8883 0.77551 10 1 
198 1.20545 9.8877 -0.00881464 -0.00974014 9.88771 0.804414 10 1 
200 1.2055 9.88569 -0.00902062 -0.00995934 9.8857 0.9003 10 1 
202 1.2055 9.88466 -0.00900447 -0.0100071 9.88467 0.906997 10 1 
204 1.20548 9.88445 -0.00908521 -0.0100766 9.88446 0.86632 10 1 
206 1.20557 9.88034 -0.00938199 -0.0103696 9.88035 1.02122 10 1 
208 1.20561 9.8786 -0.00950876 -0.0104498 9.87861 1.09917 10 1 
210 1.20558 9.87882 -0.00953909 -0.0104761 9.87883 1.04233 10 1 
212 1.20566 9.87151 -0.00968528 -0.0106872 9.87152 1.18927 10 1 
214 1.20565 9.86667 -0.00976893 -0.010768 9.86669 1.17239 10 1 
216 1.20564 9.86292 -0.00993367 -0.0109041 9.86294 1.16496 10 1 
218 1.20573 9.85762 -0.0101381 -0.0110998 9.85763 1.3266 10 1 
220 1.20575 9.86127 -0.0101966 -0.0112185 9.86129 1.36242 10 1 
222 1.20581 9.86096 -0.0102688 -0.0112857 9.86097 1.46509 10 1 
224 1.20583 9.85486 -0.0103152 -0.0112283 9.85487 1.49906 10 1 
224 1.20583 9.85486 -0.0103152 -0.0112283 9.85487 1.49906 10 1 
226 1.20587 9.84919 -0.0103981 -0.0113219 9.84921 1.57787 10 1 
228 1.20592 9.83881 -0.0105871 -0.0115642 9.83883 1.65584 10 1 
230 1.20593 9.83079 -0.0108139 -0.0118048 9.83081 1.68434 10 1 
232 1.20597 9.83111 -0.0108758 -0.0118502 9.83112 1.74303 10 1 
234 1.20605 9.8279 -0.0108832 -0.0117974 9.82792 1.88958 10 1 
236 1.20616 9.81894 -0.0109964 -0.0119418 9.81895 2.09798 10 1 
238 1.20611 9.81575 -0.0111114 -0.0120717 9.81577 2.00621 10 1 
240 1.20625 9.80271 -0.0113668 -0.0123322 9.80273 2.25601 10 1 
242 1.2063 9.79307 -0.0114419 -0.0124198 9.79309 2.34644 10 1 
244 1.20626 9.79082 -0.0114507 -0.0124222 9.79084 2.26738 10 1 
246 1.20649 9.77792 -0.0116059 -0.0125501 9.77794 2.69377 10 1 
248 1.20655 9.76742 -0.0115477 -0.0124825 9.76744 2.79851 10 1 
250 1.20658 9.75393 -0.011699 -0.0126605 9.75395 2.84508 10 1 
252 1.20667 9.74087 -0.0120036 -0.0129458 9.74088 3.00958 10 1 
254 1.20681 9.72719 -0.0119852 -0.01289 9.72721 3.27495 10 1 
256 1.20692 9.71194 -0.0120168 -0.0129447 9.71196 3.47461 10 1 
256 1.20692 9.71194 -0.0120168 -0.0129447 9.71196 3.47461 11 1 
258 1.20701 9.6941 -0.0120831 -0.0130463 9.69411 3.63234 11 1 
260 1.20724 9.67379 -0.0121956 -0.0131447 9.67381 4.05337 11 1 
262 1.20739 9.64996 -0.0124371 -0.0133526 9.64999 4.31996 11 1 
264 1.2074 9.62649 -0.0123909 -0.0132831 9.62651 4.34169 11 1 
266 1.20767 9.60153 -0.0123665 -0.0132926 9.60155 4.82702 11 1 
268 1.20812 9.5605 -0.0125726 -0.0135028 9.56053 5.62989 11 1 
270 1.20809 9.53123 -0.0127027 -0.013568 9.53127 5.57333 11 1 
272 1.20836 9.48786 -0.0125918 -0.0134423 9.48789 6.0758 11 1 
274 1.20894 9.43085 -0.012664 -0.0135604 9.43088 7.10933 11 1 
276 1.209 9.38921 -0.0127978 -0.0136536 9.38923 7.22292 11 1 
278 1.20943 9.32791 -0.0128383 -0.0136948 9.32794 7.99486 11 1 
280 1.21015 9.26411 -0.0129144 -0.0137674 9.26416 9.30619 11 1 
282 1.21066 9.18168 -0.0129768 -0.013794 9.18186 10.2308 11 1 
284 1.21107 9.06073 -0.0129603 -0.0138055 9.06103 10.9683 11 1 
286 1.21158 8.93707 -0.0129849 -0.0138158 8.93725 11.8868 11 1 
288 1.21245 8.82241 -0.0130632 -0.0138847 8.82244 13.4573 11 1 
288 1.21245 8.82241 -0.0130632 -0.0138847 8.82244 13.4573 11 1 
290 1.2135 8.71529 -0.0130993 -0.0139243 8.71535 15.3441 11 1 
292 1.21437 8.57648 -0.0132176 -0.0140512 8.5767 16.925 11 1 
294 1.2151 8.39307 -0.0132003 -0.01404 8.39356 18.2442 11 1 
296 1.21609 8.20025 -0.0131218 -0.0139391 8.20063 20.0309 11 1 
298 1.21062 7.96314 -0.0130624 -0.013877 7.96334 10.1519 11 1 
300 1.20109 7.85618 -0.0129499 -0.0137738 7.85642 -7.05707 11 1 
302 1.19801 7.80699 -0.0130631 -0.0138691 7.80712 -12.6181 11 1 
304 1.19882 7.64507 -0.0131028 -0.0138783 7.64528 -11.1653 11 1 
306 1.19978 7.47072 -0.0130276 -0.0138026 7.47104 -9.4307 11 1 
308 1.20053 7.31062 -0.0129777 -0.0137351 7.31097 -8.08234 11 1 
310 1.201 7.18232 -0.0129005 -0.0136375 7.18259 -7.22122 11 1 
312 1.20159 7.04798 -0.0129377 -0.013693 7.0481 -6.16549 11 1 
314 1.20215 6.94577 -0.0130725 -0.0138165 6.94586 -5.1485 11 1 
316 1.20261 6.86581 -0.0131684 -0.0138928 6.86587 -4.31635 11 1 
318 1.20303 6.76873 -0.0132192 -0.0139528 6.76879 -3.56086 11 1 
320 1.20335 6.70041 -0.0132094 -0.0139337 6.70046 -2.9725 11 1 
320 1.20335 6.70041 -0.0132094 -0.0139337 6.70046 -2.9725 15 1 
322 1.20368 6.65189 -0.0133556 -0.0140755 6.65194 -2.38569 15 1 
324 1.20402 6.58932 -0.013498 -0.0142198 6.58936 -1.77423 15 1 
326 1.20428 6.53804 -0.0134753 -0.0141855 6.53808 -1.30459 15 1 
328 1.20449 6.49186 -0.0134656 -0.0141612 6.49191 -0.916913 15 1 
330 1.20466 6.44468 -0.0135594 -0.0142366 6.44474 -0.620849 15 1 
332 1.20491 6.4131 -0.013614 -0.0142821 6.41315 -0.168751 15 1 
334 1.20516 6.37295 -0.0135882 -0.0142515 6.37299 0.2853 15 1 
336 1.20518 6.32244 -0.0136043 -0.0142421 6.3225 0.324066 15 1 
338 1.20527 6.28932 -0.0136704 -0.0142948 6.28938 0.491397 15 1 
340 1.20554 6.26438 -0.013802 -0.0144382 6.26443 0.975227 15 1 
342 1.20569 6.23668 -0.0138419 -0.0144636 6.23673 1.23882 15 1 
344 1.20572 6.20121 -0.0138278 -0.0144194 6.20126 1.30078 15 1 
346 1.20577 6.16307 -0.0139242 -0.0145199 6.16312 1.38197 15 1 
348 1.20593 6.14839 -0.0141539 -0.0147646 6.14843 1.67186 15 1 
350 1.20611 6.13927 -0.0142949 -0.0148896 6.13932 2.00038 15 1 
352 1.20613 6.11049 -0.014331 -0.0149007 6.11053 2.04093 15 1 
354 1.20618 6.08757 -0.0144176 -0.0149888 6.08761 2.12819 15 1 
356 1.20631 6.0767 -0.0146483 -0.0152325 6.07673 2.36065 15 1 
358 1.20639 6.06578 -0.0148364 -0.0153928 6.06582 2.50351 15 1 
360 1.20647 6.05866 -0.014904 -0.0154348 6.0587 2.66124 15 1 
362 1.20656 6.04901 -0.0149881 -0.0155391 6.04905 2.81391 15 1 
364 1.20662 6.0371 -0.0151802 -0.0157304 6.03714 2.92432 15 1 
366 1.20668 6.03041 -0.015376 -0.015894 6.03045 3.04335 15 1 
368 1.20676 6.02693 -0.0154642 -0.0159887 6.02697 3.17685 15 1 
370 1.20686 6.02639 -0.0154628 -0.0160007 6.02643 3.35726 15 1 
372 1.20692 6.02164 -0.0155494 -0.0160616 6.02169 3.46679 15 1 
374 1.20696 6.01265 -0.0157022 -0.0161956 6.0127 3.53615 15 1 
376 1.20704 6.00981 -0.0157527 -0.0162432 6.00985 3.68834 15 1 
378 1.20711 6.00855 -0.0157813 -0.0162616 6.00859 3.81909 15 1 
380 1.20718 6.00695 -0.0158576 -0.0163241 6.007 3.94228 15 1 
382 1.20724 6.00482 -0.0159369 -0.0163882 6.00487 4.05495 15 1 
384 1.20728 5.99591 -0.0159886 -0.0164178 5.99596 4.11254 15 1 
384 1.20728 5.99591 -0.0159886 -0.0164178 5.99596 4.11254 16 1 
386 1.20734 5.98973 -0.0160147 -0.0164374 5.98978 4.23219 16 1 
388 1.20743 5.99007 -0.0160823 -0.0165006 5.99012 4.38397 16 1 
390 1.20749 5.98682 -0.0162107 -0.0166023 5.98687 4.50487 16 1 
392 1.20755 5.98026 -0.0162713 -0.016661 5.98031 4.60831 16 1 
394 1.20758 5.97192 -0.0162959 -0.0167137 5.97197 4.66187 16 1 
396 1.20762 5.96355 -0.0163385 -0.016741 5.9636 4.72865 16 1 
398 1.20769 5.9593 -0.0163687 -0.0167399 5.95935 4.85302 16 1 
400 1.20777 5.95496 -0.0163892 -0.0167798 5.95501 4.99699 16 1 
402 1.20783 5.94707 -0.0164912 -0.0168933 5.94712 5.10978 16 1 
404 1.20786 5.93698 -0.0166047 -0.0169751 5.93703 5.16021 16 1 
406 1.2079 5.92796 -0.0166451 -0.0170061 5.92801 5.24203 16 1 
408 1.20797 5.92249 -0.0166798 -0.0170491 5.92254 5.36121 16 1 
410 1.20801 5.91571 -0.0167849 -0.0171575 5.91577 5.43794 16 1 
412 1.20806 5.90648 -0.0168905 -0.0172686 5.90653 5.52724 16 1 
414 1.20812 5.89864 -0.0170161 -0.0173788 5.89869 5.64192 16 1 
416 1.20818 5.89065 -0.0171983 -0.0175452 5.8907 5.73947 16 1 
416 1.20818 5.89065 -0.0171983 -0.0175452 5.8907 5.73947 16 1 
418 1.20823 5.883 -0.0173513 -0.0177112 5.88305 5.829 16 1 
420 1.20827 5.87678 -0.017439 -0.0178018 5.87684 5.91483 16 1 
422 1.20833 5.86942 -0.0175922 -0.0179305 5.86948 6.00678 16 1 
424 1.20837 5.86126 -0.0178254 -0.0181486 5.86132 6.08432 16 1 
426 1.2084 5.85288 -0.0179961 -0.0183248 5.85294 6.1487 16 1 
428 1.20846 5.84543 -0.0179951 -0.0183152 5.84549 6.25259 16 1 
430 1.20853 5.84074 -0.017944 -0.018239 5.8408 6.37616 16 1 
432 1.20858 5.83519 -0.0180762 -0.0183452 5.83525 6.47106 16 1 
434 1.20862 5.82708 -0.0184708 -0.0187125 5.82714 6.5382 16 1 
436 1.20866 5.81973 -0.0189722 -0.0191801 5.81979 6.60443 16 1 
438 1.2087 5.81425 -0.0193383 -0.0195174 5.81432 6.68715 16 1 
440 1.20875 5.80997 -0.0194739 -0.0196191 5.81004 6.77504 16 1 
442 1.20881 5.80544 -0.0195064 -0.019626 5.80551 6.8762 16 1 
444 1.20887 5.79992 -0.019553 -0.0196781 5.79999 6.98355 16 1 
446 1.20891 5.79496 -0.0196845 -0.0197956 5.79503 7.06698 16 1 
448 1.20896 5.79091 -0.0199288 -0.0199998 5.79098 7.15175 16 1 
448 1.20896 5.79091 -0.0199288 -0.0199998 5.79098 7.15175 17 1 
450 1.20901 5.78728 -0.0201967 -0.0202582 5.78736 7.2477 17 1 
452 1.20906 5.78372 -0.0204408 -0.0205176 5.7838 7.32944 17 1 
454 1.2091 5.77936 -0.0206905 -0.0207579 5.77944 7.40654 17 1 
456 1.20915 5.77504 -0.0209043 -0.0209497 5.77512 7.4972 17 1 
458 1.20921 5.77191 -0.021063 -0.0211136 5.77199 7.60192 17 1 
460 1.20927 5.76934 -0.0212582 -0.0213086 5.76942 7.70783 17 1 
462 1.20932 5.76667 -0.0215051 -0.0215326 5.76675 7.80028 17 1 
464 1.20936 5.76324 -0.0217075 -0.021728 5.76332 7.87879 17 1 
466 1.2094 5.75938 -0.0218422 -0.0218532 5.75947 7.95506 17 1 
468 1.20945 5.75692 -0.0219764 -0.0219574 5.757 8.04446 17 1 
470 1.20951 5.75533 -0.0221118 -0.0220674 5.75542 8.14529 17 1 
472 1.20956 5.75344 -0.0222336 -0.0221581 5.75352 8.24473 17 1 
474 1.20962 5.75146 -0.0223537 -0.0222452 5.75155 8.34071 17 1 
476 1.20966 5.74924 -0.0224562 -0.0223157 5.74933 8.42065 17 1 
478 1.2097 5.74747 -0.0225323 -0.0223291 5.74756 8.49575 17 1 
480 1.20976 5.74695 -0.0226172 -0.0223487 5.74704 8.59599 17 1 
480 1.20976 5.74695 -0.0226172 -0.0223487 5.74704 8.59599 17 1 
482 1.20982 5.74659 -0.0226962 -0.0223893 5.74668 8.70022 17 1 
484 1.20987 5.74571 -0.0227566 -0.0223999 5.7458 8.78924 17 1 
486 1.20991 5.74493 -0.0228359 -0.0223904 5.74502 8.87667 17 1 
488 1.20997 5.74451 -0.0229105 -0.0223806 5.7446 8.97113 17 1 
490 1.21002 5.74488 -0.0229507 -0.0223696 5.74497 9.06931 17 1 
492 1.21007 5.74562 -0.0230293 -0.0223747 5.74571 9.16558 17 1 
494 1.21013 5.74576 -0.0231603 -0.0223916 5.74585 9.26186 17 1 
496 1.21018 5.74582 -0.0232418 -0.022395 5.74591 9.35615 17 1 
498 1.21023 5.7462 -0.0232749 -0.0223643 5.74629 9.44539 17 1 
500 1.21028 5.74716 -0.0233562 -0.0223321 5.74725 9.53833 17 1 
502 1.21034 5.74844 -0.0234726 -0.0223462 5.74853 9.64285 17 1 
504 1.21039 5.74909 -0.0235909 -0.0223874 5.74918 9.74403 17 1 
506 1.21044 5.74956 -0.0237219 -0.0224094 5.74965 9.8338 17 1 
508 1.21049 5.75066 -0.0238606 -0.0224224 5.75076 9.92556 17 1 
510 1.21055 5.75191 -0.023986 -0.0224475 5.75201 10.0205 17 1 
512 1.2106 5.75293 -0.0241016 -0.0224557 5.75303 10.1129 17 1 
512 1.2106 5.75293 -0.0241016 -0.0224557 5.75303 10.1129 25 1 
514 1.21065 5.75392 -0.0242225 -0.0224448 5.75402 10.2021 25 1 
516 1.2107 5.75487 -0.0243371 -0.0224417 5.75497 10.2913 25 1 
518 1.21075 5.75594 -0.0244566 -0.0224503 5.75604 10.3812 25 1 
520 1.2108 5.75719 -0.0246105 -0.022458 5.75729 10.4676 25 1 
522 1.21084 5.75861 -0.0247679 -0.0224673 5.75871 10.5521 25 1 
524 1.21089 5.76017 -0.0249195 -0.0224893 5.76027 10.6382 25 1 
526 1.21094 5.76154 -0.0250942 -0.0224904 5.76164 10.7269 25 1 
528 1.21099 5.76306 -0.0252704 -0.0224844 5.76316 10.8172 25 1 
530 1.21104 5.76495 -0.025428 -0.0224919 5.76505 10.9042 25 1 
532 1.21108 5.7668 -0.0255995 -0.0224955 5.7669 10.9866 25 1 
534 1.21113 5.76883 -0.0257741 -0.0224786 5.76894 11.0703 25 1 
536 1.21118 5.77118 -0.0259449 -0.022473 5.77128 11.1544 25 1 
538 1.21122 5.77363 -0.0261313 -0.0224774 5.77373 11.232 25 1 
540 1.21126 5.77635 -0.0263064 -0.0224457 5.77645 11.312 25 1 
542 1.21131 5.77939 -0.0264777 -0.0224144 5.77949 11.4016 25 1 
544 1.21136 5.78265 -0.0266682 -0.0223885 5.78276 11.4909 25 1 
544 1.21136 5.78265 -0.0266682 -0.0223885 5.78276 11.4909 25 1 
546 1.21141 5.78602 -0.0268729 -0.0223732 5.78612 11.5785 25 1 
548 1.21146 5.78968 -0.0271102 -0.0223935 5.78979 11.6666 25 1 
550 1.21151 5.79394 -0.0273448 -0.0223955 5.79404 11.7536 25 1 
552 1.21155 5.79853 -0.0275478 -0.0223584 5.79864 11.8327 25 1 
554 1.21159 5.80332 -0.0277149 -0.0222767 5.80343 11.9058 25 1 
556 1.21163 5.80825 -0.0278691 -0.0221737 5.80836 11.9823 25 1 
558 1.21167 5.81303 -0.0280393 -0.0220785 5.81314 12.0555 25 1 
560 1.21171 5.81788 -0.0282358 -0.0220077 5.818 12.1268 25 1 
562 1.21176 5.82332 -0.028481 -0.021979 5.82344 12.2033 25 1 
564 1.2118 5.82919 -0.0287387 -0.0219597 5.8293 12.2816 25 1 
566 1.21184 5.83531 -0.0289676 -0.0219094 5.83543 12.3599 25 1 
568 1.21188 5.84156 -0.0291705 -0.0218218 5.84167 12.4325 25 1 
570 1.21192 5.84769 -0.0293435 -0.0216953 5.8478 12.5003 25 1 
572 1.21196 5.85378 -0.029474 -0.0215267 5.85389 12.568 25 1 
574 1.212 5.85952 -0.0296295 -0.021381 5.85963 12.6355 25 1 
576 1.21203 5.86477 -0.0298277 -0.0212702 5.86488 12.6992 25 1 
576 1.21203 5.86477 -0.0298277 -0.0212702 5.86488 12.6992 26 1 
578 1.21206 5.86987 -0.0300665 -0.0212038 5.86998 12.7563 26 1 
580 1.21209 5.87508 -0.0303873 -0.0212151 5.8752 12.8131 26 1 
582 1.21213 5.88079 -0.0306869 -0.021204 5.88091 12.8737 26 1 
584 1.21216 5.88662 -0.0309557 -0.0211524 5.88674 12.9376 26 1 
586 1.2122 5.89204 -0.0311606 -0.0210273 5.89216 13.0033 26 1 
588 1.21224 5.89695 -0.0313093 -0.0208403 5.89707 13.0745 26 1 
590 1.21228 5.90127 -0.031519 -0.0207053 5.90139 13.1447 26 1 
592 1.21232 5.90499 -0.0318009 -0.0206493 5.90511 13.2162 26 1 
594 1.21235 5.90869 -0.0321821 -0.0206763 5.90882 13.2825 26 1 
596 1.21238 5.9124 -0.0326067 -0.0207496 5.91253 13.3353 26 1 
598 1.21241 5.91618 -0.0330274 -0.0208142 5.91631 13.3858 26 1 
600 1.21244 5.92058 -0.033411 -0.0208218 5.92071 13.4384 26 1 
602 1.21247 5.92516 -0.0337453 -0.0207776 5.92529 13.4995 26 1 
604 1.21251 5.92927 -0.0340229 -0.0206742 5.92941 13.5593 26 1 
606 1.21254 5.93244 -0.0342589 -0.0205184 5.93257 13.6152 26 1 
608 1.21257 5.93493 -0.0345379 -0.0203924 5.93507 13.6724 26 1 
608 1.21257 5.93493 -0.0345379 -0.0203924 5.93507 13.6724 26 1 
610 1.2126 5.93717 -0.0348706 -0.0203273 5.93731 13.7291 26 1 
612 1.21263 5.93931 -0.0353038 -0.02035 5.93945 13.7893 26 1 
614 1.21267 5.94216 -0.0358114 -0.0204429 5.94231 13.8457 26 1 
616 1.2127 5.94557 -0.0363328 -0.0205377 5.94572 13.9007 26 1 
618 1.21272 5.94932 -0.0368007 -0.0205789 5.94947 13.9452 26 1 
620 1.21274 5.95305 -0.0371059 -0.0204587 5.9532 13.9781 26 1 
622 1.21276 5.95614 -0.0373126 -0.020224 5.95629 14.0087 26 1 
624 1.21278 5.95837 -0.0374774 -0.0199535 5.95852 14.0444 26 1 
626 1.2128 5.95958 -0.0376817 -0.0197167 5.95973 14.0907 26 1 
628 1.21283 5.96011 -0.0379949 -0.019578 5.96026 14.1346 26 1 
630 1.21285 5.96041 -0.038435 -0.0195558 5.96057 14.174 26 1 
632 1.21286 5.96156 -0.0390087 -0.0196569 5.96172 14.2033 26 1 
634 1.21288 5.96394 -0.0396463 -0.0198096 5.9641 14.235 26 1 
636 1.2129 5.96786 -0.0402744 -0.0199511 5.96803 14.2743 26 1 
638 1.21292 5.97294 -0.0408097 -0.0199996 5.97312 14.3078 26 1 
640 1.21294 5.97822 -0.0411787 -0.01988 5.97839 14.3386 26 1 
642 1.21295 5.98348 -0.0413817 -0.0196088 5.98366 14.3674 26 1 
644 1.21297 5.98742 -0.0414826 -0.0192362 5.9876 14.4008 26 1 
646 1.21299 5.98973 -0.0415708 -0.0188496 5.9899 14.4332 26 1 
648 1.213 5.99095 -0.0417677 -0.0185559 5.99112 14.4545 26 1 
650 1.21302 5.99116 -0.0420994 -0.0183709 5.99134 14.4843 26 1 
652 1.21304 5.9917 -0.0426082 -0.0183576 5.99188 14.52 26 1 
654 1.21306 5.99345 -0.0433097 -0.0184979 5.99363 14.5541 26 1 
656 1.21308 5.99686 -0.0441543 -0.0187697 5.99706 14.5955 26 1 
658 1.2131 6.00317 -0.0451145 -0.019147 6.00337 14.6315 26 1 
660 1.21312 6.0121 -0.0460627 -0.0194926 6.01231 14.6629 26 1 
662 1.21314 6.02334 -0.0468532 -0.0197006 6.02356 14.7025 26 1 
664 1.21316 6.03625 -0.0474044 -0.0196907 6.03647 14.7444 26 1 
666 1.21319 6.04896 -0.047571 -0.0193441 6.04918 14.7906 26 1 
668 1.21322 6.05941 -0.0473397 -0.0186484 6.05962 14.8533 26 1 
670 1.21325 6.06561 -0.0468224 -0.0177288 6.06582 14.9071 26 1 
672 1.21328 6.06607 -0.0461759 -0.0166865 6.06626 14.9479 26 1 
672 1.21328 6.06607 -0.0461759 -0.0166865 6.06626 14.9479 27 1 
674 1.2133 6.0607 -0.0457336 -0.0158234 6.06089 14.9872 27 1 
676 1.21332 6.05225 -0.0458078 -0.0154123 6.05245 15.0265 27 1 
678 1.21336 6.04336 -0.0466093 -0.0155921 6.04356 15.0912 27 1 
680 1.21339 6.03816 -0.0482056 -0.0164479 6.03838 15.1573 27 1 
682 1.21342 6.03978 -0.0503398 -0.0177477 6.04002 15.2175 27 1 
684 1.21345 6.05032 -0.0527222 -0.0192344 6.05059 15.2681 27 1 
686 1.21348 6.07044 -0.0549517 -0.020575 6.07073 15.3215 27 1 
688 1.21352 6.0981 -0.0565247 -0.0213913 6.0984 15.3929 27 1 
690 1.21356 6.12982 -0.0570837 -0.021386 6.13014 15.4631 27 1 
692 1.2136 6.15885 -0.0563529 -0.0203389 6.15915 15.5424 27 1 
694 1.21364 6.17854 -0.0543124 -0.0182619 6.1788 15.6106 27 1 
696 1.21367 6.18323 -0.0515019 -0.0155887 6.18347 15.6657 27 1 
698 1.2137 6.1712 -0.0487606 -0.0129836 6.17141 15.7089 27 1 
700 1.21372 6.1446 -0.046803 -0.0110443 6.14481 15.7544 27 1 
702 1.21376 6.10824 -0.0460504 -0.0100888 6.10844 15.8248 27 1 
704 1.21379 6.06873 -0.0464801 -0.0100399 6.06894 15.8784 27 1 
704 1.21379 6.06873 -0.0464801 -0.0100399 6.06894 15.8784 31 1 
706 1.21382 6.0304 -0.0478741 -0.0107184 6.03062 15.9302 31 1 
708 1.21384 5.99778 -0.0498187 -0.0117527 5.99801 15.9608 31 1 
710 1.21385 5.97308 -0.0519884 -0.0129413 5.97333 15.9763 31 1 
712 1.21387 5.95667 -0.054134 -0.0140573 5.95693 16.0226 31 1 
714 1.2139 5.94927 -0.0561903 -0.0150363 5.94955 16.0711 31 1 
716 1.21393 5.94884 -0.0580409 -0.0158928 5.94915 16.132 31 1 
718 1.21396 5.95514 -0.0596321 -0.0165122 5.95546 16.1766 31 1 
720 1.21398 5.96692 -0.0610717 -0.0168903 5.96726 16.2197 31 1 
722 1.21401 5.98324 -0.0622772 -0.0171943 5.9836 16.2745 31 1 
724 1.21403 6.00414 -0.0633704 -0.0174189 6.00451 16.3082 31 1 
726 1.21406 6.02796 -0.0644265 -0.0174915 6.02834 16.3644 31 1 
728 1.2141 6.05523 -0.0652809 -0.0174704 6.05562 16.4301 31 1 
730 1.21413 6.08495 -0.0660774 -0.017362 6.08534 16.4844 31 1 
732 1.21416 6.11686 -0.0668404 -0.0173063 6.11726 16.5435 31 1 
734 1.21419 6.15069 -0.0674911 -0.0171774 6.1511 16.6069 31 1 
736 1.21422 6.18622 -0.0681555 -0.0169944 6.18663 16.6565 31 1 
738 1.21426 6.22291 -0.0687555 -0.0167123 6.22332 16.7189 31 1 
740 1.21429 6.26171 -0.0692651 -0.0164084 6.26213 16.7827 31 1 
742 1.21434 6.30091 -0.0698547 -0.0162613 6.30133 16.8619 31 1 
744 1.21437 6.34112 -0.0703777 -0.0159904 6.34155 16.9215 31 1 
746 1.21439 6.38317 -0.0707956 -0.015664 6.3836 16.9691 31 1 
748 1.21445 6.42449 -0.0713589 -0.0153964 6.42492 17.0726 31 1 
750 1.21449 6.46765 -0.0716939 -0.0150165 6.46808 17.1355 31 1 
752 1.21452 6.51075 -0.0720811 -0.0146965 6.51118 17.1896 31 1 
752 1.21452 6.51075 -0.0720811 -0.0146965 6.51118 17.1896 31 1 
754 1.21456 6.55399 -0.0726134 -0.0144705 6.55442 17.2704 31 1 
756 1.2146 6.59793 -0.0729239 -0.0140917 6.59837 17.3417 31 1 
758 1.21463 6.64269 -0.073231 -0.0136611 6.64313 17.3997 31 1 
760 1.21469 6.68725 -0.0736321 -0.0134033 6.68769 17.4955 31 1 
762 1.21474 6.73111 -0.0741418 -0.0132332 6.73155 17.5975 31 1 
764 1.21477 6.7764 -0.0743982 -0.0127651 6.77684 17.6414 31 1 
766 1.21482 6.82023 -0.0745897 -0.0123022 6.82066 17.7344 31 1 
768 1.21487 6.86537 -0.0750644 -0.0121297 6.86581 17.8231 31 1 
770 1.21491 6.90897 -0.0753026 -0.0117277 6.90941 17.9062 31 1 
772 1.21494 6.95314 -0.0753441 -0.0110765 6.95358 17.9605 31 1 
774 1.215 6.9967 -0.0759536 -0.0110369 6.99714 18.0594 31 1 
776 1.21506 7.04129 -0.0765263 -0.01095 7.04173 18.1752 31 1 
778 1.21512 7.08526 -0.0761902 -0.00986402 7.0857 18.2802 31 1 
780 1.21517 7.12759 -0.0760893 -0.00933195 7.12802 18.3701 31 1 
782 1.21522 7.16989 -0.0767588 -0.0094248 7.17033 18.4526 31 1 
784 1.21527 7.21147 -0.0775816 -0.00925011 7.21191 18.5505 31 1 
786 1.21531 7.25562 -0.0772083 -0.0084459 7.25605 18.6296 31 1 
788 1.2154 7.29614 -0.0769175 -0.0079659 7.29656 18.7782 31 1 
790 1.21542 7.34095 -0.077553 -0.00745207 7.34138 18.8179 31 1 
792 1.21548 7.38144 -0.0779729 -0.00697352 7.38188 18.9383 31 1 
794 1.21552 7.42609 -0.0772067 -0.00646504 7.42651 19.0042 31 1 
796 1.21555 7.47069 -0.0760972 -0.00452589 7.4711 19.0565 31 1 
798 1.21553 7.52017 -0.0776756 -0.00399153 7.52059 19.0165 31 1 
800 1.21543 7.55416 -0.0793013 -0.00461252 7.55461 18.842 31 1 
