76.0744;r ;Density                 ;Velocity u              ;Velocity v              ;Velocity w              ;|Velocity|              ;Pressure                ;Distribution            ;Levels                  ;
0 1.2122 9.99789 -8.54249e-05 -2.33181e-05 9.99789 13.0046 1 1 
2 1.21223 9.99594 -0.000135718 -9.16495e-05 9.99594 13.0587 1 1 
4 1.21224 9.99359 -0.000294326 -0.000269136 9.99359 13.0822 1 1 
6 1.21225 9.99195 -0.000413988 -0.000392759 9.99195 13.1002 1 1 
8 1.21228 9.99027 -0.000549336 -0.000532262 9.99027 13.148 1 1 
10 1.21229 9.98857 -0.000669713 -0.000647508 9.98857 13.1654 1 1 
12 1.21231 9.98602 -0.000778121 -0.00077609 9.98602 13.2039 1 1 
14 1.21232 9.98468 -0.000922477 -0.000925987 9.98468 13.2281 1 1 
16 1.21236 9.98273 -0.00100735 -0.00102737 9.98273 13.2853 1 1 
18 1.21237 9.97999 -0.00111481 -0.00114621 9.97999 13.31 1 1 
20 1.21237 9.97842 -0.00126259 -0.00129667 9.97842 13.316 1 1 
22 1.21242 9.97647 -0.00136302 -0.00141427 9.97648 13.4023 1 1 
24 1.21244 9.97507 -0.0014857 -0.00155008 9.97507 13.4377 1 1 
26 1.21245 9.97276 -0.00159576 -0.00164784 9.97276 13.4565 1 1 
28 1.21247 9.97009 -0.00171317 -0.00176165 9.97009 13.4999 1 1 
30 1.21249 9.96825 -0.00179853 -0.00186693 9.96825 13.5348 1 1 
32 1.21252 9.96552 -0.00191826 -0.0019914 9.96552 13.5876 1 1 
32 1.21252 9.96552 -0.00191826 -0.0019914 9.96552 13.5876 1 1 
34 1.21254 9.96311 -0.00197862 -0.00206638 9.96311 13.611 1 1 
36 1.21256 9.96035 -0.00209336 -0.00218817 9.96035 13.6511 1 1 
38 1.21257 9.95869 -0.00219439 -0.00229662 9.95869 13.6798 1 1 
40 1.2126 9.95668 -0.00228424 -0.00240597 9.95668 13.7302 1 1 
42 1.21263 9.95419 -0.00239919 -0.00251941 9.95419 13.7787 1 1 
44 1.21264 9.95168 -0.00247914 -0.00257996 9.95168 13.8019 1 1 
46 1.21267 9.9488 -0.0025918 -0.00269716 9.94881 13.8493 1 1 
48 1.21268 9.94708 -0.00269754 -0.00282813 9.94708 13.8746 1 1 
50 1.21271 9.9456 -0.00276735 -0.00287522 9.9456 13.925 1 1 
52 1.21274 9.94274 -0.00285507 -0.00297393 9.94274 13.9713 1 1 
54 1.21275 9.93978 -0.00296765 -0.0030835 9.93978 14.0007 1 1 
56 1.21278 9.93845 -0.0030635 -0.0031773 9.93845 14.0526 1 1 
58 1.21281 9.93637 -0.00320936 -0.00333891 9.93637 14.1013 1 1 
60 1.21282 9.93406 -0.00328575 -0.00341984 9.93406 14.1304 1 1 
62 1.21285 9.9315 -0.00339973 -0.00353925 9.9315 14.1811 1 1 
64 1.21288 9.92959 -0.00349958 -0.0036327 9.9296 14.2308 1 1 
64 1.21288 9.92959 -0.00349958 -0.0036327 9.9296 14.2308 2 1 
66 1.21291 9.92762 -0.00360133 -0.00374353 9.92762 14.2929 2 1 
68 1.21292 9.92634 -0.0037318 -0.00387369 9.92634 14.3098 2 1 
70 1.21295 9.92377 -0.00384937 -0.00400273 9.92377 14.3685 2 1 
72 1.21298 9.92096 -0.00396137 -0.00412041 9.92096 14.4215 2 1 
74 1.213 9.91896 -0.00408042 -0.00422848 9.91896 14.4463 2 1 
76 1.21304 9.91652 -0.00417852 -0.00435463 9.91652 14.5308 2 1 
78 1.21305 9.91578 -0.00426738 -0.00443357 9.91578 14.5466 2 1 
80 1.21308 9.91364 -0.00441621 -0.00458221 9.91364 14.5885 2 1 
82 1.21311 9.91113 -0.00455695 -0.00475107 9.91113 14.6412 2 1 
84 1.21313 9.90912 -0.00463218 -0.00479727 9.90912 14.6851 2 1 
86 1.21316 9.90693 -0.00474246 -0.00489072 9.90693 14.7388 2 1 
88 1.21317 9.90521 -0.00492472 -0.0050809 9.90521 14.7652 2 1 
90 1.2132 9.90322 -0.00499648 -0.00516106 9.90322 14.8109 2 1 
92 1.21322 9.90087 -0.00512404 -0.00528157 9.90087 14.8526 2 1 
94 1.21325 9.89851 -0.0052637 -0.00542406 9.89852 14.9023 2 1 
96 1.21328 9.89667 -0.00536279 -0.00551792 9.89667 14.951 2 1 
96 1.21328 9.89667 -0.00536279 -0.00551792 9.89667 14.951 2 1 
98 1.2133 9.89561 -0.00553405 -0.0056598 9.89561 14.9846 2 1 
100 1.21332 9.89404 -0.00562561 -0.00575106 9.89405 15.028 2 1 
102 1.21334 9.89182 -0.00575523 -0.00590486 9.89182 15.064 2 1 
104 1.21337 9.88895 -0.00592983 -0.00607186 9.88896 15.1222 2 1 
106 1.21339 9.88678 -0.00601397 -0.00613287 9.88678 15.1609 2 1 
108 1.21342 9.88402 -0.00616076 -0.0062761 9.88403 15.2103 2 1 
110 1.21343 9.88257 -0.00627759 -0.00640082 9.88257 15.2308 2 1 
112 1.21345 9.8813 -0.00641384 -0.00653314 9.88131 15.2662 2 1 
114 1.21349 9.87844 -0.00654101 -0.00665402 9.87845 15.3416 2 1 
116 1.21351 9.87789 -0.00667433 -0.00679798 9.8779 15.3663 2 1 
118 1.21354 9.8763 -0.00680787 -0.00692668 9.87631 15.4182 2 1 
120 1.21357 9.87345 -0.00693749 -0.00703189 9.87346 15.4719 2 1 
122 1.21356 9.87186 -0.00707372 -0.00717057 9.87186 15.4678 2 1 
124 1.21359 9.86887 -0.00720203 -0.00731813 9.86887 15.5094 2 1 
126 1.21364 9.8661 -0.00738018 -0.00748372 9.8661 15.6006 2 1 
128 1.21363 9.86583 -0.00747317 -0.00755799 9.86583 15.5885 2 1 
128 1.21363 9.86583 -0.00747317 -0.00755799 9.86583 15.5885 10 1 
130 1.21366 9.864 -0.0076316 -0.00774908 9.864 15.6425 10 1 
132 1.21369 9.86311 -0.00776317 -0.0078633 9.86311 15.6955 10 1 
134 1.2137 9.86144 -0.00790285 -0.00797331 9.86145 15.7177 10 1 
136 1.21374 9.85773 -0.00804158 -0.00810408 9.85773 15.7788 10 1 
138 1.21374 9.85588 -0.00817734 -0.00824177 9.85588 15.7883 10 1 
140 1.21377 9.85454 -0.00832014 -0.00838494 9.85454 15.8449 10 1 
142 1.21379 9.85322 -0.00845331 -0.00845786 9.85323 15.8831 10 1 
144 1.21381 9.85176 -0.00859689 -0.0086333 9.85176 15.9186 10 1 
146 1.21385 9.85007 -0.00872341 -0.0087613 9.85008 15.994 10 1 
148 1.21387 9.84707 -0.00886873 -0.00888027 9.84707 16.0271 10 1 
150 1.21387 9.84487 -0.00899198 -0.00901244 9.84488 16.0278 10 1 
152 1.21391 9.8432 -0.00911795 -0.00913281 9.84321 16.098 10 1 
154 1.21395 9.84133 -0.00920569 -0.00920295 9.84134 16.1615 10 1 
156 1.21396 9.84034 -0.00936688 -0.00935378 9.84035 16.1872 10 1 
158 1.214 9.83811 -0.00948024 -0.00947069 9.83812 16.2528 10 1 
160 1.21403 9.83478 -0.00955611 -0.00955781 9.83479 16.3046 10 1 
160 1.21403 9.83478 -0.00955611 -0.00955781 9.83479 16.3046 10 1 
162 1.21402 9.83363 -0.00969858 -0.00971271 9.83364 16.2989 10 1 
164 1.21406 9.83123 -0.00981999 -0.00978986 9.83124 16.3606 10 1 
166 1.21412 9.82771 -0.00995067 -0.00991339 9.82772 16.469 10 1 
168 1.2141 9.82815 -0.0100842 -0.0100572 9.82816 16.4397 10 1 
170 1.21414 9.82494 -0.0101916 -0.0101559 9.82495 16.5108 10 1 
172 1.21417 9.82319 -0.0102886 -0.0102283 9.82321 16.5666 10 1 
174 1.21417 9.82332 -0.0103487 -0.0103048 9.82333 16.5605 10 1 
176 1.21424 9.81923 -0.010482 -0.0103931 9.81924 16.6828 10 1 
178 1.21424 9.81771 -0.0105503 -0.0104716 9.81772 16.6891 10 1 
180 1.21426 9.81507 -0.010651 -0.0106084 9.81508 16.7194 10 1 
182 1.21428 9.81094 -0.0107824 -0.0107209 9.81096 16.7637 10 1 
184 1.21428 9.80915 -0.0108985 -0.0108351 9.80917 16.759 10 1 
186 1.21434 9.80862 -0.0110017 -0.0109056 9.80864 16.8739 10 1 
188 1.21437 9.80715 -0.0110732 -0.0109417 9.80716 16.9315 10 1 
190 1.21437 9.80535 -0.0111978 -0.0110299 9.80536 16.9244 10 1 
192 1.21439 9.80367 -0.0111501 -0.010984 9.80368 16.9541 10 1 
194 1.21442 9.79892 -0.0113777 -0.0111993 9.79893 17.0196 10 1 
196 1.21445 9.79505 -0.0115224 -0.0113184 9.79506 17.0664 10 1 
198 1.21447 9.79378 -0.0115007 -0.0112509 9.79379 17.1009 10 1 
200 1.21452 9.79114 -0.0117363 -0.0114784 9.79115 17.198 10 1 
202 1.21453 9.78956 -0.0117198 -0.0114965 9.78957 17.2059 10 1 
204 1.2145 9.78871 -0.0117221 -0.011444 9.78873 17.1681 10 1 
206 1.21459 9.78407 -0.0119701 -0.0116548 9.78408 17.3265 10 1 
208 1.21464 9.78183 -0.012105 -0.011715 9.78184 17.409 10 1 
210 1.21461 9.7815 -0.0121258 -0.0117016 9.78151 17.361 10 1 
212 1.2147 9.77364 -0.0122339 -0.0118533 9.77366 17.5118 10 1 
214 1.21469 9.76815 -0.0122791 -0.0118796 9.76817 17.4942 10 1 
216 1.21468 9.76385 -0.0124368 -0.0119655 9.76387 17.4895 10 1 
218 1.21477 9.7581 -0.0126632 -0.0121292 9.75812 17.6528 10 1 
220 1.21479 9.76122 -0.0127101 -0.0122161 9.76124 17.6896 10 1 
222 1.21485 9.76027 -0.0127312 -0.0122272 9.76028 17.7918 10 1 
224 1.21487 9.75367 -0.0127908 -0.0121512 9.75368 17.8249 10 1 
224 1.21487 9.75367 -0.0127908 -0.0121512 9.75368 17.8249 10 1 
226 1.21491 9.74764 -0.0129137 -0.0122357 9.74766 17.9008 10 1 
228 1.21495 9.73687 -0.0130635 -0.0124194 9.73689 17.9779 10 1 
230 1.21497 9.72844 -0.0132472 -0.0126172 9.72845 18.0115 10 1 
232 1.21501 9.72819 -0.0133564 -0.012674 9.72821 18.0721 10 1 
234 1.21508 9.72449 -0.0134052 -0.0126129 9.72451 18.2128 10 1 
236 1.21519 9.71513 -0.0134925 -0.0127166 9.71515 18.4094 10 1 
238 1.21514 9.71138 -0.0136115 -0.0128402 9.7114 18.3153 10 1 
240 1.21528 9.69795 -0.0139351 -0.0131145 9.69797 18.5638 10 1 
242 1.21533 9.68807 -0.0140624 -0.0132032 9.68809 18.6508 10 1 
244 1.21528 9.68545 -0.0140862 -0.0132189 9.68547 18.5698 10 1 
246 1.21551 9.67222 -0.0142531 -0.0133505 9.67224 18.9833 10 1 
248 1.21556 9.66128 -0.0142531 -0.0132878 9.6613 19.0776 10 1 
250 1.21558 9.64731 -0.0144809 -0.0134988 9.64734 19.114 10 1 
252 1.21567 9.634 -0.0148016 -0.013788 9.63402 19.2732 10 1 
254 1.21582 9.62022 -0.0147985 -0.0137197 9.62025 19.5353 10 1 
256 1.21592 9.60463 -0.0149488 -0.013852 9.60466 19.7238 10 1 
256 1.21592 9.60463 -0.0149488 -0.013852 9.60466 19.7238 11 1 
258 1.216 9.58654 -0.0151697 -0.0140795 9.58656 19.8677 11 1 
260 1.21622 9.56607 -0.0153285 -0.0142061 9.56609 20.2693 11 1 
262 1.21636 9.54202 -0.0155796 -0.0143887 9.54205 20.5225 11 1 
264 1.21637 9.51836 -0.0156318 -0.0143747 9.51838 20.5395 11 1 
266 1.21663 9.49328 -0.0156742 -0.0144147 9.49331 21.0077 11 1 
268 1.21706 9.45242 -0.015868 -0.0145824 9.45245 21.7838 11 1 
270 1.21702 9.42294 -0.0160918 -0.0147137 9.42298 21.7138 11 1 
272 1.21729 9.37959 -0.0161552 -0.0147245 9.37963 22.1978 11 1 
274 1.21785 9.32302 -0.016295 -0.0148718 9.32305 23.2044 11 1 
276 1.2179 9.28158 -0.0164789 -0.0149897 9.28161 23.3074 11 1 
278 1.21832 9.22067 -0.0166622 -0.0151331 9.22071 24.0587 11 1 
280 1.21902 9.15729 -0.0168131 -0.0152405 9.15734 25.3244 11 1 
282 1.21951 9.07551 -0.0168911 -0.0152665 9.07569 26.2062 11 1 
284 1.2199 8.95568 -0.0169573 -0.0153408 8.95598 26.9156 11 1 
286 1.2204 8.83345 -0.0170806 -0.0154199 8.83364 27.8092 11 1 
288 1.22125 8.72021 -0.0172265 -0.0155252 8.72026 29.3435 11 1 
288 1.22125 8.72021 -0.0172265 -0.0155252 8.72026 29.3435 11 1 
290 1.22226 8.61426 -0.0173597 -0.015626 8.61433 31.1799 11 1 
292 1.22311 8.47703 -0.0175696 -0.0158154 8.47726 32.7077 11 1 
294 1.22381 8.29569 -0.017585 -0.0158258 8.29619 33.9744 11 1 
296 1.22477 8.10523 -0.0175471 -0.0157535 8.10562 35.7028 11 1 
298 1.2194 7.87132 -0.0175166 -0.0157225 7.87153 26.0108 11 1 
300 1.21004 7.76429 -0.0174626 -0.0156515 7.76454 9.09522 11 1 
302 1.20698 7.71419 -0.0176959 -0.0158012 7.71433 3.58322 11 1 
304 1.20775 7.55425 -0.0178129 -0.0158459 7.55447 4.97446 11 1 
306 1.20868 7.38211 -0.0178104 -0.0158001 7.38243 6.64041 11 1 
308 1.20939 7.22419 -0.01783 -0.0157686 7.22454 7.93601 11 1 
310 1.20985 7.09785 -0.0178306 -0.0157135 7.09813 8.76183 11 1 
312 1.21042 6.96562 -0.017981 -0.0158206 6.96575 9.78078 11 1 
314 1.21095 6.86492 -0.0182571 -0.0160091 6.86503 10.7506 11 1 
316 1.21138 6.78598 -0.0184799 -0.0161491 6.78607 11.5227 11 1 
318 1.21176 6.69008 -0.0186457 -0.0162648 6.69016 12.2175 11 1 
320 1.21206 6.62274 -0.0187468 -0.0162929 6.62281 12.7602 11 1 
320 1.21206 6.62274 -0.0187468 -0.0162929 6.62281 12.7602 15 1 
322 1.21237 6.57523 -0.0190237 -0.0164878 6.57529 13.3094 15 1 
324 1.21269 6.51381 -0.0192988 -0.0166883 6.51386 13.8821 15 1 
326 1.21292 6.4633 -0.0193737 -0.0166969 6.46336 14.3068 15 1 
328 1.2131 6.41764 -0.0194768 -0.0167275 6.41771 14.6392 15 1 
330 1.21324 6.37099 -0.0197013 -0.0168634 6.37106 14.8795 15 1 
332 1.21346 6.33995 -0.0198733 -0.016958 6.34002 15.2804 15 1 
334 1.21369 6.30051 -0.01997 -0.0169876 6.30058 15.6913 15 1 
336 1.21369 6.25074 -0.0201318 -0.017055 6.25082 15.6909 15 1 
338 1.21375 6.218 -0.020355 -0.0171881 6.21809 15.8054 15 1 
340 1.21398 6.19323 -0.0206483 -0.0174078 6.19331 16.2266 15 1 
342 1.2141 6.16573 -0.0208394 -0.0175083 6.16581 16.4327 15 1 
344 1.2141 6.13058 -0.0209999 -0.0175585 6.13066 16.445 15 1 
346 1.21412 6.0928 -0.0213014 -0.0177707 6.09288 16.4811 15 1 
348 1.21426 6.0781 -0.0217274 -0.0181138 6.07817 16.7182 15 1 
350 1.2144 6.06875 -0.0220535 -0.0183312 6.06883 16.9844 15 1 
352 1.21439 6.03986 -0.0223004 -0.0184566 6.03993 16.9625 15 1 
354 1.21441 6.01665 -0.0225884 -0.0186553 6.01673 16.9884 15 1 
356 1.2145 6.00539 -0.0230228 -0.0190094 6.00546 17.1626 15 1 
358 1.21455 5.99416 -0.0234156 -0.0192754 5.99424 17.2492 15 1 
360 1.2146 5.98661 -0.0236644 -0.0193975 5.98669 17.3474 15 1 
362 1.21465 5.97641 -0.0238973 -0.0195503 5.97649 17.4345 15 1 
364 1.21467 5.96381 -0.0242118 -0.0197662 5.96389 17.4743 15 1 
366 1.2147 5.95641 -0.0245225 -0.0199444 5.9565 17.5261 15 1 
368 1.21474 5.9523 -0.0247434 -0.0200682 5.95239 17.5992 15 1 
370 1.21481 5.9511 -0.0248872 -0.0201308 5.95119 17.7203 15 1 
372 1.21483 5.94566 -0.0251047 -0.0202305 5.94575 17.7628 15 1 
374 1.21483 5.93578 -0.025384 -0.0203926 5.93587 17.7517 15 1 
376 1.21487 5.93188 -0.0255503 -0.0204593 5.93197 17.8206 15 1 
378 1.2149 5.92975 -0.0256825 -0.0204807 5.92984 17.8794 15 1 
380 1.21493 5.92746 -0.0258606 -0.0205425 5.92756 17.9415 15 1 
382 1.21496 5.92478 -0.026063 -0.020633 5.92487 17.9953 15 1 
384 1.21496 5.91522 -0.0262415 -0.0206947 5.91531 17.9842 15 1 
384 1.21496 5.91522 -0.0262415 -0.0206947 5.91531 17.9842 16 1 
386 1.21497 5.90806 -0.0263499 -0.0207035 5.90815 18.0174 16 1 
388 1.215 5.90714 -0.0264962 -0.0207479 5.90724 18.0715 16 1 
390 1.21502 5.90275 -0.0267336 -0.0208522 5.90285 18.1011 16 1 
392 1.21504 5.89542 -0.0268928 -0.0209056 5.89552 18.1347 16 1 
394 1.21504 5.88651 -0.0270058 -0.0209438 5.88661 18.1318 16 1 
396 1.21504 5.8773 -0.0271723 -0.0209897 5.8774 18.1319 16 1 
398 1.21506 5.87177 -0.0273418 -0.0210203 5.87187 18.1656 16 1 
400 1.21508 5.86593 -0.027468 -0.0210561 5.86603 18.2045 16 1 
402 1.21509 5.85654 -0.0276587 -0.0211463 5.85664 18.2194 16 1 
404 1.21507 5.84508 -0.0278598 -0.021208 5.84519 18.1875 16 1 
406 1.21507 5.83477 -0.027982 -0.0212137 5.83488 18.1969 16 1 
408 1.2151 5.82789 -0.0281108 -0.0212317 5.828 18.2441 16 1 
410 1.2151 5.81931 -0.0283431 -0.0213378 5.81942 18.2379 16 1 
412 1.21509 5.80787 -0.0285674 -0.0214422 5.80799 18.2274 16 1 
414 1.2151 5.79761 -0.0287313 -0.0214758 5.79773 18.2386 16 1 
416 1.2151 5.78719 -0.0289125 -0.021522 5.78731 18.2423 16 1 
416 1.2151 5.78719 -0.0289125 -0.021522 5.78731 18.2423 16 1 
418 1.2151 5.777 -0.0291418 -0.0216332 5.77712 18.244 16 1 
420 1.2151 5.76802 -0.0293812 -0.0217474 5.76814 18.2419 16 1 
422 1.2151 5.75787 -0.0296438 -0.0218589 5.75799 18.2495 16 1 
424 1.2151 5.747 -0.0298957 -0.0219671 5.74713 18.2464 16 1 
426 1.21509 5.73578 -0.0301523 -0.0220912 5.73591 18.2204 16 1 
428 1.21509 5.72514 -0.0304419 -0.0222275 5.72527 18.2186 16 1 
430 1.21509 5.71698 -0.0307635 -0.022378 5.71711 18.2324 16 1 
432 1.21509 5.70798 -0.0310842 -0.022529 5.70812 18.2239 16 1 
434 1.21507 5.69666 -0.0313984 -0.0226768 5.69679 18.1951 16 1 
436 1.21506 5.68639 -0.0317304 -0.0228381 5.68653 18.1755 16 1 
438 1.21507 5.67813 -0.0320682 -0.0230076 5.67827 18.1804 16 1 
440 1.21506 5.67089 -0.0324146 -0.0231685 5.67104 18.1796 16 1 
442 1.21506 5.6631 -0.0327932 -0.0233656 5.66324 18.1672 16 1 
444 1.21505 5.65426 -0.0331563 -0.0235822 5.65441 18.1497 16 1 
446 1.21503 5.64633 -0.0334905 -0.0237502 5.64648 18.12 16 1 
448 1.21502 5.63981 -0.0338562 -0.0239182 5.63997 18.106 16 1 
448 1.21502 5.63981 -0.0338562 -0.0239182 5.63997 18.106 17 1 
450 1.21503 5.6341 -0.0342236 -0.0241107 5.63426 18.1106 17 1 
452 1.21502 5.6287 -0.0345607 -0.024297 5.62886 18.1021 17 1 
454 1.21501 5.62255 -0.034917 -0.0244743 5.62271 18.0821 17 1 
456 1.215 5.61641 -0.0352709 -0.0246349 5.61657 18.0579 17 1 
458 1.21499 5.61158 -0.0355975 -0.0247938 5.61175 18.0371 17 1 
460 1.21498 5.6077 -0.035951 -0.0249692 5.60787 18.0289 17 1 
462 1.21498 5.60423 -0.0363509 -0.0251637 5.6044 18.0246 17 1 
464 1.21497 5.6002 -0.0367359 -0.0253608 5.60038 18.0093 17 1 
466 1.21495 5.5959 -0.0371064 -0.0255469 5.59608 17.9798 17 1 
468 1.21494 5.59306 -0.0375008 -0.0257327 5.59324 17.9562 17 1 
470 1.21493 5.59131 -0.0378878 -0.0259212 5.59149 17.9423 17 1 
472 1.21493 5.58948 -0.0382791 -0.0261076 5.58967 17.9288 17 1 
474 1.21492 5.58788 -0.0386983 -0.0263189 5.58808 17.9199 17 1 
476 1.21491 5.58645 -0.0391229 -0.0265384 5.58665 17.9042 17 1 
478 1.2149 5.58556 -0.039551 -0.0267315 5.58577 17.8802 17 1 
480 1.21489 5.58596 -0.0400425 -0.0269866 5.58617 17.8638 17 1 
480 1.21489 5.58596 -0.0400425 -0.0269866 5.58617 17.8638 17 1 
482 1.21488 5.58673 -0.0405421 -0.0272752 5.58694 17.8468 17 1 
484 1.21487 5.5875 -0.0409821 -0.0275021 5.58772 17.8269 17 1 
486 1.21486 5.58878 -0.0414246 -0.0276924 5.58901 17.8144 17 1 
488 1.21486 5.59069 -0.0419163 -0.027938 5.59092 17.8031 17 1 
490 1.21485 5.59359 -0.0424306 -0.0282373 5.59382 17.7882 17 1 
492 1.21484 5.59704 -0.0429714 -0.0285408 5.59728 17.7708 17 1 
494 1.21483 5.60022 -0.0435083 -0.0288045 5.60046 17.7525 17 1 
496 1.21482 5.60349 -0.043977 -0.0290383 5.60373 17.7363 17 1 
498 1.21481 5.60736 -0.0444395 -0.0292893 5.60761 17.7217 17 1 
500 1.21481 5.61189 -0.0449492 -0.0295389 5.61215 17.7116 17 1 
502 1.2148 5.61672 -0.0453902 -0.0297382 5.61698 17.7005 17 1 
504 1.21479 5.62098 -0.0456948 -0.0298308 5.62125 17.6749 17 1 
506 1.21477 5.62518 -0.0459695 -0.0298633 5.62545 17.6458 17 1 
508 1.21476 5.63033 -0.0463736 -0.0300093 5.63061 17.6322 17 1 
510 1.21476 5.63579 -0.0469471 -0.0303426 5.63607 17.6282 17 1 
512 1.21475 5.64102 -0.0475931 -0.0307425 5.64131 17.6162 17 1 
512 1.21475 5.64102 -0.0475931 -0.0307425 5.64131 17.6162 25 1 
514 1.21474 5.64617 -0.0481792 -0.03106 5.64646 17.5935 25 1 
516 1.21473 5.65128 -0.0486137 -0.0312442 5.65157 17.5663 25 1 
518 1.21471 5.65645 -0.0489458 -0.0313375 5.65675 17.5401 25 1 
520 1.2147 5.66182 -0.0493129 -0.0314267 5.66212 17.5204 25 1 
522 1.21469 5.66735 -0.0497284 -0.0315728 5.66766 17.5075 25 1 
524 1.21468 5.67277 -0.0502109 -0.0318069 5.67308 17.493 25 1 
526 1.21467 5.67767 -0.0507747 -0.0320807 5.67799 17.4692 25 1 
528 1.21466 5.68244 -0.0513433 -0.0323565 5.68276 17.4395 25 1 
530 1.21464 5.68735 -0.0519104 -0.0326643 5.68768 17.4112 25 1 
532 1.21463 5.69205 -0.052502 -0.0329813 5.69239 17.3867 25 1 
534 1.21462 5.69664 -0.0531015 -0.0332917 5.69699 17.3691 25 1 
536 1.21461 5.70102 -0.0537172 -0.0336376 5.70138 17.352 25 1 
538 1.21459 5.70498 -0.0543496 -0.033992 5.70534 17.3209 25 1 
540 1.21457 5.70865 -0.0549736 -0.034329 5.70902 17.2827 25 1 
542 1.21455 5.7123 -0.0556112 -0.0346793 5.71268 17.2512 25 1 
544 1.21454 5.71595 -0.0562534 -0.0350308 5.71633 17.2275 25 1 
544 1.21454 5.71595 -0.0562534 -0.0350308 5.71633 17.2275 25 1 
546 1.21453 5.71935 -0.0569066 -0.0353842 5.71974 17.2062 25 1 
548 1.21451 5.72243 -0.0575557 -0.0357386 5.72283 17.1806 25 1 
550 1.21449 5.72533 -0.0581971 -0.0360777 5.72574 17.1487 25 1 
552 1.21447 5.72801 -0.0588212 -0.0363871 5.72843 17.1097 25 1 
554 1.21445 5.73059 -0.0594299 -0.0366869 5.73102 17.0729 25 1 
556 1.21444 5.73318 -0.0600432 -0.0369778 5.73362 17.045 25 1 
558 1.21442 5.73549 -0.0606408 -0.0372545 5.73593 17.0156 25 1 
560 1.2144 5.73766 -0.0612447 -0.0375249 5.73811 16.9823 25 1 
562 1.21438 5.73998 -0.0618219 -0.0377612 5.74044 16.9484 25 1 
564 1.21436 5.74217 -0.0623754 -0.0379754 5.74263 16.9114 25 1 
566 1.21434 5.7442 -0.0629015 -0.0381611 5.74468 16.8745 25 1 
568 1.21432 5.74613 -0.0634072 -0.038317 5.74661 16.8433 25 1 
570 1.21431 5.74804 -0.0639277 -0.0384738 5.74853 16.8109 25 1 
572 1.21429 5.75006 -0.0644268 -0.0386187 5.75055 16.7758 25 1 
574 1.21427 5.75199 -0.0649339 -0.0387651 5.75249 16.7354 25 1 
576 1.21424 5.75377 -0.0654198 -0.0388878 5.75428 16.6912 25 1 
576 1.21424 5.75377 -0.0654198 -0.0388878 5.75428 16.6912 26 1 
578 1.21422 5.75552 -0.0659018 -0.0389979 5.75603 16.652 26 1 
580 1.2142 5.75738 -0.0663544 -0.0390885 5.75789 16.6179 26 1 
582 1.21418 5.75933 -0.0668074 -0.0391728 5.75985 16.5888 26 1 
584 1.21416 5.76108 -0.0672642 -0.0392511 5.7616 16.5525 26 1 
586 1.21414 5.7625 -0.0677126 -0.0393328 5.76303 16.5056 26 1 
588 1.21411 5.76383 -0.0682049 -0.0394348 5.76437 16.4619 26 1 
590 1.21409 5.76518 -0.0686749 -0.0395194 5.76572 16.4215 26 1 
592 1.21407 5.76652 -0.0691566 -0.0396154 5.76707 16.383 26 1 
594 1.21405 5.76786 -0.0696132 -0.0396886 5.76841 16.3462 26 1 
596 1.21403 5.76881 -0.0700541 -0.0397432 5.76937 16.3035 26 1 
598 1.214 5.76934 -0.0705225 -0.0398171 5.76991 16.2559 26 1 
600 1.21398 5.76982 -0.0710125 -0.0399141 5.7704 16.2154 26 1 
602 1.21396 5.77041 -0.0715545 -0.0400399 5.77099 16.1785 26 1 
604 1.21393 5.77075 -0.0720948 -0.0401771 5.77134 16.1382 26 1 
606 1.21391 5.77083 -0.0726432 -0.0403112 5.77143 16.0924 26 1 
608 1.21388 5.77083 -0.0731865 -0.0404343 5.77144 16.0453 26 1 
608 1.21388 5.77083 -0.0731865 -0.0404343 5.77144 16.0453 26 1 
610 1.21386 5.77077 -0.0737216 -0.0405527 5.77139 16.0002 26 1 
612 1.21383 5.77061 -0.074267 -0.0406826 5.77123 15.9574 26 1 
614 1.21381 5.77038 -0.0748302 -0.0408262 5.77101 15.9197 26 1 
616 1.21379 5.77012 -0.0754574 -0.0410085 5.77076 15.8791 26 1 
618 1.21377 5.76971 -0.0761088 -0.0412221 5.77036 15.8322 26 1 
620 1.21374 5.76944 -0.0767741 -0.0414356 5.7701 15.7847 26 1 
622 1.21372 5.76952 -0.077432 -0.0416404 5.77019 15.7417 26 1 
624 1.21369 5.76991 -0.078092 -0.0418582 5.77059 15.7047 26 1 
626 1.21367 5.77034 -0.0787292 -0.0420586 5.77103 15.6679 26 1 
628 1.21365 5.77084 -0.0793502 -0.0422344 5.77154 15.6235 26 1 
630 1.21362 5.77144 -0.0799935 -0.0424285 5.77215 15.5766 26 1 
632 1.2136 5.77234 -0.0806554 -0.0426401 5.77306 15.5307 26 1 
634 1.21358 5.77366 -0.0813579 -0.042871 5.77439 15.4898 26 1 
636 1.21356 5.77551 -0.0820799 -0.0431145 5.77625 15.4538 26 1 
638 1.21354 5.77776 -0.0827817 -0.0433436 5.77852 15.4212 26 1 
640 1.21352 5.78041 -0.0834317 -0.0435336 5.78118 15.3835 26 1 
642 1.21349 5.78347 -0.0840194 -0.0436728 5.78425 15.3384 26 1 
644 1.21347 5.78656 -0.0845352 -0.0437597 5.78734 15.2955 26 1 
646 1.21345 5.78981 -0.085035 -0.0438436 5.7906 15.2541 26 1 
648 1.21342 5.79347 -0.0855317 -0.0439169 5.79427 15.2155 26 1 
650 1.21341 5.79726 -0.0860723 -0.0440147 5.79806 15.1846 26 1 
652 1.21339 5.80146 -0.0866357 -0.0441285 5.80228 15.1498 26 1 
654 1.21337 5.80591 -0.0871636 -0.0442113 5.80673 15.1103 26 1 
656 1.21334 5.81046 -0.0876525 -0.0442764 5.81129 15.0708 26 1 
658 1.21332 5.81542 -0.0880155 -0.0442499 5.81625 15.0281 26 1 
660 1.2133 5.82011 -0.0883005 -0.0441574 5.82095 14.9921 26 1 
662 1.21328 5.82484 -0.0885323 -0.0440427 5.82569 14.9549 26 1 
664 1.21326 5.82929 -0.0886864 -0.0438805 5.83013 14.9206 26 1 
666 1.21324 5.83327 -0.0889136 -0.0437727 5.83411 14.8874 26 1 
668 1.21322 5.83709 -0.0891895 -0.0436932 5.83794 14.8447 26 1 
670 1.2132 5.8408 -0.0894263 -0.0435978 5.84165 14.804 26 1 
672 1.21317 5.8445 -0.0897874 -0.0435732 5.84535 14.766 26 1 
672 1.21317 5.8445 -0.0897874 -0.0435732 5.84535 14.766 27 1 
674 1.21315 5.84827 -0.0900065 -0.0434766 5.84913 14.7298 27 1 
676 1.21314 5.85206 -0.0901769 -0.0433608 5.85291 14.6964 27 1 
678 1.21312 5.85539 -0.0902903 -0.0431873 5.85624 14.6635 27 1 
680 1.2131 5.85838 -0.0902581 -0.0429527 5.85923 14.626 27 1 
682 1.21308 5.86062 -0.0902519 -0.0427321 5.86147 14.5892 27 1 
684 1.21306 5.86248 -0.0902403 -0.0425125 5.86333 14.5506 27 1 
686 1.21304 5.86379 -0.0903212 -0.0423579 5.86464 14.5151 27 1 
688 1.21302 5.86503 -0.0904972 -0.0422787 5.86588 14.4803 27 1 
690 1.213 5.86621 -0.0907302 -0.0422368 5.86706 14.4474 27 1 
692 1.21298 5.8676 -0.0909522 -0.0421948 5.86846 14.4142 27 1 
694 1.21296 5.86896 -0.091132 -0.0421334 5.86982 14.3848 27 1 
696 1.21295 5.87026 -0.0911456 -0.0419725 5.87112 14.3516 27 1 
698 1.21293 5.8713 -0.0910428 -0.0417489 5.87216 14.3153 27 1 
700 1.21291 5.87143 -0.0908767 -0.0414648 5.87229 14.284 27 1 
702 1.21289 5.87103 -0.0905975 -0.0411541 5.87187 14.2478 27 1 
704 1.21287 5.86992 -0.0904361 -0.0408941 5.87076 14.2147 27 1 
704 1.21287 5.86992 -0.0904361 -0.0408941 5.87076 14.2147 31 1 
706 1.21286 5.86844 -0.0903967 -0.0407487 5.86928 14.189 31 1 
708 1.21284 5.86686 -0.0905002 -0.0406763 5.86771 14.1652 31 1 
710 1.21282 5.86568 -0.0908077 -0.0407406 5.86653 14.1308 31 1 
712 1.21281 5.86502 -0.0910888 -0.0408413 5.86588 14.0985 31 1 
714 1.21279 5.86465 -0.0914772 -0.0409196 5.86551 14.0748 31 1 
716 1.21277 5.86524 -0.0915931 -0.0408695 5.8661 14.0385 31 1 
718 1.21276 5.86598 -0.0915732 -0.0407652 5.86684 14.0152 31 1 
720 1.21275 5.8669 -0.0914714 -0.0405862 5.86776 13.9955 31 1 
722 1.21273 5.86746 -0.0910722 -0.0402303 5.8683 13.9672 31 1 
724 1.21272 5.86749 -0.0906639 -0.0398757 5.86833 13.9365 31 1 
726 1.2127 5.86677 -0.0902282 -0.0395277 5.8676 13.9164 31 1 
728 1.21269 5.86512 -0.0898388 -0.03919 5.86594 13.899 31 1 
730 1.21267 5.8639 -0.0897008 -0.0390283 5.86472 13.8614 31 1 
732 1.21267 5.86272 -0.0898787 -0.0390669 5.86355 13.8459 31 1 
734 1.21266 5.86223 -0.0904835 -0.039379 5.86306 13.8362 31 1 
736 1.21264 5.86422 -0.0911301 -0.0397175 5.86506 13.7971 31 1 
738 1.21263 5.86791 -0.0923227 -0.0402208 5.86878 13.7761 31 1 
740 1.21262 5.87349 -0.092947 -0.040466 5.87437 13.7716 31 1 
742 1.21261 5.88183 -0.0935358 -0.0406659 5.88272 13.7435 31 1 
744 1.2126 5.89064 -0.0938392 -0.0407142 5.89153 13.7258 31 1 
746 1.21259 5.89985 -0.0928521 -0.0400613 5.90072 13.7179 31 1 
748 1.21259 5.90734 -0.0916707 -0.0391399 5.90819 13.7021 31 1 
750 1.21257 5.91275 -0.0898711 -0.0380728 5.91356 13.669 31 1 
752 1.21256 5.91577 -0.088057 -0.037012 5.91654 13.6537 31 1 
752 1.21256 5.91577 -0.088057 -0.037012 5.91654 13.6537 31 1 
754 1.21256 5.91472 -0.0865855 -0.0360944 5.91546 13.6605 31 1 
756 1.21254 5.91311 -0.0857008 -0.0356295 5.91384 13.6186 31 1 
758 1.21253 5.91115 -0.085977 -0.0358002 5.91189 13.5925 31 1 
760 1.21253 5.90986 -0.0867851 -0.0360163 5.91061 13.6049 31 1 
762 1.21251 5.91221 -0.0886445 -0.0368974 5.913 13.5728 31 1 
764 1.21249 5.91964 -0.0910432 -0.038175 5.92046 13.5244 31 1 
766 1.2125 5.92966 -0.092968 -0.0388024 5.93052 13.5491 31 1 
768 1.21249 5.94624 -0.0946446 -0.0393557 5.94713 13.5244 31 1 
770 1.21247 5.9653 -0.0961592 -0.0400866 5.96621 13.492 31 1 
772 1.21246 5.98545 -0.0955658 -0.0394383 5.98635 13.4831 31 1 
774 1.21245 6.00476 -0.0938836 -0.0381441 6.00562 13.4652 31 1 
776 1.21243 6.02219 -0.0912287 -0.0365952 6.023 13.4124 31 1 
778 1.21241 6.03456 -0.0877147 -0.0343865 6.0353 13.3919 31 1 
780 1.21241 6.04004 -0.0838061 -0.0321142 6.04071 13.3907 31 1 
782 1.21237 6.04092 -0.0812734 -0.0307358 6.04154 13.3186 31 1 
784 1.21233 6.03712 -0.0808947 -0.0304925 6.03774 13.2353 31 1 
786 1.21228 6.03554 -0.0796712 -0.0294127 6.03613 13.1556 31 1 
788 1.21227 6.03124 -0.0799579 -0.029153 6.03184 13.131 31 1 
790 1.21217 6.03519 -0.0822667 -0.0295374 6.03582 12.9458 31 1 
792 1.2121 6.03917 -0.0861998 -0.0306387 6.03986 12.8263 31 1 
794 1.21201 6.0538 -0.0890306 -0.0313947 6.05454 12.6696 31 1 
796 1.21188 6.07699 -0.0928974 -0.0309944 6.07779 12.4299 31 1 
798 1.21166 6.11543 -0.103706 -0.0338283 6.11644 12.0369 31 1 
800 1.21147 6.14824 -0.11115 -0.0366576 6.14939 11.6781 31 1 
