27.1694;r ;Density                 ;Velocity u              ;Velocity v              ;Velocity w              ;|Velocity|              ;Pressure                ;Distribution            ;Levels                  ;
0 1.20379 9.99846 -7.62396e-05 -3.64099e-05 9.99846 -2.18642 1 1 
2 1.20383 9.99739 -8.14512e-05 -6.44176e-05 9.99739 -2.12148 1 1 
4 1.20384 9.9968 -0.00013973 -0.000156213 9.9968 -2.09424 1 1 
6 1.20383 9.99807 -0.00022965 -0.000273446 9.99807 -2.11006 1 1 
8 1.20383 9.9994 -0.000288446 -0.00035237 9.9994 -2.10963 1 1 
10 1.20382 9.99894 -0.000361261 -0.000416714 9.99894 -2.124 1 1 
12 1.20384 9.99827 -0.000456001 -0.000540735 9.99827 -2.09759 1 1 
14 1.20385 9.9994 -0.000560712 -0.000670495 9.9994 -2.08509 1 1 
16 1.20386 9.99928 -0.000562019 -0.000689261 9.99928 -2.05179 1 1 
18 1.20385 9.99899 -0.000633078 -0.000775519 9.99899 -2.06926 1 1 
20 1.20382 9.99975 -0.000725895 -0.000883102 9.99975 -2.13571 1 1 
22 1.20384 9.99936 -0.000739743 -0.000930972 9.99936 -2.09462 1 1 
24 1.20386 9.99986 -0.000823605 -0.00103964 9.99986 -2.06395 1 1 
26 1.20385 9.9997 -0.000930503 -0.00115367 9.9997 -2.07616 1 1 
28 1.20385 9.99965 -0.00100835 -0.00123202 9.99965 -2.07202 1 1 
30 1.20388 10.0006 -0.00105228 -0.00131184 10.0006 -2.03058 1 1 
32 1.2039 9.99978 -0.00114651 -0.00142091 9.99978 -1.99107 1 1 
32 1.2039 9.99978 -0.00114651 -0.00142091 9.99978 -1.99107 1 1 
34 1.20388 9.9999 -0.00116472 -0.00145987 9.9999 -2.02493 1 1 
36 1.20388 9.99954 -0.00125859 -0.00156921 9.99954 -2.02634 1 1 
38 1.20387 9.99894 -0.00136497 -0.00169985 9.99894 -2.03694 1 1 
40 1.20388 9.9989 -0.00143595 -0.00179596 9.9989 -2.02594 1 1 
42 1.20389 9.99878 -0.00152262 -0.00189652 9.99878 -1.9971 1 1 
44 1.2039 9.99782 -0.00157415 -0.00196094 9.99782 -1.99015 1 1 
46 1.20391 9.99746 -0.00168528 -0.0020854 9.99746 -1.97541 1 1 
48 1.2039 9.99844 -0.00179626 -0.00222916 9.99844 -1.99105 1 1 
50 1.20392 9.99853 -0.00189356 -0.00233304 9.99853 -1.94523 1 1 
52 1.20395 9.99787 -0.00203245 -0.00250062 9.99787 -1.90262 1 1 
54 1.20393 9.99744 -0.00211975 -0.00258672 9.99744 -1.939 1 1 
56 1.20394 9.99771 -0.00221715 -0.00270107 9.99771 -1.90897 1 1 
58 1.20396 9.99734 -0.0023924 -0.00291585 9.99734 -1.87185 1 1 
60 1.20393 9.99712 -0.0024201 -0.00296511 9.99712 -1.92533 1 1 
62 1.20394 9.99626 -0.00250897 -0.00307708 9.99626 -1.90855 1 1 
64 1.20396 9.99586 -0.00266885 -0.00323881 9.99586 -1.87501 1 1 
64 1.20396 9.99586 -0.00266885 -0.00323881 9.99586 -1.87501 2 1 
66 1.20397 9.99569 -0.00272756 -0.00333215 9.99569 -1.8604 2 1 
68 1.20397 9.9969 -0.0028015 -0.00342397 9.9969 -1.8593 2 1 
70 1.204 9.99722 -0.00298431 -0.00364939 9.99722 -1.81261 2 1 
72 1.20401 9.99648 -0.00309199 -0.00378429 9.99648 -1.7842 2 1 
74 1.20402 9.99592 -0.00307793 -0.00376406 9.99592 -1.77601 2 1 
76 1.20406 9.9948 -0.00322265 -0.00395136 9.9948 -1.70549 2 1 
78 1.20403 9.99562 -0.00338173 -0.00414225 9.99562 -1.74938 2 1 
80 1.204 9.99535 -0.0033927 -0.00418901 9.99535 -1.79913 2 1 
82 1.204 9.99439 -0.00348812 -0.00431874 9.99439 -1.80029 2 1 
84 1.20403 9.99356 -0.00369629 -0.00452022 9.99357 -1.7514 2 1 
86 1.20407 9.99297 -0.0037413 -0.00457338 9.99297 -1.67604 2 1 
88 1.20407 9.99358 -0.00376364 -0.0046276 9.99358 -1.67151 2 1 
90 1.20408 9.99389 -0.00395017 -0.00483636 9.99389 -1.65404 2 1 
92 1.20409 9.99344 -0.0041622 -0.00507118 9.99344 -1.64293 2 1 
94 1.20411 9.99242 -0.00410639 -0.00504973 9.99243 -1.61403 2 1 
96 1.20413 9.99178 -0.00412978 -0.0050995 9.99179 -1.57471 2 1 
96 1.20413 9.99178 -0.00412978 -0.0050995 9.99179 -1.57471 2 1 
98 1.20411 9.9926 -0.0044061 -0.00538067 9.9926 -1.60046 2 1 
100 1.2041 9.9931 -0.00438572 -0.00540789 9.9931 -1.62436 2 1 
102 1.20411 9.99222 -0.00435402 -0.00541879 9.99222 -1.60962 2 1 
104 1.20413 9.99104 -0.00460661 -0.00568508 9.99105 -1.56238 2 1 
106 1.20415 9.99063 -0.00472637 -0.00581577 9.99063 -1.52791 2 1 
108 1.20418 9.9893 -0.00465269 -0.00576516 9.9893 -1.48257 2 1 
110 1.20416 9.99036 -0.00469114 -0.00582786 9.99036 -1.51179 2 1 
112 1.20416 9.99114 -0.00499966 -0.0061663 9.99115 -1.51104 2 1 
114 1.2042 9.98936 -0.00508905 -0.00628256 9.98936 -1.44136 2 1 
116 1.20421 9.99039 -0.00498432 -0.00620408 9.99039 -1.4284 2 1 
118 1.20422 9.99 -0.00511054 -0.00635162 9.99001 -1.40283 2 1 
120 1.20421 9.98869 -0.00539606 -0.00663628 9.9887 -1.41892 2 1 
122 1.20418 9.98955 -0.00539448 -0.00666121 9.98956 -1.47943 2 1 
124 1.2042 9.98771 -0.00529579 -0.00659998 9.98771 -1.44264 2 1 
126 1.20425 9.98591 -0.005561 -0.00688324 9.98592 -1.35413 2 1 
128 1.20423 9.98777 -0.00574596 -0.00707365 9.98778 -1.38582 2 1 
128 1.20423 9.98777 -0.00574596 -0.00707365 9.98778 -1.38582 10 1 
130 1.20426 9.98783 -0.00563635 -0.00700345 9.98783 -1.34556 10 1 
132 1.20427 9.98882 -0.00558377 -0.00694481 9.98882 -1.31329 10 1 
134 1.20427 9.98875 -0.00594368 -0.00731548 9.98875 -1.31829 10 1 
136 1.20429 9.98644 -0.0062134 -0.00762785 9.98644 -1.28047 10 1 
138 1.20427 9.98626 -0.00608891 -0.00753797 9.98627 -1.31786 10 1 
140 1.20427 9.9862 -0.00603539 -0.0075227 9.9862 -1.31411 10 1 
142 1.20427 9.98613 -0.00638271 -0.00782295 9.98613 -1.32338 10 1 
144 1.20426 9.98648 -0.00659031 -0.00804763 9.98649 -1.34266 10 1 
146 1.20429 9.98622 -0.00631165 -0.00779975 9.98623 -1.27822 10 1 
148 1.20431 9.98456 -0.00600933 -0.00755049 9.98457 -1.24453 10 1 
150 1.20429 9.98464 -0.00615613 -0.00774922 9.98465 -1.28694 10 1 
152 1.20431 9.98508 -0.00651467 -0.00808996 9.98509 -1.25146 10 1 
154 1.20432 9.98514 -0.00645413 -0.00801406 9.98514 -1.22715 10 1 
156 1.20431 9.986 -0.00620366 -0.00780141 9.98601 -1.25264 10 1 
158 1.20432 9.9846 -0.00612881 -0.00777338 9.98461 -1.22875 10 1 
160 1.20431 9.98171 -0.00616721 -0.00784611 9.98172 -1.23893 10 1 
160 1.20431 9.98171 -0.00616721 -0.00784611 9.98172 -1.23893 10 1 
162 1.20428 9.98158 -0.0059853 -0.00770813 9.98159 -1.29732 10 1 
164 1.2043 9.98065 -0.005499 -0.00720053 9.98066 -1.26693 10 1 
166 1.20433 9.97917 -0.00527105 -0.00695653 9.97918 -1.20225 10 1 
168 1.2043 9.98191 -0.00570353 -0.00740453 9.98192 -1.26862 10 1 
170 1.20432 9.98033 -0.00653281 -0.00824309 9.98034 -1.22297 10 1 
172 1.20434 9.97989 -0.00712778 -0.00881729 9.97989 -1.19975 10 1 
174 1.20431 9.98085 -0.00702651 -0.00872911 9.98086 -1.24807 10 1 
176 1.20435 9.97722 -0.0065195 -0.00820837 9.97723 -1.17936 10 1 
178 1.20432 9.97733 -0.00590365 -0.00763288 9.97733 -1.22681 10 1 
180 1.20431 9.97656 -0.00551652 -0.00729074 9.97656 -1.24559 10 1 
182 1.20431 9.974 -0.00543075 -0.00719448 9.97401 -1.24149 10 1 
184 1.20429 9.97431 -0.00545432 -0.00723982 9.97431 -1.28112 10 1 
186 1.20433 9.9755 -0.0054725 -0.0072512 9.97551 -1.20121 10 1 
188 1.20435 9.97563 -0.00545556 -0.00720689 9.97564 -1.17055 10 1 
190 1.20433 9.97557 -0.00551109 -0.00724437 9.97558 -1.20684 10 1 
192 1.20432 9.97497 -0.00537693 -0.00714536 9.97497 -1.22079 10 1 
194 1.20433 9.97144 -0.00549144 -0.00726627 9.97145 -1.21024 10 1 
196 1.20433 9.96872 -0.00559446 -0.00734882 9.96873 -1.2111 10 1 
198 1.20433 9.9684 -0.00550601 -0.00723249 9.9684 -1.21417 10 1 
200 1.20436 9.96687 -0.00565101 -0.0073877 9.96688 -1.15642 10 1 
202 1.20434 9.96633 -0.00553655 -0.00733604 9.96634 -1.19486 10 1 
204 1.20429 9.96666 -0.00543716 -0.00722042 9.96667 -1.28365 10 1 
206 1.20436 9.96332 -0.00559268 -0.00735499 9.96333 -1.15526 10 1 
208 1.2044 9.96236 -0.00561615 -0.00732702 9.96237 -1.09259 10 1 
210 1.20435 9.96293 -0.00553077 -0.00724356 9.96294 -1.18163 10 1 
212 1.2044 9.95595 -0.0055492 -0.00733687 9.95596 -1.08943 10 1 
214 1.20436 9.95172 -0.00553881 -0.00732673 9.95173 -1.15446 10 1 
216 1.20435 9.94865 -0.00561734 -0.00736957 9.94865 -1.17996 10 1 
218 1.20441 9.94417 -0.00573241 -0.00746535 9.94418 -1.0625 10 1 
220 1.2044 9.94822 -0.00567369 -0.00747832 9.94823 -1.08697 10 1 
222 1.20444 9.94803 -0.00560681 -0.00741902 9.94803 -1.00775 10 1 
224 1.20446 9.94263 -0.0055463 -0.00724394 9.94263 -0.984378 10 1 
224 1.20446 9.94263 -0.0055463 -0.00724394 9.94263 -0.984378 10 1 
226 1.20449 9.93782 -0.00555466 -0.00725087 9.93783 -0.92905 10 1 
228 1.2045 9.92827 -0.00564129 -0.00741192 9.92828 -0.903117 10 1 
230 1.20448 9.92081 -0.00575063 -0.00755584 9.92082 -0.936498 10 1 
232 1.2045 9.92141 -0.00575424 -0.00753481 9.92141 -0.907388 10 1 
234 1.20458 9.91893 -0.00569561 -0.00740267 9.91894 -0.76468 10 1 
236 1.20468 9.91076 -0.00566541 -0.00741871 9.91076 -0.577263 10 1 
238 1.20459 9.90811 -0.00563833 -0.00741825 9.90812 -0.738121 10 1 
240 1.20469 9.89587 -0.00584053 -0.00760131 9.89587 -0.558741 10 1 
242 1.20471 9.88732 -0.00589422 -0.00764759 9.88732 -0.517749 10 1 
244 1.20464 9.8856 -0.00578944 -0.00754886 9.8856 -0.648215 10 1 
246 1.20486 9.87301 -0.00581788 -0.00755163 9.87302 -0.261318 10 1 
248 1.20489 9.8636 -0.00570623 -0.007408 9.86361 -0.189846 10 1 
250 1.2049 9.85141 -0.00581005 -0.00753248 9.85141 -0.187248 10 1 
252 1.20496 9.8398 -0.00602855 -0.00774182 9.8398 -0.0799756 10 1 
254 1.20507 9.82699 -0.00588911 -0.0075662 9.82699 0.13067 10 1 
256 1.20515 9.81203 -0.00588968 -0.00757588 9.81204 0.267591 10 1 
256 1.20515 9.81203 -0.00588968 -0.00757588 9.81204 0.267591 11 1 
258 1.2052 9.79482 -0.00594156 -0.00765867 9.79483 0.352439 11 1 
260 1.2054 9.7755 -0.00595917 -0.00766881 9.77551 0.726053 11 1 
262 1.20553 9.75279 -0.00608455 -0.00776471 9.7528 0.957106 11 1 
264 1.20551 9.73001 -0.00604585 -0.00768908 9.73002 0.923304 11 1 
266 1.20575 9.7058 -0.00602199 -0.00768685 9.70581 1.35861 11 1 
268 1.20618 9.66546 -0.00611173 -0.0077855 9.66547 2.134 11 1 
270 1.20612 9.63703 -0.00620036 -0.00781932 9.63705 2.02582 11 1 
272 1.20637 9.59443 -0.00613473 -0.00773192 9.59445 2.47382 11 1 
274 1.20693 9.53786 -0.00614229 -0.00778255 9.53788 3.48255 11 1 
276 1.20697 9.49705 -0.00621531 -0.00782207 9.49706 3.55818 11 1 
278 1.20737 9.43581 -0.00626149 -0.00785637 9.43582 4.27622 11 1 
280 1.20807 9.37189 -0.006299 -0.00788151 9.37192 5.55189 11 1 
282 1.20857 9.28951 -0.00628552 -0.00784146 9.28967 6.44866 11 1 
284 1.20895 9.16808 -0.00626405 -0.00784134 9.16837 7.13717 11 1 
286 1.20945 9.04438 -0.00629167 -0.00784055 9.04455 8.02913 11 1 
288 1.21033 8.93014 -0.00631864 -0.0078541 8.93017 9.63325 11 1 
288 1.21033 8.93014 -0.00631864 -0.0078541 8.93017 9.63325 11 1 
290 1.2114 8.82331 -0.00630804 -0.00783786 8.82336 11.5541 11 1 
292 1.21225 8.68326 -0.00639173 -0.00791545 8.68346 13.09 11 1 
294 1.21294 8.49793 -0.00635813 -0.00787266 8.49841 14.3396 11 1 
296 1.21392 8.30364 -0.00627516 -0.00774396 8.30401 16.1128 11 1 
298 1.20827 8.06475 -0.00626003 -0.00770263 8.06493 5.89968 11 1 
300 1.19847 7.96051 -0.00617589 -0.00761915 7.96073 -11.7978 11 1 
302 1.19531 7.91498 -0.00625447 -0.00768016 7.91509 -17.4996 11 1 
304 1.19612 7.75292 -0.00630679 -0.00769341 7.75311 -16.0457 11 1 
306 1.19706 7.57778 -0.00622366 -0.0075954 7.57808 -14.3329 11 1 
308 1.1978 7.41755 -0.00617117 -0.00751303 7.41788 -13.0084 11 1 
310 1.19827 7.29017 -0.00608872 -0.00740147 7.29042 -12.1646 11 1 
312 1.19883 7.15646 -0.00608099 -0.00740245 7.15656 -11.1357 11 1 
314 1.19938 7.0552 -0.00615979 -0.00746306 7.05527 -10.1492 11 1 
316 1.19983 6.9765 -0.00622342 -0.00750596 6.97654 -9.34614 11 1 
318 1.20022 6.88115 -0.00624292 -0.0075307 6.88119 -8.62499 11 1 
320 1.20054 6.81504 -0.00619766 -0.00746592 6.81507 -8.06143 11 1 
320 1.20054 6.81504 -0.00619766 -0.00746592 6.81507 -8.06143 15 1 
322 1.20086 6.76897 -0.00626584 -0.00752605 6.76899 -7.47637 15 1 
324 1.20119 6.70858 -0.0063249 -0.00758531 6.70859 -6.88797 15 1 
326 1.20141 6.65945 -0.0062563 -0.00750313 6.65946 -6.48051 15 1 
328 1.20159 6.61537 -0.00621696 -0.00745557 6.6154 -6.15364 15 1 
330 1.20174 6.57 -0.00627447 -0.00750139 6.57002 -5.89549 15 1 
332 1.20198 6.54106 -0.00632098 -0.00754164 6.54108 -5.45942 15 1 
334 1.20221 6.50392 -0.00632963 -0.00755476 6.50394 -5.03677 15 1 
336 1.2022 6.45621 -0.00634853 -0.00756457 6.45624 -5.05661 15 1 
338 1.20227 6.4254 -0.00637766 -0.00759351 6.42544 -4.92996 15 1 
340 1.20252 6.40307 -0.00644982 -0.0076912 6.4031 -4.47121 15 1 
342 1.20264 6.37867 -0.00648082 -0.00772369 6.3787 -4.26947 15 1 
344 1.20263 6.34588 -0.00645669 -0.00768155 6.34591 -4.27648 15 1 
346 1.20266 6.31028 -0.00652227 -0.0077611 6.31029 -4.21931 15 1 
348 1.20281 6.29913 -0.00670739 -0.00797286 6.29915 -3.95269 15 1 
350 1.20296 6.29414 -0.00679375 -0.00805861 6.29416 -3.6852 15 1 
352 1.20295 6.26841 -0.00676955 -0.00802811 6.26842 -3.69696 15 1 
354 1.20299 6.24825 -0.00681365 -0.00809634 6.24826 -3.63594 15 1 
356 1.20308 6.24113 -0.00697577 -0.00829242 6.24114 -3.46462 15 1 
358 1.20312 6.23433 -0.00708479 -0.00838833 6.23434 -3.39761 15 1 
360 1.20319 6.23044 -0.00708518 -0.008378 6.23045 -3.26673 15 1 
362 1.20326 6.22406 -0.00710493 -0.00844155 6.22407 -3.13841 15 1 
364 1.20329 6.2169 -0.00721429 -0.00856888 6.21691 -3.08597 15 1 
366 1.20334 6.21456 -0.00731245 -0.00865158 6.21457 -3.00139 15 1 
368 1.2034 6.21349 -0.00729377 -0.00866078 6.2135 -2.89707 15 1 
370 1.20344 6.21567 -0.00721704 -0.00861428 6.21568 -2.8145 15 1 
372 1.20345 6.21546 -0.00721735 -0.00860354 6.21547 -2.80004 15 1 
374 1.20349 6.21042 -0.00728424 -0.00866961 6.21043 -2.73186 15 1 
376 1.20357 6.21028 -0.0073078 -0.00871016 6.21029 -2.58154 15 1 
378 1.2036 6.21286 -0.00731833 -0.00872471 6.21287 -2.53662 15 1 
380 1.20363 6.21568 -0.00736916 -0.00877605 6.21569 -2.47504 15 1 
382 1.20369 6.21605 -0.0074167 -0.00882913 6.21606 -2.36316 15 1 
384 1.20369 6.20936 -0.00740103 -0.00881211 6.20937 -2.37305 15 1 
384 1.20369 6.20936 -0.00740103 -0.00881211 6.20937 -2.37305 16 1 
386 1.20369 6.20701 -0.00732344 -0.008746 6.20702 -2.37227 16 1 
388 1.20375 6.21043 -0.00731009 -0.00874777 6.21044 -2.25401 16 1 
390 1.20381 6.20897 -0.00741612 -0.0088487 6.20898 -2.14566 16 1 
392 1.20381 6.20586 -0.00751127 -0.00896182 6.20587 -2.14904 16 1 
394 1.20381 6.20208 -0.00756814 -0.00906526 6.20209 -2.15829 16 1 
396 1.20387 6.19706 -0.00761207 -0.00911341 6.19707 -2.04217 16 1 
398 1.20391 6.19633 -0.00758587 -0.00907817 6.19634 -1.97171 16 1 
400 1.2039 6.19576 -0.00750214 -0.00903909 6.19577 -1.98972 16 1 
402 1.20393 6.18966 -0.00751992 -0.00909197 6.18967 -1.92631 16 1 
404 1.20395 6.18165 -0.00764117 -0.009204 6.18166 -1.90205 16 1 
406 1.20393 6.1777 -0.00771337 -0.00930066 6.17771 -1.93214 16 1 
408 1.204 6.17728 -0.0077284 -0.00935962 6.1773 -1.80771 16 1 
410 1.20407 6.17403 -0.00776155 -0.00941724 6.17405 -1.67836 16 1 
412 1.20403 6.1688 -0.00776762 -0.0094461 6.16881 -1.75846 16 1 
414 1.20399 6.16396 -0.00772214 -0.009413 6.16398 -1.82308 16 1 
416 1.20405 6.15725 -0.00771147 -0.00942713 6.15726 -1.7113 16 1 
416 1.20405 6.15725 -0.00771147 -0.00942713 6.15726 -1.7113 16 1 
418 1.20408 6.15329 -0.00780342 -0.00957173 6.1533 -1.65815 16 1 
420 1.20409 6.15358 -0.00797303 -0.00977795 6.1536 -1.64563 16 1 
422 1.20417 6.15206 -0.0081324 -0.0099404 6.15207 -1.49715 16 1 
424 1.20418 6.14916 -0.00817382 -0.00998918 6.14918 -1.47784 16 1 
426 1.2041 6.1448 -0.00810766 -0.00994287 6.14481 -1.62047 16 1 
428 1.20412 6.13788 -0.00806313 -0.0098954 6.1379 -1.58715 16 1 
430 1.20416 6.13373 -0.00813969 -0.00997242 6.13375 -1.51351 16 1 
432 1.20415 6.13373 -0.00834492 -0.0102082 6.13375 -1.53605 16 1 
434 1.20421 6.13649 -0.00859406 -0.0104991 6.1365 -1.42442 16 1 
436 1.20428 6.14408 -0.00879554 -0.0107227 6.14409 -1.30132 16 1 
438 1.20424 6.15382 -0.0088274 -0.0107474 6.15383 -1.36663 16 1 
440 1.20422 6.15896 -0.00867505 -0.0105694 6.15897 -1.41566 16 1 
442 1.20425 6.15768 -0.00855112 -0.0104323 6.1577 -1.35967 16 1 
444 1.20427 6.1535 -0.00858315 -0.010503 6.15352 -1.32136 16 1 
446 1.20428 6.1516 -0.00874829 -0.0107289 6.15161 -1.3064 16 1 
448 1.20428 6.15712 -0.00901192 -0.0110485 6.15714 -1.29241 16 1 
448 1.20428 6.15712 -0.00901192 -0.0110485 6.15714 -1.29241 17 1 
450 1.20431 6.17241 -0.00926216 -0.0113727 6.17243 -1.24755 17 1 
452 1.20435 6.19372 -0.00939178 -0.0115795 6.19375 -1.17065 17 1 
454 1.20435 6.21379 -0.00936719 -0.0115761 6.21381 -1.17387 17 1 
456 1.20433 6.22678 -0.00915629 -0.0113081 6.2268 -1.20888 17 1 
458 1.20436 6.22946 -0.00882449 -0.0109159 6.22948 -1.15194 17 1 
460 1.2044 6.22238 -0.00863267 -0.010721 6.2224 -1.0767 17 1 
462 1.20442 6.21159 -0.0087653 -0.010898 6.21161 -1.04807 17 1 
464 1.20441 6.20662 -0.00911902 -0.0113401 6.20664 -1.06261 17 1 
466 1.20441 6.21483 -0.00947594 -0.011795 6.21485 -1.07338 17 1 
468 1.20444 6.23655 -0.00970973 -0.0121037 6.23658 -1.01163 17 1 
470 1.20445 6.26507 -0.00977265 -0.0122007 6.2651 -0.986235 17 1 
472 1.20444 6.29256 -0.00965086 -0.0120413 6.29259 -1.01244 17 1 
474 1.20449 6.31379 -0.00935967 -0.0116687 6.31382 -0.92726 17 1 
476 1.20456 6.32143 -0.00891431 -0.0111151 6.32145 -0.801505 17 1 
478 1.20457 6.30669 -0.00836734 -0.0104032 6.30671 -0.785475 17 1 
480 1.20451 6.26751 -0.00781294 -0.00968139 6.26754 -0.881174 17 1 
480 1.20451 6.26751 -0.00781294 -0.00968139 6.26754 -0.881174 17 1 
482 1.20447 6.20814 -0.00734809 -0.0091296 6.2082 -0.951339 17 1 
484 1.20452 6.13532 -0.00710055 -0.0088657 6.13539 -0.872503 17 1 
486 1.20454 6.05918 -0.00718138 -0.00896692 6.05925 -0.838074 17 1 
488 1.20448 5.99125 -0.0075577 -0.00942817 5.99131 -0.935416 17 1 
490 1.20448 5.94235 -0.00808866 -0.0101385 5.94238 -0.939875 17 1 
492 1.20452 5.91943 -0.0086938 -0.0109294 5.91945 -0.866407 17 1 
494 1.20455 5.92172 -0.00930793 -0.0116736 5.92174 -0.821322 17 1 
496 1.20457 5.94683 -0.0098187 -0.0123448 5.94687 -0.774667 17 1 
498 1.20461 5.99456 -0.0102332 -0.012926 5.99461 -0.703215 17 1 
500 1.2047 6.06168 -0.0106303 -0.0134054 6.06176 -0.548095 17 1 
502 1.20477 6.14365 -0.0109946 -0.0138372 6.14375 -0.41666 17 1 
504 1.20478 6.23783 -0.0112823 -0.0142145 6.23795 -0.40556 17 1 
506 1.20481 6.34337 -0.0114954 -0.0144764 6.34351 -0.334658 17 1 
508 1.20491 6.4595 -0.0116555 -0.0146418 6.45965 -0.17021 17 1 
510 1.20498 6.58327 -0.0117785 -0.0147717 6.58344 -0.035197 17 1 
512 1.20504 6.71225 -0.0118971 -0.014892 6.71242 0.0675561 17 1 
512 1.20504 6.71225 -0.0118971 -0.014892 6.71242 0.0675561 25 1 
514 1.2051 6.84638 -0.0120315 -0.0150007 6.84656 0.184727 25 1 
516 1.20517 6.98472 -0.0121357 -0.0150908 6.98491 0.302809 25 1 
518 1.2052 7.12569 -0.012189 -0.0151388 7.12588 0.360993 25 1 
520 1.20522 7.26865 -0.012228 -0.0151252 7.26885 0.390032 25 1 
522 1.20524 7.41345 -0.0122591 -0.0150861 7.41364 0.431465 25 1 
524 1.20527 7.55854 -0.0122627 -0.0150562 7.55872 0.484661 25 1 
526 1.2053 7.70206 -0.0122709 -0.0150099 7.70224 0.550186 25 1 
528 1.20532 7.84526 -0.0122949 -0.0149448 7.84544 0.56921 25 1 
530 1.20533 7.98746 -0.0122862 -0.0148788 7.98764 0.597663 25 1 
532 1.20535 8.12655 -0.0122098 -0.0147549 8.12672 0.639024 25 1 
534 1.20532 8.26199 -0.012082 -0.0145501 8.26214 0.575902 25 1 
536 1.20529 8.39307 -0.0119398 -0.0143322 8.39321 0.521589 25 1 
538 1.2053 8.5206 -0.01183 -0.0141601 8.52073 0.550497 25 1 
540 1.20534 8.64394 -0.0117641 -0.0140221 8.64406 0.607215 25 1 
542 1.20534 8.76073 -0.0117088 -0.0138884 8.76084 0.609883 25 1 
544 1.20526 8.87104 -0.0116004 -0.0137022 8.87114 0.465307 25 1 
544 1.20526 8.87104 -0.0116004 -0.0137022 8.87114 0.465307 25 1 
546 1.20518 8.97632 -0.0113968 -0.0134237 8.97641 0.322099 25 1 
548 1.20518 9.07712 -0.0111822 -0.0131192 9.0772 0.322801 25 1 
550 1.20523 9.17227 -0.0110261 -0.0128689 9.17234 0.408045 25 1 
552 1.20522 9.25987 -0.0109071 -0.0126861 9.25993 0.4061 25 1 
554 1.20515 9.34035 -0.0107727 -0.0124866 9.34041 0.274806 25 1 
556 1.20511 9.41561 -0.0106053 -0.0122233 9.41566 0.198203 25 1 
558 1.20511 9.48552 -0.0104242 -0.0119574 9.48556 0.205336 25 1 
560 1.20512 9.54863 -0.0102443 -0.011697 9.54867 0.219824 25 1 
562 1.20507 9.60363 -0.0100849 -0.0114326 9.60366 0.129813 25 1 
564 1.20501 9.651 -0.00991497 -0.011173 9.65103 0.0162963 25 1 
566 1.20503 9.69351 -0.00975204 -0.0109367 9.69354 0.0459114 25 1 
568 1.20505 9.73118 -0.00960742 -0.0106941 9.7312 0.0967846 25 1 
570 1.20505 9.76039 -0.0094611 -0.0104418 9.7604 0.0878608 25 1 
572 1.20497 9.78241 -0.00933958 -0.010239 9.78243 -0.0542932 25 1 
574 1.2049 9.80089 -0.00925769 -0.0100791 9.8009 -0.177708 25 1 
576 1.20495 9.8177 -0.00918506 -0.00992905 9.81771 -0.0971214 25 1 
576 1.20495 9.8177 -0.00918506 -0.00992905 9.81771 -0.0971214 26 1 
578 1.20502 9.83296 -0.00909993 -0.00979122 9.83297 0.0288167 26 1 
580 1.20503 9.84354 -0.00904424 -0.00968876 9.84355 0.0530935 26 1 
582 1.20492 9.85136 -0.00899533 -0.00956173 9.85137 -0.140534 26 1 
584 1.20483 9.85935 -0.00892435 -0.00940817 9.85936 -0.314034 26 1 
586 1.20487 9.86744 -0.00889032 -0.00930657 9.86745 -0.243846 26 1 
588 1.20495 9.87622 -0.00889781 -0.00923697 9.87622 -0.0989315 26 1 
590 1.20497 9.88272 -0.00890862 -0.00918041 9.88273 -0.0580491 26 1 
592 1.20489 9.88744 -0.0088911 -0.00912411 9.88745 -0.19666 26 1 
594 1.20483 9.8933 -0.00886976 -0.00905974 9.89331 -0.307125 26 1 
596 1.20486 9.90041 -0.00880317 -0.00893436 9.90042 -0.2616 26 1 
598 1.20491 9.90698 -0.00869629 -0.00878181 9.90699 -0.161665 26 1 
600 1.20491 9.91138 -0.00866549 -0.00871768 9.91139 -0.168719 26 1 
602 1.20484 9.91429 -0.00869609 -0.00871996 9.9143 -0.285975 26 1 
604 1.20482 9.91717 -0.00866247 -0.00865843 9.91718 -0.319816 26 1 
606 1.20485 9.92196 -0.0085731 -0.00854902 9.92197 -0.26877 26 1 
608 1.20489 9.92675 -0.00850912 -0.00846066 9.92676 -0.204579 26 1 
608 1.20489 9.92675 -0.00850912 -0.00846066 9.92676 -0.204579 26 1 
610 1.20487 9.92959 -0.00845049 -0.00836049 9.92959 -0.243301 26 1 
612 1.2048 9.9317 -0.00838781 -0.00826846 9.9317 -0.369389 26 1 
614 1.20478 9.93468 -0.00835604 -0.00820951 9.93469 -0.393701 26 1 
616 1.20484 9.9385 -0.00835569 -0.00815602 9.93851 -0.281949 26 1 
618 1.20489 9.94068 -0.00833517 -0.00807232 9.94069 -0.200705 26 1 
620 1.20484 9.94106 -0.00828335 -0.00798127 9.94107 -0.283302 26 1 
622 1.20477 9.94094 -0.00824703 -0.00790958 9.94095 -0.41058 26 1 
624 1.20476 9.94224 -0.00823475 -0.00784446 9.94225 -0.437915 26 1 
626 1.20482 9.94495 -0.00822436 -0.00778336 9.94496 -0.334085 26 1 
628 1.20486 9.94757 -0.00820786 -0.00772891 9.94758 -0.260578 26 1 
630 1.20482 9.94757 -0.0081522 -0.00763774 9.94758 -0.327908 26 1 
632 1.20476 9.94576 -0.00809376 -0.00753837 9.94576 -0.439803 26 1 
634 1.20474 9.94667 -0.00807227 -0.00749009 9.94668 -0.468582 26 1 
636 1.2048 9.94912 -0.00805043 -0.00744944 9.94913 -0.352641 26 1 
638 1.20485 9.95108 -0.0079947 -0.00737012 9.95109 -0.27879 26 1 
640 1.2048 9.95089 -0.00795843 -0.00731232 9.95089 -0.363237 26 1 
642 1.20473 9.94907 -0.00791603 -0.0072663 9.94908 -0.489081 26 1 
644 1.20472 9.94913 -0.00784789 -0.00718653 9.94914 -0.513443 26 1 
646 1.20477 9.9513 -0.00778632 -0.00710232 9.9513 -0.411181 26 1 
648 1.20482 9.95368 -0.00774475 -0.00706377 9.95369 -0.323492 26 1 
650 1.2048 9.9546 -0.00771961 -0.00704252 9.95461 -0.363334 26 1 
652 1.20473 9.95466 -0.00768541 -0.0070022 9.95466 -0.48556 26 1 
654 1.2047 9.95533 -0.00761625 -0.00693403 9.95533 -0.535469 26 1 
656 1.20475 9.95762 -0.00754375 -0.00686175 9.95763 -0.445347 26 1 
658 1.20479 9.95958 -0.0074881 -0.00679515 9.95958 -0.371278 26 1 
660 1.20477 9.95888 -0.00745111 -0.00675282 9.95888 -0.413799 26 1 
662 1.20472 9.95761 -0.00739402 -0.00670166 9.95761 -0.504701 26 1 
664 1.2047 9.95834 -0.00732404 -0.00664327 9.95834 -0.541281 26 1 
666 1.20475 9.96063 -0.00727748 -0.0065987 9.96064 -0.45009 26 1 
668 1.2048 9.96291 -0.00721601 -0.00653654 9.96291 -0.367955 26 1 
670 1.20477 9.96345 -0.00715953 -0.00648432 9.96346 -0.418823 26 1 
672 1.2047 9.963 -0.00710195 -0.00643068 9.963 -0.545664 26 1 
672 1.2047 9.963 -0.00710195 -0.00643068 9.963 -0.545664 27 1 
674 1.20467 9.96377 -0.00702175 -0.00635279 9.96378 -0.598288 27 1 
676 1.20472 9.96613 -0.00694679 -0.00627472 9.96614 -0.501156 27 1 
678 1.20479 9.96819 -0.00690745 -0.0062324 9.96819 -0.387822 27 1 
680 1.20478 9.9675 -0.00687334 -0.00620592 9.96751 -0.401196 27 1 
682 1.20472 9.96526 -0.00680613 -0.00614515 9.96526 -0.514016 27 1 
684 1.20467 9.96396 -0.00672987 -0.00605971 9.96396 -0.591054 27 1 
686 1.20468 9.96428 -0.00664356 -0.00597774 9.96429 -0.57297 27 1 
688 1.20473 9.96676 -0.00656003 -0.00590541 9.96676 -0.47961 27 1 
690 1.20476 9.96863 -0.00654078 -0.00587308 9.96864 -0.432278 27 1 
692 1.20473 9.9684 -0.00652933 -0.0058524 9.9684 -0.493999 27 1 
694 1.20468 9.96804 -0.00647026 -0.00580915 9.96805 -0.57629 27 1 
696 1.20467 9.96712 -0.00635572 -0.00569978 9.96712 -0.589861 27 1 
698 1.2047 9.9669 -0.00624408 -0.00558106 9.9669 -0.534731 27 1 
700 1.20473 9.96651 -0.00617666 -0.00551425 9.96651 -0.483703 27 1 
702 1.20472 9.9649 -0.00617682 -0.00550749 9.9649 -0.500203 27 1 
704 1.20469 9.96493 -0.00620047 -0.00552156 9.96494 -0.568135 27 1 
704 1.20469 9.96493 -0.00620047 -0.00552156 9.96494 -0.568135 31 1 
706 1.20465 9.96496 -0.00615684 -0.00548588 9.96496 -0.630264 31 1 
708 1.20466 9.96682 -0.00604819 -0.00537514 9.96682 -0.622066 31 1 
710 1.20468 9.96961 -0.00592823 -0.00523948 9.96962 -0.574559 31 1 
712 1.20468 9.9691 -0.00583538 -0.00515805 9.9691 -0.574234 31 1 
714 1.20466 9.96837 -0.00581991 -0.00514693 9.96837 -0.611941 31 1 
716 1.20462 9.96639 -0.00587027 -0.00517674 9.96639 -0.693693 31 1 
718 1.20459 9.96426 -0.00585972 -0.00516114 9.96426 -0.749448 31 1 
720 1.2046 9.96594 -0.00575681 -0.00506164 9.96594 -0.716782 31 1 
722 1.20462 9.96743 -0.00561023 -0.00491853 9.96744 -0.684456 31 1 
724 1.20463 9.96915 -0.00550335 -0.00480076 9.96915 -0.677056 31 1 
726 1.20463 9.9718 -0.00547127 -0.00476259 9.9718 -0.662471 31 1 
728 1.20462 9.97034 -0.00548229 -0.00478238 9.97034 -0.692907 31 1 
730 1.2046 9.96883 -0.00547933 -0.00477354 9.96884 -0.717223 31 1 
732 1.2046 9.96649 -0.00538638 -0.00466765 9.96649 -0.72978 31 1 
734 1.20459 9.96389 -0.00524194 -0.00453572 9.96389 -0.742996 31 1 
736 1.20461 9.96726 -0.00514799 -0.00445479 9.96726 -0.698081 31 1 
738 1.20464 9.96957 -0.00510579 -0.00440329 9.96958 -0.648989 31 1 
740 1.20465 9.97006 -0.00508033 -0.00437021 9.97007 -0.629274 31 1 
742 1.20464 9.96989 -0.00501111 -0.00430156 9.96989 -0.653439 31 1 
744 1.20461 9.96648 -0.00492162 -0.00421132 9.96648 -0.695593 31 1 
746 1.20462 9.96567 -0.00485466 -0.00413788 9.96567 -0.683757 31 1 
748 1.20465 9.96598 -0.00480786 -0.004078 9.96598 -0.631518 31 1 
750 1.20467 9.96501 -0.00477252 -0.00405136 9.96501 -0.595626 31 1 
752 1.20468 9.96813 -0.00471292 -0.00400393 9.96813 -0.56996 31 1 
752 1.20468 9.96813 -0.00471292 -0.00400393 9.96813 -0.56996 31 1 
754 1.20466 9.96824 -0.00461657 -0.00389195 9.96824 -0.617188 31 1 
756 1.20465 9.96753 -0.00451222 -0.00378856 9.96753 -0.636976 31 1 
758 1.20467 9.96825 -0.00444309 -0.00373317 9.96825 -0.594489 31 1 
760 1.2047 9.9647 -0.00443111 -0.00371982 9.9647 -0.550223 31 1 
762 1.20474 9.96549 -0.00446108 -0.00374022 9.96549 -0.461809 31 1 
764 1.20473 9.96687 -0.00443072 -0.0037042 9.96687 -0.48762 31 1 
766 1.20466 9.96639 -0.00431709 -0.00358583 9.9664 -0.611412 31 1 
768 1.20464 9.96846 -0.00420982 -0.00348007 9.96846 -0.646607 31 1 
770 1.20467 9.96657 -0.00415528 -0.00341773 9.96657 -0.591615 31 1 
772 1.20476 9.96646 -0.00416338 -0.0034125 9.96647 -0.434096 31 1 
774 1.20483 9.96818 -0.00416524 -0.00342055 9.96819 -0.305598 31 1 
776 1.20479 9.96549 -0.0041145 -0.00336801 9.96549 -0.385604 31 1 
778 1.20471 9.96728 -0.0040147 -0.00325686 9.96728 -0.526461 31 1 
780 1.20466 9.96714 -0.00389975 -0.00314398 9.96714 -0.609382 31 1 
782 1.2047 9.96594 -0.00385643 -0.00310584 9.96594 -0.538653 31 1 
784 1.20479 9.96864 -0.0038499 -0.00309611 9.96864 -0.37065 31 1 
786 1.20483 9.96648 -0.00383455 -0.00306939 9.96648 -0.306769 31 1 
788 1.20485 9.96836 -0.0038358 -0.00306168 9.96836 -0.269156 31 1 
790 1.20483 9.96954 -0.00381907 -0.003049 9.96955 -0.301463 31 1 
792 1.20477 9.96639 -0.00372405 -0.00295426 9.96639 -0.416974 31 1 
794 1.20474 9.96876 -0.00363459 -0.00285782 9.96876 -0.462729 31 1 
796 1.20473 9.96624 -0.00356933 -0.00278155 9.96624 -0.479603 31 1 
798 1.20482 9.96656 -0.0035307 -0.00272698 9.96656 -0.332689 31 1 
800 1.2049 9.97137 -0.00353792 -0.00272941 9.97137 -0.175773 31 1 
