61.1312;r ;Density                 ;Velocity u              ;Velocity v              ;Velocity w              ;|Velocity|              ;Pressure                ;Distribution            ;Levels                  ;
0 1.20773 10.0008 0.000292753 0.000536159 10.0008 4.92231 1 1 
1 1.20772 10.0019 0.000267433 0.000289935 10.0019 4.91002 1 1 
2 1.20775 10.0041 0.000154694 -0.000289337 10.0041 4.9727 1 1 
3 1.20774 10.0047 9.48422e-05 -0.000721905 10.0047 4.95687 1 1 
4 1.20776 10.005 2.58535e-05 -0.00100744 10.0051 4.98614 1 1 
5 1.20788 10.0062 -0.000180759 -0.00145957 10.0063 5.2092 1 1 
6 1.20796 10.006 -0.000339597 -0.00183949 10.0061 5.34159 1 1 
7 1.2081 10.0062 -0.000563515 -0.00221007 10.0063 5.59669 1 1 
8 1.2083 10.0067 -0.000867092 -0.00270972 10.0068 5.96868 1 1 
9 1.20845 10.006 -0.00109633 -0.00306391 10.0061 6.23954 1 1 
10 1.20868 10.0059 -0.0014085 -0.00344179 10.0061 6.65559 1 1 
11 1.20892 10.0056 -0.00172656 -0.00385812 10.0057 7.0825 1 1 
12 1.2091 10.0043 -0.00195693 -0.00408287 10.0045 7.40524 1 1 
13 1.20935 10.0041 -0.00225784 -0.0043433 10.0042 7.85971 1 1 
14 1.20955 10.0031 -0.00250061 -0.00453625 10.0032 8.22448 1 1 
15 1.2097 10.0016 -0.00266516 -0.00453372 10.0017 8.49463 1 1 
16 1.20989 10.001 -0.0028545 -0.00456116 10.001 8.83507 1 1 
16 1.20989 10.001 -0.0028545 -0.00456116 10.001 8.83507 1 1 
17 1.21 9.99964 -0.0029288 -0.00443021 9.99968 9.02618 1 1 
18 1.21007 9.99852 -0.00296119 -0.00414106 9.99854 9.16499 1 1 
19 1.21014 9.99779 -0.00299191 -0.00387864 9.9978 9.2801 1 1 
20 1.21009 9.99621 -0.00288099 -0.00342447 9.99622 9.20233 1 1 
21 1.21006 9.99565 -0.00275028 -0.00287837 9.99566 9.14453 1 1 
22 1.20999 9.99534 -0.0025894 -0.00233538 9.99537 9.0168 1 1 
23 1.2098 9.99405 -0.0022894 -0.0015997 9.99409 8.67127 1 1 
24 1.20962 9.99373 -0.00197756 -0.000847995 9.99381 8.34957 1 1 
25 1.20941 9.99363 -0.00158936 -8.12411e-05 9.99373 7.96022 1 1 
26 1.20912 9.99319 -0.00111656 0.000823827 9.99333 7.44448 1 1 
27 1.20884 9.99326 -0.000677834 0.00165643 9.99343 6.93385 1 1 
28 1.2085 9.993 -0.000146971 0.00249864 9.9932 6.31349 1 1 
29 1.20816 9.9933 0.000417958 0.00337437 9.99352 5.70401 1 1 
30 1.20785 9.99423 0.000910851 0.00408605 9.99446 5.14849 1 1 
31 1.20747 9.99427 0.00145289 0.00477856 9.99449 4.4592 1 1 
32 1.20713 9.99495 0.00195026 0.00539221 9.99517 3.84626 1 1 
32 1.20713 9.99495 0.00195026 0.00539221 9.99517 3.84626 1 1 
33 1.20685 9.9965 0.00234724 0.00578691 9.99669 3.33938 1 1 
34 1.20654 9.99748 0.00273934 0.00614187 9.99765 2.77715 1 1 
35 1.20628 9.99881 0.00302879 0.00635544 9.99895 2.31861 1 1 
36 1.20606 10.0002 0.00324366 0.00638334 10.0003 1.91899 1 1 
37 1.20587 10.0015 0.00342841 0.00636276 10.0015 1.56505 1 1 
38 1.20577 10.0035 0.00347909 0.00615803 10.0035 1.38255 1 1 
39 1.20566 10.0048 0.00347607 0.00583161 10.0048 1.19475 1 1 
40 1.20559 10.0058 0.00342215 0.00545685 10.0058 1.06684 1 1 
41 1.20564 10.0076 0.00323608 0.00489061 10.0076 1.14726 1 1 
42 1.20568 10.0088 0.00302947 0.0042703 10.0088 1.23703 1 1 
43 1.20577 10.0096 0.00275738 0.00360586 10.0096 1.39671 1 1 
44 1.20594 10.0105 0.00237134 0.0027727 10.0106 1.69136 1 1 
45 1.20611 10.0111 0.00196897 0.00192664 10.0112 2.00427 1 1 
46 1.20635 10.0119 0.0014853 0.00103528 10.012 2.44272 1 1 
47 1.20662 10.0124 0.000940084 7.00196e-05 10.0126 2.92833 1 1 
48 1.20687 10.0122 0.000407194 -0.000820772 10.0124 3.37912 1 1 
48 1.20687 10.0122 0.000407194 -0.000820772 10.0124 3.37912 1 1 
49 1.20719 10.0126 -0.000188434 -0.00173314 10.0128 3.95633 1 1 
50 1.20751 10.0127 -0.000776656 -0.00261644 10.013 4.53954 1 1 
51 1.2078 10.0122 -0.00132294 -0.00335226 10.0124 5.06188 1 1 
52 1.20812 10.0119 -0.0018865 -0.00405272 10.0121 5.63681 1 1 
53 1.20841 10.0111 -0.00237557 -0.00461901 10.0114 6.15927 1 1 
54 1.20868 10.0103 -0.00280109 -0.00500804 10.0105 6.65592 1 1 
55 1.20896 10.0095 -0.00319972 -0.00532934 10.0097 7.15113 1 1 
56 1.20916 10.0081 -0.00349 -0.00547085 10.0082 7.51906 1 1 
57 1.20936 10.0069 -0.00372739 -0.00546616 10.007 7.87072 1 1 
58 1.20954 10.0061 -0.00391716 -0.00538554 10.0062 8.20042 1 1 
59 1.20964 10.0047 -0.00398121 -0.0051016 10.0047 8.3845 1 1 
60 1.20972 10.0036 -0.00398829 -0.00469583 10.0036 8.53155 1 1 
61 1.20976 10.0026 -0.00392514 -0.00421167 10.0026 8.60157 1 1 
62 1.20973 10.0015 -0.00375394 -0.00356536 10.0015 8.55187 1 1 
63 1.20969 10.001 -0.00354583 -0.00286112 10.001 8.47452 1 1 
64 1.20958 10.0003 -0.00324678 -0.00206908 10.0003 8.26677 1 1 
64 1.20958 10.0003 -0.00324678 -0.00206908 10.0003 8.26677 2 1 
65 1.20941 9.99959 -0.00286289 -0.0011544 9.99965 7.96598 2 1 
66 1.20924 9.99956 -0.00246088 -0.000239513 9.99966 7.65853 2 1 
67 1.209 9.99921 -0.00197386 0.000738455 9.99934 7.23076 2 1 
68 1.20874 9.99898 -0.0014444 0.00175364 9.99915 6.75495 2 1 
69 1.20847 9.99922 -0.000916955 0.00269902 9.99942 6.26938 2 1 
70 1.20816 9.99925 -0.000336908 0.00365975 9.99947 5.70343 2 1 
71 1.20786 9.99967 0.00023718 0.00457192 9.99991 5.15752 2 1 
72 1.20754 10.0003 0.000797998 0.00537394 10.0005 4.59618 2 1 
73 1.20721 10.0007 0.00136295 0.00612641 10.0009 3.98593 2 1 
74 1.20691 10.0018 0.00185118 0.00672558 10.002 3.45224 2 1 
75 1.20662 10.0029 0.00229879 0.00718193 10.0031 2.92251 2 1 
76 1.20632 10.0039 0.00271076 0.00755364 10.0041 2.38592 2 1 
77 1.20608 10.0054 0.00301542 0.00772992 10.0055 1.95201 2 1 
78 1.20586 10.0067 0.0032661 0.00775795 10.0068 1.54646 2 1 
79 1.20566 10.0081 0.00345218 0.00767139 10.0082 1.19859 2 1 
80 1.20553 10.0097 0.0035241 0.00738508 10.0097 0.960079 2 1 
80 1.20553 10.0097 0.0035241 0.00738508 10.0097 0.960079 2 1 
81 1.20542 10.0109 0.00352929 0.00698223 10.0109 0.761791 2 1 
82 1.20538 10.0123 0.00344699 0.0064712 10.0123 0.681375 2 1 
83 1.20539 10.0137 0.00327468 0.00582437 10.0137 0.69778 2 1 
84 1.20542 10.0146 0.00305675 0.00512571 10.0146 0.752 2 1 
85 1.20552 10.0156 0.0027588 0.00432266 10.0156 0.942572 2 1 
86 1.20566 10.0166 0.00240249 0.0034268 10.0167 1.19973 2 1 
87 1.20583 10.0172 0.00200451 0.00251383 10.0172 1.49831 2 1 
88 1.20606 10.0178 0.00152397 0.00152051 10.0179 1.91017 2 1 
89 1.20629 10.0182 0.0010302 0.000526436 10.0184 2.33649 2 1 
90 1.20655 10.0186 0.00051426 -0.000410967 10.0187 2.80306 2 1 
91 1.20686 10.0189 -6.57258e-05 -0.00137573 10.0191 3.35483 2 1 
92 1.20714 10.0187 -0.000614916 -0.00226156 10.0189 3.86994 2 1 
93 1.20743 10.0185 -0.00114924 -0.0030359 10.0187 4.39731 2 1 
94 1.20775 10.0183 -0.00169058 -0.00375845 10.0185 4.97315 2 1 
95 1.20804 10.0175 -0.00216186 -0.00431583 10.0177 5.48629 2 1 
96 1.20831 10.0169 -0.00257262 -0.00469982 10.017 5.9728 2 1 
96 1.20831 10.0169 -0.00257262 -0.00469982 10.017 5.9728 2 1 
97 1.20856 10.0159 -0.00292362 -0.00495423 10.016 6.43598 2 1 
98 1.20878 10.0147 -0.00319226 -0.00503536 10.0148 6.83126 2 1 
99 1.20898 10.0139 -0.00339635 -0.00497241 10.014 7.18563 2 1 
100 1.20912 10.0127 -0.00351036 -0.0047496 10.0127 7.4438 2 1 
101 1.20922 10.0112 -0.00353775 -0.00435696 10.0112 7.6225 2 1 
102 1.20929 10.0103 -0.0034973 -0.00385184 10.0103 7.74972 2 1 
103 1.2093 10.0092 -0.00335971 -0.00319102 10.0092 7.76283 2 1 
104 1.20927 10.0081 -0.00315124 -0.00240909 10.0081 7.70432 2 1 
105 1.20919 10.0073 -0.00288337 -0.00157582 10.0074 7.56473 2 1 
106 1.20905 10.0065 -0.00253146 -0.000630756 10.0066 7.31893 2 1 
107 1.2089 10.0061 -0.00213388 0.000381185 10.0061 7.04841 2 1 
108 1.2087 10.0058 -0.00167904 0.00143071 10.0059 6.68939 2 1 
109 1.20845 10.0053 -0.00115108 0.00256324 10.0054 6.22601 2 1 
110 1.2082 10.0052 -0.00061569 0.00366578 10.0054 5.78031 2 1 
111 1.20792 10.0054 -4.56157e-05 0.00473399 10.0056 5.27552 2 1 
112 1.20761 10.0055 0.000560744 0.005812 10.0057 4.70884 2 1 
112 1.20761 10.0055 0.000560744 0.005812 10.0057 4.70884 2 1 
113 1.20731 10.0058 0.00112596 0.00677161 10.006 4.18036 2 1 
114 1.207 10.0063 0.00169959 0.00764287 10.0065 3.60609 2 1 
115 1.20669 10.007 0.0022703 0.00844876 10.0072 3.04754 2 1 
116 1.20642 10.0079 0.00276727 0.00907846 10.0081 2.55851 2 1 
117 1.20613 10.0088 0.0032404 0.00958178 10.009 2.03447 2 1 
118 1.20587 10.0099 0.00365878 0.00996447 10.01 1.57571 2 1 
119 1.20567 10.0112 0.00397703 0.0101424 10.0113 1.2138 2 1 
120 1.20547 10.0126 0.00423392 0.0101758 10.0127 0.857236 2 1 
121 1.20532 10.0139 0.00439745 0.0100612 10.014 0.586695 2 1 
122 1.20522 10.0152 0.00446038 0.00974239 10.0152 0.402271 2 1 
123 1.20515 10.0164 0.0044526 0.00930247 10.0165 0.262372 2 1 
124 1.20513 10.0177 0.00434804 0.00872743 10.0177 0.237916 2 1 
125 1.20515 10.0188 0.00416541 0.00801369 10.0188 0.278064 2 1 
126 1.2052 10.0196 0.0039394 0.00723905 10.0196 0.366633 2 1 
127 1.20531 10.0204 0.00363242 0.00635182 10.0204 0.567838 2 1 
128 1.20546 10.021 0.00326676 0.00538098 10.0211 0.825112 2 1 
128 1.20546 10.021 0.00326676 0.00538098 10.0211 0.825112 10 1 
129 1.20563 10.0214 0.00285913 0.004378 10.0215 1.13051 10 1 
130 1.20583 10.0217 0.00238713 0.00332164 10.0218 1.50228 10 1 
131 1.20605 10.0218 0.00187604 0.0022544 10.022 1.90222 10 1 
132 1.2063 10.0219 0.00134101 0.0012142 10.0221 2.34453 10 1 
133 1.20656 10.0218 0.000788409 0.000214314 10.022 2.81127 10 1 
134 1.20681 10.0215 0.000231609 -0.000718503 10.0216 3.264 10 1 
135 1.20706 10.0211 -0.000323778 -0.00156782 10.0212 3.72818 10 1 
136 1.20732 10.0206 -0.000850949 -0.00230522 10.0207 4.18739 10 1 
137 1.20755 10.0198 -0.0013236 -0.00288031 10.02 4.61181 10 1 
138 1.20777 10.019 -0.00174833 -0.00330312 10.0191 5.00788 10 1 
139 1.20797 10.0179 -0.00210668 -0.0035729 10.018 5.35721 10 1 
140 1.20813 10.0169 -0.00238745 -0.00366087 10.017 5.65677 10 1 
141 1.20827 10.0158 -0.00259898 -0.0035932 10.0159 5.90996 10 1 
142 1.20837 10.0146 -0.00273463 -0.00337536 10.0146 6.09235 10 1 
143 1.20844 10.0134 -0.00278748 -0.00298958 10.0134 6.20457 10 1 
144 1.20846 10.0123 -0.00276031 -0.00245598 10.0123 6.25469 10 1 
144 1.20846 10.0123 -0.00276031 -0.00245598 10.0123 6.25469 10 1 
145 1.20845 10.0113 -0.00265599 -0.00179715 10.0113 6.2332 10 1 
146 1.2084 10.0104 -0.00247887 -0.0010221 10.0104 6.14053 10 1 
147 1.20831 10.0096 -0.00223296 -0.000148336 10.0096 5.97587 10 1 
148 1.20818 10.0089 -0.00192572 0.000803845 10.0089 5.75066 10 1 
149 1.20803 10.0084 -0.00157063 0.00182177 10.0085 5.47637 10 1 
150 1.20785 10.0081 -0.00116538 0.00289107 10.0081 5.1465 10 1 
151 1.20764 10.0078 -0.000714136 0.00398909 10.0078 4.77253 10 1 
152 1.20742 10.0076 -0.0002288 0.00507882 10.0077 4.37017 10 1 
153 1.20719 10.0076 0.000275256 0.00613 10.0077 3.94951 10 1 
154 1.20695 10.0077 0.000790676 0.00713968 10.0078 3.51585 10 1 
155 1.2067 10.0079 0.00131208 0.00809272 10.008 3.07622 10 1 
156 1.20647 10.0081 0.00181597 0.00894769 10.0082 2.64619 10 1 
157 1.20624 10.0085 0.00228278 0.00968023 10.0086 2.23262 10 1 
158 1.20602 10.009 0.00271262 0.0102778 10.0092 1.84825 10 1 
159 1.20583 10.0096 0.00308762 0.0107166 10.0097 1.49654 10 1 
160 1.20565 10.0103 0.00338966 0.0109797 10.0104 1.17762 10 1 
160 1.20565 10.0103 0.00338966 0.0109797 10.0104 1.17762 10 1 
161 1.2055 10.0111 0.00362318 0.0110763 10.0112 0.907979 10 1 
162 1.20538 10.0119 0.00379291 0.0110197 10.0119 0.695312 10 1 
163 1.20529 10.0127 0.00388697 0.0108063 10.0127 0.531588 10 1 
164 1.20523 10.0135 0.00389971 0.0104398 10.0135 0.422421 10 1 
165 1.20521 10.014 0.00385222 0.00994483 10.0141 0.380548 10 1 
166 1.20522 10.0148 0.00373768 0.00933224 10.0148 0.388551 10 1 
167 1.20525 10.0153 0.00355053 0.00860238 10.0153 0.451701 10 1 
168 1.20532 10.0155 0.00330153 0.00778167 10.0155 0.575671 10 1 
169 1.20541 10.0158 0.00301231 0.00691058 10.0159 0.733823 10 1 
170 1.20552 10.0158 0.00268022 0.0059945 10.0159 0.940834 10 1 
171 1.20566 10.0157 0.00229805 0.00503502 10.0157 1.18682 10 1 
172 1.2058 10.0157 0.00188962 0.00406225 10.0157 1.44602 10 1 
173 1.20596 10.0151 0.00146382 0.00310374 10.0152 1.73441 10 1 
174 1.20612 10.0147 0.00102142 0.0021714 10.0148 2.02833 10 1 
175 1.20629 10.0142 0.000569266 0.00127944 10.0143 2.32382 10 1 
176 1.20645 10.0135 0.000130004 0.000468473 10.0136 2.61846 10 1 
176 1.20645 10.0135 0.000130004 0.000468473 10.0136 2.61846 10 1 
177 1.2066 10.0129 -0.000294561 -0.000242838 10.013 2.89546 10 1 
178 1.20675 10.0119 -0.000702029 -0.000851805 10.012 3.16044 10 1 
179 1.20688 10.0111 -0.00105469 -0.00130958 10.0112 3.39583 10 1 
180 1.20699 10.0102 -0.00134664 -0.00159869 10.0102 3.60214 10 1 
181 1.20709 10.009 -0.00158251 -0.00174052 10.0091 3.77353 10 1 
182 1.20716 10.0079 -0.00175959 -0.00173747 10.008 3.9041 10 1 
183 1.20722 10.0067 -0.00186748 -0.00158207 10.0068 4.00352 10 1 
184 1.20725 10.0054 -0.00191381 -0.00129133 10.0054 4.06609 10 1 
185 1.20726 10.0044 -0.00191381 -0.000877936 10.0044 4.08141 10 1 
186 1.20725 10.0034 -0.00185005 -0.000339608 10.0034 4.06125 10 1 
187 1.20722 10.0021 -0.00172705 0.000304301 10.0021 4.01069 10 1 
188 1.20717 10.0011 -0.00155802 0.00103998 10.0011 3.91328 10 1 
189 1.2071 10.0001 -0.00134941 0.00183956 10.0001 3.79811 10 1 
190 1.20703 9.99907 -0.00110359 0.00268545 9.99908 3.65927 10 1 
191 1.20693 9.99862 -0.000826062 0.00356525 9.99864 3.48457 10 1 
192 1.20683 9.99796 -0.000521238 0.00445476 9.99798 3.31324 10 1 
192 1.20683 9.99796 -0.000521238 0.00445476 9.99798 3.31324 10 1 
193 1.20673 9.99714 -0.000194206 0.00534049 9.99717 3.13209 10 1 
194 1.20663 9.99658 0.000127789 0.00619774 9.9966 2.94097 10 1 
195 1.20653 9.99587 0.000470271 0.00703458 9.99591 2.76047 10 1 
196 1.20643 9.99536 0.000817293 0.00782121 9.9954 2.58681 10 1 
197 1.20634 9.99516 0.00112354 0.00850901 9.9952 2.41984 10 1 
198 1.20626 9.99457 0.00143795 0.00913076 9.99462 2.27386 10 1 
199 1.20619 9.99388 0.00173743 0.00965478 9.99392 2.15368 10 1 
200 1.20613 9.99346 0.00195059 0.0100032 9.9935 2.0416 10 1 
201 1.20609 9.99269 0.00213408 0.0102372 9.99273 1.96326 10 1 
202 1.20605 9.99216 0.00230493 0.0103699 9.99219 1.90208 10 1 
203 1.20603 9.99183 0.00238446 0.0103197 9.99186 1.85729 10 1 
204 1.20603 9.99088 0.00245152 0.0101844 9.9909 1.85692 10 1 
205 1.20603 9.99016 0.00248912 0.00996597 9.99018 1.85322 10 1 
206 1.20603 9.98967 0.00244535 0.00960656 9.98969 1.86549 10 1 
207 1.20606 9.98875 0.00240851 0.00919622 9.98877 1.90573 10 1 
208 1.20607 9.98802 0.00232346 0.00870582 9.98803 1.93895 10 1 
208 1.20607 9.98802 0.00232346 0.00870582 9.98803 1.93895 10 1 
209 1.2061 9.98709 0.00221532 0.00815555 9.9871 1.9894 10 1 
210 1.20614 9.98538 0.00211406 0.00758351 9.98539 2.05353 10 1 
211 1.20616 9.98396 0.00195786 0.0069747 9.98396 2.09655 10 1 
212 1.20618 9.98265 0.00179874 0.00636261 9.98266 2.13682 10 1 
213 1.20621 9.98101 0.0016579 0.00577122 9.98102 2.17969 10 1 
214 1.20623 9.97973 0.00150884 0.00520687 9.97973 2.21477 10 1 
215 1.20624 9.97834 0.00135858 0.00469129 9.97834 2.23422 10 1 
216 1.20624 9.97645 0.00122592 0.00423212 9.97646 2.23636 10 1 
217 1.20623 9.97437 0.00110157 0.00382336 9.97438 2.22522 10 1 
218 1.20621 9.97222 0.000987726 0.00348189 9.97222 2.17786 10 1 
219 1.20618 9.96976 0.000894128 0.00322576 9.96977 2.14011 10 1 
220 1.20616 9.96789 0.000846054 0.00308636 9.96789 2.09161 10 1 
221 1.20612 9.96666 0.000836097 0.00305516 9.96667 2.01426 10 1 
222 1.20608 9.96463 0.000831409 0.00311022 9.96464 1.95825 10 1 
223 1.20603 9.96285 0.0008489 0.00326582 9.96286 1.86101 10 1 
224 1.20599 9.96069 0.000908095 0.00351823 9.9607 1.78117 10 1 
224 1.20599 9.96069 0.000908095 0.00351823 9.9607 1.78117 10 1 
225 1.20596 9.95731 0.000978904 0.00382773 9.95732 1.73553 10 1 
226 1.20591 9.95546 0.0010525 0.00417546 9.95547 1.64481 10 1 
227 1.20589 9.95363 0.00112503 0.00458228 9.95364 1.60212 10 1 
228 1.20588 9.95107 0.00117949 0.00501626 9.95107 1.59211 10 1 
229 1.20587 9.94943 0.00124954 0.00545786 9.94944 1.57926 10 1 
230 1.20589 9.9466 0.00134569 0.0059375 9.94661 1.60439 10 1 
231 1.20593 9.94325 0.00139743 0.00638374 9.94326 1.67332 10 1 
232 1.20597 9.9409 0.00139392 0.00677769 9.94091 1.74856 10 1 
233 1.20601 9.93853 0.00138189 0.00714336 9.93853 1.82554 10 1 
234 1.20612 9.93561 0.00138461 0.00746244 9.93562 2.02559 10 1 
235 1.20622 9.93327 0.0013639 0.00773639 9.93329 2.20858 10 1 
236 1.20632 9.93014 0.00128141 0.00794198 9.93015 2.39002 10 1 
237 1.20648 9.92568 0.00114399 0.0080415 9.92569 2.6669 10 1 
238 1.20659 9.92344 0.00101279 0.00805989 9.92345 2.87242 10 1 
239 1.20676 9.91912 0.000880562 0.00805422 9.91914 3.18573 10 1 
240 1.20692 9.91533 0.000700124 0.00797644 9.91534 3.47616 10 1 
240 1.20692 9.91533 0.000700124 0.00797644 9.91534 3.47616 10 1 
241 1.20707 9.91248 0.000510364 0.00781417 9.91249 3.74302 10 1 
242 1.20726 9.90616 0.000310294 0.00759912 9.90617 4.08397 10 1 
243 1.20736 9.90271 7.66268e-05 0.00730532 9.90272 4.27165 10 1 
244 1.20753 9.89717 -0.000120882 0.0070101 9.89717 4.57737 10 1 
245 1.20767 9.89197 -0.000279642 0.00672312 9.89198 4.82043 10 1 
246 1.20777 9.88687 -0.000433784 0.00641344 9.88687 5.01055 10 1 
247 1.20786 9.88119 -0.000569666 0.00610546 9.88119 5.16982 10 1 
248 1.20791 9.87543 -0.00066687 0.00583427 9.87543 5.25036 10 1 
249 1.20798 9.86754 -0.000763186 0.0055567 9.86754 5.38232 10 1 
250 1.20794 9.86296 -0.000792008 0.00535659 9.86297 5.31159 10 1 
251 1.20796 9.85438 -0.000714471 0.0052631 9.85439 5.35003 10 1 
252 1.20792 9.84815 -0.000713033 0.00511018 9.84817 5.27968 10 1 
253 1.20781 9.84088 -0.000621288 0.00508156 9.8409 5.0751 10 1 
254 1.20774 9.83181 -0.000464976 0.00514828 9.83183 4.94803 10 1 
255 1.20763 9.82457 -0.000323146 0.0052344 9.82459 4.74989 10 1 
256 1.20752 9.81458 -3.05288e-05 0.00549019 9.81461 4.5435 10 1 
256 1.20752 9.81458 -3.05288e-05 0.00549019 9.81461 4.5435 11 1 
257 1.20734 9.80643 0.000206901 0.00573245 9.80646 4.22377 11 1 
258 1.2072 9.79777 0.00042134 0.0059815 9.7978 3.96754 11 1 
259 1.20708 9.78671 0.000773735 0.00637799 9.78674 3.76425 11 1 
260 1.2069 9.77562 0.00108993 0.00676227 9.77565 3.42525 11 1 
261 1.20677 9.7665 0.00133865 0.00710465 9.76653 3.18848 11 1 
262 1.20671 9.75436 0.00159393 0.0074668 9.75438 3.09423 11 1 
263 1.20659 9.74139 0.00183303 0.0078088 9.74141 2.87846 11 1 
264 1.20647 9.73154 0.00205176 0.00817039 9.73155 2.64698 11 1 
265 1.20651 9.71637 0.00220891 0.00844553 9.71638 2.73195 11 1 
266 1.20658 9.69896 0.00229429 0.00860826 9.69896 2.86224 11 1 
267 1.20649 9.68909 0.00234468 0.00877325 9.68909 2.69921 11 1 
268 1.20663 9.67338 0.00234993 0.00888682 9.67339 2.94324 11 1 
269 1.20692 9.64993 0.00234333 0.00894143 9.64994 3.47207 11 1 
270 1.2069 9.63749 0.00227543 0.00891767 9.63752 3.43322 11 1 
271 1.20714 9.62053 0.00213558 0.00880871 9.62057 3.86656 11 1 
272 1.2077 9.58877 0.00196163 0.00864108 9.58882 4.88283 11 1 
272 1.2077 9.58877 0.00196163 0.00864108 9.58882 4.88283 11 1 
273 1.20772 9.57601 0.00175818 0.00842424 9.57608 4.91707 11 1 
274 1.208 9.55387 0.00153319 0.008181 9.55394 5.42745 11 1 
275 1.20873 9.51577 0.00124372 0.00783329 9.51583 6.72916 11 1 
276 1.20887 9.50073 0.000902641 0.00742253 9.50081 6.98817 11 1 
277 1.20922 9.46956 0.000590918 0.00703463 9.46963 7.6238 11 1 
278 1.20986 9.4334 0.000251838 0.00664277 9.43347 8.78686 11 1 
279 1.2102 9.40763 -6.09504e-05 0.00623981 9.40771 9.39263 11 1 
280 1.21053 9.36985 -0.000335808 0.00588052 9.36993 9.99693 11 1 
281 1.21103 9.33048 -0.000615593 0.00553209 9.33058 10.8958 11 1 
282 1.21153 9.28384 -0.000859357 0.00525862 9.28396 11.7956 11 1 
283 1.21179 9.23004 -0.00100355 0.00508727 9.23014 12.2699 11 1 
284 1.21204 9.17968 -0.00111495 0.00495785 9.17973 12.7152 11 1 
285 1.21247 9.13647 -0.00118115 0.00489233 9.13647 13.4938 11 1 
286 1.21297 9.09545 -0.00120673 0.00487583 9.09545 14.3982 11 1 
287 1.21337 9.04105 -0.00123285 0.00487582 9.04109 15.1148 11 1 
288 1.21351 8.96543 -0.00115712 0.00494878 8.96548 15.3792 11 1 
288 1.21351 8.96543 -0.00115712 0.00494878 8.96548 15.3792 11 1 
289 1.21362 8.89042 -0.0010686 0.00511471 8.89045 15.566 11 1 
290 1.21406 8.82493 -0.00095731 0.0053094 8.82496 16.3715 11 1 
291 1.21456 8.75635 -0.000798167 0.00552174 8.75638 17.2719 11 1 
292 1.2147 8.68376 -0.000657584 0.00577343 8.68381 17.5172 11 1 
293 1.21489 8.59696 -0.000502628 0.00603482 8.59701 17.8681 11 1 
294 1.21527 8.51028 -0.000342048 0.00624843 8.51042 18.5579 11 1 
295 1.21564 8.43107 -0.000201034 0.00643532 8.43129 19.2204 11 1 
296 1.21599 8.35219 -8.37501e-05 0.00664671 8.35278 19.8489 11 1 
297 1.21616 8.27897 5.03899e-05 0.0068585 8.27948 20.1509 11 1 
298 1.216 8.25609 2.63937e-06 0.00692845 8.2596 19.8613 11 1 
299 1.20837 8.23376 -0.000529945 0.00696832 8.76849 6.09477 11 1 
300 1.1957 8.32562 -0.00166564 0.00696507 8.98645 -16.793 11 1 
301 1.19133 8.35249 -0.00292732 0.00680847 8.63528 -24.6978 11 1 
302 1.19277 8.1474 -0.00399593 0.00657485 8.35769 -22.0899 11 1 
303 1.19415 7.95464 -0.00487761 0.00631045 8.10122 -19.6016 11 1 
304 1.19531 7.7847 -0.0056533 0.00613496 7.89882 -17.5086 11 1 
304 1.19531 7.7847 -0.0056533 0.00613496 7.89882 -17.5086 11 1 
305 1.19608 7.64069 -0.00629871 0.00597589 7.70867 -16.1147 11 1 
306 1.19676 7.51257 -0.00691209 0.00577272 7.57913 -14.8883 11 1 
307 1.19743 7.39836 -0.00746517 0.0056207 7.45775 -13.6706 11 1 
308 1.19809 7.30508 -0.00800292 0.00543563 7.35965 -12.4858 11 1 
309 1.19858 7.21569 -0.00856651 0.00521807 7.25746 -11.5983 11 1 
310 1.19905 7.12954 -0.00901844 0.00505469 7.169 -10.7409 11 1 
311 1.19957 7.05531 -0.0094612 0.0048475 7.09308 -9.80798 11 1 
312 1.19999 6.987 -0.00991522 0.00463771 7.02233 -9.04144 11 1 
313 1.20034 6.92015 -0.0103198 0.00445589 6.95129 -8.42552 11 1 
314 1.20071 6.85925 -0.0107144 0.00425071 6.88913 -7.75716 11 1 
315 1.20105 6.80093 -0.011104 0.00406254 6.82851 -7.13124 11 1 
316 1.20136 6.74755 -0.0114723 0.003861 6.77436 -6.56625 11 1 
317 1.20167 6.70251 -0.0118465 0.00364161 6.72734 -6.01511 11 1 
318 1.20195 6.65775 -0.0122226 0.00344262 6.6816 -5.50763 11 1 
319 1.20222 6.61375 -0.0125987 0.00323916 6.63654 -5.02834 11 1 
320 1.20248 6.57603 -0.0129613 0.00304037 6.59775 -4.54721 11 1 
320 1.20248 6.57603 -0.0129613 0.00304037 6.59775 -4.54721 15 1 
321 1.20272 6.54142 -0.0133229 0.00286056 6.56197 -4.12381 15 1 
322 1.20293 6.5106 -0.0136723 0.00268919 6.53076 -3.73242 15 1 
323 1.20317 6.48152 -0.0140165 0.00252113 6.50072 -3.31416 15 1 
324 1.20337 6.44972 -0.0143538 0.00234794 6.46836 -2.94908 15 1 
325 1.20349 6.42172 -0.0146861 0.00217786 6.4396 -2.7236 15 1 
326 1.20365 6.39898 -0.0149931 0.00203388 6.41635 -2.43571 15 1 
327 1.20386 6.37469 -0.0152949 0.00188902 6.39157 -2.06745 15 1 
328 1.20396 6.35062 -0.0155813 0.00174528 6.36709 -1.88017 15 1 
329 1.20402 6.32742 -0.0158366 0.00163312 6.34334 -1.77744 15 1 
330 1.20412 6.30471 -0.0160746 0.00151967 6.32023 -1.58591 15 1 
331 1.20424 6.28632 -0.0163077 0.0014111 6.30129 -1.37898 15 1 
332 1.2043 6.26652 -0.0165193 0.0013105 6.2812 -1.25828 15 1 
333 1.2043 6.24442 -0.0167294 0.00121898 6.2587 -1.26596 15 1 
334 1.20435 6.22904 -0.016908 0.00113778 6.24294 -1.17744 15 1 
335 1.20445 6.21362 -0.0170734 0.00105098 6.22707 -0.985566 15 1 
336 1.20445 6.19338 -0.0172466 0.000958852 6.20644 -0.997259 15 1 
336 1.20445 6.19338 -0.0172466 0.000958852 6.20644 -0.997259 15 1 
337 1.20442 6.17701 -0.0174009 0.000890087 6.18975 -1.05225 15 1 
338 1.20447 6.16438 -0.0175291 0.000827171 6.1769 -0.951244 15 1 
339 1.20453 6.15247 -0.0176687 0.000746075 6.16457 -0.854102 15 1 
340 1.20454 6.13815 -0.0178215 0.000645295 6.14989 -0.837635 15 1 
341 1.20451 6.12041 -0.0179777 0.000555579 6.13188 -0.884817 15 1 
342 1.20454 6.10905 -0.0181209 0.000479054 6.12032 -0.838408 15 1 
343 1.20463 6.10297 -0.0182796 0.000380121 6.114 -0.676562 15 1 
344 1.20466 6.09227 -0.0184634 0.000242073 6.103 -0.621765 15 1 
345 1.20466 6.07751 -0.0186304 0.000114974 6.08794 -0.620642 15 1 
346 1.2047 6.06382 -0.0187833 4.40702e-06 6.07409 -0.545742 15 1 
347 1.20478 6.05728 -0.0189613 -0.000155222 6.06737 -0.398706 15 1 
348 1.20488 6.05314 -0.0191458 -0.000369314 6.06301 -0.219601 15 1 
349 1.20493 6.04058 -0.0193235 -0.00057542 6.0502 -0.129246 15 1 
350 1.20498 6.02674 -0.0194657 -0.000762062 6.03616 -0.0325634 15 1 
351 1.20509 6.01866 -0.019616 -0.000985764 6.02793 0.162087 15 1 
352 1.20519 6.01239 -0.0198021 -0.00126639 6.02151 0.347753 15 1 
352 1.20519 6.01239 -0.0198021 -0.00126639 6.02151 0.347753 15 1 
353 1.2053 6.00584 -0.0199601 -0.00154154 6.01475 0.544456 15 1 
354 1.2054 5.99553 -0.0200782 -0.00177449 6.00425 0.72784 15 1 
355 1.20549 5.98382 -0.0202179 -0.0020225 5.99237 0.878692 15 1 
356 1.20561 5.97649 -0.0203822 -0.00232019 5.98489 1.09311 15 1 
357 1.20573 5.97073 -0.020535 -0.00260242 5.97898 1.31723 15 1 
358 1.20584 5.96439 -0.0206511 -0.00283817 5.97246 1.50922 15 1 
359 1.20594 5.9558 -0.020775 -0.00306772 5.96368 1.69224 15 1 
360 1.20603 5.94534 -0.0209291 -0.0033146 5.95308 1.85747 15 1 
361 1.20613 5.93883 -0.0210719 -0.00354591 5.94644 2.03521 15 1 
362 1.20622 5.93484 -0.0211838 -0.00374879 5.9423 2.21111 15 1 
363 1.20631 5.92895 -0.0212975 -0.00392878 5.93621 2.36624 15 1 
364 1.20638 5.92094 -0.0214116 -0.00408875 5.92807 2.49044 15 1 
365 1.20643 5.91261 -0.0215333 -0.00423745 5.91964 2.57738 15 1 
366 1.20649 5.90773 -0.0216433 -0.00438126 5.91462 2.68268 15 1 
367 1.20654 5.9045 -0.021722 -0.00449267 5.91123 2.78053 15 1 
368 1.20657 5.89903 -0.0217938 -0.00456842 5.90565 2.83978 15 1 
368 1.20657 5.89903 -0.0217938 -0.00456842 5.90565 2.83978 15 1 
369 1.20659 5.89243 -0.0218807 -0.00465346 5.89895 2.87766 15 1 
370 1.20659 5.88613 -0.0219768 -0.00474693 5.89253 2.87643 15 1 
371 1.2066 5.88229 -0.0220487 -0.00480637 5.88857 2.89008 15 1 
372 1.20661 5.87959 -0.0220986 -0.00484066 5.88576 2.91161 15 1 
373 1.20659 5.87436 -0.0221747 -0.00488461 5.88045 2.86796 15 1 
374 1.20656 5.86921 -0.0222668 -0.00494089 5.8752 2.82407 15 1 
375 1.20655 5.86501 -0.0223428 -0.00498071 5.87089 2.79571 15 1 
376 1.20652 5.86091 -0.0224031 -0.0049999 5.86671 2.74268 15 1 
377 1.20649 5.85844 -0.0224743 -0.00502488 5.86416 2.69867 15 1 
378 1.20647 5.85496 -0.0225598 -0.00507939 5.8606 2.65251 15 1 
379 1.20644 5.84994 -0.0226612 -0.00514668 5.85549 2.59563 15 1 
380 1.20641 5.84649 -0.0227527 -0.00520301 5.85196 2.55226 15 1 
381 1.2064 5.84371 -0.0228463 -0.00527345 5.84913 2.52135 15 1 
382 1.20638 5.84069 -0.0229552 -0.00537132 5.84604 2.49764 15 1 
383 1.20637 5.83766 -0.0230823 -0.00548765 5.84293 2.48004 15 1 
384 1.20638 5.83421 -0.0232149 -0.00562623 5.83942 2.48458 15 1 
384 1.20638 5.83421 -0.0232149 -0.00562623 5.83942 2.48458 16 1 
385 1.20638 5.83073 -0.0233515 -0.00577455 5.83588 2.50122 16 1 
386 1.2064 5.82786 -0.0234928 -0.00593227 5.83295 2.52282 16 1 
387 1.20643 5.82595 -0.0236472 -0.0061202 5.831 2.58231 16 1 
388 1.20647 5.82322 -0.0238219 -0.00633956 5.82821 2.64658 16 1 
389 1.2065 5.81923 -0.0239897 -0.00656623 5.82417 2.7046 16 1 
390 1.20655 5.81669 -0.0241362 -0.00678546 5.82159 2.80673 16 1 
391 1.20662 5.81455 -0.024286 -0.00702026 5.81941 2.91956 16 1 
392 1.20668 5.81176 -0.0244494 -0.00728546 5.81658 3.03161 16 1 
393 1.20676 5.8097 -0.0245942 -0.00755453 5.81447 3.17475 16 1 
394 1.20683 5.80665 -0.0247317 -0.0078192 5.81138 3.30754 16 1 
395 1.2069 5.80313 -0.0248824 -0.00809469 5.80783 3.43199 16 1 
396 1.20699 5.80149 -0.0250225 -0.00837035 5.80614 3.58848 16 1 
397 1.20707 5.79935 -0.0251495 -0.00863895 5.80396 3.74006 16 1 
398 1.20714 5.79596 -0.0252819 -0.00891236 5.80055 3.87232 16 1 
399 1.20723 5.79348 -0.0254085 -0.00918987 5.79801 4.0216 16 1 
400 1.20731 5.79128 -0.0255188 -0.00945628 5.79577 4.17261 16 1 
400 1.20731 5.79128 -0.0255188 -0.00945628 5.79577 4.17261 16 1 
401 1.20738 5.78859 -0.0256247 -0.00970334 5.79304 4.2939 16 1 
402 1.20744 5.78619 -0.0257164 -0.00994503 5.7906 4.40391 16 1 
403 1.2075 5.78372 -0.0257807 -0.0101807 5.78809 4.50675 16 1 
404 1.20754 5.78065 -0.0258144 -0.0103844 5.78498 4.58556 16 1 
405 1.20758 5.77808 -0.0258156 -0.0105507 5.78236 4.66033 16 1 
406 1.20762 5.77612 -0.0257854 -0.010697 5.78036 4.73102 16 1 
407 1.20764 5.77351 -0.0257239 -0.0108372 5.77771 4.77362 16 1 
408 1.20766 5.77094 -0.0256445 -0.010979 5.77509 4.8041 16 1 
409 1.20767 5.7688 -0.0255698 -0.0111138 5.77291 4.82157 16 1 
410 1.20766 5.76583 -0.0254862 -0.0112356 5.7699 4.80223 16 1 
411 1.20764 5.76305 -0.0253736 -0.011346 5.76707 4.77176 16 1 
412 1.20763 5.76126 -0.0252611 -0.0114342 5.76525 4.74684 16 1 
413 1.2076 5.75872 -0.0251777 -0.0114846 5.76266 4.70343 16 1 
414 1.20758 5.75584 -0.0251001 -0.011483 5.75974 4.65298 16 1 
415 1.20755 5.75382 -0.0250077 -0.0114398 5.75767 4.61067 16 1 
416 1.20752 5.75154 -0.0249371 -0.0113853 5.75536 4.5523 16 1 
416 1.20752 5.75154 -0.0249371 -0.0113853 5.75536 4.5523 16 1 
417 1.20748 5.7489 -0.0249431 -0.0113239 5.75268 4.4814 16 1 
418 1.20745 5.74665 -0.0250183 -0.0112548 5.75039 4.41681 16 1 
419 1.20741 5.7441 -0.0251257 -0.0112551 5.7478 4.34687 16 1 
420 1.20737 5.74157 -0.0252741 -0.0114295 5.74523 4.2838 16 1 
421 1.20735 5.74012 -0.0254758 -0.0117278 5.74374 4.24969 16 1 
422 1.20734 5.7386 -0.0256846 -0.0119871 5.74218 4.22316 16 1 
423 1.20732 5.73625 -0.0258362 -0.0121376 5.7398 4.19738 16 1 
424 1.20732 5.73427 -0.025872 -0.0122114 5.73779 4.18846 16 1 
425 1.20732 5.73249 -0.0257568 -0.0122228 5.73598 4.18648 16 1 
426 1.20732 5.73032 -0.0254916 -0.0121552 5.73378 4.19025 16 1 
427 1.20733 5.72865 -0.0251165 -0.012024 5.73208 4.21601 16 1 
428 1.20736 5.72725 -0.0246954 -0.0119409 5.73065 4.26023 16 1 
429 1.20739 5.72552 -0.024301 -0.0120728 5.7289 4.31805 16 1 
430 1.20743 5.72446 -0.0240141 -0.0125088 5.72781 4.39775 16 1 
431 1.20749 5.72401 -0.0239535 -0.0131798 5.72733 4.49298 16 1 
432 1.20754 5.723 -0.0242107 -0.0138765 5.72631 4.5878 16 1 
432 1.20754 5.723 -0.0242107 -0.0138765 5.72631 4.5878 16 1 
433 1.20759 5.72173 -0.0247676 -0.0143722 5.72501 4.68613 16 1 
434 1.20765 5.72074 -0.0255105 -0.0145698 5.724 4.79432 16 1 
435 1.20772 5.71967 -0.0262994 -0.0145273 5.72291 4.9058 16 1 
436 1.20778 5.71881 -0.0270066 -0.0143807 5.72204 5.02437 16 1 
437 1.20785 5.71853 -0.0275506 -0.014248 5.72174 5.15284 16 1 
438 1.20792 5.71807 -0.0279276 -0.0142017 5.72127 5.27761 16 1 
439 1.20799 5.71741 -0.0281797 -0.0142625 5.72059 5.39651 16 1 
440 1.20805 5.71728 -0.028333 -0.014389 5.72043 5.51271 16 1 
441 1.20811 5.71722 -0.0284136 -0.0145514 5.72035 5.61629 16 1 
442 1.20816 5.71688 -0.0284681 -0.0147519 5.72 5.70707 16 1 
443 1.20821 5.71686 -0.0285061 -0.0149614 5.71996 5.78922 16 1 
444 1.20824 5.71692 -0.0285074 -0.0151533 5.72 5.85914 16 1 
445 1.20828 5.71685 -0.028491 -0.0153405 5.71991 5.9186 16 1 
446 1.2083 5.71721 -0.0284793 -0.0155267 5.72025 5.9684 16 1 
447 1.20832 5.7177 -0.0284664 -0.0157009 5.72071 6.00307 16 1 
448 1.20833 5.71784 -0.0284454 -0.015858 5.72084 6.01917 16 1 
448 1.20833 5.71784 -0.0284454 -0.015858 5.72084 6.01917 17 1 
449 1.20833 5.71806 -0.0284274 -0.0159999 5.72104 6.02031 17 1 
450 1.20833 5.71851 -0.0284141 -0.0161237 5.72146 6.0112 17 1 
451 1.20832 5.71894 -0.0283887 -0.0162241 5.72188 5.98998 17 1 
452 1.2083 5.71943 -0.0283554 -0.0163026 5.72235 5.95833 17 1 
453 1.20828 5.71995 -0.0283254 -0.0163577 5.72285 5.91886 17 1 
454 1.20825 5.72036 -0.0282905 -0.016396 5.72324 5.86924 17 1 
455 1.20822 5.72078 -0.0282494 -0.0164217 5.72365 5.81399 17 1 
456 1.20819 5.72138 -0.028212 -0.0164293 5.72422 5.75605 17 1 
457 1.20815 5.72191 -0.0281819 -0.0164293 5.72474 5.69373 17 1 
458 1.20812 5.72233 -0.0281537 -0.0164288 5.72514 5.63306 17 1 
459 1.20809 5.72293 -0.0281161 -0.0164104 5.72572 5.57843 17 1 
460 1.20806 5.72362 -0.0280799 -0.0163769 5.72639 5.52961 17 1 
461 1.20804 5.72419 -0.0280581 -0.0163549 5.72694 5.48771 17 1 
462 1.20802 5.72487 -0.0280317 -0.0163337 5.7276 5.4527 17 1 
463 1.208 5.72555 -0.0280003 -0.0162983 5.72826 5.42442 17 1 
464 1.20799 5.72594 -0.0279874 -0.016272 5.72864 5.40285 17 1 
464 1.20799 5.72594 -0.0279874 -0.016272 5.72864 5.40285 17 1 
465 1.20798 5.72636 -0.0279856 -0.0162631 5.72904 5.39068 17 1 
466 1.20799 5.72698 -0.0279743 -0.0162541 5.72964 5.39262 17 1 
467 1.20799 5.72756 -0.0279688 -0.0162452 5.73021 5.40952 17 1 
468 1.20801 5.72812 -0.0279853 -0.0162561 5.73075 5.44113 17 1 
469 1.20804 5.72874 -0.0279977 -0.016276 5.73136 5.48587 17 1 
470 1.20807 5.72931 -0.0280029 -0.0162891 5.73192 5.5417 17 1 
471 1.2081 5.72987 -0.0280286 -0.0163171 5.73246 5.608 17 1 
472 1.20814 5.73041 -0.02806 -0.0163674 5.73299 5.67848 17 1 
473 1.20818 5.73078 -0.0280841 -0.0164229 5.73335 5.75038 17 1 
474 1.20823 5.73101 -0.0281217 -0.016481 5.73356 5.82884 17 1 
475 1.20827 5.73129 -0.0281673 -0.016553 5.73383 5.91262 17 1 
476 1.20832 5.73166 -0.028205 -0.0166392 5.73419 6.00047 17 1 
477 1.20837 5.73206 -0.0282482 -0.0167254 5.73458 6.09458 17 1 
478 1.20843 5.73245 -0.0283001 -0.0168105 5.73495 6.19056 17 1 
479 1.20848 5.73276 -0.0283479 -0.0169096 5.73525 6.28256 17 1 
480 1.20853 5.73294 -0.028392 -0.0170215 5.73542 6.36767 17 1 
480 1.20853 5.73294 -0.028392 -0.0170215 5.73542 6.36767 17 1 
481 1.20857 5.73312 -0.0284413 -0.0171293 5.73559 6.44458 17 1 
482 1.20861 5.73328 -0.028496 -0.0172395 5.73573 6.5123 17 1 
483 1.20864 5.73322 -0.0285481 -0.0173665 5.73566 6.56803 17 1 
484 1.20866 5.73307 -0.0285957 -0.0174887 5.7355 6.61291 17 1 
485 1.20868 5.73304 -0.0286374 -0.0175926 5.73546 6.65162 17 1 
486 1.2087 5.73306 -0.0286705 -0.0176991 5.73546 6.68375 17 1 
487 1.20871 5.73304 -0.0286936 -0.017815 5.73543 6.70625 17 1 
488 1.20872 5.73304 -0.0287068 -0.0179182 5.73542 6.71795 17 1 
489 1.20872 5.73296 -0.0287152 -0.0180087 5.73533 6.71824 17 1 
490 1.20871 5.73275 -0.0287215 -0.018111 5.7351 6.70615 17 1 
491 1.2087 5.73258 -0.0287261 -0.0182147 5.73492 6.68179 17 1 
492 1.20868 5.73246 -0.0287233 -0.0183054 5.73479 6.64766 17 1 
493 1.20866 5.73223 -0.0287124 -0.018401 5.73454 6.60632 17 1 
494 1.20863 5.73202 -0.0286933 -0.0185013 5.73432 6.56063 17 1 
495 1.20861 5.73195 -0.0286545 -0.0185854 5.73424 6.51341 17 1 
496 1.20858 5.73194 -0.0286043 -0.0186608 5.73422 6.46562 17 1 
496 1.20858 5.73194 -0.0286043 -0.0186608 5.73422 6.46562 17 1 
497 1.20855 5.73201 -0.0285523 -0.0187442 5.73428 6.41771 17 1 
498 1.20853 5.73214 -0.0284844 -0.0188215 5.7344 6.36879 17 1 
499 1.2085 5.73219 -0.0283963 -0.0188873 5.73443 6.31895 17 1 
500 1.20847 5.73223 -0.0283077 -0.0189628 5.73446 6.27085 17 1 
501 1.20845 5.73245 -0.0282239 -0.0190495 5.73467 6.22709 17 1 
502 1.20843 5.73275 -0.0281292 -0.0191305 5.73495 6.1876 17 1 
503 1.20841 5.733 -0.0280283 -0.0192092 5.7352 6.15384 17 1 
504 1.20839 5.73337 -0.0279333 -0.0192996 5.73556 6.13067 17 1 
505 1.20839 5.73394 -0.0278414 -0.019393 5.73612 6.11769 17 1 
506 1.20838 5.73458 -0.0277391 -0.0194738 5.73675 6.11297 17 1 
507 1.20839 5.73536 -0.0276299 -0.0195562 5.73752 6.11893 17 1 
508 1.2084 5.73628 -0.0275286 -0.0196488 5.73843 6.13386 17 1 
509 1.20841 5.73714 -0.0274306 -0.0197301 5.73928 6.15431 17 1 
510 1.20842 5.73809 -0.0273286 -0.0198037 5.74021 6.18238 17 1 
511 1.20844 5.73927 -0.0272321 -0.0198907 5.74138 6.21949 17 1 
512 1.20847 5.74051 -0.0271545 -0.0199813 5.74262 6.26212 17 1 
512 1.20847 5.74051 -0.0271545 -0.0199813 5.74262 6.26212 25 1 
513 1.20849 5.74179 -0.0270873 -0.0200565 5.74389 6.30865 25 1 
514 1.20852 5.74324 -0.0270146 -0.0201298 5.74533 6.36117 25 1 
515 1.20855 5.74482 -0.0269505 -0.0202106 5.74691 6.41969 25 1 
516 1.20859 5.74655 -0.0269033 -0.0202799 5.74862 6.48212 25 1 
517 1.20862 5.74849 -0.0268574 -0.0203344 5.75055 6.54692 25 1 
518 1.20866 5.75051 -0.026815 -0.0203896 5.75256 6.61136 25 1 
519 1.20869 5.75249 -0.0267855 -0.0204442 5.75453 6.67346 25 1 
520 1.20873 5.75462 -0.0267572 -0.020483 5.75665 6.73305 25 1 
521 1.20876 5.75695 -0.0267321 -0.0205167 5.75896 6.78905 25 1 
522 1.20879 5.75927 -0.0267241 -0.0205652 5.76128 6.84027 25 1 
523 1.20881 5.76161 -0.0267216 -0.0206178 5.76361 6.88535 25 1 
524 1.20883 5.76412 -0.0267203 -0.0206525 5.7661 6.92422 25 1 
525 1.20885 5.7667 -0.0267289 -0.0206813 5.76868 6.95764 25 1 
526 1.20887 5.76934 -0.0267481 -0.020729 5.7713 6.98498 25 1 
527 1.20888 5.77208 -0.0267622 -0.0207741 5.77403 7.0055 25 1 
528 1.20889 5.77489 -0.0267554 -0.0207973 5.77683 7.01852 25 1 
528 1.20889 5.77489 -0.0267554 -0.0207973 5.77683 7.01852 25 1 
529 1.20889 5.77768 -0.0267429 -0.0208305 5.77961 7.02363 25 1 
530 1.20889 5.78048 -0.0267386 -0.0208804 5.7824 7.0213 25 1 
531 1.20888 5.78328 -0.0267229 -0.0209226 5.78519 7.01159 25 1 
532 1.20887 5.78608 -0.0266851 -0.0209663 5.78798 6.99524 25 1 
533 1.20886 5.7889 -0.0266475 -0.0210318 5.79079 6.97437 25 1 
534 1.20885 5.79167 -0.0266104 -0.0211076 5.79355 6.95022 25 1 
535 1.20883 5.79431 -0.0265492 -0.0211824 5.79618 6.9217 25 1 
536 1.20881 5.79694 -0.0264713 -0.0212739 5.7988 6.89039 25 1 
537 1.2088 5.79965 -0.0263981 -0.0213865 5.8015 6.8602 25 1 
538 1.20878 5.80223 -0.0263185 -0.0214995 5.80408 6.82827 25 1 
539 1.20876 5.80457 -0.0262169 -0.0216159 5.80641 6.79208 25 1 
540 1.20874 5.80686 -0.0261033 -0.0217484 5.80869 6.75843 25 1 
541 1.20873 5.80915 -0.0259868 -0.0218878 5.81097 6.72915 25 1 
542 1.20871 5.81131 -0.025865 -0.0220239 5.81312 6.69947 25 1 
543 1.20869 5.81334 -0.0257356 -0.0221663 5.81514 6.67345 25 1 
544 1.20868 5.81523 -0.0256049 -0.0223202 5.81703 6.65375 25 1 
544 1.20868 5.81523 -0.0256049 -0.0223202 5.81703 6.65375 25 1 
545 1.20867 5.817 -0.0254774 -0.0224741 5.81879 6.63679 25 1 
546 1.20867 5.81873 -0.0253498 -0.0226228 5.82051 6.62571 25 1 
547 1.20867 5.8204 -0.0252279 -0.022773 5.82218 6.62177 25 1 
548 1.20867 5.82187 -0.0251199 -0.0229282 5.82364 6.62115 25 1 
549 1.20867 5.82317 -0.0250177 -0.0230757 5.82494 6.62386 25 1 
550 1.20867 5.82443 -0.0249177 -0.0232119 5.82619 6.63072 25 1 
551 1.20868 5.82558 -0.0248383 -0.0233504 5.82734 6.64192 25 1 
552 1.20869 5.82665 -0.0247767 -0.023483 5.8284 6.65712 25 1 
553 1.2087 5.82768 -0.0247145 -0.0235974 5.82942 6.67546 25 1 
554 1.20871 5.82861 -0.0246569 -0.0237072 5.83036 6.69602 25 1 
555 1.20872 5.82946 -0.0246156 -0.0238133 5.8312 6.71901 25 1 
556 1.20873 5.83034 -0.0245814 -0.0239028 5.83208 6.74539 25 1 
557 1.20875 5.83128 -0.0245502 -0.0239818 5.83301 6.77245 25 1 
558 1.20876 5.83217 -0.0245273 -0.0240636 5.8339 6.80042 25 1 
559 1.20878 5.83305 -0.0245074 -0.024142 5.83478 6.83109 25 1 
560 1.2088 5.83402 -0.0244893 -0.0242103 5.83574 6.86094 25 1 
560 1.2088 5.83402 -0.0244893 -0.0242103 5.83574 6.86094 25 1 
561 1.20881 5.83505 -0.0244747 -0.024275 5.83677 6.88974 25 1 
562 1.20883 5.83614 -0.0244544 -0.024336 5.83786 6.91885 25 1 
563 1.20885 5.83726 -0.0244261 -0.0243966 5.83897 6.94608 25 1 
564 1.20886 5.83839 -0.0243889 -0.0244554 5.84011 6.9696 25 1 
565 1.20887 5.83964 -0.0243427 -0.0245139 5.84135 6.99028 25 1 
566 1.20888 5.84098 -0.0243037 -0.0245777 5.84269 7.00936 25 1 
567 1.20889 5.8424 -0.0242731 -0.0246251 5.84411 7.02444 25 1 
568 1.2089 5.84401 -0.0242353 -0.0246645 5.84572 7.03648 25 1 
569 1.2089 5.84579 -0.0241935 -0.0247333 5.8475 7.04793 25 1 
570 1.20891 5.8477 -0.0241474 -0.0248157 5.84941 7.05731 25 1 
571 1.20891 5.84984 -0.0240811 -0.0248891 5.85155 7.06609 25 1 
572 1.20892 5.85222 -0.0240096 -0.0249675 5.85393 7.07363 25 1 
573 1.20892 5.85476 -0.0239544 -0.0250493 5.85646 7.07876 25 1 
574 1.20892 5.85743 -0.0238968 -0.0251092 5.85913 7.08391 25 1 
575 1.20892 5.86021 -0.0238311 -0.0251598 5.86191 7.08651 25 1 
576 1.20892 5.86308 -0.0237727 -0.0252373 5.86477 7.08657 25 1 
576 1.20892 5.86308 -0.0237727 -0.0252373 5.86477 7.08657 26 1 
577 1.20892 5.86598 -0.0237158 -0.0253471 5.86767 7.08862 26 1 
578 1.20892 5.86886 -0.0236555 -0.0254736 5.87054 7.08814 26 1 
579 1.20892 5.87171 -0.0236091 -0.0256089 5.87339 7.08331 26 1 
580 1.20892 5.87465 -0.0235813 -0.0257471 5.87632 7.08032 26 1 
581 1.20892 5.87771 -0.0235587 -0.0258659 5.87938 7.07622 26 1 
582 1.20891 5.8809 -0.0235332 -0.0259552 5.88257 7.06727 26 1 
583 1.20891 5.88424 -0.0234943 -0.0260254 5.8859 7.05788 26 1 
584 1.2089 5.88771 -0.0234325 -0.0260894 5.88936 7.04802 26 1 
585 1.2089 5.89119 -0.0233465 -0.0261537 5.89282 7.03544 26 1 
586 1.20889 5.89465 -0.0232428 -0.0262229 5.89627 7.02249 26 1 
587 1.20888 5.89808 -0.0231337 -0.026306 5.8997 7.01048 26 1 
588 1.20887 5.90141 -0.023023 -0.0264036 5.90302 6.99824 26 1 
589 1.20887 5.90462 -0.022913 -0.0265103 5.90622 6.98504 26 1 
590 1.20886 5.90771 -0.0228103 -0.0266243 5.9093 6.97137 26 1 
591 1.20885 5.91066 -0.0227124 -0.0267387 5.91225 6.95714 26 1 
592 1.20884 5.91355 -0.0226133 -0.026844 5.91512 6.94268 26 1 
592 1.20884 5.91355 -0.0226133 -0.026844 5.91512 6.94268 26 1 
593 1.20884 5.91641 -0.0225227 -0.0269596 5.91798 6.92925 26 1 
594 1.20883 5.91915 -0.0224344 -0.0270758 5.92071 6.91534 26 1 
595 1.20882 5.92174 -0.0223406 -0.0271747 5.9233 6.90173 26 1 
596 1.20882 5.92429 -0.022256 -0.0272824 5.92584 6.89176 26 1 
597 1.20881 5.92678 -0.02218 -0.0273943 5.92832 6.88177 26 1 
598 1.2088 5.92915 -0.0221034 -0.0274942 5.9307 6.87171 26 1 
599 1.2088 5.93147 -0.0220339 -0.027592 5.93301 6.86513 26 1 
600 1.2088 5.93375 -0.0219743 -0.0276859 5.93528 6.85813 26 1 
601 1.20879 5.93597 -0.0219146 -0.0277676 5.9375 6.85115 26 1 
602 1.20879 5.93826 -0.0218563 -0.0278495 5.93978 6.84957 26 1 
603 1.20879 5.94062 -0.021808 -0.0279344 5.94214 6.85056 26 1 
604 1.20879 5.94297 -0.0217671 -0.028011 5.94448 6.85221 26 1 
605 1.2088 5.94532 -0.0217261 -0.0280939 5.94683 6.8591 26 1 
606 1.2088 5.94775 -0.0216883 -0.028183 5.94926 6.86898 26 1 
607 1.20881 5.95026 -0.0216589 -0.0282641 5.95177 6.88097 26 1 
608 1.20882 5.95286 -0.0216339 -0.0283427 5.95437 6.89806 26 1 
608 1.20882 5.95286 -0.0216339 -0.0283427 5.95437 6.89806 26 1 
609 1.20883 5.95553 -0.0216058 -0.0284183 5.95703 6.91517 26 1 
610 1.20884 5.95823 -0.0215774 -0.0284853 5.95973 6.9344 26 1 
611 1.20885 5.96103 -0.0215553 -0.0285499 5.96253 6.95935 26 1 
612 1.20887 5.96398 -0.0215324 -0.028619 5.96547 6.98448 26 1 
613 1.20888 5.96702 -0.0215101 -0.0286893 5.96851 7.01412 26 1 
614 1.2089 5.9701 -0.0214974 -0.0287672 5.97158 7.04957 26 1 
615 1.20892 5.97319 -0.0214828 -0.0288521 5.97467 7.08272 26 1 
616 1.20894 5.97629 -0.0214663 -0.0289411 5.97777 7.11831 26 1 
617 1.20896 5.97943 -0.0214578 -0.0290367 5.9809 7.15833 26 1 
618 1.20898 5.98257 -0.0214499 -0.0291369 5.98404 7.19536 26 1 
619 1.209 5.98567 -0.0214392 -0.029242 5.98714 7.23353 26 1 
620 1.20903 5.98867 -0.0214288 -0.0293477 5.99014 7.27591 26 1 
621 1.20905 5.99159 -0.0214157 -0.0294576 5.99305 7.31651 26 1 
622 1.20907 5.99444 -0.021398 -0.0295794 5.99589 7.35752 26 1 
623 1.2091 5.99711 -0.0213815 -0.0297129 5.99857 7.40161 26 1 
624 1.20912 5.99956 -0.0213645 -0.0298475 6.00101 7.44311 26 1 
624 1.20912 5.99956 -0.0213645 -0.0298475 6.00101 7.44311 26 1 
625 1.20914 6.00173 -0.0213442 -0.0299931 6.00318 7.48125 26 1 
626 1.20916 6.00365 -0.021327 -0.0301533 6.0051 7.51828 26 1 
627 1.20918 6.00547 -0.0213097 -0.0303107 6.00692 7.55193 26 1 
628 1.2092 6.00711 -0.0212808 -0.0304699 6.00856 7.58208 26 1 
629 1.20921 6.00853 -0.0212515 -0.0306474 6.00998 7.60832 26 1 
630 1.20922 6.00978 -0.0212234 -0.030839 6.01123 7.62946 26 1 
631 1.20923 6.01078 -0.0211693 -0.0310274 6.01223 7.6457 26 1 
632 1.20924 6.01155 -0.0211058 -0.0312219 6.013 7.65574 26 1 
633 1.20924 6.01206 -0.0210483 -0.0314206 6.01351 7.65824 26 1 
634 1.20924 6.01225 -0.0209716 -0.0316028 6.01371 7.65054 26 1 
635 1.20923 6.01221 -0.0208835 -0.0317655 6.01367 7.63516 26 1 
636 1.20922 6.01206 -0.0208094 -0.0319194 6.01352 7.61424 26 1 
637 1.2092 6.01183 -0.0207307 -0.0320682 6.01329 7.58454 26 1 
638 1.20918 6.01156 -0.0206421 -0.0322107 6.01302 7.55001 26 1 
639 1.20916 6.01115 -0.0205688 -0.032358 6.01261 7.51146 26 1 
640 1.20913 6.01068 -0.0205035 -0.03251 6.01214 7.46463 26 1 
640 1.20913 6.01068 -0.0205035 -0.03251 6.01214 7.46463 26 1 
641 1.20911 6.01016 -0.0204381 -0.0326629 6.01163 7.41698 26 1 
642 1.20908 6.00973 -0.0203937 -0.0328016 6.0112 7.37077 26 1 
643 1.20905 6.00949 -0.020371 -0.0329215 6.01095 7.32313 26 1 
644 1.20903 6.00942 -0.0203615 -0.033043 6.01089 7.2822 26 1 
645 1.20901 6.00961 -0.0203645 -0.0331436 6.01107 7.24756 26 1 
646 1.209 6.00999 -0.0203689 -0.0332173 6.01145 7.2164 26 1 
647 1.20899 6.01053 -0.0203674 -0.0332879 6.01199 7.19862 26 1 
648 1.20898 6.01098 -0.020354 -0.0333319 6.01243 7.19179 26 1 
649 1.20898 6.01117 -0.0203253 -0.0333374 6.01261 7.19266 26 1 
650 1.20899 6.01108 -0.0202902 -0.0333008 6.01251 7.21064 26 1 
651 1.20901 6.01063 -0.0202535 -0.0332092 6.01203 7.24041 26 1 
652 1.20903 6.00995 -0.0201994 -0.0330486 6.01133 7.27942 26 1 
653 1.20906 6.00895 -0.0201207 -0.0328153 6.0103 7.33499 26 1 
654 1.2091 6.00744 -0.0200052 -0.0324998 6.00875 7.39843 26 1 
655 1.20913 6.00528 -0.0198069 -0.0320501 6.00655 7.46804 26 1 
656 1.20918 6.00199 -0.0194873 -0.0314227 6.0032 7.54655 26 1 
656 1.20918 6.00199 -0.0194873 -0.0314227 6.0032 7.54655 26 1 
657 1.20922 5.99709 -0.0190225 -0.030567 5.99823 7.62611 26 1 
658 1.20927 5.98994 -0.0184017 -0.0294375 5.99099 7.70715 26 1 
659 1.20931 5.97999 -0.0176325 -0.0280389 5.98094 7.78612 26 1 
660 1.20935 5.96696 -0.0167739 -0.026421 5.9678 7.86058 26 1 
661 1.20939 5.95094 -0.0159188 -0.0246541 5.95167 7.9313 26 1 
662 1.20942 5.93248 -0.0151392 -0.0228446 5.93312 7.99174 26 1 
663 1.20945 5.91238 -0.0144869 -0.0210677 5.91292 8.04145 26 1 
664 1.20948 5.89179 -0.0140032 -0.0193316 5.89226 8.08337 26 1 
665 1.20949 5.87181 -0.0136635 -0.0176441 5.87221 8.11251 26 1 
666 1.2095 5.85328 -0.0134013 -0.0159851 5.85363 8.12922 26 1 
667 1.20951 5.83673 -0.0131925 -0.0143909 5.83703 8.13991 26 1 
668 1.20951 5.82211 -0.0130014 -0.0129765 5.82236 8.14041 26 1 
669 1.2095 5.80896 -0.0128288 -0.0118904 5.80918 8.13525 26 1 
670 1.2095 5.79674 -0.0127116 -0.0112142 5.79694 8.12807 26 1 
671 1.20949 5.78497 -0.0126748 -0.0109702 5.78516 8.11813 26 1 
672 1.20949 5.77328 -0.012738 -0.0111341 5.77348 8.11033 26 1 
672 1.20949 5.77328 -0.012738 -0.0111341 5.77348 8.11033 27 1 
673 1.20949 5.76157 -0.0128973 -0.0115712 5.76178 8.10198 27 1 
674 1.20948 5.74984 -0.0131109 -0.0121079 5.75005 8.0964 27 1 
675 1.20948 5.73808 -0.0133343 -0.0126091 5.73831 8.0954 27 1 
676 1.20948 5.72652 -0.0135519 -0.0129796 5.72675 8.10091 27 1 
677 1.20949 5.71525 -0.0137173 -0.0131132 5.71547 8.1172 27 1 
678 1.20951 5.70438 -0.0138368 -0.0129631 5.7046 8.13936 27 1 
679 1.20952 5.69424 -0.0139192 -0.0124513 5.69444 8.16563 27 1 
680 1.20954 5.68504 -0.0139324 -0.0114031 5.68521 8.19608 27 1 
681 1.20955 5.67711 -0.0138353 -0.00965931 5.67725 8.2267 27 1 
682 1.20957 5.67046 -0.0135486 -0.00718346 5.67056 8.25351 27 1 
683 1.20958 5.66448 -0.0130468 -0.00421127 5.66454 8.28018 27 1 
684 1.2096 5.65813 -0.0123607 -0.00119664 5.65816 8.30078 27 1 
685 1.2096 5.64988 -0.0115968 0.00135603 5.6499 8.30546 27 1 
686 1.20959 5.63862 -0.0109166 0.00305404 5.63864 8.29584 27 1 
687 1.20958 5.62409 -0.0104565 0.00377264 5.62411 8.26688 27 1 
688 1.20955 5.60665 -0.0102643 0.00369858 5.60667 8.22027 27 1 
688 1.20955 5.60665 -0.0102643 0.00369858 5.60667 8.22027 27 1 
689 1.20952 5.58755 -0.0103169 0.00316299 5.58758 8.1585 27 1 
690 1.20947 5.56804 -0.0105365 0.00245032 5.56807 8.08103 27 1 
691 1.20943 5.54899 -0.010825 0.00172824 5.54902 7.99416 27 1 
692 1.20937 5.53101 -0.0111151 0.00103092 5.53104 7.8996 27 1 
693 1.20932 5.51393 -0.0113597 0.000245185 5.51397 7.80496 27 1 
694 1.20927 5.49735 -0.0115611 -0.000758433 5.49738 7.71301 27 1 
695 1.20922 5.48088 -0.0117285 -0.00201232 5.48092 7.62748 27 1 
696 1.20918 5.46418 -0.0119101 -0.00351025 5.46422 7.55787 27 1 
697 1.20915 5.44727 -0.0121495 -0.00518341 5.44732 7.50033 27 1 
698 1.20913 5.43062 -0.012449 -0.00688315 5.43068 7.46263 27 1 
699 1.20913 5.41474 -0.0128563 -0.00853231 5.41482 7.45431 27 1 
700 1.20914 5.40047 -0.0133815 -0.0101008 5.40057 7.47427 27 1 
701 1.20917 5.38853 -0.0139824 -0.0115057 5.38864 7.52865 27 1 
702 1.20921 5.37931 -0.0146517 -0.0127624 5.37945 7.61221 27 1 
703 1.20927 5.37335 -0.0153512 -0.0139171 5.3735 7.7198 27 1 
704 1.20935 5.3707 -0.0160488 -0.0149256 5.37087 7.85491 27 1 
704 1.20935 5.3707 -0.0160488 -0.0149256 5.37087 7.85491 31 1 
705 1.20943 5.37134 -0.0167335 -0.0158258 5.37153 8.00642 31 1 
706 1.20952 5.37521 -0.01735 -0.0166342 5.37541 8.16378 31 1 
707 1.20961 5.38196 -0.0178938 -0.0173111 5.38217 8.33051 31 1 
708 1.2097 5.39141 -0.0183786 -0.0179221 5.39163 8.49717 31 1 
709 1.20979 5.40319 -0.0187623 -0.0184572 5.40342 8.64917 31 1 
710 1.20986 5.41681 -0.0190457 -0.0188605 5.41703 8.78517 31 1 
711 1.20992 5.43207 -0.0192516 -0.0191955 5.4323 8.89237 31 1 
712 1.20997 5.44874 -0.0193761 -0.0194761 5.44897 8.96949 31 1 
713 1.20999 5.46659 -0.0194465 -0.0196711 5.46681 9.01975 31 1 
714 1.21 5.4856 -0.0194733 -0.0198012 5.48582 9.02927 31 1 
715 1.20999 5.50563 -0.0194717 -0.0199199 5.50585 9.00515 31 1 
716 1.20996 5.52663 -0.0194616 -0.0199852 5.52685 8.95709 31 1 
717 1.20991 5.54858 -0.0194362 -0.019992 5.5488 8.87761 31 1 
718 1.20985 5.57137 -0.0194351 -0.0200088 5.57159 8.7674 31 1 
719 1.20978 5.59506 -0.0194662 -0.0199737 5.59527 8.64067 31 1 
720 1.20971 5.61961 -0.0195318 -0.0199471 5.61982 8.50781 31 1 
721 1.20963 5.64505 -0.0196544 -0.0199272 5.64525 8.36632 31 1 
722 1.20956 5.6713 -0.0198149 -0.019858 5.6715 8.23168 31 1 
723 1.20949 5.69827 -0.0200321 -0.0198204 5.69847 8.11816 31 1 
724 1.20944 5.72615 -0.0203151 -0.0197887 5.72635 8.02279 31 1 
725 1.20941 5.75477 -0.0206286 -0.019718 5.75496 7.96515 31 1 
726 1.2094 5.78388 -0.0209929 -0.0196755 5.78407 7.9389 31 1 
727 1.2094 5.81357 -0.0214079 -0.0196372 5.81376 7.94013 31 1 
728 1.20942 5.84376 -0.0218132 -0.019533 5.84395 7.99153 31 1 
728 1.20942 5.84376 -0.0218132 -0.019533 5.84395 7.99153 31 1 
729 1.20947 5.87432 -0.0222351 -0.0194404 5.87451 8.07569 31 1 
730 1.20953 5.90532 -0.0226489 -0.0193263 5.90551 8.19028 31 1 
731 1.20962 5.93642 -0.023003 -0.0191356 5.93661 8.33982 31 1 
732 1.20971 5.96775 -0.0233617 -0.0189684 5.96793 8.50358 31 1 
733 1.20981 5.9992 -0.023639 -0.0187347 5.99938 8.68186 31 1 
734 1.20991 6.03055 -0.0238146 -0.018396 6.03072 8.86172 31 1 
735 1.21 6.06194 -0.0239537 -0.0180471 6.0621 9.02528 31 1 
736 1.21008 6.09315 -0.0239918 -0.0176158 6.0933 9.17114 31 1 
737 1.21015 6.12428 -0.0239454 -0.0171619 6.12442 9.29622 31 1 
738 1.21019 6.15527 -0.0238507 -0.0166593 6.15539 9.38259 31 1 
739 1.21022 6.18608 -0.0236861 -0.0160664 6.18619 9.42537 31 1 
740 1.21023 6.21674 -0.0234655 -0.0154703 6.21684 9.43888 31 1 
741 1.21021 6.24751 -0.0232322 -0.0148131 6.24759 9.40659 31 1 
742 1.21017 6.27782 -0.0230061 -0.0142015 6.2779 9.33664 31 1 
743 1.21011 6.30829 -0.022792 -0.0135946 6.30836 9.23086 31 1 
744 1.21004 6.33871 -0.0226289 -0.0129554 6.33877 9.10511 31 1 
745 1.20996 6.3689 -0.0225393 -0.0123984 6.36896 8.96655 31 1 
746 1.20988 6.39959 -0.0225095 -0.011869 6.39965 8.81369 31 1 
747 1.20981 6.42982 -0.0226037 -0.0114025 6.42988 8.68493 31 1 
748 1.20974 6.46045 -0.0227996 -0.0110158 6.46051 8.56042 31 1 
749 1.20969 6.49124 -0.0230742 -0.0106664 6.49129 8.47355 31 1 
750 1.20967 6.52194 -0.0235089 -0.0103993 6.522 8.44229 31 1 
751 1.20967 6.55287 -0.0239843 -0.0102181 6.55294 8.4348 31 1 
752 1.2097 6.58382 -0.0245428 -0.0100858 6.58389 8.49766 31 1 
752 1.2097 6.58382 -0.0245428 -0.0100858 6.58389 8.49766 31 1 
753 1.20977 6.61462 -0.025212 -0.00998745 6.6147 8.62403 31 1 
754 1.20986 6.64587 -0.0258542 -0.00995199 6.64596 8.77886 31 1 
755 1.20999 6.67663 -0.0265451 -0.00998815 6.67674 9.00583 31 1 
756 1.21013 6.70741 -0.0271868 -0.00994408 6.70753 9.26346 31 1 
757 1.21028 6.73817 -0.0277265 -0.00991848 6.7383 9.5386 31 1 
758 1.21045 6.7684 -0.0282375 -0.00990781 6.76853 9.85056 31 1 
759 1.21062 6.79861 -0.0286351 -0.00983205 6.79874 10.1523 31 1 
760 1.21077 6.82834 -0.0288331 -0.00971698 6.82846 10.43 31 1 
761 1.21092 6.85783 -0.0288765 -0.00951505 6.85794 10.6845 31 1 
762 1.21103 6.88698 -0.0288633 -0.00926066 6.88708 10.8861 31 1 
763 1.2111 6.91572 -0.0286882 -0.00893172 6.9158 11.0136 31 1 
764 1.21113 6.94408 -0.0283383 -0.00858026 6.94415 11.0778 31 1 
765 1.21112 6.97261 -0.0279121 -0.00810257 6.97268 11.0555 31 1 
766 1.21107 7.00013 -0.0274577 -0.0076132 7.0002 10.9617 31 1 
767 1.21097 7.02839 -0.0269256 -0.00713945 7.02846 10.7849 31 1 
768 1.21084 7.0562 -0.0264141 -0.00663594 7.05627 10.5493 31 1 
769 1.21068 7.08351 -0.0259651 -0.00615792 7.08359 10.2597 31 1 
770 1.21049 7.1117 -0.0255382 -0.00568151 7.11178 9.9129 31 1 
771 1.21029 7.13982 -0.0253229 -0.00529684 7.1399 9.56259 31 1 
772 1.21011 7.16755 -0.0252495 -0.00507402 7.16763 9.22671 31 1 
773 1.20992 7.19617 -0.0252915 -0.00487192 7.19624 8.88767 31 1 
774 1.20977 7.2249 -0.0255188 -0.00469487 7.22497 8.62228 31 1 
775 1.20968 7.25311 -0.0259627 -0.00473009 7.25318 8.44836 31 1 
776 1.2096 7.28252 -0.0265155 -0.00484192 7.28258 8.30533 31 1 
776 1.2096 7.28252 -0.0265155 -0.00484192 7.28258 8.30533 31 1 
777 1.20958 7.31109 -0.0272011 -0.00498219 7.31117 8.27106 31 1 
778 1.20962 7.34016 -0.0279147 -0.0051279 7.34025 8.3457 31 1 
779 1.20972 7.36819 -0.0286096 -0.00532174 7.36829 8.52742 31 1 
780 1.20986 7.39697 -0.0294096 -0.00551939 7.3971 8.77187 31 1 
781 1.21004 7.4251 -0.0303055 -0.00590855 7.42525 9.1039 31 1 
782 1.21027 7.45239 -0.0309018 -0.00616871 7.45255 9.51084 31 1 
783 1.21049 7.47953 -0.0312755 -0.00621759 7.4797 9.91177 31 1 
784 1.2107 7.50678 -0.0316663 -0.00631735 7.50695 10.3007 31 1 
785 1.21096 7.53079 -0.0316518 -0.00649506 7.53095 10.7696 31 1 
786 1.21115 7.55618 -0.0313331 -0.00645923 7.55632 11.1159 31 1 
787 1.21131 7.58082 -0.0313584 -0.00635276 7.58095 11.3973 31 1 
788 1.21147 7.60341 -0.0310877 -0.00638405 7.60352 11.6931 31 1 
789 1.21155 7.62756 -0.0304685 -0.00649726 7.62765 11.8317 31 1 
790 1.21157 7.64949 -0.0294867 -0.00571523 7.64957 11.8631 31 1 
791 1.21156 7.67212 -0.0284173 -0.00469915 7.67219 11.8539 31 1 
792 1.21155 7.69264 -0.0278161 -0.00470543 7.69271 11.8395 31 1 
793 1.21145 7.71343 -0.0278238 -0.00523231 7.7135 11.6571 31 1 
794 1.21133 7.73323 -0.0277083 -0.00523311 7.73331 11.4344 31 1 
795 1.21124 7.75355 -0.0262467 -0.0039932 7.75363 11.2766 31 1 
796 1.21114 7.77323 -0.0249148 -0.00284724 7.7733 11.0823 31 1 
797 1.21098 7.79729 -0.0246814 -0.00267002 7.79735 10.8053 31 1 
798 1.21096 7.8204 -0.0255735 -0.00318127 7.82046 10.7733 31 1 
799 1.21088 7.85652 -0.027228 -0.00314609 7.85659 10.6163 31 1 
800 1.21072 7.8851 -0.0281343 -0.00281352 7.88518 10.3322 31 1 
