81.5083;r ;Density                 ;Velocity u              ;Velocity v              ;Velocity w              ;|Velocity|              ;Pressure                ;Distribution            ;Levels                  ;
0 1.21194 9.98751 -0.000135503 0.000233086 9.98752 12.5336 1 1 
1 1.21175 9.99105 0.000322465 0.000780972 9.99105 12.1925 1 1 
2 1.2114 9.99576 0.00117365 0.00173334 9.99576 11.5669 1 1 
3 1.21111 9.9979 0.00188273 0.00256102 9.99791 11.0314 1 1 
4 1.21095 10.0001 0.00227736 0.00296832 10.0001 10.7554 1 1 
5 1.21082 10.0013 0.00256762 0.00309721 10.0013 10.5155 1 1 
6 1.21068 10.0018 0.00285864 0.00329812 10.0018 10.2591 1 1 
7 1.21066 10.0033 0.00290347 0.00309806 10.0033 10.2184 1 1 
8 1.21061 10.0038 0.00295766 0.00279054 10.0038 10.127 1 1 
9 1.21059 10.0042 0.00296095 0.00249663 10.0042 10.0921 1 1 
10 1.21067 10.0055 0.00275239 0.00182329 10.0055 10.2379 1 1 
11 1.21071 10.0056 0.00259732 0.00118857 10.0057 10.3155 1 1 
12 1.21081 10.0061 0.00232014 0.000496503 10.0062 10.4959 1 1 
13 1.21098 10.007 0.00189295 -0.000486145 10.0071 10.7938 1 1 
14 1.2111 10.0069 0.00153482 -0.00130491 10.0071 11.0206 1 1 
15 1.2113 10.0075 0.00101537 -0.00222431 10.0077 11.3806 1 1 
16 1.21151 10.0077 0.000442986 -0.0032816 10.0079 11.7549 1 1 
16 1.21151 10.0077 0.000442986 -0.0032816 10.0079 11.7549 1 1 
17 1.21168 10.0073 -4.4439e-05 -0.00407288 10.0075 12.0704 1 1 
18 1.21194 10.0078 -0.000670458 -0.00494588 10.008 12.5288 1 1 
19 1.21215 10.0076 -0.00123647 -0.00574389 10.0077 12.9151 1 1 
20 1.21233 10.0067 -0.0017229 -0.00623151 10.0069 13.2346 1 1 
21 1.21256 10.0066 -0.00229067 -0.0067909 10.0068 13.6567 1 1 
22 1.21274 10.0059 -0.00270768 -0.00710714 10.0061 13.9839 1 1 
23 1.21291 10.0052 -0.00306739 -0.00713487 10.0053 14.2858 1 1 
24 1.21307 10.0047 -0.00344443 -0.00719535 10.0047 14.5779 1 1 
25 1.21316 10.0034 -0.00360793 -0.00691899 10.0035 14.7302 1 1 
26 1.21327 10.003 -0.00372958 -0.00645425 10.0031 14.9327 1 1 
27 1.21335 10.0026 -0.0038126 -0.00596609 10.0027 15.075 1 1 
28 1.21332 10.0013 -0.00368718 -0.00512531 10.0013 15.0334 1 1 
29 1.21333 10.001 -0.00353959 -0.00422918 10.001 15.0515 1 1 
30 1.21331 10.0009 -0.00329786 -0.0032965 10.0009 15.0063 1 1 
31 1.21321 10.0002 -0.00290423 -0.0020907 10.0003 14.834 1 1 
32 1.21313 10.0001 -0.00251864 -0.000939068 10.0002 14.6792 1 1 
32 1.21313 10.0001 -0.00251864 -0.000939068 10.0002 14.6792 1 1 
33 1.21299 9.99975 -0.00199465 0.000285995 9.99981 14.426 1 1 
34 1.21284 9.99975 -0.0013924 0.00164647 9.99984 14.1644 1 1 
35 1.21271 10.0002 -0.000829339 0.00284889 10.0003 13.9345 1 1 
36 1.21251 9.99977 -0.000135826 0.00413598 9.9999 13.556 1 1 
37 1.21232 9.99992 0.000552133 0.0053924 10.0001 13.2223 1 1 
38 1.21217 10.0007 0.0011929 0.00642465 10.0008 12.9422 1 1 
39 1.21195 10.0009 0.00192079 0.00751137 10.001 12.5603 1 1 
40 1.21176 10.0014 0.00256814 0.00843143 10.0015 12.2191 1 1 
41 1.21158 10.002 0.00316322 0.00910024 10.0021 11.8861 1 1 
42 1.21138 10.0026 0.00377309 0.00974979 10.0027 11.5318 1 1 
43 1.21124 10.0038 0.00423378 0.0101253 10.004 11.2701 1 1 
44 1.21107 10.0045 0.00465637 0.0103076 10.0046 10.9568 1 1 
45 1.2109 10.0051 0.00503364 0.0104118 10.0051 10.6514 1 1 
46 1.21081 10.0065 0.00523478 0.0101705 10.0065 10.4873 1 1 
47 1.2107 10.0073 0.00539806 0.00979414 10.0073 10.2895 1 1 
48 1.21061 10.008 0.00546923 0.00932392 10.008 10.1268 1 1 
48 1.21061 10.008 0.00546923 0.00932392 10.008 10.1268 1 1 
49 1.21057 10.009 0.00537713 0.00855164 10.009 10.0638 1 1 
50 1.21053 10.0096 0.00526751 0.00775094 10.0096 9.99591 1 1 
51 1.21055 10.0105 0.00504482 0.00686011 10.0105 10.0238 1 1 
52 1.21059 10.0112 0.00472732 0.00578891 10.0113 10.0943 1 1 
53 1.21061 10.0114 0.00440531 0.00476864 10.0114 10.1381 1 1 
54 1.21071 10.0122 0.00394789 0.00362089 10.0123 10.3061 1 1 
55 1.21081 10.0129 0.00344991 0.00240541 10.0129 10.4908 1 1 
56 1.2109 10.013 0.00295443 0.00130616 10.013 10.6563 1 1 
57 1.21104 10.0135 0.00235578 0.000114681 10.0136 10.9054 1 1 
58 1.21117 10.0137 0.00176524 -0.00102778 10.0138 11.1429 1 1 
59 1.21131 10.0139 0.00116928 -0.00202406 10.014 11.4049 1 1 
60 1.21149 10.0143 0.000519129 -0.00303735 10.0143 11.7193 1 1 
61 1.21163 10.014 -5.31357e-05 -0.00385814 10.0141 11.9749 1 1 
62 1.21179 10.0139 -0.000609488 -0.00450542 10.014 12.2674 1 1 
63 1.21197 10.014 -0.00114982 -0.00508947 10.0141 12.5929 1 1 
64 1.21211 10.0135 -0.00156154 -0.00538525 10.0136 12.8424 1 1 
64 1.21211 10.0135 -0.00156154 -0.00538525 10.0136 12.8424 2 1 
65 1.21226 10.0132 -0.00194717 -0.00552746 10.0132 13.1171 2 1 
66 1.2124 10.0128 -0.00226462 -0.00556089 10.0129 13.3694 2 1 
67 1.21251 10.0121 -0.00245867 -0.00530614 10.0122 13.5632 2 1 
68 1.21263 10.0119 -0.00262316 -0.00493763 10.0119 13.7825 2 1 
69 1.21271 10.0113 -0.00267193 -0.00441169 10.0113 13.9195 2 1 
70 1.21276 10.0106 -0.00262004 -0.00366038 10.0106 14.016 2 1 
71 1.21283 10.0104 -0.00255337 -0.00289311 10.0104 14.1422 2 1 
72 1.21285 10.0099 -0.00236829 -0.00198034 10.0099 14.1703 2 1 
73 1.21285 10.0094 -0.00211721 -0.000921447 10.0094 14.1736 2 1 
74 1.21285 10.0093 -0.00184763 0.000113032 10.0093 14.183 2 1 
75 1.21281 10.0089 -0.00146108 0.00128976 10.0089 14.1068 2 1 
76 1.21277 10.0088 -0.00104151 0.00252458 10.0088 14.031 2 1 
77 1.21271 10.0087 -0.000588803 0.0037064 10.0087 13.9313 2 1 
78 1.21262 10.0084 -4.93955e-05 0.00495316 10.0085 13.7607 2 1 
79 1.21254 10.0087 0.000475797 0.00612016 10.0087 13.6139 2 1 
80 1.21243 10.0087 0.00102277 0.00719105 10.0088 13.4284 2 1 
80 1.21243 10.0087 0.00102277 0.00719105 10.0088 13.4284 2 1 
81 1.21231 10.0086 0.00160113 0.00823399 10.0086 13.1971 2 1 
82 1.2122 10.009 0.00212546 0.00907884 10.0091 12.9977 2 1 
83 1.21206 10.0092 0.00264493 0.00979469 10.0093 12.7554 2 1 
84 1.21193 10.0096 0.00311957 0.0103887 10.0097 12.5102 2 1 
85 1.2118 10.0102 0.00351679 0.0107315 10.0103 12.2858 2 1 
86 1.21165 10.0107 0.00390499 0.0109662 10.0108 12.0112 2 1 
87 1.21152 10.0114 0.00420246 0.0110267 10.0114 11.7842 2 1 
88 1.2114 10.0122 0.00441878 0.0108316 10.0123 11.5664 2 1 
89 1.21125 10.0127 0.00462674 0.0105622 10.0128 11.2933 2 1 
90 1.21114 10.0135 0.00471317 0.0100993 10.0136 11.0929 2 1 
91 1.21104 10.0143 0.00472002 0.00942555 10.0144 10.9077 2 1 
92 1.21092 10.0149 0.00471261 0.00873978 10.0149 10.689 2 1 
93 1.21083 10.0157 0.00458562 0.00789859 10.0157 10.5329 2 1 
94 1.21075 10.0162 0.00440194 0.00692011 10.0162 10.3903 2 1 
95 1.21068 10.0168 0.00418703 0.0059364 10.0168 10.2572 2 1 
96 1.21064 10.0176 0.003873 0.00484244 10.0176 10.184 2 1 
96 1.21064 10.0176 0.003873 0.00484244 10.0176 10.184 2 1 
97 1.2106 10.0179 0.00351886 0.0037058 10.0179 10.1107 2 1 
98 1.21058 10.0184 0.00312047 0.0025816 10.0184 10.0733 2 1 
99 1.21059 10.0192 0.00266617 0.00143341 10.0192 10.0909 2 1 
100 1.2106 10.0195 0.0022047 0.000357337 10.0196 10.1173 2 1 
101 1.21064 10.02 0.00170948 -0.000673056 10.02 10.1908 2 1 
102 1.21069 10.0205 0.00120574 -0.00163721 10.0206 10.2813 2 1 
103 1.21076 10.0208 0.000709453 -0.0024517 10.0209 10.4056 2 1 
104 1.21087 10.0213 0.000189016 -0.00319019 10.0214 10.599 2 1 
105 1.21096 10.0216 -0.000278206 -0.00375655 10.0217 10.7698 2 1 
106 1.21108 10.0216 -0.000708499 -0.00412471 10.0216 10.9755 2 1 
107 1.21123 10.0218 -0.00113912 -0.00442059 10.0219 11.2562 2 1 
108 1.21137 10.0218 -0.00147824 -0.00450013 10.0219 11.5083 2 1 
109 1.21153 10.0217 -0.00177282 -0.00437504 10.0218 11.7919 2 1 
110 1.21171 10.0215 -0.00204261 -0.00417598 10.0216 12.1128 2 1 
111 1.21186 10.0213 -0.00219657 -0.00374832 10.0213 12.3925 2 1 
112 1.21204 10.0212 -0.00230904 -0.00316283 10.0213 12.7191 2 1 
112 1.21204 10.0212 -0.00230904 -0.00316283 10.0213 12.7191 2 1 
113 1.21222 10.021 -0.00236866 -0.00252422 10.021 13.046 2 1 
114 1.21236 10.0205 -0.00231018 -0.00169337 10.0206 13.2977 2 1 
115 1.21253 10.0203 -0.00223566 -0.000809358 10.0204 13.594 2 1 
116 1.21268 10.02 -0.0021029 9.80184e-05 10.02 13.8703 2 1 
117 1.21279 10.0196 -0.00186704 0.00116152 10.0196 14.066 2 1 
118 1.2129 10.0192 -0.00161637 0.00221689 10.0192 14.2755 2 1 
119 1.21299 10.0187 -0.00130876 0.00327135 10.0187 14.4297 2 1 
120 1.21304 10.0184 -0.000929313 0.00439741 10.0184 14.526 2 1 
121 1.21309 10.0181 -0.000546449 0.00545587 10.0181 14.6183 2 1 
122 1.2131 10.0174 -0.000115793 0.00647485 10.0174 14.6226 2 1 
123 1.21307 10.017 0.000348203 0.00747431 10.017 14.5712 2 1 
124 1.21303 10.0167 0.00079694 0.00834362 10.0167 14.5069 2 1 
125 1.21295 10.0163 0.00127124 0.00913346 10.0164 14.3563 2 1 
126 1.21284 10.0161 0.00173875 0.0098253 10.0162 14.1524 2 1 
127 1.2127 10.0159 0.00217585 0.0103385 10.016 13.9128 2 1 
128 1.21253 10.0158 0.00260884 0.0107385 10.0159 13.6057 2 1 
128 1.21253 10.0158 0.00260884 0.0107385 10.0159 13.6057 10 1 
129 1.21235 10.016 0.00300323 0.0109868 10.0162 13.2739 10 1 
130 1.21214 10.0162 0.00335204 0.0110537 10.0163 12.8973 10 1 
131 1.2119 10.0163 0.00366224 0.0109858 10.0164 12.4716 10 1 
132 1.21167 10.0167 0.0039065 0.0107452 10.0168 12.0474 10 1 
133 1.21142 10.0171 0.00409554 0.0103577 10.0173 11.6035 10 1 
134 1.21117 10.0176 0.00423309 0.00986244 10.0177 11.1457 10 1 
135 1.21092 10.0182 0.00430828 0.00923977 10.0183 10.699 10 1 
136 1.21068 10.0188 0.00433515 0.00852579 10.0189 10.2567 10 1 
137 1.21045 10.0196 0.00430271 0.00774364 10.0196 9.84507 10 1 
138 1.21024 10.0204 0.00421132 0.00688987 10.0204 9.46955 10 1 
139 1.21005 10.0212 0.00407364 0.00599905 10.0212 9.12105 10 1 
140 1.20989 10.0221 0.00387038 0.00507156 10.0221 8.82633 10 1 
141 1.20976 10.023 0.00361642 0.00411337 10.023 8.59516 10 1 
142 1.20966 10.024 0.00332742 0.00317094 10.024 8.42579 10 1 
143 1.20961 10.0249 0.00299228 0.00224723 10.0249 8.32468 10 1 
144 1.20959 10.0258 0.00261778 0.00135618 10.0258 8.29289 10 1 
144 1.20959 10.0258 0.00261778 0.00135618 10.0258 8.29289 10 1 
145 1.20962 10.0268 0.00221658 0.000530497 10.0268 8.3411 10 1 
146 1.20969 10.0276 0.00179491 -0.000209253 10.0277 8.47248 10 1 
147 1.2098 10.0283 0.00135909 -0.000842151 10.0284 8.67257 10 1 
148 1.20995 10.0288 0.000918248 -0.0013633 10.0289 8.94685 10 1 
149 1.21015 10.0292 0.000482573 -0.00176488 10.0293 9.29772 10 1 
150 1.21038 10.0295 6.46771e-05 -0.0020326 10.0297 9.71233 10 1 
151 1.21064 10.0297 -0.000326609 -0.0021649 10.0299 10.1844 10 1 
152 1.21092 10.0297 -0.000682127 -0.00215645 10.0299 10.7014 10 1 
153 1.21123 10.0296 -0.000990476 -0.0020027 10.0297 11.258 10 1 
154 1.21156 10.0294 -0.00125216 -0.0017137 10.0295 11.844 10 1 
155 1.21189 10.029 -0.0014631 -0.00129187 10.0291 12.44 10 1 
156 1.21222 10.0284 -0.00161667 -0.00075416 10.0285 13.0366 10 1 
157 1.21254 10.0277 -0.00171206 -0.000126283 10.0279 13.6191 10 1 
158 1.21285 10.0269 -0.00174739 0.000580868 10.027 14.1804 10 1 
159 1.21314 10.026 -0.00172752 0.0013591 10.0261 14.7064 10 1 
160 1.2134 10.025 -0.00164475 0.00219811 10.025 15.174 10 1 
160 1.2134 10.025 -0.00164475 0.00219811 10.025 15.174 10 1 
161 1.21362 10.0239 -0.00149772 0.00308049 10.0239 15.578 10 1 
162 1.21381 10.0227 -0.00128214 0.00399999 10.0227 15.9146 10 1 
163 1.21395 10.0215 -0.000999289 0.00494867 10.0215 16.1654 10 1 
164 1.21404 10.0203 -0.000656521 0.00590423 10.0203 16.322 10 1 
165 1.21407 10.0189 -0.000255477 0.00684665 10.0189 16.388 10 1 
166 1.21405 10.0178 0.000185885 0.00774662 10.0178 16.3485 10 1 
167 1.21397 10.0168 0.000667724 0.00859282 10.0168 16.2089 10 1 
168 1.21385 10.0156 0.00118177 0.00937815 10.0157 15.9786 10 1 
169 1.21366 10.0148 0.00171731 0.0100816 10.015 15.6407 10 1 
170 1.21342 10.0141 0.00226955 0.0106988 10.0142 15.2148 10 1 
171 1.21314 10.0134 0.00282271 0.0112139 10.0136 14.7114 10 1 
172 1.21282 10.013 0.00336553 0.0116165 10.0133 14.1259 10 1 
173 1.21247 10.0125 0.00388551 0.011903 10.0127 13.4865 10 1 
174 1.21208 10.0123 0.00437231 0.012061 10.0125 12.797 10 1 
175 1.21168 10.0122 0.00481668 0.0120933 10.0125 12.0743 10 1 
176 1.21128 10.0123 0.00521319 0.012009 10.0126 11.3396 10 1 
176 1.21128 10.0123 0.00521319 0.012009 10.0126 11.3396 10 1 
177 1.21087 10.0127 0.00555196 0.0118169 10.0129 10.6015 10 1 
178 1.21047 10.013 0.00583223 0.0115345 10.0132 9.88457 10 1 
179 1.21009 10.0136 0.0060612 0.0111817 10.0138 9.20044 10 1 
180 1.20974 10.0144 0.00621873 0.0107504 10.0145 8.56993 10 1 
181 1.20943 10.0151 0.00629441 0.010242 10.0152 8.00529 10 1 
182 1.20916 10.0162 0.00629153 0.00967762 10.0162 7.51667 10 1 
183 1.20895 10.0171 0.00620875 0.00905462 10.0172 7.12778 10 1 
184 1.20879 10.018 0.00603595 0.00836727 10.018 6.84776 10 1 
185 1.20869 10.0192 0.00578046 0.00764171 10.0192 6.67314 10 1 
186 1.20867 10.0202 0.00546435 0.00690389 10.0202 6.6218 10 1 
187 1.20871 10.0209 0.00507519 0.00615482 10.0209 6.69826 10 1 
188 1.20881 10.0217 0.00462384 0.00542151 10.0218 6.88282 10 1 
189 1.20899 10.0222 0.00412707 0.0047197 10.0223 7.19973 10 1 
190 1.20923 10.0224 0.00358565 0.00405296 10.0226 7.63206 10 1 
191 1.20951 10.023 0.00300689 0.00342293 10.0232 8.15355 10 1 
192 1.20986 10.0231 0.00241556 0.00285517 10.0233 8.7852 10 1 
192 1.20986 10.0231 0.00241556 0.00285517 10.0233 8.7852 10 1 
193 1.21026 10.0228 0.00183429 0.00237762 10.023 9.49666 10 1 
194 1.21069 10.0225 0.00123902 0.00196659 10.0228 10.2689 10 1 
195 1.21114 10.0218 0.000674435 0.00165931 10.0221 11.0965 10 1 
196 1.21162 10.021 0.000163829 0.00146881 10.0213 11.9518 10 1 
197 1.21209 10.0202 -0.00032979 0.00135653 10.0205 12.8136 10 1 
198 1.21257 10.0189 -0.000761226 0.00134823 10.0192 13.6708 10 1 
199 1.21303 10.0172 -0.00111403 0.00143602 10.0175 14.5039 10 1 
200 1.21346 10.0156 -0.00142912 0.00158673 10.0158 15.2746 10 1 
201 1.21385 10.0135 -0.00165806 0.00183631 10.0137 15.9894 10 1 
202 1.2142 10.0114 -0.00178332 0.00219139 10.0115 16.6169 10 1 
203 1.21449 10.0094 -0.00184628 0.00260283 10.0095 17.1389 10 1 
204 1.21473 10.0067 -0.0017721 0.0031432 10.0067 17.5711 10 1 
205 1.21489 10.0042 -0.00159928 0.00377582 10.0042 17.8592 10 1 
206 1.21497 10.0021 -0.0013735 0.00442904 10.0021 18.0152 10 1 
207 1.21499 9.9995 -0.00101864 0.00517892 9.99951 18.0516 10 1 
208 1.21493 9.99727 -0.000595233 0.00596375 9.9973 17.9344 10 1 
208 1.21493 9.99727 -0.000595233 0.00596375 9.9973 17.9344 10 1 
209 1.21479 9.9951 -0.000112512 0.00675743 9.99517 17.692 10 1 
210 1.2146 9.99241 0.000457166 0.00759405 9.99252 17.3345 10 1 
211 1.21432 9.99024 0.00106102 0.00843378 9.99039 16.8394 10 1 
212 1.21399 9.98834 0.0016998 0.00924779 9.98855 16.2381 10 1 
213 1.21361 9.98629 0.00237829 0.0100309 9.98654 15.5536 10 1 
214 1.21319 9.98477 0.0030669 0.010786 9.98506 14.7925 10 1 
215 1.21273 9.98342 0.00375547 0.0114899 9.98374 13.9689 10 1 
216 1.21226 9.98186 0.00442166 0.0121169 9.98219 13.1071 10 1 
217 1.21177 9.9804 0.00504429 0.0126495 9.98072 12.2333 10 1 
218 1.21128 9.9791 0.00561784 0.0131021 9.97941 11.3448 10 1 
219 1.21082 9.97767 0.00613133 0.0134593 9.97795 10.5071 10 1 
220 1.21038 9.97696 0.00658069 0.0137079 9.97721 9.71907 10 1 
221 1.20997 9.97697 0.00695665 0.0138592 9.97717 8.98102 10 1 
222 1.20963 9.97629 0.00723748 0.0139066 9.97645 8.35493 10 1 
223 1.20932 9.97603 0.00740199 0.0138354 9.97614 7.79549 10 1 
224 1.20908 9.97551 0.00746712 0.0136597 9.97557 7.36983 10 1 
224 1.20908 9.97551 0.00746712 0.0136597 9.97557 7.36983 10 1 
225 1.20893 9.97394 0.00743278 0.01337 9.97397 7.09562 10 1 
226 1.20882 9.97374 0.00728631 0.0129482 9.97376 6.90564 10 1 
227 1.20882 9.97337 0.00702638 0.0124207 9.97338 6.89104 10 1 
228 1.20889 9.97225 0.00666128 0.0117954 9.97228 7.02843 10 1 
229 1.20903 9.97188 0.00623237 0.0111006 9.97193 7.28003 10 1 
230 1.20925 9.97027 0.00575078 0.0103784 9.97035 7.67508 10 1 
231 1.20954 9.96809 0.00517076 0.00958524 9.96822 8.2041 10 1 
232 1.20988 9.96655 0.00450896 0.00873916 9.96673 8.82192 10 1 
233 1.21026 9.96482 0.00382256 0.00788032 9.96503 9.5071 10 1 
234 1.21073 9.96233 0.00312899 0.00700725 9.96257 10.3576 10 1 
235 1.21121 9.9602 0.00242176 0.00616177 9.96048 11.2224 10 1 
236 1.2117 9.95723 0.00169802 0.00536651 9.95753 12.0976 10 1 
237 1.21223 9.9528 0.000969796 0.00460069 9.95309 13.057 10 1 
238 1.21271 9.95031 0.000296494 0.00389262 9.95059 13.9246 10 1 
239 1.21322 9.9456 -0.000286358 0.00331985 9.94586 14.8527 10 1 
240 1.21369 9.9412 -0.000817101 0.00285339 9.94143 15.7005 10 1 
240 1.21369 9.9412 -0.000817101 0.00285339 9.94143 15.7005 10 1 
241 1.21411 9.9376 -0.00127723 0.00246633 9.93779 16.4619 10 1 
242 1.21453 9.93073 -0.00166216 0.00219059 9.93088 17.2171 10 1 
243 1.21482 9.92651 -0.0019676 0.00201196 9.92661 17.7382 10 1 
244 1.21512 9.92019 -0.00215198 0.00198265 9.92026 18.28 10 1 
245 1.21533 9.9142 -0.00222489 0.00208787 9.91423 18.6666 10 1 
246 1.21547 9.9082 -0.00219904 0.0023041 9.90821 18.9107 10 1 
247 1.21554 9.90187 -0.00208237 0.00263874 9.90187 19.0289 10 1 
248 1.21551 9.89551 -0.00187066 0.00308055 9.89552 18.9882 10 1 
249 1.21548 9.8871 -0.0016152 0.00358729 9.88712 18.9229 10 1 
250 1.21529 9.88197 -0.00125291 0.00420535 9.88201 18.5867 10 1 
251 1.21513 9.87307 -0.000761376 0.00495427 9.87314 18.3022 10 1 
252 1.21489 9.86646 -0.000317764 0.00565146 9.86656 17.8669 10 1 
253 1.21456 9.8591 0.00020852 0.00641709 9.85924 17.2683 10 1 
254 1.21426 9.8501 0.000802525 0.00725966 9.85026 16.7268 10 1 
255 1.21392 9.84286 0.00136237 0.00804803 9.84304 16.1111 10 1 
256 1.21358 9.83313 0.00200653 0.00889477 9.83332 15.4963 10 1 
256 1.21358 9.83313 0.00200653 0.00889477 9.83332 15.4963 11 1 
257 1.21319 9.82529 0.00255166 0.00964437 9.82548 14.7872 11 1 
258 1.21285 9.817 0.00302285 0.010278 9.81718 14.1742 11 1 
259 1.21256 9.80648 0.003547 0.0109279 9.80664 13.6541 11 1 
260 1.21223 9.79606 0.00395689 0.011439 9.7962 13.0523 11 1 
261 1.21198 9.78744 0.00425632 0.0117867 9.78755 12.6038 11 1 
262 1.21184 9.77593 0.00450464 0.0120712 9.77602 12.3514 11 1 
263 1.21167 9.76365 0.0046793 0.0122416 9.7637 12.0416 11 1 
264 1.21152 9.7544 0.00477905 0.0123304 9.75443 11.7711 11 1 
265 1.21158 9.73995 0.00479936 0.0122908 9.73997 11.8762 11 1 
266 1.21169 9.72318 0.00471594 0.0120964 9.72319 12.0824 11 1 
267 1.21167 9.71376 0.00454497 0.0118305 9.71378 12.0415 11 1 
268 1.2119 9.69874 0.00433266 0.0114978 9.69876 12.4551 11 1 
269 1.2123 9.6759 0.00409049 0.0110896 9.67594 13.1887 11 1 
270 1.21241 9.66377 0.00374189 0.0105734 9.66383 13.3794 11 1 
271 1.21278 9.64715 0.00332193 0.00999467 9.64724 14.059 11 1 
272 1.21349 9.61574 0.00288578 0.00937201 9.61585 15.3267 11 1 
272 1.21349 9.61574 0.00288578 0.00937201 9.61585 15.3267 11 1 
273 1.21365 9.60317 0.00243259 0.00872248 9.6033 15.6168 11 1 
274 1.21406 9.58134 0.00197429 0.00808927 9.58148 16.3696 11 1 
275 1.21491 9.54349 0.00146772 0.00739649 9.54363 17.9029 11 1 
276 1.21517 9.52846 0.000942714 0.00671555 9.52861 18.3742 11 1 
277 1.21562 9.49733 0.000512291 0.00614132 9.49747 19.1881 11 1 
278 1.21635 9.46117 7.66215e-05 0.00562397 9.46129 20.502 11 1 
279 1.21675 9.43534 -0.000299724 0.00514185 9.43546 21.2201 11 1 
280 1.21713 9.3974 -0.000588723 0.0047818 9.39751 21.901 11 1 
281 1.21765 9.35791 -0.000840939 0.00448242 9.35802 22.8475 11 1 
282 1.21815 9.31133 -0.00103867 0.00429269 9.31146 23.7591 11 1 
283 1.2184 9.25754 -0.00111344 0.0042409 9.25764 24.2112 11 1 
284 1.21862 9.20708 -0.00113754 0.0042435 9.20713 24.6082 11 1 
285 1.21902 9.16372 -0.00113557 0.00433127 9.16373 25.3227 11 1 
286 1.21947 9.12248 -0.00105344 0.00448174 9.12248 26.1441 11 1 
287 1.21981 9.0678 -0.000969751 0.00466287 9.06782 26.7564 11 1 
288 1.2199 8.99191 -0.000785335 0.00490394 8.99194 26.9061 11 1 
288 1.2199 8.99191 -0.000785335 0.00490394 8.99194 26.9061 11 1 
289 1.21994 8.91681 -0.000584861 0.00522914 8.91683 26.9801 11 1 
290 1.22033 8.85123 -0.000368192 0.00556965 8.85126 27.6869 11 1 
291 1.22077 8.7826 -9.9526e-05 0.00591612 8.78264 28.4891 11 1 
292 1.22086 8.70987 0.000125342 0.00628798 8.70992 28.6476 11 1 
293 1.22102 8.62277 0.000342286 0.00663181 8.62281 28.9389 11 1 
294 1.22138 8.53597 0.000560761 0.0069062 8.53611 29.5934 11 1 
295 1.22174 8.45661 0.000740118 0.00712937 8.45682 30.2449 11 1 
296 1.2221 8.37738 0.000866028 0.00734382 8.37797 30.8857 11 1 
297 1.22229 8.30369 0.00101112 0.00755284 8.3042 31.2261 11 1 
298 1.22216 8.28002 0.00094977 0.00759609 8.28348 30.9962 11 1 
299 1.21449 8.25663 0.000367343 0.00765446 8.78899 17.1497 11 1 
300 1.20173 8.34901 -0.000859231 0.00773486 9.00676 -5.90882 11 1 
301 1.19734 8.37736 -0.00223464 0.00768615 8.65876 -13.8431 11 1 
302 1.19881 8.17292 -0.00339608 0.00756259 8.3823 -11.1857 11 1 
303 1.20021 7.98063 -0.00436383 0.00738418 8.12659 -8.64791 11 1 
304 1.2014 7.81111 -0.00521317 0.00729966 7.92479 -6.49695 11 1 
304 1.2014 7.81111 -0.00521317 0.00729966 7.92479 -6.49695 11 1 
305 1.20221 7.66749 -0.00592913 0.00722636 7.7352 -5.04724 11 1 
306 1.20291 7.53962 -0.00661212 0.00710487 7.60593 -3.77134 11 1 
307 1.20361 7.42565 -0.0072285 0.007029 7.48481 -2.50287 11 1 
308 1.2043 7.33263 -0.00782375 0.00693949 7.38701 -1.27263 11 1 
309 1.20481 7.24341 -0.00844426 0.00682028 7.28503 -0.345738 11 1 
310 1.2053 7.15743 -0.00895497 0.00675074 7.19676 0.545286 11 1 
311 1.20584 7.08341 -0.00945792 0.0066513 7.12105 1.50888 11 1 
312 1.20628 7.01528 -0.00998393 0.00657153 7.0505 2.30423 11 1 
313 1.20663 6.94865 -0.0104779 0.00651846 6.97969 2.94306 11 1 
314 1.20701 6.88802 -0.0109709 0.00643275 6.91781 3.6335 11 1 
315 1.20737 6.82999 -0.0114538 0.00636677 6.85749 4.28034 11 1 
316 1.20769 6.77691 -0.011918 0.00627127 6.80365 4.85976 11 1 
317 1.208 6.73213 -0.0123964 0.00613308 6.75691 5.42209 11 1 
318 1.20829 6.68766 -0.0128704 0.00600292 6.71146 5.93862 11 1 
319 1.20856 6.64397 -0.0133409 0.00585606 6.66671 6.42222 11 1 
320 1.20882 6.60655 -0.0138061 0.00569326 6.62824 6.90437 11 1 
320 1.20882 6.60655 -0.0138061 0.00569326 6.62824 6.90437 15 1 
321 1.20906 6.57225 -0.0142787 0.00553228 6.59277 7.32493 15 1 
322 1.20927 6.54176 -0.0147396 0.00537198 6.56189 7.71016 15 1 
323 1.2095 6.51298 -0.0151902 0.00520928 6.53215 8.11973 15 1 
324 1.20969 6.48144 -0.0156342 0.00503615 6.50006 8.47208 15 1 
325 1.20981 6.45373 -0.0160723 0.00486412 6.47159 8.6803 15 1 
326 1.20995 6.43125 -0.0164746 0.00471952 6.44861 8.94985 15 1 
327 1.21015 6.40719 -0.0168692 0.00457129 6.42406 9.29845 15 1 
328 1.21024 6.38334 -0.0172552 0.0044124 6.39981 9.46298 15 1 
329 1.21028 6.36035 -0.0176037 0.00428251 6.37628 9.544 15 1 
330 1.21038 6.33788 -0.0179258 0.00415564 6.3534 9.71517 15 1 
331 1.21048 6.31972 -0.0182437 0.00403152 6.33469 9.90267 15 1 
332 1.21054 6.30014 -0.0185322 0.00391274 6.31483 10.0071 15 1 
333 1.21053 6.27828 -0.0188047 0.00381393 6.29257 9.98259 15 1 
334 1.21057 6.26314 -0.019034 0.00372421 6.27705 10.0555 15 1 
335 1.21067 6.24796 -0.0192448 0.00362329 6.26141 10.2381 15 1 
336 1.21066 6.22802 -0.0194586 0.00351334 6.24109 10.2198 15 1 
336 1.21066 6.22802 -0.0194586 0.00351334 6.24109 10.2198 15 1 
337 1.21063 6.21202 -0.0196374 0.00342511 6.22477 10.1617 15 1 
338 1.21068 6.19978 -0.0197771 0.00333472 6.21231 10.267 15 1 
339 1.21074 6.18825 -0.0199211 0.00322063 6.20036 10.3727 15 1 
340 1.21076 6.17425 -0.0200586 0.00308525 6.18601 10.3987 15 1 
341 1.21074 6.15677 -0.020178 0.00296382 6.16825 10.3627 15 1 
342 1.21077 6.14565 -0.020277 0.00284528 6.15693 10.4262 15 1 
343 1.21087 6.13976 -0.0203809 0.00269211 6.15078 10.6117 15 1 
344 1.21092 6.12915 -0.020496 0.0024994 6.13988 10.6916 15 1 
345 1.21093 6.11444 -0.0205923 0.00231628 6.12487 10.7187 15 1 
346 1.21099 6.10077 -0.0206797 0.002144 6.11104 10.8229 15 1 
347 1.21109 6.09424 -0.0207931 0.00192845 6.10432 11.0007 15 1 
348 1.21121 6.09008 -0.0209116 0.00166954 6.09995 11.2086 15 1 
349 1.21127 6.07747 -0.0210317 0.0014269 6.08709 11.3272 15 1 
350 1.21134 6.06361 -0.0211309 0.00120364 6.07304 11.4537 15 1 
351 1.21146 6.05555 -0.0212467 0.000952417 6.06482 11.6766 15 1 
352 1.21158 6.0493 -0.0214096 0.000654476 6.05842 11.8869 15 1 
352 1.21158 6.0493 -0.0214096 0.000654476 6.05842 11.8869 15 1 
353 1.2117 6.04274 -0.021566 0.000362514 6.05164 12.1064 15 1 
354 1.21181 6.0324 -0.0216986 0.00011147 6.04111 12.308 15 1 
355 1.2119 6.02069 -0.0218623 -0.000145718 6.02923 12.4712 15 1 
356 1.21203 6.01336 -0.0220621 -0.000446685 6.02174 12.6962 15 1 
357 1.21216 6.00762 -0.0222711 -0.000739263 6.01585 12.9275 15 1 
358 1.21226 6.0013 -0.022461 -0.000989538 6.00935 13.12 15 1 
359 1.21236 5.99266 -0.0226653 -0.00122855 6.00051 13.297 15 1 
360 1.21245 5.98218 -0.0229077 -0.00148705 5.98989 13.4512 15 1 
361 1.21254 5.97569 -0.0231623 -0.00173673 5.98327 13.6146 15 1 
362 1.21262 5.97172 -0.0234015 -0.00195946 5.97914 13.7718 15 1 
363 1.2127 5.96584 -0.0236446 -0.00215361 5.97308 13.9045 15 1 
364 1.21275 5.95785 -0.0239005 -0.00233186 5.96495 14.0042 15 1 
365 1.21279 5.94953 -0.0241771 -0.00250131 5.95653 14.0631 15 1 
366 1.21283 5.94469 -0.0244413 -0.00266013 5.95154 14.1368 15 1 
367 1.21286 5.94149 -0.0246804 -0.00278959 5.94818 14.2019 15 1 
368 1.21288 5.936 -0.0249231 -0.00289166 5.94259 14.2275 15 1 
368 1.21288 5.936 -0.0249231 -0.00289166 5.94259 14.2275 15 1 
369 1.21288 5.9294 -0.0251734 -0.00299788 5.93588 14.231 15 1 
370 1.21286 5.92312 -0.025424 -0.00310462 5.92948 14.1966 15 1 
371 1.21285 5.91932 -0.0256527 -0.00317972 5.92556 14.1806 15 1 
372 1.21285 5.91666 -0.0258571 -0.00323708 5.92279 14.1742 15 1 
373 1.21281 5.91143 -0.0260711 -0.0032999 5.91749 14.1035 15 1 
374 1.21277 5.90627 -0.0262837 -0.00336931 5.91223 14.0361 15 1 
375 1.21274 5.90207 -0.0264724 -0.00342769 5.90791 13.9878 15 1 
376 1.21271 5.89796 -0.026636 -0.00347325 5.90373 13.918 15 1 
377 1.21267 5.89548 -0.0267831 -0.00352006 5.90116 13.861 15 1 
378 1.21264 5.89194 -0.0269189 -0.00359105 5.89755 13.806 15 1 
379 1.21261 5.88685 -0.0270551 -0.0036791 5.89237 13.7455 15 1 
380 1.21259 5.88334 -0.0271561 -0.00375714 5.88878 13.7026 15 1 
381 1.21257 5.88049 -0.0272289 -0.00384044 5.88587 13.6768 15 1 
382 1.21256 5.87736 -0.0273004 -0.00395538 5.88268 13.6625 15 1 
383 1.21256 5.87417 -0.0273722 -0.00409826 5.87941 13.6562 15 1 
384 1.21257 5.87051 -0.0274171 -0.00424989 5.8757 13.6731 15 1 
384 1.21257 5.87051 -0.0274171 -0.00424989 5.8757 13.6731 16 1 
385 1.21259 5.86678 -0.0274419 -0.00440137 5.87191 13.7049 16 1 
386 1.21261 5.86364 -0.0274555 -0.00457452 5.86871 13.7451 16 1 
387 1.21265 5.86144 -0.027459 -0.00477875 5.86646 13.8254 16 1 
388 1.2127 5.85838 -0.0274578 -0.00500483 5.86336 13.912 16 1 
389 1.21275 5.85405 -0.0274437 -0.00524532 5.85898 13.993 16 1 
390 1.21282 5.85112 -0.027413 -0.00549406 5.856 14.1163 16 1 
391 1.21289 5.84848 -0.0273819 -0.00575739 5.85332 14.2455 16 1 
392 1.21296 5.84512 -0.0273595 -0.00604476 5.84993 14.3702 16 1 
393 1.21304 5.8425 -0.0273266 -0.00634129 5.84726 14.5262 16 1 
394 1.21312 5.83893 -0.0273003 -0.00663835 5.84365 14.6717 16 1 
395 1.2132 5.8349 -0.0272915 -0.0069344 5.83958 14.8077 16 1 
396 1.21329 5.83271 -0.0272764 -0.00722646 5.83735 14.9734 16 1 
397 1.21338 5.83 -0.027271 -0.00752759 5.8346 15.1286 16 1 
398 1.21345 5.826 -0.0272929 -0.00783679 5.83057 15.2554 16 1 
399 1.21352 5.82282 -0.0273178 -0.00813134 5.82734 15.3915 16 1 
400 1.2136 5.81992 -0.0273425 -0.00841414 5.82439 15.5261 16 1 
400 1.2136 5.81992 -0.0273425 -0.00841414 5.82439 15.5261 16 1 
401 1.21365 5.81663 -0.0273892 -0.00869345 5.82106 15.6308 16 1 
402 1.21371 5.81373 -0.0274402 -0.00895838 5.81812 15.7256 16 1 
403 1.21375 5.8108 -0.0274864 -0.00919885 5.81515 15.8127 16 1 
404 1.21379 5.80728 -0.0275381 -0.00942774 5.81159 15.871 16 1 
405 1.21381 5.80425 -0.0275914 -0.00965433 5.80851 15.9171 16 1 
406 1.21383 5.8018 -0.0276412 -0.00987017 5.80601 15.9505 16 1 
407 1.21383 5.79866 -0.0276918 -0.010074 5.80283 15.9518 16 1 
408 1.21383 5.79563 -0.0277524 -0.0102811 5.79976 15.9433 16 1 
409 1.21382 5.79323 -0.0278329 -0.010488 5.79731 15.9266 16 1 
410 1.21379 5.79011 -0.0279217 -0.0106749 5.79414 15.878 16 1 
411 1.21376 5.78718 -0.0280066 -0.0108399 5.79117 15.8206 16 1 
412 1.21373 5.78523 -0.0281067 -0.0110031 5.78918 15.766 16 1 
413 1.21369 5.78253 -0.028226 -0.0111762 5.78644 15.6873 16 1 
414 1.21364 5.77947 -0.0283433 -0.0113412 5.78334 15.5991 16 1 
415 1.21359 5.77727 -0.0284546 -0.0114926 5.78108 15.5218 16 1 
416 1.21355 5.77492 -0.0285665 -0.0116514 5.7787 15.4347 16 1 
416 1.21355 5.77492 -0.0285665 -0.0116514 5.7787 15.4347 16 1 
417 1.2135 5.77243 -0.0286834 -0.0118263 5.77617 15.3451 16 1 
418 1.21345 5.77044 -0.0288009 -0.012005 5.77413 15.272 16 1 
419 1.21341 5.76803 -0.028904 -0.0121819 5.77168 15.1969 16 1 
420 1.21337 5.76538 -0.0289933 -0.0123734 5.769 15.1266 16 1 
421 1.21335 5.76364 -0.0290799 -0.0125853 5.76721 15.0826 16 1 
422 1.21333 5.76188 -0.0291548 -0.0128076 5.76541 15.0466 16 1 
423 1.21331 5.75942 -0.0292122 -0.0130412 5.76292 15.0168 16 1 
424 1.21331 5.7574 -0.0292511 -0.0132924 5.76086 15.0116 16 1 
425 1.21332 5.75561 -0.0292758 -0.013556 5.75904 15.0228 16 1 
426 1.21333 5.75348 -0.0292884 -0.0138319 5.75687 15.047 16 1 
427 1.21336 5.7518 -0.0292814 -0.0141191 5.75517 15.0937 16 1 
428 1.21339 5.75019 -0.0292549 -0.0144128 5.75352 15.1547 16 1 
429 1.21343 5.74791 -0.0292261 -0.0147136 5.75122 15.2255 16 1 
430 1.21348 5.74602 -0.0291887 -0.0150245 5.7493 15.3158 16 1 
431 1.21354 5.74463 -0.0291326 -0.015335 5.74789 15.421 16 1 
432 1.2136 5.74278 -0.0290656 -0.015636 5.74602 15.5297 16 1 
432 1.2136 5.74278 -0.0290656 -0.015636 5.74602 15.5297 16 1 
433 1.21366 5.74082 -0.0290044 -0.0159381 5.74404 15.6477 16 1 
434 1.21373 5.73918 -0.0289457 -0.01624 5.74237 15.7749 16 1 
435 1.2138 5.73733 -0.0288764 -0.0165203 5.74049 15.9003 16 1 
436 1.21387 5.73549 -0.0288104 -0.0167854 5.73863 16.0272 16 1 
437 1.21394 5.734 -0.0287604 -0.017045 5.73713 16.156 16 1 
438 1.21401 5.7322 -0.0287162 -0.0172842 5.73531 16.2737 16 1 
439 1.21407 5.73012 -0.0286793 -0.017502 5.73321 16.3821 16 1 
440 1.21413 5.72851 -0.0286576 -0.0177053 5.73157 16.4868 16 1 
441 1.21418 5.72692 -0.0286484 -0.0178899 5.72996 16.5774 16 1 
442 1.21422 5.72501 -0.0286563 -0.018057 5.72803 16.6516 16 1 
443 1.21425 5.72333 -0.028683 -0.018206 5.72633 16.7124 16 1 
444 1.21428 5.7216 -0.0287174 -0.0183356 5.72459 16.7557 16 1 
445 1.21429 5.71964 -0.028762 -0.0184555 5.7226 16.7814 16 1 
446 1.2143 5.71802 -0.028815 -0.018564 5.72096 16.7918 16 1 
447 1.21429 5.71648 -0.0288729 -0.0186616 5.71941 16.7856 16 1 
448 1.21428 5.71459 -0.0289363 -0.0187609 5.7175 16.7603 16 1 
448 1.21428 5.71459 -0.0289363 -0.0187609 5.7175 16.7603 17 1 
449 1.21426 5.71278 -0.029001 -0.018861 5.71567 16.7184 17 1 
450 1.21423 5.71116 -0.0290609 -0.0189551 5.71403 16.665 17 1 
451 1.21419 5.70946 -0.02912 -0.0190578 5.71232 16.5992 17 1 
452 1.21415 5.7078 -0.0291852 -0.0191785 5.71064 16.5219 17 1 
453 1.2141 5.7062 -0.0292482 -0.0192959 5.70902 16.4365 17 1 
454 1.21405 5.70448 -0.0293066 -0.0194169 5.70729 16.3444 17 1 
455 1.214 5.7028 -0.0293752 -0.0195667 5.70559 16.2504 17 1 
456 1.21394 5.70134 -0.0294477 -0.019727 5.70412 16.1567 17 1 
457 1.21389 5.69987 -0.0295209 -0.01989 5.70263 16.0631 17 1 
458 1.21384 5.69828 -0.0296136 -0.0200811 5.70103 15.9745 17 1 
459 1.2138 5.69684 -0.0297216 -0.0202916 5.69956 15.8941 17 1 
460 1.21376 5.69544 -0.0298366 -0.0205091 5.69815 15.8215 17 1 
461 1.21373 5.69393 -0.0299723 -0.0207563 5.69663 15.7604 17 1 
462 1.2137 5.6926 -0.0301271 -0.0210288 5.69528 15.7145 17 1 
463 1.21368 5.69132 -0.0302952 -0.0213083 5.694 15.6827 17 1 
464 1.21367 5.68983 -0.0304774 -0.0216039 5.6925 15.6645 17 1 
464 1.21367 5.68983 -0.0304774 -0.0216039 5.6925 15.6645 17 1 
465 1.21367 5.68842 -0.0306692 -0.0219133 5.69108 15.6636 17 1 
466 1.21368 5.68724 -0.0308632 -0.0222274 5.68988 15.6808 17 1 
467 1.2137 5.68598 -0.0310565 -0.0225474 5.68861 15.7129 17 1 
468 1.21373 5.68468 -0.0312417 -0.0228719 5.68731 15.7602 17 1 
469 1.21376 5.68348 -0.0314105 -0.0231984 5.6861 15.8234 17 1 
470 1.2138 5.68224 -0.031569 -0.023527 5.68485 15.8996 17 1 
471 1.21385 5.68105 -0.0317137 -0.0238569 5.68365 15.9893 17 1 
472 1.21391 5.67998 -0.0318332 -0.0241859 5.68257 16.0891 17 1 
473 1.21397 5.67885 -0.0319403 -0.024519 5.68143 16.1945 17 1 
474 1.21403 5.67761 -0.0320395 -0.0248489 5.6802 16.3061 17 1 
475 1.21409 5.67647 -0.0321153 -0.025166 5.67904 16.421 17 1 
476 1.21415 5.67538 -0.0321728 -0.0254801 5.67794 16.5357 17 1 
477 1.21422 5.67425 -0.0322291 -0.0257859 5.67681 16.6495 17 1 
478 1.21428 5.67315 -0.0322745 -0.0260692 5.6757 16.7591 17 1 
479 1.21433 5.67204 -0.0323005 -0.0263356 5.67457 16.8603 17 1 
480 1.21438 5.67084 -0.0323199 -0.0265858 5.67337 16.9515 17 1 
480 1.21438 5.67084 -0.0323199 -0.0265858 5.67337 16.9515 17 1 
481 1.21443 5.66974 -0.0323372 -0.0268126 5.67225 17.0325 17 1 
482 1.21447 5.66876 -0.0323442 -0.0270153 5.67126 17.1012 17 1 
483 1.2145 5.66767 -0.0323397 -0.0271956 5.67016 17.1546 17 1 
484 1.21452 5.6665 -0.032339 -0.0273545 5.66898 17.1915 17 1 
485 1.21453 5.66547 -0.0323396 -0.0274921 5.66793 17.2131 17 1 
486 1.21453 5.66446 -0.0323259 -0.0276055 5.66691 17.2188 17 1 
487 1.21453 5.66344 -0.0323081 -0.0277069 5.66588 17.2075 17 1 
488 1.21451 5.6625 -0.032299 -0.0278023 5.66492 17.1801 17 1 
489 1.21449 5.66154 -0.0322903 -0.0278762 5.66395 17.1376 17 1 
490 1.21446 5.66054 -0.0322729 -0.0279359 5.66294 17.0813 17 1 
491 1.21442 5.6597 -0.0322647 -0.0280011 5.66208 17.0129 17 1 
492 1.21438 5.65894 -0.0322694 -0.0280656 5.66132 16.9344 17 1 
493 1.21433 5.65814 -0.0322733 -0.0281183 5.6605 16.8474 17 1 
494 1.21428 5.65737 -0.0322834 -0.0281734 5.65972 16.7538 17 1 
495 1.21422 5.6567 -0.0323078 -0.0282394 5.65903 16.6577 17 1 
496 1.21417 5.65606 -0.0323459 -0.0283082 5.65838 16.5612 17 1 
496 1.21417 5.65606 -0.0323459 -0.0283082 5.65838 16.5612 17 1 
497 1.21412 5.65551 -0.0323907 -0.0283892 5.65782 16.4661 17 1 
498 1.21407 5.65506 -0.0324437 -0.0284881 5.65735 16.3751 17 1 
499 1.21402 5.65458 -0.0325154 -0.0286047 5.65686 16.2905 17 1 
500 1.21398 5.65411 -0.0326026 -0.0287417 5.65638 16.2139 17 1 
501 1.21394 5.65382 -0.0326954 -0.028899 5.65607 16.1487 17 1 
502 1.21391 5.65363 -0.0327967 -0.0290855 5.65587 16.097 17 1 
503 1.21389 5.6534 -0.0329166 -0.0293069 5.65562 16.0579 17 1 
504 1.21388 5.65321 -0.0330442 -0.0295493 5.65543 16.0336 17 1 
505 1.21387 5.65311 -0.0331798 -0.0298134 5.65532 16.0254 17 1 
506 1.21388 5.65306 -0.0333259 -0.0301138 5.65526 16.0326 17 1 
507 1.21389 5.65311 -0.0334728 -0.0304302 5.6553 16.0569 17 1 
508 1.21391 5.65327 -0.0336191 -0.0307502 5.65545 16.0968 17 1 
509 1.21394 5.65338 -0.0337735 -0.0310972 5.65555 16.1503 17 1 
510 1.21398 5.65354 -0.0339203 -0.031471 5.65571 16.2178 17 1 
511 1.21402 5.65385 -0.0340533 -0.0318487 5.65602 16.2984 17 1 
512 1.21407 5.6542 -0.0341936 -0.0322428 5.65636 16.3891 17 1 
512 1.21407 5.6542 -0.0341936 -0.0322428 5.65636 16.3891 25 1 
513 1.21413 5.65456 -0.0343309 -0.0326606 5.65671 16.4871 25 1 
514 1.21419 5.65501 -0.0344482 -0.0330856 5.65715 16.5913 25 1 
515 1.21425 5.65551 -0.0345558 -0.0335098 5.65765 16.6991 25 1 
516 1.21431 5.65607 -0.0346597 -0.0339418 5.6582 16.8083 25 1 
517 1.21437 5.65673 -0.0347544 -0.0343835 5.65886 16.9173 25 1 
518 1.21442 5.65744 -0.0348378 -0.0348231 5.65955 17.022 25 1 
519 1.21448 5.6581 -0.0349038 -0.0352635 5.66022 17.1204 25 1 
520 1.21453 5.65884 -0.0349524 -0.0357011 5.66094 17.2113 25 1 
521 1.21457 5.65967 -0.0349892 -0.0361224 5.66177 17.2918 25 1 
522 1.21461 5.6605 -0.0349946 -0.0365131 5.66258 17.36 25 1 
523 1.21464 5.66135 -0.0349577 -0.0368728 5.66343 17.4147 25 1 
524 1.21466 5.66226 -0.0348977 -0.037204 5.66433 17.4553 25 1 
525 1.21468 5.66312 -0.0348096 -0.0374963 5.66517 17.4799 25 1 
526 1.21468 5.66395 -0.0346835 -0.0377589 5.66599 17.4882 25 1 
527 1.21468 5.66486 -0.0345311 -0.0380091 5.66689 17.481 25 1 
528 1.21467 5.66581 -0.0343692 -0.0382261 5.66783 17.4582 25 1 
528 1.21467 5.66581 -0.0343692 -0.0382261 5.66783 17.4582 25 1 
529 1.21464 5.66677 -0.0342259 -0.0383934 5.66877 17.4203 25 1 
530 1.21462 5.66773 -0.0341242 -0.038525 5.66973 17.3682 25 1 
531 1.21458 5.66871 -0.0340535 -0.0386352 5.67069 17.3037 25 1 
532 1.21454 5.66966 -0.0339888 -0.0387315 5.67162 17.2286 25 1 
533 1.21449 5.67052 -0.0339213 -0.038835 5.67248 17.1446 25 1 
534 1.21444 5.67124 -0.033852 -0.038944 5.67318 17.0541 25 1 
535 1.21439 5.6718 -0.0337869 -0.0390364 5.67373 16.9581 25 1 
536 1.21433 5.67235 -0.0337346 -0.0391247 5.67427 16.8601 25 1 
537 1.21428 5.67304 -0.0336995 -0.0392212 5.67495 16.7635 25 1 
538 1.21423 5.67379 -0.033706 -0.0393293 5.67568 16.6694 25 1 
539 1.21418 5.67446 -0.0337676 -0.0394594 5.67634 16.5798 25 1 
540 1.21413 5.67505 -0.0338498 -0.0396065 5.67692 16.497 25 1 
541 1.21409 5.67547 -0.0339099 -0.0397619 5.67732 16.4245 25 1 
542 1.21406 5.67562 -0.0339224 -0.0399021 5.67746 16.3625 25 1 
543 1.21403 5.67551 -0.0338699 -0.0399634 5.67734 16.3126 25 1 
544 1.21401 5.67514 -0.0337441 -0.0398788 5.67696 16.278 25 1 
544 1.21401 5.67514 -0.0337441 -0.0398788 5.67696 16.278 25 1 
545 1.214 5.67458 -0.0335715 -0.0396545 5.67639 16.2565 25 1 
546 1.214 5.67398 -0.0333796 -0.0393854 5.67578 16.2499 25 1 
547 1.214 5.67339 -0.0331633 -0.0392249 5.67518 16.2604 25 1 
548 1.21402 5.67271 -0.0329388 -0.039332 5.6745 16.2847 25 1 
549 1.21404 5.67188 -0.032766 -0.0397412 5.67365 16.3233 25 1 
550 1.21407 5.67084 -0.0327308 -0.0403483 5.67262 16.3758 25 1 
551 1.2141 5.66954 -0.0328963 -0.0410087 5.67131 16.4404 25 1 
552 1.21414 5.66794 -0.0332623 -0.0415749 5.66972 16.5152 25 1 
553 1.21419 5.66613 -0.0337872 -0.0419544 5.6679 16.5989 25 1 
554 1.21424 5.66406 -0.0343883 -0.0421699 5.66585 16.6886 25 1 
555 1.21429 5.66178 -0.0349695 -0.0422987 5.66357 16.7817 25 1 
556 1.21434 5.65937 -0.0354707 -0.0424151 5.66116 16.8786 25 1 
557 1.2144 5.65681 -0.0358724 -0.0425863 5.6586 16.9748 25 1 
558 1.21445 5.65405 -0.036158 -0.0428453 5.65585 17.068 25 1 
559 1.2145 5.65114 -0.0363362 -0.0431774 5.65294 17.1576 25 1 
560 1.21454 5.64809 -0.0364544 -0.0435673 5.64989 17.2397 25 1 
560 1.21454 5.64809 -0.0364544 -0.0435673 5.64989 17.2397 25 1 
561 1.21458 5.64488 -0.0365221 -0.0440005 5.64668 17.3126 25 1 
562 1.21462 5.64158 -0.0365256 -0.0444519 5.64338 17.3756 25 1 
563 1.21465 5.63821 -0.0364899 -0.044921 5.64002 17.4271 25 1 
564 1.21467 5.63474 -0.036446 -0.0454029 5.63655 17.4648 25 1 
565 1.21468 5.63123 -0.0363818 -0.0458839 5.63305 17.489 25 1 
566 1.21469 5.62774 -0.0362876 -0.0463733 5.62956 17.4996 25 1 
567 1.21469 5.62427 -0.0361862 -0.0468658 5.62609 17.495 25 1 
568 1.21468 5.62085 -0.0360887 -0.047346 5.62268 17.4766 25 1 
569 1.21466 5.61751 -0.0359831 -0.0478245 5.61935 17.4444 25 1 
570 1.21463 5.61426 -0.035863 -0.0483045 5.61611 17.399 25 1 
571 1.2146 5.61115 -0.0357429 -0.0487715 5.613 17.3427 25 1 
572 1.21456 5.60823 -0.0356298 -0.0492253 5.61009 17.2759 25 1 
573 1.21452 5.60551 -0.0355084 -0.0496734 5.60737 17.201 25 1 
574 1.21448 5.60299 -0.0353822 -0.0501083 5.60486 17.1197 25 1 
575 1.21443 5.60072 -0.0352685 -0.0505352 5.60259 17.0334 25 1 
576 1.21438 5.59871 -0.0351506 -0.0509575 5.60059 16.9446 25 1 
576 1.21438 5.59871 -0.0351506 -0.0509575 5.60059 16.9446 26 1 
577 1.21433 5.59701 -0.0350195 -0.0513619 5.59888 16.8561 26 1 
578 1.21428 5.59562 -0.0349023 -0.0517671 5.5975 16.7696 26 1 
579 1.21424 5.59455 -0.0348038 -0.0521694 5.59643 16.6859 26 1 
580 1.2142 5.5938 -0.0346981 -0.0525546 5.59568 16.6092 26 1 
581 1.21416 5.59339 -0.0345902 -0.0529509 5.59527 16.541 26 1 
582 1.21412 5.59333 -0.0345035 -0.053356 5.59521 16.4809 26 1 
583 1.2141 5.5936 -0.0344375 -0.0537475 5.59549 16.4325 26 1 
584 1.21408 5.59422 -0.0343771 -0.0541425 5.5961 16.3971 26 1 
585 1.21407 5.59517 -0.0343269 -0.0545599 5.59705 16.374 26 1 
586 1.21406 5.59643 -0.0342989 -0.0549788 5.59831 16.3645 26 1 
587 1.21406 5.59801 -0.0342872 -0.0553893 5.59989 16.37 26 1 
588 1.21407 5.59989 -0.0342953 -0.0558131 5.60177 16.3899 26 1 
589 1.21409 5.60207 -0.0343228 -0.0562517 5.60395 16.4231 26 1 
590 1.21412 5.60448 -0.034366 -0.0566929 5.60636 16.4692 26 1 
591 1.21415 5.60711 -0.0344246 -0.0571258 5.60899 16.5279 26 1 
592 1.21419 5.60997 -0.0345025 -0.0575562 5.61185 16.5977 26 1 
592 1.21419 5.60997 -0.0345025 -0.0575562 5.61185 16.5977 26 1 
593 1.21423 5.61306 -0.0346046 -0.0580035 5.61493 16.6767 26 1 
594 1.21428 5.61629 -0.034718 -0.0584481 5.61816 16.7636 26 1 
595 1.21433 5.61964 -0.0348483 -0.0588726 5.62151 16.8565 26 1 
596 1.21439 5.62312 -0.0349966 -0.0592911 5.62498 16.9525 26 1 
597 1.21444 5.62666 -0.0351555 -0.0597175 5.62852 17.0492 26 1 
598 1.21449 5.63028 -0.0353199 -0.0601257 5.63214 17.1472 26 1 
599 1.21455 5.63394 -0.0355053 -0.0605051 5.63579 17.2421 26 1 
600 1.2146 5.63756 -0.0357119 -0.0608845 5.63941 17.3311 26 1 
601 1.21464 5.64114 -0.0358995 -0.0612493 5.64298 17.4152 26 1 
602 1.21468 5.6447 -0.0360846 -0.0615864 5.64654 17.4904 26 1 
603 1.21472 5.64819 -0.0362946 -0.0619012 5.65002 17.5557 26 1 
604 1.21475 5.65156 -0.0365039 -0.0621871 5.65338 17.6102 26 1 
605 1.21477 5.65481 -0.0366874 -0.0624515 5.65663 17.6533 26 1 
606 1.21479 5.65793 -0.0368638 -0.0626915 5.65974 17.6834 26 1 
607 1.2148 5.66087 -0.0370406 -0.0628956 5.66268 17.7001 26 1 
608 1.2148 5.66367 -0.0372113 -0.0630711 5.66547 17.7053 26 1 
608 1.2148 5.66367 -0.0372113 -0.0630711 5.66547 17.7053 26 1 
609 1.2148 5.6663 -0.0373688 -0.063221 5.66809 17.6962 26 1 
610 1.21479 5.66871 -0.0374952 -0.0633428 5.6705 17.6755 26 1 
611 1.21477 5.67091 -0.0376049 -0.063441 5.67269 17.6439 26 1 
612 1.21474 5.67294 -0.0377112 -0.0635124 5.67471 17.6009 26 1 
613 1.21472 5.67475 -0.0377911 -0.0635524 5.67652 17.5514 26 1 
614 1.21469 5.67635 -0.0378396 -0.0635819 5.67811 17.4947 26 1 
615 1.21465 5.67775 -0.0378682 -0.0636058 5.6795 17.4315 26 1 
616 1.21461 5.6789 -0.0378758 -0.0635942 5.68064 17.3663 26 1 
617 1.21458 5.67983 -0.0378635 -0.0635716 5.68156 17.2997 26 1 
618 1.21454 5.68059 -0.0378209 -0.0635629 5.68231 17.2325 26 1 
619 1.2145 5.68112 -0.0377386 -0.0635404 5.68284 17.1683 26 1 
620 1.21447 5.68142 -0.037644 -0.0635155 5.68313 17.1087 26 1 
621 1.21444 5.6815 -0.0375365 -0.0634967 5.6832 17.0528 26 1 
622 1.21441 5.68139 -0.0373937 -0.0634811 5.68308 17.0031 26 1 
623 1.21439 5.68107 -0.0372231 -0.0634915 5.68275 16.9635 26 1 
624 1.21437 5.68054 -0.0370415 -0.0635171 5.68221 16.9299 26 1 
624 1.21437 5.68054 -0.0370415 -0.0635171 5.68221 16.9299 26 1 
625 1.21436 5.6798 -0.0368396 -0.0635526 5.68147 16.9053 26 1 
626 1.21435 5.67883 -0.0366143 -0.0636146 5.6805 16.892 26 1 
627 1.21435 5.67768 -0.0363816 -0.0637078 5.67934 16.8869 26 1 
628 1.21435 5.67636 -0.0361374 -0.0638253 5.67802 16.8916 26 1 
629 1.21436 5.67483 -0.0358801 -0.0639743 5.67649 16.9064 26 1 
630 1.21437 5.67313 -0.0356195 -0.0641621 5.67478 16.9307 26 1 
631 1.21439 5.67125 -0.0353509 -0.0643669 5.6729 16.9613 26 1 
632 1.21441 5.66921 -0.0350858 -0.0646116 5.67086 17.0006 26 1 
633 1.21444 5.66702 -0.0348163 -0.0648982 5.66867 17.046 26 1 
634 1.21446 5.66471 -0.034547 -0.0651974 5.66636 17.0931 26 1 
635 1.21449 5.66227 -0.0342887 -0.0655302 5.66392 17.146 26 1 
636 1.21452 5.65967 -0.0340373 -0.0659036 5.66132 17.1988 26 1 
637 1.21455 5.65701 -0.0337883 -0.0662992 5.65867 17.2517 26 1 
638 1.21458 5.65427 -0.0335426 -0.0667146 5.65593 17.3042 26 1 
639 1.21461 5.65139 -0.033322 -0.0671688 5.65306 17.3532 26 1 
640 1.21463 5.64849 -0.0331068 -0.0676363 5.65016 17.3989 26 1 
640 1.21463 5.64849 -0.0331068 -0.0676363 5.65016 17.3989 26 1 
641 1.21465 5.64552 -0.0329079 -0.0681215 5.6472 17.4382 26 1 
642 1.21467 5.64249 -0.0327351 -0.0686524 5.64417 17.4748 26 1 
643 1.21469 5.63948 -0.0325562 -0.0691838 5.64117 17.5034 26 1 
644 1.2147 5.63651 -0.0324128 -0.0697313 5.63821 17.5255 26 1 
645 1.21471 5.63351 -0.032299 -0.0703031 5.63521 17.5442 26 1 
646 1.21472 5.63061 -0.0321815 -0.0708734 5.63232 17.5521 26 1 
647 1.21472 5.62783 -0.0320785 -0.07146 5.62955 17.5555 26 1 
648 1.21472 5.62509 -0.0320044 -0.0720585 5.62682 17.5541 26 1 
649 1.21471 5.62252 -0.0319424 -0.072649 5.62426 17.5445 26 1 
650 1.21471 5.62009 -0.0318767 -0.0732392 5.62184 17.5315 26 1 
651 1.2147 5.61783 -0.0318319 -0.073842 5.61959 17.5139 26 1 
652 1.21468 5.61574 -0.0317953 -0.0744322 5.61751 17.4936 26 1 
653 1.21467 5.6139 -0.0317521 -0.0750116 5.61568 17.4699 26 1 
654 1.21466 5.61231 -0.0317275 -0.0756052 5.6141 17.4457 26 1 
655 1.21465 5.61091 -0.0317074 -0.0761736 5.61271 17.4238 26 1 
656 1.21463 5.60982 -0.0316843 -0.0767311 5.61163 17.4003 26 1 
656 1.21463 5.60982 -0.0316843 -0.0767311 5.61163 17.4003 26 1 
657 1.21462 5.60906 -0.0316607 -0.0772973 5.61088 17.3805 26 1 
658 1.21461 5.60851 -0.0316317 -0.0778441 5.61034 17.3653 26 1 
659 1.21461 5.60833 -0.0316067 -0.0783769 5.61016 17.3536 26 1 
660 1.2146 5.60851 -0.0315843 -0.0789098 5.61035 17.3456 26 1 
661 1.2146 5.6089 -0.0315473 -0.0794254 5.61074 17.3455 26 1 
662 1.21461 5.60968 -0.0315064 -0.0799206 5.61153 17.3524 26 1 
663 1.21461 5.61079 -0.0314616 -0.0804126 5.61265 17.3606 26 1 
664 1.21462 5.61218 -0.0314048 -0.080899 5.61404 17.3796 26 1 
665 1.21463 5.61389 -0.0313375 -0.0813575 5.61575 17.4025 26 1 
666 1.21465 5.61587 -0.0312694 -0.08181 5.61774 17.4294 26 1 
667 1.21467 5.6182 -0.0311802 -0.0822533 5.62007 17.4627 26 1 
668 1.21469 5.62067 -0.0310678 -0.0826684 5.62254 17.4993 26 1 
669 1.21471 5.62352 -0.0309586 -0.0830865 5.62539 17.541 26 1 
670 1.21473 5.62655 -0.0308285 -0.0834825 5.62842 17.5805 26 1 
671 1.21476 5.62971 -0.0306781 -0.0838741 5.63158 17.6263 26 1 
672 1.21478 5.63314 -0.0305142 -0.0842579 5.635 17.6708 26 1 
672 1.21478 5.63314 -0.0305142 -0.0842579 5.635 17.6708 27 1 
673 1.21481 5.63663 -0.0303298 -0.0846143 5.6385 17.7109 27 1 
674 1.21483 5.64025 -0.0301247 -0.084984 5.64212 17.755 27 1 
675 1.21485 5.64397 -0.0298975 -0.085339 5.64583 17.7905 27 1 
676 1.21487 5.64775 -0.0296586 -0.0856918 5.6496 17.8255 27 1 
677 1.21488 5.6515 -0.0293791 -0.0860292 5.65335 17.8545 27 1 
678 1.2149 5.65529 -0.0290854 -0.0863904 5.65714 17.8775 27 1 
679 1.21491 5.659 -0.028767 -0.0867431 5.66084 17.8982 27 1 
680 1.21491 5.66266 -0.028414 -0.0870717 5.6645 17.907 27 1 
681 1.21492 5.66617 -0.0280555 -0.087445 5.66801 17.9143 27 1 
682 1.21492 5.66953 -0.0276507 -0.0877942 5.67136 17.9105 27 1 
683 1.21491 5.67266 -0.0272186 -0.0881411 5.67448 17.9036 27 1 
684 1.2149 5.67556 -0.0267732 -0.0885197 5.67738 17.8893 27 1 
685 1.21489 5.67818 -0.026303 -0.0889134 5.68 17.8675 27 1 
686 1.21488 5.68049 -0.0258177 -0.0893119 5.68231 17.8475 27 1 
687 1.21486 5.68251 -0.0253351 -0.0897309 5.68432 17.8173 27 1 
688 1.21485 5.68423 -0.0248597 -0.0902167 5.68604 17.7889 27 1 
688 1.21485 5.68423 -0.0248597 -0.0902167 5.68604 17.7889 27 1 
689 1.21483 5.68563 -0.0243561 -0.0907014 5.68744 17.7597 27 1 
690 1.21482 5.68672 -0.0238655 -0.0912376 5.68853 17.7299 27 1 
691 1.2148 5.68757 -0.0233973 -0.0918228 5.68939 17.702 27 1 
692 1.21479 5.6881 -0.0229079 -0.0924071 5.68992 17.6748 27 1 
693 1.21478 5.68838 -0.0224361 -0.093017 5.6902 17.6564 27 1 
694 1.21476 5.68835 -0.0219872 -0.0936343 5.69019 17.6369 27 1 
695 1.21476 5.68799 -0.0215245 -0.0942708 5.68983 17.625 27 1 
696 1.21476 5.68723 -0.0210673 -0.0949302 5.68908 17.6242 27 1 
697 1.21476 5.68609 -0.0206485 -0.0956455 5.68794 17.6241 27 1 
698 1.21476 5.68462 -0.0202422 -0.0964066 5.68649 17.6342 27 1 
699 1.21477 5.6828 -0.0198606 -0.0971861 5.68468 17.6535 27 1 
700 1.21479 5.68079 -0.019541 -0.0980079 5.68269 17.6792 27 1 
701 1.21481 5.67866 -0.0192506 -0.0987965 5.68057 17.7109 27 1 
702 1.21483 5.67642 -0.0189919 -0.099594 5.67835 17.7526 27 1 
703 1.21486 5.6742 -0.0187697 -0.100377 5.67615 17.8038 27 1 
704 1.21489 5.67197 -0.0185377 -0.101095 5.67393 17.8564 27 1 
704 1.21489 5.67197 -0.0185377 -0.101095 5.67393 17.8564 31 1 
705 1.21492 5.66979 -0.0183378 -0.101868 5.67176 17.9166 31 1 
706 1.21496 5.66761 -0.0181255 -0.102603 5.6696 17.9842 31 1 
707 1.21499 5.66543 -0.0179002 -0.103316 5.66743 18.0512 31 1 
708 1.21503 5.6634 -0.0177306 -0.104123 5.66542 18.1188 31 1 
709 1.21507 5.66139 -0.0175154 -0.104883 5.66342 18.1904 31 1 
710 1.21511 5.65955 -0.0172954 -0.105641 5.66159 18.2602 31 1 
711 1.21514 5.65786 -0.0171124 -0.106454 5.65992 18.323 31 1 
712 1.21518 5.65636 -0.0168712 -0.107198 5.65843 18.3838 31 1 
713 1.21521 5.65501 -0.0166389 -0.107921 5.6571 18.4447 31 1 
714 1.21524 5.65387 -0.0164348 -0.108691 5.65597 18.4934 31 1 
715 1.21526 5.6531 -0.0161918 -0.109417 5.65521 18.536 31 1 
716 1.21529 5.65244 -0.0159079 -0.110094 5.65457 18.5775 31 1 
717 1.2153 5.65214 -0.0156324 -0.110808 5.65428 18.6049 31 1 
718 1.21531 5.65213 -0.0153235 -0.111461 5.65428 18.6258 31 1 
719 1.21532 5.65233 -0.0149881 -0.112093 5.6545 18.6352 31 1 
720 1.21532 5.65286 -0.0146799 -0.112791 5.65505 18.6415 31 1 
721 1.21532 5.65359 -0.0143318 -0.113402 5.65578 18.6336 31 1 
722 1.2153 5.65477 -0.0139493 -0.114008 5.65697 18.6103 31 1 
723 1.21529 5.6561 -0.013529 -0.11458 5.65831 18.5948 31 1 
724 1.21527 5.65774 -0.0130873 -0.115119 5.65996 18.5591 31 1 
725 1.21525 5.65972 -0.0126732 -0.115695 5.66195 18.5213 31 1 
726 1.21523 5.66182 -0.0122018 -0.116265 5.66406 18.477 31 1 
727 1.21521 5.66415 -0.0117245 -0.116849 5.6664 18.4329 31 1 
728 1.21518 5.66677 -0.011215 -0.117346 5.66902 18.3818 31 1 
728 1.21518 5.66677 -0.011215 -0.117346 5.66902 18.3818 31 1 
729 1.21514 5.6695 -0.0106692 -0.117873 5.67176 18.3201 31 1 
730 1.21512 5.67248 -0.0101302 -0.118421 5.67473 18.2797 31 1 
731 1.21509 5.67565 -0.00960566 -0.118944 5.67791 18.2215 31 1 
732 1.21506 5.67896 -0.009088 -0.119523 5.68123 18.1692 31 1 
733 1.21504 5.68248 -0.00856485 -0.120079 5.68475 18.1286 31 1 
734 1.21501 5.68602 -0.00799013 -0.120603 5.6883 18.0878 31 1 
735 1.215 5.68963 -0.00741354 -0.121118 5.69191 18.0564 31 1 
736 1.21498 5.69337 -0.00688687 -0.121709 5.69565 18.0226 31 1 
737 1.21498 5.697 -0.00634814 -0.122254 5.69929 18.0184 31 1 
738 1.21497 5.70062 -0.00585808 -0.122828 5.70292 18.0077 31 1 
739 1.21497 5.70431 -0.00540526 -0.123505 5.70661 18.0024 31 1 
740 1.21498 5.70794 -0.00486033 -0.124008 5.71025 18.0292 31 1 
741 1.21499 5.7116 -0.00441665 -0.124644 5.71391 18.0518 31 1 
742 1.21501 5.7152 -0.00397325 -0.1253 5.71752 18.0875 31 1 
743 1.21504 5.71898 -0.00356148 -0.12596 5.72131 18.1319 31 1 
744 1.21507 5.72249 -0.00320797 -0.126709 5.72483 18.1964 31 1 
745 1.21511 5.72602 -0.00274516 -0.127237 5.72837 18.263 31 1 
746 1.21515 5.72947 -0.00234829 -0.127836 5.73182 18.3305 31 1 
747 1.2152 5.73266 -0.00201566 -0.128433 5.73501 18.4254 31 1 
748 1.21525 5.73566 -0.0016698 -0.128955 5.73803 18.5204 31 1 
749 1.2153 5.73842 -0.00135984 -0.129599 5.74079 18.6104 31 1 
750 1.21536 5.74102 -0.00108109 -0.130212 5.7434 18.7157 31 1 
751 1.21542 5.7434 -0.000715588 -0.130768 5.74577 18.828 31 1 
752 1.21549 5.74553 -0.00047272 -0.13149 5.74792 18.9403 31 1 
752 1.21549 5.74553 -0.00047272 -0.13149 5.74792 18.9403 31 1 
753 1.21554 5.74763 -0.000277942 -0.132204 5.75003 19.0455 31 1 
754 1.21561 5.74969 7.64783e-05 -0.132671 5.75209 19.1588 31 1 
755 1.21567 5.75153 0.000220792 -0.133303 5.75394 19.2714 31 1 
756 1.21571 5.75295 0.000473306 -0.133795 5.75536 19.3441 31 1 
757 1.21575 5.75465 0.000793078 -0.134049 5.75706 19.415 31 1 
758 1.21579 5.75565 0.000981586 -0.134521 5.75805 19.4964 31 1 
759 1.21583 5.75572 0.00137315 -0.134901 5.75812 19.5529 31 1 
760 1.21584 5.75627 0.00180989 -0.135189 5.75867 19.5887 31 1 
761 1.21588 5.75589 0.00207995 -0.135789 5.75829 19.6458 31 1 
762 1.2159 5.75473 0.0024655 -0.136246 5.75714 19.6961 31 1 
763 1.21589 5.75372 0.00293574 -0.136548 5.75613 19.6786 31 1 
764 1.21589 5.75282 0.00316071 -0.137103 5.75524 19.6688 31 1 
765 1.2159 5.75044 0.0034444 -0.13725 5.75285 19.6811 31 1 
766 1.21586 5.74807 0.0038094 -0.13718 5.75047 19.6169 31 1 
767 1.21582 5.74551 0.00402281 -0.137051 5.74789 19.5461 31 1 
768 1.21581 5.74124 0.00427224 -0.136452 5.74359 19.5184 31 1 
769 1.21578 5.73497 0.00439055 -0.1356 5.73728 19.4694 31 1 
770 1.21572 5.72848 0.00443427 -0.134453 5.73074 19.3593 31 1 
771 1.21569 5.71994 0.00430574 -0.132849 5.72214 19.3097 31 1 
772 1.21569 5.7073 0.00400705 -0.130909 5.70941 19.3101 31 1 
773 1.21563 5.6949 0.00352155 -0.128726 5.69693 19.1957 31 1 
774 1.21559 5.68078 0.00278821 -0.126215 5.68271 19.1237 31 1 
775 1.21561 5.66197 0.00166126 -0.123349 5.6638 19.1555 31 1 
776 1.21556 5.64413 0.000317365 -0.120325 5.64586 19.0741 31 1 
776 1.21556 5.64413 0.000317365 -0.120325 5.64586 19.0741 31 1 
777 1.21551 5.62449 -0.00138828 -0.117208 5.62611 18.9878 31 1 
778 1.21553 5.60225 -0.00355775 -0.113632 5.60375 19.013 31 1 
779 1.21553 5.5803 -0.00573944 -0.110089 5.5817 19.0117 31 1 
780 1.21548 5.55922 -0.00806659 -0.107307 5.56053 18.9309 31 1 
781 1.21549 5.53824 -0.01045 -0.104795 5.53948 18.9396 31 1 
782 1.21553 5.51642 -0.0126396 -0.102898 5.5176 19.0225 31 1 
783 1.21551 5.49832 -0.0149927 -0.102338 5.49948 18.9761 31 1 
784 1.2155 5.48075 -0.0174581 -0.102704 5.48192 18.9674 31 1 
785 1.21556 5.46468 -0.0187043 -0.102156 5.46583 19.0735 31 1 
786 1.21558 5.44939 -0.0197747 -0.101254 5.45052 19.1152 31 1 
787 1.21555 5.43915 -0.0218962 -0.101113 5.44027 19.0524 31 1 
788 1.2156 5.42865 -0.0247503 -0.102179 5.4298 19.1449 31 1 
789 1.21567 5.4172 -0.0267759 -0.102895 5.41837 19.275 31 1 
790 1.21563 5.41006 -0.027163 -0.101337 5.41119 19.1982 31 1 
791 1.21565 5.3981 -0.0277954 -0.100291 5.39921 19.2368 31 1 
792 1.21572 5.38763 -0.0291004 -0.100976 5.38876 19.3657 31 1 
793 1.21572 5.37866 -0.0318082 -0.102981 5.37983 19.3599 31 1 
794 1.21571 5.36667 -0.034683 -0.103755 5.36787 19.3487 31 1 
795 1.21573 5.356 -0.0368781 -0.102437 5.35719 19.3878 31 1 
796 1.21573 5.34846 -0.0400637 -0.101575 5.34965 19.3895 31 1 
797 1.21568 5.34912 -0.0462018 -0.10254 5.35037 19.2958 31 1 
798 1.21567 5.35176 -0.0557379 -0.10438 5.35312 19.2706 31 1 
799 1.21557 5.36857 -0.0666765 -0.105935 5.37008 19.0936 31 1 
800 1.21545 5.38616 -0.0724629 -0.106732 5.38775 18.8711 31 1 
