33.9618;r ;Density                 ;Velocity u              ;Velocity v              ;Velocity w              ;|Velocity|              ;Pressure                ;Distribution            ;Levels                  ;
0 1.2045 9.9886 1.88372e-05 8.74163e-05 9.98861 -0.899343 1 1 
1 1.20433 9.99202 9.76314e-05 0.000174062 9.99202 -1.20282 1 1 
2 1.20401 9.9971 0.000241329 0.000319465 9.9971 -1.78819 1 1 
3 1.20372 9.99948 0.000365393 0.000440737 9.99949 -2.31705 1 1 
4 1.20357 10.0016 0.00043417 0.000512448 10.0016 -2.58679 1 1 
5 1.20348 10.0031 0.000465599 0.000537829 10.0031 -2.7517 1 1 
6 1.20337 10.0034 0.000485257 0.000554474 10.0035 -2.9452 1 1 
7 1.2034 10.0047 0.000456067 0.000515989 10.0048 -2.89869 1 1 
8 1.20343 10.0053 0.000432091 0.000458012 10.0054 -2.83187 1 1 
9 1.20348 10.0052 0.000408486 0.000397889 10.0054 -2.7469 1 1 
10 1.20365 10.0063 0.000333973 0.000280343 10.0065 -2.44132 1 1 
11 1.2038 10.0065 0.000257453 0.000149327 10.0067 -2.1717 1 1 
12 1.20398 10.0066 0.000168609 1.11554e-05 10.0068 -1.84334 1 1 
13 1.20425 10.0074 4.76656e-05 -0.000165764 10.0076 -1.35816 1 1 
14 1.20448 10.0072 -6.89239e-05 -0.000329025 10.0074 -0.941215 1 1 
15 1.20476 10.0073 -0.000200457 -0.000493524 10.0075 -0.435157 1 1 
16 1.20506 10.0072 -0.000327874 -0.000669021 10.0075 0.115756 1 1 
16 1.20506 10.0072 -0.000327874 -0.000669021 10.0075 0.115756 1 1 
17 1.20532 10.0063 -0.000433148 -0.000804354 10.0066 0.570998 1 1 
18 1.20563 10.0061 -0.000567379 -0.000942791 10.0063 1.13822 1 1 
19 1.20591 10.0054 -0.000691392 -0.00106641 10.0055 1.64434 1 1 
20 1.20612 10.0037 -0.00077558 -0.0011188 10.0038 2.01757 1 1 
21 1.20637 10.0029 -0.000851892 -0.0011495 10.003 2.46777 1 1 
22 1.20655 10.0019 -0.000898124 -0.00113773 10.002 2.80565 1 1 
23 1.20667 10.0007 -0.000920846 -0.00107564 10.0007 3.02384 1 1 
24 1.20678 9.99999 -0.000932695 -0.00100253 10 3.20803 1 1 
25 1.20678 9.99879 -0.000893317 -0.000879268 9.99879 3.22427 1 1 
26 1.20678 9.99822 -0.000837971 -0.000722803 9.99822 3.21989 1 1 
27 1.20674 9.99782 -0.000784238 -0.000557612 9.99784 3.15114 1 1 
28 1.20658 9.99627 -0.000683872 -0.000342322 9.99631 2.85705 1 1 
29 1.20643 9.9956 -0.000557939 -0.000100556 9.99568 2.57655 1 1 
30 1.20624 9.99548 -0.000417115 0.000140757 9.9956 2.24626 1 1 
31 1.20596 9.99492 -0.000251549 0.000403686 9.99508 1.72747 1 1 
32 1.20567 9.99506 -7.54381e-05 0.000669309 9.99527 1.20326 1 1 
32 1.20567 9.99506 -7.54381e-05 0.000669309 9.99527 1.20326 1 1 
33 1.20534 9.99543 0.000122559 0.000936083 9.99567 0.611657 1 1 
34 1.20499 9.99603 0.00032576 0.00120657 9.9963 -0.0099957 1 1 
35 1.20469 9.997 0.000509846 0.00144476 9.99728 -0.567286 1 1 
36 1.20432 9.99704 0.000691934 0.00166641 9.99732 -1.2215 1 1 
37 1.20399 9.99743 0.000851533 0.00185853 9.9977 -1.82613 1 1 
38 1.20372 9.99893 0.000983756 0.0020026 9.99917 -2.31827 1 1 
39 1.2034 10 0.00111083 0.00213535 10.0002 -2.89494 1 1 
40 1.20311 10.0015 0.00120939 0.00223252 10.0017 -3.4197 1 1 
41 1.20287 10.0034 0.00128051 0.0022803 10.0035 -3.84968 1 1 
42 1.20265 10.0049 0.00133904 0.00230637 10.005 -4.25033 1 1 
43 1.20251 10.0065 0.00134976 0.00227933 10.0066 -4.49019 1 1 
44 1.20241 10.0074 0.00132276 0.00220076 10.0074 -4.67379 1 1 
45 1.20234 10.0079 0.00128772 0.00211056 10.0079 -4.81022 1 1 
46 1.20237 10.0095 0.00122153 0.00198041 10.0095 -4.75334 1 1 
47 1.20241 10.0108 0.00112744 0.0018116 10.0108 -4.67427 1 1 
48 1.20248 10.0117 0.00100976 0.00162464 10.0117 -4.54906 1 1 
48 1.20248 10.0117 0.00100976 0.00162464 10.0117 -4.54906 1 1 
49 1.20265 10.0128 0.000853458 0.00139341 10.0129 -4.25209 1 1 
50 1.20284 10.0131 0.00067909 0.0011366 10.0132 -3.89825 1 1 
51 1.20309 10.0132 0.000483626 0.000869824 10.0134 -3.4442 1 1 
52 1.20338 10.0135 0.00028319 0.000598823 10.0137 -2.92108 1 1 
53 1.20365 10.0135 9.84175e-05 0.000357608 10.0137 -2.43807 1 1 
54 1.20397 10.0141 -0.000103961 0.000113107 10.0143 -1.8614 1 1 
55 1.20431 10.0143 -0.000311066 -0.000134333 10.0145 -1.238 1 1 
56 1.20464 10.0135 -0.000492902 -0.000337114 10.0138 -0.653009 1 1 
57 1.205 10.0128 -0.000669256 -0.000522073 10.0131 -0.00388693 1 1 
58 1.20534 10.0119 -0.000838676 -0.000685815 10.0121 0.614513 1 1 
59 1.20565 10.0108 -0.00097865 -0.000797526 10.011 1.1755 1 1 
60 1.20596 10.0101 -0.00108591 -0.000866137 10.0103 1.74115 1 1 
61 1.20622 10.0086 -0.00116482 -0.000892356 10.0087 2.20356 1 1 
62 1.20645 10.0071 -0.00122638 -0.000884244 10.0072 2.6241 1 1 
63 1.20667 10.0061 -0.00125631 -0.000835718 10.0061 3.02081 1 1 
64 1.2068 10.0045 -0.00123292 -0.000718956 10.0046 3.25119 1 1 
64 1.2068 10.0045 -0.00123292 -0.000718956 10.0046 3.25119 2 1 
65 1.20689 10.0033 -0.00118774 -0.000566443 10.0033 3.40934 2 1 
66 1.20694 10.0022 -0.00113093 -0.000402856 10.0022 3.49993 2 1 
67 1.20691 10.0008 -0.00103536 -0.000189631 10.0008 3.45142 2 1 
68 1.20686 9.99987 -0.000915745 5.68517e-05 9.99989 3.35153 2 1 
69 1.20673 9.99898 -0.000781468 0.000315125 9.99903 3.13056 2 1 
70 1.20655 9.99803 -0.000621647 0.000607961 9.99811 2.79809 2 1 
71 1.20636 9.99772 -0.000441312 0.000914972 9.99785 2.45331 2 1 
72 1.2061 9.99717 -0.000247655 0.00122465 9.99732 1.99427 2 1 
73 1.20581 9.99654 -5.71352e-05 0.00152983 9.99673 1.4687 2 1 
74 1.20553 9.99656 0.000135337 0.00182857 9.99679 0.951403 2 1 
75 1.20519 9.99644 0.000348615 0.00213934 9.99668 0.349562 2 1 
76 1.20485 9.99655 0.000550346 0.00242777 9.99681 -0.270415 2 1 
77 1.20452 9.99696 0.000731557 0.00267192 9.99721 -0.869772 2 1 
78 1.20417 9.99728 0.000916178 0.00289184 9.99753 -1.49966 2 1 
79 1.20385 9.99834 0.00107752 0.00306608 9.99856 -2.07262 2 1 
80 1.20356 9.99934 0.00120048 0.00317813 9.99953 -2.60784 2 1 
80 1.20356 9.99934 0.00120048 0.00317813 9.99953 -2.60784 2 1 
81 1.20327 10.0002 0.00130137 0.00325316 10.0003 -3.13279 2 1 
82 1.20304 10.0016 0.00138144 0.00329328 10.0017 -3.54266 2 1 
83 1.20284 10.0029 0.00142898 0.00328907 10.0029 -3.89722 2 1 
84 1.20268 10.0039 0.00144181 0.00323943 10.004 -4.19393 2 1 
85 1.20258 10.0053 0.00143313 0.00314662 10.0054 -4.36789 2 1 
86 1.20251 10.0065 0.00139791 0.00301411 10.0065 -4.49389 2 1 
87 1.20251 10.0075 0.00131653 0.00282533 10.0075 -4.49532 2 1 
88 1.20258 10.0085 0.00120615 0.00259425 10.0085 -4.37644 2 1 
89 1.20265 10.0091 0.00109905 0.00236308 10.0092 -4.24179 2 1 
90 1.2028 10.0099 0.000959356 0.00210979 10.0099 -3.97853 2 1 
91 1.203 10.0105 0.000780932 0.00181632 10.0106 -3.60369 2 1 
92 1.20322 10.0106 0.00060543 0.00153196 10.0108 -3.21327 2 1 
93 1.20348 10.011 0.000422825 0.00125221 10.0112 -2.73788 2 1 
94 1.20378 10.011 0.000227633 0.000956968 10.0112 -2.20368 2 1 
95 1.20409 10.0107 2.76119e-05 0.000673145 10.011 -1.64936 2 1 
96 1.20443 10.0106 -0.0001749 0.000409962 10.0109 -1.03603 2 1 
96 1.20443 10.0106 -0.0001749 0.000409962 10.0109 -1.03603 2 1 
97 1.20476 10.0099 -0.000357928 0.000186233 10.0101 -0.432181 2 1 
98 1.20509 10.0091 -0.000532879 -5.47431e-06 10.0094 0.158515 2 1 
99 1.20543 10.0085 -0.000705901 -0.00017314 10.0088 0.769826 2 1 
100 1.20574 10.0073 -0.000839713 -0.00027806 10.0075 1.34204 2 1 
101 1.20604 10.0057 -0.000947499 -0.000333697 10.0059 1.88253 2 1 
102 1.20631 10.0045 -0.00104243 -0.000354645 10.0046 2.35872 2 1 
103 1.20653 10.003 -0.00110552 -0.000313612 10.0031 2.76776 2 1 
104 1.20674 10.0015 -0.00113717 -0.000217353 10.0016 3.15181 2 1 
105 1.20689 10.0001 -0.00114501 -8.62733e-05 10.0001 3.41014 2 1 
106 1.20698 9.9982 -0.00112929 8.1596e-05 9.99821 3.5773 2 1 
107 1.20706 9.99684 -0.00107367 0.000295261 9.99685 3.71848 2 1 
108 1.20706 9.9957 -0.000985437 0.000550279 9.9957 3.72096 2 1 
109 1.20701 9.99445 -0.000884136 0.000831964 9.99446 3.62243 2 1 
110 1.20693 9.99339 -0.000758536 0.0011369 9.99342 3.4837 2 1 
111 1.20678 9.99247 -0.000585344 0.00148651 9.99253 3.21307 2 1 
112 1.2066 9.99186 -0.000388121 0.00185742 9.99196 2.88115 2 1 
112 1.2066 9.99186 -0.000388121 0.00185742 9.99196 2.88115 2 1 
113 1.20639 9.99113 -0.000196025 0.00220705 9.99126 2.51124 2 1 
114 1.20611 9.99062 2.00258e-05 0.00257188 9.9908 2.00424 2 1 
115 1.20583 9.99029 0.000245169 0.00293893 9.9905 1.50148 2 1 
116 1.20555 9.9898 0.000459298 0.00328018 9.99003 0.989886 2 1 
117 1.20521 9.98983 0.000678127 0.00361217 9.99008 0.373142 2 1 
118 1.20488 9.99005 0.00089729 0.00392681 9.99031 -0.21005 2 1 
119 1.20456 9.99026 0.0010991 0.0041994 9.99051 -0.790838 2 1 
120 1.20423 9.991 0.00127067 0.00441624 9.99123 -1.39024 2 1 
121 1.20394 9.99181 0.00143145 0.00460387 9.99202 -1.91218 2 1 
122 1.20365 9.99263 0.00157624 0.00474442 9.9928 -2.4296 2 1 
123 1.20338 9.99375 0.0016807 0.004825 9.99389 -2.924 2 1 
124 1.20317 9.99471 0.00173456 0.00483551 9.9948 -3.30694 2 1 
125 1.20298 9.99589 0.00175949 0.00479108 9.99595 -3.64975 2 1 
126 1.20283 9.99706 0.0017756 0.00471726 9.9971 -3.92297 2 1 
127 1.20274 9.99794 0.00174833 0.00457145 9.99795 -4.08376 2 1 
128 1.20268 9.99891 0.00170042 0.00438532 9.99892 -4.18182 2 1 
128 1.20268 9.99891 0.00170042 0.00438532 9.99892 -4.18182 10 1 
129 1.20269 9.99983 0.00163677 0.00417123 9.99984 -4.17273 10 1 
130 1.20275 10.0007 0.00153576 0.00391042 10.0007 -4.07101 10 1 
131 1.20284 10.0012 0.00139874 0.00360932 10.0012 -3.90223 10 1 
132 1.20299 10.0018 0.001243 0.00328225 10.0019 -3.62205 10 1 
133 1.20319 10.0023 0.00107175 0.00294475 10.0024 -3.26654 10 1 
134 1.20341 10.0026 0.000864566 0.00257974 10.0027 -2.86405 10 1 
135 1.20367 10.0027 0.000635797 0.00220036 10.0029 -2.3935 10 1 
136 1.20396 10.0025 0.000405469 0.00183083 10.0027 -1.87913 10 1 
137 1.20426 10.0023 0.000184802 0.00149138 10.0026 -1.32997 10 1 
138 1.20459 10.0019 -4.08068e-05 0.00117232 10.0021 -0.745907 10 1 
139 1.20491 10.0013 -0.000259351 0.000880463 10.0016 -0.159292 10 1 
140 1.20524 10.0007 -0.000458878 0.000653248 10.0009 0.431305 10 1 
141 1.20556 9.99976 -0.000640217 0.000473775 9.99998 1.01894 10 1 
142 1.20587 9.99848 -0.000801325 0.00033685 9.99868 1.5755 10 1 
143 1.20616 9.99718 -0.000931565 0.000272626 9.99734 2.0897 10 1 
144 1.20641 9.99583 -0.00102192 0.000275072 9.99596 2.54405 10 1 
144 1.20641 9.99583 -0.00102192 0.000275072 9.99596 2.54405 10 1 
145 1.20662 9.99442 -0.00108883 0.000321936 9.99451 2.93484 10 1 
146 1.20681 9.99278 -0.00112781 0.000423898 9.99284 3.26626 10 1 
147 1.20695 9.99114 -0.0011205 0.000609509 9.99117 3.51353 10 1 
148 1.20703 9.98963 -0.0010687 0.000859186 9.98965 3.67189 10 1 
149 1.20707 9.98807 -0.000998632 0.00114819 9.98807 3.74612 10 1 
150 1.20707 9.98688 -0.000905254 0.00148022 9.98689 3.73046 10 1 
151 1.20701 9.9859 -0.000776741 0.00185551 9.98592 3.63018 10 1 
152 1.2069 9.98489 -0.000611234 0.00226066 9.98493 3.44082 10 1 
153 1.20676 9.9839 -0.000424077 0.00268499 9.98397 3.17441 10 1 
154 1.20657 9.98317 -0.000217246 0.00313175 9.98327 2.8314 10 1 
155 1.20634 9.98259 2.22605e-05 0.00360106 9.98272 2.41219 10 1 
156 1.20607 9.98186 0.000267204 0.00406791 9.98203 1.9382 10 1 
157 1.20578 9.98146 0.000506342 0.00451096 9.98167 1.41161 10 1 
158 1.20547 9.98131 0.000765167 0.00495388 9.98154 0.856698 10 1 
159 1.20516 9.98124 0.00102851 0.00538105 9.98148 0.286746 10 1 
160 1.20483 9.98132 0.00126877 0.00574655 9.98156 -0.29811 10 1 
160 1.20483 9.98132 0.00126877 0.00574655 9.98156 -0.29811 10 1 
161 1.20451 9.98172 0.00148557 0.00604863 9.98196 -0.883059 10 1 
162 1.2042 9.98236 0.00168767 0.0063005 9.98257 -1.44793 10 1 
163 1.2039 9.98312 0.00186646 0.00649089 9.98331 -1.98537 10 1 
164 1.20362 9.9841 0.00200053 0.00660392 9.98425 -2.48903 10 1 
165 1.20338 9.98496 0.00210367 0.00665632 9.98508 -2.93033 10 1 
166 1.20316 9.98608 0.00218176 0.00665293 9.98617 -3.32299 10 1 
167 1.20298 9.98693 0.00222089 0.00657238 9.98698 -3.64891 10 1 
168 1.20285 9.98766 0.00220456 0.00641416 9.98769 -3.87994 10 1 
169 1.20276 9.98914 0.00216439 0.00621444 9.98915 -4.04696 10 1 
170 1.20272 9.98992 0.00210323 0.00597779 9.98992 -4.1154 10 1 
171 1.20274 9.99053 0.0019906 0.00568051 9.99053 -4.09001 10 1 
172 1.20279 9.99154 0.0018478 0.00533782 9.99156 -3.99274 10 1 
173 1.20291 9.99154 0.00168645 0.00497195 9.99157 -3.78288 10 1 
174 1.20305 9.99208 0.00150086 0.00457182 9.99215 -3.51952 10 1 
175 1.20323 9.99251 0.00126849 0.00413041 9.9926 -3.19117 10 1 
176 1.20346 9.99256 0.00102179 0.00369572 9.99269 -2.78365 10 1 
176 1.20346 9.99256 0.00102179 0.00369572 9.99269 -2.78365 10 1 
177 1.2037 9.99289 0.00077639 0.0032789 9.99305 -2.34223 10 1 
178 1.20398 9.99218 0.000519245 0.0028597 9.99237 -1.84924 10 1 
179 1.20427 9.9918 0.000263761 0.00247704 9.99201 -1.32505 10 1 
180 1.20457 9.99144 1.33226e-05 0.00213345 9.99166 -0.77428 10 1 
181 1.20488 9.99072 -0.000230732 0.00182137 9.99094 -0.22424 10 1 
182 1.20517 9.98996 -0.000450433 0.00157592 9.99017 0.315947 10 1 
183 1.20547 9.98875 -0.000627043 0.00141178 9.98895 0.857167 10 1 
184 1.20575 9.98729 -0.000783131 0.00130199 9.98746 1.35899 10 1 
185 1.206 9.98615 -0.000929855 0.00124375 9.98628 1.80181 10 1 
186 1.20622 9.98483 -0.00102027 0.00126723 9.98493 2.20423 10 1 
187 1.20641 9.98281 -0.00106001 0.0013722 9.98288 2.54559 10 1 
188 1.20654 9.9812 -0.00106808 0.00154879 9.98125 2.78627 10 1 
189 1.20665 9.9794 -0.00105351 0.00176883 9.97942 2.98196 10 1 
190 1.20672 9.9776 -0.00100298 0.00205025 9.9776 3.1099 10 1 
191 1.20673 9.97703 -0.000904806 0.00238548 9.97704 3.12632 10 1 
192 1.20671 9.97584 -0.000787585 0.00274243 9.97585 3.0904 10 1 
192 1.20671 9.97584 -0.000787585 0.00274243 9.97585 3.0904 10 1 
193 1.20664 9.97389 -0.000628992 0.00314791 9.97391 2.96997 10 1 
194 1.20652 9.9728 -0.000448233 0.0035874 9.97283 2.73921 10 1 
195 1.20636 9.97142 -0.000216815 0.00407344 9.97148 2.45122 10 1 
196 1.20617 9.97012 2.39704e-05 0.00454862 9.9702 2.11417 10 1 
197 1.20594 9.96999 0.000217621 0.00497698 9.9701 1.70532 10 1 
198 1.2057 9.96924 0.000498915 0.00547794 9.96938 1.27169 10 1 
199 1.20545 9.96825 0.000826778 0.00598918 9.96841 0.81714 10 1 
200 1.20517 9.96812 0.000994348 0.00631654 9.96829 0.303311 10 1 
201 1.2049 9.96738 0.00115567 0.00662834 9.96755 -0.188983 10 1 
202 1.20462 9.96719 0.00143345 0.00701323 9.96736 -0.694231 10 1 
203 1.20434 9.9675 0.00160643 0.00722504 9.96765 -1.19264 10 1 
204 1.2041 9.96672 0.00177303 0.00740026 9.96687 -1.62104 10 1 
205 1.20386 9.96696 0.00189261 0.00751457 9.96708 -2.06041 10 1 
206 1.20365 9.96771 0.00194212 0.00752219 9.96781 -2.44136 10 1 
207 1.20348 9.96782 0.00207939 0.00757162 9.96789 -2.75291 10 1 
208 1.20332 9.96862 0.00209384 0.00747998 9.96867 -3.03276 10 1 
208 1.20332 9.96862 0.00209384 0.00747998 9.96867 -3.03276 10 1 
209 1.20322 9.96891 0.00207036 0.0073245 9.96893 -3.22198 10 1 
210 1.20316 9.96744 0.00209011 0.00716737 9.96745 -3.32852 10 1 
211 1.20312 9.96674 0.00202062 0.00695003 9.96675 -3.39411 10 1 
212 1.20313 9.96674 0.00190659 0.00665856 9.96675 -3.38184 10 1 
213 1.20319 9.96627 0.00175666 0.00629279 9.96628 -3.27123 10 1 
214 1.20328 9.96703 0.00158485 0.00592628 9.96705 -3.11222 10 1 
215 1.2034 9.96756 0.00146833 0.00564344 9.96759 -2.89667 10 1 
216 1.20356 9.9664 0.0013816 0.00538221 9.96644 -2.60782 10 1 
217 1.20373 9.96459 0.00116037 0.00498456 9.96466 -2.28656 10 1 
218 1.20391 9.96225 0.000845253 0.00454246 9.96234 -1.97276 10 1 
219 1.20412 9.95965 0.00058046 0.00418656 9.95975 -1.59231 10 1 
220 1.20435 9.95883 0.000462508 0.00396753 9.95893 -1.18292 10 1 
221 1.20456 9.95941 0.000316087 0.00372301 9.9595 -0.794391 10 1 
222 1.2048 9.95846 -3.72678e-05 0.00331314 9.95855 -0.368534 10 1 
223 1.205 9.95681 -0.000363979 0.00298164 9.9569 -0.000335371 10 1 
224 1.20519 9.9542 -0.000399982 0.00294738 9.95429 0.341659 10 1 
224 1.20519 9.9542 -0.000399982 0.00294738 9.95429 0.341659 10 1 
225 1.20538 9.94917 -0.000226289 0.0031435 9.94925 0.680901 10 1 
226 1.20551 9.9466 -0.000134589 0.00326507 9.94665 0.915736 10 1 
227 1.20564 9.94542 -0.000293352 0.00320859 9.94545 1.15214 10 1 
228 1.20577 9.94219 -0.000557925 0.00309029 9.94222 1.38207 10 1 
229 1.20583 9.94053 -0.000481259 0.00325498 9.94055 1.49163 10 1 
230 1.20587 9.93653 7.61488e-05 0.00392122 9.93653 1.57961 10 1 
231 1.20591 9.93152 0.000641725 0.00465842 9.93152 1.65192 10 1 
232 1.20587 9.93002 0.000774487 0.00501864 9.93002 1.57659 10 1 
233 1.20581 9.92792 0.000473304 0.00492744 9.92792 1.46659 10 1 
234 1.20581 9.92629 0.000139506 0.00477631 9.9263 1.45575 10 1 
235 1.20572 9.92552 8.85727e-05 0.00487647 9.92553 1.30451 10 1 
236 1.2056 9.92123 0.000321117 0.0052817 9.92124 1.08358 10 1 
237 1.20552 9.91521 0.000593441 0.00570519 9.91523 0.934124 10 1 
238 1.20537 9.91325 0.000694487 0.00586086 9.91328 0.664463 10 1 
239 1.20528 9.9095 0.000485501 0.00573164 9.90953 0.503898 10 1 
240 1.20517 9.90721 2.98286e-05 0.00539798 9.90724 0.30124 10 1 
240 1.20517 9.90721 2.98286e-05 0.00539798 9.90724 0.30124 10 1 
241 1.20505 9.9065 -0.000229993 0.00520303 9.90653 0.0899577 10 1 
242 1.205 9.89984 -0.000168235 0.00531238 9.89987 -0.00773019 10 1 
243 1.20484 9.89663 0.000165695 0.00566063 9.89665 -0.295717 10 1 
244 1.2048 9.8911 0.000766928 0.00627622 9.89112 -0.356613 10 1 
245 1.20477 9.88663 0.00129103 0.00682472 9.88665 -0.419161 10 1 
246 1.20471 9.88352 0.00167074 0.00715317 9.88354 -0.517061 10 1 
247 1.2047 9.87901 0.00177182 0.00719306 9.87902 -0.548754 10 1 
248 1.20469 9.8743 0.00177232 0.00713049 9.87431 -0.567472 10 1 
249 1.20475 9.86784 0.00169655 0.00698654 9.86785 -0.460511 10 1 
250 1.20472 9.86513 0.00163274 0.00685846 9.86513 -0.499952 10 1 
251 1.20484 9.85745 0.00172692 0.00688874 9.85745 -0.286976 10 1 
252 1.20491 9.85341 0.00153008 0.00662473 9.85342 -0.15721 10 1 
253 1.20493 9.84687 0.0015016 0.00652639 9.84688 -0.120711 10 1 
254 1.20506 9.83819 0.00143591 0.00641524 9.8382 0.100209 10 1 
255 1.20516 9.83261 0.00132854 0.00626287 9.83262 0.285016 10 1 
256 1.20527 9.82322 0.00141767 0.00631889 9.82323 0.487138 10 1 
256 1.20527 9.82322 0.00141767 0.00631889 9.82323 0.487138 11 1 
257 1.20533 9.81601 0.00131696 0.00619867 9.81602 0.589974 11 1 
258 1.20544 9.80848 0.00119358 0.00603736 9.80849 0.799864 11 1 
259 1.20558 9.79793 0.00122728 0.00608327 9.79794 1.0512 11 1 
260 1.20562 9.78706 0.00122727 0.00609835 9.78706 1.12371 11 1 
261 1.20573 9.77862 0.00117655 0.00605928 9.77863 1.31308 11 1 
262 1.20589 9.76721 0.0011501 0.00606977 9.76722 1.60216 11 1 
263 1.20593 9.75459 0.00111488 0.0060527 9.7546 1.68146 11 1 
264 1.20595 9.74461 0.00114432 0.00613323 9.74462 1.70768 11 1 
265 1.20611 9.72924 0.00113637 0.00616238 9.72924 2.00418 11 1 
266 1.20626 9.71213 0.00111224 0.00615012 9.71214 2.27194 11 1 
267 1.20619 9.70314 0.00110906 0.00618897 9.70315 2.1558 11 1 
268 1.20632 9.68732 0.00111517 0.00623615 9.68733 2.39065 11 1 
269 1.20658 9.66344 0.00111846 0.00624901 9.66344 2.85195 11 1 
270 1.20646 9.65157 0.00107662 0.00624622 9.65158 2.6348 11 1 
271 1.20657 9.63518 0.00106169 0.00626051 9.63519 2.84251 11 1 
272 1.207 9.60316 0.00104051 0.00626486 9.60317 3.60877 11 1 
272 1.207 9.60316 0.00104051 0.00626486 9.60317 3.60877 11 1 
273 1.20681 9.59071 0.000974904 0.00621998 9.59071 3.27657 11 1 
274 1.20689 9.56889 0.000942298 0.00620274 9.56889 3.42249 11 1 
275 1.20742 9.5308 0.000911733 0.0061902 9.5308 4.37382 11 1 
276 1.20732 9.51645 0.000877575 0.00614889 9.51646 4.19607 11 1 
277 1.20744 9.48537 0.000831674 0.00609646 9.48537 4.41454 11 1 
278 1.20787 9.44949 0.00078053 0.00606082 9.4495 5.18456 11 1 
279 1.20799 9.42444 0.000750278 0.00601937 9.42445 5.40569 11 1 
280 1.20813 9.38774 0.000719673 0.00597433 9.38775 5.66139 11 1 
281 1.20847 9.34937 0.00065064 0.00590723 9.3494 6.26852 11 1 
282 1.20884 9.30257 0.00060945 0.00584711 9.30262 6.93633 11 1 
283 1.20898 9.2485 0.000585395 0.00580491 9.24855 7.19601 11 1 
284 1.20916 9.19852 0.000515791 0.00576353 9.19855 7.51345 11 1 
285 1.20957 9.15633 0.000487291 0.00575828 9.15634 8.24787 11 1 
286 1.21007 9.11633 0.000454449 0.00574454 9.11634 9.15564 11 1 
287 1.2105 9.06298 0.000412482 0.00570506 9.06303 9.93008 11 1 
288 1.21071 8.98802 0.00039331 0.00563577 8.9881 10.3098 11 1 
288 1.21071 8.98802 0.00039331 0.00563577 8.9881 10.3098 11 1 
289 1.21091 8.91354 0.000376804 0.00560808 8.9136 10.6781 11 1 
290 1.21147 8.84855 0.000355221 0.00561541 8.84859 11.684 11 1 
291 1.2121 8.78028 0.000329001 0.00558137 8.78033 12.8269 11 1 
292 1.2124 8.70869 0.000303489 0.00554504 8.70878 13.3632 11 1 
293 1.21275 8.62256 0.000293584 0.00553027 8.62266 14.0038 11 1 
294 1.21329 8.5362 0.00027732 0.00551209 8.53638 14.9667 11 1 
295 1.21379 8.45772 0.000250523 0.00547231 8.45798 15.8725 11 1 
296 1.21426 8.37985 0.000235434 0.00546352 8.38048 16.722 11 1 
297 1.21451 8.30782 0.000248727 0.005481 8.30835 17.1805 11 1 
298 1.21442 8.28519 0.000137774 0.00543249 8.28864 17.0229 11 1 
299 1.20681 8.26185 -0.000340641 0.0054054 8.79382 3.26967 11 1 
300 1.19409 8.35405 -0.00130662 0.00542544 9.01143 -19.7084 11 1 
301 1.18969 8.38254 -0.00235233 0.00537728 8.664 -27.6537 11 1 
302 1.19112 8.1792 -0.00321402 0.0052563 8.38872 -25.0751 11 1 
303 1.19249 7.988 -0.00393407 0.00508881 8.13412 -22.6033 11 1 
304 1.19363 7.81925 -0.00454787 0.00498706 7.93305 -20.5346 11 1 
304 1.19363 7.81925 -0.00454787 0.00498706 7.93305 -20.5346 11 1 
305 1.19438 7.6763 -0.00503057 0.00490256 7.74409 -19.1808 11 1 
306 1.19503 7.54887 -0.00553274 0.00475831 7.61523 -18.0056 11 1 
307 1.19568 7.4356 -0.00595114 0.00469614 7.49483 -16.8372 11 1 
308 1.19631 7.34323 -0.00635334 0.00459856 7.39767 -15.704 11 1 
309 1.19676 7.2545 -0.00678381 0.00447198 7.29613 -14.8767 11 1 
310 1.1972 7.16908 -0.00712571 0.0044099 7.20842 -14.0825 11 1 
311 1.19768 7.09547 -0.00746763 0.00428924 7.13311 -13.2151 11 1 
312 1.19806 7.0278 -0.00780546 0.00416983 7.06301 -12.5267 11 1 
313 1.19837 6.96176 -0.00811343 0.00407259 6.99278 -11.9843 11 1 
314 1.1987 6.90153 -0.00841708 0.00395504 6.93128 -11.3769 11 1 
315 1.19901 6.84382 -0.00870518 0.00385436 6.87128 -10.8152 11 1 
316 1.19928 6.79106 -0.00897653 0.0037338 6.81775 -10.3375 11 1 
317 1.19953 6.74655 -0.00923986 0.00361372 6.77126 -9.87992 11 1 
318 1.19976 6.70244 -0.00948418 0.00351646 6.72618 -9.46092 11 1 
319 1.19998 6.65908 -0.00972232 0.00340435 6.68176 -9.06741 11 1 
320 1.2002 6.62188 -0.00996159 0.00327552 6.64349 -8.66114 11 1 
320 1.2002 6.62188 -0.00996159 0.00327552 6.64349 -8.66114 15 1 
321 1.2004 6.58793 -0.0101941 0.00314877 6.60837 -8.3163 15 1 
322 1.20057 6.55782 -0.0103958 0.00302724 6.57785 -8.00832 15 1 
323 1.20076 6.52921 -0.010598 0.00290756 6.5483 -7.65849 15 1 
324 1.20094 6.49798 -0.0108053 0.00276396 6.51651 -7.3422 15 1 
325 1.20104 6.47079 -0.0109931 0.00261493 6.48855 -7.1528 15 1 
326 1.20119 6.44871 -0.0111522 0.00248512 6.46597 -6.88693 15 1 
327 1.20139 6.425 -0.011321 0.00234361 6.44176 -6.52707 15 1 
328 1.20149 6.4016 -0.0114792 0.00218833 6.41796 -6.33729 15 1 
329 1.20156 6.37902 -0.0116143 0.00204034 6.39483 -6.20939 15 1 
330 1.20169 6.35697 -0.0117415 0.00188193 6.37238 -5.97226 15 1 
331 1.20184 6.33932 -0.0118738 0.00171844 6.35418 -5.71196 15 1 
332 1.20194 6.32011 -0.0119868 0.00155423 6.33469 -5.52395 15 1 
333 1.20198 6.29858 -0.0120834 0.00140077 6.31276 -5.44948 15 1 
334 1.20208 6.28394 -0.0121658 0.00125324 6.29775 -5.2722 15 1 
335 1.20224 6.26929 -0.0122601 0.00108099 6.28265 -4.98697 15 1 
336 1.20229 6.24981 -0.0123513 0.00089334 6.26278 -4.90042 15 1 
336 1.20229 6.24981 -0.0123513 0.00089334 6.26278 -4.90042 15 1 
337 1.20231 6.23424 -0.0124177 0.000743251 6.24691 -4.85239 15 1 
338 1.20243 6.22241 -0.0124677 0.00059595 6.23486 -4.64329 15 1 
339 1.20254 6.2113 -0.0125398 0.000410508 6.22334 -4.44297 15 1 
340 1.2026 6.19782 -0.0126262 0.000214741 6.2095 -4.34121 15 1 
341 1.20261 6.18086 -0.0126833 4.71324e-05 6.19227 -4.30916 15 1 
342 1.20268 6.17024 -0.0127082 -0.000100743 6.18146 -4.18445 15 1 
343 1.20281 6.16486 -0.0127674 -0.000277072 6.17584 -3.96245 15 1 
344 1.20286 6.1548 -0.0128459 -0.000492264 6.16549 -3.86192 15 1 
345 1.20288 6.14066 -0.0128861 -0.000668209 6.15105 -3.82583 15 1 
346 1.20293 6.12743 -0.0129097 -0.000801699 6.13766 -3.74018 15 1 
347 1.203 6.12137 -0.0129561 -0.000978284 6.13142 -3.60604 15 1 
348 1.20309 6.11783 -0.0130135 -0.00118948 6.12767 -3.45203 15 1 
349 1.20312 6.10591 -0.0130591 -0.00135244 6.11549 -3.39894 15 1 
350 1.20314 6.09267 -0.0130616 -0.00147884 6.10205 -3.35852 15 1 
351 1.20321 6.08511 -0.0130915 -0.0016397 6.09435 -3.23567 15 1 
352 1.20326 6.07938 -0.013177 -0.00184536 6.08846 -3.1353 15 1 
352 1.20326 6.07938 -0.013177 -0.00184536 6.08846 -3.1353 15 1 
353 1.20332 6.0733 -0.0132279 -0.00202304 6.08216 -3.03792 15 1 
354 1.20336 6.0634 -0.0132154 -0.00212998 6.07207 -2.96787 15 1 
355 1.20337 6.05223 -0.0132235 -0.00223984 6.06073 -2.93709 15 1 
356 1.20343 6.04546 -0.0132885 -0.00241947 6.0538 -2.83471 15 1 
357 1.20349 6.04026 -0.0133499 -0.0025961 6.04845 -2.72979 15 1 
358 1.20352 6.03449 -0.0133472 -0.00270418 6.0425 -2.66599 15 1 
359 1.20356 6.02645 -0.0133486 -0.00281285 6.03426 -2.59928 15 1 
360 1.20359 6.01664 -0.0134156 -0.00297823 6.02431 -2.54682 15 1 
361 1.20363 6.01063 -0.0134785 -0.00313155 6.01817 -2.47713 15 1 
362 1.20367 6.00717 -0.0134865 -0.00324268 6.01455 -2.39972 15 1 
363 1.20371 6.00208 -0.0134836 -0.00335231 6.00928 -2.32861 15 1 
364 1.20375 5.9949 -0.0135089 -0.00347515 6.00196 -2.2613 15 1 
365 1.20377 5.98731 -0.0135695 -0.00361785 5.99427 -2.22823 15 1 
366 1.2038 5.98311 -0.0136016 -0.00376805 5.98993 -2.16997 15 1 
367 1.20384 5.98058 -0.0135768 -0.00387549 5.98724 -2.09171 15 1 
368 1.20387 5.97598 -0.0135509 -0.00396877 5.98253 -2.03793 15 1 
368 1.20387 5.97598 -0.0135509 -0.00396877 5.98253 -2.03793 15 1 
369 1.2039 5.97029 -0.0135592 -0.00411777 5.97674 -1.98948 15 1 
370 1.20391 5.96502 -0.0135811 -0.00429736 5.97136 -1.96354 15 1 
371 1.20395 5.96228 -0.0135705 -0.00444684 5.96849 -1.89815 15 1 
372 1.204 5.9606 -0.0135127 -0.00457946 5.96672 -1.80945 15 1 
373 1.20401 5.95655 -0.0134737 -0.00473228 5.96259 -1.78853 15 1 
374 1.20403 5.95263 -0.0134609 -0.00491612 5.95857 -1.75043 15 1 
375 1.20406 5.94957 -0.0134219 -0.00510917 5.95541 -1.69419 15 1 
376 1.20408 5.9466 -0.0133504 -0.00526813 5.95237 -1.66786 15 1 
377 1.20411 5.94537 -0.0132776 -0.00541854 5.95107 -1.61614 15 1 
378 1.20414 5.94339 -0.013233 -0.00563583 5.94901 -1.56096 15 1 
379 1.20416 5.93997 -0.013221 -0.00587432 5.94551 -1.5191 15 1 
380 1.20418 5.9379 -0.0131778 -0.00606081 5.94337 -1.47626 15 1 
381 1.2042 5.93639 -0.0130958 -0.00624827 5.94181 -1.43929 15 1 
382 1.20422 5.9347 -0.013041 -0.00645936 5.94005 -1.40306 15 1 
383 1.20424 5.93307 -0.0130157 -0.00665854 5.93835 -1.36877 15 1 
384 1.20426 5.93104 -0.0129711 -0.00686384 5.93627 -1.32898 15 1 
384 1.20426 5.93104 -0.0129711 -0.00686384 5.93627 -1.32898 16 1 
385 1.20428 5.9289 -0.0129092 -0.0070668 5.93407 -1.29352 16 1 
386 1.2043 5.92734 -0.0128662 -0.00724353 5.93246 -1.25814 16 1 
387 1.20433 5.92693 -0.0128323 -0.00743268 5.932 -1.20733 16 1 
388 1.20435 5.92563 -0.0128074 -0.00764507 5.93066 -1.17085 16 1 
389 1.20436 5.92287 -0.0128005 -0.00784349 5.92785 -1.15076 16 1 
390 1.20438 5.92154 -0.0127751 -0.00802036 5.92646 -1.11707 16 1 
391 1.2044 5.92056 -0.0127411 -0.008193 5.92545 -1.08333 16 1 
392 1.20441 5.91891 -0.0127307 -0.00837379 5.92376 -1.06311 16 1 
393 1.20444 5.91802 -0.0127182 -0.00855524 5.92281 -1.01824 16 1 
394 1.20446 5.91622 -0.012691 -0.00872748 5.92097 -0.97844 16 1 
395 1.20447 5.91407 -0.0126667 -0.00889528 5.9188 -0.964081 16 1 
396 1.20449 5.91369 -0.0126361 -0.0090658 5.91836 -0.91465 16 1 
397 1.20451 5.9126 -0.0126073 -0.00924703 5.91723 -0.889963 16 1 
398 1.2045 5.91001 -0.0125814 -0.0094297 5.91462 -0.902155 16 1 
399 1.20451 5.90823 -0.0125386 -0.00960475 5.91278 -0.877756 16 1 
400 1.20454 5.90733 -0.0124817 -0.00978956 5.91183 -0.839644 16 1 
400 1.20454 5.90733 -0.0124817 -0.00978956 5.91183 -0.839644 16 1 
401 1.20456 5.90633 -0.0124291 -0.00998775 5.91079 -0.792446 16 1 
402 1.20458 5.90545 -0.0123781 -0.0101779 5.90987 -0.75556 16 1 
403 1.20459 5.9042 -0.0123112 -0.0103641 5.90857 -0.735984 16 1 
404 1.2046 5.90228 -0.0122291 -0.0105685 5.90661 -0.71979 16 1 
405 1.2046 5.90109 -0.0121522 -0.0107776 5.90537 -0.72074 16 1 
406 1.20461 5.90034 -0.0120731 -0.0109711 5.90458 -0.707662 16 1 
407 1.20462 5.89922 -0.0119682 -0.0111641 5.90342 -0.690899 16 1 
408 1.20464 5.89892 -0.0118565 -0.0113803 5.90309 -0.654973 16 1 
409 1.20467 5.89943 -0.0117724 -0.0116165 5.90357 -0.6015 16 1 
410 1.20468 5.89909 -0.0116885 -0.0118433 5.90318 -0.5851 16 1 
411 1.20469 5.89889 -0.0115802 -0.0120288 5.90295 -0.561979 16 1 
412 1.2047 5.89993 -0.0114798 -0.012188 5.90395 -0.536514 16 1 
413 1.2047 5.8999 -0.0114039 -0.0123622 5.90389 -0.53787 16 1 
414 1.2047 5.89922 -0.0113226 -0.0125452 5.90317 -0.540537 16 1 
415 1.20471 5.89972 -0.01122 -0.0127291 5.90363 -0.525084 16 1 
416 1.20473 5.90034 -0.0111304 -0.012941 5.90422 -0.493824 16 1 
416 1.20473 5.90034 -0.0111304 -0.012941 5.90422 -0.493824 16 1 
417 1.20474 5.90112 -0.0110923 -0.0131625 5.90497 -0.469914 16 1 
418 1.20476 5.90254 -0.0110786 -0.013328 5.90633 -0.42518 16 1 
419 1.20479 5.90376 -0.0110243 -0.0134362 5.90752 -0.384735 16 1 
420 1.20479 5.90473 -0.0109435 -0.013563 5.90845 -0.378189 16 1 
421 1.20479 5.90626 -0.0108777 -0.0137162 5.90992 -0.371236 16 1 
422 1.20479 5.90757 -0.0107904 -0.0138531 5.91119 -0.378567 16 1 
423 1.20479 5.90805 -0.0106744 -0.0140062 5.91164 -0.38177 16 1 
424 1.2048 5.90922 -0.0105604 -0.0141914 5.91276 -0.362515 16 1 
425 1.20482 5.91079 -0.0104546 -0.0143653 5.91429 -0.329179 16 1 
426 1.20484 5.91192 -0.0103557 -0.0145309 5.91539 -0.290291 16 1 
427 1.20486 5.91348 -0.0102575 -0.0147093 5.91694 -0.25922 16 1 
428 1.20487 5.91489 -0.0101631 -0.0148971 5.91831 -0.231576 16 1 
429 1.20487 5.91522 -0.010084 -0.0150864 5.91862 -0.229933 16 1 
430 1.20487 5.91571 -0.0100069 -0.0152728 5.91909 -0.237207 16 1 
431 1.20487 5.91688 -0.00992064 -0.0154644 5.92023 -0.235437 16 1 
432 1.20487 5.91764 -0.00983311 -0.0156566 5.92098 -0.240984 16 1 
432 1.20487 5.91764 -0.00983311 -0.0156566 5.92098 -0.240984 16 1 
433 1.20487 5.91824 -0.0097547 -0.0158434 5.92156 -0.237608 16 1 
434 1.20488 5.91957 -0.00966596 -0.0160283 5.92286 -0.21101 16 1 
435 1.2049 5.92111 -0.00955969 -0.0162068 5.92438 -0.172842 16 1 
436 1.20492 5.92258 -0.00947521 -0.0163911 5.92584 -0.141967 16 1 
437 1.20494 5.92415 -0.00940697 -0.0165896 5.92738 -0.114535 16 1 
438 1.20494 5.92515 -0.00932121 -0.0167861 5.92836 -0.109827 16 1 
439 1.20493 5.92577 -0.00922908 -0.0169754 5.92897 -0.127168 16 1 
440 1.20492 5.92688 -0.00914057 -0.0171559 5.93006 -0.13814 16 1 
441 1.20491 5.92812 -0.00904521 -0.0173413 5.93129 -0.15365 16 1 
442 1.20491 5.92914 -0.00895449 -0.0175486 5.93228 -0.162801 16 1 
443 1.20492 5.9309 -0.00887312 -0.0177451 5.93403 -0.151299 16 1 
444 1.20493 5.93315 -0.00877513 -0.0179232 5.93626 -0.12546 16 1 
445 1.20495 5.93537 -0.00866548 -0.0181092 5.93847 -0.0960284 16 1 
446 1.20496 5.93795 -0.00856036 -0.0182896 5.94103 -0.0677762 16 1 
447 1.20498 5.94061 -0.00845818 -0.0184678 5.94367 -0.0452588 16 1 
448 1.20498 5.94284 -0.00835419 -0.0186646 5.9459 -0.0451803 16 1 
448 1.20498 5.94284 -0.00835419 -0.0186646 5.9459 -0.0451803 17 1 
449 1.20497 5.945 -0.00825387 -0.0188587 5.94805 -0.055984 17 1 
450 1.20496 5.94744 -0.00815161 -0.0190363 5.95047 -0.0690177 17 1 
451 1.20495 5.94997 -0.00804222 -0.0192234 5.95298 -0.0820404 17 1 
452 1.20495 5.95278 -0.00794552 -0.019428 5.95578 -0.0876086 17 1 
453 1.20496 5.95587 -0.00785424 -0.0196187 5.95886 -0.080398 17 1 
454 1.20497 5.9595 -0.0077544 -0.0198047 5.96247 -0.0550728 17 1 
455 1.20499 5.96362 -0.00765194 -0.0200103 5.96658 -0.0135577 17 1 
456 1.20502 5.96791 -0.00754109 -0.0201938 5.97086 0.0276871 17 1 
457 1.20502 5.97179 -0.00742354 -0.0203543 5.97473 0.0416405 17 1 
458 1.20503 5.97529 -0.00729323 -0.0205303 5.97822 0.0478211 17 1 
459 1.20503 5.97876 -0.00714381 -0.0206871 5.98167 0.045286 17 1 
460 1.20501 5.98225 -0.00700454 -0.0208232 5.98515 0.0246751 17 1 
461 1.205 5.9855 -0.00688239 -0.0209959 5.98838 -0.0007858 17 1 
462 1.20499 5.98885 -0.00675818 -0.021188 5.99173 -0.0251318 17 1 
463 1.20498 5.99275 -0.00663916 -0.0213595 5.99562 -0.0352907 17 1 
464 1.20498 5.9969 -0.00652286 -0.0215329 5.99975 -0.0313233 17 1 
464 1.20498 5.9969 -0.00652286 -0.0215329 5.99975 -0.0313233 17 1 
465 1.205 6.00126 -0.00639896 -0.0217258 6.0041 -0.00623217 17 1 
466 1.20501 6.00588 -0.00627744 -0.0219098 6.00871 0.0270494 17 1 
467 1.20503 6.01049 -0.00615853 -0.0220759 6.01331 0.0628524 17 1 
468 1.20505 6.01495 -0.00603808 -0.0222547 6.01776 0.0973361 17 1 
469 1.20507 6.01943 -0.00590975 -0.0224389 6.02223 0.119456 17 1 
470 1.20508 6.02375 -0.00578297 -0.0226028 6.02654 0.136853 17 1 
471 1.20508 6.02807 -0.00566711 -0.022761 6.03084 0.144379 17 1 
472 1.20508 6.03201 -0.00552694 -0.0229133 6.03478 0.139838 17 1 
473 1.20507 6.03569 -0.00537318 -0.0230476 6.03845 0.120036 17 1 
474 1.20506 6.03928 -0.00523788 -0.0231702 6.04201 0.10834 17 1 
475 1.20505 6.04287 -0.00508838 -0.0232898 6.04559 0.098876 17 1 
476 1.20505 6.04671 -0.00492489 -0.0234293 6.04942 0.0846808 17 1 
477 1.20505 6.05075 -0.0047985 -0.023592 6.05345 0.0932007 17 1 
478 1.20505 6.0548 -0.00468527 -0.0237432 6.05749 0.0875133 17 1 
479 1.20504 6.05887 -0.00453335 -0.0238692 6.06155 0.0798087 17 1 
480 1.20505 6.0631 -0.00437481 -0.0239795 6.06576 0.087303 17 1 
480 1.20505 6.0631 -0.00437481 -0.0239795 6.06576 0.087303 17 1 
481 1.20506 6.06733 -0.0042552 -0.0240692 6.06996 0.0996719 17 1 
482 1.20506 6.07129 -0.00414597 -0.0241357 6.07389 0.116591 17 1 
483 1.20507 6.07489 -0.00401652 -0.0241999 6.07747 0.123496 17 1 
484 1.20507 6.07832 -0.00390143 -0.024278 6.08087 0.132836 17 1 
485 1.20507 6.08193 -0.00380205 -0.0243546 6.08447 0.133986 17 1 
486 1.20507 6.08561 -0.00367866 -0.0244233 6.08812 0.132055 17 1 
487 1.20507 6.08908 -0.00355842 -0.0244938 6.09157 0.129087 17 1 
488 1.20506 6.09241 -0.00346192 -0.0245367 6.09487 0.113928 17 1 
489 1.20505 6.09515 -0.0033514 -0.0245222 6.09757 0.0961115 17 1 
490 1.20504 6.09706 -0.00320622 -0.0244685 6.09943 0.0780312 17 1 
491 1.20503 6.09829 -0.00305745 -0.0244136 6.10061 0.0602148 17 1 
492 1.20502 6.09907 -0.00293552 -0.0243835 6.10135 0.0442919 17 1 
493 1.20502 6.0993 -0.00282964 -0.0243668 6.10154 0.0378869 17 1 
494 1.20502 6.09934 -0.00271113 -0.0243104 6.10154 0.0288848 17 1 
495 1.20501 6.09918 -0.00256557 -0.0241508 6.10131 0.0204875 17 1 
496 1.20501 6.09791 -0.00239116 -0.0238503 6.09995 0.0206049 17 1 
496 1.20501 6.09791 -0.00239116 -0.0238503 6.09995 0.0206049 17 1 
497 1.20501 6.09463 -0.00217173 -0.0233975 6.09657 0.0204842 17 1 
498 1.20502 6.08811 -0.0019004 -0.0227937 6.08993 0.0270865 17 1 
499 1.20502 6.07723 -0.00161636 -0.022067 6.07891 0.032521 17 1 
500 1.20502 6.06169 -0.00137866 -0.021253 6.06323 0.0403706 17 1 
501 1.20503 6.04194 -0.00120744 -0.0203332 6.04332 0.0568592 17 1 
502 1.20504 6.01837 -0.00110831 -0.0192752 6.01958 0.0754941 17 1 
503 1.20505 5.99159 -0.00109774 -0.0181106 5.99264 0.0889173 17 1 
504 1.20506 5.96279 -0.00117076 -0.0169171 5.96369 0.100148 17 1 
505 1.20507 5.93266 -0.00130626 -0.0157641 5.93342 0.119882 17 1 
506 1.20507 5.90139 -0.00148713 -0.0146608 5.90203 0.133364 17 1 
507 1.20508 5.86921 -0.00168876 -0.0135556 5.86974 0.142803 17 1 
508 1.20508 5.83599 -0.00186076 -0.0124403 5.83643 0.149601 17 1 
509 1.20508 5.80109 -0.0019651 -0.0114489 5.80147 0.147127 17 1 
510 1.20508 5.76451 -0.00200769 -0.0107913 5.76484 0.146916 17 1 
511 1.20508 5.72731 -0.00202848 -0.0105937 5.72763 0.145075 17 1 
512 1.20508 5.69128 -0.00210419 -0.0108206 5.69162 0.139939 17 1 
512 1.20508 5.69128 -0.00210419 -0.0108206 5.69162 0.139939 25 1 
513 1.20507 5.65962 -0.00232203 -0.0112906 5.65998 0.127491 25 1 
514 1.20506 5.63577 -0.00270279 -0.0117249 5.63616 0.115286 25 1 
515 1.20506 5.62206 -0.00322195 -0.0119084 5.62244 0.114877 25 1 
516 1.20507 5.61969 -0.00386245 -0.0118223 5.62005 0.123979 25 1 
517 1.20508 5.62884 -0.00459477 -0.0115362 5.62916 0.140501 25 1 
518 1.20508 5.649 -0.00536741 -0.0110394 5.64928 0.14824 25 1 
519 1.20509 5.67928 -0.00612351 -0.010277 5.67951 0.155574 25 1 
520 1.20509 5.71843 -0.00680101 -0.00921666 5.71861 0.167281 25 1 
521 1.20511 5.76281 -0.00727294 -0.00784713 5.76293 0.190861 25 1 
522 1.20513 5.80507 -0.00733124 -0.0062221 5.80514 0.229277 25 1 
523 1.20515 5.83572 -0.00681739 -0.00452642 5.83576 0.265933 25 1 
524 1.20517 5.84562 -0.00577309 -0.00299798 5.84563 0.30124 25 1 
525 1.20518 5.82876 -0.00443949 -0.00178812 5.82877 0.328142 25 1 
526 1.20519 5.78455 -0.00313735 -0.000950007 5.78459 0.350287 25 1 
527 1.2052 5.71768 -0.00213491 -0.000481949 5.71774 0.361926 25 1 
528 1.2052 5.63549 -0.00157111 -0.000322463 5.63557 0.356494 25 1 
528 1.2052 5.63549 -0.00157111 -0.000322463 5.63557 0.356494 25 1 
529 1.20518 5.54607 -0.00145621 -0.000384792 5.54616 0.323478 25 1 
530 1.20515 5.4567 -0.001712 -0.000591905 5.45679 0.266203 25 1 
531 1.20512 5.37295 -0.00221735 -0.000871447 5.37302 0.209137 25 1 
532 1.20509 5.29852 -0.00286296 -0.00117439 5.29858 0.155166 25 1 
533 1.20505 5.23546 -0.00357865 -0.00148979 5.2355 0.0992972 25 1 
534 1.20502 5.18477 -0.00431145 -0.0018165 5.1848 0.0346669 25 1 
535 1.20498 5.1465 -0.00502282 -0.00214734 5.14653 -0.0334113 25 1 
536 1.20494 5.12031 -0.00569448 -0.00247957 5.12033 -0.110393 25 1 
537 1.2049 5.10567 -0.00631342 -0.0028084 5.10568 -0.177817 25 1 
538 1.20488 5.10139 -0.0068719 -0.00311745 5.1014 -0.223502 25 1 
539 1.20485 5.10652 -0.0073546 -0.00339129 5.10652 -0.262711 25 1 
540 1.20484 5.12083 -0.00776984 -0.00363284 5.12084 -0.289988 25 1 
541 1.20483 5.14373 -0.00814638 -0.0038599 5.14374 -0.306334 25 1 
542 1.20482 5.17403 -0.0084819 -0.00407122 5.17405 -0.318618 25 1 
543 1.20482 5.21073 -0.00876778 -0.00425581 5.21075 -0.317312 25 1 
544 1.20484 5.25291 -0.0090119 -0.00441007 5.25294 -0.282339 25 1 
544 1.20484 5.25291 -0.0090119 -0.00441007 5.25294 -0.282339 25 1 
545 1.20488 5.29986 -0.0092134 -0.00453863 5.2999 -0.21448 25 1 
546 1.20493 5.35104 -0.00937435 -0.00464369 5.35109 -0.12281 25 1 
547 1.20499 5.40595 -0.00950585 -0.00472429 5.40601 -0.0241834 25 1 
548 1.20504 5.46382 -0.00961013 -0.00478482 5.46389 0.0715487 25 1 
549 1.2051 5.52404 -0.00967994 -0.00482335 5.52412 0.176506 25 1 
550 1.20517 5.58646 -0.00971384 -0.00483281 5.58654 0.312879 25 1 
551 1.20527 5.65068 -0.0097258 -0.00482492 5.65076 0.480622 25 1 
552 1.20537 5.7163 -0.00972272 -0.00480912 5.71638 0.660363 25 1 
553 1.20546 5.78323 -0.00969775 -0.00477997 5.78331 0.837335 25 1 
554 1.20555 5.85134 -0.00965435 -0.00473666 5.85142 0.988965 25 1 
555 1.20562 5.92036 -0.00959192 -0.00467797 5.92044 1.11433 25 1 
556 1.20568 5.99024 -0.00950582 -0.00460395 5.99031 1.22904 25 1 
557 1.20574 6.061 -0.00940957 -0.00452647 6.06106 1.33781 25 1 
558 1.20579 6.13268 -0.00931028 -0.0044513 6.13274 1.42572 25 1 
559 1.20582 6.20547 -0.00920229 -0.00437069 6.20551 1.48152 25 1 
560 1.20583 6.27929 -0.00909326 -0.00428681 6.27933 1.49561 25 1 
560 1.20583 6.27929 -0.00909326 -0.00428681 6.27933 1.49561 25 1 
561 1.20582 6.35392 -0.00898096 -0.00420296 6.35395 1.47261 25 1 
562 1.20579 6.42926 -0.00885985 -0.0041126 6.42928 1.42659 25 1 
563 1.20575 6.50545 -0.00874332 -0.00402238 6.50547 1.35756 25 1 
564 1.2057 6.5826 -0.00864625 -0.00394839 6.58263 1.26319 25 1 
565 1.20563 6.66068 -0.00856898 -0.00388848 6.66071 1.14134 25 1 
566 1.20556 6.73946 -0.00850851 -0.00383878 6.73948 1.00813 25 1 
567 1.20549 6.81872 -0.00846872 -0.00380165 6.81875 0.88211 25 1 
568 1.20543 6.89854 -0.00844166 -0.00377492 6.89857 0.775027 25 1 
569 1.20538 6.97893 -0.00842819 -0.00375968 6.97897 0.678643 25 1 
570 1.20533 7.05978 -0.0084357 -0.00375792 7.05983 0.595261 25 1 
571 1.20531 7.14088 -0.00845455 -0.00376468 7.14094 0.554564 25 1 
572 1.20532 7.22197 -0.00848986 -0.00378253 7.22204 0.572658 25 1 
573 1.20535 7.30281 -0.00854612 -0.00381324 7.3029 0.636864 25 1 
574 1.20541 7.38339 -0.00859983 -0.00384521 7.38349 0.735604 25 1 
575 1.20548 7.46365 -0.00863869 -0.00387731 7.46378 0.871001 25 1 
576 1.20558 7.54342 -0.00867066 -0.00390911 7.54355 1.05335 25 1 
576 1.20558 7.54342 -0.00867066 -0.00390911 7.54355 1.05335 26 1 
577 1.20572 7.62246 -0.00869188 -0.00393029 7.6226 1.29407 26 1 
578 1.20587 7.70068 -0.00868114 -0.00393536 7.70082 1.56972 26 1 
579 1.20602 7.77795 -0.00863581 -0.00392492 7.7781 1.85067 26 1 
580 1.20617 7.85425 -0.00856617 -0.00389924 7.85438 2.12211 26 1 
581 1.20631 7.92931 -0.00846556 -0.00385984 7.92942 2.37207 26 1 
582 1.20643 8.00277 -0.00832593 -0.00380873 8.00286 2.58674 26 1 
583 1.20652 8.07463 -0.00813885 -0.00372802 8.0747 2.75133 26 1 
584 1.20657 8.14525 -0.00789938 -0.00360911 8.1453 2.84435 26 1 
585 1.20658 8.21479 -0.00762817 -0.00348501 8.21482 2.85574 26 1 
586 1.20655 8.28301 -0.00734944 -0.00336772 8.28302 2.79358 26 1 
587 1.20647 8.34967 -0.0070608 -0.00324226 8.34967 2.65876 26 1 
588 1.20635 8.41469 -0.00676606 -0.00311476 8.41469 2.43157 26 1 
589 1.20617 8.47839 -0.00647244 -0.00299126 8.47839 2.10765 26 1 
590 1.20595 8.54088 -0.00619479 -0.00287274 8.54088 1.71638 26 1 
591 1.20571 8.60204 -0.00595609 -0.00277889 8.60205 1.28432 26 1 
592 1.20547 8.66191 -0.00576176 -0.00272667 8.66192 0.840014 26 1 
592 1.20547 8.66191 -0.00576176 -0.00272667 8.66192 0.840014 26 1 
593 1.20522 8.72062 -0.00561632 -0.00270815 8.72062 0.399627 26 1 
594 1.20499 8.77825 -0.00552445 -0.00270778 8.77826 -0.0230531 26 1 
595 1.20478 8.83479 -0.00548032 -0.00272231 8.83479 -0.393984 26 1 
596 1.20462 8.89025 -0.00548654 -0.00277047 8.89026 -0.680212 26 1 
597 1.20452 8.94452 -0.00554777 -0.00285981 8.94454 -0.866371 26 1 
598 1.20448 8.99748 -0.00565268 -0.00297306 8.99751 -0.942921 26 1 
599 1.2045 9.04923 -0.0057802 -0.00309331 9.04928 -0.901596 26 1 
600 1.20459 9.09956 -0.0059211 -0.00321496 9.09964 -0.740044 26 1 
601 1.20474 9.14824 -0.00606265 -0.00333625 9.14834 -0.466937 26 1 
602 1.20494 9.19524 -0.00617629 -0.00344316 9.19536 -0.0998748 26 1 
603 1.20519 9.2405 -0.00626359 -0.00353129 9.24064 0.33941 26 1 
604 1.20546 9.28374 -0.00632374 -0.00360251 9.28389 0.824008 26 1 
605 1.20574 9.32491 -0.0063222 -0.00363636 9.32505 1.32812 26 1 
606 1.20601 9.36419 -0.00625065 -0.00362638 9.36431 1.81689 26 1 
607 1.20625 9.4013 -0.00612252 -0.00358424 9.4014 2.25276 26 1 
608 1.20644 9.43626 -0.00593599 -0.0035085 9.43633 2.60782 26 1 
608 1.20644 9.43626 -0.00593599 -0.0035085 9.43633 2.60782 26 1 
609 1.20659 9.46918 -0.00569181 -0.00340167 9.46922 2.86459 26 1 
610 1.20666 9.5003 -0.00539762 -0.00326661 9.50032 3.00344 26 1 
611 1.20667 9.52995 -0.00506388 -0.00310172 9.52996 3.01153 26 1 
612 1.2066 9.55812 -0.00471058 -0.00292751 9.55813 2.89147 26 1 
613 1.20647 9.58489 -0.00435656 -0.00275911 9.5849 2.64849 26 1 
614 1.20626 9.61037 -0.00401741 -0.00260575 9.6104 2.28174 26 1 
615 1.206 9.63476 -0.00370438 -0.00247424 9.6348 1.79781 26 1 
616 1.20568 9.65835 -0.00342535 -0.00236202 9.6584 1.23628 26 1 
617 1.20536 9.68149 -0.00318521 -0.00227217 9.68154 0.654186 26 1 
618 1.20505 9.70465 -0.00300354 -0.00221996 9.70469 0.0832023 26 1 
619 1.20474 9.72785 -0.00290914 -0.00222815 9.72789 -0.460978 26 1 
620 1.20447 9.75068 -0.00289736 -0.00229451 9.7507 -0.949469 26 1 
621 1.20425 9.77296 -0.00294644 -0.00240259 9.77297 -1.34854 26 1 
622 1.20409 9.79487 -0.00304028 -0.00253731 9.79488 -1.6361 26 1 
623 1.20401 9.81634 -0.00316663 -0.00268875 9.81634 -1.79307 26 1 
624 1.204 9.83672 -0.00332571 -0.00285624 9.83673 -1.80056 26 1 
624 1.204 9.83672 -0.00332571 -0.00285624 9.83673 -1.80056 26 1 
625 1.20408 9.85575 -0.00352258 -0.00305341 9.85577 -1.66049 26 1 
626 1.20423 9.87337 -0.00373956 -0.00327255 9.87342 -1.38242 26 1 
627 1.20446 9.8895 -0.00395531 -0.00348452 9.88958 -0.974002 26 1 
628 1.20475 9.90364 -0.00415361 -0.00367576 9.90373 -0.453081 26 1 
629 1.20508 9.91526 -0.00430889 -0.00383198 9.91537 0.139322 26 1 
630 1.20541 9.92459 -0.00441582 -0.00394767 9.92469 0.747069 26 1 
631 1.20574 9.93178 -0.00448518 -0.0040365 9.93188 1.33957 26 1 
632 1.20606 9.93695 -0.00450841 -0.00409837 9.93703 1.90632 26 1 
633 1.20633 9.94029 -0.00447673 -0.0041245 9.94034 2.40432 26 1 
634 1.20654 9.94222 -0.00438954 -0.00410962 9.94225 2.78462 26 1 
635 1.20668 9.94326 -0.00423495 -0.00404417 9.94328 3.0375 26 1 
636 1.20675 9.94382 -0.0040235 -0.00393827 9.94382 3.16278 26 1 
637 1.20674 9.94401 -0.00377573 -0.0038092 9.94402 3.1361 26 1 
638 1.20663 9.94396 -0.00350691 -0.00367609 9.94398 2.94268 26 1 
639 1.20644 9.94374 -0.00324219 -0.00355498 9.94378 2.60146 26 1 
640 1.20619 9.94349 -0.00298559 -0.00344251 9.94355 2.14464 26 1 
640 1.20619 9.94349 -0.00298559 -0.00344251 9.94355 2.14464 26 1 
641 1.20588 9.94372 -0.00272699 -0.00333253 9.9438 1.59473 26 1 
642 1.20554 9.94469 -0.00247762 -0.00322537 9.94479 0.980357 26 1 
643 1.2052 9.94614 -0.00226662 -0.00314619 9.94623 0.355504 26 1 
644 1.20487 9.94787 -0.00211904 -0.00312316 9.94795 -0.241309 26 1 
645 1.20456 9.95015 -0.00205614 -0.00316413 9.95021 -0.793167 26 1 
646 1.2043 9.95297 -0.00207544 -0.00326252 9.95301 -1.26779 26 1 
647 1.2041 9.95607 -0.00215457 -0.00340117 9.95608 -1.62378 26 1 
648 1.20398 9.95932 -0.00228392 -0.00356207 9.95933 -1.84149 26 1 
649 1.20394 9.96286 -0.00246354 -0.00374543 9.96286 -1.90929 26 1 
650 1.204 9.9667 -0.00268856 -0.00396191 9.96671 -1.81087 26 1 
651 1.20414 9.97069 -0.00295187 -0.00420301 9.97072 -1.55197 26 1 
652 1.20435 9.97457 -0.00324123 -0.00444649 9.97462 -1.17087 26 1 
653 1.20462 9.97795 -0.00352315 -0.00467071 9.97802 -0.693906 26 1 
654 1.20493 9.98082 -0.003776 -0.00486234 9.98091 -0.129075 26 1 
655 1.20527 9.98343 -0.0039947 -0.00501026 9.98352 0.489503 26 1 
656 1.20562 9.98576 -0.00416429 -0.00511163 9.98584 1.11547 26 1 
656 1.20562 9.98576 -0.00416429 -0.00511163 9.98584 1.11547 26 1 
657 1.20595 9.98732 -0.00428464 -0.00518369 9.98739 1.70956 26 1 
658 1.20623 9.98785 -0.00435141 -0.00522062 9.9879 2.22206 26 1 
659 1.20645 9.98753 -0.00433467 -0.00519328 9.98756 2.61148 26 1 
660 1.20659 9.9867 -0.00423022 -0.00510559 9.98671 2.87553 26 1 
661 1.20667 9.98553 -0.00405011 -0.00497442 9.98554 3.01374 26 1 
662 1.20666 9.98418 -0.00381264 -0.00480982 9.98419 2.99812 26 1 
663 1.20656 9.98265 -0.0035463 -0.00463134 9.98267 2.81835 26 1 
664 1.20638 9.98087 -0.00325908 -0.00445759 9.98091 2.49069 26 1 
665 1.20613 9.97898 -0.00296239 -0.0042903 9.97904 2.03585 26 1 
666 1.20582 9.97737 -0.00266855 -0.00412501 9.97745 1.48118 26 1 
667 1.20548 9.97638 -0.00238478 -0.00398112 9.97647 0.870698 26 1 
668 1.20514 9.97595 -0.00213865 -0.00388502 9.97604 0.252689 26 1 
669 1.20481 9.97617 -0.00196074 -0.00384295 9.97625 -0.34192 26 1 
670 1.2045 9.97695 -0.00185053 -0.0038473 9.97701 -0.89431 26 1 
671 1.20424 9.97824 -0.00180799 -0.00390023 9.97827 -1.36584 26 1 
672 1.20406 9.98019 -0.00185251 -0.00401429 9.9802 -1.70435 26 1 
672 1.20406 9.98019 -0.00185251 -0.00401429 9.9802 -1.70435 27 1 
673 1.20396 9.98291 -0.00198837 -0.00418842 9.98292 -1.87664 27 1 
674 1.20396 9.9861 -0.00219027 -0.00441042 9.98611 -1.88114 27 1 
675 1.20404 9.98924 -0.00243666 -0.00465902 9.98925 -1.74193 27 1 
676 1.20418 9.99228 -0.00271631 -0.00490644 9.99232 -1.47342 27 1 
677 1.20441 9.99513 -0.00300741 -0.00514612 9.99519 -1.06933 27 1 
678 1.2047 9.99795 -0.00330373 -0.00538633 9.99803 -0.532911 27 1 
679 1.20505 10.0007 -0.00361407 -0.00562016 10.0008 0.0970897 27 1 
680 1.20542 10.003 -0.00390566 -0.00582401 10.0031 0.766228 27 1 
681 1.20579 10.0044 -0.00414266 -0.00598605 10.0045 1.41782 27 1 
682 1.20611 10.0046 -0.00432353 -0.00609842 10.0047 2.00649 27 1 
683 1.20639 10.0042 -0.00442958 -0.00613811 10.0043 2.50712 27 1 
684 1.20661 10.0033 -0.00445559 -0.0061146 10.0033 2.90885 27 1 
685 1.20677 10.002 -0.00441447 -0.00604638 10.002 3.19376 27 1 
686 1.20684 10.0004 -0.00430354 -0.0059285 10.0004 3.32169 27 1 
687 1.20681 9.99815 -0.00413093 -0.00576138 9.99816 3.26963 27 1 
688 1.20669 9.99542 -0.00390845 -0.00555631 9.99544 3.04878 27 1 
688 1.20669 9.99542 -0.00390845 -0.00555631 9.99544 3.04878 27 1 
689 1.20648 9.99264 -0.00364684 -0.00533378 9.99269 2.67813 27 1 
690 1.20621 9.99008 -0.00337579 -0.00511099 9.99014 2.18476 27 1 
691 1.20589 9.98799 -0.00310839 -0.00490735 9.98807 1.60896 27 1 
692 1.20555 9.9864 -0.00284771 -0.0047285 9.9865 0.993184 27 1 
693 1.2052 9.98551 -0.00262002 -0.00458858 9.9856 0.367983 27 1 
694 1.20487 9.9852 -0.0024373 -0.0044928 9.98528 -0.236043 27 1 
695 1.20457 9.98543 -0.00229577 -0.00444468 9.98549 -0.776121 27 1 
696 1.20432 9.98636 -0.0022375 -0.00447893 9.9864 -1.21942 27 1 
697 1.20415 9.98798 -0.00227897 -0.00458877 9.988 -1.52637 27 1 
698 1.20407 9.99011 -0.00238866 -0.00474765 9.99012 -1.67142 27 1 
699 1.20408 9.99247 -0.00255076 -0.00494466 9.99248 -1.6636 27 1 
700 1.20417 9.99506 -0.00274844 -0.00515311 9.99507 -1.50618 27 1 
701 1.20434 9.99798 -0.00297393 -0.00536156 9.99801 -1.18783 27 1 
702 1.2046 10.001 -0.00324288 -0.00559771 10.0011 -0.721957 27 1 
703 1.20491 10.0037 -0.00355243 -0.00585321 10.0038 -0.159283 27 1 
704 1.20525 10.0058 -0.00386275 -0.0060833 10.0059 0.448342 27 1 
704 1.20525 10.0058 -0.00386275 -0.0060833 10.0059 0.448342 31 1 
705 1.20559 10.0071 -0.00413597 -0.00626577 10.0072 1.05738 31 1 
706 1.2059 10.0076 -0.00433056 -0.00636293 10.0076 1.63271 31 1 
707 1.20619 10.0073 -0.00442599 -0.0063664 10.0074 2.15301 31 1 
708 1.20643 10.0067 -0.00445652 -0.00631405 10.0067 2.59197 31 1 
709 1.20662 10.0058 -0.00444536 -0.00622318 10.0058 2.91834 31 1 
710 1.20672 10.0046 -0.00437658 -0.00609897 10.0046 3.10572 31 1 
711 1.20672 10.0027 -0.0042367 -0.00591625 10.0027 3.11483 31 1 
712 1.20662 9.99984 -0.00401245 -0.00564784 9.99986 2.91991 31 1 
713 1.20642 9.99664 -0.00369824 -0.00532295 9.99668 2.56205 31 1 
714 1.20616 9.99376 -0.00334635 -0.00499476 9.99382 2.10313 31 1 
715 1.20587 9.9918 -0.00301252 -0.00467686 9.99188 1.56708 31 1 
716 1.20554 9.99046 -0.00270222 -0.00441102 9.99055 0.974548 31 1 
717 1.20519 9.98936 -0.00241954 -0.0042183 9.98945 0.349323 31 1 
718 1.20485 9.98858 -0.00218945 -0.00407213 9.98866 -0.275487 31 1 
719 1.20453 9.98832 -0.00200511 -0.00397671 9.98838 -0.842521 31 1 
720 1.20427 9.98889 -0.00187777 -0.00394296 9.98892 -1.30995 31 1 
721 1.20409 9.99022 -0.00184527 -0.00399776 9.99023 -1.64846 31 1 
722 1.20399 9.99209 -0.00189859 -0.00413712 9.9921 -1.82644 31 1 
723 1.20398 9.99457 -0.00202666 -0.00433179 9.99458 -1.83533 31 1 
724 1.20407 9.99738 -0.00223716 -0.00458811 9.9974 -1.67558 31 1 
725 1.20425 10.0003 -0.00249393 -0.00487894 10.0003 -1.35821 31 1 
726 1.2045 10.0031 -0.00277208 -0.00516804 10.0032 -0.906086 31 1 
727 1.2048 10.0056 -0.00310497 -0.0054626 10.0056 -0.355707 31 1 
728 1.20514 10.0075 -0.00344106 -0.00573997 10.0076 0.250118 31 1 
728 1.20514 10.0075 -0.00344106 -0.00573997 10.0076 0.250118 31 1 
729 1.20549 10.0088 -0.00372474 -0.00595799 10.0089 0.888407 31 1 
730 1.20584 10.0095 -0.00398472 -0.006119 10.0096 1.52012 31 1 
731 1.20616 10.01 -0.00418074 -0.00622555 10.01 2.09741 31 1 
732 1.20644 10.0096 -0.00429395 -0.006237 10.0097 2.59362 31 1 
733 1.20664 10.0086 -0.00437824 -0.00620318 10.0086 2.9687 31 1 
734 1.20676 10.0071 -0.0043901 -0.00612769 10.0071 3.18395 31 1 
735 1.20679 10.0048 -0.00430183 -0.00595035 10.0049 3.23241 31 1 
736 1.20672 10.002 -0.00414401 -0.00571935 10.002 3.1029 31 1 
737 1.20656 9.99903 -0.00391377 -0.00543482 9.99906 2.81007 31 1 
738 1.20634 9.99627 -0.00361724 -0.00513237 9.99631 2.41145 31 1 
739 1.20607 9.9943 -0.00333772 -0.0048719 9.99436 1.93421 31 1 
740 1.20577 9.9928 -0.00311801 -0.00465743 9.99287 1.39245 31 1 
741 1.20545 9.99125 -0.00289577 -0.00448753 9.99133 0.806074 31 1 
742 1.20511 9.99001 -0.00270404 -0.00433581 9.99007 0.194454 31 1 
743 1.2048 9.98938 -0.00254325 -0.00422324 9.98943 -0.360328 31 1 
744 1.20456 9.98973 -0.00240961 -0.0041774 9.98977 -0.791167 31 1 
745 1.20439 9.99101 -0.00240064 -0.00421543 9.99102 -1.09491 31 1 
746 1.2043 9.99278 -0.00248325 -0.00435798 9.99279 -1.26381 31 1 
747 1.20429 9.99497 -0.00263867 -0.00456966 9.99498 -1.28611 31 1 
748 1.20436 9.99725 -0.00284781 -0.00480215 9.99726 -1.1525 31 1 
749 1.20451 9.99954 -0.00305191 -0.00503724 9.99957 -0.884162 31 1 
750 1.20472 10.0018 -0.0032806 -0.005262 10.0019 -0.509351 31 1 
751 1.20498 10.0037 -0.00352107 -0.00547399 10.0037 -0.0390561 31 1 
752 1.20527 10.0055 -0.00376483 -0.00568188 10.0056 0.493426 31 1 
752 1.20527 10.0055 -0.00376483 -0.00568188 10.0056 0.493426 31 1 
753 1.20559 10.0072 -0.00397664 -0.00584986 10.0072 1.06391 31 1 
754 1.20589 10.0079 -0.00414288 -0.00595102 10.0079 1.61094 31 1 
755 1.20614 10.008 -0.00424555 -0.00596599 10.008 2.05547 31 1 
756 1.20633 10.0071 -0.00425958 -0.00592015 10.0071 2.40854 31 1 
757 1.20646 10.0055 -0.00422008 -0.00579912 10.0056 2.6439 31 1 
758 1.2065 10.0038 -0.00408558 -0.00557465 10.0038 2.7175 31 1 
759 1.20647 10.0016 -0.00387882 -0.00531486 10.0016 2.65431 31 1 
760 1.20636 9.99938 -0.00365541 -0.00502898 9.9994 2.45725 31 1 
761 1.20618 9.99734 -0.00339706 -0.00475179 9.99738 2.12463 31 1 
762 1.20593 9.99499 -0.0030886 -0.00442408 9.99505 1.67366 31 1 
763 1.20561 9.99258 -0.00278267 -0.0040982 9.99265 1.10037 31 1 
764 1.20526 9.99036 -0.00249448 -0.00383976 9.99045 0.46903 31 1 
765 1.20494 9.98907 -0.00220912 -0.00357524 9.98914 -0.113585 31 1 
766 1.20464 9.98907 -0.00195884 -0.0033821 9.98913 -0.649964 31 1 
767 1.20438 9.9894 -0.00183998 -0.00333301 9.98944 -1.12357 31 1 
768 1.20417 9.98985 -0.00179095 -0.00330825 9.98987 -1.50566 31 1 
769 1.20401 9.99102 -0.00175061 -0.00332738 9.99103 -1.78148 31 1 
770 1.20395 9.99263 -0.00179486 -0.0034626 9.99263 -1.88986 31 1 
771 1.20398 9.99486 -0.00190014 -0.00359344 9.99486 -1.83354 31 1 
772 1.2041 9.99714 -0.00206481 -0.00375836 9.99716 -1.62484 31 1 
773 1.20429 9.99931 -0.00229506 -0.00404638 9.99935 -1.28492 31 1 
774 1.20454 10.002 -0.00254513 -0.0043018 10.0021 -0.831901 31 1 
775 1.20485 10.0039 -0.00275701 -0.00444592 10.004 -0.276697 31 1 
776 1.20516 10.0052 -0.0030093 -0.00467888 10.0053 0.295551 31 1 
776 1.20516 10.0052 -0.0030093 -0.00467888 10.0053 0.295551 31 1 
777 1.20548 10.0064 -0.00324108 -0.0048929 10.0065 0.862594 31 1 
778 1.20579 10.0063 -0.00339668 -0.00499397 10.0064 1.42689 31 1 
779 1.20604 10.0061 -0.00354796 -0.00511038 10.0062 1.88605 31 1 
780 1.20624 10.0053 -0.00366063 -0.00518033 10.0053 2.23844 31 1 
781 1.20638 10.0037 -0.00364785 -0.00507894 10.0037 2.49361 31 1 
782 1.20643 10.0023 -0.00361608 -0.0050248 10.0023 2.58981 31 1 
783 1.20641 10.0003 -0.00357202 -0.00494101 10.0003 2.55445 31 1 
784 1.20632 9.99817 -0.00345462 -0.00477679 9.99818 2.38506 31 1 
785 1.20613 9.99605 -0.00332865 -0.00466591 9.99607 2.04537 31 1 
786 1.20589 9.99401 -0.00318065 -0.00449678 9.99404 1.61629 31 1 
787 1.20565 9.99264 -0.00304296 -0.00431106 9.99268 1.16742 31 1 
788 1.20539 9.99188 -0.0028863 -0.00417382 9.99192 0.702356 31 1 
789 1.20515 9.99169 -0.00279947 -0.00411696 9.99172 0.26563 31 1 
790 1.20494 9.99145 -0.00275664 -0.0040326 9.99148 -0.105463 31 1 
791 1.20477 9.99145 -0.00263893 -0.00397724 9.99146 -0.4129 31 1 
792 1.20466 9.99211 -0.0027054 -0.00414525 9.99212 -0.616845 31 1 
793 1.20465 9.99301 -0.00277118 -0.00419495 9.99301 -0.640987 31 1 
794 1.2047 9.99418 -0.00269151 -0.00409535 9.99418 -0.535813 31 1 
795 1.2048 9.99579 -0.00283612 -0.0043055 9.9958 -0.352724 31 1 
796 1.20497 9.9963 -0.00329236 -0.00476005 9.99632 -0.0492256 31 1 
797 1.20513 9.99668 -0.00341251 -0.00485004 9.9967 0.232602 31 1 
798 1.20523 9.99822 -0.00331478 -0.00473794 9.99824 0.422999 31 1 
799 1.20537 9.99901 -0.00309545 -0.00448817 9.99902 0.665271 31 1 
800 1.20545 9.99912 -0.00278871 -0.00418567 9.99913 0.811803 31 1 
