10.8678;r ;Density                 ;Velocity u              ;Velocity v              ;Velocity w              ;|Velocity|              ;Pressure                ;Distribution            ;Levels                  ;
0 1.20432 9.98977 -7.52206e-05 -8.12985e-05 9.98977 -1.22069 1 1 
1.33334 1.20444 9.99011 0.000391097 0.000386664 9.99011 -1.01051 1 1 
2.66666 1.20457 10.0001 0.000907683 0.000938371 10.0001 -0.776766 1 1 
4 1.20486 10.0086 0.000343683 0.00040858 10.0086 -0.258834 1 1 
5.33334 1.20498 10.0053 -0.000331894 -0.00028233 10.0053 -0.0349575 1 1 
6.66666 1.20448 10.0016 -7.0399e-05 -6.63919e-05 10.0016 -0.944321 1 1 
8 1.20433 9.99338 -1.35935e-05 -3.07404e-05 9.99338 -1.20892 1 1 
9.33334 1.20467 9.99234 -0.00108707 -0.00108749 9.99234 -0.587255 1 1 
10.6667 1.20471 10.0095 -0.00199242 -0.00196874 10.0095 -0.523963 1 1 
12 1.20488 10.0115 -0.00155566 -0.00152241 10.0115 -0.223842 1 1 
13.3333 1.205 9.99467 -0.00051546 -0.000488355 9.99467 0.00398257 1 1 
14.6667 1.2044 9.99307 0.000143133 0.000166565 9.99307 -1.08938 1 1 
16 1.20426 9.99723 0.000280066 0.000296547 9.99723 -1.33562 1 1 
17.3333 1.20497 10.0001 0.000241351 0.000250419 10.0001 -0.0500915 1 1 
18.6667 1.20529 10.0154 0.000175629 0.000178132 10.0154 0.521046 1 1 
20 1.20519 10.0234 0.00010878 0.000101649 10.0234 0.343993 1 1 
21.3333 1.20506 10.0114 6.11376e-05 4.59521e-05 10.0114 0.108537 1 1 
21.3333 1.20506 10.0114 6.11376e-05 4.59521e-05 10.0114 0.108537 1 1 
22.6667 1.20483 9.99972 2.37476e-05 6.79815e-06 9.99972 -0.309889 1 1 
24 1.20474 10.0025 7.50279e-05 5.93834e-05 10.0025 -0.469882 1 1 
25.3333 1.20496 10.0151 0.000221902 0.000203631 10.0151 -0.0766744 1 1 
26.6667 1.20539 10.0232 0.000451339 0.000431282 10.0232 0.706751 1 1 
28 1.20554 10.0233 0.00074948 0.000727746 10.0233 0.982491 1 1 
29.3333 1.20517 10.0203 0.000992256 0.000966834 10.0203 0.309371 1 1 
30.6667 1.20497 10.0124 0.00108971 0.00106458 10.0124 -0.0595299 1 1 
32 1.20506 10.0112 0.00111297 0.00108763 10.0112 0.108226 1 1 
33.3333 1.20522 10.0229 0.00112916 0.00110431 10.0229 0.390306 1 1 
34.6667 1.20553 10.0317 0.00114197 0.00111772 10.0317 0.958692 1 1 
36 1.20557 10.0329 0.00117387 0.00115269 10.0329 1.0247 1 1 
37.3333 1.20524 10.0253 0.00117023 0.00115552 10.0253 0.433098 1 1 
38.6667 1.20489 10.0128 0.0011051 0.00109517 10.0128 -0.203595 1 1 
40 1.20466 10.0072 0.00104995 0.00104855 10.0072 -0.62026 1 1 
41.3333 1.20479 10.0106 0.000957415 0.000965383 10.0106 -0.386555 1 1 
42.6667 1.2051 10.0219 0.000823178 0.000834068 10.0219 0.182323 1 1 
42.6667 1.2051 10.0219 0.000823178 0.000834068 10.0219 0.182323 2 1 
44 1.20535 10.0323 0.000602307 0.000619282 10.0323 0.63215 2 1 
45.3333 1.20544 10.0333 0.000243993 0.000265721 10.0333 0.789116 2 1 
46.6667 1.20522 10.0275 -2.60166e-05 1.13934e-06 10.0275 0.397181 2 1 
48 1.20494 10.02 -0.000196454 -0.000167897 10.02 -0.106787 2 1 
49.3333 1.20487 10.0157 -0.000223937 -0.000197407 10.0157 -0.23995 2 1 
50.6667 1.20499 10.021 -6.67312e-05 -4.18274e-05 10.021 -0.0122652 2 1 
52 1.2053 10.0331 0.000138668 0.000154088 10.0331 0.550378 2 1 
53.3333 1.20566 10.0442 0.000451491 0.000469031 10.0442 1.19726 2 1 
54.6667 1.20584 10.0497 0.000848692 0.000861984 10.0497 1.51407 2 1 
56 1.20578 10.0478 0.00127188 0.00128057 10.0478 1.41019 2 1 
57.3333 1.2056 10.041 0.00163123 0.0016374 10.041 1.08798 2 1 
58.6667 1.20538 10.0358 0.00184774 0.00184704 10.0358 0.687074 2 1 
60 1.20537 10.0347 0.00192832 0.00192449 10.0347 0.669311 2 1 
61.3333 1.2056 10.0386 0.00189703 0.00188692 10.0386 1.09214 2 1 
62.6667 1.20583 10.0498 0.00177862 0.00177406 10.0498 1.49757 2 1 
64 1.20608 10.0594 0.00160698 0.00160058 10.0594 1.94948 2 1 
64 1.20608 10.0594 0.00160698 0.00160058 10.0594 1.94948 2 1 
65.3333 1.20622 10.0625 0.00138648 0.00138199 10.0625 2.20017 2 1 
66.6667 1.20612 10.0575 0.00114711 0.00114649 10.0575 2.02078 2 1 
68 1.20577 10.047 0.000931608 0.000925735 10.047 1.39377 2 1 
69.3333 1.20529 10.0328 0.000734953 0.000729483 10.0328 0.52693 2 1 
70.6667 1.20488 10.0169 0.00060645 0.000601465 10.0169 -0.224927 2 1 
72 1.20457 10.0058 0.000498263 0.000491896 10.0058 -0.785385 2 1 
73.3333 1.20438 10.0015 0.000459948 0.000454783 10.0015 -1.11889 2 1 
74.6667 1.20441 10.0031 0.000451193 0.000450952 10.0031 -1.07045 2 1 
76 1.20465 10.0088 0.000414248 0.000411357 10.0088 -0.638844 2 1 
77.3333 1.2049 10.0187 0.000405546 0.00039891 10.0187 -0.171979 2 1 
78.6667 1.20518 10.0288 0.000401314 0.000392449 10.0288 0.329675 2 1 
80 1.20541 10.0375 0.000438285 0.000430633 10.0375 0.743458 2 1 
81.3333 1.20558 10.0428 0.000477131 0.000471427 10.0428 1.04517 2 1 
82.6667 1.20567 10.0439 0.000488715 0.000479548 10.0439 1.21369 2 1 
84 1.20559 10.0438 0.000465386 0.000454054 10.0438 1.06567 2 1 
85.3333 1.2055 10.0403 0.000444931 0.000434532 10.0403 0.900436 2 1 
85.3333 1.2055 10.0403 0.000444931 0.000434532 10.0403 0.900436 3 1 
86.6667 1.20541 10.0343 0.000464203 0.000456321 10.0343 0.746053 3 1 
88 1.20525 10.0302 0.000480524 0.000467576 10.0302 0.444202 3 1 
89.3333 1.20508 10.0262 0.000517107 0.000504809 10.0262 0.150852 3 1 
90.6667 1.20501 10.021 0.000496063 0.000485373 10.021 0.0118232 3 1 
92 1.2049 10.0176 0.000434865 0.0004215 10.0176 -0.18884 3 1 
93.3333 1.20483 10.0149 0.000460509 0.000443752 10.0149 -0.312733 3 1 
94.6667 1.2048 10.0128 0.000472944 0.000451943 10.0128 -0.362695 3 1 
96 1.20474 10.0123 0.000491314 0.000478183 10.0123 -0.478298 3 1 
97.3333 1.20473 10.0117 0.000511764 0.000495934 10.0117 -0.496108 3 1 
98.6667 1.2047 10.011 0.000451452 0.000435685 10.011 -0.54103 3 1 
100 1.20471 10.0099 0.000457264 0.000434617 10.0099 -0.52996 3 1 
101.333 1.20471 10.0091 0.000465145 0.000441684 10.0091 -0.524453 3 1 
102.667 1.20471 10.0087 0.000463607 0.00044611 10.0087 -0.529589 3 1 
104 1.20468 10.0096 0.000510557 0.000487439 10.0096 -0.571851 3 1 
105.333 1.20468 10.0099 0.000480035 0.000461121 10.0099 -0.569665 3 1 
106.667 1.2047 10.0101 0.000473186 0.000446599 10.0101 -0.542057 3 1 
106.667 1.2047 10.0101 0.000473186 0.000446599 10.0101 -0.542057 3 1 
108 1.2047 10.0099 0.000462294 0.000439913 10.0099 -0.53878 3 1 
109.333 1.20473 10.0085 0.000464454 0.000440391 10.0085 -0.496283 3 1 
110.667 1.2047 10.0086 0.000488181 0.000461575 10.0086 -0.53771 3 1 
112 1.20469 10.0092 0.000494358 0.000472658 10.0092 -0.554254 3 1 
113.333 1.2047 10.009 0.000498084 0.000471591 10.009 -0.535353 3 1 
114.667 1.20471 10.0093 0.000471353 0.000450356 10.0093 -0.516528 3 1 
116 1.2047 10.0099 0.00049395 0.000466087 10.0099 -0.545115 3 1 
117.333 1.20472 10.0081 0.000480544 0.000452955 10.0081 -0.504686 3 1 
118.667 1.20471 10.0087 0.000507236 0.000480625 10.0087 -0.518306 3 1 
120 1.20471 10.0088 0.000492377 0.000473528 10.0088 -0.515024 3 1 
121.333 1.20471 10.0084 0.000489664 0.000467199 10.0084 -0.525912 3 1 
122.667 1.2047 10.0096 0.000516243 0.000481779 10.0096 -0.541613 3 1 
124 1.20474 10.0081 0.000512212 0.000486625 10.0081 -0.471712 3 1 
125.333 1.20468 10.009 0.000520665 0.000499763 10.009 -0.569065 3 1 
126.667 1.20471 10.0087 0.000485818 0.000462394 10.0087 -0.518159 3 1 
128 1.20475 10.0075 0.000503727 0.000470546 10.0075 -0.446261 3 1 
128 1.20475 10.0075 0.000503727 0.000470546 10.0075 -0.446261 3 1 
129.333 1.20471 10.0084 0.000513609 0.000488739 10.0084 -0.528043 3 1 
130.667 1.20471 10.0084 0.000554555 0.000527904 10.0084 -0.532516 3 1 
132 1.20472 10.0085 0.000556084 0.000532355 10.0085 -0.513865 3 1 
133.333 1.20471 10.0085 0.000526851 0.000498761 10.0085 -0.518844 3 1 
134.667 1.20473 10.008 0.000500812 0.00047304 10.008 -0.482429 3 1 
136 1.20474 10.0072 0.000503898 0.000474873 10.0072 -0.46516 3 1 
137.333 1.2047 10.0078 0.000551755 0.000524804 10.0078 -0.53826 3 1 
138.667 1.20472 10.0078 0.00056819 0.000541446 10.0078 -0.514377 3 1 
140 1.20473 10.008 0.000575506 0.000550384 10.008 -0.487765 3 1 
141.333 1.20473 10.0078 0.000543002 0.000519995 10.0078 -0.490686 3 1 
142.667 1.20475 10.0069 0.000523429 0.00048711 10.0069 -0.460023 3 1 
144 1.20472 10.0076 0.000537627 0.000521021 10.0076 -0.51249 3 1 
145.333 1.20473 10.0069 0.00057819 0.000560981 10.0069 -0.492512 3 1 
146.667 1.20475 10.0067 0.000584921 0.000568235 10.0067 -0.456536 3 1 
148 1.20472 10.0073 0.0005669 0.000539451 10.0073 -0.499758 3 1 
149.333 1.20473 10.0068 0.000547093 0.00052273 10.0068 -0.484832 3 1 
149.333 1.20473 10.0068 0.000547093 0.00052273 10.0068 -0.484832 3 1 
150.667 1.20475 10.0067 0.000550556 0.000525338 10.0067 -0.456643 3 1 
152 1.20475 10.0061 0.000578555 0.000549709 10.0061 -0.446676 3 1 
153.333 1.20475 10.0058 0.000604856 0.000585268 10.0058 -0.454089 3 1 
154.667 1.20473 10.0065 0.00058242 0.000558641 10.0065 -0.492525 3 1 
156 1.20474 10.0063 0.000576749 0.000549147 10.0063 -0.468253 3 1 
157.333 1.20476 10.0058 0.000581658 0.000552869 10.0058 -0.439319 3 1 
158.667 1.20477 10.0055 0.000595456 0.000584489 10.0055 -0.421994 3 1 
160 1.20477 10.0051 0.000616642 0.000598051 10.0051 -0.420728 3 1 
161.333 1.20475 10.0055 0.000586608 0.000564884 10.0055 -0.457008 3 1 
162.667 1.20476 10.005 0.000600726 0.000578739 10.005 -0.439753 3 1 
164 1.20477 10.0039 0.000602798 0.000570511 10.0039 -0.420995 3 1 
165.333 1.20477 10.0042 0.000615618 0.000580409 10.0042 -0.415213 3 1 
166.667 1.20478 10.0038 0.000624959 0.000599022 10.0038 -0.397862 3 1 
168 1.20476 10.0041 0.000614647 0.000584451 10.0041 -0.427664 3 1 
169.333 1.20478 10.004 0.000598813 0.00056313 10.004 -0.402957 3 1 
170.667 1.2048 10.0034 0.000625825 0.000600801 10.0034 -0.367958 3 1 
170.667 1.2048 10.0034 0.000625825 0.000600801 10.0034 -0.367958 11 1 
172 1.20477 10.004 0.000650915 0.00061396 10.004 -0.407593 11 1 
173.333 1.20478 10.0034 0.000664731 0.000624524 10.0034 -0.391996 11 1 
174.667 1.2048 10.0026 0.000644136 0.000613301 10.0026 -0.363236 11 1 
176 1.2048 10.002 0.000618006 0.000585496 10.002 -0.359365 11 1 
177.333 1.2048 10.0011 0.000627815 0.000587455 10.0011 -0.356797 11 1 
178.667 1.20479 10.0003 0.000635366 0.000597763 10.0003 -0.374254 11 1 
180 1.2048 10.0004 0.000663418 0.000630506 10.0004 -0.365145 11 1 
181.333 1.20481 10.0021 0.000663442 0.000612668 10.0021 -0.334767 11 1 
182.667 1.20482 10.0027 0.000705049 0.000670761 10.0027 -0.320963 11 1 
184 1.20483 10.0008 0.00069621 0.000670824 10.0008 -0.302941 11 1 
185.333 1.20481 9.99908 0.000666968 0.000624809 9.99908 -0.343831 11 1 
186.667 1.20481 9.99739 0.000631229 0.00058717 9.99739 -0.341906 11 1 
188 1.20484 9.99727 0.000644207 0.000605905 9.99727 -0.289497 11 1 
189.333 1.20484 9.99942 0.000687364 0.000643785 9.99942 -0.287692 11 1 
190.667 1.20484 9.99957 0.000699744 0.000644231 9.99957 -0.28235 11 1 
192 1.20484 9.99783 0.000723367 0.000701591 9.99783 -0.287182 11 1 
192 1.20484 9.99783 0.000723367 0.000701591 9.99783 -0.287182 11 1 
193.333 1.20485 9.99669 0.000729301 0.000680863 9.99669 -0.276399 11 1 
194.667 1.20485 9.99579 0.00066694 0.000619024 9.99579 -0.272812 11 1 
196 1.20485 9.99494 0.00068228 0.000652691 9.99494 -0.264648 11 1 
197.333 1.20486 9.99584 0.000761657 0.000726004 9.99585 -0.248158 11 1 
198.667 1.20488 9.99549 0.000677694 0.000640724 9.99549 -0.216421 11 1 
200 1.20489 9.99462 0.000787959 0.000741619 9.99462 -0.204926 11 1 
201.333 1.20486 9.99394 0.000771974 0.0007494 9.99394 -0.244834 11 1 
202.667 1.20488 9.99037 0.000627222 0.000568844 9.99037 -0.217795 11 1 
204 1.20488 9.9893 0.000735795 0.000685923 9.9893 -0.213292 11 1 
205.333 1.20489 9.99099 0.00072098 0.000699511 9.99099 -0.20521 11 1 
206.667 1.20493 9.99167 0.000756671 0.000730609 9.99168 -0.122361 11 1 
208 1.20491 9.99288 0.000856798 0.000811834 9.99288 -0.159985 11 1 
209.333 1.2049 9.99156 0.000779515 0.000731275 9.99156 -0.174274 11 1 
210.667 1.20494 9.98694 0.000780219 0.000757137 9.98694 -0.108166 11 1 
212 1.20492 9.98413 0.000787375 0.000743064 9.98413 -0.138026 11 1 
213.333 1.20491 9.98351 0.000762109 0.000710979 9.98351 -0.153763 11 1 
213.333 1.20491 9.98351 0.000762109 0.000710979 9.98351 -0.153763 11 1 
214.667 1.20495 9.98294 0.000775885 0.000766377 9.98294 -0.0926491 11 1 
216 1.20496 9.98323 0.000776075 0.000770426 9.98324 -0.0799222 11 1 
217.333 1.20495 9.98448 0.000802917 0.000736709 9.98448 -0.0927021 11 1 
218.667 1.205 9.98324 0.000808814 0.000755826 9.98324 -0.00649452 11 1 
220 1.205 9.98179 0.000843487 0.000850462 9.98179 -0.00358014 11 1 
221.333 1.20498 9.97955 0.000881331 0.000850353 9.97955 -0.0319889 11 1 
222.667 1.20501 9.97408 0.0008603 0.000785539 9.97408 0.0101636 11 1 
224 1.20499 9.97284 0.000800039 0.000778854 9.97284 -0.0215087 11 1 
225.333 1.20501 9.97303 0.00080125 0.00080515 9.97303 0.0219674 11 1 
226.667 1.20506 9.97243 0.000833325 0.000775272 9.97243 0.109028 11 1 
228 1.20506 9.97367 0.000899538 0.000840381 9.97367 0.104032 11 1 
229.333 1.20508 9.96925 0.000893691 0.000896028 9.96925 0.142816 11 1 
230.667 1.20509 9.96433 0.000809808 0.000815179 9.96433 0.156816 11 1 
232 1.20506 9.96288 0.000787922 0.000738327 9.96288 0.10282 11 1 
233.333 1.2051 9.96115 0.000823989 0.000764764 9.96116 0.185047 11 1 
234.667 1.20518 9.96016 0.000931796 0.000916978 9.96016 0.318407 11 1 
234.667 1.20518 9.96016 0.000931796 0.000916978 9.96016 0.318407 11 1 
236 1.20514 9.95929 0.000934686 0.000933073 9.95929 0.247044 11 1 
237.333 1.20516 9.95479 0.00089236 0.00085814 9.95479 0.282193 11 1 
238.667 1.20521 9.94884 0.000804406 0.000754798 9.94884 0.383195 11 1 
240 1.20518 9.94716 0.0007779 0.000763403 9.94716 0.318338 11 1 
241.333 1.20525 9.94312 0.000838619 0.000807741 9.94312 0.452815 11 1 
242.667 1.20527 9.94279 0.000904506 0.000867686 9.94279 0.481125 11 1 
244 1.2053 9.93917 0.000886965 0.000856264 9.93917 0.533307 11 1 
245.333 1.20532 9.93275 0.0007945 0.000761607 9.93275 0.577243 11 1 
246.667 1.20532 9.92885 0.000861218 0.000839532 9.92885 0.573645 11 1 
248 1.2054 9.92315 0.000774143 0.000731349 9.92315 0.723882 11 1 
249.333 1.2054 9.92056 0.000874147 0.000858925 9.92056 0.729402 11 1 
250.667 1.20546 9.91453 0.00093955 0.000932498 9.91453 0.824876 11 1 
252 1.20547 9.90983 0.000714242 0.000684916 9.90983 0.855809 11 1 
253.333 1.20555 9.90078 0.00080655 0.000792936 9.90078 0.997591 11 1 
254.667 1.20557 9.89561 0.000822768 0.000808672 9.89561 1.0362 11 1 
256 1.20559 9.89067 0.000775111 0.000737483 9.89067 1.06894 11 1 
256 1.20559 9.89067 0.000775111 0.000737483 9.89067 1.06894 13 1 
257.333 1.20571 9.88113 0.000834571 0.000799916 9.88113 1.29104 13 1 
258.667 1.20573 9.87504 0.000733352 0.000721895 9.87504 1.3113 13 1 
260 1.20578 9.86534 0.000723332 0.000681889 9.86534 1.40015 13 1 
261.333 1.20588 9.85358 0.000807849 0.00073583 9.85359 1.58426 13 1 
262.667 1.20595 9.84245 0.000767752 0.000743549 9.84245 1.72106 13 1 
264 1.20596 9.83633 0.000725221 0.000715064 9.83633 1.72577 13 1 
265.333 1.20608 9.82456 0.000714479 0.000662892 9.82457 1.95154 13 1 
266.667 1.20627 9.80581 0.000710705 0.000688282 9.80581 2.29303 13 1 
268 1.20621 9.79446 0.00067752 0.000700726 9.79446 2.18665 13 1 
269.333 1.20633 9.77955 0.000674892 0.000657214 9.77955 2.39395 13 1 
270.667 1.20666 9.75557 0.00064151 0.000614424 9.75557 2.9917 13 1 
272 1.20651 9.74834 0.000627272 0.000641951 9.74834 2.72221 13 1 
273.333 1.20668 9.72577 0.000650823 0.000636341 9.72578 3.04138 13 1 
274.667 1.20713 9.6928 0.000611342 0.000559271 9.69281 3.84574 13 1 
276 1.20698 9.67925 0.000598983 0.000588864 9.67925 3.5699 13 1 
277.333 1.20719 9.64453 0.00056959 0.000577433 9.64454 3.96104 13 1 
277.333 1.20719 9.64453 0.00056959 0.000577433 9.64454 3.96104 13 1 
278.667 1.20758 9.61139 0.000564338 0.000527506 9.6114 4.65293 13 1 
280 1.20763 9.58139 0.000557008 0.000517906 9.5814 4.74886 13 1 
281.333 1.20785 9.53685 0.000523252 0.000511582 9.53686 5.1396 13 1 
282.667 1.20813 9.50512 0.00050406 0.000488831 9.50513 5.65934 13 1 
284 1.20854 9.47322 0.000495816 0.000473684 9.47322 6.40204 13 1 
285.333 1.20895 9.42976 0.000490453 0.000485946 9.42979 7.13673 13 1 
286.667 1.20911 9.36636 0.00045527 0.000454046 9.36647 7.42031 13 1 
288 1.20932 9.2851 0.000435723 0.000423578 9.28519 7.80639 13 1 
289.333 1.20979 9.22401 0.000409762 0.000405553 9.22402 8.64324 13 1 
290.667 1.21043 9.1697 0.000379461 0.000384697 9.16971 9.80999 13 1 
292 1.21091 9.09811 0.000386145 0.000389334 9.09814 10.6776 13 1 
293.333 1.21115 9.02696 0.000367865 0.000369064 9.02701 11.1152 13 1 
294.667 1.21166 8.93695 0.000350934 0.000354804 8.93707 12.0208 13 1 
296 1.21234 8.83986 0.000311195 0.000307247 8.83995 13.251 13 1 
297.333 1.21272 8.76306 0.000320067 0.000300842 8.76308 13.9403 13 1 
298.667 1.20815 8.63661 0.000305064 0.000291779 8.6367 5.68791 13 1 
298.667 1.20815 8.63661 0.000305064 0.000291779 8.6367 5.68791 14 1 
300 1.20054 8.60111 0.000242802 0.000238953 8.60117 -8.04823 14 1 
301.333 1.19784 8.61464 0.000282088 0.000268833 8.61469 -12.9402 14 1 
302.667 1.19849 8.53706 0.000226446 0.000210143 8.53711 -11.7522 14 1 
304 1.199 8.4503 0.000211048 0.000203266 8.45036 -10.8355 14 1 
305.333 1.19932 8.3634 0.000211271 0.000201723 8.36352 -10.2526 14 1 
306.667 1.19973 8.29137 0.000128979 0.00011719 8.29145 -9.51939 14 1 
308 1.20006 8.21245 0.00015395 0.000143489 8.21247 -8.92562 14 1 
309.333 1.20043 8.14949 0.000103177 9.68761e-05 8.1495 -8.25658 14 1 
310.667 1.20085 8.10158 9.12752e-05 9.87847e-05 8.10159 -7.49507 14 1 
312 1.20118 8.04503 9.68718e-05 9.06815e-05 8.04503 -6.89805 14 1 
313.333 1.20148 8.0015 5.23903e-05 3.2101e-05 8.00151 -6.35898 14 1 
314.667 1.20178 7.95857 7.10958e-05 8.16762e-05 7.95858 -5.81806 14 1 
316 1.20195 7.9061 1.01679e-05 2.7762e-05 7.90614 -5.502 14 1 
317.333 1.20213 7.86564 -5.11261e-06 -2.12112e-05 7.86567 -5.19133 14 1 
318.667 1.2024 7.82873 1.52726e-05 9.73255e-06 7.82875 -4.69781 14 1 
320 1.20257 7.78824 -9.72569e-06 6.59574e-06 7.78826 -4.38725 14 1 
320 1.20257 7.78824 -9.72569e-06 6.59574e-06 7.78826 -4.38725 14 1 
321.333 1.20263 7.75469 -3.63915e-05 -4.36698e-05 7.75472 -4.285 14 1 
322.667 1.20278 7.7234 -4.56409e-05 -6.45595e-05 7.72342 -4.00693 14 1 
324 1.20296 7.69247 -4.74759e-05 -4.89823e-05 7.69248 -3.68756 14 1 
325.333 1.20303 7.67195 -7.70786e-05 -6.49873e-05 7.67195 -3.55099 14 1 
326.667 1.20315 7.65851 -9.40391e-05 -8.4139e-05 7.65851 -3.34403 14 1 
328 1.20332 7.64338 -9.97125e-05 -0.000103142 7.64338 -3.03663 14 1 
329.333 1.20341 7.62914 -0.000110879 -0.000113518 7.62914 -2.86687 14 1 
330.667 1.20345 7.61793 -0.000127703 -0.000103026 7.61794 -2.80267 14 1 
332 1.20353 7.61269 -0.000128352 -0.00010599 7.6127 -2.66305 14 1 
333.333 1.2037 7.61334 -0.000141209 -0.000142772 7.61334 -2.34128 14 1 
334.667 1.20384 7.60713 -0.000150902 -0.000135027 7.60713 -2.10339 14 1 
336 1.2038 7.59554 -0.000157872 -0.000124793 7.59554 -2.17102 14 1 
337.333 1.20381 7.58977 -0.000185137 -0.000176652 7.58977 -2.14965 14 1 
338.667 1.20396 7.58855 -0.000188113 -0.000192044 7.58855 -1.87526 14 1 
340 1.20409 7.58888 -0.000148088 -0.000127872 7.58888 -1.64719 14 1 
341.333 1.20409 7.57916 -0.000145912 -0.000120152 7.57916 -1.6385 14 1 
341.333 1.20409 7.57916 -0.000145912 -0.000120152 7.57916 -1.6385 15 1 
342.667 1.20403 7.5608 -0.000203449 -0.000192607 7.5608 -1.74641 15 1 
344 1.2041 7.55737 -0.000206639 -0.000185306 7.55737 -1.6171 15 1 
345.333 1.20424 7.55996 -0.00015899 -0.000119342 7.55996 -1.36469 15 1 
346.667 1.20425 7.55045 -0.00014944 -0.000120898 7.55045 -1.3593 15 1 
348 1.20423 7.53589 -0.000187369 -0.000171242 7.5359 -1.3922 15 1 
349.333 1.20424 7.52001 -0.000205485 -0.000172038 7.52001 -1.36501 15 1 
350.667 1.20428 7.5158 -0.00018265 -0.000136719 7.5158 -1.3058 15 1 
352 1.20437 7.52588 -0.000159041 -0.000126146 7.52588 -1.14241 15 1 
353.333 1.20438 7.5244 -0.000202937 -0.000173762 7.5244 -1.12283 15 1 
354.667 1.20435 7.51446 -0.000238204 -0.000197523 7.51446 -1.1786 15 1 
356 1.2044 7.51032 -0.000191153 -0.000149294 7.51032 -1.09267 15 1 
357.333 1.20443 7.50567 -0.000154265 -0.000117548 7.50567 -1.03106 15 1 
358.667 1.20444 7.50561 -0.000202186 -0.000163807 7.50561 -1.00345 15 1 
360 1.20447 7.51312 -0.000276362 -0.000233165 7.51312 -0.959885 15 1 
361.333 1.20449 7.52141 -0.0002859 -0.000247977 7.52141 -0.929649 15 1 
362.667 1.20452 7.52785 -0.000236622 -0.000207439 7.52785 -0.870048 15 1 
362.667 1.20452 7.52785 -0.000236622 -0.000207439 7.52785 -0.870048 15 1 
364 1.20455 7.5282 -0.000208423 -0.000170879 7.5282 -0.818684 15 1 
365.333 1.20457 7.53069 -0.000253036 -0.000204155 7.5307 -0.784487 15 1 
366.667 1.20457 7.54534 -0.000275898 -0.000241435 7.54535 -0.76781 15 1 
368 1.2046 7.56628 -0.000237301 -0.000212645 7.56629 -0.72299 15 1 
369.333 1.20466 7.58323 -0.000186965 -0.000139464 7.58323 -0.609298 15 1 
370.667 1.20467 7.58373 -0.000182724 -0.000120813 7.58373 -0.592546 15 1 
372 1.20467 7.5762 -0.000201781 -0.000148707 7.5762 -0.601837 15 1 
373.333 1.20472 7.58389 -0.000182328 -0.000130687 7.58389 -0.512064 15 1 
374.667 1.20473 7.60168 -0.000120753 -6.32991e-05 7.60168 -0.481504 15 1 
376 1.20475 7.61499 -8.55106e-05 -2.58737e-05 7.61499 -0.446752 15 1 
377.333 1.20479 7.61672 -8.9935e-05 -3.54187e-05 7.61673 -0.372605 15 1 
378.667 1.20479 7.60327 -9.8754e-05 -5.75641e-05 7.60328 -0.384029 15 1 
380 1.20481 7.59406 -8.17743e-05 -4.50271e-05 7.59406 -0.346583 15 1 
381.333 1.20485 7.60413 -5.12007e-05 -1.78845e-05 7.60413 -0.262734 15 1 
382.667 1.20487 7.62639 -6.56252e-05 -5.2189e-05 7.62639 -0.238974 15 1 
384 1.20491 7.65803 -8.19558e-05 -7.65013e-05 7.65804 -0.171643 15 1 
384 1.20491 7.65803 -8.19558e-05 -7.65013e-05 7.65804 -0.171643 15 1 
385.333 1.20496 7.69207 -9.19229e-05 -6.29139e-05 7.69208 -0.07341 15 1 
386.667 1.20501 7.72339 -0.000105352 -6.79599e-05 7.7234 0.0117257 15 1 
388 1.20508 7.75961 -0.000109974 -8.83207e-05 7.75963 0.149656 15 1 
389.333 1.20515 7.80368 -0.000116398 -8.31408e-05 7.80371 0.276747 15 1 
390.667 1.2052 7.85935 -0.00014393 -9.24596e-05 7.85938 0.363847 15 1 
392 1.20527 7.93077 -0.000129592 -9.52834e-05 7.93082 0.491983 15 1 
393.333 1.20536 8.01675 -8.52386e-05 -6.50638e-05 8.01683 0.642688 15 1 
394.667 1.20544 8.11788 -9.97009e-05 -7.16287e-05 8.11797 0.785749 15 1 
396 1.20551 8.23017 -0.00013396 -0.000117581 8.23027 0.923973 15 1 
397.333 1.20557 8.34913 -0.000113813 -0.000108832 8.34924 1.03344 15 1 
398.667 1.20561 8.4728 -6.29511e-05 -4.75489e-05 8.47292 1.09651 15 1 
400 1.20563 8.59574 -3.17544e-05 -2.67157e-05 8.59585 1.13818 15 1 
401.333 1.20566 8.71641 9.14279e-06 1.54886e-05 8.71651 1.18637 15 1 
402.667 1.20568 8.83236 2.69576e-05 6.06608e-05 8.83245 1.22176 15 1 
404 1.20568 8.93971 1.41426e-05 3.05111e-05 8.93978 1.22054 15 1 
405.333 1.20566 9.03904 4.37009e-05 4.18113e-05 9.03911 1.1842 15 1 
405.333 1.20566 9.03904 4.37009e-05 4.18113e-05 9.03911 1.1842 15 1 
406.667 1.20565 9.13006 0.000120297 0.000156876 9.13011 1.16945 15 1 
408 1.20565 9.21336 0.000142135 0.000187879 9.2134 1.16871 15 1 
409.333 1.20561 9.28851 0.000121701 0.000127385 9.28854 1.1024 15 1 
410.667 1.20557 9.35461 0.000154083 0.000159545 9.35464 1.03291 15 1 
412 1.20556 9.41452 0.000206211 0.000247925 9.41454 1.01707 15 1 
413.333 1.20555 9.46936 0.000207615 0.000243668 9.46937 0.994591 15 1 
414.667 1.20553 9.51773 0.000171307 0.000162296 9.51775 0.958859 15 1 
416 1.20551 9.55994 0.000187061 0.000177758 9.55995 0.912286 15 1 
417.333 1.20547 9.5983 0.000228346 0.000258264 9.59831 0.848655 15 1 
418.667 1.20545 9.63267 0.000246544 0.000269204 9.63268 0.812904 15 1 
420 1.20545 9.66291 0.000241418 0.000220532 9.66292 0.806915 15 1 
421.333 1.20543 9.68972 0.000225211 0.000202105 9.68972 0.78126 15 1 
422.667 1.20541 9.71311 0.000213118 0.000217119 9.71311 0.749021 15 1 
424 1.2054 9.73491 0.00021882 0.000217984 9.73491 0.719417 15 1 
425.333 1.20537 9.75392 0.000224792 0.00020314 9.75393 0.665775 15 1 
426.667 1.20535 9.77011 0.000225009 0.000208043 9.77011 0.636328 15 1 
426.667 1.20535 9.77011 0.000225009 0.000208043 9.77011 0.636328 20 1 
428 1.20535 9.7857 0.000243802 0.000239359 9.7857 0.625741 20 1 
429.333 1.20534 9.80021 0.000245806 0.00023504 9.80021 0.6178 20 1 
430.667 1.20534 9.81275 0.000229864 0.000216452 9.81275 0.617433 20 1 
432 1.20531 9.82392 0.000231577 0.000224502 9.82392 0.568105 20 1 
433.333 1.20529 9.83548 0.000255929 0.0002395 9.83548 0.529112 20 1 
434.667 1.2053 9.84619 0.0002753 0.000249988 9.84619 0.544666 20 1 
436 1.20529 9.85575 0.000265091 0.000249898 9.85575 0.529526 20 1 
437.333 1.20527 9.86432 0.000247596 0.000231802 9.86432 0.489199 20 1 
438.667 1.20527 9.87257 0.000275223 0.000248041 9.87257 0.492417 20 1 
440 1.20528 9.88117 0.000306701 0.000290617 9.88117 0.501446 20 1 
441.333 1.20527 9.88824 0.000303614 0.000291553 9.88824 0.493146 20 1 
442.667 1.20527 9.89581 0.000292108 0.000260043 9.89581 0.492221 20 1 
444 1.20525 9.90204 0.000279361 0.000247579 9.90204 0.453429 20 1 
445.333 1.20524 9.9068 0.0003005 0.000285418 9.9068 0.42957 20 1 
446.667 1.20525 9.91247 0.000336226 0.000320283 9.91247 0.447733 20 1 
448 1.20525 9.91756 0.000352814 0.000320274 9.91756 0.444586 20 1 
448 1.20525 9.91756 0.000352814 0.000320274 9.91756 0.444586 20 1 
449.333 1.20525 9.9233 0.0003626 0.000326132 9.9233 0.459774 20 1 
450.667 1.20525 9.92712 0.000331137 0.000303418 9.92712 0.448751 20 1 
452 1.20522 9.93045 0.000355634 0.000327409 9.93045 0.397624 20 1 
453.333 1.20521 9.93421 0.000409217 0.000374268 9.93421 0.386057 20 1 
454.667 1.20523 9.93739 0.000396397 0.000351692 9.93739 0.420389 20 1 
456 1.20524 9.94174 0.000379023 0.000340792 9.94174 0.435461 20 1 
457.333 1.20522 9.94367 0.000394489 0.000367505 9.94367 0.4008 20 1 
458.667 1.20522 9.9465 0.000431302 0.000385017 9.9465 0.38962 20 1 
460 1.20521 9.94981 0.000414056 0.000352814 9.94981 0.383545 20 1 
461.333 1.20521 9.95126 0.000399307 0.000360511 9.95126 0.374115 20 1 
462.667 1.20522 9.955 0.000393528 0.000353288 9.955 0.400749 20 1 
464 1.20522 9.95658 0.000415495 0.000342231 9.95658 0.391407 20 1 
465.333 1.2052 9.95792 0.000432269 0.000363945 9.95792 0.367258 20 1 
466.667 1.20521 9.96062 0.000413666 0.000374432 9.96062 0.370667 20 1 
468 1.2052 9.96208 0.000409143 0.000354127 9.96208 0.365115 20 1 
469.333 1.20521 9.96509 0.000403344 0.000303765 9.96509 0.371145 20 1 
469.333 1.20521 9.96509 0.000403344 0.000303765 9.96509 0.371145 20 1 
470.667 1.20521 9.96684 0.000417633 0.000342767 9.96684 0.374899 20 1 
472 1.20519 9.96677 0.000412955 0.000373776 9.96677 0.351844 20 1 
473.333 1.2052 9.96923 0.000402956 0.000309133 9.96923 0.352883 20 1 
474.667 1.20521 9.97185 0.000396011 0.0002789 9.97185 0.378763 20 1 
476 1.20521 9.9723 0.000409591 0.000343113 9.9723 0.375902 20 1 
477.333 1.20519 9.97431 0.000406373 0.000329455 9.97431 0.345448 20 1 
478.667 1.20518 9.97496 0.000394223 0.000274311 9.97496 0.329962 20 1 
480 1.2052 9.97614 0.000403072 0.00029349 9.97614 0.361797 20 1 
481.333 1.20521 9.97934 0.000399037 0.000305618 9.97934 0.382425 20 1 
482.667 1.20519 9.9784 0.000396409 0.000291019 9.9784 0.344484 20 1 
484 1.2052 9.98096 0.000389522 0.00026978 9.98096 0.364361 20 1 
485.333 1.2052 9.98176 0.000402594 0.000279607 9.98176 0.356115 20 1 
486.667 1.20518 9.98106 0.000406156 0.000276347 9.98106 0.316837 20 1 
488 1.20521 9.98528 0.000401046 0.000261197 9.98528 0.372752 20 1 
489.333 1.2052 9.98396 0.00039385 0.00026068 9.98396 0.367779 20 1 
490.667 1.20519 9.98571 0.000391879 0.000255218 9.98571 0.34407 20 1 
490.667 1.20519 9.98571 0.000391879 0.000255218 9.98571 0.34407 20 1 
492 1.20519 9.98713 0.000387452 0.000228003 9.98713 0.343208 20 1 
493.333 1.20519 9.98541 0.000395246 0.000235228 9.98541 0.341036 20 1 
494.667 1.2052 9.98978 0.000414984 0.000259646 9.98978 0.367831 20 1 
496 1.20519 9.98846 0.000384793 0.000221789 9.98846 0.343175 20 1 
497.333 1.20521 9.98966 0.000360284 0.000193091 9.98966 0.370738 20 1 
498.667 1.2052 9.99136 0.000381917 0.000204689 9.99136 0.35904 20 1 
500 1.20516 9.98864 0.000394685 0.00021586 9.98864 0.298052 20 1 
501.333 1.20521 9.99328 0.000391814 0.000219102 9.99328 0.373847 20 1 
502.667 1.2052 9.99192 0.000405103 0.000215856 9.99192 0.368052 20 1 
504 1.20518 9.99205 0.000393166 0.000192393 9.99205 0.325591 20 1 
505.333 1.2052 9.99483 0.000358145 0.000168054 9.99483 0.360726 20 1 
506.667 1.20519 9.99211 0.000357958 0.000164081 9.99211 0.34643 20 1 
508 1.20518 9.99538 0.000406541 0.000198486 9.99538 0.332437 20 1 
509.333 1.20519 9.9944 0.000403424 0.000197364 9.9944 0.335321 20 1 
510.667 1.20522 9.9949 0.00033984 0.000134719 9.9949 0.390557 20 1 
512 1.2052 9.99704 0.000348773 0.00013488 9.99704 0.353203 20 1 
512 1.2052 9.99704 0.000348773 0.00013488 9.99704 0.353203 21 1 
513.333 1.20515 9.99359 0.000395634 0.000183317 9.99359 0.273097 21 1 
514.667 1.2052 9.99755 0.000381889 0.000164581 9.99755 0.364552 21 1 
516 1.20521 9.99734 0.000362149 0.000135172 9.99734 0.380571 21 1 
517.333 1.20519 9.99635 0.000370489 0.000149085 9.99635 0.342022 21 1 
518.667 1.20518 9.99828 0.00035004 0.000129753 9.99828 0.331912 21 1 
520 1.20517 9.99588 0.000341304 0.00010849 9.99588 0.307823 21 1 
521.333 1.2052 9.99914 0.000381442 0.000141254 9.99914 0.358082 21 1 
522.667 1.2052 9.99841 0.000384523 0.000156358 9.99841 0.355223 21 1 
524 1.20519 9.99756 0.000339366 0.000111669 9.99756 0.339007 21 1 
525.333 1.20519 10.0001 0.000333057 8.24656e-05 10.0001 0.342829 21 1 
526.667 1.20517 9.99765 0.000365655 0.00011654 9.99765 0.307173 21 1 
528 1.20519 10.0002 0.000356131 0.000128643 10.0002 0.350508 21 1 
529.333 1.20519 9.99932 0.00033532 9.77838e-05 9.99932 0.347603 21 1 
530.667 1.20518 9.99883 0.000348108 9.22837e-05 9.99883 0.333205 21 1 
532 1.20519 10.0011 0.000331142 8.25672e-05 10.0011 0.348884 21 1 
533.333 1.20517 9.99852 0.000318721 8.13559e-05 9.99852 0.310939 21 1 
533.333 1.20517 9.99852 0.000318721 8.13559e-05 9.99852 0.310939 21 1 
534.667 1.20518 10.0012 0.000356318 0.000111684 10.0012 0.333945 21 1 
536 1.20518 10.0002 0.000370107 0.000114613 10.0002 0.330115 21 1 
537.333 1.2052 10.0002 0.000323175 7.79713e-05 10.0002 0.352208 21 1 
538.667 1.2052 10.0021 0.000304855 6.16759e-05 10.0021 0.359237 21 1 
540 1.20516 9.99933 0.000314448 5.9537e-05 9.99933 0.289371 21 1 
541.333 1.20518 10.0019 0.000299565 5.30659e-05 10.0019 0.331133 21 1 
542.667 1.2052 10.0011 0.000324033 7.83219e-05 10.0011 0.360751 21 1 
544 1.20518 10.001 0.000350178 9.47652e-05 10.001 0.330885 21 1 
545.333 1.20517 10.002 0.000308713 6.17733e-05 10.002 0.300185 21 1 
546.667 1.20518 10.0009 0.000299043 5.37795e-05 10.0009 0.32714 21 1 
548 1.20521 10.0034 0.000327081 7.7784e-05 10.0034 0.386298 21 1 
549.333 1.20517 10.0008 0.000290608 4.84174e-05 10.0008 0.31365 21 1 
550.667 1.20517 10.0021 0.000261948 2.11792e-05 10.0021 0.306847 21 1 
552 1.20519 10.0028 0.000296815 5.06509e-05 10.0028 0.3519 21 1 
553.333 1.20518 10.0013 0.000312612 6.5453e-05 10.0013 0.321243 21 1 
554.667 1.20518 10.0033 0.000287445 4.38988e-05 10.0033 0.316285 21 1 
554.667 1.20518 10.0033 0.000287445 4.38988e-05 10.0033 0.316285 22 1 
556 1.20519 10.0018 0.000255664 2.01323e-05 10.0018 0.345102 22 1 
557.333 1.20521 10.0043 0.000251147 1.39655e-05 10.0043 0.384909 22 1 
558.667 1.20516 10.002 0.000283326 4.30258e-05 10.002 0.2947 22 1 
560 1.20516 10.0022 0.000293616 5.78403e-05 10.0022 0.292463 22 1 
561.333 1.20521 10.0044 0.000265877 2.83555e-05 10.0044 0.378071 22 1 
562.667 1.20519 10.0022 0.000235435 -1.07482e-06 10.0022 0.337697 22 1 
564 1.20518 10.0044 0.000234031 4.41815e-06 10.0044 0.321944 22 1 
565.333 1.20518 10.0023 0.000247985 2.11459e-05 10.0023 0.320202 22 1 
566.667 1.20519 10.0041 0.000241132 1.31755e-05 10.0041 0.350905 22 1 
568 1.20519 10.0039 0.000234564 6.42604e-06 10.0039 0.341357 22 1 
569.333 1.20519 10.0031 0.000231586 7.23203e-06 10.0031 0.346147 22 1 
570.667 1.20519 10.005 0.000226362 7.44104e-06 10.005 0.341177 22 1 
572 1.20515 10.0025 0.000213188 -4.67755e-06 10.0025 0.275122 22 1 
573.333 1.2052 10.0054 0.000201114 -1.53956e-05 10.0054 0.360609 22 1 
574.667 1.20522 10.0037 0.000197988 -1.49015e-05 10.0037 0.394558 22 1 
576 1.20519 10.0044 0.000191833 -2.19943e-05 10.0044 0.341829 22 1 
576 1.20519 10.0044 0.000191833 -2.19943e-05 10.0044 0.341829 22 1 
577.333 1.20516 10.0034 0.000199837 -9.45053e-06 10.0034 0.287674 22 1 
578.667 1.20519 10.0045 0.000195759 -5.36863e-06 10.0045 0.347637 22 1 
580 1.2052 10.0058 0.000184249 -1.98498e-05 10.0058 0.354782 22 1 
581.333 1.20516 10.0035 0.000169399 -3.40143e-05 10.0035 0.293146 22 1 
582.667 1.20521 10.0059 0.00015123 -4.28833e-05 10.0059 0.379529 22 1 
584 1.2052 10.0033 0.000162841 -3.21284e-05 10.0033 0.366741 22 1 
585.333 1.20518 10.0049 0.000156077 -3.74931e-05 10.0049 0.318035 22 1 
586.667 1.20517 10.0042 0.000143923 -3.79044e-05 10.0042 0.312217 22 1 
588 1.20521 10.0059 0.000145246 -3.66653e-05 10.0059 0.383526 22 1 
589.333 1.20519 10.0055 0.000136749 -4.99578e-05 10.0055 0.347191 22 1 
590.667 1.20515 10.0034 0.000137937 -4.2703e-05 10.0034 0.272327 22 1 
592 1.20521 10.0064 0.0001404 -3.40586e-05 10.0064 0.377757 22 1 
593.333 1.20521 10.0043 0.00012239 -4.89923e-05 10.0043 0.37733 22 1 
594.667 1.20517 10.0059 9.30236e-05 -7.33385e-05 10.0059 0.314438 22 1 
596 1.20516 10.0032 9.20357e-05 -7.29572e-05 10.0032 0.29476 22 1 
597.333 1.20523 10.0071 0.000103036 -6.44975e-05 10.0071 0.408207 22 1 
597.333 1.20523 10.0071 0.000103036 -6.44975e-05 10.0071 0.408207 24 1 
598.667 1.20518 10.0041 0.000112281 -5.26657e-05 10.0041 0.328153 24 1 
600 1.20517 10.006 0.000117305 -3.91709e-05 10.006 0.298913 24 1 
601.333 1.20519 10.0048 8.38587e-05 -6.78969e-05 10.0048 0.336862 24 1 
602.667 1.20521 10.006 6.14161e-05 -9.3044e-05 10.006 0.371291 24 1 
604 1.20518 10.0048 7.14669e-05 -7.98197e-05 10.0048 0.316882 24 1 
605.333 1.20519 10.0053 7.61808e-05 -6.91181e-05 10.0053 0.348397 24 1 
606.667 1.20521 10.0061 6.8793e-05 -7.66468e-05 10.0061 0.378303 24 1 
608 1.20515 10.0043 5.77936e-05 -8.1147e-05 10.0043 0.276597 24 1 
609.333 1.20516 10.0056 5.63421e-05 -7.65787e-05 10.0056 0.289926 24 1 
610.667 1.20523 10.006 4.58551e-05 -8.99961e-05 10.006 0.41509 24 1 
612 1.20521 10.0067 4.1364e-05 -8.96419e-05 10.0067 0.378489 24 1 
613.333 1.20511 10.0031 4.7506e-05 -7.66104e-05 10.0031 0.193418 24 1 
614.667 1.20518 10.0057 2.61136e-05 -9.92737e-05 10.0057 0.325542 24 1 
616 1.20527 10.0066 1.05268e-05 -0.000108828 10.0066 0.481036 24 1 
617.333 1.20518 10.0058 1.44585e-05 -9.65663e-05 10.0058 0.327993 24 1 
618.667 1.20509 10.0031 1.80916e-05 -9.59999e-05 10.0031 0.163648 24 1 
618.667 1.20509 10.0031 1.80916e-05 -9.59999e-05 10.0031 0.163648 24 1 
620 1.20522 10.0075 2.55997e-05 -8.76995e-05 10.0075 0.391835 24 1 
621.333 1.20526 10.0075 1.06005e-05 -9.63306e-05 10.0075 0.477105 24 1 
622.667 1.20512 10.0039 -2.30555e-05 -0.000128555 10.0039 0.219176 24 1 
624 1.20509 10.0026 -3.03358e-05 -0.000129975 10.0026 0.167283 24 1 
625.333 1.20528 10.0079 -1.65864e-05 -0.000108291 10.0079 0.505856 24 1 
626.667 1.20528 10.008 -1.01103e-05 -0.000103979 10.008 0.502578 24 1 
628 1.20506 10.0035 -1.47458e-05 -0.000112236 10.0035 0.11338 24 1 
629.333 1.20507 10.0033 -1.97697e-05 -0.00011158 10.0033 0.135053 24 1 
630.667 1.2053 10.0084 -3.28437e-05 -0.000117993 10.0084 0.548766 24 1 
632 1.20527 10.0075 -6.22798e-05 -0.000144893 10.0075 0.495874 24 1 
633.333 1.20507 10.003 -7.3389e-05 -0.000152092 10.003 0.121739 24 1 
634.667 1.20512 10.004 -5.88191e-05 -0.000134329 10.004 0.208364 24 1 
636 1.2053 10.0085 -4.79493e-05 -0.000126955 10.0085 0.537375 24 1 
637.333 1.20522 10.0067 -4.67251e-05 -0.000123173 10.0067 0.391774 24 1 
638.667 1.20505 10.003 -6.2029e-05 -0.000129397 10.003 0.0994896 24 1 
640 1.20517 10.0057 -8.96206e-05 -0.000156444 10.0057 0.299279 24 1 
640 1.20517 10.0057 -8.96206e-05 -0.000156444 10.0057 0.299279 24 1 
641.333 1.20531 10.0087 -9.67008e-05 -0.000161454 10.0087 0.555744 24 1 
642.667 1.20518 10.0051 -8.64911e-05 -0.00014805 10.0051 0.325671 24 1 
644 1.20506 10.0028 -8.96809e-05 -0.000153642 10.0028 0.115318 24 1 
645.333 1.2052 10.0066 -9.08859e-05 -0.000152637 10.0066 0.3564 24 1 
646.667 1.20528 10.0086 -9.93887e-05 -0.000153622 10.0086 0.505154 24 1 
648 1.20514 10.0051 -0.000117785 -0.000168689 10.0051 0.256757 24 1 
649.333 1.2051 10.0035 -0.000107126 -0.000159968 10.0035 0.17914 24 1 
650.667 1.20524 10.0069 -0.000104603 -0.000156568 10.0069 0.43455 24 1 
652 1.20525 10.0076 -0.000118557 -0.000167458 10.0076 0.457259 24 1 
653.333 1.2051 10.0044 -0.00012335 -0.000172055 10.0044 0.184176 24 1 
654.667 1.20512 10.0047 -0.000130673 -0.000176017 10.0047 0.21871 24 1 
656 1.20528 10.0082 -0.000140078 -0.000179111 10.0082 0.509311 24 1 
657.333 1.20522 10.0068 -0.000134236 -0.000175057 10.0068 0.398368 24 1 
658.667 1.20505 10.0027 -0.000124608 -0.000165995 10.0027 0.0815995 24 1 
660 1.20514 10.0052 -0.000144285 -0.000181044 10.0052 0.259631 24 1 
661.333 1.20534 10.01 -0.000147251 -0.000186004 10.01 0.620369 24 1 
661.333 1.20534 10.01 -0.000147251 -0.000186004 10.01 0.620369 24 1 
662.667 1.20523 10.0068 -0.000146048 -0.00018583 10.0068 0.409499 24 1 
664 1.205 10.0013 -0.000163399 -0.000199014 10.0013 0.000512317 24 1 
665.333 1.20512 10.0046 -0.000148397 -0.00018401 10.0046 0.211381 24 1 
666.667 1.20537 10.011 -0.000155197 -0.000189542 10.011 0.662589 24 1 
668 1.20526 10.0078 -0.000172569 -0.000201913 10.0078 0.463723 24 1 
669.333 1.20498 10.0008 -0.000163957 -0.000195218 10.0008 -0.0292814 24 1 
670.667 1.20508 10.0034 -0.000161965 -0.000194867 10.0034 0.141821 24 1 
672 1.20537 10.0108 -0.000151174 -0.000181467 10.0108 0.669012 24 1 
673.333 1.20529 10.009 -0.000155752 -0.000186098 10.009 0.531492 24 1 
674.667 1.20499 10.0013 -0.000184468 -0.000213921 10.0013 -0.0131821 24 1 
676 1.20504 10.0024 -0.000199654 -0.000225619 10.0024 0.0812575 24 1 
677.333 1.20535 10.0103 -0.000187894 -0.000214292 10.0103 0.624812 24 1 
678.667 1.20532 10.0097 -0.00016509 -0.000195886 10.0097 0.575967 24 1 
680 1.20501 10.0018 -0.000157314 -0.000184762 10.0018 0.0207263 24 1 
681.333 1.20501 10.0017 -0.00017264 -0.000195414 10.0017 0.0169409 24 1 
682.667 1.20533 10.0098 -0.000205151 -0.000229035 10.0098 0.590402 24 1 
682.667 1.20533 10.0098 -0.000205151 -0.000229035 10.0098 0.590402 31 1 
684 1.20537 10.0108 -0.000216477 -0.000238226 10.0108 0.665673 31 1 
685.333 1.20505 10.0026 -0.000198429 -0.000221077 10.0026 0.0869029 31 1 
686.667 1.20495 10.0002 -0.000180344 -0.000206986 10.0002 -0.0813306 31 1 
688 1.20526 10.0081 -0.000173723 -0.000196 10.0081 0.464282 31 1 
689.333 1.20541 10.012 -0.000191767 -0.000209187 10.012 0.731883 31 1 
690.667 1.20514 10.0049 -0.000220864 -0.000240815 10.0049 0.249308 31 1 
692 1.20494 9.99976 -0.000229929 -0.000251419 9.99976 -0.106761 31 1 
693.333 1.20516 10.0057 -0.000207783 -0.000231535 10.0057 0.294783 31 1 
694.667 1.20539 10.0117 -0.00018789 -0.000214512 10.0117 0.702825 31 1 
696 1.20522 10.0071 -0.000194158 -0.000214649 10.0071 0.392854 31 1 
697.333 1.20497 10.0006 -0.000216664 -0.000230028 10.0006 -0.049385 31 1 
698.667 1.20509 10.0038 -0.000244273 -0.000258333 10.0038 0.171179 31 1 
700 1.20536 10.0109 -0.000248291 -0.000264007 10.0109 0.651414 31 1 
701.333 1.20529 10.0091 -0.000230226 -0.000248831 10.0091 0.52708 31 1 
702.667 1.20501 10.0017 -0.000210738 -0.00023441 10.0017 0.0237486 31 1 
704 1.20502 10.0017 -0.000209883 -0.000230419 10.0017 0.0291438 31 1 
704 1.20502 10.0017 -0.000209883 -0.000230419 10.0017 0.0291438 31 1 
705.333 1.20529 10.0091 -0.000219878 -0.000233442 10.0091 0.524667 31 1 
706.667 1.20536 10.0109 -0.000227788 -0.000240904 10.0109 0.648285 31 1 
708 1.20511 10.0042 -0.000243357 -0.000259047 10.0042 0.195049 31 1 
709.333 1.20497 10.0006 -0.000238868 -0.000256186 10.0006 -0.0538167 31 1 
710.667 1.20518 10.0062 -0.000230838 -0.000251361 10.0062 0.319815 31 1 
712 1.20537 10.0114 -0.000230463 -0.000250783 10.0114 0.674811 31 1 
713.333 1.20523 10.0074 -0.000221521 -0.000236124 10.0074 0.414466 31 1 
714.667 1.205 10.0013 -0.000233276 -0.000248146 10.0013 0.00140666 31 1 
716 1.20508 10.0034 -0.000252609 -0.000270526 10.0034 0.136362 31 1 
717.333 1.20532 10.0101 -0.00025715 -0.00027486 10.0101 0.572757 31 1 
718.667 1.20532 10.0101 -0.000247017 -0.00026643 10.0101 0.5751 31 1 
720 1.20508 10.0035 -0.000222883 -0.000242137 10.0035 0.142697 31 1 
721.333 1.20499 10.0011 -0.000207295 -0.000222717 10.0011 -0.0110103 31 1 
722.667 1.20521 10.0067 -0.000218926 -0.000235444 10.0067 0.371211 31 1 
724 1.20537 10.0114 -0.000245203 -0.000267024 10.0114 0.670011 31 1 
725.333 1.20522 10.0076 -0.000260155 -0.000283586 10.0076 0.400972 31 1 
725.333 1.20522 10.0076 -0.000260155 -0.000283586 10.0076 0.400972 31 1 
726.667 1.205 10.0015 -0.000241752 -0.000266518 10.0015 0.0068756 31 1 
728 1.20506 10.003 -0.000202494 -0.000227833 10.003 0.110666 31 1 
729.333 1.2053 10.0095 -0.000190212 -0.000211363 10.0095 0.534777 31 1 
730.667 1.20535 10.0109 -0.000210665 -0.000230599 10.0109 0.626099 31 1 
732 1.20514 10.0052 -0.000248346 -0.000270709 10.0052 0.260278 31 1 
733.333 1.205 10.0013 -0.000261504 -0.00028416 10.0013 0.00344217 31 1 
734.667 1.20513 10.0051 -0.000217051 -0.000240097 10.0051 0.242356 31 1 
736 1.20533 10.0105 -0.000174123 -0.000199093 10.0105 0.594398 31 1 
737.333 1.20529 10.0094 -0.000164051 -0.000186807 10.0094 0.521174 31 1 
738.667 1.20509 10.0037 -0.000199656 -0.000220313 10.0037 0.164053 31 1 
740 1.20504 10.0022 -0.000254257 -0.000276814 10.0022 0.0718603 31 1 
741.333 1.2052 10.0069 -0.000247947 -0.000269035 10.0069 0.369419 31 1 
742.667 1.20533 10.0106 -0.000199536 -0.000220488 10.0106 0.593024 31 1 
744 1.20522 10.0077 -0.000150588 -0.000174172 10.0077 0.406142 31 1 
745.333 1.20506 10.0027 -0.000154079 -0.000175731 10.0027 0.105424 31 1 
746.667 1.20508 10.0033 -0.000215084 -0.000236079 10.0033 0.140595 31 1 
746.667 1.20508 10.0033 -0.000215084 -0.000236079 10.0033 0.140595 31 1 
748 1.20526 10.0087 -0.000254866 -0.000280358 10.0087 0.470729 31 1 
749.333 1.20534 10.0107 -0.000236257 -0.000262198 10.0107 0.620477 31 1 
750.667 1.2052 10.0065 -0.000171199 -0.000195187 10.0065 0.353873 31 1 
752 1.20503 10.0019 -0.000120334 -0.000145953 10.0019 0.0536096 31 1 
753.333 1.20509 10.0032 -0.000140507 -0.000166005 10.0032 0.167468 31 1 
754.667 1.2053 10.009 -0.000216889 -0.000238566 10.009 0.545941 31 1 
756 1.20538 10.0111 -0.000265828 -0.000288994 10.0111 0.678369 31 1 
757.333 1.20522 10.0057 -0.000236067 -0.000263988 10.0057 0.403883 31 1 
758.667 1.20504 10.0002 -0.000151369 -0.000178967 10.0002 0.0806163 31 1 
760 1.20508 10.0016 -8.52069e-05 -0.000109909 10.0016 0.141505 31 1 
761.333 1.20529 10.0082 -0.000109516 -0.000132729 10.0082 0.52433 31 1 
762.667 1.20539 10.0121 -0.000197056 -0.000220183 10.0121 0.706679 31 1 
764 1.20524 10.0083 -0.000267389 -0.000288205 10.0083 0.434035 31 1 
765.333 1.20502 10.0016 -0.000256767 -0.000276131 10.0016 0.0341588 31 1 
766.667 1.20499 9.99991 -0.000163094 -0.00018248 9.99991 -0.010395 31 1 
768 1.20521 10.0046 -7.34025e-05 -9.17342e-05 10.0046 0.375175 31 1 
768 1.20521 10.0046 -7.34025e-05 -9.17342e-05 10.0046 0.375175 32 1 
769.333 1.20541 10.0094 -6.01669e-05 -7.32379e-05 10.0094 0.739749 32 1 
770.667 1.20537 10.0084 -0.000138955 -0.00014501 10.0084 0.669314 32 1 
772 1.20514 10.0032 -0.000242671 -0.000246952 10.0032 0.251665 32 1 
773.333 1.20498 10.0006 -0.000288461 -0.000293489 10.0006 -0.0441845 32 1 
774.667 1.20505 10.0034 -0.000254948 -0.000261403 10.0034 0.0859857 32 1 
776 1.20524 10.0081 -0.000165632 -0.000175289 10.0081 0.427352 32 1 
777.333 1.20531 10.0091 -0.000103408 -0.000113372 10.0091 0.565105 32 1 
778.667 1.20519 10.0053 -9.9904e-05 -0.000105956 10.0053 0.340115 32 1 
780 1.20501 10.0015 -0.000150383 -0.000151873 10.0015 0.022276 32 1 
781.333 1.205 10.0019 -0.000216843 -0.000215684 10.0019 -0.00545246 32 1 
782.667 1.20516 10.0057 -0.000237201 -0.000233646 10.0057 0.287887 32 1 
784 1.2053 10.0084 -0.000222424 -0.000219127 10.0084 0.538865 32 1 
785.333 1.20524 10.0073 -0.000185961 -0.000187498 10.0073 0.431783 32 1 
786.667 1.20505 10.0034 -0.000156907 -0.000161114 10.0034 0.0919009 32 1 
788 1.20495 10.0006 -0.000155775 -0.000158557 10.0006 -0.0982986 32 1 
789.333 1.20503 10.002 -0.000161839 -0.000162541 10.002 0.0624027 32 1 
790.667 1.20521 10.0064 -0.000165003 -0.000163535 10.0064 0.381488 32 1 
792 1.20527 10.0096 -0.000149417 -0.000145385 10.0096 0.49151 32 1 
793.333 1.20517 10.0077 -0.000132305 -0.000129185 10.0077 0.314397 32 1 
794.667 1.20504 10.002 -0.000131883 -0.000132573 10.002 0.0714694 32 1 
796 1.20498 9.9988 -0.000140366 -0.000144999 9.9988 -0.0449616 32 1 
797.333 1.20502 10.0016 -0.000138813 -0.000147143 10.0016 0.0426628 32 1 
798.667 1.20516 10.007 -0.000118515 -0.000129077 10.007 0.286147 32 1 
800 1.20524 10.0094 -0.000106826 -0.000117893 10.0094 0.430761 32 1 
