59.7727;r ;Density                 ;Velocity u              ;Velocity v              ;Velocity w              ;|Velocity|              ;Pressure                ;Distribution            ;Levels                  ;
0 1.20379 10.0009 0.000168945 0.000221398 10.0009 -2.18954 1 1 
1.33334 1.20376 10.002 3.33533e-05 1.23123e-05 10.002 -2.23513 1 1 
2.66666 1.20374 10.004 -0.000241768 -0.000393889 10.004 -2.27678 1 1 
4 1.2037 10.0049 -0.000471611 -0.000743002 10.0049 -2.34233 1 1 
5.33334 1.20369 10.0056 -0.000611129 -0.000939962 10.0057 -2.36643 1 1 
6.66666 1.20374 10.0071 -0.000780369 -0.00115091 10.0072 -2.27183 1 1 
8 1.20377 10.0077 -0.000959919 -0.00138056 10.0078 -2.21897 1 1 
9.33334 1.20386 10.0081 -0.00107571 -0.00147943 10.0082 -2.06667 1 1 
10.6667 1.20398 10.0093 -0.00119543 -0.00157614 10.0093 -1.83593 1 1 
12 1.20407 10.0099 -0.0012741 -0.00162941 10.01 -1.67236 1 1 
13.3333 1.20423 10.0102 -0.001307 -0.00157067 10.0102 -1.39426 1 1 
14.6667 1.20439 10.0106 -0.00132849 -0.00149259 10.0107 -1.10985 1 1 
16 1.2045 10.0109 -0.00127039 -0.00131803 10.0109 -0.895893 1 1 
17.3333 1.20465 10.0113 -0.00117432 -0.00106679 10.0114 -0.627032 1 1 
18.6667 1.20477 10.0113 -0.00107778 -0.000813803 10.0113 -0.422343 1 1 
20 1.20487 10.0112 -0.000871948 -0.000417062 10.0113 -0.240605 1 1 
21.3333 1.20497 10.0119 -0.00065517 -1.39896e-05 10.0119 -0.0469771 1 1 
21.3333 1.20497 10.0119 -0.00065517 -1.39896e-05 10.0119 -0.0469771 1 1 
22.6667 1.20501 10.0115 -0.000403633 0.000408913 10.0115 0.0114097 1 1 
24 1.20504 10.0113 -7.47883e-05 0.000959265 10.0113 0.0635536 1 1 
25.3333 1.20507 10.0118 0.000208632 0.00143592 10.0118 0.122093 1 1 
26.6667 1.20501 10.0117 0.000532385 0.00191574 10.0118 0.00947189 1 1 
28 1.20494 10.0116 0.000905202 0.00248971 10.0116 -0.102525 1 1 
29.3333 1.20488 10.0119 0.00122589 0.00297821 10.0119 -0.221765 1 1 
30.6667 1.20474 10.0126 0.00154877 0.00343188 10.0126 -0.461548 1 1 
32 1.20461 10.0132 0.00188652 0.00390689 10.0132 -0.697575 1 1 
33.3333 1.20444 10.0131 0.00216111 0.00427746 10.0131 -1.00744 1 1 
34.6667 1.20426 10.0134 0.00242892 0.00462465 10.0135 -1.33568 1 1 
36 1.20412 10.0152 0.00262864 0.00487325 10.0152 -1.59688 1 1 
37.3333 1.20392 10.0156 0.00276505 0.00501839 10.0157 -1.95826 1 1 
38.6667 1.20371 10.016 0.00289928 0.00516765 10.0161 -2.32327 1 1 
40 1.20356 10.0178 0.00293638 0.00516884 10.0179 -2.59329 1 1 
41.3333 1.20339 10.019 0.00289624 0.00505134 10.019 -2.91317 1 1 
42.6667 1.20323 10.02 0.00285543 0.0049573 10.0201 -3.20616 1 1 
42.6667 1.20323 10.02 0.00285543 0.0049573 10.0201 -3.20616 2 1 
44 1.20308 10.0212 0.00272052 0.00472831 10.0212 -3.46078 2 1 
45.3333 1.20293 10.0227 0.00250686 0.00436712 10.0228 -3.7376 2 1 
46.6667 1.20284 10.0245 0.00229273 0.00403684 10.0245 -3.89236 2 1 
48 1.20275 10.0256 0.002014 0.00362555 10.0256 -4.06731 2 1 
49.3333 1.20264 10.0266 0.00168811 0.00313997 10.0266 -4.25936 2 1 
50.6667 1.20262 10.0284 0.00134455 0.00264562 10.0284 -4.29935 2 1 
52 1.2026 10.0295 0.000962913 0.00211859 10.0295 -4.33753 2 1 
53.3333 1.2026 10.0302 0.000618786 0.00167611 10.0302 -4.34363 2 1 
54.6667 1.20264 10.0316 0.000237023 0.00116916 10.0316 -4.25651 2 1 
56 1.20269 10.0324 -0.000122785 0.000694326 10.0324 -4.17146 2 1 
57.3333 1.20279 10.0331 -0.000382257 0.000404457 10.0331 -3.98364 2 1 
58.6667 1.20292 10.034 -0.000675622 7.90057e-05 10.034 -3.75243 2 1 
60 1.20302 10.0345 -0.000914765 -0.000187339 10.0346 -3.57287 2 1 
61.3333 1.20318 10.035 -0.00105264 -0.000277392 10.0351 -3.29177 2 1 
62.6667 1.20334 10.0357 -0.00115223 -0.000303114 10.0358 -3.00036 2 1 
64 1.20349 10.0358 -0.00120168 -0.000273725 10.0358 -2.7362 2 1 
64 1.20349 10.0358 -0.00120168 -0.000273725 10.0358 -2.7362 2 1 
65.3333 1.20365 10.0366 -0.00117586 -0.000126691 10.0367 -2.43218 2 1 
66.6667 1.2038 10.0367 -0.00108228 0.000116859 10.0368 -2.15854 2 1 
68 1.20395 10.0367 -0.000924327 0.000455268 10.0368 -1.88893 2 1 
69.3333 1.20413 10.0372 -0.000751394 0.000802521 10.0373 -1.57333 2 1 
70.6667 1.20425 10.037 -0.000484957 0.00125911 10.0371 -1.35249 2 1 
72 1.20436 10.0373 -0.000142139 0.00185035 10.0373 -1.15253 2 1 
73.3333 1.2045 10.0373 0.00016929 0.00237353 10.0373 -0.898661 2 1 
74.6667 1.20458 10.0374 0.000522062 0.00292829 10.0374 -0.75793 2 1 
76 1.20465 10.0376 0.000964456 0.00362287 10.0376 -0.638941 2 1 
77.3333 1.20467 10.0377 0.00136013 0.00423395 10.0377 -0.588584 2 1 
78.6667 1.20467 10.0377 0.00170213 0.00475406 10.0377 -0.595586 2 1 
80 1.2047 10.0382 0.00207767 0.00532352 10.0382 -0.544249 2 1 
81.3333 1.20463 10.0384 0.0024282 0.00585127 10.0385 -0.674302 2 1 
82.6667 1.20453 10.0378 0.00272198 0.00629513 10.0378 -0.857665 2 1 
84 1.20448 10.0379 0.00292712 0.00660591 10.0379 -0.930795 2 1 
85.3333 1.20436 10.0389 0.00314882 0.00692497 10.039 -1.15571 2 1 
85.3333 1.20436 10.0389 0.00314882 0.00692497 10.039 -1.15571 3 1 
86.6667 1.20421 10.0393 0.00335019 0.00724101 10.0394 -1.42696 3 1 
88 1.2041 10.0393 0.00338488 0.00731198 10.0394 -1.62587 3 1 
89.3333 1.20396 10.0398 0.00342017 0.00734445 10.0398 -1.88678 3 1 
90.6667 1.20379 10.0413 0.00348275 0.00743926 10.0413 -2.18586 3 1 
92 1.20363 10.0412 0.00339855 0.00733022 10.0412 -2.47913 3 1 
93.3333 1.20347 10.0404 0.00324369 0.00709253 10.0405 -2.76674 3 1 
94.6667 1.20332 10.0425 0.00307555 0.00685662 10.0425 -3.03369 3 1 
96 1.20317 10.0437 0.00285298 0.00655797 10.0438 -3.30209 3 1 
97.3333 1.20304 10.0434 0.00255282 0.00612544 10.0434 -3.5433 3 1 
98.6667 1.20294 10.0443 0.00216958 0.00559965 10.0443 -3.72249 3 1 
100 1.20283 10.0457 0.00187954 0.00518568 10.0457 -3.92056 3 1 
101.333 1.20276 10.0463 0.00154509 0.00473845 10.0463 -4.03843 3 1 
102.667 1.20275 10.0464 0.00114364 0.00419442 10.0464 -4.06586 3 1 
104 1.20271 10.0481 0.000883705 0.00380659 10.0481 -4.1313 3 1 
105.333 1.20274 10.0502 0.00064588 0.00352294 10.0502 -4.08044 3 1 
106.667 1.20279 10.0506 0.000323659 0.00308967 10.0506 -4.00033 3 1 
106.667 1.20279 10.0506 0.000323659 0.00308967 10.0506 -4.00033 3 1 
108 1.20282 10.0501 5.49391e-05 0.00273212 10.0501 -3.94395 3 1 
109.333 1.20292 10.0514 -8.27287e-05 0.00258746 10.0514 -3.76193 3 1 
110.667 1.20301 10.0523 -0.000279013 0.00234976 10.0523 -3.60003 3 1 
112 1.20309 10.0518 -0.000442952 0.00215018 10.0518 -3.4445 3 1 
113.333 1.20326 10.0528 -0.000520377 0.00210864 10.0528 -3.13772 3 1 
114.667 1.20338 10.0548 -0.000522499 0.00215997 10.0548 -2.9326 3 1 
116 1.20348 10.055 -0.000481307 0.0022342 10.0551 -2.75251 3 1 
117.333 1.20368 10.0532 -0.000457417 0.00234292 10.0532 -2.38908 3 1 
118.667 1.20378 10.0546 -0.000270728 0.00264318 10.0546 -2.19616 3 1 
120 1.2039 10.0551 -2.98895e-05 0.00302066 10.0551 -1.99451 3 1 
121.333 1.20405 10.0531 0.0001338 0.00330374 10.0531 -1.72194 3 1 
122.667 1.20413 10.0536 0.000396142 0.00370844 10.0536 -1.57008 3 1 
124 1.20423 10.0549 0.000771918 0.00427648 10.0549 -1.39643 3 1 
125.333 1.20427 10.0551 0.00106645 0.0047217 10.0551 -1.30957 3 1 
126.667 1.20431 10.0527 0.00132189 0.00511286 10.0527 -1.24078 3 1 
128 1.20435 10.0529 0.00169278 0.00566619 10.0529 -1.17528 3 1 
128 1.20435 10.0529 0.00169278 0.00566619 10.0529 -1.17528 3 1 
129.333 1.20434 10.054 0.00200785 0.00614663 10.054 -1.19425 3 1 
130.667 1.20431 10.0521 0.0022755 0.00652694 10.0521 -1.25024 3 1 
132 1.20428 10.0517 0.00254071 0.00695349 10.0517 -1.30039 3 1 
133.333 1.20423 10.0533 0.00284394 0.00741827 10.0533 -1.38462 3 1 
134.667 1.20414 10.0538 0.00307534 0.00776182 10.0538 -1.54572 3 1 
136 1.20407 10.0512 0.00322926 0.00801254 10.0512 -1.67201 3 1 
137.333 1.20398 10.051 0.00342105 0.00833878 10.051 -1.83464 3 1 
138.667 1.20388 10.0533 0.00359104 0.00859725 10.0533 -2.02724 3 1 
140 1.20377 10.0533 0.00364216 0.00868284 10.0533 -2.2172 3 1 
141.333 1.20367 10.0519 0.00364346 0.00875455 10.0519 -2.39756 3 1 
142.667 1.20359 10.0534 0.00370227 0.0088802 10.0534 -2.55272 3 1 
144 1.20349 10.0552 0.00364778 0.00883442 10.0552 -2.73447 3 1 
145.333 1.20341 10.0532 0.00354237 0.00870106 10.0532 -2.87613 3 1 
146.667 1.20337 10.0533 0.00342846 0.00863242 10.0533 -2.95006 3 1 
148 1.20331 10.0561 0.00334585 0.00854567 10.0561 -3.04707 3 1 
149.333 1.20327 10.0564 0.00317971 0.00832027 10.0564 -3.12885 3 1 
149.333 1.20327 10.0564 0.00317971 0.00832027 10.0564 -3.12885 3 1 
150.667 1.20328 10.0548 0.00300137 0.00812226 10.0548 -3.10971 3 1 
152 1.20329 10.0562 0.00288145 0.00803044 10.0562 -3.08579 3 1 
153.333 1.20329 10.0584 0.00273815 0.00785073 10.0584 -3.08857 3 1 
154.667 1.20332 10.0572 0.00252573 0.00757379 10.0572 -3.04254 3 1 
156 1.20338 10.0561 0.00237916 0.00743099 10.0561 -2.93473 3 1 
157.333 1.20343 10.0583 0.00228722 0.0073248 10.0583 -2.83296 3 1 
158.667 1.20348 10.059 0.0021262 0.00711237 10.059 -2.74126 3 1 
160 1.20355 10.0566 0.00202335 0.0069885 10.0566 -2.6172 3 1 
161.333 1.20362 10.0568 0.00196194 0.00696557 10.0568 -2.49694 3 1 
162.667 1.20369 10.0583 0.00192248 0.00691066 10.0583 -2.36709 3 1 
164 1.20375 10.0566 0.00186034 0.00681909 10.0566 -2.2583 3 1 
165.333 1.2038 10.0552 0.00185338 0.00687269 10.0552 -2.17276 3 1 
166.667 1.20387 10.0557 0.00193105 0.00701286 10.0557 -2.04076 3 1 
168 1.20389 10.0563 0.0019543 0.00703762 10.0563 -2.00421 3 1 
169.333 1.20391 10.0545 0.00201352 0.00716238 10.0545 -1.9715 3 1 
170.667 1.20396 10.0536 0.00216997 0.00745669 10.0536 -1.88523 3 1 
170.667 1.20396 10.0536 0.00216997 0.00745669 10.0536 -1.88523 11 1 
172 1.20395 10.0555 0.00230283 0.00766323 10.0555 -1.88934 11 1 
173.333 1.20395 10.054 0.00244607 0.00785926 10.054 -1.89037 11 1 
174.667 1.20395 10.0519 0.00260778 0.00817771 10.0519 -1.89265 11 1 
176 1.20394 10.0517 0.0027828 0.00849645 10.0517 -1.91812 11 1 
177.333 1.20392 10.0519 0.00295993 0.00872907 10.0519 -1.95131 11 1 
178.667 1.2039 10.0508 0.00312778 0.00899683 10.0508 -1.98596 11 1 
180 1.20389 10.0497 0.00333291 0.00938686 10.0497 -2.00652 11 1 
181.333 1.20387 10.0521 0.00351504 0.00968346 10.0521 -2.03777 11 1 
182.667 1.20386 10.053 0.00370613 0.00995928 10.0531 -2.06012 11 1 
184 1.20386 10.0502 0.0038561 0.010259 10.0502 -2.06076 11 1 
185.333 1.20384 10.0492 0.00398506 0.0105142 10.0492 -2.09156 11 1 
186.667 1.20384 10.0493 0.00407954 0.010674 10.0493 -2.08777 11 1 
188 1.20386 10.0488 0.00416145 0.0108252 10.0488 -2.0527 11 1 
189.333 1.20387 10.0494 0.00427173 0.0110489 10.0495 -2.04662 11 1 
190.667 1.2039 10.05 0.00432715 0.011158 10.05 -1.98818 11 1 
192 1.20393 10.0497 0.00437969 0.0112634 10.0497 -1.93667 11 1 
192 1.20393 10.0497 0.00437969 0.0112634 10.0497 -1.93667 11 1 
193.333 1.20394 10.0483 0.00439145 0.0113131 10.0483 -1.92196 11 1 
194.667 1.20395 10.0461 0.00430017 0.0112965 10.0461 -1.89352 11 1 
196 1.20398 10.0458 0.0043083 0.0113263 10.0458 -1.83425 11 1 
197.333 1.20401 10.0472 0.00431934 0.0113171 10.0472 -1.78274 11 1 
198.667 1.20404 10.0456 0.00415084 0.0111991 10.0456 -1.73032 11 1 
200 1.20406 10.044 0.00420031 0.0112708 10.044 -1.69306 11 1 
201.333 1.20405 10.0439 0.00412591 0.0112013 10.0439 -1.71135 11 1 
202.667 1.20406 10.0398 0.00387605 0.0109278 10.0398 -1.69391 11 1 
204 1.20405 10.0378 0.00386276 0.0109777 10.0378 -1.71759 11 1 
205.333 1.20405 10.0395 0.00377811 0.0109194 10.0395 -1.723 11 1 
206.667 1.20408 10.0401 0.00373891 0.0108697 10.0401 -1.65569 11 1 
208 1.20404 10.0399 0.00374823 0.0109037 10.0399 -1.73156 11 1 
209.333 1.20402 10.0374 0.00360319 0.0108325 10.0374 -1.77119 11 1 
210.667 1.20404 10.0341 0.00359651 0.0108744 10.0341 -1.73553 11 1 
212 1.20401 10.032 0.00356399 0.0108472 10.032 -1.79054 11 1 
213.333 1.20399 10.0295 0.00348045 0.0108799 10.0295 -1.81543 11 1 
213.333 1.20399 10.0295 0.00348045 0.0108799 10.0295 -1.81543 11 1 
214.667 1.20402 10.0284 0.00348349 0.0110083 10.0284 -1.7723 11 1 
216 1.20403 10.0298 0.00351925 0.0111194 10.0298 -1.75522 11 1 
217.333 1.20402 10.0306 0.0035589 0.0111995 10.0306 -1.77173 11 1 
218.667 1.20407 10.0285 0.00354201 0.0113157 10.0286 -1.6871 11 1 
220 1.20411 10.0275 0.0036144 0.0115231 10.0275 -1.61114 11 1 
221.333 1.20412 10.0258 0.00372581 0.0116658 10.0258 -1.58529 11 1 
222.667 1.20416 10.02 0.00371828 0.0117413 10.02 -1.52602 11 1 
224 1.20418 10.018 0.00366967 0.011837 10.018 -1.48227 11 1 
225.333 1.20426 10.0185 0.00370713 0.0119563 10.0185 -1.33771 11 1 
226.667 1.20433 10.0177 0.00384268 0.0121083 10.0177 -1.2017 11 1 
228 1.20436 10.0172 0.00392203 0.0122791 10.0172 -1.16449 11 1 
229.333 1.20442 10.0127 0.00392558 0.0124023 10.0127 -1.04413 11 1 
230.667 1.20447 10.0092 0.00388427 0.0123905 10.0092 -0.958124 11 1 
232 1.20447 10.0063 0.00390673 0.0123921 10.0063 -0.957902 11 1 
233.333 1.20453 10.0026 0.00396879 0.0125037 10.0026 -0.855952 11 1 
234.667 1.20461 10.0022 0.00406937 0.0126499 10.0022 -0.699355 11 1 
234.667 1.20461 10.0022 0.00406937 0.0126499 10.0022 -0.699355 11 1 
236 1.20459 10.001 0.00411351 0.0127112 10.001 -0.739437 11 1 
237.333 1.2046 9.99473 0.00406918 0.0126631 9.99474 -0.73075 11 1 
238.667 1.20465 9.98832 0.00398808 0.0126166 9.98833 -0.636923 11 1 
240 1.20462 9.98705 0.00398146 0.0126645 9.98705 -0.682544 11 1 
241.333 1.20466 9.9825 0.00407554 0.0127703 9.98251 -0.612489 11 1 
242.667 1.20465 9.98021 0.0041215 0.0128566 9.98022 -0.636415 11 1 
244 1.20467 9.97597 0.00410441 0.0128901 9.97598 -0.589206 11 1 
245.333 1.20467 9.9704 0.00401213 0.0128391 9.97042 -0.591151 11 1 
246.667 1.20465 9.9651 0.00413226 0.0130379 9.96511 -0.632939 11 1 
248 1.20473 9.95828 0.00406417 0.0130433 9.95829 -0.491076 11 1 
249.333 1.20473 9.95679 0.00417929 0.0132376 9.9568 -0.495704 11 1 
250.667 1.20477 9.95026 0.00427815 0.0134093 9.95027 -0.422077 11 1 
252 1.20478 9.94405 0.00408314 0.0132795 9.94406 -0.400148 11 1 
253.333 1.20488 9.93509 0.00417208 0.0134943 9.9351 -0.215909 11 1 
254.667 1.20493 9.93017 0.00421527 0.0136049 9.93018 -0.125844 11 1 
256 1.20496 9.92428 0.00418138 0.0136296 9.92429 -0.0799371 11 1 
256 1.20496 9.92428 0.00418138 0.0136296 9.92429 -0.0799371 13 1 
257.333 1.2051 9.9137 0.00427537 0.0138298 9.91371 0.172838 13 1 
258.667 1.20515 9.9078 0.00418565 0.0138135 9.90781 0.263049 13 1 
260 1.20523 9.89805 0.00418049 0.013824 9.89806 0.413689 13 1 
261.333 1.20536 9.88529 0.00430051 0.0139655 9.8853 0.645522 13 1 
262.667 1.20548 9.87347 0.00426636 0.0140451 9.87348 0.860897 13 1 
264 1.20551 9.8671 0.00424467 0.0140535 9.86711 0.924635 13 1 
265.333 1.20565 9.85383 0.00422183 0.0140223 9.85384 1.16859 13 1 
266.667 1.20586 9.83324 0.0042518 0.0141482 9.83325 1.55364 13 1 
268 1.20583 9.82178 0.0042078 0.0141568 9.82179 1.49174 13 1 
269.333 1.20595 9.8064 0.00421688 0.0140887 9.80641 1.72014 13 1 
270.667 1.20629 9.78062 0.00417379 0.0140476 9.78063 2.32138 13 1 
272 1.20614 9.77247 0.00415095 0.01411 9.77248 2.0602 13 1 
273.333 1.20633 9.74953 0.00417502 0.0141176 9.74954 2.39523 13 1 
274.667 1.20676 9.71488 0.00413594 0.0140532 9.7149 3.18537 13 1 
276 1.2066 9.69957 0.00410544 0.0140804 9.69959 2.88398 13 1 
277.333 1.20682 9.66412 0.00406516 0.0140792 9.66414 3.27949 13 1 
277.333 1.20682 9.66412 0.00406516 0.0140792 9.66414 3.27949 13 1 
278.667 1.2072 9.63006 0.00406205 0.0140235 9.63009 3.97309 13 1 
280 1.20724 9.59839 0.00407108 0.0140662 9.59841 4.04813 13 1 
281.333 1.20746 9.55263 0.00405966 0.014171 9.55265 4.4369 13 1 
282.667 1.20775 9.52036 0.00404557 0.0141954 9.52037 4.96058 13 1 
284 1.20815 9.48712 0.00404649 0.014191 9.48713 5.69844 13 1 
285.333 1.20857 9.44183 0.00402742 0.0142095 9.44188 6.44483 13 1 
286.667 1.20875 9.37746 0.00396897 0.0141469 9.37758 6.76453 13 1 
288 1.20898 9.29533 0.00393858 0.0141001 9.29544 7.1913 13 1 
289.333 1.20946 9.23269 0.00393744 0.0141694 9.23272 8.05345 13 1 
290.667 1.21012 9.17715 0.00392223 0.014225 9.17716 9.24684 13 1 
292 1.21062 9.10427 0.00392468 0.0141985 9.1043 10.1549 13 1 
293.333 1.21088 9.03106 0.00390969 0.0141743 9.03112 10.6156 13 1 
294.667 1.21139 8.93946 0.0038912 0.0141751 8.93959 11.5435 13 1 
296 1.2121 8.84118 0.00386087 0.014176 8.84128 12.8316 13 1 
297.333 1.21251 8.7627 0.00384437 0.0141101 8.76273 13.558 13 1 
298.667 1.20795 8.63437 0.00377109 0.0138974 8.63446 5.33679 13 1 
298.667 1.20795 8.63437 0.00377109 0.0138974 8.63446 5.33679 14 1 
300 1.20038 8.5971 0.00370206 0.0138709 8.59718 -8.34065 14 1 
301.333 1.19768 8.60898 0.00369952 0.0138497 8.60904 -13.2149 14 1 
302.667 1.19835 8.52956 0.00360148 0.0136916 8.52963 -12.0203 14 1 
304 1.19887 8.44036 0.00357192 0.0136824 8.44044 -11.0754 14 1 
305.333 1.19919 8.3509 0.00353406 0.0136102 8.35104 -10.4966 14 1 
306.667 1.1996 8.27674 0.00341483 0.0134213 8.27684 -9.75382 14 1 
308 1.19995 8.19603 0.00340592 0.0133811 8.19606 -9.11267 14 1 
309.333 1.20033 8.13098 0.00332561 0.0133532 8.13101 -8.42952 14 1 
310.667 1.20076 8.08021 0.0032938 0.0133548 8.08022 -7.66188 14 1 
312 1.2011 8.02063 0.00328937 0.0133196 8.02065 -7.05295 14 1 
313.333 1.20139 7.97471 0.00320386 0.013167 7.97472 -6.52516 14 1 
314.667 1.20169 7.92931 0.00318341 0.0131385 7.92934 -5.97291 14 1 
316 1.20188 7.87341 0.00310932 0.0130309 7.87346 -5.63749 14 1 
317.333 1.20206 7.82996 0.00305652 0.0128686 7.83 -5.31382 14 1 
318.667 1.20236 7.7915 0.00303824 0.0127915 7.79153 -4.76828 14 1 
320 1.20255 7.74859 0.00299769 0.0127908 7.74863 -4.4206 14 1 
320 1.20255 7.74859 0.00299769 0.0127908 7.74863 -4.4206 14 1 
321.333 1.2026 7.7106 0.00296147 0.0127736 7.71064 -4.33524 14 1 
322.667 1.20276 7.67523 0.00293947 0.0127444 7.67527 -4.04724 14 1 
324 1.20295 7.64132 0.00293656 0.0127543 7.64135 -3.69878 14 1 
325.333 1.20303 7.61693 0.00294573 0.0128353 7.61694 -3.55978 14 1 
326.667 1.20317 7.59893 0.00296006 0.0129377 7.59894 -3.31437 14 1 
328 1.20337 7.58048 0.00296618 0.0129991 7.5805 -2.95243 14 1 
329.333 1.20346 7.56277 0.00295732 0.0130317 7.56278 -2.77357 14 1 
330.667 1.20351 7.54588 0.00295002 0.0130773 7.54589 -2.69444 14 1 
332 1.2036 7.53531 0.00294318 0.0130981 7.53532 -2.53261 14 1 
333.333 1.20377 7.53276 0.00294013 0.0131055 7.53277 -2.21254 14 1 
334.667 1.20392 7.52262 0.00294086 0.0131221 7.52263 -1.95535 14 1 
336 1.2039 7.50585 0.00290597 0.013063 7.50586 -1.98603 14 1 
337.333 1.20393 7.49555 0.00284988 0.0129555 7.49556 -1.94158 14 1 
338.667 1.20409 7.4891 0.00281961 0.0128904 7.48911 -1.64075 14 1 
340 1.20423 7.48375 0.00281528 0.0128448 7.48377 -1.39268 14 1 
341.333 1.20424 7.471 0.00278645 0.0127498 7.47102 -1.37898 14 1 
341.333 1.20424 7.471 0.00278645 0.0127498 7.47102 -1.37898 15 1 
342.667 1.20419 7.4488 0.00272328 0.0126403 7.44882 -1.46857 15 1 
344 1.20427 7.43709 0.00268597 0.0125756 7.43711 -1.32625 15 1 
345.333 1.20441 7.43235 0.0026888 0.0125387 7.43236 -1.07112 15 1 
346.667 1.20443 7.41936 0.00265683 0.0124577 7.41937 -1.02513 15 1 
348 1.20443 7.4019 0.002592 0.0123704 7.40192 -1.02257 15 1 
349.333 1.20445 7.38286 0.0025697 0.0123703 7.38288 -0.991005 15 1 
350.667 1.2045 7.37316 0.00259984 0.0124225 7.37318 -0.907196 15 1 
352 1.20459 7.37031 0.00262013 0.0124156 7.37033 -0.740022 15 1 
353.333 1.20459 7.35312 0.00259031 0.0123921 7.35313 -0.740838 15 1 
354.667 1.20458 7.33546 0.00255851 0.0124284 7.33547 -0.765521 15 1 
356 1.20465 7.33028 0.00258897 0.0125127 7.33029 -0.637197 15 1 
357.333 1.20469 7.32355 0.00263838 0.0125861 7.32357 -0.563301 15 1 
358.667 1.20472 7.31622 0.00262898 0.0126321 7.31623 -0.501676 15 1 
360 1.20475 7.30809 0.00256885 0.0126473 7.3081 -0.445393 15 1 
361.333 1.20475 7.29823 0.00256723 0.012704 7.29824 -0.451006 15 1 
362.667 1.20478 7.2956 0.00263443 0.0128111 7.29561 -0.391075 15 1 
362.667 1.20478 7.2956 0.00263443 0.0128111 7.29561 -0.391075 15 1 
364 1.20482 7.29412 0.00264622 0.0128948 7.29413 -0.316275 15 1 
365.333 1.20485 7.29041 0.0025895 0.0129181 7.29042 -0.266669 15 1 
366.667 1.20488 7.28793 0.00258479 0.0129615 7.28794 -0.215539 15 1 
368 1.2049 7.28467 0.0026147 0.0130299 7.28469 -0.172433 15 1 
369.333 1.20495 7.28573 0.00260617 0.0130918 7.28574 -0.094938 15 1 
370.667 1.20496 7.28769 0.00259602 0.0131496 7.28771 -0.0691767 15 1 
372 1.20496 7.28542 0.0025973 0.0131776 7.28543 -0.0687118 15 1 
373.333 1.205 7.2862 0.00259669 0.0131883 7.28621 0.00382892 15 1 
374.667 1.20502 7.28695 0.00262855 0.0132608 7.28697 0.0375974 15 1 
376 1.20504 7.2871 0.00266858 0.0133364 7.28712 0.0667651 15 1 
377.333 1.20508 7.2911 0.00264734 0.0133145 7.29111 0.136809 15 1 
378.667 1.20509 7.29135 0.00260399 0.0132611 7.29136 0.166695 15 1 
380 1.20512 7.29038 0.00262402 0.0132836 7.29039 0.213722 15 1 
381.333 1.20514 7.29278 0.00264012 0.0132974 7.29279 0.251155 15 1 
382.667 1.20514 7.29264 0.00257969 0.0132187 7.29265 0.244241 15 1 
384 1.20516 7.29309 0.00253159 0.0131461 7.2931 0.282654 15 1 
384 1.20516 7.29309 0.00253159 0.0131461 7.2931 0.282654 15 1 
385.333 1.20517 7.29424 0.00251415 0.0131305 7.29425 0.314616 15 1 
386.667 1.20518 7.29222 0.0024517 0.0130679 7.29223 0.322401 15 1 
388 1.20521 7.29208 0.00241116 0.0129998 7.29209 0.378053 15 1 
389.333 1.20524 7.29262 0.0024151 0.0129806 7.29263 0.428116 15 1 
390.667 1.20525 7.2911 0.00235103 0.0129049 7.29111 0.442539 15 1 
392 1.20525 7.28973 0.00227095 0.0128153 7.28974 0.456472 15 1 
393.333 1.20526 7.28667 0.00228253 0.0128128 7.28668 0.473876 15 1 
394.667 1.20527 7.28361 0.00232089 0.0128255 7.28362 0.489334 15 1 
396 1.20528 7.2821 0.00227939 0.0127354 7.28211 0.496888 15 1 
397.333 1.20528 7.27878 0.00220039 0.0126271 7.27879 0.514388 15 1 
398.667 1.2053 7.27499 0.0021923 0.0126108 7.27501 0.53765 15 1 
400 1.2053 7.27122 0.00221536 0.0125832 7.27123 0.545255 15 1 
401.333 1.20532 7.26679 0.0021645 0.0124843 7.2668 0.573647 15 1 
402.667 1.20534 7.2637 0.00207452 0.0123953 7.26371 0.610656 15 1 
404 1.20533 7.25947 0.00205032 0.0123601 7.25949 0.601192 15 1 
405.333 1.20533 7.25371 0.00208089 0.0123605 7.25372 0.587447 15 1 
405.333 1.20533 7.25371 0.00208089 0.0123605 7.25372 0.587447 15 1 
406.667 1.20534 7.24964 0.00204997 0.0123206 7.24965 0.6111 15 1 
408 1.20535 7.24534 0.00195964 0.0122271 7.24535 0.637077 15 1 
409.333 1.20535 7.24033 0.0019264 0.0121801 7.24034 0.640022 15 1 
410.667 1.20535 7.23587 0.00194378 0.0121976 7.23588 0.629996 15 1 
412 1.20535 7.23089 0.00191591 0.0121993 7.2309 0.639008 15 1 
413.333 1.20537 7.22677 0.00185595 0.0121658 7.22678 0.672689 15 1 
414.667 1.20538 7.22287 0.00182921 0.0121167 7.22288 0.69014 15 1 
416 1.20538 7.21769 0.00180879 0.0120896 7.2177 0.688925 15 1 
417.333 1.20538 7.21381 0.00171463 0.0120251 7.21382 0.695337 15 1 
418.667 1.20539 7.2101 0.00157469 0.0118894 7.21011 0.698759 15 1 
420 1.20539 7.20498 0.00150922 0.0118076 7.20499 0.701098 15 1 
421.333 1.20539 7.20097 0.00149094 0.0117936 7.20098 0.710578 15 1 
422.667 1.2054 7.1975 0.00140608 0.0117095 7.19751 0.713991 15 1 
424 1.2054 7.19373 0.00129528 0.0115696 7.19374 0.714657 15 1 
425.333 1.2054 7.19016 0.00126357 0.0115426 7.19017 0.716284 15 1 
426.667 1.2054 7.18605 0.00129812 0.0116361 7.18606 0.719596 15 1 
426.667 1.2054 7.18605 0.00129812 0.0116361 7.18606 0.719596 20 1 
428 1.2054 7.1831 0.00126857 0.0116419 7.18311 0.730808 20 1 
429.333 1.20541 7.18136 0.00111827 0.0114981 7.18137 0.744666 20 1 
430.667 1.20542 7.17852 0.000977345 0.0113711 7.17853 0.749834 20 1 
432 1.20541 7.17566 0.000951775 0.0113474 7.17567 0.740211 20 1 
433.333 1.20541 7.17319 0.000974626 0.0113457 7.1732 0.735707 20 1 
434.667 1.20542 7.1707 0.000943275 0.0113006 7.17071 0.7524 20 1 
436 1.20542 7.1688 0.000864096 0.0112459 7.16881 0.760273 20 1 
437.333 1.20541 7.16669 0.000871558 0.0112956 7.1667 0.744569 20 1 
438.667 1.20541 7.16497 0.00101393 0.0114783 7.16498 0.738472 20 1 
440 1.20542 7.16427 0.0010977 0.0115971 7.16428 0.75119 20 1 
441.333 1.20542 7.16327 0.000935323 0.0114257 7.16328 0.76038 20 1 
442.667 1.20542 7.16267 0.000562968 0.0110003 7.16268 0.763405 20 1 
444 1.20542 7.16238 0.000179368 0.0106009 7.16239 0.767105 20 1 
445.333 1.20543 7.16111 -1.39606e-05 0.0104398 7.16111 0.769755 20 1 
446.667 1.20543 7.16052 2.88934e-05 0.0104989 7.16053 0.773392 20 1 
448 1.20543 7.16087 0.000203288 0.0106786 7.16087 0.782042 20 1 
448 1.20543 7.16087 0.000203288 0.0106786 7.16087 0.782042 20 1 
449.333 1.20544 7.16084 0.00037386 0.0108681 7.16085 0.786699 20 1 
450.667 1.20543 7.16101 0.000457312 0.0109635 7.16101 0.777239 20 1 
452 1.20542 7.16108 0.000459493 0.0109564 7.16109 0.75817 20 1 
453.333 1.20541 7.16105 0.00041588 0.010901 7.16106 0.747933 20 1 
454.667 1.20542 7.16188 0.000327823 0.0108124 7.16189 0.761046 20 1 
456 1.20543 7.16289 0.000230565 0.0107263 7.1629 0.779928 20 1 
457.333 1.20543 7.16359 0.000170623 0.010663 7.1636 0.780828 20 1 
458.667 1.20543 7.16423 0.000124865 0.0105981 7.16424 0.769603 20 1 
460 1.20543 7.16506 7.63984e-05 0.0105594 7.16507 0.771583 20 1 
461.333 1.20544 7.16651 2.09791e-05 0.0105275 7.16652 0.786273 20 1 
462.667 1.20544 7.16785 -3.84412e-05 0.0104361 7.16785 0.786088 20 1 
464 1.20543 7.16879 -7.90499e-05 0.0103402 7.1688 0.776282 20 1 
465.333 1.20543 7.17016 -0.00010746 0.0103152 7.17017 0.768047 20 1 
466.667 1.20542 7.17139 -0.000139989 0.0103058 7.1714 0.753877 20 1 
468 1.20541 7.17288 -0.000173367 0.0102344 7.17289 0.7454 20 1 
469.333 1.20541 7.17524 -0.000196355 0.0101497 7.17524 0.749109 20 1 
469.333 1.20541 7.17524 -0.000196355 0.0101497 7.17524 0.749109 20 1 
470.667 1.20542 7.17707 -0.000200908 0.0101424 7.17707 0.752614 20 1 
472 1.20542 7.17893 -0.00019453 0.0101681 7.17894 0.758178 20 1 
473.333 1.20543 7.18177 -0.000195309 0.0101428 7.18178 0.768759 20 1 
474.667 1.20543 7.1843 -0.000195152 0.0101151 7.18431 0.774565 20 1 
476 1.20543 7.18649 -0.000181781 0.0101369 7.1865 0.777338 20 1 
477.333 1.20543 7.18907 -0.000168656 0.0101566 7.18908 0.778166 20 1 
478.667 1.20543 7.1915 -0.000167308 0.0101473 7.19151 0.773489 20 1 
480 1.20542 7.19384 -0.000163526 0.0101409 7.19385 0.767108 20 1 
481.333 1.20542 7.19628 -0.000153223 0.0101533 7.19628 0.764805 20 1 
482.667 1.20542 7.19862 -0.000143586 0.0101612 7.19863 0.763909 20 1 
484 1.20542 7.201 -0.000141793 0.0101422 7.20101 0.756012 20 1 
485.333 1.20542 7.20317 -0.00014591 0.0101231 7.20318 0.750237 20 1 
486.667 1.20542 7.20531 -0.000139917 0.0101292 7.20532 0.753124 20 1 
488 1.20542 7.20758 -0.000130049 0.0101224 7.20759 0.756994 20 1 
489.333 1.20542 7.20977 -0.000132388 0.0100863 7.20978 0.760872 20 1 
490.667 1.20542 7.21197 -0.000137044 0.0100585 7.21198 0.764952 20 1 
490.667 1.20542 7.21197 -0.000137044 0.0100585 7.21198 0.764952 20 1 
492 1.20542 7.2138 -0.000135129 0.0100422 7.21381 0.762923 20 1 
493.333 1.20542 7.21531 -0.000138685 0.010002 7.21532 0.756608 20 1 
494.667 1.20542 7.21735 -0.000150419 0.00994892 7.21736 0.760226 20 1 
496 1.20542 7.21953 -0.000158511 0.0099072 7.21953 0.76717 20 1 
497.333 1.20542 7.22086 -0.000159682 0.00986108 7.22087 0.756967 20 1 
498.667 1.20541 7.22213 -0.00016264 0.00980453 7.22214 0.739402 20 1 
500 1.20541 7.22387 -0.000182857 0.00975084 7.22388 0.733676 20 1 
501.333 1.2054 7.2255 -0.000203723 0.00970569 7.2255 0.728516 20 1 
502.667 1.2054 7.22709 -0.000201421 0.00965954 7.2271 0.718508 20 1 
504 1.2054 7.2287 -0.000201865 0.00961362 7.2287 0.716394 20 1 
505.333 1.2054 7.23018 -0.000212373 0.00957482 7.23018 0.715522 20 1 
506.667 1.20539 7.23181 -0.000219387 0.00953574 7.23182 0.712841 20 1 
508 1.2054 7.23357 -0.000216406 0.00950277 7.23358 0.718133 20 1 
509.333 1.2054 7.2351 -0.000220873 0.0094711 7.2351 0.72352 20 1 
510.667 1.2054 7.23637 -0.000228332 0.00943006 7.23637 0.713877 20 1 
512 1.20539 7.23748 -0.000209372 0.00940711 7.23749 0.698433 20 1 
512 1.20539 7.23748 -0.000209372 0.00940711 7.23749 0.698433 21 1 
513.333 1.20538 7.2386 -0.000186853 0.00941976 7.23861 0.694185 21 1 
514.667 1.20538 7.23975 -0.000186002 0.00939806 7.23976 0.695244 21 1 
516 1.20538 7.24078 -0.000189543 0.00935124 7.24078 0.692698 21 1 
517.333 1.20538 7.24166 -0.000199748 0.0093268 7.24167 0.687622 21 1 
518.667 1.20538 7.2422 -0.000209649 0.00930542 7.24221 0.678803 21 1 
520 1.20537 7.24254 -0.000186279 0.00929358 7.24255 0.67018 21 1 
521.333 1.20537 7.24309 -0.000155805 0.00928754 7.24309 0.668982 21 1 
522.667 1.20537 7.24347 -0.000165646 0.00926872 7.24348 0.668701 21 1 
524 1.20537 7.24345 -0.000185837 0.0092228 7.24346 0.662273 21 1 
525.333 1.20536 7.24325 -0.000164874 0.00918772 7.24325 0.652178 21 1 
526.667 1.20536 7.24294 -0.000139814 0.00917855 7.24294 0.646245 21 1 
528 1.20536 7.24284 -0.000152908 0.00914788 7.24284 0.652677 21 1 
529.333 1.20537 7.24267 -0.000156894 0.0091049 7.24268 0.663145 21 1 
530.667 1.20537 7.24201 -0.000134979 0.00906464 7.24201 0.663341 21 1 
532 1.20537 7.2413 -0.000149338 0.00901514 7.24131 0.661139 21 1 
533.333 1.20537 7.24058 -0.000176715 0.00896091 7.24058 0.661187 21 1 
533.333 1.20537 7.24058 -0.000176715 0.00896091 7.24058 0.661187 21 1 
534.667 1.20536 7.23956 -0.000160797 0.00893125 7.23956 0.655145 21 1 
536 1.20536 7.23855 -0.000135675 0.0088826 7.23856 0.656142 21 1 
537.333 1.20537 7.23775 -0.000140546 0.00882202 7.23775 0.672437 21 1 
538.667 1.20538 7.23684 -0.000147577 0.00878686 7.23685 0.685343 21 1 
540 1.20538 7.23553 -0.000153332 0.00872279 7.23554 0.687526 21 1 
541.333 1.20538 7.23407 -0.000166721 0.00865373 7.23407 0.692531 21 1 
542.667 1.20539 7.23307 -0.000165026 0.00860833 7.23308 0.708129 21 1 
544 1.2054 7.23205 -0.000154331 0.00857527 7.23206 0.727751 21 1 
545.333 1.20541 7.23061 -0.000143236 0.00852845 7.23062 0.745089 21 1 
546.667 1.20542 7.22913 -0.000139544 0.00847178 7.22913 0.761968 21 1 
548 1.20543 7.22764 -0.000134408 0.00843424 7.22765 0.77787 21 1 
549.333 1.20544 7.22632 -0.000130099 0.00838845 7.22633 0.79696 21 1 
550.667 1.20545 7.22491 -0.000122368 0.00834348 7.22492 0.818225 21 1 
552 1.20546 7.22308 -9.99766e-05 0.00831977 7.22309 0.834945 21 1 
553.333 1.20548 7.22148 -7.46091e-05 0.00830591 7.22148 0.858155 21 1 
554.667 1.20549 7.22014 -6.9585e-05 0.00826274 7.22015 0.885955 21 1 
554.667 1.20549 7.22014 -6.9585e-05 0.00826274 7.22015 0.885955 22 1 
556 1.2055 7.21841 -6.57666e-05 0.00822145 7.21841 0.906979 22 1 
557.333 1.20551 7.21661 -4.12119e-05 0.00820544 7.21661 0.925297 22 1 
558.667 1.20552 7.21477 -1.33179e-05 0.00818207 7.21477 0.940582 22 1 
560 1.20553 7.21265 1.67543e-05 0.00817891 7.21266 0.954848 22 1 
561.333 1.20554 7.21073 3.89889e-05 0.00817789 7.21074 0.976587 22 1 
562.667 1.20555 7.20891 5.77429e-05 0.00817089 7.20892 0.998426 22 1 
564 1.20556 7.20688 7.25492e-05 0.00815128 7.20689 1.01357 22 1 
565.333 1.20557 7.20465 9.58907e-05 0.00814484 7.20466 1.02611 22 1 
566.667 1.20557 7.20233 0.000141234 0.00816305 7.20233 1.03817 22 1 
568 1.20559 7.20023 0.000183736 0.00816965 7.20023 1.05667 22 1 
569.333 1.2056 7.19824 0.000208117 0.00817232 7.19824 1.08079 22 1 
570.667 1.20561 7.19607 0.000223959 0.00817171 7.19607 1.10193 22 1 
572 1.20562 7.19374 0.000248386 0.00818115 7.19375 1.11707 22 1 
573.333 1.20562 7.19129 0.000286265 0.00819597 7.19129 1.12389 22 1 
574.667 1.20563 7.18901 0.000328667 0.00822011 7.18901 1.13295 22 1 
576 1.20564 7.18697 0.000364247 0.00823252 7.18697 1.14955 22 1 
576 1.20564 7.18697 0.000364247 0.00823252 7.18697 1.14955 22 1 
577.333 1.20565 7.18473 0.000392119 0.00823307 7.18474 1.16982 22 1 
578.667 1.20566 7.18257 0.000428246 0.0082556 7.18257 1.19477 22 1 
580 1.20567 7.18067 0.00046565 0.00826554 7.18068 1.21626 22 1 
581.333 1.20568 7.17857 0.000496606 0.00827626 7.17857 1.22992 22 1 
582.667 1.20569 7.17633 0.000540912 0.00830189 7.17634 1.23769 22 1 
584 1.20569 7.17419 0.000582534 0.0083141 7.1742 1.24488 22 1 
585.333 1.2057 7.17224 0.000618008 0.00830595 7.17224 1.26219 22 1 
586.667 1.20571 7.1705 0.0006515 0.00830488 7.17051 1.28627 22 1 
588 1.20572 7.16864 0.000690239 0.00833051 7.16865 1.30416 22 1 
589.333 1.20573 7.1667 0.000733851 0.00833946 7.1667 1.31644 22 1 
590.667 1.20573 7.1649 0.000774901 0.0083462 7.16491 1.32667 22 1 
592 1.20574 7.16309 0.000824149 0.00835996 7.16309 1.34028 22 1 
593.333 1.20575 7.16137 0.000860822 0.00835872 7.16138 1.36059 22 1 
594.667 1.20576 7.15967 0.000890806 0.00835418 7.15968 1.37965 22 1 
596 1.20577 7.15791 0.000927412 0.00836653 7.15791 1.39709 22 1 
597.333 1.20578 7.15622 0.000959785 0.00839613 7.15622 1.4137 22 1 
597.333 1.20578 7.15622 0.000959785 0.00839613 7.15622 1.4137 24 1 
598.667 1.20579 7.15453 0.000998685 0.0084162 7.15454 1.42927 24 1 
600 1.2058 7.15283 0.00104059 0.00844735 7.15284 1.44713 24 1 
601.333 1.20581 7.15124 0.00106871 0.00847877 7.15124 1.46647 24 1 
602.667 1.20582 7.14967 0.00108727 0.00848526 7.14967 1.48794 24 1 
604 1.20584 7.14803 0.0011189 0.00850691 7.14804 1.50961 24 1 
605.333 1.20585 7.14638 0.00115248 0.00853422 7.14639 1.52948 24 1 
606.667 1.20586 7.14467 0.00117274 0.00857566 7.14467 1.54453 24 1 
608 1.20586 7.14294 0.0011931 0.00863408 7.14295 1.5565 24 1 
609.333 1.20587 7.14144 0.00120624 0.00869633 7.14145 1.57892 24 1 
610.667 1.20589 7.14034 0.00121206 0.00874916 7.14034 1.60697 24 1 
612 1.2059 7.13912 0.00123001 0.00879427 7.13913 1.62922 24 1 
613.333 1.20591 7.13768 0.00125508 0.00885689 7.13769 1.64102 24 1 
614.667 1.20591 7.13623 0.00127514 0.00890054 7.13623 1.64904 24 1 
616 1.20592 7.1347 0.00129048 0.00895851 7.1347 1.66014 24 1 
617.333 1.20593 7.13332 0.00129738 0.00904104 7.13332 1.67128 24 1 
618.667 1.20594 7.13219 0.00130185 0.00914838 7.13219 1.69274 24 1 
618.667 1.20594 7.13219 0.00130185 0.00914838 7.13219 1.69274 24 1 
620 1.20595 7.13143 0.00131121 0.00926616 7.13144 1.71883 24 1 
621.333 1.20597 7.13065 0.00132464 0.00938316 7.13066 1.74312 24 1 
622.667 1.20597 7.12981 0.00134096 0.00950188 7.12982 1.75535 24 1 
624 1.20597 7.12895 0.00136488 0.00959332 7.12896 1.75559 24 1 
625.333 1.20597 7.128 0.00140526 0.00969975 7.12801 1.76036 24 1 
626.667 1.20598 7.12714 0.00143832 0.00980672 7.12715 1.77812 24 1 
628 1.206 7.12639 0.00145525 0.00994532 7.12639 1.80303 24 1 
629.333 1.20601 7.12572 0.0014736 0.0101068 7.12573 1.81936 24 1 
630.667 1.20602 7.12528 0.0014809 0.0102879 7.12529 1.83451 24 1 
632 1.20603 7.12518 0.00149114 0.0104632 7.12519 1.85419 24 1 
633.333 1.20604 7.12522 0.0015103 0.0105943 7.12523 1.86999 24 1 
634.667 1.20604 7.12511 0.00155061 0.010729 7.12511 1.87883 24 1 
636 1.20605 7.12477 0.00161135 0.010858 7.12478 1.89051 24 1 
637.333 1.20606 7.1248 0.00166025 0.0109912 7.12481 1.90702 24 1 
638.667 1.20607 7.12466 0.00170731 0.0111473 7.12467 1.93355 24 1 
640 1.20608 7.12448 0.00172945 0.0113282 7.12449 1.94986 24 1 
640 1.20608 7.12448 0.00172945 0.0113282 7.12449 1.94986 24 1 
641.333 1.20608 7.12449 0.00173932 0.0115305 7.1245 1.95227 24 1 
642.667 1.20609 7.12468 0.00175564 0.0117328 7.12469 1.96526 24 1 
644 1.2061 7.12567 0.00178108 0.0119031 7.12568 1.98584 24 1 
645.333 1.20611 7.12657 0.00183146 0.01204 7.12658 2.0128 24 1 
646.667 1.20612 7.12711 0.00189365 0.0121503 7.12712 2.0301 24 1 
648 1.20613 7.1273 0.0019663 0.0122505 7.12731 2.03647 24 1 
649.333 1.20613 7.12693 0.00202501 0.0123799 7.12694 2.04802 24 1 
650.667 1.20614 7.12699 0.00205406 0.0125361 7.127 2.05664 24 1 
652 1.20615 7.12712 0.00207326 0.0127269 7.12713 2.07278 24 1 
653.333 1.20616 7.12747 0.00207722 0.0129702 7.12749 2.08881 24 1 
654.667 1.20616 7.12867 0.00208721 0.01318 7.12868 2.10087 24 1 
656 1.20618 7.1298 0.00211771 0.0133489 7.12982 2.1265 24 1 
657.333 1.20618 7.13129 0.00217975 0.0134995 7.1313 2.1381 24 1 
658.667 1.20619 7.13225 0.00226627 0.0135616 7.13227 2.14555 24 1 
660 1.20619 7.13258 0.00234852 0.0136422 7.1326 2.15745 24 1 
661.333 1.2062 7.13296 0.00241006 0.0137657 7.13298 2.17137 24 1 
661.333 1.2062 7.13296 0.00241006 0.0137657 7.13298 2.17137 24 1 
662.667 1.20621 7.13322 0.00242385 0.0139476 7.13323 2.19224 24 1 
664 1.20622 7.13415 0.00240593 0.0142445 7.13416 2.20362 24 1 
665.333 1.20623 7.13598 0.00237523 0.0145572 7.136 2.21548 24 1 
666.667 1.20623 7.13877 0.00237428 0.0148677 7.13878 2.22916 24 1 
668 1.20624 7.14214 0.0024226 0.0151173 7.14215 2.24715 24 1 
669.333 1.20626 7.14561 0.00250308 0.0152063 7.14562 2.26792 24 1 
670.667 1.20626 7.14837 0.0026065 0.0152161 7.14839 2.28239 24 1 
672 1.20627 7.15018 0.00272092 0.0152293 7.1502 2.29493 24 1 
673.333 1.20628 7.15131 0.00280053 0.0152847 7.15133 2.30979 24 1 
674.667 1.20629 7.15225 0.00283777 0.0155532 7.15227 2.32839 24 1 
676 1.2063 7.15419 0.00282341 0.0159788 7.15421 2.34103 24 1 
677.333 1.2063 7.15761 0.00276605 0.0164852 7.15762 2.35197 24 1 
678.667 1.20631 7.16278 0.00270856 0.0169815 7.16281 2.36847 24 1 
680 1.20632 7.16936 0.00270035 0.0173071 7.16938 2.38483 24 1 
681.333 1.20633 7.17597 0.00277576 0.0174356 7.176 2.40056 24 1 
682.667 1.20634 7.18173 0.00293064 0.0173533 7.18176 2.41265 24 1 
682.667 1.20634 7.18173 0.00293064 0.0173533 7.18176 2.41265 31 1 
684 1.20634 7.18572 0.00315162 0.0172352 7.18574 2.42583 31 1 
685.333 1.20635 7.18797 0.0033574 0.0171769 7.18799 2.4426 31 1 
686.667 1.20636 7.18913 0.00344297 0.0172914 7.18915 2.4591 31 1 
688 1.20637 7.19024 0.0034512 0.0176902 7.19026 2.46682 31 1 
689.333 1.20637 7.19292 0.00337543 0.0182617 7.19294 2.47101 31 1 
690.667 1.20638 7.198 0.00324009 0.0189227 7.19802 2.48491 31 1 
692 1.20639 7.20551 0.00316881 0.0195018 7.20554 2.50648 31 1 
693.333 1.2064 7.21443 0.00319006 0.0198567 7.21446 2.52395 31 1 
694.667 1.2064 7.22289 0.00331354 0.0199273 7.22292 2.53223 31 1 
696 1.2064 7.22989 0.00352804 0.0197737 7.22991 2.53612 31 1 
697.333 1.20641 7.23478 0.00376532 0.0195325 7.2348 2.55141 31 1 
698.667 1.20643 7.23735 0.00397337 0.019395 7.23737 2.57793 31 1 
700 1.20644 7.23861 0.00410821 0.0194993 7.23864 2.59269 31 1 
701.333 1.20644 7.23969 0.00412463 0.0198734 7.23972 2.60086 31 1 
702.667 1.20644 7.24224 0.00406178 0.0205176 7.24227 2.60998 31 1 
704 1.20645 7.24733 0.00393497 0.0212032 7.24736 2.62393 31 1 
704 1.20645 7.24733 0.00393497 0.0212032 7.24736 2.62393 31 1 
705.333 1.20646 7.2549 0.00378989 0.0217919 7.25493 2.63877 31 1 
706.667 1.20647 7.26408 0.00378813 0.0222231 7.26412 2.65329 31 1 
708 1.20648 7.27384 0.00390015 0.0223844 7.27387 2.66926 31 1 
709.333 1.20649 7.28274 0.00406482 0.0223324 7.28278 2.69323 31 1 
710.667 1.20651 7.28982 0.00433182 0.0221927 7.28985 2.71878 31 1 
712 1.20651 7.29485 0.00455191 0.0220611 7.29489 2.72867 31 1 
713.333 1.20651 7.29816 0.00465983 0.0220198 7.2982 2.73464 31 1 
714.667 1.20652 7.30119 0.0047316 0.0222465 7.30123 2.7457 31 1 
716 1.20653 7.30488 0.00474673 0.0227152 7.30491 2.76886 31 1 
717.333 1.20655 7.31059 0.00469335 0.0232341 7.31062 2.79178 31 1 
718.667 1.20656 7.3182 0.0046364 0.0238749 7.31824 2.81195 31 1 
720 1.20656 7.32749 0.00464658 0.0243216 7.32754 2.82377 31 1 
721.333 1.20657 7.33788 0.00468656 0.0244751 7.33792 2.83951 31 1 
722.667 1.20659 7.3477 0.00483389 0.0245226 7.34774 2.86376 31 1 
724 1.2066 7.35616 0.00504681 0.0242522 7.3562 2.88319 31 1 
725.333 1.20661 7.36211 0.00526532 0.0240314 7.36215 2.90065 31 1 
725.333 1.20661 7.36211 0.00526532 0.0240314 7.36215 2.90065 31 1 
726.667 1.20661 7.36584 0.00548965 0.0238442 7.36588 2.91227 31 1 
728 1.20663 7.36795 0.00567403 0.0237744 7.36799 2.93884 31 1 
729.333 1.20664 7.36977 0.00577603 0.0240866 7.36981 2.95821 31 1 
730.667 1.20665 7.37139 0.00573949 0.024366 7.37143 2.98853 31 1 
732 1.20666 7.37481 0.00568975 0.0249444 7.37486 3.00632 31 1 
733.333 1.20667 7.38098 0.00557897 0.0255845 7.38103 3.01172 31 1 
734.667 1.20669 7.38901 0.00560077 0.0261431 7.38906 3.05711 31 1 
736 1.20671 7.40024 0.00571011 0.0267868 7.40029 3.08501 31 1 
737.333 1.20672 7.41205 0.00566338 0.0269359 7.4121 3.11172 31 1 
738.667 1.20673 7.42378 0.00583629 0.0270667 7.42384 3.13121 31 1 
740 1.20674 7.43492 0.00600425 0.0270359 7.43497 3.14014 31 1 
741.333 1.20675 7.44477 0.00613964 0.0268317 7.44482 3.16466 31 1 
742.667 1.20677 7.45346 0.00642392 0.0269303 7.45351 3.20358 31 1 
744 1.2068 7.46104 0.00657275 0.0269376 7.46109 3.24816 31 1 
745.333 1.20681 7.46852 0.0065681 0.0270686 7.46857 3.27639 31 1 
746.667 1.20683 7.47652 0.00658033 0.0274275 7.47657 3.29945 31 1 
746.667 1.20683 7.47652 0.00658033 0.0274275 7.47657 3.29945 31 1 
748 1.20685 7.48538 0.00657232 0.0277719 7.48544 3.33773 31 1 
749.333 1.20686 7.49588 0.00666026 0.0280207 7.49594 3.35872 31 1 
750.667 1.20688 7.50502 0.00698744 0.0276863 7.50507 3.38757 31 1 
752 1.2069 7.50868 0.00761693 0.0263125 7.50873 3.43916 31 1 
753.333 1.20693 7.50198 0.0086551 0.0239903 7.50203 3.48315 31 1 
754.667 1.20695 7.47979 0.00980942 0.021139 7.47983 3.52007 31 1 
756 1.20697 7.44114 0.0108845 0.0183579 7.44119 3.55102 31 1 
757.333 1.20699 7.38714 0.0118032 0.0164445 7.38719 3.59787 31 1 
758.667 1.207 7.32455 0.0122357 0.0155347 7.32461 3.61343 31 1 
760 1.20701 7.25866 0.0122897 0.0157561 7.25872 3.63735 31 1 
761.333 1.20704 7.19536 0.012103 0.016897 7.19543 3.67984 31 1 
762.667 1.20705 7.13866 0.0116151 0.0184345 7.13872 3.69818 31 1 
764 1.20706 7.09021 0.0110458 0.0203017 7.09027 3.71234 31 1 
765.333 1.20707 7.05124 0.0106143 0.0222261 7.05129 3.74505 31 1 
766.667 1.2071 7.02183 0.0102636 0.0240869 7.02189 3.78895 31 1 
768 1.20712 7.00097 0.00990651 0.0258211 7.00103 3.83477 31 1 
768 1.20712 7.00097 0.00990651 0.0258211 7.00103 3.83477 32 1 
769.333 1.20715 6.987 0.00951555 0.0273487 6.98706 3.88425 32 1 
770.667 1.20717 6.98139 0.00934486 0.0287352 6.98146 3.91748 32 1 
772 1.20721 6.98009 0.00921429 0.0298304 6.98016 3.99584 32 1 
773.333 1.20725 6.98315 0.0090339 0.0307097 6.98322 4.06418 32 1 
774.667 1.20727 6.99225 0.00899166 0.031692 6.99233 4.0934 32 1 
776 1.20733 7.00359 0.00906608 0.032612 7.00368 4.20262 32 1 
777.333 1.20739 7.01683 0.00913954 0.0332524 7.01692 4.32292 32 1 
778.667 1.20741 7.03537 0.00922921 0.0338013 7.03546 4.34471 32 1 
780 1.20747 7.05305 0.00941873 0.0345191 7.05314 4.46046 32 1 
781.333 1.20754 7.07418 0.00959634 0.0350892 7.07428 4.58659 32 1 
782.667 1.20759 7.09694 0.0097353 0.0355063 7.09704 4.67653 32 1 
784 1.20764 7.12007 0.0101417 0.035992 7.12018 4.77601 32 1 
785.333 1.20773 7.14333 0.0104181 0.0365743 7.14344 4.92521 32 1 
786.667 1.2078 7.16695 0.0101734 0.0365642 7.16705 5.05158 32 1 
788 1.20784 7.19468 0.0103525 0.0366469 7.19479 5.12457 32 1 
789.333 1.20795 7.21985 0.0112957 0.0376368 7.21997 5.3203 32 1 
790.667 1.20803 7.24798 0.0124545 0.0386209 7.2481 5.46919 32 1 
792 1.2081 7.27216 0.0127774 0.0388521 7.27228 5.60213 32 1 
793.333 1.20817 7.29817 0.0131112 0.038985 7.29829 5.72022 32 1 
794.667 1.20829 7.32499 0.0138339 0.0395817 7.32512 5.9347 32 1 
796 1.20839 7.35329 0.0148029 0.0405623 7.35343 6.12929 32 1 
797.333 1.20848 7.37991 0.0164311 0.042278 7.38005 6.27806 32 1 
798.667 1.20848 7.41386 0.0178556 0.045716 7.41403 6.28463 32 1 
800 1.20841 7.43965 0.0183939 0.048127 7.43984 6.15287 32 1 
