25.3581;r ;Density                 ;Velocity u              ;Velocity v              ;Velocity w              ;|Velocity|              ;Pressure                ;Distribution            ;Levels                  ;
0 1.20484 9.99985 2.63806e-05 1.53716e-05 9.99985 -0.291888 1 1 
1.33334 1.20483 10 3.45903e-05 3.38866e-05 10 -0.305284 1 1 
2.66666 1.20483 10.0001 7.80754e-05 8.96145e-05 10.0001 -0.304476 1 1 
4 1.20485 10 0.000135119 0.000156807 10 -0.279828 1 1 
5.33334 1.20484 9.99998 0.000176602 0.0002047 9.99998 -0.290442 1 1 
6.66666 1.20483 9.99984 0.000216192 0.000254386 9.99984 -0.312625 1 1 
8 1.20481 10.0001 0.000276854 0.000322447 10.0001 -0.33435 1 1 
9.33334 1.20482 10.0001 0.000325962 0.000375937 10.0001 -0.31768 1 1 
10.6667 1.20485 10 0.000362456 0.00042508 10 -0.264146 1 1 
12 1.20484 10.0008 0.000425234 0.000486815 10.0008 -0.284016 1 1 
13.3333 1.20483 10.0007 0.000475131 0.000535103 10.0007 -0.303383 1 1 
14.6667 1.20482 10.0008 0.000524086 0.000587929 10.0008 -0.318763 1 1 
16 1.20482 10.0011 0.000543193 0.000613393 10.0011 -0.33064 1 1 
17.3333 1.20482 10.001 0.000591156 0.000666839 10.001 -0.317066 1 1 
18.6667 1.20482 10.0015 0.000626136 0.00071196 10.0015 -0.320335 1 1 
20 1.20483 10.0018 0.000697053 0.000789807 10.0018 -0.303889 1 1 
21.3333 1.20483 10.0027 0.000734024 0.00083324 10.0027 -0.302696 1 1 
21.3333 1.20483 10.0027 0.000734024 0.00083324 10.0027 -0.302696 1 1 
22.6667 1.20483 10.0035 0.000770909 0.000870333 10.0035 -0.314393 1 1 
24 1.20483 10.0034 0.000833543 0.000935907 10.0034 -0.309667 1 1 
25.3333 1.20484 10.0027 0.000853237 0.000967482 10.0027 -0.29572 1 1 
26.6667 1.20482 10.0027 0.000904572 0.00101347 10.0027 -0.320613 1 1 
28 1.20481 10.0025 0.000965929 0.0010815 10.0025 -0.340553 1 1 
29.3333 1.20481 10.002 0.00103121 0.00114861 10.002 -0.35105 1 1 
30.6667 1.20479 10.0018 0.00107191 0.00119022 10.0018 -0.371151 1 1 
32 1.2048 10.0018 0.00114861 0.00127943 10.0018 -0.369684 1 1 
33.3333 1.20479 10.0019 0.0011829 0.00132216 10.0019 -0.375051 1 1 
34.6667 1.2048 10.0009 0.00120428 0.00135124 10.0009 -0.356489 1 1 
36 1.20481 10.0009 0.00125622 0.00140342 10.0009 -0.337694 1 1 
37.3333 1.2048 10.0017 0.00130142 0.00144991 10.0017 -0.35351 1 1 
38.6667 1.20478 10.0019 0.00130253 0.00145048 10.0019 -0.389227 1 1 
40 1.20478 10.0021 0.00137185 0.00152855 10.0021 -0.388609 1 1 
41.3333 1.20479 10.0019 0.00143019 0.001603 10.0019 -0.370838 1 1 
42.6667 1.20478 10.0021 0.0014464 0.0016159 10.0021 -0.395409 1 1 
42.6667 1.20478 10.0021 0.0014464 0.0016159 10.0021 -0.395409 2 1 
44 1.20478 10.0025 0.00148099 0.00165533 10.0025 -0.397075 2 1 
45.3333 1.20479 10.0026 0.00150762 0.00169177 10.0026 -0.379937 2 1 
46.6667 1.2048 10.0028 0.0015148 0.00171182 10.0028 -0.368543 2 1 
48 1.20478 10.0038 0.00151622 0.00172011 10.0038 -0.399728 2 1 
49.3333 1.20476 10.0038 0.00155326 0.00175362 10.0038 -0.427538 2 1 
50.6667 1.20477 10.0033 0.00163346 0.00184352 10.0033 -0.417045 2 1 
52 1.20476 10.003 0.00161785 0.00182649 10.003 -0.427149 2 1 
53.3333 1.20475 10.0036 0.0016863 0.00190534 10.0036 -0.449582 2 1 
54.6667 1.20474 10.0049 0.00178189 0.00200203 10.0049 -0.469242 2 1 
56 1.20475 10.0049 0.00176968 0.00199987 10.0049 -0.445724 2 1 
57.3333 1.20477 10.0042 0.00181216 0.00205113 10.0042 -0.418449 2 1 
58.6667 1.20475 10.0046 0.00190068 0.00214973 10.0046 -0.455832 2 1 
60 1.20474 10.0051 0.00192212 0.00218467 10.0051 -0.473748 2 1 
61.3333 1.20474 10.0045 0.00190341 0.00216203 10.0045 -0.46576 2 1 
62.6667 1.20472 10.0047 0.00197465 0.00224571 10.0047 -0.501525 2 1 
64 1.20472 10.0041 0.00199349 0.00226923 10.0041 -0.497034 2 1 
64 1.20472 10.0041 0.00199349 0.00226923 10.0041 -0.497034 2 1 
65.3333 1.20472 10.0044 0.00199773 0.00227553 10.0044 -0.497393 2 1 
66.6667 1.20473 10.0051 0.00207112 0.0023568 10.0051 -0.496019 2 1 
68 1.20472 10.0052 0.00210779 0.00240584 10.0052 -0.503942 2 1 
69.3333 1.20471 10.0049 0.00206281 0.00236085 10.0049 -0.517349 2 1 
70.6667 1.20471 10.0049 0.00208361 0.00238331 10.0049 -0.529406 2 1 
72 1.20469 10.0058 0.00215013 0.00245226 10.0058 -0.556059 2 1 
73.3333 1.2047 10.0056 0.00215436 0.00245442 10.0056 -0.549603 2 1 
74.6667 1.20469 10.0056 0.00215658 0.00245898 10.0056 -0.566121 2 1 
76 1.2047 10.0057 0.00223096 0.00253131 10.0057 -0.550573 2 1 
77.3333 1.20469 10.0065 0.00224489 0.0025519 10.0065 -0.560185 2 1 
78.6667 1.20467 10.0073 0.0021829 0.00249807 10.0073 -0.588547 2 1 
80 1.20469 10.0068 0.00223304 0.00255301 10.0068 -0.563846 2 1 
81.3333 1.20467 10.0068 0.00231021 0.00264089 10.0068 -0.594882 2 1 
82.6667 1.20467 10.0067 0.00230736 0.00265586 10.0067 -0.602399 2 1 
84 1.20467 10.0059 0.00233597 0.0026835 10.0059 -0.598857 2 1 
85.3333 1.20463 10.0063 0.00244438 0.00279812 10.0063 -0.659923 2 1 
85.3333 1.20463 10.0063 0.00244438 0.00279812 10.0063 -0.659923 3 1 
86.6667 1.20465 10.0069 0.00245134 0.00282409 10.0069 -0.641026 3 1 
88 1.20468 10.0072 0.00235795 0.00272541 10.0072 -0.584864 3 1 
89.3333 1.20467 10.0078 0.00244945 0.00280752 10.0078 -0.595192 3 1 
90.6667 1.20464 10.0079 0.00251452 0.00287792 10.0079 -0.645511 3 1 
92 1.20464 10.0071 0.00242329 0.00279212 10.0071 -0.649749 3 1 
93.3333 1.20465 10.0068 0.00243498 0.00280236 10.0068 -0.636487 3 1 
94.6667 1.20463 10.0075 0.00253383 0.00289068 10.0075 -0.672323 3 1 
96 1.20464 10.0076 0.00251174 0.00287868 10.0076 -0.658904 3 1 
97.3333 1.20465 10.0078 0.0024094 0.00277739 10.0078 -0.638303 3 1 
98.6667 1.20464 10.008 0.00243707 0.0028047 10.008 -0.654257 3 1 
100 1.20464 10.0075 0.00261357 0.00296921 10.0075 -0.655934 3 1 
101.333 1.20463 10.0073 0.00252841 0.00288951 10.0073 -0.670676 3 1 
102.667 1.20462 10.0075 0.00238934 0.00277094 10.0075 -0.687968 3 1 
104 1.20462 10.0086 0.00254339 0.00291567 10.0086 -0.692724 3 1 
105.333 1.20464 10.0086 0.00261794 0.00300361 10.0086 -0.653421 3 1 
106.667 1.20464 10.0088 0.00249527 0.00287613 10.0088 -0.648883 3 1 
106.667 1.20464 10.0088 0.00249527 0.00287613 10.0088 -0.648883 3 1 
108 1.20462 10.0091 0.0024681 0.00285706 10.0091 -0.681548 3 1 
109.333 1.20463 10.0081 0.00269302 0.00308825 10.0081 -0.670787 3 1 
110.667 1.20463 10.0078 0.00271594 0.00311996 10.0078 -0.670436 3 1 
112 1.2046 10.0084 0.00252019 0.00293139 10.0084 -0.718961 3 1 
113.333 1.20461 10.0084 0.00252642 0.00292887 10.0084 -0.69752 3 1 
114.667 1.20462 10.0085 0.00275047 0.00315909 10.0085 -0.681742 3 1 
116 1.2046 10.0097 0.00271457 0.00312685 10.0097 -0.716075 3 1 
117.333 1.20463 10.0092 0.00240034 0.00283524 10.0092 -0.668223 3 1 
118.667 1.20461 10.0095 0.0024487 0.00288692 10.0095 -0.700036 3 1 
120 1.20462 10.0085 0.00270181 0.00314353 10.0085 -0.687182 3 1 
121.333 1.20463 10.0081 0.00260107 0.00303763 10.0081 -0.672265 3 1 
122.667 1.2046 10.0094 0.00232205 0.00273128 10.0094 -0.71478 3 1 
124 1.20462 10.0089 0.00242946 0.00282767 10.0089 -0.686152 3 1 
125.333 1.2046 10.0095 0.00280299 0.0032042 10.0095 -0.717071 3 1 
126.667 1.20461 10.009 0.00273407 0.00313775 10.009 -0.701733 3 1 
128 1.20461 10.0086 0.00240534 0.00280249 10.0086 -0.710609 3 1 
128 1.20461 10.0086 0.00240534 0.00280249 10.0086 -0.710609 3 1 
129.333 1.2046 10.0081 0.0024591 0.00287556 10.0081 -0.716512 3 1 
130.667 1.20462 10.0078 0.00295012 0.00337779 10.0078 -0.685918 3 1 
132 1.20461 10.0094 0.00303449 0.00349311 10.0094 -0.698784 3 1 
133.333 1.20463 10.0097 0.0025726 0.00304682 10.0098 -0.6724 3 1 
134.667 1.20462 10.0097 0.00230482 0.00277983 10.0097 -0.684061 3 1 
136 1.20461 10.0089 0.00267877 0.00312393 10.0089 -0.700001 3 1 
137.333 1.20461 10.0082 0.00310817 0.0035496 10.0082 -0.696158 3 1 
138.667 1.20463 10.0084 0.00292223 0.00337661 10.0084 -0.677413 3 1 
140 1.20463 10.0093 0.00245557 0.00293264 10.0093 -0.675812 3 1 
141.333 1.20462 10.0088 0.00248498 0.00295673 10.0088 -0.687162 3 1 
142.667 1.20462 10.007 0.00317074 0.00361018 10.0071 -0.684343 3 1 
144 1.20462 10.0072 0.00369038 0.00416544 10.0072 -0.682663 3 1 
145.333 1.20464 10.0075 0.00358974 0.00409044 10.0075 -0.657423 3 1 
146.667 1.20465 10.0081 0.00313146 0.00367315 10.0081 -0.638699 3 1 
148 1.20464 10.0087 0.0029997 0.00354533 10.0087 -0.647437 3 1 
149.333 1.20464 10.008 0.00326045 0.00380572 10.008 -0.64224 3 1 
149.333 1.20464 10.008 0.00326045 0.00380572 10.008 -0.64224 3 1 
150.667 1.20465 10.0077 0.00347827 0.00400337 10.0077 -0.629353 3 1 
152 1.20464 10.0074 0.00323551 0.00375611 10.0074 -0.644464 3 1 
153.333 1.20464 10.0072 0.00268893 0.00322466 10.0072 -0.64967 3 1 
154.667 1.20465 10.0078 0.00225457 0.00281916 10.0078 -0.640119 3 1 
156 1.20466 10.0071 0.00228558 0.00287327 10.0071 -0.616936 3 1 
157.333 1.20467 10.0063 0.00269895 0.00329233 10.0063 -0.601351 3 1 
158.667 1.20467 10.0062 0.00316149 0.0037793 10.0062 -0.593664 3 1 
160 1.20468 10.0057 0.00351978 0.00413681 10.0057 -0.581079 3 1 
161.333 1.20467 10.0058 0.00366325 0.00428972 10.0058 -0.603528 3 1 
162.667 1.20467 10.0055 0.00370231 0.00433684 10.0056 -0.592942 3 1 
164 1.20468 10.0051 0.00369761 0.00433346 10.0051 -0.575721 3 1 
165.333 1.20467 10.0055 0.00367369 0.00431737 10.0055 -0.592638 3 1 
166.667 1.2047 10.0045 0.00369688 0.00435625 10.0045 -0.540304 3 1 
168 1.20469 10.0043 0.00370927 0.00437937 10.0043 -0.560227 3 1 
169.333 1.20467 10.0042 0.00371635 0.00439075 10.0042 -0.587183 3 1 
170.667 1.2047 10.0039 0.00374319 0.00443874 10.0039 -0.538087 3 1 
170.667 1.2047 10.0039 0.00374319 0.00443874 10.0039 -0.538087 11 1 
172 1.2047 10.004 0.00375116 0.00446002 10.004 -0.54733 11 1 
173.333 1.20471 10.0025 0.00377926 0.00449459 10.0025 -0.531217 11 1 
174.667 1.20472 10.0024 0.00377432 0.00450734 10.0024 -0.509501 11 1 
176 1.20471 10.0014 0.00377632 0.00452425 10.0014 -0.515292 11 1 
177.333 1.20471 10.0003 0.00379474 0.00455209 10.0003 -0.518855 11 1 
178.667 1.20471 10.0005 0.00380576 0.00457244 10.0005 -0.515411 11 1 
180 1.20472 9.99984 0.00382852 0.00461083 9.99984 -0.500888 11 1 
181.333 1.20472 10.0003 0.00383493 0.0046173 10.0003 -0.500496 11 1 
182.667 1.20473 10.0006 0.00388047 0.00468895 10.0006 -0.481348 11 1 
184 1.20476 9.9993 0.00387916 0.00470858 9.9993 -0.439102 11 1 
185.333 1.20474 9.99791 0.00386881 0.0046987 9.99791 -0.477119 11 1 
186.667 1.20473 9.99638 0.0038472 0.00468859 9.99638 -0.487591 11 1 
188 1.20476 9.99607 0.00383909 0.0046997 9.99607 -0.435221 11 1 
189.333 1.20476 9.99765 0.00388842 0.00475316 9.99765 -0.440006 11 1 
190.667 1.20477 9.99734 0.00391751 0.0047733 9.99734 -0.419702 11 1 
192 1.20478 9.99601 0.0039522 0.0048539 9.99601 -0.400423 11 1 
192 1.20478 9.99601 0.0039522 0.0048539 9.99601 -0.400423 11 1 
193.333 1.20477 9.99604 0.00397124 0.00486249 9.99604 -0.416094 11 1 
194.667 1.20477 9.99443 0.00389989 0.00480876 9.99443 -0.421715 11 1 
196 1.20478 9.99292 0.00392262 0.00486412 9.99293 -0.394951 11 1 
197.333 1.20479 9.99454 0.00398985 0.00493657 9.99454 -0.371685 11 1 
198.667 1.20481 9.99389 0.00391864 0.00488104 9.99389 -0.352142 11 1 
200 1.20481 9.9926 0.00405084 0.00502296 9.9926 -0.348185 11 1 
201.333 1.2048 9.99214 0.00404483 0.00505333 9.99214 -0.368092 11 1 
202.667 1.20482 9.98887 0.00389668 0.00488533 9.98887 -0.328334 11 1 
204 1.20481 9.98795 0.004 0.00501456 9.98795 -0.343999 11 1 
205.333 1.20481 9.98952 0.00398165 0.00503245 9.98952 -0.334649 11 1 
206.667 1.20487 9.98972 0.00400651 0.00506724 9.98972 -0.233719 11 1 
208 1.20484 9.99027 0.00412526 0.0051762 9.99028 -0.279995 11 1 
209.333 1.20484 9.98858 0.00406235 0.00513682 9.98859 -0.297962 11 1 
210.667 1.20486 9.98464 0.004068 0.00518568 9.98464 -0.249416 11 1 
212 1.20485 9.98231 0.00405632 0.00516223 9.98231 -0.276836 11 1 
213.333 1.20485 9.98097 0.00404702 0.00517392 9.98097 -0.267132 11 1 
213.333 1.20485 9.98097 0.00404702 0.00517392 9.98097 -0.267132 11 1 
214.667 1.20488 9.97994 0.00407577 0.00524921 9.97995 -0.209844 11 1 
216 1.20489 9.9804 0.00408272 0.00527646 9.98041 -0.193322 11 1 
217.333 1.20488 9.98156 0.00411324 0.00527252 9.98156 -0.21676 11 1 
218.667 1.20492 9.9805 0.00410264 0.00530077 9.9805 -0.146069 11 1 
220 1.20493 9.97894 0.00413753 0.00540559 9.97894 -0.121861 11 1 
221.333 1.20491 9.97625 0.00418115 0.00542251 9.97625 -0.159065 11 1 
222.667 1.20492 9.97107 0.00415093 0.00538391 9.97107 -0.140326 11 1 
224 1.20491 9.96981 0.00410606 0.00540295 9.96981 -0.165174 11 1 
225.333 1.20494 9.96943 0.00409874 0.00543386 9.96943 -0.113984 11 1 
226.667 1.20498 9.96859 0.004161 0.00545843 9.96859 -0.0326137 11 1 
228 1.20498 9.96982 0.00422134 0.0055272 9.96982 -0.035671 11 1 
229.333 1.205 9.96555 0.00421522 0.00560155 9.96555 0.000233729 11 1 
230.667 1.205 9.96098 0.00412302 0.00553874 9.96098 -0.00289855 11 1 
232 1.20498 9.95913 0.00409244 0.00547862 9.95914 -0.0337924 11 1 
233.333 1.20502 9.95681 0.00415017 0.00555242 9.95681 0.0447168 11 1 
234.667 1.20507 9.95579 0.00426039 0.00572362 9.9558 0.134603 11 1 
234.667 1.20507 9.95579 0.00426039 0.00572362 9.9558 0.134603 11 1 
236 1.20504 9.95462 0.00427405 0.00577048 9.95462 0.0650082 11 1 
237.333 1.20506 9.9501 0.00422174 0.00570041 9.95011 0.100787 11 1 
238.667 1.20511 9.94469 0.00415245 0.00563533 9.94469 0.197616 11 1 
240 1.20509 9.94282 0.00413001 0.00568171 9.94282 0.153994 11 1 
241.333 1.20516 9.93903 0.00418497 0.00575051 9.93903 0.280002 11 1 
242.667 1.20517 9.93853 0.00422637 0.00579376 9.93853 0.300336 11 1 
244 1.20519 9.93406 0.00422416 0.00581622 9.93407 0.336374 11 1 
245.333 1.20519 9.92775 0.00412169 0.00575195 9.92775 0.345426 11 1 
246.667 1.2052 9.92363 0.00421378 0.00587797 9.92364 0.352912 11 1 
248 1.20528 9.91775 0.00413874 0.00579477 9.91775 0.508233 11 1 
249.333 1.20528 9.9156 0.00424063 0.00594452 9.9156 0.500338 11 1 
250.667 1.20533 9.90969 0.00428592 0.0060309 9.90969 0.601306 11 1 
252 1.20535 9.90486 0.0040445 0.0057849 9.90487 0.625754 11 1 
253.333 1.20542 9.89545 0.00412772 0.00590354 9.89545 0.753785 11 1 
254.667 1.20544 9.88993 0.0041664 0.00597535 9.88993 0.795525 11 1 
256 1.20545 9.88479 0.00412812 0.00594393 9.88479 0.81348 11 1 
256 1.20545 9.88479 0.00412812 0.00594393 9.88479 0.81348 13 1 
257.333 1.20555 9.87481 0.00423417 0.00607024 9.87481 0.996622 13 1 
258.667 1.20555 9.86827 0.00413122 0.0060069 9.86827 0.997185 13 1 
260 1.20561 9.85891 0.00408549 0.00596653 9.85891 1.10554 13 1 
261.333 1.20572 9.84809 0.00415359 0.00603359 9.84809 1.30764 13 1 
262.667 1.2058 9.83692 0.00408112 0.00602725 9.83692 1.45269 13 1 
264 1.20579 9.82996 0.00405419 0.00603985 9.82996 1.42952 13 1 
265.333 1.20589 9.81717 0.00403614 0.00602605 9.81717 1.6024 13 1 
266.667 1.20607 9.79784 0.0040852 0.00613921 9.79785 1.93404 13 1 
268 1.20602 9.78672 0.00406557 0.00617738 9.78673 1.83591 13 1 
269.333 1.20614 9.77208 0.0040697 0.00615872 9.77208 2.05064 13 1 
270.667 1.20646 9.74796 0.00399555 0.00610957 9.74797 2.63689 13 1 
272 1.20631 9.74068 0.00394321 0.00612465 9.74068 2.36151 13 1 
273.333 1.20649 9.71796 0.00395484 0.00613674 9.71797 2.69282 13 1 
274.667 1.20692 9.68415 0.00392027 0.00610943 9.68416 3.47208 13 1 
276 1.20675 9.66965 0.00391635 0.00616401 9.66966 3.155 13 1 
277.333 1.20696 9.63464 0.00389676 0.00617275 9.63465 3.5482 13 1 
277.333 1.20696 9.63464 0.00389676 0.00617275 9.63465 3.5482 13 1 
278.667 1.20736 9.60148 0.00389156 0.00615652 9.60149 4.25783 13 1 
280 1.20741 9.57111 0.00386685 0.0061639 9.57112 4.34587 13 1 
281.333 1.20762 9.52617 0.00382112 0.00618068 9.52618 4.73764 13 1 
282.667 1.20791 9.494 0.00378363 0.00616611 9.49401 5.25798 13 1 
284 1.20831 9.4614 0.00376164 0.00616012 9.46141 5.97119 13 1 
285.333 1.2087 9.41701 0.00373584 0.00617048 9.41704 6.68705 13 1 
286.667 1.20887 9.35322 0.00368491 0.00613361 9.35334 6.99292 13 1 
288 1.20909 9.27145 0.00364835 0.00611179 9.27155 7.386 13 1 
289.333 1.20953 9.20944 0.00363153 0.00614436 9.20946 8.19076 13 1 
290.667 1.21017 9.15475 0.00359021 0.00614476 9.15476 9.34594 13 1 
292 1.21066 9.08285 0.00355985 0.00612518 9.08287 10.2297 13 1 
293.333 1.21089 9.01067 0.00351566 0.0061071 9.01073 10.6422 13 1 
294.667 1.21138 8.91997 0.00346786 0.00609157 8.9201 11.5204 13 1 
296 1.21208 8.82269 0.00341355 0.00606005 8.82278 12.7851 13 1 
297.333 1.21245 8.7448 0.00341244 0.00606098 8.74482 13.4613 13 1 
298.667 1.20788 8.61714 0.00335946 0.00600569 8.61722 5.19854 13 1 
298.667 1.20788 8.61714 0.00335946 0.00600569 8.61722 5.19854 14 1 
300 1.20031 8.58058 0.00328265 0.00598074 8.58066 -8.4646 14 1 
301.333 1.19762 8.59361 0.00327671 0.00601174 8.59366 -13.3259 14 1 
302.667 1.19827 8.51565 0.00315245 0.00592233 8.51571 -12.1585 14 1 
304 1.19878 8.42782 0.00309462 0.00592533 8.42788 -11.2407 14 1 
305.333 1.19909 8.33944 0.0030688 0.0059392 8.33957 -10.6664 14 1 
306.667 1.19948 8.26593 0.00297122 0.00587142 8.26602 -9.96415 14 1 
308 1.1998 8.18594 0.00298068 0.00592142 8.18596 -9.39079 14 1 
309.333 1.20017 8.12225 0.00290672 0.00591476 8.12227 -8.72645 14 1 
310.667 1.2006 8.07306 0.00285484 0.00593384 8.07307 -7.95204 14 1 
312 1.20092 8.01447 0.00281332 0.00591865 8.01448 -7.37187 14 1 
313.333 1.2012 7.96961 0.00271198 0.0058346 7.96961 -6.86294 14 1 
314.667 1.20151 7.92545 0.0026902 0.00588565 7.92546 -6.30386 14 1 
316 1.20168 7.87044 0.00261393 0.00585974 7.87047 -6.00439 14 1 
317.333 1.20182 7.82767 0.00256014 0.00580512 7.8277 -5.74618 14 1 
318.667 1.20211 7.79026 0.00252219 0.00581096 7.79029 -5.22203 14 1 
320 1.20229 7.74829 0.00244992 0.00581607 7.74832 -4.88597 14 1 
320 1.20229 7.74829 0.00244992 0.00581607 7.74832 -4.88597 14 1 
321.333 1.20232 7.71101 0.00239303 0.0057941 7.71104 -4.84046 14 1 
322.667 1.20247 7.67692 0.00235232 0.00579088 7.67695 -4.5626 14 1 
324 1.20267 7.64457 0.00231866 0.00583712 7.64459 -4.20809 14 1 
325.333 1.20272 7.62081 0.00227141 0.00587402 7.62082 -4.12378 14 1 
326.667 1.20282 7.60306 0.00223319 0.00589869 7.60306 -3.94309 14 1 
328 1.20301 7.58543 0.00220524 0.00592985 7.58544 -3.58974 14 1 
329.333 1.2031 7.56849 0.00215788 0.00596026 7.5685 -3.43488 14 1 
330.667 1.20311 7.55219 0.00211501 0.00600194 7.5522 -3.41562 14 1 
332 1.2032 7.54298 0.00206879 0.00601045 7.54299 -3.25538 14 1 
333.333 1.20339 7.5419 0.00200907 0.00600423 7.54191 -2.90212 14 1 
334.667 1.20352 7.53197 0.00197105 0.00605068 7.53198 -2.68156 14 1 
336 1.20346 7.51522 0.0019351 0.00607903 7.51522 -2.78164 14 1 
337.333 1.20347 7.50575 0.00187661 0.00604423 7.50576 -2.76982 14 1 
338.667 1.20362 7.50019 0.0018238 0.00604145 7.50019 -2.49453 14 1 
340 1.20375 7.49539 0.00178671 0.00608364 7.49539 -2.25704 14 1 
341.333 1.20378 7.48374 0.00170721 0.00605668 7.48374 -2.20578 14 1 
341.333 1.20378 7.48374 0.00170721 0.00605668 7.48374 -2.20578 15 1 
342.667 1.20373 7.46282 0.00159557 0.0059911 7.46283 -2.28993 15 1 
344 1.20377 7.45155 0.00155668 0.00602198 7.45156 -2.2229 15 1 
345.333 1.20388 7.44705 0.00157759 0.00611535 7.44706 -2.02325 15 1 
346.667 1.20391 7.43467 0.00154686 0.0061416 7.43468 -1.96535 15 1 
348 1.20391 7.4176 0.00145467 0.0061042 7.4176 -1.96521 15 1 
349.333 1.20391 7.39938 0.00137445 0.00610282 7.39939 -1.9603 15 1 
350.667 1.20397 7.39147 0.00135227 0.00616309 7.39148 -1.86942 15 1 
352 1.20406 7.38964 0.00134695 0.00621361 7.38965 -1.69815 15 1 
353.333 1.20403 7.37194 0.00128925 0.00622715 7.37195 -1.75038 15 1 
354.667 1.20399 7.35429 0.0012218 0.00625652 7.3543 -1.81921 15 1 
356 1.20407 7.35063 0.00121967 0.00633232 7.35063 -1.68238 15 1 
357.333 1.20411 7.34528 0.0012102 0.0063894 7.34528 -1.60831 15 1 
358.667 1.20413 7.33829 0.00113091 0.00640011 7.3383 -1.56806 15 1 
360 1.20416 7.33055 0.00104469 0.00641328 7.33055 -1.51507 15 1 
361.333 1.20415 7.32167 0.00102766 0.00647285 7.32167 -1.53758 15 1 
362.667 1.20416 7.31989 0.00105248 0.00656544 7.31989 -1.52384 15 1 
362.667 1.20416 7.31989 0.00105248 0.00656544 7.31989 -1.52384 15 1 
364 1.20419 7.31893 0.00102108 0.00663067 7.31893 -1.45579 15 1 
365.333 1.20424 7.31599 0.000919215 0.00663381 7.31599 -1.37738 15 1 
366.667 1.20426 7.31449 0.000850111 0.00664117 7.31449 -1.33972 15 1 
368 1.20426 7.31202 0.000842583 0.00670413 7.31202 -1.34234 15 1 
369.333 1.20429 7.3137 0.000818479 0.00677889 7.31371 -1.2838 15 1 
370.667 1.20431 7.31618 0.00074603 0.00681274 7.31618 -1.25506 15 1 
372 1.2043 7.31463 0.000680939 0.00682654 7.31464 -1.26308 15 1 
373.333 1.20434 7.31683 0.000666005 0.00687938 7.31683 -1.19688 15 1 
374.667 1.20437 7.31893 0.000663339 0.0069664 7.31893 -1.14697 15 1 
376 1.20438 7.31964 0.000619932 0.007018 7.31964 -1.11566 15 1 
377.333 1.2044 7.32417 0.000550155 0.00701839 7.32417 -1.08851 15 1 
378.667 1.20439 7.32555 0.000493973 0.00701572 7.32556 -1.09369 15 1 
380 1.20443 7.32546 0.000469403 0.00706542 7.32547 -1.0321 15 1 
381.333 1.20445 7.32834 0.000451482 0.0071393 7.32835 -0.984687 15 1 
382.667 1.20444 7.32944 0.000384846 0.00714041 7.32944 -1.00837 15 1 
384 1.20447 7.33175 0.000285471 0.00710102 7.33175 -0.959627 15 1 
384 1.20447 7.33175 0.000285471 0.00710102 7.33175 -0.959627 15 1 
385.333 1.20451 7.33414 0.000196628 0.00711286 7.33414 -0.893136 15 1 
386.667 1.2045 7.33268 0.00013205 0.00715115 7.33268 -0.894973 15 1 
388 1.2045 7.33323 0.00011105 0.00719981 7.33324 -0.902031 15 1 
389.333 1.20451 7.33474 6.34297e-05 0.00723677 7.33474 -0.884761 15 1 
390.667 1.20454 7.33437 -5.11455e-05 0.00722613 7.33437 -0.827038 15 1 
392 1.20457 7.33463 -0.00013223 0.00723088 7.33463 -0.777986 15 1 
393.333 1.20456 7.33335 -0.000173263 0.0072752 7.33335 -0.795389 15 1 
394.667 1.20456 7.33146 -0.000243135 0.00728992 7.33147 -0.79163 15 1 
396 1.20459 7.33112 -0.000317478 0.0072805 7.33112 -0.735235 15 1 
397.333 1.2046 7.32955 -0.000369354 0.00731459 7.32955 -0.721891 15 1 
398.667 1.20458 7.32699 -0.000420017 0.00736277 7.32699 -0.759581 15 1 
400 1.20459 7.32411 -0.000476796 0.00737161 7.32412 -0.74832 15 1 
401.333 1.20463 7.32185 -0.000523145 0.00740679 7.32185 -0.666863 15 1 
402.667 1.20465 7.32106 -0.000584635 0.00746099 7.32107 -0.637163 15 1 
404 1.20461 7.31754 -0.000670359 0.00745711 7.31754 -0.69692 15 1 
405.333 1.20461 7.3126 -0.000713398 0.00748716 7.3126 -0.709468 15 1 
405.333 1.20461 7.3126 -0.000713398 0.00748716 7.3126 -0.709468 15 1 
406.667 1.20465 7.31123 -0.000717959 0.00760473 7.31124 -0.635429 15 1 
408 1.20468 7.30983 -0.000779289 0.0076718 7.30983 -0.58551 15 1 
409.333 1.20467 7.3063 -0.000889817 0.00764798 7.3063 -0.598249 15 1 
410.667 1.20465 7.30334 -0.000962217 0.00765308 7.30335 -0.631024 15 1 
412 1.20465 7.30098 -0.000996175 0.00774212 7.30098 -0.628256 15 1 
413.333 1.20469 7.29883 -0.0010515 0.00781539 7.29884 -0.565549 15 1 
414.667 1.20471 7.2959 -0.00114642 0.00779919 7.2959 -0.529946 15 1 
416 1.20468 7.29325 -0.00122746 0.00780244 7.29325 -0.573032 15 1 
417.333 1.20468 7.2933 -0.00127521 0.00788818 7.2933 -0.57465 15 1 
418.667 1.20473 7.29222 -0.00134755 0.00793448 7.29222 -0.49613 15 1 
420 1.20473 7.28941 -0.00144471 0.00790982 7.28941 -0.490396 15 1 
421.333 1.2047 7.28876 -0.00153631 0.00790028 7.28876 -0.549084 15 1 
422.667 1.20473 7.28726 -0.00161263 0.0079384 7.28727 -0.496255 15 1 
424 1.20476 7.28487 -0.00167294 0.00799724 7.28488 -0.428642 15 1 
425.333 1.20472 7.28625 -0.00174424 0.0080506 7.28626 -0.512768 15 1 
426.667 1.2047 7.28825 -0.00182846 0.00809095 7.28826 -0.538782 15 1 
426.667 1.2047 7.28825 -0.00182846 0.00809095 7.28826 -0.538782 20 1 
428 1.20477 7.28803 -0.00191371 0.00809766 7.28804 -0.407062 20 1 
429.333 1.20477 7.28859 -0.00199857 0.00809716 7.28859 -0.407027 20 1 
430.667 1.20472 7.28945 -0.00206941 0.00814962 7.28946 -0.512828 20 1 
432 1.20476 7.28851 -0.00212905 0.00822951 7.28851 -0.441136 20 1 
433.333 1.2048 7.28914 -0.00219236 0.00829869 7.28914 -0.355345 20 1 
434.667 1.20476 7.29458 -0.00226282 0.00837176 7.29459 -0.441905 20 1 
436 1.20475 7.30034 -0.00235432 0.00841368 7.30034 -0.444718 20 1 
437.333 1.20481 7.30313 -0.0024434 0.00840688 7.30314 -0.344636 20 1 
438.667 1.20477 7.30641 -0.00249083 0.00842057 7.30642 -0.410467 20 1 
440 1.20475 7.30869 -0.00253592 0.00848631 7.30869 -0.455006 20 1 
441.333 1.20483 7.30832 -0.00262015 0.00855444 7.30832 -0.305351 20 1 
442.667 1.20483 7.31232 -0.00271655 0.00860967 7.31233 -0.314464 20 1 
444 1.20475 7.32113 -0.00279159 0.00869565 7.32114 -0.455737 20 1 
445.333 1.20481 7.32977 -0.00284105 0.0088002 7.32978 -0.342413 20 1 
446.667 1.20487 7.34041 -0.0029024 0.00883172 7.34042 -0.230112 20 1 
448 1.2048 7.35058 -0.00298872 0.00878135 7.35059 -0.370079 20 1 
448 1.2048 7.35058 -0.00298872 0.00878135 7.35059 -0.370079 20 1 
449.333 1.20479 7.35401 -0.00308002 0.00873922 7.35401 -0.372211 20 1 
450.667 1.20487 7.35591 -0.0031651 0.00875988 7.35592 -0.242976 20 1 
452 1.20483 7.36172 -0.00322639 0.00885612 7.36172 -0.31146 20 1 
453.333 1.20481 7.36782 -0.00328053 0.00897727 7.36783 -0.34195 20 1 
454.667 1.20486 7.37586 -0.00336976 0.00905576 7.37587 -0.254727 20 1 
456 1.20483 7.39036 -0.00347995 0.00908787 7.39037 -0.304695 20 1 
457.333 1.20485 7.40484 -0.00356148 0.0090857 7.40485 -0.276394 20 1 
458.667 1.20491 7.4129 -0.00361789 0.00905694 7.41291 -0.164969 20 1 
460 1.20482 7.41982 -0.00367153 0.00906158 7.41983 -0.317949 20 1 
461.333 1.20479 7.42876 -0.00374823 0.00912183 7.42877 -0.376035 20 1 
462.667 1.20493 7.4372 -0.00384452 0.00917872 7.43721 -0.129207 20 1 
464 1.20492 7.44836 -0.00391992 0.00923567 7.44837 -0.151987 20 1 
465.333 1.2048 7.46258 -0.00397618 0.00931385 7.46259 -0.361019 20 1 
466.667 1.20485 7.47491 -0.00403173 0.00935424 7.47492 -0.270158 20 1 
468 1.20491 7.48709 -0.00409286 0.00929329 7.4871 -0.162907 20 1 
469.333 1.20488 7.49628 -0.00416793 0.00917888 7.49629 -0.210029 20 1 
469.333 1.20488 7.49628 -0.00416793 0.00917888 7.49629 -0.210029 20 1 
470.667 1.2049 7.4957 -0.00424303 0.0091511 7.49571 -0.18947 20 1 
472 1.20488 7.49465 -0.00430035 0.00924338 7.49466 -0.217588 20 1 
473.333 1.20486 7.50162 -0.00436107 0.00938652 7.50163 -0.255528 20 1 
474.667 1.20492 7.51295 -0.0044282 0.00958184 7.51296 -0.14485 20 1 
476 1.20492 7.53218 -0.00449181 0.00978916 7.53219 -0.151036 20 1 
477.333 1.20486 7.55889 -0.00454816 0.00985638 7.5589 -0.246002 20 1 
478.667 1.20491 7.58034 -0.0045924 0.00971519 7.58036 -0.167789 20 1 
480 1.20492 7.59062 -0.00460448 0.00947514 7.59062 -0.136874 20 1 
481.333 1.20489 7.58761 -0.00459463 0.00928102 7.58761 -0.196476 20 1 
482.667 1.20492 7.57199 -0.00461948 0.00921525 7.572 -0.14053 20 1 
484 1.20492 7.55558 -0.00469768 0.00930199 7.55559 -0.14027 20 1 
485.333 1.20488 7.547 -0.0048041 0.00950984 7.54701 -0.216099 20 1 
486.667 1.2049 7.54788 -0.00488756 0.00974801 7.54789 -0.183852 20 1 
488 1.20492 7.55843 -0.00491723 0.00988678 7.55844 -0.143307 20 1 
489.333 1.20492 7.56869 -0.00491712 0.00983785 7.56869 -0.143357 20 1 
490.667 1.2049 7.56684 -0.0049166 0.00962562 7.56685 -0.175944 20 1 
490.667 1.2049 7.56684 -0.0049166 0.00962562 7.56685 -0.175944 20 1 
492 1.20485 7.55149 -0.00492196 0.00936256 7.5515 -0.271093 20 1 
493.333 1.20486 7.52435 -0.00494514 0.00915792 7.52436 -0.250227 20 1 
494.667 1.20492 7.48922 -0.00498872 0.00908186 7.48924 -0.147793 20 1 
496 1.20488 7.45179 -0.00504184 0.00913319 7.45181 -0.213454 20 1 
497.333 1.20482 7.41551 -0.00509442 0.00923807 7.41552 -0.32954 20 1 
498.667 1.20483 7.38433 -0.00515167 0.00933335 7.38435 -0.310998 20 1 
500 1.20488 7.35838 -0.00523157 0.00941844 7.35839 -0.225172 20 1 
501.333 1.20488 7.33312 -0.00531584 0.00952489 7.33313 -0.210767 20 1 
502.667 1.20482 7.31031 -0.00537921 0.0096757 7.31032 -0.319553 20 1 
504 1.20482 7.29521 -0.00544415 0.00987882 7.29522 -0.333011 20 1 
505.333 1.20491 7.28886 -0.00552214 0.0101394 7.28887 -0.166219 20 1 
506.667 1.20493 7.29152 -0.00559746 0.0104431 7.29153 -0.130304 20 1 
508 1.20487 7.30496 -0.00567408 0.0107652 7.30497 -0.230642 20 1 
509.333 1.20491 7.33295 -0.00576693 0.0110747 7.33298 -0.161238 20 1 
510.667 1.20503 7.37722 -0.00587459 0.0113468 7.37725 0.0576503 20 1 
512 1.2051 7.43324 -0.00596622 0.011619 7.43328 0.1895 20 1 
512 1.2051 7.43324 -0.00596622 0.011619 7.43328 0.1895 21 1 
513.333 1.20507 7.49877 -0.00602334 0.0119084 7.49883 0.121028 21 1 
514.667 1.20504 7.57682 -0.00605724 0.012163 7.57688 0.0743631 21 1 
516 1.20517 7.66732 -0.00608375 0.0123701 7.6674 0.311275 21 1 
517.333 1.2053 7.76593 -0.00612291 0.0125461 7.76602 0.543556 21 1 
518.667 1.20528 7.86825 -0.00617837 0.0126658 7.86834 0.499225 21 1 
520 1.20524 7.97432 -0.00621684 0.0127346 7.97442 0.434291 21 1 
521.333 1.2053 8.08736 -0.00621668 0.0128031 8.08747 0.545931 21 1 
522.667 1.20541 8.20388 -0.00620185 0.0128743 8.20399 0.737701 21 1 
524 1.20542 8.31752 -0.0061852 0.0129117 8.31762 0.763438 21 1 
525.333 1.20532 8.42848 -0.0061796 0.0128903 8.42858 0.579532 21 1 
526.667 1.20532 8.54013 -0.00619531 0.0128376 8.54023 0.571673 21 1 
528 1.20544 8.65314 -0.00621715 0.0127672 8.65323 0.803305 21 1 
529.333 1.20548 8.76221 -0.00619561 0.0127029 8.7623 0.86901 21 1 
530.667 1.20537 8.86229 -0.0061207 0.0126677 8.86237 0.668708 21 1 
532 1.20525 8.95755 -0.00606386 0.012607 8.95762 0.453368 21 1 
533.333 1.20528 9.05279 -0.00604012 0.0125076 9.05286 0.506058 21 1 
533.333 1.20528 9.05279 -0.00604012 0.0125076 9.05286 0.506058 21 1 
534.667 1.20542 9.14456 -0.00601292 0.0124008 9.14462 0.75325 21 1 
536 1.20542 9.22723 -0.00598744 0.0122647 9.22728 0.753737 21 1 
537.333 1.20526 9.29964 -0.00597778 0.0121081 9.29968 0.464127 21 1 
538.667 1.20515 9.36653 -0.00594336 0.0119793 9.36657 0.270979 21 1 
540 1.2052 9.43155 -0.00586101 0.0118675 9.43158 0.364137 21 1 
541.333 1.2053 9.49095 -0.00579133 0.011747 9.49098 0.5499 21 1 
542.667 1.20527 9.53978 -0.00576559 0.0116178 9.5398 0.482848 21 1 
544 1.2051 9.57905 -0.00576563 0.0114724 9.57907 0.188973 21 1 
545.333 1.20504 9.61493 -0.00573763 0.0113489 9.61495 0.0637487 21 1 
546.667 1.20513 9.65036 -0.00567529 0.0112806 9.65037 0.23507 21 1 
548 1.20522 9.68209 -0.00563109 0.0112329 9.6821 0.396762 21 1 
549.333 1.20515 9.70622 -0.00560692 0.0111748 9.70623 0.2684 21 1 
550.667 1.20499 9.72422 -0.00558916 0.011104 9.72423 -0.025089 21 1 
552 1.20493 9.7433 -0.00556206 0.0110509 9.74331 -0.122763 21 1 
553.333 1.20506 9.76572 -0.00554515 0.0110197 9.76573 0.103727 21 1 
554.667 1.20516 9.78561 -0.00554507 0.0109904 9.78562 0.283292 21 1 
554.667 1.20516 9.78561 -0.00554507 0.0109904 9.78562 0.283292 22 1 
556 1.20505 9.79908 -0.0055335 0.0109641 9.79909 0.0925488 22 1 
557.333 1.20489 9.80938 -0.00550182 0.0109344 9.80939 -0.19886 22 1 
558.667 1.20487 9.82239 -0.00546883 0.0108912 9.8224 -0.239081 22 1 
560 1.205 9.83869 -0.00543211 0.0108665 9.8387 -0.00390807 22 1 
561.333 1.2051 9.85234 -0.00538915 0.0108483 9.85234 0.186568 22 1 
562.667 1.205 9.85973 -0.00535716 0.0108042 9.85974 -0.00216661 22 1 
564 1.20483 9.86424 -0.0053474 0.0107364 9.86425 -0.304001 22 1 
565.333 1.20482 9.87154 -0.00533332 0.0106854 9.87155 -0.319338 22 1 
566.667 1.20495 9.88275 -0.00527449 0.0106764 9.88276 -0.0921154 22 1 
568 1.20504 9.89201 -0.00521617 0.0106661 9.89202 0.0716087 22 1 
569.333 1.20495 9.89541 -0.00520269 0.0106174 9.89542 -0.0963255 22 1 
570.667 1.20478 9.89665 -0.00518728 0.0105579 9.89666 -0.388773 22 1 
572 1.20477 9.90147 -0.00515172 0.0105275 9.90148 -0.40958 22 1 
573.333 1.20491 9.91026 -0.00511084 0.0105214 9.91026 -0.165794 22 1 
574.667 1.20501 9.91788 -0.00506467 0.0105084 9.91788 0.0186692 22 1 
576 1.20493 9.9199 -0.0050304 0.0104714 9.91991 -0.133234 22 1 
576 1.20493 9.9199 -0.0050304 0.0104714 9.91991 -0.133234 22 1 
577.333 1.20476 9.91894 -0.00501095 0.0104391 9.91894 -0.440593 22 1 
578.667 1.20473 9.92225 -0.00497133 0.0104237 9.92225 -0.486811 22 1 
580 1.20486 9.92992 -0.00493916 0.0103735 9.92993 -0.250077 22 1 
581.333 1.20496 9.93643 -0.00491163 0.0103296 9.93644 -0.0672165 22 1 
582.667 1.2049 9.93844 -0.00485987 0.0103336 9.93845 -0.178828 22 1 
584 1.20475 9.93684 -0.00481599 0.0103139 9.93685 -0.454006 22 1 
585.333 1.2047 9.93866 -0.00478027 0.0102637 9.93867 -0.540675 22 1 
586.667 1.20482 9.94569 -0.00472498 0.0102515 9.9457 -0.33274 22 1 
588 1.20493 9.95167 -0.00466137 0.0102553 9.95168 -0.133814 22 1 
589.333 1.20489 9.95335 -0.00462041 0.0102138 9.95336 -0.20682 22 1 
590.667 1.20475 9.95198 -0.00461628 0.0101417 9.95199 -0.442728 22 1 
592 1.20469 9.95225 -0.0045889 0.0101042 9.95226 -0.564666 22 1 
593.333 1.20476 9.95726 -0.00451189 0.0100923 9.95726 -0.441865 22 1 
594.667 1.20487 9.96241 -0.00443304 0.0100836 9.96242 -0.232244 22 1 
596 1.20487 9.96382 -0.00437911 0.0100687 9.96383 -0.229669 22 1 
597.333 1.20474 9.96256 -0.00436016 0.0100046 9.96256 -0.464202 22 1 
597.333 1.20474 9.96256 -0.00436016 0.0100046 9.96256 -0.464202 24 1 
598.667 1.20466 9.96174 -0.00435346 0.00992319 9.96174 -0.612565 24 1 
600 1.20472 9.965 -0.00430083 0.00989356 9.96501 -0.497659 24 1 
601.333 1.20483 9.96956 -0.0042162 0.00988738 9.96956 -0.298441 24 1 
602.667 1.20485 9.97085 -0.00414753 0.00986825 9.97086 -0.264146 24 1 
604 1.20474 9.96932 -0.004097 0.00983547 9.96932 -0.460734 24 1 
605.333 1.20464 9.96736 -0.00407937 0.0097663 9.96737 -0.647786 24 1 
606.667 1.20467 9.96873 -0.00405431 0.00969752 9.96873 -0.601868 24 1 
608 1.20477 9.97306 -0.00400609 0.0096509 9.97306 -0.413546 24 1 
609.333 1.20482 9.97521 -0.00394252 0.00962953 9.97521 -0.323291 24 1 
610.667 1.20476 9.9739 -0.00387533 0.00960828 9.97391 -0.441595 24 1 
612 1.20465 9.97193 -0.00381294 0.0095791 9.97194 -0.632404 24 1 
613.333 1.20463 9.97201 -0.00377047 0.0095325 9.97202 -0.676313 24 1 
614.667 1.20472 9.97517 -0.0037373 0.00947187 9.97517 -0.507821 24 1 
616 1.2048 9.97817 -0.00369841 0.00941259 9.97818 -0.368625 24 1 
617.333 1.20476 9.97733 -0.00363594 0.00938637 9.97734 -0.441376 24 1 
618.667 1.20465 9.97475 -0.00356971 0.00936769 9.97475 -0.627307 24 1 
618.667 1.20465 9.97475 -0.00356971 0.00936769 9.97475 -0.627307 24 1 
620 1.2046 9.974 -0.00349461 0.00933394 9.974 -0.728959 24 1 
621.333 1.20465 9.97612 -0.00343317 0.00928632 9.97612 -0.625357 24 1 
622.667 1.20474 9.9797 -0.00340856 0.00923659 9.9797 -0.472103 24 1 
624 1.20476 9.98062 -0.00338118 0.00918734 9.98063 -0.440921 24 1 
625.333 1.20468 9.97876 -0.00332587 0.00912987 9.97877 -0.572403 24 1 
626.667 1.2046 9.97729 -0.00324884 0.00910782 9.97729 -0.722124 24 1 
628 1.20461 9.97759 -0.00318585 0.00909883 9.9776 -0.700928 24 1 
629.333 1.20469 9.98031 -0.00313028 0.00906552 9.98032 -0.56546 24 1 
630.667 1.20473 9.98236 -0.00308958 0.00900187 9.98236 -0.485375 24 1 
632 1.20468 9.98133 -0.00306776 0.00893795 9.98134 -0.572912 24 1 
633.333 1.20461 9.9795 -0.00303834 0.00889135 9.97951 -0.710855 24 1 
634.667 1.20458 9.97924 -0.00296757 0.00886916 9.97925 -0.755604 24 1 
636 1.20464 9.98153 -0.0028783 0.00886094 9.98153 -0.655962 24 1 
637.333 1.20472 9.98415 -0.00284247 0.00881274 9.98415 -0.509628 24 1 
638.667 1.20471 9.9844 -0.00281838 0.00875299 9.9844 -0.520807 24 1 
640 1.20462 9.98249 -0.00275137 0.0087216 9.9825 -0.677914 24 1 
640 1.20462 9.98249 -0.00275137 0.0087216 9.9825 -0.677914 24 1 
641.333 1.20456 9.98109 -0.00267915 0.00870611 9.98109 -0.79805 24 1 
642.667 1.20459 9.98219 -0.00263843 0.00866013 9.9822 -0.739607 24 1 
644 1.20466 9.9852 -0.00261154 0.00858737 9.98521 -0.605996 24 1 
645.333 1.20471 9.98739 -0.00256808 0.00853748 9.9874 -0.527923 24 1 
646.667 1.20467 9.98664 -0.00250347 0.0085198 9.98665 -0.593029 24 1 
648 1.20458 9.98454 -0.00243115 0.00849523 9.98454 -0.750482 24 1 
649.333 1.20456 9.98403 -0.00236084 0.00847057 9.98404 -0.797001 24 1 
650.667 1.2046 9.98611 -0.00232096 0.00842762 9.98612 -0.718277 24 1 
652 1.20468 9.98861 -0.0023024 0.00835304 9.98861 -0.583587 24 1 
653.333 1.20469 9.98933 -0.00226092 0.00830128 9.98933 -0.5519 24 1 
654.667 1.20463 9.98765 -0.00219556 0.00827719 9.98766 -0.665235 24 1 
656 1.20457 9.98597 -0.00212354 0.00826214 9.98597 -0.783114 24 1 
657.333 1.20456 9.9862 -0.00206291 0.0082337 9.9862 -0.790815 24 1 
658.667 1.20462 9.98839 -0.00202087 0.00818752 9.9884 -0.684194 24 1 
660 1.20467 9.99094 -0.00199185 0.0081257 9.99094 -0.593154 24 1 
661.333 1.20467 9.99093 -0.00196237 0.00806669 9.99093 -0.598092 24 1 
661.333 1.20467 9.99093 -0.00196237 0.00806669 9.99093 -0.598092 24 1 
662.667 1.20462 9.99008 -0.00190669 0.00803992 9.99008 -0.695452 24 1 
664 1.20456 9.98886 -0.00183105 0.00802531 9.98887 -0.787933 24 1 
665.333 1.20457 9.98917 -0.00176859 0.00798955 9.98918 -0.779521 24 1 
666.667 1.20463 9.99182 -0.00171185 0.00796104 9.99183 -0.675267 24 1 
668 1.20466 9.99286 -0.00168456 0.00790618 9.99287 -0.617134 24 1 
669.333 1.20465 9.9928 -0.00164658 0.00784906 9.9928 -0.639179 24 1 
670.667 1.20461 9.99181 -0.00160939 0.00779695 9.99181 -0.69588 24 1 
672 1.20457 9.9902 -0.00155583 0.00777035 9.9902 -0.778082 24 1 
673.333 1.20457 9.99044 -0.00149041 0.0077498 9.99045 -0.772374 24 1 
674.667 1.20461 9.99137 -0.00144764 0.00770433 9.99138 -0.704551 24 1 
676 1.20464 9.99209 -0.00139635 0.00767198 9.9921 -0.644936 24 1 
677.333 1.20464 9.99284 -0.00132935 0.00765138 9.99285 -0.648329 24 1 
678.667 1.20461 9.99165 -0.00126943 0.00763243 9.99165 -0.704232 24 1 
680 1.20458 9.99077 -0.001245 0.00758017 9.99077 -0.766253 24 1 
681.333 1.20457 9.99169 -0.00122849 0.00750506 9.99169 -0.784067 24 1 
682.667 1.2046 9.99248 -0.0011724 0.00747501 9.99249 -0.72011 24 1 
682.667 1.2046 9.99248 -0.0011724 0.00747501 9.99249 -0.72011 31 1 
684 1.20464 9.9945 -0.00113108 0.00745006 9.9945 -0.659183 31 1 
685.333 1.20464 9.99495 -0.00108718 0.00741354 9.99495 -0.65028 31 1 
686.667 1.20461 9.99327 -0.00103766 0.00736706 9.99327 -0.70775 31 1 
688 1.20457 9.99191 -0.000999621 0.00732582 9.99191 -0.771542 31 1 
689.333 1.20456 9.99081 -0.000927962 0.00732859 9.99081 -0.796544 31 1 
690.667 1.20459 9.99146 -0.000861239 0.00730634 9.99146 -0.744736 31 1 
692 1.20463 9.99297 -0.000827913 0.00725076 9.99298 -0.668323 31 1 
693.333 1.20464 9.99322 -0.00083121 0.00717789 9.99323 -0.650648 31 1 
694.667 1.20462 9.99339 -0.000819792 0.00710913 9.99339 -0.689419 31 1 
696 1.20458 9.99327 -0.000780579 0.00706149 9.99327 -0.753438 31 1 
697.333 1.20456 9.99278 -0.000721901 0.00705103 9.99279 -0.79107 31 1 
698.667 1.20457 9.99416 -0.000627523 0.00706257 9.99417 -0.771901 31 1 
700 1.20461 9.99474 -0.000541324 0.00705501 9.99474 -0.706327 31 1 
701.333 1.20464 9.9952 -0.000525419 0.00700456 9.9952 -0.653365 31 1 
702.667 1.20464 9.99513 -0.000558579 0.00689884 9.99513 -0.646389 31 1 
704 1.20461 9.99274 -0.000578628 0.0067937 9.99275 -0.701116 31 1 
704 1.20461 9.99274 -0.000578628 0.0067937 9.99275 -0.701116 31 1 
705.333 1.20458 9.99212 -0.000518876 0.00677767 9.99212 -0.751117 31 1 
706.667 1.20457 9.99201 -0.000412128 0.00680987 9.99201 -0.778264 31 1 
708 1.20459 9.99336 -0.000310171 0.0068338 9.99337 -0.736963 31 1 
709.333 1.20464 9.99685 -0.000263393 0.00680581 9.99685 -0.657726 31 1 
710.667 1.20465 9.99764 -0.000284951 0.00671682 9.99764 -0.63011 31 1 
712 1.20466 9.99804 -0.000318861 0.00661274 9.99804 -0.612124 31 1 
713.333 1.20464 9.99699 -0.000318333 0.00653379 9.99699 -0.649228 31 1 
714.667 1.2046 9.99403 -0.00024322 0.00654038 9.99403 -0.724926 31 1 
716 1.20459 9.99401 -0.000125761 0.00658867 9.99401 -0.73177 31 1 
717.333 1.20462 9.99365 -4.0868e-05 0.00659448 9.99366 -0.690219 31 1 
718.667 1.20466 9.99557 -5.60853e-06 0.00656518 9.99557 -0.621611 31 1 
720 1.2047 9.99871 -4.02074e-05 0.00646998 9.99871 -0.540216 31 1 
721.333 1.20469 9.99869 -7.00532e-05 0.00636059 9.99869 -0.559526 31 1 
722.667 1.20465 9.99964 -4.9784e-05 0.00631509 9.99964 -0.626271 31 1 
724 1.20462 9.99834 -1.04388e-06 0.00630436 9.99834 -0.683633 31 1 
725.333 1.20462 9.99655 4.83599e-05 0.00627982 9.99656 -0.689461 31 1 
725.333 1.20462 9.99655 4.83599e-05 0.00627982 9.99656 -0.689461 31 1 
726.667 1.20466 9.99767 0.000102409 0.00626815 9.99767 -0.621654 31 1 
728 1.20469 9.99693 0.000156348 0.00626325 9.99693 -0.555971 31 1 
729.333 1.20473 9.99863 0.000178586 0.00621765 9.99863 -0.48345 31 1 
730.667 1.20473 10.0006 0.000192579 0.00616356 10.0006 -0.478824 31 1 
732 1.2047 9.99995 0.000194734 0.0061083 9.99995 -0.534335 31 1 
733.333 1.20468 10.002 0.000186348 0.00603514 10.002 -0.578658 31 1 
734.667 1.20464 10.0007 0.000201803 0.00598299 10.0007 -0.651205 31 1 
736 1.20464 9.99967 0.00025907 0.00598066 9.99967 -0.654273 31 1 
737.333 1.2047 10.0012 0.000320509 0.00598341 10.0012 -0.544511 31 1 
738.667 1.20475 9.99956 0.000365255 0.00595207 9.99956 -0.442634 31 1 
740 1.20482 10.0021 0.000362321 0.005885 10.0021 -0.317415 31 1 
741.333 1.20484 10.0046 0.000352449 0.00582725 10.0046 -0.281528 31 1 
742.667 1.20478 10.0041 0.000365217 0.00577399 10.0041 -0.399087 31 1 
744 1.20471 10.0057 0.000440051 0.00577872 10.0057 -0.522276 31 1 
745.333 1.20466 10.0026 0.000529454 0.00581465 10.0026 -0.619679 31 1 
746.667 1.20468 10.0017 0.000567725 0.00579032 10.0017 -0.571918 31 1 
746.667 1.20468 10.0017 0.000567725 0.00579032 10.0017 -0.571918 31 1 
748 1.20479 10.0035 0.00057609 0.00573035 10.0035 -0.380245 31 1 
749.333 1.20489 10.0032 0.000558082 0.00566189 10.0032 -0.204553 31 1 
750.667 1.20496 10.0086 0.000539159 0.0055885 10.0086 -0.0707046 31 1 
752 1.20495 10.0104 0.000561872 0.00553796 10.0104 -0.0916568 31 1 
753.333 1.20489 10.0098 0.000635798 0.00555715 10.0098 -0.205422 31 1 
754.667 1.20482 10.0104 0.000756166 0.00562281 10.0104 -0.319795 31 1 
756 1.20474 10.0041 0.00086278 0.00565249 10.0041 -0.462611 31 1 
757.333 1.20477 10.0036 0.000920785 0.00564794 10.0036 -0.422956 31 1 
758.667 1.20484 10.0051 0.000906621 0.00558389 10.0051 -0.28552 31 1 
760 1.20493 10.0065 0.000854948 0.005473 10.0065 -0.123496 31 1 
761.333 1.20505 10.0148 0.000838438 0.00539286 10.0148 0.0958498 31 1 
762.667 1.20506 10.0151 0.000849513 0.00534756 10.0151 0.110734 31 1 
764 1.205 10.0149 0.000894468 0.00533537 10.0149 -0.00292295 31 1 
765.333 1.2049 10.013 0.000958854 0.00534563 10.013 -0.180429 31 1 
766.667 1.20476 10.0041 0.00103922 0.00537359 10.0041 -0.429267 31 1 
768 1.20472 10.0036 0.00111265 0.00538404 10.0036 -0.502737 31 1 
768 1.20472 10.0036 0.00111265 0.00538404 10.0036 -0.502737 32 1 
769.333 1.20474 10.0016 0.00118097 0.00538425 10.0016 -0.472703 32 1 
770.667 1.20483 10.0055 0.00121637 0.00536732 10.0055 -0.306521 32 1 
772 1.20497 10.0164 0.00120242 0.00529933 10.0165 -0.0482987 32 1 
773.333 1.20505 10.0188 0.00116748 0.00519704 10.0188 0.0820804 32 1 
774.667 1.20509 10.0234 0.00114819 0.005121 10.0234 0.161138 32 1 
776 1.20501 10.0183 0.00115885 0.00507947 10.0183 0.024342 32 1 
777.333 1.20487 10.0091 0.00118676 0.00504464 10.0091 -0.234822 32 1 
778.667 1.20478 10.008 0.00123956 0.00503275 10.008 -0.404597 32 1 
780 1.20469 10.0027 0.00126283 0.00499529 10.0027 -0.567892 32 1 
781.333 1.20472 10.0084 0.00125258 0.00492851 10.0084 -0.498446 32 1 
782.667 1.20484 10.0148 0.00122136 0.00484372 10.0148 -0.296921 32 1 
784 1.20496 10.0168 0.00118822 0.00475691 10.0168 -0.0691159 32 1 
785.333 1.20514 10.0255 0.00117464 0.00468693 10.0255 0.251979 32 1 
786.667 1.20521 10.0225 0.0011801 0.00463266 10.0225 0.386374 32 1 
788 1.20525 10.0229 0.00123043 0.00463284 10.0229 0.451177 32 1 
789.333 1.20524 10.0233 0.00131639 0.00467472 10.0233 0.44004 32 1 
790.667 1.20517 10.0178 0.00146345 0.00476963 10.0178 0.299936 32 1 
792 1.20514 10.0238 0.00162907 0.00488181 10.0238 0.257229 32 1 
793.333 1.2051 10.0211 0.00174212 0.00494935 10.0211 0.175991 32 1 
794.667 1.20512 10.0211 0.0017832 0.00493772 10.0211 0.214436 32 1 
796 1.20521 10.0238 0.0017766 0.00487166 10.0238 0.377397 32 1 
797.333 1.2053 10.0202 0.00171746 0.0047669 10.0202 0.536847 32 1 
798.667 1.20548 10.0314 0.00160822 0.00460621 10.0314 0.866879 32 1 
800 1.2056 10.0416 0.00155247 0.00451846 10.0416 1.07636 32 1 
