9.05647;r ;Density                 ;Velocity u              ;Velocity v              ;Velocity w              ;|Velocity|              ;Pressure                ;Distribution            ;Levels                  ;
0 1.2052 9.99723 1.99259e-05 1.88202e-05 9.99723 0.366256 1 1 
1.33334 1.20526 9.99406 1.59172e-05 1.21746e-05 9.99406 0.466293 1 1 
2.66666 1.20545 9.98571 1.42157e-05 9.71206e-06 9.98571 0.806272 1 1 
4 1.20575 9.97453 1.67699e-05 1.13105e-05 9.97453 1.3545 1 1 
5.33334 1.20609 9.96218 2.23281e-05 1.56334e-05 9.96218 1.97036 1 1 
6.66666 1.20634 9.95309 2.56753e-05 2.15177e-05 9.95309 2.42673 1 1 
8 1.20628 9.95518 3.41288e-05 3.20509e-05 9.95518 2.31805 1 1 
9.33334 1.20578 9.97163 3.07127e-05 3.02207e-05 9.97163 1.41555 1 1 
10.6667 1.20498 9.99872 4.04179e-05 4.18965e-05 9.99872 -0.0369278 1 1 
12 1.20428 10.0227 4.90489e-05 5.1023e-05 10.0227 -1.29255 1 1 
13.3333 1.20418 10.0263 5.00027e-05 5.15321e-05 10.0263 -1.48816 1 1 
14.6667 1.20477 10.0064 6.98067e-05 7.14738e-05 10.0064 -0.407439 1 1 
16 1.20566 9.97749 0.000111505 0.000111877 9.97749 1.19555 1 1 
17.3333 1.20606 9.96432 0.000200131 0.000199046 9.96432 1.91777 1 1 
18.6667 1.20567 9.97646 0.00035316 0.000352172 9.97646 1.21477 1 1 
20 1.20518 9.99229 0.00057251 0.000571479 9.99229 0.316243 1 1 
21.3333 1.20543 9.98417 0.000842237 0.000841498 9.98417 0.76863 1 1 
21.3333 1.20543 9.98417 0.000842237 0.000841498 9.98417 0.76863 1 1 
22.6667 1.20631 9.95605 0.00111202 0.00111011 9.95605 2.3574 1 1 
24 1.2067 9.94382 0.00127235 0.00126989 9.94382 3.07372 1 1 
25.3333 1.20607 9.96346 0.00125445 0.0012514 9.96346 1.93777 1 1 
26.6667 1.2054 9.98411 0.00102604 0.00102362 9.98411 0.726173 1 1 
28 1.2057 9.97556 0.000657845 0.00065923 9.97556 1.26232 1 1 
29.3333 1.20622 9.96026 0.000273486 0.000277585 9.96026 2.20581 1 1 
30.6667 1.20576 9.97445 -3.27446e-05 -2.28795e-05 9.97445 1.36859 1 1 
32 1.20494 9.99922 -0.000151369 -0.000136406 9.99922 -0.110548 1 1 
33.3333 1.20509 9.99559 -0.000124426 -0.000104029 9.99559 0.17031 1 1 
34.6667 1.20563 9.98047 -3.74545e-05 -1.04382e-05 9.98047 1.12914 1 1 
36 1.20516 9.99401 4.62089e-05 7.40588e-05 9.99401 0.298141 1 1 
37.3333 1.20453 10.0125 7.9706e-05 0.00011046 10.0125 -0.847227 1 1 
38.6667 1.20506 9.99715 0.000159351 0.000186348 9.99715 0.110391 1 1 
40 1.20569 9.97878 0.000376643 0.00039738 9.97878 1.2484 1 1 
41.3333 1.20523 9.99156 0.000670773 0.000686628 9.99156 0.416031 1 1 
42.6667 1.20493 10.0004 0.000909218 0.000918228 10.0004 -0.124757 1 1 
42.6667 1.20493 10.0004 0.000909218 0.000918228 10.0004 -0.124757 2 1 
44 1.2055 9.98474 0.000929497 0.000936896 9.98474 0.902411 2 1 
45.3333 1.20547 9.98523 0.000674499 0.000676509 9.98523 0.85231 2 1 
46.6667 1.20492 10.0003 0.000372462 0.000374015 10.0003 -0.14179 2 1 
48 1.20518 9.99397 0.000195089 0.000194843 9.99397 0.331691 2 1 
49.3333 1.20553 9.98453 0.000213826 0.000211084 9.98453 0.957446 2 1 
50.6667 1.20516 9.99411 0.000360657 0.000356923 9.99411 0.297501 2 1 
52 1.20503 9.99851 0.000400613 0.000394006 9.99851 0.0589109 2 1 
53.3333 1.2051 9.99738 0.000315792 0.000314743 9.99738 0.189127 2 1 
54.6667 1.20484 10.0042 0.000135237 0.000135594 10.0042 -0.284772 2 1 
56 1.20493 10.0022 -2.8914e-05 -2.45673e-05 10.0022 -0.135182 2 1 
57.3333 1.20504 10.0002 -6.0036e-05 -5.21811e-05 10.0002 0.0673937 2 1 
58.6667 1.20469 10.0089 -1.54126e-05 -4.43611e-06 10.0089 -0.565927 2 1 
60 1.20484 10.005 7.54531e-05 8.9655e-05 10.005 -0.298061 2 1 
61.3333 1.20504 10.0001 0.000135032 0.000144938 10.0001 0.074422 2 1 
62.6667 1.20456 10.0127 0.000163888 0.000172842 10.0127 -0.791295 2 1 
64 1.20462 10.0115 0.000190796 0.000196034 10.0115 -0.683417 2 1 
64 1.20462 10.0115 0.000190796 0.000196034 10.0115 -0.683417 2 1 
65.3333 1.205 10.0016 0.000196885 0.000202195 10.0016 0.00588442 2 1 
66.6667 1.20473 10.0082 0.000221657 0.000227657 10.0082 -0.48795 2 1 
68 1.20462 10.0114 0.000251819 0.000256547 10.0114 -0.685953 2 1 
69.3333 1.20488 10.0045 0.000296974 0.000305859 10.0045 -0.214836 2 1 
70.6667 1.20486 10.0045 0.000366852 0.000372376 10.0045 -0.245665 2 1 
72 1.20472 10.0089 0.000377215 0.000379552 10.0089 -0.50263 2 1 
73.3333 1.2047 10.0092 0.000324581 0.000327605 10.0092 -0.538549 2 1 
74.6667 1.20481 10.0064 0.000265796 0.000268892 10.0064 -0.342291 2 1 
76 1.20485 10.0054 0.000253587 0.000257065 10.0054 -0.277963 2 1 
77.3333 1.20474 10.0078 0.00034066 0.000343887 10.0078 -0.465192 2 1 
78.6667 1.20484 10.0056 0.000441433 0.00044359 10.0056 -0.281935 2 1 
80 1.20485 10.0056 0.000466685 0.000466805 10.0056 -0.275182 2 1 
81.3333 1.20471 10.0087 0.000405592 0.00040721 10.0087 -0.51691 2 1 
82.6667 1.20481 10.0068 0.000315262 0.000320768 10.0068 -0.346966 2 1 
84 1.2048 10.0067 0.000301594 0.000308618 10.0067 -0.3571 2 1 
85.3333 1.20479 10.0065 0.000386645 0.000393327 10.0065 -0.374445 2 1 
85.3333 1.20479 10.0065 0.000386645 0.000393327 10.0065 -0.374445 3 1 
86.6667 1.20487 10.005 0.000490879 0.000500043 10.005 -0.23998 3 1 
88 1.2048 10.0068 0.000519776 0.000528826 10.0068 -0.363628 3 1 
89.3333 1.20478 10.0075 0.000475921 0.00048731 10.0075 -0.400864 3 1 
90.6667 1.20476 10.0079 0.000396074 0.000407763 10.0079 -0.433124 3 1 
92 1.20478 10.0074 0.000366966 0.000379951 10.0074 -0.39015 3 1 
93.3333 1.20484 10.0057 0.000428505 0.000441365 10.0057 -0.281003 3 1 
94.6667 1.20478 10.0074 0.000488213 0.000496165 10.0074 -0.403003 3 1 
96 1.20477 10.0079 0.000512725 0.000522464 10.0079 -0.421072 3 1 
97.3333 1.2048 10.0071 0.0005139 0.000522874 10.0071 -0.353296 3 1 
98.6667 1.20477 10.0078 0.000460194 0.000474479 10.0078 -0.407954 3 1 
100 1.20475 10.0084 0.000469414 0.000481913 10.0084 -0.455457 3 1 
101.333 1.20477 10.0078 0.000487377 0.000496401 10.0078 -0.410782 3 1 
102.667 1.20477 10.0079 0.000478054 0.000491507 10.0079 -0.420805 3 1 
104 1.20479 10.0075 0.000519663 0.000530305 10.0075 -0.385275 3 1 
105.333 1.2048 10.0069 0.000520525 0.00053344 10.0069 -0.355638 3 1 
106.667 1.20472 10.0091 0.000556831 0.00056707 10.0091 -0.509409 3 1 
106.667 1.20472 10.0091 0.000556831 0.00056707 10.0091 -0.509409 3 1 
108 1.20476 10.0085 0.000564494 0.000581539 10.0085 -0.440487 3 1 
109.333 1.20479 10.0072 0.000522908 0.000537831 10.0072 -0.379736 3 1 
110.667 1.20473 10.0089 0.000497376 0.000509252 10.0089 -0.49417 3 1 
112 1.20474 10.009 0.000502872 0.000521855 10.009 -0.473042 3 1 
113.333 1.20478 10.0076 0.000544872 0.000555859 10.0076 -0.395981 3 1 
114.667 1.20476 10.0079 0.000579131 0.000589803 10.0079 -0.427404 3 1 
116 1.20473 10.0093 0.000593787 0.000595842 10.0093 -0.495046 3 1 
117.333 1.20472 10.0091 0.00054759 0.000557399 10.0091 -0.512629 3 1 
118.667 1.20472 10.0096 0.000520387 0.000532966 10.0096 -0.514001 3 1 
120 1.20477 10.0079 0.000509989 0.000520398 10.0079 -0.419185 3 1 
121.333 1.20473 10.0081 0.000565993 0.000574275 10.0081 -0.485603 3 1 
122.667 1.2047 10.0098 0.000605444 0.000605672 10.0098 -0.546857 3 1 
124 1.20473 10.0083 0.000589034 0.000591443 10.0083 -0.486263 3 1 
125.333 1.20472 10.009 0.000563316 0.00056342 10.009 -0.49881 3 1 
126.667 1.20472 10.0096 0.000535927 0.000534807 10.0096 -0.50848 3 1 
128 1.20472 10.0089 0.000573879 0.000567923 10.0089 -0.509251 3 1 
128 1.20472 10.0089 0.000573879 0.000567923 10.0089 -0.509251 3 1 
129.333 1.20473 10.0086 0.000598836 0.000602498 10.0086 -0.479363 3 1 
130.667 1.20471 10.0089 0.000624133 0.000620732 10.0089 -0.515979 3 1 
132 1.20468 10.0098 0.000606814 0.000596534 10.0098 -0.569976 3 1 
133.333 1.20472 10.0091 0.000588288 0.000576337 10.0091 -0.506145 3 1 
134.667 1.20473 10.0088 0.000576415 0.000573104 10.0088 -0.482433 3 1 
136 1.20469 10.0093 0.000598786 0.00059165 10.0093 -0.562731 3 1 
137.333 1.20472 10.0084 0.000628167 0.000616837 10.0084 -0.50644 3 1 
138.667 1.20471 10.0086 0.000623107 0.000615999 10.0086 -0.525419 3 1 
140 1.20468 10.0092 0.0006303 0.000616424 10.0092 -0.573016 3 1 
141.333 1.20471 10.0088 0.000612836 0.000593719 10.0088 -0.518041 3 1 
142.667 1.20471 10.0089 0.000629204 0.000604959 10.0089 -0.519533 3 1 
144 1.20471 10.0091 0.000624717 0.000612617 10.0091 -0.531634 3 1 
145.333 1.20471 10.0084 0.000639755 0.000620569 10.0084 -0.516768 3 1 
146.667 1.20471 10.0087 0.000642944 0.000622895 10.0087 -0.515535 3 1 
148 1.20469 10.0088 0.000631344 0.000605518 10.0088 -0.568192 3 1 
149.333 1.20471 10.0075 0.000645664 0.000620483 10.0075 -0.518852 3 1 
149.333 1.20471 10.0075 0.000645664 0.000620483 10.0075 -0.518852 3 1 
150.667 1.20473 10.0076 0.000635793 0.000610142 10.0076 -0.488535 3 1 
152 1.20471 10.008 0.000635453 0.00060425 10.008 -0.516067 3 1 
153.333 1.2047 10.0082 0.000642343 0.000608471 10.0082 -0.542985 3 1 
154.667 1.20471 10.0083 0.000643436 0.000609755 10.0083 -0.522421 3 1 
156 1.20473 10.0074 0.000652395 0.000621411 10.0074 -0.479644 3 1 
157.333 1.20473 10.007 0.00064631 0.00061416 10.007 -0.495994 3 1 
158.667 1.20471 10.0077 0.000624459 0.000596615 10.0077 -0.52995 3 1 
160 1.20474 10.0063 0.000618381 0.000585128 10.0063 -0.472869 3 1 
161.333 1.20475 10.0062 0.000632694 0.000603533 10.0062 -0.44457 3 1 
162.667 1.20471 10.0076 0.000667076 0.000635599 10.0076 -0.515925 3 1 
164 1.20472 10.0069 0.000661189 0.000624442 10.0069 -0.500501 3 1 
165.333 1.20473 10.0063 0.000637042 0.000594891 10.0063 -0.482625 3 1 
166.667 1.20475 10.005 0.00062484 0.000595352 10.005 -0.44874 3 1 
168 1.20475 10.0043 0.000622643 0.000594151 10.0043 -0.444803 3 1 
169.333 1.20473 10.0055 0.000650283 0.000615127 10.0055 -0.478867 3 1 
170.667 1.20474 10.0062 0.000673914 0.000640142 10.0062 -0.461075 3 1 
170.667 1.20474 10.0062 0.000673914 0.000640142 10.0062 -0.461075 11 1 
172 1.20475 10.0066 0.000676125 0.000636108 10.0066 -0.456605 11 1 
173.333 1.20476 10.0052 0.000667583 0.000636646 10.0052 -0.433116 11 1 
174.667 1.20478 10.0031 0.000641475 0.00061094 10.0031 -0.400715 11 1 
176 1.20475 10.0031 0.000650035 0.00062147 10.0031 -0.455084 11 1 
177.333 1.20474 10.0036 0.000668005 0.000635426 10.0036 -0.461542 11 1 
178.667 1.20478 10.0035 0.000672841 0.000634829 10.0035 -0.398748 11 1 
180 1.20478 10.0033 0.000672863 0.00063796 10.0033 -0.398655 11 1 
181.333 1.20477 10.0034 0.000682816 0.000640829 10.0034 -0.415026 11 1 
182.667 1.20478 10.0033 0.000720007 0.00069106 10.0033 -0.405819 11 1 
184 1.20478 10.0023 0.000730482 0.000706279 10.0023 -0.395322 11 1 
185.333 1.20478 10.0014 0.000705337 0.000681977 10.0014 -0.394133 11 1 
186.667 1.20479 10.0004 0.000662735 0.000634052 10.0004 -0.381433 11 1 
188 1.20479 10.0003 0.000664472 0.000632643 10.0003 -0.385834 11 1 
189.333 1.20479 10.0011 0.000713956 0.000683042 10.0011 -0.38786 11 1 
190.667 1.20479 10.0007 0.000749315 0.000710327 10.0007 -0.372463 11 1 
192 1.2048 10.0004 0.000762616 0.000745471 10.0004 -0.353106 11 1 
192 1.2048 10.0004 0.000762616 0.000745471 10.0004 -0.353106 11 1 
193.333 1.20483 10.0001 0.000776811 0.000734273 10.0001 -0.306181 11 1 
194.667 1.20481 9.99849 0.00067518 0.000645122 9.99849 -0.350027 11 1 
196 1.20479 9.99674 0.000709921 0.000697639 9.99674 -0.386263 11 1 
197.333 1.2048 9.99746 0.000786259 0.000759905 9.99746 -0.357481 11 1 
198.667 1.20482 9.9979 0.000705473 0.000681021 9.9979 -0.318809 11 1 
200 1.20485 9.99755 0.000825977 0.00079953 9.99755 -0.263631 11 1 
201.333 1.20483 9.99681 0.000798018 0.000780152 9.99681 -0.300467 11 1 
202.667 1.20483 9.99288 0.000653389 0.00060248 9.99288 -0.315 11 1 
204 1.20482 9.99177 0.000747646 0.000720725 9.99177 -0.322386 11 1 
205.333 1.20483 9.99366 0.000747025 0.000748702 9.99366 -0.299812 11 1 
206.667 1.20488 9.99417 0.000759919 0.00073915 9.99417 -0.217511 11 1 
208 1.20485 9.99531 0.000859924 0.000822623 9.99531 -0.26262 11 1 
209.333 1.20486 9.99395 0.000782047 0.000758626 9.99396 -0.252639 11 1 
210.667 1.20488 9.98974 0.000762243 0.000753151 9.98974 -0.208162 11 1 
212 1.20488 9.98738 0.000760015 0.000731074 9.98738 -0.217669 11 1 
213.333 1.20488 9.98638 0.000741313 0.000711068 9.98638 -0.219741 11 1 
213.333 1.20488 9.98638 0.000741313 0.000711068 9.98638 -0.219741 11 1 
214.667 1.20488 9.98545 0.000754304 0.000750507 9.98545 -0.212552 11 1 
216 1.2049 9.98546 0.000754013 0.000740662 9.98546 -0.179916 11 1 
217.333 1.2049 9.98649 0.000757104 0.00070866 9.9865 -0.177311 11 1 
218.667 1.20495 9.98624 0.000750403 0.000735838 9.98624 -0.0987883 11 1 
220 1.20496 9.9856 0.000801623 0.000808049 9.9856 -0.0754503 11 1 
221.333 1.20493 9.98245 0.000838885 0.000802413 9.98245 -0.129264 11 1 
222.667 1.20494 9.97672 0.000803299 0.000749361 9.97672 -0.110341 11 1 
224 1.20495 9.97571 0.000708704 0.000697471 9.97571 -0.0897383 11 1 
225.333 1.20498 9.97565 0.000702021 0.000698782 9.97565 -0.0355401 11 1 
226.667 1.20501 9.9753 0.000735104 0.000698638 9.9753 0.0229846 11 1 
228 1.205 9.97676 0.000815011 0.000775842 9.97676 0.00324074 11 1 
229.333 1.20501 9.97202 0.000805108 0.000793097 9.97202 0.0232567 11 1 
230.667 1.20503 9.96722 0.000705302 0.000709102 9.96722 0.0606694 11 1 
232 1.20503 9.96616 0.000661526 0.000625882 9.96616 0.0602053 11 1 
233.333 1.20507 9.96451 0.000705159 0.00065301 9.96451 0.119685 11 1 
234.667 1.20512 9.9632 0.000815086 0.000786604 9.9632 0.208432 11 1 
234.667 1.20512 9.9632 0.000815086 0.000786604 9.9632 0.208432 11 1 
236 1.20509 9.96214 0.000801724 0.000797132 9.96214 0.166353 11 1 
237.333 1.20511 9.95815 0.000759052 0.000721907 9.95815 0.196966 11 1 
238.667 1.20516 9.95257 0.000657775 0.000595456 9.95257 0.297546 11 1 
240 1.20514 9.9509 0.000637317 0.000631199 9.9509 0.256587 11 1 
241.333 1.2052 9.94659 0.000693138 0.000680444 9.94659 0.361199 11 1 
242.667 1.20522 9.94591 0.000754472 0.000700255 9.94591 0.396517 11 1 
244 1.20526 9.94254 0.000710093 0.000645675 9.94254 0.461964 11 1 
245.333 1.20526 9.93668 0.000625638 0.000601661 9.93668 0.478038 11 1 
246.667 1.20528 9.93309 0.000690885 0.000687042 9.93309 0.5052 11 1 
248 1.20537 9.92755 0.000604036 0.000544632 9.92755 0.660972 11 1 
249.333 1.20535 9.92498 0.000695069 0.000647408 9.92498 0.628122 11 1 
250.667 1.20541 9.91872 0.00072911 0.000706231 9.91872 0.748379 11 1 
252 1.20543 9.91393 0.000528406 0.000491594 9.91393 0.771701 11 1 
253.333 1.2055 9.90496 0.000616289 0.000582995 9.90496 0.898709 11 1 
254.667 1.20554 9.90002 0.000621852 0.000597374 9.90002 0.974929 11 1 
256 1.20556 9.89562 0.000567247 0.000541076 9.89562 1.00556 11 1 
256 1.20556 9.89562 0.000567247 0.000541076 9.89562 1.00556 13 1 
257.333 1.20567 9.88644 0.000629176 0.00058686 9.88644 1.20633 13 1 
258.667 1.20568 9.88046 0.000521864 0.000479282 9.88046 1.22876 13 1 
260 1.20572 9.8708 0.000498164 0.000442245 9.8708 1.30246 13 1 
261.333 1.20582 9.85913 0.000589176 0.000519097 9.85913 1.48333 13 1 
262.667 1.20592 9.84805 0.000554509 0.00051943 9.84805 1.65995 13 1 
264 1.20592 9.84191 0.000505309 0.000487016 9.84191 1.65885 13 1 
265.333 1.20602 9.83042 0.000484917 0.000445698 9.83042 1.84403 13 1 
266.667 1.20622 9.81193 0.000469263 0.000451015 9.81193 2.20409 13 1 
268 1.20616 9.80089 0.000453681 0.000462789 9.8009 2.10149 13 1 
269.333 1.20627 9.78628 0.000463579 0.000433421 9.78628 2.29791 13 1 
270.667 1.20662 9.76223 0.000429441 0.000385317 9.76223 2.91854 13 1 
272 1.20645 9.75534 0.000422808 0.000414159 9.75534 2.61938 13 1 
273.333 1.20662 9.73319 0.000433348 0.000407932 9.73319 2.92725 13 1 
274.667 1.20709 9.70047 0.000377322 0.000327739 9.70048 3.7681 13 1 
276 1.20693 9.68714 0.00035651 0.000343512 9.68715 3.48761 13 1 
277.333 1.20714 9.65242 0.000343242 0.00032772 9.65243 3.86314 13 1 
277.333 1.20714 9.65242 0.000343242 0.00032772 9.65243 3.86314 13 1 
278.667 1.20752 9.61958 0.000354443 0.000302471 9.61959 4.55292 13 1 
280 1.20758 9.58994 0.000334019 0.000298406 9.58995 4.65122 13 1 
281.333 1.20779 9.54568 0.000296516 0.000285025 9.54569 5.04541 13 1 
282.667 1.20808 9.51457 0.000283817 0.000255505 9.51457 5.56525 13 1 
284 1.20849 9.48312 0.000272037 0.000226487 9.48312 6.30526 13 1 
285.333 1.20889 9.43978 0.000271572 0.00024175 9.43981 7.02638 13 1 
286.667 1.20905 9.37654 0.000239345 0.000212911 9.37666 7.31245 13 1 
288 1.20927 9.29562 0.00022858 0.000191167 9.29572 7.71569 13 1 
289.333 1.20973 9.23486 0.000209354 0.000179564 9.23488 8.54889 13 1 
290.667 1.21037 9.18097 0.000173509 0.000157432 9.18097 9.708 13 1 
292 1.21086 9.10986 0.000172073 0.000153351 9.10988 10.5827 13 1 
293.333 1.2111 9.03921 0.000158211 0.000132007 9.03926 11.0114 13 1 
294.667 1.21159 8.94991 0.000154352 0.000131246 8.95003 11.907 13 1 
296 1.21229 8.85337 0.000117089 9.23628e-05 8.85346 13.1678 13 1 
297.333 1.21267 8.77666 0.000123544 8.83993e-05 8.77668 13.8574 13 1 
298.667 1.20807 8.65025 0.0001128 7.95089e-05 8.65033 5.5524 13 1 
298.667 1.20807 8.65025 0.0001128 7.95089e-05 8.65033 5.5524 14 1 
300 1.20045 8.61579 5.04771e-05 1.88761e-05 8.61586 -8.21886 14 1 
301.333 1.19772 8.6307 9.4245e-05 5.18258e-05 8.63075 -13.1425 14 1 
302.667 1.19838 8.55375 3.62505e-05 -7.00622e-06 8.5538 -11.9596 14 1 
304 1.1989 8.46693 1.29493e-05 -2.29012e-05 8.46699 -11.0127 14 1 
305.333 1.19922 8.38049 1.63876e-05 -1.64774e-05 8.38061 -10.4391 14 1 
306.667 1.19962 8.31002 -6.72237e-05 -0.000102234 8.3101 -9.71813 14 1 
308 1.19996 8.23205 -3.05542e-05 -7.15267e-05 8.23207 -9.10286 14 1 
309.333 1.20032 8.1692 -7.63641e-05 -0.000117054 8.16921 -8.44582 14 1 
310.667 1.20074 8.12214 -9.27722e-05 -0.00011633 8.12215 -7.69849 14 1 
312 1.20109 8.06758 -9.66731e-05 -0.000129922 8.06758 -7.06526 14 1 
313.333 1.20138 8.02518 -0.000157615 -0.000211808 8.02518 -6.53193 14 1 
314.667 1.20167 7.98234 -0.000131366 -0.000164779 7.98235 -6.02057 14 1 
316 1.20185 7.93089 -0.000183027 -0.00020509 7.93092 -5.68058 14 1 
317.333 1.20203 7.89192 -0.000197328 -0.000242966 7.89196 -5.36886 14 1 
318.667 1.20229 7.85601 -0.000185145 -0.000233823 7.85603 -4.89257 14 1 
320 1.20248 7.81696 -0.000218818 -0.000248266 7.81698 -4.55913 14 1 
320 1.20248 7.81696 -0.000218818 -0.000248266 7.81698 -4.55913 14 1 
321.333 1.20253 7.7856 -0.00024421 -0.000280042 7.78562 -4.46158 14 1 
322.667 1.20267 7.75565 -0.000261111 -0.000312085 7.75567 -4.20003 14 1 
324 1.20286 7.72491 -0.000262739 -0.000305622 7.72492 -3.86213 14 1 
325.333 1.20293 7.70582 -0.000295149 -0.000324355 7.70582 -3.73488 14 1 
326.667 1.20304 7.69602 -0.000298269 -0.000334841 7.69602 -3.53973 14 1 
328 1.20323 7.68423 -0.000293075 -0.000345801 7.68423 -3.19949 14 1 
329.333 1.20332 7.67126 -0.000313941 -0.000361312 7.67126 -3.03514 14 1 
330.667 1.20334 7.66112 -0.000344332 -0.000372703 7.66112 -2.99303 14 1 
332 1.20343 7.65837 -0.000360577 -0.000398288 7.65838 -2.82679 14 1 
333.333 1.20361 7.66277 -0.00036299 -0.000420646 7.66277 -2.50976 14 1 
334.667 1.20373 7.66092 -0.000353759 -0.000394338 7.66092 -2.28869 14 1 
336 1.20371 7.6512 -0.000348238 -0.000376988 7.6512 -2.32876 14 1 
337.333 1.20372 7.64209 -0.000377546 -0.000440706 7.64209 -2.31839 14 1 
338.667 1.20386 7.63685 -0.000389246 -0.000462711 7.63685 -2.06751 14 1 
340 1.204 7.63992 -0.000376845 -0.000415727 7.63992 -1.80375 14 1 
341.333 1.20401 7.64077 -0.00038311 -0.000421971 7.64077 -1.79462 14 1 
341.333 1.20401 7.64077 -0.00038311 -0.000421971 7.64077 -1.79462 15 1 
342.667 1.20394 7.63189 -0.000428533 -0.000486929 7.6319 -1.92232 15 1 
344 1.20403 7.627 -0.000418039 -0.000463852 7.627 -1.76052 15 1 
345.333 1.20415 7.62081 -0.000376711 -0.000406784 7.62081 -1.53071 15 1 
346.667 1.20414 7.60804 -0.000397066 -0.00043506 7.60804 -1.55671 15 1 
348 1.20414 7.60181 -0.000460431 -0.000507739 7.60181 -1.54598 15 1 
349.333 1.20416 7.59933 -0.000491426 -0.000524212 7.59934 -1.50808 15 1 
350.667 1.2042 7.59921 -0.000446811 -0.000471711 7.59922 -1.44606 15 1 
352 1.20431 7.59613 -0.000401725 -0.000438271 7.59614 -1.2532 15 1 
353.333 1.20429 7.57932 -0.000445634 -0.000478967 7.57933 -1.27851 15 1 
354.667 1.20425 7.57593 -0.000517143 -0.000542679 7.57593 -1.35831 15 1 
356 1.20434 7.59672 -0.000474306 -0.00050567 7.59672 -1.19941 15 1 
357.333 1.20438 7.60835 -0.000405763 -0.000439244 7.60835 -1.11664 15 1 
358.667 1.2044 7.60609 -0.000409147 -0.000440059 7.60609 -1.07858 15 1 
360 1.20446 7.60804 -0.00047313 -0.000502089 7.60805 -0.975167 15 1 
361.333 1.20448 7.62351 -0.000483985 -0.000519068 7.62352 -0.944031 15 1 
362.667 1.20452 7.65336 -0.00041859 -0.00047 7.65338 -0.867351 15 1 
362.667 1.20452 7.65336 -0.00041859 -0.00047 7.65338 -0.867351 15 1 
364 1.2046 7.67906 -0.000385443 -0.000433308 7.67906 -0.722436 15 1 
365.333 1.20464 7.68911 -0.000415438 -0.000457001 7.68911 -0.658904 15 1 
366.667 1.20465 7.69441 -0.000440961 -0.000501077 7.69441 -0.629462 15 1 
368 1.2047 7.70831 -0.00040836 -0.000467898 7.70831 -0.534206 15 1 
369.333 1.20477 7.73835 -0.000376488 -0.000416909 7.73836 -0.412375 15 1 
370.667 1.20481 7.77797 -0.000376571 -0.000419176 7.77798 -0.336197 15 1 
372 1.20487 7.81967 -0.000419885 -0.000466384 7.81968 -0.237249 15 1 
373.333 1.20494 7.86676 -0.000415209 -0.000448076 7.86678 -0.106744 15 1 
374.667 1.205 7.92031 -0.000368176 -0.000400466 7.92034 0.00126256 15 1 
376 1.20509 7.98432 -0.000356833 -0.000404157 7.98436 0.166214 15 1 
377.333 1.20519 8.06377 -0.000390088 -0.000439478 8.06383 0.335339 15 1 
378.667 1.20525 8.15477 -0.000416652 -0.000471357 8.15485 0.450915 15 1 
380 1.20533 8.2569 -0.0003979 -0.000464556 8.25699 0.600725 15 1 
381.333 1.2054 8.37077 -0.00036497 -0.000427003 8.37087 0.725727 15 1 
382.667 1.20545 8.48971 -0.000358299 -0.000416833 8.48982 0.810817 15 1 
384 1.20551 8.6105 -0.000384752 -0.000451234 8.6106 0.922264 15 1 
384 1.20551 8.6105 -0.000384752 -0.000451234 8.6106 0.922264 15 1 
385.333 1.20554 8.72983 -0.000383532 -0.000436974 8.72993 0.980852 15 1 
386.667 1.20555 8.84203 -0.00036418 -0.000398625 8.84212 0.999441 15 1 
388 1.20557 8.9492 -0.000315204 -0.000365363 8.94928 1.03587 15 1 
389.333 1.20557 9.04981 -0.000302412 -0.000356717 9.04987 1.02336 15 1 
390.667 1.20555 9.14052 -0.000336972 -0.000360619 9.14057 0.990798 15 1 
392 1.20554 9.22305 -0.000323461 -0.000355924 9.22309 0.979227 15 1 
393.333 1.20553 9.29629 -0.000260872 -0.000320375 9.29633 0.955332 15 1 
394.667 1.20552 9.36229 -0.000249029 -0.000289695 9.36232 0.939106 15 1 
396 1.2055 9.4215 -0.000280845 -0.00031922 9.42153 0.899016 15 1 
397.333 1.20547 9.47299 -0.0002569 -0.000320407 9.47301 0.840115 15 1 
398.667 1.20545 9.51891 -0.000234561 -0.000293065 9.51892 0.808467 15 1 
400 1.20542 9.5591 -0.000210414 -0.000261253 9.55911 0.756566 15 1 
401.333 1.2054 9.59537 -0.000159416 -0.000220984 9.59537 0.724208 15 1 
402.667 1.2054 9.6285 -0.000145197 -0.000215406 9.62851 0.727134 15 1 
404 1.20537 9.65726 -0.000187645 -0.000260625 9.65727 0.666241 15 1 
405.333 1.20533 9.68234 -0.00015564 -0.000213883 9.68234 0.592973 15 1 
405.333 1.20533 9.68234 -0.00015564 -0.000213883 9.68234 0.592973 15 1 
406.667 1.20534 9.70585 -6.85155e-05 -0.000118934 9.70586 0.605355 15 1 
408 1.20534 9.72879 -7.35084e-05 -0.000139327 9.7288 0.616651 15 1 
409.333 1.20532 9.74851 -0.000132849 -0.000193949 9.74852 0.575302 15 1 
410.667 1.2053 9.76562 -0.000118418 -0.000168411 9.76563 0.541028 15 1 
412 1.20528 9.78228 -5.22043e-05 -0.000110653 9.78228 0.508023 15 1 
413.333 1.20528 9.79836 -2.79467e-05 -8.50658e-05 9.79836 0.51029 15 1 
414.667 1.20529 9.81297 -5.86643e-05 -0.000103011 9.81297 0.531513 15 1 
416 1.20527 9.82501 -7.45183e-05 -0.000128281 9.82501 0.491547 15 1 
417.333 1.20526 9.837 -4.27707e-05 -0.000105533 9.83701 0.473213 15 1 
418.667 1.20527 9.84836 -3.23713e-05 -7.6924e-05 9.84836 0.479592 15 1 
420 1.20525 9.85802 -2.63459e-05 -7.36047e-05 9.85803 0.456378 15 1 
421.333 1.20526 9.86723 -4.48358e-05 -0.000111788 9.86724 0.462558 15 1 
422.667 1.20526 9.87571 -4.69446e-05 -9.60221e-05 9.87571 0.471669 15 1 
424 1.20524 9.88344 -4.08552e-05 -8.21453e-05 9.88344 0.434225 15 1 
425.333 1.20522 9.88979 -5.01603e-05 -0.000111821 9.88979 0.398233 15 1 
426.667 1.20523 9.89611 -5.25142e-05 -0.000100819 9.89611 0.411583 15 1 
426.667 1.20523 9.89611 -5.25142e-05 -0.000100819 9.89611 0.411583 20 1 
428 1.20524 9.90228 -4.57065e-05 -8.68273e-05 9.90228 0.439389 20 1 
429.333 1.20524 9.90846 -5.33882e-05 -0.000111355 9.90846 0.440517 20 1 
430.667 1.20523 9.91329 -9.73555e-05 -0.000140249 9.91329 0.411489 20 1 
432 1.20521 9.9171 -7.74481e-05 -0.000104025 9.9171 0.37826 20 1 
433.333 1.2052 9.92184 -5.21527e-05 -9.86108e-05 9.92184 0.362097 20 1 
434.667 1.20521 9.92556 -5.70385e-05 -0.000106626 9.92556 0.378864 20 1 
436 1.20524 9.931 -8.721e-05 -0.000111471 9.931 0.431049 20 1 
437.333 1.20521 9.93329 -0.000112324 -0.000137105 9.93329 0.381115 20 1 
438.667 1.20518 9.93574 -8.27287e-05 -0.000129931 9.93574 0.322517 20 1 
440 1.20521 9.94143 -5.4854e-05 -9.18766e-05 9.94143 0.379998 20 1 
441.333 1.2052 9.94159 -4.65041e-05 -6.42738e-05 9.94159 0.359228 20 1 
442.667 1.2052 9.94716 -6.54301e-05 -9.55367e-05 9.94716 0.358385 20 1 
444 1.20522 9.95032 -8.92777e-05 -0.00012029 9.95032 0.398299 20 1 
445.333 1.2052 9.94965 -6.75786e-05 -9.12249e-05 9.94965 0.353547 20 1 
446.667 1.20518 9.95529 -2.64642e-05 -5.91851e-05 9.95529 0.321998 20 1 
448 1.20518 9.95461 -3.46154e-05 -6.17227e-05 9.95461 0.323909 20 1 
448 1.20518 9.95461 -3.46154e-05 -6.17227e-05 9.95461 0.323909 20 1 
449.333 1.20522 9.95981 -5.63935e-05 -7.50565e-05 9.95981 0.395577 20 1 
450.667 1.2052 9.96258 -8.17571e-05 -0.000106297 9.96258 0.364659 20 1 
452 1.20517 9.96029 -4.83757e-05 -7.15685e-05 9.96029 0.299485 20 1 
453.333 1.20521 9.96724 1.90056e-05 -1.32842e-06 9.96724 0.371331 20 1 
454.667 1.20518 9.96549 -1.0408e-05 -2.93505e-05 9.96549 0.332217 20 1 
456 1.20518 9.96866 -5.82047e-05 -7.38335e-05 9.96866 0.332797 20 1 
457.333 1.2052 9.97254 -5.53291e-05 -7.01972e-05 9.97254 0.369881 20 1 
458.667 1.20519 9.96954 -1.95523e-05 -3.75266e-05 9.96954 0.337438 20 1 
460 1.20519 9.97526 -1.58523e-05 -3.38296e-05 9.97526 0.341433 20 1 
461.333 1.20516 9.97327 -2.91778e-05 -3.70532e-05 9.97327 0.280445 20 1 
462.667 1.2052 9.97644 -3.06394e-05 -3.76147e-05 9.97644 0.356607 20 1 
464 1.20522 9.98027 -2.98885e-05 -5.26146e-05 9.98027 0.399183 20 1 
465.333 1.20517 9.97638 -1.89308e-05 -4.09864e-05 9.97638 0.312797 20 1 
466.667 1.20519 9.98206 -1.89056e-05 -2.12649e-05 9.98206 0.352225 20 1 
468 1.20517 9.97973 -2.28994e-05 -3.09595e-05 9.97973 0.30212 20 1 
469.333 1.20519 9.98233 -4.80233e-05 -7.76323e-05 9.98233 0.338865 20 1 
469.333 1.20519 9.98233 -4.80233e-05 -7.76323e-05 9.98233 0.338865 20 1 
470.667 1.20522 9.98573 -3.97649e-05 -5.85788e-05 9.98573 0.39279 20 1 
472 1.20516 9.98062 -1.40915e-05 -1.46304e-05 9.98062 0.28279 20 1 
473.333 1.20518 9.98706 -2.17563e-05 -4.10151e-05 9.98706 0.332854 20 1 
474.667 1.2052 9.98556 -1.85799e-05 -4.60438e-05 9.98556 0.356343 20 1 
476 1.20519 9.9866 -1.88096e-05 -1.89248e-05 9.9866 0.340366 20 1 
477.333 1.20518 9.99004 -3.5623e-05 -3.72213e-05 9.99004 0.334014 20 1 
478.667 1.20516 9.98526 -4.93089e-05 -7.41371e-05 9.98526 0.294296 20 1 
480 1.2052 9.99082 -4.50583e-05 -5.86048e-05 9.99082 0.364971 20 1 
481.333 1.20519 9.98882 -2.77127e-05 -2.81851e-05 9.98882 0.335587 20 1 
482.667 1.20518 9.98947 -1.8922e-05 -3.28269e-05 9.98947 0.324493 20 1 
484 1.20519 9.99354 -4.44779e-05 -6.51553e-05 9.99354 0.348159 20 1 
485.333 1.20518 9.98944 -5.93543e-05 -7.14965e-05 9.98944 0.319307 20 1 
486.667 1.20519 9.99358 -3.62197e-05 -4.42571e-05 9.99358 0.334284 20 1 
488 1.20515 9.9915 -2.69682e-05 -4.4741e-05 9.9915 0.279787 20 1 
489.333 1.2052 9.99273 -3.14401e-05 -5.54613e-05 9.99273 0.357832 20 1 
490.667 1.20522 9.99562 -5.14044e-05 -6.4648e-05 9.99562 0.396314 20 1 
490.667 1.20522 9.99562 -5.14044e-05 -6.4648e-05 9.99562 0.396314 20 1 
492 1.20516 9.99189 -7.7755e-05 -8.26967e-05 9.99189 0.280619 20 1 
493.333 1.20517 9.99597 -5.88798e-05 -7.46222e-05 9.99597 0.308643 20 1 
494.667 1.20517 9.9939 -3.53768e-05 -6.23286e-05 9.9939 0.308719 20 1 
496 1.20518 9.9954 -3.67155e-05 -5.23432e-05 9.9954 0.321654 20 1 
497.333 1.2052 9.9968 -5.30372e-05 -6.24972e-05 9.9968 0.352879 20 1 
498.667 1.20519 9.99501 -7.36923e-05 -9.86599e-05 9.99501 0.350727 20 1 
500 1.20519 9.99848 -7.26053e-05 -9.81471e-05 9.99848 0.348337 20 1 
501.333 1.20514 9.99432 -5.70798e-05 -6.72909e-05 9.99432 0.247155 20 1 
502.667 1.20517 9.99759 -4.36914e-05 -5.84535e-05 9.99759 0.307336 20 1 
504 1.20521 9.99894 -7.31912e-05 -0.000103136 9.99894 0.382183 20 1 
505.333 1.20518 9.99649 -9.59211e-05 -0.00012086 9.99649 0.320909 20 1 
506.667 1.20517 9.99925 -7.035e-05 -8.41155e-05 9.99925 0.300769 20 1 
508 1.20516 9.99668 -5.96991e-05 -7.50879e-05 9.99668 0.297686 20 1 
509.333 1.20519 9.99995 -6.78826e-05 -8.98932e-05 9.99995 0.336334 20 1 
510.667 1.20517 9.99868 -8.65877e-05 -0.00011137 9.99868 0.311811 20 1 
512 1.20519 9.99873 -9.0516e-05 -0.000110452 9.99873 0.34349 20 1 
512 1.20519 9.99873 -9.0516e-05 -0.000110452 9.99873 0.34349 21 1 
513.333 1.20519 10.0004 -8.26907e-05 -9.53589e-05 10.0004 0.339069 21 1 
514.667 1.20515 9.99815 -9.24695e-05 -0.000116151 9.99815 0.27529 21 1 
516 1.20518 10.0014 -9.33775e-05 -0.000122154 10.0014 0.332384 21 1 
517.333 1.20516 9.99915 -9.53842e-05 -0.0001078 9.99915 0.296791 21 1 
518.667 1.20516 10.0006 -0.000101356 -0.000117606 10.0006 0.295216 21 1 
520 1.2052 10.001 -0.000107144 -0.000135456 10.001 0.367255 21 1 
521.333 1.2052 9.99996 -9.92355e-05 -0.000120288 9.99996 0.354507 21 1 
522.667 1.20515 10.0014 -8.47895e-05 -0.000100012 10.0014 0.268597 21 1 
524 1.20514 9.9994 -0.000114384 -0.000132316 9.9994 0.258808 21 1 
525.333 1.20521 10.0037 -0.000150672 -0.000168867 10.0037 0.384392 21 1 
526.667 1.20519 10.0012 -0.000127961 -0.000144248 10.0012 0.335435 21 1 
528 1.20516 10.0011 -9.43427e-05 -0.000114893 10.0011 0.286423 21 1 
529.333 1.20517 10.0015 -9.91918e-05 -0.000121577 10.0015 0.305092 21 1 
530.667 1.20518 10.0014 -0.000122341 -0.000135607 10.0014 0.319943 21 1 
532 1.20517 10.0028 -0.000161946 -0.000178056 10.0028 0.308044 21 1 
533.333 1.20519 10.0018 -0.000174624 -0.000194291 10.0018 0.335566 21 1 
533.333 1.20519 10.0018 -0.000174624 -0.000194291 10.0018 0.335566 21 1 
534.667 1.20521 10.0039 -0.000143091 -0.000152285 10.0039 0.382649 21 1 
536 1.20513 10.0006 -0.000116943 -0.000134084 10.0006 0.237389 21 1 
537.333 1.20513 10.0023 -0.000121027 -0.000144632 10.0023 0.243813 21 1 
538.667 1.20522 10.0038 -0.000141958 -0.000151151 10.0038 0.391371 21 1 
540 1.2052 10.003 -0.00016788 -0.000180294 10.003 0.368633 21 1 
541.333 1.20515 10.003 -0.000200226 -0.000217507 10.003 0.274619 21 1 
542.667 1.20517 10.0018 -0.000175035 -0.000181321 10.0018 0.298193 21 1 
544 1.20519 10.0048 -0.00013759 -0.000148893 10.0048 0.349635 21 1 
545.333 1.20515 10.0019 -0.000157368 -0.000174948 10.0019 0.272814 21 1 
546.667 1.20519 10.0047 -0.000168453 -0.000177496 10.0047 0.341579 21 1 
548 1.2052 10.0031 -0.000192645 -0.000199447 10.0031 0.355033 21 1 
549.333 1.20516 10.0035 -0.000212438 -0.000221602 10.0035 0.289937 21 1 
550.667 1.20513 10.0019 -0.000185634 -0.000194765 10.0019 0.243535 21 1 
552 1.20521 10.0052 -0.000162519 -0.000170563 10.0052 0.383819 21 1 
553.333 1.2052 10.0044 -0.000167692 -0.000174385 10.0044 0.362024 21 1 
554.667 1.20511 10.0024 -0.000194689 -0.000200879 10.0024 0.202097 21 1 
554.667 1.20511 10.0024 -0.000194689 -0.000200879 10.0024 0.202097 22 1 
556 1.20516 10.0044 -0.000223525 -0.000230899 10.0044 0.297097 22 1 
557.333 1.20526 10.0053 -0.000235248 -0.000242962 10.0053 0.473329 22 1 
558.667 1.20517 10.004 -0.000210326 -0.000215798 10.004 0.314175 22 1 
560 1.20506 10.001 -0.00018954 -0.000194843 10.001 0.104999 22 1 
561.333 1.20521 10.0056 -0.00019204 -0.000200573 10.0056 0.372557 22 1 
562.667 1.20528 10.0063 -0.000195361 -0.000204352 10.0063 0.513094 22 1 
564 1.20512 10.0038 -0.000217546 -0.00022355 10.0038 0.212084 22 1 
565.333 1.20506 10.001 -0.000235408 -0.000241358 10.001 0.110743 22 1 
566.667 1.20527 10.0068 -0.00024398 -0.000247992 10.0068 0.483062 22 1 
568 1.20527 10.0064 -0.000231346 -0.000239199 10.0064 0.484741 22 1 
569.333 1.20505 10.002 -0.000217788 -0.00023131 10.002 0.093603 22 1 
570.667 1.20507 10.002 -0.000230147 -0.000235501 10.002 0.123482 22 1 
572 1.20531 10.0083 -0.000222089 -0.00022564 10.0083 0.568091 22 1 
573.333 1.20526 10.0062 -0.0002296 -0.000240586 10.0062 0.469517 22 1 
574.667 1.20502 10.0011 -0.000236999 -0.000246584 10.0011 0.0332301 22 1 
576 1.2051 10.0029 -0.000240005 -0.000248329 10.0029 0.182479 22 1 
576 1.2051 10.0029 -0.000240005 -0.000248329 10.0029 0.182479 22 1 
577.333 1.20533 10.0086 -0.000257569 -0.00026994 10.0086 0.596914 22 1 
578.667 1.20521 10.006 -0.000240979 -0.000251592 10.006 0.388151 22 1 
580 1.20502 10.0011 -0.000243646 -0.000254209 10.0011 0.0287426 22 1 
581.333 1.20513 10.0037 -0.000245644 -0.000260354 10.0037 0.238026 22 1 
582.667 1.2053 10.0079 -0.000239121 -0.000249423 10.0079 0.536495 22 1 
584 1.20518 10.0051 -0.000257081 -0.000265576 10.0051 0.326424 22 1 
585.333 1.20506 10.0024 -0.000251087 -0.000266307 10.0024 0.106773 22 1 
586.667 1.20519 10.0054 -0.0002625 -0.00027596 10.0054 0.341188 22 1 
588 1.20526 10.007 -0.000272795 -0.000281816 10.007 0.469916 22 1 
589.333 1.20512 10.0035 -0.000254032 -0.000267984 10.0035 0.209175 22 1 
590.667 1.20509 10.0033 -0.000260111 -0.000275964 10.0033 0.1664 22 1 
592 1.20524 10.0071 -0.000274483 -0.000285944 10.0071 0.438574 22 1 
593.333 1.20522 10.0063 -0.000276449 -0.000288984 10.0063 0.398948 22 1 
594.667 1.20506 10.0023 -0.000276061 -0.000291139 10.0023 0.103322 22 1 
596 1.20512 10.0037 -0.000270565 -0.000283332 10.0037 0.216604 22 1 
597.333 1.20531 10.0087 -0.000263466 -0.000276197 10.0087 0.5524 22 1 
597.333 1.20531 10.0087 -0.000263466 -0.000276197 10.0087 0.5524 24 1 
598.667 1.20522 10.0066 -0.000276052 -0.000289091 10.0066 0.391907 24 1 
600 1.20501 10.0011 -0.000283405 -0.00029189 10.0011 0.0181384 24 1 
601.333 1.20512 10.004 -0.000285606 -0.000295813 10.004 0.212359 24 1 
602.667 1.20535 10.0095 -0.000291052 -0.000307629 10.0095 0.624466 24 1 
604 1.20522 10.0062 -0.000279046 -0.000292214 10.0062 0.393055 24 1 
605.333 1.20496 10.0006 -0.000277356 -0.000287282 10.0006 -0.0650827 24 1 
606.667 1.20511 10.0041 -0.000281493 -0.000293702 10.0041 0.202473 24 1 
608 1.20539 10.0109 -0.000293852 -0.000304989 10.0109 0.704691 24 1 
609.333 1.20524 10.0072 -0.000310145 -0.000321662 10.0072 0.440495 24 1 
610.667 1.20494 9.99943 -0.00029697 -0.000312147 9.99943 -0.1106 24 1 
612 1.20506 10.0027 -0.00028024 -0.000296666 10.0027 0.103885 24 1 
613.333 1.2054 10.0113 -0.000271036 -0.000286692 10.0113 0.718837 24 1 
614.667 1.20532 10.0092 -0.000274594 -0.000288992 10.0092 0.584978 24 1 
616 1.20496 10.0001 -0.000294265 -0.000308314 10.0001 -0.0682268 24 1 
617.333 1.205 10.0011 -0.000299768 -0.000313552 10.0011 -0.00828932 24 1 
618.667 1.20536 10.0106 -0.000292644 -0.000306866 10.0106 0.650654 24 1 
618.667 1.20536 10.0106 -0.000292644 -0.000306866 10.0106 0.650654 24 1 
620 1.20537 10.0109 -0.000275151 -0.000291897 10.0109 0.670959 24 1 
621.333 1.20501 10.0015 -0.000265864 -0.000283916 10.0015 0.0199325 24 1 
622.667 1.20494 9.99969 -0.000280799 -0.000299165 9.99969 -0.100336 24 1 
624 1.2053 10.0089 -0.00029301 -0.000311893 10.0089 0.536229 24 1 
625.333 1.20543 10.0124 -0.000296518 -0.00031479 10.0124 0.767741 24 1 
626.667 1.2051 10.0037 -0.000279514 -0.00029696 10.0037 0.176674 24 1 
628 1.20491 9.9987 -0.000250659 -0.000270195 9.9987 -0.169269 24 1 
629.333 1.2052 10.0065 -0.000248724 -0.000270076 10.0065 0.35451 24 1 
630.667 1.20545 10.013 -0.000270796 -0.000292565 10.013 0.817326 24 1 
632 1.20522 10.0071 -0.000295872 -0.000320875 10.0071 0.404634 24 1 
633.333 1.20492 9.99913 -0.000300331 -0.00032753 9.99913 -0.14751 24 1 
634.667 1.20507 10.003 -0.000272099 -0.000298031 10.003 0.119886 24 1 
636 1.2054 10.012 -0.000243485 -0.00027003 10.012 0.725682 24 1 
637.333 1.20534 10.0103 -0.000241272 -0.000269053 10.0103 0.614027 24 1 
638.667 1.20501 10.0013 -0.000264879 -0.000292205 10.0013 0.00906318 24 1 
640 1.20498 10.0007 -0.000289015 -0.000318887 10.0007 -0.0388614 24 1 
640 1.20498 10.0007 -0.000289015 -0.000318887 10.0007 -0.0388614 24 1 
641.333 1.20529 10.009 -0.000286709 -0.000320409 10.009 0.523731 24 1 
642.667 1.2054 10.012 -0.000264705 -0.000296284 10.012 0.715449 24 1 
644 1.20512 10.0045 -0.000229782 -0.000259083 10.0045 0.215777 24 1 
645.333 1.20494 9.99939 -0.000227974 -0.000257555 9.99939 -0.115519 24 1 
646.667 1.20515 10.0055 -0.000263305 -0.000288928 10.0055 0.268577 24 1 
648 1.2054 10.0123 -0.000284038 -0.00031084 10.0123 0.730368 24 1 
649.333 1.20528 10.0087 -0.000294287 -0.000328334 10.0087 0.503547 24 1 
650.667 1.20497 10.0005 -0.000280344 -0.000314533 10.0005 -0.046696 24 1 
652 1.205 10.001 -0.000251545 -0.000283937 10.001 -0.00525416 24 1 
653.333 1.20531 10.0096 -0.000243976 -0.000276436 10.0096 0.552469 24 1 
654.667 1.2054 10.0124 -0.000253713 -0.000281342 10.0124 0.72307 24 1 
656 1.20514 10.0051 -0.00026757 -0.000291876 10.0051 0.258489 24 1 
657.333 1.20493 9.9993 -0.000273455 -0.000301393 9.9993 -0.119938 24 1 
658.667 1.20509 10.0039 -0.000286548 -0.000316111 10.0039 0.167743 24 1 
660 1.20537 10.0115 -0.000285 -0.000314263 10.0115 0.663393 24 1 
661.333 1.20532 10.0103 -0.000270503 -0.000301551 10.0103 0.580836 24 1 
661.333 1.20532 10.0103 -0.000270503 -0.000301551 10.0103 0.580836 24 1 
662.667 1.20504 10.0022 -0.000264451 -0.000292177 10.0022 0.0731687 24 1 
664 1.20495 9.99969 -0.000241054 -0.00026393 9.99969 -0.0843223 24 1 
665.333 1.20518 10.0064 -0.000241335 -0.000264773 10.0064 0.330946 24 1 
666.667 1.20539 10.012 -0.00027383 -0.000298074 10.012 0.697812 24 1 
668 1.20525 10.0082 -0.000298001 -0.000321319 10.0082 0.454062 24 1 
669.333 1.20498 10.0007 -0.000305371 -0.000329142 10.0007 -0.0322093 24 1 
670.667 1.20497 10.0002 -0.000281858 -0.000303883 10.0002 -0.0471957 24 1 
672 1.20522 10.0075 -0.000236604 -0.000254169 10.0075 0.401441 24 1 
673.333 1.20537 10.012 -0.000221659 -0.000238406 10.012 0.677064 24 1 
674.667 1.20522 10.0073 -0.000255412 -0.000271428 10.0073 0.401016 24 1 
676 1.20498 10.0003 -0.000295342 -0.000310798 10.0003 -0.0396887 24 1 
677.333 1.20499 10.0007 -0.000313845 -0.000332692 10.0007 -0.0240257 24 1 
678.667 1.20522 10.0073 -0.000278323 -0.000299025 10.0073 0.399922 24 1 
680 1.20535 10.0113 -0.000201688 -0.000222199 10.0113 0.629859 24 1 
681.333 1.2052 10.007 -0.000165706 -0.000186309 10.007 0.366077 24 1 
682.667 1.20499 10.0004 -0.00018787 -0.000208088 10.0004 -0.0165391 24 1 
682.667 1.20499 10.0004 -0.00018787 -0.000208088 10.0004 -0.0165391 31 1 
684 1.205 10.0008 -0.00025744 -0.000277185 10.0008 -0.000901522 31 1 
685.333 1.20521 10.0073 -0.000316742 -0.000336933 10.0073 0.382685 31 1 
686.667 1.20534 10.011 -0.000294379 -0.000316044 10.011 0.618517 31 1 
688 1.2052 10.0069 -0.000208028 -0.000229983 10.0069 0.369559 31 1 
689.333 1.20497 10.0001 -0.000110994 -0.000131614 10.0001 -0.04747 31 1 
690.667 1.20495 9.99928 -8.34654e-05 -0.000101768 9.99928 -0.0852 31 1 
692 1.20517 10.0059 -0.000145488 -0.000160403 10.0059 0.310086 31 1 
693.333 1.20537 10.0119 -0.000244884 -0.000258107 10.0119 0.671451 31 1 
694.667 1.2053 10.0099 -0.000305632 -0.00032017 10.0099 0.54966 31 1 
696 1.20504 10.0019 -0.000268901 -0.000286026 10.0019 0.0720094 31 1 
697.333 1.20489 9.99721 -0.000165057 -0.000186067 9.99721 -0.202666 31 1 
698.667 1.20502 10.0012 -6.24594e-05 -8.72663e-05 10.0012 0.0299633 31 1 
700 1.20529 10.0095 -2.86953e-05 -5.44344e-05 10.0095 0.5234 31 1 
701.333 1.20541 10.0131 -8.64055e-05 -0.000110255 10.0131 0.742799 31 1 
702.667 1.20525 10.0082 -0.000180203 -0.000200784 10.0082 0.454916 31 1 
704 1.205 10.0004 -0.000241672 -0.000258089 10.0004 -0.00897511 31 1 
704 1.205 10.0004 -0.000241672 -0.000258089 10.0004 -0.00897511 31 1 
705.333 1.20491 9.99787 -0.000228136 -0.000240556 9.99787 -0.156117 31 1 
706.667 1.20508 10.0031 -0.000150605 -0.000159997 10.0031 0.149845 31 1 
708 1.20532 10.0105 -5.40995e-05 -6.01836e-05 10.0105 0.579141 31 1 
709.333 1.20538 10.0123 9.43221e-06 7.74194e-06 10.0123 0.68831 31 1 
710.667 1.20521 10.007 1.82211e-05 2.33916e-05 10.007 0.382501 31 1 
712 1.20499 10 -1.35079e-06 1.16717e-05 10 -0.0117426 31 1 
713.333 1.20493 9.99831 -2.81909e-05 -6.71479e-06 9.99831 -0.121652 31 1 
714.667 1.20507 10.0028 -3.06263e-05 -5.5072e-07 10.0028 0.1351 31 1 
716 1.20527 10.0086 -1.2331e-05 2.34613e-05 10.0086 0.482364 31 1 
717.333 1.2053 10.0099 6.03845e-06 4.5151e-05 10.0099 0.544127 31 1 
718.667 1.20514 10.0047 6.60858e-06 4.61268e-05 10.0047 0.251318 31 1 
720 1.20491 9.99736 -2.3646e-05 1.24257e-05 9.99736 -0.155268 31 1 
721.333 1.2048 9.99385 -6.46189e-05 -3.43915e-05 9.99385 -0.364595 31 1 
722.667 1.20488 9.99651 -0.000115739 -9.31988e-05 9.99651 -0.212394 31 1 
724 1.20507 10.0022 -0.000157973 -0.000145432 10.0022 0.120139 31 1 
725.333 1.20516 10.0054 -0.000201501 -0.000200112 10.0054 0.293647 31 1 
725.333 1.20516 10.0054 -0.000201501 -0.000200112 10.0054 0.293647 31 1 
726.667 1.20508 10.0028 -0.000268205 -0.000279343 10.0028 0.151834 31 1 
728 1.20488 9.99594 -0.00035236 -0.000377122 9.99594 -0.220483 31 1 
729.333 1.20469 9.99025 -0.000460878 -0.000499011 9.99025 -0.552121 31 1 
730.667 1.20469 9.98991 -0.000556228 -0.000606678 9.98991 -0.565013 31 1 
732 1.20486 9.99543 -0.00060312 -0.000664586 9.99543 -0.248109 31 1 
733.333 1.2051 10.0033 -0.00057371 -0.000644775 10.0033 0.177376 31 1 
734.667 1.20525 10.0081 -0.000449096 -0.000526496 10.0081 0.455434 31 1 
736 1.20522 10.0069 -0.000256095 -0.000337928 10.0069 0.392818 31 1 
737.333 1.20502 10.0005 -2.80894e-05 -0.000112192 10.0005 0.0356723 31 1 
738.667 1.20479 9.99271 0.000178132 9.55761e-05 9.99271 -0.378027 31 1 
740 1.20464 9.98779 0.000314553 0.000234942 9.98779 -0.651972 31 1 
741.333 1.20463 9.98763 0.000358504 0.000283303 9.98763 -0.661451 31 1 
742.667 1.20475 9.99113 0.00029821 0.000229855 9.99113 -0.452671 31 1 
744 1.20487 9.99519 0.000156044 9.52942e-05 9.99519 -0.239659 31 1 
745.333 1.20489 9.99604 -3.55027e-05 -8.84468e-05 9.99604 -0.194504 31 1 
746.667 1.20478 9.99215 -0.000238088 -0.000282841 9.99215 -0.39223 31 1 
746.667 1.20478 9.99215 -0.000238088 -0.000282841 9.99215 -0.39223 31 1 
748 1.20455 9.98468 -0.000418656 -0.000455383 9.98468 -0.804784 31 1 
749.333 1.2043 9.97627 -0.000552751 -0.000582249 9.97627 -1.25945 31 1 
750.667 1.20413 9.97018 -0.000628903 -0.000652198 9.97018 -1.56765 31 1 
752 1.20409 9.96903 -0.000653264 -0.000670982 9.96903 -1.63525 31 1 
753.333 1.20421 9.973 -0.000625685 -0.000638683 9.973 -1.42226 31 1 
754.667 1.20445 9.98074 -0.00056648 -0.000576258 9.98074 -0.996628 31 1 
756 1.20472 9.99015 -0.000489479 -0.000496513 9.99015 -0.509714 31 1 
757.333 1.20496 9.99833 -0.000399955 -0.000404423 9.99833 -0.077723 31 1 
758.667 1.20511 10.0034 -0.000315106 -0.000318418 10.0034 0.202169 31 1 
760 1.20515 10.0047 -0.000237834 -0.000239899 10.0047 0.270471 31 1 
761.333 1.20509 10.0025 -0.000174618 -0.000175807 10.0025 0.159017 31 1 
762.667 1.20496 9.99806 -0.000120647 -0.000121596 9.99806 -0.0767737 31 1 
764 1.2048 9.99271 -8.21697e-05 -8.25225e-05 9.99271 -0.357398 31 1 
765.333 1.20466 9.98762 -5.69163e-05 -5.7511e-05 9.98762 -0.60705 31 1 
766.667 1.20456 9.98403 -3.34481e-05 -3.38539e-05 9.98403 -0.80357 31 1 
768 1.2045 9.98224 -2.31429e-05 -2.32372e-05 9.98224 -0.912171 31 1 
768 1.2045 9.98224 -2.31429e-05 -2.32372e-05 9.98224 -0.912171 32 1 
769.333 1.20449 9.98188 -1.41854e-05 -1.45893e-05 9.98188 -0.928335 32 1 
770.667 1.20452 9.98287 -7.14031e-06 -7.34983e-06 9.98287 -0.874742 32 1 
772 1.20457 9.98487 -5.02636e-06 -5.18803e-06 9.98487 -0.771685 32 1 
773.333 1.20464 9.98725 -2.48351e-06 -2.77978e-06 9.98725 -0.643781 32 1 
774.667 1.20472 9.98968 -2.73781e-06 -2.89657e-06 9.98968 -0.509419 32 1 
776 1.20478 9.992 -1.15359e-06 -1.21998e-06 9.992 -0.389471 32 1 
777.333 1.20484 9.99416 -1.10022e-06 -1.26989e-06 9.99416 -0.291733 32 1 
778.667 1.20488 9.99594 -3.48076e-07 -6.33164e-07 9.99594 -0.214081 32 1 
780 1.20492 9.99726 1.04235e-06 1.11612e-06 9.99726 -0.152744 32 1 
781.333 1.20494 9.99826 -2.6949e-07 -3.61746e-07 9.99826 -0.106217 32 1 
782.667 1.20497 9.99877 8.59266e-07 5.11334e-07 9.99877 -0.0607247 32 1 
784 1.20498 9.9992 1.86727e-06 1.88467e-06 9.9992 -0.0370968 32 1 
785.333 1.20498 9.9996 9.57918e-07 8.46181e-07 9.9996 -0.028463 32 1 
786.667 1.205 9.99968 2.95618e-07 -7.15072e-08 9.99968 -0.0081808 32 1 
788 1.20499 9.99982 7.40404e-07 3.05715e-07 9.99982 -0.00995689 32 1 
789.333 1.205 9.99992 9.02684e-07 6.74458e-07 9.99992 -0.00527286 32 1 
790.667 1.205 9.99988 -8.0047e-07 -1.11253e-06 9.99988 0.00820847 32 1 
792 1.205 9.9999 4.18981e-07 -9.74999e-08 9.9999 0.00150665 32 1 
793.333 1.205 9.99995 1.12829e-06 9.17315e-07 9.99995 0.00187772 32 1 
794.667 1.205 10 1.99228e-07 -3.97981e-08 10 0.00266006 32 1 
796 1.205 10 1.40336e-06 1.00304e-06 10 0.00119203 32 1 
797.333 1.205 9.99998 1.62557e-06 1.14788e-06 9.99998 0.00418159 32 1 
798.667 1.20501 10 3.40935e-06 3.01207e-06 10 0.00899582 32 1 
800 1.20501 10 5.41174e-06 5.21184e-06 10 0.0131205 32 1 
