65.2066;r ;Density                 ;Velocity u              ;Velocity v              ;Velocity w              ;|Velocity|              ;Pressure                ;Distribution            ;Levels                  ;
0 1.20187 9.99976 0.000212962 0.000275855 9.99977 -5.64527 1 1 
1.33334 1.20185 10.0005 5.31808e-06 -5.40959e-05 10.0005 -5.69816 1 1 
2.66666 1.20181 10.0018 -0.00042871 -0.000721726 10.0018 -5.75695 1 1 
4 1.20176 10.0019 -0.00081562 -0.00131829 10.0019 -5.85123 1 1 
5.33334 1.20174 10.0019 -0.00106693 -0.0016972 10.0019 -5.89014 1 1 
6.66666 1.20179 10.0024 -0.00133405 -0.00207923 10.0024 -5.78954 1 1 
8 1.20182 10.0021 -0.00161017 -0.00247203 10.0021 -5.73764 1 1 
9.33334 1.20191 10.0019 -0.00180759 -0.00269693 10.0019 -5.58084 1 1 
10.6667 1.20205 10.002 -0.0020139 -0.00293294 10.0021 -5.3341 1 1 
12 1.20215 10.0015 -0.00214248 -0.00307836 10.0016 -5.14608 1 1 
13.3333 1.20232 10.0011 -0.00218813 -0.00304852 10.0012 -4.83707 1 1 
14.6667 1.2025 10.0007 -0.00223719 -0.00301439 10.0008 -4.51932 1 1 
16 1.20264 9.99979 -0.00217581 -0.00283881 9.99989 -4.25922 1 1 
17.3333 1.20282 9.99932 -0.00204297 -0.00253909 9.99941 -3.93755 1 1 
18.6667 1.20296 9.99849 -0.00190304 -0.00222773 9.99858 -3.69059 1 1 
20 1.20309 9.99737 -0.00163105 -0.00172829 9.99743 -3.45668 1 1 
21.3333 1.20323 9.99674 -0.00133684 -0.00121114 9.99679 -3.19783 1 1 
21.3333 1.20323 9.99674 -0.00133684 -0.00121114 9.99679 -3.19783 1 1 
22.6667 1.20329 9.99544 -0.000991474 -0.000656684 9.99548 -3.08736 1 1 
24 1.20335 9.99446 -0.00053764 7.87145e-05 9.99448 -2.98304 1 1 
25.3333 1.20341 9.99375 -0.000142202 0.000720487 9.99375 -2.86414 1 1 
26.6667 1.20339 9.99248 0.000300077 0.00137255 9.99248 -2.91422 1 1 
28 1.20335 9.99173 0.000821895 0.00216167 9.99173 -2.97885 1 1 
29.3333 1.2033 9.99114 0.00126432 0.00282398 9.99114 -3.07051 1 1 
30.6667 1.20319 9.99028 0.00171526 0.00345724 9.99029 -3.26668 1 1 
32 1.20308 9.98991 0.00218454 0.00411617 9.98994 -3.45945 1 1 
33.3333 1.20292 9.98925 0.00255989 0.004622 9.9893 -3.76452 1 1 
34.6667 1.20274 9.98841 0.00292431 0.00509856 9.98847 -4.08535 1 1 
36 1.20261 9.98866 0.0032122 0.00545797 9.98874 -4.3232 1 1 
37.3333 1.2024 9.98842 0.0034133 0.00567434 9.98852 -4.69127 1 1 
38.6667 1.20219 9.9882 0.00359954 0.00587962 9.9883 -5.07657 1 1 
40 1.20204 9.98855 0.00364579 0.00587166 9.98866 -5.35298 1 1 
41.3333 1.20186 9.9886 0.00360475 0.00572364 9.9887 -5.67661 1 1 
42.6667 1.20168 9.98927 0.00355835 0.0055971 9.98937 -5.99115 1 1 
42.6667 1.20168 9.98927 0.00355835 0.0055971 9.98937 -5.99115 2 1 
44 1.20152 9.98938 0.00336202 0.0052516 9.98946 -6.28711 2 1 
45.3333 1.20135 9.98932 0.00307821 0.00475868 9.98939 -6.59153 2 1 
46.6667 1.20125 9.99043 0.00279285 0.00429649 9.99049 -6.76615 2 1 
48 1.20114 9.99115 0.002403 0.00369374 9.99119 -6.97873 2 1 
49.3333 1.20101 9.99078 0.00195618 0.00300732 9.9908 -7.20291 2 1 
50.6667 1.20098 9.99136 0.00147796 0.00229489 9.99137 -7.25429 2 1 
52 1.20095 9.99224 0.000958944 0.00153973 9.99224 -7.30929 2 1 
53.3333 1.20094 9.99249 0.000485983 0.000885099 9.99249 -7.33287 2 1 
54.6667 1.20099 9.99234 -3.75963e-05 0.000153686 9.99235 -7.24432 2 1 
56 1.20104 9.99215 -0.000528825 -0.000533652 9.99216 -7.14624 2 1 
57.3333 1.20116 9.99274 -0.000893503 -0.000996199 9.99277 -6.9401 2 1 
58.6667 1.2013 9.99257 -0.00128756 -0.00149085 9.99262 -6.68596 2 1 
60 1.20142 9.99152 -0.0016071 -0.00188919 9.99159 -6.46262 2 1 
61.3333 1.20161 9.99165 -0.00179054 -0.00205627 9.99172 -6.12209 2 1 
62.6667 1.2018 9.99211 -0.001939 -0.00216631 9.9922 -5.77628 2 1 
64 1.20199 9.99074 -0.00200537 -0.00216452 9.99084 -5.44019 2 1 
64 1.20199 9.99074 -0.00200537 -0.00216452 9.99084 -5.44019 2 1 
65.3333 1.20221 9.99025 -0.00195834 -0.00198579 9.99034 -5.04158 2 1 
66.6667 1.2024 9.99017 -0.00182317 -0.00169484 9.99026 -4.69225 2 1 
68 1.2026 9.98951 -0.00159375 -0.00126057 9.9896 -4.34273 2 1 
69.3333 1.20283 9.98836 -0.00132911 -0.000774256 9.98844 -3.92681 2 1 
70.6667 1.203 9.98724 -0.000943779 -0.000142094 9.9873 -3.60591 2 1 
72 1.20316 9.98721 -0.000445419 0.000668212 9.98725 -3.31756 2 1 
73.3333 1.20335 9.98594 1.96609e-05 0.00141261 9.98597 -2.98662 2 1 
74.6667 1.20348 9.98432 0.000548714 0.00223142 9.98434 -2.74593 2 1 
76 1.2036 9.98421 0.00119691 0.00322514 9.98421 -2.53744 2 1 
77.3333 1.20365 9.9837 0.00178173 0.0041011 9.98371 -2.43333 2 1 
78.6667 1.20368 9.98181 0.00232105 0.00491267 9.98182 -2.37684 2 1 
80 1.20375 9.9811 0.00290059 0.00578689 9.98111 -2.26332 2 1 
81.3333 1.20369 9.98132 0.00344014 0.0065783 9.98133 -2.36098 2 1 
82.6667 1.2036 9.97975 0.00391824 0.00728388 9.97978 -2.5235 2 1 
84 1.20357 9.97806 0.00428985 0.00784994 9.9781 -2.57425 2 1 
85.3333 1.20346 9.97838 0.00465243 0.00837898 9.97843 -2.78707 2 1 
85.3333 1.20346 9.97838 0.00465243 0.00837898 9.97843 -2.78707 3 1 
86.6667 1.2033 9.97864 0.00499561 0.0088874 9.9787 -3.07611 3 1 
88 1.20317 9.97714 0.00513763 0.0091147 9.97721 -3.30448 3 1 
89.3333 1.20302 9.97611 0.00523426 0.00925311 9.97618 -3.57983 3 1 
90.6667 1.20284 9.97765 0.00534699 0.00942187 9.97773 -3.89917 3 1 
92 1.20265 9.97725 0.00527498 0.00932579 9.97732 -4.23809 3 1 
93.3333 1.20247 9.97484 0.00508857 0.00906034 9.97491 -4.57025 3 1 
94.6667 1.2023 9.976 0.00486678 0.00875952 9.97607 -4.87055 3 1 
96 1.20213 9.97749 0.00455868 0.00832556 9.97754 -5.1857 3 1 
97.3333 1.20197 9.97624 0.00414783 0.00772883 9.97628 -5.47117 3 1 
98.6667 1.20186 9.97554 0.00364609 0.00702853 9.97557 -5.67447 3 1 
100 1.20174 9.97692 0.00321596 0.00639586 9.97694 -5.89275 3 1 
101.333 1.20166 9.97776 0.00272012 0.00569995 9.97777 -6.03659 3 1 
102.667 1.20163 9.97649 0.00211163 0.00486363 9.9765 -6.08485 3 1 
104 1.2016 9.97692 0.00162452 0.00416949 9.97692 -6.14645 3 1 
105.333 1.20163 9.9792 0.00117839 0.00358073 9.9792 -6.083 3 1 
106.667 1.20168 9.97916 0.000639503 0.00282992 9.97917 -5.98959 3 1 
106.667 1.20168 9.97916 0.000639503 0.00282992 9.97917 -5.98959 3 1 
108 1.20174 9.97716 0.000175625 0.00220667 9.97718 -5.89479 3 1 
109.333 1.20187 9.97799 -0.000132505 0.00182133 9.978 -5.65807 3 1 
110.667 1.20198 9.97924 -0.000485308 0.00133035 9.97927 -5.45206 3 1 
112 1.2021 9.9777 -0.000768597 0.000950013 9.97773 -5.24007 3 1 
113.333 1.20231 9.97711 -0.00094389 0.000779087 9.97714 -4.85545 3 1 
114.667 1.20247 9.97901 -0.00103994 0.000677039 9.97905 -4.56748 3 1 
116 1.20262 9.97919 -0.00103991 0.000666025 9.97923 -4.30199 3 1 
117.333 1.20287 9.97597 -0.001034 0.000758357 9.97602 -3.85282 3 1 
118.667 1.20303 9.97627 -0.000867361 0.0010518 9.97631 -3.55828 3 1 
120 1.20319 9.977 -0.000579251 0.00148163 9.97704 -3.26393 3 1 
121.333 1.20339 9.97449 -0.000319616 0.00188872 9.97452 -2.91093 3 1 
122.667 1.20353 9.97317 4.67633e-05 0.00246412 9.9732 -2.65889 3 1 
124 1.20368 9.97397 0.000559982 0.00323099 9.97398 -2.37983 3 1 
125.333 1.20378 9.97446 0.00101217 0.0038745 9.97447 -2.20656 3 1 
126.667 1.20386 9.97097 0.00142716 0.00450445 9.97098 -2.06794 3 1 
128 1.20394 9.96972 0.00195386 0.00531646 9.96972 -1.92287 3 1 
128 1.20394 9.96972 0.00195386 0.00531646 9.96972 -1.92287 3 1 
129.333 1.20396 9.9708 0.00243396 0.00602684 9.9708 -1.8735 3 1 
130.667 1.20395 9.96876 0.00287181 0.00664103 9.96876 -1.88788 3 1 
132 1.20395 9.96689 0.00329329 0.00731724 9.96689 -1.9016 3 1 
133.333 1.20392 9.96751 0.00372665 0.00798758 9.96752 -1.94609 3 1 
134.667 1.20385 9.96828 0.00408119 0.00849454 9.96829 -2.08052 3 1 
136 1.20377 9.96533 0.00434443 0.00890855 9.96534 -2.2135 3 1 
137.333 1.20368 9.96349 0.00461111 0.00937497 9.96351 -2.38094 3 1 
138.667 1.20358 9.9654 0.00482181 0.00970665 9.96543 -2.57045 3 1 
140 1.20346 9.9658 0.00488896 0.00980988 9.96583 -2.7828 3 1 
141.333 1.20334 9.96357 0.00488617 0.00989717 9.96359 -3.0068 3 1 
142.667 1.20323 9.96376 0.00488355 0.00996641 9.96379 -3.19973 3 1 
144 1.2031 9.96561 0.00473686 0.00978099 9.96563 -3.42329 3 1 
145.333 1.20299 9.96387 0.00452706 0.00950156 9.96389 -3.62883 3 1 
146.667 1.20292 9.96263 0.00427264 0.009262 9.96266 -3.7634 3 1 
148 1.20284 9.96476 0.00399826 0.00891883 9.96478 -3.8946 3 1 
149.333 1.20278 9.96578 0.00364038 0.00841307 9.9658 -4.01269 3 1 
149.333 1.20278 9.96578 0.00364038 0.00841307 9.9658 -4.01269 3 1 
150.667 1.20276 9.96413 0.00325882 0.00794755 9.96414 -4.04692 3 1 
152 1.20276 9.96407 0.00289941 0.00754635 9.96408 -4.04892 3 1 
153.333 1.20276 9.96621 0.00252197 0.00703244 9.96622 -4.04988 3 1 
154.667 1.20278 9.96583 0.00210331 0.00645661 9.96583 -4.01386 3 1 
156 1.20283 9.96412 0.00174603 0.00604289 9.96412 -3.91307 3 1 
157.333 1.20291 9.96535 0.00145625 0.0056664 9.96536 -3.77956 3 1 
158.667 1.20299 9.96671 0.00114555 0.00521023 9.96671 -3.63683 3 1 
160 1.20308 9.9649 0.000888786 0.00486437 9.9649 -3.47093 3 1 
161.333 1.20318 9.96395 0.000663325 0.00462598 9.96396 -3.29044 3 1 
162.667 1.2033 9.96486 0.000510429 0.00438624 9.96486 -3.06346 3 1 
164 1.20342 9.96414 0.000365706 0.00414399 9.96414 -2.86076 3 1 
165.333 1.20351 9.96254 0.000264966 0.00407218 9.96255 -2.6942 3 1 
166.667 1.20364 9.96159 0.000287399 0.00413421 9.9616 -2.45686 3 1 
168 1.20373 9.96263 0.0003279 0.00414244 9.96264 -2.30076 3 1 
169.333 1.20379 9.96165 0.000406388 0.00426341 9.96166 -2.17955 3 1 
170.667 1.20388 9.95942 0.000564259 0.00455827 9.95943 -2.01862 3 1 
170.667 1.20388 9.95942 0.000564259 0.00455827 9.95943 -2.01862 11 1 
172 1.20393 9.9602 0.000753227 0.00481602 9.96021 -1.93297 11 1 
173.333 1.20397 9.95968 0.000993644 0.00509574 9.95969 -1.8591 11 1 
174.667 1.20399 9.95761 0.00122357 0.00547965 9.95763 -1.8247 11 1 
176 1.20399 9.95577 0.00145735 0.00587725 9.95578 -1.82202 11 1 
177.333 1.20399 9.9557 0.00174763 0.00625071 9.9557 -1.8189 11 1 
178.667 1.20397 9.95577 0.0020501 0.00666865 9.95578 -1.85425 11 1 
180 1.20394 9.95394 0.00234512 0.00716345 9.95395 -1.90602 11 1 
181.333 1.20392 9.95467 0.00262296 0.0075879 9.95468 -1.94781 11 1 
182.667 1.2039 9.9565 0.00296102 0.00803341 9.9565 -1.98413 11 1 
184 1.20387 9.95475 0.00324336 0.00846761 9.95475 -2.03396 11 1 
185.333 1.20383 9.95234 0.00344039 0.00881687 9.95234 -2.11022 11 1 
186.667 1.20382 9.95197 0.00362029 0.00910889 9.95198 -2.13147 11 1 
188 1.20382 9.9531 0.00383202 0.00941306 9.95311 -2.13166 11 1 
189.333 1.2038 9.9536 0.00401223 0.00970763 9.95361 -2.16957 11 1 
190.667 1.20383 9.95271 0.00408929 0.00985857 9.95273 -2.12167 11 1 
192 1.20387 9.95344 0.00419534 0.0100338 9.95345 -2.04564 11 1 
192 1.20387 9.95344 0.00419534 0.0100338 9.95345 -2.04564 11 1 
193.333 1.20388 9.95379 0.00425486 0.0101115 9.9538 -2.02316 11 1 
194.667 1.2039 9.95077 0.00413852 0.0100403 9.95078 -1.98353 11 1 
196 1.20396 9.94959 0.00411321 0.0100382 9.94961 -1.87275 11 1 
197.333 1.20402 9.95264 0.00412931 0.0100268 9.95265 -1.76465 11 1 
198.667 1.20407 9.95182 0.00394033 0.00982977 9.95183 -1.67317 11 1 
200 1.20413 9.9489 0.00389781 0.00974918 9.94891 -1.57782 11 1 
201.333 1.20417 9.94905 0.00375549 0.00957061 9.94906 -1.5061 11 1 
202.667 1.20421 9.94691 0.00347092 0.00919375 9.94691 -1.42267 11 1 
204 1.20422 9.9442 0.0033694 0.00905798 9.9442 -1.40904 11 1 
205.333 1.20425 9.94432 0.00318742 0.00883728 9.94433 -1.36288 11 1 
206.667 1.20431 9.94583 0.00308702 0.00868446 9.94583 -1.25236 11 1 
208 1.20427 9.94652 0.00303254 0.00858058 9.94653 -1.31551 11 1 
209.333 1.20425 9.9427 0.00281131 0.0083562 9.94272 -1.35345 11 1 
210.667 1.20427 9.9391 0.0027431 0.00829705 9.93911 -1.31462 11 1 
212 1.20423 9.93845 0.00268487 0.00820763 9.93847 -1.38518 11 1 
213.333 1.20419 9.93574 0.00258425 0.00815707 9.93575 -1.45875 11 1 
213.333 1.20419 9.93574 0.00258425 0.00815707 9.93575 -1.45875 11 1 
214.667 1.20419 9.93333 0.00258506 0.00825193 9.93334 -1.45742 11 1 
216 1.20419 9.93533 0.00264023 0.00839447 9.93533 -1.46565 11 1 
217.333 1.20415 9.93737 0.00271014 0.00850402 9.93737 -1.53077 11 1 
218.667 1.20417 9.93454 0.00274948 0.00867555 9.93455 -1.50713 11 1 
220 1.20419 9.93299 0.00289365 0.00899488 9.933 -1.46022 11 1 
221.333 1.2042 9.9329 0.0030742 0.00925694 9.9329 -1.45177 11 1 
222.667 1.20421 9.92789 0.00314758 0.00943576 9.9279 -1.419 11 1 
224 1.20424 9.92526 0.00322105 0.00969401 9.92527 -1.37492 11 1 
225.333 1.20434 9.92659 0.00337511 0.00999392 9.9266 -1.19543 11 1 
226.667 1.20443 9.92759 0.00358635 0.0102617 9.9276 -1.02214 11 1 
228 1.20447 9.92687 0.00376836 0.010552 9.92688 -0.948758 11 1 
229.333 1.20458 9.92212 0.0038992 0.0108333 9.92213 -0.765975 11 1 
230.667 1.20467 9.92014 0.00394799 0.0109402 9.92015 -0.591744 11 1 
232 1.20472 9.91824 0.00401422 0.0109841 9.91824 -0.509237 11 1 
233.333 1.20481 9.91414 0.00413421 0.0111487 9.91415 -0.334395 11 1 
234.667 1.20495 9.91393 0.00430041 0.0113556 9.91394 -0.0962841 11 1 
234.667 1.20495 9.91393 0.00430041 0.0113556 9.91394 -0.0962841 11 1 
236 1.20497 9.91393 0.00435438 0.0113847 9.91394 -0.0544161 11 1 
237.333 1.205 9.90777 0.00429663 0.0112657 9.90777 0.00771609 11 1 
238.667 1.20508 9.90077 0.00422913 0.0111823 9.90078 0.140498 11 1 
240 1.20507 9.90003 0.00422701 0.0111761 9.90003 0.135024 11 1 
241.333 1.20512 9.89619 0.0042587 0.0111409 9.8962 0.212279 11 1 
242.667 1.2051 9.89329 0.00423591 0.0110966 9.89329 0.171901 11 1 
244 1.20511 9.88885 0.00419321 0.0110629 9.88886 0.192911 11 1 
245.333 1.20508 9.8841 0.00406838 0.0109277 9.88411 0.15333 11 1 
246.667 1.20503 9.87888 0.00408426 0.0109694 9.87889 0.0516885 11 1 
248 1.20506 9.87162 0.00394191 0.0108771 9.87164 0.112514 11 1 
249.333 1.20502 9.87049 0.00404091 0.0110514 9.8705 0.0383144 11 1 
250.667 1.20502 9.86485 0.0041085 0.0111889 9.86486 0.0430366 11 1 
252 1.205 9.85885 0.00386942 0.0110275 9.85886 -0.00486367 11 1 
253.333 1.20507 9.85022 0.00393964 0.0112562 9.85023 0.118285 11 1 
254.667 1.20509 9.84618 0.00400123 0.011436 9.84619 0.168598 11 1 
256 1.20511 9.84104 0.00397438 0.0115228 9.84105 0.190211 11 1 
256 1.20511 9.84104 0.00397438 0.0115228 9.84105 0.190211 13 1 
257.333 1.20524 9.83091 0.00405457 0.0117598 9.83092 0.426252 13 1 
258.667 1.20529 9.82581 0.0039838 0.0118311 9.82582 0.527647 13 1 
260 1.2054 9.81732 0.00401505 0.0119424 9.81733 0.716211 13 1 
261.333 1.20555 9.80536 0.00413252 0.012127 9.80537 0.999789 13 1 
262.667 1.2057 9.79411 0.00407315 0.0122127 9.79412 1.27124 13 1 
264 1.20578 9.78859 0.00405267 0.0122625 9.7886 1.40691 13 1 
265.333 1.20596 9.77623 0.00404222 0.0122761 9.77624 1.73559 13 1 
266.667 1.20622 9.75626 0.00405278 0.0123729 9.75627 2.19858 13 1 
268 1.20623 9.7455 0.00398227 0.012338 9.74551 2.21607 13 1 
269.333 1.2064 9.73093 0.0039796 0.0122462 9.73094 2.5215 13 1 
270.667 1.20676 9.70576 0.00390452 0.0121374 9.70577 3.17628 13 1 
272 1.20664 9.6979 0.00381183 0.0120703 9.69792 2.95423 13 1 
273.333 1.20683 9.67535 0.00377809 0.0119739 9.67536 3.3019 13 1 
274.667 1.20726 9.64132 0.00371167 0.0118451 9.64134 4.09029 13 1 
276 1.2071 9.62632 0.00364662 0.0117928 9.62635 3.7897 13 1 
277.333 1.2073 9.59124 0.00355617 0.0116978 9.59126 4.14675 13 1 
277.333 1.2073 9.59124 0.00355617 0.0116978 9.59126 4.14675 13 1 
278.667 1.20765 9.55779 0.0035192 0.0115828 9.55782 4.78438 13 1 
280 1.20766 9.52672 0.00349908 0.0115685 9.52675 4.81309 13 1 
281.333 1.20784 9.48156 0.00344662 0.0116094 9.48158 5.13795 13 1 
282.667 1.20809 9.44988 0.00340864 0.0116247 9.44989 5.5894 13 1 
284 1.20847 9.41752 0.00342074 0.0116612 9.41753 6.26745 13 1 
285.333 1.20886 9.3732 0.00342184 0.0117252 9.37325 6.96415 13 1 
286.667 1.20901 9.30976 0.00336974 0.0117025 9.30989 7.24112 13 1 
288 1.20922 9.22863 0.00335998 0.0117135 9.22875 7.63062 13 1 
289.333 1.20969 9.16693 0.00339817 0.0118662 9.16695 8.46503 13 1 
290.667 1.21034 9.11251 0.00340518 0.0120056 9.11252 9.63955 13 1 
292 1.21084 9.04102 0.0034382 0.0120722 9.04105 10.545 13 1 
293.333 1.21111 8.96921 0.00347186 0.0121493 8.96926 11.033 13 1 
294.667 1.21164 8.87913 0.00347137 0.0122108 8.87925 11.9935 13 1 
296 1.21236 8.78223 0.00345296 0.0122372 8.78232 13.2972 13 1 
297.333 1.21278 8.70479 0.00348978 0.0122523 8.70481 14.0449 13 1 
298.667 1.20831 8.57794 0.00347527 0.0121578 8.57802 5.98736 13 1 
298.667 1.20831 8.57794 0.00347527 0.0121578 8.57802 5.98736 14 1 
300 1.20086 8.54074 0.00345343 0.0121881 8.54081 -7.46956 14 1 
301.333 1.19821 8.55224 0.00348974 0.0122039 8.55229 -12.2602 14 1 
302.667 1.19889 8.47407 0.00338705 0.0120455 8.47413 -11.0412 14 1 
304 1.19943 8.38621 0.00334157 0.0120035 8.38627 -10.0652 14 1 
305.333 1.19975 8.2977 0.00330974 0.0119327 8.29782 -9.47405 14 1 
306.667 1.20016 8.22428 0.00319467 0.0117606 8.22437 -8.73892 14 1 
308 1.20051 8.14438 0.00318972 0.0117219 8.14441 -8.10518 14 1 
309.333 1.20088 8.07985 0.00311986 0.0116821 8.07987 -7.43981 14 1 
310.667 1.20129 8.02946 0.00307161 0.0116477 8.02948 -6.69875 14 1 
312 1.20162 7.97074 0.00303705 0.0115715 7.97076 -6.09685 14 1 
313.333 1.20192 7.92574 0.00295516 0.0114323 7.92576 -5.56343 14 1 
314.667 1.20222 7.88096 0.00293793 0.0114257 7.88099 -5.02713 14 1 
316 1.20239 7.82556 0.00285363 0.0113199 7.82561 -4.7219 14 1 
317.333 1.20255 7.78248 0.00279795 0.0111666 7.78252 -4.42416 14 1 
318.667 1.20284 7.74428 0.00277618 0.0111054 7.74431 -3.90807 14 1 
320 1.20302 7.70178 0.00273409 0.0111175 7.70182 -3.58315 14 1 
320 1.20302 7.70178 0.00273409 0.0111175 7.70182 -3.58315 14 1 
321.333 1.20307 7.66451 0.00270388 0.0111192 7.66455 -3.49134 14 1 
322.667 1.20324 7.62997 0.0026893 0.011116 7.63001 -3.18359 14 1 
324 1.20343 7.59659 0.00268759 0.0111511 7.59661 -2.83031 14 1 
325.333 1.20351 7.57244 0.00267621 0.0112196 7.57245 -2.69526 14 1 
326.667 1.20364 7.55457 0.00266881 0.0113048 7.55458 -2.44789 14 1 
328 1.20384 7.53616 0.00268092 0.0113898 7.53617 -2.08633 14 1 
329.333 1.20395 7.51858 0.00267632 0.0114371 7.51859 -1.90507 14 1 
330.667 1.204 7.50208 0.00265913 0.0114697 7.5021 -1.8002 14 1 
332 1.20411 7.49195 0.00264792 0.0114854 7.49197 -1.60172 14 1 
333.333 1.2043 7.48968 0.00263383 0.0114884 7.48969 -1.25851 14 1 
334.667 1.20445 7.47971 0.00262427 0.0115049 7.47972 -0.988507 14 1 
336 1.20444 7.46299 0.00259096 0.0114574 7.463 -1.00599 14 1 
337.333 1.20447 7.45259 0.00253457 0.0113535 7.4526 -0.954827 14 1 
338.667 1.20464 7.44608 0.00250278 0.0112848 7.44609 -0.655419 14 1 
340 1.20478 7.44085 0.00249016 0.0112296 7.44086 -0.398173 14 1 
341.333 1.2048 7.42836 0.00243973 0.011119 7.42837 -0.360231 14 1 
341.333 1.2048 7.42836 0.00243973 0.011119 7.42837 -0.360231 15 1 
342.667 1.20476 7.40643 0.00236282 0.0110055 7.40644 -0.430715 15 1 
344 1.20484 7.39481 0.00232185 0.0109418 7.39482 -0.284833 15 1 
345.333 1.20498 7.38996 0.00230725 0.010888 7.38998 -0.0298799 15 1 
346.667 1.20501 7.37683 0.00227457 0.0108088 7.37685 0.0159246 15 1 
348 1.20501 7.35925 0.0022177 0.0107262 7.35927 0.0128729 15 1 
349.333 1.20502 7.34015 0.00217047 0.0106954 7.34017 0.0439372 15 1 
350.667 1.20508 7.33046 0.00218207 0.0107329 7.33048 0.141736 15 1 
352 1.20518 7.32771 0.00220086 0.0107349 7.32772 0.326899 15 1 
353.333 1.20519 7.31058 0.0021418 0.0106823 7.31059 0.337863 15 1 
354.667 1.20518 7.29276 0.00208324 0.0106868 7.29277 0.319579 15 1 
356 1.20525 7.28732 0.00212662 0.0107876 7.28733 0.450906 15 1 
357.333 1.20529 7.28033 0.00217192 0.0108583 7.28034 0.5267 15 1 
358.667 1.20533 7.27276 0.00214431 0.0108839 7.27277 0.595242 15 1 
360 1.20537 7.26468 0.00210317 0.0109225 7.26469 0.67506 15 1 
361.333 1.20539 7.25502 0.00211486 0.0109974 7.25502 0.706124 15 1 
362.667 1.20544 7.25247 0.00217529 0.0110933 7.25248 0.792846 15 1 
362.667 1.20544 7.25247 0.00217529 0.0110933 7.25248 0.792846 15 1 
364 1.20549 7.25085 0.00220531 0.0111873 7.25086 0.881272 15 1 
365.333 1.20552 7.24693 0.00217971 0.0112379 7.24694 0.943156 15 1 
366.667 1.20556 7.24426 0.0021815 0.0112801 7.24427 1.0061 15 1 
368 1.20559 7.24082 0.00223299 0.011362 7.24083 1.06031 15 1 
369.333 1.20564 7.24189 0.00227036 0.0114584 7.2419 1.15774 15 1 
370.667 1.20567 7.24409 0.00227212 0.0115141 7.2441 1.21856 15 1 
372 1.2057 7.24208 0.00226929 0.0115273 7.24209 1.25578 15 1 
373.333 1.20575 7.24303 0.00228083 0.0115433 7.24304 1.35326 15 1 
374.667 1.20578 7.24384 0.00231611 0.0116099 7.24385 1.40355 15 1 
376 1.2058 7.24395 0.00233964 0.0116552 7.24396 1.44724 15 1 
377.333 1.20585 7.24784 0.0023266 0.0116332 7.24785 1.52861 15 1 
378.667 1.20587 7.24811 0.00231209 0.0115974 7.24812 1.5694 15 1 
380 1.20591 7.24724 0.00233289 0.0116085 7.24725 1.63707 15 1 
381.333 1.20594 7.24986 0.00235251 0.011621 7.24987 1.70608 15 1 
382.667 1.20596 7.25005 0.00232592 0.0115772 7.25006 1.73151 15 1 
384 1.206 7.2508 0.00230444 0.0115298 7.25081 1.79746 15 1 
384 1.206 7.2508 0.00230444 0.0115298 7.25081 1.79746 15 1 
385.333 1.20603 7.25217 0.00229183 0.0115135 7.25218 1.85973 15 1 
386.667 1.20605 7.25035 0.00226198 0.0114905 7.25036 1.89784 15 1 
388 1.20609 7.25025 0.00227204 0.0114774 7.25026 1.96893 15 1 
389.333 1.20612 7.25062 0.00227625 0.0114582 7.25063 2.02499 15 1 
390.667 1.20614 7.24905 0.00221454 0.011386 7.24906 2.05659 15 1 
392 1.20617 7.24801 0.0022026 0.0113652 7.24802 2.10446 15 1 
393.333 1.2062 7.24545 0.00226363 0.0114086 7.24546 2.16118 15 1 
394.667 1.20623 7.24276 0.00226799 0.0113789 7.24277 2.21852 15 1 
396 1.20626 7.2416 0.00222673 0.0112988 7.24161 2.26995 15 1 
397.333 1.20628 7.23858 0.00223756 0.0112987 7.23859 2.31777 15 1 
398.667 1.2063 7.23482 0.00226985 0.0113296 7.23483 2.35395 15 1 
400 1.20632 7.23105 0.00227092 0.0112806 7.23106 2.379 15 1 
401.333 1.20635 7.22695 0.00227918 0.011254 7.22696 2.44149 15 1 
402.667 1.20639 7.22438 0.00229747 0.0112857 7.22439 2.51577 15 1 
404 1.20641 7.22043 0.00226655 0.0112391 7.22044 2.53784 15 1 
405.333 1.20641 7.21481 0.00225368 0.0112007 7.21482 2.55449 15 1 
405.333 1.20641 7.21481 0.00225368 0.0112007 7.21482 2.55449 15 1 
406.667 1.20645 7.21107 0.00231411 0.0112773 7.21108 2.61174 15 1 
408 1.20648 7.20732 0.00233871 0.0113242 7.20733 2.67342 15 1 
409.333 1.2065 7.20287 0.00228687 0.0112582 7.20288 2.71453 15 1 
410.667 1.20652 7.19885 0.00227407 0.0112422 7.19886 2.74442 15 1 
412 1.20654 7.19424 0.00234447 0.0113578 7.19425 2.78682 15 1 
413.333 1.20657 7.19034 0.00237975 0.011435 7.19035 2.84399 15 1 
414.667 1.2066 7.18653 0.00234181 0.0113828 7.18654 2.88184 15 1 
416 1.20661 7.18154 0.0023485 0.0113928 7.18155 2.91156 15 1 
417.333 1.20664 7.17811 0.00240048 0.0114976 7.17812 2.96203 15 1 
418.667 1.20667 7.17499 0.00239155 0.0115213 7.175 3.0098 15 1 
420 1.20669 7.17026 0.00236051 0.0114959 7.17027 3.04805 15 1 
421.333 1.20671 7.16649 0.00237444 0.0115389 7.1665 3.08833 15 1 
422.667 1.20673 7.16334 0.00237382 0.0115783 7.16335 3.12723 15 1 
424 1.20675 7.16006 0.00233873 0.0115598 7.16007 3.16598 15 1 
425.333 1.20677 7.15706 0.00232549 0.0115826 7.15707 3.20512 15 1 
426.667 1.2068 7.15346 0.00234725 0.0116695 7.15347 3.24606 15 1 
426.667 1.2068 7.15346 0.00234725 0.0116695 7.15347 3.24606 20 1 
428 1.20682 7.15066 0.00234549 0.011704 7.15067 3.29005 20 1 
429.333 1.20684 7.14876 0.002314 0.0117009 7.14877 3.32781 20 1 
430.667 1.20686 7.14596 0.00233672 0.0117865 7.14597 3.35721 20 1 
432 1.20687 7.14352 0.00239236 0.0119034 7.14353 3.38512 20 1 
433.333 1.20689 7.14161 0.00239639 0.0119397 7.14162 3.42271 20 1 
434.667 1.20692 7.13966 0.00237357 0.0119565 7.13967 3.47568 20 1 
436 1.20695 7.13842 0.0023811 0.0120269 7.13843 3.51673 20 1 
437.333 1.20696 7.13694 0.00241048 0.0121127 7.13695 3.53665 20 1 
438.667 1.20697 7.13553 0.00242255 0.012166 7.13554 3.56458 20 1 
440 1.207 7.13497 0.00240828 0.0122154 7.13498 3.60664 20 1 
441.333 1.20702 7.13421 0.00241143 0.0122732 7.13422 3.64865 20 1 
442.667 1.20704 7.13401 0.00242937 0.0123035 7.13402 3.68681 20 1 
444 1.20706 7.13415 0.0023939 0.0122958 7.13416 3.71931 20 1 
445.333 1.20707 7.13324 0.00234528 0.0123065 7.13325 3.74489 20 1 
446.667 1.20709 7.13304 0.00235743 0.0123704 7.13305 3.77727 20 1 
448 1.20712 7.13387 0.00239647 0.0124554 7.13389 3.82516 20 1 
448 1.20712 7.13387 0.00239647 0.0124554 7.13389 3.82516 20 1 
449.333 1.20714 7.13436 0.00238558 0.0125048 7.13437 3.87124 20 1 
450.667 1.20716 7.13495 0.00233829 0.0125143 7.13496 3.90214 20 1 
452 1.20717 7.13544 0.0023495 0.0125674 7.13545 3.92264 20 1 
453.333 1.20719 7.13588 0.0023993 0.0126605 7.13589 3.94759 20 1 
454.667 1.20721 7.13708 0.00236385 0.0126752 7.1371 3.98862 20 1 
456 1.20723 7.13845 0.00224976 0.0126244 7.13847 4.03358 20 1 
457.333 1.20725 7.13961 0.00218194 0.0126033 7.13963 4.06632 20 1 
458.667 1.20726 7.14077 0.00217329 0.0126183 7.14078 4.08887 20 1 
460 1.20728 7.14195 0.00214463 0.0126263 7.14196 4.11924 20 1 
461.333 1.2073 7.14354 0.00206488 0.0125895 7.14356 4.15634 20 1 
462.667 1.20732 7.14503 0.00200126 0.0125261 7.14504 4.18176 20 1 
464 1.20733 7.14634 0.00202988 0.0125515 7.14635 4.20817 20 1 
465.333 1.20735 7.14838 0.0020812 0.0126782 7.1484 4.24257 20 1 
466.667 1.20736 7.15045 0.00204808 0.0127357 7.15046 4.27016 20 1 
468 1.20738 7.15269 0.00194133 0.012635 7.15271 4.29776 20 1 
469.333 1.2074 7.15553 0.001851 0.0125003 7.15554 4.33103 20 1 
469.333 1.2074 7.15553 0.001851 0.0125003 7.15554 4.33103 20 1 
470.667 1.20741 7.15748 0.00182373 0.0124752 7.15749 4.35518 20 1 
472 1.20742 7.15926 0.00180594 0.0124895 7.15927 4.37672 20 1 
473.333 1.20744 7.16196 0.00175305 0.0124391 7.16197 4.41011 20 1 
474.667 1.20746 7.16442 0.00173173 0.0124439 7.16444 4.44281 20 1 
476 1.20747 7.16665 0.00182755 0.0126212 7.16666 4.46791 20 1 
477.333 1.20748 7.16942 0.00199211 0.012861 7.16944 4.48874 20 1 
478.667 1.2075 7.17222 0.00206342 0.0129649 7.17223 4.5121 20 1 
480 1.20751 7.17483 0.00192279 0.0128315 7.17484 4.53969 20 1 
481.333 1.20753 7.17733 0.00159324 0.0125151 7.17734 4.5667 20 1 
482.667 1.20754 7.17949 0.00123674 0.0121841 7.1795 4.59382 20 1 
484 1.20755 7.18164 0.00102523 0.012005 7.18165 4.61376 20 1 
485.333 1.20756 7.18361 0.0010287 0.0120561 7.18362 4.63066 20 1 
486.667 1.20757 7.18553 0.00119154 0.0122785 7.18554 4.6509 20 1 
488 1.20759 7.18768 0.00137836 0.0124955 7.18769 4.67557 20 1 
489.333 1.2076 7.18972 0.00148214 0.0126062 7.18973 4.70456 20 1 
490.667 1.20762 7.19164 0.00149755 0.0126357 7.19165 4.72485 20 1 
490.667 1.20762 7.19164 0.00149755 0.0126357 7.19165 4.72485 20 1 
492 1.20762 7.19296 0.00146884 0.0126215 7.19297 4.73348 20 1 
493.333 1.20763 7.19391 0.00141556 0.0125736 7.19392 4.7413 20 1 
494.667 1.20764 7.19549 0.00135616 0.0125149 7.1955 4.76386 20 1 
496 1.20765 7.19723 0.00130781 0.0124709 7.19724 4.79269 20 1 
497.333 1.20766 7.19822 0.0012649 0.0124241 7.19823 4.80848 20 1 
498.667 1.20767 7.1991 0.00122621 0.0123788 7.19911 4.82123 20 1 
500 1.20768 7.20039 0.0011807 0.0123442 7.2004 4.83904 20 1 
501.333 1.20769 7.20146 0.0011406 0.0123232 7.20147 4.8514 20 1 
502.667 1.20769 7.20244 0.0011282 0.0123065 7.20246 4.86059 20 1 
504 1.2077 7.20341 0.00111593 0.0122907 7.20342 4.87862 20 1 
505.333 1.20771 7.20421 0.00109892 0.0122952 7.20422 4.89299 20 1 
506.667 1.20771 7.2051 0.00109288 0.0123069 7.20511 4.90156 20 1 
508 1.20772 7.20609 0.00110292 0.0123357 7.2061 4.91944 20 1 
509.333 1.20773 7.20697 0.00110446 0.0123677 7.20698 4.93986 20 1 
510.667 1.20774 7.20763 0.00110376 0.0123874 7.20764 4.94778 20 1 
512 1.20774 7.20818 0.00113151 0.01244 7.20819 4.94865 20 1 
512 1.20774 7.20818 0.00113151 0.01244 7.20819 4.94865 21 1 
513.333 1.20775 7.20876 0.00117801 0.0125382 7.20877 4.95962 21 1 
514.667 1.20775 7.2094 0.00122157 0.0126212 7.20941 4.97435 21 1 
516 1.20776 7.20995 0.00126296 0.0126912 7.20996 4.98773 21 1 
517.333 1.20777 7.21049 0.00130488 0.0127885 7.2105 5.00013 21 1 
518.667 1.20777 7.21067 0.00133832 0.0128872 7.21068 5.00386 21 1 
520 1.20777 7.21058 0.00139608 0.0129912 7.21059 5.00209 21 1 
521.333 1.20777 7.21085 0.00147719 0.0131109 7.21087 5.00708 21 1 
522.667 1.20778 7.21113 0.00152516 0.0132253 7.21115 5.02148 21 1 
524 1.20779 7.21118 0.00156887 0.0133248 7.21119 5.03553 21 1 
525.333 1.20779 7.21107 0.00165187 0.0134309 7.21108 5.04156 21 1 
526.667 1.20779 7.21074 0.00172426 0.013559 7.21076 5.0391 21 1 
528 1.20779 7.21055 0.00175443 0.0136622 7.21056 5.03851 21 1 
529.333 1.20779 7.21037 0.0017991 0.0137537 7.21038 5.03773 21 1 
530.667 1.20779 7.20981 0.00188464 0.0138653 7.20982 5.03183 21 1 
532 1.20779 7.20951 0.00194405 0.0139614 7.20952 5.03672 21 1 
533.333 1.2078 7.20953 0.00198189 0.014057 7.20955 5.05127 21 1 
533.333 1.2078 7.20953 0.00198189 0.014057 7.20955 5.05127 21 1 
534.667 1.2078 7.20919 0.00204429 0.014165 7.2092 5.05365 21 1 
536 1.2078 7.20875 0.00210129 0.0142456 7.20877 5.04888 21 1 
537.333 1.2078 7.20851 0.00212824 0.0143163 7.20852 5.04921 21 1 
538.667 1.20779 7.20819 0.00217214 0.0144159 7.2082 5.04092 21 1 
540 1.20778 7.20759 0.00223319 0.0145074 7.2076 5.02385 21 1 
541.333 1.20778 7.20711 0.0022806 0.0145832 7.20713 5.01884 21 1 
542.667 1.20779 7.20725 0.00232611 0.0146723 7.20726 5.03167 21 1 
544 1.20779 7.20743 0.00236971 0.0147615 7.20745 5.044 21 1 
545.333 1.20779 7.20714 0.00241152 0.0148417 7.20716 5.0412 21 1 
546.667 1.20778 7.20668 0.00244962 0.0149209 7.20669 5.03035 21 1 
548 1.20778 7.20634 0.00250485 0.0150257 7.20636 5.01816 21 1 
549.333 1.20777 7.20626 0.00255541 0.0151203 7.20627 5.00823 21 1 
550.667 1.20777 7.20607 0.00259557 0.0151952 7.20609 5.00108 21 1 
552 1.20777 7.20569 0.00265544 0.0152974 7.20571 4.99565 21 1 
553.333 1.20777 7.20568 0.0027157 0.0154069 7.20569 5.00437 21 1 
554.667 1.20778 7.20582 0.00276465 0.0155033 7.20584 5.01248 21 1 
554.667 1.20778 7.20582 0.00276465 0.0155033 7.20584 5.01248 22 1 
556 1.20777 7.2055 0.002809 0.0156089 7.20552 5.00315 22 1 
557.333 1.20776 7.20507 0.0028657 0.0157269 7.20509 4.98877 22 1 
558.667 1.20775 7.20456 0.00292178 0.0158241 7.20458 4.97113 22 1 
560 1.20774 7.20382 0.00297511 0.0159373 7.20384 4.95013 22 1 
561.333 1.20774 7.20337 0.00303805 0.0160576 7.20338 4.94221 22 1 
562.667 1.20774 7.20314 0.00309465 0.0161768 7.20316 4.95041 22 1 
564 1.20774 7.20285 0.00315007 0.0162955 7.20287 4.95551 22 1 
565.333 1.20774 7.20204 0.00320529 0.016413 7.20206 4.94448 22 1 
566.667 1.20772 7.20086 0.00326762 0.0165564 7.20088 4.9163 22 1 
568 1.20771 7.1998 0.00333973 0.0166835 7.19982 4.89184 22 1 
569.333 1.2077 7.19876 0.00339482 0.0168035 7.19878 4.87278 22 1 
570.667 1.20769 7.19766 0.0034512 0.0169232 7.19768 4.85557 22 1 
572 1.20769 7.19653 0.00351891 0.0170572 7.19655 4.8502 22 1 
573.333 1.20768 7.19539 0.00358504 0.0171947 7.19542 4.845 22 1 
574.667 1.20768 7.19421 0.00364954 0.0173375 7.19423 4.83702 22 1 
576 1.20767 7.19282 0.0037124 0.0174755 7.19284 4.81586 22 1 
576 1.20767 7.19282 0.0037124 0.0174755 7.19284 4.81586 22 1 
577.333 1.20765 7.19086 0.00376554 0.017593 7.19089 4.78098 22 1 
578.667 1.20763 7.18886 0.00383173 0.0177425 7.18888 4.75006 22 1 
580 1.20762 7.18722 0.00390318 0.0178703 7.18725 4.72565 22 1 
581.333 1.20761 7.18553 0.00395815 0.0180002 7.18556 4.71137 22 1 
582.667 1.20761 7.1839 0.00402423 0.0181454 7.18392 4.70635 22 1 
584 1.2076 7.18217 0.00408588 0.0182833 7.18219 4.70101 22 1 
585.333 1.20759 7.18022 0.00415004 0.0184144 7.18025 4.67821 22 1 
586.667 1.20757 7.17793 0.00420591 0.0185397 7.17796 4.64071 22 1 
588 1.20755 7.17549 0.00427005 0.0186904 7.17552 4.5987 22 1 
589.333 1.20753 7.17326 0.00433581 0.0188056 7.17329 4.56959 22 1 
590.667 1.20752 7.17126 0.00437653 0.0189364 7.17128 4.55659 22 1 
592 1.20751 7.16941 0.00443983 0.0190837 7.16944 4.54197 22 1 
593.333 1.20751 7.16744 0.00449887 0.0192328 7.16747 4.53063 22 1 
594.667 1.2075 7.1654 0.00456064 0.0193806 7.16543 4.50884 22 1 
596 1.20748 7.16309 0.00462266 0.0195314 7.16312 4.47482 22 1 
597.333 1.20745 7.16075 0.0046698 0.0196892 7.16077 4.43385 22 1 
597.333 1.20745 7.16075 0.0046698 0.0196892 7.16077 4.43385 24 1 
598.667 1.20743 7.15855 0.00472331 0.0198224 7.15858 4.39538 24 1 
600 1.20742 7.15643 0.00478277 0.0200038 7.15646 4.37184 24 1 
601.333 1.20741 7.15473 0.00483814 0.0201846 7.15477 4.3526 24 1 
602.667 1.2074 7.15312 0.00488218 0.0203722 7.15315 4.34138 24 1 
604 1.2074 7.15146 0.00493788 0.0205637 7.15149 4.32651 24 1 
605.333 1.20738 7.14981 0.00499358 0.0207563 7.14984 4.29434 24 1 
606.667 1.20735 7.14803 0.00504751 0.0209542 7.14806 4.24766 24 1 
608 1.20733 7.14607 0.00510896 0.0211579 7.1461 4.20243 24 1 
609.333 1.20731 7.14455 0.00516859 0.0213824 7.14459 4.16922 24 1 
610.667 1.2073 7.14357 0.00521736 0.0215926 7.14361 4.15127 24 1 
612 1.20729 7.14273 0.00526164 0.0218275 7.14277 4.13887 24 1 
613.333 1.20728 7.14186 0.00531695 0.0220763 7.1419 4.11924 24 1 
614.667 1.20726 7.14117 0.00537409 0.0223279 7.14121 4.0907 24 1 
616 1.20725 7.1403 0.00544153 0.0225683 7.14034 4.05529 24 1 
617.333 1.20722 7.13947 0.00550726 0.0228282 7.1395 4.01066 24 1 
618.667 1.2072 7.13889 0.00557442 0.0230933 7.13892 3.96626 24 1 
618.667 1.2072 7.13889 0.00557442 0.0230933 7.13892 3.96626 24 1 
620 1.20718 7.1383 0.00564625 0.0233546 7.13834 3.93214 24 1 
621.333 1.20716 7.13804 0.00571016 0.0236319 7.13808 3.90095 24 1 
622.667 1.20715 7.13801 0.00576747 0.0239233 7.13805 3.87993 24 1 
624 1.20714 7.13836 0.00582386 0.0242211 7.13841 3.86795 24 1 
625.333 1.20713 7.13869 0.00589181 0.0245031 7.13874 3.8468 24 1 
626.667 1.20711 7.13882 0.00595692 0.0247879 7.13887 3.80298 24 1 
628 1.20708 7.13859 0.00603447 0.0250649 7.13864 3.74908 24 1 
629.333 1.20705 7.13849 0.00613535 0.0253585 7.13854 3.69384 24 1 
630.667 1.20702 7.13862 0.00623049 0.0256587 7.13867 3.65477 24 1 
632 1.20701 7.13905 0.00630515 0.0259531 7.1391 3.62923 24 1 
633.333 1.207 7.1397 0.00636193 0.0262482 7.13975 3.60489 24 1 
634.667 1.20698 7.1402 0.00642992 0.0265554 7.14025 3.57988 24 1 
636 1.20696 7.14078 0.00650482 0.0268664 7.14084 3.54541 24 1 
637.333 1.20694 7.14147 0.00659821 0.0271694 7.14153 3.50147 24 1 
638.667 1.20692 7.14198 0.00670504 0.0274537 7.14204 3.45911 24 1 
640 1.20689 7.14228 0.00680142 0.0277292 7.14233 3.41719 24 1 
640 1.20689 7.14228 0.00680142 0.0277292 7.14233 3.41719 24 1 
641.333 1.20686 7.14251 0.00688512 0.0280085 7.14257 3.3683 24 1 
642.667 1.20684 7.14263 0.00696399 0.0282951 7.14269 3.32403 24 1 
644 1.20682 7.14315 0.00704518 0.028615 7.14321 3.28448 24 1 
645.333 1.2068 7.14395 0.00711023 0.028938 7.14402 3.25387 24 1 
646.667 1.20679 7.14488 0.00718724 0.0292463 7.14494 3.22791 24 1 
648 1.20677 7.14577 0.00726561 0.0295309 7.14584 3.1947 24 1 
649.333 1.20675 7.14631 0.00733725 0.0297698 7.14637 3.15539 24 1 
650.667 1.20672 7.14686 0.00742348 0.0300057 7.14693 3.10537 24 1 
652 1.20669 7.14705 0.00751501 0.0302542 7.14712 3.05624 24 1 
653.333 1.20667 7.14717 0.00759464 0.0305326 7.14724 3.00973 24 1 
654.667 1.20664 7.1476 0.00766527 0.0308466 7.14767 2.96563 24 1 
656 1.20662 7.14818 0.00772592 0.0311685 7.14825 2.93191 24 1 
657.333 1.2066 7.14933 0.00777967 0.0314689 7.1494 2.89617 24 1 
658.667 1.20658 7.15044 0.0078449 0.0317613 7.15051 2.85748 24 1 
660 1.20656 7.15154 0.00792673 0.0319884 7.15161 2.81753 24 1 
661.333 1.20654 7.15234 0.00803302 0.032212 7.15242 2.77989 24 1 
661.333 1.20654 7.15234 0.00803302 0.032212 7.15242 2.77989 24 1 
662.667 1.20651 7.1532 0.00813433 0.0324925 7.15328 2.73309 24 1 
664 1.20649 7.15376 0.00821352 0.0327286 7.15384 2.69417 24 1 
665.333 1.20647 7.15465 0.00829007 0.0330765 7.15473 2.64929 24 1 
666.667 1.20644 7.15596 0.00835677 0.0334282 7.15605 2.60001 24 1 
668 1.20642 7.15715 0.00841813 0.0337645 7.15723 2.5648 24 1 
669.333 1.20639 7.15919 0.00849993 0.0340948 7.15928 2.51672 24 1 
670.667 1.20637 7.16117 0.00859269 0.0343483 7.16126 2.47551 24 1 
672 1.20635 7.16311 0.00870287 0.034598 7.1632 2.44206 24 1 
673.333 1.20633 7.16491 0.00881597 0.0348181 7.165 2.4042 24 1 
674.667 1.20631 7.16646 0.00893314 0.0350981 7.16655 2.36516 24 1 
676 1.20629 7.16797 0.00903401 0.0354475 7.16806 2.32916 24 1 
677.333 1.20626 7.17004 0.00910704 0.0358303 7.17014 2.28232 24 1 
678.667 1.20624 7.17229 0.00919605 0.0362276 7.17238 2.23896 24 1 
680 1.20621 7.17501 0.00929099 0.0366477 7.17511 2.19413 24 1 
681.333 1.20619 7.17812 0.00939171 0.0369238 7.17822 2.14798 24 1 
682.667 1.20617 7.18106 0.00953682 0.0372037 7.18116 2.11344 24 1 
682.667 1.20617 7.18106 0.00953682 0.0372037 7.18116 2.11344 31 1 
684 1.20615 7.18383 0.00970214 0.037414 7.18393 2.07588 31 1 
685.333 1.20613 7.18609 0.009863 0.0376376 7.1862 2.03711 31 1 
686.667 1.20611 7.18799 0.00999181 0.03792 7.1881 1.99902 31 1 
688 1.20609 7.1899 0.0101001 0.0382547 7.19001 1.96109 31 1 
689.333 1.20607 7.19227 0.0101788 0.0387068 7.19238 1.92488 31 1 
690.667 1.20605 7.19509 0.0102511 0.0391206 7.19521 1.88815 31 1 
692 1.20602 7.19841 0.0103746 0.0395365 7.19853 1.84562 31 1 
693.333 1.206 7.20183 0.0105216 0.0398514 7.20195 1.79871 31 1 
694.667 1.20597 7.20485 0.0106942 0.0400232 7.20497 1.75048 31 1 
696 1.20595 7.20717 0.0108643 0.0401208 7.2073 1.70903 31 1 
697.333 1.20593 7.20889 0.0110239 0.0402398 7.20901 1.67107 31 1 
698.667 1.20591 7.21 0.0111446 0.0404494 7.21012 1.63853 31 1 
700 1.20589 7.21118 0.0112638 0.0408601 7.2113 1.60137 31 1 
701.333 1.20586 7.21303 0.0113667 0.0414056 7.21316 1.56096 31 1 
702.667 1.20584 7.21585 0.0114066 0.0419487 7.21598 1.52448 31 1 
704 1.20582 7.21991 0.0115221 0.0424436 7.22004 1.48396 31 1 
704 1.20582 7.21991 0.0115221 0.0424436 7.22004 1.48396 31 1 
705.333 1.2058 7.22425 0.0115714 0.0426413 7.22438 1.4479 31 1 
706.667 1.20578 7.22818 0.0117242 0.0427129 7.22832 1.40846 31 1 
708 1.20576 7.23091 0.0119988 0.0426999 7.23104 1.36513 31 1 
709.333 1.20573 7.23218 0.0121596 0.0426016 7.23231 1.3195 31 1 
710.667 1.2057 7.23258 0.0124265 0.0428344 7.23272 1.27303 31 1 
712 1.20568 7.23298 0.0125336 0.0431921 7.23312 1.22959 31 1 
713.333 1.20566 7.23455 0.0124781 0.0436961 7.23469 1.19778 31 1 
714.667 1.20565 7.23794 0.0125299 0.0444758 7.23809 1.17148 31 1 
716 1.20563 7.24346 0.0125354 0.0451478 7.24362 1.13898 31 1 
717.333 1.20562 7.2499 0.0126428 0.045529 7.25006 1.11468 31 1 
718.667 1.20559 7.25679 0.0128602 0.0457274 7.25694 1.07201 31 1 
720 1.20557 7.26259 0.0130555 0.0455041 7.26274 1.02421 31 1 
721.333 1.20555 7.2661 0.0132613 0.0450849 7.26625 0.987214 31 1 
722.667 1.20552 7.26794 0.0135045 0.0449052 7.2681 0.941253 31 1 
724 1.2055 7.26822 0.0136551 0.044854 7.26837 0.907841 31 1 
725.333 1.20548 7.26885 0.0137708 0.0453492 7.26901 0.870789 31 1 
725.333 1.20548 7.26885 0.0137708 0.0453492 7.26901 0.870789 31 1 
726.667 1.20546 7.2709 0.0137876 0.0460186 7.27106 0.831391 31 1 
728 1.20544 7.27532 0.0137911 0.0468171 7.27548 0.799631 31 1 
729.333 1.20542 7.28236 0.0138281 0.047646 7.28253 0.76557 31 1 
730.667 1.20541 7.29117 0.013852 0.0480179 7.29134 0.740495 31 1 
732 1.2054 7.30013 0.0140232 0.048108 7.3003 0.718928 31 1 
733.333 1.20538 7.30823 0.0142014 0.0477028 7.3084 0.682052 31 1 
734.667 1.20536 7.31351 0.0144779 0.0472631 7.31368 0.653379 31 1 
736 1.20534 7.31685 0.0147999 0.0468419 7.31702 0.606786 31 1 
737.333 1.20531 7.31841 0.0149912 0.046649 7.31857 0.565005 31 1 
738.667 1.2053 7.3186 0.0151289 0.0468876 7.31877 0.544935 31 1 
740 1.20528 7.32065 0.0151748 0.0473095 7.32082 0.50571 31 1 
741.333 1.20527 7.32393 0.0150996 0.0480951 7.3241 0.480569 31 1 
742.667 1.20525 7.32993 0.0151857 0.0489135 7.33011 0.450828 31 1 
744 1.20523 7.33835 0.0153499 0.0496197 7.33854 0.407319 31 1 
745.333 1.20521 7.34745 0.0152733 0.0496374 7.34764 0.377663 31 1 
746.667 1.2052 7.35668 0.0155509 0.0495994 7.35686 0.359167 31 1 
746.667 1.2052 7.35668 0.0155509 0.0495994 7.35686 0.359167 31 1 
748 1.20519 7.36468 0.0157409 0.0492769 7.36486 0.338084 31 1 
749.333 1.20518 7.37061 0.0158896 0.0486201 7.37079 0.319856 31 1 
750.667 1.20516 7.37448 0.016322 0.0485327 7.37466 0.290755 31 1 
752 1.20514 7.37648 0.0163382 0.0482376 7.37666 0.257744 31 1 
753.333 1.20512 7.3785 0.0164649 0.0483731 7.37868 0.222654 31 1 
754.667 1.20511 7.38052 0.0165704 0.0489383 7.3807 0.203675 31 1 
756 1.20509 7.38522 0.0165872 0.0496177 7.3854 0.168992 31 1 
757.333 1.20508 7.39179 0.0166993 0.0503344 7.39198 0.147209 31 1 
758.667 1.20507 7.39952 0.0167005 0.0508193 7.39971 0.121924 31 1 
760 1.20504 7.40963 0.0168066 0.0510999 7.40983 0.0640615 31 1 
761.333 1.20503 7.41854 0.0169334 0.051026 7.41874 0.0597864 31 1 
762.667 1.20502 7.42783 0.0171177 0.0505971 7.42802 0.0387454 31 1 
764 1.20501 7.43462 0.017372 0.0500449 7.43481 0.0217678 31 1 
765.333 1.20501 7.43825 0.0176115 0.0495101 7.43843 0.0123619 31 1 
766.667 1.20499 7.43976 0.0177544 0.0490484 7.43995 -0.0211495 31 1 
768 1.20497 7.43998 0.0179463 0.0486553 7.44016 -0.0550487 31 1 
768 1.20497 7.43998 0.0179463 0.0486553 7.44016 -0.0550487 32 1 
769.333 1.20497 7.43707 0.0180439 0.0485821 7.43725 -0.0459369 32 1 
770.667 1.20494 7.43667 0.0181338 0.0488873 7.43685 -0.105828 32 1 
772 1.20493 7.43628 0.0182384 0.0493413 7.43647 -0.122119 32 1 
773.333 1.20495 7.43528 0.0182296 0.0496612 7.43547 -0.0989215 32 1 
774.667 1.2049 7.43873 0.0182434 0.0501306 7.43892 -0.180302 32 1 
776 1.20489 7.44233 0.0182454 0.0508477 7.44253 -0.198362 32 1 
777.333 1.20491 7.44642 0.018506 0.0515401 7.44662 -0.168429 32 1 
778.667 1.20486 7.45502 0.01864 0.0519627 7.45523 -0.251386 32 1 
780 1.20485 7.46316 0.0187248 0.0524317 7.46337 -0.275239 32 1 
781.333 1.20486 7.47183 0.0189002 0.0530231 7.47204 -0.255691 32 1 
782.667 1.20481 7.48594 0.0188465 0.0532589 7.48616 -0.348233 32 1 
784 1.20481 7.49632 0.0190242 0.053793 7.49653 -0.339527 32 1 
785.333 1.20479 7.50913 0.0191915 0.0541442 7.50935 -0.385433 32 1 
786.667 1.20474 7.52225 0.0186568 0.0539875 7.52247 -0.46509 32 1 
788 1.2047 7.53944 0.0183166 0.0538074 7.53966 -0.542228 32 1 
789.333 1.2047 7.55639 0.0191467 0.0538299 7.55661 -0.535863 32 1 
790.667 1.20468 7.56928 0.0204109 0.0535673 7.5695 -0.574107 32 1 
792 1.20459 7.57399 0.0205755 0.0509624 7.57419 -0.747181 32 1 
793.333 1.2045 7.56707 0.0202789 0.0472854 7.56724 -0.895805 32 1 
794.667 1.20444 7.55155 0.0204639 0.04392 7.55171 -1.01753 32 1 
796 1.20434 7.52694 0.0216673 0.0429757 7.5271 -1.19325 32 1 
797.333 1.20417 7.49827 0.0223506 0.0437699 7.49844 -1.49589 32 1 
798.667 1.20396 7.47341 0.0217894 0.0463132 7.47359 -1.87746 32 1 
800 1.20383 7.4652 0.0216148 0.0490129 7.46539 -2.11379 32 1 
