77.8857;r ;Density                 ;Velocity u              ;Velocity v              ;Velocity w              ;|Velocity|              ;Pressure                ;Distribution            ;Levels                  ;
0 1.20768 9.99176 0.000218309 0.000394178 9.99176 4.83874 1 1 
1.33334 1.20761 9.99254 0.000493015 0.000754344 9.99254 4.71162 1 1 
2.66666 1.20743 9.99282 0.000963127 0.00136419 9.99283 4.39472 1 1 
4 1.20728 9.99259 0.0013918 0.00194949 9.9926 4.1105 1 1 
5.33334 1.20716 9.9928 0.00165882 0.00231306 9.99282 3.90335 1 1 
6.66666 1.207 9.99191 0.00178764 0.00244016 9.99193 3.6103 1 1 
8 1.20685 9.99145 0.00194322 0.00261834 9.99148 3.33733 1 1 
9.33334 1.20671 9.99154 0.00187401 0.00247358 9.99157 3.0819 1 1 
10.6667 1.20653 9.99092 0.00170921 0.00217132 9.99095 2.75457 1 1 
12 1.2064 9.99085 0.00154426 0.00188948 9.99088 2.53348 1 1 
13.3333 1.20628 9.99073 0.00117906 0.00130845 9.99074 2.31281 1 1 
14.6667 1.20613 9.99044 0.000794522 0.000702694 9.99045 2.04736 1 1 
16 1.20609 9.99049 0.000356917 5.70111e-05 9.9905 1.97164 1 1 
17.3333 1.20606 9.99017 -0.00020903 -0.000787462 9.99018 1.91141 1 1 
18.6667 1.20602 9.99015 -0.000671347 -0.00147709 9.99016 1.8363 1 1 
20 1.20606 9.99027 -0.00119771 -0.00223567 9.99027 1.91738 1 1 
21.3333 1.20612 9.98944 -0.0018144 -0.00311579 9.98945 2.02903 1 1 
21.3333 1.20612 9.98944 -0.0018144 -0.00311579 9.98945 2.02903 1 1 
22.6667 1.20623 9.98927 -0.00226752 -0.00373511 9.98928 2.21681 1 1 
24 1.20637 9.98952 -0.00274535 -0.00439422 9.98955 2.47593 1 1 
25.3333 1.20652 9.98825 -0.00319914 -0.0050122 9.98829 2.73778 1 1 
26.6667 1.20675 9.98756 -0.00350044 -0.00535703 9.98761 3.15367 1 1 
28 1.20699 9.98752 -0.00381258 -0.00572592 9.98758 3.58717 1 1 
29.3333 1.20718 9.98644 -0.00396148 -0.0058879 9.98652 3.94603 1 1 
30.6667 1.20746 9.98526 -0.00397015 -0.00581015 9.98534 4.44902 1 1 
32 1.20775 9.98433 -0.00396962 -0.00571686 9.98442 4.96469 1 1 
33.3333 1.20798 9.98371 -0.00375162 -0.00531305 9.98379 5.38682 1 1 
34.6667 1.20823 9.98234 -0.003446 -0.0047872 9.98241 5.83308 1 1 
36 1.20845 9.98004 -0.00312014 -0.00426793 9.98011 6.22263 1 1 
37.3333 1.20866 9.97912 -0.00257619 -0.00341713 9.97917 6.60976 1 1 
38.6667 1.20885 9.97855 -0.00203424 -0.00257326 9.97859 6.94858 1 1 
40 1.20895 9.97575 -0.00147552 -0.0017441 9.97579 7.12731 1 1 
41.3333 1.20907 9.97355 -0.000748931 -0.000665014 9.97357 7.34302 1 1 
42.6667 1.20916 9.97314 -5.72e-05 0.000347976 9.97316 7.51754 1 1 
42.6667 1.20916 9.97314 -5.72e-05 0.000347976 9.97316 7.51754 2 1 
44 1.20917 9.97127 0.00066507 0.00139577 9.97127 7.53307 2 1 
45.3333 1.20918 9.9688 0.00144221 0.00253636 9.9688 7.54844 2 1 
46.6667 1.20915 9.96735 0.00215569 0.00354685 9.96735 7.4908 2 1 
48 1.20906 9.96683 0.00293221 0.00463362 9.96684 7.3337 2 1 
49.3333 1.20898 9.96559 0.00365901 0.00566874 9.96562 7.18953 2 1 
50.6667 1.20883 9.96336 0.00426853 0.00650253 9.9634 6.91892 2 1 
52 1.20864 9.9629 0.00489992 0.00735427 9.96296 6.58272 2 1 
53.3333 1.20848 9.96323 0.00537383 0.00798689 9.96331 6.28163 2 1 
54.6667 1.20826 9.96153 0.00567135 0.00836376 9.96162 5.89126 2 1 
56 1.20805 9.9606 0.00592898 0.00870214 9.96071 5.50129 2 1 
57.3333 1.20783 9.96139 0.0059664 0.00869584 9.9615 5.10467 2 1 
58.6667 1.20758 9.96087 0.00583862 0.00845162 9.96098 4.66125 2 1 
60 1.20741 9.96007 0.00563202 0.00813791 9.96018 4.34571 2 1 
61.3333 1.20722 9.96037 0.00521205 0.00749153 9.96047 4.01008 2 1 
62.6667 1.207 9.96109 0.00472899 0.00673922 9.96118 3.60786 2 1 
64 1.20687 9.96079 0.00414349 0.00587879 9.96086 3.38629 2 1 
64 1.20687 9.96079 0.00414349 0.00587879 9.96086 3.38629 2 1 
65.3333 1.20676 9.96061 0.00339116 0.00478894 9.96066 3.18283 2 1 
66.6667 1.20664 9.96177 0.00266753 0.00373995 9.96181 2.95625 2 1 
68 1.20656 9.96252 0.00183041 0.00253952 9.96254 2.81818 2 1 
69.3333 1.20651 9.96131 0.000867319 0.00118067 9.96132 2.72855 2 1 
70.6667 1.20652 9.96176 3.12085e-06 -2.51153e-05 9.96176 2.73644 2 1 
72 1.20653 9.96356 -0.000897857 -0.00130294 9.96356 2.76505 2 1 
73.3333 1.20655 9.96234 -0.00180854 -0.0025762 9.96234 2.79866 2 1 
74.6667 1.20665 9.96145 -0.00263222 -0.00368685 9.96146 2.98071 2 1 
76 1.20678 9.96252 -0.00342575 -0.00479613 9.96255 3.21186 2 1 
77.3333 1.20689 9.96271 -0.0040513 -0.00567376 9.96276 3.40938 2 1 
78.6667 1.20706 9.96137 -0.00458039 -0.00635889 9.96144 3.71337 2 1 
80 1.20724 9.96044 -0.00505289 -0.0069934 9.96052 4.04497 2 1 
81.3333 1.20741 9.9613 -0.00525142 -0.00726955 9.96139 4.36225 2 1 
82.6667 1.20763 9.96079 -0.00532393 -0.00734057 9.96089 4.74869 2 1 
84 1.20781 9.95819 -0.00533856 -0.00732935 9.95829 5.07485 2 1 
85.3333 1.20799 9.95801 -0.00508306 -0.00694733 9.95811 5.40889 2 1 
85.3333 1.20799 9.95801 -0.00508306 -0.00694733 9.95811 5.40889 3 1 
86.6667 1.20822 9.95872 -0.00471332 -0.00641198 9.95882 5.80875 3 1 
88 1.20838 9.95682 -0.0042615 -0.00574773 9.95691 6.10493 3 1 
89.3333 1.20854 9.95499 -0.00359024 -0.00475783 9.95506 6.40142 3 1 
90.6667 1.20871 9.95518 -0.00286726 -0.00373676 9.95523 6.70163 3 1 
92 1.20883 9.95449 -0.00205912 -0.00259573 9.95453 6.92338 3 1 
93.3333 1.20895 9.95238 -0.00112183 -0.00122691 9.9524 7.13387 3 1 
94.6667 1.20902 9.95127 -0.000191401 0.000106769 9.95128 7.26641 3 1 
96 1.20907 9.95142 0.000807816 0.00151149 9.95142 7.35918 3 1 
97.3333 1.2091 9.95084 0.00178762 0.00291381 9.95084 7.4144 3 1 
98.6667 1.20907 9.9486 0.00267714 0.00422287 9.94861 7.35562 3 1 
100 1.20903 9.94809 0.0036012 0.00553649 9.9481 7.28225 3 1 
101.333 1.20896 9.9487 0.00437601 0.00662532 9.94873 7.14731 3 1 
102.667 1.20883 9.9471 0.00506495 0.00764773 9.94714 6.91115 3 1 
104 1.20872 9.94634 0.00570872 0.00860013 9.9464 6.71825 3 1 
105.333 1.20858 9.94722 0.00611816 0.00916184 9.94728 6.4586 3 1 
106.667 1.20837 9.94721 0.00646481 0.00964554 9.94728 6.08221 3 1 
106.667 1.20837 9.94721 0.00646481 0.00964554 9.94728 6.08221 3 1 
108 1.20822 9.94591 0.0066719 0.0100199 9.94599 5.80811 3 1 
109.333 1.20804 9.94537 0.00662554 0.00995908 9.94546 5.48863 3 1 
110.667 1.20781 9.94636 0.00652952 0.00979915 9.94645 5.07954 3 1 
112 1.20764 9.94661 0.00628784 0.00951915 9.94669 4.76428 3 1 
113.333 1.20746 9.94558 0.00576494 0.00882771 9.94565 4.44344 3 1 
114.667 1.20727 9.94686 0.0052067 0.0080409 9.94692 4.10482 3 1 
116 1.20712 9.94883 0.00456044 0.00714285 9.94888 3.8314 3 1 
117.333 1.20698 9.94713 0.00371026 0.00601051 9.94716 3.56836 3 1 
118.667 1.20685 9.94743 0.00285459 0.004842 9.94745 3.33877 3 1 
120 1.20679 9.94909 0.00191524 0.00352911 9.9491 3.23204 3 1 
121.333 1.20671 9.94922 0.000946698 0.00220413 9.94922 3.08429 3 1 
122.667 1.20667 9.9494 2.51701e-05 0.000975945 9.9494 3.01027 3 1 
124 1.20671 9.94963 -0.000944503 -0.000374908 9.94963 3.08638 3 1 
125.333 1.20672 9.95176 -0.00179721 -0.00157447 9.95177 3.09826 3 1 
126.667 1.20678 9.95179 -0.00256556 -0.00257618 9.9518 3.20695 3 1 
128 1.20687 9.95022 -0.00334111 -0.00363273 9.95024 3.3806 3 1 
128 1.20687 9.95022 -0.00334111 -0.00363273 9.95024 3.3806 3 1 
129.333 1.20697 9.95117 -0.00397687 -0.00454076 9.9512 3.5639 3 1 
130.667 1.20711 9.95258 -0.00442795 -0.00515549 9.95262 3.80845 3 1 
132 1.20724 9.95185 -0.00483572 -0.00567451 9.9519 4.04986 3 1 
133.333 1.20741 9.95094 -0.00510095 -0.00604882 9.95099 4.34537 3 1 
134.667 1.20757 9.95248 -0.00516217 -0.00615701 9.95254 4.64613 3 1 
136 1.20772 9.95231 -0.00507408 -0.00601302 9.95237 4.92082 3 1 
137.333 1.20789 9.95012 -0.00486268 -0.00569038 9.95018 5.22091 3 1 
138.667 1.20806 9.94989 -0.00449935 -0.00521856 9.94994 5.52517 3 1 
140 1.20819 9.95158 -0.00392607 -0.00443574 9.95162 5.75989 3 1 
141.333 1.20831 9.9508 -0.00327758 -0.00348925 9.95083 5.98128 3 1 
142.667 1.20844 9.94837 -0.00258286 -0.00253212 9.9484 6.21149 3 1 
144 1.20852 9.94905 -0.0017338 -0.00137853 9.94907 6.35991 3 1 
145.333 1.20857 9.94958 -0.000784065 -6.04077e-05 9.94959 6.44149 3 1 
146.667 1.2086 9.94737 8.58052e-05 0.00117091 9.94738 6.50595 3 1 
148 1.20862 9.94633 0.000991095 0.00240445 9.94634 6.54696 3 1 
149.333 1.2086 9.94811 0.00195433 0.00373977 9.94811 6.50547 3 1 
149.333 1.2086 9.94811 0.00195433 0.00373977 9.94811 6.50547 3 1 
150.667 1.20854 9.94783 0.00284059 0.00499945 9.94783 6.40316 3 1 
152 1.20849 9.94507 0.00361804 0.00609247 9.94508 6.30282 3 1 
153.333 1.20842 9.94566 0.00439189 0.00715497 9.94568 6.16912 3 1 
154.667 1.2083 9.94779 0.00510639 0.00816845 9.94781 5.95682 3 1 
156 1.20817 9.94622 0.0056379 0.00894575 9.94624 5.724 3 1 
157.333 1.20806 9.94455 0.00605399 0.00953406 9.94458 5.51966 3 1 
158.667 1.20793 9.94699 0.00641101 0.0100648 9.94703 5.29541 3 1 
160 1.20778 9.94823 0.00663004 0.0104007 9.94826 5.01812 3 1 
161.333 1.20763 9.94597 0.00662713 0.010428 9.94601 4.74388 3 1 
162.667 1.20752 9.94572 0.00655324 0.010349 9.94575 4.54429 3 1 
164 1.20739 9.94864 0.00638489 0.0101487 9.94868 4.31334 3 1 
165.333 1.20724 9.94908 0.00600683 0.00967175 9.94911 4.05302 3 1 
166.667 1.20717 9.94617 0.00552428 0.00905351 9.94619 3.91657 3 1 
168 1.20707 9.94846 0.00502305 0.00840769 9.94848 3.7468 3 1 
169.333 1.20698 9.95166 0.00444375 0.00765633 9.95168 3.57363 3 1 
170.667 1.20694 9.94946 0.00374804 0.00675679 9.94947 3.51221 3 1 
170.667 1.20694 9.94946 0.00374804 0.00675679 9.94947 3.51221 11 1 
172 1.20691 9.94922 0.00306635 0.0058733 9.94922 3.45157 11 1 
173.333 1.20689 9.95201 0.00244773 0.00507832 9.95201 3.40967 11 1 
174.667 1.20688 9.95256 0.00174713 0.00419107 9.95256 3.38733 11 1 
176 1.20689 9.9496 0.00105578 0.00331495 9.9496 3.4193 11 1 
177.333 1.20693 9.95012 0.000503204 0.00263243 9.95012 3.49213 11 1 
178.667 1.20696 9.95348 6.36454e-06 0.00202177 9.95349 3.53695 11 1 
180 1.207 9.95194 -0.000483301 0.00142674 9.95195 3.61139 11 1 
181.333 1.20707 9.95099 -0.000874099 0.000983687 9.951 3.74391 11 1 
182.667 1.20715 9.95446 -0.00108754 0.000786465 9.95447 3.87765 11 1 
184 1.20721 9.95471 -0.00128555 0.000595322 9.95472 3.99156 11 1 
185.333 1.20727 9.95081 -0.00143214 0.000464343 9.95082 4.10107 11 1 
186.667 1.20736 9.94986 -0.00141129 0.000587592 9.94987 4.26112 11 1 
188 1.20744 9.95313 -0.00127337 0.000839049 9.95313 4.40866 11 1 
189.333 1.20749 9.95359 -0.00107111 0.00113839 9.9536 4.4976 11 1 
190.667 1.20757 9.95076 -0.000780378 0.00156589 9.95076 4.64246 11 1 
192 1.20764 9.95201 -0.000343302 0.00222163 9.95201 4.77144 11 1 
192 1.20764 9.95201 -0.000343302 0.00222163 9.95201 4.77144 11 1 
193.333 1.20767 9.95378 8.61573e-05 0.00278819 9.95379 4.8184 11 1 
194.667 1.20769 9.94985 0.000421063 0.00328188 9.94986 4.85564 11 1 
196 1.20772 9.94787 0.000946274 0.00402363 9.94787 4.90885 11 1 
197.333 1.20773 9.95202 0.00151623 0.00474674 9.95202 4.92218 11 1 
198.667 1.20772 9.95184 0.0018857 0.00524222 9.95184 4.90758 11 1 
200 1.2077 9.94818 0.00241504 0.00592548 9.94818 4.87373 11 1 
201.333 1.20765 9.94849 0.00288474 0.00656468 9.9485 4.78302 11 1 
202.667 1.20759 9.94798 0.00317809 0.00691452 9.94798 4.68566 11 1 
204 1.20751 9.94569 0.00357444 0.00740929 9.9457 4.53557 11 1 
205.333 1.20744 9.94561 0.0038848 0.00786358 9.94562 4.40909 11 1 
206.667 1.2074 9.94828 0.00421309 0.00828289 9.94829 4.32673 11 1 
208 1.20727 9.95006 0.00452287 0.00862266 9.95007 4.09576 11 1 
209.333 1.20716 9.94675 0.00462035 0.00881511 9.94675 3.90118 11 1 
210.667 1.20709 9.94413 0.00479166 0.00911132 9.94414 3.78328 11 1 
212 1.20699 9.94468 0.00490092 0.00925229 9.94468 3.58632 11 1 
213.333 1.20689 9.94289 0.00491316 0.00933849 9.9429 3.40745 11 1 
213.333 1.20689 9.94289 0.00491316 0.00933849 9.9429 3.40745 11 1 
214.667 1.20683 9.94104 0.0049454 0.00951362 9.94104 3.30321 11 1 
216 1.20678 9.9436 0.00494548 0.00961319 9.94361 3.21909 11 1 
217.333 1.20673 9.9467 0.00493141 0.00960832 9.94671 3.12637 11 1 
218.667 1.20673 9.94501 0.00485819 0.00964232 9.94502 3.12085 11 1 
220 1.20673 9.94373 0.00481843 0.00975695 9.94374 3.12476 11 1 
221.333 1.20673 9.94402 0.00477055 0.00973047 9.94402 3.13187 11 1 
222.667 1.20677 9.94034 0.00462065 0.00961089 9.94035 3.19442 11 1 
224 1.20679 9.93841 0.00442945 0.00954603 9.93842 3.23565 11 1 
225.333 1.20687 9.93935 0.00427669 0.00945473 9.93937 3.38519 11 1 
226.667 1.20698 9.94056 0.00418051 0.00930661 9.94057 3.56904 11 1 
228 1.20703 9.94096 0.00405577 0.00918208 9.94097 3.66873 11 1 
229.333 1.20711 9.9366 0.00386247 0.0090366 9.9366 3.80773 11 1 
230.667 1.20717 9.93379 0.00361049 0.00873327 9.93379 3.92331 11 1 
232 1.20721 9.93243 0.00339744 0.00841149 9.93243 3.98837 11 1 
233.333 1.20727 9.9296 0.00321127 0.00818045 9.92961 4.10422 11 1 
234.667 1.20734 9.92857 0.00308743 0.00801813 9.92857 4.22685 11 1 
234.667 1.20734 9.92857 0.00308743 0.00801813 9.92857 4.22685 11 1 
236 1.20731 9.928 0.00292286 0.00778011 9.928 4.17821 11 1 
237.333 1.2073 9.92343 0.00269374 0.00746364 9.92344 4.14859 11 1 
238.667 1.20729 9.91716 0.00245769 0.0071864 9.91717 4.12926 11 1 
240 1.2072 9.91535 0.00232506 0.007065 9.91536 3.97261 11 1 
241.333 1.20718 9.91224 0.0023175 0.00705712 9.91225 3.93836 11 1 
242.667 1.20709 9.911 0.00228674 0.0070553 9.91101 3.76929 11 1 
244 1.20701 9.90648 0.00221625 0.0070473 9.90649 3.62469 11 1 
245.333 1.20692 9.90147 0.00216342 0.00710326 9.90148 3.4676 11 1 
246.667 1.20682 9.89822 0.00231459 0.00742022 9.89823 3.29097 11 1 
248 1.20679 9.89249 0.0023148 0.00757395 9.8925 3.2345 11 1 
249.333 1.20669 9.89048 0.00254393 0.00799196 9.89048 3.05698 11 1 
250.667 1.20668 9.88578 0.00281393 0.0084913 9.88579 3.03939 11 1 
252 1.20665 9.88225 0.00280807 0.00869333 9.88225 2.98569 11 1 
253.333 1.20669 9.87399 0.00306085 0.00917385 9.87399 3.05757 11 1 
254.667 1.20672 9.86933 0.00332425 0.00964454 9.86934 3.10527 11 1 
256 1.20677 9.86606 0.00352122 0.010034 9.86607 3.19504 11 1 
256 1.20677 9.86606 0.00352122 0.010034 9.86607 3.19504 13 1 
257.333 1.20692 9.85768 0.00377716 0.0104579 9.85769 3.45981 13 1 
258.667 1.20697 9.85143 0.00383348 0.0106441 9.85144 3.56106 13 1 
260 1.20711 9.84322 0.00399853 0.0108906 9.84323 3.80328 13 1 
261.333 1.20729 9.83331 0.00420959 0.0111346 9.83332 4.14483 13 1 
262.667 1.20743 9.82202 0.00415673 0.0111189 9.82203 4.39678 13 1 
264 1.2075 9.81531 0.00414067 0.0110686 9.81532 4.51311 13 1 
265.333 1.20769 9.80401 0.00415102 0.0109944 9.80402 4.85487 13 1 
266.667 1.20791 9.78519 0.00408591 0.0108613 9.7852 5.2652 13 1 
268 1.20786 9.77322 0.00391297 0.0105913 9.77323 5.16422 13 1 
269.333 1.20798 9.75841 0.00384432 0.0103583 9.75842 5.37918 13 1 
270.667 1.20829 9.73452 0.00369722 0.0101069 9.73452 5.93399 13 1 
272 1.20806 9.72643 0.00346649 0.00980404 9.72645 5.53289 13 1 
273.333 1.20815 9.70302 0.00331535 0.00954171 9.70304 5.69382 13 1 
274.667 1.20851 9.6698 0.00320095 0.00937345 9.66983 6.33507 13 1 
276 1.20825 9.65611 0.00305848 0.00924612 9.65614 5.86622 13 1 
277.333 1.20833 9.62077 0.00287562 0.00907841 9.62081 6.01326 13 1 
277.333 1.20833 9.62077 0.00287562 0.00907841 9.62081 6.01326 13 1 
278.667 1.20859 9.58744 0.00283628 0.00907512 9.58748 6.48395 13 1 
280 1.20854 9.55813 0.00283748 0.0092063 9.55817 6.40079 13 1 
281.333 1.20865 9.51382 0.00277983 0.00932529 9.51385 6.5936 13 1 
282.667 1.20884 9.48199 0.00279756 0.00951737 9.482 6.92871 13 1 
284 1.20919 9.45067 0.00291173 0.00981731 9.45067 7.57236 13 1 
285.333 1.20956 9.40779 0.00299658 0.0100904 9.40783 8.24317 13 1 
286.667 1.20969 9.34442 0.00304411 0.0102713 9.34454 8.47131 13 1 
288 1.20991 9.2639 0.00314985 0.0105193 9.26399 8.87119 13 1 
289.333 1.2104 9.20399 0.00325064 0.0108153 9.20401 9.76017 13 1 
290.667 1.21107 9.15018 0.00327323 0.0109818 9.15018 10.9557 13 1 
292 1.21157 9.07863 0.00333587 0.0111062 9.07864 11.8713 13 1 
293.333 1.21187 9.00778 0.00339471 0.0112349 9.00781 12.4075 13 1 
294.667 1.21242 8.91867 0.00339475 0.011255 8.91875 13.4101 13 1 
296 1.21314 8.82168 0.0033814 0.0112291 8.82175 14.71 13 1 
297.333 1.21356 8.74447 0.00340759 0.0112011 8.74449 15.4582 13 1 
298.667 1.20905 8.61827 0.00332378 0.0109947 8.61833 7.31646 13 1 
298.667 1.20905 8.61827 0.00332378 0.0109947 8.61833 7.31646 14 1 
300 1.2015 8.58226 0.00321222 0.0108662 8.58232 -6.32502 14 1 
301.333 1.19878 8.59496 0.00320098 0.0107944 8.595 -11.2342 14 1 
302.667 1.19943 8.51735 0.0030659 0.0105638 8.5174 -10.0586 14 1 
304 1.19994 8.43031 0.00299365 0.0104259 8.43038 -9.14655 14 1 
305.333 1.20021 8.34214 0.00294696 0.0102991 8.34227 -8.65914 14 1 
306.667 1.20056 8.26914 0.00278759 0.010076 8.26924 -8.01486 14 1 
308 1.20086 8.19042 0.00273146 0.00998848 8.19046 -7.47236 14 1 
309.333 1.20117 8.12652 0.0026476 0.00994079 8.12655 -6.92686 14 1 
310.667 1.20151 8.07674 0.00259092 0.00992292 8.07676 -6.3023 14 1 
312 1.20179 8.01957 0.0025603 0.00989096 8.01958 -5.79674 14 1 
313.333 1.20202 7.97553 0.00249832 0.00981573 7.97555 -5.37499 14 1 
314.667 1.20225 7.93156 0.00250323 0.00990896 7.93159 -4.96186 14 1 
316 1.20237 7.87787 0.00243998 0.00993688 7.87792 -4.74137 14 1 
317.333 1.2025 7.8364 0.00242013 0.00992835 7.83644 -4.51072 14 1 
318.667 1.20274 7.79961 0.00247626 0.0100409 7.79965 -4.08394 14 1 
320 1.20288 7.75885 0.00251852 0.010219 7.75888 -3.82825 14 1 
320 1.20288 7.75885 0.00251852 0.010219 7.75888 -3.82825 14 1 
321.333 1.20291 7.72339 0.00257185 0.0103877 7.72342 -3.77232 14 1 
322.667 1.20306 7.69054 0.00264647 0.0105819 7.69057 -3.50702 14 1 
324 1.20323 7.65886 0.00271886 0.0107984 7.65888 -3.19579 14 1 
325.333 1.2033 7.63652 0.00277532 0.0110052 7.63653 -3.07584 14 1 
326.667 1.20343 7.62037 0.00286238 0.0112256 7.62038 -2.84033 14 1 
328 1.20361 7.60342 0.00298142 0.0114451 7.60342 -2.50472 14 1 
329.333 1.20371 7.58732 0.00305997 0.0116151 7.58733 -2.33652 14 1 
330.667 1.20376 7.57227 0.00310629 0.0117585 7.57229 -2.24199 14 1 
332 1.20385 7.56324 0.00314409 0.0118506 7.56325 -2.07771 14 1 
333.333 1.20402 7.56207 0.00316845 0.0118991 7.56208 -1.76793 14 1 
334.667 1.20416 7.55332 0.00318847 0.0119376 7.55333 -1.52574 14 1 
336 1.20412 7.53749 0.00320145 0.0119292 7.5375 -1.59693 14 1 
337.333 1.20411 7.528 0.00319316 0.0118859 7.52801 -1.61085 14 1 
338.667 1.20424 7.52263 0.00315947 0.0118369 7.52264 -1.36421 14 1 
340 1.20435 7.51822 0.00313022 0.0117919 7.51823 -1.17332 14 1 
341.333 1.20432 7.50653 0.00309133 0.0117151 7.50654 -1.22505 14 1 
341.333 1.20432 7.50653 0.00309133 0.0117151 7.50654 -1.22505 15 1 
342.667 1.20423 7.48571 0.00302613 0.0116139 7.48573 -1.3828 15 1 
344 1.20427 7.47503 0.00299691 0.0115829 7.47505 -1.31797 15 1 
345.333 1.20436 7.47106 0.00301346 0.0116224 7.47108 -1.15391 15 1 
346.667 1.20433 7.45896 0.00298411 0.0116127 7.45898 -1.20273 15 1 
348 1.20429 7.44235 0.00290096 0.011567 7.44237 -1.29069 15 1 
349.333 1.20426 7.42425 0.0028646 0.0116233 7.42427 -1.34291 15 1 
350.667 1.20426 7.41552 0.00291821 0.0117786 7.41553 -1.33128 15 1 
352 1.20432 7.41369 0.00296639 0.0118794 7.4137 -1.22304 15 1 
353.333 1.20429 7.39751 0.00293228 0.011944 7.39753 -1.27937 15 1 
354.667 1.20424 7.38051 0.00290793 0.0120936 7.38053 -1.36655 15 1 
356 1.20428 7.37588 0.00296828 0.0122951 7.37589 -1.29569 15 1 
357.333 1.2043 7.36964 0.00303383 0.0124545 7.36965 -1.26632 15 1 
358.667 1.20431 7.36262 0.00306743 0.0126203 7.36263 -1.2484 15 1 
360 1.20432 7.35507 0.00308763 0.0127873 7.35508 -1.22222 15 1 
361.333 1.20432 7.34584 0.00312567 0.0129303 7.34585 -1.23424 15 1 
362.667 1.20434 7.34345 0.00319658 0.0131064 7.34347 -1.18622 15 1 
362.667 1.20434 7.34345 0.00319658 0.0131064 7.34347 -1.18622 15 1 
364 1.20437 7.34207 0.00324907 0.0132902 7.34208 -1.14068 15 1 
365.333 1.20438 7.33834 0.00323577 0.0133775 7.33835 -1.12331 15 1 
366.667 1.20439 7.33554 0.00323365 0.0134288 7.33555 -1.10419 15 1 
368 1.20439 7.33193 0.00329222 0.0135441 7.33195 -1.09916 15 1 
369.333 1.20441 7.33277 0.00333408 0.0136706 7.33279 -1.06147 15 1 
370.667 1.20441 7.33459 0.00330707 0.0137132 7.3346 -1.06142 15 1 
372 1.2044 7.3323 0.00326129 0.0137177 7.33231 -1.07844 15 1 
373.333 1.20442 7.33294 0.00326357 0.0137518 7.33295 -1.04446 15 1 
374.667 1.20441 7.33329 0.00328015 0.0138041 7.3333 -1.07154 15 1 
376 1.20439 7.3329 0.00326285 0.0138249 7.33291 -1.09977 15 1 
377.333 1.2044 7.33639 0.00323203 0.0138284 7.3364 -1.08813 15 1 
378.667 1.20437 7.33629 0.00319733 0.0138196 7.3363 -1.13036 15 1 
380 1.20437 7.33501 0.00317058 0.0138225 7.33502 -1.1465 15 1 
381.333 1.20436 7.33725 0.00316441 0.0138667 7.33726 -1.14767 15 1 
382.667 1.20434 7.33717 0.00314368 0.0138818 7.33718 -1.19763 15 1 
384 1.20433 7.33753 0.00310686 0.0138622 7.33754 -1.21852 15 1 
384 1.20433 7.33753 0.00310686 0.0138622 7.33754 -1.21852 15 1 
385.333 1.20432 7.33851 0.00308139 0.0138984 7.33852 -1.23423 15 1 
386.667 1.2043 7.33643 0.00307269 0.013971 7.33645 -1.26649 15 1 
388 1.20429 7.336 0.00309007 0.0140321 7.33601 -1.27395 15 1 
389.333 1.20428 7.33607 0.00307423 0.01406 7.33608 -1.29199 15 1 
390.667 1.20427 7.33438 0.00302646 0.0140772 7.33439 -1.31537 15 1 
392 1.20426 7.33313 0.00305723 0.0141686 7.33315 -1.32855 15 1 
393.333 1.20425 7.3302 0.00313274 0.0142884 7.33021 -1.34684 15 1 
394.667 1.20425 7.32723 0.00315618 0.0143409 7.32725 -1.35302 15 1 
396 1.20425 7.32579 0.00316168 0.0143658 7.32581 -1.35635 15 1 
397.333 1.20424 7.32241 0.0031817 0.0144223 7.32243 -1.37207 15 1 
398.667 1.20423 7.31841 0.0031971 0.0144758 7.31843 -1.39298 15 1 
400 1.20422 7.31443 0.00322493 0.0144998 7.31445 -1.41284 15 1 
401.333 1.20422 7.30986 0.00327096 0.014549 7.30987 -1.41221 15 1 
402.667 1.20422 7.30669 0.00329132 0.0146127 7.3067 -1.41337 15 1 
404 1.2042 7.30239 0.00327834 0.0146084 7.30241 -1.44965 15 1 
405.333 1.20418 7.29648 0.0033065 0.0146296 7.29649 -1.48241 15 1 
405.333 1.20418 7.29648 0.0033065 0.0146296 7.29649 -1.48241 15 1 
406.667 1.20418 7.29225 0.00337154 0.0147318 7.29227 -1.48984 15 1 
408 1.20417 7.28803 0.00338313 0.0147817 7.28804 -1.4976 15 1 
409.333 1.20416 7.28309 0.00335123 0.0147524 7.2831 -1.52038 15 1 
410.667 1.20413 7.27841 0.00335814 0.0147673 7.27843 -1.56672 15 1 
412 1.20411 7.27318 0.00340938 0.0148744 7.2732 -1.60573 15 1 
413.333 1.20411 7.26887 0.00343544 0.014949 7.26889 -1.61235 15 1 
414.667 1.2041 7.26469 0.00340872 0.0149229 7.2647 -1.63395 15 1 
416 1.20407 7.25918 0.00339654 0.0149382 7.25919 -1.68018 15 1 
417.333 1.20405 7.25516 0.00342584 0.0150407 7.25518 -1.7113 15 1 
418.667 1.20404 7.25145 0.00344645 0.0151125 7.25147 -1.73849 15 1 
420 1.20402 7.24623 0.00345395 0.0151416 7.24625 -1.77386 15 1 
421.333 1.204 7.24209 0.0034661 0.0152019 7.2421 -1.80252 15 1 
422.667 1.20399 7.23857 0.00347771 0.015269 7.23858 -1.82468 15 1 
424 1.20398 7.23481 0.00349537 0.0153251 7.23483 -1.85098 15 1 
425.333 1.20396 7.23127 0.00351906 0.0154086 7.23129 -1.88647 15 1 
426.667 1.20394 7.22712 0.00353995 0.0155059 7.22714 -1.91691 15 1 
426.667 1.20394 7.22712 0.00353995 0.0155059 7.22714 -1.91691 20 1 
428 1.20393 7.22378 0.00356691 0.0155765 7.2238 -1.93432 20 1 
429.333 1.20392 7.22141 0.00360131 0.0156506 7.22143 -1.9528 20 1 
430.667 1.2039 7.21826 0.00363386 0.0157534 7.21828 -1.97841 20 1 
432 1.20389 7.21534 0.0036599 0.0158448 7.21536 -2.00738 20 1 
433.333 1.20388 7.21295 0.00369434 0.0159265 7.21297 -2.02963 20 1 
434.667 1.20387 7.21064 0.00374269 0.0160231 7.21066 -2.03889 20 1 
436 1.20386 7.20906 0.00376516 0.0161018 7.20908 -2.05687 20 1 
437.333 1.20384 7.20721 0.00377771 0.0161545 7.20723 -2.08998 20 1 
438.667 1.20383 7.20547 0.00383345 0.016239 7.20549 -2.11468 20 1 
440 1.20382 7.20453 0.00389055 0.0163457 7.20455 -2.13012 20 1 
441.333 1.20381 7.20326 0.00390591 0.016399 7.20328 -2.14843 20 1 
442.667 1.2038 7.20269 0.00392306 0.0164287 7.20271 -2.16834 20 1 
444 1.20379 7.2027 0.00396252 0.0165014 7.20272 -2.19133 20 1 
445.333 1.20377 7.2018 0.0040053 0.0165994 7.20182 -2.22299 20 1 
446.667 1.20375 7.20149 0.0040401 0.0166617 7.20151 -2.2494 20 1 
448 1.20375 7.20213 0.00406889 0.0167051 7.20215 -2.26425 20 1 
448 1.20375 7.20213 0.00406889 0.0167051 7.20215 -2.26425 20 1 
449.333 1.20373 7.20238 0.00408925 0.0167588 7.2024 -2.28566 20 1 
450.667 1.20372 7.20277 0.00410052 0.016815 7.20279 -2.31641 20 1 
452 1.2037 7.20331 0.00413039 0.0168779 7.20333 -2.34848 20 1 
453.333 1.20368 7.20379 0.00418478 0.0169631 7.20381 -2.37619 20 1 
454.667 1.20367 7.20492 0.00420753 0.0170242 7.20494 -2.39432 20 1 
456 1.20367 7.20618 0.00421174 0.0170742 7.20621 -2.41139 20 1 
457.333 1.20365 7.2073 0.0042539 0.0171479 7.20733 -2.44115 20 1 
458.667 1.20363 7.2084 0.0043078 0.0172132 7.20843 -2.4779 20 1 
460 1.20362 7.2097 0.00434756 0.0172995 7.20972 -2.49819 20 1 
461.333 1.20361 7.2117 0.00438052 0.0173907 7.21172 -2.50659 20 1 
462.667 1.2036 7.21357 0.0044145 0.0174256 7.21359 -2.52954 20 1 
464 1.20358 7.21508 0.00446142 0.0174471 7.2151 -2.55985 20 1 
465.333 1.20357 7.21713 0.00451572 0.0175295 7.21715 -2.58195 20 1 
466.667 1.20356 7.21918 0.00457163 0.0176345 7.2192 -2.60312 20 1 
468 1.20355 7.22149 0.00461998 0.0176708 7.22151 -2.61818 20 1 
469.333 1.20355 7.22452 0.00465548 0.0176788 7.22454 -2.62617 20 1 
469.333 1.20355 7.22452 0.00465548 0.0176788 7.22454 -2.62617 20 1 
470.667 1.20353 7.22683 0.00471277 0.0177501 7.22686 -2.64934 20 1 
472 1.20352 7.22901 0.00479179 0.0178607 7.22903 -2.67668 20 1 
473.333 1.20351 7.23226 0.00485122 0.017912 7.23229 -2.69148 20 1 
474.667 1.2035 7.23528 0.0048928 0.0179433 7.23531 -2.70412 20 1 
476 1.20349 7.23798 0.00495192 0.0180245 7.238 -2.72233 20 1 
477.333 1.20348 7.24107 0.00503052 0.018126 7.2411 -2.74225 20 1 
478.667 1.20347 7.24406 0.00509693 0.0182052 7.24409 -2.76114 20 1 
480 1.20346 7.24698 0.00516036 0.0182657 7.247 -2.78385 20 1 
481.333 1.20345 7.24995 0.00524295 0.0183576 7.24997 -2.80193 20 1 
482.667 1.20344 7.25287 0.00533718 0.0184577 7.25289 -2.81389 20 1 
484 1.20343 7.25574 0.00540724 0.0185184 7.25577 -2.83313 20 1 
485.333 1.20342 7.2583 0.00546897 0.0185782 7.25832 -2.86105 20 1 
486.667 1.2034 7.26067 0.00556262 0.0186882 7.2607 -2.88548 20 1 
488 1.20339 7.26312 0.00565772 0.018785 7.26314 -2.90439 20 1 
489.333 1.20338 7.26554 0.00571744 0.0188186 7.26556 -2.92334 20 1 
490.667 1.20337 7.26794 0.00578129 0.0188706 7.26796 -2.94082 20 1 
490.667 1.20337 7.26794 0.00578129 0.0188706 7.26796 -2.94082 20 1 
492 1.20336 7.26999 0.0058746 0.0189593 7.27001 -2.96303 20 1 
493.333 1.20334 7.27162 0.00595822 0.0190151 7.27165 -2.99034 20 1 
494.667 1.20333 7.27381 0.00601037 0.019037 7.27384 -3.01015 20 1 
496 1.20333 7.27616 0.00607176 0.0190885 7.27618 -3.01974 20 1 
497.333 1.20332 7.27771 0.006165 0.0191536 7.27773 -3.03952 20 1 
498.667 1.2033 7.27924 0.00625712 0.0191929 7.27927 -3.06868 20 1 
500 1.20329 7.28118 0.0063309 0.0192445 7.28121 -3.08533 20 1 
501.333 1.20328 7.28312 0.00642105 0.0193273 7.28315 -3.09893 20 1 
502.667 1.20327 7.28497 0.00653953 0.0194082 7.28499 -3.11722 20 1 
504 1.20327 7.28675 0.00663941 0.0194636 7.28678 -3.13299 20 1 
505.333 1.20326 7.2884 0.00672592 0.0195158 7.28843 -3.14862 20 1 
506.667 1.20325 7.29009 0.00683555 0.0195952 7.29012 -3.16821 20 1 
508 1.20324 7.29182 0.00696829 0.0196873 7.29185 -3.18652 20 1 
509.333 1.20323 7.29348 0.00707128 0.0197554 7.29351 -3.20026 20 1 
510.667 1.20322 7.29502 0.00714786 0.0197934 7.29505 -3.21715 20 1 
512 1.20321 7.29641 0.00726118 0.0198709 7.29644 -3.23867 20 1 
512 1.20321 7.29641 0.00726118 0.0198709 7.29644 -3.23867 21 1 
513.333 1.2032 7.29789 0.00738828 0.0199899 7.29792 -3.2575 21 1 
514.667 1.20319 7.29929 0.00747436 0.0200516 7.29932 -3.27181 21 1 
516 1.20318 7.30053 0.00754935 0.0200657 7.30056 -3.28729 21 1 
517.333 1.20317 7.30169 0.0076423 0.0201257 7.30173 -3.30669 21 1 
518.667 1.20316 7.30252 0.0077538 0.0202245 7.30255 -3.32977 21 1 
520 1.20315 7.30313 0.0078778 0.0202997 7.30316 -3.34999 21 1 
521.333 1.20314 7.30394 0.00798477 0.0203779 7.30397 -3.36411 21 1 
522.667 1.20313 7.30466 0.00808401 0.0204738 7.3047 -3.38177 21 1 
524 1.20312 7.30502 0.00820823 0.0205667 7.30506 -3.40341 21 1 
525.333 1.2031 7.30517 0.00835233 0.020644 7.3052 -3.4248 21 1 
526.667 1.20309 7.3051 0.00845638 0.02069 7.30513 -3.44604 21 1 
528 1.20308 7.30517 0.00852005 0.0207251 7.3052 -3.46292 21 1 
529.333 1.20308 7.30517 0.00862576 0.0207855 7.3052 -3.47643 21 1 
530.667 1.20306 7.30469 0.00877287 0.0208634 7.30473 -3.4974 21 1 
532 1.20305 7.30428 0.00885933 0.0209048 7.30431 -3.5203 21 1 
533.333 1.20304 7.30398 0.00892488 0.0209361 7.30401 -3.53725 21 1 
533.333 1.20304 7.30398 0.00892488 0.0209361 7.30401 -3.53725 21 1 
534.667 1.20303 7.30343 0.00904854 0.0209966 7.30347 -3.55753 21 1 
536 1.20302 7.30282 0.00917141 0.0210286 7.30285 -3.57681 21 1 
537.333 1.20301 7.30229 0.00925318 0.0210278 7.30232 -3.59027 21 1 
538.667 1.203 7.30155 0.00933707 0.0210467 7.30159 -3.60912 21 1 
540 1.20299 7.30043 0.00946765 0.0211037 7.30047 -3.63354 21 1 
541.333 1.20298 7.29936 0.00961398 0.0211793 7.29939 -3.65358 21 1 
542.667 1.20297 7.2987 0.00974527 0.0212585 7.29874 -3.66536 21 1 
544 1.20296 7.29805 0.0098439 0.0213023 7.29809 -3.68003 21 1 
545.333 1.20295 7.29698 0.00991493 0.021281 7.29702 -3.70307 21 1 
546.667 1.20294 7.2958 0.0100048 0.0212668 7.29584 -3.72806 21 1 
548 1.20293 7.29472 0.0100856 0.0212452 7.29476 -3.74736 21 1 
549.333 1.20292 7.29379 0.0101336 0.0212005 7.29383 -3.75817 21 1 
550.667 1.20291 7.2927 0.0101675 0.0211278 7.29274 -3.77313 21 1 
552 1.2029 7.29113 0.0102588 0.0211382 7.29116 -3.79661 21 1 
553.333 1.20289 7.28989 0.0104264 0.0212426 7.28993 -3.81727 21 1 
554.667 1.20288 7.289 0.0105939 0.0213306 7.28903 -3.83266 21 1 
554.667 1.20288 7.289 0.0105939 0.0213306 7.28903 -3.83266 22 1 
556 1.20287 7.28796 0.0107305 0.0213841 7.288 -3.85082 22 1 
557.333 1.20286 7.28696 0.0108065 0.0213556 7.287 -3.86427 22 1 
558.667 1.20285 7.28579 0.0108552 0.0212866 7.28583 -3.87817 22 1 
560 1.20284 7.28419 0.0109247 0.0212284 7.28422 -3.90068 22 1 
561.333 1.20283 7.28252 0.0110141 0.0212145 7.28256 -3.91753 22 1 
562.667 1.20282 7.28098 0.0111319 0.0212264 7.28102 -3.93054 22 1 
564 1.20282 7.2794 0.0112753 0.0212675 7.27944 -3.94462 22 1 
565.333 1.20281 7.2778 0.0114774 0.0213971 7.27784 -3.95989 22 1 
566.667 1.2028 7.27621 0.0117253 0.0215665 7.27626 -3.97606 22 1 
568 1.20279 7.27484 0.0119244 0.0216833 7.27488 -3.99012 22 1 
569.333 1.20278 7.27338 0.0119844 0.0216184 7.27342 -4.00638 22 1 
570.667 1.20277 7.27166 0.0119025 0.0214091 7.27171 -4.02359 22 1 
572 1.20276 7.26985 0.0117439 0.0211101 7.26989 -4.03895 22 1 
573.333 1.20275 7.26785 0.0116142 0.020833 7.26789 -4.05576 22 1 
574.667 1.20275 7.26607 0.0116064 0.0207188 7.26611 -4.07044 22 1 
576 1.20274 7.2644 0.0117338 0.020729 7.26444 -4.08407 22 1 
576 1.20274 7.2644 0.0117338 0.020729 7.26444 -4.08407 22 1 
577.333 1.20273 7.26233 0.0119441 0.0208277 7.26237 -4.10336 22 1 
578.667 1.20272 7.26028 0.0121759 0.0209289 7.26032 -4.12294 22 1 
580 1.20271 7.25837 0.0123683 0.0209676 7.25841 -4.13937 22 1 
581.333 1.2027 7.25625 0.012481 0.0209171 7.25629 -4.15712 22 1 
582.667 1.20269 7.25404 0.0125365 0.0208141 7.25408 -4.17477 22 1 
584 1.20268 7.25178 0.0125672 0.020688 7.25182 -4.19279 22 1 
585.333 1.20267 7.24951 0.0125709 0.0205154 7.24955 -4.20902 22 1 
586.667 1.20266 7.24722 0.0125833 0.0203656 7.24726 -4.22544 22 1 
588 1.20265 7.24473 0.0126102 0.0202093 7.24477 -4.24694 22 1 
589.333 1.20264 7.24223 0.0126312 0.0200422 7.24227 -4.26442 22 1 
590.667 1.20263 7.23987 0.0126511 0.019856 7.23991 -4.27861 22 1 
592 1.20262 7.23728 0.0126727 0.0196963 7.23732 -4.29301 22 1 
593.333 1.20261 7.23471 0.0126957 0.019533 7.23475 -4.31204 22 1 
594.667 1.2026 7.23196 0.0127113 0.0193361 7.232 -4.33021 22 1 
596 1.20259 7.22919 0.0127361 0.0191776 7.22923 -4.346 22 1 
597.333 1.20259 7.22651 0.0127594 0.0189939 7.22655 -4.35944 22 1 
597.333 1.20259 7.22651 0.0127594 0.0189939 7.22655 -4.35944 24 1 
598.667 1.20258 7.22375 0.0127856 0.018822 7.22378 -4.37455 24 1 
600 1.20257 7.22089 0.0128175 0.0186439 7.22093 -4.389 24 1 
601.333 1.20256 7.21801 0.0128554 0.0185059 7.21805 -4.40231 24 1 
602.667 1.20255 7.21521 0.0128899 0.0183565 7.21524 -4.42088 24 1 
604 1.20254 7.21214 0.0129257 0.0182044 7.21218 -4.43649 24 1 
605.333 1.20253 7.2093 0.0129872 0.0180879 7.20933 -4.45305 24 1 
606.667 1.20253 7.20658 0.0130372 0.0179482 7.20661 -4.46869 24 1 
608 1.20252 7.20358 0.0131056 0.0178605 7.20361 -4.47955 24 1 
609.333 1.20251 7.20074 0.0131835 0.0177636 7.20077 -4.49264 24 1 
610.667 1.2025 7.19815 0.013258 0.0176821 7.19818 -4.50645 24 1 
612 1.2025 7.19535 0.0133436 0.0176036 7.19539 -4.51945 24 1 
613.333 1.20249 7.19255 0.0134384 0.0175597 7.19258 -4.54067 24 1 
614.667 1.20248 7.19001 0.0135496 0.0175277 7.19004 -4.56008 24 1 
616 1.20247 7.18745 0.0136583 0.0174942 7.18749 -4.56683 24 1 
617.333 1.20247 7.18514 0.0137852 0.0174841 7.18518 -4.57496 24 1 
618.667 1.20246 7.18309 0.0139159 0.0174852 7.18313 -4.58814 24 1 
618.667 1.20246 7.18309 0.0139159 0.0174852 7.18313 -4.58814 24 1 
620 1.20245 7.18081 0.0140456 0.0174878 7.18085 -4.59934 24 1 
621.333 1.20244 7.17865 0.0141756 0.0174889 7.17869 -4.61894 24 1 
622.667 1.20243 7.17661 0.0143136 0.0175206 7.17664 -4.63778 24 1 
624 1.20243 7.1749 0.0144607 0.0175519 7.17494 -4.64352 24 1 
625.333 1.20243 7.17342 0.0146188 0.0175874 7.17345 -4.64741 24 1 
626.667 1.20242 7.17192 0.01477 0.0176203 7.17196 -4.6568 24 1 
628 1.20241 7.17039 0.0149066 0.0176449 7.17043 -4.67029 24 1 
629.333 1.2024 7.16898 0.0150567 0.0176843 7.16902 -4.69091 24 1 
630.667 1.2024 7.16767 0.0152048 0.0177148 7.1677 -4.70476 24 1 
632 1.20239 7.16682 0.01535 0.017749 7.16686 -4.71231 24 1 
633.333 1.20239 7.16611 0.0154942 0.0177726 7.16614 -4.7155 24 1 
634.667 1.20239 7.1652 0.0156476 0.0177935 7.16524 -4.71944 24 1 
636 1.20238 7.16455 0.015791 0.0178103 7.16458 -4.73676 24 1 
637.333 1.20237 7.16386 0.0159141 0.0178037 7.1639 -4.7535 24 1 
638.667 1.20236 7.16346 0.0160442 0.0178014 7.16351 -4.76813 24 1 
640 1.20235 7.1631 0.0161689 0.017777 7.16314 -4.77841 24 1 
640 1.20235 7.1631 0.0161689 0.017777 7.16314 -4.77841 24 1 
641.333 1.20235 7.16283 0.0162918 0.0177481 7.16287 -4.7862 24 1 
642.667 1.20235 7.1628 0.0164238 0.0177309 7.16284 -4.79204 24 1 
644 1.20234 7.16273 0.0165411 0.0176748 7.16277 -4.79867 24 1 
645.333 1.20233 7.16279 0.0166371 0.0176091 7.16283 -4.81523 24 1 
646.667 1.20233 7.16274 0.0167471 0.017548 7.16279 -4.83047 24 1 
648 1.20232 7.16277 0.0168362 0.017442 7.16281 -4.83899 24 1 
649.333 1.20232 7.16306 0.0169248 0.0173438 7.1631 -4.84518 24 1 
650.667 1.20232 7.16344 0.0170211 0.0172352 7.16348 -4.8479 24 1 
652 1.20231 7.16382 0.0171028 0.0171032 7.16386 -4.85362 24 1 
653.333 1.20231 7.16399 0.0171946 0.0169903 7.16403 -4.86752 24 1 
654.667 1.2023 7.16418 0.017281 0.0168288 7.16423 -4.88236 24 1 
656 1.20229 7.16453 0.0173642 0.0166927 7.16457 -4.88913 24 1 
657.333 1.20229 7.165 0.0174405 0.0165398 7.16504 -4.88753 24 1 
658.667 1.20229 7.16572 0.0175021 0.0163454 7.16576 -4.88998 24 1 
660 1.20229 7.16607 0.0175783 0.0161996 7.1661 -4.89192 24 1 
661.333 1.20229 7.1663 0.0176501 0.0160056 7.16634 -4.90256 24 1 
661.333 1.20229 7.1663 0.0176501 0.0160056 7.16634 -4.90256 24 1 
662.667 1.20228 7.16674 0.0177254 0.0158136 7.16678 -4.92116 24 1 
664 1.20227 7.16683 0.0178005 0.015643 7.16687 -4.92293 24 1 
665.333 1.20227 7.16752 0.0178582 0.015407 7.16756 -4.92951 24 1 
666.667 1.20227 7.16805 0.0179309 0.0152441 7.16809 -4.92923 24 1 
668 1.20227 7.16827 0.0179966 0.015054 7.16831 -4.92628 24 1 
669.333 1.20227 7.1688 0.0180445 0.0148037 7.16883 -4.93772 24 1 
670.667 1.20226 7.16906 0.0181224 0.0146396 7.1691 -4.94854 24 1 
672 1.20226 7.16919 0.0181843 0.0144035 7.16923 -4.95706 24 1 
673.333 1.20225 7.16955 0.0182322 0.0141407 7.16959 -4.96723 24 1 
674.667 1.20225 7.16978 0.0183119 0.0139733 7.16982 -4.96957 24 1 
676 1.20225 7.16989 0.0183567 0.0137133 7.16992 -4.96589 24 1 
677.333 1.20225 7.17037 0.018392 0.0135086 7.1704 -4.97521 24 1 
678.667 1.20224 7.17041 0.0184429 0.0132911 7.17045 -4.98238 24 1 
680 1.20224 7.17053 0.0185144 0.0130594 7.17057 -4.99133 24 1 
681.333 1.20223 7.17064 0.0185641 0.0128421 7.17067 -5.00181 24 1 
682.667 1.20223 7.17068 0.0185921 0.0125315 7.17072 -5.00269 24 1 
682.667 1.20223 7.17068 0.0185921 0.0125315 7.17072 -5.00269 31 1 
684 1.20223 7.17067 0.0186703 0.012332 7.1707 -4.99802 31 1 
685.333 1.20223 7.17077 0.0186695 0.0120597 7.17081 -5.00172 31 1 
686.667 1.20223 7.17062 0.018672 0.0117665 7.17066 -5.00638 31 1 
688 1.20222 7.17043 0.0187489 0.0116205 7.17047 -5.01531 31 1 
689.333 1.20222 7.17033 0.0187604 0.0113254 7.17037 -5.02275 31 1 
690.667 1.20222 7.17023 0.0187853 0.0110567 7.17027 -5.0212 31 1 
692 1.20222 7.17024 0.0188403 0.0108072 7.17027 -5.0166 31 1 
693.333 1.20223 7.17001 0.0188186 0.0104556 7.17004 -5.01202 31 1 
694.667 1.20222 7.16964 0.0188165 0.0101573 7.16967 -5.0151 31 1 
696 1.20222 7.16911 0.0188226 0.00988748 7.16914 -5.02406 31 1 
697.333 1.20221 7.16882 0.0188302 0.00962168 7.16885 -5.03074 31 1 
698.667 1.20222 7.16859 0.0188562 0.00939824 7.16862 -5.02659 31 1 
700 1.20222 7.16841 0.018835 0.00907476 7.16844 -5.02195 31 1 
701.333 1.20222 7.16821 0.0188652 0.00878447 7.16824 -5.01763 31 1 
702.667 1.20222 7.16781 0.0188213 0.00842537 7.16784 -5.01758 31 1 
704 1.20222 7.1674 0.0187886 0.00804889 7.16743 -5.02654 31 1 
704 1.20222 7.1674 0.0187886 0.00804889 7.16743 -5.02654 31 1 
705.333 1.20222 7.16697 0.0187498 0.00770114 7.167 -5.02798 31 1 
706.667 1.20222 7.16667 0.0187235 0.00737547 7.1667 -5.02315 31 1 
708 1.20222 7.1665 0.018763 0.00713982 7.16653 -5.01912 31 1 
709.333 1.20222 7.16638 0.0186565 0.00674495 7.1664 -5.01409 31 1 
710.667 1.20222 7.16647 0.0187533 0.00656133 7.16649 -5.01576 31 1 
712 1.20222 7.16654 0.0187234 0.00616591 7.16657 -5.01545 31 1 
713.333 1.20222 7.16667 0.0186244 0.00571571 7.1667 -5.01458 31 1 
714.667 1.20222 7.16686 0.0186554 0.00536677 7.16689 -5.01386 31 1 
716 1.20223 7.167 0.0185652 0.00490713 7.16703 -5.00523 31 1 
717.333 1.20223 7.1673 0.0185248 0.00455418 7.16733 -4.99664 31 1 
718.667 1.20224 7.16788 0.0185744 0.00423322 7.1679 -4.99418 31 1 
720 1.20223 7.16888 0.018585 0.00397444 7.1689 -4.9975 31 1 
721.333 1.20224 7.16958 0.0185178 0.00356578 7.16961 -4.98961 31 1 
722.667 1.20224 7.17053 0.0184985 0.00313451 7.17055 -4.99002 31 1 
724 1.20224 7.17183 0.0184658 0.00271888 7.17185 -4.98954 31 1 
725.333 1.20225 7.17285 0.0184092 0.0021536 7.17288 -4.96666 31 1 
725.333 1.20225 7.17285 0.0184092 0.0021536 7.17288 -4.96666 31 1 
726.667 1.20225 7.17427 0.0183773 0.0017148 7.17429 -4.96064 31 1 
728 1.20225 7.17571 0.018382 0.00131643 7.17573 -4.96787 31 1 
729.333 1.20225 7.1767 0.0183981 0.000889044 7.17672 -4.95981 31 1 
730.667 1.20225 7.17828 0.0183618 0.000527568 7.17831 -4.9614 31 1 
732 1.20226 7.17988 0.0182615 1.34344e-05 7.17991 -4.95803 31 1 
733.333 1.20226 7.18189 0.0182458 -0.000439367 7.18191 -4.94446 31 1 
734.667 1.20227 7.18425 0.0182718 -0.000909938 7.18428 -4.93172 31 1 
736 1.20228 7.18595 0.0182032 -0.00155053 7.18597 -4.91893 31 1 
737.333 1.20227 7.18837 0.018224 -0.00198713 7.1884 -4.93481 31 1 
738.667 1.20228 7.18962 0.0181544 -0.00264532 7.18965 -4.91647 31 1 
740 1.20228 7.1911 0.0181032 -0.00310172 7.19112 -4.90939 31 1 
741.333 1.20227 7.19343 0.0179511 -0.00373759 7.19345 -4.9252 31 1 
742.667 1.20229 7.19528 0.0180322 -0.00409354 7.1953 -4.89111 31 1 
744 1.2023 7.1982 0.0181123 -0.00440544 7.19823 -4.87777 31 1 
745.333 1.2023 7.20052 0.0177333 -0.00540151 7.20054 -4.87684 31 1 
746.667 1.2023 7.2024 0.0178902 -0.00575455 7.20243 -4.87292 31 1 
746.667 1.2023 7.2024 0.0178902 -0.00575455 7.20243 -4.87292 31 1 
748 1.2023 7.20457 0.0177585 -0.00650492 7.20459 -4.86871 31 1 
749.333 1.20231 7.20613 0.0175316 -0.00734097 7.20616 -4.85108 31 1 
750.667 1.20232 7.20831 0.0177303 -0.00771953 7.20834 -4.84845 31 1 
752 1.20233 7.21011 0.0175276 -0.00834566 7.21013 -4.82878 31 1 
753.333 1.20234 7.2118 0.0173623 -0.00893126 7.21183 -4.8104 31 1 
754.667 1.20233 7.21397 0.017314 -0.0094101 7.214 -4.8182 31 1 
756 1.20233 7.21613 0.0173006 -0.00986531 7.21616 -4.81584 31 1 
757.333 1.20235 7.21877 0.0172024 -0.0105564 7.2188 -4.79485 31 1 
758.667 1.20235 7.22083 0.016994 -0.0113355 7.22086 -4.78275 31 1 
760 1.20235 7.22333 0.0168934 -0.0121486 7.22336 -4.78782 31 1 
761.333 1.20237 7.22431 0.0167314 -0.0128687 7.22434 -4.75612 31 1 
762.667 1.20237 7.22575 0.0166203 -0.0134468 7.22578 -4.75846 31 1 
764 1.20236 7.22812 0.0165936 -0.0139014 7.22815 -4.77437 31 1 
765.333 1.20238 7.22934 0.0164903 -0.0143464 7.22937 -4.74045 31 1 
766.667 1.20237 7.23223 0.0163437 -0.0147108 7.23226 -4.74477 31 1 
768 1.20237 7.23631 0.016067 -0.015483 7.23635 -4.75674 31 1 
768 1.20237 7.23631 0.016067 -0.015483 7.23635 -4.75674 32 1 
769.333 1.20239 7.23791 0.0159855 -0.0161644 7.23795 -4.70663 32 1 
770.667 1.20238 7.24201 0.0158884 -0.0168579 7.24205 -4.73763 32 1 
772 1.20237 7.24548 0.0156769 -0.017651 7.24551 -4.74447 32 1 
773.333 1.2024 7.24609 0.0154315 -0.0185551 7.24614 -4.68832 32 1 
774.667 1.20238 7.25021 0.0151739 -0.019397 7.25025 -4.73587 32 1 
776 1.20238 7.25225 0.0149264 -0.0198778 7.25229 -4.72434 32 1 
777.333 1.20241 7.25384 0.0148908 -0.0200204 7.25389 -4.68686 32 1 
778.667 1.20237 7.26009 0.0149346 -0.0202394 7.26013 -4.7474 32 1 
780 1.20238 7.2649 0.014843 -0.0207214 7.26495 -4.72859 32 1 
781.333 1.2024 7.26985 0.0146217 -0.0214578 7.26989 -4.69454 32 1 
782.667 1.20236 7.27938 0.014205 -0.0225361 7.27943 -4.76668 32 1 
784 1.2024 7.28145 0.0141152 -0.0233107 7.2815 -4.69468 32 1 
785.333 1.20238 7.28541 0.0140857 -0.024019 7.28546 -4.72793 32 1 
786.667 1.20234 7.28754 0.0132008 -0.0253687 7.2876 -4.80071 32 1 
788 1.20234 7.29155 0.012354 -0.0266311 7.29161 -4.80835 32 1 
789.333 1.20234 7.3018 0.0126748 -0.0265365 7.30186 -4.79581 32 1 
790.667 1.20238 7.30732 0.0136303 -0.0256862 7.30738 -4.73019 32 1 
792 1.20231 7.31517 0.0133052 -0.0263738 7.31523 -4.85119 32 1 
793.333 1.20228 7.32113 0.0120267 -0.0280284 7.3212 -4.91609 32 1 
794.667 1.20231 7.32846 0.011018 -0.0296422 7.32853 -4.86235 32 1 
796 1.20231 7.33706 0.0112065 -0.0305919 7.33713 -4.85586 32 1 
797.333 1.20229 7.34061 0.0113784 -0.0315244 7.34069 -4.88718 32 1 
798.667 1.20227 7.34283 0.00995263 -0.0334163 7.34291 -4.92599 32 1 
800 1.20226 7.34478 0.00924177 -0.0340498 7.34486 -4.94698 32 1 
