146.715;r ;Density                 ;Velocity u              ;Velocity v              ;Velocity w              ;|Velocity|              ;Pressure                ;Distribution            ;Levels                  ;
0 1.24869 9.99936 8.28541e-06 -0.000457057 9.99936 78.9066 1 1 
2 1.24868 9.99882 -5.8939e-05 -0.000684037 9.99882 78.9038 1 1 
4 1.24869 9.99749 -0.000206092 -0.000549311 9.99749 78.9134 1 1 
6 1.2487 9.99613 -0.000331877 -0.000533555 9.99613 78.9354 1 1 
8 1.24871 9.99495 -0.000450322 -0.000477314 9.99495 78.9547 1 1 
10 1.24872 9.99357 -0.00056824 -0.000644673 9.99357 78.9658 1 1 
12 1.24872 9.99202 -0.000720423 -0.000766246 9.99202 78.977 1 1 
14 1.24874 9.99058 -0.000891596 -0.000878966 9.99058 78.9988 1 1 
16 1.24874 9.98943 -0.00102438 -0.00123986 9.98943 79.0107 1 1 
18 1.24875 9.98835 -0.00111977 -0.00137527 9.98835 79.0225 1 1 
20 1.24876 9.98697 -0.00124239 -0.000993486 9.98697 79.0499 1 1 
22 1.24877 9.98559 -0.00137931 -0.00104466 9.98559 79.0609 1 1 
24 1.24877 9.98436 -0.00148587 -0.0013707 9.98436 79.0632 1 1 
26 1.24879 9.98295 -0.00160861 -0.00138805 9.98295 79.0872 1 1 
28 1.2488 9.9816 -0.00175793 -0.00152348 9.9816 79.1069 1 1 
30 1.2488 9.98018 -0.00191963 -0.00197457 9.98018 79.1118 1 1 
32 1.24881 9.97876 -0.002052 -0.00238401 9.97876 79.1263 1 1 
32 1.24881 9.97876 -0.002052 -0.00238401 9.97876 79.1263 1 1 
34 1.24882 9.97772 -0.00218696 -0.00222018 9.97772 79.1491 1 1 
36 1.24883 9.97659 -0.00230719 -0.00221845 9.97659 79.1619 1 1 
38 1.24883 9.97519 -0.00244708 -0.00276547 9.97519 79.1719 1 1 
40 1.24884 9.97361 -0.002564 -0.00314442 9.97361 79.1918 1 1 
42 1.24885 9.97217 -0.00268934 -0.00313145 9.97217 79.2039 1 1 
44 1.24885 9.97114 -0.00282739 -0.00323161 9.97114 79.2094 1 1 
46 1.24886 9.97011 -0.00295955 -0.00336991 9.97011 79.2297 1 1 
48 1.24888 9.9689 -0.00310367 -0.00349032 9.9689 79.2535 1 1 
50 1.24888 9.96751 -0.00324039 -0.00358739 9.96751 79.261 1 1 
52 1.24888 9.96595 -0.00337747 -0.00375668 9.96595 79.2663 1 1 
54 1.2489 9.9644 -0.00352934 -0.00408466 9.9644 79.2881 1 1 
56 1.2489 9.963 -0.0036733 -0.0043164 9.963 79.3012 1 1 
58 1.2489 9.96197 -0.00379409 -0.00438317 9.96197 79.3014 1 1 
60 1.24892 9.96079 -0.00391994 -0.00459982 9.96079 79.3268 1 1 
62 1.24893 9.95924 -0.00404913 -0.00465239 9.95924 79.3503 1 1 
64 1.24892 9.95818 -0.00419217 -0.00471108 9.95818 79.3393 1 1 
64 1.24892 9.95818 -0.00419217 -0.00471108 9.95818 79.3393 2 1 
66 1.24893 9.95694 -0.00434004 -0.00483926 9.95694 79.3561 2 1 
68 1.24895 9.95554 -0.00446988 -0.00491572 9.95554 79.3864 2 1 
70 1.24895 9.95422 -0.00461374 -0.00515095 9.95422 79.3893 2 1 
72 1.24895 9.95268 -0.00475974 -0.00541695 9.95268 79.3915 2 1 
74 1.24897 9.95128 -0.00490285 -0.00541912 9.95128 79.4127 2 1 
76 1.24898 9.94982 -0.0050469 -0.00554676 9.94983 79.4318 2 1 
78 1.24897 9.9488 -0.00518792 -0.00565248 9.9488 79.4228 2 1 
80 1.24898 9.94767 -0.00534384 -0.00581704 9.94767 79.4454 2 1 
82 1.249 9.94617 -0.00550632 -0.00626022 9.94617 79.4769 2 1 
84 1.249 9.94515 -0.00565672 -0.00624018 9.94515 79.4695 2 1 
86 1.249 9.94393 -0.0057971 -0.00640344 9.94393 79.4783 2 1 
88 1.24902 9.94194 -0.00594315 -0.00686491 9.94195 79.5073 2 1 
90 1.24902 9.94054 -0.00608731 -0.00689476 9.94055 79.5056 2 1 
92 1.24902 9.93945 -0.00624326 -0.00662212 9.93946 79.5046 2 1 
94 1.24904 9.93815 -0.00639918 -0.00651385 9.93815 79.5427 2 1 
96 1.24905 9.93711 -0.00655593 -0.00689978 9.93711 79.5574 2 1 
96 1.24905 9.93711 -0.00655593 -0.00689978 9.93711 79.5574 2 1 
98 1.24904 9.93565 -0.00671447 -0.0076552 9.93566 79.544 2 1 
100 1.24905 9.93387 -0.00687102 -0.00822321 9.93388 79.5638 2 1 
102 1.24906 9.93256 -0.00701766 -0.00840806 9.93257 79.5875 2 1 
104 1.24906 9.93139 -0.00716426 -0.00803469 9.9314 79.5881 2 1 
106 1.24907 9.92979 -0.00732404 -0.00756774 9.9298 79.5958 2 1 
108 1.24908 9.9284 -0.00748824 -0.00750261 9.9284 79.6158 2 1 
110 1.24909 9.92707 -0.00763365 -0.00808098 9.92707 79.6305 2 1 
112 1.24908 9.92578 -0.00780356 -0.00868801 9.92579 79.6267 2 1 
114 1.24909 9.9248 -0.00797506 -0.00898672 9.92481 79.6404 2 1 
116 1.24911 9.92311 -0.00811706 -0.0093364 9.92312 79.6737 2 1 
118 1.24911 9.92124 -0.00825465 -0.009207 9.92125 79.6675 2 1 
120 1.2491 9.9199 -0.00840724 -0.00898507 9.91991 79.6586 2 1 
122 1.24912 9.91806 -0.00858836 -0.00913084 9.91806 79.7004 2 1 
124 1.24913 9.91686 -0.00876924 -0.00922586 9.91687 79.7079 2 1 
126 1.24912 9.91638 -0.00894725 -0.0093044 9.91639 79.6908 2 1 
128 1.24914 9.91503 -0.00912099 -0.00966649 9.91504 79.727 2 1 
128 1.24914 9.91503 -0.00912099 -0.00966649 9.91504 79.727 10 1 
130 1.24916 9.91286 -0.00927227 -0.0100542 9.91287 79.762 10 1 
132 1.24914 9.91095 -0.00941168 -0.0102854 9.91096 79.7289 10 1 
134 1.24914 9.90944 -0.0095788 -0.010238 9.90945 79.7288 10 1 
136 1.24918 9.90756 -0.00976403 -0.0105268 9.90757 79.795 10 1 
138 1.24917 9.90672 -0.00993487 -0.0107288 9.90674 79.7808 10 1 
140 1.24916 9.90594 -0.0101237 -0.0107614 9.90595 79.7658 10 1 
142 1.2492 9.90337 -0.0103137 -0.0108429 9.90338 79.8333 10 1 
144 1.2492 9.90131 -0.0104784 -0.0109463 9.90132 79.8342 10 1 
146 1.24917 9.89992 -0.0106263 -0.0109486 9.89993 79.7863 10 1 
148 1.2492 9.8977 -0.0107708 -0.011178 9.89771 79.8417 10 1 
150 1.24923 9.89645 -0.0109683 -0.0115301 9.89646 79.8866 10 1 
152 1.24921 9.89556 -0.011158 -0.0117743 9.89557 79.8529 10 1 
154 1.24922 9.89377 -0.0113577 -0.0116994 9.89378 79.8742 10 1 
156 1.24925 9.89151 -0.0115475 -0.0116661 9.89152 79.9265 10 1 
158 1.24924 9.88915 -0.0117322 -0.0119928 9.88917 79.9131 10 1 
160 1.24923 9.88753 -0.0118841 -0.0121612 9.88754 79.8929 10 1 
160 1.24923 9.88753 -0.0118841 -0.0121612 9.88754 79.8929 10 1 
162 1.24927 9.88515 -0.0120389 -0.0122381 9.88516 79.9584 10 1 
164 1.24929 9.88288 -0.0121971 -0.0120422 9.88289 79.9938 10 1 
166 1.24926 9.88163 -0.012369 -0.0116574 9.88165 79.9403 10 1 
168 1.24928 9.87924 -0.0125707 -0.0122554 9.87926 79.9725 10 1 
170 1.24932 9.877 -0.0127585 -0.0130727 9.87701 80.0482 10 1 
172 1.2493 9.87565 -0.0129616 -0.0134268 9.87567 80.0223 10 1 
174 1.24931 9.87324 -0.0131386 -0.0134393 9.87326 80.0306 10 1 
176 1.24934 9.87036 -0.0133121 -0.0131135 9.87038 80.0969 10 1 
178 1.24934 9.86729 -0.0134844 -0.0130952 9.86731 80.0942 10 1 
180 1.24933 9.86464 -0.0136926 -0.0130671 9.86465 80.0676 10 1 
182 1.24936 9.86251 -0.0138613 -0.0137837 9.86253 80.1236 10 1 
184 1.2494 9.85912 -0.0140563 -0.0142528 9.85914 80.206 10 1 
186 1.24938 9.85688 -0.0142475 -0.0140257 9.85691 80.1625 10 1 
188 1.24938 9.85538 -0.0144669 -0.0141261 9.8554 80.1633 10 1 
190 1.24946 9.85144 -0.014638 -0.0141648 9.85146 80.2971 10 1 
192 1.24945 9.84744 -0.014822 -0.0134898 9.84746 80.2804 10 1 
194 1.24942 9.84428 -0.0150212 -0.0135405 9.8443 80.2248 10 1 
196 1.24948 9.84033 -0.0153066 -0.0146406 9.84035 80.3486 10 1 
198 1.24952 9.83683 -0.0155634 -0.0160337 9.83685 80.4207 10 1 
200 1.24949 9.8339 -0.0157395 -0.01585 9.83393 80.3592 10 1 
202 1.24952 9.82895 -0.0159193 -0.0144702 9.82898 80.4132 10 1 
204 1.24959 9.82363 -0.0160788 -0.0141985 9.82365 80.5446 10 1 
206 1.24957 9.82119 -0.0162892 -0.0137538 9.82121 80.5097 10 1 
208 1.24959 9.8177 -0.0164717 -0.0131352 9.81772 80.538 10 1 
210 1.24969 9.81015 -0.0167494 -0.0144545 9.81018 80.7194 10 1 
212 1.24967 9.80293 -0.0170277 -0.0159981 9.80295 80.6877 10 1 
214 1.24964 9.79719 -0.0172708 -0.0162013 9.79722 80.6359 10 1 
216 1.24975 9.79272 -0.0174758 -0.0158274 9.79275 80.8245 10 1 
218 1.24983 9.78836 -0.0176692 -0.0138234 9.78839 80.9725 10 1 
220 1.24981 9.78173 -0.0178201 -0.0122734 9.78175 80.9298 10 1 
222 1.24983 9.7728 -0.0181167 -0.013774 9.77283 80.97 10 1 
224 1.24995 9.76137 -0.0184393 -0.0149897 9.7614 81.193 10 1 
224 1.24995 9.76137 -0.0184393 -0.0149897 9.7614 81.193 10 1 
226 1.24996 9.75276 -0.018688 -0.0137734 9.75278 81.2032 10 1 
228 1.24995 9.74698 -0.0188527 -0.0126972 9.747 81.1852 10 1 
230 1.25012 9.73726 -0.0189921 -0.0113496 9.73728 81.4972 10 1 
232 1.25019 9.72664 -0.0192939 -0.0121679 9.72667 81.6252 10 1 
234 1.25015 9.7157 -0.0196811 -0.0123861 9.71573 81.555 10 1 
236 1.25028 9.70109 -0.0199567 -0.0106083 9.70112 81.782 10 1 
238 1.25042 9.68707 -0.0201206 -0.00987804 9.68709 82.0474 10 1 
240 1.25044 9.67397 -0.0203074 -0.00735061 9.674 82.0814 10 1 
242 1.25051 9.65884 -0.0206057 -0.00505949 9.65887 82.2073 10 1 
244 1.25072 9.64057 -0.0209326 -0.0051707 9.6406 82.5864 10 1 
246 1.25082 9.62054 -0.0212077 -0.00355083 9.62057 82.7704 10 1 
248 1.25084 9.60193 -0.0214302 -0.000634331 9.60196 82.8021 10 1 
250 1.25109 9.57836 -0.0216634 0.00332998 9.57839 83.2569 10 1 
252 1.25131 9.55018 -0.0220339 0.0074718 9.55021 83.6412 10 1 
254 1.25132 9.52447 -0.0223304 0.0124012 9.5245 83.6741 10 1 
256 1.25157 9.49571 -0.0226097 0.0165951 9.49576 84.1148 10 1 
256 1.25157 9.49571 -0.0226097 0.0165951 9.49576 84.1148 11 1 
258 1.25195 9.45843 -0.0228429 0.0222933 9.45849 84.8108 11 1 
260 1.25204 9.42031 -0.0231311 0.0314416 9.4204 84.9666 11 1 
262 1.25219 9.38128 -0.0234444 0.0429641 9.38142 85.2341 11 1 
264 1.25278 9.32954 -0.0236627 0.0561719 9.32976 86.2936 11 1 
266 1.25307 9.2759 -0.0239571 0.0719438 9.27623 86.8321 11 1 
268 1.25315 9.22256 -0.02423 0.0954524 9.22312 86.967 11 1 
270 1.25382 9.15008 -0.0244721 0.119702 9.15095 88.1767 11 1 
272 1.25442 9.06914 -0.0247353 0.144454 9.07038 89.2649 11 1 
274 1.25452 8.99565 -0.024958 0.186883 8.9977 89.4536 11 1 
276 1.25509 8.91841 -0.0252185 0.252134 8.92211 90.4817 11 1 
278 1.25614 8.82203 -0.0254362 0.314389 8.82782 92.3652 11 1 
280 1.25649 8.71417 -0.0255673 0.379367 8.72269 93.0064 11 1 
282 1.25644 8.61613 -0.0256928 0.46482 8.62893 92.9122 11 1 
284 1.25741 8.52536 -0.0258826 0.581132 8.54561 94.6636 11 1 
286 1.25843 8.43011 -0.0260049 0.711504 8.46051 96.513 11 1 
288 1.25811 8.34125 -0.0260223 0.822962 8.38215 95.9357 11 1 
288 1.25811 8.34125 -0.0260223 0.822962 8.38215 95.9357 11 1 
290 1.25818 8.25828 -0.0260538 0.950565 8.31342 96.0534 11 1 
292 1.25931 8.18954 -0.0261071 1.10448 8.26437 98.0888 11 1 
294 1.25964 8.1019 -0.0261079 1.21777 8.19346 98.6898 11 1 
296 1.2582 7.65047 -0.0258779 0.991429 7.72484 96.095 11 1 
298 1.25448 6.65352 -0.0255726 0.217297 6.69654 89.3722 11 1 
300 1.2495 5.55885 -0.0253773 -0.728827 5.65228 80.3827 11 1 
302 1.24594 4.80928 -0.0251906 -1.36945 5.01927 73.9557 11 1 
304 1.24435 4.4809 -0.0249287 -1.57973 4.75297 71.0759 11 1 
306 1.24369 4.40325 -0.0246247 -1.51001 4.65614 69.8804 11 1 
308 1.2437 4.3752 -0.0242332 -1.3566 4.58178 69.9062 11 1 
310 1.24418 4.33143 -0.0237157 -1.20423 4.49653 70.776 11 1 
312 1.24426 4.26709 -0.0232528 -1.0442 4.39402 70.9198 11 1 
314 1.24415 4.18501 -0.0228501 -0.881297 4.27761 70.7103 11 1 
316 1.24466 4.09349 -0.0224248 -0.758566 4.1636 71.6429 11 1 
318 1.24512 4.00152 -0.0220654 -0.639137 4.05298 72.4641 11 1 
320 1.2451 3.89235 -0.0216963 -0.516727 3.92702 72.427 11 1 
320 1.2451 3.89235 -0.0216963 -0.516727 3.92702 72.427 15 1 
322 1.24538 3.76348 -0.0211908 -0.426762 3.78805 72.9375 15 1 
324 1.24588 3.64269 -0.0207021 -0.348543 3.65969 73.8438 15 1 
326 1.24605 3.52812 -0.0202995 -0.281496 3.53966 74.1429 15 1 
328 1.24615 3.40957 -0.0198239 -0.23164 3.41778 74.3309 15 1 
330 1.2465 3.29875 -0.0193259 -0.190808 3.30455 74.9585 15 1 
332 1.24678 3.19713 -0.0189009 -0.156157 3.20117 75.4679 15 1 
334 1.24684 3.09389 -0.0184814 -0.129783 3.09686 75.5808 15 1 
336 1.24699 2.99488 -0.0179956 -0.109755 2.99713 75.8518 15 1 
338 1.24727 2.90813 -0.017501 -0.0913307 2.90977 76.3575 15 1 
340 1.24741 2.82319 -0.0170668 -0.076429 2.82442 76.6109 15 1 
342 1.24746 2.73446 -0.0166518 -0.0674336 2.7355 76.6956 15 1 
344 1.24762 2.65177 -0.0162017 -0.0583237 2.65259 76.9752 15 1 
346 1.2478 2.57857 -0.0157517 -0.0480724 2.5792 77.3082 15 1 
348 1.24788 2.50555 -0.0153399 -0.0423892 2.50609 77.454 15 1 
350 1.24794 2.4291 -0.0149209 -0.0393618 2.42959 77.5557 15 1 
352 1.24807 2.35735 -0.0144865 -0.0337265 2.35775 77.7895 15 1 
354 1.24819 2.29273 -0.0140663 -0.0277062 2.29305 78.0042 15 1 
356 1.24823 2.22762 -0.0136395 -0.0247304 2.22793 78.0861 15 1 
358 1.2483 2.16105 -0.0131871 -0.0224565 2.16132 78.2077 15 1 
360 1.24841 2.09817 -0.0127316 -0.0179478 2.09838 78.4048 15 1 
362 1.24847 2.03806 -0.0122853 -0.0136142 2.03826 78.5207 15 1 
364 1.24851 1.97763 -0.0118162 -0.0111651 1.97782 78.5826 15 1 
366 1.24858 1.91844 -0.0113343 -0.00804532 1.9186 78.7135 15 1 
368 1.24866 1.86152 -0.010858 -0.00357514 1.86167 78.8593 15 1 
370 1.2487 1.80444 -0.0103608 -0.000150713 1.8046 78.9249 15 1 
372 1.24873 1.74742 -0.00983779 0.00247273 1.74757 78.9856 15 1 
374 1.2488 1.69304 -0.00931613 0.00629434 1.69319 79.1075 15 1 
376 1.24885 1.6399 -0.0087895 0.0106464 1.64009 79.2019 15 1 
378 1.24887 1.58582 -0.00824099 0.0138686 1.58605 79.2452 15 1 
380 1.24891 1.53257 -0.00768972 0.0169044 1.53283 79.3176 15 1 
382 1.24897 1.48169 -0.00714262 0.0210432 1.482 79.4135 15 1 
384 1.249 1.43149 -0.00658934 0.0253021 1.43188 79.4721 15 1 
384 1.249 1.43149 -0.00658934 0.0253021 1.43188 79.4721 16 1 
386 1.24902 1.38104 -0.00603644 0.0288016 1.38152 79.5113 16 1 
388 1.24906 1.3321 -0.00551401 0.0325107 1.33267 79.5836 16 1 
390 1.2491 1.28502 -0.00499889 0.0368933 1.28574 79.6599 16 1 
392 1.24912 1.23819 -0.00447858 0.0410674 1.23908 79.6973 16 1 
394 1.24915 1.19206 -0.00398496 0.0448714 1.19312 79.7387 16 1 
396 1.24918 1.14797 -0.00351047 0.0487765 1.14923 79.8085 16 1 
398 1.24921 1.10504 -0.00303044 0.0526765 1.10654 79.8625 16 1 
400 1.24923 1.06251 -0.00254584 0.0563534 1.06427 79.894 16 1 
402 1.24926 1.02146 -0.00207775 0.0600326 1.0235 79.9415 16 1 
404 1.24929 0.982034 -0.00162964 0.0638075 0.984403 80.0009 16 1 
406 1.24931 0.942916 -0.00118831 0.067496 0.945665 80.0383 16 1 
408 1.24933 0.904333 -0.000748831 0.0713783 0.90752 80.0704 16 1 
410 1.24936 0.867136 -0.000302278 0.0757489 0.870854 80.1235 16 1 
412 1.24939 0.830217 0.000203619 0.0799928 0.834541 80.1713 16 1 
414 1.2494 0.792743 0.000820433 0.0837056 0.797701 80.2016 16 1 
416 1.24942 0.755734 0.00152428 0.0875216 0.761407 80.2401 16 1 
416 1.24942 0.755734 0.00152428 0.0875216 0.761407 80.2401 16 1 
418 1.24945 0.719428 0.00228324 0.0915132 0.725942 80.2896 16 1 
420 1.24947 0.682419 0.00315597 0.0948748 0.68983 80.3302 16 1 
422 1.24949 0.644416 0.00411399 0.0974868 0.652726 80.3608 16 1 
424 1.24951 0.60694 0.00501147 0.100081 0.616246 80.4 16 1 
426 1.24954 0.570129 0.005797 0.102581 0.580583 80.4449 16 1 
428 1.24956 0.532819 0.0064407 0.104354 0.544481 80.4783 16 1 
430 1.24957 0.495877 0.00678942 0.105751 0.508798 80.51 16 1 
432 1.2496 0.46091 0.00677463 0.10722 0.475234 80.5514 16 1 
434 1.24962 0.427597 0.00647269 0.108122 0.443389 80.5906 16 1 
436 1.24964 0.395709 0.00588191 0.108069 0.412873 80.6225 16 1 
438 1.24966 0.366744 0.00497731 0.107581 0.385144 80.659 16 1 
440 1.24968 0.341549 0.00381408 0.106639 0.360987 80.7029 16 1 
442 1.2497 0.319525 0.00241226 0.10461 0.339605 80.742 16 1 
444 1.24972 0.301115 0.000700957 0.101757 0.32136 80.778 16 1 
446 1.24975 0.287439 -0.00129426 0.0988926 0.307485 80.8217 16 1 
448 1.24977 0.278195 -0.00351738 0.095743 0.297621 80.8667 16 1 
448 1.24977 0.278195 -0.00351738 0.095743 0.297621 80.8667 17 1 
450 1.24979 0.272828 -0.00600028 0.0918648 0.291126 80.9084 17 1 
452 1.24982 0.271817 -0.00872615 0.0879079 0.288668 80.9525 17 1 
454 1.24984 0.275402 -0.011597 0.0843647 0.290716 80.9998 17 1 
456 1.24987 0.282896 -0.0145758 0.0807234 0.296585 81.0469 17 1 
458 1.2499 0.293801 -0.0176543 0.076832 0.305834 81.0927 17 1 
460 1.24992 0.308394 -0.0207953 0.0733317 0.318951 81.1405 17 1 
462 1.24995 0.326536 -0.0239527 0.0703223 0.335864 81.1906 17 1 
464 1.24998 0.347409 -0.0270855 0.0672561 0.355657 81.2383 17 1 
466 1.25 0.370735 -0.0301837 0.064247 0.378058 81.2849 17 1 
468 1.25003 0.396663 -0.033236 0.0617837 0.403278 81.3336 17 1 
470 1.25006 0.424869 -0.0362278 0.0596503 0.43093 81.382 17 1 
472 1.25008 0.454793 -0.03915 0.0574748 0.460379 81.4276 17 1 
474 1.25011 0.486321 -0.041991 0.055517 0.491525 81.4721 17 1 
476 1.25013 0.5195 -0.0447409 0.0540279 0.524425 81.5173 17 1 
478 1.25015 0.553961 -0.0474121 0.0526822 0.558658 81.5606 17 1 
480 1.25018 0.589407 -0.0499769 0.0513158 0.593903 81.6008 17 1 
480 1.25018 0.589407 -0.0499769 0.0513158 0.593903 81.6008 17 1 
482 1.2502 0.625893 -0.052453 0.0501894 0.63023 81.6409 17 1 
484 1.25022 0.663298 -0.0548484 0.049335 0.667514 81.6791 17 1 
486 1.25024 0.701377 -0.0571505 0.0485236 0.705488 81.7143 17 1 
488 1.25026 0.739998 -0.0593633 0.0477445 0.744015 81.7485 17 1 
490 1.25028 0.779109 -0.0614715 0.0471112 0.783047 81.7804 17 1 
492 1.25029 0.818705 -0.0634904 0.0465875 0.822574 81.8096 17 1 
494 1.25031 0.858672 -0.0654467 0.0460741 0.862478 81.837 17 1 
496 1.25032 0.898825 -0.0673275 0.0455776 0.902573 81.8623 17 1 
498 1.25033 0.939114 -0.0691095 0.0451786 0.94281 81.885 17 1 
500 1.25035 0.979569 -0.0708 0.0448186 0.983216 81.9051 17 1 
502 1.25036 1.02017 -0.0724329 0.0444118 1.02377 81.9233 17 1 
504 1.25036 1.06078 -0.074011 0.0440152 1.06433 81.9395 17 1 
506 1.25037 1.10131 -0.0755168 0.0436782 1.10482 81.9528 17 1 
508 1.25038 1.14179 -0.0769419 0.0433613 1.14525 81.9636 17 1 
510 1.25038 1.18221 -0.078307 0.0430059 1.18564 81.9726 17 1 
512 1.25039 1.22253 -0.0796205 0.0426421 1.22591 81.9798 17 1 
512 1.25039 1.22253 -0.0796205 0.0426421 1.22591 81.9798 25 1 
514 1.25039 1.26268 -0.0808846 0.0423045 1.26603 81.9844 25 1 
516 1.25039 1.30267 -0.0820942 0.041979 1.30598 81.9864 25 1 
518 1.25039 1.34248 -0.0832493 0.0416586 1.34575 81.9872 25 1 
520 1.25039 1.38206 -0.0843511 0.0413507 1.38529 81.9859 25 1 
522 1.25039 1.42143 -0.0854087 0.0410332 1.42462 81.982 25 1 
524 1.25039 1.46062 -0.0864351 0.0407243 1.46378 81.9769 25 1 
526 1.25038 1.49958 -0.0874154 0.0404648 1.50271 81.9702 25 1 
528 1.25038 1.53825 -0.0883627 0.0402314 1.54134 81.9613 25 1 
530 1.25037 1.57665 -0.0892733 0.0400127 1.57972 81.9507 25 1 
532 1.25036 1.61483 -0.0901465 0.0398081 1.61787 81.9387 25 1 
534 1.25036 1.6528 -0.0909871 0.0396417 1.65581 81.9255 25 1 
536 1.25035 1.69049 -0.0918155 0.039524 1.69348 81.9109 25 1 
538 1.25034 1.72785 -0.0926143 0.0394616 1.73081 81.8945 25 1 
540 1.25033 1.76492 -0.093366 0.0394483 1.76786 81.8769 25 1 
542 1.25032 1.80178 -0.0940976 0.0394675 1.8047 81.8585 25 1 
544 1.25031 1.83838 -0.0948125 0.039544 1.84127 81.8389 25 1 
544 1.25031 1.83838 -0.0948125 0.039544 1.84127 81.8389 25 1 
546 1.2503 1.87465 -0.0955257 0.0396897 1.87752 81.8179 25 1 
548 1.25029 1.91059 -0.0962131 0.039919 1.91346 81.7961 25 1 
550 1.25027 1.94627 -0.0968886 0.040214 1.94912 81.7735 25 1 
552 1.25026 1.98169 -0.0975609 0.0405766 1.98453 81.7495 25 1 
554 1.25025 2.01686 -0.0982397 0.0409998 2.01969 81.725 25 1 
556 1.25023 2.05172 -0.0989416 0.0414937 2.05454 81.7001 25 1 
558 1.25022 2.08629 -0.0996442 0.0421052 2.08912 81.6737 25 1 
560 1.2502 2.12063 -0.100362 0.0427919 2.12345 81.6467 25 1 
562 1.25019 2.15474 -0.101093 0.0435399 2.15757 81.6196 25 1 
564 1.25017 2.18862 -0.101858 0.0443529 2.19146 81.5916 25 1 
566 1.25016 2.22228 -0.102654 0.0452606 2.22513 81.5629 25 1 
568 1.25014 2.2557 -0.103475 0.0462666 2.25857 81.5341 25 1 
570 1.25012 2.28892 -0.104324 0.0473434 2.2918 81.5047 25 1 
572 1.25011 2.32198 -0.105198 0.0484865 2.32488 81.4746 25 1 
574 1.25009 2.35487 -0.106112 0.0496758 2.3578 81.4447 25 1 
576 1.25007 2.38758 -0.10707 0.0509542 2.39054 81.4148 25 1 
576 1.25007 2.38758 -0.10707 0.0509542 2.39054 81.4148 26 1 
578 1.25006 2.42013 -0.108064 0.0523102 2.42312 81.3841 26 1 
580 1.25004 2.45254 -0.109085 0.0537232 2.45557 81.3534 26 1 
582 1.25002 2.48482 -0.110134 0.0551819 2.48788 81.3231 26 1 
584 1.25001 2.51698 -0.111239 0.0566756 2.52009 81.2925 26 1 
586 1.24999 2.54905 -0.112366 0.0582301 2.5522 81.262 26 1 
588 1.24997 2.58099 -0.113542 0.0598297 2.58419 81.2318 26 1 
590 1.24996 2.61281 -0.114741 0.061482 2.61606 81.2018 26 1 
592 1.24994 2.64457 -0.11597 0.063134 2.64788 81.1717 26 1 
594 1.24992 2.67625 -0.117234 0.0648085 2.67962 81.1421 26 1 
596 1.24991 2.70785 -0.118525 0.066513 2.71127 81.1132 26 1 
598 1.24989 2.73939 -0.119854 0.0682228 2.74287 81.0844 26 1 
600 1.24988 2.77084 -0.121188 0.0699625 2.77439 81.0558 26 1 
602 1.24986 2.80221 -0.12255 0.0716765 2.80582 81.0279 26 1 
604 1.24984 2.83356 -0.12393 0.0733769 2.83723 81.0003 26 1 
606 1.24983 2.86486 -0.125327 0.0750678 2.8686 80.9732 26 1 
608 1.24981 2.89609 -0.126744 0.0767634 2.89989 80.9468 26 1 
608 1.24981 2.89609 -0.126744 0.0767634 2.89989 80.9468 26 1 
610 1.2498 2.92725 -0.128161 0.0784214 2.93111 80.9206 26 1 
612 1.24979 2.95835 -0.129582 0.080053 2.96228 80.8948 26 1 
614 1.24977 2.98941 -0.131002 0.0816633 2.9934 80.8696 26 1 
616 1.24976 3.02045 -0.132443 0.0832041 3.0245 80.8448 26 1 
618 1.24974 3.05139 -0.133869 0.0847355 3.05551 80.8204 26 1 
620 1.24973 3.08225 -0.13529 0.0862388 3.08644 80.7963 26 1 
622 1.24972 3.11307 -0.136706 0.0876905 3.11732 80.7722 26 1 
624 1.24971 3.14385 -0.1381 0.0890702 3.14815 80.7489 26 1 
626 1.24969 3.17452 -0.139483 0.0904226 3.17888 80.7262 26 1 
628 1.24968 3.20516 -0.140864 0.0917377 3.20957 80.7029 26 1 
630 1.24967 3.23569 -0.142201 0.0929897 3.24016 80.6802 26 1 
632 1.24966 3.26609 -0.143514 0.0942245 3.27061 80.6585 26 1 
634 1.24964 3.29646 -0.144816 0.0953826 3.30103 80.6358 26 1 
636 1.24963 3.32677 -0.146068 0.0964857 3.33138 80.6134 26 1 
638 1.24962 3.35689 -0.147296 0.0975712 3.36155 80.5928 26 1 
640 1.24961 3.38692 -0.148516 0.0986303 3.39162 80.5709 26 1 
642 1.24959 3.41688 -0.149648 0.0996344 3.42162 80.5481 26 1 
644 1.24958 3.44664 -0.150773 0.100588 3.45142 80.5278 26 1 
646 1.24957 3.47633 -0.151881 0.10153 3.48114 80.5072 26 1 
648 1.24956 3.50591 -0.15289 0.102435 3.51075 80.4845 26 1 
650 1.24955 3.53524 -0.153923 0.103326 3.54011 80.4642 26 1 
652 1.24954 3.56444 -0.154856 0.104203 3.56934 80.4443 26 1 
654 1.24952 3.59354 -0.15578 0.105065 3.59846 80.4222 26 1 
656 1.24951 3.62244 -0.156616 0.105896 3.62739 80.4016 26 1 
658 1.2495 3.65116 -0.157489 0.10674 3.65613 80.3825 26 1 
660 1.24949 3.67968 -0.15822 0.107621 3.68467 80.3619 26 1 
662 1.24948 3.70804 -0.158979 0.108476 3.71305 80.3402 26 1 
664 1.24947 3.73617 -0.15966 0.109363 3.74119 80.3215 26 1 
666 1.24946 3.76413 -0.160295 0.110274 3.76917 80.3024 26 1 
668 1.24945 3.79189 -0.16089 0.111202 3.79695 80.2813 26 1 
670 1.24944 3.81941 -0.161471 0.112193 3.82449 80.2618 26 1 
672 1.24943 3.84667 -0.161959 0.113236 3.85177 80.2442 26 1 
672 1.24943 3.84667 -0.161959 0.113236 3.85177 80.2442 27 1 
674 1.24941 3.87378 -0.162428 0.114299 3.87889 80.2237 27 1 
676 1.2494 3.90069 -0.162888 0.115439 3.90581 80.2034 27 1 
678 1.24939 3.92728 -0.163245 0.116632 3.93242 80.1869 27 1 
680 1.24938 3.95372 -0.163639 0.1179 3.95888 80.1677 27 1 
682 1.24937 3.97984 -0.163945 0.11928 3.98502 80.1475 27 1 
684 1.24936 4.0058 -0.16423 0.120693 4.011 80.1293 27 1 
686 1.24935 4.0315 -0.164492 0.122198 4.03673 80.1123 27 1 
688 1.24934 4.05696 -0.16473 0.123827 4.06222 80.0926 27 1 
690 1.24933 4.08217 -0.164917 0.125523 4.08745 80.0728 27 1 
692 1.24932 4.10717 -0.165102 0.12733 4.11248 80.0558 27 1 
694 1.24931 4.13184 -0.165253 0.129266 4.13719 80.0381 27 1 
696 1.2493 4.1564 -0.165377 0.131281 4.16179 80.0165 27 1 
698 1.24929 4.18072 -0.165496 0.133398 4.18615 79.9979 27 1 
700 1.24928 4.20464 -0.165584 0.135642 4.21011 79.9827 27 1 
702 1.24927 4.22843 -0.165698 0.138059 4.23396 79.9603 27 1 
704 1.24926 4.25202 -0.165697 0.140516 4.2576 79.9382 27 1 
704 1.24926 4.25202 -0.165697 0.140516 4.2576 79.9382 31 1 
706 1.24925 4.27528 -0.165828 0.143079 4.28092 79.9237 31 1 
708 1.24924 4.29833 -0.1658 0.145844 4.30403 79.9033 31 1 
710 1.24922 4.32124 -0.165907 0.148673 4.32701 79.8777 31 1 
712 1.24921 4.34383 -0.16591 0.151632 4.34968 79.8609 31 1 
714 1.2492 4.36605 -0.165949 0.15471 4.37198 79.8446 31 1 
716 1.24919 4.38822 -0.166001 0.157904 4.39424 79.8163 31 1 
718 1.24918 4.41016 -0.165945 0.161173 4.41626 79.7939 31 1 
720 1.24917 4.43169 -0.166046 0.164536 4.43789 79.7814 31 1 
722 1.24916 4.4531 -0.166093 0.16812 4.4594 79.7554 31 1 
724 1.24914 4.47443 -0.166017 0.171731 4.48084 79.7257 31 1 
726 1.24913 4.49528 -0.166202 0.175424 4.50181 79.7132 31 1 
728 1.24912 4.51576 -0.166139 0.179219 4.52241 79.6935 31 1 
730 1.2491 4.53639 -0.166184 0.18307 4.54316 79.657 31 1 
732 1.24909 4.55667 -0.166322 0.187064 4.56358 79.6398 31 1 
734 1.24909 4.57645 -0.166285 0.191045 4.58349 79.6289 31 1 
736 1.24907 4.59634 -0.166428 0.195226 4.60353 79.5925 31 1 
738 1.24905 4.61612 -0.166497 0.199451 4.62346 79.5636 31 1 
740 1.24905 4.63501 -0.166578 0.203516 4.6425 79.5588 31 1 
742 1.24903 4.65401 -0.166638 0.207953 4.66167 79.5291 31 1 
744 1.24901 4.67324 -0.166826 0.212168 4.68106 79.488 31 1 
746 1.249 4.6919 -0.166964 0.216478 4.69989 79.4813 31 1 
748 1.249 4.70996 -0.166992 0.221031 4.71814 79.4683 31 1 
750 1.24897 4.72861 -0.167232 0.225506 4.73697 79.4164 31 1 
752 1.24896 4.747 -0.167334 0.229765 4.75553 79.3947 31 1 
752 1.24896 4.747 -0.167334 0.229765 4.75553 79.3947 31 1 
754 1.24896 4.76387 -0.167755 0.234215 4.7726 79.4039 31 1 
756 1.24893 4.78243 -0.167646 0.238977 4.79137 79.3462 31 1 
758 1.24891 4.8006 -0.168138 0.243251 4.80973 79.3068 31 1 
760 1.24892 4.81706 -0.168169 0.247826 4.82639 79.327 31 1 
762 1.24889 4.83488 -0.168549 0.252522 4.84444 79.2787 31 1 
764 1.24886 4.85333 -0.169067 0.256891 4.8631 79.2137 31 1 
766 1.24887 4.86953 -0.169239 0.261658 4.87952 79.2343 31 1 
768 1.24885 4.88751 -0.169388 0.26643 4.89773 79.2014 31 1 
770 1.24881 4.90585 -0.170543 0.270659 4.9163 79.1228 31 1 
772 1.2488 4.92305 -0.170937 0.275387 4.93373 79.1159 31 1 
774 1.2488 4.94075 -0.171209 0.280413 4.95169 79.106 31 1 
776 1.24875 4.96021 -0.172617 0.285135 4.97143 79.0166 31 1 
778 1.24872 4.9801 -0.173573 0.290375 4.99161 78.9662 31 1 
780 1.24873 4.99823 -0.174663 0.295628 5.01005 78.9809 31 1 
782 1.24868 5.01908 -0.176503 0.300004 5.03116 78.8893 31 1 
784 1.24862 5.03923 -0.179879 0.305277 5.05171 78.7896 31 1 
786 1.2486 5.06284 -0.182989 0.310739 5.0757 78.7482 31 1 
788 1.24859 5.08609 -0.185579 0.316934 5.09938 78.7278 31 1 
790 1.24851 5.11209 -0.191637 0.322361 5.12587 78.5824 31 1 
792 1.24846 5.13467 -0.204435 0.325921 5.14911 78.499 31 1 
794 1.24844 5.15922 -0.211171 0.330044 5.17411 78.4551 31 1 
796 1.24837 5.18816 -0.237568 0.331981 5.20431 78.3351 31 1 
798 1.24838 5.20644 -0.273095 0.330476 5.22413 78.3569 31 1 
800 1.2484 5.21489 -0.282082 0.329037 5.23292 78.3888 31 1 
