13.5847;r ;Density                 ;Velocity u              ;Velocity v              ;Velocity w              ;|Velocity|              ;Pressure                ;Distribution            ;Levels                  ;
0 1.20355 10.0013 -6.55662e-05 -0.000332794 10.0013 -2.62144 1 1 
2 1.20353 10.002 -0.000116552 -0.000119235 10.002 -2.66105 1 1 
4 1.20353 10.0013 -0.000192958 -0.000608496 10.0013 -2.65979 1 1 
6 1.20356 9.99927 -0.000192469 -0.00120293 9.99927 -2.60325 1 1 
8 1.20354 9.99873 -0.000158436 -0.00121595 9.99873 -2.63724 1 1 
10 1.2035 9.99926 -0.000115815 -0.000672049 9.99926 -2.70077 1 1 
12 1.2035 9.99979 -3.74587e-06 8.08953e-05 9.99979 -2.70056 1 1 
14 1.20353 9.99947 0.000109244 0.000622282 9.99947 -2.65094 1 1 
16 1.20355 9.99937 7.43346e-05 0.000327752 9.99937 -2.61075 1 1 
18 1.20354 10.0002 5.68916e-06 -0.000415154 10.0002 -2.62999 1 1 
20 1.20353 10.0003 2.63974e-05 -0.000932839 10.0003 -2.65531 1 1 
22 1.20354 9.99902 0.000104122 -0.0016379 9.99902 -2.62847 1 1 
24 1.20357 9.99826 0.000381656 -0.00191959 9.99826 -2.59193 1 1 
26 1.20358 9.99829 0.000958676 -0.000845384 9.99829 -2.57212 1 1 
28 1.20359 9.99822 0.00148147 0.000636922 9.99822 -2.54941 1 1 
30 1.20358 9.99849 0.00156034 0.00146371 9.99849 -2.56216 1 1 
32 1.20356 9.99924 0.00117104 0.0018013 9.99924 -2.59955 1 1 
32 1.20356 9.99924 0.00117104 0.0018013 9.99924 -2.59955 1 1 
34 1.20357 9.99949 0.000485994 0.00160121 9.99949 -2.59147 1 1 
36 1.20359 9.99861 -0.000300021 0.00130308 9.99861 -2.54147 1 1 
38 1.20361 9.99827 -0.000783008 0.000691556 9.99827 -2.51587 1 1 
40 1.20359 9.99847 -0.00049701 -0.000782582 9.99847 -2.53861 1 1 
42 1.20359 9.99771 0.000345039 -0.00207111 9.99772 -2.54511 1 1 
44 1.20362 9.99655 0.00117285 -0.00209665 9.99655 -2.49799 1 1 
46 1.20363 9.99646 0.00160958 -0.000695165 9.99646 -2.47235 1 1 
48 1.20361 9.99733 0.00169642 0.000840703 9.99733 -2.50685 1 1 
50 1.20359 9.99756 0.00171651 0.0014334 9.99756 -2.54155 1 1 
52 1.20359 9.99678 0.00172629 0.00168264 9.99678 -2.53998 1 1 
54 1.20362 9.99584 0.00169713 0.00172609 9.99584 -2.4963 1 1 
56 1.20363 9.99591 0.00166769 0.00149295 9.99591 -2.46595 1 1 
58 1.20363 9.99699 0.00163117 0.00144718 9.99699 -2.48086 1 1 
60 1.20363 9.99713 0.00159201 0.00138998 9.99713 -2.47517 1 1 
62 1.20364 9.99601 0.0015625 0.0014642 9.99601 -2.46371 1 1 
64 1.20362 9.99573 0.00153972 0.00170696 9.99573 -2.49072 1 1 
64 1.20362 9.99573 0.00153972 0.00170696 9.99573 -2.49072 2 1 
66 1.20362 9.99578 0.00156338 0.00138342 9.99578 -2.48944 2 1 
68 1.20363 9.99561 0.00158057 0.00116125 9.99561 -2.48041 2 1 
70 1.20361 9.99541 0.0015734 0.000943945 9.99541 -2.50402 2 1 
72 1.20361 9.9944 0.00154435 0.000850174 9.9944 -2.51276 2 1 
74 1.20361 9.9936 0.00149343 0.000786624 9.9936 -2.50751 2 1 
76 1.20362 9.99384 0.00146123 0.000706659 9.99384 -2.50131 2 1 
78 1.20361 9.99527 0.00142277 0.000632291 9.99527 -2.50174 2 1 
80 1.20365 9.99564 0.00138756 0.00096635 9.99564 -2.44277 2 1 
82 1.20369 9.99453 0.00134045 0.00109729 9.99453 -2.36503 2 1 
84 1.20368 9.99447 0.00130222 0.00110317 9.99447 -2.39046 2 1 
86 1.20364 9.99475 0.00129934 0.00068751 9.99475 -2.45515 2 1 
88 1.20364 9.99395 0.00128673 -3.09201e-05 9.99395 -2.4599 2 1 
90 1.20366 9.99338 0.00125937 -2.16472e-06 9.99338 -2.42011 2 1 
92 1.20368 9.99352 0.00122655 0.000820466 9.99352 -2.37952 2 1 
94 1.2037 9.9939 0.00118034 0.000948116 9.9939 -2.34984 2 1 
96 1.20371 9.99502 0.00115268 0.000540083 9.99502 -2.33011 2 1 
96 1.20371 9.99502 0.00115268 0.000540083 9.99502 -2.33011 2 1 
98 1.20375 9.99614 0.00112791 5.82662e-05 9.99614 -2.26504 2 1 
100 1.20382 9.99652 0.00112418 -0.000308564 9.99652 -2.14034 2 1 
102 1.20386 9.99656 0.00114022 -0.000176599 9.99656 -2.06765 2 1 
104 1.20384 9.99693 0.00118811 0.000425412 9.99693 -2.09897 2 1 
106 1.20383 9.99735 0.00122413 0.000938517 9.99735 -2.11611 2 1 
108 1.20388 9.99771 0.00116499 0.00112418 9.99771 -2.02952 2 1 
110 1.20395 9.99821 0.00112109 0.000809834 9.99821 -1.90288 2 1 
112 1.20397 9.99881 0.0010786 0.00034738 9.99881 -1.85888 2 1 
114 1.20397 9.99987 0.00109589 8.51546e-05 9.99987 -1.85866 2 1 
116 1.20401 10.0009 0.00114963 -3.09561e-05 10.0009 -1.78294 2 1 
118 1.20408 10.002 0.00118484 0.000513764 10.002 -1.66703 2 1 
120 1.20414 10.0033 0.0012328 0.000871503 10.0033 -1.54721 2 1 
122 1.20419 10.0035 0.00127137 0.000765695 10.0035 -1.45757 2 1 
124 1.20418 10.0036 0.00130068 0.000725427 10.0036 -1.47454 2 1 
126 1.20417 10.004 0.00129636 0.000957187 10.004 -1.49872 2 1 
128 1.20422 10.0045 0.00126597 0.00127369 10.0045 -1.40966 2 1 
128 1.20422 10.0045 0.00126597 0.00127369 10.0045 -1.40966 10 1 
130 1.20428 10.0051 0.00124885 0.00138165 10.0051 -1.30681 10 1 
132 1.20427 10.0055 0.0012527 0.00118252 10.0055 -1.31995 10 1 
134 1.20426 10.0051 0.00125515 0.00101229 10.0051 -1.33459 10 1 
136 1.2043 10.0041 0.00125593 0.00113267 10.0041 -1.25797 10 1 
138 1.20432 10.0047 0.00125766 0.00140186 10.0047 -1.23089 10 1 
140 1.20433 10.0063 0.00123909 0.00159731 10.0063 -1.21252 10 1 
142 1.20437 10.0061 0.00119307 0.00142465 10.0061 -1.13052 10 1 
144 1.20438 10.0055 0.00111046 0.00139473 10.0055 -1.12237 10 1 
146 1.20436 10.0053 0.00101591 0.00123091 10.0053 -1.15876 10 1 
148 1.2044 10.0049 0.000912115 0.00107875 10.0049 -1.07861 10 1 
150 1.20445 10.0059 0.000809839 0.000778482 10.0059 -1.00056 10 1 
152 1.20443 10.0069 0.00075482 0.000685722 10.0069 -1.02819 10 1 
154 1.20443 10.0057 0.000717336 0.000888874 10.0057 -1.02648 10 1 
156 1.20445 10.0042 0.000739797 0.0010053 10.0042 -0.993719 10 1 
158 1.20444 10.0039 0.000788079 0.000825252 10.0039 -1.00572 10 1 
160 1.20446 10.0052 0.000867052 0.000286147 10.0052 -0.976788 10 1 
160 1.20446 10.0052 0.000867052 0.000286147 10.0052 -0.976788 10 1 
162 1.20455 10.0058 0.000851182 1.70849e-05 10.0058 -0.817633 10 1 
164 1.20461 10.0057 0.000795868 -1.40427e-05 10.0057 -0.706841 10 1 
166 1.20459 10.0065 0.000641955 0.00052944 10.0065 -0.745787 10 1 
168 1.20461 10.0068 0.000441658 0.000168672 10.0068 -0.699734 10 1 
170 1.20471 10.0079 0.00025102 -0.000361424 10.0079 -0.523384 10 1 
172 1.2048 10.0112 0.000106254 -0.00100772 10.0112 -0.357196 10 1 
174 1.20493 10.0144 6.47695e-05 -0.00137035 10.0144 -0.122059 10 1 
176 1.20509 10.0168 7.71538e-05 -0.00125593 10.0168 0.154113 10 1 
178 1.20517 10.0186 0.00016839 -0.00161027 10.0186 0.314141 10 1 
180 1.20524 10.0209 0.000253448 -0.00161894 10.0209 0.432908 10 1 
182 1.20537 10.0237 0.000371254 -0.00206812 10.0237 0.667469 10 1 
184 1.20553 10.0249 0.000425718 -0.00202276 10.0249 0.96208 10 1 
186 1.20561 10.0274 0.00049634 -0.00142475 10.0274 1.10374 10 1 
188 1.20568 10.0302 0.000522131 -0.00117919 10.0302 1.22493 10 1 
190 1.20579 10.0295 0.000590012 -0.00100402 10.0295 1.42966 10 1 
192 1.20582 10.0285 0.000662354 -0.000167044 10.0285 1.47652 10 1 
194 1.20584 10.0289 0.000799958 5.6847e-05 10.0289 1.51992 10 1 
196 1.206 10.0295 0.000888095 -0.001078 10.0295 1.80932 10 1 
198 1.20617 10.0316 0.000970889 -0.0026654 10.0316 2.1082 10 1 
200 1.20626 10.0347 0.00101898 -0.00275304 10.0347 2.27443 10 1 
202 1.20639 10.035 0.00102476 -0.00101641 10.035 2.51517 10 1 
204 1.20653 10.0335 0.0010387 -0.000359896 10.0335 2.76021 10 1 
206 1.20652 10.034 0.000987872 0.000612687 10.034 2.75234 10 1 
208 1.20653 10.0323 0.00102246 0.00182661 10.0323 2.7604 10 1 
210 1.20662 10.026 0.00101789 0.000957297 10.026 2.93182 10 1 
212 1.20661 10.0201 0.00107245 1.09436e-05 10.0201 2.90049 10 1 
214 1.20656 10.0155 0.00112751 -5.3245e-05 10.0155 2.81176 10 1 
216 1.20662 10.0118 0.00123577 0.000419307 10.0118 2.92026 10 1 
218 1.20663 10.0075 0.00135807 0.00254161 10.0075 2.94676 10 1 
220 1.20651 9.99978 0.00147861 0.00448664 9.99979 2.73201 10 1 
222 1.20642 9.98896 0.00141945 0.0031757 9.98896 2.56911 10 1 
224 1.20643 9.97538 0.00125615 0.00230625 9.97538 2.59131 10 1 
224 1.20643 9.97538 0.00125615 0.00230625 9.97538 2.59131 10 1 
226 1.20633 9.96513 0.00113927 0.00405516 9.96513 2.40269 10 1 
228 1.20622 9.95836 0.00109453 0.00533513 9.95837 2.20212 10 1 
230 1.20632 9.94784 0.00106524 0.00680054 9.94784 2.37551 10 1 
232 1.20632 9.93696 0.000907734 0.00611361 9.93696 2.38076 10 1 
234 1.2062 9.92602 0.000654654 0.0059411 9.92602 2.16388 10 1 
236 1.20623 9.91114 0.000504446 0.0076501 9.91114 2.22999 10 1 
238 1.2063 9.89668 0.000507225 0.0081843 9.89669 2.34116 10 1 
240 1.20622 9.88255 0.000515958 0.010581 9.88255 2.20143 10 1 
242 1.20617 9.86613 0.000409502 0.0130353 9.86614 2.12026 10 1 
244 1.20627 9.84671 0.000275556 0.0128409 9.84672 2.29428 10 1 
246 1.20626 9.82567 0.000209372 0.0143332 9.82568 2.28084 10 1 
248 1.20617 9.80691 0.000202943 0.0171218 9.80692 2.1146 10 1 
250 1.20634 9.78353 0.000213336 0.0212082 9.78356 2.41475 10 1 
252 1.20649 9.75608 8.21998e-05 0.0254989 9.75612 2.68693 10 1 
254 1.20645 9.73181 1.20036e-05 0.0305224 9.73186 2.61218 10 1 
256 1.20664 9.705 -6.32213e-05 0.0347876 9.70507 2.96328 10 1 
256 1.20664 9.705 -6.32213e-05 0.0347876 9.70507 2.96328 11 1 
258 1.207 9.67001 -7.64678e-05 0.040533 9.6701 3.60844 11 1 
260 1.20706 9.63476 -0.000132222 0.0497221 9.6349 3.72081 11 1 
262 1.20718 9.59908 -0.0002749 0.0616389 9.5993 3.93048 11 1 
264 1.20774 9.55059 -0.000319195 0.0751079 9.5509 4.95218 11 1 
266 1.20802 9.50046 -0.00041134 0.0910329 9.50092 5.4632 11 1 
268 1.20808 9.45109 -0.00049523 0.115013 9.45183 5.56319 11 1 
270 1.20874 9.38221 -0.000571239 0.139751 9.3833 6.759 11 1 
272 1.20934 9.30475 -0.000672601 0.164865 9.30626 7.83077 11 1 
274 1.20941 9.23566 -0.000749014 0.208261 9.23808 7.96835 11 1 
276 1.20996 9.16316 -0.000836729 0.275404 9.1674 8.96152 11 1 
278 1.21101 9.07091 -0.000929327 0.338864 9.07738 10.8494 11 1 
280 1.21135 8.96705 -0.00101607 0.404934 8.97642 11.4614 11 1 
282 1.21125 8.87434 -0.0010851 0.492723 8.88824 11.2966 11 1 
284 1.21222 8.78922 -0.00118178 0.612437 8.81095 13.0322 11 1 
286 1.21323 8.69953 -0.00127024 0.746277 8.73187 14.8742 11 1 
288 1.21286 8.61783 -0.00133135 0.860418 8.66103 14.202 11 1 
288 1.21286 8.61783 -0.00133135 0.860418 8.66103 14.202 11 1 
290 1.2129 8.54259 -0.0014054 0.991587 8.60053 14.2668 11 1 
292 1.21404 8.48206 -0.00146555 1.15016 8.56035 16.3212 11 1 
294 1.21433 8.40231 -0.00153003 1.26587 8.49763 16.8591 11 1 
296 1.21279 7.94237 -0.00159907 1.02727 8.01932 14.0695 11 1 
298 1.20885 6.91479 -0.00167532 0.218413 6.95931 6.95977 11 1 
300 1.20359 5.78992 -0.0017678 -0.769349 5.88828 -2.55157 11 1 
302 1.1998 5.02746 -0.00188564 -1.43864 5.24835 -9.39586 11 1 
304 1.19807 4.70566 -0.00200817 -1.65802 4.99084 -12.5158 11 1 
306 1.19733 4.64644 -0.00212611 -1.58445 4.9104 -13.861 11 1 
308 1.19729 4.63921 -0.002254 -1.42209 4.85343 -13.9275 11 1 
310 1.19775 4.61539 -0.00236167 -1.25898 4.78483 -13.0925 11 1 
312 1.19779 4.5702 -0.00245325 -1.08822 4.69901 -13.0209 11 1 
314 1.19762 4.50775 -0.00255233 -0.913397 4.60018 -13.3335 11 1 
316 1.19813 4.43654 -0.00264027 -0.780311 4.50498 -12.4032 11 1 
318 1.19859 4.36576 -0.00273072 -0.649566 4.41456 -11.5704 11 1 
320 1.19855 4.27695 -0.0028261 -0.515621 4.30837 -11.654 11 1 
320 1.19855 4.27695 -0.0028261 -0.515621 4.30837 -11.654 15 1 
322 1.19883 4.16766 -0.00291212 -0.414921 4.18864 -11.1517 15 1 
324 1.19934 4.06713 -0.0029953 -0.324846 4.08038 -10.2165 15 1 
326 1.19952 3.97264 -0.00308194 -0.246282 3.98053 -9.90183 15 1 
328 1.19963 3.8747 -0.00316583 -0.182558 3.87926 -9.70716 15 1 
330 1.19999 3.78429 -0.00323036 -0.127486 3.78666 -9.04813 15 1 
332 1.2003 3.70023 -0.00329002 -0.0787648 3.70124 -8.48362 15 1 
334 1.20039 3.61115 -0.00335818 -0.0347928 3.61153 -8.31782 15 1 
336 1.20058 3.51951 -0.00338485 0.00291498 3.51972 -7.98532 15 1 
338 1.20091 3.42583 -0.00332375 0.0327963 3.42623 -7.39377 15 1 
340 1.2011 3.31483 -0.00319577 0.0519232 3.31556 -7.0451 15 1 
342 1.20119 3.17518 -0.00298381 0.0501313 3.17609 -6.87435 15 1 
344 1.20139 3.00032 -0.00261578 0.0163443 3.00141 -6.52408 15 1 
346 1.20159 2.77664 -0.00214429 -0.0517122 2.77916 -6.1623 15 1 
348 1.20163 2.49838 -0.00182763 -0.136965 2.50511 -6.08308 15 1 
350 1.2016 2.19082 -0.00195503 -0.209271 2.20371 -6.14523 15 1 
352 1.20163 1.9029 -0.00263057 -0.248021 1.92094 -6.09451 15 1 
354 1.20167 1.67376 -0.00375418 -0.256128 1.6943 -6.0188 15 1 
356 1.20166 1.52078 -0.00509286 -0.243326 1.54149 -6.02627 15 1 
358 1.20172 1.45397 -0.00639782 -0.208865 1.47234 -5.92641 15 1 
360 1.20188 1.47319 -0.0075241 -0.147942 1.48737 -5.63295 15 1 
362 1.20207 1.56144 -0.00839642 -0.0626817 1.57252 -5.28458 15 1 
364 1.2023 1.69958 -0.00897962 0.0415128 1.71162 -4.87739 15 1 
366 1.20261 1.87691 -0.00931967 0.159948 1.89548 -4.31556 15 1 
368 1.20296 2.08498 -0.00949463 0.285508 2.1155 -3.68257 15 1 
370 1.20328 2.31488 -0.00956071 0.410349 2.36103 -3.10301 15 1 
372 1.20361 2.56155 -0.00956576 0.531136 2.62511 -2.50694 15 1 
374 1.20399 2.82296 -0.00954904 0.647558 2.90456 -1.82086 15 1 
376 1.20437 3.09588 -0.00953064 0.758201 3.1951 -1.14488 15 1 
378 1.20471 3.37763 -0.00953543 0.861461 3.49314 -0.525785 15 1 
380 1.20505 3.66824 -0.00956067 0.957939 3.79838 0.0989328 15 1 
382 1.2054 3.96756 -0.00956719 1.04854 4.1107 0.715994 15 1 
384 1.20569 4.27372 -0.0095443 1.13259 4.42798 1.25351 15 1 
384 1.20569 4.27372 -0.0095443 1.13259 4.42798 1.25351 16 1 
386 1.20595 4.58487 -0.00948981 1.20947 4.74819 1.71876 16 1 
388 1.2062 4.89996 -0.00937783 1.27938 5.07036 2.16963 16 1 
390 1.20643 5.21717 -0.00919845 1.34214 5.39272 2.57962 16 1 
392 1.2066 5.53346 -0.00896806 1.39662 5.71215 2.89297 16 1 
394 1.20674 5.84613 -0.00866544 1.44139 6.02576 3.1421 16 1 
396 1.20686 6.15303 -0.00830016 1.47461 6.3312 3.3559 16 1 
398 1.20694 6.45167 -0.0079158 1.49422 6.62576 3.49805 16 1 
400 1.20697 6.739 -0.00751101 1.49856 6.90636 3.56549 16 1 
402 1.20699 7.0123 -0.00707984 1.48621 7.1703 3.60009 16 1 
404 1.207 7.26968 -0.00665221 1.45603 7.41588 3.60959 16 1 
406 1.20698 7.51012 -0.00626537 1.40775 7.64241 3.572 16 1 
408 1.20694 7.73268 -0.00590811 1.34284 7.84963 3.50364 16 1 
410 1.2069 7.93634 -0.00556516 1.26436 8.03744 3.42329 16 1 
412 1.20683 8.12127 -0.00525625 1.17532 8.20673 3.30509 16 1 
414 1.20675 8.28931 -0.00499111 1.0786 8.35992 3.15841 16 1 
416 1.20668 8.44214 -0.00476134 0.977629 8.49917 3.03099 16 1 
416 1.20668 8.44214 -0.00476134 0.977629 8.49917 3.03099 16 1 
418 1.20661 8.58035 -0.00455313 0.875616 8.62544 2.91549 16 1 
420 1.20653 8.7046 -0.00436911 0.774815 8.73946 2.76864 16 1 
422 1.20643 8.81657 -0.00420892 0.67751 8.84293 2.59155 16 1 
424 1.20635 8.91924 -0.00404106 0.585294 8.93872 2.44083 16 1 
426 1.20629 9.01439 -0.00385642 0.498432 9.0284 2.32742 16 1 
428 1.20621 9.10151 -0.00371009 0.418017 9.1113 2.18507 16 1 
430 1.20611 9.18075 -0.00363348 0.345515 9.1874 2.0123 16 1 
432 1.20604 9.25482 -0.00354674 0.280821 9.2592 1.88149 16 1 
434 1.206 9.32531 -0.00343223 0.223691 9.32808 1.79814 16 1 
436 1.20594 9.39082 -0.00331683 0.174492 9.39251 1.70177 16 1 
438 1.20587 9.45084 -0.00322075 0.133124 9.45183 1.57575 16 1 
440 1.2058 9.50632 -0.00314131 0.0994206 9.50688 1.44967 16 1 
442 1.20574 9.55788 -0.00305858 0.0731321 9.55819 1.34311 16 1 
444 1.2057 9.60499 -0.00298551 0.0534549 9.60516 1.25924 16 1 
446 1.20567 9.64626 -0.0029207 0.0393882 9.64635 1.20122 16 1 
448 1.20564 9.68202 -0.00283715 0.0302194 9.68208 1.15527 16 1 
448 1.20564 9.68202 -0.00283715 0.0302194 9.68208 1.15527 17 1 
450 1.20561 9.71391 -0.00277991 0.0241701 9.71394 1.10106 17 1 
452 1.20557 9.74224 -0.00275616 0.020012 9.74226 1.02457 17 1 
454 1.20552 9.76673 -0.00272463 0.0167789 9.76675 0.936388 17 1 
456 1.20549 9.78818 -0.00269765 0.0134702 9.78819 0.880294 17 1 
458 1.20548 9.80741 -0.00267707 0.0103483 9.80742 0.8642 17 1 
460 1.20548 9.82473 -0.00265933 0.00802574 9.82473 0.858326 17 1 
462 1.20546 9.84029 -0.00264904 0.00640612 9.84029 0.836587 17 1 
464 1.20543 9.85372 -0.0026438 0.00495962 9.85372 0.776255 17 1 
466 1.20539 9.8653 -0.00262006 0.003448 9.8653 0.701034 17 1 
468 1.20537 9.87596 -0.00261341 0.0023264 9.87596 0.670847 17 1 
470 1.20538 9.88567 -0.00261629 0.00156981 9.88567 0.682621 17 1 
472 1.20538 9.89457 -0.00258306 0.000726072 9.89457 0.690522 17 1 
474 1.20537 9.9024 -0.0025411 4.93485e-05 9.9024 0.661953 17 1 
476 1.20534 9.9093 -0.00252157 -0.000182905 9.9093 0.618987 17 1 
478 1.20533 9.91605 -0.00252249 -0.000396061 9.91605 0.587321 17 1 
480 1.20531 9.92236 -0.00251519 -0.000725099 9.92236 0.56231 17 1 
480 1.20531 9.92236 -0.00251519 -0.000725099 9.92236 0.56231 17 1 
482 1.20531 9.92852 -0.00249553 -0.000730747 9.92852 0.560735 17 1 
484 1.20532 9.934 -0.00248155 -0.000639775 9.934 0.573503 17 1 
486 1.20531 9.93798 -0.00246271 -0.000775835 9.93798 0.557677 17 1 
488 1.20529 9.94209 -0.00244556 -0.000613014 9.94209 0.531702 17 1 
490 1.20528 9.94697 -0.00243456 -0.000491335 9.94697 0.514394 17 1 
492 1.20528 9.95157 -0.0024224 -0.000509876 9.95157 0.499406 17 1 
494 1.20527 9.95509 -0.00240972 -0.000401754 9.95509 0.489946 17 1 
496 1.20527 9.95779 -0.00239975 -0.000373168 9.95779 0.484351 17 1 
498 1.20527 9.96108 -0.00238475 -0.000196354 9.96108 0.4915 17 1 
500 1.20528 9.96441 -0.00238203 -0.000266822 9.96441 0.497398 17 1 
502 1.20527 9.96742 -0.00237198 -7.65948e-05 9.96742 0.491153 17 1 
504 1.20526 9.96967 -0.00233884 -7.40664e-05 9.96967 0.462133 17 1 
506 1.20523 9.97103 -0.00231464 -0.000628234 9.97103 0.420611 17 1 
508 1.20524 9.97384 -0.0023209 -0.000721817 9.97384 0.427193 17 1 
510 1.20526 9.9768 -0.00233494 -0.000103452 9.9768 0.465873 17 1 
512 1.20527 9.97858 -0.0023383 0.000257895 9.97858 0.47889 17 1 
512 1.20527 9.97858 -0.0023383 0.000257895 9.97858 0.47889 25 1 
514 1.20525 9.9797 -0.00232751 5.0275e-06 9.9797 0.451704 25 1 
516 1.20522 9.98019 -0.00229904 -0.000367533 9.98019 0.395399 25 1 
518 1.20521 9.98213 -0.0022737 -0.000475001 9.98213 0.387363 25 1 
520 1.20524 9.98479 -0.00228288 -0.000342486 9.98479 0.434574 25 1 
522 1.20526 9.98641 -0.00231405 -0.000243551 9.98641 0.464365 25 1 
524 1.20525 9.98708 -0.00230427 -0.00025396 9.98708 0.446583 25 1 
526 1.20522 9.98701 -0.00226728 -0.000272719 9.98701 0.398792 25 1 
528 1.2052 9.98783 -0.00225661 -0.000118348 9.98783 0.366018 25 1 
530 1.20521 9.98965 -0.0022519 -0.000253659 9.98965 0.371569 25 1 
532 1.20522 9.99081 -0.00223015 -0.000373868 9.99081 0.391926 25 1 
534 1.20524 9.9921 -0.00222693 -0.000520432 9.9921 0.425252 25 1 
536 1.20524 9.99241 -0.00224715 -0.000611997 9.99241 0.43994 25 1 
538 1.20523 9.99269 -0.00224107 -0.000462269 9.99269 0.409636 25 1 
540 1.2052 9.99365 -0.00221882 -0.000309719 9.99365 0.359901 25 1 
542 1.20518 9.99349 -0.00219837 -0.000201472 9.99349 0.327023 25 1 
544 1.2052 9.99448 -0.00216867 -9.42599e-05 9.99448 0.358966 25 1 
544 1.2052 9.99448 -0.00216867 -9.42599e-05 9.99448 0.358966 25 1 
546 1.20523 9.99572 -0.0021588 -0.000528281 9.99572 0.412807 25 1 
548 1.20524 9.99695 -0.0021743 -0.00110571 9.99695 0.440302 25 1 
550 1.20523 9.99737 -0.00218217 -0.000971291 9.99737 0.416632 25 1 
552 1.20519 9.99622 -0.00216085 -0.000292008 9.99622 0.346031 25 1 
554 1.20517 9.99615 -0.00212891 0.000227107 9.99615 0.304535 25 1 
556 1.20518 9.99713 -0.00211285 -0.000124726 9.99713 0.321924 25 1 
558 1.2052 9.99829 -0.00211445 -0.000722715 9.99829 0.369235 25 1 
560 1.20523 9.99976 -0.0021101 -0.0010513 9.99976 0.413894 25 1 
562 1.20522 9.99981 -0.00209666 -0.00101639 9.99981 0.404674 25 1 
564 1.2052 9.99929 -0.00206968 -0.000617464 9.99929 0.359029 25 1 
566 1.20518 9.99862 -0.00205084 -0.000229937 9.99862 0.325079 25 1 
568 1.20518 9.99867 -0.00205643 1.78097e-05 9.99867 0.325924 25 1 
570 1.2052 10.0006 -0.00205619 -0.000290378 10.0006 0.355325 25 1 
572 1.2052 10.0012 -0.00203435 -0.000848737 10.0012 0.365129 25 1 
574 1.20521 10.0012 -0.002009 -0.000805282 10.0012 0.372084 25 1 
576 1.2052 10.0009 -0.00199252 -0.000853212 10.0009 0.360628 25 1 
576 1.2052 10.0009 -0.00199252 -0.000853212 10.0009 0.360628 26 1 
578 1.20518 10.0006 -0.00198224 -0.00088474 10.0006 0.333331 26 1 
580 1.20519 10.0014 -0.00197671 -0.000508893 10.0014 0.334972 26 1 
582 1.2052 10.0017 -0.00196726 -0.000227902 10.0017 0.355071 26 1 
584 1.2052 10.0022 -0.00195196 -0.000155929 10.0022 0.359487 26 1 
586 1.20519 10.0022 -0.00193212 -0.000466695 10.0022 0.334238 26 1 
588 1.20517 10.002 -0.00191367 -0.000897342 10.002 0.311556 26 1 
590 1.20518 10.0023 -0.00190245 -0.000874077 10.0023 0.327889 26 1 
592 1.2052 10.0028 -0.0018981 -0.000575483 10.0028 0.368361 26 1 
594 1.20521 10.0031 -0.00189291 -0.000510272 10.0031 0.374679 26 1 
596 1.20519 10.0028 -0.00187434 -0.000635956 10.0028 0.339362 26 1 
598 1.20518 10.0029 -0.00184537 -0.00073743 10.0029 0.327022 26 1 
600 1.20519 10.0037 -0.00183234 -0.000707595 10.0037 0.346182 26 1 
602 1.20519 10.0037 -0.00182484 -0.000506602 10.0037 0.335244 26 1 
604 1.20517 10.0034 -0.00180782 -0.000344281 10.0034 0.31183 26 1 
606 1.20518 10.0032 -0.00179344 -0.000628168 10.0032 0.323496 26 1 
608 1.20519 10.0035 -0.00178388 -0.000875078 10.0035 0.350125 26 1 
608 1.20519 10.0035 -0.00178388 -0.000875078 10.0035 0.350125 26 1 
610 1.20519 10.0042 -0.00176588 -0.000824577 10.0042 0.348169 26 1 
612 1.20519 10.0044 -0.00174711 -0.000714535 10.0044 0.340343 26 1 
614 1.20519 10.0043 -0.00174265 -0.000500949 10.0043 0.349775 26 1 
616 1.2052 10.0043 -0.00173504 -0.000520206 10.0043 0.353862 26 1 
618 1.20518 10.0042 -0.00171064 -0.000919664 10.0042 0.333494 26 1 
620 1.20517 10.0044 -0.00168927 -0.000933009 10.0044 0.315186 26 1 
622 1.20518 10.0046 -0.00168048 -0.000575045 10.0046 0.324454 26 1 
624 1.20519 10.0044 -0.00167001 -0.000553931 10.0044 0.336922 26 1 
626 1.20519 10.0048 -0.00165375 -0.000682334 10.0048 0.340391 26 1 
628 1.20518 10.0046 -0.00162753 -0.000838749 10.0046 0.333137 26 1 
630 1.20519 10.0051 -0.00161129 -0.000766326 10.0051 0.347589 26 1 
632 1.2052 10.0053 -0.00161673 -0.00066242 10.0053 0.360608 26 1 
634 1.20519 10.005 -0.0016098 -0.000776332 10.005 0.347035 26 1 
636 1.20518 10.0052 -0.00157949 -0.000735187 10.0052 0.327235 26 1 
638 1.20518 10.0049 -0.00155209 -0.00086389 10.0049 0.324103 26 1 
640 1.20519 10.0055 -0.0015414 -0.00104944 10.0055 0.343839 26 1 
642 1.20518 10.0051 -0.00154369 -0.000694036 10.0051 0.333307 26 1 
644 1.20518 10.0052 -0.00153121 -0.000551734 10.0052 0.33088 26 1 
646 1.20519 10.0053 -0.00149895 -0.000762841 10.0053 0.34374 26 1 
648 1.2052 10.0057 -0.00147228 -0.000852771 10.0057 0.357156 26 1 
650 1.2052 10.006 -0.00145828 -0.000794716 10.006 0.35659 26 1 
652 1.20519 10.0057 -0.00145884 -0.000772545 10.0057 0.343355 26 1 
654 1.20519 10.006 -0.00146076 -0.000814535 10.006 0.347263 26 1 
656 1.20519 10.005 -0.00143556 -0.000925474 10.005 0.341354 26 1 
658 1.2052 10.0055 -0.00139769 -0.000833631 10.0055 0.359966 26 1 
660 1.20521 10.0052 -0.00138281 -0.000739692 10.0052 0.374435 26 1 
662 1.20522 10.0054 -0.00138691 -0.000770924 10.0054 0.392677 26 1 
664 1.20522 10.0052 -0.00138471 -0.000633165 10.0052 0.404946 26 1 
666 1.20523 10.0048 -0.00136441 -0.000659711 10.0048 0.418725 26 1 
668 1.20524 10.0046 -0.0013231 -0.000916161 10.0046 0.430106 26 1 
670 1.20524 10.0042 -0.00128884 -0.00101449 10.0042 0.431434 26 1 
672 1.20525 10.0046 -0.00128803 -0.00106817 10.0046 0.449352 26 1 
672 1.20525 10.0046 -0.00128803 -0.00106817 10.0046 0.449352 27 1 
674 1.20526 10.0039 -0.00130071 -0.000815644 10.0039 0.461155 27 1 
676 1.20527 10.0044 -0.00130256 -0.000433267 10.0044 0.484102 27 1 
678 1.20527 10.0042 -0.00128289 -0.000588869 10.0042 0.492743 27 1 
680 1.20527 10.0043 -0.00125273 -0.000882051 10.0043 0.487487 27 1 
682 1.20525 10.004 -0.00123498 -0.00077551 10.004 0.449485 27 1 
684 1.20524 10.0044 -0.00123903 -0.000813461 10.0044 0.425267 27 1 
686 1.20524 10.0052 -0.0012535 -0.00097781 10.0052 0.439825 27 1 
688 1.20526 10.0058 -0.00125628 -0.000745676 10.0058 0.46222 27 1 
690 1.20525 10.0055 -0.00123708 -0.000627359 10.0055 0.442835 27 1 
692 1.20522 10.005 -0.00121536 -0.000859878 10.005 0.393444 27 1 
694 1.20522 10.0061 -0.0012084 -0.000890975 10.0061 0.390089 27 1 
696 1.20523 10.0071 -0.00121622 -0.000812148 10.0071 0.418158 27 1 
698 1.20523 10.0072 -0.00121501 -0.000881487 10.0072 0.41159 27 1 
700 1.2052 10.0063 -0.00118404 -0.000787119 10.0063 0.358143 27 1 
702 1.20518 10.0063 -0.00114525 -0.000590668 10.0063 0.320014 27 1 
704 1.20519 10.0069 -0.00112293 -0.000704087 10.0069 0.339435 27 1 
704 1.20519 10.0069 -0.00112293 -0.000704087 10.0069 0.339435 31 1 
706 1.20522 10.0077 -0.00111801 -0.000918901 10.0077 0.392317 31 1 
708 1.20522 10.0079 -0.00111775 -0.000852532 10.0079 0.398937 31 1 
710 1.2052 10.0073 -0.00109298 -0.000829077 10.0073 0.357441 31 1 
712 1.20518 10.007 -0.00105134 -0.000818024 10.007 0.331308 31 1 
714 1.20519 10.0074 -0.00102355 -0.00081797 10.0074 0.338372 31 1 
716 1.20519 10.0079 -0.00100703 -0.000858504 10.0079 0.336989 31 1 
718 1.20519 10.0083 -0.00100735 -0.000772845 10.0083 0.34218 31 1 
720 1.20521 10.0087 -0.00100895 -0.00064519 10.0087 0.373083 31 1 
722 1.2052 10.0083 -0.00098451 -0.000604748 10.0083 0.360515 31 1 
724 1.20516 10.0075 -0.000948551 -0.000707111 10.0075 0.284049 31 1 
726 1.20515 10.0076 -0.000923502 -0.000770604 10.0076 0.262812 31 1 
728 1.20519 10.0085 -0.000910605 -0.000684228 10.0085 0.351949 31 1 
730 1.20523 10.0091 -0.000903646 -0.000882966 10.0091 0.411298 31 1 
732 1.2052 10.0089 -0.000897623 -0.00100299 10.0089 0.360438 31 1 
734 1.20517 10.0084 -0.000881053 -0.000530434 10.0084 0.3019 31 1 
736 1.20517 10.0081 -0.000860877 -0.000351582 10.0081 0.300848 31 1 
738 1.20518 10.0082 -0.000846401 -0.000834329 10.0082 0.318338 31 1 
740 1.2052 10.009 -0.000831857 -0.000947663 10.009 0.352317 31 1 
742 1.20522 10.0094 -0.000824383 -0.000576469 10.0094 0.392626 31 1 
744 1.2052 10.0088 -0.000812737 -0.000388165 10.0088 0.359947 31 1 
746 1.20515 10.0079 -0.000789021 -0.000566207 10.0079 0.278759 31 1 
748 1.20516 10.008 -0.000780516 -0.0010783 10.008 0.293156 31 1 
750 1.20522 10.0095 -0.000782622 -0.00106079 10.0095 0.39848 31 1 
752 1.20524 10.0102 -0.000771973 -0.000414816 10.0102 0.430511 31 1 
752 1.20524 10.0102 -0.000771973 -0.000414816 10.0102 0.430511 31 1 
754 1.20518 10.0087 -0.000751792 -0.000420955 10.0087 0.328396 31 1 
756 1.20514 10.0071 -0.000731948 -0.000797893 10.0071 0.250948 31 1 
758 1.20519 10.0083 -0.000712876 -0.000769071 10.0083 0.340824 31 1 
760 1.20525 10.0104 -0.000705177 -0.000486075 10.0104 0.457444 31 1 
762 1.20523 10.0102 -0.00071111 -0.000376483 10.0102 0.421379 31 1 
764 1.20518 10.0085 -0.000712932 -0.00070052 10.0085 0.327138 31 1 
766 1.20518 10.008 -0.000703712 -0.000892029 10.008 0.329392 31 1 
768 1.2052 10.0087 -0.000685757 -0.000790069 10.0087 0.369786 31 1 
770 1.2052 10.0089 -0.000665279 -0.000643883 10.0089 0.366372 31 1 
772 1.20521 10.0092 -0.000648229 -0.000335493 10.0092 0.374733 31 1 
774 1.20523 10.0101 -0.00064046 -0.000440746 10.0101 0.424291 31 1 
776 1.20525 10.01 -0.000643736 -0.000842515 10.01 0.449806 31 1 
778 1.20521 10.0086 -0.000644051 -0.000785023 10.0086 0.381935 31 1 
780 1.20517 10.0076 -0.000629803 -0.000600464 10.0076 0.298754 31 1 
782 1.2052 10.0087 -0.000608868 -0.000560169 10.0087 0.368895 31 1 
784 1.20528 10.0109 -0.000591376 -0.000316274 10.0109 0.500774 31 1 
786 1.20526 10.0108 -0.000577986 -0.000130739 10.0108 0.47722 31 1 
788 1.2052 10.0085 -0.000566332 -0.000401801 10.0085 0.356388 31 1 
790 1.20518 10.008 -0.000563054 -0.000543205 10.008 0.330389 31 1 
792 1.20524 10.0097 -0.000566284 -0.000551036 10.0097 0.433971 31 1 
794 1.20528 10.0106 -0.000565864 -0.00067145 10.0106 0.499933 31 1 
796 1.20524 10.0101 -0.000554208 -0.000633051 10.0101 0.431051 31 1 
798 1.2052 10.0092 -0.000541237 -0.000571076 10.0092 0.36773 31 1 
800 1.2052 10.0089 -0.000538419 -0.000589522 10.0089 0.365769 31 1 
