29.8864;r ;Density                 ;Velocity u              ;Velocity v              ;Velocity w              ;|Velocity|              ;Pressure                ;Distribution            ;Levels                  ;
0 1.20423 10.0001 2.2028e-05 -0.000643893 10.0001 -1.38502 1 1 
2 1.20422 10.0001 7.22602e-06 -0.00077572 10.0001 -1.40162 1 1 
4 1.20422 9.99982 -6.29562e-05 -0.000573192 9.99982 -1.40592 1 1 
6 1.20423 9.99948 -0.000107561 -0.000577998 9.99948 -1.38259 1 1 
8 1.20424 9.99935 -0.00014153 -0.000720456 9.99935 -1.37782 1 1 
10 1.20423 9.99919 -0.00017038 -0.000818626 9.99919 -1.3973 1 1 
12 1.20422 9.9989 -0.00021819 -0.00114924 9.9989 -1.40437 1 1 
14 1.20423 9.99835 -0.000285435 -0.00116925 9.99835 -1.3818 1 1 
16 1.20424 9.99809 -0.000334454 -0.00139168 9.99809 -1.37277 1 1 
18 1.20423 9.99827 -0.000360438 -0.00152312 9.99827 -1.38384 1 1 
20 1.20424 9.99815 -0.000397721 -0.00122499 9.99815 -1.3787 1 1 
22 1.20424 9.99786 -0.000445969 -0.00123096 9.99786 -1.37679 1 1 
24 1.20423 9.99765 -0.000484585 -0.00140775 9.99765 -1.38188 1 1 
26 1.20424 9.99741 -0.000523565 -0.00141584 9.99741 -1.37273 1 1 
28 1.20424 9.9973 -0.000557061 -0.00172774 9.9973 -1.37358 1 1 
30 1.20423 9.99708 -0.000602605 -0.00224828 9.99708 -1.38556 1 1 
32 1.20424 9.99684 -0.000651598 -0.00248466 9.99684 -1.37672 1 1 
32 1.20424 9.99684 -0.000651598 -0.00248466 9.99684 -1.37672 1 1 
34 1.20425 9.99681 -0.000688928 -0.002294 9.99681 -1.3553 1 1 
36 1.20425 9.99675 -0.000693683 -0.00227302 9.99675 -1.35974 1 1 
38 1.20424 9.99669 -0.00074271 -0.00293778 9.99669 -1.37966 1 1 
40 1.20424 9.99641 -0.000771683 -0.00313882 9.99641 -1.38069 1 1 
42 1.20424 9.99586 -0.000797149 -0.00296836 9.99586 -1.37384 1 1 
44 1.20424 9.99576 -0.000846146 -0.00313583 9.99576 -1.3736 1 1 
46 1.20424 9.99602 -0.000893409 -0.00327321 9.99602 -1.37188 1 1 
48 1.20424 9.99608 -0.0009211 -0.00311113 9.99608 -1.37041 1 1 
50 1.20424 9.99588 -0.000940975 -0.00328148 9.99588 -1.37774 1 1 
52 1.20424 9.99556 -0.000995577 -0.00346305 9.99556 -1.37789 1 1 
54 1.20425 9.9951 -0.00104962 -0.00361869 9.9951 -1.36334 1 1 
56 1.20424 9.9949 -0.00107763 -0.00372588 9.9949 -1.36759 1 1 
58 1.20423 9.99515 -0.00110223 -0.00410011 9.99515 -1.39132 1 1 
60 1.20423 9.9951 -0.00114013 -0.00402379 9.9951 -1.3833 1 1 
62 1.20424 9.99458 -0.00116125 -0.00378954 9.99458 -1.36489 1 1 
64 1.20423 9.99464 -0.00118222 -0.00406749 9.99464 -1.3893 1 1 
64 1.20423 9.99464 -0.00118222 -0.00406749 9.99464 -1.3893 2 1 
66 1.20423 9.99474 -0.0012129 -0.00443898 9.99474 -1.39812 2 1 
68 1.20423 9.99467 -0.00122144 -0.00417049 9.99467 -1.38803 2 1 
70 1.20423 9.99441 -0.00127367 -0.00441895 9.99442 -1.39263 2 1 
72 1.20423 9.99384 -0.00132143 -0.00480706 9.99384 -1.39438 2 1 
74 1.20423 9.99361 -0.00134559 -0.00448774 9.99361 -1.38978 2 1 
76 1.20423 9.99342 -0.00137478 -0.00444151 9.99342 -1.39471 2 1 
78 1.20421 9.99376 -0.00142301 -0.00478963 9.99376 -1.42465 2 1 
80 1.20422 9.99387 -0.00146087 -0.00490241 9.99387 -1.4137 2 1 
82 1.20423 9.99337 -0.00150449 -0.00509445 9.99337 -1.38867 2 1 
84 1.20422 9.99345 -0.00156218 -0.00537935 9.99345 -1.41426 2 1 
86 1.20421 9.99348 -0.0015814 -0.00570612 9.99348 -1.43103 2 1 
88 1.20421 9.99273 -0.00158915 -0.00582246 9.99274 -1.41938 2 1 
90 1.20421 9.99251 -0.00164493 -0.00558013 9.99251 -1.43109 2 1 
92 1.2042 9.99266 -0.00170482 -0.00551182 9.99266 -1.44661 2 1 
94 1.20421 9.99266 -0.00173131 -0.00533322 9.99267 -1.43017 2 1 
96 1.20421 9.9929 -0.00177309 -0.0056807 9.9929 -1.43297 2 1 
96 1.20421 9.9929 -0.00177309 -0.0056807 9.9929 -1.43297 2 1 
98 1.20419 9.99264 -0.00183242 -0.00660064 9.99264 -1.4573 2 1 
100 1.2042 9.99198 -0.00184691 -0.00714006 9.99198 -1.44994 2 1 
102 1.2042 9.99178 -0.00186329 -0.00701874 9.99178 -1.44419 2 1 
104 1.20419 9.99196 -0.0019323 -0.0067716 9.99197 -1.46726 2 1 
106 1.20418 9.99191 -0.00198353 -0.00628648 9.99191 -1.48345 2 1 
108 1.20418 9.99179 -0.00199224 -0.00586307 9.99179 -1.47736 2 1 
110 1.20419 9.99159 -0.00201202 -0.00624878 9.9916 -1.47151 2 1 
112 1.20418 9.99162 -0.00209695 -0.00710691 9.99163 -1.48833 2 1 
114 1.20417 9.99192 -0.00212772 -0.007376 9.99192 -1.49282 2 1 
116 1.20418 9.99145 -0.00211983 -0.0074834 9.99145 -1.47708 2 1 
118 1.20417 9.99099 -0.00217011 -0.00747098 9.99099 -1.49685 2 1 
120 1.20416 9.99091 -0.00220955 -0.00731845 9.99091 -1.52013 2 1 
122 1.20417 9.99012 -0.00220288 -0.00727885 9.99013 -1.49453 2 1 
124 1.20417 9.99013 -0.00224087 -0.0073655 9.99013 -1.50468 2 1 
126 1.20415 9.99086 -0.00230784 -0.00767708 9.99087 -1.53319 2 1 
128 1.20417 9.9905 -0.00232793 -0.00791565 9.9905 -1.49615 2 1 
128 1.20417 9.9905 -0.00232793 -0.00791565 9.9905 -1.49615 10 1 
130 1.20419 9.98923 -0.00230996 -0.0080328 9.98923 -1.45769 10 1 
132 1.20417 9.98847 -0.00236167 -0.00835947 9.98847 -1.49846 10 1 
134 1.20416 9.98827 -0.00242178 -0.00861286 9.98828 -1.51567 10 1 
136 1.2042 9.98746 -0.00245788 -0.00878732 9.98746 -1.45227 10 1 
138 1.20419 9.98743 -0.00250353 -0.00872535 9.98743 -1.45603 10 1 
140 1.20419 9.98746 -0.00258905 -0.0087451 9.98746 -1.4678 10 1 
142 1.20422 9.98602 -0.00260092 -0.00898184 9.98602 -1.40989 10 1 
144 1.20421 9.98551 -0.00258903 -0.0088203 9.98551 -1.43124 10 1 
146 1.20417 9.9857 -0.00266492 -0.00859052 9.9857 -1.50326 10 1 
148 1.20419 9.98459 -0.00274702 -0.00896554 9.9846 -1.46257 10 1 
150 1.20421 9.98437 -0.00275763 -0.00940487 9.98438 -1.42179 10 1 
152 1.20418 9.98492 -0.00275148 -0.00926927 9.98493 -1.47256 10 1 
154 1.20418 9.98487 -0.00285542 -0.00904913 9.98488 -1.48945 10 1 
156 1.20418 9.98439 -0.00292752 -0.00942114 9.98439 -1.47333 10 1 
158 1.20416 9.98379 -0.00291311 -0.00973376 9.9838 -1.51436 10 1 
160 1.20414 9.98392 -0.00294383 -0.00925098 9.98392 -1.56043 10 1 
160 1.20414 9.98392 -0.00294383 -0.00925098 9.98392 -1.56043 10 1 
162 1.20415 9.98319 -0.00311885 -0.00907516 9.98319 -1.52809 10 1 
164 1.20415 9.98244 -0.00323883 -0.00957227 9.98244 -1.52877 10 1 
166 1.2041 9.9829 -0.00324092 -0.00966313 9.9829 -1.61757 10 1 
168 1.20411 9.98243 -0.00323791 -0.00971125 9.98244 -1.61419 10 1 
170 1.20414 9.9819 -0.00325965 -0.00982584 9.98191 -1.55821 10 1 
172 1.20411 9.98196 -0.00321732 -0.0101299 9.98197 -1.60895 10 1 
174 1.2041 9.98089 -0.0030377 -0.0101307 9.98089 -1.63124 10 1 
176 1.20412 9.97961 -0.00288788 -0.0091194 9.97961 -1.59035 10 1 
178 1.20411 9.97855 -0.00290822 -0.00839225 9.97856 -1.6091 10 1 
180 1.20408 9.97787 -0.00303335 -0.00868199 9.97787 -1.65545 10 1 
182 1.2041 9.97717 -0.00301273 -0.0104358 9.97717 -1.62654 10 1 
184 1.20413 9.97476 -0.00282825 -0.0115718 9.97477 -1.56706 10 1 
186 1.2041 9.97355 -0.00249392 -0.0108049 9.97355 -1.6298 10 1 
188 1.20409 9.97325 -0.00212398 -0.00979842 9.97325 -1.64771 10 1 
190 1.20415 9.97056 -0.00168654 -0.00884303 9.97056 -1.52731 10 1 
192 1.20414 9.96808 -0.00138357 -0.0075056 9.96809 -1.55517 10 1 
194 1.2041 9.96696 -0.00147663 -0.00693099 9.96696 -1.62986 10 1 
196 1.20415 9.96523 -0.00213619 -0.00732358 9.96524 -1.52643 10 1 
198 1.20419 9.96348 -0.00297399 -0.00847978 9.96349 -1.46828 10 1 
200 1.20414 9.96163 -0.00345032 -0.00901403 9.96163 -1.54641 10 1 
202 1.20416 9.95733 -0.00332765 -0.0089566 9.95733 -1.50887 10 1 
204 1.20423 9.95262 -0.00267035 -0.00971022 9.95263 -1.38684 10 1 
206 1.20421 9.95129 -0.00194504 -0.00926539 9.9513 -1.43326 10 1 
208 1.20421 9.94934 -0.00135433 -0.00775866 9.94934 -1.42472 10 1 
210 1.2043 9.94346 -0.00110917 -0.00774853 9.94347 -1.25825 10 1 
212 1.20428 9.93796 -0.00106093 -0.00825344 9.93796 -1.29802 10 1 
214 1.20425 9.9338 -0.00109647 -0.00787295 9.93381 -1.3627 10 1 
216 1.20434 9.93077 -0.00108969 -0.00721329 9.93077 -1.18424 10 1 
218 1.20442 9.92793 -0.00106439 -0.00505389 9.92794 -1.04497 10 1 
220 1.20439 9.92301 -0.00100795 -0.00342118 9.92302 -1.10406 10 1 
222 1.2044 9.91573 -0.0010904 -0.00487409 9.91573 -1.0812 10 1 
224 1.20452 9.90565 -0.00120279 -0.00587631 9.90565 -0.864464 10 1 
224 1.20452 9.90565 -0.00120279 -0.00587631 9.90565 -0.864464 10 1 
226 1.20452 9.8985 -0.00123866 -0.00435645 9.8985 -0.858337 10 1 
228 1.20451 9.8943 -0.00116844 -0.00314698 9.8943 -0.890683 10 1 
230 1.20467 9.88598 -0.00108239 -0.00176419 9.88598 -0.590831 10 1 
232 1.20474 9.87691 -0.0011448 -0.00249202 9.87691 -0.470507 10 1 
234 1.20469 9.86772 -0.00128542 -0.0025853 9.86772 -0.553208 10 1 
236 1.20481 9.85472 -0.00133456 -0.000662724 9.85472 -0.335703 10 1 
238 1.20496 9.84227 -0.00126201 0.000186264 9.84227 -0.0720456 10 1 
240 1.20498 9.83075 -0.00121921 0.00292734 9.83075 -0.0441839 10 1 
242 1.20503 9.81724 -0.00130908 0.00543098 9.81725 0.0631396 10 1 
244 1.20524 9.80052 -0.00143472 0.00542288 9.80052 0.428551 10 1 
246 1.20534 9.78201 -0.00149814 0.00714725 9.78201 0.608564 10 1 
248 1.20535 9.76523 -0.00150976 0.0102961 9.76524 0.628221 10 1 
250 1.20559 9.7434 -0.00150431 0.014537 9.74342 1.07221 10 1 
252 1.20581 9.71682 -0.00162537 0.0188525 9.71684 1.45578 10 1 
254 1.20582 9.69285 -0.00169196 0.0239462 9.69289 1.48214 10 1 
256 1.20605 9.66576 -0.00175384 0.0283093 9.6658 1.90406 10 1 
256 1.20605 9.66576 -0.00175384 0.0283093 9.6658 1.90406 11 1 
258 1.20643 9.62997 -0.00176189 0.0341645 9.63005 2.58679 11 1 
260 1.20651 9.59349 -0.00182024 0.0435361 9.5936 2.73614 11 1 
262 1.20665 9.55631 -0.00194745 0.0553809 9.55649 2.98928 11 1 
264 1.20723 9.50611 -0.00198832 0.0688819 9.50638 4.0365 11 1 
266 1.20753 9.45391 -0.00208236 0.0850686 9.45431 4.56803 11 1 
268 1.2076 9.40231 -0.00217218 0.109112 9.40298 4.6928 11 1 
270 1.20826 9.33118 -0.00223545 0.133781 9.33219 5.89036 11 1 
272 1.20886 9.25141 -0.00232906 0.158948 9.25282 6.96623 11 1 
274 1.20895 9.17954 -0.00239676 0.202319 9.18185 7.13931 11 1 
276 1.20951 9.10395 -0.00248711 0.269158 9.10804 8.15435 11 1 
278 1.21056 9.00867 -0.00258324 0.332611 9.01496 10.0343 11 1 
280 1.2109 8.90183 -0.00266579 0.398736 8.91099 10.6631 11 1 
282 1.21084 8.80552 -0.002727 0.486118 8.81916 10.5438 11 1 
284 1.2118 8.7166 -0.00281 0.605068 8.73801 12.2876 11 1 
286 1.21282 8.62296 -0.00288201 0.738225 8.6549 14.1307 11 1 
288 1.21248 8.53658 -0.00292749 0.851981 8.57936 13.5145 11 1 
288 1.21248 8.53658 -0.00292749 0.851981 8.57936 13.5145 11 1 
290 1.21253 8.45644 -0.00299621 0.982527 8.5139 13.6088 11 1 
292 1.21366 8.39071 -0.00305279 1.14012 8.46848 15.6506 11 1 
294 1.21399 8.30565 -0.00309988 1.25531 8.40049 16.23 11 1 
296 1.21251 7.8455 -0.00313269 1.02063 7.92228 13.5606 11 1 
298 1.2087 6.82497 -0.00316792 0.223302 6.86915 6.68758 11 1 
300 1.20362 5.70708 -0.00323893 -0.749996 5.80311 -2.49977 11 1 
302 1.19997 4.94569 -0.00333902 -1.40896 5.16154 -9.08154 11 1 
304 1.19833 4.6177 -0.00343715 -1.62501 4.89696 -12.0487 11 1 
306 1.19764 4.54748 -0.00351829 -1.55297 4.80651 -13.2996 11 1 
308 1.19763 4.52804 -0.00359368 -1.39434 4.73895 -13.3114 11 1 
310 1.1981 4.49231 -0.00364423 -1.23614 4.66007 -12.4572 11 1 
312 1.19817 4.43565 -0.00368903 -1.07018 4.56394 -12.3415 11 1 
314 1.19803 4.36139 -0.00374364 -0.900402 4.45416 -12.5926 11 1 
316 1.19854 4.27762 -0.0037806 -0.772114 4.3471 -11.666 11 1 
318 1.199 4.19385 -0.00382272 -0.647139 4.24419 -10.845 11 1 
320 1.19896 4.09311 -0.00386031 -0.518556 4.12629 -10.9007 11 1 
320 1.19896 4.09311 -0.00386031 -0.518556 4.12629 -10.9007 15 1 
322 1.19925 3.9723 -0.00387777 -0.423216 3.99516 -10.3913 15 1 
324 1.19976 3.85985 -0.00390153 -0.339789 3.87508 -9.47305 15 1 
326 1.19992 3.75421 -0.00392805 -0.268537 3.76405 -9.16877 15 1 
328 1.20003 3.64489 -0.00394992 -0.215033 3.6515 -8.98008 15 1 
330 1.20038 3.54362 -0.00397669 -0.170889 3.54796 -8.34355 15 1 
332 1.20067 3.4523 -0.00401159 -0.133258 3.45503 -7.81848 15 1 
334 1.20074 3.3604 -0.00405245 -0.103988 3.36218 -7.69446 15 1 
336 1.2009 3.27327 -0.00408653 -0.0812908 3.27444 -7.40951 15 1 
338 1.20119 3.19883 -0.00410725 -0.0604515 3.19953 -6.87979 15 1 
340 1.20135 3.12726 -0.00413809 -0.0430186 3.12767 -6.60185 15 1 
342 1.2014 3.05337 -0.00419437 -0.031536 3.05365 -6.49674 15 1 
344 1.20157 2.98621 -0.00424149 -0.0202387 2.98638 -6.19481 15 1 
346 1.20177 2.9289 -0.00426756 -0.00767396 2.929 -5.83514 15 1 
348 1.20186 2.87334 -0.00431293 0.000305057 2.87343 -5.66423 15 1 
350 1.20193 2.81619 -0.00437856 0.0042321 2.81627 -5.53938 15 1 
352 1.20208 2.76403 -0.00442626 0.00906436 2.76411 -5.27366 15 1 
354 1.20222 2.71816 -0.00446193 0.0146523 2.71827 -5.01953 15 1 
356 1.20229 2.67109 -0.00450253 0.0193779 2.67124 -4.90307 15 1 
358 1.20237 2.6227 -0.00454003 0.0244384 2.62289 -4.74893 15 1 
360 1.2025 2.57921 -0.00459163 0.0307191 2.57946 -4.51337 15 1 
362 1.20259 2.54091 -0.0046695 0.0352048 2.54121 -4.35671 15 1 
364 1.20264 2.50446 -0.0047467 0.0363227 2.50478 -4.25776 15 1 
366 1.20274 2.47025 -0.00481248 0.0365553 2.47057 -4.08846 15 1 
368 1.20284 2.43927 -0.00486659 0.0364341 2.43959 -3.89759 15 1 
370 1.2029 2.41032 -0.00489968 0.0332076 2.4106 -3.78552 15 1 
372 1.20296 2.38422 -0.00489306 0.0264364 2.38441 -3.68041 15 1 
374 1.20305 2.36184 -0.00480052 0.0187373 2.36195 -3.5162 15 1 
376 1.20312 2.3372 -0.00458879 0.0131824 2.33727 -3.38694 15 1 
378 1.20316 2.30013 -0.00428407 0.013296 2.30026 -3.31915 15 1 
380 1.20321 2.24424 -0.00393584 0.0229828 2.24454 -3.22445 15 1 
382 1.20328 2.16825 -0.0035809 0.0428085 2.16902 -3.09986 15 1 
384 1.20334 2.07452 -0.0032833 0.0688374 2.07619 -3.00324 15 1 
384 1.20334 2.07452 -0.0032833 0.0688374 2.07619 -3.00324 16 1 
386 1.20338 1.96992 -0.00313942 0.0965292 1.97294 -2.91769 16 1 
388 1.20345 1.86486 -0.00322516 0.123595 1.86966 -2.79218 16 1 
390 1.20353 1.76834 -0.00358844 0.148319 1.77523 -2.65396 16 1 
392 1.20359 1.68559 -0.00426152 0.168106 1.69454 -2.54621 16 1 
394 1.20365 1.6205 -0.00522308 0.181336 1.63108 -2.43104 16 1 
396 1.20373 1.57585 -0.00643414 0.188575 1.58745 -2.28634 16 1 
398 1.20381 1.55126 -0.0078346 0.191642 1.5634 -2.15692 16 1 
400 1.20386 1.54483 -0.00929542 0.192112 1.55713 -2.0516 16 1 
402 1.20393 1.55514 -0.0106922 0.190907 1.56731 -1.93153 16 1 
404 1.204 1.58038 -0.0119645 0.188444 1.59219 -1.79786 16 1 
406 1.20407 1.6177 -0.0130812 0.184602 1.62891 -1.68338 16 1 
408 1.20413 1.66503 -0.0140157 0.179324 1.67547 -1.57129 16 1 
410 1.20421 1.72113 -0.0147854 0.172248 1.73061 -1.43546 16 1 
412 1.20428 1.78427 -0.0154217 0.16256 1.79258 -1.30453 16 1 
414 1.20434 1.85337 -0.0159402 0.149945 1.86037 -1.19053 16 1 
416 1.20441 1.92839 -0.0163671 0.135024 1.93406 -1.06446 16 1 
416 1.20441 1.92839 -0.0163671 0.135024 1.93406 -1.06446 16 1 
418 1.20449 2.00869 -0.0167293 0.118051 2.0131 -0.924011 16 1 
420 1.20456 2.09303 -0.0170367 0.0988595 2.09631 -0.791776 16 1 
422 1.20463 2.18107 -0.0173078 0.0778831 2.1834 -0.67012 16 1 
424 1.2047 2.27351 -0.0175666 0.055936 2.27513 -0.540105 16 1 
426 1.20478 2.37019 -0.0178028 0.0333426 2.37135 -0.401441 16 1 
428 1.20485 2.46985 -0.0180259 0.0103007 2.47081 -0.274123 16 1 
430 1.20491 2.57233 -0.0182556 -0.0125576 2.57331 -0.154673 16 1 
432 1.20499 2.67839 -0.0184854 -0.0348271 2.67958 -0.0254782 16 1 
434 1.20506 2.7878 -0.0187222 -0.0564248 2.78937 0.104495 16 1 
436 1.20512 2.89967 -0.0189687 -0.0769263 2.90171 0.219315 16 1 
438 1.20518 3.01371 -0.0192071 -0.0958591 3.01628 0.329711 16 1 
440 1.20525 3.1302 -0.0194059 -0.113201 3.13332 0.446328 16 1 
442 1.20531 3.24906 -0.0195369 -0.128945 3.25272 0.557509 16 1 
444 1.20536 3.36982 -0.0196038 -0.142898 3.37396 0.657621 16 1 
446 1.20542 3.49203 -0.0196103 -0.154832 3.49656 0.752771 16 1 
448 1.20547 3.61535 -0.0195421 -0.164616 3.62019 0.843082 16 1 
448 1.20547 3.61535 -0.0195421 -0.164616 3.62019 0.843082 17 1 
450 1.20551 3.73978 -0.0194087 -0.172286 3.74482 0.924514 17 1 
452 1.20555 3.86529 -0.0192139 -0.177922 3.87043 0.99874 17 1 
454 1.20559 3.99154 -0.0189507 -0.18142 3.99665 1.07202 17 1 
456 1.20563 4.11812 -0.0186296 -0.182699 4.12311 1.13998 17 1 
458 1.20566 4.24478 -0.018248 -0.181799 4.24956 1.19306 17 1 
460 1.20568 4.37162 -0.0178055 -0.178645 4.37609 1.23197 17 1 
462 1.2057 4.49893 -0.0173241 -0.173053 4.50301 1.2643 17 1 
464 1.20572 4.62665 -0.0168244 -0.164959 4.63029 1.29378 17 1 
466 1.20573 4.75459 -0.016325 -0.154177 4.75774 1.31565 17 1 
468 1.20574 4.88285 -0.0158513 -0.140372 4.88548 1.33283 17 1 
470 1.20575 5.01161 -0.0154255 -0.123412 5.01372 1.34797 17 1 
472 1.20575 5.14099 -0.0150579 -0.103235 5.14259 1.35086 17 1 
474 1.20574 5.27094 -0.0147674 -0.0795201 5.27211 1.34525 17 1 
476 1.20574 5.40151 -0.0145747 -0.0518689 5.40233 1.33763 17 1 
478 1.20573 5.5326 -0.0144921 -0.0201627 5.53322 1.32206 17 1 
480 1.20572 5.66394 -0.0145351 0.0155652 5.66457 1.29805 17 1 
480 1.20572 5.66394 -0.0145351 0.0155652 5.66457 1.29805 17 1 
482 1.2057 5.79528 -0.0147225 0.0552394 5.79618 1.26933 17 1 
484 1.20569 5.92606 -0.0150557 0.0985681 5.92757 1.24081 17 1 
486 1.20567 6.05557 -0.0155216 0.145093 6.05808 1.21039 17 1 
488 1.20565 6.18322 -0.016124 0.194215 6.18714 1.17566 17 1 
490 1.20563 6.30838 -0.0168461 0.245003 6.31414 1.13732 17 1 
492 1.2056 6.4305 -0.0176688 0.296341 6.4385 1.09086 17 1 
494 1.20558 6.54925 -0.0185767 0.347135 6.55983 1.04308 17 1 
496 1.20555 6.66458 -0.0195376 0.396343 6.678 0.998838 17 1 
498 1.20553 6.77688 -0.020526 0.443004 6.79327 0.957891 17 1 
500 1.20551 6.88676 -0.0214977 0.486188 6.90614 0.92985 17 1 
502 1.20551 6.99472 -0.0224239 0.52517 7.01698 0.9146 17 1 
504 1.2055 7.10097 -0.0232952 0.559616 7.12588 0.904168 17 1 
506 1.20549 7.20573 -0.0240916 0.589413 7.233 0.893443 17 1 
508 1.20549 7.30924 -0.0247955 0.614603 7.33851 0.887957 17 1 
510 1.2055 7.41148 -0.025389 0.635308 7.44236 0.894649 17 1 
512 1.2055 7.5124 -0.0258663 0.651702 7.5445 0.904081 17 1 
512 1.2055 7.5124 -0.0258663 0.651702 7.5445 0.904081 25 1 
514 1.20551 7.61195 -0.0262241 0.664201 7.64489 0.91231 25 1 
516 1.20551 7.71012 -0.0264764 0.673364 7.74357 0.921723 25 1 
518 1.20552 7.80688 -0.02664 0.679643 7.84055 0.931604 25 1 
520 1.20552 7.90213 -0.0267374 0.683373 7.93576 0.943575 25 1 
522 1.20553 7.99576 -0.0267753 0.684888 8.02915 0.957319 25 1 
524 1.20554 8.0878 -0.0267367 0.684574 8.12078 0.968683 25 1 
526 1.20554 8.17844 -0.0266464 0.68287 8.21087 0.970929 25 1 
528 1.20553 8.26779 -0.0265008 0.68016 8.29957 0.965985 25 1 
530 1.20553 8.3558 -0.0262893 0.676815 8.38689 0.959455 25 1 
532 1.20553 8.44246 -0.0260154 0.673278 8.47283 0.948319 25 1 
534 1.20552 8.52792 -0.0256788 0.669878 8.55758 0.935053 25 1 
536 1.20551 8.61228 -0.0253046 0.666843 8.64127 0.926329 25 1 
538 1.20551 8.69541 -0.0249061 0.664458 8.72379 0.916126 25 1 
540 1.2055 8.77702 -0.0244791 0.662846 8.80484 0.894575 25 1 
542 1.20548 8.85694 -0.0240013 0.662137 8.88428 0.863123 25 1 
544 1.20546 8.93484 -0.0234565 0.662511 8.96178 0.828082 25 1 
544 1.20546 8.93484 -0.0234565 0.662511 8.96178 0.828082 25 1 
546 1.20544 9.01044 -0.0228503 0.663846 9.03708 0.788087 25 1 
548 1.20541 9.08356 -0.0222139 0.66574 9.10994 0.746642 25 1 
550 1.2054 9.15358 -0.0215777 0.667874 9.17974 0.714963 25 1 
552 1.20538 9.21959 -0.0209156 0.66977 9.24552 0.683608 25 1 
554 1.20535 9.28085 -0.0201899 0.670626 9.3065 0.640789 25 1 
556 1.20533 9.33677 -0.0194232 0.669903 9.36205 0.590627 25 1 
558 1.2053 9.38709 -0.0186573 0.666933 9.41188 0.539605 25 1 
560 1.20527 9.43186 -0.0179178 0.660588 9.45594 0.495348 25 1 
562 1.20525 9.47096 -0.0171963 0.65017 9.4941 0.455532 25 1 
564 1.20523 9.50453 -0.0164762 0.63538 9.52647 0.417799 25 1 
566 1.20521 9.5332 -0.015761 0.615903 9.55369 0.383838 25 1 
568 1.20519 9.55761 -0.0150966 0.591905 9.57645 0.348157 25 1 
570 1.20517 9.57827 -0.0145283 0.564018 9.59532 0.311337 25 1 
572 1.20515 9.59543 -0.0140271 0.533206 9.61062 0.278236 25 1 
574 1.20514 9.60952 -0.0135149 0.500466 9.62286 0.246216 25 1 
576 1.20512 9.62157 -0.0129649 0.465934 9.63312 0.212726 25 1 
576 1.20512 9.62157 -0.0129649 0.465934 9.63312 0.212726 26 1 
578 1.2051 9.6327 -0.0124338 0.429493 9.6425 0.180563 26 1 
580 1.20508 9.64355 -0.0119817 0.39167 9.65168 0.152799 26 1 
582 1.20507 9.6545 -0.0115968 0.352762 9.66109 0.129907 26 1 
584 1.20506 9.66608 -0.0112448 0.313527 9.67128 0.107872 26 1 
586 1.20505 9.67867 -0.0109346 0.275424 9.68268 0.0828968 26 1 
588 1.20503 9.69257 -0.0106787 0.239214 9.69561 0.0540749 26 1 
590 1.20501 9.70769 -0.0104443 0.20542 9.70992 0.0264031 26 1 
592 1.205 9.72363 -0.0101804 0.174879 9.72525 0.00186509 26 1 
594 1.20499 9.74066 -0.00986646 0.14725 9.74181 -0.0262225 26 1 
596 1.20497 9.75882 -0.00951375 0.122214 9.75961 -0.0513099 26 1 
598 1.20496 9.77746 -0.00917075 0.100683 9.77799 -0.0706268 26 1 
600 1.20495 9.7962 -0.00887407 0.0829516 9.79656 -0.0901979 26 1 
602 1.20494 9.81472 -0.00865338 0.0682434 9.81497 -0.108799 26 1 
604 1.20493 9.83203 -0.00850456 0.0570513 9.8322 -0.128334 26 1 
606 1.20492 9.84754 -0.00841141 0.0490549 9.84767 -0.149824 26 1 
608 1.2049 9.86168 -0.00835933 0.0424672 9.86177 -0.171999 26 1 
608 1.2049 9.86168 -0.00835933 0.0424672 9.86177 -0.171999 26 1 
610 1.20489 9.87424 -0.00831969 0.036742 9.87431 -0.198604 26 1 
612 1.20487 9.8847 -0.00828857 0.0318163 9.88476 -0.227803 26 1 
614 1.20486 9.89377 -0.00827765 0.0267952 9.89381 -0.256309 26 1 
616 1.20484 9.90192 -0.00826676 0.0218083 9.90195 -0.287746 26 1 
618 1.20482 9.90906 -0.00822111 0.0181375 9.90908 -0.317443 26 1 
620 1.20481 9.91578 -0.00816456 0.0156002 9.9158 -0.349334 26 1 
622 1.20478 9.92232 -0.00813065 0.0135491 9.92233 -0.389364 26 1 
624 1.20476 9.9282 -0.00812281 0.0122092 9.92822 -0.42862 26 1 
626 1.20474 9.93372 -0.00812505 0.0111648 9.93373 -0.461159 26 1 
628 1.20473 9.93929 -0.00812466 0.00998937 9.9393 -0.489371 26 1 
630 1.20471 9.94451 -0.00812691 0.00910967 9.94452 -0.51851 26 1 
632 1.20469 9.94932 -0.00811574 0.00809615 9.94932 -0.552863 26 1 
634 1.20467 9.95392 -0.00808925 0.00671126 9.95392 -0.590491 26 1 
636 1.20466 9.95812 -0.00804998 0.0057393 9.95812 -0.618142 26 1 
638 1.20465 9.96195 -0.00799311 0.00506377 9.96195 -0.630618 26 1 
640 1.20465 9.9654 -0.00793047 0.00441179 9.96541 -0.632716 26 1 
642 1.20465 9.96832 -0.00787435 0.00406208 9.96832 -0.634057 26 1 
644 1.20465 9.97081 -0.00781003 0.00380794 9.97081 -0.639223 26 1 
646 1.20464 9.9731 -0.00775078 0.0034016 9.97311 -0.643992 26 1 
648 1.20464 9.97511 -0.00773104 0.00320991 9.97511 -0.649425 26 1 
650 1.20464 9.97661 -0.00771646 0.00329758 9.97661 -0.645768 26 1 
652 1.20466 9.97772 -0.00769623 0.0031322 9.97773 -0.622937 26 1 
654 1.20467 9.97868 -0.00768558 0.00298145 9.97868 -0.599171 26 1 
656 1.20467 9.97954 -0.00767995 0.0029623 9.97955 -0.588565 26 1 
658 1.20468 9.98043 -0.00767283 0.00270332 9.98044 -0.584762 26 1 
660 1.20468 9.98102 -0.00766981 0.00239315 9.98103 -0.579192 26 1 
662 1.20469 9.98101 -0.00766525 0.00262461 9.98101 -0.561982 26 1 
664 1.2047 9.98093 -0.00765199 0.00267726 9.98094 -0.53708 26 1 
666 1.20471 9.98102 -0.00762446 0.00236677 9.98102 -0.523243 26 1 
668 1.20471 9.98099 -0.00759879 0.0023185 9.98099 -0.526772 26 1 
670 1.2047 9.981 -0.00756498 0.0023763 9.981 -0.53386 26 1 
672 1.20471 9.98101 -0.00752982 0.00224097 9.98101 -0.529668 26 1 
672 1.20471 9.98101 -0.00752982 0.00224097 9.98101 -0.529668 27 1 
674 1.20472 9.98062 -0.00752443 0.00223178 9.98062 -0.511892 27 1 
676 1.20473 9.98005 -0.00751586 0.00235978 9.98006 -0.49592 27 1 
678 1.20473 9.97994 -0.00749346 0.00208911 9.97994 -0.494623 27 1 
680 1.20472 9.97997 -0.00746559 0.00200137 9.97997 -0.50731 27 1 
682 1.20471 9.97968 -0.00744999 0.00215587 9.97969 -0.520816 27 1 
684 1.20471 9.97947 -0.007441 0.00204502 9.97947 -0.517718 27 1 
686 1.20472 9.97939 -0.00742559 0.00188608 9.97939 -0.504814 27 1 
688 1.20472 9.97922 -0.00742428 0.0019224 9.97922 -0.497334 27 1 
690 1.20472 9.97904 -0.00741165 0.00197204 9.97905 -0.498504 27 1 
692 1.20472 9.97907 -0.00737493 0.00184547 9.97908 -0.507579 27 1 
694 1.20471 9.97921 -0.00734223 0.00180109 9.97921 -0.518836 27 1 
696 1.20471 9.97918 -0.0073438 0.00180053 9.97918 -0.521251 27 1 
698 1.20472 9.97921 -0.00734876 0.00161254 9.97921 -0.514426 27 1 
700 1.20472 9.97931 -0.00732705 0.00150421 9.97932 -0.508025 27 1 
702 1.20472 9.97933 -0.007295 0.00155201 9.97933 -0.5117 27 1 
704 1.20471 9.97953 -0.00726107 0.00162273 9.97953 -0.523909 27 1 
704 1.20471 9.97953 -0.00726107 0.00162273 9.97953 -0.523909 31 1 
706 1.20471 9.97996 -0.00723934 0.00157682 9.97996 -0.528187 31 1 
708 1.20471 9.98022 -0.00723709 0.00151719 9.98023 -0.520222 31 1 
710 1.20471 9.9805 -0.00723579 0.0014285 9.9805 -0.516831 31 1 
712 1.20471 9.98083 -0.00721033 0.00130631 9.98083 -0.532144 31 1 
714 1.20469 9.98083 -0.00717881 0.00141076 9.98083 -0.554357 31 1 
716 1.20469 9.98072 -0.00715219 0.00150021 9.98073 -0.555672 31 1 
718 1.2047 9.98096 -0.00714324 0.00138599 9.98096 -0.540909 31 1 
720 1.2047 9.98159 -0.00714514 0.00137961 9.98159 -0.537433 31 1 
722 1.20469 9.98203 -0.00714252 0.00134608 9.98203 -0.553052 31 1 
724 1.20469 9.98209 -0.00712499 0.00119679 9.98209 -0.568236 31 1 
726 1.20468 9.98197 -0.00709585 0.00122197 9.98197 -0.569802 31 1 
728 1.20469 9.98194 -0.00707056 0.00135896 9.98194 -0.568735 31 1 
730 1.20468 9.98213 -0.00706009 0.00129402 9.98214 -0.575953 31 1 
732 1.20467 9.98224 -0.00705392 0.00123043 9.98225 -0.589224 31 1 
734 1.20467 9.98224 -0.00703716 0.00120583 9.98224 -0.600439 31 1 
736 1.20466 9.98223 -0.00701774 0.00107544 9.98223 -0.607782 31 1 
738 1.20467 9.98237 -0.00701322 0.00110726 9.98237 -0.601573 31 1 
740 1.20467 9.9824 -0.00700929 0.00129538 9.9824 -0.593689 31 1 
742 1.20467 9.9822 -0.0069876 0.00128592 9.9822 -0.603216 31 1 
744 1.20465 9.98205 -0.00695931 0.00112511 9.98205 -0.625432 31 1 
746 1.20464 9.98178 -0.00694157 0.00109949 9.98178 -0.64809 31 1 
748 1.20464 9.98167 -0.00693306 0.00104901 9.98167 -0.656008 31 1 
750 1.20464 9.98172 -0.00692188 0.000947569 9.98173 -0.645006 31 1 
752 1.20465 9.98167 -0.00690816 0.000894846 9.98167 -0.63053 31 1 
752 1.20465 9.98167 -0.00690816 0.000894846 9.98167 -0.63053 31 1 
754 1.20465 9.9814 -0.00690315 0.00104272 9.98141 -0.635388 31 1 
756 1.20464 9.98114 -0.00688571 0.00106196 9.98114 -0.658215 31 1 
758 1.20462 9.98081 -0.00685595 0.000848899 9.98082 -0.685825 31 1 
760 1.20461 9.98056 -0.00683625 0.000834276 9.98056 -0.702722 31 1 
762 1.20461 9.98059 -0.00682907 0.000960447 9.98059 -0.702212 31 1 
764 1.20462 9.98068 -0.00681704 0.000987194 9.98068 -0.687668 31 1 
766 1.20462 9.98054 -0.00680254 0.000941489 9.98054 -0.677764 31 1 
768 1.20462 9.98004 -0.00678158 0.00111956 9.98004 -0.694118 31 1 
770 1.2046 9.98003 -0.0067614 0.00110058 9.98003 -0.718658 31 1 
772 1.20459 9.97994 -0.00674434 0.00102657 9.97995 -0.7372 31 1 
774 1.20459 9.97963 -0.00671949 0.00115158 9.97963 -0.745676 31 1 
776 1.20459 9.97942 -0.00670929 0.00117368 9.97942 -0.744015 31 1 
778 1.20459 9.97914 -0.00669573 0.00111256 9.97915 -0.740722 31 1 
780 1.20459 9.97919 -0.00667601 0.00115633 9.9792 -0.742634 31 1 
782 1.20458 9.97936 -0.00666026 0.00133456 9.97936 -0.755254 31 1 
784 1.20457 9.97921 -0.00664734 0.0012839 9.97921 -0.770302 31 1 
786 1.20457 9.97875 -0.00663003 0.00121743 9.97875 -0.782277 31 1 
788 1.20456 9.97842 -0.00660953 0.00132438 9.97843 -0.792685 31 1 
790 1.20456 9.97844 -0.00658235 0.00140605 9.97844 -0.794041 31 1 
792 1.20456 9.9786 -0.00656935 0.00147975 9.97861 -0.789417 31 1 
794 1.20456 9.97823 -0.00656902 0.00150228 9.97824 -0.802262 31 1 
796 1.20454 9.97788 -0.00655644 0.00150434 9.97788 -0.828406 31 1 
798 1.20453 9.97793 -0.00653928 0.00156801 9.97793 -0.842809 31 1 
800 1.20453 9.97791 -0.00653264 0.00153843 9.97791 -0.845226 31 1 
