48.905;r ;Density                 ;Velocity u              ;Velocity v              ;Velocity w              ;|Velocity|              ;Pressure                ;Distribution            ;Levels                  ;
0 1.20489 10.0007 3.03854e-05 -0.000532563 10.0007 -0.196036 1 1 
2 1.20488 10.0012 1.45696e-05 -0.000705654 10.0012 -0.211973 1 1 
4 1.20487 10.0021 -4.41675e-05 -0.000571515 10.0021 -0.227608 1 1 
6 1.20487 10.0029 -8.40184e-05 -0.000577707 10.0029 -0.234581 1 1 
8 1.20486 10.004 -0.000114851 -0.000562484 10.004 -0.251433 1 1 
10 1.20485 10.0047 -0.00014538 -0.000652288 10.0047 -0.272912 1 1 
12 1.20484 10.005 -0.000191673 -0.000826953 10.005 -0.284296 1 1 
14 1.20484 10.0054 -0.000248843 -0.000966467 10.0054 -0.283799 1 1 
16 1.20483 10.0061 -0.000295309 -0.00125251 10.0061 -0.300388 1 1 
18 1.20482 10.0068 -0.000327636 -0.00129485 10.0068 -0.317299 1 1 
20 1.20483 10.007 -0.000366897 -0.000995327 10.007 -0.306601 1 1 
22 1.20483 10.007 -0.0004147 -0.00110928 10.007 -0.303305 1 1 
24 1.20483 10.0071 -0.000452483 -0.00129147 10.0071 -0.305985 1 1 
26 1.20484 10.0069 -0.000498367 -0.00126414 10.0069 -0.285187 1 1 
28 1.20485 10.0067 -0.000544276 -0.0015535 10.0067 -0.270975 1 1 
30 1.20485 10.0064 -0.0005997 -0.00202667 10.0064 -0.265228 1 1 
32 1.20487 10.0061 -0.000642587 -0.00221023 10.0061 -0.241446 1 1 
32 1.20487 10.0061 -0.000642587 -0.00221023 10.0061 -0.241446 1 1 
34 1.20488 10.0059 -0.00069649 -0.00208227 10.0059 -0.213174 1 1 
36 1.20489 10.0057 -0.000736407 -0.00222339 10.0057 -0.199498 1 1 
38 1.2049 10.0053 -0.000791187 -0.00267233 10.0053 -0.187655 1 1 
40 1.20491 10.0046 -0.000830476 -0.00294867 10.0046 -0.157865 1 1 
42 1.20492 10.004 -0.000883671 -0.00308013 10.004 -0.137168 1 1 
44 1.20493 10.0039 -0.000948158 -0.00310921 10.0039 -0.133068 1 1 
46 1.20494 10.0039 -0.000999851 -0.0031404 10.0039 -0.116482 1 1 
48 1.20495 10.0037 -0.001056 -0.00326548 10.0037 -0.0954483 1 1 
50 1.20495 10.0034 -0.00109346 -0.00343887 10.0034 -0.0876056 1 1 
52 1.20495 10.0029 -0.00114589 -0.0034803 10.0029 -0.0822833 1 1 
54 1.20496 10.0024 -0.00121069 -0.00378556 10.0024 -0.0681314 1 1 
56 1.20496 10.0022 -0.00125834 -0.00408446 10.0022 -0.0667789 1 1 
58 1.20496 10.0024 -0.00129031 -0.00414707 10.0024 -0.077312 1 1 
60 1.20497 10.0023 -0.0013506 -0.00422854 10.0023 -0.0581611 1 1 
62 1.20498 10.0018 -0.00139139 -0.00426964 10.0018 -0.0398844 1 1 
64 1.20497 10.0019 -0.0014225 -0.00436056 10.0019 -0.0623843 1 1 
64 1.20497 10.0019 -0.0014225 -0.00436056 10.0019 -0.0623843 2 1 
66 1.20497 10.002 -0.00147162 -0.0044375 10.002 -0.061213 2 1 
68 1.20498 10.0017 -0.00150693 -0.00443133 10.0017 -0.0435756 2 1 
70 1.20497 10.0015 -0.00155014 -0.00471509 10.0015 -0.0488105 2 1 
72 1.20497 10.0011 -0.00160172 -0.00504258 10.0011 -0.0544356 2 1 
74 1.20498 10.0009 -0.0016547 -0.00497406 10.0009 -0.0434279 2 1 
76 1.20498 10.0007 -0.00169318 -0.0050589 10.0007 -0.036044 2 1 
78 1.20497 10.0009 -0.00173159 -0.00522076 10.0009 -0.0569422 2 1 
80 1.20497 10.001 -0.00178177 -0.00535433 10.001 -0.0475293 2 1 
82 1.20498 10.0006 -0.00182545 -0.00572116 10.0006 -0.0285598 2 1 
84 1.20497 10.0008 -0.00185726 -0.00577768 10.0008 -0.0505641 2 1 
86 1.20497 10.0008 -0.00188987 -0.00596642 10.0008 -0.0602459 2 1 
88 1.20498 10.0001 -0.00192206 -0.00629811 10.0001 -0.0435191 2 1 
90 1.20497 9.99995 -0.0019539 -0.00629032 9.99996 -0.0526178 2 1 
92 1.20496 10.0002 -0.0019931 -0.0061243 10.0002 -0.0681567 2 1 
94 1.20497 10.0003 -0.00203813 -0.00601858 10.0003 -0.0522641 2 1 
96 1.20497 10.0006 -0.00209525 -0.00637391 10.0006 -0.0586066 2 1 
96 1.20497 10.0006 -0.00209525 -0.00637391 10.0006 -0.0586066 2 1 
98 1.20495 10.0003 -0.00213991 -0.00718385 10.0003 -0.0884685 2 1 
100 1.20495 9.99973 -0.002156 -0.00773303 9.99973 -0.0844943 2 1 
102 1.20496 9.99975 -0.00217395 -0.00780932 9.99975 -0.0798843 2 1 
104 1.20494 9.99997 -0.00221191 -0.00744935 9.99997 -0.103033 2 1 
106 1.20493 9.99985 -0.00225047 -0.00702925 9.99985 -0.121226 2 1 
108 1.20493 9.99984 -0.00228866 -0.00696139 9.99985 -0.119601 2 1 
110 1.20494 9.99972 -0.00231324 -0.0075085 9.99973 -0.115688 2 1 
112 1.20492 9.99974 -0.00236475 -0.00814648 9.99974 -0.136397 2 1 
114 1.20492 10.0002 -0.00240103 -0.00844943 10.0002 -0.147628 2 1 
116 1.20492 9.99998 -0.00240956 -0.0087575 9.99998 -0.140008 2 1 
118 1.20491 9.99941 -0.00242323 -0.00858309 9.99941 -0.168735 2 1 
120 1.20489 9.99931 -0.00243391 -0.0083456 9.99932 -0.195954 2 1 
122 1.2049 9.9988 -0.00244457 -0.00847739 9.9988 -0.173111 2 1 
124 1.2049 9.99895 -0.0024501 -0.00848287 9.99896 -0.187991 2 1 
126 1.20487 9.99982 -0.00245551 -0.00845145 9.99982 -0.231208 2 1 
128 1.20488 9.99992 -0.0024881 -0.0088125 9.99992 -0.21801 2 1 
128 1.20488 9.99992 -0.0024881 -0.0088125 9.99992 -0.21801 10 1 
130 1.20489 9.99913 -0.00250898 -0.00911259 9.99914 -0.196371 10 1 
132 1.20486 9.99853 -0.00250167 -0.00918042 9.99854 -0.244967 10 1 
134 1.20485 9.99841 -0.00249587 -0.00908565 9.99841 -0.270538 10 1 
136 1.20487 9.99788 -0.00250135 -0.00936945 9.99789 -0.230377 10 1 
138 1.20485 9.99832 -0.00246389 -0.00938823 9.99832 -0.267602 10 1 
140 1.20483 9.99879 -0.00242458 -0.00922111 9.99879 -0.305922 10 1 
142 1.20486 9.9976 -0.00244073 -0.0093136 9.99761 -0.25986 10 1 
144 1.20485 9.99699 -0.00248208 -0.0094064 9.99699 -0.279306 10 1 
146 1.20481 9.99694 -0.00249411 -0.00927966 9.99695 -0.350274 10 1 
148 1.20482 9.99603 -0.0024942 -0.00952349 9.99603 -0.318026 10 1 
150 1.20484 9.99615 -0.0025472 -0.00987227 9.99615 -0.292061 10 1 
152 1.20481 9.99662 -0.00256689 -0.00993223 9.99663 -0.347176 10 1 
154 1.2048 9.99613 -0.00258653 -0.00976188 9.99613 -0.35342 10 1 
156 1.20482 9.99522 -0.00261054 -0.00977782 9.99523 -0.324639 10 1 
158 1.2048 9.99427 -0.0026362 -0.010067 9.99428 -0.357095 10 1 
160 1.20478 9.99394 -0.00262982 -0.0101034 9.99395 -0.39979 10 1 
160 1.20478 9.99394 -0.00262982 -0.0101034 9.99395 -0.39979 10 1 
162 1.2048 9.99286 -0.0026559 -0.0102451 9.99287 -0.35886 10 1 
164 1.20481 9.99198 -0.00268948 -0.0101037 9.99199 -0.345045 10 1 
166 1.20477 9.99212 -0.00272284 -0.00960446 9.99213 -0.422258 10 1 
168 1.20477 9.99104 -0.00276368 -0.0101872 9.99104 -0.415826 10 1 
170 1.2048 9.99012 -0.00278196 -0.0110647 9.99013 -0.359308 10 1 
172 1.20478 9.99016 -0.00281232 -0.0113359 9.99017 -0.402566 10 1 
174 1.20477 9.98905 -0.0028345 -0.0112607 9.98905 -0.41702 10 1 
176 1.20479 9.98744 -0.00286847 -0.0110789 9.98744 -0.374608 10 1 
178 1.20478 9.98569 -0.00289389 -0.0111567 9.98569 -0.399136 10 1 
180 1.20475 9.98435 -0.00294541 -0.0110102 9.98436 -0.44903 10 1 
182 1.20477 9.9835 -0.00297585 -0.0116917 9.98351 -0.416189 10 1 
184 1.2048 9.98137 -0.00302156 -0.0122266 9.98138 -0.35235 10 1 
186 1.20477 9.98053 -0.00303905 -0.0118778 9.98053 -0.416392 10 1 
188 1.20476 9.9804 -0.00310663 -0.011928 9.9804 -0.441498 10 1 
190 1.20482 9.97771 -0.0031283 -0.0121337 9.97771 -0.328478 10 1 
192 1.2048 9.97502 -0.00314223 -0.011516 9.97503 -0.361354 10 1 
194 1.20476 9.97325 -0.00317033 -0.0113734 9.97326 -0.438076 10 1 
196 1.20481 9.97063 -0.00327336 -0.0124823 9.97064 -0.336151 10 1 
198 1.20484 9.96841 -0.00331531 -0.0140362 9.96842 -0.281787 10 1 
200 1.2048 9.96679 -0.00332609 -0.0138073 9.9668 -0.365429 10 1 
202 1.20481 9.96316 -0.00340708 -0.0123512 9.96317 -0.336993 10 1 
204 1.20488 9.95904 -0.00344145 -0.0121766 9.95905 -0.223905 10 1 
206 1.20485 9.95793 -0.00349543 -0.0117292 9.95794 -0.276729 10 1 
208 1.20485 9.95585 -0.00352114 -0.0109562 9.95586 -0.271727 10 1 
210 1.20494 9.94952 -0.00362014 -0.0122453 9.94953 -0.10745 10 1 
212 1.20492 9.94353 -0.00367897 -0.0138369 9.94355 -0.152046 10 1 
214 1.20488 9.93922 -0.00374577 -0.013951 9.93923 -0.223993 10 1 
216 1.20497 9.93617 -0.00379867 -0.0135164 9.93619 -0.0567182 10 1 
218 1.20504 9.9331 -0.0038188 -0.0115698 9.9331 0.0722155 10 1 
220 1.205 9.9277 -0.00379372 -0.00997392 9.9277 0.00880486 10 1 
222 1.20502 9.92003 -0.00394336 -0.0114057 9.92004 0.0298034 10 1 
224 1.20513 9.90983 -0.00412151 -0.012654 9.90984 0.237249 10 1 
224 1.20513 9.90983 -0.00412151 -0.012654 9.90984 0.237249 10 1 
226 1.20513 9.9025 -0.00418617 -0.0113515 9.90251 0.230732 10 1 
228 1.20511 9.89806 -0.00415057 -0.0101258 9.89807 0.191665 10 1 
230 1.20527 9.88962 -0.00413192 -0.00881084 9.88962 0.486237 10 1 
232 1.20533 9.8803 -0.00425015 -0.00970886 9.88031 0.601841 10 1 
234 1.20528 9.87066 -0.00443547 -0.00977806 9.87066 0.513267 10 1 
236 1.2054 9.85731 -0.00454676 -0.00781858 9.85731 0.718633 10 1 
238 1.20554 9.8446 -0.00454133 -0.00712594 9.8446 0.96799 10 1 
240 1.20555 9.83274 -0.00453145 -0.00455431 9.83275 0.985414 10 1 
242 1.2056 9.81881 -0.00465862 -0.00206044 9.81881 1.0885 10 1 
244 1.2058 9.80176 -0.00484759 -0.0022492 9.80177 1.44905 10 1 
246 1.2059 9.783 -0.00496347 -0.000822298 9.783 1.62063 10 1 
248 1.2059 9.76576 -0.00500534 0.00224122 9.76576 1.63218 10 1 
250 1.20614 9.74341 -0.00505964 0.00646744 9.74342 2.06397 10 1 
252 1.20635 9.71637 -0.00524194 0.0105292 9.71638 2.43539 10 1 
254 1.20636 9.69188 -0.00533465 0.0154926 9.6919 2.45317 10 1 
256 1.20659 9.66428 -0.00544086 0.0199709 9.66431 2.8691 10 1 
256 1.20659 9.66428 -0.00544086 0.0199709 9.66431 2.8691 11 1 
258 1.20696 9.62801 -0.00553332 0.0257053 9.62806 3.54429 11 1 
260 1.20704 9.59099 -0.00564876 0.0348563 9.59107 3.6847 11 1 
262 1.20718 9.55316 -0.00580235 0.0467805 9.55329 3.92995 11 1 
264 1.20775 9.50236 -0.00590877 0.0603396 9.50257 4.96635 11 1 
266 1.20804 9.44959 -0.00607571 0.0761349 9.44992 5.48896 11 1 
268 1.2081 9.39727 -0.0061956 0.100023 9.39784 5.60679 11 1 
270 1.20876 9.32537 -0.00630949 0.124917 9.32626 6.79608 11 1 
272 1.20936 9.24481 -0.0064876 0.149979 9.24609 7.86654 11 1 
274 1.20945 9.1721 -0.00659336 0.193089 9.17421 8.0376 11 1 
276 1.21001 9.09566 -0.00670251 0.259907 9.09948 9.04627 11 1 
278 1.21104 8.99948 -0.00684529 0.323304 9.00544 10.9138 11 1 
280 1.21139 8.89167 -0.00695702 0.389179 8.90043 11.5351 11 1 
282 1.21132 8.79434 -0.00703535 0.476398 8.80748 11.4156 11 1 
284 1.21228 8.70434 -0.00717679 0.59524 8.7251 13.1556 11 1 
286 1.2133 8.60963 -0.00730149 0.728101 8.64076 14.9938 11 1 
288 1.21296 8.52201 -0.00735709 0.841668 8.56384 14.3811 11 1 
288 1.21296 8.52201 -0.00735709 0.841668 8.56384 14.3811 11 1 
290 1.21301 8.44051 -0.00742786 0.97209 8.49689 14.4755 11 1 
292 1.21414 8.37334 -0.00749985 1.12934 8.44983 16.5095 11 1 
294 1.21446 8.28687 -0.00755225 1.24436 8.38029 17.0877 11 1 
296 1.21299 7.82679 -0.00754766 1.01093 7.90247 14.4303 11 1 
298 1.2092 6.80809 -0.00753545 0.21677 6.85201 7.59381 11 1 
300 1.20415 5.6919 -0.00757942 -0.752858 5.78835 -1.53936 11 1 
302 1.20053 4.93085 -0.0076545 -1.40921 5.14734 -8.08055 11 1 
304 1.1989 4.60143 -0.00771093 -1.6243 4.8814 -11.0254 11 1 
306 1.19821 4.52857 -0.00775303 -1.55237 4.78842 -12.2614 11 1 
308 1.19821 4.50621 -0.0077987 -1.39429 4.71806 -12.2676 11 1 
310 1.19868 4.46758 -0.00779696 -1.2368 4.6364 -11.4147 11 1 
312 1.19875 4.40795 -0.00781171 -1.07156 4.53734 -11.2916 11 1 
314 1.19862 4.33062 -0.00787887 -0.902824 4.42452 -11.5325 11 1 
316 1.19913 4.24365 -0.00791141 -0.775361 4.31427 -10.6103 11 1 
318 1.19958 4.15636 -0.00799823 -0.651358 4.20779 -9.79269 11 1 
320 1.19955 4.05178 -0.00816162 -0.52421 4.08602 -9.84378 11 1 
320 1.19955 4.05178 -0.00816162 -0.52421 4.08602 -9.84378 15 1 
322 1.19983 3.92709 -0.00824457 -0.430268 3.95098 -9.33959 15 1 
324 1.20033 3.81074 -0.00832913 -0.348064 3.82692 -8.43218 15 1 
326 1.2005 3.7011 -0.00846591 -0.277939 3.71179 -8.13252 15 1 
328 1.2006 3.5877 -0.00839561 -0.225645 3.59507 -7.9464 15 1 
330 1.20095 3.48217 -0.00817113 -0.182615 3.48719 -7.31822 15 1 
332 1.20123 3.38619 -0.00817613 -0.14665 3.38953 -6.80316 15 1 
334 1.2013 3.28902 -0.00838336 -0.120092 3.2914 -6.6865 15 1 
336 1.20145 3.19625 -0.00841372 -0.100031 3.19799 -6.41414 15 1 
338 1.20173 3.11596 -0.00820239 -0.0806163 3.11715 -5.90487 15 1 
340 1.20187 3.03825 -0.00801357 -0.0636543 3.03905 -5.64549 15 1 
342 1.20192 2.95762 -0.00799273 -0.0522769 2.95822 -5.55505 15 1 
344 1.20208 2.88346 -0.00806221 -0.041146 2.88387 -5.26917 15 1 
346 1.20227 2.81919 -0.00814246 -0.029265 2.81945 -4.9263 15 1 
348 1.20236 2.75584 -0.00823504 -0.0220265 2.75604 -4.7708 15 1 
350 1.20242 2.68979 -0.00832799 -0.0174067 2.68995 -4.66378 15 1 
352 1.20255 2.62882 -0.00839848 -0.0102795 2.62894 -4.42268 15 1 
354 1.20268 2.57558 -0.00846482 -0.00277006 2.57568 -4.19476 15 1 
356 1.20273 2.52285 -0.00853604 0.00184392 2.52295 -4.09898 15 1 
358 1.20281 2.46928 -0.00859674 0.00553254 2.46937 -3.96369 15 1 
360 1.20292 2.41982 -0.00865675 0.0110792 2.41993 -3.74891 15 1 
362 1.203 2.37401 -0.00872785 0.0164676 2.37415 -3.61284 15 1 
364 1.20304 2.32874 -0.00879401 0.0200771 2.32892 -3.53335 15 1 
366 1.20313 2.28509 -0.00886015 0.0240957 2.2853 -3.38614 15 1 
368 1.20322 2.24413 -0.00893494 0.0291472 2.2444 -3.22112 15 1 
370 1.20327 2.20399 -0.00901429 0.0330907 2.20433 -3.1331 15 1 
372 1.20331 2.16488 -0.00910101 0.0360815 2.16528 -3.04748 15 1 
374 1.2034 2.12907 -0.00919068 0.0397579 2.12952 -2.89794 15 1 
376 1.20346 2.09535 -0.00928245 0.0434648 2.09589 -2.77417 15 1 
378 1.2035 2.06175 -0.0093969 0.0456871 2.06235 -2.70174 15 1 
380 1.20356 2.02971 -0.00954622 0.0471878 2.03034 -2.59985 15 1 
382 1.20363 2.00061 -0.00970736 0.0492214 2.0013 -2.47299 15 1 
384 1.20368 1.97301 -0.00986986 0.0511114 1.97376 -2.38417 15 1 
384 1.20368 1.97301 -0.00986986 0.0511114 1.97376 -2.38417 16 1 
386 1.20372 1.94572 -0.0100429 0.0519065 1.9465 -2.31652 16 1 
388 1.20377 1.91987 -0.010224 0.0521115 1.92066 -2.21341 16 1 
390 1.20384 1.89596 -0.0104001 0.052204 1.89676 -2.10068 16 1 
392 1.20388 1.87276 -0.010575 0.0514785 1.87355 -2.02392 16 1 
394 1.20392 1.85037 -0.0107491 0.0493743 1.85111 -1.94658 16 1 
396 1.20398 1.83019 -0.0109353 0.0461301 1.83084 -1.84576 16 1 
398 1.20403 1.81243 -0.0111687 0.0422157 1.81299 -1.76068 16 1 
400 1.20406 1.79694 -0.0114509 0.0382142 1.79742 -1.6956 16 1 
402 1.20411 1.7844 -0.0117736 0.0349775 1.78481 -1.61568 16 1 
404 1.20415 1.77478 -0.0121464 0.0334794 1.77516 -1.52772 16 1 
406 1.20419 1.76673 -0.0125652 0.0343849 1.76714 -1.46386 16 1 
408 1.20422 1.75934 -0.0129807 0.0380058 1.75985 -1.40375 16 1 
410 1.20427 1.75217 -0.0133377 0.0440574 1.75285 -1.31756 16 1 
412 1.20432 1.74388 -0.0136074 0.0515206 1.74478 -1.23216 16 1 
414 1.20435 1.73343 -0.0137631 0.0595847 1.73461 -1.16574 16 1 
416 1.20439 1.72098 -0.0138016 0.0682563 1.7225 -1.09722 16 1 
416 1.20439 1.72098 -0.0138016 0.0682563 1.7225 -1.09722 16 1 
418 1.20443 1.70643 -0.0137428 0.0772724 1.70837 -1.02083 16 1 
420 1.20447 1.68913 -0.0135977 0.0859652 1.69152 -0.951438 16 1 
422 1.20451 1.66909 -0.0133928 0.0940655 1.67194 -0.888993 16 1 
424 1.20455 1.6476 -0.0131665 0.101564 1.65093 -0.815493 16 1 
426 1.20459 1.62549 -0.0129335 0.107872 1.62926 -0.734079 16 1 
428 1.20463 1.60258 -0.0127215 0.112048 1.60668 -0.665724 16 1 
430 1.20467 1.57999 -0.0125732 0.113713 1.58424 -0.603356 16 1 
432 1.20471 1.56013 -0.0125328 0.112693 1.56434 -0.53204 16 1 
434 1.20474 1.54445 -0.0126514 0.108741 1.54839 -0.461539 16 1 
436 1.20478 1.5335 -0.012965 0.102049 1.53699 -0.400077 16 1 
438 1.20481 1.52845 -0.0134794 0.0932192 1.53138 -0.336524 16 1 
440 1.20485 1.53069 -0.0141731 0.0826323 1.53302 -0.264873 16 1 
442 1.20489 1.5405 -0.015013 0.0706375 1.54222 -0.199338 16 1 
444 1.20492 1.55753 -0.0159831 0.057799 1.55874 -0.143603 16 1 
446 1.20495 1.58161 -0.0170414 0.0447434 1.5824 -0.0830562 16 1 
448 1.20499 1.61231 -0.0181367 0.0317852 1.61282 -0.0158375 16 1 
448 1.20499 1.61231 -0.0181367 0.0317852 1.61282 -0.0158375 17 1 
450 1.20503 1.64899 -0.0192533 0.0189503 1.64933 0.0524257 17 1 
452 1.20507 1.69099 -0.0203624 0.00646036 1.69127 0.119507 17 1 
454 1.2051 1.73762 -0.0214362 -0.00534418 1.73792 0.180928 17 1 
456 1.20513 1.78815 -0.0224706 -0.0164249 1.78856 0.236049 17 1 
458 1.20516 1.84197 -0.0234503 -0.0269454 1.84252 0.288764 17 1 
460 1.20519 1.89882 -0.0243677 -0.0368227 1.89955 0.347932 17 1 
462 1.20523 1.95856 -0.0252334 -0.0459543 1.9595 0.417524 17 1 
464 1.20527 2.02057 -0.0260428 -0.054502 2.02172 0.484254 17 1 
466 1.2053 2.08416 -0.0267863 -0.0625226 2.08552 0.538194 17 1 
468 1.20532 2.14921 -0.0274633 -0.0698182 2.15078 0.584752 17 1 
470 1.20535 2.21579 -0.0280723 -0.076446 2.21756 0.632435 17 1 
472 1.20538 2.28371 -0.0286204 -0.0826542 2.28566 0.683755 17 1 
474 1.20541 2.35273 -0.0291212 -0.0883899 2.35485 0.736676 17 1 
476 1.20544 2.42266 -0.0295879 -0.0934569 2.42493 0.78992 17 1 
478 1.20546 2.49322 -0.0300118 -0.0979483 2.49561 0.836757 17 1 
480 1.20548 2.56427 -0.030378 -0.101995 2.56676 0.873628 17 1 
480 1.20548 2.56427 -0.030378 -0.101995 2.56676 0.873628 17 1 
482 1.2055 2.63592 -0.0307003 -0.105506 2.63849 0.90969 17 1 
484 1.20553 2.70814 -0.0309863 -0.108452 2.71077 0.949066 17 1 
486 1.20555 2.78068 -0.0312429 -0.1109 2.78334 0.989137 17 1 
488 1.20557 2.85335 -0.0314889 -0.112853 2.85603 1.02549 17 1 
490 1.20558 2.92611 -0.0317252 -0.114333 2.92878 1.0538 17 1 
492 1.2056 2.99899 -0.0319448 -0.115386 3.00165 1.07828 17 1 
494 1.20561 3.07204 -0.0321598 -0.11603 3.07467 1.10366 17 1 
496 1.20563 3.14511 -0.0323745 -0.116254 3.14769 1.13039 17 1 
498 1.20564 3.21804 -0.0325921 -0.116031 3.22055 1.1571 17 1 
500 1.20565 3.2909 -0.0328184 -0.115444 3.29335 1.18056 17 1 
502 1.20566 3.36372 -0.0330642 -0.114646 3.36609 1.19854 17 1 
504 1.20567 3.43632 -0.0333451 -0.113661 3.43862 1.2095 17 1 
506 1.20567 3.50869 -0.033659 -0.112459 3.51091 1.21675 17 1 
508 1.20568 3.58099 -0.0339975 -0.111088 3.58314 1.22558 17 1 
510 1.20568 3.65331 -0.0343647 -0.109673 3.65538 1.23723 17 1 
512 1.20569 3.72558 -0.0347795 -0.108325 3.72759 1.25095 17 1 
512 1.20569 3.72558 -0.0347795 -0.108325 3.72759 1.25095 25 1 
514 1.2057 3.79777 -0.0352416 -0.107085 3.79973 1.26244 25 1 
516 1.2057 3.86988 -0.0357459 -0.105975 3.87178 1.26876 25 1 
518 1.2057 3.94186 -0.0362949 -0.105068 3.94373 1.26982 25 1 
520 1.2057 4.01379 -0.0368951 -0.104457 4.01563 1.26575 25 1 
522 1.2057 4.08579 -0.0375385 -0.104261 4.08761 1.2605 25 1 
524 1.2057 4.15796 -0.0382218 -0.104572 4.15978 1.25776 25 1 
526 1.2057 4.23028 -0.0389525 -0.105388 4.23212 1.25834 25 1 
528 1.2057 4.30272 -0.0397239 -0.106759 4.30459 1.2599 25 1 
530 1.2057 4.37527 -0.0405365 -0.108759 4.3772 1.25921 25 1 
532 1.20569 4.44791 -0.041388 -0.111415 4.44991 1.2549 25 1 
534 1.20569 4.52068 -0.042277 -0.114793 4.52277 1.24599 25 1 
536 1.20568 4.59357 -0.0432023 -0.11889 4.59577 1.23486 25 1 
538 1.20568 4.66651 -0.0441552 -0.123676 4.66885 1.2233 25 1 
540 1.20567 4.73957 -0.04512 -0.129202 4.74207 1.21339 25 1 
542 1.20567 4.81282 -0.0460909 -0.135519 4.8155 1.20855 25 1 
544 1.20567 4.88615 -0.0470692 -0.142569 4.88904 1.20402 25 1 
544 1.20567 4.88615 -0.0470692 -0.142569 4.88904 1.20402 25 1 
546 1.20566 4.95937 -0.0480539 -0.150236 4.9625 1.19598 25 1 
548 1.20566 5.0324 -0.049037 -0.158477 5.03579 1.18518 25 1 
550 1.20565 5.10526 -0.0500117 -0.167261 5.10894 1.17135 25 1 
552 1.20564 5.17793 -0.0509753 -0.176553 5.18191 1.15674 25 1 
554 1.20563 5.25035 -0.0519191 -0.18635 5.25467 1.14435 25 1 
556 1.20563 5.32246 -0.0528341 -0.196546 5.32714 1.13668 25 1 
558 1.20563 5.39416 -0.0537129 -0.206979 5.39923 1.13132 25 1 
560 1.20562 5.4654 -0.0545521 -0.217538 5.47086 1.1245 25 1 
562 1.20562 5.53603 -0.0553481 -0.228198 5.54191 1.11504 25 1 
564 1.20561 5.60599 -0.0561002 -0.238869 5.61229 1.09988 25 1 
566 1.2056 5.67529 -0.0568059 -0.249416 5.68202 1.08318 25 1 
568 1.20559 5.74399 -0.0574644 -0.259789 5.75115 1.06971 25 1 
570 1.20559 5.81215 -0.0580715 -0.269913 5.81973 1.05965 25 1 
572 1.20558 5.87972 -0.0586167 -0.279736 5.88771 1.0556 25 1 
574 1.20558 5.94663 -0.0590949 -0.289216 5.95502 1.05491 25 1 
576 1.20558 6.01278 -0.0595023 -0.29827 6.02155 1.05301 25 1 
576 1.20558 6.01278 -0.0595023 -0.29827 6.02155 1.05301 26 1 
578 1.20558 6.07809 -0.059829 -0.306801 6.08722 1.0452 26 1 
580 1.20557 6.14253 -0.0600631 -0.314762 6.15199 1.03123 26 1 
582 1.20556 6.20605 -0.060199 -0.322237 6.21581 1.01653 26 1 
584 1.20555 6.26873 -0.060239 -0.329257 6.27876 1.00199 26 1 
586 1.20555 6.33063 -0.0601828 -0.33583 6.34091 0.993153 26 1 
588 1.20555 6.39172 -0.06002 -0.341957 6.40222 0.991182 26 1 
590 1.20555 6.45191 -0.059753 -0.347598 6.46259 0.990878 26 1 
592 1.20555 6.51107 -0.0593808 -0.352844 6.52191 0.992204 26 1 
594 1.20555 6.56915 -0.0589033 -0.357757 6.58014 0.988694 26 1 
596 1.20554 6.62617 -0.0583362 -0.362344 6.63728 0.978594 26 1 
598 1.20553 6.6821 -0.0576837 -0.366621 6.69332 0.964645 26 1 
600 1.20552 6.73697 -0.0569552 -0.370633 6.74828 0.946804 26 1 
602 1.20551 6.79085 -0.0561572 -0.374467 6.80223 0.929754 26 1 
604 1.20551 6.84388 -0.0552907 -0.378177 6.85533 0.915736 26 1 
606 1.2055 6.89611 -0.0543685 -0.381822 6.90762 0.909822 26 1 
608 1.2055 6.94754 -0.0533938 -0.385373 6.95911 0.908699 26 1 
608 1.2055 6.94754 -0.0533938 -0.385373 6.95911 0.908699 26 1 
610 1.2055 6.99813 -0.0523625 -0.388812 7.00976 0.904165 26 1 
612 1.2055 7.04776 -0.0512594 -0.392208 7.05945 0.899344 26 1 
614 1.20549 7.09655 -0.0500904 -0.395592 7.10829 0.888349 26 1 
616 1.20548 7.14455 -0.0488564 -0.398999 7.15634 0.869772 26 1 
618 1.20547 7.19163 -0.0475407 -0.402364 7.20348 0.848743 26 1 
620 1.20546 7.23784 -0.0461433 -0.405665 7.24974 0.826052 26 1 
622 1.20545 7.28307 -0.0446382 -0.408939 7.29502 0.809293 26 1 
624 1.20544 7.32716 -0.0430057 -0.412145 7.33916 0.796389 26 1 
626 1.20544 7.36985 -0.0412373 -0.415234 7.3819 0.786032 26 1 
628 1.20543 7.41061 -0.0393199 -0.418015 7.42269 0.777633 26 1 
630 1.20542 7.44889 -0.0372377 -0.420266 7.46099 0.76599 26 1 
632 1.20542 7.48412 -0.0349977 -0.421839 7.49619 0.753522 26 1 
634 1.20541 7.51598 -0.0326226 -0.422453 7.52799 0.734414 26 1 
636 1.2054 7.54418 -0.030135 -0.421694 7.55606 0.714092 26 1 
638 1.20538 7.56887 -0.0276015 -0.418964 7.58053 0.694774 26 1 
640 1.20537 7.59095 -0.0251091 -0.413513 7.60225 0.672726 26 1 
642 1.20536 7.61168 -0.0227759 -0.404425 7.62246 0.656689 26 1 
644 1.20536 7.63345 -0.0207201 -0.390572 7.64349 0.642443 26 1 
646 1.20535 7.65879 -0.0190846 -0.370733 7.66783 0.63527 26 1 
648 1.20535 7.6904 -0.0180087 -0.343613 7.69819 0.631742 26 1 
650 1.20535 7.73044 -0.0175769 -0.308257 7.73674 0.626724 26 1 
652 1.20534 7.77988 -0.0178759 -0.264391 7.78458 0.622628 26 1 
654 1.20534 7.83854 -0.0189345 -0.212507 7.84166 0.608756 26 1 
656 1.20533 7.90424 -0.0207217 -0.153957 7.90599 0.59092 26 1 
658 1.20531 7.97423 -0.0231873 -0.0907943 7.97499 0.565226 26 1 
660 1.2053 8.04514 -0.0262828 -0.0256435 8.04542 0.538172 26 1 
662 1.20528 8.11416 -0.0298957 0.038692 8.11451 0.513538 26 1 
664 1.20527 8.1796 -0.0339142 0.0996247 8.1805 0.488059 26 1 
666 1.20526 8.24062 -0.0382147 0.154994 8.24244 0.470294 26 1 
668 1.20525 8.29799 -0.0426054 0.203392 8.30095 0.451368 26 1 
670 1.20524 8.35245 -0.0468914 0.243976 8.35662 0.440569 26 1 
672 1.20524 8.40534 -0.0508933 0.276494 8.41065 0.43431 26 1 
672 1.20524 8.40534 -0.0508933 0.276494 8.41065 0.43431 27 1 
674 1.20524 8.45745 -0.0544561 0.301197 8.46374 0.437081 27 1 
676 1.20525 8.50918 -0.05747 0.318678 8.51622 0.448519 27 1 
678 1.20525 8.56099 -0.0598928 0.329854 8.56855 0.459222 27 1 
680 1.20526 8.61251 -0.0617539 0.335577 8.62035 0.478149 27 1 
682 1.20527 8.66399 -0.063092 0.336848 8.67192 0.493353 27 1 
684 1.20529 8.71483 -0.0639658 0.334614 8.72269 0.515685 27 1 
686 1.2053 8.76501 -0.0644687 0.329614 8.77267 0.535788 27 1 
688 1.20531 8.81438 -0.0646194 0.322563 8.82175 0.55702 27 1 
690 1.20532 8.86266 -0.0645011 0.313859 8.86968 0.578627 27 1 
692 1.20533 8.91002 -0.0641697 0.304018 8.91664 0.591033 27 1 
694 1.20534 8.95581 -0.0636805 0.293458 8.96202 0.613885 27 1 
696 1.20535 9.00041 -0.0630361 0.282464 9.00619 0.626073 27 1 
698 1.20536 9.04338 -0.0622339 0.271449 9.04876 0.641445 27 1 
700 1.20536 9.08474 -0.0613209 0.260328 9.08972 0.656055 27 1 
702 1.20537 9.12468 -0.0602939 0.249241 9.12927 0.664628 27 1 
704 1.20538 9.16306 -0.0592398 0.238436 9.16729 0.677682 27 1 
704 1.20538 9.16306 -0.0592398 0.238436 9.16729 0.677682 31 1 
706 1.20538 9.20043 -0.0581898 0.228096 9.20432 0.682872 31 1 
708 1.20539 9.23657 -0.0571088 0.218582 9.24016 0.698998 31 1 
710 1.20539 9.27188 -0.0560009 0.209971 9.2752 0.70878 31 1 
712 1.2054 9.30643 -0.0548889 0.202194 9.30951 0.715409 31 1 
714 1.2054 9.3402 -0.0537558 0.195038 9.34307 0.729473 31 1 
716 1.2054 9.37372 -0.0526153 0.188921 9.37641 0.729626 31 1 
718 1.20541 9.40679 -0.0514806 0.184105 9.40932 0.738419 31 1 
720 1.20541 9.4397 -0.0503754 0.180775 9.44211 0.747237 31 1 
722 1.20542 9.47248 -0.0492608 0.178972 9.4748 0.756405 31 1 
724 1.20543 9.50533 -0.0481763 0.178236 9.50759 0.768092 31 1 
726 1.20543 9.53868 -0.0471064 0.179007 9.54091 0.770207 31 1 
728 1.20544 9.57193 -0.0460274 0.181773 9.57416 0.787162 31 1 
730 1.20544 9.60551 -0.0449291 0.18637 9.60779 0.786929 31 1 
732 1.20544 9.63902 -0.0438175 0.192535 9.64138 0.790478 31 1 
734 1.20545 9.67214 -0.0427202 0.199753 9.6746 0.806524 31 1 
736 1.20545 9.70494 -0.0416028 0.207451 9.70752 0.805153 31 1 
738 1.20545 9.73676 -0.0404765 0.215839 9.73949 0.807754 31 1 
740 1.20545 9.76703 -0.0393474 0.225137 9.76994 0.810014 31 1 
742 1.20545 9.79509 -0.038214 0.234529 9.79819 0.816718 31 1 
744 1.20545 9.82121 -0.037107 0.243055 9.82448 0.806293 31 1 
746 1.20544 9.84434 -0.0359872 0.250427 9.84776 0.803503 31 1 
748 1.20545 9.86397 -0.0348287 0.256116 9.86752 0.817568 31 1 
750 1.20544 9.88081 -0.0337358 0.260072 9.88444 0.79756 31 1 
752 1.20544 9.89378 -0.0326955 0.262071 9.89744 0.795216 31 1 
752 1.20544 9.89378 -0.0326955 0.262071 9.89744 0.795216 31 1 
754 1.20545 9.903 -0.0316412 0.261373 9.90663 0.805159 31 1 
756 1.20543 9.9093 -0.0306197 0.257633 9.91282 0.783576 31 1 
758 1.20543 9.91251 -0.0297525 0.251326 9.91586 0.772624 31 1 
760 1.20543 9.91269 -0.0288781 0.243162 9.91582 0.781876 31 1 
762 1.20543 9.91063 -0.02797 0.233261 9.91351 0.772936 31 1 
764 1.20541 9.90711 -0.0271099 0.222577 9.90974 0.745186 31 1 
766 1.20542 9.90163 -0.0262761 0.211199 9.904 0.756039 31 1 
768 1.20542 9.89577 -0.0253594 0.19857 9.89786 0.759275 31 1 
770 1.2054 9.88998 -0.024384 0.184567 9.8918 0.728438 31 1 
772 1.2054 9.88367 -0.0234791 0.169313 9.8852 0.728225 31 1 
774 1.2054 9.87848 -0.0226912 0.153223 9.87974 0.730767 31 1 
776 1.2054 9.87404 -0.0218748 0.13633 9.87504 0.727285 31 1 
778 1.20541 9.8701 -0.021039 0.118998 9.87086 0.732554 31 1 
780 1.2054 9.86788 -0.0202887 0.101598 9.86844 0.726274 31 1 
782 1.20541 9.86745 -0.0195515 0.0844037 9.86785 0.736604 31 1 
784 1.20542 9.86856 -0.0186438 0.0679505 9.86883 0.754056 31 1 
786 1.20542 9.8713 -0.0177021 0.0533635 9.87147 0.75014 31 1 
788 1.20543 9.8755 -0.0168762 0.040463 9.8756 0.772043 31 1 
790 1.20545 9.88087 -0.0161382 0.0293373 9.88093 0.810996 31 1 
792 1.20546 9.88693 -0.0154205 0.0212107 9.88696 0.827931 31 1 
794 1.20547 9.89344 -0.0147643 0.0153143 9.89346 0.849798 31 1 
796 1.2055 9.89948 -0.0141939 0.0113496 9.8995 0.909339 31 1 
798 1.20553 9.90484 -0.0137483 0.00897753 9.90486 0.96405 31 1 
800 1.20554 9.90756 -0.0136428 0.00796419 9.90758 0.977791 31 1 
