43.4711;r ;Density                 ;Velocity u              ;Velocity v              ;Velocity w              ;|Velocity|              ;Pressure                ;Distribution            ;Levels                  ;
0 1.2045 10.0001 1.49676e-05 -0.000552764 10.0001 -0.906499 1 1 
2 1.20449 10.0001 -8.89578e-06 -0.000775025 10.0001 -0.916189 1 1 
4 1.20449 9.99966 -8.55427e-05 -0.000603661 9.99966 -0.914276 1 1 
6 1.2045 9.99918 -0.000135844 -0.000597099 9.99918 -0.894163 1 1 
8 1.20451 9.99891 -0.00017423 -0.000566356 9.99891 -0.888261 1 1 
10 1.2045 9.99855 -0.000211127 -0.000667179 9.99855 -0.899859 1 1 
12 1.2045 9.99802 -0.000263808 -0.00086667 9.99802 -0.905283 1 1 
14 1.20451 9.99739 -0.000329871 -0.00104752 9.99739 -0.89143 1 1 
16 1.20451 9.99715 -0.000381071 -0.00135315 9.99715 -0.884016 1 1 
18 1.20451 9.9971 -0.000416604 -0.00136557 9.9971 -0.883592 1 1 
20 1.20452 9.99681 -0.000458883 -0.001135 9.99681 -0.872881 1 1 
22 1.20452 9.9965 -0.000508161 -0.00127225 9.9965 -0.87543 1 1 
24 1.20451 9.99613 -0.00054311 -0.0014596 9.99613 -0.876544 1 1 
26 1.20453 9.99562 -0.000592848 -0.00142222 9.99562 -0.854687 1 1 
28 1.20453 9.99527 -0.000632989 -0.00171709 9.99527 -0.854699 1 1 
30 1.20452 9.99495 -0.000681901 -0.00222171 9.99495 -0.875054 1 1 
32 1.20452 9.99457 -0.000724037 -0.00247928 9.99457 -0.87189 1 1 
32 1.20452 9.99457 -0.000724037 -0.00247928 9.99457 -0.87189 1 1 
34 1.20453 9.99431 -0.000762844 -0.00232931 9.99431 -0.847511 1 1 
36 1.20454 9.99405 -0.000782566 -0.00242334 9.99405 -0.838287 1 1 
38 1.20453 9.99386 -0.000832442 -0.00296954 9.99386 -0.849605 1 1 
40 1.20453 9.99351 -0.000864727 -0.00328443 9.99351 -0.851577 1 1 
42 1.20453 9.99292 -0.000901024 -0.00341671 9.99292 -0.847306 1 1 
44 1.20453 9.99266 -0.000953024 -0.00350836 9.99266 -0.841947 1 1 
46 1.20454 9.99265 -0.000985389 -0.00346857 9.99266 -0.828617 1 1 
48 1.20454 9.99252 -0.00101802 -0.00361321 9.99252 -0.825671 1 1 
50 1.20454 9.99218 -0.00104365 -0.00390671 9.99218 -0.839303 1 1 
52 1.20453 9.99167 -0.00108355 -0.00398052 9.99167 -0.84235 1 1 
54 1.20455 9.991 -0.00113338 -0.00421779 9.991 -0.819979 1 1 
56 1.20455 9.9905 -0.00117392 -0.00451119 9.9905 -0.811642 1 1 
58 1.20454 9.99052 -0.00119218 -0.00463889 9.99053 -0.830321 1 1 
60 1.20454 9.99046 -0.00122027 -0.0047493 9.99046 -0.824131 1 1 
62 1.20455 9.98984 -0.00124819 -0.00484161 9.98984 -0.805951 1 1 
64 1.20455 9.9896 -0.00126411 -0.00487324 9.9896 -0.816488 1 1 
64 1.20455 9.9896 -0.00126411 -0.00487324 9.9896 -0.816488 2 1 
66 1.20455 9.98941 -0.00127152 -0.00487915 9.98941 -0.809809 2 1 
68 1.20456 9.98909 -0.00127165 -0.00491218 9.98909 -0.798834 2 1 
70 1.20455 9.98865 -0.0012875 -0.00519858 9.98865 -0.810066 2 1 
72 1.20455 9.98797 -0.00130177 -0.00537688 9.98798 -0.812981 2 1 
74 1.20456 9.98752 -0.00131719 -0.00522684 9.98752 -0.796339 2 1 
76 1.20456 9.98704 -0.00133945 -0.00527928 9.98704 -0.790209 2 1 
78 1.20455 9.98707 -0.00135764 -0.00539461 9.98707 -0.819037 2 1 
80 1.20455 9.98701 -0.00137539 -0.00550741 9.98701 -0.812752 2 1 
82 1.20456 9.98648 -0.00135858 -0.00581547 9.98648 -0.787362 2 1 
84 1.20456 9.98628 -0.00131064 -0.00561167 9.98628 -0.797237 2 1 
86 1.20456 9.98602 -0.00128482 -0.00565555 9.98602 -0.800275 2 1 
88 1.20456 9.98521 -0.00130944 -0.0060753 9.98521 -0.788541 2 1 
90 1.20456 9.9848 -0.0013302 -0.00598461 9.9848 -0.803618 2 1 
92 1.20455 9.98459 -0.00135126 -0.00567421 9.9846 -0.817171 2 1 
94 1.20456 9.98418 -0.00140845 -0.00554517 9.98418 -0.79161 2 1 
96 1.20456 9.98412 -0.00146277 -0.00583145 9.98412 -0.79204 2 1 
96 1.20456 9.98412 -0.00146277 -0.00583145 9.98412 -0.79204 2 1 
98 1.20454 9.98368 -0.00146445 -0.00653811 9.98368 -0.823032 2 1 
100 1.20455 9.98287 -0.00146114 -0.00715533 9.98287 -0.814174 2 1 
102 1.20456 9.98257 -0.0014882 -0.00720285 9.98258 -0.794125 2 1 
104 1.20456 9.9824 -0.00150429 -0.00664734 9.98241 -0.79899 2 1 
106 1.20455 9.98188 -0.00152399 -0.00623675 9.98188 -0.80775 2 1 
108 1.20455 9.98155 -0.00157013 -0.00624496 9.98155 -0.807757 2 1 
110 1.20456 9.98109 -0.00159483 -0.00665618 9.98109 -0.803618 2 1 
112 1.20455 9.98063 -0.00164112 -0.00723019 9.98064 -0.816082 2 1 
114 1.20455 9.98056 -0.00169259 -0.00759264 9.98056 -0.815909 2 1 
116 1.20456 9.97989 -0.00171177 -0.00782764 9.97989 -0.798694 2 1 
118 1.20455 9.97914 -0.00172753 -0.00762475 9.97914 -0.821205 2 1 
120 1.20454 9.97881 -0.0017546 -0.00754836 9.97881 -0.838996 2 1 
122 1.20456 9.97799 -0.0017872 -0.00767709 9.97799 -0.802097 2 1 
124 1.20456 9.97786 -0.00181889 -0.00759769 9.97786 -0.800988 2 1 
126 1.20454 9.97845 -0.00186657 -0.00771218 9.97845 -0.833784 2 1 
128 1.20455 9.97818 -0.00191012 -0.00818056 9.97818 -0.820332 2 1 
128 1.20455 9.97818 -0.00191012 -0.00818056 9.97818 -0.820332 10 1 
130 1.20456 9.97696 -0.00192444 -0.00841261 9.97696 -0.798007 10 1 
132 1.20454 9.976 -0.00195684 -0.00857682 9.976 -0.838822 10 1 
134 1.20453 9.97558 -0.00199738 -0.00862585 9.97558 -0.851215 10 1 
136 1.20456 9.97475 -0.00202084 -0.00888691 9.97475 -0.797995 10 1 
138 1.20454 9.97503 -0.00204127 -0.00903402 9.97503 -0.826486 10 1 
140 1.20453 9.97539 -0.00209751 -0.00914636 9.9754 -0.855534 10 1 
142 1.20456 9.97386 -0.00212573 -0.00925453 9.97386 -0.798193 10 1 
144 1.20455 9.97284 -0.00214101 -0.0092526 9.97284 -0.805666 10 1 
146 1.20452 9.97258 -0.00219272 -0.00923519 9.97258 -0.867153 10 1 
148 1.20454 9.97144 -0.00223156 -0.0095712 9.97145 -0.829798 10 1 
150 1.20456 9.9712 -0.00226584 -0.00997869 9.97121 -0.797007 10 1 
152 1.20453 9.97135 -0.00230665 -0.0101323 9.97135 -0.841681 10 1 
154 1.20454 9.97068 -0.00238507 -0.00994406 9.97068 -0.836915 10 1 
156 1.20456 9.96955 -0.00240515 -0.00981338 9.96956 -0.800542 10 1 
158 1.20454 9.96831 -0.00241912 -0.0102126 9.96831 -0.829466 10 1 
160 1.20452 9.96782 -0.00246452 -0.0104233 9.96782 -0.867456 10 1 
160 1.20452 9.96782 -0.00246452 -0.0104233 9.96782 -0.867456 10 1 
162 1.20455 9.96674 -0.00251445 -0.0103894 9.96674 -0.815627 10 1 
164 1.20456 9.96584 -0.00251099 -0.010131 9.96585 -0.792808 10 1 
166 1.20452 9.96595 -0.0025521 -0.00981059 9.96595 -0.867895 10 1 
168 1.20452 9.96496 -0.00263545 -0.0103692 9.96496 -0.864805 10 1 
170 1.20455 9.96409 -0.00264691 -0.011 9.9641 -0.817773 10 1 
172 1.20452 9.96408 -0.00266255 -0.0113427 9.96409 -0.872512 10 1 
174 1.2045 9.96312 -0.00270763 -0.0114451 9.96313 -0.899414 10 1 
176 1.20452 9.9619 -0.00273744 -0.0110026 9.96191 -0.868555 10 1 
178 1.2045 9.96049 -0.00273103 -0.0108359 9.9605 -0.902521 10 1 
180 1.20447 9.95942 -0.00278305 -0.0108912 9.95942 -0.963599 10 1 
182 1.20448 9.9589 -0.00282694 -0.0115594 9.9589 -0.943676 10 1 
184 1.2045 9.95719 -0.00286 -0.0117056 9.95719 -0.897039 10 1 
186 1.20446 9.9566 -0.00287288 -0.0113909 9.95661 -0.978918 10 1 
188 1.20444 9.95659 -0.00295343 -0.0117907 9.9566 -1.01732 10 1 
190 1.20449 9.95415 -0.0029697 -0.0117974 9.95416 -0.915258 10 1 
192 1.20447 9.95164 -0.00297271 -0.0108644 9.95165 -0.95386 10 1 
194 1.20443 9.94986 -0.0029923 -0.0109701 9.94987 -1.03341 10 1 
196 1.20448 9.94729 -0.00306838 -0.0122094 9.94729 -0.933764 10 1 
198 1.20451 9.94515 -0.00308773 -0.0133629 9.94516 -0.876481 10 1 
200 1.20448 9.94345 -0.0030937 -0.0130823 9.94346 -0.947709 10 1 
202 1.2045 9.93947 -0.00315665 -0.0120018 9.93948 -0.898763 10 1 
204 1.20458 9.93503 -0.00315648 -0.0117011 9.93503 -0.764303 10 1 
206 1.20456 9.93369 -0.00320593 -0.0108053 9.93369 -0.798012 10 1 
208 1.20457 9.9312 -0.00324399 -0.0100913 9.9312 -0.774189 10 1 
210 1.20467 9.92437 -0.003339 -0.0115649 9.92438 -0.588504 10 1 
212 1.20466 9.91802 -0.0033879 -0.0129235 9.91803 -0.60559 10 1 
214 1.20464 9.91326 -0.00346454 -0.012944 9.91327 -0.646236 10 1 
216 1.20475 9.90949 -0.00353386 -0.0128702 9.9095 -0.449861 10 1 
218 1.20484 9.90586 -0.00355531 -0.0110218 9.90587 -0.293475 10 1 
220 1.20482 9.90029 -0.0035183 -0.00910756 9.9003 -0.32938 10 1 
222 1.20484 9.89241 -0.00366982 -0.0104583 9.89241 -0.282551 10 1 
224 1.20497 9.88172 -0.00386657 -0.0119389 9.88173 -0.0497664 10 1 
224 1.20497 9.88172 -0.00386657 -0.0119389 9.88173 -0.0497664 10 1 
226 1.20498 9.87398 -0.00393703 -0.0107119 9.87399 -0.0313202 10 1 
228 1.20497 9.86927 -0.00390179 -0.00937602 9.86928 -0.050774 10 1 
230 1.20514 9.86041 -0.003908 -0.00813462 9.86041 0.256657 10 1 
232 1.20521 9.85071 -0.00405353 -0.00931775 9.85072 0.383581 10 1 
234 1.20517 9.84107 -0.00422514 -0.00947467 9.84108 0.310397 10 1 
236 1.2053 9.82782 -0.00432951 -0.00735418 9.82783 0.53489 10 1 
238 1.20544 9.81503 -0.00436622 -0.00669911 9.81504 0.801484 10 1 
240 1.20546 9.80306 -0.00438194 -0.00438257 9.80306 0.833541 10 1 
242 1.20552 9.78913 -0.00448335 -0.00187009 9.78913 0.946824 10 1 
244 1.20573 9.77201 -0.00467381 -0.00176047 9.77201 1.31061 10 1 
246 1.20582 9.75304 -0.00483005 -0.000380428 9.75304 1.48667 10 1 
248 1.20583 9.73576 -0.00486669 0.00235134 9.73577 1.50816 10 1 
250 1.20608 9.71359 -0.00488799 0.00669845 9.71359 1.95078 10 1 
252 1.20629 9.68663 -0.00510804 0.0110844 9.68665 2.32975 10 1 
254 1.2063 9.66213 -0.00525852 0.0157407 9.66214 2.35129 10 1 
256 1.20653 9.63457 -0.00532683 0.019792 9.6346 2.76921 10 1 
256 1.20653 9.63457 -0.00532683 0.019792 9.6346 2.76921 11 1 
258 1.20691 9.59841 -0.00535114 0.0258452 9.59846 3.44648 11 1 
260 1.20699 9.56156 -0.00550424 0.0352064 9.56164 3.59486 11 1 
262 1.20713 9.52407 -0.00571201 0.0465429 9.5242 3.85206 11 1 
264 1.20771 9.47365 -0.00577302 0.059796 9.47386 4.89435 11 1 
266 1.208 9.42108 -0.00591049 0.076051 9.42141 5.41751 11 1 
268 1.20806 9.36881 -0.00610116 0.0999648 9.36939 5.53046 11 1 
270 1.20871 9.29716 -0.00624878 0.124244 9.29804 6.70833 11 1 
272 1.2093 9.21698 -0.00638742 0.149214 9.21824 7.773 11 1 
274 1.2094 9.14458 -0.0065163 0.192558 9.14668 7.94881 11 1 
276 1.20996 9.06861 -0.0066811 0.258984 9.07242 8.96141 11 1 
278 1.21099 8.9732 -0.00681471 0.322045 8.97913 10.8283 11 1 
280 1.21134 8.86606 -0.0069313 0.388111 8.87479 11.4502 11 1 
282 1.21127 8.76897 -0.00705299 0.475235 8.78207 11.327 11 1 
284 1.21222 8.67912 -0.0071724 0.593616 8.69983 13.0488 11 1 
286 1.21323 8.58495 -0.00726489 0.726291 8.61601 14.8707 11 1 
288 1.2129 8.49797 -0.00737974 0.839782 8.53973 14.261 11 1 
288 1.2129 8.49797 -0.00737974 0.839782 8.53973 14.261 11 1 
290 1.21295 8.41699 -0.00752919 0.969717 8.47324 14.3573 11 1 
292 1.21407 8.35032 -0.0076422 1.1265 8.42663 16.3829 11 1 
294 1.21439 8.26454 -0.00776771 1.24148 8.35778 16.9595 11 1 
296 1.21293 7.80632 -0.0078497 1.00896 7.88188 14.3157 11 1 
298 1.20916 6.79085 -0.00783864 0.217084 6.83465 7.51201 11 1 
300 1.20413 5.6778 -0.00781397 -0.749756 5.7738 -1.57952 11 1 
302 1.20052 4.91882 -0.00785602 -1.40429 5.13437 -8.09447 11 1 
304 1.19889 4.59043 -0.00793571 -1.61912 4.86929 -11.0326 11 1 
306 1.19821 4.51796 -0.00785433 -1.54778 4.77689 -12.2696 11 1 
308 1.1982 4.49586 -0.00753816 -1.39026 4.70698 -12.2809 11 1 
310 1.19867 4.45741 -0.00731669 -1.23333 4.62567 -11.4374 11 1 
312 1.19873 4.39758 -0.00751852 -1.06931 4.52671 -11.3225 11 1 
314 1.19859 4.31946 -0.00783253 -0.902602 4.41353 -11.571 11 1 
316 1.1991 4.23169 -0.00777873 -0.777158 4.30282 -10.6624 11 1 
318 1.19954 4.14417 -0.00743678 -0.654257 4.1962 -9.85836 11 1 
320 1.19951 4.04007 -0.00710283 -0.527049 4.07478 -9.91832 11 1 
320 1.19951 4.04007 -0.00710283 -0.527049 4.07478 -9.91832 15 1 
322 1.19978 3.91614 -0.00690642 -0.432671 3.94036 -9.42393 15 1 
324 1.20028 3.80035 -0.00684751 -0.350335 3.81678 -8.52931 15 1 
326 1.20044 3.69104 -0.00684481 -0.280075 3.70192 -8.24353 15 1 
328 1.20053 3.57785 -0.00682946 -0.227612 3.58537 -8.07191 15 1 
330 1.20087 3.47255 -0.00681205 -0.184489 3.47768 -7.4573 15 1 
332 1.20115 3.37704 -0.00681417 -0.147823 3.38044 -6.95213 15 1 
334 1.20121 3.28074 -0.00682855 -0.119544 3.2831 -6.84056 15 1 
336 1.20136 3.18914 -0.00683839 -0.0976946 3.19081 -6.57092 15 1 
338 1.20164 3.11012 -0.00684648 -0.0776364 3.11123 -6.06639 15 1 
340 1.20178 3.03359 -0.0068737 -0.0612168 3.03434 -5.81771 15 1 
342 1.20182 2.9541 -0.00692069 -0.0507257 2.95467 -5.74392 15 1 
344 1.20197 2.8812 -0.00695913 -0.0401982 2.8816 -5.47495 15 1 
346 1.20215 2.81841 -0.00699346 -0.028552 2.81865 -5.14114 15 1 
348 1.20224 2.75681 -0.00706157 -0.0212986 2.757 -4.98205 15 1 
350 1.20231 2.69273 -0.0071617 -0.0164727 2.69288 -4.86226 15 1 
352 1.20245 2.63369 -0.0072705 -0.00894083 2.6338 -4.61063 15 1 
354 1.20257 2.58209 -0.00739532 -0.000838268 2.58218 -4.38572 15 1 
356 1.20261 2.53067 -0.00752698 0.00453248 2.53077 -4.30893 15 1 
358 1.20268 2.47826 -0.00763553 0.00911887 2.47837 -4.19948 15 1 
360 1.20278 2.43016 -0.00773088 0.0156386 2.43029 -4.00247 15 1 
362 1.20286 2.38621 -0.00783333 0.0219021 2.3864 -3.86638 15 1 
364 1.20291 2.34353 -0.00793792 0.02605 2.34376 -3.76954 15 1 
366 1.20301 2.30306 -0.00805753 0.0300944 2.30333 -3.59729 15 1 
368 1.20311 2.26557 -0.00820127 0.0346435 2.26591 -3.41379 15 1 
370 1.20316 2.22893 -0.00836116 0.037723 2.22933 -3.32478 15 1 
372 1.2032 2.19325 -0.00853269 0.0397283 2.19369 -3.25516 15 1 
374 1.20327 2.16083 -0.00869856 0.0424827 2.16132 -3.12736 15 1 
376 1.20333 2.13058 -0.00884174 0.045388 2.13114 -3.0193 15 1 
378 1.20337 2.10059 -0.00897243 0.0468672 2.10119 -2.95048 15 1 
380 1.20343 2.07218 -0.00910357 0.0475384 2.0728 -2.83876 15 1 
382 1.20351 2.0466 -0.00921985 0.0484786 2.04725 -2.69155 15 1 
384 1.20357 2.02233 -0.00932497 0.0488376 2.02299 -2.57903 15 1 
384 1.20357 2.02233 -0.00932497 0.0488376 2.02299 -2.57903 16 1 
386 1.20362 1.99823 -0.00944752 0.0474874 1.99887 -2.49403 16 1 
388 1.20368 1.97582 -0.00960083 0.044904 1.9764 -2.38792 16 1 
390 1.20373 1.95646 -0.00977888 0.0419248 1.95697 -2.28786 16 1 
392 1.20376 1.93982 -0.00997804 0.0387611 1.94026 -2.23197 16 1 
394 1.2038 1.92616 -0.0101843 0.0362458 1.92655 -2.17107 16 1 
396 1.20385 1.91568 -0.0103985 0.0360136 1.91607 -2.07475 16 1 
398 1.2039 1.90632 -0.010638 0.0392278 1.90679 -1.98452 16 1 
400 1.20394 1.89539 -0.0108686 0.0460038 1.89603 -1.91067 16 1 
402 1.20399 1.88154 -0.011033 0.0555715 1.88247 -1.82068 16 1 
404 1.20405 1.86384 -0.0111097 0.0667574 1.86519 -1.72073 16 1 
406 1.20409 1.84119 -0.0110957 0.0784094 1.84305 -1.6462 16 1 
408 1.20412 1.8137 -0.0109842 0.0899408 1.81615 -1.58319 16 1 
410 1.20417 1.78239 -0.0107939 0.100913 1.7855 -1.50362 16 1 
412 1.20421 1.74777 -0.0105589 0.110579 1.75153 -1.4287 16 1 
414 1.20424 1.71072 -0.0103072 0.11843 1.71508 -1.36737 16 1 
416 1.20428 1.67327 -0.010081 0.124287 1.67813 -1.29307 16 1 
416 1.20428 1.67327 -0.010081 0.124287 1.67813 -1.29307 16 1 
418 1.20433 1.63703 -0.0099231 0.127324 1.64221 -1.20237 16 1 
420 1.20438 1.60299 -0.009866 0.126333 1.60816 -1.11702 16 1 
422 1.20442 1.57269 -0.00995672 0.120991 1.5775 -1.04218 16 1 
424 1.20447 1.54872 -0.0102433 0.111756 1.55286 -0.960202 16 1 
426 1.20452 1.53265 -0.0107201 0.0991191 1.53595 -0.873594 16 1 
428 1.20456 1.52447 -0.0113753 0.0835561 1.52685 -0.801796 16 1 
430 1.20459 1.52482 -0.0121875 0.0660508 1.52635 -0.733687 16 1 
432 1.20464 1.53496 -0.0130972 0.0474935 1.53582 -0.651127 16 1 
434 1.20469 1.55467 -0.0140561 0.0283285 1.55509 -0.564065 16 1 
436 1.20473 1.58247 -0.015031 0.0091251 1.58268 -0.484407 16 1 
438 1.20478 1.61758 -0.0159931 -0.00948512 1.61782 -0.404172 16 1 
440 1.20482 1.65977 -0.0169114 -0.0273221 1.66025 -0.317006 16 1 
442 1.20487 1.70829 -0.0177656 -0.0444065 1.70914 -0.233003 16 1 
444 1.20492 1.76209 -0.0185675 -0.0605377 1.76343 -0.152047 16 1 
446 1.20497 1.82055 -0.0193107 -0.0754876 1.82243 -0.0624454 16 1 
448 1.20502 1.88302 -0.0199821 -0.0892705 1.88546 0.0304861 16 1 
448 1.20502 1.88302 -0.0199821 -0.0892705 1.88546 0.0304861 17 1 
450 1.20507 1.94894 -0.0206021 -0.102091 1.95195 0.117638 17 1 
452 1.20511 2.01791 -0.0211753 -0.113945 2.02148 0.199692 17 1 
454 1.20515 2.08954 -0.0217 -0.124687 2.09362 0.278232 17 1 
456 1.2052 2.16343 -0.0221886 -0.134349 2.16796 0.353172 17 1 
458 1.20523 2.23914 -0.0226399 -0.143091 2.24408 0.422946 17 1 
460 1.20527 2.31653 -0.0230544 -0.150878 2.32182 0.490972 17 1 
462 1.20531 2.39561 -0.0234569 -0.157663 2.40117 0.560344 17 1 
464 1.20535 2.476 -0.0238594 -0.163625 2.48177 0.623359 17 1 
466 1.20537 2.55723 -0.0242641 -0.16885 2.56318 0.675726 17 1 
468 1.2054 2.63927 -0.0246788 -0.173223 2.64533 0.723143 17 1 
470 1.20543 2.72217 -0.0250987 -0.176862 2.7283 0.768113 17 1 
472 1.20545 2.80578 -0.0255235 -0.180052 2.81193 0.807445 17 1 
474 1.20547 2.8899 -0.0259659 -0.182805 2.89607 0.841557 17 1 
476 1.20548 2.9745 -0.0264434 -0.185043 2.98064 0.873796 17 1 
478 1.2055 3.05939 -0.0269562 -0.186962 3.0655 0.899689 17 1 
480 1.20551 3.1445 -0.0274977 -0.188789 3.15057 0.915459 17 1 
480 1.20551 3.1445 -0.0274977 -0.188789 3.15057 0.915459 17 1 
482 1.20551 3.22992 -0.0280822 -0.190564 3.23595 0.927195 17 1 
484 1.20552 3.31565 -0.0287046 -0.192372 3.32166 0.937735 17 1 
486 1.20552 3.40154 -0.0293542 -0.194318 3.40753 0.946038 17 1 
488 1.20553 3.48755 -0.0300446 -0.196433 3.49354 0.953401 17 1 
490 1.20553 3.57369 -0.0307749 -0.198817 3.5797 0.959703 17 1 
492 1.20553 3.65997 -0.0315352 -0.201617 3.66603 0.965001 17 1 
494 1.20554 3.74637 -0.0323332 -0.204921 3.7525 0.96838 17 1 
496 1.20554 3.83269 -0.0331572 -0.208754 3.83894 0.967039 17 1 
498 1.20553 3.91883 -0.0339975 -0.213074 3.92521 0.96274 17 1 
500 1.20553 4.00492 -0.0348446 -0.217924 4.01147 0.959555 17 1 
502 1.20553 4.09106 -0.0356986 -0.223401 4.09782 0.95845 17 1 
504 1.20553 4.17706 -0.0365668 -0.229481 4.18406 0.95814 17 1 
506 1.20553 4.26272 -0.0374368 -0.236091 4.26999 0.958037 17 1 
508 1.20553 4.34804 -0.0382991 -0.243191 4.35563 0.957909 17 1 
510 1.20553 4.43303 -0.0391395 -0.250775 4.44095 0.956061 17 1 
512 1.20553 4.51758 -0.039963 -0.258836 4.52587 0.952212 17 1 
512 1.20553 4.51758 -0.039963 -0.258836 4.52587 0.952212 25 1 
514 1.20552 4.60164 -0.0407608 -0.267299 4.61032 0.947609 25 1 
516 1.20552 4.68517 -0.0415203 -0.276044 4.69427 0.943705 25 1 
518 1.20552 4.76808 -0.0422377 -0.284971 4.7776 0.942283 25 1 
520 1.20552 4.85032 -0.0429138 -0.294005 4.86029 0.941318 25 1 
522 1.20552 4.93194 -0.0435447 -0.303125 4.94235 0.939608 25 1 
524 1.20552 5.01286 -0.0441222 -0.312261 5.02373 0.940343 25 1 
526 1.20552 5.09302 -0.0446533 -0.321248 5.10433 0.941762 25 1 
528 1.20552 5.17239 -0.0451252 -0.329997 5.18413 0.940158 25 1 
530 1.20552 5.25101 -0.0455326 -0.338471 5.26316 0.937054 25 1 
532 1.20552 5.32888 -0.0458663 -0.346617 5.34142 0.936055 25 1 
534 1.20552 5.40605 -0.0461198 -0.354425 5.41895 0.938429 25 1 
536 1.20552 5.4825 -0.0463003 -0.361818 5.49574 0.942662 25 1 
538 1.20552 5.55807 -0.0464015 -0.368691 5.5716 0.946647 25 1 
540 1.20553 5.63272 -0.0464058 -0.375073 5.6465 0.948316 25 1 
542 1.20553 5.70655 -0.0463082 -0.381047 5.72055 0.948957 25 1 
544 1.20553 5.77948 -0.0461133 -0.386633 5.79366 0.95038 25 1 
544 1.20553 5.77948 -0.0461133 -0.386633 5.79366 0.95038 25 1 
546 1.20553 5.85137 -0.0458183 -0.391793 5.86571 0.951734 25 1 
548 1.20553 5.9222 -0.0454194 -0.396531 5.93665 0.954323 25 1 
550 1.20553 5.992 -0.0449199 -0.40087 6.00654 0.956968 25 1 
552 1.20553 6.0607 -0.0443289 -0.404868 6.0753 0.957181 25 1 
554 1.20553 6.12823 -0.0436502 -0.408621 6.14287 0.956312 25 1 
556 1.20553 6.19458 -0.042889 -0.412147 6.20924 0.954931 25 1 
558 1.20553 6.25977 -0.0420494 -0.415377 6.27444 0.953373 25 1 
560 1.20553 6.32385 -0.041138 -0.418345 6.33851 0.951005 25 1 
562 1.20552 6.3868 -0.0401631 -0.421182 6.40143 0.947551 25 1 
564 1.20552 6.44853 -0.0391204 -0.42389 6.46313 0.942974 25 1 
566 1.20552 6.50908 -0.0380117 -0.426405 6.52364 0.936684 25 1 
568 1.20551 6.56845 -0.0368377 -0.428683 6.58297 0.929995 25 1 
570 1.20551 6.62661 -0.0355951 -0.430674 6.64106 0.92099 25 1 
572 1.2055 6.68342 -0.0342818 -0.432376 6.6978 0.910488 25 1 
574 1.2055 6.73874 -0.0328986 -0.433799 6.75303 0.902487 25 1 
576 1.2055 6.79245 -0.0314504 -0.43481 6.80663 0.894896 25 1 
576 1.2055 6.79245 -0.0314504 -0.43481 6.80663 0.894896 26 1 
578 1.20549 6.84431 -0.0299335 -0.435181 6.85836 0.885317 26 1 
580 1.20548 6.89411 -0.0283503 -0.434718 6.90798 0.873247 26 1 
582 1.20548 6.94163 -0.026707 -0.433195 6.95526 0.860292 26 1 
584 1.20547 6.98679 -0.02503 -0.430312 7.00012 0.846966 26 1 
586 1.20546 7.0299 -0.023358 -0.425615 7.04284 0.833729 26 1 
588 1.20546 7.07134 -0.0217267 -0.418498 7.08376 0.823535 26 1 
590 1.20545 7.11183 -0.0201938 -0.408266 7.12359 0.815377 26 1 
592 1.20545 7.15255 -0.0188248 -0.394206 7.16346 0.809067 26 1 
594 1.20544 7.19508 -0.0176905 -0.375499 7.20495 0.800844 26 1 
596 1.20544 7.24132 -0.0168688 -0.35117 7.24995 0.790952 26 1 
598 1.20543 7.29296 -0.0164288 -0.320382 7.30016 0.785016 26 1 
600 1.20543 7.35131 -0.0164422 -0.282586 7.35694 0.777758 26 1 
602 1.20543 7.41679 -0.0169523 -0.237681 7.42083 0.768966 26 1 
604 1.20542 7.48891 -0.0179735 -0.186139 7.49148 0.757342 26 1 
606 1.20541 7.56628 -0.0194953 -0.129019 7.56763 0.742483 26 1 
608 1.2054 7.64646 -0.0214778 -0.0678967 7.64701 0.72731 26 1 
608 1.2054 7.64646 -0.0214778 -0.0678967 7.64701 0.72731 26 1 
610 1.20539 7.72684 -0.0238702 -0.00480696 7.72709 0.70335 26 1 
612 1.20537 7.80503 -0.0266029 0.0579744 7.80551 0.677266 26 1 
614 1.20536 7.87948 -0.029614 0.118213 7.88069 0.653144 26 1 
616 1.20535 7.94969 -0.032819 0.174007 7.952 0.629252 26 1 
618 1.20534 8.01586 -0.0361105 0.223975 8.01952 0.610767 26 1 
620 1.20533 8.07895 -0.0393577 0.267168 8.08407 0.593496 26 1 
622 1.20532 8.14 -0.0424348 0.303078 8.14652 0.585554 26 1 
624 1.20532 8.19996 -0.0452295 0.331646 8.20774 0.585979 26 1 
626 1.20533 8.25956 -0.0476531 0.353244 8.26837 0.591505 26 1 
628 1.20534 8.31895 -0.0496723 0.368577 8.32854 0.609131 26 1 
630 1.20535 8.37819 -0.0512828 0.378444 8.3883 0.626771 26 1 
632 1.20536 8.43702 -0.0525174 0.383597 8.44742 0.646706 26 1 
634 1.20537 8.4953 -0.0534321 0.384812 8.50577 0.666245 26 1 
636 1.20538 8.55299 -0.0540561 0.38289 8.56336 0.681929 26 1 
638 1.20539 8.60975 -0.0544113 0.378581 8.6199 0.703528 26 1 
640 1.2054 8.6655 -0.0545456 0.37241 8.67533 0.721923 26 1 
642 1.20541 8.71994 -0.0544996 0.364723 8.72938 0.741423 26 1 
644 1.20542 8.77305 -0.0543231 0.355853 8.78205 0.756151 26 1 
646 1.20542 8.82486 -0.0540586 0.346204 8.8334 0.76447 26 1 
648 1.20543 8.87518 -0.0536837 0.336188 8.88324 0.775303 26 1 
650 1.20543 8.92416 -0.053171 0.326031 8.93174 0.777881 26 1 
652 1.20543 8.97168 -0.0525585 0.315884 8.9788 0.785068 26 1 
654 1.20544 9.01788 -0.0518816 0.305872 9.02456 0.791872 26 1 
656 1.20544 9.06304 -0.0511657 0.296158 9.0693 0.79297 26 1 
658 1.20544 9.10724 -0.0504476 0.287094 9.11312 0.795088 26 1 
660 1.20544 9.15072 -0.0497333 0.279023 9.15625 0.785834 26 1 
662 1.20543 9.19333 -0.0489759 0.272062 9.19856 0.781427 26 1 
664 1.20543 9.23535 -0.0481612 0.266105 9.24031 0.776243 26 1 
666 1.20542 9.27713 -0.047328 0.261231 9.28187 0.766864 26 1 
668 1.20542 9.31865 -0.0465121 0.257811 9.3232 0.76264 26 1 
670 1.20541 9.36008 -0.0457089 0.256137 9.36451 0.748466 26 1 
672 1.20541 9.40133 -0.0449 0.25615 9.40568 0.738537 26 1 
672 1.20541 9.40133 -0.0449 0.25615 9.40568 0.738537 27 1 
674 1.2054 9.44251 -0.044088 0.257592 9.44683 0.723517 27 1 
676 1.20539 9.48368 -0.0432626 0.260462 9.48801 0.70711 27 1 
678 1.20539 9.52451 -0.042412 0.264986 9.52889 0.699668 27 1 
680 1.20538 9.56485 -0.0415189 0.271111 9.56933 0.677428 27 1 
682 1.20537 9.60399 -0.0405715 0.278493 9.60861 0.662287 27 1 
684 1.20536 9.64164 -0.0395767 0.286601 9.64644 0.641226 27 1 
686 1.20534 9.67754 -0.0385716 0.294786 9.68253 0.617294 27 1 
688 1.20533 9.71098 -0.0375732 0.302765 9.71615 0.604762 27 1 
690 1.20532 9.74152 -0.0365629 0.310546 9.74689 0.577962 27 1 
692 1.20531 9.76824 -0.0355433 0.317569 9.77378 0.562813 27 1 
694 1.2053 9.79128 -0.034534 0.322668 9.79694 0.537536 27 1 
696 1.20528 9.81054 -0.0335384 0.325389 9.81626 0.51188 27 1 
698 1.20528 9.82586 -0.0325583 0.325397 9.83154 0.497924 27 1 
700 1.20526 9.83768 -0.0315857 0.322331 9.84323 0.470407 27 1 
702 1.20525 9.84577 -0.0306546 0.31638 9.8511 0.460563 27 1 
704 1.20524 9.85078 -0.0297797 0.307728 9.85582 0.43706 27 1 
704 1.20524 9.85078 -0.0297797 0.307728 9.85582 0.43706 31 1 
706 1.20523 9.85286 -0.0289414 0.296555 9.85753 0.413447 31 1 
708 1.20522 9.85258 -0.0281847 0.283521 9.85685 0.39935 31 1 
710 1.20521 9.85081 -0.0274456 0.269534 9.85467 0.37127 31 1 
712 1.2052 9.84765 -0.0266717 0.254777 9.8511 0.360291 31 1 
714 1.20519 9.84406 -0.0258711 0.23885 9.84709 0.341207 31 1 
716 1.20518 9.8406 -0.0250761 0.221514 9.84322 0.327158 31 1 
718 1.20518 9.83765 -0.0243172 0.202756 9.83985 0.317629 31 1 
720 1.20516 9.83548 -0.0236502 0.182828 9.83727 0.291679 31 1 
722 1.20515 9.83431 -0.0230768 0.162234 9.83572 0.278442 31 1 
724 1.20514 9.83472 -0.0225203 0.141796 9.83581 0.253438 31 1 
726 1.20513 9.83642 -0.0219201 0.122133 9.83724 0.238945 31 1 
728 1.20513 9.8398 -0.0212423 0.103453 9.84039 0.232594 31 1 
730 1.20512 9.84516 -0.0205091 0.0861664 9.84557 0.211163 31 1 
732 1.20511 9.85196 -0.0197521 0.0707022 9.85224 0.207015 31 1 
734 1.2051 9.86026 -0.0190112 0.0573046 9.86045 0.185224 31 1 
736 1.20509 9.86946 -0.0183223 0.0463817 9.86959 0.167287 31 1 
738 1.20509 9.87912 -0.0176998 0.0384359 9.87921 0.164583 31 1 
740 1.20508 9.88889 -0.017164 0.0334515 9.88896 0.153317 31 1 
742 1.20508 9.89845 -0.0167898 0.0307488 9.89851 0.148956 31 1 
744 1.20508 9.90754 -0.0165833 0.0294412 9.90759 0.140017 31 1 
746 1.20508 9.91551 -0.0164718 0.0286746 9.91557 0.139967 31 1 
748 1.20507 9.92282 -0.0164745 0.0274272 9.92287 0.129095 31 1 
750 1.20506 9.92927 -0.0165667 0.0250291 9.92932 0.113962 31 1 
752 1.20507 9.93478 -0.0166472 0.0217112 9.93482 0.119592 31 1 
752 1.20507 9.93478 -0.0166472 0.0217112 9.93482 0.119592 31 1 
754 1.20506 9.93977 -0.0166384 0.0178217 9.9398 0.106896 31 1 
756 1.20506 9.9438 -0.0165678 0.0138815 9.94382 0.101543 31 1 
758 1.20506 9.94732 -0.016454 0.0105144 9.94734 0.108141 31 1 
760 1.20505 9.95058 -0.0162802 0.00800836 9.95059 0.0895444 31 1 
762 1.20504 9.95336 -0.0160732 0.0063544 9.95337 0.0793641 31 1 
764 1.20504 9.95578 -0.0159037 0.00544137 9.9558 0.0813854 31 1 
766 1.20504 9.95808 -0.0157482 0.0048676 9.95809 0.0780238 31 1 
768 1.20504 9.96035 -0.0156338 0.00447186 9.96037 0.0665876 31 1 
770 1.20503 9.9623 -0.0155987 0.00414192 9.96231 0.0585813 31 1 
772 1.20504 9.9642 -0.0155232 0.00377615 9.96422 0.0646399 31 1 
774 1.20503 9.96629 -0.0154453 0.00328221 9.96631 0.0536623 31 1 
776 1.20503 9.96824 -0.0154434 0.00269812 9.96826 0.0552681 31 1 
778 1.20504 9.96983 -0.0154289 0.00213076 9.96984 0.0732431 31 1 
780 1.20503 9.9712 -0.0153529 0.00181862 9.97121 0.0528989 31 1 
782 1.20502 9.97237 -0.0153069 0.00155535 9.97238 0.041463 31 1 
784 1.20503 9.97335 -0.0152345 0.00122678 9.97336 0.0504477 31 1 
786 1.20503 9.9744 -0.0151319 0.000959407 9.97441 0.050718 31 1 
788 1.20503 9.97528 -0.0150459 0.000477146 9.97529 0.0515851 31 1 
790 1.20503 9.97575 -0.0149671 0.00018714 9.97576 0.0551237 31 1 
792 1.20503 9.97611 -0.01484 0.000111272 9.97612 0.0584683 31 1 
794 1.20502 9.97662 -0.0147306 6.70964e-05 9.97663 0.0416232 31 1 
796 1.20502 9.9768 -0.0146149 3.84331e-07 9.97681 0.0419865 31 1 
798 1.20503 9.97662 -0.0144151 -9.18965e-05 9.97663 0.0618376 31 1 
800 1.20504 9.97655 -0.0143128 -0.000169671 9.97657 0.0658001 31 1 
