8.15083;r ;Density                 ;Velocity u              ;Velocity v              ;Velocity w              ;|Velocity|              ;Pressure                ;Distribution            ;Levels                  ;
0 1.20497 10.0003 9.8865e-07 -0.000146012 10.0003 -0.0587958 1 1 
2 1.20497 10.0005 2.00436e-06 7.26638e-05 10.0005 -0.0549148 1 1 
4 1.20498 10.0001 -1.05139e-06 3.33788e-05 10.0001 -0.0311687 1 1 
6 1.20499 9.99932 -2.44551e-06 -0.000182503 9.99932 -0.010245 1 1 
8 1.20499 9.99958 2.33467e-06 0.000218041 9.99958 -0.0257138 1 1 
10 1.20497 10.0005 8.59278e-06 0.000214935 10.0005 -0.054422 1 1 
12 1.20498 10.0006 1.43699e-05 6.36209e-05 10.0006 -0.0439798 1 1 
14 1.205 9.99933 1.37397e-05 -9.14631e-05 9.99933 0.00727649 1 1 
16 1.20503 9.99806 1.73479e-05 -5.50971e-05 9.99806 0.061364 1 1 
18 1.20509 9.9965 2.22802e-05 0.000366483 9.9965 0.154199 1 1 
20 1.2052 9.99232 2.37804e-05 0.000247636 9.99232 0.369791 1 1 
22 1.20541 9.98496 2.48609e-05 0.000410437 9.98496 0.740264 1 1 
24 1.20567 9.97578 2.62282e-05 0.000862569 9.97578 1.20569 1 1 
26 1.20589 9.96785 2.64232e-05 0.00102231 9.96785 1.61224 1 1 
28 1.20597 9.96527 2.83589e-05 0.000922198 9.96527 1.75012 1 1 
30 1.20586 9.96854 3.4774e-05 0.000510092 9.96854 1.55732 1 1 
32 1.20569 9.97377 4.12197e-05 0.000477195 9.97377 1.25514 1 1 
32 1.20569 9.97377 4.12197e-05 0.000477195 9.97377 1.25514 1 1 
34 1.20566 9.97514 6.6331e-05 0.000904429 9.97514 1.18324 1 1 
36 1.20583 9.96913 0.000129783 0.00135969 9.96913 1.50099 1 1 
38 1.20606 9.96137 0.000262724 0.00179453 9.96137 1.92252 1 1 
40 1.20615 9.9587 0.00048112 0.0025601 9.9587 2.07401 1 1 
42 1.20616 9.95819 0.0007693 0.00308997 9.95819 2.08907 1 1 
44 1.20629 9.95366 0.00108969 0.00249289 9.95366 2.33176 1 1 
46 1.20647 9.94823 0.00136185 0.001892 9.94823 2.64792 1 1 
48 1.20641 9.95026 0.00150846 0.00114801 9.95026 2.5551 1 1 
50 1.20622 9.9569 0.00149222 0.000173071 9.9569 2.19679 1 1 
52 1.20615 9.95944 0.00134566 -0.000669687 9.95944 2.08251 1 1 
54 1.20618 9.959 0.00117096 -0.000880345 9.959 2.1228 1 1 
56 1.20608 9.962 0.0010708 -0.000186885 9.962 1.95644 1 1 
58 1.20601 9.96489 0.0010939 0.000260658 9.96489 1.82364 1 1 
60 1.20613 9.96144 0.00121709 7.99785e-05 9.96144 2.03589 1 1 
62 1.20619 9.95886 0.00135556 -5.9998e-05 9.95886 2.15607 1 1 
64 1.20602 9.96442 0.00142305 0.000231309 9.96442 1.84919 1 1 
64 1.20602 9.96442 0.00142305 0.000231309 9.96442 1.84919 2 1 
66 1.20581 9.97199 0.00139533 0.00107601 9.97199 1.4661 2 1 
68 1.2057 9.9758 0.00131005 0.00222471 9.9758 1.26927 2 1 
70 1.20565 9.97747 0.00122085 0.00257705 9.97747 1.18039 2 1 
72 1.20553 9.98222 0.00113441 0.00242705 9.98222 0.951413 2 1 
74 1.20527 9.99091 0.00100768 0.00234063 9.99091 0.483151 2 1 
76 1.20512 9.99552 0.00084444 0.00132562 9.99552 0.208153 2 1 
78 1.20517 9.99444 0.000723942 0.000130076 9.99444 0.303389 2 1 
80 1.20515 9.99581 0.000695457 -0.000242192 9.99581 0.269169 2 1 
82 1.20498 10.0013 0.000757995 -0.000428926 10.0013 -0.042214 2 1 
84 1.20489 10.0039 0.000868538 -0.000537299 10.0039 -0.196015 2 1 
86 1.2049 10.0037 0.000949179 -0.000696304 10.0037 -0.185569 2 1 
88 1.20481 10.0066 0.000944117 -0.000319398 10.0066 -0.347833 2 1 
90 1.20472 10.0097 0.00084206 0.000547819 10.0097 -0.511534 2 1 
92 1.20476 10.0083 0.000698887 0.000805579 10.0083 -0.430995 2 1 
94 1.20477 10.0084 0.000583779 0.000836365 10.0084 -0.419997 2 1 
96 1.2046 10.0137 0.000516604 0.00146111 10.0137 -0.720635 2 1 
96 1.2046 10.0137 0.000516604 0.00146111 10.0137 -0.720635 2 1 
98 1.20446 10.0177 0.00048756 0.00200274 10.0177 -0.978764 2 1 
100 1.20445 10.018 0.000498274 0.00212472 10.018 -0.998329 2 1 
102 1.20445 10.018 0.000558218 0.00216242 10.018 -0.990252 2 1 
104 1.20443 10.0189 0.000663688 0.0022735 10.0189 -1.0315 2 1 
106 1.20439 10.0198 0.000782061 0.00204602 10.0198 -1.09421 2 1 
108 1.20438 10.0204 0.000846615 0.00144626 10.0204 -1.12867 2 1 
110 1.20438 10.0202 0.000877172 0.00135786 10.0202 -1.11258 2 1 
112 1.20436 10.0206 0.000917434 0.0014647 10.0206 -1.1575 2 1 
114 1.20434 10.0213 0.000987916 0.00135182 10.0213 -1.19687 2 1 
116 1.2044 10.0194 0.00110698 0.000948829 10.0194 -1.07598 2 1 
118 1.20446 10.0172 0.00123041 0.00103511 10.0172 -0.973696 2 1 
120 1.20442 10.0185 0.00129476 0.00111653 10.0185 -1.04728 2 1 
122 1.20439 10.0196 0.001266 0.000659428 10.0196 -1.10652 2 1 
124 1.20442 10.0184 0.00120845 0.000852269 10.0184 -1.03919 2 1 
126 1.20446 10.0176 0.00120224 0.00138904 10.0176 -0.980912 2 1 
128 1.20443 10.0185 0.00125886 0.00149791 10.0185 -1.02369 2 1 
128 1.20443 10.0185 0.00125886 0.00149791 10.0185 -1.02369 10 1 
130 1.20442 10.0187 0.00133472 0.00129208 10.0187 -1.04568 10 1 
132 1.20444 10.0172 0.00140546 0.00118807 10.0172 -1.01389 10 1 
134 1.20444 10.0172 0.00142696 0.00161043 10.0172 -1.00837 10 1 
136 1.20444 10.0172 0.00142125 0.00170367 10.0172 -1.00247 10 1 
138 1.20442 10.0177 0.00144983 0.00137262 10.0177 -1.05019 10 1 
140 1.2044 10.0186 0.0015035 0.00164033 10.0186 -1.08838 10 1 
142 1.20444 10.0174 0.00155574 0.00188996 10.0174 -1.00984 10 1 
144 1.20445 10.0166 0.00158931 0.00180763 10.0166 -0.986933 10 1 
146 1.20442 10.0169 0.00161821 0.00202907 10.0169 -1.05515 10 1 
148 1.20443 10.0164 0.00163291 0.00212173 10.0164 -1.03695 10 1 
150 1.20443 10.0169 0.00164289 0.00210887 10.0169 -1.03534 10 1 
152 1.20438 10.0174 0.00166527 0.00173617 10.0174 -1.11384 10 1 
154 1.20438 10.017 0.00170097 0.00126762 10.017 -1.11444 10 1 
156 1.20441 10.0167 0.00171067 0.00118671 10.0167 -1.06556 10 1 
158 1.2044 10.0163 0.00171882 0.00112792 10.0163 -1.08995 10 1 
160 1.20437 10.016 0.00171727 0.00146678 10.016 -1.13188 10 1 
160 1.20437 10.016 0.00171727 0.00146678 10.016 -1.13188 10 1 
162 1.2044 10.0148 0.0017091 0.00150996 10.0148 -1.08782 10 1 
164 1.20439 10.0143 0.00174044 0.0015761 10.0143 -1.09446 10 1 
166 1.20435 10.0146 0.00176771 0.00187934 10.0146 -1.17424 10 1 
168 1.20439 10.0131 0.00175655 0.00198263 10.0131 -1.0933 10 1 
170 1.20447 10.0119 0.00176215 0.00173636 10.0119 -0.953945 10 1 
172 1.20444 10.0125 0.00179602 0.00175811 10.0125 -1.00853 10 1 
174 1.2044 10.0123 0.00181603 0.00183786 10.0123 -1.08635 10 1 
176 1.20443 10.0103 0.00185315 0.00221375 10.0103 -1.03641 10 1 
178 1.20444 10.0082 0.0018712 0.00251974 10.0082 -1.00387 10 1 
180 1.20444 10.007 0.00187967 0.00241324 10.007 -1.01829 10 1 
182 1.20445 10.0066 0.00185563 0.00140529 10.0066 -0.992245 10 1 
184 1.20447 10.0055 0.00183778 0.00114131 10.0055 -0.952402 10 1 
186 1.20445 10.005 0.0018564 0.00193373 10.005 -0.988846 10 1 
188 1.20448 10.0041 0.00189409 0.00216839 10.0041 -0.939241 10 1 
190 1.20455 10.0014 0.00193282 0.00224199 10.0014 -0.804349 10 1 
192 1.20452 9.99952 0.00194608 0.00288307 9.99952 -0.872412 10 1 
194 1.20448 9.99785 0.00196876 0.00307787 9.99785 -0.937129 10 1 
196 1.20457 9.9946 0.00193551 0.00255783 9.9946 -0.767805 10 1 
198 1.20462 9.99255 0.00191016 0.00140281 9.99255 -0.680931 10 1 
200 1.20456 9.99256 0.00192603 0.00132288 9.99256 -0.802632 10 1 
202 1.20456 9.99033 0.00196013 0.00235721 9.99033 -0.79261 10 1 
204 1.20467 9.98584 0.00199197 0.00243775 9.98584 -0.590004 10 1 
206 1.2047 9.98406 0.00202214 0.00353347 9.98406 -0.550486 10 1 
208 1.20468 9.98277 0.00203688 0.00486027 9.98277 -0.569142 10 1 
210 1.20474 9.97762 0.00201966 0.00410457 9.97763 -0.469982 10 1 
212 1.2047 9.97249 0.00198013 0.00292056 9.97249 -0.547143 10 1 
214 1.20468 9.96859 0.00193895 0.00253239 9.96859 -0.569262 10 1 
216 1.20483 9.96588 0.00192823 0.00283564 9.96588 -0.308462 10 1 
218 1.20492 9.96378 0.00197902 0.004577 9.96378 -0.150916 10 1 
220 1.20487 9.96035 0.00204174 0.00624894 9.96035 -0.240881 10 1 
222 1.20486 9.95466 0.00195444 0.00429416 9.95467 -0.247703 10 1 
224 1.20499 9.94465 0.00181982 0.00307763 9.94465 -0.0170382 10 1 
224 1.20499 9.94465 0.00181982 0.00307763 9.94465 -0.0170382 10 1 
226 1.205 9.93757 0.00180467 0.00529509 9.93757 0.00856658 10 1 
228 1.20498 9.93486 0.00191447 0.00721984 9.93486 -0.0367915 10 1 
230 1.20515 9.92783 0.00201392 0.00867127 9.92783 0.266902 10 1 
232 1.20521 9.91994 0.00196619 0.00738765 9.91994 0.378502 10 1 
234 1.20515 9.91236 0.00177651 0.00725351 9.91236 0.27436 10 1 
236 1.20529 9.90111 0.00168836 0.00905896 9.90111 0.5188 10 1 
238 1.20544 9.89047 0.00176573 0.00968369 9.89048 0.801048 10 1 
240 1.20544 9.8805 0.00182517 0.0125306 9.88051 0.792394 10 1 
242 1.20547 9.86854 0.00175279 0.0153881 9.86856 0.84812 10 1 
244 1.20567 9.85323 0.0016275 0.0152183 9.85324 1.20839 10 1 
246 1.20578 9.83704 0.00158385 0.0164143 9.83706 1.40929 10 1 
248 1.20579 9.82383 0.0016011 0.0192431 9.82385 1.4277 10 1 
250 1.20604 9.80476 0.00159618 0.0235731 9.80479 1.88121 10 1 
252 1.20625 9.78055 0.00148005 0.0280885 9.78059 2.25262 10 1 
254 1.20622 9.75951 0.00141679 0.0335403 9.75957 2.21197 10 1 
256 1.20643 9.73536 0.00135885 0.0377567 9.73544 2.58866 10 1 
256 1.20643 9.73536 0.00135885 0.0377567 9.73544 2.58866 11 1 
258 1.20681 9.70273 0.0013073 0.0433488 9.70284 3.27745 11 1 
260 1.20689 9.67051 0.00125893 0.0522855 9.67066 3.42214 11 1 
262 1.20703 9.6378 0.00114254 0.0640632 9.63803 3.6585 11 1 
264 1.20761 9.59147 0.00111952 0.0776725 9.5918 4.706 11 1 
266 1.20788 9.54372 0.00105369 0.0936461 9.5442 5.20517 11 1 
268 1.20791 9.49736 0.000947305 0.117621 9.49812 5.25774 11 1 
270 1.20857 9.43151 0.000864403 0.14225 9.43263 6.44528 11 1 
272 1.20918 9.35702 0.000773945 0.167238 9.35856 7.54281 11 1 
274 1.20925 9.29102 0.000722161 0.210748 9.29349 7.66962 11 1 
276 1.20978 9.22184 0.000669176 0.278476 9.22615 8.62986 11 1 
278 1.21081 9.13309 0.00055872 0.342015 9.13963 10.5024 11 1 
280 1.21114 9.03307 0.000439447 0.407965 9.0425 11.0976 11 1 
282 1.21105 8.94512 0.000370753 0.496066 8.9591 10.9197 11 1 
284 1.21203 8.86495 0.000291818 0.616379 8.88678 12.6978 11 1 
286 1.21306 8.78009 0.000218134 0.750858 8.81251 14.5605 11 1 
288 1.21264 8.70389 0.000148864 0.865578 8.74718 13.7945 11 1 
288 1.21264 8.70389 0.000148864 0.865578 8.74718 13.7945 11 1 
290 1.21263 8.63447 5.66281e-05 0.997885 8.69252 13.7896 11 1 
292 1.21379 8.58014 -1.73254e-05 1.15772 8.65856 15.8775 11 1 
294 1.21409 8.50703 -7.73999e-05 1.27414 8.60241 16.4249 11 1 
296 1.21249 8.04879 -0.000149386 1.03133 8.12553 13.535 11 1 
298 1.20842 7.01476 -0.000234619 0.209833 7.05958 6.17631 11 1 
300 1.20296 5.8828 -0.000332346 -0.793761 5.98413 -3.68028 11 1 
302 1.19901 5.11976 -0.000458564 -1.47402 5.34682 -10.815 11 1 
304 1.1972 4.8051 -0.000590306 -1.69728 5.09761 -14.0972 11 1 
306 1.19641 4.75759 -0.000711448 -1.62269 5.028 -15.5166 11 1 
308 1.19635 4.76433 -0.000838371 -1.45429 4.98261 -15.6198 11 1 
310 1.19682 4.7547 -0.000945318 -1.28273 4.92559 -14.7796 11 1 
312 1.19686 4.71992 -0.00103449 -1.10366 4.84838 -14.7008 11 1 
314 1.19668 4.66338 -0.00112985 -0.920904 4.75433 -15.0261 11 1 
316 1.19722 4.59684 -0.00121733 -0.786396 4.66395 -14.0468 11 1 
318 1.19773 4.53195 -0.00130211 -0.658049 4.58019 -13.1321 11 1 
320 1.19771 4.44698 -0.00137855 -0.531003 4.47894 -13.1657 11 1 
320 1.19771 4.44698 -0.00137855 -0.531003 4.47894 -13.1657 15 1 
322 1.19803 4.33482 -0.00143646 -0.441272 4.35757 -12.5892 15 1 
324 1.19862 4.22151 -0.00150976 -0.366078 4.2376 -11.523 15 1 
326 1.19887 4.09353 -0.00160967 -0.337516 4.10771 -11.0636 15 1 
328 1.19905 3.93246 -0.00172383 -0.369949 3.95037 -10.7517 15 1 
330 1.19948 3.75884 -0.00182431 -0.433871 3.78444 -9.96629 15 1 
332 1.19986 3.57987 -0.00186507 -0.542645 3.62216 -9.27913 15 1 
334 1.19994 3.37787 -0.00185008 -0.730194 3.45906 -9.14562 15 1 
336 1.19997 3.15215 -0.00185814 -0.957356 3.29807 -9.0821 15 1 
338 1.20006 2.92548 -0.0019874 -1.11933 3.13426 -8.92559 15 1 
340 1.20001 2.73675 -0.00225605 -1.13179 2.96227 -9.00838 15 1 
342 1.19998 2.63743 -0.00259317 -0.986451 2.81844 -9.06907 15 1 
344 1.20026 2.66791 -0.00290054 -0.732052 2.77269 -8.56178 15 1 
346 1.20084 2.83184 -0.00312275 -0.428911 2.87212 -7.51842 15 1 
348 1.20152 3.10271 -0.00326748 -0.115624 3.11268 -6.29371 15 1 
350 1.20227 3.45406 -0.00335116 0.194934 3.46642 -4.93037 15 1 
352 1.20315 3.86794 -0.00336043 0.493846 3.90489 -3.34135 15 1 
354 1.20401 4.32316 -0.00330485 0.764763 4.39455 -1.78647 15 1 
356 1.20473 4.79569 -0.00320903 0.989596 4.89995 -0.489772 15 1 
358 1.20539 5.26831 -0.00307327 1.15579 5.3961 0.697961 15 1 
360 1.206 5.72877 -0.00293248 1.25794 5.86728 1.80117 15 1 
362 1.20644 6.1647 -0.0028103 1.29656 6.30131 2.60856 15 1 
364 1.20673 6.56681 -0.00269557 1.27911 6.69177 3.11699 15 1 
366 1.20694 6.93238 -0.00257324 1.21793 7.03993 3.50494 15 1 
368 1.2071 7.26186 -0.00244679 1.12552 7.34979 3.78668 15 1 
370 1.20714 7.55625 -0.00234091 1.01305 7.62492 3.86742 15 1 
372 1.20711 7.81797 -0.00227247 0.891334 7.86951 3.81032 15 1 
374 1.20706 8.05094 -0.00219903 0.768672 8.08828 3.7231 15 1 
376 1.20697 8.25933 -0.00208966 0.649486 8.28541 3.55935 15 1 
378 1.20684 8.4466 -0.002002 0.53732 8.46413 3.31505 15 1 
380 1.20672 8.61567 -0.00195613 0.435555 8.62703 3.10907 15 1 
382 1.20663 8.76843 -0.00191499 0.346439 8.77554 2.95169 15 1 
384 1.20651 8.90612 -0.00185116 0.270125 8.91042 2.73614 15 1 
384 1.20651 8.90612 -0.00185116 0.270125 8.91042 2.73614 16 1 
386 1.20637 9.03058 -0.00177966 0.206798 9.03309 2.47787 16 1 
388 1.20627 9.14322 -0.00173272 0.15551 9.14465 2.29035 16 1 
390 1.20619 9.24414 -0.0017291 0.114811 9.24493 2.15413 16 1 
392 1.20609 9.33297 -0.00174279 0.0840879 9.3334 1.96349 16 1 
394 1.20597 9.40971 -0.00168614 0.0620526 9.40996 1.76006 16 1 
396 1.2059 9.47587 -0.00159372 0.0465813 9.47602 1.62562 16 1 
398 1.20584 9.53296 -0.00157769 0.0348474 9.53304 1.51793 16 1 
400 1.20577 9.58199 -0.00160552 0.0265084 9.58204 1.3955 16 1 
402 1.20571 9.62346 -0.00159561 0.0208526 9.62349 1.28494 16 1 
404 1.20566 9.65932 -0.00156566 0.0164031 9.65934 1.19552 16 1 
406 1.20562 9.69271 -0.00156747 0.0117247 9.69272 1.11822 16 1 
408 1.20559 9.72282 -0.00157873 0.00761722 9.72282 1.0645 16 1 
410 1.20557 9.74761 -0.00158223 0.00580419 9.74761 1.02676 16 1 
412 1.20553 9.76845 -0.00158467 0.0049229 9.76845 0.955908 16 1 
414 1.20548 9.7886 -0.00156623 0.00344291 9.7886 0.858926 16 1 
416 1.20546 9.80898 -0.00154835 0.00177578 9.80899 0.838802 16 1 
416 1.20546 9.80898 -0.00154835 0.00177578 9.80899 0.838802 16 1 
418 1.20547 9.82652 -0.00154303 0.000973218 9.82653 0.850457 16 1 
420 1.20543 9.8399 -0.00154102 0.00019836 9.8399 0.782803 16 1 
422 1.20538 9.85178 -0.001523 0.000180917 9.85178 0.682036 16 1 
424 1.20538 9.86452 -0.0014594 0.000553771 9.86452 0.681912 16 1 
426 1.20542 9.87786 -0.00138508 -0.000406344 9.87786 0.763604 16 1 
428 1.20541 9.88756 -0.00137942 -0.00139007 9.88756 0.732797 16 1 
430 1.20533 9.89388 -0.00143122 -0.00106484 9.89388 0.593481 16 1 
432 1.2053 9.90159 -0.00143753 -0.00059265 9.90159 0.535831 16 1 
434 1.20533 9.91105 -0.00139856 -0.00119477 9.91105 0.594832 16 1 
436 1.20535 9.91926 -0.00137917 -0.00171636 9.91926 0.640333 16 1 
438 1.20534 9.92401 -0.00136795 -0.00179032 9.92401 0.614967 16 1 
440 1.20533 9.92834 -0.00136418 -0.00154621 9.92834 0.587412 16 1 
442 1.20531 9.93431 -0.0013636 -0.00134395 9.93431 0.568669 16 1 
444 1.20529 9.9398 -0.00137376 -0.00121257 9.9398 0.518084 16 1 
446 1.20527 9.94411 -0.00137187 -0.00138009 9.94411 0.483292 16 1 
448 1.20527 9.94701 -0.00135661 -0.00189398 9.94701 0.496172 16 1 
448 1.20527 9.94701 -0.00135661 -0.00189398 9.94701 0.496172 17 1 
450 1.2053 9.95075 -0.00138543 -0.00167577 9.95075 0.536642 17 1 
452 1.20531 9.95598 -0.00140353 -0.0010772 9.95598 0.564162 17 1 
454 1.20529 9.95941 -0.00136285 -0.00152093 9.95941 0.53285 17 1 
456 1.20527 9.96176 -0.0013446 -0.00201174 9.96176 0.489683 17 1 
458 1.20525 9.96341 -0.00136446 -0.00186541 9.96341 0.456773 17 1 
460 1.20525 9.96607 -0.001371 -0.0016392 9.96607 0.455947 17 1 
462 1.20527 9.97006 -0.00138483 -0.00153824 9.97006 0.495542 17 1 
464 1.20528 9.97266 -0.00138231 -0.00129088 9.97266 0.514048 17 1 
466 1.20528 9.97464 -0.0013456 -0.00126677 9.97464 0.505311 17 1 
468 1.20526 9.97561 -0.0013366 -0.00161414 9.97561 0.471426 17 1 
470 1.20524 9.97676 -0.00137078 -0.00156256 9.97676 0.44033 17 1 
472 1.20525 9.97942 -0.00136951 -0.00135636 9.97942 0.445446 17 1 
474 1.20527 9.98245 -0.00133214 -0.00164497 9.98245 0.478639 17 1 
476 1.20528 9.9846 -0.00132537 -0.00160797 9.9846 0.512421 17 1 
478 1.20528 9.98496 -0.00135348 -0.00139485 9.98496 0.508209 17 1 
480 1.20526 9.98479 -0.00136513 -0.0012336 9.98479 0.463092 17 1 
480 1.20526 9.98479 -0.00136513 -0.0012336 9.98479 0.463092 17 1 
482 1.20525 9.98657 -0.00134891 -0.00123168 9.98657 0.442824 17 1 
484 1.20526 9.98948 -0.0013197 -0.00170761 9.98948 0.470484 17 1 
486 1.20526 9.99049 -0.00131288 -0.00187684 9.99049 0.475323 17 1 
488 1.20526 9.99127 -0.00134317 -0.00160217 9.99127 0.466669 17 1 
490 1.20526 9.99236 -0.00135098 -0.00106639 9.99236 0.475696 17 1 
492 1.20527 9.99342 -0.00131768 -0.000589624 9.99342 0.491366 17 1 
494 1.20527 9.99379 -0.00130393 -0.00106064 9.99379 0.496536 17 1 
496 1.20526 9.99396 -0.00131228 -0.00216078 9.99396 0.470492 17 1 
498 1.20525 9.99597 -0.00130991 -0.00199 9.99597 0.447719 17 1 
500 1.20524 9.99644 -0.00130381 -0.00127331 9.99644 0.435556 17 1 
502 1.20526 9.99784 -0.0012959 -0.000771668 9.99784 0.476289 17 1 
504 1.2053 9.99879 -0.00129706 -0.000810282 9.99879 0.540936 17 1 
506 1.20531 9.99944 -0.0012998 -0.00147473 9.99944 0.561973 17 1 
508 1.20528 9.99962 -0.00129793 -0.00187713 9.99962 0.506394 17 1 
510 1.20525 9.99949 -0.00129474 -0.00163139 9.99949 0.447972 17 1 
512 1.20525 10.0002 -0.00128478 -0.00129547 10.0002 0.443026 17 1 
512 1.20525 10.0002 -0.00128478 -0.00129547 10.0002 0.443026 25 1 
514 1.20525 10.0002 -0.00127798 -0.000926886 10.0002 0.445674 25 1 
516 1.20527 10.0021 -0.00126574 -0.00105404 10.0021 0.486241 25 1 
518 1.2053 10.0028 -0.00123583 -0.00126308 10.0028 0.536895 25 1 
520 1.20531 10.0037 -0.00121733 -0.00110652 10.0037 0.567629 25 1 
522 1.20529 10.0027 -0.00122043 -0.00122399 10.0027 0.516753 25 1 
524 1.20526 10.0025 -0.00123721 -0.00150835 10.0025 0.461979 25 1 
526 1.20527 10.0037 -0.00125197 -0.00138555 10.0037 0.479039 25 1 
528 1.2053 10.005 -0.00123194 -0.00127374 10.005 0.548717 25 1 
530 1.20532 10.0058 -0.00119552 -0.00113719 10.0058 0.574032 25 1 
532 1.20528 10.0048 -0.00118016 -0.000886902 10.0048 0.501609 25 1 
534 1.20525 10.0044 -0.0011773 -0.00134659 10.0044 0.45927 25 1 
536 1.20529 10.0054 -0.00118537 -0.00170864 10.0054 0.521277 25 1 
538 1.20534 10.0073 -0.00119853 -0.00109766 10.0073 0.622866 25 1 
540 1.20534 10.0069 -0.00120003 -0.00094803 10.0069 0.618401 25 1 
542 1.20529 10.0063 -0.00118732 -0.00124489 10.0063 0.532426 25 1 
544 1.20527 10.0066 -0.00115998 -0.000894717 10.0066 0.485462 25 1 
544 1.20527 10.0066 -0.00115998 -0.000894717 10.0066 0.485462 25 1 
546 1.20528 10.007 -0.00113323 -0.000982668 10.007 0.507336 25 1 
548 1.2053 10.007 -0.00112642 -0.00153243 10.007 0.545469 25 1 
550 1.20533 10.008 -0.00113578 -0.00134192 10.008 0.58908 25 1 
552 1.20535 10.0091 -0.00114229 -0.000849225 10.0091 0.640507 25 1 
554 1.20537 10.009 -0.00112458 -0.00119984 10.009 0.669377 25 1 
556 1.20535 10.0089 -0.00108681 -0.00157252 10.0089 0.636437 25 1 
558 1.20531 10.0087 -0.00105377 -0.00122257 10.0087 0.564375 25 1 
560 1.2053 10.0087 -0.00103212 -0.00112549 10.0087 0.533637 25 1 
562 1.20531 10.0089 -0.00102965 -0.00143351 10.0089 0.556882 25 1 
564 1.20534 10.0096 -0.00104128 -0.00130205 10.0096 0.611971 25 1 
566 1.20538 10.0105 -0.00104115 -0.000659858 10.0105 0.679893 25 1 
568 1.20537 10.0105 -0.00103078 -0.000625033 10.0105 0.674374 25 1 
570 1.20532 10.0092 -0.00102001 -0.00126391 10.0092 0.578637 25 1 
572 1.20531 10.0092 -0.00101203 -0.00145589 10.0092 0.556387 25 1 
574 1.20537 10.0111 -0.00101577 -0.00128134 10.0111 0.665973 25 1 
576 1.20541 10.0123 -0.00101775 -0.00106513 10.0123 0.733932 25 1 
576 1.20541 10.0123 -0.00101775 -0.00106513 10.0123 0.733932 26 1 
578 1.20536 10.011 -0.000998982 -0.00112074 10.011 0.648058 26 1 
580 1.20532 10.0099 -0.000972799 -0.00128048 10.0099 0.571361 26 1 
582 1.20536 10.0112 -0.000955551 -0.00108457 10.0112 0.648868 26 1 
584 1.2054 10.0125 -0.000956076 -0.000822866 10.0125 0.728922 26 1 
586 1.20537 10.0115 -0.000968065 -0.000773557 10.0115 0.661105 26 1 
588 1.20531 10.0102 -0.000979693 -0.000992779 10.0102 0.567952 26 1 
590 1.20534 10.0109 -0.000975133 -0.00142032 10.0109 0.615783 26 1 
592 1.2054 10.0125 -0.000944774 -0.00150776 10.0125 0.725201 26 1 
594 1.20539 10.0123 -0.00091989 -0.00108737 10.0123 0.700884 26 1 
596 1.20533 10.011 -0.0009193 -0.000860966 10.011 0.599147 26 1 
598 1.20535 10.0118 -0.000943957 -0.000946827 10.0118 0.63825 26 1 
600 1.20542 10.0138 -0.000975645 -0.000999855 10.0138 0.763389 26 1 
602 1.20542 10.0136 -0.00097652 -0.0010754 10.0136 0.75399 26 1 
604 1.20534 10.0116 -0.00094458 -0.000816645 10.0116 0.622469 26 1 
606 1.20532 10.011 -0.00090663 -0.000817456 10.011 0.581699 26 1 
608 1.20539 10.0129 -0.00089978 -0.00119042 10.0129 0.697729 26 1 
608 1.20539 10.0129 -0.00089978 -0.00119042 10.0129 0.697729 26 1 
610 1.20544 10.0145 -0.000929301 -0.000987871 10.0145 0.792656 26 1 
612 1.20541 10.0139 -0.000963228 -0.0010917 10.0139 0.738091 26 1 
614 1.20535 10.0119 -0.000969709 -0.00128103 10.0119 0.624237 26 1 
616 1.20534 10.0116 -0.000926172 -0.00105902 10.0116 0.611225 26 1 
618 1.20539 10.0132 -0.000858764 -0.00120702 10.0132 0.699304 26 1 
620 1.20542 10.0141 -0.000808324 -0.000914014 10.0141 0.755482 26 1 
622 1.20541 10.0139 -0.000783425 -0.000538127 10.0139 0.743606 26 1 
624 1.2054 10.0137 -0.000785997 -0.00105624 10.0137 0.717313 26 1 
626 1.20538 10.0132 -0.000798576 -0.00125295 10.0132 0.689852 26 1 
628 1.20537 10.0129 -0.000797711 -0.000911513 10.0129 0.676956 26 1 
630 1.20537 10.013 -0.000785731 -0.000836953 10.013 0.677269 26 1 
632 1.20539 10.0135 -0.000762386 -0.000547674 10.0135 0.699836 26 1 
634 1.20542 10.0143 -0.000719365 -0.000343545 10.0143 0.760138 26 1 
636 1.20543 10.0145 -0.000655204 -0.000745343 10.0145 0.776333 26 1 
638 1.2054 10.0138 -0.000583855 -0.000832553 10.0138 0.718759 26 1 
640 1.20537 10.0131 -0.000527018 -0.000754226 10.0131 0.675928 26 1 
642 1.20539 10.0135 -0.0004995 -0.000738217 10.0135 0.700393 26 1 
644 1.20542 10.0144 -0.00050497 -0.000426876 10.0144 0.751532 26 1 
646 1.20542 10.0143 -0.000510882 -0.00029355 10.0143 0.759788 26 1 
648 1.2054 10.0135 -0.000473644 -0.000162425 10.0135 0.713634 26 1 
650 1.20539 10.0135 -0.000379205 4.23785e-05 10.0135 0.696552 26 1 
652 1.20542 10.0148 -0.000251541 -9.5029e-05 10.0148 0.766679 26 1 
654 1.20547 10.0158 -0.000133232 -0.000238245 10.0158 0.840832 26 1 
656 1.20545 10.0151 -6.29224e-05 -0.000254938 10.0151 0.806417 26 1 
658 1.20538 10.0132 -5.43438e-05 -0.00032386 10.0132 0.691892 26 1 
660 1.20534 10.0117 -8.58012e-05 -0.000366518 10.0117 0.612951 26 1 
662 1.20535 10.0121 -0.000140893 -0.000427889 10.0121 0.630312 26 1 
664 1.20539 10.0136 -0.000212497 -0.000670577 10.0136 0.706562 26 1 
666 1.2054 10.0138 -0.000291725 -0.000849135 10.0138 0.724101 26 1 
668 1.20534 10.0118 -0.000379316 -0.000889142 10.0118 0.612468 26 1 
670 1.20524 10.0088 -0.000461733 -0.00102068 10.0088 0.43746 26 1 
672 1.20518 10.0066 -0.000509679 -0.00110119 10.0066 0.319291 26 1 
672 1.20518 10.0066 -0.000509679 -0.00110119 10.0066 0.319291 27 1 
674 1.20517 10.0061 -0.000516477 -0.00116227 10.0061 0.300086 27 1 
676 1.20518 10.0065 -0.000497367 -0.00122019 10.0065 0.324072 27 1 
678 1.20517 10.0061 -0.000477109 -0.00103635 10.0061 0.302665 27 1 
680 1.20511 10.0042 -0.000487631 -0.000747865 10.0042 0.198727 27 1 
682 1.20503 10.0016 -0.000541834 -0.000582525 10.0016 0.0567277 27 1 
684 1.20496 9.99897 -0.000624847 -0.000483054 9.99897 -0.073344 27 1 
686 1.20489 9.99639 -0.00070049 -0.000402882 9.99639 -0.189875 27 1 
688 1.20482 9.99365 -0.00072851 -0.000464519 9.99365 -0.327289 27 1 
690 1.20472 9.9903 -0.000699301 -0.000548615 9.9903 -0.503495 27 1 
692 1.20461 9.98655 -0.000625622 -0.000590959 9.98655 -0.700313 27 1 
694 1.20452 9.98348 -0.000544222 -0.000915349 9.98348 -0.871868 27 1 
696 1.20447 9.98182 -0.00050167 -0.00144148 9.98182 -0.964837 27 1 
698 1.20446 9.98131 -0.000521761 -0.00192681 9.98131 -0.981046 27 1 
700 1.20445 9.98099 -0.000608851 -0.002327 9.98099 -0.990529 27 1 
702 1.20441 9.97962 -0.000738752 -0.00251069 9.97962 -1.06035 27 1 
704 1.20433 9.97674 -0.000873086 -0.00241929 9.97674 -1.20716 27 1 
704 1.20433 9.97674 -0.000873086 -0.00241929 9.97674 -1.20716 31 1 
706 1.20424 9.97343 -0.000978965 -0.00208307 9.97343 -1.38143 31 1 
708 1.20417 9.97117 -0.00103034 -0.0016758 9.97117 -1.5 31 1 
710 1.20416 9.97078 -0.00101495 -0.00123155 9.97078 -1.51226 31 1 
712 1.20422 9.97246 -0.000940479 -0.000771793 9.97246 -1.41157 31 1 
714 1.20431 9.97539 -0.000823238 -0.0004635 9.97539 -1.24753 31 1 
716 1.20439 9.97809 -0.000681446 -0.00027169 9.97809 -1.09517 31 1 
718 1.20445 9.97975 -0.000536667 -0.000159194 9.97975 -1.00058 31 1 
720 1.20446 9.98012 -0.000402588 -6.25748e-05 9.98012 -0.981251 31 1 
722 1.20443 9.97926 -0.00028857 0.000105544 9.97926 -1.02587 31 1 
724 1.20439 9.9779 -0.000198397 0.000286995 9.9779 -1.09677 31 1 
726 1.20436 9.9769 -0.000130054 0.000374179 9.9769 -1.15483 31 1 
728 1.20436 9.97685 -8.2368e-05 0.000376611 9.97685 -1.16434 31 1 
730 1.20439 9.97803 -5.0043e-05 0.000427116 9.97803 -1.10715 31 1 
732 1.20445 9.98027 -2.87901e-05 0.000490322 9.98027 -0.995631 31 1 
734 1.20453 9.98322 -1.66982e-05 0.000486808 9.98322 -0.846356 31 1 
736 1.20462 9.9865 -9.01453e-06 0.000399527 9.9865 -0.67849 31 1 
738 1.20471 9.98971 -4.48632e-06 0.000243258 9.98971 -0.518232 31 1 
740 1.20479 9.99244 -2.71584e-06 0.000153823 9.99244 -0.381747 31 1 
742 1.20485 9.99468 -8.57424e-07 0.000144049 9.99468 -0.266392 31 1 
744 1.2049 9.9965 -4.30103e-07 0.000140214 9.9965 -0.175096 31 1 
746 1.20494 9.99772 -5.79283e-07 0.000115166 9.99772 -0.114113 31 1 
748 1.20496 9.99854 -3.95382e-08 7.7035e-05 9.99854 -0.0723254 31 1 
750 1.20498 9.99917 1.33007e-07 3.58526e-05 9.99917 -0.0405416 31 1 
752 1.20499 9.99956 3.32686e-07 -1.63629e-05 9.99956 -0.0208507 31 1 
752 1.20499 9.99956 3.32686e-07 -1.63629e-05 9.99956 -0.0208507 31 1 
754 1.20499 9.99977 -3.7524e-07 -2.00181e-05 9.99977 -0.0123148 31 1 
756 1.205 9.99988 -1.95336e-07 -1.17441e-05 9.99988 -0.00586756 31 1 
758 1.205 9.99993 1.23311e-07 -5.90858e-06 9.99993 -0.00291691 31 1 
760 1.205 9.99992 1.11362e-08 2.81088e-05 9.99992 -0.00463178 31 1 
762 1.205 9.99995 3.32739e-07 2.11713e-05 9.99995 -0.0022144 31 1 
764 1.205 10 -1.98024e-07 2.78043e-06 10 0.00174205 31 1 
766 1.205 10 -1.88557e-07 -1.50746e-05 10 0.00224161 31 1 
768 1.205 10 4.85553e-08 -1.71794e-05 10 0.000862303 31 1 
770 1.205 9.99998 3.11529e-08 3.73055e-06 9.99998 -0.00142471 31 1 
772 1.205 9.99998 2.68165e-07 1.71259e-06 9.99998 -0.00234047 31 1 
774 1.205 10 -1.32652e-08 1.46051e-05 10 -0.000452279 31 1 
776 1.205 10 -1.65606e-07 4.96404e-06 10 0.0012382 31 1 
778 1.205 10 -3.54507e-08 -9.6056e-06 10 0.000741439 31 1 
780 1.205 9.99999 -4.80675e-08 -3.35208e-06 9.99999 0.000335577 31 1 
782 1.205 9.99998 1.31638e-07 -8.47771e-06 9.99998 0.000190702 31 1 
784 1.205 9.99999 1.27334e-09 7.43028e-06 9.99999 -0.00068401 31 1 
786 1.205 10 -7.31196e-08 -7.61138e-07 10 0.000197906 31 1 
788 1.205 10 -1.29838e-07 -1.13425e-05 10 0.000901097 31 1 
790 1.205 10 -2.33616e-07 1.42852e-05 10 2.59412e-05 31 1 
792 1.205 10 5.4711e-08 1.14369e-05 10 -1.31812e-05 31 1 
794 1.205 10 -9.79259e-08 6.64937e-06 10 -0.00100412 31 1 
796 1.205 10 -2.62613e-07 2.96172e-05 10 -0.0013887 31 1 
798 1.205 10 -3.17766e-07 9.10238e-06 10 -0.000661909 31 1 
800 1.205 10 -5.02651e-07 -2.26822e-05 10 -0.000772019 31 1 
