21.7355;r ;Density                 ;Velocity u              ;Velocity v              ;Velocity w              ;|Velocity|              ;Pressure                ;Distribution            ;Levels                  ;
0 1.20398 9.99985 1.81322e-05 -0.000646556 9.99985 -1.83966 1 1 
2 1.20397 9.99995 -2.9052e-05 -0.000687258 9.99995 -1.86071 1 1 
4 1.20395 10 -9.27096e-05 -0.000924041 10 -1.89259 1 1 
6 1.20394 10.0003 -0.000125946 -0.000919663 10.0003 -1.90685 1 1 
8 1.20395 10.0005 -0.000164821 -0.000695113 10.0005 -1.89282 1 1 
10 1.20397 10.0001 -0.000188309 -0.000801083 10.0001 -1.8661 1 1 
12 1.20397 9.99989 -0.000226335 -0.000952593 9.99989 -1.85359 1 1 
14 1.20397 10 -0.000287196 -0.00101879 10 -1.85641 1 1 
16 1.20397 10.0002 -0.000353707 -0.00117853 10.0002 -1.86483 1 1 
18 1.20397 10.0003 -0.000420021 -0.00133228 10.0003 -1.86659 1 1 
20 1.20397 9.99993 -0.00047958 -0.000882957 9.99993 -1.86472 1 1 
22 1.20396 9.9999 -0.000514919 -0.00120275 9.9999 -1.88663 1 1 
24 1.20395 10.0001 -0.000550558 -0.00148301 10.0001 -1.90414 1 1 
26 1.20396 9.99975 -0.000573366 -0.00123312 9.99975 -1.87235 1 1 
28 1.20397 9.99973 -0.00059637 -0.00126323 9.99973 -1.85194 1 1 
30 1.20397 10 -0.000656993 -0.00171792 10 -1.86302 1 1 
32 1.20396 10.0002 -0.000720665 -0.00216137 10.0002 -1.87293 1 1 
32 1.20396 10.0002 -0.000720665 -0.00216137 10.0002 -1.87293 1 1 
34 1.20397 10.0001 -0.000759886 -0.00203647 10.0001 -1.86697 1 1 
36 1.20397 9.99975 -0.000801688 -0.00209634 9.99975 -1.8547 1 1 
38 1.20397 9.99951 -0.000854172 -0.00270972 9.99951 -1.86159 1 1 
40 1.20397 9.99939 -0.000859186 -0.00290809 9.99939 -1.86886 1 1 
42 1.20396 9.99936 -0.000893305 -0.00296464 9.99936 -1.87149 1 1 
44 1.20396 9.99958 -0.000956429 -0.00317958 9.99958 -1.87451 1 1 
46 1.20397 9.99978 -0.000971697 -0.00304106 9.99979 -1.86126 1 1 
48 1.20398 9.99978 -0.000990179 -0.00290539 9.99979 -1.84831 1 1 
50 1.20398 9.99984 -0.00104731 -0.00332036 9.99984 -1.84962 1 1 
52 1.20398 9.99957 -0.00110352 -0.00367566 9.99957 -1.85046 1 1 
54 1.20398 9.99914 -0.00114896 -0.00361411 9.99914 -1.84823 1 1 
56 1.20397 9.99915 -0.00124588 -0.0038934 9.99915 -1.86224 1 1 
58 1.20396 9.99943 -0.00133111 -0.00406301 9.99943 -1.87957 1 1 
60 1.20398 9.99925 -0.00135618 -0.00407632 9.99925 -1.8497 1 1 
62 1.20399 9.99901 -0.00136895 -0.00379624 9.99901 -1.82228 1 1 
64 1.20398 9.99949 -0.00141408 -0.00408474 9.99949 -1.84032 1 1 
64 1.20398 9.99949 -0.00141408 -0.00408474 9.99949 -1.84032 2 1 
66 1.20398 9.99969 -0.00145171 -0.00436899 9.9997 -1.84181 2 1 
68 1.20398 9.99952 -0.00147924 -0.00402379 9.99952 -1.83485 2 1 
70 1.20398 9.99923 -0.00157612 -0.00426231 9.99923 -1.84744 2 1 
72 1.20397 9.9987 -0.0016324 -0.00467275 9.9987 -1.85726 2 1 
74 1.20398 9.99844 -0.0016202 -0.00456046 9.99844 -1.84883 2 1 
76 1.20398 9.99838 -0.00167934 -0.00416915 9.99838 -1.84133 2 1 
78 1.20397 9.99883 -0.00183162 -0.00446342 9.99883 -1.85543 2 1 
80 1.20398 9.99922 -0.00193495 -0.00493191 9.99922 -1.8342 2 1 
82 1.204 9.99924 -0.00197624 -0.00501371 9.99925 -1.80306 2 1 
84 1.20399 9.99948 -0.00207867 -0.00487329 9.99949 -1.82732 2 1 
86 1.20398 9.99924 -0.00217351 -0.00540675 9.99924 -1.8485 2 1 
88 1.20398 9.99832 -0.0021397 -0.00574795 9.99832 -1.84144 2 1 
90 1.20397 9.99805 -0.00205302 -0.00486445 9.99805 -1.85444 2 1 
92 1.20397 9.99835 -0.00201178 -0.00418258 9.99835 -1.86351 2 1 
94 1.20399 9.99837 -0.0019583 -0.00431194 9.99837 -1.83076 2 1 
96 1.20399 9.99873 -0.00185178 -0.00446895 9.99873 -1.82249 2 1 
96 1.20399 9.99873 -0.00185178 -0.00446895 9.99873 -1.82249 2 1 
98 1.20398 9.99906 -0.00184589 -0.0046797 9.99906 -1.84647 2 1 
100 1.20398 9.9991 -0.00195137 -0.00543103 9.9991 -1.84443 2 1 
102 1.20398 9.99903 -0.00196767 -0.00682074 9.99903 -1.8379 2 1 
104 1.20397 9.99831 -0.00169551 -0.00699491 9.99831 -1.85236 2 1 
106 1.20397 9.99718 -0.00124269 -0.00561694 9.99718 -1.85915 2 1 
108 1.20398 9.99674 -0.000799224 -0.00402054 9.99674 -1.84383 2 1 
110 1.20398 9.99708 -0.000468125 -0.00363822 9.99708 -1.83783 2 1 
112 1.20397 9.99797 -0.000441564 -0.00388007 9.99798 -1.85969 2 1 
114 1.20397 9.99896 -0.000904929 -0.00370321 9.99896 -1.86799 2 1 
116 1.20398 9.99887 -0.00170907 -0.00347125 9.99887 -1.84549 2 1 
118 1.20398 9.99808 -0.00242221 -0.00358963 9.99808 -1.85042 2 1 
120 1.20397 9.99718 -0.00254575 -0.00453305 9.99718 -1.86304 2 1 
122 1.20399 9.99575 -0.00203043 -0.00607141 9.99576 -1.83195 2 1 
124 1.20398 9.99535 -0.0012374 -0.00661166 9.99535 -1.83968 2 1 
126 1.20396 9.99608 -0.000573317 -0.00610386 9.99609 -1.87672 2 1 
128 1.20397 9.99609 -0.000226104 -0.00519603 9.9961 -1.85461 2 1 
128 1.20397 9.99609 -0.000226104 -0.00519603 9.9961 -1.85461 10 1 
130 1.20399 9.99537 -0.000103402 -0.00426737 9.99537 -1.82135 10 1 
132 1.20397 9.99488 -9.76264e-05 -0.00370235 9.99488 -1.85506 10 1 
134 1.20397 9.99461 -0.000112005 -0.00323851 9.99461 -1.86485 10 1 
136 1.204 9.99397 -0.000135566 -0.00351471 9.99397 -1.81056 10 1 
138 1.20398 9.99451 -0.000124749 -0.00354154 9.99451 -1.83901 10 1 
140 1.20396 9.9951 -0.000140228 -0.00330157 9.9951 -1.87048 10 1 
142 1.204 9.9937 -0.000151441 -0.00320869 9.9937 -1.80639 10 1 
144 1.204 9.99284 -0.000149039 -0.00332139 9.99284 -1.79787 10 1 
146 1.20398 9.9927 -0.000125186 -0.00322573 9.99271 -1.85094 10 1 
148 1.204 9.9916 -0.000107732 -0.00341465 9.9916 -1.81052 10 1 
150 1.20401 9.99166 -0.000115837 -0.00365964 9.99166 -1.78033 10 1 
152 1.20399 9.99205 -0.000110777 -0.00382098 9.99205 -1.83038 10 1 
154 1.20399 9.99131 -0.000121662 -0.00358685 9.99131 -1.81679 10 1 
156 1.20403 9.99009 -0.000130925 -0.00345607 9.99009 -1.76038 10 1 
158 1.20402 9.9889 -0.000125588 -0.00362051 9.98891 -1.77008 10 1 
160 1.204 9.98863 -0.000104615 -0.00372412 9.98863 -1.79881 10 1 
160 1.204 9.98863 -0.000104615 -0.00372412 9.98863 -1.79881 10 1 
162 1.20404 9.98768 -0.000107721 -0.00359002 9.98769 -1.74257 10 1 
164 1.20405 9.98658 -9.57029e-05 -0.00322094 9.98658 -1.71153 10 1 
166 1.20402 9.98636 -9.47448e-05 -0.0027863 9.98636 -1.77055 10 1 
168 1.20403 9.98509 -0.000103252 -0.00316881 9.98509 -1.74874 10 1 
170 1.20407 9.9838 -9.19406e-05 -0.00374356 9.9838 -1.67944 10 1 
172 1.20405 9.98365 -9.35693e-05 -0.00393239 9.98365 -1.71213 10 1 
174 1.20405 9.98267 -7.97342e-05 -0.00389956 9.98267 -1.71296 10 1 
176 1.20409 9.98115 -7.99717e-05 -0.0033794 9.98115 -1.64482 10 1 
178 1.20409 9.97931 -6.73986e-05 -0.00322595 9.97931 -1.64143 10 1 
180 1.20407 9.97768 -7.12083e-05 -0.0029991 9.97768 -1.67186 10 1 
182 1.2041 9.97666 -5.54366e-05 -0.00346624 9.97667 -1.62742 10 1 
184 1.20414 9.9743 -6.70429e-05 -0.00371387 9.9743 -1.55079 10 1 
186 1.20411 9.9733 -4.39844e-05 -0.0034043 9.9733 -1.59919 10 1 
188 1.20411 9.97315 -4.41701e-05 -0.00349509 9.97315 -1.60826 10 1 
190 1.20418 9.9705 -3.75053e-05 -0.00340953 9.9705 -1.47713 10 1 
192 1.20417 9.96759 -4.94232e-05 -0.00255281 9.96759 -1.49315 10 1 
194 1.20414 9.96544 -3.00714e-05 -0.00241072 9.96544 -1.5548 10 1 
196 1.2042 9.96275 -4.93446e-05 -0.00333705 9.96275 -1.43643 10 1 
198 1.20424 9.96044 -6.15745e-05 -0.00462195 9.96044 -1.36776 10 1 
200 1.20421 9.95889 -4.83692e-05 -0.00429739 9.95889 -1.43501 10 1 
202 1.20423 9.95533 -6.63324e-05 -0.00274795 9.95533 -1.38938 10 1 
204 1.20431 9.95124 -3.25631e-05 -0.00236357 9.95124 -1.2527 10 1 
206 1.20429 9.95003 -5.28708e-05 -0.00176377 9.95003 -1.28699 10 1 
208 1.20429 9.94776 -1.66932e-05 -0.000985007 9.94776 -1.27566 10 1 
210 1.20439 9.94134 -4.02633e-05 -0.0020938 9.94134 -1.10614 10 1 
212 1.20437 9.93534 -6.16785e-05 -0.00350333 9.93534 -1.14197 10 1 
214 1.20434 9.93102 -0.000100084 -0.00360574 9.93102 -1.19544 10 1 
216 1.20444 9.92802 -0.000102066 -0.0031465 9.92802 -1.00469 10 1 
218 1.20453 9.92533 -7.59174e-05 -0.001078 9.92533 -0.852928 10 1 
220 1.2045 9.92009 -2.43061e-05 0.000615231 9.9201 -0.905878 10 1 
222 1.20451 9.91243 -0.000114826 -0.000732579 9.91244 -0.879454 10 1 
224 1.20463 9.90222 -0.000228997 -0.00177645 9.90222 -0.659683 10 1 
224 1.20463 9.90222 -0.000228997 -0.00177645 9.90222 -0.659683 10 1 
226 1.20464 9.89509 -0.000251807 -0.000279881 9.89509 -0.651933 10 1 
228 1.20462 9.89083 -0.000179818 0.000977635 9.89083 -0.682128 10 1 
230 1.20479 9.88249 -0.00010783 0.00238514 9.88249 -0.37569 10 1 
232 1.20486 9.87325 -0.000181881 0.00166451 9.87325 -0.24544 10 1 
234 1.20482 9.86381 -0.000331477 0.00159079 9.86381 -0.326266 10 1 
236 1.20494 9.85077 -0.000393391 0.003429 9.85077 -0.114936 10 1 
238 1.20508 9.83863 -0.00032729 0.00412022 9.83863 0.147339 10 1 
240 1.2051 9.82735 -0.000287874 0.00687021 9.82735 0.181306 10 1 
242 1.20516 9.8137 -0.000382808 0.00941665 9.8137 0.296575 10 1 
244 1.20537 9.79696 -0.000505467 0.00942617 9.79697 0.664105 10 1 
246 1.20547 9.77854 -0.000555511 0.0110802 9.77855 0.840748 10 1 
248 1.20547 9.76184 -0.000558684 0.0141429 9.76185 0.852711 10 1 
250 1.20571 9.74012 -0.000571118 0.0183991 9.74014 1.29093 10 1 
252 1.20593 9.71373 -0.000708656 0.0226761 9.71376 1.67223 10 1 
254 1.20594 9.68997 -0.000782485 0.0277675 9.69002 1.69419 10 1 
256 1.20617 9.66324 -0.000847396 0.0320904 9.6633 2.1159 10 1 
256 1.20617 9.66324 -0.000847396 0.0320904 9.6633 2.1159 11 1 
258 1.20655 9.62791 -0.000856446 0.0378714 9.628 2.80023 11 1 
260 1.20663 9.59179 -0.000916501 0.0472015 9.59192 2.94809 11 1 
262 1.20677 9.55484 -0.00105401 0.0590688 9.55503 3.19234 11 1 
264 1.20734 9.50493 -0.0011049 0.0725788 9.50522 4.22907 11 1 
266 1.20763 9.45339 -0.00119873 0.0886937 9.45383 4.75125 11 1 
268 1.20769 9.40251 -0.00128808 0.112659 9.40322 4.86468 11 1 
270 1.20835 9.33189 -0.00136049 0.13724 9.33295 6.05682 11 1 
272 1.20895 9.25272 -0.00146175 0.16235 9.25419 7.12874 11 1 
274 1.20904 9.1815 -0.00153295 0.205689 9.18388 7.29373 11 1 
276 1.2096 9.1068 -0.00161644 0.272473 9.11098 8.30125 11 1 
278 1.21063 9.01249 -0.00170755 0.33581 9.01889 10.1687 11 1 
280 1.21097 8.90652 -0.00180133 0.401809 8.91582 10.7786 11 1 
282 1.21089 8.81118 -0.00187991 0.489164 8.82498 10.6453 11 1 
284 1.21186 8.72339 -0.00197912 0.608081 8.74498 12.3896 11 1 
286 1.21288 8.63096 -0.00206074 0.741171 8.66311 14.2268 11 1 
288 1.21252 8.54585 -0.00210962 0.8548 8.58886 13.5861 11 1 
288 1.21252 8.54585 -0.00210962 0.8548 8.58886 13.5861 11 1 
290 1.21256 8.46708 -0.00217818 0.985255 8.52479 13.6624 11 1 
292 1.21369 8.40284 -0.00223264 1.14285 8.48087 15.6965 11 1 
294 1.214 8.3193 -0.00228811 1.25803 8.41438 16.2588 11 1 
296 1.21251 7.85983 -0.00233944 1.02266 7.93675 13.5602 11 1 
298 1.20868 6.83895 -0.00239542 0.223387 6.8832 6.64164 11 1 
300 1.20356 5.72085 -0.00248287 -0.752361 5.81711 -2.6075 11 1 
302 1.19988 4.96028 -0.00259608 -1.41307 5.17667 -9.24209 11 1 
304 1.19822 4.6345 -0.00270962 -1.62954 4.91429 -12.2456 11 1 
306 1.19751 4.56762 -0.00280472 -1.55686 4.82685 -13.5282 11 1 
308 1.19749 4.55177 -0.00289537 -1.39714 4.76247 -13.5661 11 1 
310 1.19795 4.51939 -0.00296242 -1.23786 4.68663 -12.7314 11 1 
312 1.198 4.46611 -0.00301759 -1.07093 4.59373 -12.6405 11 1 
314 1.19785 4.39581 -0.00308164 -0.899689 4.48774 -12.9121 11 1 
316 1.19836 4.31615 -0.00313228 -0.770467 4.38473 -11.9853 11 1 
318 1.19882 4.23589 -0.00318462 -0.645535 4.28549 -11.1697 11 1 
320 1.19877 4.13827 -0.0032275 -0.517324 4.17093 -11.2511 11 1 
320 1.19877 4.13827 -0.0032275 -0.517324 4.17093 -11.2511 15 1 
322 1.19904 4.02077 -0.00326644 -0.422303 4.04325 -10.7642 15 1 
324 1.19954 3.91103 -0.00332926 -0.340571 3.92611 -9.85631 15 1 
326 1.19971 3.80646 -0.00338946 -0.27457 3.81658 -9.56287 15 1 
328 1.1998 3.69745 -0.00342327 -0.227119 3.70467 -9.39161 15 1 
330 1.20014 3.59754 -0.00344063 -0.184259 3.60247 -8.77372 15 1 
332 1.20042 3.50923 -0.00346617 -0.142193 3.51226 -8.26541 15 1 
334 1.20048 3.42097 -0.00351015 -0.106858 3.4228 -8.15827 15 1 
336 1.20063 3.33748 -0.0035669 -0.079916 3.33858 -7.88436 15 1 
338 1.20093 3.2669 -0.00362689 -0.0573197 3.26752 -7.35593 15 1 
340 1.20108 3.19984 -0.00369364 -0.0397708 3.20019 -7.08298 15 1 
342 1.20113 3.13123 -0.00376652 -0.0287654 3.13146 -6.99695 15 1 
344 1.20128 3.07052 -0.0038248 -0.0180739 3.07065 -6.71275 15 1 
346 1.20148 3.02125 -0.00388152 -0.00610748 3.02132 -6.35351 15 1 
348 1.20158 2.97518 -0.00397027 0.00221403 2.97524 -6.17506 15 1 
350 1.20165 2.92801 -0.00406685 0.00901856 2.92808 -6.04653 15 1 
352 1.2018 2.88465 -0.00411571 0.0194178 2.88477 -5.77615 15 1 
354 1.20195 2.8456 -0.0041336 0.030074 2.84582 -5.51686 15 1 
356 1.20201 2.80428 -0.00412011 0.034155 2.80455 -5.4051 15 1 
358 1.20209 2.75916 -0.0039587 0.0304122 2.75938 -5.26122 15 1 
360 1.20221 2.70708 -0.00353391 0.024135 2.70729 -5.03068 15 1 
362 1.20229 2.63084 -0.00283992 0.0228173 2.63124 -4.88951 15 1 
364 1.20232 2.51097 -0.00201997 0.0355337 2.51194 -4.83975 15 1 
366 1.20237 2.34426 -0.00134372 0.0682679 2.34659 -4.74428 15 1 
368 1.20244 2.14468 -0.00110056 0.116487 2.14981 -4.62479 15 1 
370 1.20247 1.9364 -0.00152391 0.169048 1.94607 -4.5746 15 1 
372 1.20249 1.74895 -0.00272008 0.218602 1.76478 -4.52664 15 1 
374 1.20256 1.60668 -0.00458022 0.263155 1.63009 -4.40344 15 1 
376 1.20263 1.51798 -0.00682849 0.302483 1.54998 -4.28428 15 1 
378 1.20268 1.47893 -0.0091581 0.337917 1.51997 -4.19852 15 1 
380 1.20275 1.48263 -0.0112901 0.372978 1.53296 -4.06641 15 1 
382 1.20285 1.51959 -0.0130064 0.409695 1.57924 -3.88986 15 1 
384 1.20293 1.57766 -0.0142444 0.446116 1.64595 -3.73986 15 1 
384 1.20293 1.57766 -0.0142444 0.446116 1.64595 -3.73986 16 1 
386 1.203 1.64817 -0.0150736 0.47889 1.72335 -3.60853 16 1 
388 1.2031 1.72806 -0.0155627 0.506263 1.80784 -3.43221 16 1 
390 1.20321 1.81581 -0.0157771 0.527092 1.89773 -3.22435 16 1 
392 1.20332 1.9098 -0.0158123 0.540322 1.99134 -3.02615 16 1 
394 1.20345 2.0104 -0.0157282 0.546011 2.08931 -2.80507 16 1 
396 1.20359 2.1189 -0.0155688 0.545363 2.19355 -2.55394 16 1 
398 1.20371 2.23548 -0.0153965 0.540104 2.30496 -2.32314 16 1 
400 1.20384 2.3603 -0.0152396 0.531959 2.42431 -2.1016 16 1 
402 1.20398 2.4941 -0.0151043 0.522503 2.55274 -1.83633 16 1 
404 1.20414 2.63666 -0.0150113 0.51324 2.6904 -1.55092 16 1 
406 1.20428 2.78693 -0.0149681 0.505681 2.8365 -1.30875 16 1 
408 1.2044 2.94458 -0.0149401 0.501141 2.99085 -1.08703 16 1 
410 1.20454 3.10944 -0.0149107 0.50048 3.1533 -0.834186 16 1 
412 1.20467 3.28036 -0.014892 0.504049 3.32265 -0.588064 16 1 
414 1.20478 3.45609 -0.0148895 0.512101 3.49761 -0.399952 16 1 
416 1.20486 3.63605 -0.0149186 0.525156 3.6776 -0.248755 16 1 
416 1.20486 3.63605 -0.0149186 0.525156 3.6776 -0.248755 16 1 
418 1.20495 3.81963 -0.015 0.54345 3.862 -0.0887133 16 1 
420 1.20505 4.00579 -0.0151344 0.566655 4.0497 0.0868959 16 1 
422 1.20514 4.19342 -0.0153252 0.594359 4.23953 0.245905 16 1 
424 1.2052 4.38169 -0.0155632 0.62611 4.43062 0.365892 16 1 
426 1.20525 4.56991 -0.015814 0.661051 4.62217 0.448206 16 1 
428 1.20528 4.7574 -0.0160779 0.698384 4.8134 0.511486 16 1 
430 1.20533 4.94396 -0.0163641 0.737555 5.00404 0.587064 16 1 
432 1.20537 5.12961 -0.0166572 0.777573 5.19395 0.675838 16 1 
434 1.20541 5.31373 -0.0169531 0.817184 5.38232 0.741716 16 1 
436 1.20543 5.49568 -0.0172522 0.855645 5.56841 0.774034 16 1 
438 1.20545 5.67578 -0.0175433 0.892371 5.75237 0.810651 16 1 
440 1.20549 5.8546 -0.0178003 0.92669 5.93467 0.876948 16 1 
442 1.20552 6.03194 -0.0180042 0.958145 6.115 0.941908 16 1 
444 1.20554 6.2071 -0.0181584 0.986448 6.29263 0.971891 16 1 
446 1.20554 6.37969 -0.0182621 1.01145 6.46712 0.977016 16 1 
448 1.20554 6.54991 -0.0182977 1.03323 6.63868 0.983662 16 1 
448 1.20554 6.54991 -0.0182977 1.03323 6.63868 0.983662 17 1 
450 1.20556 6.71822 -0.0182646 1.05178 6.80779 1.007 17 1 
452 1.20558 6.88457 -0.0181648 1.06715 6.97439 1.03852 17 1 
454 1.20558 7.04849 -0.0179897 1.0796 7.13808 1.05511 17 1 
456 1.20558 7.20984 -0.0177498 1.08952 7.29881 1.04581 17 1 
458 1.20556 7.36868 -0.0174423 1.09731 7.45672 1.0155 17 1 
460 1.20554 7.52498 -0.0170733 1.10337 7.61183 0.982056 17 1 
462 1.20553 7.6784 -0.0166581 1.10782 7.76386 0.956878 17 1 
464 1.20551 7.82833 -0.0161867 1.1107 7.91221 0.92079 17 1 
466 1.20547 7.97414 -0.0156542 1.1122 8.05631 0.857338 17 1 
468 1.20543 8.11536 -0.0150697 1.11234 8.1957 0.784173 17 1 
470 1.2054 8.25129 -0.0144439 1.11072 8.32966 0.718582 17 1 
472 1.20536 8.38102 -0.013774 1.10666 8.45721 0.649519 17 1 
474 1.20531 8.50342 -0.0130708 1.09945 8.57717 0.565668 17 1 
476 1.20526 8.61733 -0.0123484 1.08828 8.6883 0.478279 17 1 
478 1.20522 8.72201 -0.0116209 1.0721 8.78977 0.394928 17 1 
480 1.20517 8.81763 -0.0109066 1.04993 8.88168 0.311605 17 1 
480 1.20517 8.81763 -0.0109066 1.04993 8.88168 0.311605 17 1 
482 1.20513 8.9046 -0.0102366 1.02114 8.9644 0.237272 17 1 
484 1.2051 8.98283 -0.0096328 0.985216 9.03788 0.180158 17 1 
486 1.20507 9.05241 -0.00906694 0.942334 9.10229 0.127652 17 1 
488 1.20503 9.11416 -0.00853131 0.893567 9.15865 0.0610586 17 1 
490 1.20499 9.16916 -0.00803334 0.839919 9.2082 -0.0166238 17 1 
492 1.20496 9.21845 -0.0075845 0.782031 9.25209 -0.0784541 17 1 
494 1.20493 9.26318 -0.00719605 0.720995 9.29162 -0.121227 17 1 
496 1.20491 9.30436 -0.00686294 0.658209 9.32796 -0.169519 17 1 
498 1.20488 9.34273 -0.00657681 0.594765 9.36193 -0.216008 17 1 
500 1.20487 9.37909 -0.00633581 0.531453 9.39437 -0.242211 17 1 
502 1.20485 9.41444 -0.00612018 0.469268 9.42631 -0.26916 17 1 
504 1.20482 9.44888 -0.00591094 0.409728 9.45791 -0.317071 17 1 
506 1.2048 9.48208 -0.00571531 0.353974 9.48881 -0.362608 17 1 
508 1.20478 9.51484 -0.00554882 0.30233 9.51975 -0.393998 17 1 
510 1.20476 9.5481 -0.00541362 0.255038 9.55158 -0.430621 17 1 
512 1.20475 9.58106 -0.00530896 0.212374 9.58347 -0.459151 17 1 
512 1.20475 9.58106 -0.00530896 0.212374 9.58347 -0.459151 25 1 
514 1.20474 9.61271 -0.00518459 0.174333 9.61434 -0.464366 25 1 
516 1.20474 9.64363 -0.00501294 0.140958 9.64469 -0.477333 25 1 
518 1.20472 9.67411 -0.00483866 0.112462 9.67479 -0.510215 25 1 
520 1.20471 9.70313 -0.00470008 0.0887013 9.70355 -0.531385 25 1 
522 1.2047 9.72981 -0.00461578 0.0692724 9.73007 -0.540069 25 1 
524 1.20469 9.75403 -0.00455085 0.0540388 9.75419 -0.55217 25 1 
526 1.2047 9.77602 -0.00449889 0.0424659 9.77612 -0.548572 25 1 
528 1.20471 9.7957 -0.00446564 0.0336852 9.79576 -0.524393 25 1 
530 1.20472 9.81292 -0.00444575 0.0268553 9.81296 -0.50869 25 1 
532 1.20472 9.82781 -0.00442798 0.0214123 9.82784 -0.512289 25 1 
534 1.20471 9.84081 -0.00441047 0.0170069 9.84083 -0.527978 25 1 
536 1.2047 9.85275 -0.0044243 0.0135405 9.85276 -0.538488 25 1 
538 1.20471 9.86413 -0.00445639 0.010806 9.86414 -0.52146 25 1 
540 1.20473 9.87504 -0.00446086 0.00837342 9.87505 -0.482887 25 1 
542 1.20476 9.88557 -0.00444817 0.00607567 9.88557 -0.43764 25 1 
544 1.20478 9.89521 -0.00443928 0.00391166 9.89521 -0.390004 25 1 
544 1.20478 9.89521 -0.00443928 0.00391166 9.89521 -0.390004 25 1 
546 1.2048 9.90337 -0.00441652 0.00209849 9.90338 -0.364064 25 1 
548 1.2048 9.91064 -0.0043898 0.000707824 9.91064 -0.368466 25 1 
550 1.2048 9.91745 -0.00437796 -0.00038689 9.91745 -0.363018 25 1 
552 1.20481 9.92396 -0.00438077 -0.00107314 9.92396 -0.33475 25 1 
554 1.20483 9.93005 -0.00439572 -0.00155776 9.93005 -0.29921 25 1 
556 1.20486 9.93555 -0.00442324 -0.00215737 9.93555 -0.25233 25 1 
558 1.20489 9.94084 -0.00445077 -0.00263354 9.94084 -0.204039 25 1 
560 1.20491 9.94594 -0.00444386 -0.00270105 9.94594 -0.163038 25 1 
562 1.20493 9.95022 -0.0044134 -0.00258046 9.95022 -0.119917 25 1 
564 1.20496 9.95381 -0.00437341 -0.00247569 9.95381 -0.0799411 25 1 
566 1.20498 9.95726 -0.00433397 -0.00232371 9.95726 -0.0378654 25 1 
568 1.20501 9.96095 -0.00431998 -0.00214353 9.96095 0.0142372 25 1 
570 1.20504 9.96482 -0.00431457 -0.00195156 9.96482 0.068085 25 1 
572 1.20507 9.96808 -0.00430742 -0.00165603 9.96808 0.134303 25 1 
574 1.20512 9.97108 -0.00431701 -0.0014301 9.97108 0.212989 25 1 
576 1.20516 9.97446 -0.00434947 -0.00146901 9.97446 0.292202 25 1 
576 1.20516 9.97446 -0.00434947 -0.00146901 9.97446 0.292202 26 1 
578 1.20521 9.97789 -0.00440889 -0.00140202 9.9779 0.382905 26 1 
580 1.20525 9.98119 -0.00447518 -0.00110433 9.98119 0.459296 26 1 
582 1.20528 9.98406 -0.00450243 -0.000923867 9.98406 0.507868 26 1 
584 1.20531 9.98617 -0.00449895 -0.000874952 9.98617 0.564579 26 1 
586 1.20534 9.9884 -0.00448453 -0.000820772 9.9884 0.618462 26 1 
588 1.20538 9.99135 -0.00446551 -0.000798233 9.99135 0.681805 26 1 
590 1.20544 9.9946 -0.00445968 -0.000657739 9.9946 0.790825 26 1 
592 1.20551 9.99836 -0.00449748 -0.000484687 9.99837 0.918387 26 1 
594 1.20559 10.0027 -0.00458117 -0.000637705 10.0027 1.07087 26 1 
596 1.2057 10.0072 -0.00468143 -0.000655866 10.0072 1.258 26 1 
598 1.2058 10.0118 -0.00476559 -0.000528259 10.0118 1.43876 26 1 
600 1.20589 10.016 -0.00480927 -0.00046616 10.016 1.60766 26 1 
602 1.20597 10.0194 -0.00482931 -0.000498538 10.0194 1.7483 26 1 
604 1.20603 10.0226 -0.00485175 -0.000712324 10.0226 1.85727 26 1 
606 1.20609 10.0257 -0.00488799 -0.00106225 10.0257 1.97412 26 1 
608 1.20617 10.0292 -0.00491886 -0.00128975 10.0292 2.10766 26 1 
608 1.20617 10.0292 -0.00491886 -0.00128975 10.0292 2.10766 26 1 
610 1.20626 10.0334 -0.00493375 -0.00115531 10.0334 2.27636 26 1 
612 1.20637 10.0375 -0.00493523 -0.000935285 10.0375 2.46793 26 1 
614 1.20647 10.0415 -0.00494492 -0.00103715 10.0415 2.64942 26 1 
616 1.20657 10.0455 -0.00496147 -0.00133441 10.0455 2.83489 26 1 
618 1.20666 10.0492 -0.00495378 -0.001565 10.0492 2.99628 26 1 
620 1.20673 10.0528 -0.00489938 -0.00149273 10.0528 3.11875 26 1 
622 1.2068 10.0556 -0.00481155 -0.00133667 10.0556 3.24457 26 1 
624 1.20686 10.0577 -0.00471954 -0.0014144 10.0577 3.35817 26 1 
626 1.20692 10.06 -0.0046204 -0.00156815 10.06 3.45957 26 1 
628 1.20698 10.0624 -0.00452717 -0.00155659 10.0624 3.57094 26 1 
630 1.20703 10.0652 -0.00445888 -0.00138212 10.0652 3.67272 26 1 
632 1.20708 10.0671 -0.00441318 -0.00143719 10.0671 3.75263 26 1 
634 1.20709 10.0677 -0.00437554 -0.00137747 10.0677 3.78073 26 1 
636 1.20709 10.0674 -0.00432656 -0.00110094 10.0674 3.76644 26 1 
638 1.20706 10.0667 -0.00425263 -0.00096991 10.0667 3.72566 26 1 
640 1.20701 10.0651 -0.00417434 -0.000757837 10.0651 3.62399 26 1 
642 1.20693 10.0631 -0.00409077 -0.000483335 10.0631 3.49088 26 1 
644 1.20685 10.0604 -0.00398984 -0.000465094 10.0604 3.35018 26 1 
646 1.20677 10.0577 -0.00387607 -0.000448719 10.0577 3.20263 26 1 
648 1.20671 10.0556 -0.00376372 -0.00021354 10.0556 3.08119 26 1 
650 1.20664 10.0531 -0.00367567 8.13094e-05 10.0531 2.96928 26 1 
652 1.20657 10.0507 -0.00362343 0.000295977 10.0507 2.83285 26 1 
654 1.20648 10.0479 -0.0035768 0.000428364 10.0479 2.67359 26 1 
656 1.20639 10.0446 -0.00352807 0.00039491 10.0447 2.50693 26 1 
658 1.20629 10.0416 -0.00349403 0.000426961 10.0416 2.33591 26 1 
660 1.20619 10.0379 -0.00349528 0.000465164 10.0379 2.14255 26 1 
662 1.20607 10.0339 -0.00351446 0.000499827 10.0339 1.92873 26 1 
664 1.20595 10.0297 -0.00352263 0.000649571 10.0297 1.70839 26 1 
666 1.20583 10.0256 -0.00351172 0.000615183 10.0256 1.49396 26 1 
668 1.20572 10.0225 -0.0034982 0.000418861 10.0225 1.30042 26 1 
670 1.20562 10.0191 -0.00349576 0.000285494 10.0191 1.1196 26 1 
672 1.20553 10.0159 -0.00349868 0.000259212 10.0159 0.953948 26 1 
672 1.20553 10.0159 -0.00349868 0.000259212 10.0159 0.953948 27 1 
674 1.20545 10.0135 -0.00349695 0.00029122 10.0135 0.817179 27 1 
676 1.20539 10.0113 -0.00347419 0.000312655 10.0113 0.708524 27 1 
678 1.20535 10.0101 -0.0034402 0.000211498 10.0101 0.625234 27 1 
680 1.2053 10.0089 -0.00341579 0.000109654 10.0089 0.547028 27 1 
682 1.20527 10.0078 -0.00341109 7.45676e-05 10.0078 0.484766 27 1 
684 1.20525 10.0076 -0.00339414 9.77754e-05 10.0076 0.454056 27 1 
686 1.20524 10.007 -0.00336876 0.000187109 10.007 0.429297 27 1 
688 1.20523 10.0068 -0.00334323 0.000131044 10.0068 0.41618 27 1 
690 1.20523 10.007 -0.00331139 6.36143e-05 10.007 0.410467 27 1 
692 1.20522 10.0067 -0.00329279 9.77996e-05 10.0067 0.392897 27 1 
694 1.20521 10.0068 -0.00327936 6.45776e-05 10.0068 0.383823 27 1 
696 1.20521 10.0068 -0.00326032 9.85346e-05 10.0068 0.383404 27 1 
698 1.20521 10.0069 -0.00323732 0.000188175 10.0069 0.388103 27 1 
700 1.20522 10.0071 -0.00320826 0.000140112 10.0071 0.391618 27 1 
702 1.20521 10.0068 -0.00317791 6.04678e-05 10.0068 0.381847 27 1 
704 1.20521 10.0072 -0.00315432 0.000116428 10.0072 0.374659 27 1 
704 1.20521 10.0072 -0.00315432 0.000116428 10.0072 0.374659 31 1 
706 1.20521 10.0074 -0.00314447 0.00022398 10.0074 0.379565 31 1 
708 1.20522 10.0073 -0.00313568 0.000239988 10.0073 0.395549 31 1 
710 1.20523 10.0077 -0.00311294 1.23405e-05 10.0077 0.411642 31 1 
712 1.20522 10.0075 -0.00307863 -1.84737e-05 10.0075 0.396615 31 1 
714 1.2052 10.0074 -0.00304797 0.000173907 10.0074 0.368238 31 1 
716 1.2052 10.0074 -0.00301996 0.000355246 10.0074 0.361576 31 1 
718 1.20521 10.0073 -0.00300795 0.00030498 10.0073 0.383543 31 1 
720 1.20523 10.008 -0.0030141 9.36144e-05 10.008 0.416557 31 1 
722 1.20523 10.008 -0.00300936 -7.94568e-05 10.008 0.415659 31 1 
724 1.20522 10.008 -0.00297529 1.44163e-05 10.008 0.388913 31 1 
726 1.2052 10.0078 -0.00293573 0.000207556 10.0078 0.366369 31 1 
728 1.2052 10.0074 -0.00290875 0.000267098 10.0074 0.366376 31 1 
730 1.20521 10.0079 -0.0028899 0.000182646 10.0079 0.384981 31 1 
732 1.20522 10.0081 -0.00287543 3.17363e-05 10.0081 0.395854 31 1 
734 1.20522 10.0082 -0.00286976 5.91828e-05 10.0082 0.394401 31 1 
736 1.20521 10.0081 -0.002854 0.00017909 10.0081 0.377412 31 1 
738 1.2052 10.0078 -0.00282859 0.000224693 10.0078 0.367539 31 1 
740 1.20521 10.0084 -0.00281658 0.000116268 10.0084 0.385417 31 1 
742 1.20522 10.0086 -0.00280244 4.73691e-05 10.0086 0.398269 31 1 
744 1.20521 10.0085 -0.00278367 8.83775e-05 10.0085 0.38764 31 1 
746 1.2052 10.0082 -0.00276377 0.000326447 10.0082 0.362691 31 1 
748 1.20519 10.0075 -0.0027347 0.000273403 10.0075 0.352216 31 1 
750 1.2052 10.0079 -0.00271388 0.00012937 10.0079 0.369246 31 1 
752 1.20522 10.0082 -0.00269833 1.93762e-05 10.0082 0.388987 31 1 
752 1.20522 10.0082 -0.00269833 1.93762e-05 10.0082 0.388987 31 1 
754 1.20522 10.0085 -0.00268692 0.000100857 10.0085 0.389171 31 1 
756 1.20521 10.0084 -0.00268127 0.000254994 10.0084 0.374226 31 1 
758 1.2052 10.0078 -0.00266259 0.000306592 10.0078 0.366999 31 1 
760 1.20521 10.0082 -0.00265366 0.000274407 10.0082 0.371069 31 1 
762 1.2052 10.0085 -0.00263468 0.000227873 10.0085 0.363681 31 1 
764 1.2052 10.0087 -0.00260904 0.000251774 10.0087 0.368194 31 1 
766 1.20521 10.0084 -0.00259728 0.000303637 10.0084 0.374513 31 1 
768 1.2052 10.0077 -0.00257748 0.000371891 10.0077 0.368704 31 1 
770 1.20521 10.008 -0.00256639 0.00038809 10.008 0.371753 31 1 
772 1.20521 10.0082 -0.00254715 0.000317197 10.0082 0.376818 31 1 
774 1.20521 10.0086 -0.00253103 0.000421372 10.0086 0.383198 31 1 
776 1.20521 10.0087 -0.00252422 0.000593895 10.0087 0.3707 31 1 
778 1.2052 10.0081 -0.00250731 0.000546582 10.0081 0.356915 31 1 
780 1.2052 10.0079 -0.00250157 0.000464524 10.0079 0.358362 31 1 
782 1.2052 10.0082 -0.00248679 0.000371105 10.0082 0.365839 31 1 
784 1.20521 10.0085 -0.00248085 0.000418349 10.0085 0.37731 31 1 
786 1.20521 10.0087 -0.0024763 0.000521146 10.0087 0.384663 31 1 
788 1.20521 10.0084 -0.0024472 0.000624877 10.0084 0.377498 31 1 
790 1.2052 10.008 -0.00242881 0.000717495 10.008 0.366182 31 1 
792 1.2052 10.0081 -0.00241994 0.000694652 10.0081 0.366524 31 1 
794 1.20521 10.0085 -0.00241621 0.000605207 10.0085 0.37316 31 1 
796 1.20521 10.0086 -0.00240605 0.000676442 10.0086 0.377515 31 1 
798 1.2052 10.0084 -0.00237562 0.000745881 10.0084 0.369744 31 1 
800 1.2052 10.0083 -0.00235869 0.000693895 10.0083 0.362295 31 1 
