119.545;r ;Density                 ;Velocity u              ;Velocity v              ;Velocity w              ;|Velocity|              ;Pressure                ;Distribution            ;Levels                  ;
0 1.19518 10.0008 0.000116018 0.000138162 10.0008 -17.7347 1 1 
4 1.1952 10.0023 6.80002e-05 0.00023386 10.0023 -17.7078 1 1 
8 1.19519 10.0039 -0.000139203 0.00029394 10.0039 -17.7182 1 1 
12 1.19515 10.0064 -0.000339588 0.000374278 10.0064 -17.7971 1 1 
16 1.19515 10.0089 -0.000426425 0.000508222 10.0089 -17.7977 1 1 
20 1.19516 10.0099 -0.000627285 0.000521447 10.0099 -17.7778 1 1 
24 1.19511 10.0128 -0.000733825 0.000658047 10.0128 -17.8556 1 1 
28 1.19511 10.0144 -0.000903979 0.000726431 10.0144 -17.8598 1 1 
32 1.1951 10.0171 -0.00105944 0.000829038 10.0171 -17.8861 1 1 
36 1.19508 10.0202 -0.00114204 0.000978941 10.0202 -17.9156 1 1 
40 1.19509 10.0216 -0.00133824 0.00103182 10.0216 -17.9048 1 1 
44 1.19506 10.0224 -0.0014795 0.0011437 10.0224 -17.9524 1 1 
48 1.19503 10.0249 -0.00164142 0.00128997 10.0249 -18.0084 1 1 
52 1.19503 10.0263 -0.0017772 0.00136494 10.0263 -18.0075 1 1 
56 1.19503 10.0268 -0.00193882 0.00147888 10.0268 -18.016 1 1 
60 1.195 10.0299 -0.00211506 0.00159747 10.0299 -18.069 1 1 
64 1.19501 10.0301 -0.00229961 0.0016848 10.0301 -18.0509 1 1 
64 1.19501 10.0301 -0.00229961 0.0016848 10.0301 -18.0509 2 1 
68 1.19498 10.0322 -0.00241131 0.00181994 10.0322 -18.0991 2 1 
72 1.19497 10.0344 -0.00258079 0.00192873 10.0344 -18.1189 2 1 
76 1.19496 10.0356 -0.0027682 0.00199407 10.0356 -18.1319 2 1 
80 1.19496 10.0363 -0.00293279 0.0021442 10.0363 -18.1312 2 1 
84 1.19494 10.0395 -0.00305449 0.00229884 10.0395 -18.1745 2 1 
88 1.19494 10.0419 -0.00321967 0.00243701 10.0419 -18.1772 2 1 
92 1.19495 10.044 -0.00331612 0.00263649 10.044 -18.1575 2 1 
96 1.19491 10.0482 -0.0035357 0.00266224 10.0482 -18.2259 2 1 
100 1.19494 10.0468 -0.00358961 0.00289864 10.0468 -18.1773 2 1 
104 1.19491 10.0472 -0.00380094 0.0030352 10.0472 -18.2186 2 1 
108 1.19489 10.049 -0.00392443 0.00320666 10.049 -18.2549 2 1 
112 1.1949 10.0509 -0.00401886 0.00335579 10.0509 -18.2383 2 1 
116 1.19489 10.054 -0.00424386 0.00353038 10.054 -18.2554 2 1 
120 1.19488 10.0576 -0.0043055 0.00373976 10.0576 -18.2739 2 1 
124 1.19491 10.0573 -0.00447045 0.00385173 10.0573 -18.2314 2 1 
128 1.19489 10.058 -0.00462034 0.00405444 10.058 -18.2609 2 1 
128 1.19489 10.058 -0.00462034 0.00405444 10.058 -18.2609 10 1 
132 1.19485 10.0605 -0.00475141 0.00424244 10.0605 -18.3319 10 1 
136 1.19489 10.0585 -0.00482097 0.00444995 10.0585 -18.2698 10 1 
140 1.19486 10.0623 -0.00505667 0.00461226 10.0623 -18.3216 10 1 
144 1.19486 10.0636 -0.00511922 0.00486431 10.0636 -18.3202 10 1 
148 1.19489 10.0633 -0.0052329 0.00497838 10.0633 -18.2583 10 1 
152 1.19485 10.068 -0.00544536 0.00524666 10.068 -18.3334 10 1 
156 1.19485 10.0675 -0.00543111 0.00559273 10.0675 -18.3302 10 1 
160 1.19488 10.0662 -0.00572746 0.00572173 10.0662 -18.2728 10 1 
160 1.19488 10.0662 -0.00572746 0.00572173 10.0662 -18.2728 10 1 
164 1.19484 10.0702 -0.00577518 0.0059075 10.0702 -18.3562 10 1 
168 1.19489 10.0687 -0.00587736 0.00626447 10.0687 -18.2673 10 1 
172 1.19489 10.0683 -0.00601566 0.00650559 10.0683 -18.2585 10 1 
176 1.19482 10.0747 -0.0060314 0.00676268 10.0747 -18.3871 10 1 
180 1.19493 10.0711 -0.00605447 0.00731219 10.0711 -18.1974 10 1 
184 1.1949 10.0713 -0.00628279 0.00750008 10.0713 -18.2462 10 1 
188 1.19486 10.0724 -0.00632708 0.00788909 10.0724 -18.3066 10 1 
192 1.19493 10.0655 -0.0063151 0.00830264 10.0655 -18.1896 10 1 
196 1.19489 10.0674 -0.00667686 0.00841754 10.0674 -18.2674 10 1 
200 1.1949 10.072 -0.00653842 0.00892721 10.072 -18.2397 10 1 
204 1.19501 10.0704 -0.00666529 0.0093364 10.0705 -18.0395 10 1 
208 1.19503 10.0694 -0.00679931 0.00978479 10.0694 -18.0161 10 1 
212 1.19496 10.0677 -0.00677906 0.0102365 10.0677 -18.1293 10 1 
216 1.19507 10.0578 -0.00699205 0.010461 10.0578 -17.9279 10 1 
220 1.19511 10.0499 -0.00698948 0.0107688 10.0499 -17.8584 10 1 
224 1.19502 10.0472 -0.00699181 0.0113219 10.0473 -18.0229 10 1 
224 1.19502 10.0472 -0.00699181 0.0113219 10.0473 -18.0229 10 1 
228 1.19521 10.0391 -0.00721454 0.0115907 10.0391 -17.6752 10 1 
232 1.19528 10.037 -0.00717587 0.0120859 10.037 -17.5599 10 1 
236 1.19529 10.0298 -0.00730439 0.0125672 10.0298 -17.5365 10 1 
240 1.1954 10.0177 -0.00736738 0.0128776 10.0177 -17.332 10 1 
244 1.19555 10.0004 -0.00741667 0.0134482 10.0004 -17.0612 10 1 
248 1.19571 9.97334 -0.00785419 0.0136444 9.97337 -16.7831 10 1 
252 1.19568 9.95784 -0.00790736 0.0139527 9.95786 -16.8372 10 1 
256 1.19608 9.92779 -0.00785784 0.014738 9.92782 -16.1151 10 1 
256 1.19608 9.92779 -0.00785784 0.014738 9.92782 -16.1151 11 1 
260 1.19639 9.88558 -0.00804025 0.0150937 9.88563 -15.5432 11 1 
264 1.19637 9.84797 -0.00805037 0.0154578 9.84802 -15.5863 11 1 
268 1.19707 9.78354 -0.00828169 0.0159582 9.7836 -14.33 11 1 
272 1.19789 9.69641 -0.00855076 0.0161775 9.6965 -12.8426 11 1 
276 1.19813 9.59076 -0.00855557 0.0165837 9.59103 -12.4139 11 1 
280 1.19894 9.42778 -0.00878201 0.0168761 9.42805 -10.9512 11 1 
284 1.20045 9.25341 -0.00882403 0.0172377 9.25354 -8.21877 11 1 
288 1.20203 9.03103 -0.00890992 0.0175544 9.0313 -5.36889 11 1 
292 1.20375 8.6933 -0.00907158 0.017249 8.69465 -2.26543 11 1 
296 1.19892 8.26182 -0.00926288 0.0177039 8.26892 -10.9808 11 1 
300 1.18985 7.9526 -0.0103199 0.0184583 7.96069 -27.3606 11 1 
304 1.1876 7.73477 -0.0110344 0.0184971 7.74154 -31.4199 11 1 
308 1.18918 7.46572 -0.0112863 0.0180576 7.47222 -28.569 11 1 
312 1.19019 7.19725 -0.0118306 0.0177788 7.20253 -26.7428 11 1 
316 1.191 6.94886 -0.0121535 0.0179982 6.95283 -25.2912 11 1 
320 1.19159 6.78722 -0.0124214 0.0182766 6.78941 -24.2271 11 1 
320 1.19159 6.78722 -0.0124214 0.0182766 6.78941 -24.2271 15 1 
324 1.19223 6.6762 -0.0127714 0.018892 6.67815 -23.0614 15 1 
328 1.19284 6.60367 -0.0131317 0.0194137 6.60527 -21.9672 15 1 
332 1.19324 6.53671 -0.0134817 0.019916 6.53822 -21.2446 15 1 
336 1.19331 6.45927 -0.0137168 0.0207928 6.46019 -21.1147 15 1 
340 1.19348 6.41806 -0.0139661 0.021685 6.41893 -20.8144 15 1 
344 1.1939 6.40468 -0.0142183 0.0224393 6.40554 -20.0488 15 1 
348 1.19414 6.3837 -0.0145777 0.023106 6.38454 -19.6227 15 1 
352 1.1942 6.35842 -0.0148309 0.0237647 6.35912 -19.504 15 1 
356 1.19425 6.33009 -0.0149874 0.0246142 6.3308 -19.4151 15 1 
360 1.19436 6.30884 -0.0151675 0.0255912 6.30949 -19.2274 15 1 
364 1.19457 6.3069 -0.0154167 0.0263706 6.30756 -18.8359 15 1 
368 1.19466 6.299 -0.015645 0.0270316 6.29962 -18.6705 15 1 
372 1.19466 6.27784 -0.0157123 0.0279305 6.27844 -18.6756 15 1 
376 1.19473 6.26082 -0.0156481 0.0289711 6.26138 -18.5468 15 1 
380 1.19477 6.24681 -0.0157544 0.0297982 6.24738 -18.4831 15 1 
384 1.19481 6.23685 -0.0159414 0.0305579 6.23738 -18.411 15 1 
384 1.19481 6.23685 -0.0159414 0.0305579 6.23738 -18.411 16 1 
388 1.19488 6.22998 -0.0160456 0.0314016 6.23051 -18.2712 16 1 
392 1.19491 6.21603 -0.0159906 0.0323204 6.21652 -18.226 16 1 
396 1.1949 6.19971 -0.0159718 0.0332788 6.20019 -18.2518 16 1 
400 1.19489 6.18852 -0.0161643 0.0342502 6.18898 -18.2672 16 1 
404 1.19493 6.18167 -0.0163092 0.0352146 6.18212 -18.1967 16 1 
408 1.19497 6.17652 -0.0162407 0.0362751 6.17694 -18.1086 16 1 
412 1.19497 6.16924 -0.01615 0.0373859 6.16965 -18.1136 16 1 
416 1.19495 6.16021 -0.0161729 0.0384966 6.16059 -18.1453 16 1 
420 1.19495 6.15389 -0.0161637 0.0397332 6.15428 -18.1585 16 1 
424 1.19497 6.1529 -0.0160523 0.0409494 6.15327 -18.1185 16 1 
428 1.195 6.15383 -0.0158886 0.0421357 6.15419 -18.0684 16 1 
432 1.19499 6.15204 -0.0157655 0.0434853 6.15239 -18.0847 16 1 
436 1.19498 6.15006 -0.0156539 0.04485 6.1504 -18.0956 16 1 
440 1.19497 6.15096 -0.0155288 0.0460885 6.1513 -18.1086 16 1 
444 1.19497 6.15367 -0.0154238 0.0474129 6.15401 -18.1211 16 1 
448 1.19499 6.15843 -0.0152887 0.0487934 6.15877 -18.077 16 1 
448 1.19499 6.15843 -0.0152887 0.0487934 6.15877 -18.077 17 1 
452 1.195 6.16355 -0.0151083 0.0501185 6.16389 -18.064 17 1 
456 1.19498 6.16746 -0.0150584 0.0514142 6.1678 -18.0967 17 1 
460 1.19497 6.17256 -0.0150589 0.0527453 6.1729 -18.117 17 1 
464 1.19497 6.17996 -0.0149365 0.0541239 6.1803 -18.1191 17 1 
468 1.19498 6.18932 -0.0148364 0.0555012 6.18967 -18.09 17 1 
472 1.19499 6.19986 -0.0148569 0.0568416 6.20022 -18.0753 17 1 
476 1.19498 6.2095 -0.0148319 0.0582719 6.20986 -18.0995 17 1 
480 1.19497 6.21891 -0.014802 0.0597661 6.21928 -18.1198 17 1 
484 1.19497 6.23127 -0.0148017 0.0612922 6.23165 -18.1158 17 1 
488 1.19499 6.24589 -0.0148075 0.0628196 6.24628 -18.0891 17 1 
492 1.19499 6.26027 -0.0148258 0.0644329 6.26067 -18.0867 17 1 
496 1.19498 6.27464 -0.014864 0.0660757 6.27505 -18.0993 17 1 
500 1.19498 6.28943 -0.0149157 0.0677729 6.28986 -18.0975 17 1 
504 1.19497 6.30512 -0.0149738 0.0695203 6.30557 -18.1142 17 1 
508 1.19498 6.32291 -0.015054 0.0712924 6.32337 -18.1061 17 1 
512 1.19499 6.34155 -0.0151495 0.07306 6.34203 -18.0766 17 1 
512 1.19499 6.34155 -0.0151495 0.07306 6.34203 -18.0766 25 1 
516 1.19498 6.35925 -0.015267 0.0748989 6.35975 -18.0961 25 1 
520 1.19497 6.37682 -0.0154122 0.0767626 6.37734 -18.1185 25 1 
524 1.19497 6.39531 -0.0155529 0.0786466 6.39585 -18.1182 25 1 
528 1.19497 6.41515 -0.0157563 0.0805368 6.41571 -18.1198 25 1 
532 1.19497 6.43566 -0.015989 0.0824397 6.43624 -18.1143 25 1 
536 1.19496 6.4552 -0.0161983 0.0843754 6.4558 -18.1269 25 1 
540 1.19495 6.4741 -0.0164746 0.0863757 6.47473 -18.1557 25 1 
544 1.19494 6.49367 -0.0167727 0.0883612 6.49432 -18.1718 25 1 
548 1.19494 6.51449 -0.0170608 0.0903907 6.51516 -18.1796 25 1 
552 1.19493 6.53566 -0.0173513 0.0924709 6.53636 -18.183 25 1 
556 1.19492 6.55591 -0.0176822 0.0945326 6.55664 -18.2061 25 1 
560 1.1949 6.57553 -0.0180181 0.0966731 6.57629 -18.2381 25 1 
564 1.19489 6.59593 -0.0183545 0.0988043 6.59672 -18.2599 25 1 
568 1.19488 6.61698 -0.0187097 0.100958 6.6178 -18.2784 25 1 
572 1.19487 6.63829 -0.0190484 0.10312 6.63914 -18.2899 25 1 
576 1.19486 6.65895 -0.0194251 0.105268 6.65983 -18.3106 25 1 
576 1.19486 6.65895 -0.0194251 0.105268 6.65983 -18.3106 26 1 
580 1.19484 6.67866 -0.0197868 0.107456 6.67957 -18.3544 26 1 
584 1.19482 6.69879 -0.0201504 0.109646 6.69974 -18.3799 26 1 
588 1.19482 6.71968 -0.0205216 0.111847 6.72066 -18.3951 26 1 
592 1.1948 6.73998 -0.0208947 0.114018 6.74099 -18.4213 26 1 
596 1.19479 6.75969 -0.0212241 0.116227 6.76074 -18.4489 26 1 
600 1.19477 6.77894 -0.0215806 0.11842 6.78002 -18.4825 26 1 
604 1.19475 6.79784 -0.0219118 0.120685 6.79896 -18.5133 26 1 
608 1.19474 6.81723 -0.0222272 0.122856 6.81838 -18.5408 26 1 
608 1.19474 6.81723 -0.0222272 0.122856 6.81838 -18.5408 26 1 
612 1.19472 6.83618 -0.0225417 0.125032 6.83738 -18.5595 26 1 
616 1.19471 6.85467 -0.022828 0.127304 6.8559 -18.591 26 1 
620 1.19469 6.87249 -0.0231474 0.129454 6.87376 -18.6231 26 1 
624 1.19467 6.89024 -0.0234175 0.131703 6.89155 -18.6521 26 1 
628 1.19466 6.90789 -0.0236638 0.13389 6.90924 -18.6799 26 1 
632 1.19465 6.92558 -0.0239388 0.136096 6.92697 -18.7004 26 1 
636 1.19463 6.9429 -0.0241792 0.138284 6.94433 -18.7237 26 1 
640 1.19462 6.95951 -0.0243945 0.140515 6.96098 -18.7529 26 1 
644 1.1946 6.9761 -0.0245858 0.142762 6.97761 -18.7836 26 1 
648 1.19459 6.99258 -0.0247678 0.144907 6.99413 -18.7976 26 1 
652 1.19458 7.00926 -0.024879 0.147205 7.01086 -18.8217 26 1 
656 1.19457 7.02514 -0.0250243 0.149346 7.02678 -18.8401 26 1 
660 1.19456 7.04109 -0.0251257 0.151572 7.04278 -18.8609 26 1 
664 1.19455 7.05652 -0.0251752 0.153753 7.05824 -18.8834 26 1 
668 1.19454 7.07193 -0.0252654 0.155938 7.0737 -18.898 26 1 
672 1.19453 7.08771 -0.0252504 0.158169 7.08952 -18.9162 26 1 
672 1.19453 7.08771 -0.0252504 0.158169 7.08952 -18.9162 27 1 
676 1.19452 7.10272 -0.0252116 0.160275 7.10458 -18.9213 27 1 
680 1.19451 7.1181 -0.0252443 0.16261 7.12001 -18.9437 27 1 
684 1.19451 7.1325 -0.0251074 0.164552 7.13445 -18.9538 27 1 
688 1.1945 7.14763 -0.0251016 0.166846 7.14963 -18.9686 27 1 
692 1.19449 7.16212 -0.0249311 0.168853 7.16416 -18.9761 27 1 
696 1.19449 7.17722 -0.0247629 0.171037 7.17931 -18.9859 27 1 
700 1.19449 7.19187 -0.0246501 0.173171 7.19401 -18.9912 27 1 
704 1.19448 7.20625 -0.024395 0.175269 7.20843 -19.0027 27 1 
704 1.19448 7.20625 -0.024395 0.175269 7.20843 -19.0027 31 1 
708 1.19448 7.22058 -0.02414 0.177228 7.2228 -19.0106 31 1 
712 1.19447 7.23524 -0.0238443 0.179132 7.23751 -19.0179 31 1 
716 1.19447 7.24962 -0.0234543 0.181247 7.25193 -19.0203 31 1 
720 1.19447 7.2638 -0.0230708 0.18328 7.26616 -19.0223 31 1 
724 1.19445 7.27905 -0.022793 0.185273 7.28145 -19.0474 31 1 
728 1.19446 7.29256 -0.0222883 0.186956 7.295 -19.0336 31 1 
732 1.19445 7.30747 -0.0217561 0.189361 7.30996 -19.0487 31 1 
736 1.19444 7.32259 -0.0213664 0.190348 7.3251 -19.0713 31 1 
740 1.19445 7.33656 -0.0207058 0.19252 7.33912 -19.0527 31 1 
744 1.19444 7.35161 -0.0200031 0.194363 7.35421 -19.0795 31 1 
748 1.19442 7.36643 -0.0196811 0.196375 7.36908 -19.1057 31 1 
752 1.19441 7.3825 -0.0184325 0.198254 7.38519 -19.1225 31 1 
756 1.19442 7.39712 -0.0181914 0.199621 7.39984 -19.1168 31 1 
760 1.19437 7.41581 -0.0181473 0.201984 7.41859 -19.2043 31 1 
764 1.19435 7.43405 -0.0175334 0.203862 7.43688 -19.2285 31 1 
768 1.19435 7.45259 -0.0173936 0.205317 7.45545 -19.237 31 1 
772 1.19428 7.47342 -0.0162923 0.209316 7.47638 -19.3708 31 1 
776 1.1942 7.49566 -0.0150815 0.214852 7.49877 -19.5058 31 1 
780 1.19411 7.52767 -0.015995 0.216617 7.53082 -19.6693 31 1 
784 1.19404 7.56178 -0.0179685 0.220658 7.56504 -19.7901 31 1 
788 1.19381 7.61271 -0.0176752 0.229149 7.6162 -20.2178 31 1 
792 1.19357 7.66952 -0.0172579 0.244503 7.67348 -20.6392 31 1 
796 1.19316 7.75884 -0.0194424 0.266801 7.76353 -21.3883 31 1 
800 1.19278 7.82465 -0.02116 0.278482 7.82973 -22.0705 31 1 
