16.3017;r ;Density                 ;Velocity u              ;Velocity v              ;Velocity w              ;|Velocity|              ;Pressure                ;Distribution            ;Levels                  ;
0 1.20438 9.99935 -2.6945e-05 -8.54483e-06 9.99935 -1.11721 2 1 
0.799988 1.20436 9.99963 -5.22937e-06 1.90447e-05 9.99963 -1.15686 2 1 
1.60001 1.20437 10.0002 9.62491e-06 3.93837e-05 10.0002 -1.13292 2 1 
2.39999 1.20437 10.0003 1.83268e-05 6.11616e-05 10.0003 -1.13937 2 1 
3.20001 1.20434 9.99983 3.74875e-06 6.8153e-05 9.99983 -1.20011 2 1 
4 1.20435 9.99979 8.3339e-06 8.75308e-05 9.99979 -1.16897 2 1 
4.79999 1.20438 9.9999 2.20441e-05 9.92644e-05 9.9999 -1.12732 2 1 
5.60001 1.20437 9.99941 2.75359e-05 0.000118667 9.99941 -1.1407 2 1 
6.39999 1.20434 9.99939 3.19706e-05 0.000136069 9.99939 -1.19141 2 1 
7.20001 1.20437 10.0001 1.31481e-05 0.000111142 10.0001 -1.14679 2 1 
8 1.20438 10.0001 9.80461e-06 0.000112255 10.0001 -1.11834 2 1 
8.79999 1.20436 9.99966 1.07803e-05 0.000116031 9.99966 -1.15523 2 1 
9.60001 1.20437 9.99961 1.80003e-05 0.000137716 9.99961 -1.13397 2 1 
10.4 1.20438 9.99957 3.07074e-05 0.000169642 9.99957 -1.11617 2 1 
11.2 1.20434 9.99943 7.47623e-05 0.000208782 9.99943 -1.18319 2 1 
12 1.20436 9.99912 0.000105002 0.000244638 9.99912 -1.16011 2 1 
12.8 1.20438 9.99944 7.43763e-05 0.000223722 9.99944 -1.11662 2 1 
12.8 1.20438 9.99944 7.43763e-05 0.000223722 9.99944 -1.11662 2 1 
13.6 1.20436 9.99914 5.98503e-05 0.000212759 9.99914 -1.16037 2 1 
14.4 1.20435 9.99891 6.99728e-05 0.000239957 9.99891 -1.16575 2 1 
15.2 1.20438 9.99923 5.01499e-05 0.000220016 9.99923 -1.11612 2 1 
16 1.20439 9.99926 4.3399e-05 0.000216122 9.99926 -1.10715 2 1 
16.8 1.20435 9.9992 3.98286e-05 0.000236569 9.9992 -1.17726 2 1 
17.6 1.20436 9.99917 2.54502e-05 0.000236005 9.99917 -1.15048 2 1 
18.4 1.2044 9.99936 -7.11659e-06 0.000212277 9.99936 -1.09236 2 1 
19.2 1.20437 9.99838 -1.97862e-05 0.000208516 9.99838 -1.13221 2 1 
20 1.20435 9.9981 1.89915e-05 0.000247697 9.9981 -1.17816 2 1 
20.8 1.20438 9.99876 5.0652e-05 0.000284536 9.99876 -1.1213 2 1 
21.6 1.20438 9.99895 8.64553e-05 0.000326769 9.99895 -1.12267 2 1 
22.4 1.20435 9.99852 6.73905e-05 0.000318043 9.99852 -1.18193 2 1 
23.2 1.20437 9.9983 4.43114e-05 0.000299715 9.9983 -1.14592 2 1 
24 1.20438 9.99897 2.23466e-05 0.000280693 9.99897 -1.11849 2 1 
24.8 1.20438 9.99851 -1.36558e-05 0.00026463 9.99851 -1.12572 2 1 
25.6 1.20438 9.99799 -3.83249e-05 0.000263244 9.99799 -1.11275 2 1 
25.6 1.20438 9.99799 -3.83249e-05 0.000263244 9.99799 -1.11275 2 1 
26.4 1.20439 9.99873 -1.03424e-05 0.000294498 9.99873 -1.10996 2 1 
27.2 1.20437 9.99854 -2.1138e-05 0.000281682 9.99854 -1.14434 2 1 
28 1.20434 9.9981 -8.092e-05 0.000233576 9.9981 -1.19086 2 1 
28.8 1.20436 9.99841 -6.75466e-05 0.000248063 9.99841 -1.15817 2 1 
29.6 1.20439 9.99815 -8.28509e-05 0.000244147 9.99815 -1.09491 2 1 
30.4 1.20437 9.99755 -7.22469e-05 0.000261274 9.99755 -1.13157 2 1 
31.2 1.20435 9.99804 -5.13619e-05 0.000287363 9.99804 -1.17774 2 1 
32 1.20438 9.99869 -1.81873e-05 0.000331526 9.99869 -1.12701 2 1 
32.8 1.20439 9.99877 8.72915e-06 0.000353263 9.99877 -1.10878 2 1 
33.6 1.20437 9.99868 -3.01821e-05 0.000333944 9.99868 -1.13098 2 1 
34.4 1.20439 9.99803 -9.50833e-06 0.000365106 9.99803 -1.1097 2 1 
35.2 1.20438 9.99774 7.58716e-05 0.00044844 9.99774 -1.12666 2 1 
36 1.20436 9.99754 7.192e-05 0.000457352 9.99754 -1.16139 2 1 
36.8 1.20437 9.99766 4.03354e-05 0.000436288 9.99766 -1.13654 2 1 
37.6 1.20438 9.99816 9.0818e-05 0.00048192 9.99816 -1.11282 2 1 
38.4 1.20437 9.99742 0.000139223 0.000534944 9.99742 -1.13819 2 1 
38.4 1.20437 9.99742 0.000139223 0.000534944 9.99742 -1.13819 2 1 
39.2 1.20438 9.99669 0.000129929 0.000548325 9.99669 -1.1278 2 1 
40 1.2044 9.99747 0.000109529 0.000559667 9.99747 -1.08676 2 1 
40.8 1.2044 9.99751 0.000173839 0.000656391 9.99751 -1.07572 2 1 
41.6 1.20438 9.9966 0.000238468 0.00073739 9.9966 -1.1158 2 1 
42.4 1.20437 9.99723 0.000196739 0.000706394 9.99723 -1.13062 2 1 
43.2 1.2044 9.99827 0.00018583 0.000714975 9.99827 -1.08852 2 1 
44 1.2044 9.9979 0.000230295 0.000750011 9.9979 -1.09125 2 1 
44.8 1.20437 9.99671 0.000243553 0.000754767 9.99671 -1.13556 2 1 
45.6 1.20438 9.997 0.000164806 0.0006869 9.997 -1.1241 2 1 
46.4 1.20439 9.99789 7.77929e-05 0.000578431 9.99789 -1.09372 2 1 
47.2 1.20437 9.99775 0.00024296 0.000728961 9.99775 -1.1315 2 1 
48 1.20437 9.99769 0.000430152 0.000898092 9.99769 -1.14294 2 1 
48.8 1.20439 9.99753 0.000347852 0.000796043 9.99753 -1.1091 2 1 
49.6 1.20437 9.99749 0.000271409 0.000722006 9.99749 -1.13241 2 1 
50.4 1.20438 9.99671 0.000425973 0.000879559 9.99671 -1.1266 2 1 
51.2 1.20439 9.99674 0.000718488 0.00121342 9.99674 -1.10644 2 1 
51.2 1.20439 9.99674 0.000718488 0.00121342 9.99674 -1.10644 3 1 
52 1.20438 9.99737 0.000806252 0.00134807 9.99737 -1.12056 3 1 
52.8 1.20436 9.99655 0.000569531 0.00112491 9.99655 -1.14766 3 1 
53.6 1.20434 9.99548 0.000529043 0.00108711 9.99548 -1.19138 3 1 
54.4 1.20435 9.99547 0.00078177 0.00134454 9.99547 -1.18284 3 1 
55.2 1.20437 9.99518 0.00093845 0.00150793 9.99518 -1.13025 3 1 
56 1.20437 9.99501 0.00100258 0.00156466 9.99501 -1.13804 3 1 
56.8 1.20436 9.99575 0.00124636 0.00179669 9.99575 -1.16243 3 1 
57.6 1.20435 9.99638 0.0016126 0.00216536 9.99639 -1.16576 3 1 
58.4 1.20436 9.99747 0.0014524 0.00200586 9.99747 -1.16074 3 1 
59.2 1.20437 9.9984 0.000403112 0.000947006 9.9984 -1.13833 3 1 
60 1.20437 9.99891 -0.000705887 -0.000169231 9.99891 -1.14207 3 1 
60.8 1.20437 9.99758 -0.000708643 -0.000200476 9.99758 -1.14054 3 1 
61.6 1.20436 9.99578 0.000331505 0.000827621 9.99578 -1.15611 3 1 
62.4 1.20437 9.99518 0.00126604 0.00178429 9.99518 -1.13332 3 1 
63.2 1.20438 9.99627 0.00107802 0.00160967 9.99627 -1.12218 3 1 
64 1.20436 9.99736 -0.000113776 0.000467211 9.99736 -1.14809 3 1 
64 1.20436 9.99736 -0.000113776 0.000467211 9.99736 -1.14809 3 1 
64.8 1.20437 9.99816 -0.00123977 -0.000647811 9.99816 -1.13287 3 1 
65.6 1.2044 9.99843 -0.00149759 -0.000912471 9.99843 -1.07986 3 1 
66.4 1.20442 9.99759 -0.000878397 -0.000273381 9.99759 -1.05151 3 1 
67.2 1.20442 9.99596 6.26252e-05 0.000645979 9.99596 -1.05476 3 1 
68 1.20441 9.99424 0.000801859 0.00138158 9.99424 -1.06457 3 1 
68.8 1.2044 9.99385 0.00117904 0.00176296 9.99385 -1.0761 3 1 
69.6 1.20442 9.99398 0.00127887 0.00185931 9.99398 -1.04288 3 1 
70.4 1.20444 9.99436 0.00127166 0.00186232 9.99436 -1.01548 3 1 
71.2 1.20443 9.99517 0.00125188 0.00183886 9.99517 -1.02174 3 1 
72 1.20443 9.99541 0.00122643 0.00180961 9.99541 -1.0344 3 1 
72.8 1.20442 9.99521 0.00123323 0.00183349 9.99521 -1.05491 3 1 
73.6 1.20442 9.9959 0.00125066 0.00184017 9.9959 -1.04774 3 1 
74.4 1.20443 9.99605 0.00123549 0.00181995 9.99605 -1.0264 3 1 
75.2 1.20441 9.99548 0.00124666 0.00184443 9.99548 -1.06401 3 1 
76 1.20439 9.99448 0.00127781 0.00186796 9.99448 -1.10686 3 1 
76.8 1.20438 9.99415 0.00128939 0.00188411 9.99415 -1.12661 3 1 
76.8 1.20438 9.99415 0.00128939 0.00188411 9.99415 -1.12661 3 1 
77.6 1.20438 9.99467 0.00129358 0.00189265 9.99467 -1.11543 3 1 
78.4 1.20439 9.99496 0.00127876 0.00187294 9.99496 -1.10948 3 1 
79.2 1.20437 9.9951 0.00126536 0.0018611 9.9951 -1.13292 3 1 
80 1.20437 9.99472 0.00124664 0.00184482 9.99473 -1.14336 3 1 
80.8 1.20434 9.99441 0.00121949 0.00182318 9.99441 -1.18935 3 1 
81.6 1.20433 9.99429 0.00123495 0.00184438 9.99429 -1.21117 3 1 
82.4 1.20433 9.99465 0.00127676 0.0018767 9.99465 -1.20704 3 1 
83.2 1.20431 9.99537 0.00127811 0.00189525 9.99537 -1.25026 3 1 
84 1.20431 9.99494 0.0012798 0.0019009 9.99494 -1.2516 3 1 
84.8 1.20431 9.99438 0.00128654 0.00190539 9.99438 -1.25193 3 1 
85.6 1.20429 9.99417 0.00127196 0.00190061 9.99417 -1.28064 3 1 
86.4 1.20428 9.99422 0.00126806 0.00188636 9.99422 -1.29754 3 1 
87.2 1.20429 9.99479 0.00124708 0.00187466 9.99479 -1.28265 3 1 
88 1.20433 9.99532 0.0012356 0.00185946 9.99532 -1.21605 3 1 
88.8 1.20434 9.99529 0.00122459 0.00184244 9.99529 -1.19925 3 1 
89.6 1.20432 9.99429 0.00121667 0.00185002 9.99429 -1.22966 3 1 
89.6 1.20432 9.99429 0.00121667 0.00185002 9.99429 -1.22966 3 1 
90.4 1.20433 9.99391 0.00123875 0.00186917 9.99392 -1.20633 3 1 
91.2 1.20438 9.99413 0.0012551 0.00188041 9.99413 -1.11704 3 1 
92 1.2044 9.99435 0.00126223 0.00191025 9.99435 -1.09091 3 1 
92.8 1.20437 9.99423 0.00128582 0.00193037 9.99423 -1.13191 3 1 
93.6 1.2044 9.99349 0.00128804 0.00193005 9.99349 -1.08557 3 1 
94.4 1.20446 9.99331 0.00125904 0.0019079 9.99331 -0.974714 3 1 
95.2 1.20449 9.99308 0.00124513 0.00189084 9.99308 -0.921665 3 1 
96 1.2045 9.99272 0.00125396 0.00190868 9.99272 -0.907321 3 1 
96.8 1.20452 9.99329 0.00124897 0.00190009 9.99329 -0.858834 3 1 
97.6 1.20454 9.99414 0.00124236 0.00190149 9.99414 -0.828832 3 1 
98.4 1.20454 9.99322 0.00128654 0.00195858 9.99322 -0.832207 3 1 
99.2 1.20453 9.99193 0.00129819 0.00196821 9.99193 -0.848476 3 1 
100 1.20454 9.99209 0.00130634 0.00197628 9.99209 -0.825249 3 1 
100.8 1.20457 9.99201 0.00129279 0.00197475 9.99201 -0.775037 3 1 
101.6 1.20455 9.99149 0.00130409 0.00198453 9.99149 -0.821971 3 1 
102.4 1.20452 9.9911 0.00133335 0.00202149 9.9911 -0.864013 3 1 
102.4 1.20452 9.9911 0.00133335 0.00202149 9.9911 -0.864013 7 1 
103.2 1.20453 9.99166 0.00131423 0.00200748 9.99166 -0.848558 7 1 
104 1.20452 9.99265 0.00132353 0.00201897 9.99265 -0.869758 7 1 
104.8 1.20451 9.992 0.00129302 0.00200544 9.992 -0.893732 7 1 
105.6 1.20449 9.99123 0.00127742 0.0019799 9.99123 -0.912293 7 1 
106.4 1.20447 9.99142 0.00128614 0.00198968 9.99142 -0.965034 7 1 
107.2 1.20441 9.99172 0.00131324 0.00203215 9.99172 -1.06899 7 1 
108 1.20437 9.99113 0.00135669 0.00207276 9.99113 -1.14051 7 1 
108.8 1.20433 9.99112 0.00134729 0.00206344 9.99112 -1.20366 7 1 
109.6 1.20429 9.99147 0.00137311 0.00210235 9.99147 -1.28387 7 1 
110.4 1.20425 9.99064 0.00136317 0.00208851 9.99064 -1.34802 7 1 
111.2 1.20422 9.99068 0.00133214 0.00205979 9.99068 -1.40879 7 1 
112 1.20423 9.9922 0.00131716 0.00204154 9.9922 -1.39603 7 1 
112.8 1.20421 9.99336 0.00130423 0.00202038 9.99336 -1.42393 7 1 
113.6 1.20414 9.99265 0.00132208 0.00205236 9.99265 -1.55939 7 1 
114.4 1.20409 9.99211 0.00130471 0.00202988 9.99211 -1.63765 7 1 
115.2 1.20412 9.99206 0.00130663 0.00203287 9.99206 -1.59159 7 1 
115.2 1.20412 9.99206 0.00130663 0.00203287 9.99206 -1.59159 7 1 
116 1.20413 9.99221 0.00132108 0.0020597 9.99221 -1.58033 7 1 
116.8 1.20407 9.99182 0.00136558 0.00208737 9.99182 -1.67819 7 1 
117.6 1.20406 9.99129 0.00137037 0.00209252 9.99129 -1.69703 7 1 
118.4 1.20413 9.99324 0.00136927 0.00209405 9.99324 -1.57465 7 1 
119.2 1.2042 9.99392 0.00137025 0.00209274 9.99392 -1.45152 7 1 
120 1.20422 9.99226 0.00133448 0.00206827 9.99226 -1.41452 7 1 
120.8 1.20422 9.99216 0.00131036 0.00203924 9.99216 -1.40649 7 1 
121.6 1.20429 9.99307 0.00126465 0.0020136 9.99307 -1.2823 7 1 
122.4 1.20439 9.99358 0.00127798 0.00202923 9.99359 -1.10244 7 1 
123.2 1.20443 9.99303 0.00130474 0.00204712 9.99304 -1.02691 7 1 
124 1.20446 9.99129 0.00132663 0.00208326 9.99129 -0.974212 7 1 
124.8 1.20451 9.99124 0.00138504 0.00214702 9.99125 -0.889048 7 1 
125.6 1.20457 9.99129 0.00138657 0.00215368 9.9913 -0.784769 7 1 
126.4 1.20463 9.99078 0.00136489 0.00214162 9.99079 -0.668154 7 1 
127.2 1.20471 9.99089 0.00133714 0.00212254 9.9909 -0.521976 7 1 
128 1.20479 9.99125 0.00134259 0.00214359 9.99125 -0.387236 7 1 
128 1.20479 9.99125 0.00134259 0.00214359 9.99125 -0.387236 7 1 
128.8 1.20482 9.99152 0.00136148 0.00216752 9.99152 -0.327689 7 1 
129.6 1.20482 9.99055 0.00135615 0.00216358 9.99055 -0.327805 7 1 
130.4 1.20481 9.99003 0.0013809 0.00220075 9.99003 -0.337894 7 1 
131.2 1.20484 9.98912 0.00140399 0.00222789 9.98912 -0.285814 7 1 
132 1.20485 9.98852 0.00141506 0.00224654 9.98852 -0.275865 7 1 
132.8 1.20482 9.98837 0.00144174 0.00228657 9.98837 -0.320674 7 1 
133.6 1.20479 9.98835 0.00149193 0.00234393 9.98836 -0.385272 7 1 
134.4 1.20474 9.98851 0.00148652 0.00234899 9.98851 -0.462232 7 1 
135.2 1.20469 9.98807 0.00148085 0.00234888 9.98808 -0.553366 7 1 
136 1.20465 9.98774 0.00146824 0.00233917 9.98775 -0.630883 7 1 
136.8 1.20463 9.98812 0.00147794 0.00236352 9.98813 -0.659541 7 1 
137.6 1.20458 9.98915 0.00150423 0.00238575 9.98916 -0.757796 7 1 
138.4 1.20446 9.98881 0.00151889 0.00239908 9.98882 -0.979831 7 1 
139.2 1.20432 9.98772 0.00151371 0.00240717 9.98774 -1.2361 7 1 
140 1.20425 9.98734 0.00152408 0.00241743 9.98736 -1.3605 7 1 
140.8 1.20422 9.98786 0.00153775 0.00242724 9.98787 -1.41057 7 1 
140.8 1.20422 9.98786 0.00153775 0.00242724 9.98787 -1.41057 7 1 
141.6 1.20412 9.98786 0.00155562 0.00245444 9.98787 -1.58585 7 1 
142.4 1.20399 9.98768 0.00160552 0.00249547 9.98769 -1.82057 7 1 
143.2 1.20395 9.98866 0.00158073 0.00247036 9.98866 -1.90346 7 1 
144 1.20394 9.99049 0.0015486 0.0024355 9.99049 -1.90684 7 1 
144.8 1.20389 9.99042 0.00148942 0.00237016 9.99042 -1.99643 7 1 
145.6 1.2038 9.98866 0.00147608 0.00236142 9.98867 -2.16107 7 1 
146.4 1.20377 9.9891 0.00149491 0.00235998 9.9891 -2.22321 7 1 
147.2 1.2038 9.99107 0.00149845 0.00236795 9.99107 -2.16113 7 1 
148 1.2038 9.99132 0.00151987 0.00238234 9.99133 -2.16651 7 1 
148.8 1.20377 9.98929 0.00152402 0.00238308 9.9893 -2.22445 7 1 
149.6 1.20379 9.98864 0.00150147 0.00236197 9.98864 -2.17821 7 1 
150.4 1.20391 9.99072 0.00148917 0.00235304 9.99073 -1.97344 7 1 
151.2 1.204 9.99214 0.00148933 0.00236039 9.99216 -1.80462 7 1 
152 1.20403 9.99094 0.00146682 0.00232617 9.99096 -1.7515 7 1 
152.8 1.2041 9.99022 0.00142046 0.00229629 9.99024 -1.62292 7 1 
153.6 1.20426 9.99126 0.00140619 0.00229157 9.99128 -1.34307 7 1 
153.6 1.20426 9.99126 0.00140619 0.00229157 9.99128 -1.34307 7 1 
154.4 1.2044 9.99131 0.00142774 0.00231921 9.99134 -1.08143 7 1 
155.2 1.20445 9.98986 0.00145659 0.00235152 9.98989 -0.995248 7 1 
156 1.20449 9.98847 0.0014731 0.00237211 9.98849 -0.9135 7 1 
156.8 1.20464 9.98894 0.00150074 0.00241878 9.98896 -0.644796 7 1 
157.6 1.20481 9.98994 0.00150658 0.00243822 9.98995 -0.347966 7 1 
158.4 1.20489 9.98823 0.00148395 0.00243763 9.98825 -0.203111 7 1 
159.2 1.20492 9.98635 0.00150035 0.00246971 9.98636 -0.149617 7 1 
160 1.20501 9.98701 0.00151399 0.00249434 9.98702 0.0171596 7 1 
160.8 1.20515 9.98835 0.00152224 0.00252211 9.98835 0.262965 7 1 
161.6 1.20518 9.98767 0.00151373 0.00251972 9.98768 0.320994 7 1 
162.4 1.20513 9.985 0.00153154 0.00255485 9.98501 0.231573 7 1 
163.2 1.20513 9.98361 0.00156378 0.00261696 9.98362 0.239551 7 1 
164 1.20518 9.98475 0.00159347 0.0026644 9.98475 0.318038 7 1 
164.8 1.20515 9.98538 0.00163426 0.00271008 9.98538 0.272427 7 1 
165.6 1.20505 9.98286 0.00167554 0.00277153 9.98287 0.0845474 7 1 
166.4 1.20494 9.98144 0.00167523 0.0027916 9.98145 -0.103941 7 1 
166.4 1.20494 9.98144 0.00167523 0.0027916 9.98145 -0.103941 7 1 
167.2 1.20492 9.98316 0.00166009 0.00276596 9.98318 -0.137713 7 1 
168 1.2049 9.98415 0.00164556 0.00277453 9.98418 -0.180543 7 1 
168.8 1.20476 9.98307 0.00164104 0.0027865 9.9831 -0.442354 7 1 
169.6 1.20458 9.98179 0.00165824 0.00278667 9.98182 -0.763974 7 1 
170.4 1.20447 9.9818 0.00166504 0.00280252 9.98184 -0.950394 7 1 
171.2 1.20439 9.98329 0.00166923 0.0028271 9.98332 -1.10769 7 1 
172 1.20424 9.983 0.00168259 0.00281224 9.98303 -1.36395 7 1 
172.8 1.2041 9.98058 0.0016763 0.00280528 9.98061 -1.62239 7 1 
173.6 1.20399 9.98158 0.00167784 0.00283067 9.98161 -1.82728 7 1 
174.4 1.20393 9.98296 0.00169797 0.00282318 9.98298 -1.94164 7 1 
175.2 1.20382 9.98334 0.0016761 0.00279635 9.98336 -2.12421 7 1 
176 1.2037 9.98314 0.00161084 0.00275389 9.98315 -2.34915 7 1 
176.8 1.20368 9.98329 0.00155974 0.00268172 9.98329 -2.38734 7 1 
177.6 1.2037 9.98477 0.00155431 0.00265336 9.98478 -2.34335 7 1 
178.4 1.20366 9.98427 0.00154242 0.0026678 9.98428 -2.41712 7 1 
179.2 1.20355 9.98288 0.00156431 0.00268542 9.98288 -2.61065 7 1 
179.2 1.20355 9.98288 0.00156431 0.00268542 9.98288 -2.61065 7 1 
180 1.20353 9.98243 0.00158602 0.00268948 9.98243 -2.65829 7 1 
180.8 1.20365 9.98461 0.00157949 0.00268487 9.98461 -2.43565 7 1 
181.6 1.2038 9.98597 0.00153254 0.00265638 9.98597 -2.16865 7 1 
182.4 1.20382 9.98381 0.00150996 0.0026039 9.98382 -2.13725 7 1 
183.2 1.20378 9.98179 0.00151351 0.00260819 9.98181 -2.20604 7 1 
184 1.20389 9.98306 0.00148078 0.00260325 9.98308 -1.99618 7 1 
184.8 1.20414 9.98609 0.00145846 0.00255544 9.98611 -1.56047 7 1 
185.6 1.20427 9.98614 0.00145219 0.00255082 9.98616 -1.31171 7 1 
186.4 1.20427 9.98177 0.00145001 0.00258536 9.9818 -1.31239 7 1 
187.2 1.20432 9.97914 0.00147544 0.00262155 9.97917 -1.22482 7 1 
188 1.20452 9.98181 0.00152245 0.00265615 9.98184 -0.87151 7 1 
188.8 1.20473 9.98431 0.00154905 0.00272346 9.98433 -0.492808 7 1 
189.6 1.20478 9.98208 0.00154318 0.00274528 9.98211 -0.398302 7 1 
190.4 1.20476 9.97764 0.00153272 0.00272052 9.97766 -0.425465 7 1 
191.2 1.20487 9.97722 0.00152739 0.00274585 9.97723 -0.227474 7 1 
192 1.20508 9.9807 0.00151066 0.00277476 9.98071 0.139834 7 1 
192 1.20508 9.9807 0.00151066 0.00277476 9.98071 0.139834 7 1 
192.8 1.20517 9.98156 0.00154144 0.00280816 9.98157 0.314549 7 1 
193.6 1.2051 9.97711 0.00157176 0.00284853 9.97711 0.172292 7 1 
194.4 1.20501 9.97336 0.00157022 0.00288495 9.97336 0.0126899 7 1 
195.2 1.20509 9.97466 0.0015997 0.00293346 9.97466 0.171542 7 1 
196 1.20524 9.97744 0.00164285 0.00296865 9.97744 0.430131 7 1 
196.8 1.20517 9.97657 0.00164024 0.00300207 9.97657 0.313207 7 1 
197.6 1.20498 9.97174 0.00166585 0.00305963 9.97175 -0.039441 7 1 
198.4 1.20489 9.96968 0.00174081 0.00311859 9.96968 -0.2014 7 1 
199.2 1.20497 9.97324 0.00170074 0.003061 9.97325 -0.0496397 7 1 
200 1.20503 9.97612 0.00166217 0.00307383 9.97614 0.0595513 7 1 
200.8 1.20486 9.9733 0.00168057 0.00312281 9.97331 -0.251849 7 1 
201.6 1.20461 9.96755 0.00160179 0.00301054 9.96757 -0.698883 7 1 
202.4 1.2045 9.96696 0.00168642 0.00310264 9.96697 -0.907583 7 1 
203.2 1.20456 9.97115 0.00171587 0.003154 9.97116 -0.802829 7 1 
204 1.20458 9.97284 0.0017374 0.00314286 9.97286 -0.763419 7 1 
204.8 1.20439 9.96972 0.0017962 0.00316901 9.96974 -1.10874 7 1 
204.8 1.20439 9.96972 0.0017962 0.00316901 9.96974 -1.10874 9 1 
205.6 1.20418 9.96535 0.00171936 0.0031321 9.96536 -1.48385 9 1 
206.4 1.20414 9.96593 0.00171328 0.00313847 9.96595 -1.55419 9 1 
207.2 1.20422 9.9704 0.00171956 0.00311901 9.97041 -1.40535 9 1 
208 1.20422 9.97195 0.00172635 0.00312441 9.97195 -1.40209 9 1 
208.8 1.20409 9.96819 0.0016566 0.0030791 9.9682 -1.63746 9 1 
209.6 1.20397 9.96373 0.00169046 0.00309017 9.96373 -1.86812 9 1 
210.4 1.20397 9.96287 0.00169052 0.00305935 9.96287 -1.8606 9 1 
211.2 1.20405 9.96539 0.00166926 0.00308401 9.96539 -1.71251 9 1 
212 1.20408 9.96752 0.00172864 0.00318366 9.96752 -1.66981 9 1 
212.8 1.20405 9.96643 0.0017446 0.00315073 9.96643 -1.70776 9 1 
213.6 1.20407 9.96466 0.00174914 0.00314263 9.96466 -1.68339 9 1 
214.4 1.20415 9.96394 0.00171445 0.00315464 9.96395 -1.54403 9 1 
215.2 1.20422 9.96242 0.00167115 0.00311213 9.96243 -1.40291 9 1 
216 1.20424 9.96 0.00165597 0.00308203 9.96 -1.3648 9 1 
216.8 1.20424 9.95919 0.00170045 0.00313631 9.95919 -1.36541 9 1 
217.6 1.20434 9.96027 0.00173441 0.00321425 9.96028 -1.18769 9 1 
217.6 1.20434 9.96027 0.00173441 0.00321425 9.96028 -1.18769 9 1 
218.4 1.20448 9.96147 0.00175866 0.00323186 9.96148 -0.94533 9 1 
219.2 1.20451 9.96015 0.0017489 0.00322791 9.96016 -0.883065 9 1 
220 1.2045 9.9556 0.00168549 0.00321911 9.95562 -0.894955 9 1 
220.8 1.20455 9.95239 0.00168428 0.00320144 9.9524 -0.810714 9 1 
221.6 1.20469 9.95356 0.00172579 0.00322121 9.95357 -0.564424 9 1 
222.4 1.20483 9.95513 0.00170508 0.00324023 9.95514 -0.301344 9 1 
223.2 1.20484 9.95334 0.00169523 0.00328409 9.95335 -0.287142 9 1 
224 1.20474 9.94936 0.00173428 0.00331414 9.94937 -0.463871 9 1 
224.8 1.20475 9.94578 0.00172344 0.00327517 9.94579 -0.452316 9 1 
225.6 1.2049 9.94669 0.00169364 0.00328552 9.94669 -0.179503 9 1 
226.4 1.20503 9.94864 0.00165677 0.0032905 9.94864 0.0594141 9 1 
227.2 1.205 9.94494 0.0016353 0.00327934 9.94494 0.00755447 9 1 
228 1.20485 9.93984 0.00169802 0.00329735 9.93984 -0.279761 9 1 
228.8 1.2048 9.93714 0.00172708 0.00334415 9.93714 -0.364619 9 1 
229.6 1.20496 9.93847 0.00169595 0.00338088 9.93848 -0.0632114 9 1 
230.4 1.20511 9.9416 0.00165024 0.00330593 9.94161 0.203479 9 1 
230.4 1.20511 9.9416 0.00165024 0.00330593 9.94161 0.203479 10 1 
231.2 1.20507 9.93819 0.00163555 0.00327409 9.93819 0.124302 10 1 
232 1.20488 9.93026 0.00163222 0.00329171 9.93026 -0.208959 10 1 
232.8 1.20473 9.92593 0.00163319 0.00331831 9.92593 -0.49358 10 1 
233.6 1.20483 9.92719 0.00164558 0.00332929 9.92719 -0.303849 10 1 
234.4 1.20505 9.9309 0.00169834 0.00335845 9.9309 0.096995 10 1 
235.2 1.20505 9.93041 0.00171167 0.00339479 9.93041 0.0901359 10 1 
236 1.20487 9.922 0.00165579 0.00336059 9.922 -0.226012 10 1 
236.8 1.20473 9.9148 0.00156858 0.00326919 9.9148 -0.496466 10 1 
237.6 1.2048 9.91546 0.00153452 0.00321078 9.91547 -0.369182 10 1 
238.4 1.205 9.91879 0.00161179 0.00330168 9.9188 0.000750277 10 1 
239.2 1.20504 9.91892 0.00165661 0.00338748 9.91892 0.0740492 10 1 
240 1.20491 9.91061 0.00165929 0.00336499 9.91061 -0.160442 10 1 
240.8 1.20472 9.90225 0.00160534 0.00332752 9.90225 -0.509388 10 1 
241.6 1.20476 9.90016 0.00154148 0.00327783 9.90016 -0.436373 10 1 
242.4 1.205 9.90304 0.00158494 0.00331952 9.90304 -0.00154013 10 1 
243.2 1.20513 9.90574 0.00156565 0.00333579 9.90575 0.229042 10 1 
243.2 1.20513 9.90574 0.00156565 0.00333579 9.90575 0.229042 10 1 
244 1.20508 9.89825 0.00151897 0.00327853 9.89825 0.135584 10 1 
244.8 1.20485 9.8891 0.0015111 0.00326637 9.8891 -0.27843 10 1 
245.6 1.20484 9.88196 0.00148129 0.00327975 9.88197 -0.283779 10 1 
246.4 1.20505 9.88345 0.00151945 0.0033234 9.88345 0.0854884 10 1 
247.2 1.20523 9.88686 0.00154681 0.00332968 9.88686 0.415446 10 1 
248 1.20527 9.88141 0.00145804 0.00325569 9.88141 0.494337 10 1 
248.8 1.20509 9.87213 0.00136386 0.00319458 9.87213 0.157359 10 1 
249.6 1.20499 9.86158 0.00136172 0.00320637 9.86158 -0.0108984 10 1 
250.4 1.20511 9.86006 0.00137969 0.00320815 9.86006 0.205147 10 1 
251.2 1.20539 9.86054 0.00148801 0.00333923 9.86054 0.70695 10 1 
252 1.20552 9.85913 0.00139717 0.00325904 9.85913 0.947943 10 1 
252.8 1.20545 9.84953 0.00136697 0.00322589 9.84953 0.813133 10 1 
253.6 1.20533 9.83678 0.00130177 0.00318372 9.83678 0.58871 10 1 
254.4 1.20533 9.8296 0.00119402 0.00308055 9.82961 0.601415 10 1 
255.2 1.20554 9.8276 0.0013086 0.00318182 9.8276 0.97733 10 1 
256 1.20572 9.82812 0.00124381 0.00313514 9.82812 1.29516 10 1 
256 1.20572 9.82812 0.00124381 0.00313514 9.82812 1.29516 11 1 
256.8 1.20572 9.82118 0.0012152 0.00311737 9.82118 1.29186 11 1 
257.6 1.20557 9.81062 0.00126794 0.00315156 9.81062 1.02186 11 1 
258.4 1.20546 9.80148 0.00121681 0.00314563 9.80149 0.826149 11 1 
259.2 1.20553 9.79811 0.00112411 0.00305806 9.79811 0.952605 11 1 
260 1.20577 9.79637 0.00110042 0.00301571 9.79637 1.38912 11 1 
260.8 1.20591 9.78993 0.001038 0.0029879 9.78994 1.64028 11 1 
261.6 1.20588 9.77516 0.00107328 0.00300896 9.77517 1.59396 11 1 
262.4 1.20589 9.75663 0.00111756 0.00304136 9.75663 1.59902 11 1 
263.2 1.20602 9.74317 0.00102077 0.00297346 9.74318 1.83655 11 1 
264 1.20625 9.73753 0.000943884 0.00289746 9.73753 2.25883 11 1 
264.8 1.2065 9.73398 0.000893247 0.00285262 9.73399 2.70189 11 1 
265.6 1.20659 9.72327 0.000792894 0.00277919 9.72327 2.86864 11 1 
266.4 1.20635 9.70955 0.000708399 0.00268903 9.70955 2.43797 11 1 
267.2 1.20614 9.69773 0.000644845 0.00262542 9.69773 2.05527 11 1 
268 1.20629 9.68578 0.000603752 0.00261326 9.68578 2.32313 11 1 
268.8 1.20648 9.67771 0.000635638 0.00262949 9.67772 2.66853 11 1 
268.8 1.20648 9.67771 0.000635638 0.00262949 9.67772 2.66853 11 1 
269.6 1.20661 9.67369 0.000633984 0.00263875 9.67369 2.90862 11 1 
270.4 1.20687 9.6534 0.00066146 0.00267629 9.65341 3.37197 11 1 
271.2 1.20682 9.62716 0.00070107 0.0027104 9.62716 3.28998 11 1 
272 1.20655 9.61818 0.000700814 0.00275311 9.61818 2.80839 11 1 
272.8 1.20697 9.59461 0.000673277 0.00272941 9.59461 3.55999 11 1 
273.6 1.20737 9.57706 0.000615147 0.00266863 9.57707 4.27698 11 1 
274.4 1.20736 9.57145 0.000474729 0.00255809 9.57145 4.26773 11 1 
275.2 1.2077 9.53592 0.000343223 0.00241675 9.53592 4.8759 11 1 
276 1.20765 9.51192 0.000279509 0.0023406 9.51192 4.78264 11 1 
276.8 1.20737 9.49609 0.000246736 0.00232901 9.4961 4.28416 11 1 
277.6 1.20769 9.47065 0.000267453 0.00236941 9.47065 4.85549 11 1 
278.4 1.20812 9.45381 0.000268257 0.00237505 9.45382 5.63482 11 1 
279.2 1.20834 9.43059 0.000250609 0.00235362 9.4306 6.02734 11 1 
280 1.20848 9.39813 0.000210661 0.00233409 9.39814 6.27792 11 1 
280.8 1.20859 9.36156 0.000172953 0.00229824 9.36158 6.48273 11 1 
281.6 1.2086 9.32321 0.000192595 0.00230505 9.32323 6.50677 11 1 
281.6 1.2086 9.32321 0.000192595 0.00230505 9.32323 6.50677 11 1 
282.4 1.20871 9.28835 0.000237259 0.00238381 9.28836 6.70354 11 1 
283.2 1.20914 9.26376 0.000345582 0.00251116 9.26376 7.47967 11 1 
284 1.20973 9.24064 0.000452026 0.00261177 9.24064 8.53645 11 1 
284.8 1.21 9.20217 0.000484882 0.00263891 9.20219 9.02224 11 1 
285.6 1.20996 9.1466 0.000445256 0.00259314 9.14664 8.96604 11 1 
286.4 1.21011 9.09284 0.000350856 0.00251208 9.09287 9.23328 11 1 
287.2 1.21061 9.0511 0.000265859 0.00243554 9.05111 10.1273 11 1 
288 1.21119 9.011 0.000222286 0.00240499 9.01101 11.1818 11 1 
288.8 1.21154 8.96604 0.00026789 0.002437 8.96607 11.8129 11 1 
289.6 1.21173 8.90794 0.000356608 0.00252009 8.90798 12.1541 11 1 
290.4 1.21195 8.8435 0.000440093 0.00261442 8.84353 12.5448 11 1 
291.2 1.21233 8.78863 0.000491815 0.00266193 8.78866 13.2338 11 1 
292 1.21283 8.73193 0.000473135 0.0026547 8.73198 14.1496 11 1 
292.8 1.21327 8.67231 0.000437888 0.00260883 8.67237 14.9325 11 1 
293.6 1.21371 8.61908 0.000398345 0.00256071 8.61917 15.7238 11 1 
294.4 1.21422 8.5556 0.000408457 0.00258131 8.55568 16.6576 11 1 
294.4 1.21422 8.5556 0.000408457 0.00258131 8.55568 16.6576 11 1 
295.2 1.21455 8.48148 0.000500215 0.00266388 8.4817 17.2478 11 1 
296 1.21463 8.41438 0.000600262 0.00276043 8.41472 17.3867 11 1 
296.8 1.21481 8.36342 0.000661964 0.0028284 8.36433 17.7217 11 1 
297.6 1.2152 8.33281 0.000652276 0.00281874 8.33358 18.4256 11 1 
298.4 1.21473 8.41738 0.000485901 0.00275213 8.42803 17.5725 11 1 
299.2 1.20538 8.52546 5.42998e-05 0.00266826 9.50821 0.681604 11 1 
300 1.19045 8.68756 -0.000626594 0.002648 9.88525 -26.28 11 1 
300.8 1.1851 8.68987 -0.00124714 0.00262153 9.15149 -35.9526 11 1 
301.6 1.18721 8.39265 -0.00165598 0.00253303 8.72423 -32.1377 11 1 
302.4 1.18954 8.13246 -0.00186287 0.00243132 8.36377 -27.933 11 1 
303.2 1.19104 7.9248 -0.0019678 0.00227042 8.10437 -25.2104 11 1 
304 1.19216 7.75487 -0.00204925 0.00206004 7.86444 -23.1842 11 1 
304.8 1.19324 7.61759 -0.00215631 0.00185642 7.7236 -21.2503 11 1 
305.6 1.19385 7.49883 -0.00238731 0.00165827 7.59373 -20.1435 11 1 
306.4 1.19434 7.39605 -0.00268984 0.00153182 7.48306 -19.2589 11 1 
307.2 1.19481 7.30419 -0.00298511 0.00149848 7.37298 -18.4124 11 1 
307.2 1.19481 7.30419 -0.00298511 0.00149848 7.37298 -18.4124 13 1 
308 1.19532 7.22438 -0.00326391 0.00147925 7.28894 -17.4866 13 1 
308.8 1.19596 7.15687 -0.00345843 0.00148097 7.21831 -16.3367 13 1 
309.6 1.19659 7.09629 -0.00362757 0.00143123 7.15359 -15.1824 13 1 
310.4 1.19702 7.03499 -0.00382412 0.00130572 7.08623 -14.4133 13 1 
311.2 1.19728 6.9714 -0.00401807 0.00115632 7.02022 -13.9357 13 1 
312 1.19748 6.90778 -0.00421932 0.000991888 6.95313 -13.5819 13 1 
312.8 1.19768 6.85168 -0.00440762 0.000861734 6.89545 -13.2204 13 1 
313.6 1.19795 6.80515 -0.00455841 0.000766166 6.8458 -12.7299 13 1 
314.4 1.19832 6.76194 -0.00463537 0.000703774 6.80069 -12.0734 13 1 
315.2 1.19866 6.7216 -0.00467877 0.000673763 6.75861 -11.4437 13 1 
316 1.19893 6.68562 -0.00475268 0.000612713 6.7207 -10.9565 13 1 
316.8 1.19915 6.64776 -0.00484616 0.000497397 6.68094 -10.5746 13 1 
317.6 1.19925 6.60831 -0.00497708 0.000335101 6.64061 -10.3815 13 1 
318.4 1.1993 6.57279 -0.00516653 0.000153448 6.60358 -10.2991 13 1 
319.2 1.19946 6.5414 -0.00533909 -1.59852e-05 6.571 -10.0054 13 1 
320 1.19969 6.51212 -0.0054808 -0.000177026 6.54035 -9.58332 13 1 
320 1.19969 6.51212 -0.0054808 -0.000177026 6.54035 -9.58332 13 1 
320.8 1.19987 6.48425 -0.00559094 -0.000305057 6.51147 -9.2581 13 1 
321.6 1.20003 6.45866 -0.00565565 -0.000390358 6.48491 -8.96897 13 1 
322.4 1.20016 6.43318 -0.00572291 -0.00049381 6.45854 -8.73987 13 1 
323.2 1.20017 6.40378 -0.00584026 -0.000665609 6.42815 -8.72397 13 1 
324 1.20016 6.37568 -0.00599353 -0.000886161 6.39915 -8.74119 13 1 
324.8 1.20032 6.35605 -0.0062006 -0.00113051 6.37863 -8.45279 13 1 
325.6 1.20063 6.34209 -0.00645922 -0.00141476 6.36404 -7.89552 13 1 
326.4 1.20096 6.3298 -0.00672253 -0.00171859 6.35097 -7.30157 13 1 
327.2 1.20126 6.31865 -0.0069516 -0.00197558 6.33909 -6.75888 13 1 
328 1.20148 6.30583 -0.00712088 -0.00214717 6.32556 -6.3659 13 1 
328.8 1.20158 6.29047 -0.00721378 -0.00225752 6.30961 -6.17783 13 1 
329.6 1.20158 6.27287 -0.00724234 -0.00232996 6.29154 -6.18566 13 1 
330.4 1.2015 6.25319 -0.00721161 -0.00234692 6.27141 -6.31328 13 1 
331.2 1.20157 6.23926 -0.00713912 -0.00231495 6.25691 -6.19429 13 1 
332 1.20188 6.23537 -0.00704515 -0.00228174 6.25255 -5.6279 13 1 
332.8 1.20229 6.2337 -0.00691768 -0.00224293 6.25042 -4.8904 13 1 
332.8 1.20229 6.2337 -0.00691768 -0.00224293 6.25042 -4.8904 13 1 
333.6 1.20274 6.23286 -0.00673668 -0.00213784 6.2492 -4.08856 13 1 
334.4 1.20322 6.23561 -0.00650802 -0.0019764 6.25156 -3.21335 13 1 
335.2 1.20355 6.23467 -0.00623479 -0.00181933 6.2502 -2.6209 13 1 
336 1.20359 6.22428 -0.00593381 -0.00165469 6.23939 -2.54395 13 1 
336.8 1.20346 6.20693 -0.00562525 -0.00146504 6.22173 -2.77993 13 1 
337.6 1.20328 6.18866 -0.00535027 -0.00134368 6.2032 -3.11341 13 1 
338.4 1.2031 6.17461 -0.00517567 -0.00137473 6.18882 -3.43069 13 1 
339.2 1.20299 6.16209 -0.0051282 -0.00151758 6.17595 -3.63255 13 1 
340 1.20297 6.15005 -0.00520873 -0.001762 6.16361 -3.66632 13 1 
340.8 1.20308 6.14441 -0.00544125 -0.00216834 6.15767 -3.46722 13 1 
341.6 1.20329 6.14418 -0.00579863 -0.00269629 6.15713 -3.08044 13 1 
342.4 1.20349 6.14278 -0.00619842 -0.00322128 6.15547 -2.7276 13 1 
343.2 1.20363 6.13883 -0.0065692 -0.00367519 6.15123 -2.47643 13 1 
344 1.20376 6.13469 -0.00684588 -0.00403998 6.1468 -2.24513 13 1 
344.8 1.20386 6.13138 -0.00698777 -0.00428054 6.14326 -2.05987 13 1 
345.6 1.20395 6.12799 -0.00698086 -0.00434264 6.13966 -1.89521 13 1 
345.6 1.20395 6.12799 -0.00698086 -0.00434264 6.13966 -1.89521 13 1 
346.4 1.20411 6.12735 -0.00678599 -0.00422023 6.13877 -1.60815 13 1 
347.2 1.20435 6.13122 -0.00642118 -0.00398207 6.14239 -1.17797 13 1 
348 1.20463 6.1358 -0.00598162 -0.00368785 6.14678 -0.662239 13 1 
348.8 1.20498 6.14277 -0.00549851 -0.00334436 6.15355 -0.0431511 13 1 
349.6 1.20533 6.15288 -0.0049758 -0.00300018 6.16342 0.59431 13 1 
350.4 1.20557 6.15795 -0.00448965 -0.0027351 6.16832 1.02924 13 1 
351.2 1.20566 6.15698 -0.00411421 -0.00257733 6.16721 1.19008 13 1 
352 1.2056 6.15296 -0.00385956 -0.00252724 6.16304 1.08514 13 1 
352.8 1.20537 6.14307 -0.00369802 -0.00258297 6.15299 0.670947 13 1 
353.6 1.20503 6.1282 -0.00360344 -0.00271831 6.13796 0.0488195 13 1 
354.4 1.20465 6.1119 -0.00358616 -0.00291265 6.12159 -0.638701 13 1 
355.2 1.20427 6.09614 -0.00366887 -0.0031837 6.10578 -1.32576 13 1 
356 1.20396 6.08391 -0.00378764 -0.00349486 6.09337 -1.87531 13 1 
356.8 1.20378 6.0753 -0.00386551 -0.00376898 6.08458 -2.20917 13 1 
357.6 1.20371 6.07002 -0.00394536 -0.00402648 6.07927 -2.33556 13 1 
358.4 1.20377 6.07023 -0.00406108 -0.00430369 6.0794 -2.21963 13 1 
358.4 1.20377 6.07023 -0.00406108 -0.00430369 6.0794 -2.21963 14 1 
359.2 1.20394 6.07506 -0.00414476 -0.004555 6.08404 -1.9132 14 1 
360 1.20415 6.08156 -0.00416763 -0.00475075 6.09038 -1.53416 14 1 
360.8 1.20437 6.08783 -0.00417436 -0.00491484 6.09659 -1.13691 14 1 
361.6 1.20458 6.09375 -0.00420051 -0.0050807 6.1024 -0.766713 14 1 
362.4 1.20474 6.09973 -0.00421418 -0.00524654 6.10822 -0.475542 14 1 
363.2 1.20484 6.10371 -0.00416866 -0.00536893 6.11209 -0.292722 14 1 
364 1.20487 6.10472 -0.00410617 -0.00545248 6.11305 -0.230443 14 1 
364.8 1.20484 6.10408 -0.00407393 -0.00555111 6.1123 -0.284237 14 1 
365.6 1.20476 6.10164 -0.00403629 -0.00567172 6.10974 -0.429888 14 1 
366.4 1.20465 6.09816 -0.00398462 -0.00577747 6.10618 -0.633289 14 1 
367.2 1.20451 6.09474 -0.00392584 -0.00585122 6.1027 -0.881104 14 1 
368 1.20436 6.09072 -0.00384451 -0.00591751 6.09861 -1.14858 14 1 
368.8 1.20423 6.08691 -0.00378065 -0.00601049 6.0947 -1.38872 14 1 
369.6 1.20411 6.08372 -0.0037477 -0.00611445 6.09142 -1.59866 14 1 
370.4 1.20401 6.08067 -0.00368513 -0.00618862 6.08833 -1.78356 14 1 
371.2 1.20393 6.07903 -0.00360802 -0.00625168 6.08665 -1.92689 14 1 
371.2 1.20393 6.07903 -0.00360802 -0.00625168 6.08665 -1.92689 14 1 
372 1.20387 6.0786 -0.00356301 -0.00634268 6.08613 -2.04351 14 1 
372.8 1.20382 6.07818 -0.00352408 -0.00644022 6.08564 -2.13782 14 1 
373.6 1.20379 6.07857 -0.00346901 -0.00650501 6.08597 -2.18944 14 1 
374.4 1.20378 6.07953 -0.0034027 -0.00655204 6.08686 -2.21224 14 1 
375.2 1.20377 6.08042 -0.00334035 -0.00662369 6.08766 -2.22287 14 1 
376 1.20377 6.08172 -0.00329929 -0.00670627 6.08889 -2.22105 14 1 
376.8 1.20377 6.08286 -0.00326526 -0.00676955 6.08998 -2.22027 14 1 
377.6 1.20377 6.08395 -0.0032132 -0.00682833 6.09101 -2.21551 14 1 
378.4 1.20379 6.08606 -0.00314109 -0.00688116 6.09305 -2.18608 14 1 
379.2 1.20381 6.08838 -0.00307178 -0.00691951 6.09528 -2.14938 14 1 
380 1.20382 6.0898 -0.00302858 -0.00696719 6.09661 -2.12314 14 1 
380.8 1.20384 6.09056 -0.00299227 -0.00702715 6.09729 -2.10092 14 1 
381.6 1.20385 6.09135 -0.00292957 -0.00708907 6.098 -2.08067 14 1 
382.4 1.20387 6.0925 -0.00285969 -0.00714427 6.09907 -2.04843 14 1 
383.2 1.20389 6.09352 -0.0028134 -0.00717998 6.09999 -2.00741 14 1 
384 1.2039 6.09391 -0.00276593 -0.00722408 6.10025 -1.97943 14 1 
384 1.2039 6.09391 -0.00276593 -0.00722408 6.10025 -1.97943 14 1 
384.8 1.20392 6.09358 -0.00269639 -0.00729495 6.09982 -1.9539 14 1 
385.6 1.20393 6.09275 -0.00262099 -0.00734956 6.0989 -1.92458 14 1 
386.4 1.20395 6.09212 -0.002531 -0.00737617 6.09818 -1.89217 14 1 
387.2 1.20398 6.09119 -0.00241496 -0.00741315 6.09713 -1.85 14 1 
388 1.20399 6.08868 -0.00228352 -0.00744737 6.09446 -1.81972 14 1 
388.8 1.204 6.08487 -0.00213226 -0.00743246 6.09048 -1.79855 14 1 
389.6 1.20403 6.08034 -0.00197733 -0.00741188 6.08581 -1.76103 14 1 
390.4 1.20405 6.07521 -0.00184341 -0.00745408 6.08056 -1.72274 14 1 
391.2 1.20407 6.06938 -0.00172286 -0.00751118 6.07458 -1.68797 14 1 
392 1.20409 6.06116 -0.00161177 -0.00748952 6.06617 -1.64498 14 1 
392.8 1.20411 6.04889 -0.00150632 -0.0073757 6.05364 -1.60721 14 1 
393.6 1.20413 6.03193 -0.0014193 -0.00721616 6.03637 -1.57335 14 1 
394.4 1.20415 6.00982 -0.00137756 -0.00703915 6.01394 -1.52917 14 1 
395.2 1.20418 5.98348 -0.00136915 -0.00683396 5.98732 -1.47915 14 1 
396 1.20421 5.95442 -0.00137645 -0.00657284 5.95795 -1.43375 14 1 
396.8 1.20423 5.92281 -0.0013889 -0.00624355 5.92598 -1.39203 14 1 
396.8 1.20423 5.92281 -0.0013889 -0.00624355 5.92598 -1.39203 14 1 
397.6 1.20425 5.88838 -0.00138521 -0.00588036 5.8912 -1.34582 14 1 
398.4 1.20428 5.85118 -0.00138149 -0.00554341 5.85371 -1.29604 14 1 
399.2 1.20431 5.81259 -0.00141614 -0.0052708 5.8149 -1.2489 14 1 
400 1.20433 5.77535 -0.00147474 -0.00505602 5.77746 -1.21428 14 1 
400.8 1.20434 5.74117 -0.00151245 -0.00484365 5.74311 -1.18513 14 1 
401.6 1.20437 5.70957 -0.00151714 -0.00461528 5.71138 -1.13975 14 1 
402.4 1.20439 5.6781 -0.00150607 -0.00442969 5.67979 -1.09883 14 1 
403.2 1.2044 5.6449 -0.00149774 -0.00430884 5.6465 -1.07571 14 1 
404 1.20442 5.61122 -0.00147628 -0.00419855 5.61275 -1.04232 14 1 
404.8 1.20444 5.57761 -0.00142969 -0.00408983 5.57908 -1.01188 14 1 
405.6 1.20445 5.54141 -0.0013644 -0.00404385 5.54287 -1.00028 14 1 
406.4 1.20446 5.50045 -0.00126104 -0.00410937 5.50198 -0.983446 14 1 
407.2 1.20446 5.45496 -0.00113396 -0.00429576 5.45664 -0.968034 14 1 
408 1.20447 5.40776 -0.00107305 -0.0045679 5.40964 -0.966383 14 1 
408.8 1.20447 5.36549 -0.00113795 -0.00483791 5.36754 -0.965463 14 1 
409.6 1.20447 5.33682 -0.00130882 -0.00499136 5.33892 -0.9619 14 1 
409.6 1.20447 5.33682 -0.00130882 -0.00499136 5.33892 -0.9619 20 1 
410.4 1.20448 5.32813 -0.00155999 -0.00495202 5.33013 -0.943021 20 1 
411.2 1.2045 5.34147 -0.00186502 -0.00471647 5.34321 -0.897324 20 1 
412 1.20453 5.37461 -0.00215686 -0.00432139 5.37602 -0.841648 20 1 
412.8 1.20456 5.42177 -0.00238228 -0.00385242 5.42285 -0.78898 20 1 
413.6 1.20459 5.4762 -0.00252541 -0.00337453 5.47701 -0.739671 20 1 
414.4 1.20461 5.5316 -0.00258842 -0.0028783 5.53216 -0.696775 20 1 
415.2 1.20463 5.58116 -0.00258296 -0.00237438 5.58153 -0.660737 20 1 
416 1.20465 5.61925 -0.00251818 -0.00190632 5.61947 -0.628902 20 1 
416.8 1.20466 5.64355 -0.00243893 -0.00150244 5.64367 -0.60937 20 1 
417.6 1.20467 5.65407 -0.00239184 -0.00116062 5.65413 -0.603583 20 1 
418.4 1.20467 5.65317 -0.00237119 -0.000891575 5.6532 -0.591154 20 1 
419.2 1.20469 5.64539 -0.00237058 -0.000716873 5.6454 -0.566829 20 1 
420 1.2047 5.63468 -0.00241996 -0.000613268 5.63469 -0.534077 20 1 
420.8 1.20473 5.62445 -0.00253499 -0.000552329 5.62446 -0.483296 20 1 
421.6 1.20477 5.61947 -0.00268896 -0.000536799 5.61947 -0.415376 20 1 
422.4 1.20482 5.62354 -0.00284627 -0.000550171 5.62354 -0.32781 20 1 
422.4 1.20482 5.62354 -0.00284627 -0.000550171 5.62354 -0.32781 20 1 
423.2 1.20488 5.63791 -0.0030137 -0.000571836 5.63792 -0.213328 20 1 
424 1.20496 5.66386 -0.00319902 -0.000603566 5.66387 -0.0812915 20 1 
424.8 1.20504 5.7029 -0.00336528 -0.000636371 5.70292 0.0738433 20 1 
425.6 1.20515 5.75508 -0.00351668 -0.000672919 5.75511 0.263116 20 1 
426.4 1.20526 5.82013 -0.00367582 -0.00070783 5.82019 0.470968 20 1 
427.2 1.20538 5.89787 -0.0038148 -0.000733895 5.89795 0.686561 20 1 
428 1.2055 5.98718 -0.00392414 -0.000759935 5.98728 0.90982 20 1 
428.8 1.20563 6.08709 -0.0040212 -0.000769885 6.08721 1.13712 20 1 
429.6 1.20576 6.197 -0.00410215 -0.000769608 6.19713 1.36976 20 1 
430.4 1.20589 6.31544 -0.00416764 -0.000785129 6.31559 1.60763 20 1 
431.2 1.20602 6.44109 -0.00422066 -0.000790631 6.44125 1.8366 20 1 
432 1.20613 6.57306 -0.00424956 -0.000764368 6.57323 2.04566 20 1 
432.8 1.20624 6.70984 -0.00426006 -0.000741208 6.71001 2.23883 20 1 
433.6 1.20634 6.85007 -0.00425499 -0.000730148 6.85025 2.4118 20 1 
434.4 1.20642 6.99284 -0.00423429 -0.000697048 6.99302 2.56287 20 1 
435.2 1.2065 7.13684 -0.00420901 -0.000652102 7.13702 2.70243 20 1 
435.2 1.2065 7.13684 -0.00420901 -0.000652102 7.13702 2.70243 20 1 
436 1.20656 7.28095 -0.00417293 -0.000630887 7.28113 2.81957 20 1 
436.8 1.20661 7.42419 -0.00411989 -0.000606751 7.42436 2.90385 20 1 
437.6 1.20664 7.56531 -0.00404927 -0.000542277 7.56547 2.96609 20 1 
438.4 1.20667 7.70366 -0.00397448 -0.000490697 7.70382 3.01066 20 1 
439.2 1.20668 7.83879 -0.0038973 -0.000470258 7.83894 3.03832 20 1 
440 1.20669 7.96975 -0.00379753 -0.000417377 7.96989 3.05076 20 1 
440.8 1.20669 8.09588 -0.00370895 -0.000365925 8.09601 3.044 20 1 
441.6 1.20667 8.21692 -0.00363999 -0.000355128 8.21703 3.02069 20 1 
442.4 1.20665 8.33247 -0.00354628 -0.000326873 8.33257 2.985 20 1 
443.2 1.20663 8.44254 -0.00343307 -0.000263319 8.44263 2.94102 20 1 
444 1.2066 8.54722 -0.00334006 -0.000227035 8.5473 2.89621 20 1 
444.8 1.20657 8.64613 -0.00326858 -0.000227082 8.6462 2.84243 20 1 
445.6 1.20653 8.73908 -0.00318612 -0.000205045 8.73914 2.76628 20 1 
446.4 1.20649 8.82623 -0.00309642 -0.000162349 8.82628 2.68257 20 1 
447.2 1.20644 8.90784 -0.00301943 -0.000144034 8.90789 2.60639 20 1 
448 1.2064 8.9837 -0.00294608 -0.000144759 8.98374 2.52167 20 1 
448 1.2064 8.9837 -0.00294608 -0.000144759 8.98374 2.52167 20 1 
448.8 1.20635 9.05368 -0.00286673 -0.000117754 9.05371 2.43055 20 1 
449.6 1.20629 9.11802 -0.00279148 -8.10474e-05 9.11804 2.33893 20 1 
450.4 1.20623 9.17675 -0.00271321 -6.95294e-05 9.17677 2.22573 20 1 
451.2 1.20617 9.23017 -0.00264178 -5.90364e-05 9.23018 2.10981 20 1 
452 1.20612 9.2789 -0.00258774 -3.20262e-05 9.27891 2.0155 20 1 
452.8 1.20606 9.32332 -0.00253225 -1.74808e-05 9.32333 1.91208 20 1 
453.6 1.206 9.36355 -0.00247507 -1.87975e-05 9.36355 1.79968 20 1 
454.4 1.20594 9.40034 -0.00243102 3.83967e-06 9.40035 1.69787 20 1 
455.2 1.20589 9.43447 -0.00239092 3.88576e-05 9.43448 1.6007 20 1 
456 1.20584 9.46605 -0.00233717 4.54639e-05 9.46606 1.52569 20 1 
456.8 1.20581 9.4953 -0.00231299 3.16983e-05 9.4953 1.46335 20 1 
457.6 1.20577 9.52226 -0.00230751 4.64101e-05 9.52227 1.39102 20 1 
458.4 1.20574 9.54732 -0.00225984 5.68761e-05 9.54732 1.34295 20 1 
459.2 1.20573 9.57104 -0.00222427 3.30962e-05 9.57104 1.32383 20 1 
460 1.20572 9.59306 -0.0022239 4.54624e-05 9.59307 1.30568 20 1 
460.8 1.20572 9.61296 -0.00219653 6.72244e-05 9.61296 1.30185 20 1 
460.8 1.20572 9.61296 -0.00219653 6.72244e-05 9.61296 1.30185 20 1 
461.6 1.20573 9.63165 -0.00217326 2.20682e-05 9.63166 1.31552 20 1 
462.4 1.20573 9.64943 -0.00219506 -2.09506e-05 9.64944 1.3259 20 1 
463.2 1.20574 9.66526 -0.00218504 9.16893e-06 9.66526 1.33406 20 1 
464 1.20575 9.67993 -0.00213552 2.09832e-05 9.67994 1.35563 20 1 
464.8 1.20577 9.69424 -0.00215548 -5.24215e-05 9.69425 1.38562 20 1 
465.6 1.20577 9.70722 -0.00218692 -7.64478e-05 9.70722 1.39309 20 1 
466.4 1.20576 9.71906 -0.00214291 -2.74545e-05 9.71906 1.37996 20 1 
467.2 1.20576 9.73045 -0.00212895 -6.08951e-05 9.73045 1.36954 20 1 
468 1.20574 9.74127 -0.00216943 -0.000123607 9.74127 1.34523 20 1 
468.8 1.20572 9.75148 -0.0021466 -9.50923e-05 9.75148 1.29209 20 1 
469.6 1.20568 9.76097 -0.00210277 -8.6856e-05 9.76097 1.22999 20 1 
470.4 1.20564 9.77003 -0.00212607 -0.000146194 9.77003 1.16083 20 1 
471.2 1.20559 9.77878 -0.00212092 -0.000140095 9.77878 1.07119 20 1 
472 1.20554 9.78691 -0.00206052 -9.65748e-05 9.78691 0.973522 20 1 
472.8 1.20548 9.79473 -0.00204555 -0.000121837 9.79473 0.870395 20 1 
473.6 1.20542 9.8021 -0.00205792 -0.000138913 9.8021 0.759772 20 1 
473.6 1.20542 9.8021 -0.00205792 -0.000138913 9.8021 0.759772 20 1 
474.4 1.20537 9.80905 -0.00203972 -0.000107834 9.80905 0.662807 20 1 
475.2 1.20532 9.81592 -0.00201156 -0.000101238 9.81592 0.579141 20 1 
476 1.20528 9.82211 -0.00199433 -0.000100091 9.82211 0.503236 20 1 
476.8 1.20525 9.82793 -0.00199531 -7.32968e-05 9.82793 0.447181 20 1 
477.6 1.20523 9.83414 -0.00199932 -6.79315e-05 9.83414 0.409801 20 1 
478.4 1.20522 9.83969 -0.00199032 -8.59193e-05 9.83969 0.391333 20 1 
479.2 1.20522 9.84484 -0.00197985 -7.77694e-05 9.84484 0.395802 20 1 
480 1.20523 9.85039 -0.00199746 -7.02311e-05 9.85039 0.421262 20 1 
480.8 1.20526 9.85541 -0.00200355 -7.97399e-05 9.85542 0.471496 20 1 
481.6 1.2053 9.85998 -0.00198338 -8.5726e-05 9.85998 0.533852 20 1 
482.4 1.20533 9.86477 -0.00199424 -9.8241e-05 9.86477 0.597502 20 1 
483.2 1.20538 9.86959 -0.00201873 -0.000112283 9.86959 0.68047 20 1 
484 1.20542 9.87393 -0.00200081 -0.000108651 9.87393 0.754269 20 1 
484.8 1.20544 9.87787 -0.00198136 -0.000120716 9.87788 0.803587 20 1 
485.6 1.20548 9.8821 -0.0019897 -0.000148197 9.8821 0.867547 20 1 
486.4 1.20551 9.88604 -0.00198475 -0.000151127 9.88605 0.916435 20 1 
486.4 1.20551 9.88604 -0.00198475 -0.000151127 9.88605 0.916435 20 1 
487.2 1.20551 9.88931 -0.00196423 -0.000156261 9.88931 0.929324 20 1 
488 1.20552 9.89281 -0.00195326 -0.000186509 9.89281 0.939426 20 1 
488.8 1.20551 9.89634 -0.00194234 -0.000192705 9.89634 0.920548 20 1 
489.6 1.20548 9.89945 -0.00191858 -0.000170203 9.89945 0.859283 20 1 
490.4 1.20545 9.90251 -0.00189456 -0.000167986 9.90251 0.806472 20 1 
491.2 1.20541 9.90546 -0.0018946 -0.000197755 9.90546 0.748611 20 1 
492 1.20536 9.90806 -0.00190608 -0.000209323 9.90806 0.658355 20 1 
492.8 1.20532 9.91067 -0.00189363 -0.000179457 9.91067 0.579457 20 1 
493.6 1.20528 9.9135 -0.00187163 -0.000170112 9.9135 0.502233 20 1 
494.4 1.20523 9.91644 -0.00185917 -0.000185902 9.91644 0.407574 20 1 
495.2 1.20519 9.91907 -0.00186658 -0.000174717 9.91907 0.350728 20 1 
496 1.20518 9.92132 -0.0018683 -0.000152571 9.92132 0.324062 20 1 
496.8 1.20517 9.92396 -0.00185365 -0.000176201 9.92396 0.298311 20 1 
497.6 1.20517 9.92671 -0.00185125 -0.000196673 9.92671 0.302122 20 1 
498.4 1.20518 9.92912 -0.0018546 -0.000163656 9.92912 0.32307 20 1 
499.2 1.20519 9.93143 -0.00184051 -0.000151512 9.93143 0.350062 20 1 
499.2 1.20519 9.93143 -0.00184051 -0.000151512 9.93143 0.350062 20 1 
500 1.20523 9.93372 -0.0018244 -0.00018574 9.93372 0.420013 20 1 
500.8 1.20529 9.93619 -0.00182662 -0.000187812 9.9362 0.517557 20 1 
501.6 1.20533 9.93835 -0.00183711 -0.000174302 9.93835 0.599769 20 1 
502.4 1.20537 9.94001 -0.00182226 -0.000198469 9.94001 0.670695 20 1 
503.2 1.20541 9.94185 -0.00180119 -0.000213794 9.94185 0.747723 20 1 
504 1.20546 9.94352 -0.00181069 -0.000199851 9.94353 0.829999 20 1 
504.8 1.2055 9.94515 -0.00181887 -0.000221516 9.94515 0.900058 20 1 
505.6 1.20552 9.94667 -0.00179301 -0.00024624 9.94668 0.934377 20 1 
506.4 1.20552 9.9476 -0.00177521 -0.000237253 9.9476 0.933826 20 1 
507.2 1.20551 9.94878 -0.0017868 -0.000251734 9.94878 0.917713 20 1 
508 1.20549 9.94993 -0.00178668 -0.000274988 9.94993 0.889511 20 1 
508.8 1.20546 9.95072 -0.00176934 -0.000274233 9.95072 0.839233 20 1 
509.6 1.20542 9.95186 -0.00176035 -0.000280971 9.95186 0.756216 20 1 
510.4 1.20536 9.95281 -0.00175405 -0.000289332 9.95281 0.651069 20 1 
511.2 1.2053 9.95368 -0.00174391 -0.000284246 9.95368 0.539912 20 1 
512 1.20523 9.95457 -0.001741 -0.000281016 9.95457 0.422842 20 1 
512 1.20523 9.95457 -0.001741 -0.000281016 9.95457 0.422842 23 1 
512.8 1.20518 9.95556 -0.00173627 -0.000282405 9.95556 0.324874 23 1 
513.6 1.20514 9.95718 -0.00173053 -0.000287072 9.95718 0.246444 23 1 
514.4 1.20508 9.95828 -0.0017291 -0.000284128 9.95828 0.148807 23 1 
515.2 1.20504 9.95904 -0.00172478 -0.000277391 9.95904 0.0679122 23 1 
516 1.20502 9.96062 -0.00170389 -0.000253835 9.96062 0.0350271 23 1 
516.8 1.20501 9.96214 -0.00169361 -0.000246497 9.96214 0.0219979 23 1 
517.6 1.20502 9.96349 -0.00169398 -0.00026314 9.96349 0.0389529 23 1 
518.4 1.20504 9.96493 -0.00167902 -0.000244865 9.96493 0.0695879 23 1 
519.2 1.20505 9.96624 -0.00167238 -0.000232205 9.96624 0.0989539 23 1 
520 1.20509 9.96758 -0.00167264 -0.000263161 9.96758 0.169811 23 1 
520.8 1.20514 9.96869 -0.00164899 -0.000261359 9.96869 0.254025 23 1 
521.6 1.20518 9.9698 -0.00161939 -0.000226299 9.9698 0.325544 23 1 
522.4 1.20523 9.97112 -0.00161967 -0.000248075 9.97112 0.416736 23 1 
523.2 1.20527 9.97212 -0.00163387 -0.000291116 9.97212 0.484106 23 1 
524 1.20528 9.97254 -0.00160453 -0.000270208 9.97254 0.509774 23 1 
524.8 1.20531 9.97312 -0.00156873 -0.000250739 9.97312 0.557763 23 1 
524.8 1.20531 9.97312 -0.00156873 -0.000250739 9.97312 0.557763 23 1 
525.6 1.20533 9.9742 -0.0015824 -0.00028747 9.9742 0.599001 23 1 
526.4 1.20533 9.97467 -0.00160258 -0.000319239 9.97467 0.59393 23 1 
527.2 1.20532 9.97481 -0.00158804 -0.000315873 9.97481 0.583146 23 1 
528 1.2053 9.97539 -0.00157036 -0.000310282 9.97539 0.547933 23 1 
528.8 1.20527 9.97595 -0.00157323 -0.00031743 9.97595 0.486661 23 1 
529.6 1.20525 9.9765 -0.00156006 -0.000306317 9.97651 0.450641 23 1 
530.4 1.20523 9.97685 -0.00156819 -0.000320492 9.97685 0.411974 23 1 
531.2 1.20519 9.97733 -0.00160308 -0.00036378 9.97733 0.348418 23 1 
532 1.20517 9.97818 -0.00161186 -0.000366364 9.97818 0.304137 23 1 
532.8 1.20515 9.97867 -0.00158482 -0.000333791 9.97867 0.276958 23 1 
533.6 1.20514 9.97953 -0.00156391 -0.000322064 9.97953 0.253949 23 1 
534.4 1.20515 9.98055 -0.00157754 -0.000337185 9.98055 0.262854 23 1 
535.2 1.20516 9.98131 -0.00160762 -0.000369661 9.98131 0.288647 23 1 
536 1.20517 9.98231 -0.00162361 -0.000388643 9.98231 0.307456 23 1 
536.8 1.2052 9.98278 -0.00160898 -0.00037338 9.98278 0.354136 23 1 
537.6 1.20524 9.98378 -0.00158351 -0.000358767 9.98378 0.427517 23 1 
537.6 1.20524 9.98378 -0.00158351 -0.000358767 9.98378 0.427517 23 1 
538.4 1.20527 9.98506 -0.00157494 -0.000365669 9.98506 0.479627 23 1 
539.2 1.2053 9.98539 -0.00158561 -0.00037492 9.98539 0.534724 23 1 
540 1.20533 9.98616 -0.00158946 -0.000383964 9.98616 0.598596 23 1 
540.8 1.20536 9.98654 -0.00158302 -0.000404154 9.98654 0.642321 23 1 
541.6 1.20539 9.98712 -0.00157636 -0.000407448 9.98712 0.698742 23 1 
542.4 1.2054 9.98814 -0.00155818 -0.000391008 9.98814 0.725293 23 1 
543.2 1.20539 9.98763 -0.00154092 -0.0003923 9.98763 0.698196 23 1 
544 1.20538 9.98803 -0.00153916 -0.00041093 9.98803 0.694168 23 1 
544.8 1.20537 9.98853 -0.00152931 -0.000406194 9.98853 0.675655 23 1 
545.6 1.20535 9.98808 -0.0015188 -0.000395521 9.98808 0.624466 23 1 
546.4 1.20533 9.98921 -0.00150153 -0.000397532 9.98921 0.592351 23 1 
547.2 1.20528 9.98895 -0.00148527 -0.000404441 9.98895 0.509175 23 1 
548 1.20523 9.98851 -0.00149025 -0.000400846 9.98851 0.411441 23 1 
548.8 1.20521 9.98958 -0.00148383 -0.000391705 9.98958 0.379956 23 1 
549.6 1.20518 9.98932 -0.00146212 -0.000388925 9.98932 0.329689 23 1 
550.4 1.20515 9.99014 -0.00145658 -0.000386188 9.99014 0.268646 23 1 
550.4 1.20515 9.99014 -0.00145658 -0.000386188 9.99014 0.268646 23 1 
551.2 1.20513 9.99058 -0.00145527 -0.000378296 9.99058 0.237151 23 1 
552 1.20511 9.99005 -0.00145176 -0.000373517 9.99005 0.191376 23 1 
552.8 1.20509 9.99146 -0.00144989 -0.000382319 9.99146 0.159121 23 1 
553.6 1.2051 9.99161 -0.0014388 -0.0003737 9.99161 0.175418 23 1 
554.4 1.20511 9.99186 -0.00142179 -0.000350592 9.99186 0.198192 23 1 
555.2 1.20511 9.9928 -0.00140366 -0.000343072 9.9928 0.204675 23 1 
556 1.20513 9.99268 -0.00141293 -0.000356609 9.99268 0.23751 23 1 
556.8 1.20515 9.99385 -0.0014227 -0.000363171 9.99385 0.268668 23 1 
557.6 1.20514 9.99367 -0.00139387 -0.000355158 9.99367 0.257883 23 1 
558.4 1.20517 9.99351 -0.00135484 -0.000327976 9.99351 0.299039 23 1 
559.2 1.2052 9.99488 -0.0013415 -0.000310618 9.99488 0.358751 23 1 
560 1.20519 9.9942 -0.00134159 -0.000326797 9.9942 0.348479 23 1 
560.8 1.2052 9.99473 -0.00134427 -0.000343796 9.99473 0.357038 23 1 
561.6 1.2052 9.99515 -0.00133196 -0.000332822 9.99515 0.361155 23 1 
562.4 1.20519 9.99435 -0.0013005 -0.00031785 9.99435 0.339444 23 1 
563.2 1.2052 9.99561 -0.00128899 -0.000324193 9.99561 0.366655 23 1 
563.2 1.2052 9.99561 -0.00128899 -0.000324193 9.99561 0.366655 24 1 
564 1.2052 9.99521 -0.00129307 -0.000325213 9.99521 0.366984 24 1 
564.8 1.20519 9.99512 -0.00129411 -0.000322373 9.99512 0.339016 24 1 
565.6 1.20518 9.99604 -0.00130546 -0.000348802 9.99604 0.326655 24 1 
566.4 1.20517 9.99514 -0.00131473 -0.000368695 9.99514 0.306648 24 1 
567.2 1.20517 9.99584 -0.00129171 -0.000337367 9.99584 0.310364 24 1 
568 1.20518 9.99604 -0.00128111 -0.000326827 9.99604 0.318945 24 1 
568.8 1.20519 9.99631 -0.00129683 -0.000360231 9.99631 0.335072 24 1 
569.6 1.2052 9.99741 -0.00132524 -0.000389185 9.99741 0.354343 24 1 
570.4 1.20519 9.99634 -0.00133639 -0.000393798 9.99634 0.346994 24 1 
571.2 1.20521 9.99709 -0.00131423 -0.000376973 9.9971 0.372238 24 1 
572 1.20522 9.99764 -0.00130532 -0.00037619 9.99764 0.401022 24 1 
572.8 1.20523 9.99724 -0.00131022 -0.000393254 9.99724 0.414871 24 1 
573.6 1.20525 9.99846 -0.00130881 -0.000392416 9.99846 0.452308 24 1 
574.4 1.20526 9.99773 -0.00130752 -0.000390137 9.99773 0.467944 24 1 
575.2 1.20527 9.99815 -0.00130286 -0.000401403 9.99815 0.485616 24 1 
576 1.20528 9.99875 -0.00129374 -0.000403648 9.99875 0.505411 24 1 
576 1.20528 9.99875 -0.00129374 -0.000403648 9.99875 0.505411 24 1 
576.8 1.20529 9.99796 -0.00129073 -0.000392736 9.99796 0.520906 24 1 
577.6 1.2053 9.99909 -0.0012927 -0.00040071 9.99909 0.54501 24 1 
578.4 1.20529 9.99814 -0.0012972 -0.000423622 9.99814 0.521622 24 1 
579.2 1.20529 9.9979 -0.00128302 -0.000414565 9.9979 0.519225 24 1 
580 1.2053 9.99868 -0.00125882 -0.00038417 9.99868 0.536355 24 1 
580.8 1.20528 9.99721 -0.00125867 -0.000390439 9.99721 0.510722 24 1 
581.6 1.20529 9.9983 -0.00125558 -0.00040795 9.9983 0.518315 24 1 
582.4 1.20529 9.9983 -0.00125129 -0.000408831 9.9983 0.516307 24 1 
583.2 1.20526 9.99777 -0.00127004 -0.000417616 9.99777 0.47172 24 1 
584 1.20524 9.99939 -0.00126172 -0.000416854 9.99939 0.436065 24 1 
584.8 1.20522 9.99857 -0.0012397 -0.000411043 9.99857 0.393417 24 1 
585.6 1.2052 9.99942 -0.00122339 -0.000391195 9.99942 0.369247 24 1 
586.4 1.2052 10 -0.00121617 -0.000383852 10 0.356248 24 1 
587.2 1.20521 9.99935 -0.00121735 -0.000392376 9.99935 0.372723 24 1 
588 1.20522 9.99988 -0.00122078 -0.000398945 9.99988 0.406249 24 1 
588.8 1.20523 9.99746 -0.00121648 -0.000395125 9.99746 0.414845 24 1 
588.8 1.20523 9.99746 -0.00121648 -0.000395125 9.99746 0.414845 24 1 
589.6 1.20527 9.99733 -0.00120167 -0.000381208 9.99733 0.495339 24 1 
590.4 1.2053 9.99765 -0.00119997 -0.000384463 9.99765 0.544034 24 1 
591.2 1.20528 9.99653 -0.00121241 -0.000400557 9.99653 0.503607 24 1 
592 1.20527 9.99903 -0.00121012 -0.000401781 9.99903 0.485834 24 1 
592.8 1.20522 9.99971 -0.00119678 -0.000398125 9.99971 0.402039 24 1 
593.6 1.20516 10.0007 -0.00120269 -0.000404799 10.0007 0.295668 24 1 
594.4 1.20516 10.0023 -0.00118117 -0.000384739 10.0023 0.288074 24 1 
595.2 1.20518 10.0011 -0.00115741 -0.000371186 10.0011 0.329453 24 1 
596 1.20521 10.0012 -0.00115582 -0.000376769 10.0012 0.375938 24 1 
596.8 1.20522 9.99999 -0.00115684 -0.000379504 9.99999 0.400666 24 1 
597.6 1.20523 10 -0.00114447 -0.000370714 10 0.4176 24 1 
598.4 1.20522 10.0014 -0.00112022 -0.000358915 10.0014 0.393839 24 1 
599.2 1.2052 10.0002 -0.00112018 -0.000360581 10.0002 0.356576 24 1 
600 1.20522 10.0014 -0.00113536 -0.000374568 10.0014 0.406156 24 1 
600.8 1.20524 10.0007 -0.00115075 -0.000398599 10.0007 0.4322 24 1 
601.6 1.20524 9.99971 -0.00116916 -0.000419518 9.99971 0.431331 24 1 
601.6 1.20524 9.99971 -0.00116916 -0.000419518 9.99971 0.431331 24 1 
602.4 1.20525 10.0021 -0.00116597 -0.000420399 10.0021 0.442605 24 1 
603.2 1.2052 10.0019 -0.00114738 -0.000414379 10.0019 0.366576 24 1 
604 1.20516 10.0034 -0.00114578 -0.000411807 10.0034 0.297801 24 1 
604.8 1.20518 10.0038 -0.00113703 -0.000399756 10.0038 0.328261 24 1 
605.6 1.20523 10.0024 -0.00112124 -0.000395269 10.0024 0.410286 24 1 
606.4 1.20524 10.0027 -0.00111559 -0.00039895 10.0027 0.438553 24 1 
607.2 1.20522 10.0019 -0.00110948 -0.000391529 10.0019 0.398671 24 1 
608 1.2052 10.0038 -0.00109413 -0.000376735 10.0038 0.363344 24 1 
608.8 1.20517 10.0044 -0.00108827 -0.000377529 10.0044 0.308529 24 1 
609.6 1.20519 10.0029 -0.00108285 -0.00037878 10.0029 0.336221 24 1 
610.4 1.20525 10.0033 -0.00107405 -0.000372304 10.0033 0.459165 24 1 
611.2 1.20526 10.0027 -0.00108129 -0.000384254 10.0027 0.472364 24 1 
612 1.20522 10.0032 -0.00108873 -0.000394159 10.0032 0.397553 24 1 
612.8 1.20519 10.0043 -0.00107422 -0.000378301 10.0043 0.346868 24 1 
613.6 1.2052 10.0034 -0.00105013 -0.000363261 10.0034 0.352605 24 1 
614.4 1.20523 10.0031 -0.00103922 -0.000361308 10.0031 0.416942 24 1 
614.4 1.20523 10.0031 -0.00103922 -0.000361308 10.0031 0.416942 27 1 
615.2 1.20525 10.003 -0.00104842 -0.000368641 10.003 0.444005 27 1 
616 1.20522 10.0037 -0.00106065 -0.000384304 10.0037 0.398815 27 1 
616.8 1.20518 10.0043 -0.00104916 -0.000382018 10.0043 0.332907 27 1 
617.6 1.20519 10.0032 -0.00103381 -0.000368573 10.0032 0.338964 27 1 
618.4 1.20523 10.0032 -0.00102387 -0.000359282 10.0032 0.4121 27 1 
619.2 1.20522 10.0034 -0.00102371 -0.000363884 10.0034 0.405286 27 1 
620 1.20519 10.0041 -0.00103572 -0.00038227 10.0041 0.343337 27 1 
620.8 1.20518 10.0048 -0.00103379 -0.000385035 10.0048 0.333109 27 1 
621.6 1.20519 10.0032 -0.001013 -0.000366884 10.0032 0.338885 27 1 
622.4 1.20519 10.0025 -0.000993902 -0.000351907 10.0025 0.337366 27 1 
623.2 1.20518 10.004 -0.000984343 -0.000344859 10.004 0.330381 27 1 
624 1.20517 10.0045 -0.000982444 -0.000347507 10.0045 0.301995 27 1 
624.8 1.20518 10.0047 -0.000984212 -0.000352683 10.0047 0.328464 27 1 
625.6 1.20521 10.004 -0.000996747 -0.000366281 10.004 0.374308 27 1 
626.4 1.20518 10.0035 -0.000993993 -0.000364479 10.0035 0.316312 27 1 
627.2 1.20514 10.0053 -0.000962985 -0.000337274 10.0053 0.2442 27 1 
627.2 1.20514 10.0053 -0.000962985 -0.000337274 10.0053 0.2442 27 1 
628 1.20516 10.0042 -0.000931675 -0.000315139 10.0042 0.280452 27 1 
628.8 1.2052 10.0044 -0.000917936 -0.000305925 10.0044 0.366127 27 1 
629.6 1.20517 10.0046 -0.000930699 -0.000313821 10.0046 0.314226 27 1 
630.4 1.20513 10.0046 -0.000937748 -0.000322325 10.0046 0.230124 27 1 
631.2 1.20516 10.0064 -0.00093072 -0.000323174 10.0064 0.280739 27 1 
632 1.20518 10.0033 -0.000904391 -0.000304399 10.0033 0.321625 27 1 
632.8 1.20519 10.0049 -0.000891751 -0.000288729 10.0049 0.338889 27 1 
633.6 1.20516 10.0062 -0.000903208 -0.000296511 10.0062 0.289516 27 1 
634.4 1.20514 10.005 -0.000897595 -0.000302632 10.005 0.249752 27 1 
635.2 1.20517 10.0054 -0.000882563 -0.000293355 10.0054 0.314371 27 1 
636 1.20517 10.0025 -0.000863864 -0.000274782 10.0025 0.315497 27 1 
636.8 1.20516 10.0066 -0.000849939 -0.000267677 10.0066 0.28854 27 1 
637.6 1.20515 10.006 -0.000867194 -0.000283759 10.006 0.262182 27 1 
638.4 1.20519 10.0042 -0.000893435 -0.000307416 10.0042 0.351784 27 1 
639.2 1.20522 10.0062 -0.000880875 -0.000302215 10.0062 0.397109 27 1 
640 1.20514 10.0037 -0.000850716 -0.000279497 10.0037 0.24678 27 1 
640 1.20514 10.0037 -0.000850716 -0.000279497 10.0037 0.24678 27 1 
640.8 1.20515 10.0069 -0.000831892 -0.000263669 10.0069 0.264873 27 1 
641.6 1.20519 10.0042 -0.000830601 -0.000263746 10.0042 0.351561 27 1 
642.4 1.20519 10.0043 -0.000839384 -0.000274809 10.0043 0.348551 27 1 
643.2 1.20516 10.0072 -0.000841364 -0.000278917 10.0072 0.281186 27 1 
644 1.20515 10.0037 -0.000832163 -0.000271218 10.0037 0.278488 27 1 
644.8 1.20522 10.0065 -0.000816155 -0.000261285 10.0065 0.389148 27 1 
645.6 1.20517 10.0041 -0.000814988 -0.000263668 10.0041 0.308929 27 1 
646.4 1.20515 10.0061 -0.000819284 -0.000268512 10.0061 0.278202 27 1 
647.2 1.20519 10.0065 -0.000804656 -0.000258815 10.0065 0.336246 27 1 
648 1.20517 10.0027 -0.000788186 -0.000243782 10.0027 0.308319 27 1 
648.8 1.20517 10.0074 -0.000776348 -0.000234011 10.0074 0.300202 27 1 
649.6 1.20515 10.0046 -0.000763542 -0.000231229 10.0046 0.272693 27 1 
650.4 1.20519 10.0056 -0.000770734 -0.000238088 10.0056 0.347191 27 1 
651.2 1.20518 10.0053 -0.000778452 -0.000242865 10.0053 0.32133 27 1 
652 1.20514 10.0049 -0.000766431 -0.000238472 10.0049 0.252359 27 1 
652.8 1.20518 10.0078 -0.000749153 -0.000222233 10.0078 0.327079 27 1 
652.8 1.20518 10.0078 -0.000749153 -0.000222233 10.0078 0.327079 27 1 
653.6 1.20517 10.0028 -0.000738862 -0.000214104 10.0028 0.313798 27 1 
654.4 1.20515 10.0065 -0.00073271 -0.000215532 10.0065 0.275425 27 1 
655.2 1.20513 10.0057 -0.000727722 -0.000211937 10.0057 0.231814 27 1 
656 1.20516 10.004 -0.000718686 -0.000208187 10.004 0.295082 27 1 
656.8 1.20519 10.0071 -0.000713325 -0.000200848 10.0071 0.345359 27 1 
657.6 1.20514 10.0049 -0.000719644 -0.000205294 10.0049 0.257218 27 1 
658.4 1.20516 10.0075 -0.000721703 -0.000216242 10.0075 0.289651 27 1 
659.2 1.20516 10.0034 -0.000703998 -0.000203484 10.0034 0.283501 27 1 
660 1.20514 10.0051 -0.000676132 -0.000179979 10.0051 0.25672 27 1 
660.8 1.20514 10.0075 -0.00067549 -0.000179988 10.0075 0.247322 27 1 
661.6 1.20515 10.0031 -0.000689879 -0.000190431 10.0031 0.273073 27 1 
662.4 1.20519 10.0076 -0.000685834 -0.000191472 10.0076 0.344483 27 1 
663.2 1.20514 10.0053 -0.000666266 -0.000177236 10.0053 0.248331 27 1 
664 1.20515 10.0055 -0.000639411 -0.000154364 10.0055 0.267577 27 1 
664.8 1.20517 10.0053 -0.000635541 -0.000153562 10.0053 0.300845 27 1 
665.6 1.20514 10.0048 -0.000655875 -0.000171947 10.0048 0.245293 27 1 
665.6 1.20514 10.0048 -0.000655875 -0.000171947 10.0048 0.245293 27 1 
666.4 1.20516 10.0078 -0.000659863 -0.000178728 10.0078 0.286977 27 1 
667.2 1.20516 10.0026 -0.000646158 -0.000169806 10.0026 0.28233 27 1 
668 1.20515 10.0066 -0.000632043 -0.000155517 10.0066 0.267185 27 1 
668.8 1.20512 10.0059 -0.000617168 -0.000144842 10.0059 0.221181 27 1 
669.6 1.20517 10.0043 -0.000614017 -0.000148883 10.0043 0.306424 27 1 
670.4 1.2052 10.0074 -0.000631204 -0.000163296 10.0074 0.357635 27 1 
671.2 1.20513 10.0047 -0.000643903 -0.000177419 10.0047 0.229375 27 1 
672 1.20514 10.0062 -0.000646485 -0.000186545 10.0062 0.259685 27 1 
672.8 1.20514 10.0031 -0.000636516 -0.000177513 10.0031 0.259498 27 1 
673.6 1.20513 10.0062 -0.000602038 -0.000147193 10.0062 0.232234 27 1 
674.4 1.20514 10.0063 -0.000576002 -0.000123619 10.0063 0.255107 27 1 
675.2 1.20517 10.0032 -0.000586114 -0.000132712 10.0032 0.30811 27 1 
676 1.20518 10.0086 -0.000603911 -0.000157732 10.0086 0.32975 27 1 
676.8 1.20513 10.0043 -0.000613809 -0.00016991 10.0043 0.237742 27 1 
677.6 1.20514 10.0049 -0.000611232 -0.000164381 10.0049 0.261771 27 1 
678.4 1.20512 10.005 -0.000580444 -0.000137519 10.005 0.219288 27 1 
678.4 1.20512 10.005 -0.000580444 -0.000137519 10.005 0.219288 27 1 
679.2 1.20512 10.0049 -0.00054275 -0.000106772 10.0049 0.22378 27 1 
680 1.20517 10.006 -0.000546596 -0.000113689 10.006 0.310269 27 1 
680.8 1.20514 10.0037 -0.000571099 -0.000133882 10.0037 0.254198 27 1 
681.6 1.20516 10.0086 -0.000574109 -0.000141507 10.0086 0.296389 27 1 
682.4 1.20515 10.0034 -0.000567784 -0.000138587 10.0034 0.279601 27 1 
683.2 1.20511 10.0045 -0.000559005 -0.00012666 10.0045 0.20094 27 1 
684 1.20511 10.0064 -0.00053882 -0.000114697 10.0064 0.204361 27 1 
684.8 1.20516 10.0033 -0.000525139 -0.000103169 10.0033 0.296596 27 1 
685.6 1.20515 10.0067 -0.000518418 -9.41444e-05 10.0067 0.26927 27 1 
686.4 1.20509 10.0042 -0.000505582 -8.93765e-05 10.0042 0.170687 27 1 
687.2 1.20518 10.0064 -0.00051581 -0.000101031 10.0064 0.327 27 1 
688 1.20515 10.0042 -0.000536379 -0.00012006 10.0042 0.264858 27 1 
688.8 1.2051 10.0055 -0.000538517 -0.000125981 10.0055 0.180256 27 1 
689.6 1.20516 10.0059 -0.000514429 -0.00010412 10.0059 0.289175 27 1 
690.4 1.20512 10.0024 -0.000479925 -7.09467e-05 10.0024 0.214406 27 1 
691.2 1.20509 10.0074 -0.00045812 -5.152e-05 10.0074 0.168555 27 1 
691.2 1.20509 10.0074 -0.00045812 -5.152e-05 10.0074 0.168555 27 1 
692 1.20515 10.0033 -0.000452413 -4.97236e-05 10.0033 0.267248 27 1 
692.8 1.20517 10.006 -0.000481254 -7.91876e-05 10.006 0.315768 27 1 
693.6 1.20511 10.0061 -0.000516647 -0.000115525 10.0061 0.193796 27 1 
694.4 1.20516 10.0045 -0.000510746 -0.000112978 10.0045 0.280888 27 1 
695.2 1.20514 10.0055 -0.000462049 -6.49787e-05 10.0055 0.259771 27 1 
696 1.20503 10.0023 -0.000414607 -1.82151e-05 10.0023 0.0552513 27 1 
696.8 1.20515 10.0062 -0.00041197 -2.02259e-05 10.0062 0.262458 27 1 
697.6 1.20518 10.0042 -0.000448184 -5.94567e-05 10.0042 0.333421 27 1 
698.4 1.20512 10.0074 -0.000487148 -9.50045e-05 10.0074 0.222676 27 1 
699.2 1.20513 10.0046 -0.00047982 -9.12413e-05 10.0046 0.237163 27 1 
700 1.20513 10.0035 -0.000442934 -5.97909e-05 10.0035 0.242908 27 1 
700.8 1.20509 10.0067 -0.000410434 -2.51321e-05 10.0067 0.16924 27 1 
701.6 1.2051 10.0014 -0.000387823 -4.38647e-06 10.0014 0.181451 27 1 
702.4 1.20514 10.0066 -0.000400581 -2.09623e-05 10.0066 0.261618 27 1 
703.2 1.20512 10.0053 -0.000438665 -5.88646e-05 10.0053 0.208885 27 1 
704 1.20517 10.0056 -0.0004639 -8.74294e-05 10.0056 0.314331 27 1 
704 1.20517 10.0056 -0.0004639 -8.74294e-05 10.0056 0.314331 27 1 
704.8 1.20513 10.0047 -0.000445813 -6.8926e-05 10.0047 0.235293 27 1 
705.6 1.20507 10.0041 -0.000396163 -2.06799e-05 10.0041 0.132857 27 1 
706.4 1.20512 10.0047 -0.000366756 5.00389e-06 10.0047 0.219344 27 1 
707.2 1.20509 10.0026 -0.000370983 5.08822e-07 10.0026 0.161744 27 1 
708 1.20514 10.0082 -0.000400375 -3.22734e-05 10.0082 0.260768 27 1 
708.8 1.20517 10.0032 -0.000424538 -5.47278e-05 10.0032 0.309296 27 1 
709.6 1.2051 10.0057 -0.000420061 -5.07707e-05 10.0057 0.183376 27 1 
710.4 1.20509 10.0049 -0.000399429 -3.51994e-05 10.0049 0.153894 27 1 
711.2 1.20514 10.0031 -0.000371363 -7.06634e-06 10.0031 0.257581 27 1 
712 1.20508 10.0058 -0.000350749 1.14525e-05 10.0058 0.151583 27 1 
712.8 1.20509 10.0029 -0.000356918 3.63238e-06 10.0029 0.15578 27 1 
713.6 1.2052 10.007 -0.000379523 -1.7331e-05 10.007 0.35718 27 1 
714.4 1.20509 10.004 -0.000385594 -2.62441e-05 10.004 0.171361 27 1 
715.2 1.20509 10.0053 -0.00037076 -1.70277e-05 10.0053 0.161449 27 1 
716 1.20512 10.003 -0.000353654 5.38301e-07 10.003 0.213203 27 1 
716.8 1.2051 10.0053 -0.000347875 9.56291e-06 10.0053 0.183544 27 1 
716.8 1.2051 10.0053 -0.000347875 9.56291e-06 10.0053 0.183544 31 1 
717.6 1.20513 10.0052 -0.000347075 7.72901e-06 10.0052 0.229505 31 1 
718.4 1.2051 10.0026 -0.000345677 5.38254e-06 10.0026 0.182067 31 1 
719.2 1.2051 10.0073 -0.00035438 -3.29664e-06 10.0073 0.187934 31 1 
720 1.20513 10.0025 -0.000349896 -1.53257e-06 10.0025 0.230258 31 1 
720.8 1.20512 10.0061 -0.000328796 1.64944e-05 10.0061 0.208278 31 1 
721.6 1.20507 10.0033 -0.000311354 3.62141e-05 10.0033 0.127439 31 1 
722.4 1.20513 10.0045 -0.000304723 3.92689e-05 10.0045 0.229164 31 1 
723.2 1.2051 10.0051 -0.000323623 1.4067e-05 10.0051 0.182591 31 1 
724 1.20511 10.0041 -0.000341241 -1.60428e-07 10.0041 0.196226 31 1 
724.8 1.20513 10.0053 -0.000328497 1.44516e-05 10.0053 0.237699 31 1 
725.6 1.20506 10.0028 -0.000305039 3.27677e-05 10.0028 0.112969 31 1 
726.4 1.20513 10.0064 -0.000297785 3.83661e-05 10.0064 0.233527 31 1 
727.2 1.2051 10.0024 -0.000296199 3.93019e-05 10.0024 0.189173 31 1 
728 1.20508 10.006 -0.000295725 3.51006e-05 10.006 0.148316 31 1 
728.8 1.20511 10.0031 -0.000300701 3.16488e-05 10.0031 0.19952 31 1 
729.6 1.20512 10.0052 -0.000291262 4.2066e-05 10.0052 0.212645 31 1 
729.6 1.20512 10.0052 -0.000291262 4.2066e-05 10.0052 0.212645 31 1 
730.4 1.20509 10.0048 -0.000278811 4.89587e-05 10.0048 0.168239 31 1 
731.2 1.20509 10.0027 -0.000282861 4.19006e-05 10.0027 0.170403 31 1 
732 1.2051 10.0062 -0.000294304 3.29572e-05 10.0062 0.184555 31 1 
732.8 1.20511 10.0026 -0.000286731 3.64672e-05 10.0026 0.191467 31 1 
733.6 1.2051 10.0056 -0.000267967 5.00781e-05 10.0056 0.182699 31 1 
734.4 1.20507 10.003 -0.000260766 6.16665e-05 10.003 0.11944 31 1 
735.2 1.20515 10.0058 -0.000257269 6.2828e-05 10.0058 0.278205 31 1 
736 1.20507 10.0031 -0.000268547 4.75282e-05 10.0031 0.133288 31 1 
736.8 1.20506 10.0043 -0.000275494 4.56195e-05 10.0043 0.103198 31 1 
737.6 1.20514 10.0043 -0.000259936 5.8632e-05 10.0043 0.253992 31 1 
738.4 1.2051 10.0045 -0.00024746 6.19851e-05 10.0045 0.180482 31 1 
739.2 1.20509 10.0049 -0.000251611 5.9256e-05 10.0049 0.153832 31 1 
740 1.20509 10.0018 -0.000257399 5.41716e-05 10.0018 0.154029 31 1 
740.8 1.20511 10.007 -0.000252264 5.33034e-05 10.007 0.190702 31 1 
741.6 1.2051 10.0019 -0.000248417 6.16121e-05 10.0019 0.17317 31 1 
742.4 1.20509 10.0055 -0.00023341 7.78444e-05 10.0055 0.156832 31 1 
742.4 1.20509 10.0055 -0.00023341 7.78444e-05 10.0055 0.156832 31 1 
743.2 1.20508 10.0033 -0.00022422 7.78972e-05 10.0033 0.152782 31 1 
744 1.20513 10.0049 -0.000235464 6.53757e-05 10.0049 0.236213 31 1 
744.8 1.20505 10.003 -0.000244503 6.04115e-05 10.003 0.0838241 31 1 
745.6 1.20509 10.0043 -0.000244696 5.59642e-05 10.0043 0.165016 31 1 
746.4 1.20514 10.005 -0.000232054 6.70738e-05 10.005 0.256021 31 1 
747.2 1.20507 10.0036 -0.000223036 7.77863e-05 10.0036 0.124301 31 1 
748 1.20507 10.0042 -0.000221463 7.51682e-05 10.0042 0.133272 31 1 
748.8 1.20508 10.0026 -0.000222192 7.03509e-05 10.0026 0.148258 31 1 
749.6 1.20512 10.0063 -0.000226159 6.96011e-05 10.0063 0.210027 31 1 
750.4 1.20508 10.0021 -0.000221314 7.59379e-05 10.0021 0.145105 31 1 
751.2 1.20509 10.0057 -0.000217554 7.36994e-05 10.0057 0.168501 31 1 
752 1.2051 10.0025 -0.000218385 7.21386e-05 10.0025 0.173994 31 1 
752.8 1.20507 10.0047 -0.000213088 7.73342e-05 10.0047 0.130738 31 1 
753.6 1.20507 10.0028 -0.000211093 7.58175e-05 10.0028 0.120404 31 1 
754.4 1.20513 10.0054 -0.000213291 7.36989e-05 10.0054 0.242954 31 1 
755.2 1.20509 10.0042 -0.00021178 7.60163e-05 10.0042 0.168736 31 1 
755.2 1.20509 10.0042 -0.00021178 7.60163e-05 10.0042 0.168736 31 1 
756 1.20505 10.0025 -0.000207777 7.86636e-05 10.0025 0.0922791 31 1 
756.8 1.20507 10.004 -0.000207079 7.74699e-05 10.004 0.120864 31 1 
757.6 1.20512 10.004 -0.000210407 7.54224e-05 10.004 0.214376 31 1 
758.4 1.20511 10.0049 -0.000208639 7.7716e-05 10.0049 0.195067 31 1 
759.2 1.20504 10.0026 -0.000205721 7.5484e-05 10.0026 0.0803739 31 1 
760 1.20511 10.0049 -0.000201584 7.57108e-05 10.0049 0.203549 31 1 
760.8 1.20508 10.0028 -0.000192231 8.5226e-05 10.0028 0.137284 31 1 
761.6 1.20507 10.0047 -0.000194116 8.26442e-05 10.0047 0.122092 31 1 
762.4 1.2051 10.0026 -0.000206251 7.0167e-05 10.0026 0.184337 31 1 
763.2 1.2051 10.0059 -0.000210062 6.66881e-05 10.0059 0.188301 31 1 
764 1.20507 10.0021 -0.000204363 6.83203e-05 10.0021 0.121488 31 1 
764.8 1.20506 10.0037 -0.000192134 7.93539e-05 10.0037 0.101337 31 1 
765.6 1.2051 10.004 -0.000183518 9.20252e-05 10.004 0.178289 31 1 
766.4 1.20513 10.0044 -0.000192818 7.83823e-05 10.0044 0.232731 31 1 
767.2 1.20502 10.0029 -0.00020914 5.85211e-05 10.0029 0.0398267 31 1 
768 1.20508 10.0034 -0.000208853 6.16803e-05 10.0034 0.14458 31 1 
768 1.20508 10.0034 -0.000208853 6.16803e-05 10.0034 0.14458 31 1 
768.8 1.20514 10.0048 -0.000191595 7.51586e-05 10.0048 0.252666 31 1 
769.6 1.20507 10.0037 -0.000181337 8.20741e-05 10.0037 0.128274 31 1 
770.4 1.20505 10.0022 -0.000184798 8.22721e-05 10.0022 0.0814207 31 1 
771.2 1.20507 10.0039 -0.000199486 6.71601e-05 10.0039 0.129273 31 1 
772 1.20514 10.0051 -0.000207343 5.33456e-05 10.0051 0.259149 31 1 
772.8 1.20507 10.0028 -0.000190272 7.11636e-05 10.0028 0.121725 31 1 
773.6 1.20503 10.0034 -0.000173602 8.87453e-05 10.0034 0.0587686 31 1 
774.4 1.20512 10.0032 -0.0001774 8.06596e-05 10.0032 0.21907 31 1 
775.2 1.20509 10.0049 -0.000201636 5.70888e-05 10.0049 0.164012 31 1 
776 1.20506 10.0025 -0.000212698 4.67673e-05 10.0025 0.108216 31 1 
776.8 1.2051 10.0041 -0.00019135 6.28555e-05 10.0041 0.174674 31 1 
777.6 1.2051 10.0039 -0.00017352 8.03088e-05 10.0039 0.174306 31 1 
778.4 1.20507 10.0029 -0.000177312 7.93188e-05 10.0029 0.130473 31 1 
779.2 1.20503 10.0028 -0.000195992 5.87573e-05 10.0028 0.0598534 31 1 
780 1.20514 10.0048 -0.000203613 5.03549e-05 10.0048 0.249323 31 1 
780.8 1.20511 10.004 -0.000190412 6.58493e-05 10.004 0.205925 31 1 
781.6 1.20503 10.0029 -0.000175366 7.73839e-05 10.0029 0.0461534 31 1 
782.4 1.20508 10.0025 -0.000177386 7.27288e-05 10.0025 0.136225 31 1 
783.2 1.20512 10.0051 -0.00019732 5.41424e-05 10.0051 0.215272 31 1 
784 1.2051 10.0034 -0.000206737 4.13621e-05 10.0034 0.178447 31 1 
784 1.2051 10.0034 -0.000206737 4.13621e-05 10.0034 0.178447 31 1 
784.8 1.20504 10.0029 -0.0001949 4.65448e-05 10.0029 0.0752179 31 1 
785.6 1.20509 10.0039 -0.000178381 6.84158e-05 10.0039 0.167109 31 1 
786.4 1.20513 10.0042 -0.000174113 7.64933e-05 10.0042 0.232087 31 1 
787.2 1.20504 10.003 -0.000183401 5.81132e-05 10.003 0.0649523 31 1 
788 1.20508 10.0031 -0.000190184 5.04059e-05 10.0031 0.136855 31 1 
788.8 1.20513 10.005 -0.000191834 5.26104e-05 10.005 0.229741 31 1 
789.6 1.2051 10.0039 -0.000192209 5.08789e-05 10.0039 0.172746 31 1 
790.4 1.20503 10.0019 -0.000195791 4.43709e-05 10.0019 0.0604198 31 1 
791.2 1.20508 10.004 -0.000196838 4.19912e-05 10.004 0.148918 31 1 
792 1.20517 10.005 -0.000187686 4.75869e-05 10.005 0.302651 31 1 
792.8 1.20505 10.0033 -0.000184932 4.62458e-05 10.0033 0.090468 31 1 
793.6 1.20503 10.0021 -0.000188455 5.01982e-05 10.0021 0.0459069 31 1 
794.4 1.20514 10.0046 -0.000186823 5.17259e-05 10.0046 0.250369 31 1 
795.2 1.20514 10.0051 -0.000186124 4.59642e-05 10.0051 0.245155 31 1 
796 1.20503 10.002 -0.000196157 3.78613e-05 10.002 0.0588494 31 1 
796.8 1.20503 10.0029 -0.00019495 3.58415e-05 10.0029 0.0528695 31 1 
797.6 1.20518 10.0056 -0.000189545 3.98697e-05 10.0056 0.321332 31 1 
798.4 1.20512 10.0048 -0.000198205 3.84719e-05 10.0048 0.222841 31 1 
799.2 1.205 10.0021 -0.000193058 4.46324e-05 10.0021 -0.00823309 31 1 
800 1.205 10.0007 -0.000187145 4.95297e-05 10.0007 0.0045639 31 1 
