99.6212;r ;Density                 ;Velocity u              ;Velocity v              ;Velocity w              ;|Velocity|              ;Pressure                ;Distribution            ;Levels                  ;
0 1.21235 10.0021 -0.000247269 -0.00118186 10.0021 13.2723 1 1 
1.33334 1.21235 10.0033 -0.000216668 -0.00258216 10.0033 13.2789 1 1 
2.66666 1.21234 10.0057 -0.000139111 -0.00522778 10.0057 13.2649 1 1 
4 1.21235 10.0086 -0.000125831 -0.00781805 10.0086 13.2671 1 1 
5.33334 1.21233 10.0116 -0.000140852 -0.00932617 10.0116 13.2374 1 1 
6.66666 1.21227 10.0144 -8.55152e-05 -0.00979701 10.0144 13.1333 1 1 
8 1.21222 10.0177 -6.72639e-05 -0.0104447 10.0177 13.0479 1 1 
9.33334 1.21214 10.0207 -1.90714e-05 -0.00981807 10.0207 12.9023 1 1 
10.6667 1.21204 10.0237 8.51417e-05 -0.00861612 10.0238 12.712 1 1 
12 1.21195 10.0272 0.000137853 -0.00743549 10.0273 12.5496 1 1 
13.3333 1.21182 10.0304 0.000243729 -0.0048577 10.0304 12.3179 1 1 
14.6667 1.21169 10.0336 0.000360605 -0.0022918 10.0336 12.0757 1 1 
16 1.21157 10.0372 0.000405528 0.000311448 10.0372 11.8702 1 1 
17.3333 1.21144 10.0404 0.000495886 0.00390514 10.0405 11.6239 1 1 
18.6667 1.21131 10.0439 0.000552979 0.00694761 10.044 11.4062 1 1 
20 1.2112 10.0474 0.000545906 0.0101981 10.0474 11.2011 1 1 
21.3333 1.21108 10.0506 0.000559718 0.0138502 10.0507 10.982 1 1 
21.3333 1.21108 10.0506 0.000559718 0.0138502 10.0507 10.982 1 1 
22.6667 1.211 10.0543 0.000489603 0.0165886 10.0543 10.8389 1 1 
24 1.21092 10.0576 0.000390223 0.0196476 10.0576 10.6949 1 1 
25.3333 1.21084 10.0606 0.000298088 0.0223907 10.0607 10.5536 1 1 
26.6667 1.21082 10.0641 8.78808e-05 0.0240142 10.0641 10.5091 1 1 
28 1.21079 10.0671 -0.000122763 0.025971 10.0672 10.4667 1 1 
29.3333 1.21078 10.0699 -0.000334318 0.0271427 10.07 10.4415 1 1 
30.6667 1.2108 10.0728 -0.000651084 0.0273739 10.0729 10.485 1 1 
32 1.21083 10.0754 -0.000960001 0.0277428 10.0755 10.534 1 1 
33.3333 1.21089 10.0781 -0.00129728 0.0269255 10.0782 10.6357 1 1 
34.6667 1.21095 10.0806 -0.00168892 0.025723 10.0807 10.7557 1 1 
36 1.21101 10.0826 -0.00204042 0.0245513 10.0826 10.848 1 1 
37.3333 1.2111 10.0849 -0.00244551 0.0220754 10.085 11.0117 1 1 
38.6667 1.21119 10.087 -0.00287004 0.0196311 10.0871 11.1803 1 1 
40 1.21126 10.0886 -0.00323676 0.0170927 10.0886 11.3079 1 1 
41.3333 1.21135 10.0903 -0.00364735 0.0135844 10.0903 11.4731 1 1 
42.6667 1.21144 10.0917 -0.0040373 0.010459 10.0918 11.6276 1 1 
42.6667 1.21144 10.0917 -0.0040373 0.010459 10.0918 11.6276 2 1 
44 1.21152 10.093 -0.00438061 0.00687437 10.0931 11.7787 2 1 
45.3333 1.21161 10.0944 -0.00474483 0.00273324 10.0944 11.9394 2 1 
46.6667 1.21167 10.0952 -0.00504224 -0.00065645 10.0952 12.0398 2 1 
48 1.21173 10.0961 -0.00530996 -0.00459018 10.0961 12.1548 2 1 
49.3333 1.2118 10.0971 -0.00559402 -0.00859413 10.0972 12.278 2 1 
50.6667 1.21182 10.0977 -0.00578332 -0.0117103 10.0977 12.3175 2 1 
52 1.21184 10.0983 -0.00594974 -0.0151533 10.0983 12.3484 2 1 
53.3333 1.21184 10.099 -0.00610569 -0.0179562 10.099 12.3546 2 1 
54.6667 1.21181 10.0995 -0.00617477 -0.0200349 10.0996 12.3034 2 1 
56 1.21178 10.1002 -0.00623823 -0.022147 10.1002 12.2481 2 1 
57.3333 1.21171 10.1005 -0.0062436 -0.0229311 10.1006 12.1211 2 1 
58.6667 1.21162 10.1009 -0.00616979 -0.0231364 10.101 11.9596 2 1 
60 1.21155 10.1016 -0.00610901 -0.023207 10.1017 11.8251 2 1 
61.3333 1.21143 10.102 -0.0059775 -0.0218992 10.1021 11.619 2 1 
62.6667 1.2113 10.1024 -0.00579804 -0.020291 10.1025 11.388 2 1 
64 1.21119 10.1028 -0.00564658 -0.0183262 10.1029 11.181 2 1 
64 1.21119 10.1028 -0.00564658 -0.0183262 10.1029 11.181 2 1 
65.3333 1.21105 10.1033 -0.00543975 -0.0151827 10.1034 10.9344 2 1 
66.6667 1.21092 10.1039 -0.00522987 -0.0121281 10.104 10.7005 2 1 
68 1.21079 10.1043 -0.00503907 -0.00859877 10.1043 10.4621 2 1 
69.3333 1.21064 10.1047 -0.00479841 -0.00422924 10.1048 10.1953 2 1 
70.6667 1.21053 10.1054 -0.0045913 -0.000283915 10.1055 9.99045 2 1 
72 1.21042 10.106 -0.00439524 0.00413353 10.1061 9.78292 2 1 
73.3333 1.21029 10.1065 -0.00416932 0.00874669 10.1065 9.56311 2 1 
74.6667 1.21021 10.107 -0.00399508 0.0129415 10.1071 9.40955 2 1 
76 1.21013 10.1078 -0.00382182 0.0175178 10.1078 9.2672 2 1 
77.3333 1.21008 10.1083 -0.00367008 0.0212449 10.1084 9.17241 2 1 
78.6667 1.21005 10.1089 -0.00359482 0.0246045 10.1089 9.12726 2 1 
80 1.21002 10.1094 -0.00351148 0.0282774 10.1095 9.07241 2 1 
81.3333 1.21004 10.1099 -0.00349226 0.0305552 10.11 9.10464 2 1 
82.6667 1.21009 10.1105 -0.00356197 0.032375 10.1106 9.18723 2 1 
84 1.21012 10.1107 -0.00361694 0.0342628 10.1108 9.24499 2 1 
85.3333 1.21019 10.1109 -0.0037494 0.0347396 10.1111 9.3737 2 1 
85.3333 1.21019 10.1109 -0.0037494 0.0347396 10.1111 9.3737 3 1 
86.6667 1.21028 10.1113 -0.00396544 0.034762 10.1114 9.54409 3 1 
88 1.21038 10.1114 -0.00418091 0.0345946 10.1115 9.71009 3 1 
89.3333 1.21049 10.1115 -0.00446403 0.0332558 10.1116 9.91734 3 1 
90.6667 1.21061 10.1113 -0.00480095 0.031703 10.1114 10.1326 3 1 
92 1.21074 10.111 -0.00515468 0.0296407 10.1111 10.3637 3 1 
93.3333 1.21088 10.111 -0.00555709 0.0268168 10.1111 10.6148 3 1 
94.6667 1.211 10.1105 -0.00597575 0.0238962 10.1105 10.8385 3 1 
96 1.21113 10.11 -0.00643175 0.0203423 10.11 11.0718 3 1 
97.3333 1.21125 10.1096 -0.00690943 0.0167296 10.1096 11.2976 3 1 
98.6667 1.21136 10.109 -0.00736311 0.0130913 10.1091 11.4846 3 1 
100 1.21146 10.1084 -0.00786072 0.00895293 10.1084 11.6729 3 1 
101.333 1.21154 10.1074 -0.00834094 0.00554181 10.1075 11.8078 3 1 
102.667 1.21159 10.1066 -0.00876603 0.00219332 10.1066 11.8956 3 1 
104 1.21164 10.1059 -0.00922711 -0.00145779 10.1059 11.9979 3 1 
105.333 1.21166 10.1047 -0.0096265 -0.00392462 10.1048 12.0274 3 1 
106.667 1.21164 10.104 -0.00994519 -0.00638191 10.104 11.9999 3 1 
106.667 1.21164 10.104 -0.00994519 -0.00638191 10.104 11.9999 3 1 
108 1.21164 10.1036 -0.0102915 -0.00894966 10.1036 11.9848 3 1 
109.333 1.21159 10.1025 -0.0105613 -0.0101743 10.1025 11.9114 3 1 
110.667 1.21153 10.1018 -0.0107518 -0.0114675 10.1019 11.7873 3 1 
112 1.21146 10.1013 -0.0109519 -0.0124054 10.1013 11.661 3 1 
113.333 1.21137 10.1 -0.0110541 -0.0120515 10.1001 11.4983 3 1 
114.667 1.21126 10.0998 -0.0110887 -0.0119103 10.0998 11.3011 3 1 
116 1.21114 10.0996 -0.0111106 -0.0111972 10.0997 11.0985 3 1 
117.333 1.21102 10.0984 -0.0110173 -0.00941987 10.0985 10.8822 3 1 
118.667 1.2109 10.0984 -0.0108818 -0.00781156 10.0984 10.6504 3 1 
120 1.21077 10.0984 -0.0107344 -0.00551415 10.0984 10.4221 3 1 
121.333 1.21065 10.0974 -0.0104914 -0.0025422 10.0974 10.2126 3 1 
122.667 1.21053 10.0974 -0.0102321 0.000104063 10.0974 9.99666 3 1 
124 1.21042 10.0974 -0.00996472 0.00327546 10.0974 9.78677 3 1 
125.333 1.21034 10.0964 -0.00964684 0.00648985 10.0965 9.63946 3 1 
126.667 1.21026 10.0966 -0.00933913 0.00946009 10.0966 9.49583 3 1 
128 1.21018 10.0968 -0.00902805 0.0128254 10.0968 9.34951 3 1 
128 1.21018 10.0968 -0.00902805 0.0128254 10.0968 9.34951 3 1 
129.333 1.21014 10.0961 -0.00869902 0.016088 10.0962 9.28519 3 1 
130.667 1.21011 10.0961 -0.00840059 0.0190866 10.0961 9.23529 3 1 
132 1.21009 10.0962 -0.00811264 0.0219974 10.0962 9.1876 3 1 
133.333 1.21011 10.0953 -0.00784368 0.0244342 10.0954 9.22493 3 1 
134.667 1.21013 10.0949 -0.00762232 0.0265937 10.095 9.2738 3 1 
136 1.21016 10.095 -0.00743389 0.0285546 10.0951 9.31826 3 1 
137.333 1.21023 10.0944 -0.00731103 0.0300665 10.0944 9.45248 3 1 
138.667 1.21032 10.0935 -0.00724342 0.0314067 10.0936 9.60232 3 1 
140 1.21038 10.0934 -0.00722713 0.0323519 10.0935 9.72114 3 1 
141.333 1.21049 10.0924 -0.00728954 0.0325897 10.0925 9.91643 3 1 
142.667 1.21061 10.0912 -0.00740528 0.0324881 10.0913 10.1283 3 1 
144 1.21069 10.0912 -0.00757605 0.0319681 10.0912 10.2848 3 1 
145.333 1.21081 10.0899 -0.00780097 0.0312326 10.09 10.5003 3 1 
146.667 1.21094 10.0883 -0.00808659 0.0302233 10.0884 10.7258 3 1 
148 1.21102 10.0883 -0.00843172 0.0289813 10.0884 10.8758 3 1 
149.333 1.21113 10.087 -0.0088272 0.0273605 10.087 11.0683 3 1 
149.333 1.21113 10.087 -0.0088272 0.0273605 10.087 11.0683 3 1 
150.667 1.21123 10.0852 -0.00926752 0.025441 10.0853 11.2512 3 1 
152 1.21128 10.0849 -0.00974591 0.0236521 10.0849 11.3516 3 1 
153.333 1.21136 10.0832 -0.0102602 0.0215909 10.0833 11.493 3 1 
154.667 1.21143 10.0816 -0.0107896 0.019824 10.0816 11.6092 3 1 
156 1.21144 10.0812 -0.0113213 0.0180239 10.0812 11.639 3 1 
157.333 1.21147 10.0796 -0.011855 0.0160622 10.0796 11.6883 3 1 
158.667 1.21149 10.0781 -0.0123795 0.0144562 10.0781 11.7186 3 1 
160 1.21147 10.0773 -0.0128988 0.012568 10.0773 11.6831 3 1 
161.333 1.21144 10.076 -0.0133884 0.0111842 10.076 11.6376 3 1 
162.667 1.21141 10.0746 -0.013857 0.0100917 10.0747 11.5816 3 1 
164 1.21135 10.0739 -0.0142963 0.00905323 10.0739 11.4754 3 1 
165.333 1.21129 10.0728 -0.0146896 0.00845095 10.0728 11.361 3 1 
166.667 1.21123 10.0712 -0.0150459 0.00795555 10.0712 11.2593 3 1 
168 1.21115 10.0702 -0.0153465 0.0075705 10.0703 11.1069 3 1 
169.333 1.21106 10.0693 -0.015598 0.0077629 10.0694 10.9499 3 1 
170.667 1.21099 10.068 -0.0157898 0.00792045 10.0681 10.8258 3 1 
170.667 1.21099 10.068 -0.0157898 0.00792045 10.0681 10.8258 11 1 
172 1.21091 10.0674 -0.0159242 0.00829074 10.0674 10.6754 11 1 
173.333 1.21083 10.0663 -0.0160073 0.00906353 10.0664 10.5327 11 1 
174.667 1.21077 10.065 -0.0160438 0.00948569 10.065 10.4211 11 1 
176 1.2107 10.0642 -0.0160334 0.0102351 10.0642 10.2995 11 1 
177.333 1.21064 10.063 -0.0159776 0.0112585 10.063 10.1958 11 1 
178.667 1.2106 10.0617 -0.0158738 0.0123414 10.0617 10.1208 11 1 
180 1.21057 10.0605 -0.0157311 0.013661 10.0605 10.0604 11 1 
181.333 1.21055 10.0593 -0.0155737 0.0147719 10.0593 10.0259 11 1 
182.667 1.21054 10.0582 -0.0153838 0.0157118 10.0582 10.0034 11 1 
184 1.21054 10.0567 -0.0151737 0.0164011 10.0567 10.0056 11 1 
185.333 1.21055 10.0551 -0.0149469 0.0172824 10.0551 10.028 11 1 
186.667 1.21057 10.0535 -0.0147111 0.0182685 10.0535 10.069 11 1 
188 1.21061 10.0517 -0.0144809 0.0191147 10.0518 10.138 11 1 
189.333 1.21065 10.0504 -0.0142593 0.0201823 10.0505 10.207 11 1 
190.667 1.2107 10.0488 -0.0140371 0.021123 10.0489 10.29 11 1 
192 1.21075 10.0468 -0.0138361 0.0217234 10.0468 10.3874 11 1 
192 1.21075 10.0468 -0.0138361 0.0217234 10.0468 10.3874 11 1 
193.333 1.21081 10.0446 -0.0136602 0.0224627 10.0447 10.4869 11 1 
194.667 1.21087 10.0421 -0.0134803 0.0230591 10.0421 10.5998 11 1 
196 1.21093 10.0395 -0.0133521 0.023221 10.0396 10.703 11 1 
197.333 1.21097 10.0373 -0.0132643 0.0239925 10.0374 10.784 11 1 
198.667 1.21103 10.035 -0.0131931 0.0244305 10.035 10.887 11 1 
200 1.21109 10.0327 -0.0132057 0.0248838 10.0327 10.9914 11 1 
201.333 1.21113 10.0306 -0.0132418 0.0263029 10.0306 11.0658 11 1 
202.667 1.21117 10.0278 -0.0133294 0.0270533 10.0279 11.1451 11 1 
204 1.2112 10.0245 -0.0134818 0.0274593 10.0245 11.2048 11 1 
205.333 1.21122 10.0207 -0.0136462 0.0279594 10.0207 11.2399 11 1 
206.667 1.21125 10.0169 -0.013853 0.0279075 10.017 11.2829 11 1 
208 1.21127 10.0139 -0.01413 0.028745 10.014 11.3239 11 1 
209.333 1.21128 10.011 -0.0144308 0.0298297 10.0111 11.3514 11 1 
210.667 1.21129 10.0081 -0.014765 0.0304376 10.0081 11.3595 11 1 
212 1.21129 10.005 -0.0151402 0.0314859 10.0051 11.3577 11 1 
213.333 1.2113 10.0006 -0.0155319 0.032299 10.0006 11.386 11 1 
213.333 1.2113 10.0006 -0.0155319 0.032299 10.0006 11.386 11 1 
214.667 1.2113 9.99644 -0.0159375 0.0323209 9.99651 11.3855 11 1 
216 1.21129 9.99235 -0.0163908 0.0326446 9.99242 11.3666 11 1 
217.333 1.21132 9.98658 -0.0168987 0.0333671 9.98665 11.4066 11 1 
218.667 1.2113 9.9827 -0.0173951 0.0331888 9.98277 11.3821 11 1 
220 1.21131 9.97797 -0.0179098 0.0343798 9.97805 11.3913 11 1 
221.333 1.21135 9.97249 -0.0184098 0.0354286 9.97257 11.4612 11 1 
222.667 1.21134 9.96914 -0.0188769 0.034085 9.96922 11.4541 11 1 
224 1.21137 9.96268 -0.0193249 0.0339041 9.96276 11.5079 11 1 
225.333 1.21139 9.95687 -0.0197756 0.0336132 9.95695 11.5416 11 1 
226.667 1.21141 9.95088 -0.020261 0.0330009 9.95095 11.5849 11 1 
228 1.21148 9.94236 -0.0207238 0.0339483 9.94244 11.6991 11 1 
229.333 1.21149 9.93746 -0.0211174 0.0337758 9.93754 11.7176 11 1 
230.667 1.21155 9.92994 -0.0214387 0.0325183 9.93001 11.8396 11 1 
232 1.21162 9.92188 -0.0216947 0.031627 9.92196 11.949 11 1 
233.333 1.21163 9.91597 -0.0219654 0.0312109 9.91604 11.9697 11 1 
234.667 1.21173 9.90568 -0.0222304 0.0305304 9.90575 12.1631 11 1 
234.667 1.21173 9.90568 -0.0222304 0.0305304 9.90575 12.1631 11 1 
236 1.2118 9.89673 -0.0224217 0.0304516 9.89681 12.2841 11 1 
237.333 1.21183 9.88794 -0.0225596 0.0305531 9.88802 12.3429 11 1 
238.667 1.21193 9.87673 -0.0226131 0.0303066 9.8768 12.5129 11 1 
240 1.21201 9.86684 -0.0226527 0.0300187 9.86691 12.6541 11 1 
241.333 1.21207 9.85637 -0.0227564 0.029665 9.85645 12.7685 11 1 
242.667 1.21217 9.84442 -0.0228023 0.0296893 9.8445 12.9456 11 1 
244 1.21226 9.83126 -0.0227251 0.0302666 9.83134 13.117 11 1 
245.333 1.21231 9.81762 -0.0226462 0.0325425 9.8177 13.2102 11 1 
246.667 1.2124 9.80325 -0.0225884 0.0341198 9.80334 13.3754 11 1 
248 1.21253 9.78803 -0.0225615 0.03416 9.78812 13.6054 11 1 
249.333 1.21262 9.77273 -0.0225526 0.0359188 9.77282 13.7596 11 1 
250.667 1.21271 9.75556 -0.0224629 0.0385775 9.75566 13.9332 11 1 
252 1.21283 9.73691 -0.0223993 0.0407409 9.73702 14.1467 11 1 
253.333 1.21294 9.71705 -0.02242 0.0454968 9.71719 14.3473 11 1 
254.667 1.21305 9.69618 -0.0224468 0.0494223 9.69633 14.5489 11 1 
256 1.2132 9.67417 -0.0224648 0.0523851 9.67434 14.8086 11 1 
256 1.2132 9.67417 -0.0224648 0.0523851 9.67434 14.8086 13 1 
257.333 1.21335 9.64994 -0.0225064 0.0577613 9.65014 15.0887 13 1 
258.667 1.21349 9.62402 -0.0225898 0.0627246 9.62426 15.3296 13 1 
260 1.21364 9.59704 -0.0227657 0.0683497 9.59732 15.6013 13 1 
261.333 1.21383 9.56707 -0.0229409 0.0751362 9.5674 15.9563 13 1 
262.667 1.21404 9.534 -0.02314 0.0826398 9.53439 16.3361 13 1 
264 1.21421 9.50204 -0.0234147 0.0899503 9.5025 16.6427 13 1 
265.333 1.21446 9.46432 -0.0237169 0.0994407 9.46488 17.0856 13 1 
266.667 1.21474 9.4221 -0.0240205 0.109333 9.42278 17.5855 13 1 
268 1.21494 9.38224 -0.0243368 0.120008 9.38306 17.9604 13 1 
269.333 1.21527 9.33403 -0.0247087 0.133453 9.33503 18.5537 13 1 
270.667 1.21563 9.28064 -0.0250739 0.147409 9.28187 19.1976 13 1 
272 1.21585 9.23062 -0.0254224 0.162773 9.23212 19.6052 13 1 
273.333 1.21627 9.16956 -0.0257875 0.179954 9.17139 20.3514 13 1 
274.667 1.21672 9.10447 -0.0261869 0.202808 9.1068 21.1622 13 1 
276 1.217 9.04606 -0.0265523 0.231465 9.0491 21.6764 13 1 
277.333 1.21755 8.97194 -0.0269359 0.262843 8.97588 22.6673 13 1 
277.333 1.21755 8.97194 -0.0269359 0.262843 8.97588 22.6673 13 1 
278.667 1.21806 8.89101 -0.0272667 0.299053 8.89615 23.5968 13 1 
280 1.21838 8.81288 -0.027491 0.335042 8.81938 24.1664 13 1 
281.333 1.21898 8.72104 -0.0277431 0.377268 8.72936 25.2432 13 1 
282.667 1.21958 8.62861 -0.0279439 0.42985 8.63948 26.3281 13 1 
284 1.21997 8.54264 -0.0281202 0.489914 8.55688 27.0447 13 1 
285.333 1.22059 8.44091 -0.0283094 0.54747 8.45885 28.1587 13 1 
286.667 1.22118 8.3364 -0.0284518 0.619966 8.35977 29.2171 13 1 
288 1.22148 8.24378 -0.0285353 0.703855 8.27402 29.7729 13 1 
289.333 1.22213 8.14314 -0.0286071 0.785546 8.18128 30.936 13 1 
290.667 1.22284 8.0336 -0.0285939 0.890159 8.08324 32.2298 13 1 
292 1.223 7.93508 -0.0284649 0.985107 7.9964 32.5127 13 1 
293.333 1.22348 7.82114 -0.0283298 1.09087 7.89765 33.3759 13 1 
294.667 1.22433 7.69813 -0.0282433 1.22705 7.79619 34.9181 13 1 
296 1.22422 7.61221 -0.0280521 1.39225 7.73958 34.7098 13 1 
297.333 1.2226 7.29107 -0.0276384 1.1953 7.3956 31.7972 13 1 
298.667 1.21789 6.54197 -0.0273272 0.35742 6.58211 23.2839 13 1 
298.667 1.21789 6.54197 -0.0273272 0.35742 6.58211 23.2839 14 1 
300 1.2115 5.71334 -0.0271636 -0.755695 5.81027 11.7402 14 1 
301.333 1.2072 5.17809 -0.0269925 -1.63387 5.44867 3.96668 14 1 
302.667 1.20473 4.96501 -0.0268895 -1.87226 5.30699 -0.483462 14 1 
304 1.20392 4.83297 -0.0266288 -1.76139 5.14448 -1.95201 14 1 
305.333 1.20412 4.66786 -0.0261972 -1.60552 4.93776 -1.59155 14 1 
306.667 1.20418 4.55098 -0.025755 -1.41058 4.76557 -1.47417 14 1 
308 1.20469 4.48783 -0.0253236 -1.31299 4.67627 -0.55174 14 1 
309.333 1.20501 4.44202 -0.0250996 -1.21305 4.60555 0.0171597 14 1 
310.667 1.20502 4.37629 -0.0249103 -1.10203 4.51331 0.0388528 14 1 
312 1.20539 4.29451 -0.0245075 -1.03566 4.41812 0.701806 14 1 
313.333 1.20561 4.23297 -0.0240423 -0.936666 4.33597 1.1036 14 1 
314.667 1.20579 4.17696 -0.0235555 -0.852069 4.26323 1.4263 14 1 
316 1.20615 4.10324 -0.0230452 -0.78787 4.17855 2.07264 14 1 
317.333 1.20635 4.01276 -0.0225372 -0.716423 4.0765 2.4301 14 1 
318.667 1.20645 3.91716 -0.0220006 -0.655173 3.97182 2.62537 14 1 
320 1.2067 3.83298 -0.021485 -0.605181 3.88064 3.07547 14 1 
320 1.2067 3.83298 -0.021485 -0.605181 3.88064 3.07547 14 1 
321.333 1.20696 3.75985 -0.0209662 -0.557914 3.80124 3.54612 14 1 
322.667 1.20711 3.6785 -0.0204738 -0.512661 3.71426 3.80723 14 1 
324 1.20725 3.58391 -0.0199991 -0.479048 3.61599 4.05605 14 1 
325.333 1.20743 3.4928 -0.0195049 -0.448238 3.5216 4.38277 14 1 
326.667 1.20758 3.41567 -0.0190169 -0.420047 3.44154 4.66818 14 1 
328 1.20771 3.34605 -0.0185143 -0.398027 3.36977 4.90159 14 1 
329.333 1.20785 3.27314 -0.0180436 -0.378191 3.29505 5.15296 14 1 
330.667 1.20798 3.1956 -0.0175595 -0.359539 3.21589 5.3808 14 1 
332 1.20807 3.12073 -0.0170439 -0.344134 3.13976 5.55154 14 1 
333.333 1.20817 3.0554 -0.0165233 -0.328982 3.07316 5.73465 14 1 
334.667 1.2083 2.9984 -0.0159834 -0.314176 3.01492 5.95212 14 1 
336 1.2084 2.94 -0.0154762 -0.298729 2.95524 6.13406 14 1 
337.333 1.20847 2.87724 -0.015007 -0.284883 2.89141 6.26023 14 1 
338.667 1.20854 2.81769 -0.0145427 -0.273934 2.83107 6.39674 14 1 
340 1.20863 2.76731 -0.0140753 -0.266069 2.78016 6.56519 14 1 
341.333 1.20872 2.72382 -0.0136057 -0.263085 2.73657 6.71954 14 1 
341.333 1.20872 2.72382 -0.0136057 -0.263085 2.73657 6.71954 15 1 
342.667 1.20878 2.67942 -0.0131243 -0.264057 2.69248 6.83458 15 1 
344 1.20884 2.63274 -0.012632 -0.267066 2.64633 6.93293 15 1 
345.333 1.2089 2.59091 -0.0121244 -0.271751 2.60521 7.04363 15 1 
346.667 1.20896 2.55691 -0.0116037 -0.276583 2.57191 7.15749 15 1 
348 1.20902 2.52533 -0.0111 -0.28099 2.54099 7.2558 15 1 
349.333 1.20906 2.49122 -0.0106274 -0.284559 2.50749 7.33322 15 1 
350.667 1.20909 2.457 -0.0101713 -0.287237 2.4738 7.39504 15 1 
352 1.20913 2.4272 -0.00973925 -0.28846 2.44436 7.46475 15 1 
353.333 1.20918 2.40104 -0.00936644 -0.28739 2.41826 7.54783 15 1 
354.667 1.20922 2.37426 -0.00908516 -0.284254 2.39129 7.61613 15 1 
356 1.20924 2.34518 -0.00888939 -0.279375 2.36183 7.65685 15 1 
357.333 1.20926 2.31616 -0.00875268 -0.272379 2.33219 7.70094 15 1 
358.667 1.2093 2.28959 -0.00868381 -0.263043 2.30472 7.77003 15 1 
360 1.20934 2.26367 -0.0087083 -0.251532 2.27767 7.83626 15 1 
361.333 1.20936 2.23517 -0.00882982 -0.238244 2.2479 7.88186 15 1 
362.667 1.20939 2.20444 -0.00902802 -0.223383 2.21578 7.92902 15 1 
362.667 1.20939 2.20444 -0.00902802 -0.223383 2.21578 7.92902 15 1 
364 1.20942 2.17369 -0.00928833 -0.207241 2.1836 7.98922 15 1 
365.333 1.20946 2.14331 -0.00961825 -0.189845 2.15176 8.05113 15 1 
366.667 1.20949 2.11188 -0.0100168 -0.171404 2.11888 8.1121 15 1 
368 1.20953 2.07824 -0.0104679 -0.152497 2.08389 8.17557 15 1 
369.333 1.20956 2.04293 -0.0109549 -0.13364 2.04736 8.23512 15 1 
370.667 1.20959 2.00752 -0.0114588 -0.114988 2.01088 8.29274 15 1 
372 1.20963 1.97266 -0.0119755 -0.0963747 1.97509 8.36112 15 1 
373.333 1.20967 1.93753 -0.0125181 -0.0781255 1.93918 8.43523 15 1 
374.667 1.20971 1.90131 -0.01308 -0.0608524 1.90237 8.49974 15 1 
376 1.20974 1.86475 -0.0136358 -0.044659 1.86538 8.55739 15 1 
377.333 1.20977 1.82919 -0.0141789 -0.0293499 1.82953 8.6224 15 1 
378.667 1.20981 1.79495 -0.0147296 -0.0147437 1.79513 8.69446 15 1 
380 1.20985 1.76118 -0.0152964 -0.00106754 1.76131 8.7611 15 1 
381.333 1.20988 1.7273 -0.0158669 0.0114134 1.72748 8.82187 15 1 
382.667 1.20992 1.6941 -0.0164332 0.0228146 1.69441 8.88441 15 1 
384 1.20995 1.66246 -0.0170019 0.0333675 1.66296 8.94775 15 1 
384 1.20995 1.66246 -0.0170019 0.0333675 1.66296 8.94775 15 1 
385.333 1.20999 1.63216 -0.0175873 0.0432474 1.63291 9.01009 15 1 
386.667 1.21002 1.60262 -0.0181909 0.0524003 1.60367 9.07355 15 1 
388 1.21006 1.57367 -0.0188034 0.0605252 1.57504 9.13565 15 1 
389.333 1.21009 1.54565 -0.0194246 0.0676919 1.54735 9.19317 15 1 
390.667 1.21012 1.51902 -0.0200615 0.0743016 1.52106 9.25095 15 1 
392 1.21016 1.49372 -0.0207199 0.0805187 1.49613 9.31357 15 1 
393.333 1.21019 1.46913 -0.0214019 0.0860995 1.47192 9.37543 15 1 
394.667 1.21022 1.44496 -0.0221012 0.0909356 1.4481 9.4322 15 1 
396 1.21025 1.42166 -0.0228166 0.0953731 1.42515 9.48901 15 1 
397.333 1.21029 1.39964 -0.0235555 0.0996669 1.40349 9.54883 15 1 
398.667 1.21032 1.37855 -0.0243162 0.103672 1.38277 9.60828 15 1 
400 1.21035 1.35796 -0.0250879 0.10727 1.36254 9.66605 15 1 
401.333 1.21038 1.33796 -0.0258619 0.110494 1.34288 9.72461 15 1 
402.667 1.21042 1.31887 -0.0266384 0.113412 1.32413 9.78366 15 1 
404 1.21045 1.30074 -0.0274171 0.116067 1.30632 9.84105 15 1 
405.333 1.21048 1.2833 -0.0281909 0.118433 1.28919 9.89894 15 1 
405.333 1.21048 1.2833 -0.0281909 0.118433 1.28919 9.89894 15 1 
406.667 1.21051 1.26633 -0.0289588 0.120473 1.27251 9.95857 15 1 
408 1.21055 1.24981 -0.0297163 0.122218 1.25625 10.0165 15 1 
409.333 1.21058 1.2339 -0.0304577 0.123768 1.24059 10.0723 15 1 
410.667 1.21061 1.2187 -0.0311891 0.125262 1.22564 10.1289 15 1 
412 1.21064 1.20402 -0.0319073 0.126713 1.21123 10.1866 15 1 
413.333 1.21067 1.18959 -0.0326041 0.128087 1.19705 10.2431 15 1 
414.667 1.2107 1.17549 -0.0332763 0.129478 1.1832 10.2978 15 1 
416 1.21073 1.16204 -0.0339184 0.13095 1.17002 10.3529 15 1 
417.333 1.21076 1.14925 -0.0345343 0.132457 1.15751 10.4079 15 1 
418.667 1.21079 1.13683 -0.0351227 0.133984 1.14538 10.4617 15 1 
420 1.21082 1.12467 -0.0356709 0.135536 1.13351 10.5154 15 1 
421.333 1.21085 1.11295 -0.0361783 0.137083 1.12208 10.5691 15 1 
422.667 1.21088 1.10181 -0.0366544 0.138566 1.11123 10.6217 15 1 
424 1.21091 1.09115 -0.0370971 0.139978 1.10085 10.6733 15 1 
425.333 1.21094 1.08075 -0.0375013 0.141348 1.09074 10.725 15 1 
426.667 1.21097 1.07054 -0.0378701 0.14263 1.0808 10.7766 15 1 
426.667 1.21097 1.07054 -0.0378701 0.14263 1.0808 10.7766 20 1 
428 1.21099 1.06059 -0.038213 0.143786 1.07111 10.8268 20 1 
429.333 1.21102 1.05102 -0.0385296 0.144863 1.06179 10.8758 20 1 
430.667 1.21105 1.04176 -0.0388205 0.145898 1.05278 10.9248 20 1 
432 1.21107 1.03259 -0.0390966 0.146889 1.04386 10.9728 20 1 
433.333 1.2111 1.02343 -0.0393614 0.147835 1.03495 11.0196 20 1 
434.667 1.21113 1.01447 -0.0396168 0.148785 1.02623 11.066 20 1 
436 1.21115 1.00584 -0.0398674 0.149786 1.01786 11.1119 20 1 
437.333 1.21118 0.997444 -0.0401231 0.150833 1.00973 11.1566 20 1 
438.667 1.2112 0.989099 -0.0403842 0.151943 1.00167 11.2003 20 1 
440 1.21122 0.980872 -0.0406438 0.153144 0.99374 11.2438 20 1 
441.333 1.21125 0.972953 -0.0409044 0.154428 0.986134 11.2868 20 1 
442.667 1.21127 0.965418 -0.0411742 0.155798 0.97893 11.3289 20 1 
444 1.2113 0.95819 -0.0414502 0.157263 0.972052 11.3706 20 1 
445.333 1.21132 0.951182 -0.0417202 0.158793 0.965409 11.4121 20 1 
446.667 1.21134 0.944455 -0.0419852 0.160346 0.959052 11.4533 20 1 
448 1.21136 0.938166 -0.0422508 0.161908 0.953133 11.494 20 1 
448 1.21136 0.938166 -0.0422508 0.161908 0.953133 11.494 20 1 
449.333 1.21139 0.932384 -0.0425152 0.163475 0.947723 11.5349 20 1 
450.667 1.21141 0.927042 -0.0427709 0.16499 0.942743 11.5757 20 1 
452 1.21143 0.92206 -0.0430218 0.166381 0.938102 11.6158 20 1 
453.333 1.21145 0.91751 -0.0432775 0.167625 0.933861 11.6561 20 1 
454.667 1.21148 0.91353 -0.043537 0.168704 0.930154 11.697 20 1 
456 1.2115 0.910157 -0.0438046 0.169581 0.92701 11.7379 20 1 
457.333 1.21152 0.907324 -0.0440923 0.1702 0.924354 11.7787 20 1 
458.667 1.21154 0.904984 -0.0444083 0.170531 0.92213 11.8197 20 1 
460 1.21157 0.9032 -0.0447557 0.17057 0.920397 11.861 20 1 
461.333 1.21159 0.902092 -0.0451454 0.170299 0.919271 11.9026 20 1 
462.667 1.21161 0.901706 -0.0455865 0.169719 0.9188 11.9446 20 1 
464 1.21164 0.901991 -0.0460889 0.168824 0.918935 11.9872 20 1 
465.333 1.21166 0.902918 -0.0466507 0.167586 0.91964 12.03 20 1 
466.667 1.21168 0.904578 -0.0472793 0.16603 0.921012 12.0731 20 1 
468 1.21171 0.907102 -0.0479896 0.164195 0.923191 12.1172 20 1 
469.333 1.21173 0.910507 -0.0487858 0.162081 0.926199 12.1619 20 1 
469.333 1.21173 0.910507 -0.0487858 0.162081 0.926199 12.1619 20 1 
470.667 1.21176 0.914749 -0.0496629 0.159687 0.929995 12.207 20 1 
472 1.21178 0.91985 -0.0506249 0.157023 0.934606 12.2524 20 1 
473.333 1.21181 0.925907 -0.0516837 0.154133 0.94014 12.2988 20 1 
474.667 1.21184 0.932991 -0.0528427 0.15105 0.946678 12.3462 20 1 
476 1.21186 0.941086 -0.0540944 0.147782 0.95421 12.394 20 1 
477.333 1.21189 0.950177 -0.0554339 0.14434 0.962725 12.4422 20 1 
478.667 1.21192 0.960286 -0.0568708 0.140746 0.972255 12.4911 20 1 
480 1.21194 0.971422 -0.0583912 0.137045 0.982817 12.5403 20 1 
481.333 1.21197 0.983596 -0.0599823 0.133262 0.994429 12.59 20 1 
482.667 1.212 0.9968 -0.0616287 0.129401 1.00708 12.6402 20 1 
484 1.21203 1.01099 -0.0633216 0.125494 1.02074 12.6906 20 1 
485.333 1.21205 1.02609 -0.0650328 0.121559 1.03533 12.7409 20 1 
486.667 1.21208 1.04206 -0.0667281 0.117611 1.05082 12.7909 20 1 
488 1.21211 1.0589 -0.0683822 0.113679 1.06721 12.8408 20 1 
489.333 1.21214 1.07655 -0.0699628 0.109779 1.08442 12.8905 20 1 
490.667 1.21216 1.09489 -0.071429 0.105911 1.10234 12.9396 20 1 
490.667 1.21216 1.09489 -0.071429 0.105911 1.10234 12.9396 20 1 
492 1.21219 1.11381 -0.0727433 0.102077 1.12087 12.9877 20 1 
493.333 1.21222 1.13327 -0.0738857 0.0982931 1.13995 13.0348 20 1 
494.667 1.21224 1.15319 -0.0748397 0.0945636 1.15951 13.081 20 1 
496 1.21227 1.17346 -0.0756051 0.0908741 1.17943 13.1259 20 1 
497.333 1.21229 1.19396 -0.0761979 0.0872236 1.19959 13.1689 20 1 
498.667 1.21231 1.21461 -0.0766637 0.083609 1.21992 13.2104 20 1 
500 1.21234 1.23533 -0.0770623 0.0799956 1.24034 13.2503 20 1 
501.333 1.21236 1.25602 -0.0774476 0.0763803 1.26075 13.2878 20 1 
502.667 1.21238 1.27659 -0.0778689 0.0727959 1.28106 13.323 20 1 
504 1.21239 1.29691 -0.0783534 0.069259 1.30115 13.3562 20 1 
505.333 1.21241 1.31683 -0.078876 0.0657887 1.32086 13.3869 20 1 
506.667 1.21243 1.33615 -0.0793624 0.0624423 1.33999 13.4147 20 1 
508 1.21244 1.35474 -0.0797024 0.0593412 1.35841 13.4397 20 1 
509.333 1.21245 1.37247 -0.0797576 0.0565774 1.37597 13.4623 20 1 
510.667 1.21246 1.38922 -0.0793863 0.0541866 1.39257 13.482 20 1 
512 1.21247 1.40494 -0.078467 0.052214 1.40812 13.4984 20 1 
512 1.21247 1.40494 -0.078467 0.052214 1.40812 13.4984 21 1 
513.333 1.21248 1.41972 -0.076938 0.0506762 1.42273 13.512 21 1 
514.667 1.21249 1.43375 -0.0748014 0.0495552 1.43658 13.5228 21 1 
516 1.21249 1.44727 -0.072131 0.0487973 1.44992 13.5306 21 1 
517.333 1.21249 1.46055 -0.0690691 0.0483167 1.46302 13.5354 21 1 
518.667 1.21249 1.47391 -0.0657983 0.0480358 1.4762 13.5375 21 1 
520 1.21249 1.48763 -0.0625195 0.0479016 1.48977 13.5371 21 1 
521.333 1.21249 1.50202 -0.0594473 0.0478761 1.50402 13.5338 21 1 
522.667 1.21249 1.51727 -0.0567719 0.047933 1.51916 13.528 21 1 
524 1.21249 1.53354 -0.0546411 0.0480557 1.53535 13.52 21 1 
525.333 1.21248 1.55093 -0.053168 0.0482627 1.5527 13.5097 21 1 
526.667 1.21247 1.56953 -0.0524083 0.0485842 1.57128 13.4973 21 1 
528 1.21246 1.58937 -0.0523954 0.0490362 1.59113 13.4831 21 1 
529.333 1.21246 1.61042 -0.0531246 0.0496543 1.61222 13.4675 21 1 
530.667 1.21245 1.63268 -0.0545635 0.0504556 1.63456 13.4501 21 1 
532 1.21244 1.65611 -0.0566737 0.0514466 1.65809 13.4312 21 1 
533.333 1.21242 1.68066 -0.0594018 0.0526426 1.68278 13.4113 21 1 
533.333 1.21242 1.68066 -0.0594018 0.0526426 1.68278 13.4113 21 1 
534.667 1.21241 1.70629 -0.0626778 0.054031 1.70856 13.3906 21 1 
536 1.2124 1.73296 -0.0664457 0.0556246 1.73541 13.3688 21 1 
537.333 1.21239 1.76061 -0.0706448 0.0574178 1.76327 13.3462 21 1 
538.667 1.21238 1.78921 -0.0752195 0.0593802 1.7921 13.3231 21 1 
540 1.21236 1.81871 -0.0801068 0.061494 1.82184 13.2996 21 1 
541.333 1.21235 1.84905 -0.0852531 0.0637482 1.85245 13.2751 21 1 
542.667 1.21234 1.88021 -0.0906206 0.0661254 1.88389 13.2502 21 1 
544 1.21232 1.91215 -0.0961622 0.0686055 1.91614 13.2252 21 1 
545.333 1.21231 1.94483 -0.101841 0.0711536 1.94914 13.1995 21 1 
546.667 1.21229 1.97819 -0.107616 0.073748 1.98283 13.1728 21 1 
548 1.21228 2.01222 -0.113464 0.0763784 2.0172 13.1459 21 1 
549.333 1.21226 2.04689 -0.119346 0.079033 2.05221 13.1189 21 1 
550.667 1.21225 2.08216 -0.125245 0.0816873 2.08783 13.0908 21 1 
552 1.21223 2.118 -0.131143 0.0843163 2.12403 13.0619 21 1 
553.333 1.21222 2.15436 -0.137012 0.0869119 2.16075 13.0328 21 1 
554.667 1.2122 2.19122 -0.142836 0.0894641 2.19796 13.0031 21 1 
554.667 1.2122 2.19122 -0.142836 0.0894641 2.19796 13.0031 22 1 
556 1.21218 2.22857 -0.148599 0.0919606 2.23566 12.9723 22 1 
557.333 1.21216 2.26638 -0.154299 0.0943956 2.27383 12.9412 22 1 
558.667 1.21215 2.30461 -0.159909 0.096759 2.3124 12.91 22 1 
560 1.21213 2.34322 -0.165435 0.0990301 2.35135 12.8781 22 1 
561.333 1.21211 2.3822 -0.170852 0.101208 2.39067 12.8454 22 1 
562.667 1.21209 2.42154 -0.17617 0.103308 2.43033 12.8129 22 1 
564 1.21208 2.46121 -0.181379 0.105314 2.4703 12.7807 22 1 
565.333 1.21206 2.50118 -0.186473 0.107214 2.51058 12.7479 22 1 
566.667 1.21204 2.54141 -0.191453 0.109015 2.5511 12.7152 22 1 
568 1.21202 2.5819 -0.196299 0.110721 2.59186 12.6832 22 1 
569.333 1.212 2.62263 -0.201041 0.11233 2.63285 12.6516 22 1 
570.667 1.21199 2.66357 -0.205656 0.113839 2.67405 12.62 22 1 
572 1.21197 2.70471 -0.210154 0.115262 2.71543 12.5892 22 1 
573.333 1.21195 2.74601 -0.214532 0.116581 2.75695 12.5595 22 1 
574.667 1.21194 2.78747 -0.218789 0.117811 2.79862 12.53 22 1 
576 1.21192 2.82906 -0.222939 0.118961 2.84042 12.5012 22 1 
576 1.21192 2.82906 -0.222939 0.118961 2.84042 12.5012 22 1 
577.333 1.21191 2.87078 -0.226957 0.120032 2.88232 12.4736 22 1 
578.667 1.21189 2.91258 -0.230881 0.121022 2.92431 12.4469 22 1 
580 1.21188 2.95448 -0.234686 0.121931 2.96637 12.4206 22 1 
581.333 1.21186 2.99643 -0.238388 0.122775 3.00847 12.395 22 1 
582.667 1.21185 3.03842 -0.241986 0.123558 3.05061 12.3705 22 1 
584 1.21184 3.08047 -0.245476 0.124284 3.09279 12.3465 22 1 
585.333 1.21182 3.12252 -0.248872 0.124952 3.13497 12.3233 22 1 
586.667 1.21181 3.16456 -0.252165 0.125569 3.17712 12.3006 22 1 
588 1.2118 3.20658 -0.255365 0.126144 3.21926 12.278 22 1 
589.333 1.21179 3.24857 -0.258464 0.126678 3.26135 12.256 22 1 
590.667 1.21177 3.29051 -0.261479 0.127177 3.30338 12.2345 22 1 
592 1.21176 3.33239 -0.2644 0.127648 3.34534 12.2129 22 1 
593.333 1.21175 3.37418 -0.267228 0.128095 3.38721 12.1917 22 1 
594.667 1.21174 3.41585 -0.269971 0.128505 3.42895 12.1709 22 1 
596 1.21173 3.45741 -0.272624 0.128904 3.47057 12.1497 22 1 
597.333 1.21171 3.49885 -0.27519 0.129292 3.51207 12.1282 22 1 
597.333 1.21171 3.49885 -0.27519 0.129292 3.51207 12.1282 24 1 
598.667 1.2117 3.54013 -0.277661 0.129662 3.5534 12.1073 24 1 
600 1.21169 3.58123 -0.280069 0.13002 3.59455 12.0864 24 1 
601.333 1.21168 3.62216 -0.282374 0.130362 3.63552 12.0644 24 1 
602.667 1.21167 3.66288 -0.284586 0.130709 3.67627 12.0424 24 1 
604 1.21166 3.70337 -0.286735 0.131044 3.71679 12.0211 24 1 
605.333 1.21164 3.74366 -0.288784 0.131375 3.75711 11.9983 24 1 
606.667 1.21163 3.7837 -0.290742 0.131705 3.79716 11.9747 24 1 
608 1.21162 3.82344 -0.29261 0.132028 3.83692 11.9515 24 1 
609.333 1.2116 3.86292 -0.29441 0.132344 3.87641 11.927 24 1 
610.667 1.21159 3.90214 -0.296089 0.132662 3.91564 11.901 24 1 
612 1.21157 3.94103 -0.297693 0.132985 3.95453 11.8747 24 1 
613.333 1.21156 3.97961 -0.299213 0.133293 3.9931 11.8477 24 1 
614.667 1.21154 4.01788 -0.300612 0.133601 4.03135 11.8184 24 1 
616 1.21153 4.05578 -0.301925 0.133906 4.06923 11.7881 24 1 
617.333 1.21151 4.09334 -0.30313 0.134205 4.10677 11.7569 24 1 
618.667 1.21149 4.13055 -0.304247 0.134508 4.14395 11.7241 24 1 
618.667 1.21149 4.13055 -0.304247 0.134508 4.14395 11.7241 24 1 
620 1.21147 4.16734 -0.305245 0.134802 4.18072 11.6897 24 1 
621.333 1.21145 4.20377 -0.306153 0.13508 4.2171 11.6539 24 1 
622.667 1.21143 4.23979 -0.306934 0.135357 4.25308 11.6174 24 1 
624 1.21141 4.27537 -0.307612 0.135624 4.2886 11.5797 24 1 
625.333 1.21139 4.31056 -0.30819 0.135882 4.32374 11.5401 24 1 
626.667 1.21137 4.3453 -0.308635 0.136123 4.35841 11.5004 24 1 
628 1.21134 4.37956 -0.308984 0.136345 4.3926 11.4604 24 1 
629.333 1.21132 4.4134 -0.30923 0.136542 4.42637 11.4185 24 1 
630.667 1.2113 4.44676 -0.309346 0.136719 4.45965 11.3766 24 1 
632 1.21128 4.47963 -0.309353 0.136872 4.49243 11.3355 24 1 
633.333 1.21125 4.51207 -0.30927 0.136991 4.52478 11.2932 24 1 
634.667 1.21123 4.54401 -0.309064 0.137068 4.55662 11.2508 24 1 
636 1.21121 4.57542 -0.308741 0.137099 4.58793 11.2099 24 1 
637.333 1.21118 4.60641 -0.308344 0.137093 4.61881 11.1682 24 1 
638.667 1.21116 4.63691 -0.307823 0.137034 4.64919 11.1267 24 1 
640 1.21114 4.6669 -0.307222 0.136909 4.67906 11.0871 24 1 
640 1.21114 4.6669 -0.307222 0.136909 4.67906 11.0871 24 1 
641.333 1.21112 4.69646 -0.306517 0.136718 4.7085 11.0468 24 1 
642.667 1.21109 4.72555 -0.305735 0.136456 4.73746 11.0071 24 1 
644 1.21107 4.75418 -0.304864 0.136114 4.76596 10.9691 24 1 
645.333 1.21105 4.7824 -0.303917 0.135688 4.79404 10.9314 24 1 
646.667 1.21103 4.81023 -0.302912 0.135161 4.82173 10.8935 24 1 
648 1.21101 4.83762 -0.301793 0.134529 4.84897 10.857 24 1 
649.333 1.21099 4.86465 -0.300692 0.133777 4.87586 10.8212 24 1 
650.667 1.21097 4.89141 -0.29947 0.132906 4.90246 10.7845 24 1 
652 1.21095 4.91777 -0.298245 0.131894 4.92866 10.7497 24 1 
653.333 1.21093 4.94389 -0.296986 0.130751 4.95463 10.7146 24 1 
654.667 1.21091 4.96981 -0.29567 0.129409 4.98038 10.6789 24 1 
656 1.21089 4.99541 -0.294351 0.12792 5.00582 10.6447 24 1 
657.333 1.21087 5.02095 -0.293031 0.126245 5.03119 10.6088 24 1 
658.667 1.21085 5.04634 -0.291685 0.124348 5.05641 10.5734 24 1 
660 1.21083 5.07159 -0.290386 0.122253 5.08149 10.5389 24 1 
661.333 1.21081 5.09687 -0.289073 0.11991 5.1066 10.5021 24 1 
661.333 1.21081 5.09687 -0.289073 0.11991 5.1066 10.5021 24 1 
662.667 1.21079 5.12214 -0.287803 0.117341 5.13169 10.4656 24 1 
664 1.21077 5.14738 -0.28662 0.114473 5.15676 10.4308 24 1 
665.333 1.21075 5.1728 -0.285392 0.111365 5.18201 10.3925 24 1 
666.667 1.21073 5.19838 -0.284315 0.10796 5.20742 10.3539 24 1 
668 1.21071 5.22401 -0.283309 0.104224 5.23289 10.3189 24 1 
669.333 1.21069 5.25 -0.282343 0.100185 5.25871 10.279 24 1 
670.667 1.21067 5.27622 -0.28154 0.0958179 5.28477 10.2385 24 1 
672 1.21065 5.30269 -0.28083 0.0910939 5.31109 10.2013 24 1 
673.333 1.21063 5.32959 -0.280247 0.0860266 5.33784 10.1615 24 1 
674.667 1.2106 5.35686 -0.279817 0.080582 5.36496 10.1194 24 1 
676 1.21058 5.38448 -0.27949 0.0747656 5.39246 10.0796 24 1 
677.333 1.21056 5.41259 -0.279404 0.0685676 5.42044 10.0397 24 1 
678.667 1.21053 5.44114 -0.279416 0.061979 5.44889 9.99674 24 1 
680 1.21051 5.47017 -0.279646 0.0550035 5.47782 9.95472 24 1 
681.333 1.21049 5.4997 -0.280059 0.0476449 5.50727 9.91448 24 1 
682.667 1.21047 5.52973 -0.280675 0.0398686 5.53723 9.87257 24 1 
682.667 1.21047 5.52973 -0.280675 0.0398686 5.53723 9.87257 31 1 
684 1.21044 5.56024 -0.281482 0.0317236 5.5677 9.82965 31 1 
685.333 1.21042 5.59126 -0.282456 0.0231991 5.5987 9.78852 31 1 
686.667 1.2104 5.62276 -0.283717 0.0142836 5.6302 9.74937 31 1 
688 1.21037 5.65475 -0.285141 0.00503101 5.6622 9.70694 31 1 
689.333 1.21035 5.6872 -0.286774 -0.00461262 5.6947 9.66572 31 1 
690.667 1.21033 5.71999 -0.288638 -0.0145432 5.72757 9.62894 31 1 
692 1.21031 5.7533 -0.290745 -0.0248143 5.76097 9.58863 31 1 
693.333 1.21029 5.78693 -0.293042 -0.0353574 5.79473 9.54992 31 1 
694.667 1.21027 5.82088 -0.295575 -0.0461868 5.82884 9.51469 31 1 
696 1.21025 5.85514 -0.298336 -0.0572203 5.8633 9.47933 31 1 
697.333 1.21023 5.88961 -0.301259 -0.0685027 5.89798 9.44297 31 1 
698.667 1.21021 5.92433 -0.304447 -0.0799654 5.93296 9.40881 31 1 
700 1.21019 5.95916 -0.307816 -0.0915035 5.96807 9.37864 31 1 
701.333 1.21017 5.9941 -0.311377 -0.103168 6.00333 9.3459 31 1 
702.667 1.21016 6.02912 -0.315184 -0.114904 6.0387 9.31436 31 1 
704 1.21014 6.06412 -0.319155 -0.126651 6.07408 9.28727 31 1 
704 1.21014 6.06412 -0.319155 -0.126651 6.07408 9.28727 31 1 
705.333 1.21013 6.09906 -0.323347 -0.138388 6.10943 9.26003 31 1 
706.667 1.21011 6.1339 -0.327724 -0.150064 6.14471 9.23134 31 1 
708 1.2101 6.16856 -0.332232 -0.161604 6.17983 9.20567 31 1 
709.333 1.21008 6.20295 -0.336946 -0.172969 6.2147 9.18429 31 1 
710.667 1.21007 6.23711 -0.341799 -0.184105 6.24936 9.15926 31 1 
712 1.21006 6.271 -0.346822 -0.19503 6.28378 9.13552 31 1 
713.333 1.21005 6.30444 -0.352071 -0.205613 6.31777 9.11995 31 1 
714.667 1.21004 6.33746 -0.35744 -0.215843 6.35134 9.09976 31 1 
716 1.21003 6.37004 -0.362879 -0.225621 6.38448 9.07756 31 1 
717.333 1.21002 6.40202 -0.36846 -0.234952 6.41703 9.06438 31 1 
718.667 1.21001 6.43347 -0.374165 -0.243682 6.44904 9.04962 31 1 
720 1.21 6.46445 -0.379881 -0.251804 6.48058 9.03045 31 1 
721.333 1.20999 6.49476 -0.38595 -0.259311 6.51146 9.01967 31 1 
722.667 1.20999 6.52437 -0.391887 -0.266025 6.5416 9.01006 31 1 
724 1.20998 6.55335 -0.39799 -0.271995 6.5711 8.99337 31 1 
725.333 1.20997 6.58163 -0.404034 -0.277106 6.59988 8.98026 31 1 
725.333 1.20997 6.58163 -0.404034 -0.277106 6.59988 8.98026 31 1 
726.667 1.20997 6.60924 -0.409991 -0.281267 6.62796 8.97339 31 1 
728 1.20996 6.63627 -0.416249 -0.284481 6.65544 8.9616 31 1 
729.333 1.20995 6.6627 -0.422156 -0.286664 6.68227 8.94621 31 1 
730.667 1.20995 6.68829 -0.428312 -0.287782 6.70823 8.93921 31 1 
732 1.20994 6.71326 -0.434301 -0.287824 6.73353 8.92633 31 1 
733.333 1.20993 6.73772 -0.439899 -0.286773 6.75825 8.9081 31 1 
734.667 1.20993 6.76158 -0.445627 -0.284469 6.78234 8.89793 31 1 
736 1.20992 6.78511 -0.451076 -0.281066 6.80605 8.88493 31 1 
737.333 1.20991 6.80817 -0.456307 -0.276447 6.82923 8.86682 31 1 
738.667 1.2099 6.83078 -0.461272 -0.270648 6.85191 8.84837 31 1 
740 1.20989 6.85295 -0.46571 -0.263798 6.87409 8.83234 31 1 
741.333 1.20988 6.87504 -0.470122 -0.255777 6.89616 8.80973 31 1 
742.667 1.20987 6.89707 -0.47383 -0.246515 6.91808 8.7886 31 1 
744 1.20986 6.91893 -0.477128 -0.236154 6.93979 8.77055 31 1 
745.333 1.20984 6.94077 -0.480206 -0.225025 6.96146 8.7468 31 1 
746.667 1.20983 6.96245 -0.482395 -0.21276 6.98288 8.72138 31 1 
746.667 1.20983 6.96245 -0.482395 -0.21276 6.98288 8.72138 31 1 
748 1.20981 6.98442 -0.484152 -0.19958 7.00457 8.69384 31 1 
749.333 1.2098 7.0063 -0.485502 -0.18571 7.02614 8.67712 31 1 
750.667 1.20979 7.02847 -0.485816 -0.17087 7.04794 8.65036 31 1 
752 1.20977 7.05064 -0.485871 -0.155451 7.06973 8.62149 31 1 
753.333 1.20976 7.07285 -0.485311 -0.139404 7.09155 8.60066 31 1 
754.667 1.20975 7.09521 -0.483863 -0.122682 7.11348 8.5783 31 1 
756 1.20973 7.11765 -0.481743 -0.105553 7.13548 8.55122 31 1 
757.333 1.20972 7.14006 -0.479048 -0.0879488 7.15744 8.52756 31 1 
758.667 1.20971 7.16226 -0.475938 -0.0697181 7.17919 8.51003 31 1 
760 1.2097 7.18454 -0.471678 -0.0513252 7.201 8.48101 31 1 
761.333 1.20968 7.20632 -0.467264 -0.0323918 7.22235 8.46012 31 1 
762.667 1.20967 7.22775 -0.462166 -0.0133329 7.24336 8.44311 31 1 
764 1.20966 7.24894 -0.456654 0.00628056 7.26415 8.4162 31 1 
765.333 1.20965 7.26897 -0.450253 0.0262735 7.28379 8.40083 31 1 
766.667 1.20964 7.28857 -0.443961 0.0460457 7.30306 8.37625 31 1 
768 1.20963 7.3072 -0.436738 0.0667316 7.32137 8.35737 31 1 
768 1.20963 7.3072 -0.436738 0.0667316 7.32137 8.35737 32 1 
769.333 1.20962 7.32394 -0.429617 0.0871751 7.33787 8.34871 32 1 
770.667 1.2096 7.34064 -0.421988 0.108447 7.35437 8.31212 32 1 
772 1.2096 7.35475 -0.414162 0.129126 7.36832 8.31039 32 1 
773.333 1.2096 7.36698 -0.40637 0.151157 7.3805 8.30123 32 1 
774.667 1.20957 7.37812 -0.398318 0.1725 7.39162 8.26327 32 1 
776 1.20957 7.38668 -0.390219 0.194103 7.40025 8.25822 32 1 
777.333 1.20958 7.39232 -0.382346 0.216162 7.40605 8.27283 32 1 
778.667 1.20956 7.39713 -0.375252 0.237638 7.41112 8.22753 32 1 
780 1.20956 7.39754 -0.367017 0.25951 7.41182 8.23021 32 1 
781.333 1.20957 7.39526 -0.359926 0.282154 7.41001 8.24759 32 1 
782.667 1.20954 7.39162 -0.353182 0.304048 7.40688 8.20577 32 1 
784 1.20955 7.38392 -0.347784 0.324966 7.39981 8.21126 32 1 
785.333 1.20956 7.37365 -0.341553 0.345939 7.39018 8.24019 32 1 
786.667 1.20955 7.36048 -0.336419 0.365737 7.37774 8.22564 32 1 
788 1.20953 7.34609 -0.333448 0.386319 7.36426 8.18553 32 1 
789.333 1.20955 7.3297 -0.330812 0.404652 7.34876 8.22324 32 1 
790.667 1.20957 7.31307 -0.329849 0.423 7.33313 8.2545 32 1 
792 1.20958 7.28977 -0.330788 0.43827 7.31081 8.26819 32 1 
793.333 1.20952 7.27045 -0.33355 0.450796 7.29241 8.15598 32 1 
794.667 1.20954 7.25176 -0.347702 0.459287 7.27495 8.2057 32 1 
796 1.20963 7.23058 -0.358548 0.464479 7.25464 8.35962 32 1 
797.333 1.20957 7.21173 -0.390586 0.460875 7.23734 8.2603 32 1 
798.667 1.20954 7.19194 -0.430806 0.44357 7.21872 8.19673 32 1 
800 1.20954 7.18426 -0.437168 0.433481 7.21081 8.20286 32 1 
