83.3196;r ;Density                 ;Velocity u              ;Velocity v              ;Velocity w              ;|Velocity|              ;Pressure                ;Distribution            ;Levels                  ;
0 1.20743 9.99879 -0.000210364 -0.0023957 9.99879 4.39299 1 1 
1.33334 1.20744 9.99837 -9.7193e-05 -0.00287074 9.99837 4.39842 1 1 
2.66666 1.20743 9.99738 0.000138033 -0.00348955 9.99738 4.38329 1 1 
4 1.20743 9.99664 0.000315259 -0.00435881 9.99665 4.39238 1 1 
5.33334 1.20743 9.99603 0.000429123 -0.00466721 9.99604 4.39228 1 1 
6.66666 1.20739 9.99521 0.00059541 -0.00367294 9.99522 4.32446 1 1 
8 1.20737 9.99472 0.000740485 -0.00296633 9.99474 4.27814 1 1 
9.33334 1.20732 9.99408 0.000865114 -0.0013062 9.9941 4.19327 1 1 
10.6667 1.20725 9.99338 0.00103368 0.00122135 9.99339 4.06507 1 1 
12 1.2072 9.99316 0.00113854 0.00338292 9.99319 3.97206 1 1 
13.3333 1.20712 9.99265 0.00123288 0.00662101 9.99268 3.82922 1 1 
14.6667 1.20704 9.99216 0.00134005 0.00992735 9.99219 3.67593 1 1 
16 1.20698 9.99206 0.00135545 0.012707 9.9921 3.57194 1 1 
17.3333 1.2069 9.99171 0.00137155 0.0162615 9.99176 3.43811 1 1 
18.6667 1.20684 9.99148 0.00137806 0.0191642 9.99154 3.32864 1 1 
20 1.2068 9.99134 0.00129812 0.0216395 9.9914 3.24865 1 1 
21.3333 1.20675 9.99099 0.00122284 0.0244602 9.99106 3.1593 1 1 
21.3333 1.20675 9.99099 0.00122284 0.0244602 9.99106 3.1593 1 1 
22.6667 1.20674 9.99093 0.00109941 0.0261049 9.99101 3.13858 1 1 
24 1.20673 9.99066 0.00092303 0.0275202 9.99074 3.12914 1 1 
25.3333 1.20673 9.99017 0.000761502 0.0287074 9.99026 3.12001 1 1 
26.6667 1.20677 9.99009 0.000516381 0.0284935 9.99018 3.20134 1 1 
28 1.20682 9.98971 0.000249786 0.0283747 9.9898 3.28629 1 1 
29.3333 1.20687 9.98914 2.3189e-05 0.0276851 9.98922 3.3754 1 1 
30.6667 1.20696 9.98879 -0.000279233 0.0257469 9.98887 3.53228 1 1 
32 1.20704 9.98824 -0.000575199 0.0240117 9.98831 3.68952 1 1 
33.3333 1.20715 9.9878 -0.000830663 0.0214211 9.98786 3.87596 1 1 
34.6667 1.20726 9.98731 -0.00112107 0.0183069 9.98736 4.07893 1 1 
36 1.20735 9.98641 -0.00136973 0.0155951 9.98645 4.24956 1 1 
37.3333 1.20748 9.98588 -0.00160515 0.0118908 9.98591 4.47143 1 1 
38.6667 1.2076 9.98528 -0.00185117 0.00830411 9.98532 4.6922 1 1 
40 1.20769 9.9842 -0.00202328 0.00523814 9.98423 4.86005 1 1 
41.3333 1.2078 9.98339 -0.00219265 0.00138162 9.98342 5.05646 1 1 
42.6667 1.2079 9.98248 -0.0023435 -0.0019487 9.98251 5.24039 1 1 
42.6667 1.2079 9.98248 -0.0023435 -0.0019487 9.98251 5.24039 2 1 
44 1.20799 9.98143 -0.00241317 -0.00503591 9.98146 5.4002 2 1 
45.3333 1.20808 9.98053 -0.0024792 -0.00859527 9.98057 5.56185 2 1 
46.6667 1.20814 9.97932 -0.00249555 -0.0111558 9.97936 5.66633 2 1 
48 1.20819 9.9783 -0.00244574 -0.0137105 9.97834 5.76972 2 1 
49.3333 1.20825 9.97753 -0.00240748 -0.0163045 9.97758 5.87563 2 1 
50.6667 1.20826 9.9764 -0.00230673 -0.0176354 9.97645 5.89727 2 1 
52 1.20827 9.97542 -0.00216057 -0.0189501 9.97548 5.90548 2 1 
53.3333 1.20827 9.97467 -0.00202884 -0.0197056 9.97474 5.89736 2 1 
54.6667 1.20823 9.97386 -0.00183735 -0.0193847 9.97393 5.82874 2 1 
56 1.20819 9.97312 -0.00163945 -0.019077 9.97319 5.7561 2 1 
57.3333 1.20812 9.9723 -0.0014409 -0.017631 9.97237 5.62966 2 1 
58.6667 1.20803 9.97158 -0.00119814 -0.0154037 9.97164 5.4718 2 1 
60 1.20796 9.97118 -0.00100098 -0.0134128 9.97124 5.34467 2 1 
61.3333 1.20786 9.97058 -0.000803407 -0.0102737 9.97063 5.15832 2 1 
62.6667 1.20774 9.96992 -0.00058053 -0.00678879 9.96996 4.95288 2 1 
64 1.20765 9.96947 -0.000423151 -0.00357061 9.96951 4.78552 2 1 
64 1.20765 9.96947 -0.000423151 -0.00357061 9.96951 4.78552 2 1 
65.3333 1.20754 9.9691 -0.000269626 0.000548855 9.96914 4.58614 2 1 
66.6667 1.20744 9.96879 -0.000117446 0.00452756 9.96882 4.3982 2 1 
68 1.20734 9.96836 -2.7223e-05 0.00845018 9.96839 4.22195 2 1 
69.3333 1.20723 9.96808 6.02903e-05 0.0129742 9.96811 4.02668 2 1 
70.6667 1.20716 9.96793 0.000110134 0.0167258 9.96797 3.89358 2 1 
72 1.20708 9.96777 0.000109292 0.0205112 9.96781 3.76493 2 1 
73.3333 1.20701 9.96748 0.000109727 0.0243707 9.96754 3.62741 2 1 
74.6667 1.20697 9.9672 4.49263e-05 0.0272608 9.96726 3.56284 2 1 
76 1.20694 9.96716 -5.13955e-05 0.0302347 9.96724 3.51051 2 1 
77.3333 1.20694 9.96685 -0.000151489 0.0323802 9.96695 3.49563 2 1 
78.6667 1.20696 9.96653 -0.000323644 0.0336249 9.96663 3.53258 2 1 
80 1.20697 9.96635 -0.000503148 0.0350533 9.96646 3.55926 2 1 
81.3333 1.20702 9.96602 -0.00069004 0.0351729 9.96614 3.6577 2 1 
82.6667 1.2071 9.96573 -0.000939133 0.0345272 9.96585 3.80034 2 1 
84 1.20717 9.9652 -0.0011721 0.0340773 9.96531 3.91184 2 1 
85.3333 1.20726 9.96462 -0.00141128 0.0322965 9.96473 4.08258 2 1 
85.3333 1.20726 9.96462 -0.00141128 0.0322965 9.96473 4.08258 3 1 
86.6667 1.20737 9.96424 -0.00169164 0.0298749 9.96433 4.28839 3 1 
88 1.20748 9.96363 -0.00194107 0.027605 9.96371 4.47581 3 1 
89.3333 1.2076 9.96301 -0.00218987 0.0243131 9.96308 4.69118 3 1 
90.6667 1.20772 9.96223 -0.00245012 0.0209339 9.96228 4.90962 3 1 
92 1.20784 9.96134 -0.00267693 0.0174834 9.96138 5.13088 3 1 
93.3333 1.20797 9.96068 -0.00289827 0.0134328 9.96071 5.35827 3 1 
94.6667 1.20807 9.95969 -0.00309856 0.00966817 9.95971 5.55095 3 1 
96 1.20818 9.95867 -0.00327361 0.00571251 9.95869 5.74505 3 1 
97.3333 1.20828 9.95789 -0.00343753 0.00191764 9.95791 5.92782 3 1 
98.6667 1.20836 9.95696 -0.00354606 -0.00135314 9.95698 6.062 3 1 
100 1.20843 9.95595 -0.00364256 -0.00477273 9.95598 6.19025 3 1 
101.333 1.20847 9.95473 -0.00372106 -0.0072258 9.95477 6.27295 3 1 
102.667 1.20849 9.95366 -0.00372521 -0.00904844 9.9537 6.3034 3 1 
104 1.20851 9.95273 -0.00373632 -0.0110869 9.95278 6.34497 3 1 
105.333 1.2085 9.95144 -0.0037223 -0.0116831 9.9515 6.3269 3 1 
106.667 1.20846 9.95062 -0.00363114 -0.0117116 9.95068 6.25293 3 1 
106.667 1.20846 9.95062 -0.00363114 -0.0117116 9.95068 6.25293 3 1 
108 1.20843 9.9502 -0.00357164 -0.0120344 9.95026 6.19722 3 1 
109.333 1.20838 9.94905 -0.00349758 -0.0108139 9.94911 6.09682 3 1 
110.667 1.20829 9.94834 -0.00335716 -0.00919483 9.94839 5.94596 3 1 
112 1.20822 9.9478 -0.00325884 -0.00753719 9.94785 5.80747 3 1 
113.333 1.20813 9.94646 -0.00315213 -0.0045732 9.9465 5.64809 3 1 
114.667 1.20802 9.94625 -0.00300323 -0.00164667 9.94629 5.45299 3 1 
116 1.20792 9.94608 -0.00289806 0.00140221 9.94612 5.271 3 1 
117.333 1.20782 9.94485 -0.00277322 0.00533271 9.94488 5.09261 3 1 
118.667 1.20771 9.9449 -0.00264422 0.00889522 9.94493 4.89877 3 1 
120 1.20762 9.94491 -0.00256976 0.0126956 9.94494 4.72469 3 1 
121.333 1.20754 9.94377 -0.00247746 0.0169935 9.9438 4.58058 3 1 
122.667 1.20745 9.94385 -0.00241238 0.0204921 9.94388 4.42856 3 1 
124 1.20738 9.94383 -0.00240183 0.0240064 9.94388 4.29549 3 1 
125.333 1.20734 9.94269 -0.00238699 0.0273111 9.94274 4.23224 3 1 
126.667 1.20731 9.94286 -0.00241054 0.0297987 9.94292 4.16817 3 1 
128 1.20727 9.9431 -0.00248452 0.032232 9.94318 4.10628 3 1 
128 1.20727 9.9431 -0.00248452 0.032232 9.94318 4.10628 3 1 
129.333 1.20729 9.94222 -0.0025695 0.0343857 9.94231 4.12941 3 1 
130.667 1.2073 9.94208 -0.00268981 0.035778 9.94218 4.16167 3 1 
132 1.20732 9.94199 -0.00284296 0.0366667 9.9421 4.19132 3 1 
133.333 1.20738 9.94096 -0.00300747 0.0368121 9.94107 4.3024 3 1 
134.667 1.20745 9.94035 -0.00319825 0.0363444 9.94046 4.42016 3 1 
136 1.2075 9.9404 -0.00340341 0.035501 9.94051 4.52265 3 1 
137.333 1.20761 9.93958 -0.00363533 0.0340778 9.93968 4.7063 3 1 
138.667 1.20771 9.93845 -0.00388006 0.0324236 9.93855 4.89736 3 1 
140 1.20779 9.93821 -0.0041137 0.0304124 9.9383 5.04362 3 1 
141.333 1.20791 9.93716 -0.00435984 0.0275659 9.93724 5.25825 3 1 
142.667 1.20803 9.93578 -0.00459913 0.0244621 9.93585 5.47714 3 1 
144 1.20811 9.93561 -0.00481893 0.0213073 9.93566 5.62411 3 1 
145.333 1.20823 9.93426 -0.00502772 0.0182082 9.9343 5.82658 3 1 
146.667 1.20834 9.93259 -0.00523544 0.0151099 9.93262 6.03002 3 1 
148 1.2084 9.93261 -0.0054237 0.0122634 9.93263 6.14092 3 1 
149.333 1.20848 9.93114 -0.00557728 0.00937123 9.93115 6.29335 3 1 
149.333 1.20848 9.93114 -0.00557728 0.00937123 9.93115 6.29335 3 1 
150.667 1.20856 9.92935 -0.00570429 0.006497 9.92936 6.43045 3 1 
152 1.20858 9.92914 -0.00581004 0.00426143 9.92915 6.47411 3 1 
153.333 1.20863 9.92731 -0.00589111 0.00219159 9.92732 6.56181 3 1 
154.667 1.20866 9.92571 -0.00593492 0.00100413 9.92573 6.61828 3 1 
156 1.20865 9.92551 -0.00595441 0.000125288 9.92553 6.58564 3 1 
157.333 1.20864 9.92394 -0.00595798 -0.000588991 9.92397 6.58056 3 1 
158.667 1.20863 9.92255 -0.00592536 -0.000458127 9.92258 6.55608 3 1 
160 1.20858 9.92192 -0.00587525 -0.000377138 9.92195 6.46896 3 1 
161.333 1.20853 9.92072 -0.00581212 0.000599634 9.92075 6.3796 3 1 
162.667 1.20848 9.91949 -0.0057444 0.00217752 9.91952 6.28791 3 1 
164 1.20841 9.91886 -0.00566409 0.00392593 9.9189 6.15575 3 1 
165.333 1.20833 9.91802 -0.00557921 0.00630008 9.91805 6.02333 3 1 
166.667 1.20828 9.91647 -0.0055185 0.00880032 9.9165 5.91629 3 1 
168 1.20819 9.91562 -0.0054529 0.0113414 9.91565 5.76845 3 1 
169.333 1.20811 9.91486 -0.00539749 0.0144909 9.91489 5.6254 3 1 
170.667 1.20806 9.91366 -0.00536378 0.0173522 9.91369 5.52886 3 1 
170.667 1.20806 9.91366 -0.00536378 0.0173522 9.91369 5.52886 11 1 
172 1.208 9.91311 -0.00535188 0.0202099 9.91314 5.41403 11 1 
173.333 1.20794 9.91216 -0.00536361 0.0232759 9.91219 5.31793 11 1 
174.667 1.20791 9.9109 -0.00541189 0.0255207 9.91094 5.26365 11 1 
176 1.20788 9.91014 -0.00550428 0.0277911 9.91019 5.20177 11 1 
177.333 1.20786 9.90889 -0.00562318 0.0299974 9.90894 5.16499 11 1 
178.667 1.20786 9.90755 -0.00575537 0.0318989 9.90761 5.16486 11 1 
180 1.20787 9.9064 -0.00591675 0.0336269 9.90646 5.18338 11 1 
181.333 1.20789 9.90508 -0.00612262 0.0346632 9.90515 5.22808 11 1 
182.667 1.20793 9.90399 -0.00634386 0.0351301 9.90407 5.28417 11 1 
184 1.20797 9.90249 -0.0065792 0.0348918 9.90257 5.36659 11 1 
185.333 1.20803 9.90078 -0.00684046 0.0344442 9.90086 5.46474 11 1 
186.667 1.20809 9.89903 -0.00711435 0.0338414 9.89911 5.5782 11 1 
188 1.20816 9.89724 -0.00737977 0.0328152 9.89731 5.71473 11 1 
189.333 1.20824 9.89596 -0.00764867 0.0317639 9.89603 5.84511 11 1 
190.667 1.20831 9.89432 -0.00791574 0.0302889 9.89438 5.98277 11 1 
192 1.20839 9.89218 -0.00817282 0.028308 9.89224 6.12504 11 1 
192 1.20839 9.89218 -0.00817282 0.028308 9.89224 6.12504 11 1 
193.333 1.20847 9.88993 -0.00841133 0.0263461 9.88999 6.26403 11 1 
194.667 1.20855 9.88726 -0.00860068 0.0241382 9.8873 6.40759 11 1 
196 1.20862 9.8846 -0.00879801 0.0214193 9.88463 6.53051 11 1 
197.333 1.20867 9.88241 -0.00896257 0.0195071 9.88244 6.62602 11 1 
198.667 1.20873 9.8801 -0.00906348 0.0172593 9.88012 6.73814 11 1 
200 1.20879 9.87792 -0.00918563 0.0152245 9.87794 6.84144 11 1 
201.333 1.20883 9.87605 -0.00924384 0.0145876 9.87607 6.90944 11 1 
202.667 1.20886 9.87337 -0.00927251 0.0134625 9.87339 6.97837 11 1 
204 1.20889 9.87003 -0.00929745 0.0122307 9.87004 7.01767 11 1 
205.333 1.20889 9.86615 -0.00927908 0.0113301 9.86616 7.02863 11 1 
206.667 1.2089 9.86235 -0.00924164 0.0101582 9.86236 7.04909 11 1 
208 1.20891 9.85955 -0.00920623 0.0104898 9.85957 7.06457 11 1 
209.333 1.20891 9.85692 -0.00914464 0.0115162 9.85693 7.06341 11 1 
210.667 1.2089 9.85421 -0.00908726 0.0122585 9.85422 7.04425 11 1 
212 1.20888 9.85144 -0.00903577 0.0139242 9.85146 7.01305 11 1 
213.333 1.20888 9.84709 -0.00896647 0.0156456 9.84711 7.01104 11 1 
213.333 1.20888 9.84709 -0.00896647 0.0156456 9.84711 7.01104 11 1 
214.667 1.20887 9.84305 -0.00891325 0.0166444 9.84307 6.98503 11 1 
216 1.20884 9.83916 -0.00889648 0.018286 9.83919 6.94436 11 1 
217.333 1.20885 9.8334 -0.00891183 0.0207287 9.83343 6.9612 11 1 
218.667 1.20883 9.82974 -0.00892233 0.0221762 9.82977 6.91364 11 1 
220 1.20883 9.82533 -0.00899161 0.025273 9.82537 6.91121 11 1 
221.333 1.20886 9.82011 -0.00907244 0.0284115 9.82016 6.96935 11 1 
222.667 1.20885 9.8172 -0.0091474 0.0287871 9.81725 6.95268 11 1 
224 1.20888 9.81092 -0.00924072 0.030472 9.81098 7.00944 11 1 
225.333 1.2089 9.8054 -0.00937825 0.0318194 9.80546 7.04118 11 1 
226.667 1.20893 9.79968 -0.00958739 0.0328746 9.79975 7.09351 11 1 
228 1.209 9.79127 -0.00981542 0.0354784 9.79134 7.2258 11 1 
229.333 1.20902 9.78682 -0.0100494 0.036552 9.78689 7.25807 11 1 
230.667 1.2091 9.77957 -0.0102774 0.0363861 9.77964 7.40565 11 1 
232 1.20918 9.77171 -0.0104756 0.0364215 9.77178 7.54188 11 1 
233.333 1.2092 9.76627 -0.0107504 0.0367219 9.76635 7.59011 11 1 
234.667 1.20933 9.75625 -0.0110962 0.0365164 9.75632 7.82219 11 1 
234.667 1.20933 9.75625 -0.0110962 0.0365164 9.75632 7.82219 11 1 
236 1.20942 9.74752 -0.0113982 0.0370043 9.7476 7.97777 11 1 
237.333 1.20946 9.73906 -0.0116786 0.0374151 9.73914 8.06361 11 1 
238.667 1.20958 9.72807 -0.0119214 0.0373043 9.72815 8.27597 11 1 
240 1.20968 9.71845 -0.0121982 0.0371251 9.71853 8.45039 11 1 
241.333 1.20975 9.70833 -0.0125537 0.0368479 9.70841 8.58859 11 1 
242.667 1.20987 9.6967 -0.0128756 0.0367817 9.69678 8.79898 11 1 
244 1.20998 9.68387 -0.0131025 0.0371688 9.68395 9.00086 11 1 
245.333 1.21004 9.67054 -0.013311 0.039435 9.67063 9.1123 11 1 
246.667 1.21015 9.65641 -0.0135199 0.0407484 9.65651 9.29491 11 1 
248 1.21028 9.64152 -0.0137718 0.0402489 9.64162 9.54224 11 1 
249.333 1.21037 9.62665 -0.0140505 0.0415076 9.62675 9.70484 11 1 
250.667 1.21047 9.60979 -0.0142113 0.0435015 9.60991 9.88747 11 1 
252 1.2106 9.59146 -0.0143558 0.0447439 9.59158 10.1068 11 1 
253.333 1.21071 9.57204 -0.0145464 0.0485648 9.57218 10.3107 11 1 
254.667 1.21082 9.55159 -0.0147001 0.051397 9.55174 10.5165 11 1 
256 1.21097 9.52998 -0.014808 0.0529952 9.53014 10.7817 11 1 
256 1.21097 9.52998 -0.014808 0.0529952 9.53014 10.7817 13 1 
257.333 1.21113 9.50633 -0.014892 0.0569575 9.50652 11.0661 13 1 
258.667 1.21126 9.48092 -0.0149846 0.060426 9.48113 11.3113 13 1 
260 1.21141 9.45435 -0.0151214 0.0644924 9.45459 11.5859 13 1 
261.333 1.21161 9.42494 -0.0151961 0.0697551 9.42522 11.9412 13 1 
262.667 1.21182 9.3925 -0.0152535 0.075775 9.39282 12.3252 13 1 
264 1.212 9.36112 -0.0153558 0.0817363 9.36149 12.6357 13 1 
265.333 1.21224 9.32407 -0.0154418 0.0900898 9.32453 13.0764 13 1 
266.667 1.21252 9.28261 -0.0155069 0.0989737 9.28316 13.5766 13 1 
268 1.21273 9.24346 -0.015595 0.10894 9.24413 13.9553 13 1 
269.333 1.21305 9.19604 -0.0157216 0.121878 9.19688 14.5431 13 1 
270.667 1.2134 9.14355 -0.0158414 0.135553 9.14459 15.1782 13 1 
272 1.21363 9.09433 -0.0159666 0.151006 9.09562 15.5888 13 1 
273.333 1.21404 9.03427 -0.016107 0.168468 9.03588 16.3196 13 1 
274.667 1.21447 8.97029 -0.0162715 0.191748 8.97238 17.1112 13 1 
276 1.21475 8.91285 -0.0164294 0.22101 8.91565 17.616 13 1 
277.333 1.21528 8.83993 -0.0166355 0.253134 8.84362 18.574 13 1 
277.333 1.21528 8.83993 -0.0166355 0.253134 8.84362 18.574 13 1 
278.667 1.21578 8.76036 -0.0168322 0.290029 8.76525 19.4706 13 1 
280 1.21608 8.68356 -0.0169675 0.32676 8.68981 20.0213 13 1 
281.333 1.21666 8.59325 -0.0171505 0.369584 8.60132 21.0553 13 1 
282.667 1.21723 8.5023 -0.0173147 0.422558 8.51293 22.0971 13 1 
284 1.21761 8.41767 -0.0174625 0.482829 8.43169 22.7821 13 1 
285.333 1.21821 8.31754 -0.01764 0.540459 8.33526 23.8527 13 1 
286.667 1.21877 8.21465 -0.0178084 0.61264 8.23778 24.869 13 1 
288 1.21906 8.1234 -0.0179433 0.695804 8.15336 25.3988 13 1 
289.333 1.21969 8.02427 -0.0180788 0.776675 8.06208 26.5262 13 1 
290.667 1.22038 7.91647 -0.0181638 0.879925 7.96566 27.7769 13 1 
292 1.22053 7.81936 -0.0181725 0.973438 7.88008 28.0554 13 1 
293.333 1.221 7.70707 -0.0181809 1.07749 7.78279 28.9015 13 1 
294.667 1.22184 7.58589 -0.01822 1.21137 7.68283 30.4149 13 1 
296 1.22174 7.5011 -0.0181913 1.37394 7.62695 30.2422 13 1 
297.333 1.2202 7.18535 -0.0180169 1.18056 7.28871 27.4577 13 1 
298.667 1.21566 6.4481 -0.0179144 0.355836 6.48775 19.2538 13 1 
298.667 1.21566 6.4481 -0.0179144 0.355836 6.48775 19.2538 14 1 
300 1.20949 5.63094 -0.0179294 -0.740904 5.7259 8.10395 14 1 
301.333 1.20533 5.1019 -0.0179628 -1.60677 5.3676 0.595325 14 1 
302.667 1.20295 4.89054 -0.0180571 -1.84257 5.22679 -3.69949 14 1 
304 1.20217 4.75985 -0.0180621 -1.73386 5.06631 -5.10709 14 1 
305.333 1.20237 4.59709 -0.0179684 -1.58065 4.86268 -4.74186 14 1 
306.667 1.20244 4.48177 -0.0178756 -1.38876 4.69295 -4.61668 14 1 
308 1.20294 4.41935 -0.0177911 -1.29259 4.60478 -3.7132 14 1 
309.333 1.20326 4.37397 -0.0178485 -1.19423 4.5349 -3.14879 14 1 
310.667 1.20327 4.30904 -0.017942 -1.08467 4.44382 -3.11962 14 1 
312 1.20363 4.22838 -0.0178978 -1.0191 4.34991 -2.46947 14 1 
313.333 1.20385 4.16772 -0.0177994 -0.921275 4.26891 -2.06984 14 1 
314.667 1.20403 4.11273 -0.0176757 -0.837382 4.19733 -1.74968 14 1 
316 1.20438 4.04035 -0.0175308 -0.773741 4.1141 -1.11445 14 1 
317.333 1.20458 3.95152 -0.0173962 -0.702982 4.01382 -0.760589 14 1 
318.667 1.20469 3.85781 -0.0172632 -0.642245 3.91113 -0.566107 14 1 
320 1.20493 3.7755 -0.0171542 -0.592742 3.82189 -0.122086 14 1 
320 1.20493 3.7755 -0.0171542 -0.592742 3.82189 -0.122086 14 1 
321.333 1.20519 3.70419 -0.01705 -0.545952 3.74441 0.342544 14 1 
322.667 1.20533 3.62498 -0.0169655 -0.501165 3.65964 0.600774 14 1 
324 1.20547 3.53297 -0.0168978 -0.467914 3.564 0.847681 14 1 
325.333 1.20565 3.44462 -0.016822 -0.437475 3.47242 1.1733 14 1 
326.667 1.20581 3.3703 -0.0167512 -0.409774 3.39524 1.45681 14 1 
328 1.20593 3.30352 -0.0166749 -0.388422 3.32639 1.68812 14 1 
329.333 1.20607 3.23351 -0.0166193 -0.36955 3.25469 1.93858 14 1 
330.667 1.2062 3.15905 -0.0165602 -0.352255 3.17875 2.16562 14 1 
332 1.20629 3.08728 -0.0164872 -0.33875 3.10591 2.33443 14 1 
333.333 1.20639 3.02488 -0.0164171 -0.326747 3.04258 2.51473 14 1 
334.667 1.20651 2.97058 -0.0163368 -0.316927 2.98754 2.72815 14 1 
336 1.20661 2.91475 -0.0162634 -0.307861 2.93107 2.90325 14 1 
337.333 1.20667 2.85445 -0.016188 -0.30038 2.87031 3.02027 14 1 
338.667 1.20674 2.79675 -0.0160878 -0.293843 2.81224 3.14617 14 1 
340 1.20683 2.74703 -0.0159693 -0.286933 2.76207 3.30145 14 1 
341.333 1.20691 2.70274 -0.0158517 -0.280949 2.7174 3.44116 14 1 
341.333 1.20691 2.70274 -0.0158517 -0.280949 2.7174 3.44116 15 1 
342.667 1.20696 2.65605 -0.0157338 -0.275519 2.67039 3.54296 15 1 
344 1.20701 2.60565 -0.0156131 -0.269765 2.61966 3.62894 15 1 
345.333 1.20706 2.55878 -0.0154782 -0.264286 2.57248 3.72778 15 1 
346.667 1.20712 2.51868 -0.0153209 -0.258386 2.53199 3.83233 15 1 
348 1.20717 2.48015 -0.0151671 -0.25202 2.49301 3.92401 15 1 
349.333 1.20721 2.43829 -0.0150195 -0.245107 2.45066 3.99662 15 1 
350.667 1.20724 2.39558 -0.0148538 -0.237934 2.40745 4.05488 15 1 
352 1.20728 2.35685 -0.0146676 -0.230178 2.36815 4.1229 15 1 
353.333 1.20733 2.32165 -0.014476 -0.221178 2.33225 4.20639 15 1 
354.667 1.20737 2.28593 -0.014297 -0.211328 2.29577 4.27674 15 1 
356 1.20739 2.24807 -0.0141284 -0.201032 2.25712 4.32158 15 1 
357.333 1.20742 2.21044 -0.0139536 -0.190058 2.21868 4.37076 15 1 
358.667 1.20746 2.17559 -0.013785 -0.178211 2.18296 4.44467 15 1 
360 1.2075 2.14201 -0.0136468 -0.165522 2.14848 4.51654 15 1 
361.333 1.20753 2.10654 -0.0135429 -0.152219 2.11212 4.56958 15 1 
362.667 1.20756 2.06952 -0.0134602 -0.138437 2.07422 4.62481 15 1 
362.667 1.20756 2.06952 -0.0134602 -0.138437 2.07422 4.62481 15 1 
364 1.2076 2.03323 -0.0133922 -0.12443 2.03711 4.69263 15 1 
365.333 1.20764 1.99823 -0.0133565 -0.110036 2.00134 4.76225 15 1 
366.667 1.20767 1.96342 -0.0133624 -0.0952099 1.96581 4.83173 15 1 
368 1.20772 1.9277 -0.0134033 -0.0803075 1.92945 4.90497 15 1 
369.333 1.20775 1.89142 -0.0134717 -0.0656864 1.89265 4.9755 15 1 
370.667 1.20779 1.85597 -0.0135605 -0.0513731 1.85677 5.04438 15 1 
372 1.20784 1.82192 -0.0136766 -0.0370287 1.82239 5.12426 15 1 
373.333 1.20789 1.78844 -0.0138305 -0.022759 1.78869 5.21127 15 1 
374.667 1.20793 1.75459 -0.0140138 -0.00898944 1.75472 5.29109 15 1 
376 1.20797 1.72083 -0.0142106 0.00420614 1.72095 5.36611 15 1 
377.333 1.20802 1.68827 -0.0144169 0.016949 1.68848 5.44935 15 1 
378.667 1.20807 1.65714 -0.0146429 0.0293831 1.65753 5.54038 15 1 
380 1.20812 1.62661 -0.01489 0.0413165 1.62727 5.62779 15 1 
381.333 1.20816 1.59604 -0.0151456 0.0524986 1.59705 5.71151 15 1 
382.667 1.20821 1.56604 -0.0154018 0.0629786 1.56747 5.7983 15 1 
384 1.20826 1.5373 -0.0156614 0.0728767 1.53919 5.8865 15 1 
384 1.20826 1.5373 -0.0156614 0.0728767 1.53919 5.8865 15 1 
385.333 1.20831 1.50955 -0.0159362 0.0823495 1.51198 5.97423 15 1 
386.667 1.20836 1.48233 -0.0162254 0.0913917 1.48534 6.06364 15 1 
388 1.20841 1.45551 -0.0165123 0.0997157 1.45913 6.15289 15 1 
389.333 1.20845 1.42932 -0.0168005 0.107305 1.43356 6.23838 15 1 
390.667 1.2085 1.40409 -0.0171007 0.114456 1.40898 6.32341 15 1 
392 1.20855 1.37982 -0.0174124 0.121306 1.38539 6.41259 15 1 
393.333 1.2086 1.35602 -0.0177317 0.127608 1.36227 6.50137 15 1 
394.667 1.20865 1.33245 -0.0180555 0.1332 1.33936 6.58507 15 1 
396 1.20869 1.30952 -0.0183883 0.138318 1.31709 6.66801 15 1 
397.333 1.20874 1.28756 -0.0187333 0.143125 1.29579 6.75347 15 1 
398.667 1.20879 1.26623 -0.0190902 0.147454 1.2751 6.83833 15 1 
400 1.20883 1.24519 -0.0194572 0.151212 1.25467 6.92053 15 1 
401.333 1.20888 1.2246 -0.0198316 0.154439 1.23464 7.00243 15 1 
402.667 1.20892 1.20474 -0.0202177 0.157176 1.21531 7.08457 15 1 
404 1.20897 1.18561 -0.0206214 0.159457 1.19665 7.16434 15 1 
405.333 1.20901 1.16697 -0.0210416 0.161288 1.17845 7.24341 15 1 
405.333 1.20901 1.16697 -0.0210416 0.161288 1.17845 7.24341 15 1 
406.667 1.20905 1.14876 -0.0214792 0.162649 1.16062 7.32416 15 1 
408 1.2091 1.1311 -0.0219363 0.163524 1.14327 7.40368 15 1 
409.333 1.20914 1.11418 -0.0224164 0.163939 1.1266 7.48064 15 1 
410.667 1.20918 1.09811 -0.0229262 0.163989 1.11073 7.55804 15 1 
412 1.20923 1.08276 -0.0234657 0.163656 1.09552 7.63701 15 1 
413.333 1.20927 1.06796 -0.0240345 0.162892 1.08079 7.71497 15 1 
414.667 1.20931 1.0539 -0.0246349 0.161794 1.06673 7.79125 15 1 
416 1.20936 1.04089 -0.025263 0.160454 1.05368 7.86846 15 1 
417.333 1.2094 1.02889 -0.0259224 0.158876 1.0416 7.94643 15 1 
418.667 1.20944 1.01761 -0.0266136 0.157113 1.0302 8.02341 15 1 
420 1.20948 1.00707 -0.0273237 0.155262 1.01952 8.10068 15 1 
421.333 1.20953 0.997569 -0.0280508 0.153379 1.00986 8.17904 15 1 
422.667 1.20957 0.989224 -0.0287992 0.151473 1.00134 8.25714 15 1 
424 1.20961 0.981915 -0.0295621 0.149604 0.993849 8.3345 15 1 
425.333 1.20966 0.975516 -0.0303282 0.147856 0.987281 8.41253 15 1 
426.667 1.2097 0.970063 -0.0310946 0.146228 0.981666 8.49166 15 1 
426.667 1.2097 0.970063 -0.0310946 0.146228 0.981666 8.49166 20 1 
428 1.20974 0.965706 -0.0318637 0.144704 0.977149 8.57026 20 1 
429.333 1.20979 0.962554 -0.0326298 0.143332 0.973846 8.6485 20 1 
430.667 1.20983 0.960518 -0.0333847 0.142137 0.971678 8.72757 20 1 
432 1.20988 0.95939 -0.0341298 0.141097 0.970432 8.80668 20 1 
433.333 1.20992 0.959129 -0.0348647 0.140191 0.970061 8.88513 20 1 
434.667 1.20996 0.959898 -0.0355833 0.139437 0.97073 8.96345 20 1 
436 1.21001 0.961751 -0.0362838 0.138853 0.972498 9.04185 20 1 
437.333 1.21005 0.96447 -0.0369664 0.138411 0.975145 9.11956 20 1 
438.667 1.21009 0.967827 -0.0376286 0.138097 0.978442 9.19612 20 1 
440 1.21013 0.971839 -0.0382606 0.137924 0.982405 9.27218 20 1 
441.333 1.21018 0.976603 -0.0388594 0.137872 0.987129 9.34756 20 1 
442.667 1.21022 0.982063 -0.0394303 0.137939 0.992557 9.42148 20 1 
444 1.21026 0.988025 -0.039968 0.138121 0.9985 9.49391 20 1 
445.333 1.2103 0.99433 -0.040466 0.13839 1.00479 9.56481 20 1 
446.667 1.21033 1.00097 -0.0409239 0.138704 1.01142 9.63412 20 1 
448 1.21037 1.00803 -0.0413522 0.13906 1.01847 9.70158 20 1 
448 1.21037 1.00803 -0.0413522 0.13906 1.01847 9.70158 20 1 
449.333 1.21041 1.01544 -0.041756 0.139457 1.02587 9.76705 20 1 
450.667 1.21044 1.02307 -0.0421383 0.139847 1.03349 9.83051 20 1 
452 1.21048 1.03078 -0.0425117 0.140182 1.04118 9.89136 20 1 
453.333 1.21051 1.03861 -0.0428955 0.140455 1.04898 9.94973 20 1 
454.667 1.21054 1.04661 -0.0433022 0.140668 1.05694 10.0061 20 1 
456 1.21057 1.05477 -0.0437456 0.140812 1.06506 10.0599 20 1 
457.333 1.2106 1.06296 -0.0442455 0.140863 1.0732 10.1107 20 1 
458.667 1.21062 1.07111 -0.044817 0.140821 1.08129 10.1586 20 1 
460 1.21065 1.07924 -0.04547 0.140711 1.08935 10.2037 20 1 
461.333 1.21067 1.08742 -0.0462116 0.140544 1.09747 10.2462 20 1 
462.667 1.21069 1.09564 -0.0470488 0.140347 1.10562 10.2859 20 1 
464 1.21072 1.10376 -0.047973 0.140133 1.11368 10.3228 20 1 
465.333 1.21073 1.1117 -0.0489696 0.139873 1.12156 10.3564 20 1 
466.667 1.21075 1.11946 -0.0500185 0.13959 1.12926 10.3871 20 1 
468 1.21077 1.1271 -0.0510943 0.139297 1.13685 10.4156 20 1 
469.333 1.21078 1.13452 -0.0521562 0.138953 1.14421 10.4413 20 1 
469.333 1.21078 1.13452 -0.0521562 0.138953 1.14421 10.4413 20 1 
470.667 1.21079 1.14156 -0.053156 0.138503 1.15119 10.464 20 1 
472 1.2108 1.14813 -0.0540451 0.137901 1.15768 10.484 20 1 
473.333 1.21081 1.1542 -0.0547794 0.137108 1.16364 10.5014 20 1 
474.667 1.21082 1.15971 -0.0553309 0.136082 1.169 10.5167 20 1 
476 1.21083 1.16452 -0.0556847 0.134777 1.17364 10.5297 20 1 
477.333 1.21084 1.16857 -0.0558715 0.133131 1.17749 10.5401 20 1 
478.667 1.21084 1.1719 -0.0559623 0.131069 1.18056 10.5483 20 1 
480 1.21084 1.17458 -0.056059 0.128572 1.18295 10.5543 20 1 
481.333 1.21085 1.17663 -0.056274 0.125692 1.18469 10.5585 20 1 
482.667 1.21085 1.17792 -0.05667 0.122555 1.18566 10.561 20 1 
484 1.21085 1.17807 -0.0572223 0.119448 1.18552 10.5615 20 1 
485.333 1.21085 1.17645 -0.0577587 0.116782 1.18369 10.56 20 1 
486.667 1.21084 1.17241 -0.057986 0.114975 1.17951 10.5563 20 1 
488 1.21084 1.16546 -0.0575476 0.114313 1.17253 10.5512 20 1 
489.333 1.21084 1.15542 -0.0561088 0.114821 1.16255 10.5448 20 1 
490.667 1.21083 1.14259 -0.0534435 0.116194 1.14982 10.5367 20 1 
490.667 1.21083 1.14259 -0.0534435 0.116194 1.14982 10.5367 20 1 
492 1.21083 1.12788 -0.049497 0.117831 1.13521 10.5271 20 1 
493.333 1.21082 1.11274 -0.0444299 0.118955 1.12008 10.5164 20 1 
494.667 1.21082 1.09881 -0.0385869 0.118814 1.10602 10.5047 20 1 
496 1.21081 1.08759 -0.0324587 0.116814 1.09449 10.492 20 1 
497.333 1.2108 1.0803 -0.0266034 0.112648 1.08672 10.4779 20 1 
498.667 1.21079 1.07773 -0.0215477 0.106323 1.08355 10.4625 20 1 
500 1.21078 1.08016 -0.0177186 0.0981065 1.08534 10.4455 20 1 
501.333 1.21077 1.08748 -0.015404 0.0884904 1.09205 10.4266 20 1 
502.667 1.21076 1.09932 -0.0147528 0.0780377 1.10338 10.4061 20 1 
504 1.21075 1.11515 -0.0157927 0.0672607 1.11884 10.3838 20 1 
505.333 1.21074 1.13437 -0.0184525 0.0565814 1.13785 10.3595 20 1 
506.667 1.21072 1.15646 -0.0225958 0.0463426 1.15989 10.3332 20 1 
508 1.21071 1.18104 -0.028064 0.0368222 1.18458 10.305 20 1 
509.333 1.21069 1.20784 -0.0346986 0.0281698 1.21161 10.2752 20 1 
510.667 1.21067 1.23661 -0.0423438 0.0204039 1.24072 10.2436 20 1 
512 1.21065 1.26718 -0.0508405 0.013534 1.27173 10.2099 20 1 
512 1.21065 1.26718 -0.0508405 0.013534 1.27173 10.2099 21 1 
513.333 1.21063 1.2995 -0.0600391 0.0075617 1.30454 10.1741 21 1 
514.667 1.21061 1.33351 -0.069791 0.00245142 1.33911 10.1365 21 1 
516 1.21059 1.36917 -0.0799494 -0.00185032 1.37536 10.0969 21 1 
517.333 1.21057 1.40642 -0.0903796 -0.00541853 1.41323 10.0546 21 1 
518.667 1.21054 1.4452 -0.100944 -0.00830685 1.45264 10.0099 21 1 
520 1.21052 1.48546 -0.111526 -0.0105665 1.49353 9.96288 21 1 
521.333 1.21049 1.52714 -0.122021 -0.0122531 1.53581 9.91296 21 1 
522.667 1.21046 1.57013 -0.132327 -0.0134148 1.5794 9.86026 21 1 
524 1.21043 1.61433 -0.14237 -0.0141146 1.62415 9.80508 21 1 
525.333 1.2104 1.65961 -0.152069 -0.0143904 1.66996 9.74682 21 1 
526.667 1.21036 1.70588 -0.161369 -0.014285 1.71671 9.68517 21 1 
528 1.21033 1.75301 -0.170217 -0.0138426 1.76427 9.62042 21 1 
529.333 1.21029 1.80086 -0.178586 -0.0130949 1.81251 9.55256 21 1 
530.667 1.21025 1.84933 -0.186451 -0.012076 1.86132 9.48124 21 1 
532 1.21021 1.89831 -0.193795 -0.0108226 1.91058 9.4065 21 1 
533.333 1.21016 1.94766 -0.200618 -0.00936901 1.96017 9.3288 21 1 
533.333 1.21016 1.94766 -0.200618 -0.00936901 1.96017 9.3288 21 1 
534.667 1.21012 1.99727 -0.206911 -0.00774964 2.00997 9.24803 21 1 
536 1.21007 2.04705 -0.212688 -0.00597981 2.0599 9.1637 21 1 
537.333 1.21002 2.09691 -0.217958 -0.00408005 2.10985 9.07614 21 1 
538.667 1.20997 2.14674 -0.222736 -0.00209696 2.15975 8.98583 21 1 
540 1.20992 2.19647 -0.227042 -4.89419e-05 2.20951 8.89252 21 1 
541.333 1.20987 2.24601 -0.230882 0.00204993 2.25904 8.79601 21 1 
542.667 1.20981 2.29532 -0.234288 0.00417796 2.30831 8.69704 21 1 
544 1.20976 2.34434 -0.237283 0.0063201 2.35727 8.59623 21 1 
545.333 1.2097 2.393 -0.239883 0.00844782 2.40584 8.49272 21 1 
546.667 1.20964 2.44126 -0.242112 0.0105391 2.45399 8.38641 21 1 
548 1.20958 2.48908 -0.24399 0.01258 2.50169 8.27875 21 1 
549.333 1.20952 2.53645 -0.245549 0.0145706 2.54891 8.16976 21 1 
550.667 1.20946 2.58335 -0.246801 0.0164853 2.59565 8.05873 21 1 
552 1.2094 2.62975 -0.24778 0.0182953 2.64189 7.9464 21 1 
553.333 1.20934 2.67563 -0.248498 0.0199913 2.68759 7.83367 21 1 
554.667 1.20927 2.72098 -0.24898 0.0215657 2.73275 7.71994 21 1 
554.667 1.20927 2.72098 -0.24898 0.0215657 2.73275 7.71994 22 1 
556 1.20921 2.76583 -0.249245 0.023005 2.77741 7.60481 22 1 
557.333 1.20915 2.81019 -0.249319 0.0243012 2.82156 7.48991 22 1 
558.667 1.20908 2.85403 -0.249227 0.0254429 2.8652 7.37568 22 1 
560 1.20902 2.89737 -0.248978 0.0263909 2.90834 7.26101 22 1 
561.333 1.20896 2.94024 -0.248603 0.0271544 2.951 7.14627 22 1 
562.667 1.20889 2.98265 -0.248112 0.0277373 2.9932 7.03296 22 1 
564 1.20883 3.02463 -0.247545 0.0281236 3.03498 6.92088 22 1 
565.333 1.20877 3.06621 -0.24691 0.0282928 3.07636 6.80876 22 1 
566.667 1.20871 3.10739 -0.246216 0.0282476 3.11734 6.69803 22 1 
568 1.20865 3.1482 -0.24551 0.0279925 3.15796 6.58999 22 1 
569.333 1.20859 3.18871 -0.244792 0.0275167 3.19828 6.48351 22 1 
570.667 1.20853 3.22893 -0.244108 0.0268386 3.23832 6.37814 22 1 
572 1.20847 3.26887 -0.243449 0.0259541 3.27809 6.27557 22 1 
573.333 1.20842 3.30857 -0.242852 0.0248565 3.31764 6.17586 22 1 
574.667 1.20836 3.34809 -0.242334 0.023564 3.357 6.07739 22 1 
576 1.20831 3.38743 -0.241913 0.0221054 3.3962 5.9815 22 1 
576 1.20831 3.38743 -0.241913 0.0221054 3.3962 5.9815 22 1 
577.333 1.20826 3.42664 -0.241615 0.020489 3.4353 5.88926 22 1 
578.667 1.20821 3.46576 -0.241452 0.0187209 3.47431 5.79984 22 1 
580 1.20816 3.50481 -0.241453 0.0168302 3.51326 5.7126 22 1 
581.333 1.20812 3.54382 -0.241606 0.0148538 3.5522 5.62836 22 1 
582.667 1.20807 3.58282 -0.241959 0.0128155 3.59113 5.54791 22 1 
584 1.20803 3.62184 -0.242496 0.0107449 3.63011 5.47023 22 1 
585.333 1.20799 3.66091 -0.243243 0.00867908 3.66916 5.39537 22 1 
586.667 1.20795 3.70006 -0.244214 0.00665608 3.7083 5.32378 22 1 
588 1.20791 3.73929 -0.245393 0.00471186 3.74754 5.25576 22 1 
589.333 1.20787 3.77863 -0.246816 0.00290257 3.78692 5.19043 22 1 
590.667 1.20784 3.81812 -0.248446 0.00126899 3.82645 5.12749 22 1 
592 1.20781 3.85776 -0.250318 -0.000144531 3.86615 5.0686 22 1 
593.333 1.20778 3.89756 -0.252409 -0.00129259 3.90603 5.01314 22 1 
594.667 1.20775 3.93754 -0.254719 -0.00212486 3.9461 4.95968 22 1 
596 1.20772 3.9777 -0.257246 -0.00258723 3.98637 4.90868 22 1 
597.333 1.20769 4.01804 -0.259976 -0.00263119 4.02683 4.86151 22 1 
597.333 1.20769 4.01804 -0.259976 -0.00263119 4.02683 4.86151 24 1 
598.667 1.20767 4.05859 -0.262906 -0.00220303 4.06752 4.81642 24 1 
600 1.20764 4.09932 -0.266014 -0.00127313 4.10839 4.77268 24 1 
601.333 1.20762 4.14022 -0.269297 0.000206301 4.14945 4.73189 24 1 
602.667 1.2076 4.1813 -0.272707 0.00228213 4.19069 4.6938 24 1 
604 1.20758 4.22253 -0.276283 0.00499376 4.23209 4.6574 24 1 
605.333 1.20756 4.26393 -0.279971 0.0083656 4.27367 4.62169 24 1 
606.667 1.20754 4.30542 -0.283756 0.0124196 4.31536 4.5887 24 1 
608 1.20752 4.34697 -0.287636 0.0171787 4.35711 4.55726 24 1 
609.333 1.20751 4.38859 -0.29158 0.0226579 4.39895 4.52515 24 1 
610.667 1.20749 4.43023 -0.295554 0.0288729 4.44082 4.49497 24 1 
612 1.20747 4.47184 -0.299573 0.0358191 4.48266 4.46707 24 1 
613.333 1.20746 4.51337 -0.30361 0.0434951 4.52445 4.43923 24 1 
614.667 1.20744 4.55478 -0.307623 0.0518731 4.56614 4.41059 24 1 
616 1.20743 4.596 -0.311624 0.0609462 4.60765 4.3834 24 1 
617.333 1.20741 4.63699 -0.315581 0.0707142 4.64895 4.35769 24 1 
618.667 1.2074 4.67772 -0.319498 0.0811092 4.69002 4.33063 24 1 
618.667 1.2074 4.67772 -0.319498 0.0811092 4.69002 4.33063 24 1 
620 1.20738 4.71807 -0.323336 0.0921335 4.73073 4.30423 24 1 
621.333 1.20737 4.758 -0.327104 0.103717 4.77106 4.27936 24 1 
622.667 1.20736 4.79747 -0.330785 0.115827 4.81095 4.25409 24 1 
624 1.20734 4.83639 -0.334361 0.128431 4.85032 4.2283 24 1 
625.333 1.20733 4.87472 -0.337825 0.141484 4.88914 4.2029 24 1 
626.667 1.20731 4.91237 -0.341178 0.154896 4.92731 4.17904 24 1 
628 1.2073 4.94928 -0.344411 0.168654 4.96478 4.15487 24 1 
629.333 1.20729 4.98538 -0.347489 0.182702 5.00146 4.13031 24 1 
630.667 1.20727 5.02064 -0.350439 0.196957 5.03734 4.10687 24 1 
632 1.20726 5.05497 -0.353229 0.211416 5.07231 4.08451 24 1 
633.333 1.20725 5.08828 -0.355842 0.225993 5.1063 4.06217 24 1 
634.667 1.20724 5.12059 -0.358329 0.240641 5.13932 4.03881 24 1 
636 1.20722 5.15178 -0.360566 0.255304 5.17124 4.01745 24 1 
637.333 1.20721 5.18175 -0.362667 0.269985 5.20197 3.99792 24 1 
638.667 1.2072 5.21064 -0.36459 0.284587 5.23163 3.97543 24 1 
640 1.20719 5.23826 -0.366251 0.299093 5.26005 3.95477 24 1 
640 1.20719 5.23826 -0.366251 0.299093 5.26005 3.95477 24 1 
641.333 1.20718 5.26452 -0.36777 0.313464 5.28711 3.93742 24 1 
642.667 1.20717 5.28962 -0.369084 0.327648 5.31304 3.91613 24 1 
644 1.20716 5.31337 -0.370118 0.341631 5.3376 3.89629 24 1 
645.333 1.20715 5.33573 -0.371073 0.355387 5.36081 3.87946 24 1 
646.667 1.20714 5.35695 -0.371759 0.368861 5.38286 3.85967 24 1 
648 1.20713 5.37675 -0.372227 0.382019 5.40349 3.84151 24 1 
649.333 1.20712 5.39529 -0.372688 0.394885 5.42287 3.82446 24 1 
650.667 1.20711 5.4127 -0.372751 0.40737 5.4411 3.80623 24 1 
652 1.2071 5.42881 -0.372897 0.419485 5.45803 3.78994 24 1 
653.333 1.20709 5.44381 -0.372788 0.431231 5.47384 3.77384 24 1 
654.667 1.20708 5.4578 -0.372573 0.44248 5.48861 3.75617 24 1 
656 1.20707 5.47067 -0.372377 0.453327 5.50226 3.74204 24 1 
657.333 1.20706 5.48265 -0.371976 0.463693 5.51499 3.7273 24 1 
658.667 1.20705 5.49384 -0.371645 0.473554 5.52692 3.71042 24 1 
660 1.20705 5.50415 -0.371188 0.482882 5.53793 3.69791 24 1 
661.333 1.20704 5.51388 -0.370752 0.49167 5.54833 3.68428 24 1 
661.333 1.20704 5.51388 -0.370752 0.49167 5.54833 3.68428 24 1 
662.667 1.20703 5.52308 -0.370295 0.499917 5.55817 3.66912 24 1 
664 1.20702 5.53171 -0.369852 0.507481 5.56739 3.65711 24 1 
665.333 1.20702 5.54007 -0.369364 0.51454 5.5763 3.64418 24 1 
666.667 1.20701 5.54825 -0.368945 0.520901 5.58499 3.62986 24 1 
668 1.207 5.55612 -0.368518 0.526596 5.59331 3.61851 24 1 
669.333 1.207 5.56409 -0.368056 0.53164 5.60168 3.60511 24 1 
670.667 1.20699 5.57212 -0.367667 0.535947 5.61004 3.59252 24 1 
672 1.20698 5.5802 -0.367237 0.539616 5.6184 3.58269 24 1 
673.333 1.20698 5.58871 -0.366798 0.542514 5.6271 3.57077 24 1 
674.667 1.20697 5.59749 -0.366424 0.54464 5.63602 3.56126 24 1 
676 1.20697 5.6067 -0.365961 0.54607 5.6453 3.55384 24 1 
677.333 1.20696 5.61653 -0.365625 0.546674 5.65512 3.54562 24 1 
678.667 1.20696 5.62698 -0.365254 0.546476 5.66548 3.5397 24 1 
680 1.20696 5.63824 -0.364963 0.545475 5.67659 3.53548 24 1 
681.333 1.20696 5.65037 -0.364803 0.543585 5.68848 3.53185 24 1 
682.667 1.20695 5.66353 -0.364723 0.54078 5.70133 3.52813 24 1 
682.667 1.20695 5.66353 -0.364723 0.54078 5.70133 3.52813 31 1 
684 1.20695 5.67785 -0.364927 0.537034 5.71527 3.52592 31 1 
685.333 1.20695 5.69346 -0.365258 0.532296 5.73041 3.52386 31 1 
686.667 1.20695 5.71045 -0.365952 0.526539 5.74686 3.52165 31 1 
688 1.20695 5.72903 -0.36696 0.51964 5.76483 3.51896 31 1 
689.333 1.20695 5.74923 -0.368253 0.511642 5.78436 3.51652 31 1 
690.667 1.20695 5.77113 -0.370079 0.502479 5.80552 3.51415 31 1 
692 1.20694 5.7949 -0.372234 0.492056 5.82849 3.50962 31 1 
693.333 1.20694 5.8205 -0.374805 0.480499 5.85323 3.50701 31 1 
694.667 1.20694 5.84795 -0.377873 0.467675 5.87978 3.50472 31 1 
696 1.20694 5.87721 -0.381203 0.453621 5.90809 3.5013 31 1 
697.333 1.20694 5.90833 -0.384957 0.43838 5.93823 3.49849 31 1 
698.667 1.20694 5.94115 -0.388952 0.422019 5.97006 3.49766 31 1 
700 1.20694 5.97564 -0.393187 0.404603 6.00355 3.49772 31 1 
701.333 1.20694 6.01171 -0.397575 0.386174 6.03861 3.49774 31 1 
702.667 1.20694 6.04915 -0.401994 0.366839 6.07504 3.49892 31 1 
704 1.20694 6.08787 -0.406433 0.34677 6.11278 3.50132 31 1 
704 1.20694 6.08787 -0.406433 0.34677 6.11278 3.50132 31 1 
705.333 1.20694 6.1277 -0.410783 0.325943 6.15166 3.50399 31 1 
706.667 1.20694 6.16858 -0.414906 0.304621 6.19161 3.50607 31 1 
708 1.20694 6.21027 -0.418821 0.282918 6.23241 3.51008 31 1 
709.333 1.20695 6.25268 -0.42238 0.260855 6.27397 3.51449 31 1 
710.667 1.20695 6.29568 -0.425552 0.238651 6.31617 3.5174 31 1 
712 1.20695 6.33912 -0.428408 0.216332 6.35887 3.52068 31 1 
713.333 1.20695 6.38293 -0.430874 0.194032 6.40198 3.5259 31 1 
714.667 1.20695 6.42693 -0.432875 0.171896 6.44535 3.53109 31 1 
716 1.20696 6.47109 -0.434423 0.149894 6.48892 3.53547 31 1 
717.333 1.20696 6.5153 -0.435551 0.12817 6.5326 3.54169 31 1 
718.667 1.20696 6.55952 -0.436244 0.106743 6.57633 3.54793 31 1 
720 1.20697 6.60372 -0.436645 0.0856588 6.6201 3.55541 31 1 
721.333 1.20697 6.64779 -0.436731 0.0649015 6.6638 3.56285 31 1 
722.667 1.20698 6.6916 -0.436441 0.0445277 6.70728 3.57086 31 1 
724 1.20698 6.73507 -0.435973 0.0246253 6.75047 3.57984 31 1 
725.333 1.20699 6.77806 -0.434838 0.00502392 6.7932 3.58639 31 1 
725.333 1.20699 6.77806 -0.434838 0.00502392 6.7932 3.58639 31 1 
726.667 1.20699 6.82062 -0.433841 -0.0141288 6.83556 3.59402 31 1 
728 1.20699 6.86257 -0.43252 -0.032773 6.87735 3.60233 31 1 
729.333 1.207 6.90365 -0.430655 -0.0510784 6.91828 3.60992 31 1 
730.667 1.207 6.94372 -0.42913 -0.0688471 6.95828 3.61969 31 1 
732 1.20701 6.98265 -0.426676 -0.086258 6.99711 3.62474 31 1 
733.333 1.20701 7.02027 -0.424228 -0.10307 7.03467 3.63188 31 1 
734.667 1.20702 7.05622 -0.421706 -0.119389 7.0706 3.64535 31 1 
736 1.20702 7.09081 -0.418507 -0.135186 7.10516 3.64839 31 1 
737.333 1.20703 7.12344 -0.415464 -0.150298 7.13779 3.65958 31 1 
738.667 1.20703 7.15405 -0.411798 -0.165 7.1684 3.67385 31 1 
740 1.20704 7.18257 -0.407744 -0.179006 7.19691 3.67896 31 1 
741.333 1.20704 7.20878 -0.403651 -0.192393 7.22314 3.68574 31 1 
742.667 1.20705 7.23255 -0.399009 -0.205047 7.2469 3.70096 31 1 
744 1.20705 7.25392 -0.393952 -0.216918 7.26825 3.70927 31 1 
745.333 1.20705 7.27283 -0.388823 -0.228431 7.28716 3.71029 31 1 
746.667 1.20706 7.2887 -0.383202 -0.238821 7.303 3.72479 31 1 
746.667 1.20706 7.2887 -0.383202 -0.238821 7.303 3.72479 31 1 
748 1.20706 7.30204 -0.377219 -0.248587 7.31629 3.72666 31 1 
749.333 1.20706 7.3127 -0.371176 -0.257667 7.32691 3.72813 31 1 
750.667 1.20707 7.32053 -0.364737 -0.265715 7.33466 3.7414 31 1 
752 1.20707 7.32566 -0.358101 -0.273306 7.33971 3.7443 31 1 
753.333 1.20707 7.32825 -0.351105 -0.279833 7.3422 3.74473 31 1 
754.667 1.20708 7.3278 -0.344084 -0.285462 7.34163 3.75725 31 1 
756 1.20708 7.32528 -0.336754 -0.290179 7.33895 3.76253 31 1 
757.333 1.20709 7.32024 -0.329168 -0.29419 7.33374 3.77215 31 1 
758.667 1.20709 7.31297 -0.321499 -0.297137 7.32627 3.78136 31 1 
760 1.2071 7.30393 -0.313571 -0.299099 7.317 3.79158 31 1 
761.333 1.20711 7.29287 -0.305616 -0.300156 7.30569 3.80838 31 1 
762.667 1.20711 7.28111 -0.297157 -0.300467 7.29364 3.8107 31 1 
764 1.20712 7.26797 -0.289056 -0.299751 7.2802 3.82979 31 1 
765.333 1.20713 7.2541 -0.279954 -0.297802 7.26595 3.84911 31 1 
766.667 1.20713 7.24021 -0.270914 -0.295627 7.2517 3.85122 31 1 
768 1.20714 7.2271 -0.261317 -0.292179 7.23816 3.85708 31 1 
768 1.20714 7.2271 -0.261317 -0.292179 7.23816 3.85708 32 1 
769.333 1.20716 7.2137 -0.251458 -0.287915 7.22432 3.89501 32 1 
770.667 1.20715 7.2029 -0.240554 -0.283491 7.21304 3.88583 32 1 
772 1.20715 7.19372 -0.229363 -0.278082 7.20336 3.8921 32 1 
773.333 1.20718 7.18549 -0.2173 -0.27278 7.19463 3.9381 32 1 
774.667 1.20717 7.18184 -0.203881 -0.266922 7.19044 3.91828 32 1 
776 1.20718 7.18034 -0.1908 -0.26149 7.18846 3.93009 32 1 
777.333 1.2072 7.18171 -0.175976 -0.255756 7.1893 3.97333 32 1 
778.667 1.20719 7.18841 -0.159784 -0.250514 7.1955 3.95925 32 1 
780 1.2072 7.19787 -0.143563 -0.245284 7.2045 3.96832 32 1 
781.333 1.20721 7.21117 -0.126864 -0.241005 7.21741 3.99951 32 1 
782.667 1.20722 7.22878 -0.108834 -0.237274 7.23465 4.00312 32 1 
784 1.20722 7.24768 -0.0896869 -0.232367 7.25318 4.01629 32 1 
785.333 1.20722 7.26963 -0.0716985 -0.227522 7.27484 4.01541 32 1 
786.667 1.20722 7.29473 -0.0556941 -0.221468 7.29967 4.01208 32 1 
788 1.20723 7.3207 -0.036069 -0.215455 7.32541 4.03469 32 1 
789.333 1.20722 7.3498 -0.0177673 -0.209941 7.35437 4.01147 32 1 
790.667 1.20721 7.38023 0.000870944 -0.200623 7.38463 3.99563 32 1 
792 1.20722 7.40945 0.0162947 -0.18776 7.41363 4.0151 32 1 
793.333 1.20717 7.44405 0.0316153 -0.173197 7.44808 3.91565 32 1 
794.667 1.20716 7.47656 0.0510336 -0.153789 7.48043 3.90432 32 1 
796 1.20713 7.51436 0.063778 -0.128814 7.518 3.84327 32 1 
797.333 1.20708 7.55369 0.0791901 -0.096212 7.5572 3.76163 32 1 
798.667 1.2071 7.58726 0.102541 -0.0512045 7.59084 3.78908 32 1 
800 1.20708 7.60621 0.115111 -0.0246818 7.60983 3.75884 32 1 
