52.5276;r ;Density                 ;Velocity u              ;Velocity v              ;Velocity w              ;|Velocity|              ;Pressure                ;Distribution            ;Levels                  ;
0 1.20356 10.0035 -2.2283e-05 0.00166949 10.0035 -2.60941 1 1 
1.33334 1.2036 10.0026 -0.00011445 -0.000665298 10.0026 -2.52245 1 1 
2.66666 1.20371 10.0015 -0.000288107 -0.0055739 10.0015 -2.33831 1 1 
4 1.2038 10.0007 -0.00044927 -0.00987861 10.0007 -2.17025 1 1 
5.33334 1.20386 9.99982 -0.000556004 -0.0127147 9.99984 -2.05818 1 1 
6.66666 1.20393 9.99935 -0.00063755 -0.0154822 9.99938 -1.93741 1 1 
8 1.20399 9.999 -0.000727762 -0.0181903 9.99904 -1.81769 1 1 
9.33334 1.20403 9.99831 -0.000759484 -0.0196504 9.99835 -1.74961 1 1 
10.6667 1.20407 9.99783 -0.000785121 -0.0212368 9.99789 -1.67091 1 1 
12 1.20411 9.99744 -0.000802112 -0.0223217 9.9975 -1.61634 1 1 
13.3333 1.20411 9.99701 -0.000762723 -0.022063 9.99707 -1.60318 1 1 
14.6667 1.20412 9.99673 -0.000725496 -0.0218392 9.99679 -1.58994 1 1 
16 1.2041 9.99606 -0.00066353 -0.0207708 9.99612 -1.63186 1 1 
17.3333 1.20406 9.99553 -0.000558271 -0.0188997 9.99558 -1.6942 1 1 
18.6667 1.20403 9.99539 -0.000472159 -0.0170581 9.99543 -1.74705 1 1 
20 1.20397 9.99484 -0.00035882 -0.014069 9.99488 -1.86137 1 1 
21.3333 1.2039 9.99444 -0.000229229 -0.0109463 9.99447 -1.98242 1 1 
21.3333 1.2039 9.99444 -0.000229229 -0.0109463 9.99447 -1.98242 1 1 
22.6667 1.20384 9.99445 -0.000144961 -0.00783879 9.99447 -2.09681 1 1 
24 1.20375 9.9942 -4.57097e-05 -0.00358002 9.99422 -2.25482 1 1 
25.3333 1.20367 9.99404 3.65539e-05 0.000258358 9.99405 -2.40411 1 1 
26.6667 1.20358 9.99391 8.27049e-05 0.00398494 9.99392 -2.56449 1 1 
28 1.20348 9.99373 0.000147593 0.00837232 9.99375 -2.74191 1 1 
29.3333 1.2034 9.9939 0.000197651 0.0119593 9.99393 -2.88249 1 1 
30.6667 1.20332 9.99376 0.000256929 0.0155478 9.99379 -3.04149 1 1 
32 1.20323 9.99361 0.000340588 0.0191697 9.99365 -3.19278 1 1 
33.3333 1.20318 9.99395 0.000367984 0.0216102 9.994 -3.28062 1 1 
34.6667 1.20313 9.99407 0.000372248 0.0240701 9.99413 -3.37697 1 1 
36 1.20309 9.99414 0.000354383 0.0258598 9.99421 -3.45657 1 1 
37.3333 1.20307 9.99429 0.000264461 0.0265101 9.99436 -3.49209 1 1 
38.6667 1.20305 9.99417 0.000160277 0.0273036 9.99426 -3.51583 1 1 
40 1.20307 9.99428 3.14522e-05 0.0269125 9.99436 -3.48805 1 1 
41.3333 1.20309 9.99443 -0.000125972 0.0257853 9.9945 -3.45495 1 1 
42.6667 1.2031 9.99423 -0.000267511 0.0249105 9.9943 -3.42331 1 1 
42.6667 1.2031 9.99423 -0.000267511 0.0249105 9.9943 -3.42331 2 1 
44 1.20316 9.99421 -0.000439794 0.0225647 9.99427 -3.3172 2 1 
45.3333 1.20323 9.9942 -0.000623241 0.0197021 9.99424 -3.20301 2 1 
46.6667 1.20329 9.99401 -0.000786567 0.0171317 9.99405 -3.09425 2 1 
48 1.20337 9.99394 -0.000975406 0.0134393 9.99396 -2.94281 2 1 
49.3333 1.20345 9.99361 -0.00115708 0.00963054 9.99363 -2.79441 2 1 
50.6667 1.20355 9.99334 -0.00132034 0.00572274 9.99335 -2.62645 2 1 
52 1.20365 9.99307 -0.00149078 0.00129286 9.99309 -2.43591 2 1 
53.3333 1.20373 9.99245 -0.00162789 -0.00256805 9.99246 -2.28495 2 1 
54.6667 1.20382 9.99215 -0.00174222 -0.00683141 9.99217 -2.12392 2 1 
56 1.20392 9.99181 -0.00184864 -0.0109285 9.99184 -1.95597 2 1 
57.3333 1.20398 9.99111 -0.00190029 -0.0136916 9.99115 -1.8372 2 1 
58.6667 1.20405 9.99056 -0.00193436 -0.0166419 9.9906 -1.71764 2 1 
60 1.2041 9.98993 -0.00194657 -0.0190754 9.98999 -1.622 2 1 
61.3333 1.20413 9.98942 -0.00190404 -0.0203368 9.98948 -1.572 2 1 
62.6667 1.20416 9.98898 -0.00186484 -0.0217282 9.98904 -1.52125 2 1 
64 1.20416 9.98801 -0.00179541 -0.0222409 9.98808 -1.51601 2 1 
64 1.20416 9.98801 -0.00179541 -0.0222409 9.98808 -1.51601 2 1 
65.3333 1.20415 9.98739 -0.00168067 -0.0216398 9.98745 -1.53776 2 1 
66.6667 1.20414 9.98699 -0.00157697 -0.0209329 9.98705 -1.54699 2 1 
68 1.20411 9.98623 -0.00144497 -0.0194307 9.98628 -1.61242 2 1 
69.3333 1.20405 9.98604 -0.00128089 -0.0172998 9.98609 -1.71205 2 1 
70.6667 1.20401 9.98553 -0.00112053 -0.0149842 9.98557 -1.79444 2 1 
72 1.20394 9.98499 -0.000942913 -0.0117776 9.98502 -1.90782 2 1 
73.3333 1.20387 9.98495 -0.000767988 -0.00868415 9.98497 -2.03342 2 1 
74.6667 1.2038 9.98436 -0.000598561 -0.00526128 9.98438 -2.17477 2 1 
76 1.2037 9.9841 -0.000418309 -0.00100996 9.98411 -2.34368 2 1 
77.3333 1.20363 9.98401 -0.000277323 0.00224051 9.98402 -2.46972 2 1 
78.6667 1.20356 9.98362 -0.000150422 0.00594965 9.98363 -2.60569 2 1 
80 1.20347 9.98359 -1.7585e-05 0.0100249 9.98362 -2.75998 2 1 
81.3333 1.20341 9.98353 6.17958e-05 0.0129316 9.98356 -2.87383 2 1 
82.6667 1.20334 9.98344 0.000131022 0.0161102 9.98348 -2.99745 2 1 
84 1.20329 9.98347 0.000186286 0.0188745 9.98351 -3.09685 2 1 
85.3333 1.20325 9.98318 0.000193744 0.0207413 9.98323 -3.154 2 1 
85.3333 1.20325 9.98318 0.000193744 0.0207413 9.98323 -3.154 3 1 
86.6667 1.20321 9.98313 0.000190458 0.0225881 9.98318 -3.23371 3 1 
88 1.20319 9.98337 0.000152127 0.0235984 9.98343 -3.27774 3 1 
89.3333 1.20318 9.98327 7.62576e-05 0.0238416 9.98333 -3.28593 3 1 
90.6667 1.20317 9.98306 3.0857e-06 0.0244825 9.98311 -3.30347 3 1 
92 1.20319 9.98283 -0.00010709 0.0241841 9.98289 -3.27817 3 1 
93.3333 1.20321 9.98246 -0.000244203 0.02318 9.98251 -3.23421 3 1 
94.6667 1.20323 9.98225 -0.000375462 0.0221255 9.9823 -3.18839 3 1 
96 1.20327 9.98212 -0.000535153 0.0202005 9.98216 -3.11641 3 1 
97.3333 1.20332 9.98178 -0.00069558 0.0180602 9.98181 -3.03519 3 1 
98.6667 1.20338 9.98165 -0.000848899 0.015546 9.98168 -2.92219 3 1 
100 1.20345 9.98146 -0.00101679 0.0128043 9.98149 -2.8017 3 1 
101.333 1.2035 9.9807 -0.00116478 0.0102693 9.98072 -2.70713 3 1 
102.667 1.20356 9.98016 -0.00131324 0.00712606 9.98017 -2.59287 3 1 
104 1.20363 9.97953 -0.00145512 0.0044228 9.97954 -2.47176 3 1 
105.333 1.20369 9.97857 -0.00154539 0.00231774 9.97858 -2.36074 3 1 
106.667 1.20375 9.97846 -0.00163603 -0.000709209 9.97847 -2.24965 3 1 
106.667 1.20375 9.97846 -0.00163603 -0.000709209 9.97847 -2.24965 3 1 
108 1.2038 9.97845 -0.00171779 -0.00315538 9.97846 -2.1723 3 1 
109.333 1.20384 9.97751 -0.00174559 -0.00464289 9.97752 -2.08668 3 1 
110.667 1.20389 9.97715 -0.00177234 -0.00695756 9.97717 -2.00442 3 1 
112 1.20391 9.97653 -0.0017809 -0.00824077 9.97654 -1.96434 3 1 
113.333 1.20395 9.97483 -0.0017453 -0.00868664 9.97485 -1.90109 3 1 
114.667 1.20396 9.97472 -0.00170458 -0.00985462 9.97474 -1.88 3 1 
116 1.20395 9.97474 -0.00164275 -0.010205 9.97477 -1.89981 3 1 
117.333 1.20396 9.97343 -0.00155328 -0.0101067 9.97345 -1.87028 3 1 
118.667 1.20395 9.97328 -0.00145152 -0.00996768 9.9733 -1.89535 3 1 
120 1.20392 9.97318 -0.00133263 -0.00885263 9.9732 -1.95929 3 1 
121.333 1.20391 9.972 -0.00120485 -0.00759321 9.97201 -1.96917 3 1 
122.667 1.20387 9.9718 -0.00108443 -0.00630905 9.97181 -2.04971 3 1 
124 1.2038 9.97144 -0.000934054 -0.004329 9.97145 -2.16019 3 1 
125.333 1.20379 9.96998 -0.000793494 -0.00295446 9.96999 -2.18597 3 1 
126.667 1.20374 9.96981 -0.000685941 -0.00129723 9.96982 -2.27938 3 1 
128 1.20367 9.96994 -0.000558685 0.00107122 9.96995 -2.40705 3 1 
128 1.20367 9.96994 -0.000558685 0.00107122 9.96995 -2.40705 3 1 
129.333 1.20364 9.96904 -0.00043726 0.00313731 9.96904 -2.45322 3 1 
130.667 1.20359 9.96881 -0.000358953 0.00526211 9.96882 -2.54748 3 1 
132 1.20353 9.96858 -0.000293994 0.00750556 9.96859 -2.65638 3 1 
133.333 1.20351 9.9673 -0.000217464 0.00911748 9.96731 -2.69108 3 1 
134.667 1.20347 9.96675 -0.000175171 0.0104079 9.96676 -2.76362 3 1 
136 1.20341 9.9671 -0.000171143 0.0117928 9.96711 -2.86811 3 1 
137.333 1.2034 9.96625 -0.000175122 0.0133818 9.96626 -2.89345 3 1 
138.667 1.20339 9.96525 -0.000185582 0.0148309 9.96527 -2.90949 3 1 
140 1.20335 9.96558 -0.000231826 0.0158231 9.9656 -2.97944 3 1 
141.333 1.20335 9.96461 -0.000303094 0.0165391 9.96463 -2.98695 3 1 
142.667 1.20336 9.9633 -0.000365593 0.0167878 9.96332 -2.96802 3 1 
144 1.20334 9.96385 -0.000466942 0.0163722 9.96387 -3.00722 3 1 
145.333 1.20336 9.96286 -0.000577098 0.0164184 9.96288 -2.97018 3 1 
146.667 1.20339 9.96134 -0.000682253 0.0164594 9.96136 -2.9025 3 1 
148 1.20338 9.96212 -0.000791705 0.0161412 9.96214 -2.91891 3 1 
149.333 1.20342 9.96133 -0.000900753 0.0151405 9.96135 -2.85722 3 1 
149.333 1.20342 9.96133 -0.000900753 0.0151405 9.96135 -2.85722 3 1 
150.667 1.20346 9.95988 -0.0010121 0.0139238 9.9599 -2.77529 3 1 
152 1.20346 9.9601 -0.0011094 0.0131703 9.96011 -2.77293 3 1 
153.333 1.20351 9.9586 -0.00120577 0.0115536 9.95862 -2.68316 3 1 
154.667 1.20356 9.95763 -0.00129798 0.0107694 9.95764 -2.60065 3 1 
156 1.20357 9.95797 -0.00137399 0.0100537 9.95798 -2.58487 3 1 
157.333 1.20361 9.95666 -0.00142468 0.00849602 9.95667 -2.50288 3 1 
158.667 1.20366 9.95582 -0.00146182 0.00731895 9.95583 -2.42784 3 1 
160 1.20368 9.95563 -0.0015068 0.00582655 9.95564 -2.39149 3 1 
161.333 1.20371 9.95473 -0.0015241 0.00478589 9.95473 -2.33352 3 1 
162.667 1.20374 9.95391 -0.0015 0.00384106 9.95391 -2.27185 3 1 
164 1.20376 9.95363 -0.0014747 0.00284578 9.95364 -2.24691 3 1 
165.333 1.20377 9.95297 -0.00146041 0.00261968 9.95297 -2.21483 3 1 
166.667 1.20381 9.9515 -0.00143518 0.00222665 9.9515 -2.1478 3 1 
168 1.20381 9.95107 -0.00138104 0.00151284 9.95107 -2.14688 3 1 
169.333 1.2038 9.95059 -0.00135553 0.00182745 9.9506 -2.15858 3 1 
170.667 1.20383 9.94933 -0.00132123 0.00213408 9.94933 -2.11934 3 1 
170.667 1.20383 9.94933 -0.00132123 0.00213408 9.94933 -2.11934 11 1 
172 1.20383 9.94917 -0.00124882 0.00233211 9.94917 -2.12142 11 1 
173.333 1.20382 9.94872 -0.00117444 0.00310759 9.94872 -2.12765 11 1 
174.667 1.20383 9.94755 -0.00111815 0.0035216 9.94755 -2.11404 11 1 
176 1.20382 9.94702 -0.0010454 0.00420223 9.94702 -2.13867 11 1 
177.333 1.20381 9.94616 -0.000972827 0.00504807 9.94616 -2.156 11 1 
178.667 1.20381 9.94515 -0.000953196 0.00625719 9.94515 -2.15593 11 1 
180 1.2038 9.9443 -0.000965662 0.00789289 9.94431 -2.16087 11 1 
181.333 1.2038 9.94345 -0.000966397 0.00897216 9.94346 -2.16471 11 1 
182.667 1.20379 9.94308 -0.000977689 0.0097599 9.94309 -2.1802 11 1 
184 1.20379 9.94213 -0.00102015 0.0104703 9.94213 -2.17768 11 1 
185.333 1.2038 9.94092 -0.00103335 0.0112931 9.94093 -2.17328 11 1 
186.667 1.2038 9.93986 -0.00103546 0.0120745 9.93987 -2.16709 11 1 
188 1.20382 9.93875 -0.00107033 0.0127634 9.93876 -2.13951 11 1 
189.333 1.20383 9.93822 -0.00111147 0.0139171 9.93823 -2.12156 11 1 
190.667 1.20384 9.93734 -0.00113631 0.0144867 9.93735 -2.09568 11 1 
192 1.20386 9.93597 -0.00117588 0.0143703 9.93598 -2.05838 11 1 
192 1.20386 9.93597 -0.00117588 0.0143703 9.93598 -2.05838 11 1 
193.333 1.20389 9.93434 -0.00123807 0.0145121 9.93435 -2.01323 11 1 
194.667 1.20392 9.9323 -0.00126393 0.0145097 9.93231 -1.95206 11 1 
196 1.20395 9.93045 -0.00131973 0.0135365 9.93046 -1.90253 11 1 
197.333 1.20397 9.92902 -0.00139784 0.0132878 9.92903 -1.86869 11 1 
198.667 1.204 9.92735 -0.00142202 0.012639 9.92736 -1.80117 11 1 
200 1.20404 9.92586 -0.00147458 0.0118485 9.92586 -1.7293 11 1 
201.333 1.20407 9.92472 -0.00149704 0.0122802 9.92473 -1.67643 11 1 
202.667 1.20411 9.92271 -0.00152299 0.0120935 9.92272 -1.60095 11 1 
204 1.20414 9.91981 -0.00155508 0.0114347 9.91981 -1.54962 11 1 
205.333 1.20416 9.9162 -0.00157967 0.010503 9.91621 -1.51934 11 1 
206.667 1.20419 9.91272 -0.0016233 0.0091187 9.91273 -1.4597 11 1 
208 1.20423 9.9104 -0.00165978 0.00932454 9.9104 -1.39506 11 1 
209.333 1.20425 9.90823 -0.00168207 0.00972959 9.90824 -1.34895 11 1 
210.667 1.20427 9.90589 -0.00171936 0.00945943 9.9059 -1.31642 11 1 
212 1.20429 9.90354 -0.00174515 0.0102154 9.90354 -1.28624 11 1 
213.333 1.20432 9.89944 -0.00173824 0.0108389 9.89944 -1.22437 11 1 
213.333 1.20432 9.89944 -0.00173824 0.0108389 9.89944 -1.22437 11 1 
214.667 1.20434 9.89551 -0.00176318 0.0102602 9.89551 -1.19364 11 1 
216 1.20434 9.8918 -0.00178849 0.0103833 9.89181 -1.18592 11 1 
217.333 1.20438 9.88613 -0.00179688 0.0116014 9.88614 -1.11666 11 1 
218.667 1.20438 9.88268 -0.00181098 0.0114878 9.88269 -1.11813 11 1 
220 1.2044 9.87841 -0.00188606 0.0130485 9.87842 -1.08275 11 1 
221.333 1.20445 9.87339 -0.00190124 0.014975 9.87341 -0.985502 11 1 
222.667 1.20446 9.87094 -0.00187966 0.0140081 9.87095 -0.978221 11 1 
224 1.2045 9.86495 -0.00190988 0.0143669 9.86496 -0.906867 11 1 
225.333 1.20452 9.85971 -0.00192276 0.0146482 9.85972 -0.86587 11 1 
226.667 1.20455 9.85427 -0.00193827 0.0150987 9.85428 -0.814715 11 1 
228 1.20462 9.84604 -0.00203344 0.017181 9.84605 -0.694898 11 1 
229.333 1.20462 9.84184 -0.00213129 0.0177559 9.84186 -0.682648 11 1 
230.667 1.2047 9.83495 -0.00211846 0.0174654 9.83496 -0.550744 11 1 
232 1.20475 9.82752 -0.00209057 0.0176451 9.82754 -0.442959 11 1 
233.333 1.20476 9.82244 -0.00219307 0.0180377 9.82246 -0.438839 11 1 
234.667 1.20487 9.8127 -0.00229355 0.0180354 9.81271 -0.243112 11 1 
234.667 1.20487 9.8127 -0.00229355 0.0180354 9.81271 -0.243112 11 1 
236 1.20493 9.80442 -0.0023399 0.0191669 9.80444 -0.124843 11 1 
237.333 1.20495 9.79637 -0.00246006 0.0200242 9.79639 -0.0849173 11 1 
238.667 1.20504 9.78567 -0.00250838 0.020326 9.78569 0.0779495 11 1 
240 1.20512 9.77652 -0.00250719 0.0208078 9.77655 0.21096 11 1 
241.333 1.20517 9.76698 -0.00264518 0.0212227 9.76701 0.310233 11 1 
242.667 1.20526 9.75574 -0.00282174 0.021638 9.75577 0.477191 11 1 
244 1.20536 9.74316 -0.00284329 0.022558 9.74319 0.641764 11 1 
245.333 1.2054 9.73023 -0.00284751 0.0255698 9.73027 0.722013 11 1 
246.667 1.20549 9.71659 -0.00293839 0.0273883 9.71663 0.881348 11 1 
248 1.20561 9.7021 -0.0030616 0.0272555 9.70214 1.10952 11 1 
249.333 1.2057 9.68775 -0.00315885 0.0290835 9.68779 1.25931 11 1 
250.667 1.20579 9.67151 -0.00320438 0.0315771 9.67157 1.43049 11 1 
252 1.20591 9.6536 -0.00330768 0.0330951 9.65366 1.6403 11 1 
253.333 1.20602 9.63461 -0.00341597 0.0373336 9.63469 1.84098 11 1 
254.667 1.20613 9.61469 -0.00347684 0.0407161 9.61478 2.04961 11 1 
256 1.20628 9.59366 -0.00357714 0.0426548 9.59376 2.3193 11 1 
256 1.20628 9.59366 -0.00357714 0.0426548 9.59376 2.3193 13 1 
257.333 1.20644 9.57049 -0.00365661 0.0469848 9.57061 2.60603 13 1 
258.667 1.20658 9.54566 -0.00370829 0.0509356 9.5458 2.85927 13 1 
260 1.20674 9.51975 -0.00384327 0.0552486 9.51992 3.14585 13 1 
261.333 1.20694 9.4908 -0.00397123 0.0605432 9.491 3.50586 13 1 
262.667 1.20715 9.45879 -0.0040195 0.0668202 9.45903 3.89232 13 1 
264 1.20733 9.42807 -0.00408918 0.072886 9.42836 4.20646 13 1 
265.333 1.20757 9.39167 -0.00422207 0.0810431 9.39203 4.64972 13 1 
266.667 1.20785 9.35073 -0.00431224 0.0899162 9.35118 5.14727 13 1 
268 1.20806 9.31217 -0.00438203 0.0997482 9.31272 5.52062 13 1 
269.333 1.20838 9.26534 -0.00452782 0.1123 9.26604 6.1058 13 1 
270.667 1.20873 9.21335 -0.00464764 0.125694 9.21423 6.73266 13 1 
272 1.20895 9.16469 -0.00471841 0.140739 9.1658 7.12626 13 1 
273.333 1.20934 9.10515 -0.0048243 0.157637 9.10654 7.84418 13 1 
274.667 1.20977 9.04165 -0.00496475 0.180384 9.04348 8.62202 13 1 
276 1.21004 8.98479 -0.00506758 0.209144 8.98726 9.10826 13 1 
277.333 1.21057 8.91237 -0.00518937 0.240772 8.91568 10.0579 13 1 
277.333 1.21057 8.91237 -0.00518937 0.240772 8.91568 10.0579 13 1 
278.667 1.21106 8.83343 -0.00530732 0.277299 8.83785 10.9437 13 1 
280 1.21135 8.75728 -0.00536703 0.313826 8.76299 11.4772 13 1 
281.333 1.21192 8.66745 -0.00545809 0.356486 8.67489 12.5024 13 1 
282.667 1.2125 8.57715 -0.00556253 0.40958 8.58704 13.5391 13 1 
284 1.21287 8.49324 -0.00565891 0.469897 8.50639 14.2126 13 1 
285.333 1.21346 8.39365 -0.00575252 0.527776 8.41038 15.2789 13 1 
286.667 1.21402 8.29143 -0.00583242 0.600543 8.31344 16.294 13 1 
288 1.21431 8.20111 -0.00589448 0.684645 8.22984 16.8146 13 1 
289.333 1.21493 8.1028 -0.005964 0.766364 8.13925 17.9446 13 1 
290.667 1.21563 7.9958 -0.00603043 0.870832 8.0435 19.1987 13 1 
292 1.21577 7.89972 -0.00606694 0.96548 7.95885 19.4605 13 1 
293.333 1.21624 7.78836 -0.00608947 1.07077 7.86238 20.2957 13 1 
294.667 1.21707 7.66811 -0.00611685 1.20646 7.76325 21.8084 13 1 
296 1.21696 7.58498 -0.00612421 1.37085 7.7089 21.6057 13 1 
297.333 1.21537 7.26827 -0.00608761 1.17546 7.36984 18.7303 13 1 
298.667 1.21071 6.52534 -0.0060988 0.341309 6.56456 10.3148 13 1 
298.667 1.21071 6.52534 -0.0060988 0.341309 6.56456 10.3148 14 1 
300 1.20438 5.70258 -0.00618591 -0.767608 5.80089 -1.11262 14 1 
301.333 1.20012 5.17171 -0.00630076 -1.643 5.44516 -8.82344 14 1 
302.667 1.19766 4.96211 -0.00644985 -1.88039 5.30709 -13.2514 14 1 
304 1.19685 4.83359 -0.00657847 -1.76829 5.14735 -14.7244 14 1 
305.333 1.19704 4.67206 -0.00667234 -1.61132 4.94355 -14.3816 14 1 
306.667 1.19709 4.55886 -0.00675731 -1.41523 4.77443 -14.2843 14 1 
308 1.19759 4.49959 -0.0068335 -1.31622 4.6884 -13.3845 14 1 
309.333 1.19789 4.45785 -0.00694723 -1.21502 4.6213 -12.8347 14 1 
310.667 1.1979 4.39621 -0.00706187 -1.10217 4.53259 -12.8324 14 1 
312 1.19825 4.31826 -0.00711753 -1.03386 4.44072 -12.1884 14 1 
313.333 1.19846 4.26052 -0.00714751 -0.932638 4.36197 -11.8038 14 1 
314.667 1.19863 4.20841 -0.00718342 -0.845681 4.29272 -11.4977 14 1 
316 1.19898 4.13853 -0.00722776 -0.779142 4.21154 -10.867 14 1 
317.333 1.19917 4.052 -0.00726951 -0.705189 4.11313 -10.528 14 1 
318.667 1.19927 3.96048 -0.00730762 -0.641298 4.01226 -10.3495 14 1 
320 1.19951 3.88055 -0.00735169 -0.588799 3.92508 -9.91254 14 1 
320 1.19951 3.88055 -0.00735169 -0.588799 3.92508 -9.91254 14 1 
321.333 1.19977 3.81195 -0.00739229 -0.538971 3.85004 -9.45451 14 1 
322.667 1.1999 3.7354 -0.00744134 -0.490974 3.76767 -9.20591 14 1 
324 1.20003 3.6458 -0.00749799 -0.454551 3.67418 -8.96976 14 1 
325.333 1.20021 3.55992 -0.00755752 -0.420756 3.5848 -8.6549 14 1 
326.667 1.20036 3.48828 -0.00762305 -0.389488 3.51004 -8.37825 14 1 
328 1.20049 3.4244 -0.00769179 -0.364319 3.4438 -8.15199 14 1 
329.333 1.20062 3.35731 -0.00777436 -0.341305 3.37471 -7.90833 14 1 
330.667 1.20074 3.28545 -0.00785473 -0.319695 3.30105 -7.68913 14 1 
332 1.20083 3.21609 -0.00796804 -0.301827 3.23029 -7.52826 14 1 
333.333 1.20093 3.15619 -0.00813473 -0.285318 3.16912 -7.3537 14 1 
334.667 1.20105 3.10465 -0.0082808 -0.270856 3.1165 -7.14295 14 1 
336 1.20114 3.05162 -0.00840806 -0.257075 3.06249 -6.96751 14 1 
337.333 1.20121 2.99373 -0.00856732 -0.244967 3.0038 -6.84879 14 1 
338.667 1.20128 2.93817 -0.00867216 -0.234184 2.94755 -6.72405 14 1 
340 1.20136 2.89074 -0.00865109 -0.223314 2.89941 -6.5704 14 1 
341.333 1.20144 2.84921 -0.00867371 -0.213642 2.85725 -6.42678 14 1 
341.333 1.20144 2.84921 -0.00867371 -0.213642 2.85725 -6.42678 15 1 
342.667 1.2015 2.8055 -0.00889372 -0.205164 2.81304 -6.31784 15 1 
344 1.20155 2.7577 -0.0091755 -0.197029 2.76478 -6.22638 15 1 
345.333 1.20161 2.71308 -0.00929999 -0.189559 2.71974 -6.12113 15 1 
346.667 1.20167 2.67545 -0.0092732 -0.181593 2.68165 -6.00611 15 1 
348 1.20173 2.63986 -0.00927025 -0.172944 2.64556 -5.90237 15 1 
349.333 1.20178 2.60095 -0.00938496 -0.163834 2.60615 -5.81873 15 1 
350.667 1.20182 2.56082 -0.00958984 -0.155066 2.56556 -5.75014 15 1 
352 1.20186 2.52479 -0.00983709 -0.146664 2.5291 -5.67068 15 1 
353.333 1.20191 2.4931 -0.0101006 -0.137789 2.49695 -5.57401 15 1 
354.667 1.20196 2.46168 -0.0103792 -0.128564 2.46508 -5.48952 15 1 
356 1.20199 2.42833 -0.0106735 -0.119292 2.43131 -5.43207 15 1 
357.333 1.20202 2.39506 -0.0109688 -0.109672 2.39762 -5.37422 15 1 
358.667 1.20207 2.36487 -0.0112618 -0.0995779 2.36702 -5.29192 15 1 
360 1.20212 2.33689 -0.0115647 -0.088911 2.33864 -5.20897 15 1 
361.333 1.20215 2.30798 -0.0118883 -0.0777453 2.30935 -5.14678 15 1 
362.667 1.20218 2.27785 -0.012222 -0.0660707 2.27887 -5.08734 15 1 
362.667 1.20218 2.27785 -0.012222 -0.0660707 2.27887 -5.08734 15 1 
364 1.20222 2.24838 -0.0125514 -0.0542503 2.2491 -5.01835 15 1 
365.333 1.20226 2.22035 -0.0128856 -0.0422889 2.22082 -4.94801 15 1 
366.667 1.2023 2.19302 -0.0132306 -0.0300832 2.19329 -4.87645 15 1 
368 1.20234 2.1652 -0.0135881 -0.0178901 2.16534 -4.80009 15 1 
369.333 1.20238 2.13676 -0.0139551 -0.00607882 2.13684 -4.72733 15 1 
370.667 1.20242 2.10877 -0.0143143 0.00513943 2.10886 -4.65891 15 1 
372 1.20246 2.08197 -0.0146661 0.0159427 2.08212 -4.58228 15 1 
373.333 1.20251 2.05582 -0.0150257 0.0263484 2.05608 -4.49904 15 1 
374.667 1.20255 2.02949 -0.0153849 0.0360616 2.0299 -4.42237 15 1 
376 1.20259 2.00321 -0.0157256 0.0450669 2.00382 -4.35194 15 1 
377.333 1.20263 1.97784 -0.0160447 0.0534316 1.97866 -4.27579 15 1 
378.667 1.20268 1.9537 -0.0163555 0.0613006 1.95477 -4.1925 15 1 
380 1.20272 1.93031 -0.0166648 0.0686277 1.93164 -4.11253 15 1 
381.333 1.20277 1.90716 -0.0169645 0.0753115 1.90876 -4.03609 15 1 
382.667 1.20281 1.88468 -0.0172462 0.0814083 1.88656 -3.9563 15 1 
384 1.20285 1.86339 -0.0175152 0.0869625 1.86554 -3.87609 15 1 
384 1.20285 1.86339 -0.0175152 0.0869625 1.86554 -3.87609 15 1 
385.333 1.2029 1.84304 -0.0177903 0.09216 1.84547 -3.79844 15 1 
386.667 1.20294 1.82333 -0.0180763 0.0971932 1.82605 -3.71951 15 1 
388 1.20299 1.80424 -0.018362 0.10192 1.80725 -3.63969 15 1 
389.333 1.20303 1.78582 -0.0186539 0.106344 1.78913 -3.56378 15 1 
390.667 1.20307 1.76826 -0.0189676 0.110717 1.77187 -3.48907 15 1 
392 1.20311 1.75157 -0.0193055 0.115151 1.75551 -3.40868 15 1 
393.333 1.20316 1.7355 -0.0196617 0.119437 1.73977 -3.32603 15 1 
394.667 1.2032 1.71992 -0.0200365 0.123423 1.72452 -3.24781 15 1 
396 1.20324 1.70515 -0.0204353 0.127272 1.71007 -3.17081 15 1 
397.333 1.20329 1.69139 -0.020854 0.131092 1.69664 -3.09185 15 1 
398.667 1.20333 1.67832 -0.0212967 0.134767 1.68392 -3.01464 15 1 
400 1.20337 1.66578 -0.0217733 0.138295 1.67171 -2.93974 15 1 
401.333 1.20342 1.65408 -0.0222828 0.141731 1.66036 -2.86243 15 1 
402.667 1.20346 1.6436 -0.0228213 0.145031 1.65021 -2.78251 15 1 
404 1.2035 1.63433 -0.0233826 0.148085 1.64125 -2.70476 15 1 
405.333 1.20354 1.62613 -0.0239645 0.15068 1.63333 -2.62897 15 1 
405.333 1.20354 1.62613 -0.0239645 0.15068 1.63333 -2.62897 15 1 
406.667 1.20359 1.61909 -0.0245677 0.152588 1.62651 -2.55235 15 1 
408 1.20363 1.61353 -0.0251931 0.15373 1.62109 -2.47686 15 1 
409.333 1.20367 1.60955 -0.0258451 0.154184 1.61718 -2.4037 15 1 
410.667 1.20371 1.607 -0.0265245 0.154129 1.61465 -2.3305 15 1 
412 1.20375 1.60559 -0.0272255 0.153662 1.61321 -2.25736 15 1 
413.333 1.20379 1.60525 -0.0279376 0.152943 1.61281 -2.18752 15 1 
414.667 1.20383 1.60628 -0.0286533 0.152307 1.61378 -2.12063 15 1 
416 1.20386 1.60901 -0.0293612 0.15199 1.61648 -2.05261 15 1 
417.333 1.2039 1.61331 -0.030067 0.152026 1.62078 -1.98413 15 1 
418.667 1.20394 1.61887 -0.0307806 0.152511 1.62636 -1.91831 15 1 
420 1.20397 1.62578 -0.0315092 0.153598 1.63336 -1.85429 15 1 
421.333 1.20401 1.63443 -0.0322735 0.1554 1.64216 -1.79043 15 1 
422.667 1.20404 1.64491 -0.0330875 0.157933 1.65284 -1.72679 15 1 
424 1.20408 1.65689 -0.0339358 0.161227 1.66509 -1.66356 15 1 
425.333 1.20411 1.67 -0.0347788 0.16531 1.67856 -1.59975 15 1 
426.667 1.20415 1.68401 -0.0355796 0.170142 1.69299 -1.53568 15 1 
426.667 1.20415 1.68401 -0.0355796 0.170142 1.69299 -1.53568 20 1 
428 1.20418 1.69856 -0.0363232 0.175775 1.70805 -1.47322 20 1 
429.333 1.20422 1.7128 -0.0370118 0.182453 1.72293 -1.41037 20 1 
430.667 1.20426 1.72561 -0.0376452 0.190314 1.73653 -1.34445 20 1 
432 1.20429 1.73633 -0.0381983 0.199064 1.74819 -1.27767 20 1 
433.333 1.20433 1.74525 -0.0385688 0.207705 1.75805 -1.21281 20 1 
434.667 1.20436 1.75309 -0.0385916 0.214635 1.76666 -1.14916 20 1 
436 1.2044 1.75947 -0.0381249 0.218401 1.77343 -1.08424 20 1 
437.333 1.20444 1.76113 -0.0370938 0.218969 1.77512 -1.01738 20 1 
438.667 1.20447 1.75159 -0.035435 0.218867 1.76566 -0.950332 20 1 
440 1.20451 1.72369 -0.0329988 0.222173 1.7385 -0.884856 20 1 
441.333 1.20454 1.67421 -0.0294698 0.230959 1.69077 -0.823166 20 1 
442.667 1.20458 1.60791 -0.0244677 0.241605 1.62671 -0.766431 20 1 
444 1.20461 1.53783 -0.0179186 0.244466 1.55771 -0.713137 20 1 
445.333 1.20463 1.4798 -0.0104293 0.228265 1.49783 -0.661993 20 1 
446.667 1.20466 1.44467 -0.00327843 0.18671 1.45776 -0.614382 20 1 
448 1.20468 1.43372 0.00211095 0.122131 1.4409 -0.57353 20 1 
448 1.20468 1.43372 0.00211095 0.122131 1.4409 -0.57353 20 1 
449.333 1.2047 1.44017 0.00478279 0.0434243 1.44344 -0.540784 20 1 
450.667 1.20471 1.4547 0.00445249 -0.0389242 1.45792 -0.514967 20 1 
452 1.20473 1.47039 0.00131563 -0.116841 1.47747 -0.494316 20 1 
453.333 1.20474 1.48453 -0.00420959 -0.185951 1.49819 -0.476541 20 1 
454.667 1.20475 1.49748 -0.0116455 -0.244822 1.51911 -0.460022 20 1 
456 1.20475 1.51094 -0.0204843 -0.293551 1.54073 -0.44361 20 1 
457.333 1.20476 1.52644 -0.0301946 -0.332648 1.56372 -0.425167 20 1 
458.667 1.20478 1.54473 -0.0402681 -0.362577 1.58825 -0.402994 20 1 
460 1.20479 1.56595 -0.0502795 -0.383763 1.61406 -0.376841 20 1 
461.333 1.20481 1.58987 -0.0599253 -0.39674 1.64076 -0.346754 20 1 
462.667 1.20483 1.61606 -0.0690198 -0.402099 1.66793 -0.312107 20 1 
464 1.20485 1.64412 -0.0774494 -0.400489 1.69531 -0.27302 20 1 
465.333 1.20487 1.67376 -0.0851569 -0.392689 1.72286 -0.232094 20 1 
466.667 1.20489 1.70479 -0.0921132 -0.379486 1.75071 -0.191397 20 1 
468 1.20492 1.73712 -0.0982983 -0.361633 1.77906 -0.150462 20 1 
469.333 1.20494 1.77068 -0.103706 -0.339877 1.80815 -0.10848 20 1 
469.333 1.20494 1.77068 -0.103706 -0.339877 1.80815 -0.10848 20 1 
470.667 1.20496 1.80541 -0.108352 -0.315001 1.8382 -0.0661743 20 1 
472 1.20499 1.84124 -0.112274 -0.287748 1.86939 -0.0256141 20 1 
473.333 1.20501 1.87816 -0.115517 -0.258772 1.90189 0.0122596 20 1 
474.667 1.20503 1.91616 -0.118152 -0.228654 1.93586 0.0486512 20 1 
476 1.20505 1.95528 -0.120249 -0.197912 1.97141 0.0847422 20 1 
477.333 1.20507 1.99554 -0.121892 -0.167011 2.00864 0.120548 20 1 
478.667 1.20509 2.03697 -0.123165 -0.136346 2.04758 0.154465 20 1 
480 1.2051 2.07954 -0.124154 -0.106225 2.0882 0.183907 20 1 
481.333 1.20512 2.1233 -0.12493 -0.0769085 2.13052 0.209518 20 1 
482.667 1.20513 2.16834 -0.12555 -0.0486079 2.17456 0.235111 20 1 
484 1.20515 2.21468 -0.126073 -0.0214859 2.22032 0.262989 20 1 
485.333 1.20516 2.26227 -0.126551 0.00435028 2.26768 0.291714 20 1 
486.667 1.20518 2.31104 -0.127011 0.0288415 2.3165 0.318525 20 1 
488 1.20519 2.36096 -0.127464 0.051957 2.36669 0.343403 20 1 
489.333 1.2052 2.41201 -0.127919 0.0736833 2.41819 0.36781 20 1 
490.667 1.20522 2.46409 -0.128374 0.094022 2.47085 0.391512 20 1 
490.667 1.20522 2.46409 -0.128374 0.094022 2.47085 0.391512 20 1 
492 1.20523 2.51715 -0.128818 0.113006 2.52458 0.414926 20 1 
493.333 1.20524 2.57113 -0.129254 0.130689 2.57929 0.439313 20 1 
494.667 1.20526 2.626 -0.129688 0.147145 2.63491 0.465082 20 1 
496 1.20527 2.68169 -0.130131 0.162461 2.69137 0.491941 20 1 
497.333 1.20529 2.73816 -0.1306 0.176741 2.74861 0.519145 20 1 
498.667 1.2053 2.79539 -0.131108 0.190094 2.8066 0.546588 20 1 
500 1.20532 2.85335 -0.131692 0.202603 2.86529 0.573653 20 1 
501.333 1.20533 2.91201 -0.132384 0.214412 2.92468 0.600263 20 1 
502.667 1.20535 2.97142 -0.133203 0.225734 2.98481 0.62845 20 1 
504 1.20536 3.03163 -0.134161 0.236735 3.04573 0.658183 20 1 
505.333 1.20538 3.09257 -0.135267 0.247545 3.10741 0.687437 20 1 
506.667 1.2054 3.15419 -0.136506 0.258298 3.16977 0.71487 20 1 
508 1.20541 3.2165 -0.137855 0.269182 3.23284 0.740752 20 1 
509.333 1.20542 3.27953 -0.139285 0.280352 3.29668 0.766916 20 1 
510.667 1.20544 3.34325 -0.140771 0.291888 3.36124 0.793895 20 1 
512 1.20545 3.40754 -0.142272 0.303917 3.42641 0.820157 20 1 
512 1.20545 3.40754 -0.142272 0.303917 3.42641 0.820157 21 1 
513.333 1.20547 3.4723 -0.143745 0.316551 3.49211 0.843531 21 1 
514.667 1.20548 3.53747 -0.145155 0.329855 3.55829 0.863085 21 1 
516 1.20549 3.60298 -0.14647 0.343874 3.62488 0.880064 21 1 
517.333 1.2055 3.66875 -0.147654 0.358604 3.69179 0.895459 21 1 
518.667 1.2055 3.73471 -0.148679 0.374038 3.75897 0.909555 21 1 
520 1.20551 3.80074 -0.149527 0.390152 3.82628 0.921878 21 1 
521.333 1.20552 3.86673 -0.150183 0.406923 3.89363 0.93091 21 1 
522.667 1.20552 3.93258 -0.150634 0.424311 3.96091 0.936386 21 1 
524 1.20552 3.99822 -0.150881 0.442246 4.02805 0.938475 21 1 
525.333 1.20552 4.06354 -0.150931 0.460657 4.09494 0.93778 21 1 
526.667 1.20552 4.12848 -0.150791 0.47944 4.1615 0.935773 21 1 
528 1.20552 4.19291 -0.150476 0.498499 4.2276 0.931819 21 1 
529.333 1.20551 4.25675 -0.15001 0.517741 4.29317 0.924885 21 1 
530.667 1.20551 4.31995 -0.149411 0.537065 4.35812 0.914917 21 1 
532 1.2055 4.38241 -0.148702 0.556363 4.42237 0.902479 21 1 
533.333 1.20549 4.44407 -0.147918 0.575492 4.48582 0.888032 21 1 
533.333 1.20549 4.44407 -0.147918 0.575492 4.48582 0.888032 21 1 
534.667 1.20548 4.50488 -0.147088 0.594308 4.54841 0.871421 21 1 
536 1.20547 4.56483 -0.146247 0.612711 4.61012 0.854391 21 1 
537.333 1.20546 4.6239 -0.145437 0.630608 4.67092 0.837687 21 1 
538.667 1.20545 4.68207 -0.144695 0.647868 4.73076 0.819944 21 1 
540 1.20544 4.73926 -0.144054 0.664393 4.78954 0.800168 21 1 
541.333 1.20543 4.79542 -0.143535 0.680098 4.84722 0.778695 21 1 
542.667 1.20542 4.85059 -0.143179 0.694906 4.90381 0.757612 21 1 
544 1.20541 4.9048 -0.143021 0.708745 4.95933 0.737823 21 1 
545.333 1.2054 4.95803 -0.143092 0.721548 5.01375 0.718762 21 1 
546.667 1.20539 5.01019 -0.143413 0.73324 5.06698 0.699641 21 1 
548 1.20538 5.06128 -0.143992 0.74377 5.11899 0.67999 21 1 
549.333 1.20537 5.11133 -0.144844 0.753149 5.16983 0.659595 21 1 
550.667 1.20535 5.16036 -0.145968 0.761362 5.2195 0.639825 21 1 
552 1.20534 5.20832 -0.147353 0.76836 5.26796 0.623012 21 1 
553.333 1.20534 5.25517 -0.148966 0.774118 5.31515 0.607774 21 1 
554.667 1.20533 5.30082 -0.150781 0.778662 5.361 0.59162 21 1 
554.667 1.20533 5.30082 -0.150781 0.778662 5.361 0.59162 22 1 
556 1.20532 5.34525 -0.152767 0.78204 5.40548 0.573762 22 1 
557.333 1.20531 5.38839 -0.154892 0.784293 5.44854 0.555373 22 1 
558.667 1.2053 5.43016 -0.157136 0.785454 5.49011 0.537447 22 1 
560 1.20529 5.47053 -0.159474 0.785538 5.53015 0.519714 22 1 
561.333 1.20528 5.50942 -0.161884 0.784569 5.5686 0.50303 22 1 
562.667 1.20527 5.54679 -0.164357 0.782557 5.60541 0.486161 22 1 
564 1.20526 5.58257 -0.166901 0.779463 5.64053 0.467406 22 1 
565.333 1.20525 5.61672 -0.169536 0.775232 5.67389 0.445912 22 1 
566.667 1.20523 5.64921 -0.17227 0.769763 5.70548 0.422765 22 1 
568 1.20522 5.6801 -0.175078 0.762942 5.73532 0.401045 22 1 
569.333 1.20521 5.70949 -0.177904 0.754667 5.76351 0.380337 22 1 
570.667 1.2052 5.73742 -0.180669 0.744805 5.79008 0.359991 22 1 
572 1.20519 5.76397 -0.183298 0.733189 5.81509 0.33995 22 1 
573.333 1.20518 5.78924 -0.185754 0.719626 5.83862 0.319815 22 1 
574.667 1.20517 5.81337 -0.188017 0.703984 5.86081 0.299102 22 1 
576 1.20515 5.83661 -0.19006 0.686136 5.8819 0.278078 22 1 
576 1.20515 5.83661 -0.19006 0.686136 5.8819 0.278078 22 1 
577.333 1.20514 5.85913 -0.191844 0.665946 5.90209 0.260385 22 1 
578.667 1.20514 5.8812 -0.193327 0.64337 5.92163 0.246136 22 1 
580 1.20513 5.90308 -0.194456 0.618407 5.94082 0.234803 22 1 
581.333 1.20513 5.92496 -0.19517 0.591127 5.95987 0.227935 22 1 
582.667 1.20512 5.94703 -0.195415 0.561684 5.97903 0.22429 22 1 
584 1.20512 5.96947 -0.195164 0.530336 5.99851 0.222313 22 1 
585.333 1.20512 5.9925 -0.194418 0.497434 6.0186 0.221122 22 1 
586.667 1.20512 6.01628 -0.193191 0.463329 6.03951 0.223709 22 1 
588 1.20513 6.041 -0.191528 0.428421 6.06149 0.230562 22 1 
589.333 1.20513 6.06692 -0.189489 0.393158 6.08483 0.240505 22 1 
590.667 1.20514 6.09417 -0.187134 0.357966 6.1097 0.255192 22 1 
592 1.20515 6.12289 -0.184526 0.32324 6.13627 0.271425 22 1 
593.333 1.20516 6.15315 -0.181726 0.289291 6.16461 0.288166 22 1 
594.667 1.20517 6.18497 -0.178787 0.256384 6.19474 0.30554 22 1 
596 1.20518 6.21837 -0.175756 0.224717 6.22668 0.324149 22 1 
597.333 1.20519 6.25331 -0.172688 0.194398 6.26038 0.345164 22 1 
597.333 1.20519 6.25331 -0.172688 0.194398 6.26038 0.345164 24 1 
598.667 1.2052 6.28974 -0.169629 0.165484 6.29577 0.366936 24 1 
600 1.20522 6.32754 -0.166631 0.137934 6.3327 0.390939 24 1 
601.333 1.20523 6.36665 -0.163735 0.111684 6.3711 0.41382 24 1 
602.667 1.20524 6.40702 -0.160962 0.086641 6.4109 0.434131 24 1 
604 1.20525 6.44858 -0.158342 0.0627264 6.45202 0.455025 24 1 
605.333 1.20526 6.49136 -0.155881 0.0398459 6.49447 0.476221 24 1 
606.667 1.20528 6.53531 -0.153591 0.017869 6.53817 0.498741 24 1 
608 1.20529 6.58035 -0.151482 -0.0032612 6.58307 0.521956 24 1 
609.333 1.2053 6.62644 -0.149559 -0.023598 6.62907 0.544841 24 1 
610.667 1.20531 6.67348 -0.14781 -0.0431556 6.67611 0.566079 24 1 
612 1.20532 6.72141 -0.146237 -0.0619065 6.72408 0.584617 24 1 
613.333 1.20533 6.77009 -0.144829 -0.0798414 6.77286 0.602168 24 1 
614.667 1.20534 6.81943 -0.143558 -0.0969152 6.82234 0.619282 24 1 
616 1.20535 6.86932 -0.142424 -0.113057 6.87239 0.636836 24 1 
617.333 1.20536 6.91961 -0.141416 -0.128177 6.92287 0.654982 24 1 
618.667 1.20537 6.97014 -0.140517 -0.142222 6.9736 0.670805 24 1 
618.667 1.20537 6.97014 -0.140517 -0.142222 6.9736 0.670805 24 1 
620 1.20538 7.02068 -0.139706 -0.15515 7.02435 0.683964 24 1 
621.333 1.20538 7.07107 -0.138969 -0.166903 7.07495 0.693783 24 1 
622.667 1.20539 7.12117 -0.13829 -0.177455 7.12524 0.700427 24 1 
624 1.20539 7.1708 -0.137659 -0.186751 7.17505 0.707185 24 1 
625.333 1.20539 7.21983 -0.137068 -0.19477 7.22423 0.713403 24 1 
626.667 1.2054 7.26806 -0.136508 -0.201538 7.2726 0.718934 24 1 
628 1.2054 7.31538 -0.135977 -0.207067 7.32002 0.721497 24 1 
629.333 1.2054 7.3616 -0.135452 -0.211393 7.36632 0.720422 24 1 
630.667 1.2054 7.40662 -0.134923 -0.214557 7.41139 0.71832 24 1 
632 1.2054 7.45042 -0.134391 -0.216641 7.4552 0.714152 24 1 
633.333 1.20539 7.49291 -0.133851 -0.217719 7.49769 0.709842 24 1 
634.667 1.20539 7.53406 -0.133292 -0.217849 7.53881 0.705134 24 1 
636 1.20539 7.57379 -0.132716 -0.217133 7.57847 0.698923 24 1 
637.333 1.20538 7.61212 -0.132121 -0.215633 7.61673 0.690305 24 1 
638.667 1.20538 7.64906 -0.131497 -0.21343 7.65357 0.679388 24 1 
640 1.20537 7.68463 -0.130835 -0.210608 7.68903 0.668986 24 1 
640 1.20537 7.68463 -0.130835 -0.210608 7.68903 0.668986 24 1 
641.333 1.20536 7.71891 -0.130133 -0.20721 7.72319 0.658196 24 1 
642.667 1.20536 7.75192 -0.1294 -0.203296 7.75607 0.647717 24 1 
644 1.20535 7.78376 -0.128637 -0.198919 7.78776 0.637923 24 1 
645.333 1.20535 7.81446 -0.127837 -0.194096 7.81831 0.629372 24 1 
646.667 1.20534 7.8441 -0.12701 -0.188893 7.8478 0.61935 24 1 
648 1.20534 7.87276 -0.126148 -0.183376 7.8763 0.60679 24 1 
649.333 1.20533 7.90048 -0.125253 -0.177589 7.90385 0.595033 24 1 
650.667 1.20532 7.9274 -0.124332 -0.171574 7.93062 0.583439 24 1 
652 1.20532 7.9536 -0.123397 -0.165357 7.95666 0.572108 24 1 
653.333 1.20531 7.97927 -0.122454 -0.158989 7.98218 0.561699 24 1 
654.667 1.20531 8.00441 -0.121507 -0.152496 8.00716 0.555024 24 1 
656 1.2053 8.02918 -0.120569 -0.145891 8.03178 0.546869 24 1 
657.333 1.2053 8.05366 -0.11963 -0.139229 8.05613 0.537471 24 1 
658.667 1.20529 8.0779 -0.118707 -0.132548 8.08022 0.529647 24 1 
660 1.20529 8.10209 -0.1178 -0.125866 8.10429 0.519084 24 1 
661.333 1.20528 8.12627 -0.116892 -0.119214 8.12835 0.509477 24 1 
661.333 1.20528 8.12627 -0.116892 -0.119214 8.12835 0.509477 24 1 
662.667 1.20528 8.15061 -0.116012 -0.11265 8.15257 0.499617 24 1 
664 1.20527 8.17517 -0.115182 -0.106174 8.17702 0.492323 24 1 
665.333 1.20527 8.20003 -0.114403 -0.0998333 8.20179 0.484321 24 1 
666.667 1.20526 8.22531 -0.113687 -0.0936898 8.22697 0.474961 24 1 
668 1.20526 8.25094 -0.113059 -0.0877042 8.25252 0.469476 24 1 
669.333 1.20526 8.27705 -0.112514 -0.0819698 8.27856 0.46046 24 1 
670.667 1.20525 8.30362 -0.112059 -0.0765251 8.30506 0.452738 24 1 
672 1.20525 8.33062 -0.111708 -0.0713509 8.33201 0.44609 24 1 
673.333 1.20524 8.35804 -0.111466 -0.0665288 8.35938 0.439506 24 1 
674.667 1.20524 8.38581 -0.111329 -0.0620961 8.38711 0.434185 24 1 
676 1.20524 8.41392 -0.111287 -0.0581103 8.41519 0.42637 24 1 
677.333 1.20523 8.44226 -0.11135 -0.0545795 8.4435 0.422569 24 1 
678.667 1.20523 8.47077 -0.111481 -0.0515752 8.47199 0.41782 24 1 
680 1.20523 8.49948 -0.111657 -0.0492158 8.50068 0.410954 24 1 
681.333 1.20523 8.52819 -0.111829 -0.0474983 8.52938 0.409241 24 1 
682.667 1.20522 8.55686 -0.111959 -0.0464417 8.55805 0.405904 24 1 
682.667 1.20522 8.55686 -0.111959 -0.0464417 8.55805 0.405904 31 1 
684 1.20522 8.58541 -0.112032 -0.046088 8.58659 0.403666 31 1 
685.333 1.20522 8.61373 -0.112021 -0.0464444 8.6149 0.403271 31 1 
686.667 1.20522 8.64184 -0.111927 -0.0474297 8.64301 0.402971 31 1 
688 1.20522 8.6696 -0.11174 -0.0490585 8.67077 0.403624 31 1 
689.333 1.20522 8.69707 -0.111472 -0.0513002 8.69825 0.400108 31 1 
690.667 1.20522 8.72409 -0.111111 -0.0540788 8.72526 0.400748 31 1 
692 1.20522 8.75075 -0.110656 -0.0573908 8.75193 0.398471 31 1 
693.333 1.20522 8.77707 -0.110075 -0.0610719 8.77826 0.395869 31 1 
694.667 1.20522 8.80301 -0.109376 -0.0650925 8.80421 0.398574 31 1 
696 1.20522 8.82868 -0.108621 -0.0693714 8.82988 0.397538 31 1 
697.333 1.20522 8.85383 -0.107809 -0.0738435 8.85505 0.399214 31 1 
698.667 1.20522 8.87866 -0.106929 -0.0785015 8.87989 0.398057 31 1 
700 1.20522 8.90315 -0.10597 -0.0832001 8.9044 0.396453 31 1 
701.333 1.20522 8.92721 -0.104981 -0.0879434 8.92849 0.394736 31 1 
702.667 1.20521 8.95098 -0.104058 -0.0926317 8.95228 0.38522 31 1 
704 1.20521 8.97437 -0.103102 -0.0972564 8.97569 0.378795 31 1 
704 1.20521 8.97437 -0.103102 -0.0972564 8.97569 0.378795 31 1 
705.333 1.20521 8.9975 -0.10203 -0.101876 8.99886 0.375276 31 1 
706.667 1.20521 9.02048 -0.100944 -0.106397 9.02187 0.372251 31 1 
708 1.20521 9.04311 -0.0999547 -0.11074 9.04453 0.374648 31 1 
709.333 1.20521 9.06552 -0.099078 -0.115014 9.06697 0.374597 31 1 
710.667 1.20521 9.08758 -0.0981622 -0.119214 9.08907 0.372636 31 1 
712 1.2052 9.10948 -0.0971563 -0.123303 9.111 0.363153 31 1 
713.333 1.2052 9.13125 -0.0961949 -0.127258 9.1328 0.354828 31 1 
714.667 1.2052 9.1528 -0.0954038 -0.13106 9.15439 0.352516 31 1 
716 1.20519 9.17442 -0.094641 -0.134741 9.17604 0.347151 31 1 
717.333 1.20519 9.19597 -0.0937599 -0.138383 9.19764 0.352101 31 1 
718.667 1.2052 9.21765 -0.0928063 -0.14195 9.21935 0.355968 31 1 
720 1.2052 9.23899 -0.0920343 -0.145299 9.24073 0.358844 31 1 
721.333 1.2052 9.26016 -0.0914657 -0.148483 9.26193 0.356957 31 1 
722.667 1.2052 9.28109 -0.0907623 -0.151539 9.2829 0.353472 31 1 
724 1.2052 9.30175 -0.0898488 -0.15456 9.30359 0.355166 31 1 
725.333 1.20519 9.32251 -0.0889169 -0.157289 9.32438 0.347052 31 1 
725.333 1.20519 9.32251 -0.0889169 -0.157289 9.32438 0.347052 31 1 
726.667 1.20519 9.34282 -0.0882762 -0.159537 9.34472 0.343675 31 1 
728 1.20519 9.36277 -0.0877337 -0.161685 9.36469 0.347759 31 1 
729.333 1.20519 9.38272 -0.0869613 -0.163762 9.38466 0.343488 31 1 
730.667 1.20519 9.40241 -0.0860033 -0.165517 9.40436 0.340973 31 1 
732 1.20519 9.42138 -0.0851668 -0.166858 9.42334 0.3437 31 1 
733.333 1.20518 9.43987 -0.084612 -0.167578 9.44184 0.32894 31 1 
734.667 1.20517 9.45775 -0.0840423 -0.168168 9.45971 0.310996 31 1 
736 1.20517 9.47516 -0.083205 -0.168764 9.47712 0.29835 31 1 
737.333 1.20516 9.49226 -0.082218 -0.16901 9.49421 0.286053 31 1 
738.667 1.20515 9.50861 -0.0814364 -0.168573 9.51054 0.275149 31 1 
740 1.20515 9.52452 -0.0808952 -0.16763 9.52642 0.263361 31 1 
741.333 1.20514 9.53991 -0.080206 -0.166645 9.54178 0.259659 31 1 
742.667 1.20514 9.55501 -0.0792564 -0.165381 9.55684 0.245782 31 1 
744 1.20513 9.56946 -0.0782587 -0.163519 9.57125 0.226143 31 1 
745.333 1.20512 9.58299 -0.0774363 -0.160876 9.58472 0.215983 31 1 
746.667 1.20512 9.59621 -0.0767118 -0.157976 9.59788 0.207846 31 1 
746.667 1.20512 9.59621 -0.0767118 -0.157976 9.59788 0.207846 31 1 
748 1.20511 9.60903 -0.0757262 -0.155001 9.61065 0.203077 31 1 
749.333 1.20511 9.62148 -0.0745302 -0.15146 9.62303 0.195373 31 1 
750.667 1.20511 9.63294 -0.0734908 -0.147376 9.63441 0.202549 31 1 
752 1.20512 9.6436 -0.0725355 -0.142548 9.64498 0.210122 31 1 
753.333 1.20511 9.6543 -0.0715781 -0.137528 9.65559 0.1998 31 1 
754.667 1.20512 9.66408 -0.0706781 -0.132419 9.66529 0.219806 31 1 
756 1.20513 9.67386 -0.0696324 -0.126579 9.67498 0.228208 31 1 
757.333 1.20512 9.68336 -0.0686417 -0.120218 9.68439 0.219277 31 1 
758.667 1.20513 9.69153 -0.0678549 -0.112992 9.69246 0.237448 31 1 
760 1.20513 9.70035 -0.0670831 -0.105688 9.70119 0.233221 31 1 
761.333 1.20513 9.70867 -0.0661857 -0.098662 9.70943 0.236263 31 1 
762.667 1.20513 9.71642 -0.0652484 -0.0910827 9.7171 0.23685 31 1 
764 1.20513 9.72369 -0.064509 -0.0827675 9.72428 0.230252 31 1 
765.333 1.20513 9.73004 -0.0639478 -0.0742795 9.73056 0.227836 31 1 
766.667 1.20511 9.73705 -0.0634237 -0.0660345 9.73751 0.19528 31 1 
768 1.20511 9.74325 -0.0629244 -0.0578102 9.74365 0.196083 31 1 
768 1.20511 9.74325 -0.0629244 -0.0578102 9.74365 0.196083 32 1 
769.333 1.20509 9.75032 -0.0625974 -0.0493919 9.75067 0.16961 32 1 
770.667 1.20508 9.75741 -0.062441 -0.0404397 9.75772 0.13836 32 1 
772 1.20507 9.76469 -0.0622323 -0.0313347 9.76496 0.129228 32 1 
773.333 1.20505 9.77388 -0.062085 -0.0222111 9.77412 0.0955466 32 1 
774.667 1.20505 9.78286 -0.0619421 -0.0131075 9.78308 0.0883959 32 1 
776 1.20503 9.79383 -0.0616468 -0.00448526 9.79404 0.0583417 32 1 
777.333 1.20504 9.8046 -0.0612378 0.00485525 9.80481 0.0651713 32 1 
778.667 1.20503 9.81629 -0.0606071 0.0140241 9.81651 0.0579525 32 1 
780 1.20502 9.82884 -0.0598984 0.0228885 9.82906 0.0434256 32 1 
781.333 1.20505 9.84049 -0.0589124 0.0319179 9.84073 0.0820977 32 1 
782.667 1.20504 9.8534 -0.057846 0.0399449 9.85367 0.0761687 32 1 
784 1.20505 9.86506 -0.0571827 0.0482389 9.86535 0.0968908 32 1 
785.333 1.20507 9.87656 -0.0563651 0.0558072 9.8769 0.132407 32 1 
786.667 1.20508 9.88778 -0.0555353 0.0623272 9.88814 0.145882 32 1 
788 1.20509 9.89814 -0.0547242 0.0683944 9.89854 0.161806 32 1 
789.333 1.2051 9.90799 -0.0537115 0.0727322 9.90841 0.183095 32 1 
790.667 1.20511 9.91667 -0.0528533 0.0757849 9.91711 0.203525 32 1 
792 1.20512 9.92358 -0.0523897 0.0774748 9.92403 0.217961 32 1 
793.333 1.20512 9.92974 -0.051789 0.0775051 9.93019 0.209689 32 1 
794.667 1.20513 9.93384 -0.0508439 0.0754888 9.93427 0.238808 32 1 
796 1.20515 9.93549 -0.0497081 0.0721187 9.93588 0.270959 32 1 
797.333 1.20514 9.9359 -0.0483835 0.0678593 9.93626 0.256196 32 1 
798.667 1.20518 9.93121 -0.0468131 0.0615967 9.93152 0.330302 32 1 
800 1.20522 9.92716 -0.0458462 0.0579769 9.92744 0.403277 32 1 
