59.7727;r ;Density                 ;Velocity u              ;Velocity v              ;Velocity w              ;|Velocity|              ;Pressure                ;Distribution            ;Levels                  ;
0 1.20467 9.99774 0.000110562 0.00136096 9.99774 -0.604033 1 1 
1.33334 1.20463 9.9985 6.22152e-05 0.00305938 9.9985 -0.666939 1 1 
2.66666 1.20457 9.99966 -4.72789e-05 0.00596938 9.99966 -0.784565 1 1 
4 1.2045 9.99997 -0.000129686 0.00885693 9.99998 -0.905341 1 1 
5.33334 1.20446 10.0002 -0.000208115 0.0106063 10.0002 -0.977366 1 1 
6.66666 1.20444 10.0006 -0.000337246 0.0112583 10.0006 -1.0113 1 1 
8 1.20441 10.0006 -0.000447848 0.0121281 10.0006 -1.05753 1 1 
9.33334 1.20443 10.0008 -0.000583072 0.0116459 10.0008 -1.03798 1 1 
10.6667 1.20445 10.0009 -0.000753863 0.0105953 10.0009 -0.998742 1 1 
12 1.20447 10.0007 -0.000887095 0.00948939 10.0008 -0.965015 1 1 
13.3333 1.20452 10.0009 -0.00105794 0.0070083 10.001 -0.865119 1 1 
14.6667 1.20458 10.0009 -0.00123691 0.00455856 10.001 -0.765428 1 1 
16 1.20463 10.0008 -0.00137001 0.00194045 10.0008 -0.660007 1 1 
17.3333 1.20471 10.0007 -0.00152899 -0.0015901 10.0007 -0.515542 1 1 
18.6667 1.20478 10.0004 -0.00166479 -0.00446288 10.0004 -0.397045 1 1 
20 1.20486 10.0002 -0.00176599 -0.00762554 10.0002 -0.255385 1 1 
21.3333 1.20494 10.0001 -0.00187188 -0.0111963 10.0001 -0.102675 1 1 
21.3333 1.20494 10.0001 -0.00187188 -0.0111963 10.0001 -0.102675 1 1 
22.6667 1.205 9.99957 -0.00191678 -0.0137209 9.9996 0.00080961 1 1 
24 1.20507 9.99927 -0.0019467 -0.0165087 9.99931 0.132968 1 1 
25.3333 1.20514 9.99907 -0.00198106 -0.0190619 9.99912 0.254053 1 1 
26.6667 1.20518 9.99856 -0.00193414 -0.0204508 9.99862 0.317323 1 1 
28 1.20522 9.99822 -0.00187824 -0.0220712 9.99829 0.39146 1 1 
29.3333 1.20524 9.9979 -0.00181959 -0.022939 9.99796 0.43293 1 1 
30.6667 1.20525 9.99754 -0.00169894 -0.0228277 9.9976 0.446005 1 1 
32 1.20525 9.99736 -0.0015798 -0.022722 9.99742 0.457495 1 1 
33.3333 1.20522 9.99692 -0.00143885 -0.0214935 9.99698 0.399595 1 1 
34.6667 1.20519 9.99668 -0.00127625 -0.0198969 9.99673 0.337899 1 1 
36 1.20516 9.99671 -0.00114383 -0.0183362 9.99676 0.288306 1 1 
37.3333 1.20509 9.99636 -0.000979132 -0.0154388 9.99641 0.168001 1 1 
38.6667 1.20503 9.99616 -0.000814431 -0.0125974 9.9962 0.0466949 1 1 
40 1.20496 9.99617 -0.000693688 -0.00979216 9.9962 -0.0725392 1 1 
41.3333 1.20487 9.99614 -0.000545325 -0.00600677 9.99616 -0.231175 1 1 
42.6667 1.20479 9.99623 -0.000419239 -0.0025451 9.99625 -0.371744 1 1 
42.6667 1.20479 9.99623 -0.000419239 -0.0025451 9.99625 -0.371744 2 1 
44 1.2047 9.99613 -0.000323973 0.00119205 9.99616 -0.539152 2 1 
45.3333 1.2046 9.99615 -0.00021043 0.00535142 9.99618 -0.725294 2 1 
46.6667 1.20452 9.99658 -0.000149873 0.0089509 9.99661 -0.867118 2 1 
48 1.20442 9.99674 -0.000110726 0.0130278 9.99677 -1.0389 2 1 
49.3333 1.20433 9.99681 -7.32734e-05 0.0169917 9.99686 -1.21489 2 1 
50.6667 1.20425 9.99715 -0.000103127 0.0201708 9.9972 -1.34587 2 1 
52 1.20418 9.99731 -0.000146503 0.0236158 9.99737 -1.4779 2 1 
53.3333 1.20413 9.99762 -0.000216209 0.0262031 9.9977 -1.57821 2 1 
54.6667 1.20408 9.99802 -0.000346411 0.0279614 9.9981 -1.65816 2 1 
56 1.20404 9.998 -0.000475112 0.0298706 9.9981 -1.72594 2 1 
57.3333 1.20405 9.99835 -0.000643262 0.0304577 9.99845 -1.72102 2 1 
58.6667 1.20406 9.99876 -0.000860175 0.0303442 9.99885 -1.69848 2 1 
60 1.20407 9.99878 -0.00105619 0.0301534 9.99888 -1.676 2 1 
61.3333 1.20412 9.99908 -0.00127576 0.0286 9.99916 -1.59557 2 1 
62.6667 1.20417 9.99928 -0.0015138 0.0266909 9.99936 -1.49885 2 1 
64 1.20423 9.99927 -0.00173011 0.024345 9.99934 -1.38224 2 1 
64 1.20423 9.99927 -0.00173011 0.024345 9.99934 -1.38224 2 1 
65.3333 1.20432 9.99941 -0.00197102 0.0211354 9.99947 -1.23607 2 1 
66.6667 1.20439 9.99921 -0.00219613 0.0182336 9.99926 -1.10238 2 1 
68 1.20448 9.99918 -0.00240302 0.0145274 9.99921 -0.936558 2 1 
69.3333 1.20458 9.99953 -0.00263028 0.0103155 9.99955 -0.7528 2 1 
70.6667 1.20468 9.999 -0.00281259 0.00658712 9.99902 -0.585998 2 1 
72 1.20477 9.99882 -0.00297202 0.00233646 9.99883 -0.410095 2 1 
73.3333 1.20487 9.99896 -0.00313791 -0.00196455 9.99898 -0.240591 2 1 
74.6667 1.20496 9.99833 -0.00325118 -0.00581613 9.99835 -0.0769776 2 1 
76 1.20504 9.99814 -0.00333727 -0.00968888 9.99816 0.0733079 2 1 
77.3333 1.2051 9.99773 -0.00339975 -0.0129539 9.99776 0.180823 2 1 
78.6667 1.20516 9.99716 -0.00341349 -0.0156992 9.9972 0.282849 2 1 
80 1.20521 9.99715 -0.0034208 -0.0183628 9.99721 0.375274 2 1 
81.3333 1.20522 9.99662 -0.00338865 -0.0197092 9.99668 0.400301 2 1 
82.6667 1.20522 9.99614 -0.00330702 -0.0205085 9.9962 0.405763 2 1 
84 1.20523 9.99587 -0.0032347 -0.0212551 9.99594 0.411656 2 1 
85.3333 1.2052 9.9953 -0.00311229 -0.0205228 9.99537 0.365301 2 1 
85.3333 1.2052 9.9953 -0.00311229 -0.0205228 9.99537 0.365301 3 1 
86.6667 1.20516 9.99522 -0.00295594 -0.0196409 9.99529 0.295574 3 1 
88 1.20512 9.99504 -0.00282711 -0.0184966 9.9951 0.20999 3 1 
89.3333 1.20505 9.99464 -0.00266329 -0.0161032 9.99469 0.08874 3 1 
90.6667 1.20498 9.99471 -0.0024817 -0.0133959 9.99475 -0.0333174 3 1 
92 1.2049 9.99446 -0.00231996 -0.0103626 9.99449 -0.174524 3 1 
93.3333 1.20481 9.99414 -0.002152 -0.00676029 9.99417 -0.347894 3 1 
94.6667 1.20471 9.99436 -0.00199604 -0.00289926 9.99438 -0.518615 3 1 
96 1.20462 9.99445 -0.00186809 0.00116322 9.99446 -0.690745 3 1 
97.3333 1.20453 9.99459 -0.00177339 0.00502864 9.99461 -0.854799 3 1 
98.6667 1.20443 9.99499 -0.0017191 0.00914166 9.99501 -1.0233 3 1 
100 1.20434 9.99512 -0.00166467 0.0134546 9.99515 -1.19068 3 1 
101.333 1.20427 9.99526 -0.00162942 0.0166141 9.99529 -1.31268 3 1 
102.667 1.2042 9.99557 -0.00162755 0.0199486 9.99561 -1.44564 3 1 
104 1.20413 9.99549 -0.00160305 0.023535 9.99554 -1.56745 3 1 
105.333 1.20411 9.99559 -0.00161237 0.0254317 9.99565 -1.61431 3 1 
106.667 1.20407 9.99639 -0.0016907 0.0272249 9.99646 -1.67834 3 1 
106.667 1.20407 9.99639 -0.0016907 0.0272249 9.99646 -1.67834 3 1 
108 1.20404 9.99703 -0.00177841 0.0289401 9.9971 -1.73009 3 1 
109.333 1.20406 9.99693 -0.00191274 0.0291255 9.99701 -1.70008 3 1 
110.667 1.20406 9.99726 -0.00210124 0.02924 9.99734 -1.70373 3 1 
112 1.20407 9.99759 -0.00229112 0.0291529 9.99767 -1.67989 3 1 
113.333 1.20413 9.99688 -0.00251133 0.0278016 9.99695 -1.57117 3 1 
114.667 1.20415 9.99716 -0.00273977 0.0264624 9.99722 -1.52865 3 1 
116 1.2042 9.99775 -0.00296197 0.0244363 9.99781 -1.4474 3 1 
117.333 1.20429 9.99708 -0.00321784 0.0214597 9.99712 -1.27928 3 1 
118.667 1.20434 9.99725 -0.00344606 0.0189319 9.99728 -1.18841 3 1 
120 1.20441 9.99766 -0.00365485 0.0157946 9.99769 -1.07142 3 1 
121.333 1.20451 9.99676 -0.00388432 0.0123921 9.99679 -0.892798 3 1 
122.667 1.20456 9.99669 -0.00408509 0.00951208 9.99671 -0.793103 3 1 
124 1.20462 9.99677 -0.00424441 0.00598895 9.99679 -0.678173 3 1 
125.333 1.20471 9.99554 -0.00439457 0.00231297 9.99555 -0.514911 3 1 
126.667 1.20476 9.99548 -0.00451459 -0.000432248 9.9955 -0.434617 3 1 
128 1.2048 9.9958 -0.00459517 -0.0032186 9.99582 -0.362236 3 1 
128 1.2048 9.9958 -0.00459517 -0.0032186 9.99582 -0.362236 3 1 
129.333 1.20486 9.99486 -0.00464154 -0.00558018 9.99488 -0.247942 3 1 
130.667 1.20489 9.99469 -0.00465765 -0.00720205 9.99471 -0.202483 3 1 
132 1.2049 9.99453 -0.00466135 -0.00863719 9.99456 -0.188763 3 1 
133.333 1.20492 9.99329 -0.00462007 -0.00988297 9.99331 -0.141574 3 1 
134.667 1.20492 9.99296 -0.00455446 -0.0108995 9.99299 -0.136282 3 1 
136 1.20489 9.99336 -0.00448352 -0.0111087 9.99339 -0.191069 3 1 
137.333 1.20488 9.99255 -0.00437734 -0.0104283 9.99258 -0.215104 3 1 
138.667 1.20486 9.99186 -0.00424267 -0.00955446 9.99189 -0.24746 3 1 
140 1.2048 9.9924 -0.00411267 -0.00811918 9.99242 -0.358646 3 1 
141.333 1.20476 9.99172 -0.00397786 -0.00632038 9.99174 -0.434759 3 1 
142.667 1.20472 9.99076 -0.00381756 -0.00472372 9.99078 -0.50619 3 1 
144 1.20463 9.99152 -0.0036764 -0.0027978 9.99154 -0.664641 3 1 
145.333 1.20458 9.991 -0.00355228 -4.56005e-05 9.99102 -0.759848 3 1 
146.667 1.20454 9.99 -0.00343122 0.00262646 9.99 -0.831357 3 1 
148 1.20445 9.99105 -0.00331171 0.00541662 9.99106 -0.999944 3 1 
149.333 1.2044 9.99066 -0.00322003 0.0079154 9.99067 -1.09194 3 1 
149.333 1.2044 9.99066 -0.00322003 0.0079154 9.99067 -1.09194 3 1 
150.667 1.20436 9.98975 -0.00316461 0.0100103 9.98976 -1.15452 3 1 
152 1.20428 9.99053 -0.00311519 0.0122867 9.99054 -1.29255 3 1 
153.333 1.20426 9.98958 -0.00309149 0.0138377 9.9896 -1.34337 3 1 
154.667 1.20423 9.98894 -0.00310295 0.0160734 9.98896 -1.38709 3 1 
156 1.20418 9.98972 -0.00314233 0.0178345 9.98975 -1.47881 3 1 
157.333 1.20418 9.989 -0.00319541 0.0184093 9.98903 -1.48989 3 1 
158.667 1.20417 9.98849 -0.00326995 0.0193397 9.98852 -1.49423 3 1 
160 1.20416 9.98857 -0.00339054 0.01953 9.9886 -1.52338 3 1 
161.333 1.20417 9.98799 -0.00352221 0.0195211 9.98802 -1.50717 3 1 
162.667 1.20419 9.98746 -0.00365991 0.0192913 9.98748 -1.46574 3 1 
164 1.2042 9.98738 -0.00382861 0.0187369 9.9874 -1.44668 3 1 
165.333 1.20422 9.98688 -0.00400496 0.0183629 9.9869 -1.40696 3 1 
166.667 1.20427 9.98559 -0.00417569 0.0172813 9.98561 -1.31632 3 1 
168 1.2043 9.98518 -0.00434637 0.015639 9.98519 -1.2671 3 1 
169.333 1.20432 9.98467 -0.00453585 0.0148166 9.98469 -1.22076 3 1 
170.667 1.20437 9.98346 -0.00469693 0.0135589 9.98348 -1.13022 3 1 
170.667 1.20437 9.98346 -0.00469693 0.0135589 9.98348 -1.13022 11 1 
172 1.20441 9.9832 -0.00483658 0.0119192 9.98321 -1.07426 11 1 
173.333 1.20444 9.98251 -0.00498271 0.0108841 9.98253 -1.01312 11 1 
174.667 1.20448 9.98123 -0.00511942 0.00937488 9.98124 -0.934061 11 1 
176 1.2045 9.98054 -0.00522083 0.00802302 9.98055 -0.897082 11 1 
177.333 1.20452 9.97937 -0.00530265 0.00693228 9.97938 -0.859552 11 1 
178.667 1.20455 9.97816 -0.00537188 0.00636506 9.97817 -0.812001 11 1 
180 1.20457 9.9772 -0.00540716 0.00619756 9.9772 -0.77697 11 1 
181.333 1.20458 9.97602 -0.00542658 0.0054816 9.97603 -0.749766 11 1 
182.667 1.20459 9.97519 -0.00543532 0.00479959 9.97519 -0.742863 11 1 
184 1.2046 9.97391 -0.0054207 0.00416789 9.97391 -0.729834 11 1 
185.333 1.2046 9.97247 -0.00537983 0.00366261 9.97248 -0.726701 11 1 
186.667 1.20459 9.97107 -0.00534691 0.00338776 9.97108 -0.733111 11 1 
188 1.2046 9.96964 -0.00528917 0.00348153 9.96964 -0.728318 11 1 
189.333 1.20459 9.96886 -0.00521295 0.00408509 9.96886 -0.742271 11 1 
190.667 1.20458 9.96772 -0.00516228 0.00420654 9.96773 -0.757673 11 1 
192 1.20457 9.96603 -0.0051201 0.00424097 9.96604 -0.771114 11 1 
192 1.20457 9.96603 -0.0051201 0.00424097 9.96604 -0.771114 11 1 
193.333 1.20457 9.96421 -0.00507209 0.0047374 9.96422 -0.785609 11 1 
194.667 1.20456 9.962 -0.00500123 0.00502282 9.96201 -0.790557 11 1 
196 1.20455 9.95984 -0.00498365 0.00466616 9.95985 -0.808661 11 1 
197.333 1.20454 9.9582 -0.00498204 0.00542247 9.95821 -0.838977 11 1 
198.667 1.20454 9.95649 -0.00493868 0.00579664 9.95649 -0.837677 11 1 
200 1.20454 9.95484 -0.00496379 0.00606091 9.95484 -0.83641 11 1 
201.333 1.20453 9.9535 -0.00498478 0.00782807 9.95351 -0.850037 11 1 
202.667 1.20454 9.95145 -0.00502488 0.00902379 9.95146 -0.835037 11 1 
204 1.20453 9.94864 -0.00510218 0.00959416 9.94865 -0.841208 11 1 
205.333 1.20452 9.94502 -0.00516604 0.010082 9.94503 -0.866546 11 1 
206.667 1.20453 9.94145 -0.00524807 0.0101984 9.94146 -0.857122 11 1 
208 1.20454 9.93922 -0.00537342 0.0115311 9.93923 -0.83326 11 1 
209.333 1.20455 9.93707 -0.00548032 0.0129672 9.93709 -0.819623 11 1 
210.667 1.20455 9.93466 -0.00558172 0.0138714 9.93467 -0.814232 11 1 
212 1.20455 9.93236 -0.0057212 0.0154154 9.93237 -0.805673 11 1 
213.333 1.20458 9.9285 -0.00585333 0.0164248 9.92851 -0.754943 11 1 
213.333 1.20458 9.9285 -0.00585333 0.0164248 9.92851 -0.754943 11 1 
214.667 1.2046 9.92477 -0.00596654 0.0162325 9.92479 -0.723817 11 1 
216 1.20461 9.9212 -0.00608703 0.0165034 9.92122 -0.707252 11 1 
217.333 1.20465 9.91581 -0.00624681 0.0173804 9.91583 -0.626246 11 1 
218.667 1.20466 9.9125 -0.00637428 0.0168061 9.91252 -0.612422 11 1 
220 1.20469 9.90831 -0.00651031 0.0178005 9.90833 -0.554574 11 1 
221.333 1.20476 9.90335 -0.00664327 0.0187778 9.90337 -0.43241 11 1 
222.667 1.20478 9.90085 -0.00673834 0.0166709 9.90087 -0.40185 11 1 
224 1.20483 9.89482 -0.00680247 0.0160056 9.89484 -0.305111 11 1 
225.333 1.20487 9.8895 -0.00687487 0.0151406 9.88952 -0.231478 11 1 
226.667 1.20492 9.88419 -0.00700503 0.0141047 9.8842 -0.149815 11 1 
228 1.20499 9.87597 -0.00712892 0.0149645 9.87598 -0.0104956 11 1 
229.333 1.20501 9.87155 -0.00721493 0.0145716 9.87156 0.0175554 11 1 
230.667 1.20509 9.86457 -0.00728943 0.0131426 9.86458 0.16208 11 1 
232 1.20515 9.8571 -0.00731466 0.0123717 9.85711 0.276885 11 1 
233.333 1.20515 9.85181 -0.00737396 0.0122611 9.85182 0.279718 11 1 
234.667 1.20526 9.84183 -0.0074927 0.0118602 9.84184 0.46367 11 1 
234.667 1.20526 9.84183 -0.0074927 0.0118602 9.84184 0.46367 11 1 
236 1.20531 9.83339 -0.00759678 0.0126424 9.8334 0.566007 11 1 
237.333 1.20532 9.82512 -0.00769514 0.0136965 9.82513 0.583571 11 1 
238.667 1.2054 9.81416 -0.00772839 0.0144824 9.81417 0.71756 11 1 
240 1.20545 9.80476 -0.00778296 0.0154179 9.80478 0.817226 11 1 
241.333 1.20549 9.79507 -0.00793384 0.0164687 9.79509 0.879001 11 1 
242.667 1.20556 9.78379 -0.00807532 0.0178386 9.78381 1.0114 11 1 
244 1.20563 9.77116 -0.00812201 0.0196226 9.77119 1.14237 11 1 
245.333 1.20566 9.75823 -0.00814089 0.0234229 9.75826 1.18757 11 1 
246.667 1.20573 9.74448 -0.00817926 0.0263212 9.74452 1.31108 11 1 
248 1.20583 9.72982 -0.00828643 0.0270461 9.72987 1.50826 11 1 
249.333 1.20591 9.71539 -0.00840204 0.0293238 9.71544 1.6363 11 1 
250.667 1.20599 9.6991 -0.00844189 0.0323457 9.69917 1.79321 11 1 
252 1.2061 9.68123 -0.00855092 0.0342163 9.6813 1.99528 11 1 
253.333 1.20621 9.66225 -0.00870695 0.0383838 9.66234 2.19455 11 1 
254.667 1.20633 9.64239 -0.00883245 0.0416132 9.64248 2.41028 11 1 
256 1.20649 9.62133 -0.00896864 0.0432865 9.62144 2.69116 11 1 
256 1.20649 9.62133 -0.00896864 0.0432865 9.62144 2.69116 13 1 
257.333 1.20666 9.598 -0.0090698 0.0470312 9.59812 2.99166 13 1 
258.667 1.20681 9.57301 -0.00916223 0.0503182 9.57315 3.26075 13 1 
260 1.20697 9.54696 -0.00932534 0.0539996 9.54712 3.56515 13 1 
261.333 1.20718 9.51789 -0.00944955 0.0586441 9.51808 3.94634 13 1 
262.667 1.20741 9.48571 -0.00954082 0.0641487 9.48594 4.35138 13 1 
264 1.20759 9.4548 -0.00969185 0.0695391 9.45506 4.68046 13 1 
265.333 1.20784 9.41812 -0.00985202 0.0772579 9.41846 5.13673 13 1 
266.667 1.20812 9.37683 -0.0099654 0.0855529 9.37724 5.64234 13 1 
268 1.20833 9.33798 -0.0100903 0.0949518 9.33848 6.01721 13 1 
269.333 1.20865 9.29075 -0.0102454 0.107421 9.2914 6.59833 13 1 
270.667 1.209 9.23835 -0.0103643 0.120718 9.23917 7.21786 13 1 
272 1.20921 9.1894 -0.0104791 0.135873 9.19043 7.60341 13 1 
273.333 1.2096 9.12953 -0.010599 0.153136 9.13084 8.31341 13 1 
274.667 1.21003 9.06565 -0.0107259 0.176273 9.0674 9.07765 13 1 
276 1.21029 9.00843 -0.0108533 0.205516 9.01083 9.54706 13 1 
277.333 1.2108 8.9356 -0.0110002 0.237701 8.93883 10.484 13 1 
277.333 1.2108 8.9356 -0.0110002 0.237701 8.93883 10.484 13 1 
278.667 1.21129 8.85618 -0.01111 0.274692 8.86052 11.357 13 1 
280 1.21158 8.7796 -0.0111709 0.311676 8.78523 11.8785 13 1 
281.333 1.21214 8.68935 -0.011268 0.354746 8.69671 12.8976 13 1 
282.667 1.21271 8.5986 -0.0113487 0.408206 8.60841 13.9309 13 1 
284 1.21308 8.51431 -0.0114264 0.468866 8.52738 14.6005 13 1 
285.333 1.21367 8.4143 -0.0115163 0.526976 8.43095 15.6671 13 1 
286.667 1.21424 8.31156 -0.0115884 0.599855 8.33348 16.6836 13 1 
288 1.21452 8.22073 -0.0116329 0.683989 8.24934 17.2018 13 1 
289.333 1.21515 8.12191 -0.0116792 0.76567 8.15821 18.3342 13 1 
290.667 1.21585 8.01441 -0.011708 0.87011 8.06194 19.5969 13 1 
292 1.216 7.91792 -0.0116889 0.964739 7.97682 19.8637 13 1 
293.333 1.21646 7.80612 -0.0116656 1.07006 7.87987 20.7073 13 1 
294.667 1.21731 7.68535 -0.0116677 1.20589 7.7802 22.2338 13 1 
296 1.2172 7.60175 -0.0116298 1.37033 7.72532 22.0354 13 1 
297.333 1.2156 7.28404 -0.0115054 1.17431 7.38525 19.151 13 1 
298.667 1.21092 6.53931 -0.0114428 0.338321 6.57843 10.7011 13 1 
298.667 1.21092 6.53931 -0.0114428 0.338321 6.57843 10.7011 14 1 
300 1.20457 5.71483 -0.0114666 -0.772761 5.81381 -0.773339 14 1 
301.333 1.20029 5.18286 -0.0115094 -1.6497 5.45786 -8.51222 14 1 
302.667 1.19783 4.97259 -0.0116014 -1.88746 5.3194 -12.9533 14 1 
304 1.19701 4.8433 -0.011633 -1.77506 5.15881 -14.4288 14 1 
305.333 1.1972 4.68082 -0.0115857 -1.6177 4.95393 -14.0838 14 1 
306.667 1.19726 4.56684 -0.0115307 -1.42113 4.78381 -13.9876 14 1 
308 1.19776 4.50707 -0.0114817 -1.32181 4.69716 -13.0835 14 1 
309.333 1.19806 4.46494 -0.0115198 -1.22033 4.62955 -12.5283 14 1 
310.667 1.19807 4.4029 -0.011568 -1.10713 4.5403 -12.5245 14 1 
312 1.19842 4.3245 -0.0115205 -1.03843 4.44787 -11.8778 14 1 
313.333 1.19864 4.26626 -0.0114385 -0.936716 4.36846 -11.4904 14 1 
314.667 1.19881 4.21358 -0.0113493 -0.8492 4.2985 -11.1822 14 1 
316 1.19916 4.14309 -0.0112612 -0.782042 4.21657 -10.5486 14 1 
317.333 1.19935 4.05599 -0.0111819 -0.707325 4.11743 -10.2052 14 1 
318.667 1.19945 3.96403 -0.0111021 -0.642536 4.01597 -10.02 14 1 
320 1.1997 3.88379 -0.0110388 -0.589113 3.92835 -9.57485 14 1 
320 1.1997 3.88379 -0.0110388 -0.589113 3.92835 -9.57485 14 1 
321.333 1.19996 3.81484 -0.0109726 -0.538637 3.85286 -9.10752 14 1 
322.667 1.2001 3.73776 -0.0109215 -0.490554 3.76997 -8.85027 14 1 
324 1.20023 3.64748 -0.0108876 -0.454484 3.67584 -8.60679 14 1 
325.333 1.20041 3.56086 -0.0108458 -0.421129 3.58579 -8.2843 14 1 
326.667 1.20057 3.48854 -0.010806 -0.39027 3.5104 -8.00067 14 1 
328 1.2007 3.42403 -0.0107625 -0.365575 3.44357 -7.76742 14 1 
329.333 1.20084 3.35633 -0.0107309 -0.343238 3.37393 -7.5139 14 1 
330.667 1.20097 3.2839 -0.0107021 -0.322553 3.2998 -7.28316 14 1 
332 1.20106 3.21396 -0.0106756 -0.305785 3.22856 -7.11173 14 1 
333.333 1.20116 3.15344 -0.0106555 -0.290514 3.16686 -6.92927 14 1 
334.667 1.20128 3.10123 -0.0106322 -0.277529 3.11369 -6.71342 14 1 
336 1.20138 3.04754 -0.0106173 -0.26546 3.05915 -6.53348 14 1 
337.333 1.20145 2.98904 -0.0106024 -0.255114 2.99998 -6.40958 14 1 
338.667 1.20152 2.93296 -0.0105774 -0.245977 2.94332 -6.27816 14 1 
340 1.20161 2.88509 -0.0105516 -0.236762 2.89485 -6.11631 14 1 
341.333 1.2017 2.84309 -0.0105354 -0.228777 2.85233 -5.96649 14 1 
341.333 1.2017 2.84309 -0.0105354 -0.228777 2.85233 -5.96649 15 1 
342.667 1.20176 2.79877 -0.0105204 -0.221675 2.80759 -5.85507 15 1 
344 1.20181 2.75033 -0.010508 -0.214451 2.75873 -5.76157 15 1 
345.333 1.20187 2.70526 -0.0104988 -0.207848 2.71329 -5.65285 15 1 
346.667 1.20194 2.6674 -0.0104819 -0.201253 2.67503 -5.53371 15 1 
348 1.202 2.63163 -0.010473 -0.194553 2.63886 -5.42666 15 1 
349.333 1.20204 2.59244 -0.0104858 -0.187577 2.59927 -5.34189 15 1 
350.667 1.20208 2.55188 -0.0105159 -0.180668 2.55832 -5.27329 15 1 
352 1.20212 2.51523 -0.0105706 -0.173624 2.52127 -5.19317 15 1 
353.333 1.20218 2.48263 -0.0106433 -0.165715 2.48821 -5.09431 15 1 
354.667 1.20223 2.45004 -0.0107149 -0.157229 2.45513 -5.00565 15 1 
356 1.20226 2.41539 -0.0107815 -0.148598 2.42 -4.94409 15 1 
357.333 1.2023 2.38083 -0.0108467 -0.139614 2.38497 -4.88465 15 1 
358.667 1.20234 2.34933 -0.0109208 -0.130194 2.35299 -4.80352 15 1 
360 1.20238 2.31986 -0.0110131 -0.120333 2.32303 -4.72409 15 1 
361.333 1.20242 2.28924 -0.0111205 -0.110077 2.29194 -4.6647 15 1 
362.667 1.20245 2.25735 -0.0112314 -0.0992679 2.25958 -4.60352 15 1 
362.667 1.20245 2.25735 -0.0112314 -0.0992679 2.25958 -4.60352 15 1 
364 1.20249 2.22624 -0.0113554 -0.088097 2.22803 -4.52869 15 1 
365.333 1.20254 2.19666 -0.0115274 -0.0764622 2.19804 -4.45197 15 1 
366.667 1.20258 2.16772 -0.0117653 -0.0643109 2.16873 -4.37784 15 1 
368 1.20262 2.1382 -0.0120687 -0.0520114 2.13889 -4.30478 15 1 
369.333 1.20265 2.10811 -0.0124172 -0.0399494 2.10855 -4.23825 15 1 
370.667 1.20269 2.07867 -0.0127791 -0.0282291 2.07893 -4.17427 15 1 
372 1.20273 2.05058 -0.0131528 -0.0165546 2.05072 -4.09781 15 1 
373.333 1.20278 2.02313 -0.0135507 -0.00492754 2.02321 -4.01106 15 1 
374.667 1.20282 1.99538 -0.0139678 0.00625173 1.99547 -3.93057 15 1 
376 1.20286 1.96757 -0.0143902 0.0168835 1.96773 -3.8581 15 1 
377.333 1.20291 1.94062 -0.0148107 0.0270285 1.94091 -3.78093 15 1 
378.667 1.20295 1.91483 -0.0152425 0.0368114 1.91529 -3.69786 15 1 
380 1.203 1.88957 -0.0156929 0.046144 1.89024 -3.61926 15 1 
381.333 1.20304 1.86428 -0.0161515 0.0548667 1.8652 -3.54349 15 1 
382.667 1.20308 1.83948 -0.0166115 0.0629903 1.84068 -3.46312 15 1 
384 1.20313 1.81577 -0.0170751 0.0705376 1.81726 -3.38157 15 1 
384 1.20313 1.81577 -0.0170751 0.0705376 1.81726 -3.38157 15 1 
385.333 1.20317 1.79289 -0.0175508 0.0776513 1.79471 -3.30216 15 1 
386.667 1.20322 1.77045 -0.0180405 0.0844163 1.77261 -3.22192 15 1 
388 1.20326 1.74839 -0.0185312 0.0906145 1.75089 -3.14168 15 1 
389.333 1.2033 1.72687 -0.0190247 0.096251 1.72971 -3.06527 15 1 
390.667 1.20334 1.70616 -0.0195329 0.101615 1.70935 -2.98946 15 1 
392 1.20339 1.68623 -0.020053 0.106844 1.68979 -2.9091 15 1 
393.333 1.20343 1.66673 -0.0205757 0.111719 1.67065 -2.82944 15 1 
394.667 1.20347 1.64746 -0.0211002 0.116078 1.65174 -2.75514 15 1 
396 1.20352 1.62879 -0.0216312 0.120099 1.63342 -2.68 15 1 
397.333 1.20356 1.61093 -0.0221681 0.123899 1.6159 -2.60132 15 1 
398.667 1.2036 1.59352 -0.0227119 0.127339 1.59883 -2.52424 15 1 
400 1.20364 1.57629 -0.0232637 0.130386 1.58192 -2.45024 15 1 
401.333 1.20368 1.55951 -0.0238192 0.133093 1.56543 -2.37588 15 1 
402.667 1.20373 1.54349 -0.0243741 0.135511 1.54969 -2.30031 15 1 
404 1.20377 1.52826 -0.0249271 0.137699 1.53473 -2.22545 15 1 
405.333 1.20381 1.51363 -0.0254794 0.139646 1.52035 -2.15025 15 1 
405.333 1.20381 1.51363 -0.0254794 0.139646 1.52035 -2.15025 15 1 
406.667 1.20385 1.49962 -0.026025 0.141296 1.50656 -2.07393 15 1 
408 1.20389 1.48648 -0.0265538 0.142655 1.49362 -1.9995 15 1 
409.333 1.20393 1.47442 -0.0270654 0.143778 1.48173 -1.92688 15 1 
410.667 1.20397 1.46346 -0.0275652 0.144739 1.47093 -1.85237 15 1 
412 1.20402 1.45346 -0.0280528 0.145481 1.46107 -1.77551 15 1 
413.333 1.20406 1.44435 -0.0285284 0.145959 1.45205 -1.6996 15 1 
414.667 1.2041 1.43636 -0.0289924 0.146291 1.44415 -1.62597 15 1 
416 1.20414 1.42987 -0.0294359 0.1465 1.43771 -1.55271 15 1 
417.333 1.20418 1.42484 -0.029861 0.146475 1.43271 -1.47933 15 1 
418.667 1.20422 1.42102 -0.0302726 0.146195 1.42889 -1.40566 15 1 
420 1.20426 1.41848 -0.0306714 0.145707 1.42632 -1.3301 15 1 
421.333 1.20431 1.41757 -0.0310683 0.145039 1.42535 -1.25337 15 1 
422.667 1.20435 1.41834 -0.0314762 0.144223 1.42604 -1.17813 15 1 
424 1.20439 1.42049 -0.0318979 0.143397 1.4281 -1.10543 15 1 
425.333 1.20443 1.42372 -0.0323334 0.142758 1.43126 -1.03345 15 1 
426.667 1.20447 1.42807 -0.0327841 0.142438 1.43556 -0.960829 15 1 
426.667 1.20447 1.42807 -0.0327841 0.142438 1.43556 -0.960829 20 1 
428 1.20451 1.43375 -0.0332604 0.14257 1.44123 -0.888867 20 1 
429.333 1.20455 1.4408 -0.0337696 0.14338 1.44833 -0.817883 20 1 
430.667 1.20459 1.44903 -0.0343202 0.145011 1.45669 -0.747436 20 1 
432 1.20462 1.45826 -0.0349335 0.147519 1.46614 -0.677791 20 1 
433.333 1.20466 1.46859 -0.0356231 0.150942 1.47679 -0.60819 20 1 
434.667 1.2047 1.48028 -0.0363936 0.155318 1.48888 -0.538014 20 1 
436 1.20474 1.49335 -0.0372383 0.160602 1.50245 -0.467906 20 1 
437.333 1.20478 1.50742 -0.0381324 0.166639 1.51712 -0.399178 20 1 
438.667 1.20482 1.52201 -0.0390256 0.173275 1.53237 -0.332179 20 1 
440 1.20485 1.53675 -0.0398596 0.1804 1.54785 -0.26555 20 1 
441.333 1.20489 1.55114 -0.0405934 0.187904 1.56306 -0.198839 20 1 
442.667 1.20493 1.56441 -0.0411935 0.195671 1.57719 -0.132441 20 1 
444 1.20496 1.57585 -0.04161 0.203412 1.58953 -0.0664311 20 1 
445.333 1.205 1.58535 -0.0417534 0.21043 1.59987 -0.00145555 20 1 
446.667 1.20503 1.59335 -0.0414975 0.215678 1.60848 0.0621744 20 1 
448 1.20507 1.59988 -0.0407185 0.218255 1.61527 0.124585 20 1 
448 1.20507 1.59988 -0.0407185 0.218255 1.61527 0.124585 20 1 
449.333 1.2051 1.60334 -0.0393383 0.218136 1.61864 0.185764 20 1 
450.667 1.20514 1.60001 -0.0372949 0.216613 1.61511 0.245292 20 1 
452 1.20517 1.58517 -0.0344375 0.216042 1.60034 0.302267 20 1 
453.333 1.2052 1.55571 -0.0304553 0.218249 1.57149 0.356957 20 1 
454.667 1.20523 1.51254 -0.0249259 0.222502 1.52937 0.409513 20 1 
456 1.20525 1.46162 -0.0175992 0.224602 1.47923 0.459386 20 1 
457.333 1.20528 1.41226 -0.00879489 0.21815 1.42934 0.507269 20 1 
458.667 1.20531 1.37357 0.000463203 0.197477 1.38813 0.553327 20 1 
460 1.20533 1.35085 0.00871878 0.160355 1.36127 0.59582 20 1 
461.333 1.20535 1.34432 0.0146015 0.108835 1.35037 0.633009 20 1 
462.667 1.20537 1.3502 0.0172845 0.0480047 1.35328 0.664661 20 1 
464 1.20538 1.36323 0.0165972 -0.0162275 1.36583 0.691683 20 1 
465.333 1.2054 1.37915 0.0128372 -0.0789876 1.38394 0.7156 20 1 
466.667 1.20541 1.39571 0.00651214 -0.137141 1.40488 0.739121 20 1 
468 1.20542 1.41245 -0.00185351 -0.189136 1.42739 0.764418 20 1 
469.333 1.20544 1.42982 -0.0117583 -0.234488 1.45121 0.791315 20 1 
469.333 1.20544 1.42982 -0.0117583 -0.234488 1.45121 0.791315 20 1 
470.667 1.20545 1.44863 -0.0227386 -0.273217 1.47649 0.819929 20 1 
472 1.20547 1.46956 -0.0343378 -0.305538 1.50345 0.85125 20 1 
473.333 1.20549 1.49306 -0.0461499 -0.331716 1.53217 0.885262 20 1 
474.667 1.20551 1.51924 -0.0578202 -0.35207 1.56254 0.921753 20 1 
476 1.20553 1.54797 -0.0690573 -0.366995 1.59434 0.961199 20 1 
477.333 1.20556 1.57909 -0.0796561 -0.376906 1.62736 1.00504 20 1 
478.667 1.20558 1.61239 -0.0894828 -0.382231 1.66147 1.05348 20 1 
480 1.20561 1.6476 -0.0984662 -0.38341 1.69649 1.10441 20 1 
481.333 1.20564 1.68441 -0.106551 -0.380921 1.73225 1.15635 20 1 
482.667 1.20567 1.72258 -0.113712 -0.375215 1.76867 1.20827 20 1 
484 1.2057 1.76189 -0.119956 -0.366684 1.80567 1.25915 20 1 
485.333 1.20572 1.8021 -0.125313 -0.355718 1.84316 1.30867 20 1 
486.667 1.20575 1.84303 -0.129825 -0.342685 1.88108 1.35655 20 1 
488 1.20578 1.88454 -0.133557 -0.327887 1.91943 1.4023 20 1 
489.333 1.2058 1.92648 -0.136586 -0.311602 1.95815 1.44492 20 1 
490.667 1.20582 1.9687 -0.138984 -0.294068 1.99716 1.4837 20 1 
490.667 1.20582 1.9687 -0.138984 -0.294068 1.99716 1.4837 20 1 
492 1.20584 2.01105 -0.140812 -0.275483 2.0364 1.5185 20 1 
493.333 1.20586 2.05347 -0.142148 -0.256023 2.07584 1.54889 20 1 
494.667 1.20587 2.0959 -0.143067 -0.235858 2.11547 1.57551 20 1 
496 1.20589 2.13826 -0.14364 -0.215131 2.15524 1.59915 20 1 
497.333 1.2059 2.18047 -0.143928 -0.193924 2.19511 1.61885 20 1 
498.667 1.2059 2.2225 -0.143977 -0.172339 2.23502 1.63335 20 1 
500 1.20591 2.26425 -0.143836 -0.150518 2.27492 1.64155 20 1 
501.333 1.20591 2.30568 -0.143551 -0.128551 2.31476 1.64305 20 1 
502.667 1.20591 2.34682 -0.143149 -0.106515 2.35456 1.63927 20 1 
504 1.2059 2.38773 -0.142662 -0.0845455 2.39438 1.63178 20 1 
505.333 1.2059 2.42839 -0.142112 -0.0628043 2.43419 1.62128 20 1 
506.667 1.20589 2.4688 -0.141516 -0.0414033 2.47398 1.60666 20 1 
508 1.20588 2.50903 -0.140886 -0.0204261 2.5138 1.58702 20 1 
509.333 1.20587 2.54921 -0.140227 1.06217e-06 2.55375 1.56379 20 1 
510.667 1.20585 2.58941 -0.139547 0.0197081 2.59389 1.53855 20 1 
512 1.20584 2.6297 -0.138845 0.0385664 2.63427 1.51182 20 1 
512 1.20584 2.6297 -0.138845 0.0385664 2.63427 1.51182 21 1 
513.333 1.20582 2.67022 -0.138124 0.0564464 2.67498 1.48373 21 1 
514.667 1.20581 2.71108 -0.137386 0.0732164 2.71612 1.45488 21 1 
516 1.20579 2.75238 -0.136633 0.0887875 2.75776 1.42532 21 1 
517.333 1.20577 2.79421 -0.13587 0.103038 2.79996 1.39486 21 1 
518.667 1.20576 2.83668 -0.135093 0.115851 2.84281 1.36496 21 1 
520 1.20574 2.87987 -0.13431 0.127154 2.88636 1.33715 21 1 
521.333 1.20573 2.92384 -0.133524 0.136895 2.93065 1.31155 21 1 
522.667 1.20571 2.96863 -0.132752 0.145023 2.9757 1.28789 21 1 
524 1.2057 3.01422 -0.131997 0.151496 3.02149 1.26665 21 1 
525.333 1.20569 3.06057 -0.131268 0.156326 3.06798 1.2481 21 1 
526.667 1.20568 3.10767 -0.130589 0.159537 3.11515 1.23212 21 1 
528 1.20567 3.15545 -0.129968 0.161163 3.16291 1.21873 21 1 
529.333 1.20567 3.20381 -0.129431 0.161282 3.2112 1.20834 21 1 
530.667 1.20567 3.2527 -0.129008 0.159998 3.25997 1.20221 21 1 
532 1.20566 3.30205 -0.128727 0.157423 3.30916 1.20071 21 1 
533.333 1.20567 3.35177 -0.128632 0.153682 3.35869 1.2033 21 1 
533.333 1.20567 3.35177 -0.128632 0.153682 3.35869 1.2033 21 1 
534.667 1.20567 3.40178 -0.128753 0.148936 3.40848 1.20957 21 1 
536 1.20567 3.45204 -0.129124 0.143389 3.45853 1.21911 21 1 
537.333 1.20568 3.50252 -0.129777 0.137232 3.50881 1.23132 21 1 
538.667 1.20569 3.55322 -0.130736 0.130624 3.55932 1.24619 21 1 
540 1.2057 3.60411 -0.132019 0.123753 3.61007 1.26428 21 1 
541.333 1.20571 3.65521 -0.133627 0.116838 3.66105 1.28528 21 1 
542.667 1.20572 3.70656 -0.135558 0.110081 3.71233 1.30848 21 1 
544 1.20574 3.75821 -0.137787 0.103686 3.76396 1.33397 21 1 
545.333 1.20575 3.81014 -0.140279 0.0978309 3.8159 1.36156 21 1 
546.667 1.20577 3.86234 -0.142993 0.0926815 3.86816 1.38993 21 1 
548 1.20579 3.91481 -0.145873 0.0883933 3.92073 1.41888 21 1 
549.333 1.2058 3.96758 -0.148873 0.0851387 3.97363 1.44825 21 1 
550.667 1.20582 4.02062 -0.151925 0.083074 4.02684 1.47745 21 1 
552 1.20583 4.07389 -0.154979 0.0822674 4.08031 1.50501 21 1 
553.333 1.20585 4.12738 -0.157972 0.0828155 4.13402 1.53055 21 1 
554.667 1.20586 4.18103 -0.160851 0.0848168 4.18791 1.55567 21 1 
554.667 1.20586 4.18103 -0.160851 0.0848168 4.18791 1.55567 22 1 
556 1.20587 4.23487 -0.163586 0.0883497 4.24202 1.57945 22 1 
557.333 1.20589 4.2889 -0.166129 0.0934717 4.29633 1.60159 22 1 
558.667 1.2059 4.34303 -0.168448 0.100189 4.35079 1.62141 22 1 
560 1.20591 4.39725 -0.170502 0.10852 4.40535 1.63719 22 1 
561.333 1.20591 4.45157 -0.172276 0.118455 4.46005 1.64852 22 1 
562.667 1.20592 4.50602 -0.173738 0.129993 4.51493 1.65569 22 1 
564 1.20592 4.56064 -0.174863 0.143082 4.57001 1.66098 22 1 
565.333 1.20592 4.61544 -0.175647 0.157682 4.62534 1.66383 22 1 
566.667 1.20592 4.67043 -0.176057 0.173736 4.68092 1.66301 22 1 
568 1.20592 4.7256 -0.176077 0.191176 4.73675 1.65911 22 1 
569.333 1.20591 4.78102 -0.175687 0.209958 4.79291 1.65127 22 1 
570.667 1.20591 4.83666 -0.174872 0.230006 4.84937 1.63901 22 1 
572 1.2059 4.89255 -0.173613 0.25123 4.90618 1.62252 22 1 
573.333 1.20589 4.94866 -0.171893 0.273502 4.9633 1.60334 22 1 
574.667 1.20588 5.00499 -0.169711 0.296776 5.02074 1.58184 22 1 
576 1.20586 5.0615 -0.167055 0.320984 5.07848 1.55754 22 1 
576 1.20586 5.0615 -0.167055 0.320984 5.07848 1.55754 22 1 
577.333 1.20585 5.11812 -0.163945 0.345995 5.13644 1.53068 22 1 
578.667 1.20583 5.17477 -0.160385 0.371724 5.19453 1.50083 22 1 
580 1.20581 5.23131 -0.156406 0.398048 5.25265 1.46753 22 1 
581.333 1.20579 5.28765 -0.152043 0.424873 5.31067 1.4309 22 1 
582.667 1.20577 5.34367 -0.14732 0.452057 5.36847 1.39213 22 1 
584 1.20575 5.39921 -0.142298 0.479514 5.42591 1.35262 22 1 
585.333 1.20573 5.45413 -0.137028 0.507139 5.48283 1.3124 22 1 
586.667 1.2057 5.50827 -0.131564 0.534767 5.53906 1.26989 22 1 
588 1.20568 5.56141 -0.125945 0.562296 5.59438 1.22531 22 1 
589.333 1.20565 5.61337 -0.120238 0.589558 5.64858 1.17899 22 1 
590.667 1.20563 5.66402 -0.114513 0.61645 5.70153 1.13098 22 1 
592 1.2056 5.71321 -0.108853 0.642798 5.75305 1.08227 22 1 
593.333 1.20557 5.76077 -0.103356 0.66846 5.80296 1.03528 22 1 
594.667 1.20555 5.80658 -0.0981255 0.693302 5.85111 0.990025 22 1 
596 1.20552 5.85063 -0.0932699 0.717175 5.89746 0.943378 22 1 
597.333 1.2055 5.89285 -0.0888885 0.740012 5.94193 0.897111 22 1 
597.333 1.2055 5.89285 -0.0888885 0.740012 5.94193 0.897111 24 1 
598.667 1.20547 5.93328 -0.0850927 0.761678 5.98455 0.851786 24 1 
600 1.20545 5.97203 -0.0819759 0.782143 6.0254 0.806656 24 1 
601.333 1.20542 6.00918 -0.0796236 0.80134 6.06455 0.763657 24 1 
602.667 1.2054 6.04486 -0.0781133 0.819262 6.10212 0.723366 24 1 
604 1.20538 6.07915 -0.0774999 0.83595 6.13819 0.686939 24 1 
605.333 1.20536 6.11217 -0.0778304 0.851418 6.17287 0.652031 24 1 
606.667 1.20534 6.14394 -0.079118 0.865737 6.20619 0.617493 24 1 
608 1.20532 6.17447 -0.0813596 0.878925 6.23817 0.58471 24 1 
609.333 1.20531 6.20386 -0.0845199 0.891101 6.26891 0.553266 24 1 
610.667 1.20529 6.23212 -0.0885354 0.902319 6.29845 0.523786 24 1 
612 1.20527 6.25929 -0.0933671 0.912635 6.3268 0.495183 24 1 
613.333 1.20526 6.28528 -0.0989532 0.922058 6.35391 0.468214 24 1 
614.667 1.20525 6.31006 -0.105262 0.930568 6.37971 0.44251 24 1 
616 1.20523 6.33358 -0.112251 0.938208 6.40418 0.415342 24 1 
617.333 1.20522 6.3557 -0.119784 0.944876 6.42717 0.388563 24 1 
618.667 1.2052 6.37635 -0.127762 0.950546 6.44858 0.362243 24 1 
618.667 1.2052 6.37635 -0.127762 0.950546 6.44858 0.362243 24 1 
620 1.20519 6.39541 -0.13605 0.955025 6.46827 0.335391 24 1 
621.333 1.20517 6.41281 -0.144501 0.958139 6.48616 0.306988 24 1 
622.667 1.20515 6.4285 -0.153088 0.959634 6.50215 0.279087 24 1 
624 1.20514 6.4424 -0.161758 0.959192 6.51611 0.255152 24 1 
625.333 1.20513 6.45465 -0.170474 0.956548 6.52816 0.230963 24 1 
626.667 1.20512 6.46526 -0.179162 0.951257 6.53822 0.208377 24 1 
628 1.2051 6.47437 -0.187682 0.943002 6.54639 0.189513 24 1 
629.333 1.20509 6.48226 -0.195904 0.931438 6.55292 0.171064 24 1 
630.667 1.20509 6.48921 -0.20367 0.916308 6.55802 0.1546 24 1 
632 1.20508 6.49553 -0.210832 0.897365 6.56202 0.14273 24 1 
633.333 1.20508 6.50156 -0.217253 0.874403 6.56524 0.137289 24 1 
634.667 1.20508 6.50776 -0.22285 0.847365 6.56814 0.136386 24 1 
636 1.20508 6.51457 -0.227566 0.816314 6.57123 0.140138 24 1 
637.333 1.20508 6.52242 -0.231323 0.781452 6.57501 0.150984 24 1 
638.667 1.20509 6.53176 -0.234112 0.743134 6.58001 0.165881 24 1 
640 1.2051 6.54288 -0.235843 0.701837 6.58664 0.18441 24 1 
640 1.2051 6.54288 -0.235843 0.701837 6.58664 0.18441 24 1 
641.333 1.20511 6.55612 -0.236512 0.658106 6.59534 0.206152 24 1 
642.667 1.20513 6.57172 -0.236135 0.612612 6.60647 0.229692 24 1 
644 1.20514 6.5897 -0.234694 0.566076 6.62017 0.255578 24 1 
645.333 1.20516 6.60999 -0.232325 0.519171 6.63642 0.283297 24 1 
646.667 1.20517 6.63247 -0.229043 0.47254 6.65519 0.311486 24 1 
648 1.20519 6.6568 -0.224946 0.426801 6.67617 0.339987 24 1 
649.333 1.2052 6.6827 -0.22022 0.382471 6.6991 0.366091 24 1 
650.667 1.20521 6.70997 -0.214893 0.340059 6.72378 0.387312 24 1 
652 1.20522 6.73833 -0.209204 0.29989 6.74992 0.406415 24 1 
653.333 1.20524 6.76757 -0.20328 0.26213 6.77729 0.426262 24 1 
654.667 1.20524 6.79781 -0.197276 0.226927 6.80596 0.44167 24 1 
656 1.20525 6.82886 -0.19139 0.194266 6.83571 0.456396 24 1 
657.333 1.20526 6.86069 -0.185642 0.164038 6.86648 0.470886 24 1 
658.667 1.20527 6.89358 -0.180221 0.136126 6.89851 0.4798 24 1 
660 1.20527 6.92728 -0.175106 0.110207 6.93152 0.490484 24 1 
661.333 1.20528 6.96218 -0.170394 0.0861 6.96586 0.498992 24 1 
661.333 1.20528 6.96218 -0.170394 0.0861 6.96586 0.498992 24 1 
662.667 1.20528 6.99814 -0.16608 0.0635297 7.00139 0.507986 24 1 
664 1.20529 7.03524 -0.162172 0.0422095 7.03815 0.517408 24 1 
665.333 1.20529 7.07362 -0.158712 0.0220111 7.07629 0.525219 24 1 
666.667 1.2053 7.11317 -0.15563 0.00269911 7.11567 0.534271 24 1 
668 1.2053 7.15395 -0.152975 -0.0157841 7.15634 0.543744 24 1 
669.333 1.20531 7.19584 -0.150686 -0.0334821 7.19818 0.552813 24 1 
670.667 1.20531 7.2388 -0.148698 -0.0504432 7.24114 0.559551 24 1 
672 1.20531 7.28265 -0.146985 -0.0666184 7.28503 0.568966 24 1 
673.333 1.20532 7.32729 -0.145532 -0.0819273 7.32975 0.576225 24 1 
674.667 1.20532 7.37258 -0.144234 -0.0963789 7.37514 0.581471 24 1 
676 1.20533 7.41823 -0.143063 -0.109887 7.4209 0.59046 24 1 
677.333 1.20533 7.46417 -0.142042 -0.122395 7.46697 0.59541 24 1 
678.667 1.20533 7.51012 -0.141139 -0.133826 7.51305 0.599465 24 1 
680 1.20533 7.55589 -0.140353 -0.144102 7.55896 0.60219 24 1 
681.333 1.20533 7.6014 -0.139727 -0.153182 7.60459 0.6028 24 1 
682.667 1.20533 7.64626 -0.139193 -0.161007 7.64956 0.604409 24 1 
682.667 1.20533 7.64626 -0.139193 -0.161007 7.64956 0.604409 31 1 
684 1.20533 7.69047 -0.138765 -0.167498 7.69388 0.602092 31 1 
685.333 1.20533 7.73372 -0.138417 -0.172621 7.7372 0.602135 31 1 
686.667 1.20533 7.7759 -0.138109 -0.176388 7.77942 0.60006 31 1 
688 1.20533 7.81682 -0.13784 -0.178867 7.82037 0.596262 31 1 
689.333 1.20533 7.85642 -0.13758 -0.180077 7.85996 0.589843 31 1 
690.667 1.20532 7.8945 -0.137259 -0.18001 7.89802 0.584855 31 1 
692 1.20532 7.93102 -0.136906 -0.178968 7.93449 0.579581 31 1 
693.333 1.20531 7.96613 -0.136508 -0.176864 7.96952 0.567859 31 1 
694.667 1.20531 7.99943 -0.135973 -0.174017 8.00273 0.563266 31 1 
696 1.20531 8.03125 -0.135419 -0.170408 8.03445 0.553037 31 1 
697.333 1.2053 8.06145 -0.134784 -0.166213 8.06453 0.540072 31 1 
698.667 1.20529 8.09007 -0.133994 -0.161588 8.09304 0.531151 31 1 
700 1.20529 8.11728 -0.133236 -0.156451 8.12012 0.520987 31 1 
701.333 1.20528 8.14296 -0.132375 -0.151091 8.14568 0.510911 31 1 
702.667 1.20528 8.1673 -0.131434 -0.145432 8.16989 0.49882 31 1 
704 1.20527 8.19031 -0.13055 -0.139606 8.19278 0.488291 31 1 
704 1.20527 8.19031 -0.13055 -0.139606 8.19278 0.488291 31 1 
705.333 1.20526 8.21202 -0.129538 -0.133617 8.21436 0.478547 31 1 
706.667 1.20526 8.23267 -0.128574 -0.127525 8.23489 0.464431 31 1 
708 1.20525 8.25216 -0.127545 -0.121356 8.25427 0.455848 31 1 
709.333 1.20525 8.2706 -0.126529 -0.115104 8.2726 0.447708 31 1 
710.667 1.20524 8.28818 -0.125492 -0.108785 8.29008 0.433822 31 1 
712 1.20524 8.30478 -0.124422 -0.102434 8.30658 0.427094 31 1 
713.333 1.20523 8.32078 -0.123442 -0.096077 8.32248 0.416514 31 1 
714.667 1.20523 8.33597 -0.122341 -0.089659 8.33759 0.40844 31 1 
716 1.20522 8.35054 -0.121342 -0.0832227 8.35207 0.400204 31 1 
717.333 1.20522 8.36465 -0.120271 -0.0768014 8.3661 0.390252 31 1 
718.667 1.20521 8.37821 -0.119186 -0.0703435 8.37958 0.385414 31 1 
720 1.20521 8.39152 -0.118178 -0.0639642 8.39283 0.375013 31 1 
721.333 1.2052 8.40443 -0.117095 -0.0574616 8.40567 0.369697 31 1 
722.667 1.2052 8.41732 -0.1161 -0.051034 8.4185 0.359246 31 1 
724 1.2052 8.43009 -0.115055 -0.0448938 8.43123 0.352646 31 1 
725.333 1.20519 8.44315 -0.113969 -0.0388255 8.44424 0.345415 31 1 
725.333 1.20519 8.44315 -0.113969 -0.0388255 8.44424 0.345415 31 1 
726.667 1.20519 8.4564 -0.112977 -0.0328657 8.45745 0.336327 31 1 
728 1.20518 8.47001 -0.11193 -0.0271254 8.47102 0.330663 31 1 
729.333 1.20518 8.48415 -0.111017 -0.0214133 8.48514 0.321576 31 1 
730.667 1.20517 8.4988 -0.110153 -0.0160048 8.49975 0.315591 31 1 
732 1.20517 8.51432 -0.109258 -0.0108028 8.51525 0.307072 31 1 
733.333 1.20517 8.53032 -0.108523 -0.00579645 8.53124 0.302248 31 1 
734.667 1.20516 8.54736 -0.107769 -0.00104178 8.54826 0.29382 31 1 
736 1.20516 8.56513 -0.107391 0.0035136 8.56603 0.288211 31 1 
737.333 1.20516 8.58382 -0.107235 0.00780643 8.58472 0.284125 31 1 
738.667 1.20516 8.60295 -0.107013 0.011888 8.60385 0.285959 31 1 
740 1.20515 8.62311 -0.107218 0.0157996 8.62402 0.273903 31 1 
741.333 1.20515 8.64395 -0.107483 0.0194168 8.64487 0.274524 31 1 
742.667 1.20516 8.66494 -0.107944 0.0225218 8.66587 0.288272 31 1 
744 1.20515 8.68722 -0.108632 0.0254564 8.68817 0.272151 31 1 
745.333 1.20516 8.70934 -0.109389 0.0276801 8.71031 0.286827 31 1 
746.667 1.20517 8.7316 -0.110191 0.0294489 8.73258 0.303244 31 1 
746.667 1.20517 8.7316 -0.110191 0.0294489 8.73258 0.303244 31 1 
748 1.20516 8.75492 -0.111017 0.0307612 8.75591 0.290293 31 1 
749.333 1.20517 8.77761 -0.111949 0.0313452 8.77862 0.30991 31 1 
750.667 1.20518 8.80049 -0.11251 0.0313242 8.80151 0.325216 31 1 
752 1.20518 8.82401 -0.113054 0.0307917 8.82502 0.319318 31 1 
753.333 1.20519 8.84652 -0.113378 0.029206 8.84753 0.341238 31 1 
754.667 1.2052 8.86973 -0.113448 0.0272151 8.87072 0.352502 31 1 
756 1.2052 8.89246 -0.113306 0.024873 8.89343 0.361181 31 1 
757.333 1.20521 8.91461 -0.112845 0.0215239 8.91556 0.374159 31 1 
758.667 1.20521 8.93727 -0.112432 0.0181555 8.9382 0.374771 31 1 
760 1.20522 8.95865 -0.111666 0.0143337 8.95955 0.399257 31 1 
761.333 1.20522 8.9805 -0.110838 0.0104845 8.98137 0.399177 31 1 
762.667 1.20522 9.00162 -0.109743 0.00654224 9.00246 0.398753 31 1 
764 1.20523 9.02199 -0.108535 0.00188964 9.0228 0.421496 31 1 
765.333 1.20523 9.04317 -0.107283 -0.00248715 9.04396 0.415953 31 1 
766.667 1.20524 9.06257 -0.105962 -0.00727802 9.06333 0.436263 31 1 
768 1.20524 9.08291 -0.104689 -0.0110632 9.08366 0.432472 31 1 
768 1.20524 9.08291 -0.104689 -0.0110632 9.08366 0.432472 32 1 
769.333 1.20525 9.10257 -0.10324 -0.0153851 9.10329 0.445445 32 1 
770.667 1.20526 9.12135 -0.101607 -0.0198862 9.12206 0.476565 32 1 
772 1.20526 9.14118 -0.100048 -0.0236622 9.14187 0.462219 32 1 
773.333 1.20527 9.15901 -0.0985812 -0.0279219 9.15969 0.496409 32 1 
774.667 1.20528 9.17777 -0.097163 -0.0309769 9.17844 0.514731 32 1 
776 1.20529 9.19599 -0.0957821 -0.0347296 9.19665 0.530955 32 1 
777.333 1.20531 9.21383 -0.0941759 -0.0383703 9.21449 0.564265 32 1 
778.667 1.20532 9.23229 -0.0930324 -0.0417572 9.23295 0.586339 32 1 
780 1.20535 9.24883 -0.091681 -0.044937 9.24949 0.635556 32 1 
781.333 1.20536 9.26623 -0.0901544 -0.0473491 9.26688 0.644839 32 1 
782.667 1.20538 9.28302 -0.088796 -0.0503944 9.28367 0.679332 32 1 
784 1.20541 9.29986 -0.0875996 -0.0534277 9.30051 0.73758 32 1 
785.333 1.20542 9.31765 -0.0862432 -0.0553337 9.31829 0.760927 32 1 
786.667 1.20545 9.33391 -0.0851097 -0.0570214 9.33455 0.809896 32 1 
788 1.20547 9.3494 -0.0838081 -0.0594636 9.35004 0.855432 32 1 
789.333 1.20549 9.36495 -0.0821174 -0.0623348 9.3656 0.876069 32 1 
790.667 1.20551 9.37994 -0.0806574 -0.0648959 9.38059 0.925987 32 1 
792 1.20555 9.39389 -0.078986 -0.0666297 9.39453 0.998819 32 1 
793.333 1.20557 9.40866 -0.0778985 -0.0683895 9.4093 1.02392 32 1 
794.667 1.2056 9.42243 -0.0770287 -0.0710078 9.42309 1.08669 32 1 
796 1.20566 9.43532 -0.0757374 -0.0745989 9.43599 1.1847 32 1 
797.333 1.2057 9.4459 -0.0740906 -0.077862 9.44657 1.26163 32 1 
798.667 1.20572 9.45579 -0.0713494 -0.0800196 9.45646 1.30227 32 1 
800 1.20572 9.46199 -0.0695435 -0.0809669 9.46265 1.29784 32 1 
