81.5083;r ;Density                 ;Velocity u              ;Velocity v              ;Velocity w              ;|Velocity|              ;Pressure                ;Distribution            ;Levels                  ;
0 1.20656 9.99607 0.000126795 -0.000642986 9.99607 2.81585 1 1 
1.33334 1.20651 9.99694 0.000145241 0.00198493 9.99694 2.72208 1 1 
2.66666 1.2064 9.99806 0.000163825 0.00705783 9.99806 2.53584 1 1 
4 1.2063 9.99819 0.000193668 0.0116757 9.99821 2.35632 1 1 
5.33334 1.20624 9.99831 0.000185168 0.0147355 9.99834 2.2469 1 1 
6.66666 1.2062 9.99836 0.000104542 0.0173218 9.99839 2.16645 1 1 
8 1.20615 9.99804 4.08043e-05 0.0199316 9.99809 2.0801 1 1 
9.33334 1.20615 9.99802 -8.4249e-05 0.0210673 9.99808 2.0729 1 1 
10.6667 1.20615 9.99782 -0.000249481 0.0221511 9.99788 2.07341 1 1 
12 1.20615 9.99745 -0.000387034 0.0227387 9.99752 2.08354 1 1 
13.3333 1.2062 9.99736 -0.000591015 0.0218159 9.99743 2.17012 1 1 
14.6667 1.20625 9.99701 -0.000788496 0.0210076 9.99708 2.25494 1 1 
16 1.20631 9.99668 -0.000957276 0.0193543 9.99674 2.37257 1 1 
17.3333 1.2064 9.9964 -0.0011802 0.0166936 9.99645 2.53099 1 1 
18.6667 1.20647 9.99576 -0.00136333 0.0143884 9.9958 2.66152 1 1 
20 1.20658 9.99539 -0.00153405 0.0110687 9.99543 2.84611 1 1 
21.3333 1.20669 9.995 -0.0017315 0.00740656 9.99503 3.04585 1 1 
21.3333 1.20669 9.995 -0.0017315 0.00740656 9.99503 3.04585 1 1 
22.6667 1.20677 9.99412 -0.00185301 0.00417164 9.99414 3.20056 1 1 
24 1.20688 9.99353 -0.00197134 -2.07219e-05 9.99355 3.40177 1 1 
25.3333 1.20699 9.99294 -0.00208399 -0.00386398 9.99297 3.59117 1 1 
26.6667 1.20707 9.99205 -0.00209905 -0.00723397 9.99207 3.73808 1 1 
28 1.20716 9.99127 -0.00210928 -0.0111649 9.9913 3.90006 1 1 
29.3333 1.20722 9.99036 -0.00208251 -0.014211 9.99039 4.01619 1 1 
30.6667 1.20728 9.98955 -0.00198472 -0.016919 9.9896 4.11974 1 1 
32 1.20733 9.98891 -0.00189741 -0.0195684 9.98896 4.21724 1 1 
33.3333 1.20734 9.98786 -0.00174807 -0.0209049 9.98792 4.22564 1 1 
34.6667 1.20734 9.98709 -0.00157033 -0.022114 9.98716 4.23371 1 1 
36 1.20735 9.98656 -0.00142616 -0.0228796 9.98664 4.24178 1 1 
37.3333 1.20731 9.98567 -0.001211 -0.0223187 9.98574 4.16884 1 1 
38.6667 1.20726 9.98498 -0.000988921 -0.0217153 9.98506 4.08812 1 1 
40 1.20721 9.98438 -0.000802507 -0.0202829 9.98446 3.9849 1 1 
41.3333 1.20713 9.98378 -0.000567495 -0.0179518 9.98385 3.84455 1 1 
42.6667 1.20706 9.98342 -0.000357384 -0.0157373 9.98349 3.71843 1 1 
42.6667 1.20706 9.98342 -0.000357384 -0.0157373 9.98349 3.71843 2 1 
44 1.20696 9.98277 -0.000154637 -0.0123429 9.98282 3.53456 2 1 
45.3333 1.20684 9.98223 7.47875e-05 -0.00852184 9.98228 3.33045 2 1 
46.6667 1.20675 9.98211 0.000242984 -0.00492063 9.98214 3.16594 2 1 
48 1.20664 9.9817 0.000418958 -0.000215171 9.98173 2.9543 2 1 
49.3333 1.20652 9.98132 0.000597923 0.00447757 9.98134 2.73796 2 1 
50.6667 1.20641 9.98116 0.000695993 0.00901164 9.98119 2.54912 2 1 
52 1.2063 9.98086 0.000798963 0.0141313 9.98089 2.35111 2 1 
53.3333 1.20622 9.98085 0.000869408 0.018519 9.98089 2.19821 2 1 
54.6667 1.20614 9.9808 0.0008677 0.0227561 9.98086 2.0544 2 1 
56 1.20606 9.98041 0.000868036 0.0270314 9.98048 1.91864 2 1 
57.3333 1.20603 9.98049 0.000805119 0.0300291 9.98058 1.86661 2 1 
58.6667 1.20601 9.98055 0.000687667 0.0328396 9.98065 1.83314 2 1 
60 1.206 9.98026 0.000571917 0.0351092 9.98038 1.81439 2 1 
61.3333 1.20603 9.98023 0.000388786 0.036037 9.98035 1.86125 2 1 
62.6667 1.20607 9.98006 0.00018273 0.0369122 9.98019 1.92618 2 1 
64 1.20613 9.97984 -2.78244e-05 0.0367653 9.97997 2.03619 2 1 
64 1.20613 9.97984 -2.78244e-05 0.0367653 9.97997 2.03619 2 1 
65.3333 1.20621 9.97971 -0.000306601 0.0355812 9.97983 2.18303 2 1 
66.6667 1.20628 9.97915 -0.000571636 0.0345558 9.97926 2.31882 2 1 
68 1.20639 9.97879 -0.000841988 0.0323307 9.9789 2.51139 2 1 
69.3333 1.20651 9.97869 -0.00116684 0.029422 9.97878 2.73387 2 1 
70.6667 1.20663 9.97784 -0.00145754 0.0264305 9.97792 2.94387 2 1 
72 1.20676 9.9773 -0.00174875 0.022615 9.97736 3.17648 2 1 
73.3333 1.20689 9.97688 -0.00205841 0.0187338 9.97693 3.40988 2 1 
74.6667 1.20702 9.97595 -0.00233024 0.0144711 9.97598 3.65323 2 1 
76 1.20716 9.97542 -0.00260172 0.00980973 9.97545 3.89296 2 1 
77.3333 1.20726 9.97445 -0.00283906 0.00582287 9.97448 4.08449 2 1 
78.6667 1.20737 9.97337 -0.00303192 0.00156202 9.97339 4.28423 2 1 
80 1.20748 9.97285 -0.00324219 -0.00281467 9.97288 4.47841 2 1 
81.3333 1.20755 9.97175 -0.00338521 -0.00598312 9.97178 4.59957 2 1 
82.6667 1.20761 9.97064 -0.0034702 -0.0091723 9.97068 4.70699 2 1 
84 1.20766 9.96975 -0.00357502 -0.0121592 9.9698 4.80191 2 1 
85.3333 1.20768 9.96866 -0.00360232 -0.0139049 9.96872 4.83683 2 1 
85.3333 1.20768 9.96866 -0.00360232 -0.0139049 9.96872 4.83683 3 1 
86.6667 1.20769 9.96791 -0.00357913 -0.0156692 9.96797 4.85426 3 1 
88 1.20768 9.96693 -0.00356755 -0.0167929 9.967 4.83752 3 1 
89.3333 1.20764 9.96596 -0.00349122 -0.0169058 9.96602 4.77117 3 1 
90.6667 1.2076 9.96548 -0.00338218 -0.0167555 9.96554 4.70154 3 1 
92 1.20755 9.96453 -0.00326026 -0.0157765 9.9646 4.59745 3 1 
93.3333 1.20746 9.96366 -0.00309939 -0.0142299 9.96372 4.44976 3 1 
94.6667 1.20738 9.96331 -0.00292983 -0.0121608 9.96337 4.29063 3 1 
96 1.20728 9.9627 -0.0027314 -0.00935034 9.96274 4.11511 3 1 
97.3333 1.20718 9.96218 -0.00252304 -0.00648369 9.96222 3.93911 3 1 
98.6667 1.20707 9.96198 -0.00233011 -0.00292854 9.96202 3.73766 3 1 
100 1.20695 9.96154 -0.00210509 0.00112694 9.96157 3.52907 3 1 
101.333 1.20686 9.96112 -0.00190234 0.00467202 9.96115 3.36707 3 1 
102.667 1.20676 9.96095 -0.0017301 0.00893208 9.96098 3.1779 3 1 
104 1.20666 9.96056 -0.00153637 0.0133107 9.96059 2.99409 3 1 
105.333 1.2066 9.96022 -0.00140441 0.0167968 9.96025 2.8819 3 1 
106.667 1.20652 9.96037 -0.00131457 0.0208358 9.96041 2.74749 3 1 
106.667 1.20652 9.96037 -0.00131457 0.0208358 9.96041 2.74749 3 1 
108 1.20646 9.96055 -0.00121086 0.0243989 9.9606 2.63744 3 1 
109.333 1.20644 9.9602 -0.00118532 0.0270518 9.96026 2.60449 3 1 
110.667 1.20641 9.96008 -0.00119214 0.030264 9.96015 2.53891 3 1 
112 1.2064 9.96004 -0.00119458 0.0327178 9.96013 2.52346 3 1 
113.333 1.20644 9.95931 -0.00128327 0.0341884 9.95941 2.59315 3 1 
114.667 1.20644 9.95924 -0.00138947 0.0360263 9.95934 2.60946 3 1 
116 1.20649 9.95929 -0.00150557 0.0367602 9.95941 2.68631 3 1 
117.333 1.20658 9.95841 -0.00170723 0.0365641 9.95852 2.85082 3 1 
118.667 1.20664 9.95833 -0.00191576 0.0365697 9.95844 2.95987 3 1 
120 1.20673 9.95823 -0.00213831 0.0355997 9.95834 3.11784 3 1 
121.333 1.20685 9.95693 -0.0024178 0.0341598 9.95704 3.34052 3 1 
122.667 1.20694 9.95663 -0.00269774 0.0325149 9.95673 3.50764 3 1 
124 1.20705 9.9564 -0.00299541 0.0299503 9.95649 3.7074 3 1 
125.333 1.20719 9.95476 -0.00331422 0.0271409 9.95483 3.95623 3 1 
126.667 1.20729 9.95422 -0.00361373 0.0242621 9.95428 4.14461 3 1 
128 1.2074 9.9541 -0.00393028 0.0209138 9.95415 4.33395 3 1 
128 1.2074 9.9541 -0.00393028 0.0209138 9.95415 4.33395 3 1 
129.333 1.20752 9.95263 -0.00424131 0.0178472 9.95266 4.56054 3 1 
130.667 1.20762 9.9518 -0.00451472 0.0147369 9.95183 4.73452 3 1 
132 1.2077 9.95123 -0.00479718 0.0113668 9.95125 4.87726 3 1 
133.333 1.20779 9.94955 -0.00506098 0.00822074 9.94957 5.04269 3 1 
134.667 1.20786 9.94848 -0.00529248 0.00508274 9.94849 5.16974 3 1 
136 1.2079 9.94814 -0.00550267 0.00227166 9.94817 5.23351 3 1 
137.333 1.20794 9.94684 -0.00567642 4.2686e-05 9.94686 5.30962 3 1 
138.667 1.20797 9.9455 -0.00581505 -0.00180368 9.94553 5.36347 3 1 
140 1.20795 9.94513 -0.00591878 -0.00314075 9.94517 5.33464 3 1 
141.333 1.20795 9.94391 -0.00598455 -0.00429385 9.94395 5.32162 3 1 
142.667 1.20793 9.94252 -0.00602016 -0.0051394 9.94256 5.29019 3 1 
144 1.20786 9.94239 -0.00602911 -0.00524268 9.94243 5.16451 3 1 
145.333 1.20781 9.94125 -0.00599862 -0.00470606 9.94129 5.08133 3 1 
146.667 1.20777 9.93992 -0.00594582 -0.00387348 9.93996 4.99909 3 1 
148 1.20767 9.94018 -0.00586406 -0.00223336 9.94022 4.81503 3 1 
149.333 1.20759 9.93912 -0.00575636 -0.000420885 9.93915 4.6843 3 1 
149.333 1.20759 9.93912 -0.00575636 -0.000420885 9.93915 4.6843 3 1 
150.667 1.20753 9.93789 -0.00564157 0.00134919 9.93792 4.5667 3 1 
152 1.20742 9.93821 -0.00551278 0.00378172 9.93823 4.37356 3 1 
153.333 1.20735 9.9369 -0.00537594 0.00626695 9.93692 4.24905 3 1 
154.667 1.20729 9.93581 -0.00522551 0.00939826 9.93583 4.13138 3 1 
156 1.2072 9.93622 -0.0050807 0.0123731 9.93624 3.96818 3 1 
157.333 1.20715 9.9353 -0.00495555 0.015008 9.93532 3.87685 3 1 
158.667 1.20711 9.93435 -0.00483622 0.0180691 9.93438 3.8029 3 1 
160 1.20705 9.93417 -0.00474227 0.0203953 9.93421 3.71116 3 1 
161.333 1.20703 9.93347 -0.00467283 0.0228707 9.93351 3.67065 3 1 
162.667 1.20703 9.93263 -0.00462497 0.0252938 9.93268 3.67046 3 1 
164 1.20703 9.9323 -0.00458946 0.027156 9.93236 3.66506 3 1 
165.333 1.20704 9.93164 -0.00457848 0.0289678 9.9317 3.69345 3 1 
166.667 1.20709 9.93024 -0.00460785 0.030226 9.93031 3.78087 3 1 
168 1.20713 9.92951 -0.00465487 0.0308567 9.92958 3.85456 3 1 
169.333 1.20718 9.92875 -0.00473165 0.0316156 9.92883 3.94521 3 1 
170.667 1.20726 9.92747 -0.00483567 0.0316923 9.92755 4.087 3 1 
170.667 1.20726 9.92747 -0.00483567 0.0316923 9.92755 4.087 11 1 
172 1.20733 9.92676 -0.00495968 0.0313825 9.92684 4.21667 11 1 
173.333 1.20742 9.92564 -0.00509415 0.0310433 9.92572 4.36543 11 1 
174.667 1.20751 9.92413 -0.00525365 0.0297765 9.9242 4.54029 11 1 
176 1.2076 9.92307 -0.00543874 0.0285167 9.92313 4.68734 11 1 
177.333 1.20768 9.92149 -0.00563079 0.027271 9.92154 4.84188 11 1 
178.667 1.20777 9.91986 -0.00582454 0.0259074 9.91991 5.00665 11 1 
180 1.20786 9.91844 -0.00602554 0.0246625 9.91848 5.15806 11 1 
181.333 1.20794 9.91675 -0.00623622 0.0230862 9.91678 5.30227 11 1 
182.667 1.208 9.91531 -0.00643276 0.0213778 9.91535 5.4215 11 1 
184 1.20806 9.91352 -0.00662462 0.0194961 9.91355 5.53328 11 1 
185.333 1.20812 9.91157 -0.0068225 0.0179222 9.9116 5.62731 11 1 
186.667 1.20816 9.9096 -0.00702438 0.0167711 9.90962 5.70123 11 1 
188 1.20819 9.90763 -0.00719627 0.0158175 9.90765 5.76675 11 1 
189.333 1.20821 9.90626 -0.00736141 0.0153704 9.90628 5.80071 11 1 
190.667 1.20822 9.90454 -0.00753098 0.0149932 9.90457 5.82179 11 1 
192 1.20823 9.90238 -0.00768914 0.014602 9.9024 5.829 11 1 
192 1.20823 9.90238 -0.00768914 0.014602 9.9024 5.829 11 1 
193.333 1.20822 9.90011 -0.00783632 0.0146355 9.90013 5.81994 11 1 
194.667 1.20822 9.8975 -0.0079494 0.0147318 9.89752 5.80781 11 1 
196 1.2082 9.89496 -0.00809775 0.014576 9.89499 5.77455 11 1 
197.333 1.20817 9.89295 -0.00823952 0.0153337 9.89298 5.72045 11 1 
198.667 1.20815 9.89084 -0.00832632 0.0158063 9.89086 5.6901 11 1 
200 1.20813 9.88881 -0.00845078 0.0164083 9.88883 5.66065 11 1 
201.333 1.20811 9.88715 -0.00854846 0.0182446 9.88717 5.61591 11 1 
202.667 1.2081 9.88472 -0.00863121 0.0193323 9.88474 5.59732 11 1 
204 1.20808 9.88159 -0.00873008 0.0199218 9.88161 5.56847 11 1 
205.333 1.20806 9.87787 -0.00881542 0.0204697 9.8779 5.53106 11 1 
206.667 1.20806 9.87424 -0.00889525 0.0203215 9.87427 5.52956 11 1 
208 1.20807 9.87165 -0.00898932 0.0211893 9.87168 5.55311 11 1 
209.333 1.20809 9.86919 -0.00906465 0.0222231 9.86922 5.58165 11 1 
210.667 1.20811 9.86657 -0.00914064 0.02255 9.8666 5.60952 11 1 
212 1.20813 9.8639 -0.00922001 0.0233435 9.86393 5.64511 11 1 
213.333 1.20817 9.85965 -0.00928025 0.0238195 9.85968 5.7287 11 1 
213.333 1.20817 9.85965 -0.00928025 0.0238195 9.85968 5.7287 11 1 
214.667 1.20821 9.85564 -0.00934188 0.0232814 9.85567 5.8005 11 1 
216 1.20824 9.85172 -0.00942001 0.0231167 9.85175 5.86133 11 1 
217.333 1.20831 9.84585 -0.00951014 0.0236436 9.84588 5.98342 11 1 
218.667 1.20835 9.84211 -0.00957473 0.0231024 9.84214 6.04481 11 1 
220 1.2084 9.83758 -0.00968227 0.0242078 9.83761 6.14869 11 1 
221.333 1.20849 9.83222 -0.0097691 0.0254617 9.83226 6.307 11 1 
222.667 1.20853 9.82915 -0.00980278 0.0241192 9.82918 6.37294 11 1 
224 1.2086 9.82266 -0.00984568 0.0243453 9.8227 6.5013 11 1 
225.333 1.20865 9.81694 -0.00990704 0.02451 9.81697 6.59842 11 1 
226.667 1.20871 9.81099 -0.0100083 0.0246541 9.81103 6.69434 11 1 
228 1.20879 9.80232 -0.0101211 0.0267384 9.80236 6.84763 11 1 
229.333 1.20881 9.79761 -0.0102084 0.0275794 9.79765 6.88909 11 1 
230.667 1.2089 9.79024 -0.0102625 0.0274257 9.79028 7.03739 11 1 
232 1.20896 9.78222 -0.0102753 0.0277889 9.78227 7.15657 11 1 
233.333 1.20897 9.77656 -0.0103483 0.0286084 9.77661 7.1699 11 1 
234.667 1.20908 9.76636 -0.010482 0.0290352 9.76641 7.36209 11 1 
234.667 1.20908 9.76636 -0.010482 0.0290352 9.76641 7.36209 11 1 
236 1.20914 9.75751 -0.0105919 0.0303264 9.75756 7.47451 11 1 
237.333 1.20916 9.74896 -0.010688 0.0315912 9.74901 7.51315 11 1 
238.667 1.20925 9.73788 -0.0107229 0.0323045 9.73794 7.67511 11 1 
240 1.20932 9.72822 -0.0107901 0.0329676 9.72829 7.80241 11 1 
241.333 1.20937 9.71804 -0.010962 0.0335348 9.7181 7.89799 11 1 
242.667 1.20947 9.70636 -0.0111199 0.0342501 9.70643 8.0713 11 1 
244 1.20957 9.69349 -0.0112168 0.035308 9.69357 8.24788 11 1 
245.333 1.20962 9.68005 -0.0113373 0.0382402 9.68014 8.33822 11 1 
246.667 1.20971 9.66585 -0.0114824 0.0402293 9.66594 8.50859 11 1 
248 1.20985 9.65092 -0.0116976 0.0402973 9.65102 8.75278 11 1 
249.333 1.20994 9.63604 -0.011957 0.0421518 9.63614 8.92471 11 1 
250.667 1.21005 9.6192 -0.0121147 0.0448699 9.61932 9.11787 11 1 
252 1.21018 9.60082 -0.0123 0.0467699 9.60094 9.35156 11 1 
253.333 1.2103 9.58137 -0.0125813 0.0512561 9.58152 9.57767 11 1 
254.667 1.21043 9.56085 -0.0128591 0.0548631 9.56101 9.80851 11 1 
256 1.21059 9.53918 -0.0131065 0.0571441 9.53936 10.0976 11 1 
256 1.21059 9.53918 -0.0131065 0.0571441 9.53936 10.0976 13 1 
257.333 1.21076 9.51538 -0.0133437 0.0617377 9.51559 10.4039 13 1 
258.667 1.21091 9.48986 -0.0135965 0.0659154 9.49011 10.6731 13 1 
260 1.21107 9.4633 -0.0138811 0.0705647 9.46358 10.9709 13 1 
261.333 1.21128 9.43385 -0.0141143 0.0761935 9.43418 11.3463 13 1 
262.667 1.2115 9.40132 -0.0143342 0.0824701 9.4017 11.7459 13 1 
264 1.21168 9.36985 -0.0145902 0.0884813 9.37029 12.0664 13 1 
265.333 1.21193 9.33272 -0.0148218 0.096587 9.33324 12.5169 13 1 
266.667 1.21221 9.29115 -0.0149979 0.105016 9.29177 13.0253 13 1 
268 1.21242 9.25189 -0.0151577 0.114343 9.25263 13.4055 13 1 
269.333 1.21275 9.20439 -0.0153234 0.12645 9.20529 13.9955 13 1 
270.667 1.2131 9.1518 -0.0154556 0.139132 9.15289 14.6313 13 1 
272 1.21333 9.10253 -0.0155764 0.153436 9.10386 15.0389 13 1 
273.333 1.21373 9.04235 -0.0156963 0.169649 9.04398 15.7682 13 1 
274.667 1.21416 8.9782 -0.0158194 0.191659 8.98029 16.5542 13 1 
276 1.21444 8.92068 -0.0159102 0.219761 8.92343 17.054 13 1 
277.333 1.21497 8.84766 -0.0160166 0.250828 8.85127 18.0112 13 1 
277.333 1.21497 8.84766 -0.0160166 0.250828 8.85127 18.0112 13 1 
278.667 1.21547 8.76799 -0.0161045 0.286816 8.77277 18.9071 13 1 
280 1.21577 8.69108 -0.0161451 0.322904 8.69718 19.4597 13 1 
281.333 1.21634 8.60062 -0.0162298 0.365268 8.6085 20.4917 13 1 
282.667 1.21692 8.50963 -0.0162973 0.417981 8.52002 21.5344 13 1 
284 1.2173 8.42499 -0.0163543 0.478236 8.43872 22.222 13 1 
285.333 1.2179 8.3248 -0.0164354 0.536097 8.34221 23.2988 13 1 
286.667 1.21846 8.22188 -0.0165223 0.60869 8.2447 24.3197 13 1 
288 1.21876 8.13057 -0.0165957 0.692455 8.16021 24.8508 13 1 
289.333 1.21939 8.03135 -0.0166872 0.774077 8.06887 25.9844 13 1 
290.667 1.22008 7.92348 -0.0167555 0.87815 7.97243 27.2368 13 1 
292 1.22023 7.82633 -0.0167607 0.972505 7.88689 27.5095 13 1 
293.333 1.22069 7.714 -0.0167716 1.07738 7.78964 28.346 13 1 
294.667 1.22152 7.59277 -0.0168253 1.21203 7.68973 29.848 13 1 
296 1.22142 7.50798 -0.0168246 1.37523 7.63394 29.6629 13 1 
297.333 1.21987 7.19195 -0.0166967 1.18203 7.29547 26.8574 13 1 
298.667 1.21531 6.45399 -0.0166385 0.356847 6.4937 18.6227 13 1 
298.667 1.21531 6.45399 -0.0166385 0.356847 6.4937 18.6227 14 1 
300 1.20912 5.63613 -0.0166788 -0.74071 5.73105 7.44256 14 1 
301.333 1.20495 5.10681 -0.0167361 -1.60722 5.37242 -0.0903118 14 1 
302.667 1.20256 4.89553 -0.0168663 -1.84299 5.2316 -4.40236 14 1 
304 1.20178 4.76497 -0.0169137 -1.73393 5.07114 -5.81704 14 1 
305.333 1.20198 4.60236 -0.0168369 -1.58035 4.86757 -5.45474 14 1 
306.667 1.20205 4.48731 -0.0167193 -1.38807 4.69804 -5.32831 14 1 
308 1.20255 4.42516 -0.016593 -1.29167 4.6101 -4.42135 14 1 
309.333 1.20286 4.38001 -0.016602 -1.1931 4.54043 -3.8597 14 1 
310.667 1.20288 4.3152 -0.0166459 -1.08339 4.44948 -3.8321 14 1 
312 1.20324 4.23462 -0.0165644 -1.01783 4.35567 -3.18084 14 1 
313.333 1.20346 4.1741 -0.0164446 -0.920088 4.27487 -2.78388 14 1 
314.667 1.20363 4.11922 -0.0163184 -0.836385 4.20348 -2.46829 14 1 
316 1.20398 4.04691 -0.0161834 -0.77296 4.12039 -1.83626 14 1 
317.333 1.20418 3.95816 -0.0160558 -0.702428 4.02025 -1.48643 14 1 
318.667 1.20428 3.8645 -0.0159161 -0.641933 3.91767 -1.29606 14 1 
320 1.20453 3.78221 -0.0157892 -0.592668 3.82851 -0.857271 14 1 
320 1.20453 3.78221 -0.0157892 -0.592668 3.82851 -0.857271 14 1 
321.333 1.20478 3.7109 -0.0156629 -0.546093 3.75105 -0.400009 14 1 
322.667 1.20492 3.63165 -0.0155534 -0.501467 3.66629 -0.147812 14 1 
324 1.20505 3.5396 -0.0154603 -0.468283 3.57062 0.0922305 14 1 
325.333 1.20523 3.4512 -0.0153545 -0.43775 3.47898 0.409088 14 1 
326.667 1.20538 3.37682 -0.015249 -0.409812 3.40171 0.684347 14 1 
328 1.2055 3.30998 -0.0151354 -0.388131 3.33277 0.906501 14 1 
329.333 1.20564 3.23991 -0.0150371 -0.368832 3.26096 1.14787 14 1 
330.667 1.20576 3.16533 -0.0149341 -0.351028 3.18485 1.36651 14 1 
332 1.20584 3.09339 -0.0148132 -0.3369 3.11178 1.52532 14 1 
333.333 1.20594 3.03079 -0.0146852 -0.324101 3.04816 1.69571 14 1 
334.667 1.20605 2.97627 -0.0145414 -0.313338 2.99281 1.90047 14 1 
336 1.20614 2.92017 -0.0144021 -0.303243 2.93597 2.06656 14 1 
337.333 1.2062 2.8595 -0.0142617 -0.294733 2.87474 2.17388 14 1 
338.667 1.20627 2.80139 -0.0141038 -0.287258 2.81617 2.29061 14 1 
340 1.20635 2.75124 -0.0139351 -0.279515 2.76549 2.43769 14 1 
341.333 1.20642 2.70652 -0.0137645 -0.27279 2.72032 2.56892 14 1 
341.333 1.20642 2.70652 -0.0137645 -0.27279 2.72032 2.56892 15 1 
342.667 1.20647 2.6594 -0.0135863 -0.266685 2.67282 2.66181 15 1 
344 1.20652 2.60853 -0.0133996 -0.260287 2.62156 2.73986 15 1 
345.333 1.20657 2.56119 -0.0131955 -0.254188 2.57385 2.8312 15 1 
346.667 1.20662 2.52073 -0.0129657 -0.247719 2.53295 2.92786 15 1 
348 1.20667 2.48202 -0.012728 -0.240898 2.49375 3.01225 15 1 
349.333 1.2067 2.44017 -0.0124865 -0.233734 2.45141 3.07804 15 1 
350.667 1.20673 2.39764 -0.0122218 -0.226547 2.40839 3.12947 15 1 
352 1.20677 2.35923 -0.0119392 -0.219021 2.36945 3.19071 15 1 
353.333 1.20681 2.3245 -0.0116607 -0.210459 2.33408 3.26683 15 1 
354.667 1.20684 2.28931 -0.011399 -0.201171 2.2982 3.32976 15 1 
356 1.20686 2.25195 -0.0111513 -0.191491 2.26015 3.36736 15 1 
357.333 1.20689 2.21472 -0.0109044 -0.181133 2.22218 3.40838 15 1 
358.667 1.20692 2.18017 -0.0106683 -0.169849 2.18684 3.47379 15 1 
360 1.20696 2.1469 -0.0104661 -0.157625 2.15274 3.5372 15 1 
361.333 1.20698 2.11184 -0.0103058 -0.144681 2.11685 3.58144 15 1 
362.667 1.20701 2.07533 -0.0101736 -0.13115 2.07953 3.62776 15 1 
362.667 1.20701 2.07533 -0.0101736 -0.13115 2.07953 3.62776 15 1 
364 1.20704 2.03966 -0.0100619 -0.11732 2.04309 3.68612 15 1 
365.333 1.20707 2.00541 -0.00998663 -0.103053 2.00812 3.74621 15 1 
366.667 1.20711 1.97149 -0.00995182 -0.0882967 1.97353 3.8067 15 1 
368 1.20714 1.93675 -0.00995402 -0.0734023 1.9382 3.87056 15 1 
369.333 1.20718 1.90146 -0.00998784 -0.0587066 1.90243 3.93148 15 1 
370.667 1.20721 1.86691 -0.010045 -0.0442237 1.86751 3.99123 15 1 
372 1.20725 1.83371 -0.0101339 -0.0296394 1.83402 4.06209 15 1 
373.333 1.20729 1.801 -0.010261 -0.0150972 1.80114 4.14024 15 1 
374.667 1.20733 1.76785 -0.0104167 -0.00107914 1.76794 4.21102 15 1 
376 1.20737 1.73467 -0.0105874 0.0122877 1.73481 4.27638 15 1 
377.333 1.20741 1.70252 -0.0107676 0.0251113 1.70281 4.35011 15 1 
378.667 1.20745 1.67163 -0.0109684 0.0375611 1.67215 4.43204 15 1 
380 1.2075 1.64117 -0.0111937 0.0494868 1.64202 4.51027 15 1 
381.333 1.20754 1.61054 -0.0114316 0.0606508 1.61181 4.5848 15 1 
382.667 1.20758 1.58039 -0.0116753 0.0710704 1.58212 4.66215 15 1 
384 1.20762 1.55142 -0.0119282 0.0808245 1.55367 4.74045 15 1 
384 1.20762 1.55142 -0.0119282 0.0808245 1.55367 4.74045 15 1 
385.333 1.20767 1.5234 -0.0121996 0.0900432 1.52621 4.81829 15 1 
386.667 1.20771 1.49588 -0.0124898 0.0987123 1.49929 4.89791 15 1 
388 1.20776 1.46873 -0.0127853 0.106552 1.47277 4.97723 15 1 
389.333 1.2078 1.44218 -0.0130881 0.113557 1.44683 5.0524 15 1 
390.667 1.20784 1.41657 -0.0134102 0.120036 1.42184 5.12663 15 1 
392 1.20788 1.39193 -0.0137495 0.126148 1.39784 5.20516 15 1 
393.333 1.20793 1.36782 -0.0140995 0.131656 1.37436 5.2835 15 1 
394.667 1.20797 1.34402 -0.0144606 0.136389 1.35115 5.35661 15 1 
396 1.20801 1.32099 -0.0148351 0.140573 1.32869 5.42901 15 1 
397.333 1.20805 1.29906 -0.0152256 0.144375 1.3073 5.5038 15 1 
398.667 1.20809 1.27788 -0.015633 0.147647 1.28664 5.57813 15 1 
400 1.20813 1.25712 -0.016055 0.150329 1.26635 5.65039 15 1 
401.333 1.20817 1.23695 -0.0164916 0.15249 1.2466 5.72251 15 1 
402.667 1.20821 1.21767 -0.0169475 0.154203 1.22768 5.79523 15 1 
404 1.20825 1.19927 -0.0174283 0.155524 1.20961 5.86659 15 1 
405.333 1.20829 1.18154 -0.0179325 0.156464 1.19217 5.93781 15 1 
405.333 1.20829 1.18154 -0.0179325 0.156464 1.19217 5.93781 15 1 
406.667 1.20833 1.16445 -0.0184611 0.157005 1.17531 6.01088 15 1 
408 1.20837 1.14812 -0.0190135 0.157132 1.15915 6.08326 15 1 
409.333 1.20841 1.13273 -0.019591 0.156883 1.14388 6.15377 15 1 
410.667 1.20845 1.11835 -0.0201975 0.15637 1.12959 6.22516 15 1 
412 1.20849 1.10484 -0.0208287 0.155594 1.11611 6.2986 15 1 
413.333 1.20853 1.09201 -0.0214821 0.154523 1.10327 6.37178 15 1 
414.667 1.20857 1.08 -0.0221568 0.153273 1.09121 6.44382 15 1 
416 1.20861 1.06911 -0.0228461 0.151945 1.08026 6.51692 15 1 
417.333 1.20865 1.05929 -0.0235511 0.150539 1.07035 6.59103 15 1 
418.667 1.20869 1.05023 -0.0242691 0.14911 1.0612 6.66473 15 1 
420 1.20873 1.04192 -0.0249889 0.147749 1.05279 6.73884 15 1 
421.333 1.20877 1.03465 -0.0257074 0.146492 1.04542 6.81402 15 1 
422.667 1.20881 1.0285 -0.0264273 0.145329 1.03919 6.88927 15 1 
424 1.20886 1.02334 -0.0271425 0.144303 1.03395 6.96386 15 1 
425.333 1.2089 1.01901 -0.0278414 0.143467 1.02957 7.03915 15 1 
426.667 1.20894 1.01552 -0.0285218 0.142792 1.02603 7.11571 15 1 
426.667 1.20894 1.01552 -0.0285218 0.142792 1.02603 7.11571 20 1 
428 1.20898 1.01299 -0.029188 0.142245 1.02346 7.19165 20 1 
429.333 1.20902 1.0115 -0.0298358 0.141858 1.02194 7.26697 20 1 
430.667 1.20907 1.01092 -0.0304579 0.141637 1.02135 7.34278 20 1 
432 1.20911 1.01103 -0.0310565 0.141549 1.02146 7.41834 20 1 
433.333 1.20915 1.01175 -0.0316301 0.141568 1.02219 7.49315 20 1 
434.667 1.20919 1.01325 -0.0321736 0.141706 1.0237 7.56753 20 1 
436 1.20923 1.01555 -0.0326863 0.141973 1.02603 7.64152 20 1 
437.333 1.20927 1.01843 -0.0331686 0.142337 1.02894 7.71434 20 1 
438.667 1.20931 1.02165 -0.0336182 0.142782 1.03221 7.78567 20 1 
440 1.20935 1.02526 -0.0340279 0.143308 1.03586 7.85622 20 1 
441.333 1.20939 1.02935 -0.0343986 0.143889 1.03999 7.92585 20 1 
442.667 1.20943 1.03389 -0.0347361 0.144514 1.04458 7.994 20 1 
444 1.20946 1.0387 -0.0350398 0.145171 1.04944 8.06043 20 1 
445.333 1.2095 1.04363 -0.0353103 0.145817 1.05441 8.12483 20 1 
446.667 1.20953 1.04871 -0.035554 0.146404 1.05953 8.18753 20 1 
448 1.20957 1.05404 -0.0357878 0.146928 1.06488 8.24861 20 1 
448 1.20957 1.05404 -0.0357878 0.146928 1.06488 8.24861 20 1 
449.333 1.2096 1.0596 -0.0360242 0.147389 1.07046 8.30764 20 1 
450.667 1.20963 1.06527 -0.0362752 0.147742 1.07612 8.36467 20 1 
452 1.20966 1.07093 -0.0365574 0.147948 1.08176 8.41951 20 1 
453.333 1.20969 1.07666 -0.0368948 0.148016 1.08745 8.47226 20 1 
454.667 1.20972 1.08255 -0.0373065 0.147968 1.09329 8.52317 20 1 
456 1.20975 1.08859 -0.0378075 0.147816 1.09927 8.57195 20 1 
457.333 1.20977 1.09469 -0.0384148 0.147561 1.10529 8.61848 20 1 
458.667 1.2098 1.10078 -0.0391389 0.147223 1.1113 8.66264 20 1 
460 1.20982 1.1069 -0.0399847 0.146845 1.11734 8.70455 20 1 
461.333 1.20984 1.11314 -0.0409501 0.146456 1.1235 8.74483 20 1 
462.667 1.20986 1.11946 -0.0420305 0.146092 1.12976 8.78365 20 1 
464 1.20988 1.12575 -0.0432068 0.145767 1.136 8.8208 20 1 
465.333 1.2099 1.1319 -0.0444496 0.145438 1.1421 8.85597 20 1 
466.667 1.20992 1.13794 -0.0457225 0.14511 1.1481 8.8896 20 1 
468 1.20994 1.1439 -0.0469826 0.144774 1.15401 8.92218 20 1 
469.333 1.20996 1.14966 -0.0481786 0.144367 1.15972 8.95327 20 1 
469.333 1.20996 1.14966 -0.0481786 0.144367 1.15972 8.95327 20 1 
470.667 1.20997 1.15503 -0.0492577 0.143816 1.16502 8.98295 20 1 
472 1.20999 1.15988 -0.050174 0.143074 1.16979 9.01176 20 1 
473.333 1.21 1.16418 -0.050902 0.142096 1.17396 9.04004 20 1 
474.667 1.21002 1.16791 -0.0514526 0.140824 1.17753 9.06798 20 1 
476 1.21004 1.17101 -0.0518644 0.139191 1.18042 9.09523 20 1 
477.333 1.21005 1.17349 -0.0522202 0.137129 1.18266 9.12184 20 1 
478.667 1.21006 1.17544 -0.0526272 0.134605 1.18432 9.14819 20 1 
480 1.21008 1.17676 -0.0531634 0.131725 1.18533 9.17413 20 1 
481.333 1.21009 1.17714 -0.0538285 0.128773 1.18542 9.20006 20 1 
482.667 1.21011 1.17597 -0.0544882 0.126138 1.18401 9.22619 20 1 
484 1.21012 1.17242 -0.0548873 0.124289 1.18031 9.25205 20 1 
485.333 1.21014 1.16569 -0.0546653 0.123613 1.17356 9.27762 20 1 
486.667 1.21015 1.15539 -0.0534462 0.12424 1.16337 9.30332 20 1 
488 1.21017 1.14179 -0.0509574 0.125911 1.14994 9.32962 20 1 
489.333 1.21018 1.12575 -0.0470962 0.127975 1.1341 9.35638 20 1 
490.667 1.2102 1.10872 -0.0419737 0.129529 1.11717 9.38339 20 1 
490.667 1.2102 1.10872 -0.0419737 0.129529 1.11717 9.38339 20 1 
492 1.21021 1.09249 -0.0359168 0.12962 1.10088 9.4109 20 1 
493.333 1.21023 1.07896 -0.0294401 0.127452 1.08703 9.43883 20 1 
494.667 1.21024 1.06963 -0.0231502 0.122574 1.07713 9.46741 20 1 
496 1.21026 1.06542 -0.0176334 0.11493 1.07215 9.49665 20 1 
497.333 1.21027 1.06668 -0.01338 0.104826 1.07255 9.52589 20 1 
498.667 1.21029 1.07329 -0.0107237 0.0928288 1.07832 9.55508 20 1 
500 1.21031 1.08475 -0.00984335 0.0796108 1.08906 9.58419 20 1 
501.333 1.21032 1.10037 -0.0107619 0.0658691 1.10414 9.61296 20 1 
502.667 1.21034 1.11945 -0.0133898 0.0522021 1.1229 9.64157 20 1 
504 1.21035 1.14138 -0.0175818 0.0390516 1.14474 9.67022 20 1 
505.333 1.21037 1.16566 -0.0231641 0.0267175 1.16912 9.69921 20 1 
506.667 1.21039 1.19192 -0.0299555 0.0153874 1.19565 9.72849 20 1 
508 1.2104 1.21997 -0.0377851 0.00518042 1.22412 9.75787 20 1 
509.333 1.21042 1.24971 -0.0464932 -0.0038707 1.25437 9.78766 20 1 
510.667 1.21044 1.28104 -0.0559097 -0.0118185 1.28629 9.81776 20 1 
512 1.21045 1.31391 -0.0658697 -0.0187008 1.3198 9.84778 20 1 
512 1.21045 1.31391 -0.0658697 -0.0187008 1.3198 9.84778 21 1 
513.333 1.21047 1.34832 -0.0762169 -0.0245537 1.35489 9.87761 21 1 
514.667 1.21049 1.38427 -0.0868045 -0.0294327 1.39153 9.90769 21 1 
516 1.2105 1.42171 -0.0974911 -0.0334024 1.42965 9.93809 21 1 
517.333 1.21052 1.46058 -0.108148 -0.036548 1.46919 9.96785 21 1 
518.667 1.21053 1.5008 -0.118659 -0.0389313 1.51003 9.99699 21 1 
520 1.21055 1.54227 -0.128917 -0.0406003 1.55208 10.0261 21 1 
521.333 1.21057 1.58488 -0.13883 -0.0416138 1.59524 10.0544 21 1 
522.667 1.21058 1.62853 -0.148327 -0.0420301 1.63937 10.0815 21 1 
524 1.2106 1.67308 -0.157351 -0.0419163 1.68434 10.1076 21 1 
525.333 1.21061 1.71838 -0.165856 -0.0413124 1.73001 10.1328 21 1 
526.667 1.21062 1.76434 -0.173808 -0.0402731 1.77626 10.1561 21 1 
528 1.21063 1.8108 -0.181195 -0.038855 1.82297 10.1774 21 1 
529.333 1.21065 1.85765 -0.188005 -0.0370961 1.87 10.1973 21 1 
530.667 1.21066 1.90478 -0.19424 -0.035043 1.91726 10.2156 21 1 
532 1.21066 1.95208 -0.199912 -0.0327429 1.96464 10.2313 21 1 
533.333 1.21067 1.99945 -0.20503 -0.0302416 2.01204 10.2447 21 1 
533.333 1.21067 1.99945 -0.20503 -0.0302416 2.01204 10.2447 21 1 
534.667 1.21068 2.04678 -0.209615 -0.027578 2.05937 10.2562 21 1 
536 1.21068 2.09401 -0.213689 -0.0247783 2.10656 10.265 21 1 
537.333 1.21069 2.14108 -0.217273 -0.0218735 2.15355 10.2706 21 1 
538.667 1.21069 2.18793 -0.220398 -0.018914 2.2003 10.274 21 1 
540 1.21069 2.23448 -0.22309 -0.0159301 2.24673 10.2751 21 1 
541.333 1.21069 2.2807 -0.225373 -0.0129409 2.2928 10.2728 21 1 
542.667 1.21068 2.32657 -0.227282 -0.00997318 2.33851 10.2673 21 1 
544 1.21068 2.37208 -0.228845 -0.00704649 2.38384 10.2601 21 1 
545.333 1.21067 2.41719 -0.230092 -0.00419457 2.42877 10.2501 21 1 
546.667 1.21067 2.46188 -0.231045 -0.00144559 2.47326 10.2361 21 1 
548 1.21066 2.50616 -0.231734 0.00118803 2.51734 10.2195 21 1 
549.333 1.21065 2.55002 -0.232191 0.00369953 2.561 10.2007 21 1 
550.667 1.21064 2.5935 -0.232439 0.00607049 2.60427 10.1785 21 1 
552 1.21062 2.6366 -0.23251 0.00827408 2.64716 10.1529 21 1 
553.333 1.21061 2.67932 -0.232421 0.0102957 2.68967 10.1251 21 1 
554.667 1.21059 2.72167 -0.232207 0.0121372 2.73182 10.0949 21 1 
554.667 1.21059 2.72167 -0.232207 0.0121372 2.73182 10.0949 22 1 
556 1.21057 2.76371 -0.231885 0.0137896 2.77365 10.0609 22 1 
557.333 1.21055 2.80546 -0.231485 0.0152529 2.81521 10.024 22 1 
558.667 1.21053 2.84694 -0.231037 0.0165204 2.85649 9.98527 22 1 
560 1.21051 2.88816 -0.230551 0.0175726 2.89753 9.9435 22 1 
561.333 1.21048 2.92918 -0.230062 0.018429 2.93837 9.89772 22 1 
562.667 1.21045 2.97002 -0.229577 0.0191019 2.97904 9.84938 22 1 
564 1.21043 3.01072 -0.229143 0.0196011 3.01959 9.79933 22 1 
565.333 1.2104 3.05134 -0.228767 0.0199214 3.06005 9.7458 22 1 
566.667 1.21036 3.09187 -0.22846 0.0200794 3.10045 9.68856 22 1 
568 1.21033 3.13236 -0.228263 0.020105 3.14081 9.62938 22 1 
569.333 1.2103 3.17285 -0.228173 0.0200146 3.18119 9.56804 22 1 
570.667 1.21026 3.21338 -0.228228 0.019839 3.22163 9.50238 22 1 
572 1.21022 3.25398 -0.228427 0.0196021 3.26214 9.43344 22 1 
573.333 1.21018 3.29464 -0.228787 0.0193231 3.30274 9.36318 22 1 
574.667 1.21014 3.33543 -0.229324 0.0190438 3.34348 9.28941 22 1 
576 1.2101 3.37638 -0.230042 0.0188125 3.38439 9.2115 22 1 
576 1.2101 3.37638 -0.230042 0.0188125 3.38439 9.2115 22 1 
577.333 1.21006 3.4175 -0.230948 0.0186646 3.42549 9.1315 22 1 
578.667 1.21001 3.45879 -0.232046 0.0186261 3.46678 9.04975 22 1 
580 1.20996 3.5003 -0.233353 0.0187455 3.50829 8.96399 22 1 
581.333 1.20991 3.54202 -0.234841 0.0190726 3.55003 8.87431 22 1 
582.667 1.20986 3.58394 -0.23654 0.0196611 3.592 8.78323 22 1 
584 1.20981 3.62612 -0.238419 0.0205411 3.63423 8.68943 22 1 
585.333 1.20976 3.66852 -0.240484 0.0217649 3.67671 8.59179 22 1 
586.667 1.2097 3.71115 -0.242733 0.0233771 3.71942 8.49181 22 1 
588 1.20965 3.75398 -0.245124 0.025412 3.76235 8.39024 22 1 
589.333 1.20959 3.79702 -0.247701 0.0279219 3.8055 8.28556 22 1 
590.667 1.20953 3.84025 -0.250391 0.0309484 3.84885 8.17733 22 1 
592 1.20947 3.88365 -0.253225 0.0345175 3.89239 8.06784 22 1 
593.333 1.20941 3.92718 -0.256171 0.0386529 3.93608 7.95714 22 1 
594.667 1.20934 3.97081 -0.259208 0.0433976 3.97987 7.84351 22 1 
596 1.20928 4.0145 -0.262338 0.0487537 4.02375 7.72736 22 1 
597.333 1.20921 4.05823 -0.265519 0.0547594 4.06767 7.61051 22 1 
597.333 1.20921 4.05823 -0.265519 0.0547594 4.06767 7.61051 24 1 
598.667 1.20915 4.10193 -0.268768 0.0614105 4.1116 7.49258 24 1 
600 1.20908 4.14557 -0.272055 0.0687152 4.15548 7.37228 24 1 
601.333 1.20901 4.18909 -0.275362 0.0766576 4.19926 7.25067 24 1 
602.667 1.20895 4.23243 -0.278671 0.0852411 4.24289 7.1292 24 1 
604 1.20888 4.27552 -0.282006 0.0944605 4.2863 7.00744 24 1 
605.333 1.20881 4.31836 -0.285313 0.104285 4.32948 6.88328 24 1 
606.667 1.20874 4.36084 -0.288602 0.114678 4.37234 6.75973 24 1 
608 1.20867 4.40287 -0.291873 0.125614 4.41478 6.63755 24 1 
609.333 1.20861 4.44446 -0.295101 0.137072 4.45681 6.51351 24 1 
610.667 1.20854 4.48551 -0.298294 0.148984 4.49834 6.38963 24 1 
612 1.20847 4.52597 -0.301427 0.161334 4.53931 6.26832 24 1 
613.333 1.2084 4.56576 -0.304536 0.174069 4.57966 6.14775 24 1 
614.667 1.20834 4.60486 -0.307569 0.187127 4.61935 6.02586 24 1 
616 1.20827 4.64314 -0.310533 0.200456 4.65826 5.90642 24 1 
617.333 1.20821 4.68061 -0.313435 0.214028 4.69639 5.78994 24 1 
618.667 1.20814 4.71721 -0.316254 0.227784 4.7337 5.67353 24 1 
618.667 1.20814 4.71721 -0.316254 0.227784 4.7337 5.67353 24 1 
620 1.20808 4.75284 -0.318996 0.241669 4.77006 5.55876 24 1 
621.333 1.20802 4.78748 -0.321636 0.255606 4.80546 5.44699 24 1 
622.667 1.20796 4.82108 -0.32419 0.269597 4.83986 5.33755 24 1 
624 1.2079 4.85356 -0.326622 0.283558 4.87316 5.22952 24 1 
625.333 1.20784 4.88495 -0.328948 0.297458 4.90539 5.12344 24 1 
626.667 1.20778 4.91518 -0.331136 0.311243 4.93648 5.02148 24 1 
628 1.20773 4.94419 -0.333187 0.324864 4.96636 4.92214 24 1 
629.333 1.20767 4.97199 -0.335112 0.338285 4.99505 4.82386 24 1 
630.667 1.20762 4.99861 -0.336884 0.351471 5.02256 4.729 24 1 
632 1.20757 5.02398 -0.338509 0.364394 5.04882 4.63878 24 1 
633.333 1.20752 5.04812 -0.339977 0.376991 5.07385 4.55026 24 1 
634.667 1.20747 5.07113 -0.341343 0.38925 5.09774 4.46289 24 1 
636 1.20743 5.09292 -0.342493 0.401116 5.12039 4.38156 24 1 
637.333 1.20738 5.11353 -0.343539 0.412605 5.14187 4.304 24 1 
638.667 1.20734 5.13317 -0.344501 0.423654 5.16235 4.22575 24 1 
640 1.2073 5.15174 -0.345254 0.434257 5.18173 4.15296 24 1 
640 1.2073 5.15174 -0.345254 0.434257 5.18173 4.15296 24 1 
641.333 1.20726 5.16923 -0.345944 0.444349 5.20001 4.0861 24 1 
642.667 1.20722 5.18599 -0.346579 0.453956 5.21753 4.01755 24 1 
644 1.20719 5.20188 -0.346987 0.463057 5.23413 3.9536 24 1 
645.333 1.20716 5.21692 -0.347436 0.471582 5.24987 3.89644 24 1 
646.667 1.20712 5.23153 -0.347777 0.479553 5.26512 3.83765 24 1 
648 1.20709 5.24546 -0.347945 0.486939 5.27964 3.7831 24 1 
649.333 1.20707 5.25888 -0.348237 0.49369 5.29363 3.73373 24 1 
650.667 1.20704 5.27214 -0.348276 0.499829 5.30737 3.6833 24 1 
652 1.20701 5.28502 -0.348396 0.50533 5.3207 3.63728 24 1 
653.333 1.20699 5.29774 -0.3484 0.510157 5.3338 3.5951 24 1 
654.667 1.20697 5.31055 -0.348332 0.514253 5.34692 3.55175 24 1 
656 1.20695 5.32329 -0.348278 0.517709 5.35991 3.51337 24 1 
657.333 1.20693 5.33622 -0.348089 0.520396 5.37302 3.4772 24 1 
658.667 1.20691 5.34945 -0.347897 0.522351 5.38635 3.44126 24 1 
660 1.20689 5.36298 -0.347656 0.523569 5.39991 3.40829 24 1 
661.333 1.20687 5.37694 -0.347347 0.523977 5.41383 3.37759 24 1 
661.333 1.20687 5.37694 -0.347347 0.523977 5.41383 3.37759 24 1 
662.667 1.20685 5.39146 -0.347012 0.523601 5.42823 3.34835 24 1 
664 1.20684 5.40662 -0.346779 0.522356 5.44319 3.32111 24 1 
665.333 1.20683 5.42247 -0.346358 0.52036 5.45876 3.29647 24 1 
666.667 1.20681 5.43923 -0.346243 0.517361 5.47518 3.27254 24 1 
668 1.2068 5.45684 -0.346073 0.513483 5.49235 3.25244 24 1 
669.333 1.20679 5.4756 -0.34611 0.508664 5.51061 3.23199 24 1 
670.667 1.20678 5.49548 -0.34641 0.502733 5.52991 3.21451 24 1 
672 1.20677 5.51662 -0.346886 0.495848 5.55041 3.20131 24 1 
673.333 1.20676 5.53923 -0.347771 0.487834 5.57232 3.18738 24 1 
674.667 1.20676 5.56325 -0.348946 0.478631 5.59556 3.17583 24 1 
676 1.20675 5.58884 -0.350558 0.468331 5.62033 3.16768 24 1 
677.333 1.20675 5.6161 -0.352602 0.456793 5.64673 3.16009 24 1 
678.667 1.20675 5.64499 -0.355065 0.444065 5.6747 3.1536 24 1 
680 1.20674 5.67556 -0.357971 0.43016 5.70433 3.15044 24 1 
681.333 1.20674 5.70785 -0.361299 0.415075 5.73566 3.14889 24 1 
682.667 1.20674 5.74175 -0.364955 0.39884 5.76858 3.14669 24 1 
682.667 1.20674 5.74175 -0.364955 0.39884 5.76858 3.14669 31 1 
684 1.20674 5.77715 -0.369022 0.381556 5.80301 3.14677 31 1 
685.333 1.20674 5.81419 -0.373252 0.363211 5.83907 3.14842 31 1 
686.667 1.20675 5.85256 -0.377787 0.344001 5.87648 3.15203 31 1 
688 1.20675 5.89215 -0.382358 0.323977 5.91514 3.15561 31 1 
689.333 1.20675 5.93298 -0.386965 0.303169 5.95507 3.16083 31 1 
690.667 1.20675 5.97475 -0.391563 0.281808 5.99599 3.16909 31 1 
692 1.20676 6.01734 -0.395979 0.26006 6.03777 3.17604 31 1 
693.333 1.20676 6.06069 -0.400268 0.237877 6.08036 3.18612 31 1 
694.667 1.20677 6.10467 -0.404198 0.2154 6.12363 3.1992 31 1 
696 1.20678 6.14889 -0.407899 0.193086 6.16722 3.21278 31 1 
697.333 1.20679 6.19356 -0.411238 0.170489 6.2113 3.22664 31 1 
698.667 1.2068 6.23837 -0.414139 0.148143 6.25558 3.24513 31 1 
700 1.20681 6.28318 -0.416664 0.126035 6.29993 3.26335 31 1 
701.333 1.20682 6.3281 -0.418865 0.104038 6.34443 3.2826 31 1 
702.667 1.20683 6.37283 -0.420601 0.0824719 6.38881 3.3055 31 1 
704 1.20684 6.41752 -0.422001 0.0611982 6.43319 3.32653 31 1 
704 1.20684 6.41752 -0.422001 0.0611982 6.43319 3.32653 31 1 
705.333 1.20685 6.46189 -0.423133 0.0403881 6.47732 3.34959 31 1 
706.667 1.20687 6.50605 -0.423799 0.0199448 6.52126 3.37223 31 1 
708 1.20688 6.54987 -0.424261 -1.16993e-05 6.56492 3.39463 31 1 
709.333 1.20689 6.59319 -0.42437 -0.0194589 6.60812 3.41544 31 1 
710.667 1.2069 6.63604 -0.424213 -0.0383726 6.65089 3.43543 31 1 
712 1.20691 6.67821 -0.423835 -0.0568875 6.693 3.45616 31 1 
713.333 1.20692 6.71965 -0.423243 -0.0747943 6.73442 3.47134 31 1 
714.667 1.20693 6.76009 -0.422416 -0.0921277 6.77487 3.48706 31 1 
716 1.20694 6.79946 -0.421224 -0.10905 6.81427 3.50223 31 1 
717.333 1.20695 6.83756 -0.419833 -0.125171 6.85241 3.5139 31 1 
718.667 1.20695 6.87421 -0.418029 -0.140716 6.88911 3.52481 31 1 
720 1.20696 6.90932 -0.416014 -0.155713 6.92427 3.53688 31 1 
721.333 1.20696 6.94258 -0.413962 -0.169998 6.95761 3.54837 31 1 
722.667 1.20697 6.97389 -0.411236 -0.183561 6.98898 3.55558 31 1 
724 1.20698 7.00308 -0.408674 -0.19645 7.01824 3.56884 31 1 
725.333 1.20698 7.03006 -0.405158 -0.208564 7.04526 3.58075 31 1 
725.333 1.20698 7.03006 -0.405158 -0.208564 7.04526 3.58075 31 1 
726.667 1.20699 7.05473 -0.401506 -0.219879 7.06996 3.58876 31 1 
728 1.20699 7.07687 -0.398028 -0.230378 7.09214 3.60328 31 1 
729.333 1.207 7.09658 -0.393351 -0.240204 7.11184 3.61368 31 1 
730.667 1.20701 7.11366 -0.389455 -0.249157 7.12894 3.62387 31 1 
732 1.20701 7.12802 -0.38432 -0.257241 7.14326 3.63063 31 1 
733.333 1.20701 7.13977 -0.378856 -0.264449 7.15493 3.63718 31 1 
734.667 1.20702 7.14882 -0.374016 -0.270763 7.16392 3.64632 31 1 
736 1.20702 7.15568 -0.367961 -0.276206 7.17066 3.64015 31 1 
737.333 1.20702 7.15993 -0.362413 -0.280793 7.1748 3.64689 31 1 
738.667 1.20702 7.16177 -0.356395 -0.284589 7.17648 3.65334 31 1 
740 1.20702 7.16138 -0.34968 -0.287252 7.17588 3.64054 31 1 
741.333 1.20701 7.15884 -0.343487 -0.289028 7.17314 3.6396 31 1 
742.667 1.20702 7.15447 -0.336663 -0.2899 7.16851 3.65073 31 1 
744 1.20702 7.14875 -0.329372 -0.289559 7.16248 3.64748 31 1 
745.333 1.20702 7.14161 -0.322301 -0.288608 7.15504 3.64725 31 1 
746.667 1.20703 7.1331 -0.314612 -0.286489 7.14616 3.6662 31 1 
746.667 1.20703 7.1331 -0.314612 -0.286489 7.14616 3.6662 31 1 
748 1.20703 7.12433 -0.306721 -0.283393 7.13699 3.67086 31 1 
749.333 1.20704 7.11546 -0.29854 -0.279667 7.1277 3.67635 31 1 
750.667 1.20705 7.10638 -0.289812 -0.274591 7.11814 3.70453 31 1 
752 1.20706 7.09807 -0.280698 -0.269161 7.10934 3.71779 31 1 
753.333 1.20706 7.09126 -0.270905 -0.262637 7.10199 3.71934 31 1 
754.667 1.20707 7.08544 -0.260732 -0.255407 7.09561 3.7466 31 1 
756 1.20708 7.08226 -0.249742 -0.247758 7.09184 3.76148 31 1 
757.333 1.20708 7.08161 -0.237726 -0.239788 7.09058 3.76335 31 1 
758.667 1.20709 7.08367 -0.224942 -0.231195 7.09202 3.77272 31 1 
760 1.2071 7.08901 -0.211303 -0.222833 7.09675 3.78637 31 1 
761.333 1.2071 7.09784 -0.196681 -0.214423 7.10497 3.78766 31 1 
762.667 1.20709 7.11058 -0.180872 -0.206074 7.11711 3.78121 31 1 
764 1.2071 7.12613 -0.164771 -0.198059 7.1321 3.79857 31 1 
765.333 1.2071 7.14534 -0.147163 -0.190131 7.15077 3.801 31 1 
766.667 1.2071 7.1674 -0.129151 -0.182811 7.17234 3.79137 31 1 
768 1.2071 7.19191 -0.110687 -0.174897 7.19641 3.80101 31 1 
768 1.2071 7.19191 -0.110687 -0.174897 7.19641 3.80101 32 1 
769.333 1.20712 7.21774 -0.0918579 -0.167198 7.22184 3.82614 32 1 
770.667 1.20711 7.24636 -0.0728872 -0.159056 7.25013 3.80867 32 1 
772 1.20712 7.27525 -0.0539415 -0.150291 7.27874 3.8238 32 1 
773.333 1.20714 7.30383 -0.0354567 -0.140479 7.30709 3.85822 32 1 
774.667 1.20712 7.33442 -0.0171056 -0.129418 7.33751 3.83683 32 1 
776 1.20714 7.36362 -2.57213e-05 -0.117325 7.3666 3.8563 32 1 
777.333 1.20715 7.39327 0.017287 -0.102694 7.39616 3.88358 32 1 
778.667 1.20714 7.42419 0.032715 -0.0857627 7.42706 3.87088 32 1 
780 1.20715 7.4547 0.0478807 -0.0667455 7.4576 3.88107 32 1 
781.333 1.20716 7.48683 0.0614853 -0.0454156 7.48982 3.89697 32 1 
782.667 1.20716 7.52055 0.0739029 -0.0195856 7.5237 3.89465 32 1 
784 1.20716 7.55436 0.0857356 0.00829289 7.55777 3.90729 32 1 
785.333 1.20715 7.59078 0.0940903 0.0418775 7.59458 3.88873 32 1 
786.667 1.20715 7.62869 0.098851 0.0780758 7.63297 3.88391 32 1 
788 1.20715 7.66922 0.102602 0.11887 7.67424 3.88099 32 1 
789.333 1.20714 7.712 0.10501 0.166191 7.71808 3.86155 32 1 
790.667 1.20714 7.75448 0.101449 0.215717 7.76184 3.85734 32 1 
792 1.20711 7.79705 0.0919759 0.273216 7.80617 3.81788 32 1 
793.333 1.20708 7.84069 0.0768083 0.331626 7.85199 3.76448 32 1 
794.667 1.20711 7.87797 0.0556114 0.398241 7.89222 3.8056 32 1 
796 1.20704 7.91847 0.0230836 0.467364 7.93624 3.67977 32 1 
797.333 1.20703 7.95598 -0.0269456 0.537836 7.97826 3.67405 32 1 
798.667 1.20725 7.97007 -0.10153 0.611179 7.99826 4.05729 32 1 
800 1.20736 7.97243 -0.146365 0.644742 8.00371 4.25754 32 1 
