12.6791;r ;Density                 ;Velocity u              ;Velocity v              ;Velocity w              ;|Velocity|              ;Pressure                ;Distribution            ;Levels                  ;
0 1.20341 10.0001 3.21225e-05 0.00160139 10.0001 -2.87116 1 1 
1.33334 1.20341 9.99989 2.78323e-05 0.00129354 9.99989 -2.87385 1 1 
2.66666 1.20341 9.99959 7.20608e-05 0.000434025 9.99959 -2.8781 1 1 
4 1.20339 9.99938 0.000199398 -1.8079e-05 9.99938 -2.9059 1 1 
5.33334 1.20335 9.99982 0.000295957 1.31162e-05 9.99982 -2.97893 1 1 
6.66666 1.20333 10.0005 0.000329004 -0.000255548 10.0005 -3.02365 1 1 
8 1.20336 9.99993 0.000265369 -8.536e-05 9.99993 -2.96704 1 1 
9.33334 1.2034 9.99887 6.53059e-05 0.000690494 9.99887 -2.88196 1 1 
10.6667 1.20341 9.99888 4.6376e-05 0.00122486 9.99888 -2.86963 1 1 
12 1.20339 9.99983 0.000249759 -0.000257067 9.99983 -2.91079 1 1 
13.3333 1.20337 10.0004 0.000253639 -0.00229575 10.0004 -2.94033 1 1 
14.6667 1.20335 10.0005 0.000201489 -0.00172902 10.0005 -2.97291 1 1 
16 1.20335 9.99965 0.000589093 0.00117162 9.99965 -2.97834 1 1 
17.3333 1.20339 9.99776 0.00120855 0.00139053 9.99776 -2.91283 1 1 
18.6667 1.20341 9.99664 0.00153618 -0.00168546 9.99665 -2.86593 1 1 
20 1.2034 9.99719 0.00170924 -0.00124257 9.99719 -2.88727 1 1 
21.3333 1.20336 9.99916 0.00182787 0.00470995 9.99916 -2.96819 1 1 
21.3333 1.20336 9.99916 0.00182787 0.00470995 9.99916 -2.96819 1 1 
22.6667 1.20331 10.0008 0.00142526 0.00681924 10.0008 -3.05168 1 1 
24 1.20331 10.0006 0.000650244 0.00178376 10.0006 -3.05952 1 1 
25.3333 1.20333 9.99913 0.000173177 -0.00300288 9.99913 -3.01485 1 1 
26.6667 1.20335 9.99839 -4.45234e-06 -0.000955814 9.99839 -2.97496 1 1 
28 1.20336 9.99916 -0.000412317 0.00344917 9.99916 -2.96552 1 1 
29.3333 1.20337 9.99949 -0.000961219 0.00313948 9.99949 -2.94732 1 1 
30.6667 1.20338 9.99837 -0.000914626 -0.000459782 9.99837 -2.92387 1 1 
32 1.20336 9.99686 -5.93023e-05 -0.0028135 9.99686 -2.9596 1 1 
33.3333 1.20332 9.99643 0.00100208 -0.00273141 9.99643 -3.02729 1 1 
34.6667 1.20334 9.9969 0.00167086 -0.000970298 9.9969 -3.00518 1 1 
36 1.2034 9.99751 0.00188096 0.000403174 9.99751 -2.89627 1 1 
37.3333 1.20344 9.99805 0.00187045 0.00119625 9.99805 -2.81409 1 1 
38.6667 1.20346 9.99813 0.00182263 0.00155841 9.99813 -2.77928 1 1 
40 1.20345 9.99829 0.00180038 0.0014702 9.99829 -2.80405 1 1 
41.3333 1.20341 9.99852 0.00180076 0.00107444 9.99852 -2.86763 1 1 
42.6667 1.20339 9.99852 0.00176932 0.000523524 9.99852 -2.90675 1 1 
42.6667 1.20339 9.99852 0.00176932 0.000523524 9.99852 -2.90675 2 1 
44 1.20339 9.9985 0.00173649 0.000240855 9.9985 -2.90447 2 1 
45.3333 1.20342 9.99849 0.00172476 0.000331546 9.99849 -2.86233 2 1 
46.6667 1.20347 9.99816 0.00168953 0.00123428 9.99816 -2.76754 2 1 
48 1.20352 9.99845 0.00167578 0.00184763 9.99845 -2.66966 2 1 
49.3333 1.20353 10.0002 0.00169914 0.00150958 10.0002 -2.65067 2 1 
50.6667 1.20353 10.0021 0.00175131 0.00101339 10.0021 -2.6482 2 1 
52 1.20357 10.0027 0.00180706 0.000878743 10.0027 -2.57432 2 1 
53.3333 1.20364 10.0022 0.0017919 0.00138459 10.0022 -2.45941 2 1 
54.6667 1.20366 10.0026 0.0017377 0.00225094 10.0026 -2.42325 2 1 
56 1.20366 10.0034 0.00168616 0.00298771 10.0034 -2.42189 2 1 
57.3333 1.2037 10.0034 0.00167638 0.00324244 10.0034 -2.3462 2 1 
58.6667 1.20374 10.0033 0.00172149 0.00311455 10.0033 -2.27145 2 1 
60 1.20376 10.0042 0.00177437 0.00282888 10.0042 -2.24363 2 1 
61.3333 1.20377 10.0063 0.0018224 0.00270908 10.0063 -2.22793 2 1 
62.6667 1.20382 10.0081 0.00185463 0.00282265 10.0081 -2.13112 2 1 
64 1.20391 10.0082 0.00187587 0.00279395 10.0082 -1.97441 2 1 
64 1.20391 10.0082 0.00187587 0.00279395 10.0082 -1.97441 2 1 
65.3333 1.20394 10.0079 0.00187424 0.00267804 10.0079 -1.91301 2 1 
66.6667 1.20392 10.0076 0.00185975 0.00254193 10.0076 -1.9571 2 1 
68 1.2039 10.0076 0.00185842 0.00224155 10.0076 -1.98111 2 1 
69.3333 1.20394 10.0089 0.00184291 0.00262113 10.0089 -1.92208 2 1 
70.6667 1.20399 10.01 0.0018192 0.00256135 10.01 -1.82528 2 1 
72 1.20401 10.0112 0.00180988 0.00256184 10.0112 -1.79449 2 1 
73.3333 1.20402 10.0112 0.00181963 0.00301903 10.0112 -1.77618 2 1 
74.6667 1.20407 10.01 0.00184331 0.00283831 10.01 -1.67718 2 1 
76 1.20411 10.0112 0.00186756 0.0029863 10.0112 -1.60193 2 1 
77.3333 1.20413 10.013 0.00186458 0.00234724 10.013 -1.57167 2 1 
78.6667 1.20413 10.0141 0.0018304 0.00182381 10.0141 -1.56622 2 1 
80 1.20412 10.0139 0.00176499 0.00204471 10.0139 -1.58209 2 1 
81.3333 1.20412 10.0124 0.00169931 0.00212078 10.0124 -1.58113 2 1 
82.6667 1.20413 10.0124 0.00168533 0.00260321 10.0124 -1.56552 2 1 
84 1.20416 10.0133 0.00170459 0.00258484 10.0133 -1.51859 2 1 
85.3333 1.2042 10.0136 0.00176557 0.00260027 10.0136 -1.43958 2 1 
85.3333 1.2042 10.0136 0.00176557 0.00260027 10.0136 -1.43958 3 1 
86.6667 1.20423 10.0138 0.00183117 0.00288123 10.0138 -1.39487 3 1 
88 1.20421 10.0143 0.00184703 0.00305103 10.0143 -1.42423 3 1 
89.3333 1.20419 10.0152 0.0018298 0.00303482 10.0152 -1.46831 3 1 
90.6667 1.20421 10.0158 0.00181013 0.00298194 10.0158 -1.42779 3 1 
92 1.20428 10.0148 0.00179249 0.0030854 10.0148 -1.30532 3 1 
93.3333 1.2043 10.014 0.00179029 0.00305562 10.014 -1.2617 3 1 
94.6667 1.20424 10.0143 0.00181091 0.00320983 10.0143 -1.36819 3 1 
96 1.20417 10.0139 0.00179819 0.00316635 10.0139 -1.49843 3 1 
97.3333 1.20415 10.0122 0.00179905 0.00319321 10.0122 -1.53956 3 1 
98.6667 1.20415 10.0107 0.00180501 0.0031398 10.0107 -1.52955 3 1 
100 1.20414 10.0103 0.00178305 0.00287966 10.0103 -1.54706 3 1 
101.333 1.20413 10.0109 0.00175027 0.00265705 10.0109 -1.57896 3 1 
102.667 1.20412 10.0111 0.00166344 0.00312268 10.0111 -1.58463 3 1 
104 1.20413 10.0102 0.00154169 0.00338529 10.0102 -1.5624 3 1 
105.333 1.20414 10.0091 0.00139341 0.00300116 10.0091 -1.55383 3 1 
106.667 1.20412 10.0091 0.00123494 0.00249967 10.0092 -1.59139 3 1 
106.667 1.20412 10.0091 0.00123494 0.00249967 10.0092 -1.59139 3 1 
108 1.20411 10.0103 0.00109257 0.0017418 10.0103 -1.60248 3 1 
109.333 1.20415 10.0107 0.000983269 0.00131527 10.0107 -1.54343 3 1 
110.667 1.20417 10.011 0.000938406 0.00163808 10.011 -1.50455 3 1 
112 1.20417 10.0104 0.000956003 0.00202527 10.0104 -1.50228 3 1 
113.333 1.20415 10.0087 0.00101345 0.00249352 10.0087 -1.5408 3 1 
114.667 1.2041 10.0092 0.00105843 0.0028748 10.0092 -1.62679 3 1 
116 1.20414 10.0106 0.00107887 0.00310935 10.0106 -1.55631 3 1 
117.333 1.20427 10.0117 0.00108994 0.00318686 10.0117 -1.31566 3 1 
118.667 1.20435 10.0154 0.00108138 0.00266701 10.0154 -1.16682 3 1 
120 1.2044 10.0191 0.00104487 0.0018611 10.0191 -1.07548 3 1 
121.333 1.2045 10.02 0.000955806 0.00163383 10.02 -0.901159 3 1 
122.667 1.20457 10.0217 0.00085754 0.00130605 10.0217 -0.768607 3 1 
124 1.20461 10.0236 0.000807771 0.00130733 10.0236 -0.696288 3 1 
125.333 1.20466 10.0238 0.000827141 0.000775428 10.0238 -0.613097 3 1 
126.667 1.20466 10.0246 0.000878082 0.000325267 10.0246 -0.605142 3 1 
128 1.20467 10.0253 0.000877393 0.000336174 10.0253 -0.591085 3 1 
128 1.20467 10.0253 0.000877393 0.000336174 10.0253 -0.591085 3 1 
129.333 1.20474 10.0255 0.000841832 0.000799949 10.0255 -0.474793 3 1 
130.667 1.20481 10.0285 0.00076247 0.00152773 10.0285 -0.351906 3 1 
132 1.20491 10.0335 0.000665548 0.0015958 10.0335 -0.155399 3 1 
133.333 1.20511 10.0376 0.000601821 0.000961599 10.0376 0.192204 3 1 
134.667 1.20528 10.0415 0.000590387 0.000355502 10.0415 0.50396 3 1 
136 1.20537 10.0457 0.00066364 -0.000472738 10.0457 0.675053 3 1 
137.333 1.20546 10.0487 0.000792431 -0.00121392 10.0487 0.832206 3 1 
138.667 1.20556 10.0516 0.000977269 -0.00142984 10.0516 1.01044 3 1 
140 1.20567 10.0562 0.00117842 -0.00100673 10.0562 1.20611 3 1 
141.333 1.20584 10.0601 0.00138498 -0.000383192 10.0601 1.52474 3 1 
142.667 1.20601 10.0637 0.00157779 -0.000118532 10.0637 1.82133 3 1 
144 1.20607 10.068 0.0017141 0.000147768 10.068 1.92588 3 1 
145.333 1.20613 10.0694 0.00181707 0.000720073 10.0694 2.03635 3 1 
146.667 1.20619 10.0694 0.00189567 0.00117062 10.0694 2.15181 3 1 
148 1.2062 10.072 0.00199187 0.00209714 10.072 2.16769 3 1 
149.333 1.20627 10.0734 0.00211718 0.00204636 10.0734 2.2923 3 1 
149.333 1.20627 10.0734 0.00211718 0.00204636 10.0734 2.2923 3 1 
150.667 1.20636 10.0746 0.00224966 0.00156356 10.0746 2.45467 3 1 
152 1.20639 10.0766 0.00238817 0.00157722 10.0766 2.51777 3 1 
153.333 1.20644 10.0757 0.00249284 0.000870605 10.0757 2.59686 3 1 
154.667 1.20642 10.0749 0.00253042 0.00103737 10.0749 2.57347 3 1 
156 1.20637 10.0758 0.00248864 0.000961306 10.0758 2.47454 3 1 
157.333 1.2064 10.075 0.00238879 0.000834658 10.075 2.51975 3 1 
158.667 1.20646 10.0751 0.00227689 0.00190292 10.0751 2.64026 3 1 
160 1.20652 10.0775 0.00216031 0.00186823 10.0775 2.74856 3 1 
161.333 1.20659 10.0797 0.00210102 0.00209546 10.0797 2.87014 3 1 
162.667 1.20665 10.0808 0.00209497 0.00238582 10.0808 2.98209 3 1 
164 1.20666 10.0809 0.00215537 0.00222105 10.0809 3.00058 3 1 
165.333 1.20664 10.08 0.00227455 0.00259617 10.08 2.9588 3 1 
166.667 1.20662 10.0778 0.00242041 0.00254538 10.0778 2.91734 3 1 
168 1.20656 10.0762 0.00258695 0.00229295 10.0762 2.82489 3 1 
169.333 1.20654 10.0742 0.00273102 0.00289053 10.0742 2.77597 3 1 
170.667 1.20654 10.0716 0.00284992 0.00323483 10.0716 2.78358 3 1 
170.667 1.20654 10.0716 0.00284992 0.00323483 10.0716 2.78358 11 1 
172 1.20649 10.0701 0.002888 0.00349044 10.0701 2.694 11 1 
173.333 1.20641 10.0679 0.00284589 0.00399321 10.0679 2.53805 11 1 
174.667 1.20632 10.0634 0.00274839 0.00385183 10.0634 2.37616 11 1 
176 1.2062 10.0578 0.00263267 0.00401949 10.0578 2.16526 11 1 
177.333 1.20606 10.0512 0.00251045 0.00429252 10.0512 1.90642 11 1 
178.667 1.20589 10.0449 0.00236359 0.00442314 10.0449 1.61219 11 1 
180 1.20574 10.0397 0.00221942 0.0047912 10.0397 1.34405 11 1 
181.333 1.20565 10.035 0.00210635 0.00503966 10.035 1.18234 11 1 
182.667 1.20561 10.0317 0.00203955 0.00488803 10.0317 1.09645 11 1 
184 1.20558 10.0292 0.00199406 0.00427831 10.0292 1.04667 11 1 
185.333 1.20555 10.0275 0.00195167 0.00367306 10.0275 0.993809 11 1 
186.667 1.20553 10.0258 0.0019274 0.00356318 10.0258 0.952912 11 1 
188 1.20552 10.0232 0.00192168 0.0035427 10.0232 0.945367 11 1 
189.333 1.2055 10.0208 0.00193919 0.0040651 10.0208 0.897779 11 1 
190.667 1.20543 10.0177 0.00196084 0.0042803 10.0177 0.777295 11 1 
192 1.20534 10.0135 0.00197638 0.00397945 10.0135 0.611717 11 1 
192 1.20534 10.0135 0.00197638 0.00397945 10.0135 0.611717 11 1 
193.333 1.20525 10.0086 0.00196932 0.00387509 10.0086 0.460163 11 1 
194.667 1.20519 10.0029 0.00199736 0.00386858 10.0029 0.346853 11 1 
196 1.20512 9.99734 0.00201076 0.00323919 9.99734 0.212093 11 1 
197.333 1.20501 9.99285 0.00200124 0.00314457 9.99285 0.0257367 11 1 
198.667 1.20493 9.98904 0.00203419 0.0025653 9.98904 -0.121771 11 1 
200 1.20489 9.98564 0.00201793 0.00229738 9.98564 -0.200185 11 1 
201.333 1.20487 9.98269 0.00205566 0.00356755 9.98269 -0.236365 11 1 
202.667 1.20487 9.97973 0.00209168 0.00420719 9.97974 -0.242385 11 1 
204 1.20484 9.97672 0.00206954 0.00399303 9.97672 -0.29491 11 1 
205.333 1.2048 9.97296 0.00206909 0.00367422 9.97296 -0.352806 11 1 
206.667 1.20482 9.96895 0.00207045 0.00262963 9.96896 -0.330005 11 1 
208 1.20485 9.96629 0.00208323 0.00293396 9.96629 -0.273435 11 1 
209.333 1.20486 9.96441 0.00210796 0.00365297 9.96441 -0.25247 11 1 
210.667 1.20485 9.96282 0.00211092 0.00350704 9.96282 -0.262905 11 1 
212 1.20486 9.96128 0.0020912 0.00414541 9.96128 -0.248447 11 1 
213.333 1.20491 9.95766 0.00210225 0.00447296 9.95766 -0.162257 11 1 
213.333 1.20491 9.95766 0.00210225 0.00447296 9.95766 -0.162257 11 1 
214.667 1.20494 9.95432 0.00214552 0.00408145 9.95432 -0.110863 11 1 
216 1.20494 9.95142 0.00215727 0.00381028 9.95142 -0.108227 11 1 
217.333 1.20497 9.94675 0.00213588 0.00415196 9.94675 -0.0499571 11 1 
218.667 1.20497 9.94427 0.00213114 0.00364345 9.94427 -0.0499972 11 1 
220 1.20501 9.94024 0.00211336 0.00520549 9.94024 0.0132786 11 1 
221.333 1.20507 9.93547 0.00210295 0.00679893 9.93547 0.129872 11 1 
222.667 1.20507 9.93374 0.00212095 0.00520761 9.93374 0.134478 11 1 
224 1.20511 9.9286 0.00214513 0.00527134 9.9286 0.200583 11 1 
225.333 1.20513 9.92467 0.00217092 0.00499478 9.92467 0.226462 11 1 
226.667 1.20516 9.92003 0.0021644 0.00479303 9.92003 0.28362 11 1 
228 1.20523 9.91246 0.00213529 0.00683881 9.91247 0.418956 11 1 
229.333 1.20524 9.90915 0.0020986 0.00752629 9.90916 0.428332 11 1 
230.667 1.2053 9.9027 0.00208874 0.0070383 9.9027 0.539517 11 1 
232 1.20533 9.89637 0.00215283 0.00720865 9.89637 0.60442 11 1 
233.333 1.20533 9.89229 0.00217397 0.00809499 9.89229 0.592071 11 1 
234.667 1.20544 9.88344 0.00213334 0.00804661 9.88344 0.794744 11 1 
234.667 1.20544 9.88344 0.00213334 0.00804661 9.88344 0.794744 11 1 
236 1.2055 9.87662 0.00208571 0.00873364 9.87662 0.898168 11 1 
237.333 1.2055 9.86966 0.00203083 0.00974417 9.86967 0.909383 11 1 
238.667 1.20557 9.86001 0.00206693 0.0105649 9.86001 1.03786 11 1 
240 1.20564 9.85177 0.00211002 0.0113615 9.85177 1.15237 11 1 
241.333 1.20569 9.84331 0.00205835 0.0117582 9.84332 1.24983 11 1 
242.667 1.20578 9.83399 0.00200099 0.0121571 9.834 1.40814 11 1 
244 1.20587 9.82329 0.00201281 0.0127325 9.8233 1.5632 11 1 
245.333 1.2059 9.81214 0.00202498 0.0155059 9.81216 1.6258 11 1 
246.667 1.20598 9.79986 0.00202482 0.0175859 9.79987 1.77233 11 1 
248 1.20611 9.7864 0.00197903 0.0177465 9.78642 1.99986 11 1 
249.333 1.20618 9.77362 0.00189477 0.0191885 9.77364 2.13525 11 1 
250.667 1.20627 9.75928 0.0019132 0.0210882 9.75931 2.28914 11 1 
252 1.20638 9.74358 0.0019174 0.0221813 9.74361 2.49257 11 1 
253.333 1.20649 9.72674 0.00186678 0.0259463 9.72678 2.69811 11 1 
254.667 1.20661 9.70864 0.0018353 0.0290048 9.70869 2.91498 11 1 
256 1.20676 9.68956 0.0018012 0.0308358 9.68961 3.17503 11 1 
256 1.20676 9.68956 0.0018012 0.0308358 9.68961 3.17503 13 1 
257.333 1.2069 9.66854 0.00178151 0.0349115 9.66861 3.43082 13 1 
258.667 1.20702 9.64601 0.00175612 0.0384215 9.64609 3.65209 13 1 
260 1.20717 9.62246 0.00168918 0.0426063 9.62256 3.92705 13 1 
261.333 1.20738 9.59575 0.00166063 0.0481756 9.59588 4.29221 13 1 
262.667 1.20759 9.56616 0.00164218 0.0544911 9.56632 4.66952 13 1 
264 1.20774 9.53825 0.00158214 0.0604809 9.53845 4.94687 13 1 
265.333 1.20796 9.50465 0.00152617 0.068779 9.50491 5.35381 13 1 
266.667 1.20823 9.46655 0.00149842 0.077438 9.46688 5.83089 13 1 
268 1.20843 9.43089 0.00146593 0.0872494 9.43131 6.18982 13 1 
269.333 1.20874 9.38693 0.00141318 0.100228 9.38748 6.75939 13 1 
270.667 1.20908 9.33813 0.00136107 0.113718 9.33884 7.36377 13 1 
272 1.20928 9.293 0.00130802 0.128636 9.29392 7.72335 13 1 
273.333 1.20966 9.23697 0.00127587 0.145749 9.23814 8.41622 13 1 
274.667 1.21009 9.17695 0.00123001 0.168756 9.17852 9.18517 13 1 
276 1.21035 9.12401 0.0011792 0.197992 9.12619 9.6601 13 1 
277.333 1.21087 9.05534 0.00111362 0.22993 9.0583 10.6045 13 1 
277.333 1.21087 9.05534 0.00111362 0.22993 9.0583 10.6045 13 1 
278.667 1.21135 8.98014 0.00105432 0.266604 8.98416 11.4676 13 1 
280 1.21163 8.90806 0.00100732 0.303405 8.91331 11.9726 13 1 
281.333 1.2122 8.8222 0.000947165 0.346337 8.82909 12.9981 13 1 
282.667 1.21277 8.73631 0.000894909 0.400024 8.74558 14.0277 13 1 
284 1.21313 8.65723 0.000839218 0.460842 8.66964 14.6838 13 1 
285.333 1.21372 8.56219 0.000785981 0.519472 8.57808 15.756 13 1 
286.667 1.21428 8.46455 0.000738602 0.592915 8.48558 16.7675 13 1 
288 1.21455 8.3793 0.000697312 0.678391 8.40691 17.2555 13 1 
289.333 1.21518 8.28612 0.000654279 0.761036 8.32127 18.3859 13 1 
290.667 1.21587 8.18459 0.000605765 0.867219 8.23083 19.6411 13 1 
292 1.21599 8.09458 0.000559267 0.963322 8.15203 19.858 13 1 
293.333 1.21645 7.98899 0.000516674 1.07055 8.06116 20.6847 13 1 
294.667 1.21731 7.87461 0.000471424 1.20955 7.96776 22.2263 13 1 
296 1.21716 7.79923 0.000424686 1.3774 7.92097 21.9567 13 1 
297.333 1.21543 7.48295 0.000379883 1.17503 7.58212 18.8328 13 1 
298.667 1.21041 6.72745 0.000330444 0.313735 6.76625 9.78067 13 1 
298.667 1.21041 6.72745 0.000330444 0.313735 6.76625 9.78067 14 1 
300 1.20361 5.89215 0.000270254 -0.829748 5.99843 -2.51076 14 1 
301.333 1.199 5.35925 0.000199143 -1.73274 5.65143 -10.8335 14 1 
302.667 1.19634 5.15815 0.0001235 -1.97609 5.52437 -15.643 14 1 
304 1.19543 5.03961 4.37414e-05 -1.85629 5.37105 -17.2894 14 1 
305.333 1.19559 4.88545 -3.12161e-05 -1.69083 5.17128 -16.997 14 1 
306.667 1.1956 4.78204 -9.99728e-05 -1.48467 5.00824 -16.9739 14 1 
308 1.19611 4.73536 -0.000171843 -1.37926 4.93238 -16.0528 14 1 
309.333 1.19642 4.7079 -0.000237721 -1.27161 4.87751 -15.5056 14 1 
310.667 1.19639 4.65989 -0.000297779 -1.15067 4.80016 -15.5534 14 1 
312 1.19675 4.59371 -0.00035407 -1.07593 4.71846 -14.8975 14 1 
313.333 1.19695 4.54857 -0.000394691 -0.966672 4.65077 -14.5374 14 1 
314.667 1.19711 4.50959 -0.000437812 -0.872498 4.59338 -14.2437 14 1 
316 1.19748 4.45192 -0.000491914 -0.799062 4.52334 -13.5767 14 1 
317.333 1.19767 4.37655 -0.000532479 -0.717785 4.43521 -13.2342 14 1 
318.667 1.19777 4.29517 -0.000566422 -0.647024 4.34381 -13.057 14 1 
320 1.19803 4.2264 -0.000602312 -0.589028 4.26735 -12.5945 14 1 
320 1.19803 4.2264 -0.000602312 -0.589028 4.26735 -12.5945 14 1 
321.333 1.19829 4.17066 -0.000626872 -0.534656 4.20495 -12.1114 14 1 
322.667 1.19844 4.10616 -0.000653598 -0.481808 4.13445 -11.8523 14 1 
324 1.19857 4.0277 -0.00069038 -0.441321 4.05192 -11.6087 14 1 
325.333 1.19876 3.95267 -0.000719879 -0.404832 3.97342 -11.2699 14 1 
326.667 1.19893 3.89161 -0.000735532 -0.372483 3.90947 -10.9552 14 1 
328 1.19907 3.83894 -0.000741351 -0.347328 3.85468 -10.7022 14 1 
329.333 1.19922 3.78287 -0.000742011 -0.325481 3.79692 -10.4407 14 1 
330.667 1.19935 3.72056 -0.000749939 -0.308077 3.73336 -10.2011 14 1 
332 1.19945 3.65962 -0.000765997 -0.297395 3.67175 -10.0225 14 1 
333.333 1.19956 3.60833 -0.000762664 -0.289663 3.62002 -9.83486 14 1 
334.667 1.19968 3.56564 -0.000728345 -0.287485 3.57731 -9.60703 14 1 
336 1.19979 3.52119 -0.000684585 -0.289513 3.53319 -9.41816 14 1 
337.333 1.19985 3.47234 -0.000631016 -0.29623 3.48511 -9.30707 14 1 
338.667 1.1999 3.42795 -0.000552114 -0.309046 3.44213 -9.21318 14 1 
340 1.19996 3.39369 -0.000453435 -0.327076 3.40987 -9.10176 14 1 
341.333 1.20001 3.35946 -0.000333017 -0.34802 3.37807 -9.00731 14 1 
341.333 1.20001 3.35946 -0.000333017 -0.34802 3.37807 -9.00731 15 1 
342.667 1.20003 3.30376 -0.000175904 -0.363514 3.32447 -8.97873 15 1 
344 1.20002 3.21162 1.74809e-06 -0.361915 3.23288 -8.99912 15 1 
345.333 1.20001 3.07929 0.000148046 -0.33435 3.09848 -9.01041 15 1 
346.667 1.20001 2.90558 0.000207572 -0.273946 2.91973 -9.01042 15 1 
348 1.20001 2.69136 0.000134691 -0.181124 2.69907 -9.01344 15 1 
349.333 1.20002 2.44564 -8.81874e-05 -0.0597305 2.44886 -8.99227 15 1 
350.667 1.20007 2.18321 -0.000439476 0.0882962 2.18955 -8.90667 15 1 
352 1.20016 1.91684 -0.000857555 0.262113 1.94318 -8.73954 15 1 
353.333 1.20029 1.65596 -0.00126625 0.454037 1.73067 -8.50848 15 1 
354.667 1.20044 1.41286 -0.0017202 0.645414 1.56937 -8.24507 15 1 
356 1.20059 1.20987 -0.00247728 0.811676 1.4702 -7.96484 15 1 
357.333 1.20076 1.07482 -0.00370711 0.939411 1.43614 -7.6526 15 1 
358.667 1.20096 1.02127 -0.00519726 1.03771 1.46312 -7.29008 15 1 
360 1.20119 1.03685 -0.00653236 1.12742 1.54047 -6.88673 15 1 
361.333 1.20143 1.09632 -0.00745586 1.22006 1.65106 -6.45082 15 1 
362.667 1.20169 1.17859 -0.00797699 1.31272 1.77613 -5.98532 15 1 
362.667 1.20169 1.17859 -0.00797699 1.31272 1.77613 -5.98532 15 1 
364 1.20196 1.27243 -0.00826082 1.39803 1.90286 -5.49519 15 1 
365.333 1.20225 1.37474 -0.00846739 1.47078 2.02604 -4.96811 15 1 
366.667 1.20257 1.48689 -0.00866609 1.52847 2.14555 -4.38489 15 1 
368 1.20293 1.61255 -0.00887465 1.57161 2.26534 -3.73217 15 1 
369.333 1.20333 1.75541 -0.0090929 1.6025 2.39101 -3.0083 15 1 
370.667 1.20377 1.91759 -0.00930274 1.62353 2.52727 -2.2253 15 1 
372 1.20422 2.09982 -0.00949042 1.63676 2.67753 -1.40017 15 1 
373.333 1.20469 2.30187 -0.00964503 1.64394 2.84404 -0.554355 15 1 
374.667 1.20516 2.52286 -0.00974794 1.64655 3.02805 0.296018 15 1 
376 1.20564 2.76147 -0.00978453 1.64583 3.22991 1.1478 15 1 
377.333 1.2061 3.01583 -0.00975382 1.64272 3.4489 1.99252 15 1 
378.667 1.20655 3.28355 -0.00966141 1.63776 3.68332 2.8029 15 1 
380 1.20697 3.56199 -0.00951423 1.63116 3.93082 3.55138 15 1 
381.333 1.20734 3.8488 -0.00931293 1.62298 4.1891 4.2325 15 1 
382.667 1.20768 4.14193 -0.00906078 1.61309 4.45596 4.84768 15 1 
384 1.20798 4.43903 -0.00876131 1.60131 4.72888 5.38647 15 1 
384 1.20798 4.43903 -0.00876131 1.60131 4.72888 5.38647 15 1 
385.333 1.20823 4.73745 -0.0084108 1.58733 5.00503 5.83783 15 1 
386.667 1.20843 5.03488 -0.00800817 1.57034 5.2817 6.20033 15 1 
388 1.20859 5.3293 -0.00756085 1.54938 5.55652 6.47956 15 1 
389.333 1.2087 5.61884 -0.00709198 1.52379 5.82738 6.67985 15 1 
390.667 1.20877 5.90166 -0.00663115 1.49304 6.0923 6.80357 15 1 
392 1.2088 6.17598 -0.00618627 1.45643 6.34931 6.85763 15 1 
393.333 1.20879 6.44021 -0.00574661 1.41319 6.59669 6.847 15 1 
394.667 1.20875 6.69293 -0.00531429 1.36307 6.83301 6.77347 15 1 
396 1.20868 6.93299 -0.00489282 1.30648 7.05722 6.6507 15 1 
397.333 1.2086 7.15964 -0.0044816 1.24407 7.26874 6.49573 15 1 
398.667 1.2085 7.37243 -0.00409419 1.17658 7.46723 6.31371 15 1 
400 1.20838 7.57109 -0.00374759 1.10491 7.65254 6.10527 15 1 
401.333 1.20825 7.75569 -0.00344345 1.03033 7.82487 5.87451 15 1 
402.667 1.20812 7.9266 -0.0031729 0.954344 7.98472 5.62889 15 1 
404 1.20798 8.08435 -0.00293218 0.878312 8.13266 5.37917 15 1 
405.333 1.20784 8.22942 -0.00270985 0.803274 8.26915 5.1335 15 1 
405.333 1.20784 8.22942 -0.00270985 0.803274 8.26915 5.1335 15 1 
406.667 1.20771 8.36236 -0.00248322 0.730009 8.39468 4.89021 15 1 
408 1.20757 8.48409 -0.00225934 0.65938 8.5101 4.64788 15 1 
409.333 1.20744 8.59566 -0.0020629 0.592008 8.61638 4.40493 15 1 
410.667 1.2073 8.69818 -0.0018963 0.528042 8.71448 4.16133 15 1 
412 1.20717 8.7926 -0.00174895 0.46712 8.80523 3.92497 15 1 
413.333 1.20705 8.87993 -0.00161397 0.408955 8.88953 3.7067 15 1 
414.667 1.20695 8.96113 -0.00147235 0.354024 8.96826 3.5188 15 1 
416 1.20686 9.03665 -0.00131964 0.302982 9.04185 3.35706 15 1 
417.333 1.20677 9.10701 -0.0011895 0.255988 9.11069 3.19339 15 1 
418.667 1.20667 9.17302 -0.00110747 0.213072 9.17556 3.00903 15 1 
420 1.20656 9.23549 -0.00105232 0.174615 9.2372 2.82327 15 1 
421.333 1.20648 9.29444 -0.000990811 0.140591 9.29555 2.66764 15 1 
422.667 1.20641 9.34972 -0.000921672 0.111019 9.35041 2.54477 15 1 
424 1.20635 9.40121 -0.000855133 0.0858031 9.40163 2.43631 15 1 
425.333 1.20629 9.44897 -0.000794559 0.0651174 9.44921 2.32831 15 1 
426.667 1.20623 9.49318 -0.000747371 0.0486576 9.49333 2.21575 15 1 
426.667 1.20623 9.49318 -0.000747371 0.0486576 9.49333 2.21575 20 1 
428 1.20616 9.53369 -0.000718801 0.0355475 9.53377 2.09526 20 1 
429.333 1.20609 9.57042 -0.000702261 0.0253513 9.57046 1.97131 20 1 
430.667 1.20604 9.60369 -0.000679455 0.017491 9.60371 1.86948 20 1 
432 1.206 9.63373 -0.000642198 0.0116556 9.63374 1.80379 20 1 
433.333 1.20597 9.66013 -0.000599437 0.00770428 9.66013 1.74791 20 1 
434.667 1.20593 9.68291 -0.000562105 0.00535188 9.68292 1.67437 20 1 
436 1.20587 9.70293 -0.00053643 0.00390407 9.70293 1.58022 20 1 
437.333 1.20583 9.72146 -0.000520862 0.0026935 9.72146 1.49033 20 1 
438.667 1.20579 9.73912 -0.00051273 0.00167976 9.73912 1.43276 20 1 
440 1.20578 9.75518 -0.000494367 0.000905584 9.75518 1.4027 20 1 
441.333 1.20576 9.76915 -0.000462781 0.000604713 9.76915 1.36371 20 1 
442.667 1.20572 9.78161 -0.000446491 0.00065365 9.78161 1.29917 20 1 
444 1.20568 9.79366 -0.000438645 0.000818925 9.79366 1.23572 20 1 
445.333 1.20566 9.80532 -0.000424851 0.00101843 9.80532 1.19029 20 1 
446.667 1.20564 9.81621 -0.000422855 0.00101027 9.81621 1.16005 20 1 
448 1.20562 9.82636 -0.000420354 0.00078762 9.82636 1.12658 20 1 
448 1.20562 9.82636 -0.000420354 0.00078762 9.82636 1.12658 20 1 
449.333 1.2056 9.83565 -0.000397123 0.000594095 9.83565 1.08139 20 1 
450.667 1.20558 9.8442 -0.000377718 0.00101745 9.8442 1.04301 20 1 
452 1.20556 9.85207 -0.000378116 0.00145121 9.85207 1.0179 20 1 
453.333 1.20555 9.85939 -0.000373911 0.00137928 9.85939 0.994208 20 1 
454.667 1.20554 9.86633 -0.000361622 0.000890663 9.86633 0.969362 20 1 
456 1.20552 9.87292 -0.000348665 0.000457699 9.87292 0.935587 20 1 
457.333 1.20549 9.87911 -0.000326129 0.000693841 9.87911 0.893057 20 1 
458.667 1.20548 9.88468 -0.000304135 0.00110655 9.88468 0.858695 20 1 
460 1.20547 9.88974 -0.000296069 0.00102126 9.88974 0.840435 20 1 
461.333 1.20547 9.89476 -0.000298028 0.000554043 9.89476 0.840153 20 1 
462.667 1.20546 9.8999 -0.000301187 0.000332086 9.8999 0.837548 20 1 
464 1.20545 9.90494 -0.000308154 0.000472852 9.90494 0.813042 20 1 
465.333 1.20543 9.90934 -0.000317852 0.000596341 9.90934 0.767971 20 1 
466.667 1.2054 9.91311 -0.000314958 0.000649223 9.91311 0.730201 20 1 
468 1.2054 9.91683 -0.000301717 0.000758297 9.91683 0.72767 20 1 
469.333 1.20541 9.92092 -0.000294541 0.000723439 9.92092 0.73684 20 1 
469.333 1.20541 9.92092 -0.000294541 0.000723439 9.92092 0.73684 20 1 
470.667 1.2054 9.92508 -0.000307617 0.000932225 9.92508 0.721506 20 1 
472 1.20538 9.92852 -0.000319403 0.00114731 9.92852 0.680435 20 1 
473.333 1.20536 9.93155 -0.000314909 0.00109968 9.93155 0.647477 20 1 
474.667 1.20536 9.93501 -0.000315275 0.000953673 9.93501 0.658113 20 1 
476 1.20538 9.93874 -0.000337184 0.000582102 9.93874 0.685587 20 1 
477.333 1.20538 9.94201 -0.000361657 0.0007073 9.94201 0.68415 20 1 
478.667 1.20535 9.94424 -0.000365303 0.00121534 9.94424 0.639859 20 1 
480 1.20532 9.94595 -0.000359293 0.001493 9.94595 0.575912 20 1 
481.333 1.20531 9.94856 -0.000347892 0.00147117 9.94856 0.554756 20 1 
482.667 1.20532 9.95161 -0.000334237 0.0010532 9.95161 0.585914 20 1 
484 1.20535 9.95443 -0.000343705 0.000833434 9.95443 0.627337 20 1 
485.333 1.20535 9.95662 -0.00037233 0.000751013 9.95662 0.632537 20 1 
486.667 1.20532 9.95802 -0.000387818 0.000797289 9.95802 0.582029 20 1 
488 1.20529 9.95986 -0.00038719 0.000950369 9.95986 0.530994 20 1 
489.333 1.20529 9.96181 -0.00038037 0.000960133 9.96181 0.526895 20 1 
490.667 1.20531 9.96367 -0.000374249 0.00109595 9.96367 0.552087 20 1 
490.667 1.20531 9.96367 -0.000374249 0.00109595 9.96367 0.552087 20 1 
492 1.20531 9.96523 -0.000368638 0.000939032 9.96523 0.565112 20 1 
493.333 1.2053 9.96633 -0.00035793 0.000830074 9.96633 0.54658 20 1 
494.667 1.20528 9.96762 -0.000356476 0.000978279 9.96762 0.508498 20 1 
496 1.20527 9.96934 -0.000388342 0.000900805 9.96934 0.488655 20 1 
497.333 1.20528 9.97125 -0.000426505 0.000743656 9.97125 0.5061 20 1 
498.667 1.2053 9.9728 -0.000425494 0.000581543 9.9728 0.539078 20 1 
500 1.20531 9.97386 -0.000394272 0.000489574 9.97386 0.551323 20 1 
501.333 1.20529 9.97457 -0.000375232 0.000528556 9.97457 0.521766 20 1 
502.667 1.20526 9.97534 -0.000366606 0.000735493 9.97534 0.472917 20 1 
504 1.20525 9.97628 -0.000368615 0.0011557 9.97628 0.44287 20 1 
505.333 1.20525 9.97763 -0.000394058 0.00119911 9.97763 0.454232 20 1 
506.667 1.20527 9.97897 -0.000422233 0.000842789 9.97897 0.479181 20 1 
508 1.20527 9.97999 -0.000423952 0.000358821 9.97999 0.489712 20 1 
509.333 1.20527 9.98127 -0.000402504 8.9558e-05 9.98127 0.496517 20 1 
510.667 1.20528 9.98238 -0.000396221 0.000449797 9.98238 0.500035 20 1 
512 1.20527 9.9831 -0.00040322 0.000845116 9.9831 0.490536 20 1 
512 1.20527 9.9831 -0.00040322 0.000845116 9.9831 0.490536 21 1 
513.333 1.20525 9.98334 -0.000401277 0.00095474 9.98334 0.45875 21 1 
514.667 1.20523 9.98382 -0.000386448 0.000689429 9.98382 0.419125 21 1 
516 1.20522 9.98486 -0.000390626 0.000542292 9.98486 0.406467 21 1 
517.333 1.20524 9.98592 -0.000416104 0.000852884 9.98592 0.431275 21 1 
518.667 1.20526 9.98713 -0.000427381 0.000827577 9.98713 0.476875 21 1 
520 1.20528 9.9882 -0.000417914 0.000387084 9.9882 0.499886 21 1 
521.333 1.20526 9.98881 -0.000405645 0.000152846 9.98881 0.475208 21 1 
522.667 1.20524 9.98927 -0.000399082 0.000353802 9.98927 0.43705 21 1 
524 1.20523 9.98968 -0.000402025 0.000807745 9.98968 0.419934 21 1 
525.333 1.20524 9.99013 -0.000419363 0.000941067 9.99013 0.426586 21 1 
526.667 1.20525 9.99092 -0.000425194 0.000514305 9.99092 0.443373 21 1 
528 1.20525 9.99181 -0.000411339 0.000204937 9.99181 0.449874 21 1 
529.333 1.20525 9.99274 -0.000405559 0.000359032 9.99274 0.444526 21 1 
530.667 1.20524 9.99329 -0.000419076 0.000762983 9.99329 0.433153 21 1 
532 1.20524 9.99361 -0.00042388 0.000907496 9.99361 0.42735 21 1 
533.333 1.20524 9.99412 -0.000414633 0.000476668 9.99412 0.430915 21 1 
533.333 1.20524 9.99412 -0.000414633 0.000476668 9.99412 0.430915 21 1 
534.667 1.20524 9.99454 -0.000412006 1.01011e-05 9.99454 0.437859 21 1 
536 1.20525 9.99526 -0.000415482 -0.000101586 9.99526 0.455825 21 1 
537.333 1.20525 9.99593 -0.000420814 0.000285618 9.99593 0.45692 21 1 
538.667 1.20524 9.99633 -0.000423587 0.000750768 9.99633 0.433938 21 1 
540 1.20523 9.99673 -0.0004194 0.000827288 9.99673 0.411402 21 1 
541.333 1.20522 9.99693 -0.000411318 0.000579257 9.99693 0.402807 21 1 
542.667 1.20523 9.99733 -0.000411444 0.000242103 9.99733 0.41828 21 1 
544 1.20524 9.99783 -0.000427404 0.000213068 9.99783 0.43774 21 1 
545.333 1.20525 9.99826 -0.000444036 0.000233276 9.99826 0.44997 21 1 
546.667 1.20525 9.99887 -0.000438918 7.422e-05 9.99887 0.457739 21 1 
548 1.20525 9.99939 -0.00042198 8.49037e-05 9.99939 0.451334 21 1 
549.333 1.20524 9.99952 -0.000416843 0.000255005 9.99952 0.427885 21 1 
550.667 1.20522 9.99966 -0.00042932 0.000503495 9.99966 0.402428 21 1 
552 1.20522 9.99969 -0.000444516 0.000604758 9.99969 0.397238 21 1 
553.333 1.20523 10 -0.000444705 0.00028598 10 0.421867 21 1 
554.667 1.20525 10.0005 -0.0004354 0.000105924 10.0005 0.444647 21 1 
554.667 1.20525 10.0005 -0.0004354 0.000105924 10.0005 0.444647 22 1 
556 1.20525 10.0007 -0.000429999 2.8767e-05 10.0007 0.446082 22 1 
557.333 1.20524 10.0013 -0.0004413 0.000148755 10.0013 0.44006 22 1 
558.667 1.20523 10.0015 -0.000458943 0.000420776 10.0015 0.42294 22 1 
560 1.20523 10.0017 -0.000461593 0.000300984 10.0017 0.412067 22 1 
561.333 1.20523 10.002 -0.000451913 7.01777e-05 10.002 0.423982 22 1 
562.667 1.20524 10.0019 -0.000446682 -8.75979e-05 10.0019 0.437832 22 1 
564 1.20525 10.0022 -0.000451397 7.1214e-05 10.0022 0.444907 22 1 
565.333 1.20524 10.0021 -0.000461336 0.000462227 10.0021 0.427803 22 1 
566.667 1.20523 10.0024 -0.000466513 0.000447498 10.0024 0.407252 22 1 
568 1.20522 10.0029 -0.000469623 0.000135842 10.0029 0.398481 22 1 
569.333 1.20523 10.0029 -0.000476756 -0.000115414 10.0029 0.410069 22 1 
570.667 1.20525 10.0035 -0.000482896 7.573e-05 10.0035 0.442692 22 1 
572 1.20525 10.0032 -0.000479921 0.000407262 10.0032 0.451967 22 1 
573.333 1.20525 10.0035 -0.000471585 0.000186776 10.0035 0.447927 22 1 
574.667 1.20524 10.0037 -0.000476308 -6.52864e-05 10.0037 0.428391 22 1 
576 1.20522 10.0035 -0.000487183 -0.000152659 10.0035 0.405553 22 1 
576 1.20522 10.0035 -0.000487183 -0.000152659 10.0035 0.405553 22 1 
577.333 1.20523 10.0042 -0.000491389 7.04081e-05 10.0042 0.410645 22 1 
578.667 1.20523 10.0037 -0.00049947 0.000525081 10.0037 0.417319 22 1 
580 1.20523 10.0039 -0.000509206 0.000583717 10.0039 0.423609 22 1 
581.333 1.20523 10.004 -0.000507051 0.000227777 10.004 0.414281 22 1 
582.667 1.20523 10.0039 -0.000496536 -0.000308437 10.0039 0.413156 22 1 
584 1.20525 10.0051 -0.000494826 -0.00039027 10.0051 0.447299 22 1 
585.333 1.20525 10.0046 -0.000509808 0.0002235 10.0046 0.449997 22 1 
586.667 1.20524 10.0052 -0.00052821 0.000379948 10.0052 0.438919 22 1 
588 1.20523 10.0046 -0.000535568 0.000260906 10.0046 0.407871 22 1 
589.333 1.20522 10.0042 -0.000527455 -6.22396e-05 10.0042 0.40224 22 1 
590.667 1.20524 10.0049 -0.000519686 -0.000105087 10.0049 0.425224 22 1 
592 1.20523 10.0044 -0.000521402 0.000249979 10.0044 0.420938 22 1 
593.333 1.20524 10.0056 -0.000531611 0.000359134 10.0056 0.425109 22 1 
594.667 1.20523 10.0049 -0.000549541 0.000236767 10.0049 0.409397 22 1 
596 1.20523 10.0053 -0.00056354 -0.000200782 10.0053 0.418448 22 1 
597.333 1.20524 10.0054 -0.000561577 -0.000316635 10.0054 0.435882 22 1 
597.333 1.20524 10.0054 -0.000561577 -0.000316635 10.0054 0.435882 24 1 
598.667 1.20525 10.005 -0.000549064 4.04731e-05 10.005 0.449398 24 1 
600 1.20526 10.006 -0.000546265 0.000302503 10.006 0.462625 24 1 
601.333 1.20523 10.005 -0.000559677 0.000330079 10.005 0.412716 24 1 
602.667 1.20521 10.0057 -0.000566869 -5.67033e-05 10.0057 0.385391 24 1 
604 1.20522 10.0054 -0.000565015 -0.000220295 10.0054 0.395078 24 1 
605.333 1.20524 10.0054 -0.000568148 8.71109e-05 10.0054 0.42818 24 1 
606.667 1.20525 10.0059 -0.000574081 0.000333315 10.0059 0.446367 24 1 
608 1.20524 10.0051 -0.000580578 0.000277187 10.0051 0.425187 24 1 
609.333 1.20524 10.0064 -0.000578665 -9.39982e-05 10.0064 0.435307 24 1 
610.667 1.20524 10.0058 -0.000574965 -0.000241862 10.0058 0.425944 24 1 
612 1.20523 10.0065 -0.000579369 -0.00020068 10.0065 0.422086 24 1 
613.333 1.20523 10.0061 -0.000585629 -0.000123379 10.0061 0.41682 24 1 
614.667 1.20523 10.0057 -0.000587033 0.000124407 10.0057 0.423977 24 1 
616 1.20525 10.0063 -0.000585411 0.00032459 10.0063 0.446706 24 1 
617.333 1.20524 10.0054 -0.000588643 0.000351464 10.0054 0.428483 24 1 
618.667 1.20523 10.0067 -0.000595099 0.000249166 10.0067 0.412036 24 1 
618.667 1.20523 10.0067 -0.000595099 0.000249166 10.0067 0.412036 24 1 
620 1.20521 10.0059 -0.000600389 -0.000156202 10.0059 0.388115 24 1 
621.333 1.20523 10.0067 -0.000604526 -0.000505375 10.0067 0.415449 24 1 
622.667 1.20525 10.0065 -0.000609579 -0.000295284 10.0065 0.450638 24 1 
624 1.20526 10.0063 -0.000609622 0.000194851 10.0063 0.467117 24 1 
625.333 1.20525 10.0069 -0.000604788 0.000481932 10.0069 0.447512 24 1 
626.667 1.20522 10.0058 -0.000602212 0.000107305 10.0058 0.39517 24 1 
628 1.20522 10.0072 -0.000598774 -0.000323557 10.0072 0.394053 24 1 
629.333 1.20523 10.0064 -0.000598696 -0.000274736 10.0064 0.415592 24 1 
630.667 1.20526 10.0076 -0.000605547 -1.89345e-05 10.0076 0.466025 24 1 
632 1.20524 10.0064 -0.000615533 0.000463138 10.0064 0.441944 24 1 
633.333 1.20523 10.006 -0.000622461 0.000316892 10.006 0.40661 24 1 
634.667 1.20523 10.0066 -0.000622599 -0.000151228 10.0066 0.409682 24 1 
636 1.20524 10.0068 -0.000616714 -0.000363718 10.0068 0.432172 24 1 
637.333 1.20526 10.0083 -0.000608191 -0.000296647 10.0083 0.462347 24 1 
638.667 1.20524 10.0067 -0.000612494 0.000126304 10.0067 0.425916 24 1 
640 1.20524 10.0075 -0.000626187 0.000161438 10.0075 0.427729 24 1 
640 1.20524 10.0075 -0.000626187 0.000161438 10.0075 0.427729 24 1 
641.333 1.20524 10.0062 -0.000631261 -4.1149e-05 10.0062 0.427362 24 1 
642.667 1.20526 10.0076 -0.000622226 -0.000197317 10.0076 0.462224 24 1 
644 1.20525 10.0073 -0.00060814 -8.5506e-05 10.0073 0.452216 24 1 
645.333 1.20523 10.0071 -0.000608502 0.000308495 10.0071 0.409295 24 1 
646.667 1.20521 10.007 -0.000619838 0.000199669 10.007 0.387157 24 1 
648 1.20523 10.0069 -0.000630681 -4.17304e-05 10.0069 0.411116 24 1 
649.333 1.20526 10.008 -0.000630655 -0.000261794 10.008 0.460964 24 1 
650.667 1.20526 10.0071 -0.00061447 -0.000421884 10.0071 0.464384 24 1 
652 1.20526 10.008 -0.000605744 -0.000138344 10.008 0.463214 24 1 
653.333 1.20524 10.0071 -0.000613062 0.000221791 10.0071 0.435713 24 1 
654.667 1.20524 10.0082 -0.000628241 0.000165587 10.0082 0.437367 24 1 
656 1.20523 10.0073 -0.000638169 -0.000109404 10.0073 0.420231 24 1 
657.333 1.20524 10.0078 -0.000629091 -0.000344979 10.0078 0.431267 24 1 
658.667 1.20524 10.0071 -0.000615585 -9.41412e-05 10.0071 0.428362 24 1 
660 1.20525 10.0075 -0.000612132 0.000152294 10.0075 0.446186 24 1 
661.333 1.20525 10.0076 -0.00061711 0.00025487 10.0076 0.454418 24 1 
661.333 1.20525 10.0076 -0.00061711 0.00025487 10.0076 0.454418 24 1 
662.667 1.20525 10.0077 -0.000624346 4.26451e-05 10.0077 0.447771 24 1 
664 1.20525 10.0082 -0.00062273 -0.000537091 10.0082 0.447791 24 1 
665.333 1.20524 10.0081 -0.000619463 -0.000479879 10.0081 0.435682 24 1 
666.667 1.20524 10.0081 -0.000620018 -0.000143779 10.0081 0.438832 24 1 
668 1.20525 10.0074 -0.000619347 8.05027e-05 10.0074 0.447816 24 1 
669.333 1.20525 10.0077 -0.000622351 0.000173007 10.0077 0.457201 24 1 
670.667 1.20525 10.0076 -0.000623817 -1.43512e-05 10.0076 0.443025 24 1 
672 1.20524 10.0082 -0.000622715 -0.000183288 10.0082 0.427603 24 1 
673.333 1.20524 10.0081 -0.000616828 -0.00029236 10.0081 0.429862 24 1 
674.667 1.20526 10.0083 -0.000608199 -0.00021967 10.0083 0.460796 24 1 
676 1.20526 10.0078 -0.000609603 -4.08997e-05 10.0078 0.462859 24 1 
677.333 1.20525 10.0077 -0.000618859 -3.64408e-05 10.0077 0.448824 24 1 
678.667 1.20524 10.0078 -0.000632174 -2.57337e-05 10.0078 0.440017 24 1 
680 1.20525 10.0083 -0.000632259 -0.000196178 10.0083 0.453477 24 1 
681.333 1.20525 10.0084 -0.000613369 -0.00047889 10.0084 0.457714 24 1 
682.667 1.20524 10.0082 -0.000597314 -0.000364762 10.0082 0.437915 24 1 
682.667 1.20524 10.0082 -0.000597314 -0.000364762 10.0082 0.437915 31 1 
684 1.20525 10.0083 -0.000593134 -0.000138769 10.0083 0.447623 31 1 
685.333 1.20527 10.0083 -0.000610231 -0.00013545 10.0083 0.4808 31 1 
686.667 1.20526 10.0077 -0.000634422 -5.79807e-05 10.0077 0.471746 31 1 
688 1.20524 10.0071 -0.000636203 -3.49502e-05 10.0071 0.441634 31 1 
689.333 1.20525 10.0076 -0.000617508 -5.18503e-05 10.0076 0.45489 31 1 
690.667 1.20528 10.0085 -0.000595104 -6.31277e-05 10.0085 0.499544 31 1 
692 1.20528 10.0083 -0.000586743 -0.00035767 10.0083 0.505801 31 1 
693.333 1.20527 10.0071 -0.000594288 -0.000560994 10.0071 0.485422 31 1 
694.667 1.2053 10.0068 -0.00060776 -0.000573372 10.0068 0.534546 31 1 
696 1.20534 10.0072 -0.000612997 -0.000337871 10.0072 0.605902 31 1 
697.333 1.20532 10.007 -0.000603419 3.47435e-05 10.007 0.580295 31 1 
698.667 1.20527 10.0062 -0.000592759 3.18272e-05 10.0062 0.49575 31 1 
700 1.20526 10.0061 -0.00058438 -9.22424e-05 10.0061 0.474407 31 1 
701.333 1.2053 10.007 -0.000575823 -0.000404977 10.007 0.542672 31 1 
702.667 1.20533 10.0076 -0.000566196 -0.000564623 10.0076 0.604079 31 1 
704 1.20533 10.0069 -0.00056169 -0.000210413 10.0069 0.604266 31 1 
704 1.20533 10.0069 -0.00056169 -0.000210413 10.0069 0.604266 31 1 
705.333 1.20534 10.0059 -0.000566137 -2.64595e-05 10.0059 0.607177 31 1 
706.667 1.20534 10.0053 -0.000573981 -7.74285e-05 10.0053 0.618105 31 1 
708 1.20533 10.0055 -0.000586594 -0.000276766 10.0055 0.599265 31 1 
709.333 1.20532 10.0066 -0.000590089 -0.000522971 10.0066 0.586825 31 1 
710.667 1.20533 10.0078 -0.000584276 -0.00051726 10.0078 0.595958 31 1 
712 1.20533 10.0078 -0.000582174 -0.000301442 10.0078 0.597256 31 1 
713.333 1.20532 10.0067 -0.000586939 -3.98263e-05 10.0067 0.569229 31 1 
714.667 1.2053 10.006 -0.000600656 -4.90049e-05 10.006 0.540246 31 1 
716 1.20531 10.0069 -0.000609965 -0.000175866 10.0069 0.560251 31 1 
717.333 1.20532 10.0082 -0.000611726 -0.000308907 10.0082 0.586538 31 1 
718.667 1.20531 10.0083 -0.000613724 -0.00048227 10.0083 0.554624 31 1 
720 1.20528 10.0078 -0.000616782 -0.000294958 10.0078 0.500103 31 1 
721.333 1.20528 10.0082 -0.00062059 -0.0001935 10.0082 0.501709 31 1 
722.667 1.20531 10.0093 -0.000618175 -0.000497052 10.0093 0.557054 31 1 
724 1.20532 10.0095 -0.000613198 -0.000569675 10.0095 0.576635 31 1 
725.333 1.2053 10.0089 -0.000614432 -0.000401289 10.0089 0.53484 31 1 
725.333 1.2053 10.0089 -0.000614432 -0.000401289 10.0089 0.53484 31 1 
726.667 1.20527 10.0085 -0.000618922 -0.000238141 10.0085 0.49155 31 1 
728 1.20527 10.009 -0.000626698 -7.70839e-05 10.009 0.480991 31 1 
729.333 1.20528 10.0096 -0.00063022 -0.000148002 10.0096 0.50219 31 1 
730.667 1.20529 10.0097 -0.000619022 -0.000468909 10.0097 0.525806 31 1 
732 1.20529 10.0092 -0.000608078 -0.000606903 10.0092 0.521781 31 1 
733.333 1.20528 10.0091 -0.000603651 -0.000404387 10.0091 0.500911 31 1 
734.667 1.20527 10.0096 -0.000601717 -0.000302478 10.0096 0.486031 31 1 
736 1.20527 10.0096 -0.000606247 -0.000285566 10.0096 0.488406 31 1 
737.333 1.20529 10.0097 -0.000608321 -0.000302641 10.0097 0.524144 31 1 
738.667 1.20531 10.0103 -0.000599504 -0.000628883 10.0103 0.561994 31 1 
740 1.2053 10.0105 -0.000582787 -0.000782276 10.0105 0.537708 31 1 
741.333 1.20527 10.01 -0.000571558 -0.000537013 10.01 0.480495 31 1 
742.667 1.20525 10.0095 -0.000574017 -0.000185298 10.0095 0.454219 31 1 
744 1.20526 10.0098 -0.000582457 -1.8051e-05 10.0098 0.472995 31 1 
745.333 1.20529 10.011 -0.000575357 -0.000343809 10.011 0.525216 31 1 
746.667 1.2053 10.0116 -0.000548117 -0.000596343 10.0116 0.541618 31 1 
746.667 1.2053 10.0116 -0.000548117 -0.000596343 10.0116 0.541618 31 1 
748 1.20527 10.0111 -0.000532935 -0.000588148 10.0111 0.495743 31 1 
749.333 1.20526 10.0105 -0.000542382 -0.000493686 10.0105 0.460693 31 1 
750.667 1.20526 10.0107 -0.000559918 -0.000327913 10.0107 0.472508 31 1 
752 1.20528 10.0113 -0.000555607 -0.000352096 10.0113 0.498237 31 1 
753.333 1.20528 10.0116 -0.000525852 -0.00051417 10.0116 0.503237 31 1 
754.667 1.20528 10.0114 -0.000511795 -0.000551971 10.0114 0.501016 31 1 
756 1.20528 10.0114 -0.000513772 -0.000420372 10.0114 0.508655 31 1 
757.333 1.20528 10.0116 -0.00050984 -0.000205733 10.0116 0.500637 31 1 
758.667 1.20526 10.0114 -0.000504444 -0.000105795 10.0114 0.478209 31 1 
760 1.20527 10.0111 -0.000493916 -0.000173754 10.0111 0.480656 31 1 
761.333 1.20528 10.0113 -0.000481396 -0.000481706 10.0113 0.502415 31 1 
762.667 1.20528 10.0118 -0.00047966 -0.000714975 10.0118 0.509267 31 1 
764 1.20528 10.012 -0.00048636 -0.000611489 10.012 0.511601 31 1 
765.333 1.20529 10.0118 -0.000493618 -0.000344496 10.0118 0.530689 31 1 
766.667 1.2053 10.0122 -0.000495554 -0.000278987 10.0122 0.550389 31 1 
768 1.20531 10.0127 -0.000487987 -0.000583166 10.0127 0.553188 31 1 
768 1.20531 10.0127 -0.000487987 -0.000583166 10.0127 0.553188 32 1 
769.333 1.20529 10.0121 -0.000477018 -0.000683256 10.0121 0.523292 32 1 
770.667 1.20527 10.0114 -0.000467358 -0.000462639 10.0114 0.485758 32 1 
772 1.20528 10.0118 -0.000463254 -0.000152585 10.0118 0.503267 32 1 
773.333 1.20531 10.0126 -0.000468255 -1.87716e-05 10.0126 0.55152 32 1 
774.667 1.20531 10.0128 -0.000466056 -0.000252541 10.0128 0.552813 32 1 
776 1.20528 10.0121 -0.000453672 -0.000511471 10.0121 0.507203 32 1 
777.333 1.20528 10.0118 -0.000434705 -0.000477126 10.0118 0.503585 32 1 
778.667 1.20531 10.0126 -0.000423 -0.000188909 10.0126 0.553831 32 1 
780 1.20532 10.0134 -0.000429188 -5.22906e-05 10.0134 0.580404 32 1 
781.333 1.20532 10.0128 -0.000438595 -0.00019527 10.0128 0.572053 32 1 
782.667 1.2053 10.0121 -0.00044809 -0.000475802 10.0121 0.537889 32 1 
784 1.20529 10.0127 -0.000443673 -0.00086266 10.0127 0.528447 32 1 
785.333 1.20533 10.0134 -0.000419009 -0.000747868 10.0134 0.586811 32 1 
786.667 1.20533 10.0133 -0.000399327 -0.000226182 10.0133 0.599086 32 1 
788 1.20529 10.0127 -0.00039986 0.000142498 10.0127 0.530667 32 1 
789.333 1.20528 10.0122 -0.000416125 2.87038e-05 10.0122 0.510192 32 1 
790.667 1.2053 10.0123 -0.000436153 -0.000468528 10.0123 0.54538 32 1 
792 1.20531 10.0132 -0.000437783 -0.000809806 10.0132 0.56138 32 1 
793.333 1.20532 10.0136 -0.000413386 -0.000833211 10.0136 0.578822 32 1 
794.667 1.20534 10.0134 -0.000389253 -0.000438346 10.0134 0.607513 32 1 
796 1.20534 10.0137 -0.000387507 -7.95223e-05 10.0137 0.614179 32 1 
797.333 1.20533 10.0133 -0.000404825 -0.000253438 10.0133 0.597262 32 1 
798.667 1.20532 10.0125 -0.000425135 -0.000580412 10.0125 0.574673 32 1 
800 1.20531 10.0122 -0.000433642 -0.000691231 10.0122 0.565269 32 1 
