86.9422;r ;Density                 ;Velocity u              ;Velocity v              ;Velocity w              ;|Velocity|              ;Pressure                ;Distribution            ;Levels                  ;
0 1.20714 9.9974 0.000509529 0.000879112 9.99741 3.85928 1 1 
1.33334 1.20707 9.99932 0.000144145 0.000210699 9.99932 3.73942 1 1 
2.66666 1.20696 10.0024 -0.000630711 -0.00119638 10.0024 3.53678 1 1 
4 1.20683 10.0042 -0.00132901 -0.00244 10.0042 3.3008 1 1 
5.33334 1.20674 10.006 -0.0018308 -0.00331228 10.006 3.14165 1 1 
6.66666 1.20673 10.0076 -0.00238208 -0.00429177 10.0076 3.1172 1 1 
8 1.2067 10.0084 -0.00289704 -0.00520803 10.0085 3.06636 1 1 
9.33334 1.20674 10.0101 -0.00328917 -0.0058766 10.0102 3.13406 1 1 
10.6667 1.2068 10.0116 -0.00377844 -0.00671017 10.0117 3.25791 1 1 
12 1.20687 10.012 -0.00412172 -0.00729019 10.0121 3.37308 1 1 
13.3333 1.20702 10.0133 -0.00429541 -0.00758767 10.0134 3.64017 1 1 
14.6667 1.20715 10.0147 -0.00448684 -0.00792046 10.0148 3.88322 1 1 
16 1.20728 10.015 -0.0044656 -0.00784533 10.0152 4.11906 1 1 
17.3333 1.20747 10.0156 -0.00433905 -0.0075876 10.0157 4.45551 1 1 
18.6667 1.20761 10.0164 -0.00417361 -0.00728941 10.0166 4.70664 1 1 
20 1.20775 10.0172 -0.00374232 -0.00651179 10.0173 4.97501 1 1 
21.3333 1.20793 10.0175 -0.00328843 -0.00567417 10.0176 5.28941 1 1 
21.3333 1.20793 10.0175 -0.00328843 -0.00567417 10.0176 5.28941 1 1 
22.6667 1.20803 10.0172 -0.00275339 -0.00471777 10.0173 5.48097 1 1 
24 1.20815 10.0182 -0.00198957 -0.00336267 10.0182 5.6867 1 1 
25.3333 1.20826 10.0187 -0.00126665 -0.00207497 10.0187 5.88079 1 1 
26.6667 1.20829 10.018 -0.000431986 -0.000612994 10.018 5.94923 1 1 
28 1.20834 10.0186 0.000512944 0.00103288 10.0186 6.02912 1 1 
29.3333 1.20834 10.0194 0.00133806 0.0024578 10.0194 6.03043 1 1 
30.6667 1.2083 10.0194 0.00226504 0.00407418 10.0194 5.95217 1 1 
32 1.20826 10.0197 0.00319064 0.00567316 10.0197 5.89515 1 1 
33.3333 1.20815 10.0204 0.00393553 0.00693895 10.0205 5.68142 1 1 
34.6667 1.20801 10.0211 0.00472178 0.00830683 10.0211 5.43391 1 1 
36 1.20791 10.0218 0.00537922 0.00945301 10.0218 5.25201 1 1 
37.3333 1.20773 10.0223 0.00587336 0.0103026 10.0223 4.93737 1 1 
38.6667 1.20754 10.0238 0.00636706 0.0111395 10.0239 4.58457 1 1 
40 1.20736 10.0249 0.00661903 0.0115645 10.025 4.2639 1 1 
41.3333 1.20716 10.0251 0.00673423 0.0117725 10.0253 3.9065 1 1 
42.6667 1.20698 10.0271 0.00682477 0.0119078 10.0272 3.57477 1 1 
42.6667 1.20698 10.0271 0.00682477 0.0119078 10.0272 3.57477 2 1 
44 1.20676 10.0288 0.00664993 0.0115702 10.029 3.18032 2 1 
45.3333 1.20653 10.0293 0.00634719 0.011059 10.0294 2.76269 2 1 
46.6667 1.20638 10.0309 0.0059447 0.0103843 10.031 2.48583 2 1 
48 1.20619 10.0332 0.00533413 0.00932238 10.0333 2.14093 2 1 
49.3333 1.20597 10.0346 0.0047052 0.00824837 10.0347 1.75687 2 1 
50.6667 1.20584 10.0355 0.00390727 0.00693051 10.0355 1.5148 2 1 
52 1.20571 10.0371 0.00294918 0.00532775 10.0372 1.28741 2 1 
53.3333 1.20561 10.0398 0.00208848 0.00389652 10.0398 1.10673 2 1 
54.6667 1.20555 10.0411 0.00112889 0.00229693 10.0411 0.987652 2 1 
56 1.2055 10.0413 0.000131711 0.000643781 10.0413 0.897729 2 1 
57.3333 1.20554 10.0437 -0.000729171 -0.000781085 10.0438 0.967821 2 1 
58.6667 1.20559 10.0461 -0.00160955 -0.00225327 10.0461 1.06063 2 1 
60 1.20563 10.0461 -0.00238572 -0.00349629 10.0462 1.14081 2 1 
61.3333 1.20577 10.0469 -0.00304559 -0.00456921 10.0469 1.38557 2 1 
62.6667 1.20591 10.0494 -0.00368873 -0.00564522 10.0494 1.64183 2 1 
64 1.20605 10.0504 -0.00410872 -0.00629671 10.0505 1.90483 2 1 
64 1.20605 10.0504 -0.00410872 -0.00629671 10.0505 1.90483 2 1 
65.3333 1.20625 10.0505 -0.00442067 -0.00676971 10.0505 2.25845 2 1 
66.6667 1.20644 10.0512 -0.00467195 -0.0072097 10.0513 2.59332 2 1 
68 1.20664 10.0531 -0.00466138 -0.0072195 10.0532 2.95385 2 1 
69.3333 1.20687 10.0536 -0.00457083 -0.00704922 10.0538 3.37352 2 1 
70.6667 1.20707 10.0526 -0.00435812 -0.00670821 10.0527 3.74678 2 1 
72 1.20728 10.0541 -0.00389689 -0.00599615 10.0542 4.12127 2 1 
73.3333 1.20749 10.0552 -0.00337266 -0.00516806 10.0553 4.49264 2 1 
74.6667 1.20766 10.0542 -0.00274448 -0.00409005 10.0542 4.80769 2 1 
76 1.20785 10.0541 -0.00197891 -0.00281633 10.0541 5.143 2 1 
77.3333 1.20796 10.0553 -0.00118519 -0.00155975 10.0553 5.34917 2 1 
78.6667 1.20803 10.0554 -0.000282815 -2.07559e-05 10.0554 5.48175 2 1 
80 1.20815 10.0543 0.000593448 0.00149662 10.0543 5.68532 2 1 
81.3333 1.20816 10.0547 0.0014118 0.00285525 10.0547 5.70409 2 1 
82.6667 1.20812 10.0556 0.00235902 0.00446942 10.0557 5.62658 2 1 
84 1.2081 10.0549 0.00317326 0.00590693 10.055 5.59449 2 1 
85.3333 1.20801 10.0542 0.0038698 0.00713655 10.0543 5.43501 2 1 
85.3333 1.20801 10.0542 0.0038698 0.00713655 10.0543 5.43501 3 1 
86.6667 1.20789 10.0558 0.00468807 0.00854895 10.0558 5.2215 3 1 
88 1.20775 10.0568 0.00537047 0.00975609 10.0569 4.96288 3 1 
89.3333 1.20756 10.0557 0.00589872 0.0107246 10.0558 4.63014 3 1 
90.6667 1.20739 10.0565 0.00641282 0.0116367 10.0566 4.31577 3 1 
92 1.20718 10.0585 0.00680176 0.0123221 10.0586 3.93494 3 1 
93.3333 1.20693 10.0586 0.00706443 0.0128373 10.0587 3.48244 3 1 
94.6667 1.20671 10.0587 0.00713412 0.0130284 10.0588 3.08076 3 1 
96 1.20649 10.0603 0.00707299 0.012951 10.0604 2.68603 3 1 
97.3333 1.20625 10.0627 0.00694185 0.0127711 10.0628 2.26193 3 1 
98.6667 1.20603 10.0631 0.00652924 0.0121584 10.0632 1.8595 3 1 
100 1.20583 10.0631 0.00603548 0.0113444 10.0631 1.50153 3 1 
101.333 1.20568 10.066 0.00554508 0.0105274 10.066 1.23576 3 1 
102.667 1.20553 10.0684 0.00485481 0.00939891 10.0684 0.960142 3 1 
104 1.20539 10.0682 0.00411449 0.00818469 10.0682 0.70791 3 1 
105.333 1.20536 10.0696 0.00339003 0.0069819 10.0696 0.646927 3 1 
106.667 1.20531 10.0733 0.00258628 0.00556234 10.0733 0.557401 3 1 
106.667 1.20531 10.0733 0.00258628 0.00556234 10.0733 0.557401 3 1 
108 1.20526 10.074 0.00181718 0.00426882 10.074 0.46573 3 1 
109.333 1.20532 10.0732 0.00105578 0.00296859 10.0732 0.5737 3 1 
110.667 1.20537 10.0754 0.00024985 0.0014951 10.0754 0.67322 3 1 
112 1.20543 10.0783 -0.000379862 0.000349887 10.0783 0.769579 3 1 
113.333 1.20557 10.078 -0.00103191 -0.000807778 10.078 1.03065 3 1 
114.667 1.2057 10.0778 -0.00170637 -0.00204439 10.0778 1.27341 3 1 
116 1.20585 10.0807 -0.00208031 -0.00284679 10.0807 1.53281 3 1 
117.333 1.20605 10.0812 -0.00242963 -0.00354749 10.0813 1.89666 3 1 
118.667 1.20621 10.0797 -0.0027273 -0.0041735 10.0798 2.18377 3 1 
120 1.20642 10.0798 -0.00276882 -0.00437809 10.0799 2.5617 3 1 
121.333 1.20662 10.0819 -0.00271298 -0.00442282 10.0819 2.9261 3 1 
122.667 1.20676 10.082 -0.00257158 -0.00429443 10.0821 3.188 3 1 
124 1.20698 10.0798 -0.00224599 -0.00382227 10.0799 3.56998 3 1 
125.333 1.20714 10.0815 -0.00180439 -0.0031943 10.0816 3.85785 3 1 
126.667 1.20724 10.0826 -0.00128762 -0.00238084 10.0826 4.04489 3 1 
128 1.20736 10.0799 -0.000698909 -0.00140002 10.0799 4.26678 3 1 
128 1.20736 10.0799 -0.000698909 -0.00140002 10.0799 4.26678 3 1 
129.333 1.20747 10.0788 -8.98367e-05 -0.000358606 10.0788 4.45509 3 1 
130.667 1.20752 10.0808 0.000660443 0.000895495 10.0809 4.55044 3 1 
132 1.20754 10.0813 0.00140231 0.00218202 10.0813 4.57925 3 1 
133.333 1.20755 10.0785 0.00208451 0.00344312 10.0785 4.60308 3 1 
134.667 1.20753 10.0791 0.00285114 0.00482197 10.0791 4.57861 3 1 
136 1.20747 10.081 0.00358903 0.00614424 10.081 4.46135 3 1 
137.333 1.20737 10.079 0.00423451 0.00738204 10.079 4.27695 3 1 
138.667 1.20728 10.0775 0.00481902 0.00857729 10.0775 4.12421 3 1 
140 1.20716 10.0804 0.00539102 0.00963597 10.0804 3.91031 3 1 
141.333 1.20699 10.082 0.00584166 0.0105652 10.082 3.59988 3 1 
142.667 1.20685 10.0793 0.00615643 0.0112974 10.0794 3.33321 3 1 
144 1.2067 10.0793 0.00637445 0.0118189 10.0794 3.06174 3 1 
145.333 1.20652 10.0823 0.00652057 0.0122012 10.0824 2.73696 3 1 
146.667 1.20634 10.0824 0.00651325 0.0123444 10.0825 2.4257 3 1 
148 1.20619 10.0807 0.00634525 0.0122545 10.0807 2.15252 3 1 
149.333 1.20605 10.0829 0.00613658 0.0120099 10.083 1.88879 3 1 
149.333 1.20605 10.0829 0.00613658 0.0120099 10.083 1.88879 3 1 
150.667 1.2059 10.0858 0.00582251 0.0115647 10.0858 1.63061 3 1 
152 1.20578 10.0839 0.00540535 0.0109493 10.0839 1.40794 3 1 
153.333 1.20568 10.0834 0.00495003 0.0102471 10.0834 1.23701 3 1 
154.667 1.2056 10.0869 0.00446527 0.00940855 10.0869 1.08681 3 1 
156 1.20553 10.0879 0.00393017 0.00848674 10.0879 0.955215 3 1 
157.333 1.2055 10.0861 0.00333448 0.00752298 10.0861 0.899922 3 1 
158.667 1.2055 10.0871 0.00279649 0.00654376 10.0871 0.910204 3 1 
160 1.2055 10.0899 0.00229993 0.00557922 10.0899 0.904113 3 1 
161.333 1.20551 10.0893 0.00179172 0.00462351 10.0893 0.917072 3 1 
162.667 1.20559 10.0871 0.00135124 0.00378497 10.0871 1.05926 3 1 
164 1.20567 10.0891 0.00102325 0.00305401 10.0892 1.20589 3 1 
165.333 1.20572 10.0916 0.000739165 0.00241749 10.0916 1.30294 3 1 
166.667 1.20584 10.0883 0.000518281 0.00193055 10.0883 1.51043 3 1 
168 1.20594 10.0878 0.000420497 0.00159316 10.0879 1.70584 3 1 
169.333 1.20604 10.0911 0.000426256 0.00141536 10.0911 1.88724 3 1 
170.667 1.20617 10.0901 0.000516648 0.00140922 10.0901 2.11107 3 1 
170.667 1.20617 10.0901 0.000516648 0.00140922 10.0901 2.11107 11 1 
172 1.20627 10.0879 0.000657549 0.00152016 10.088 2.2939 11 1 
173.333 1.20639 10.0882 0.000929301 0.00181448 10.0882 2.51418 11 1 
174.667 1.2065 10.0898 0.00123824 0.00223472 10.0898 2.702 11 1 
176 1.20657 10.0874 0.00157492 0.00271539 10.0874 2.8344 11 1 
177.333 1.20666 10.0848 0.00196323 0.00332014 10.0848 2.99137 11 1 
178.667 1.20673 10.0866 0.00238383 0.00398074 10.0866 3.13223 11 1 
180 1.20678 10.087 0.00283313 0.00465642 10.087 3.2062 11 1 
181.333 1.2068 10.0849 0.00320444 0.00532289 10.085 3.24738 11 1 
182.667 1.20683 10.0845 0.00358971 0.00604282 10.0845 3.30446 11 1 
184 1.20684 10.0854 0.00395746 0.00669381 10.0854 3.32301 11 1 
185.333 1.2068 10.0838 0.00421261 0.00723324 10.0838 3.24547 11 1 
186.667 1.20676 10.0802 0.00436689 0.00769985 10.0802 3.18401 11 1 
188 1.20673 10.0809 0.00454641 0.00811236 10.0809 3.13316 11 1 
189.333 1.20666 10.0835 0.00469994 0.00846185 10.0835 2.99329 11 1 
190.667 1.20659 10.0812 0.00466271 0.00864742 10.0812 2.86778 11 1 
192 1.20652 10.0791 0.00460672 0.00882901 10.0791 2.75105 11 1 
192 1.20652 10.0791 0.00460672 0.00882901 10.0791 2.75105 11 1 
193.333 1.20644 10.0808 0.00456471 0.00890831 10.0808 2.59596 11 1 
194.667 1.20634 10.0797 0.00430428 0.00880879 10.0797 2.41942 11 1 
196 1.20625 10.0765 0.00405546 0.00869991 10.0765 2.24991 11 1 
197.333 1.20619 10.0775 0.00383657 0.00850478 10.0775 2.1464 11 1 
198.667 1.20615 10.0791 0.00349469 0.00820012 10.0791 2.07237 11 1 
200 1.20608 10.0777 0.00322387 0.00799735 10.0777 1.94313 11 1 
201.333 1.20601 10.075 0.00285758 0.00763697 10.075 1.8296 11 1 
202.667 1.20601 10.0734 0.00247928 0.00716524 10.0734 1.83094 11 1 
204 1.206 10.0745 0.00227877 0.00699601 10.0745 1.79735 11 1 
205.333 1.20599 10.074 0.00192861 0.00666372 10.074 1.78044 11 1 
206.667 1.20605 10.0726 0.00169604 0.00635223 10.0726 1.89727 11 1 
208 1.20608 10.075 0.00165678 0.00622114 10.075 1.94624 11 1 
209.333 1.20611 10.0737 0.00141984 0.00595406 10.0737 2.0035 11 1 
210.667 1.20617 10.0674 0.00127597 0.00572638 10.0674 2.11407 11 1 
212 1.20622 10.0647 0.00128074 0.00556169 10.0647 2.20109 11 1 
213.333 1.20628 10.0647 0.00129573 0.00552307 10.0647 2.32081 11 1 
213.333 1.20628 10.0647 0.00129573 0.00552307 10.0647 2.32081 11 1 
214.667 1.20634 10.063 0.00131331 0.00551277 10.063 2.42846 11 1 
216 1.20639 10.0613 0.00139098 0.00551794 10.0613 2.50531 11 1 
217.333 1.20644 10.0627 0.00165696 0.00563885 10.0627 2.59717 11 1 
218.667 1.2065 10.0617 0.00190567 0.00582568 10.0617 2.70176 11 1 
220 1.20649 10.0564 0.00210379 0.00599227 10.0564 2.69045 11 1 
221.333 1.20648 10.0513 0.00240632 0.0062091 10.0513 2.66789 11 1 
222.667 1.20648 10.0479 0.002721 0.00653759 10.0479 2.67931 11 1 
224 1.20643 10.0465 0.00294644 0.00686856 10.0465 2.59001 11 1 
225.333 1.20642 10.0436 0.0032017 0.00721625 10.0436 2.56173 11 1 
226.667 1.20643 10.0423 0.00362642 0.00770251 10.0423 2.58293 11 1 
228 1.20638 10.0433 0.00405015 0.00824194 10.0433 2.49477 11 1 
229.333 1.20632 10.0366 0.00427869 0.00868801 10.0366 2.38674 11 1 
230.667 1.20629 10.0294 0.00444248 0.00907854 10.0294 2.32896 11 1 
232 1.20627 10.0285 0.00472376 0.00956956 10.0285 2.29844 11 1 
233.333 1.20629 10.0271 0.00499532 0.0101098 10.0271 2.33519 11 1 
234.667 1.20633 10.023 0.00523137 0.0106189 10.023 2.40909 11 1 
234.667 1.20633 10.023 0.00523137 0.0106189 10.023 2.40909 11 1 
236 1.20632 10.0204 0.00535743 0.0110149 10.0204 2.38698 11 1 
237.333 1.20639 10.0163 0.00542376 0.011258 10.0163 2.51866 11 1 
238.667 1.20648 10.0093 0.00539143 0.0113552 10.0094 2.66814 11 1 
240 1.20651 10.0047 0.00532932 0.0115006 10.0047 2.72317 11 1 
241.333 1.20668 10.0006 0.0053614 0.0116774 10.0006 3.03313 11 1 
242.667 1.20677 9.9998 0.00527688 0.011652 9.99981 3.20296 11 1 
244 1.20687 9.99146 0.00500899 0.0113951 9.99147 3.37578 11 1 
245.333 1.20697 9.98203 0.00472747 0.0110752 9.98203 3.55822 11 1 
246.667 1.20708 9.97729 0.0046078 0.0108837 9.9773 3.75114 11 1 
248 1.20722 9.96906 0.00427819 0.0103419 9.96906 4.00819 11 1 
249.333 1.20724 9.96188 0.00409092 0.0100256 9.96189 4.03836 11 1 
250.667 1.20732 9.95284 0.00386181 0.00972253 9.95285 4.19872 11 1 
252 1.20737 9.94579 0.00337392 0.00907175 9.9458 4.27608 11 1 
253.333 1.20742 9.93191 0.00316526 0.00871571 9.93192 4.36428 11 1 
254.667 1.20739 9.9215 0.0029801 0.00841792 9.92151 4.3158 11 1 
256 1.20737 9.91356 0.00283699 0.00818036 9.91358 4.2828 11 1 
256 1.20737 9.91356 0.00283699 0.00818036 9.91358 4.2828 13 1 
257.333 1.20743 9.90018 0.00277296 0.00804148 9.9002 4.38629 13 1 
258.667 1.20733 9.88756 0.00251744 0.0078501 9.88758 4.20944 13 1 
260 1.20731 9.87321 0.00248232 0.00797307 9.87323 4.17405 13 1 
261.333 1.20739 9.85864 0.0026006 0.00828123 9.85866 4.31921 13 1 
262.667 1.20739 9.84184 0.00259743 0.00851696 9.84186 4.31901 13 1 
264 1.20731 9.82937 0.00266546 0.00885676 9.82938 4.17305 13 1 
265.333 1.20746 9.81196 0.00285334 0.00931455 9.81198 4.44842 13 1 
266.667 1.20769 9.78685 0.00310053 0.00985804 9.78686 4.85072 13 1 
268 1.20761 9.76967 0.00326667 0.0103725 9.76968 4.70638 13 1 
269.333 1.20783 9.74721 0.00346004 0.0109083 9.74722 5.10869 13 1 
270.667 1.20829 9.71597 0.00362192 0.0113881 9.71598 5.93708 13 1 
272 1.2082 9.70099 0.00380661 0.0118016 9.701 5.78116 13 1 
273.333 1.20855 9.66707 0.00402843 0.012155 9.66708 6.40532 13 1 
274.667 1.20918 9.62377 0.00418549 0.0124016 9.62378 7.55369 13 1 
276 1.20915 9.60059 0.00429838 0.0125492 9.60061 7.50054 13 1 
277.333 1.20953 9.55186 0.00436728 0.012599 9.55187 8.18366 13 1 
277.333 1.20953 9.55186 0.00436728 0.012599 9.55187 8.18366 13 1 
278.667 1.21011 9.50331 0.00437867 0.0125735 9.50333 9.23044 13 1 
280 1.21031 9.4595 0.00436767 0.012491 9.45952 9.59725 13 1 
281.333 1.21065 9.39841 0.00433511 0.0123413 9.39843 10.2007 13 1 
282.667 1.21106 9.34743 0.00428226 0.0121333 9.34744 10.9434 13 1 
284 1.21159 9.29667 0.00425209 0.0118954 9.29669 11.902 13 1 
285.333 1.2121 9.23129 0.00417389 0.0116271 9.23138 12.8156 13 1 
286.667 1.21234 9.14102 0.00400823 0.0113506 9.14123 13.2583 13 1 
288 1.21262 9.03544 0.00389284 0.0111471 9.03563 13.7698 13 1 
289.333 1.21318 8.94976 0.00379864 0.0110198 8.94985 14.7668 13 1 
290.667 1.21394 8.86542 0.00369149 0.0109074 8.86551 16.1416 13 1 
292 1.21447 8.76524 0.00364564 0.0108556 8.76545 17.102 13 1 
293.333 1.21476 8.65866 0.00358742 0.010767 8.65896 17.6201 13 1 
294.667 1.21536 8.54176 0.00347612 0.0107271 8.54239 18.7159 13 1 
296 1.21613 8.43044 0.00336062 0.0105657 8.43094 20.1041 13 1 
297.333 1.21616 8.3734 0.00293615 0.0101727 8.37586 20.164 13 1 
298.667 1.20863 8.3023 0.00211978 0.0123574 8.72439 6.55377 13 1 
298.667 1.20863 8.3023 0.00211978 0.0123574 8.72439 6.55377 14 1 
300 1.19635 8.35573 0.000140637 0.0154382 8.89115 -15.6225 14 1 
301.333 1.192 8.3681 -0.00260568 0.0160193 8.62089 -23.4898 14 1 
302.667 1.19356 8.14754 -0.00502124 0.0157667 8.33625 -20.6563 14 1 
304 1.19513 7.93573 -0.00682762 0.0157865 8.06677 -17.8306 14 1 
305.333 1.19614 7.74803 -0.00834382 0.0160074 7.84977 -16.01 14 1 
306.667 1.197 7.58563 -0.00960389 0.016064 7.64768 -14.4456 14 1 
308 1.19778 7.44407 -0.0107121 0.0162151 7.50419 -13.0464 14 1 
309.333 1.19842 7.31872 -0.0117981 0.0163662 7.37151 -11.8873 14 1 
310.667 1.19915 7.21373 -0.0128562 0.0164843 7.26229 -10.5744 14 1 
312 1.1997 7.11917 -0.0138331 0.0165629 7.15631 -9.57985 14 1 
313.333 1.20015 7.02983 -0.0147575 0.0166025 7.06457 -8.75735 14 1 
314.667 1.20063 6.94684 -0.0156198 0.0166576 6.9799 -7.89439 14 1 
316 1.20098 6.87196 -0.0165325 0.0166125 6.90303 -7.26392 14 1 
317.333 1.2013 6.80702 -0.0174075 0.0165141 6.83426 -6.67554 14 1 
318.667 1.20172 6.75079 -0.0181753 0.0164994 6.77681 -5.91885 14 1 
320 1.20199 6.69242 -0.0189716 0.0164571 6.71649 -5.43752 14 1 
320 1.20199 6.69242 -0.0189716 0.0164571 6.71649 -5.43752 14 1 
321.333 1.20214 6.63748 -0.0197738 0.0163343 6.66092 -5.17406 14 1 
322.667 1.20239 6.59466 -0.0205345 0.016229 6.61613 -4.72189 14 1 
324 1.20265 6.55079 -0.021246 0.0161638 6.57132 -4.25219 14 1 
325.333 1.20277 6.50963 -0.0219611 0.0161104 6.52925 -4.03545 14 1 
326.667 1.20291 6.48059 -0.0226397 0.0160414 6.4993 -3.77871 14 1 
328 1.20312 6.45038 -0.0232999 0.0159826 6.46792 -3.40175 14 1 
329.333 1.20325 6.41861 -0.0239392 0.0159538 6.43577 -3.16011 14 1 
330.667 1.20332 6.39059 -0.0245645 0.0159252 6.40696 -3.04184 14 1 
332 1.20342 6.36696 -0.0251662 0.0158737 6.38289 -2.85949 14 1 
333.333 1.20361 6.35259 -0.0257254 0.0158257 6.36777 -2.51413 14 1 
334.667 1.20377 6.33465 -0.0262354 0.0158178 6.34935 -2.21518 14 1 
336 1.20379 6.30709 -0.0267785 0.0157925 6.32139 -2.19375 14 1 
337.333 1.20383 6.28686 -0.0273287 0.015664 6.30093 -2.11826 14 1 
338.667 1.20401 6.27583 -0.0278173 0.0155688 6.28944 -1.78222 14 1 
340 1.20418 6.26561 -0.0282306 0.0155669 6.27881 -1.48133 14 1 
341.333 1.20422 6.24834 -0.028685 0.0154931 6.26108 -1.39986 14 1 
341.333 1.20422 6.24834 -0.028685 0.0154931 6.26108 -1.39986 15 1 
342.667 1.20423 6.22388 -0.0291602 0.0153171 6.23652 -1.38596 15 1 
344 1.20435 6.2099 -0.0295782 0.0151894 6.22229 -1.17764 15 1 
345.333 1.2045 6.20515 -0.0299394 0.0150824 6.21718 -0.898652 15 1 
346.667 1.20456 6.19264 -0.0303814 0.0149342 6.20425 -0.79222 15 1 
348 1.2046 6.17403 -0.03086 0.0147621 6.18545 -0.719353 15 1 
349.333 1.20465 6.1565 -0.0313271 0.0146497 6.16776 -0.630301 15 1 
350.667 1.20472 6.14753 -0.031726 0.0145834 6.1585 -0.50999 15 1 
352 1.20483 6.14385 -0.0321076 0.014472 6.15439 -0.315518 15 1 
353.333 1.20487 6.12988 -0.0325465 0.0142949 6.14023 -0.23916 15 1 
354.667 1.20488 6.11323 -0.0329934 0.014128 6.12339 -0.223871 15 1 
356 1.20493 6.10541 -0.0333319 0.0140099 6.11531 -0.122233 15 1 
357.333 1.20498 6.09878 -0.0336832 0.0139136 6.10839 -0.0336406 15 1 
358.667 1.20503 6.09124 -0.0341109 0.0137753 6.10063 0.0550451 15 1 
360 1.20507 6.08256 -0.0345562 0.0136179 6.09173 0.125448 15 1 
361.333 1.20508 6.07218 -0.0349332 0.0135396 6.08114 0.147905 15 1 
362.667 1.20512 6.0656 -0.0352876 0.0135588 6.07431 0.21575 15 1 
362.667 1.20512 6.0656 -0.0352876 0.0135588 6.07431 0.21575 15 1 
364 1.20516 6.06137 -0.0356917 0.0135523 6.06992 0.293092 15 1 
365.333 1.20519 6.05593 -0.0361452 0.0134894 6.06429 0.344138 15 1 
366.667 1.20522 6.04944 -0.0365533 0.0134748 6.05759 0.398411 15 1 
368 1.20525 6.04276 -0.0369268 0.0135564 6.05069 0.452794 15 1 
369.333 1.20528 6.03854 -0.0373122 0.0136529 6.04636 0.514804 15 1 
370.667 1.20531 6.03512 -0.037742 0.0137135 6.04282 0.560183 15 1 
372 1.20534 6.03093 -0.0381813 0.0137661 6.03843 0.619038 15 1 
373.333 1.20539 6.02701 -0.0385775 0.0138558 6.0343 0.699697 15 1 
374.667 1.20541 6.02201 -0.0389661 0.0139869 6.02922 0.741548 15 1 
376 1.20544 6.01827 -0.0394154 0.0141139 6.02538 0.795468 15 1 
377.333 1.20548 6.01652 -0.039892 0.0142081 6.02349 0.864654 15 1 
378.667 1.2055 6.01283 -0.0403718 0.0142816 6.01965 0.90569 15 1 
380 1.20554 6.00891 -0.0408316 0.014396 6.01562 0.970565 15 1 
381.333 1.20557 6.00588 -0.0413078 0.0145511 6.01249 1.03231 15 1 
382.667 1.20559 6.00242 -0.0418417 0.0146666 6.00895 1.06329 15 1 
384 1.20562 5.99999 -0.0423793 0.0147447 6.00641 1.116 15 1 
384 1.20562 5.99999 -0.0423793 0.0147447 6.00641 1.116 15 1 
385.333 1.20565 5.99744 -0.0428903 0.0148586 6.00375 1.17012 15 1 
386.667 1.20567 5.99359 -0.0434264 0.0149895 5.99981 1.20642 15 1 
388 1.20569 5.99028 -0.0439494 0.0150963 5.99644 1.24759 15 1 
389.333 1.20571 5.98763 -0.0444747 0.0151896 5.9937 1.28301 15 1 
390.667 1.20572 5.98482 -0.0450471 0.0152761 5.99081 1.30835 15 1 
392 1.20574 5.98164 -0.0455761 0.01538 5.98756 1.34007 15 1 
393.333 1.20576 5.97833 -0.0460394 0.0154926 5.98418 1.37801 15 1 
394.667 1.20578 5.97515 -0.0465399 0.0155819 5.9809 1.40506 15 1 
396 1.20579 5.97203 -0.0470468 0.0156566 5.97772 1.42726 15 1 
397.333 1.2058 5.9692 -0.0474937 0.0157537 5.97483 1.454 15 1 
398.667 1.20581 5.96592 -0.0478995 0.0158442 5.97147 1.46867 15 1 
400 1.20582 5.9621 -0.0482854 0.0159072 5.96755 1.48463 15 1 
401.333 1.20584 5.95926 -0.0486478 0.0159839 5.96464 1.52378 15 1 
402.667 1.20586 5.95676 -0.0490078 0.0160719 5.96207 1.55685 15 1 
404 1.20587 5.9534 -0.049356 0.0161019 5.95865 1.56569 15 1 
405.333 1.20588 5.95002 -0.049656 0.0161404 5.95517 1.58135 15 1 
405.333 1.20588 5.95002 -0.049656 0.0161404 5.95517 1.58135 15 1 
406.667 1.2059 5.94724 -0.0499226 0.0162379 5.95231 1.62188 15 1 
408 1.20592 5.94488 -0.0502138 0.0163008 5.94988 1.66316 15 1 
409.333 1.20593 5.94213 -0.050515 0.0162864 5.94707 1.68134 15 1 
410.667 1.20594 5.93866 -0.0507818 0.0163025 5.94353 1.69038 15 1 
412 1.20595 5.93581 -0.0510028 0.0163864 5.94061 1.71782 15 1 
413.333 1.20597 5.93386 -0.0512129 0.016436 5.93859 1.7595 15 1 
414.667 1.20599 5.93121 -0.0514537 0.0163995 5.93586 1.79052 15 1 
416 1.206 5.92786 -0.0517017 0.0163878 5.93246 1.80965 15 1 
417.333 1.20601 5.92524 -0.0519008 0.0164301 5.92978 1.83274 15 1 
418.667 1.20603 5.92291 -0.0520826 0.0164374 5.92739 1.85721 15 1 
420 1.20604 5.9199 -0.0522927 0.0164047 5.9243 1.88015 15 1 
421.333 1.20605 5.91682 -0.0525123 0.0164043 5.92117 1.90481 15 1 
422.667 1.20607 5.91415 -0.0527079 0.0164133 5.91845 1.92381 15 1 
424 1.20607 5.91135 -0.052903 0.0164125 5.91559 1.93779 15 1 
425.333 1.20608 5.90834 -0.0531204 0.0164304 5.91253 1.95673 15 1 
426.667 1.20609 5.90544 -0.0533433 0.0164726 5.90957 1.97782 15 1 
426.667 1.20609 5.90544 -0.0533433 0.0164726 5.90957 1.97782 20 1 
428 1.20611 5.90269 -0.0535777 0.0164894 5.90677 1.99624 20 1 
429.333 1.20612 5.90002 -0.0538413 0.0164936 5.90405 2.0162 20 1 
430.667 1.20613 5.89725 -0.0541028 0.0165326 5.90124 2.03355 20 1 
432 1.20613 5.89438 -0.0543729 0.0165707 5.89831 2.04181 20 1 
433.333 1.20614 5.89172 -0.0546643 0.0165934 5.89561 2.05524 20 1 
434.667 1.20615 5.8894 -0.0549558 0.0166538 5.89324 2.08168 20 1 
436 1.20616 5.88697 -0.0552492 0.0167253 5.89079 2.10078 20 1 
437.333 1.20617 5.88439 -0.0555409 0.0167704 5.88817 2.10748 20 1 
438.667 1.20618 5.88213 -0.0557992 0.0168182 5.88587 2.12313 20 1 
440 1.20619 5.88005 -0.0560585 0.0168782 5.88376 2.15104 20 1 
441.333 1.2062 5.87792 -0.0563475 0.0169081 5.8816 2.17237 20 1 
442.667 1.20621 5.87602 -0.0566479 0.0169071 5.87966 2.18743 20 1 
444 1.20622 5.87413 -0.0569416 0.0169226 5.87774 2.208 20 1 
445.333 1.20623 5.872 -0.0572395 0.0169792 5.8756 2.2248 20 1 
446.667 1.20624 5.87016 -0.0575505 0.017018 5.87373 2.23881 20 1 
448 1.20625 5.86872 -0.057863 0.0170313 5.87225 2.26335 20 1 
448 1.20625 5.86872 -0.057863 0.0170313 5.87225 2.26335 20 1 
449.333 1.20627 5.86711 -0.0581823 0.0170511 5.87061 2.28796 20 1 
450.667 1.20627 5.86537 -0.0585085 0.0170782 5.86885 2.30186 20 1 
452 1.20628 5.86381 -0.0588037 0.017111 5.86727 2.31436 20 1 
453.333 1.20629 5.86234 -0.0590904 0.0171369 5.86576 2.33442 20 1 
454.667 1.20631 5.86103 -0.0593964 0.0171436 5.86442 2.36031 20 1 
456 1.20632 5.85993 -0.0596791 0.017156 5.8633 2.38052 20 1 
457.333 1.20632 5.85861 -0.0599229 0.0171712 5.86195 2.39167 20 1 
458.667 1.20633 5.8571 -0.0601684 0.0171607 5.86041 2.40412 20 1 
460 1.20634 5.85598 -0.0604059 0.017172 5.85926 2.4237 20 1 
461.333 1.20635 5.8552 -0.0606237 0.0171974 5.85846 2.44637 20 1 
462.667 1.20636 5.85424 -0.0608432 0.017181 5.85748 2.46461 20 1 
464 1.20637 5.85311 -0.0610616 0.0171709 5.85632 2.48012 20 1 
465.333 1.20638 5.85206 -0.0612603 0.0172034 5.85525 2.49636 20 1 
466.667 1.20639 5.85108 -0.0614545 0.0172492 5.85425 2.51274 20 1 
468 1.2064 5.8504 -0.0616723 0.0172703 5.85354 2.53688 20 1 
469.333 1.20642 5.8498 -0.0619074 0.0172974 5.85292 2.56312 20 1 
469.333 1.20642 5.8498 -0.0619074 0.0172974 5.85292 2.56312 20 1 
470.667 1.20643 5.84864 -0.0621276 0.017361 5.85174 2.57624 20 1 
472 1.20643 5.84738 -0.0623491 0.0174427 5.85047 2.58999 20 1 
473.333 1.20645 5.84672 -0.0625926 0.0175262 5.84979 2.61423 20 1 
474.667 1.20646 5.84594 -0.0628502 0.0176176 5.84899 2.63666 20 1 
476 1.20647 5.84471 -0.0631032 0.0177201 5.84774 2.65548 20 1 
477.333 1.20648 5.84354 -0.0633639 0.0178337 5.84656 2.67549 20 1 
478.667 1.20649 5.84233 -0.0636432 0.0179649 5.84533 2.69408 20 1 
480 1.2065 5.84097 -0.0639277 0.0180827 5.84395 2.71052 20 1 
481.333 1.20651 5.83968 -0.0642124 0.0182005 5.84264 2.73097 20 1 
482.667 1.20652 5.83836 -0.064504 0.0183263 5.84131 2.75419 20 1 
484 1.20653 5.83676 -0.0647895 0.0184393 5.8397 2.77181 20 1 
485.333 1.20654 5.83505 -0.0650667 0.018548 5.83796 2.78518 20 1 
486.667 1.20655 5.8334 -0.0653524 0.0186647 5.8363 2.80318 20 1 
488 1.20656 5.83176 -0.0656377 0.0187787 5.83465 2.82421 20 1 
489.333 1.20657 5.83014 -0.0659087 0.0188701 5.83301 2.8425 20 1 
490.667 1.20658 5.82845 -0.0661661 0.0189668 5.83131 2.86118 20 1 
490.667 1.20658 5.82845 -0.0661661 0.0189668 5.83131 2.86118 20 1 
492 1.20659 5.82651 -0.0664187 0.0190729 5.82935 2.87886 20 1 
493.333 1.2066 5.82451 -0.0666734 0.0191574 5.82734 2.89443 20 1 
494.667 1.20661 5.8229 -0.0669243 0.0192263 5.82573 2.91444 20 1 
496 1.20663 5.8214 -0.067182 0.0193052 5.82421 2.93893 20 1 
497.333 1.20664 5.81945 -0.0674554 0.0193932 5.82225 2.95859 20 1 
498.667 1.20665 5.8175 -0.067731 0.0194672 5.82029 2.97412 20 1 
500 1.20666 5.81598 -0.0680207 0.0195453 5.81877 2.99645 20 1 
501.333 1.20667 5.81453 -0.068338 0.0196338 5.81732 3.02122 20 1 
502.667 1.20668 5.81294 -0.06867 0.0197184 5.81572 3.0415 20 1 
504 1.2067 5.81139 -0.0690186 0.0198022 5.81417 3.06284 20 1 
505.333 1.20671 5.80981 -0.0693895 0.0198823 5.81258 3.08483 20 1 
506.667 1.20672 5.8083 -0.0697753 0.0199842 5.81106 3.10419 20 1 
508 1.20673 5.80705 -0.0701674 0.020123 5.80982 3.12734 20 1 
509.333 1.20675 5.80578 -0.0705803 0.0202599 5.80854 3.15375 20 1 
510.667 1.20676 5.80433 -0.0709945 0.020383 5.80709 3.17359 20 1 
512 1.20677 5.80295 -0.0713896 0.020553 5.80571 3.1911 20 1 
512 1.20677 5.80295 -0.0713896 0.020553 5.80571 3.1911 21 1 
513.333 1.20678 5.80176 -0.0717873 0.0207602 5.80451 3.21286 21 1 
514.667 1.20679 5.80065 -0.0721924 0.0209475 5.8034 3.23513 21 1 
516 1.2068 5.79959 -0.0725838 0.0211231 5.80234 3.25641 21 1 
517.333 1.20681 5.79858 -0.0729811 0.0213189 5.80132 3.27676 21 1 
518.667 1.20682 5.79756 -0.073392 0.0215205 5.8003 3.29514 21 1 
520 1.20683 5.79663 -0.0737911 0.0217046 5.79936 3.31371 21 1 
521.333 1.20685 5.79601 -0.0741909 0.0219084 5.79873 3.33573 21 1 
522.667 1.20686 5.79551 -0.074617 0.0221342 5.79822 3.35825 21 1 
524 1.20687 5.79493 -0.0750451 0.0223552 5.79763 3.37805 21 1 
525.333 1.20688 5.79449 -0.0754365 0.0226136 5.79719 3.39726 21 1 
526.667 1.20689 5.79425 -0.0758324 0.0229103 5.79694 3.41835 21 1 
528 1.20691 5.79421 -0.0762447 0.0231982 5.79689 3.4411 21 1 
529.333 1.20692 5.79434 -0.0766198 0.0234915 5.79702 3.46504 21 1 
530.667 1.20693 5.79447 -0.0769537 0.0238092 5.79714 3.48734 21 1 
532 1.20694 5.79475 -0.0772904 0.0241189 5.7974 3.51049 21 1 
533.333 1.20696 5.79525 -0.0776168 0.0244252 5.79789 3.53637 21 1 
533.333 1.20696 5.79525 -0.0776168 0.0244252 5.79789 3.53637 21 1 
534.667 1.20697 5.79578 -0.0779136 0.0247345 5.79841 3.55778 21 1 
536 1.20698 5.79642 -0.0782098 0.0250338 5.79904 3.58066 21 1 
537.333 1.207 5.79732 -0.0785115 0.025324 5.79993 3.60937 21 1 
538.667 1.20701 5.7982 -0.0788048 0.0256205 5.8008 3.63346 21 1 
540 1.20702 5.79896 -0.0790916 0.0259222 5.80155 3.65276 21 1 
541.333 1.20704 5.79989 -0.0793738 0.0262228 5.80246 3.67625 21 1 
542.667 1.20705 5.80111 -0.0796344 0.0265518 5.80368 3.7033 21 1 
544 1.20706 5.80235 -0.079887 0.0268865 5.8049 3.72626 21 1 
545.333 1.20707 5.80338 -0.0801295 0.0272085 5.80592 3.74631 21 1 
546.667 1.20709 5.80441 -0.0803413 0.0275062 5.80694 3.76751 21 1 
548 1.2071 5.80565 -0.0805322 0.0277703 5.80816 3.78936 21 1 
549.333 1.20711 5.80699 -0.0807106 0.027997 5.8095 3.81187 21 1 
550.667 1.20712 5.80817 -0.0808748 0.0281831 5.81066 3.83387 21 1 
552 1.20713 5.80909 -0.0809932 0.0283891 5.81157 3.85225 21 1 
553.333 1.20714 5.81019 -0.0810797 0.0286141 5.81265 3.87092 21 1 
554.667 1.20716 5.81144 -0.0811717 0.0288662 5.81389 3.89284 21 1 
554.667 1.20716 5.81144 -0.0811717 0.0288662 5.81389 3.89284 22 1 
556 1.20717 5.81261 -0.0812413 0.0291516 5.81505 3.91357 22 1 
557.333 1.20718 5.81378 -0.0812769 0.0294404 5.8162 3.93486 22 1 
558.667 1.20719 5.81487 -0.0812894 0.029702 5.81728 3.95427 22 1 
560 1.2072 5.81583 -0.0812776 0.0299144 5.81822 3.97189 22 1 
561.333 1.20721 5.81685 -0.0812332 0.0301128 5.81922 3.99382 22 1 
562.667 1.20722 5.81791 -0.0811653 0.0303173 5.82027 4.01491 22 1 
564 1.20723 5.81879 -0.0810967 0.0305506 5.82114 4.0345 22 1 
565.333 1.20725 5.81959 -0.0810604 0.03082 5.82192 4.05537 22 1 
566.667 1.20726 5.82047 -0.081077 0.0311075 5.82279 4.07562 22 1 
568 1.20727 5.82153 -0.0811271 0.0313875 5.82383 4.09554 22 1 
569.333 1.20728 5.8226 -0.0812137 0.031564 5.82489 4.11523 22 1 
570.667 1.20729 5.82355 -0.0813036 0.031646 5.82582 4.13494 22 1 
572 1.2073 5.82434 -0.0813707 0.0316937 5.8266 4.15274 22 1 
573.333 1.20731 5.825 -0.0814392 0.0318283 5.82724 4.16927 22 1 
574.667 1.20732 5.82577 -0.0815256 0.0321886 5.828 4.18826 22 1 
576 1.20733 5.82655 -0.0816169 0.0327871 5.82877 4.20698 22 1 
576 1.20733 5.82655 -0.0816169 0.0327871 5.82877 4.20698 22 1 
577.333 1.20734 5.82721 -0.0816398 0.0335542 5.82943 4.2214 22 1 
578.667 1.20735 5.82802 -0.0815327 0.0343069 5.83022 4.23646 22 1 
580 1.20735 5.82902 -0.0812973 0.0348561 5.8312 4.25344 22 1 
581.333 1.20736 5.82999 -0.0809991 0.0351014 5.83216 4.26905 22 1 
582.667 1.20737 5.83086 -0.0807226 0.0351221 5.83301 4.28474 22 1 
584 1.20738 5.83166 -0.0805581 0.0350874 5.8338 4.29872 22 1 
585.333 1.20739 5.83248 -0.0805587 0.0351235 5.83461 4.31388 22 1 
586.667 1.2074 5.83338 -0.0806805 0.0353507 5.8355 4.32928 22 1 
588 1.2074 5.83427 -0.0808622 0.0357402 5.83638 4.34336 22 1 
589.333 1.20741 5.83522 -0.0810239 0.0362194 5.83733 4.36056 22 1 
590.667 1.20742 5.83629 -0.0810937 0.0366888 5.83839 4.37758 22 1 
592 1.20743 5.83732 -0.0810445 0.0370929 5.8394 4.39321 22 1 
593.333 1.20744 5.83836 -0.0808787 0.037402 5.84044 4.40659 22 1 
594.667 1.20745 5.83937 -0.0806134 0.0376004 5.84144 4.42254 22 1 
596 1.20746 5.84043 -0.080267 0.0377435 5.84248 4.44072 22 1 
597.333 1.20747 5.84154 -0.0798789 0.037811 5.84358 4.45696 22 1 
597.333 1.20747 5.84154 -0.0798789 0.037811 5.84358 4.45696 24 1 
598.667 1.20748 5.8426 -0.0794544 0.0378271 5.84462 4.47282 24 1 
600 1.20749 5.84366 -0.0790053 0.037806 5.84566 4.4891 24 1 
601.333 1.20749 5.84473 -0.0785442 0.0377519 5.84672 4.50395 24 1 
602.667 1.2075 5.84588 -0.0780802 0.0376467 5.84786 4.5176 24 1 
604 1.20751 5.84699 -0.0776131 0.0374887 5.84895 4.5351 24 1 
605.333 1.20752 5.84819 -0.0771284 0.0373264 5.85013 4.55117 24 1 
606.667 1.20753 5.84945 -0.0766589 0.0370922 5.85138 4.5645 24 1 
608 1.20754 5.85051 -0.0761933 0.0368279 5.85243 4.57919 24 1 
609.333 1.20754 5.85166 -0.0757354 0.0365174 5.85356 4.59244 24 1 
610.667 1.20755 5.85297 -0.0752876 0.0361882 5.85486 4.60635 24 1 
612 1.20756 5.85414 -0.0748583 0.0358059 5.856 4.62254 24 1 
613.333 1.20757 5.85522 -0.074458 0.0353771 5.85707 4.63674 24 1 
614.667 1.20757 5.85635 -0.0740749 0.0349294 5.85818 4.64776 24 1 
616 1.20758 5.8573 -0.0737206 0.0344559 5.85912 4.66152 24 1 
617.333 1.20759 5.85826 -0.0734014 0.0339501 5.86006 4.67552 24 1 
618.667 1.2076 5.85922 -0.0731271 0.0334029 5.861 4.68784 24 1 
618.667 1.2076 5.85922 -0.0731271 0.0334029 5.861 4.68784 24 1 
620 1.2076 5.85988 -0.0728922 0.032841 5.86165 4.70257 24 1 
621.333 1.20761 5.86047 -0.0727008 0.0322689 5.86222 4.71479 24 1 
622.667 1.20762 5.86096 -0.0725638 0.0316837 5.8627 4.72609 24 1 
624 1.20762 5.86129 -0.0724804 0.0310719 5.86302 4.74039 24 1 
625.333 1.20763 5.86144 -0.0724496 0.0304646 5.86316 4.75298 24 1 
626.667 1.20764 5.86141 -0.0724763 0.0298618 5.86312 4.76307 24 1 
628 1.20764 5.86112 -0.0725636 0.0292556 5.86283 4.77558 24 1 
629.333 1.20765 5.86068 -0.0727055 0.028675 5.86238 4.78541 24 1 
630.667 1.20765 5.86002 -0.0729089 0.0281026 5.86172 4.79437 24 1 
632 1.20766 5.85926 -0.0731665 0.0275546 5.86094 4.80449 24 1 
633.333 1.20767 5.85824 -0.0734817 0.0270314 5.85992 4.81454 24 1 
634.667 1.20767 5.85697 -0.0738439 0.0265598 5.85865 4.82348 24 1 
636 1.20767 5.85557 -0.0742604 0.0261088 5.85726 4.8303 24 1 
637.333 1.20768 5.85405 -0.0747195 0.0257062 5.85574 4.83678 24 1 
638.667 1.20768 5.85243 -0.0752096 0.025361 5.85412 4.84402 24 1 
640 1.20769 5.85062 -0.0757418 0.0250601 5.85231 4.85022 24 1 
640 1.20769 5.85062 -0.0757418 0.0250601 5.85231 4.85022 24 1 
641.333 1.20769 5.84874 -0.0763095 0.0248037 5.85044 4.85551 24 1 
642.667 1.20769 5.84685 -0.0768817 0.024625 5.84856 4.86281 24 1 
644 1.2077 5.84501 -0.0774706 0.0244925 5.84672 4.86961 24 1 
645.333 1.2077 5.8432 -0.0780787 0.0244059 5.84492 4.87556 24 1 
646.667 1.2077 5.84141 -0.0786731 0.0243981 5.84314 4.88433 24 1 
648 1.20771 5.83974 -0.079269 0.0244167 5.84148 4.8949 24 1 
649.333 1.20771 5.83827 -0.0798604 0.0245086 5.84002 4.90304 24 1 
650.667 1.20772 5.837 -0.0804254 0.0246484 5.83876 4.91152 24 1 
652 1.20773 5.83591 -0.0809694 0.0248097 5.83768 4.92222 24 1 
653.333 1.20773 5.83514 -0.0814762 0.0250324 5.83691 4.93235 24 1 
654.667 1.20774 5.83465 -0.0819525 0.0252777 5.83643 4.94565 24 1 
656 1.20775 5.8345 -0.0824034 0.0255593 5.83629 4.96265 24 1 
657.333 1.20776 5.83477 -0.0828059 0.0258609 5.83656 4.97692 24 1 
658.667 1.20776 5.83535 -0.0831709 0.0261581 5.83715 4.98889 24 1 
660 1.20777 5.8362 -0.0834789 0.0265101 5.83801 5.00268 24 1 
661.333 1.20778 5.83748 -0.0837429 0.0268426 5.83929 5.01602 24 1 
661.333 1.20778 5.83748 -0.0837429 0.0268426 5.83929 5.01602 24 1 
662.667 1.20779 5.8393 -0.0839606 0.0271427 5.84112 5.0316 24 1 
664 1.2078 5.84128 -0.0841239 0.0275107 5.8431 5.05318 24 1 
665.333 1.20781 5.84389 -0.08425 0.027794 5.8457 5.06691 24 1 
666.667 1.20781 5.84671 -0.0843116 0.0280855 5.84852 5.07905 24 1 
668 1.20782 5.84965 -0.0843253 0.0283832 5.85146 5.09473 24 1 
669.333 1.20783 5.85327 -0.0842976 0.0285996 5.85508 5.10708 24 1 
670.667 1.20784 5.85715 -0.0842121 0.0288414 5.85895 5.12443 24 1 
672 1.20785 5.86116 -0.0840953 0.0290097 5.86295 5.14627 24 1 
673.333 1.20786 5.86565 -0.08396 0.0291136 5.86743 5.1595 24 1 
674.667 1.20786 5.87016 -0.0837302 0.0292668 5.87194 5.17366 24 1 
676 1.20787 5.87474 -0.0834999 0.0292971 5.8765 5.18946 24 1 
677.333 1.20788 5.87986 -0.0832547 0.0292754 5.88161 5.20086 24 1 
678.667 1.20789 5.88488 -0.0829442 0.0292586 5.88661 5.22017 24 1 
680 1.2079 5.89007 -0.0826225 0.0291626 5.89179 5.23979 24 1 
681.333 1.20791 5.89534 -0.0822844 0.0290175 5.89705 5.25619 24 1 
682.667 1.20792 5.90062 -0.0819371 0.0287967 5.90231 5.27242 24 1 
682.667 1.20792 5.90062 -0.0819371 0.0287967 5.90231 5.27242 31 1 
684 1.20793 5.90581 -0.0815266 0.0285876 5.90748 5.29011 31 1 
685.333 1.20794 5.91109 -0.0811393 0.0283024 5.91275 5.30311 31 1 
686.667 1.20795 5.91622 -0.0807764 0.0278797 5.91786 5.32096 31 1 
688 1.20796 5.92125 -0.0803222 0.0275568 5.92287 5.34054 31 1 
689.333 1.20797 5.92617 -0.0799277 0.0270905 5.92776 5.35679 31 1 
690.667 1.20797 5.93084 -0.0795367 0.0265625 5.93242 5.3724 31 1 
692 1.20798 5.93531 -0.0790983 0.0260793 5.93687 5.38691 31 1 
693.333 1.20799 5.93944 -0.0787072 0.0254724 5.94098 5.40141 31 1 
694.667 1.208 5.94336 -0.0783273 0.0248507 5.94488 5.41263 31 1 
696 1.208 5.94697 -0.0779481 0.0242112 5.94847 5.42505 31 1 
697.333 1.20801 5.9503 -0.0775907 0.0235306 5.95179 5.4396 31 1 
698.667 1.20802 5.95325 -0.0772587 0.0228239 5.95472 5.45212 31 1 
700 1.20802 5.95579 -0.0769536 0.022061 5.95724 5.458 31 1 
701.333 1.20803 5.95792 -0.0766392 0.0213123 5.95936 5.46579 31 1 
702.667 1.20803 5.9597 -0.0763638 0.0205565 5.96113 5.47382 31 1 
704 1.20803 5.96115 -0.076145 0.0197218 5.96256 5.47804 31 1 
704 1.20803 5.96115 -0.076145 0.0197218 5.96256 5.47804 31 1 
705.333 1.20804 5.96221 -0.0759403 0.0188607 5.96361 5.48549 31 1 
706.667 1.20804 5.96287 -0.0757463 0.0180183 5.96426 5.49226 31 1 
708 1.20804 5.9631 -0.0755764 0.0171786 5.96447 5.49685 31 1 
709.333 1.20804 5.9629 -0.0754984 0.0162241 5.96426 5.4997 31 1 
710.667 1.20805 5.96236 -0.0753417 0.0154204 5.96372 5.50129 31 1 
712 1.20805 5.96138 -0.0752899 0.0145622 5.96273 5.5068 31 1 
713.333 1.20805 5.96008 -0.0753562 0.0136254 5.96142 5.51206 31 1 
714.667 1.20805 5.95849 -0.0753677 0.0127934 5.95982 5.51559 31 1 
716 1.20806 5.95643 -0.0754885 0.0119389 5.95777 5.52112 31 1 
717.333 1.20806 5.95424 -0.07566 0.011145 5.95558 5.52212 31 1 
718.667 1.20806 5.95183 -0.0757514 0.010442 5.95316 5.52104 31 1 
720 1.20806 5.94955 -0.0758979 0.00974609 5.95088 5.52182 31 1 
721.333 1.20806 5.94691 -0.0760703 0.00902002 5.94824 5.53325 31 1 
722.667 1.20807 5.94423 -0.0762365 0.00835004 5.94557 5.53691 31 1 
724 1.20806 5.94166 -0.0764163 0.00769285 5.94299 5.53463 31 1 
725.333 1.20807 5.93872 -0.0766148 0.00703836 5.94006 5.54302 31 1 
725.333 1.20807 5.93872 -0.0766148 0.00703836 5.94006 5.54302 31 1 
726.667 1.20807 5.93613 -0.0768821 0.00640896 5.93748 5.53993 31 1 
728 1.20806 5.93375 -0.0771121 0.00583007 5.93509 5.5354 31 1 
729.333 1.20807 5.93102 -0.0773613 0.00525484 5.93238 5.54884 31 1 
730.667 1.20808 5.92873 -0.0776647 0.00471738 5.93009 5.55477 31 1 
732 1.20808 5.92646 -0.0780023 0.0041854 5.92783 5.55608 31 1 
733.333 1.20808 5.92431 -0.0782877 0.00371227 5.92568 5.56267 31 1 
734.667 1.20808 5.92302 -0.0784056 0.00337193 5.9244 5.56349 31 1 
736 1.20808 5.92175 -0.0786348 0.0028614 5.92313 5.56887 31 1 
737.333 1.20809 5.92143 -0.0786995 0.00255222 5.92281 5.57298 31 1 
738.667 1.2081 5.92123 -0.0786683 0.00216244 5.92261 5.59249 31 1 
740 1.2081 5.9211 -0.0787254 0.0017103 5.92248 5.60586 31 1 
741.333 1.2081 5.92188 -0.0787955 0.00112583 5.92326 5.59801 31 1 
742.667 1.20811 5.92267 -0.0785649 0.000855111 5.92405 5.61335 31 1 
744 1.20812 5.9241 -0.0783783 0.000535152 5.92547 5.628 31 1 
745.333 1.20812 5.9259 -0.0785898 -0.000309787 5.92728 5.63088 31 1 
746.667 1.20813 5.92751 -0.0782575 -0.000498129 5.92888 5.6485 31 1 
746.667 1.20813 5.92751 -0.0782575 -0.000498129 5.92888 5.6485 31 1 
748 1.20814 5.92996 -0.0781414 -0.000925165 5.93132 5.66285 31 1 
749.333 1.20814 5.9324 -0.078189 -0.00161518 5.93377 5.67766 31 1 
750.667 1.20815 5.93545 -0.0778194 -0.00189077 5.93681 5.68431 31 1 
752 1.20815 5.9386 -0.077718 -0.00238331 5.93996 5.69379 31 1 
753.333 1.20816 5.94161 -0.0776568 -0.00296476 5.94296 5.7112 31 1 
754.667 1.20817 5.94526 -0.077494 -0.0035678 5.94661 5.71778 31 1 
756 1.20817 5.94894 -0.0771962 -0.00392335 5.95028 5.73046 31 1 
757.333 1.20818 5.95279 -0.0769951 -0.00451341 5.95413 5.75134 31 1 
758.667 1.20819 5.95664 -0.0768913 -0.00520673 5.95798 5.757 31 1 
760 1.20819 5.96125 -0.0766119 -0.005748 5.96258 5.75425 31 1 
761.333 1.2082 5.96463 -0.0764095 -0.00641485 5.96595 5.78527 31 1 
762.667 1.2082 5.96888 -0.0762219 -0.00705958 5.9702 5.78268 31 1 
764 1.2082 5.97381 -0.075877 -0.00760682 5.97512 5.77588 31 1 
765.333 1.20822 5.97714 -0.0756488 -0.00834941 5.97845 5.81342 31 1 
766.667 1.20822 5.9814 -0.0754579 -0.00899906 5.98271 5.80724 31 1 
768 1.2082 5.98663 -0.0753506 -0.00976009 5.98792 5.78664 31 1 
768 1.2082 5.98663 -0.0753506 -0.00976009 5.98792 5.78664 32 1 
769.333 1.20823 5.9891 -0.075017 -0.0104435 5.99039 5.83248 32 1 
770.667 1.20822 5.99434 -0.074759 -0.0111569 5.99563 5.81233 32 1 
772 1.20821 5.99925 -0.0745758 -0.0118812 6.00053 5.79952 32 1 
773.333 1.20823 6.00178 -0.0743356 -0.0125685 6.00305 5.84243 32 1 
774.667 1.20822 6.00774 -0.0742147 -0.0134818 6.00901 5.80941 32 1 
776 1.20822 6.0115 -0.0741857 -0.0143533 6.01277 5.81013 32 1 
777.333 1.20823 6.01359 -0.0737945 -0.0149158 6.01485 5.8326 32 1 
778.667 1.2082 6.01974 -0.0734027 -0.0154167 6.021 5.77664 32 1 
780 1.20821 6.0234 -0.0732075 -0.0160854 6.02465 5.79696 32 1 
781.333 1.20822 6.02734 -0.0730571 -0.0168409 6.02858 5.81126 32 1 
782.667 1.20818 6.03522 -0.0730756 -0.0178535 6.03646 5.74042 32 1 
784 1.2082 6.03822 -0.0727655 -0.0181354 6.03945 5.78111 32 1 
785.333 1.20819 6.04268 -0.0722722 -0.0184674 6.0439 5.76386 32 1 
786.667 1.20815 6.04479 -0.0727104 -0.0196777 6.04601 5.68918 32 1 
788 1.20811 6.05267 -0.0737959 -0.0208985 6.05391 5.61569 32 1 
789.333 1.20815 6.06041 -0.0736138 -0.0209547 6.06166 5.68436 32 1 
790.667 1.20814 6.06741 -0.0724308 -0.0202149 6.06864 5.67757 32 1 
792 1.20806 6.07411 -0.073181 -0.0202924 6.07535 5.53159 32 1 
793.333 1.20804 6.07663 -0.0750308 -0.0215034 6.07789 5.49682 32 1 
794.667 1.20803 6.08555 -0.0763162 -0.022954 6.08683 5.4696 32 1 
796 1.20802 6.09324 -0.0772053 -0.0213874 6.0945 5.45734 32 1 
797.333 1.20799 6.09864 -0.0790395 -0.0192578 6.09992 5.39831 32 1 
798.667 1.20793 6.10469 -0.0820405 -0.018441 6.10601 5.29652 32 1 
800 1.2079 6.10884 -0.0831612 -0.0174684 6.11017 5.23915 32 1 
