25.3581;r ;Density                 ;Velocity u              ;Velocity v              ;Velocity w              ;|Velocity|              ;Pressure                ;Distribution            ;Levels                  ;
0 1.20458 9.99976 2.24835e-05 1.00736e-05 9.99976 -0.760103 1 1 
1.33334 1.20457 10 2.65757e-05 4.32719e-05 10 -0.776986 1 1 
2.66666 1.20457 9.99994 5.9944e-05 8.88198e-05 9.99994 -0.769892 1 1 
4 1.20459 9.99958 0.000116219 0.000155147 9.99958 -0.737254 1 1 
5.33334 1.20458 9.99959 0.000152956 0.000204562 9.99959 -0.750358 1 1 
6.66666 1.20457 9.99964 0.000188294 0.000236964 9.99964 -0.780886 1 1 
8 1.20455 10.0001 0.000252635 0.00030124 10.0001 -0.819268 1 1 
9.33334 1.20456 10 0.000298872 0.000349841 10 -0.791056 1 1 
10.6667 1.2046 9.99981 0.000340316 0.000403838 9.99981 -0.717797 1 1 
12 1.20459 10.0007 0.000409567 0.0004767 10.0007 -0.740491 1 1 
13.3333 1.20458 10.0008 0.000481538 0.00053412 10.0008 -0.758243 1 1 
14.6667 1.20457 10.001 0.000536006 0.000589542 10.001 -0.782692 1 1 
16 1.20456 10.0012 0.000549115 0.000619403 10.0012 -0.801347 1 1 
17.3333 1.20457 10.0008 0.000595792 0.000673603 10.0008 -0.772963 1 1 
18.6667 1.20457 10.0012 0.000632495 0.000717023 10.0012 -0.776781 1 1 
20 1.20457 10.0018 0.000700215 0.00079036 10.0018 -0.771049 1 1 
21.3333 1.20457 10.0028 0.000727036 0.000829451 10.0028 -0.771609 1 1 
21.3333 1.20457 10.0028 0.000727036 0.000829451 10.0028 -0.771609 1 1 
22.6667 1.20457 10.0037 0.000765446 0.000869774 10.0037 -0.775088 1 1 
24 1.20459 10.0035 0.00083536 0.000934569 10.0035 -0.747297 1 1 
25.3333 1.2046 10.0028 0.00084207 0.000953963 10.0028 -0.730185 1 1 
26.6667 1.20457 10.003 0.000891201 0.000990543 10.003 -0.773378 1 1 
28 1.20456 10.0028 0.000958997 0.00107517 10.0028 -0.794762 1 1 
29.3333 1.20456 10.002 0.00103331 0.00114197 10.002 -0.798986 1 1 
30.6667 1.20454 10.0018 0.00108404 0.00117669 10.0018 -0.826696 1 1 
32 1.20454 10.0018 0.00116846 0.00128262 10.0018 -0.835492 1 1 
33.3333 1.20453 10.0018 0.0012103 0.00133434 10.0018 -0.840452 1 1 
34.6667 1.20455 10.0008 0.00122678 0.00134972 10.0008 -0.811027 1 1 
36 1.20457 10.0009 0.00128216 0.00139565 10.0009 -0.783791 1 1 
37.3333 1.20455 10.0019 0.00132521 0.00144088 10.0019 -0.807446 1 1 
38.6667 1.20453 10.0022 0.00132161 0.00143991 10.0022 -0.845627 1 1 
40 1.20454 10.002 0.00140391 0.001527 10.002 -0.827524 1 1 
41.3333 1.20455 10.0019 0.00149861 0.00161896 10.0019 -0.805464 1 1 
42.6667 1.20453 10.0024 0.00150877 0.00162782 10.0024 -0.841586 1 1 
42.6667 1.20453 10.0024 0.00150877 0.00162782 10.0024 -0.841586 2 1 
44 1.20453 10.0026 0.00153336 0.001662 10.0026 -0.842073 2 1 
45.3333 1.20455 10.0026 0.00158583 0.0017133 10.0026 -0.810926 2 1 
46.6667 1.20456 10.003 0.00159199 0.00173603 10.003 -0.796276 2 1 
48 1.20454 10.0041 0.00156567 0.00171987 10.0041 -0.837154 2 1 
49.3333 1.20452 10.004 0.00162235 0.00175565 10.004 -0.870522 2 1 
50.6667 1.20452 10.0031 0.00169605 0.00185765 10.0031 -0.858192 2 1 
52 1.20451 10.0028 0.00166275 0.00181437 10.0028 -0.878021 2 1 
53.3333 1.20449 10.0036 0.00173114 0.0018856 10.0036 -0.916202 2 1 
54.6667 1.20449 10.0049 0.00184758 0.00200617 10.0049 -0.927392 2 1 
56 1.20451 10.0047 0.00183283 0.00199961 10.0047 -0.888421 2 1 
57.3333 1.20452 10.0041 0.0018626 0.00205234 10.0041 -0.860153 2 1 
58.6667 1.2045 10.0047 0.00198417 0.00216497 10.0047 -0.900262 2 1 
60 1.20449 10.0052 0.00198628 0.00219228 10.0052 -0.915313 2 1 
61.3333 1.2045 10.0046 0.00193881 0.00214036 10.0046 -0.911566 2 1 
62.6667 1.20447 10.0048 0.00201677 0.00223427 10.0048 -0.954162 2 1 
64 1.20448 10.0042 0.0020526 0.00227427 10.0042 -0.942514 2 1 
64 1.20448 10.0042 0.0020526 0.00227427 10.0042 -0.942514 2 1 
65.3333 1.20448 10.0043 0.00203429 0.0022569 10.0043 -0.935714 2 1 
66.6667 1.20448 10.0051 0.00211399 0.00235208 10.0051 -0.940143 2 1 
68 1.20447 10.0053 0.00216314 0.00240605 10.0053 -0.952774 2 1 
69.3333 1.20447 10.0049 0.00208804 0.00234799 10.0049 -0.95979 2 1 
70.6667 1.20447 10.0049 0.00210134 0.00235921 10.0049 -0.965533 2 1 
72 1.20445 10.0058 0.00218691 0.00246088 10.0058 -1.0017 2 1 
73.3333 1.20445 10.0055 0.0021937 0.0024783 10.0055 -0.995941 2 1 
74.6667 1.20444 10.0055 0.00217567 0.00245858 10.0055 -1.01073 2 1 
76 1.20445 10.0056 0.00227048 0.00255267 10.0057 -1.00258 2 1 
77.3333 1.20444 10.0065 0.00227552 0.00257783 10.0065 -1.0055 2 1 
78.6667 1.20443 10.0072 0.0021774 0.00248687 10.0072 -1.02883 2 1 
80 1.20444 10.0066 0.00222086 0.00254281 10.0066 -1.00362 2 1 
81.3333 1.20442 10.0067 0.00232636 0.00265799 10.0067 -1.03887 2 1 
82.6667 1.20442 10.0066 0.00230516 0.00265962 10.0066 -1.04388 2 1 
84 1.20442 10.0057 0.00230086 0.00267153 10.0057 -1.03939 2 1 
85.3333 1.20438 10.0063 0.0024298 0.00281956 10.0063 -1.11969 2 1 
85.3333 1.20438 10.0063 0.0024298 0.00281956 10.0063 -1.11969 3 1 
86.6667 1.2044 10.0069 0.00243449 0.00283441 10.0069 -1.09265 3 1 
88 1.20444 10.0072 0.00229292 0.0026993 10.0072 -1.00951 3 1 
89.3333 1.20443 10.0077 0.00238983 0.00280343 10.0077 -1.02919 3 1 
90.6667 1.20439 10.0079 0.00248859 0.00290608 10.0079 -1.09487 3 1 
92 1.2044 10.007 0.00235653 0.0027876 10.007 -1.08851 3 1 
93.3333 1.2044 10.0068 0.00234308 0.00277287 10.0068 -1.08293 3 1 
94.6667 1.20438 10.0076 0.00247213 0.0029053 10.0076 -1.1222 3 1 
96 1.2044 10.0073 0.00245778 0.00290825 10.0073 -1.08942 3 1 
97.3333 1.20441 10.0075 0.00229917 0.00275287 10.0075 -1.07308 3 1 
98.6667 1.20439 10.008 0.002325 0.00278416 10.008 -1.09962 3 1 
100 1.2044 10.0075 0.00256368 0.00303241 10.0075 -1.09042 3 1 
101.333 1.20439 10.0072 0.00244254 0.00292851 10.0072 -1.1031 3 1 
102.667 1.20437 10.0076 0.00223334 0.00274304 10.0076 -1.14203 3 1 
104 1.20437 10.0084 0.00241062 0.00292721 10.0084 -1.14008 3 1 
105.333 1.2044 10.0081 0.00252636 0.00308183 10.0081 -1.08587 3 1 
106.667 1.2044 10.0085 0.00234476 0.00290606 10.0085 -1.08671 3 1 
106.667 1.2044 10.0085 0.00234476 0.00290606 10.0085 -1.08671 3 1 
108 1.20438 10.009 0.00226731 0.00285047 10.009 -1.11577 3 1 
109.333 1.20439 10.0079 0.00256166 0.00316734 10.0079 -1.09445 3 1 
110.667 1.20439 10.0076 0.00260825 0.00323432 10.0076 -1.10063 3 1 
112 1.20436 10.0084 0.0023085 0.00296266 10.0084 -1.15608 3 1 
113.333 1.20438 10.008 0.00228462 0.00293619 10.008 -1.1285 3 1 
114.667 1.20438 10.0081 0.0025907 0.00327055 10.0081 -1.12182 3 1 
116 1.20436 10.0093 0.0025471 0.00325001 10.0093 -1.16087 3 1 
117.333 1.20439 10.0087 0.00210565 0.00284679 10.0087 -1.10178 3 1 
118.667 1.20438 10.0091 0.00213118 0.00289301 10.0091 -1.12505 3 1 
120 1.20439 10.0082 0.00249289 0.00326789 10.0082 -1.1086 3 1 
121.333 1.2044 10.0077 0.00237637 0.00316603 10.0077 -1.09085 3 1 
122.667 1.20437 10.0091 0.00196089 0.00273987 10.0091 -1.13362 3 1 
124 1.20439 10.0086 0.00205378 0.00283863 10.0086 -1.10755 3 1 
125.333 1.20437 10.0091 0.00255684 0.00335563 10.0091 -1.13959 3 1 
126.667 1.20437 10.0084 0.00248933 0.00332809 10.0084 -1.13385 3 1 
128 1.20437 10.0078 0.00200832 0.00285999 10.0078 -1.1398 3 1 
128 1.20437 10.0078 0.00200832 0.00285999 10.0078 -1.1398 3 1 
129.333 1.20437 10.0072 0.0020441 0.00292728 10.0072 -1.13323 3 1 
130.667 1.20439 10.007 0.00269223 0.00363884 10.007 -1.10322 3 1 
132 1.20438 10.0088 0.00287117 0.00385046 10.0088 -1.11338 3 1 
133.333 1.2044 10.0093 0.0022259 0.00324989 10.0093 -1.08473 3 1 
134.667 1.20439 10.0092 0.001799 0.00284748 10.0093 -1.09899 3 1 
136 1.20439 10.0082 0.00227341 0.00328068 10.0082 -1.10865 3 1 
137.333 1.20439 10.0074 0.00290061 0.00390825 10.0074 -1.09806 3 1 
138.667 1.2044 10.0078 0.00265911 0.00373212 10.0078 -1.08644 3 1 
140 1.2044 10.0088 0.00198938 0.00306586 10.0088 -1.08587 3 1 
141.333 1.20439 10.008 0.00196284 0.00305358 10.008 -1.09712 3 1 
142.667 1.20439 10.0058 0.00290005 0.00397687 10.0058 -1.0971 3 1 
144 1.20439 10.0054 0.00372206 0.00482187 10.0054 -1.09365 3 1 
145.333 1.20441 10.0058 0.00359318 0.00478701 10.0058 -1.06456 3 1 
146.667 1.20443 10.007 0.0029463 0.00419032 10.007 -1.03692 3 1 
148 1.20443 10.0079 0.00267959 0.00394869 10.0079 -1.03715 3 1 
149.333 1.20443 10.0072 0.00302759 0.00428745 10.0072 -1.0301 3 1 
149.333 1.20443 10.0072 0.00302759 0.00428745 10.0072 -1.0301 3 1 
150.667 1.20443 10.0064 0.00333118 0.00457958 10.0064 -1.02104 3 1 
152 1.20442 10.0058 0.00301437 0.00425417 10.0058 -1.03962 3 1 
153.333 1.20442 10.0059 0.00220852 0.00348666 10.0059 -1.05334 3 1 
154.667 1.20443 10.0066 0.00153747 0.00286949 10.0066 -1.03824 3 1 
156 1.20444 10.0057 0.00152937 0.00288694 10.0057 -1.00483 3 1 
157.333 1.20445 10.0047 0.00206703 0.00347276 10.0047 -0.992378 3 1 
158.667 1.20446 10.0042 0.00276779 0.00418267 10.0042 -0.971502 3 1 
160 1.20447 10.0034 0.00328485 0.00472727 10.0034 -0.956932 3 1 
161.333 1.20445 10.0036 0.00350958 0.00497837 10.0036 -0.987837 3 1 
162.667 1.20446 10.0033 0.00354792 0.00504406 10.0033 -0.967649 3 1 
164 1.20447 10.0029 0.0035339 0.00504631 10.0029 -0.948889 3 1 
165.333 1.20447 10.0034 0.00349537 0.00503002 10.0034 -0.963951 3 1 
166.667 1.2045 10.0021 0.00349432 0.00507186 10.0021 -0.903085 3 1 
168 1.20449 10.0017 0.00353174 0.00510306 10.0017 -0.929326 3 1 
169.333 1.20447 10.0017 0.00351718 0.00512775 10.0017 -0.958396 3 1 
170.667 1.2045 10.001 0.00353074 0.00519223 10.001 -0.896939 3 1 
170.667 1.2045 10.001 0.00353074 0.00519223 10.001 -0.896939 11 1 
172 1.2045 10.001 0.0035398 0.0052192 10.001 -0.905709 11 1 
173.333 1.20451 9.99944 0.00355441 0.00527285 9.99945 -0.887565 11 1 
174.667 1.20453 9.9991 0.00353132 0.00530448 9.9991 -0.854976 11 1 
176 1.20452 9.99817 0.00353863 0.0053162 9.99817 -0.860034 11 1 
177.333 1.20452 9.99725 0.00355228 0.00536145 9.99725 -0.862019 11 1 
178.667 1.20453 9.99719 0.00353248 0.00539368 9.99719 -0.848611 11 1 
180 1.20454 9.99604 0.00356094 0.00541793 9.99604 -0.835458 11 1 
181.333 1.20454 9.99607 0.0035608 0.00543562 9.99607 -0.839177 11 1 
182.667 1.20455 9.99598 0.00358253 0.00553516 9.99598 -0.815705 11 1 
184 1.20458 9.99482 0.00359347 0.00556193 9.99482 -0.767136 11 1 
185.333 1.20456 9.9937 0.00358241 0.00557067 9.9937 -0.801917 11 1 
186.667 1.20455 9.99193 0.00354688 0.00558899 9.99193 -0.804792 11 1 
188 1.20459 9.99131 0.0035277 0.00560842 9.99131 -0.740469 11 1 
189.333 1.20459 9.99243 0.0035697 0.00564227 9.99243 -0.748288 11 1 
190.667 1.2046 9.99155 0.00357495 0.00566506 9.99156 -0.725242 11 1 
192 1.20461 9.99035 0.00359504 0.00577796 9.99035 -0.704544 11 1 
192 1.20461 9.99035 0.00359504 0.00577796 9.99035 -0.704544 11 1 
193.333 1.2046 9.99043 0.00362067 0.00579051 9.99043 -0.721267 11 1 
194.667 1.20461 9.98834 0.00353779 0.00574203 9.98834 -0.708748 11 1 
196 1.20462 9.98665 0.00356377 0.005841 9.98666 -0.681804 11 1 
197.333 1.20464 9.98774 0.00361066 0.00589255 9.98774 -0.652869 11 1 
198.667 1.20465 9.98647 0.00354076 0.00583169 9.98647 -0.625889 11 1 
200 1.20465 9.98514 0.00364662 0.00601264 9.98515 -0.63135 11 1 
201.333 1.20465 9.98453 0.00362008 0.00605583 9.98453 -0.638682 11 1 
202.667 1.20467 9.98101 0.00350434 0.00589511 9.98102 -0.59052 11 1 
204 1.20466 9.98003 0.00360762 0.00604607 9.98003 -0.605008 11 1 
205.333 1.20468 9.98115 0.00355229 0.00607677 9.98115 -0.577393 11 1 
206.667 1.20474 9.98072 0.0035614 0.00611159 9.98072 -0.465133 11 1 
208 1.20471 9.9808 0.00367847 0.00622354 9.9808 -0.522031 11 1 
209.333 1.2047 9.97828 0.00358908 0.00620583 9.97828 -0.539856 11 1 
210.667 1.20474 9.97355 0.00356944 0.00627795 9.97356 -0.474237 11 1 
212 1.20472 9.97076 0.00357994 0.00625521 9.97076 -0.499292 11 1 
213.333 1.20473 9.96909 0.00356475 0.00626728 9.9691 -0.484652 11 1 
213.333 1.20473 9.96909 0.00356475 0.00626728 9.9691 -0.484652 11 1 
214.667 1.20477 9.96815 0.00356973 0.0063677 9.96815 -0.410339 11 1 
216 1.20478 9.96886 0.00354985 0.00642731 9.96887 -0.39083 11 1 
217.333 1.20478 9.96942 0.00359505 0.00642443 9.96942 -0.395499 11 1 
218.667 1.20483 9.96709 0.00361683 0.00648759 9.96709 -0.308909 11 1 
220 1.20484 9.96402 0.00360367 0.00659357 9.96403 -0.293384 11 1 
221.333 1.20482 9.95987 0.0036154 0.00658849 9.95988 -0.329407 11 1 
222.667 1.20483 9.95441 0.00358621 0.00655799 9.95441 -0.308457 11 1 
224 1.20483 9.95321 0.00353656 0.00659929 9.95321 -0.306311 11 1 
225.333 1.20487 9.95268 0.00351059 0.00666113 9.95268 -0.230173 11 1 
226.667 1.20492 9.95118 0.00358582 0.00670728 9.95118 -0.149908 11 1 
228 1.20492 9.95092 0.00365798 0.00677416 9.95093 -0.144142 11 1 
229.333 1.20494 9.94546 0.00360447 0.00685972 9.94547 -0.10227 11 1 
230.667 1.20495 9.93955 0.00348492 0.00680784 9.93955 -0.0860943 11 1 
232 1.20494 9.9369 0.00346482 0.00674612 9.9369 -0.103105 11 1 
233.333 1.205 9.934 0.0035204 0.00684481 9.93401 -0.00268514 11 1 
234.667 1.20506 9.93172 0.00364134 0.00704448 9.93172 0.110566 11 1 
234.667 1.20506 9.93172 0.00364134 0.00704448 9.93172 0.110566 11 1 
236 1.20501 9.92932 0.00361246 0.00708268 9.92933 0.0221757 11 1 
237.333 1.20504 9.92267 0.00353613 0.00700766 9.92268 0.0803105 11 1 
238.667 1.20511 9.91592 0.00348753 0.00697729 9.91592 0.195091 11 1 
240 1.2051 9.91328 0.00343976 0.0070401 9.91328 0.174712 11 1 
241.333 1.20519 9.90832 0.00350271 0.00711816 9.90832 0.347171 11 1 
242.667 1.20521 9.90658 0.0035423 0.00717441 9.90658 0.3731 11 1 
244 1.20523 9.89956 0.00349575 0.0071933 9.89957 0.422737 11 1 
245.333 1.20525 9.89086 0.0033902 0.00713114 9.89086 0.444699 11 1 
246.667 1.20527 9.88488 0.00345341 0.00727093 9.88488 0.479039 11 1 
248 1.20537 9.87703 0.00338448 0.00720049 9.87704 0.671605 11 1 
249.333 1.20538 9.87283 0.00350727 0.00739801 9.87283 0.678884 11 1 
250.667 1.20544 9.86475 0.00350837 0.00747126 9.86476 0.799085 11 1 
252 1.20548 9.85713 0.00323153 0.00719838 9.85713 0.872514 11 1 
253.333 1.20558 9.84488 0.00332444 0.00734319 9.84488 1.04768 11 1 
254.667 1.20561 9.83698 0.00334786 0.00741492 9.83699 1.10771 11 1 
256 1.20564 9.82836 0.00332596 0.00741852 9.82836 1.15866 11 1 
256 1.20564 9.82836 0.00332596 0.00741852 9.82836 1.15866 13 1 
257.333 1.20577 9.81476 0.00340613 0.00754825 9.81476 1.39041 13 1 
258.667 1.20578 9.80475 0.00326265 0.00747571 9.80475 1.4153 13 1 
260 1.20587 9.79109 0.00323331 0.00745655 9.79109 1.56332 13 1 
261.333 1.20603 9.77608 0.00327275 0.00753899 9.77609 1.85412 13 1 
262.667 1.20613 9.76071 0.0031837 0.0075268 9.76072 2.04226 13 1 
264 1.20613 9.74937 0.00312666 0.00751138 9.74938 2.03981 13 1 
265.333 1.20629 9.73053 0.00309769 0.00751487 9.73053 2.32539 13 1 
266.667 1.20651 9.70459 0.00314289 0.00764793 9.7046 2.72165 13 1 
268 1.20645 9.68874 0.00312962 0.00769855 9.68874 2.62034 13 1 
269.333 1.20665 9.66672 0.00311438 0.00768053 9.66672 2.98378 13 1 
270.667 1.20703 9.63455 0.00300428 0.00763112 9.63455 3.67126 13 1 
272 1.20689 9.62027 0.00294001 0.00763437 9.62028 3.40738 13 1 
273.333 1.20717 9.58768 0.00292829 0.00764175 9.58769 3.91065 13 1 
274.667 1.20767 9.54382 0.00286913 0.00762317 9.54384 4.82322 13 1 
276 1.20751 9.52001 0.00285203 0.00767094 9.52003 4.52951 13 1 
277.333 1.20781 9.47286 0.0028462 0.00768814 9.47288 5.07129 13 1 
277.333 1.20781 9.47286 0.0028462 0.00768814 9.47288 5.07129 13 1 
278.667 1.20831 9.42607 0.00282452 0.00767395 9.42609 5.98459 13 1 
280 1.20843 9.38241 0.00276565 0.00766361 9.38244 6.19184 13 1 
281.333 1.20872 9.32265 0.00270113 0.00766541 9.32267 6.72141 13 1 
282.667 1.20912 9.27395 0.00263931 0.007656 9.27396 7.45008 13 1 
284 1.20963 9.22427 0.00259237 0.00763665 9.22428 8.36056 13 1 
285.333 1.21012 9.15972 0.00255237 0.00761853 9.15979 9.25702 13 1 
286.667 1.21042 9.07186 0.00248526 0.0075699 9.07204 9.78966 13 1 
288 1.21076 8.96842 0.00244383 0.00753067 8.96858 10.4012 13 1 
289.333 1.21133 8.88359 0.00240048 0.00753224 8.88366 11.4411 13 1 
290.667 1.21215 8.801 0.00232822 0.00750669 8.80106 12.9068 13 1 
292 1.21275 8.70338 0.00227656 0.00745283 8.70355 14.0059 13 1 
293.333 1.21308 8.59838 0.0022021 0.0073442 8.59864 14.5885 13 1 
294.667 1.2137 8.48287 0.00209898 0.0072354 8.48345 15.7208 13 1 
296 1.21451 8.3741 0.00199244 0.00700395 8.37457 17.1807 13 1 
297.333 1.21453 8.3201 0.00171508 0.00664045 8.32265 17.2118 13 1 
298.667 1.20704 8.25267 0.00112826 0.00792295 8.68041 3.69006 13 1 
298.667 1.20704 8.25267 0.00112826 0.00792295 8.68041 3.69006 14 1 
300 1.1949 8.3071 -0.000199735 0.00971079 8.85006 -18.245 14 1 
301.333 1.1906 8.31804 -0.00193483 0.00990149 8.57443 -26.0022 14 1 
302.667 1.19217 8.09643 -0.00344373 0.00958577 8.28752 -23.1745 14 1 
304 1.19372 7.8841 -0.00454369 0.0094786 8.01672 -20.3768 14 1 
305.333 1.19471 7.69675 -0.00541256 0.00951686 7.79966 -18.5799 14 1 
306.667 1.19554 7.53471 -0.0061069 0.00946552 7.59755 -17.094 14 1 
308 1.19627 7.39364 -0.00667593 0.00949037 7.45449 -15.7711 14 1 
309.333 1.1969 7.26944 -0.0072554 0.00948391 7.32284 -14.6377 14 1 
310.667 1.19761 7.16587 -0.00782041 0.00946165 7.21497 -13.3565 14 1 
312 1.19811 7.07215 -0.00831088 0.00944006 7.10974 -12.4452 14 1 
313.333 1.19853 6.9838 -0.00876463 0.00941572 7.01894 -11.6944 14 1 
314.667 1.19898 6.90216 -0.00914595 0.00945104 6.93559 -10.8791 14 1 
316 1.19929 6.82843 -0.0095473 0.00941579 6.85983 -10.3101 14 1 
317.333 1.1996 6.76471 -0.00993234 0.00935211 6.79225 -9.75657 14 1 
318.667 1.20001 6.71023 -0.0102493 0.00936178 6.73653 -9.0048 14 1 
320 1.20027 6.65325 -0.0105888 0.00934765 6.67757 -8.55057 14 1 
320 1.20027 6.65325 -0.0105888 0.00934765 6.67757 -8.55057 14 1 
321.333 1.2004 6.59951 -0.0109192 0.00929177 6.62317 -8.31223 14 1 
322.667 1.20066 6.55824 -0.0112179 0.00926769 6.57992 -7.83267 14 1 
324 1.20094 6.51579 -0.011489 0.00928143 6.5365 -7.33848 14 1 
325.333 1.20106 6.47572 -0.0117843 0.00927818 6.49551 -7.12242 14 1 
326.667 1.20121 6.44801 -0.0120673 0.00925352 6.46687 -6.8376 14 1 
328 1.20144 6.4192 -0.01234 0.00924703 6.43687 -6.42491 14 1 
329.333 1.20158 6.38826 -0.0126056 0.00926179 6.40553 -6.18136 14 1 
330.667 1.20165 6.36115 -0.0128727 0.00927942 6.37763 -6.04333 14 1 
332 1.20178 6.33899 -0.0131455 0.00926705 6.35502 -5.80851 14 1 
333.333 1.20198 6.32578 -0.0134069 0.00925389 6.34104 -5.45831 14 1 
334.667 1.20212 6.30842 -0.0136277 0.00929133 6.32319 -5.20269 14 1 
336 1.20213 6.28155 -0.0138697 0.00932179 6.29591 -5.19134 14 1 
337.333 1.20217 6.26202 -0.0141261 0.0092772 6.27614 -5.11105 14 1 
338.667 1.20234 6.25173 -0.0143559 0.00925007 6.26537 -4.799 14 1 
340 1.2025 6.24287 -0.014564 0.009287 6.25609 -4.50714 14 1 
341.333 1.20255 6.22703 -0.0148182 0.00927762 6.23978 -4.42928 14 1 
341.333 1.20255 6.22703 -0.0148182 0.00927762 6.23978 -4.42928 15 1 
342.667 1.20252 6.20303 -0.0150674 0.00922994 6.21567 -4.47063 15 1 
344 1.20261 6.189 -0.015233 0.0092694 6.20138 -4.32063 15 1 
345.333 1.20275 6.1847 -0.0153431 0.00934221 6.19671 -4.05739 15 1 
346.667 1.2028 6.17323 -0.0155277 0.00933722 6.18479 -3.97851 15 1 
348 1.20282 6.15583 -0.0157668 0.00926046 6.16719 -3.93534 15 1 
349.333 1.20289 6.13935 -0.0159711 0.00922514 6.15054 -3.81885 15 1 
350.667 1.20296 6.13064 -0.0160774 0.00926788 6.14153 -3.68728 15 1 
352 1.20303 6.12641 -0.0161397 0.00929348 6.13685 -3.56578 15 1 
353.333 1.20304 6.11233 -0.0162336 0.0092272 6.12256 -3.54627 15 1 
354.667 1.20306 6.09654 -0.0163381 0.00912807 6.10658 -3.5002 15 1 
356 1.20315 6.08973 -0.0163772 0.00907115 6.09951 -3.3502 15 1 
357.333 1.2032 6.08396 -0.0164208 0.00905795 6.09344 -3.24857 15 1 
358.667 1.20325 6.0776 -0.0165003 0.0090362 6.08687 -3.16633 15 1 
360 1.20327 6.07033 -0.0165361 0.00898508 6.07938 -3.11582 15 1 
361.333 1.20328 6.06142 -0.0164949 0.00893487 6.07028 -3.11494 15 1 
362.667 1.20332 6.05721 -0.0164957 0.00891163 6.06583 -3.03354 15 1 
362.667 1.20332 6.05721 -0.0164957 0.00891163 6.06583 -3.03354 15 1 
364 1.20339 6.05653 -0.0166262 0.00888947 6.06498 -2.91509 15 1 
365.333 1.20343 6.05471 -0.0168219 0.00886313 6.06296 -2.84366 15 1 
366.667 1.20345 6.0511 -0.0169372 0.00887352 6.0591 -2.7935 15 1 
368 1.20348 6.04666 -0.0169447 0.00891737 6.05442 -2.74136 15 1 
369.333 1.20351 6.04412 -0.0169127 0.0089261 6.05175 -2.69441 15 1 
370.667 1.20352 6.0419 -0.0169187 0.00887205 6.04942 -2.67986 15 1 
372 1.20355 6.0388 -0.016962 0.00878981 6.04612 -2.62231 15 1 
373.333 1.20361 6.03612 -0.0169938 0.00872432 6.04323 -2.51719 15 1 
374.667 1.20363 6.03251 -0.0170253 0.00868465 6.03956 -2.48239 15 1 
376 1.20364 6.03025 -0.0170931 0.00864956 6.03721 -2.45972 15 1 
377.333 1.20367 6.02993 -0.0171465 0.00860546 6.03675 -2.4008 15 1 
378.667 1.20369 6.0278 -0.0171622 0.00855892 6.03449 -2.37027 15 1 
380 1.20371 6.02601 -0.0171673 0.00853905 6.03259 -2.33486 15 1 
381.333 1.20374 6.02561 -0.0172045 0.0085244 6.0321 -2.2789 15 1 
382.667 1.20377 6.02483 -0.0172996 0.00843879 6.03125 -2.22517 15 1 
384 1.20379 6.02496 -0.017386 0.00833943 6.03127 -2.1781 15 1 
384 1.20379 6.02496 -0.017386 0.00833943 6.03127 -2.1781 15 1 
385.333 1.2038 6.0251 -0.017419 0.00831334 6.03132 -2.16872 15 1 
386.667 1.2038 6.02421 -0.0174492 0.00830805 6.03034 -2.16066 15 1 
388 1.20384 6.02407 -0.0174632 0.00827745 6.03014 -2.10025 15 1 
389.333 1.20387 6.02502 -0.0174955 0.00822654 6.03102 -2.03809 15 1 
390.667 1.20388 6.0262 -0.0175912 0.00815416 6.03212 -2.01712 15 1 
392 1.2039 6.02673 -0.0176522 0.00809571 6.03258 -1.98874 15 1 
393.333 1.20393 6.02672 -0.0176533 0.00806145 6.03251 -1.93088 15 1 
394.667 1.20394 6.02719 -0.0176919 0.00801656 6.03289 -1.91128 15 1 
396 1.20393 6.02813 -0.01775 0.00795235 6.03377 -1.92771 15 1 
397.333 1.20395 6.02916 -0.0177773 0.00790997 6.03475 -1.88981 15 1 
398.667 1.20399 6.03007 -0.0177904 0.00787961 6.03557 -1.82122 15 1 
400 1.204 6.03096 -0.0178082 0.00782578 6.03637 -1.80664 15 1 
401.333 1.204 6.03221 -0.017824 0.00778684 6.03756 -1.80871 15 1 
402.667 1.20403 6.03338 -0.0178468 0.00776639 6.03866 -1.76118 15 1 
404 1.20405 6.03479 -0.017873 0.0077015 6.04002 -1.7125 15 1 
405.333 1.20405 6.03685 -0.0178695 0.00765812 6.04198 -1.71458 15 1 
405.333 1.20405 6.03685 -0.0178695 0.00765812 6.04198 -1.71458 15 1 
406.667 1.20406 6.03839 -0.0178452 0.00768161 6.04344 -1.69948 15 1 
408 1.2041 6.03982 -0.0178708 0.00765897 6.04482 -1.63442 15 1 
409.333 1.2041 6.04232 -0.0179453 0.00755565 6.04726 -1.61925 15 1 
410.667 1.20408 6.04471 -0.018002 0.00749453 6.04957 -1.65421 15 1 
412 1.20411 6.04644 -0.0180104 0.00752915 6.05124 -1.60491 15 1 
413.333 1.20416 6.04927 -0.0180027 0.00755877 6.05401 -1.52483 15 1 
414.667 1.20413 6.05333 -0.0180249 0.00750273 6.05801 -1.56343 15 1 
416 1.20412 6.05649 -0.0180707 0.00744309 6.0611 -1.58043 15 1 
417.333 1.2042 6.05863 -0.0181008 0.00742577 6.06319 -1.44242 15 1 
418.667 1.20423 6.06199 -0.0181346 0.00738446 6.06648 -1.39778 15 1 
420 1.20415 6.06595 -0.0181849 0.00733735 6.07039 -1.52822 15 1 
421.333 1.20416 6.06828 -0.018234 0.00734274 6.07268 -1.50835 15 1 
422.667 1.20425 6.0712 -0.0182718 0.00735633 6.07556 -1.34627 15 1 
424 1.20424 6.07746 -0.0183234 0.00733159 6.08177 -1.37319 15 1 
425.333 1.20419 6.0833 -0.0183878 0.00729362 6.08755 -1.46575 15 1 
426.667 1.20425 6.08589 -0.0184076 0.00727369 6.09009 -1.35798 15 1 
426.667 1.20425 6.08589 -0.0184076 0.00727369 6.09009 -1.35798 20 1 
428 1.20429 6.08967 -0.0183896 0.0072636 6.09381 -1.28033 20 1 
429.333 1.20424 6.09579 -0.0183973 0.00726871 6.09987 -1.37151 20 1 
430.667 1.20426 6.09943 -0.0184362 0.00729159 6.10348 -1.33644 20 1 
432 1.20433 6.10225 -0.0185047 0.00728933 6.10626 -1.20696 20 1 
433.333 1.2043 6.10899 -0.0185707 0.00726896 6.11295 -1.27188 20 1 
434.667 1.20426 6.11529 -0.0185705 0.00728232 6.11918 -1.33021 20 1 
436 1.20434 6.11737 -0.0185257 0.00728779 6.12117 -1.19327 20 1 
437.333 1.20435 6.12047 -0.0184923 0.00724384 6.12419 -1.17454 20 1 
438.667 1.2043 6.12482 -0.0184822 0.00720431 6.12846 -1.27136 20 1 
440 1.20436 6.12505 -0.0185089 0.00720519 6.12864 -1.16301 20 1 
441.333 1.2044 6.12548 -0.0185446 0.00721661 6.12903 -1.07886 20 1 
442.667 1.20433 6.13058 -0.0185098 0.00720646 6.13405 -1.20435 20 1 
444 1.20436 6.13281 -0.0183448 0.00718594 6.13618 -1.14729 20 1 
445.333 1.20446 6.1294 -0.0180509 0.00715334 6.13261 -0.980806 20 1 
446.667 1.20439 6.12498 -0.017653 0.00706507 6.128 -1.0932 20 1 
448 1.20437 6.11491 -0.017166 0.00693809 6.11773 -1.13526 20 1 
448 1.20437 6.11491 -0.017166 0.00693809 6.11773 -1.13526 20 1 
449.333 1.20448 6.09524 -0.0166508 0.00685452 6.09785 -0.93586 20 1 
450.667 1.20445 6.07413 -0.0161563 0.00684659 6.07655 -0.992978 20 1 
452 1.20439 6.05379 -0.015624 0.0068999 6.05597 -1.1072 20 1 
453.333 1.20453 6.02914 -0.0150018 0.00698455 6.03105 -0.857145 20 1 
454.667 1.20456 6.00295 -0.0143193 0.00706282 6.0046 -0.791584 20 1 
456 1.20443 5.97419 -0.0136784 0.00709732 5.97563 -1.03202 20 1 
457.333 1.2045 5.93524 -0.0132541 0.00707275 5.93655 -0.909797 20 1 
458.667 1.20461 5.89074 -0.0131751 0.00704555 5.89203 -0.701343 20 1 
460 1.20451 5.84838 -0.0133356 0.00716155 5.8497 -0.878005 20 1 
461.333 1.20449 5.80838 -0.0134752 0.00750925 5.8097 -0.915079 20 1 
462.667 1.20459 5.7803 -0.0133521 0.00806619 5.78155 -0.747008 20 1 
464 1.20455 5.77433 -0.0128706 0.00876626 5.77541 -0.804524 20 1 
465.333 1.20456 5.7831 -0.0120917 0.00949405 5.78395 -0.788041 20 1 
466.667 1.20465 5.80205 -0.0111337 0.0101238 5.80269 -0.640476 20 1 
468 1.20459 5.83474 -0.0100848 0.0105567 5.83518 -0.733052 20 1 
469.333 1.2046 5.86994 -0.00896834 0.0107382 5.87021 -0.729863 20 1 
469.333 1.2046 5.86994 -0.00896834 0.0107382 5.87021 -0.729863 20 1 
470.667 1.2047 5.89256 -0.00780928 0.0106685 5.89271 -0.542756 20 1 
472 1.20463 5.89906 -0.00673213 0.0103548 5.89914 -0.664617 20 1 
473.333 1.20456 5.88382 -0.00590684 0.00987133 5.88386 -0.797794 20 1 
474.667 1.20464 5.84353 -0.00538393 0.00941869 5.84358 -0.648607 20 1 
476 1.20461 5.78792 -0.00509484 0.00917334 5.78798 -0.70607 20 1 
477.333 1.20451 5.7253 -0.00495566 0.0091837 5.72536 -0.889926 20 1 
478.667 1.20454 5.66212 -0.00490816 0.00942083 5.66217 -0.831792 20 1 
480 1.20455 5.61028 -0.00490431 0.00982808 5.61032 -0.821677 20 1 
481.333 1.20451 5.57478 -0.00493513 0.0103453 5.5748 -0.890637 20 1 
482.667 1.20455 5.55531 -0.00500019 0.0109166 5.55533 -0.821307 20 1 
484 1.20455 5.55585 -0.00504474 0.0114917 5.55587 -0.810531 20 1 
485.333 1.20455 5.57609 -0.00505382 0.0120515 5.57611 -0.815093 20 1 
486.667 1.20463 5.61259 -0.00506611 0.0125893 5.61262 -0.665833 20 1 
488 1.20469 5.66584 -0.00509537 0.0130596 5.66589 -0.567808 20 1 
489.333 1.20472 5.73321 -0.00512412 0.0134491 5.73328 -0.50036 20 1 
490.667 1.20481 5.81108 -0.00514376 0.0138005 5.81117 -0.337049 20 1 
490.667 1.20481 5.81108 -0.00514376 0.0138005 5.81117 -0.337049 20 1 
492 1.20488 5.9002 -0.00514693 0.0141335 5.9003 -0.217316 20 1 
493.333 1.20496 5.9988 -0.00514628 0.0144109 5.99892 -0.0808885 20 1 
494.667 1.20506 6.10381 -0.00516587 0.014619 6.10395 0.104204 20 1 
496 1.20509 6.21511 -0.00519958 0.0147856 6.21525 0.169633 20 1 
497.333 1.20514 6.33199 -0.005221 0.0149357 6.33214 0.253348 20 1 
498.667 1.20525 6.45432 -0.00522113 0.0150796 6.45448 0.449038 20 1 
500 1.20532 6.581 -0.00521875 0.0152051 6.58116 0.578027 20 1 
501.333 1.20535 6.70852 -0.00522334 0.0152952 6.70869 0.635755 20 1 
502.667 1.20538 6.83801 -0.00523458 0.0153416 6.83817 0.678277 20 1 
504 1.20543 6.97156 -0.0052555 0.0153647 6.97173 0.782705 20 1 
505.333 1.20554 7.10578 -0.00527754 0.0153925 7.10594 0.981751 20 1 
506.667 1.20556 7.23822 -0.0052777 0.0154216 7.23838 1.00443 20 1 
508 1.20548 7.36949 -0.00526872 0.0154292 7.36965 0.865363 20 1 
509.333 1.20551 7.50113 -0.00529078 0.0153912 7.50128 0.919427 20 1 
510.667 1.20562 7.63385 -0.00534364 0.0153077 7.634 1.11103 20 1 
512 1.20565 7.76336 -0.0053929 0.0152284 7.7635 1.18164 20 1 
512 1.20565 7.76336 -0.0053929 0.0152284 7.7635 1.18164 21 1 
513.333 1.20557 7.88683 -0.00541629 0.0151716 7.88696 1.02411 21 1 
514.667 1.20544 8.00808 -0.00541482 0.0151006 8.00821 0.798634 21 1 
516 1.20549 8.12953 -0.0054077 0.0150129 8.12965 0.892121 21 1 
517.333 1.20563 8.24924 -0.00541475 0.0149384 8.24935 1.14675 21 1 
518.667 1.20561 8.36294 -0.00543957 0.0148569 8.36304 1.09817 21 1 
520 1.20546 8.46852 -0.00546935 0.0147341 8.46861 0.830687 21 1 
521.333 1.20536 8.57164 -0.00548567 0.0145828 8.57173 0.64387 21 1 
522.667 1.20541 8.67557 -0.00549568 0.0144471 8.67565 0.736477 21 1 
524 1.20552 8.7754 -0.00549242 0.014349 8.77547 0.947625 21 1 
525.333 1.20545 8.86686 -0.00547924 0.0142577 8.86693 0.81353 21 1 
526.667 1.20527 8.9508 -0.005486 0.0141338 8.95087 0.479498 21 1 
528 1.20521 9.03334 -0.00552081 0.0139537 9.0334 0.386911 21 1 
529.333 1.20529 9.11719 -0.00553933 0.0137861 9.11724 0.525576 21 1 
530.667 1.20537 9.19594 -0.00550481 0.0137054 9.19599 0.67481 21 1 
532 1.2053 9.26578 -0.00545235 0.0136452 9.26582 0.535719 21 1 
533.333 1.2051 9.32985 -0.00541229 0.0135475 9.3299 0.189189 21 1 
533.333 1.2051 9.32985 -0.00541229 0.0135475 9.3299 0.189189 21 1 
534.667 1.20506 9.39235 -0.00538991 0.0134172 9.39239 0.109966 21 1 
536 1.20517 9.45484 -0.00538724 0.0132468 9.45487 0.309448 21 1 
537.333 1.20524 9.51257 -0.00540868 0.0130699 9.5126 0.439077 21 1 
538.667 1.20515 9.56071 -0.00540389 0.0129297 9.56073 0.278631 21 1 
540 1.20497 9.60194 -0.0053235 0.0128047 9.60196 -0.0563327 21 1 
541.333 1.20492 9.64138 -0.00523099 0.0126673 9.6414 -0.150093 21 1 
542.667 1.20504 9.67986 -0.00518434 0.0125094 9.67988 0.0736963 21 1 
544 1.20513 9.71231 -0.00518795 0.0123284 9.71233 0.228096 21 1 
545.333 1.20504 9.7351 -0.00517034 0.012181 9.73511 0.0743885 21 1 
546.667 1.20488 9.75171 -0.0050955 0.0120912 9.75172 -0.210717 21 1 
548 1.20484 9.7688 -0.00502943 0.0120083 9.76881 -0.286301 21 1 
549.333 1.20495 9.78753 -0.00498791 0.0119158 9.78754 -0.0876886 21 1 
550.667 1.20503 9.80217 -0.00496234 0.0118286 9.80218 0.0507241 21 1 
552 1.20493 9.81105 -0.00493649 0.0117706 9.81106 -0.134687 21 1 
553.333 1.20478 9.81822 -0.00491233 0.0117243 9.81823 -0.389362 21 1 
554.667 1.20478 9.82796 -0.00489728 0.0116757 9.82797 -0.400853 21 1 
554.667 1.20478 9.82796 -0.00489728 0.0116757 9.82797 -0.400853 22 1 
556 1.20487 9.841 -0.00487614 0.0116403 9.84101 -0.22848 22 1 
557.333 1.20495 9.85245 -0.00482875 0.0116139 9.85246 -0.0893323 22 1 
558.667 1.20488 9.85928 -0.0047722 0.011591 9.85929 -0.22353 22 1 
560 1.20473 9.86434 -0.00471404 0.0115828 9.86435 -0.481552 22 1 
561.333 1.20473 9.87159 -0.00465537 0.0115474 9.8716 -0.493112 22 1 
562.667 1.20482 9.88166 -0.00461815 0.0114777 9.88167 -0.332768 22 1 
564 1.20488 9.89012 -0.0046053 0.0114008 9.89013 -0.217746 22 1 
565.333 1.20483 9.89368 -0.00458012 0.0113356 9.89369 -0.313984 22 1 
566.667 1.20469 9.89564 -0.00450564 0.0113102 9.89565 -0.564837 22 1 
568 1.20466 9.90001 -0.00442932 0.0112902 9.90002 -0.61356 22 1 
569.333 1.20475 9.90709 -0.00439986 0.0112204 9.9071 -0.443182 22 1 
570.667 1.20483 9.91344 -0.00438285 0.0111375 9.91344 -0.310939 22 1 
572 1.20479 9.91588 -0.00433626 0.0111058 9.91589 -0.383102 22 1 
573.333 1.20467 9.91623 -0.00428423 0.0110981 9.91624 -0.59477 22 1 
574.667 1.20463 9.91865 -0.00423355 0.0110659 9.91866 -0.662418 22 1 
576 1.2047 9.92381 -0.00418129 0.0110074 9.92382 -0.5421 22 1 
576 1.2047 9.92381 -0.00418129 0.0110074 9.92382 -0.5421 22 1 
577.333 1.20476 9.92849 -0.00414616 0.010956 9.9285 -0.428242 22 1 
578.667 1.20474 9.93075 -0.00410277 0.0109229 9.93075 -0.467468 22 1 
580 1.20465 9.93092 -0.00406234 0.0108506 9.93093 -0.638538 22 1 
581.333 1.2046 9.93222 -0.00401104 0.0107751 9.93223 -0.730889 22 1 
582.667 1.20465 9.93695 -0.00393298 0.0107411 9.93695 -0.63128 22 1 
584 1.20473 9.94125 -0.00387256 0.0106828 9.94125 -0.491379 22 1 
585.333 1.20472 9.94339 -0.00381589 0.0106156 9.94339 -0.502064 22 1 
586.667 1.20464 9.9443 -0.00373214 0.0106044 9.94431 -0.64717 22 1 
588 1.20458 9.94489 -0.00365814 0.0105979 9.94489 -0.766298 22 1 
589.333 1.2046 9.94794 -0.00361093 0.010533 9.94795 -0.726031 22 1 
590.667 1.20468 9.95235 -0.00360373 0.0104408 9.95236 -0.578698 22 1 
592 1.2047 9.95483 -0.00358226 0.0103953 9.95484 -0.545176 22 1 
593.333 1.20462 9.95545 -0.00349044 0.0103937 9.95546 -0.687657 22 1 
594.667 1.20455 9.95518 -0.00338543 0.0103985 9.95519 -0.804829 22 1 
596 1.20457 9.9568 -0.00332539 0.0103745 9.9568 -0.773423 22 1 
597.333 1.20462 9.96082 -0.00330307 0.0102849 9.96083 -0.684587 22 1 
597.333 1.20462 9.96082 -0.00330307 0.0102849 9.96083 -0.684587 24 1 
598.667 1.20465 9.96347 -0.00329342 0.0101844 9.96347 -0.624827 24 1 
600 1.20463 9.96399 -0.00324457 0.0101413 9.964 -0.668602 24 1 
601.333 1.20456 9.96313 -0.00315018 0.0101221 9.96313 -0.792009 24 1 
602.667 1.20454 9.96308 -0.00305545 0.0100965 9.96309 -0.839885 24 1 
604 1.20456 9.96564 -0.00300089 0.0100484 9.96565 -0.793294 24 1 
605.333 1.2046 9.96781 -0.00299515 0.00995352 9.96781 -0.728796 24 1 
606.667 1.2046 9.96818 -0.00297269 0.00986451 9.96819 -0.730336 24 1 
608 1.20455 9.96797 -0.00291874 0.00980524 9.96797 -0.811682 24 1 
609.333 1.20452 9.96774 -0.00284265 0.00977917 9.96775 -0.868261 24 1 
610.667 1.20454 9.96884 -0.00275495 0.00975598 9.96884 -0.836931 24 1 
612 1.20457 9.97074 -0.00267855 0.00971827 9.97075 -0.781453 24 1 
613.333 1.20456 9.97131 -0.00263334 0.00965596 9.97131 -0.793685 24 1 
614.667 1.20454 9.97073 -0.002593 0.00957517 9.97074 -0.834925 24 1 
616 1.2045 9.97018 -0.00254731 0.00950404 9.97018 -0.895266 24 1 
617.333 1.20449 9.97024 -0.00248167 0.00946905 9.97025 -0.917267 24 1 
618.667 1.20452 9.97131 -0.00239809 0.00943302 9.97131 -0.863346 24 1 
618.667 1.20452 9.97131 -0.00239809 0.00943302 9.97131 -0.863346 24 1 
620 1.20453 9.97241 -0.00228689 0.00940081 9.97241 -0.840809 24 1 
621.333 1.20452 9.97239 -0.00220682 0.0093632 9.9724 -0.861516 24 1 
622.667 1.20449 9.9722 -0.00217528 0.0093039 9.9722 -0.928023 24 1 
624 1.20447 9.97218 -0.00213581 0.00923901 9.97219 -0.953741 24 1 
625.333 1.20449 9.97299 -0.00207228 0.00917115 9.97299 -0.91253 24 1 
626.667 1.20451 9.97449 -0.00197608 0.00914734 9.9745 -0.877591 24 1 
628 1.20452 9.97439 -0.00189724 0.00913492 9.9744 -0.873396 24 1 
629.333 1.20448 9.97367 -0.00184507 0.00909389 9.97367 -0.933933 24 1 
630.667 1.20444 9.97326 -0.00180526 0.00901564 9.97327 -1.00315 24 1 
632 1.20443 9.9734 -0.00178155 0.00893825 9.97341 -1.02377 24 1 
633.333 1.20447 9.97489 -0.00174647 0.00889386 9.9749 -0.953387 24 1 
634.667 1.20451 9.97639 -0.00166283 0.00887818 9.97639 -0.891077 24 1 
636 1.2045 9.97708 -0.00156684 0.0088705 9.97709 -0.897916 24 1 
637.333 1.20448 9.9763 -0.00153839 0.00881495 9.9763 -0.93805 24 1 
638.667 1.20443 9.97525 -0.0015218 0.00874981 9.97526 -1.02081 24 1 
640 1.20441 9.97555 -0.00145568 0.00872181 9.97555 -1.05751 24 1 
640 1.20441 9.97555 -0.00145568 0.00872181 9.97555 -1.05751 24 1 
641.333 1.20444 9.97691 -0.00137881 0.00870596 9.97691 -1.01114 24 1 
642.667 1.20449 9.9785 -0.00133394 0.00866122 9.97851 -0.922687 24 1 
644 1.20449 9.97933 -0.00132009 0.00858657 9.97933 -0.918718 24 1 
645.333 1.20446 9.97916 -0.00129168 0.00852586 9.97916 -0.984082 24 1 
646.667 1.20442 9.97872 -0.00123015 0.00850419 9.97872 -1.04013 24 1 
648 1.20442 9.9791 -0.00114648 0.00848868 9.9791 -1.05434 24 1 
649.333 1.20446 9.98057 -0.00105755 0.00848034 9.98058 -0.982386 24 1 
650.667 1.20448 9.98228 -0.00101076 0.00845183 9.98228 -0.940361 24 1 
652 1.20447 9.98204 -0.000999562 0.00836954 9.98204 -0.950059 24 1 
653.333 1.20444 9.98104 -0.000971729 0.00829598 9.98104 -1.01716 24 1 
654.667 1.2044 9.98054 -0.000927569 0.00825464 9.98054 -1.08181 24 1 
656 1.20442 9.9811 -0.000856247 0.00823356 9.9811 -1.05229 24 1 
657.333 1.20446 9.98298 -0.00077651 0.00821424 9.98298 -0.972956 24 1 
658.667 1.20449 9.98406 -0.000718182 0.00818486 9.98407 -0.927852 24 1 
660 1.20446 9.98425 -0.000678168 0.00813347 9.98425 -0.975062 24 1 
661.333 1.20442 9.98348 -0.000650728 0.00806288 9.98349 -1.04234 24 1 
661.333 1.20442 9.98348 -0.000650728 0.00806288 9.98349 -1.04234 24 1 
662.667 1.20441 9.98368 -0.000615031 0.00801231 9.98368 -1.07247 24 1 
664 1.20443 9.98491 -0.000553909 0.00797802 9.98491 -1.03549 24 1 
665.333 1.20446 9.98617 -0.00048669 0.00794585 9.98617 -0.970783 24 1 
666.667 1.20448 9.98737 -0.000405391 0.00793251 9.98738 -0.944894 24 1 
668 1.20444 9.98661 -0.00036167 0.00789097 9.98662 -1.0111 24 1 
669.333 1.2044 9.98572 -0.000324851 0.00783716 9.98572 -1.0756 24 1 
670.667 1.20442 9.98612 -0.00030013 0.00776479 9.98613 -1.04541 24 1 
672 1.20445 9.98679 -0.000269849 0.00770399 9.98679 -1.00221 24 1 
673.333 1.20447 9.98751 -0.000217785 0.00767275 9.98751 -0.952801 24 1 
674.667 1.20446 9.98701 -0.000160291 0.00764256 9.98702 -0.967447 24 1 
676 1.20443 9.98546 -8.01274e-05 0.00763505 9.98546 -1.03684 24 1 
677.333 1.2044 9.98513 4.60714e-08 0.00762499 9.98514 -1.09084 24 1 
678.667 1.20441 9.98542 5.49794e-05 0.00759974 9.98543 -1.06512 24 1 
680 1.20445 9.98649 6.07122e-05 0.00752996 9.98649 -0.998753 24 1 
681.333 1.20447 9.98854 5.74704e-05 0.00743462 9.98854 -0.961627 24 1 
682.667 1.20447 9.98859 0.000108557 0.00739834 9.98859 -0.951946 24 1 
682.667 1.20447 9.98859 0.000108557 0.00739834 9.98859 -0.951946 31 1 
684 1.20444 9.98828 0.000159287 0.00738074 9.98829 -1.01579 31 1 
685.333 1.2044 9.98791 0.000206001 0.00734672 9.98791 -1.0751 31 1 
686.667 1.2044 9.98692 0.000252674 0.00729903 9.98692 -1.08795 31 1 
688 1.20442 9.98724 0.000286519 0.00725558 9.98724 -1.04134 31 1 
689.333 1.20445 9.98767 0.00035572 0.00725263 9.98767 -0.984734 31 1 
690.667 1.20447 9.98733 0.000430347 0.00724068 9.98733 -0.960986 31 1 
692 1.20445 9.98694 0.000473863 0.00720071 9.98694 -0.98483 31 1 
693.333 1.20442 9.98587 0.000466193 0.00712511 9.98587 -1.0501 31 1 
694.667 1.2044 9.98591 0.000452804 0.00702954 9.98591 -1.08147 31 1 
696 1.20442 9.98802 0.000466426 0.00695511 9.98803 -1.04612 31 1 
697.333 1.20445 9.98926 0.000512581 0.00693391 9.98926 -0.989377 31 1 
698.667 1.20447 9.99077 0.000615797 0.00695425 9.99077 -0.963789 31 1 
700 1.20446 9.99047 0.000724884 0.006971 9.99047 -0.978529 31 1 
701.333 1.20443 9.98852 0.000756284 0.00693916 9.98852 -1.03552 31 1 
702.667 1.20441 9.98795 0.000717643 0.00683383 9.98796 -1.05738 31 1 
704 1.20443 9.98701 0.000680914 0.00671522 9.98702 -1.0348 31 1 
704 1.20443 9.98701 0.000680914 0.00671522 9.98702 -1.0348 31 1 
705.333 1.20446 9.98775 0.00072403 0.00668204 9.98775 -0.966209 31 1 
706.667 1.20449 9.98935 0.00082224 0.00670653 9.98935 -0.913376 31 1 
708 1.20449 9.98963 0.000920341 0.00673069 9.98963 -0.916633 31 1 
709.333 1.20447 9.99102 0.000968026 0.00670789 9.99102 -0.959017 31 1 
710.667 1.20443 9.99114 0.000932445 0.0066098 9.99114 -1.03002 31 1 
712 1.20443 9.99101 0.000887414 0.00649488 9.99101 -1.02285 31 1 
713.333 1.20448 9.99265 0.000893736 0.00642256 9.99265 -0.946607 31 1 
714.667 1.20451 9.99212 0.000977324 0.00644417 9.99212 -0.882148 31 1 
716 1.20454 9.99226 0.00110735 0.00650961 9.99226 -0.826438 31 1 
717.333 1.20454 9.99151 0.00119378 0.00651613 9.99151 -0.825574 31 1 
718.667 1.2045 9.99007 0.00120825 0.00647319 9.99007 -0.89564 31 1 
720 1.20449 9.99138 0.00114058 0.00635571 9.99139 -0.922936 31 1 
721.333 1.20448 9.99226 0.00108463 0.00622473 9.99226 -0.943259 31 1 
722.667 1.20449 9.99458 0.00109188 0.00616819 9.99459 -0.919671 31 1 
724 1.20454 9.99709 0.00113947 0.00615888 9.9971 -0.826882 31 1 
725.333 1.20458 9.99676 0.00120348 0.00615464 9.99676 -0.754564 31 1 
725.333 1.20458 9.99676 0.00120348 0.00615464 9.99676 -0.754564 31 1 
726.667 1.2046 9.99638 0.00127864 0.00616858 9.99638 -0.724529 31 1 
728 1.20458 9.9941 0.00134157 0.00617613 9.9941 -0.765018 31 1 
729.333 1.20455 9.99214 0.00135148 0.0061255 9.99214 -0.817681 31 1 
730.667 1.20454 9.99364 0.0013213 0.00603696 9.99364 -0.83755 31 1 
732 1.20455 9.99523 0.00126558 0.00592796 9.99523 -0.804732 31 1 
733.333 1.2046 9.99893 0.00121183 0.00581869 9.99893 -0.729764 31 1 
734.667 1.20462 10.0015 0.00121886 0.00576593 10.0015 -0.693493 31 1 
736 1.20461 10.0005 0.0012967 0.00578978 10.0005 -0.703287 31 1 
737.333 1.20462 9.99999 0.00139289 0.00583782 9.99999 -0.689826 31 1 
738.667 1.20462 9.99692 0.00146562 0.00583815 9.99692 -0.685674 31 1 
740 1.20465 9.99561 0.0014646 0.00577472 9.99561 -0.632037 31 1 
741.333 1.2047 9.99915 0.00143033 0.00570143 9.99915 -0.542943 31 1 
742.667 1.2047 10.0008 0.00140919 0.00562544 10.0009 -0.548077 31 1 
744 1.20468 10.0039 0.00145574 0.00560893 10.0039 -0.571627 31 1 
745.333 1.20467 10.005 0.00152636 0.00563479 10.005 -0.596614 31 1 
746.667 1.20467 10.0033 0.00156344 0.00561074 10.0033 -0.590665 31 1 
746.667 1.20467 10.0033 0.00156344 0.00561074 10.0033 -0.590665 31 1 
748 1.20473 10.0042 0.00156227 0.0055472 10.0042 -0.480284 31 1 
749.333 1.20479 10.0021 0.00151851 0.00546353 10.0021 -0.383798 31 1 
750.667 1.20483 10.0029 0.00147847 0.00537652 10.0029 -0.310167 31 1 
752 1.20485 10.0056 0.0014935 0.00532681 10.0056 -0.274716 31 1 
753.333 1.20484 10.0061 0.00158071 0.00536078 10.0061 -0.294754 31 1 
754.667 1.20483 10.0099 0.00172703 0.00545767 10.0099 -0.304823 31 1 
756 1.20479 10.0089 0.00185338 0.00551708 10.0089 -0.371135 31 1 
757.333 1.20479 10.0072 0.00190759 0.00551232 10.0072 -0.376723 31 1 
758.667 1.20483 10.008 0.00185683 0.00542 10.008 -0.30464 31 1 
760 1.20487 10.0058 0.00176205 0.00526896 10.0058 -0.228007 31 1 
761.333 1.20496 10.0095 0.00170147 0.00515267 10.0095 -0.0680257 31 1 
762.667 1.205 10.0117 0.00167933 0.00508671 10.0117 -0.00394554 31 1 
764 1.20496 10.0117 0.00171821 0.00507925 10.0117 -0.0688895 31 1 
765.333 1.20491 10.0143 0.0018058 0.00512113 10.0143 -0.157074 31 1 
766.667 1.20481 10.0098 0.00193414 0.00520067 10.0098 -0.340997 31 1 
768 1.20475 10.0077 0.0020647 0.00527992 10.0077 -0.444423 31 1 
768 1.20475 10.0077 0.0020647 0.00527992 10.0077 -0.444423 32 1 
769.333 1.20476 10.0063 0.00219105 0.0053421 10.0063 -0.433157 32 1 
770.667 1.2048 10.0048 0.00224826 0.00534965 10.0048 -0.354361 32 1 
772 1.20492 10.0131 0.0022018 0.00526039 10.0131 -0.151763 32 1 
773.333 1.205 10.0178 0.0020946 0.00509198 10.0178 -0.00678618 32 1 
774.667 1.20504 10.022 0.00197774 0.00492028 10.022 0.072832 32 1 
776 1.20501 10.0229 0.00188401 0.0047854 10.0229 0.0128938 32 1 
777.333 1.20488 10.0145 0.00184221 0.00469324 10.0146 -0.220454 32 1 
778.667 1.20478 10.0119 0.00186196 0.00465721 10.0119 -0.393667 32 1 
780 1.20469 10.0071 0.00187865 0.00461567 10.0071 -0.551528 32 1 
781.333 1.20469 10.0066 0.00187983 0.00457466 10.0066 -0.563167 32 1 
782.667 1.20479 10.0134 0.00187369 0.00453332 10.0134 -0.380391 32 1 
784 1.20491 10.0157 0.00187165 0.00447943 10.0157 -0.168697 32 1 
785.333 1.20509 10.0251 0.00187366 0.00442699 10.0251 0.162838 32 1 
786.667 1.20523 10.0295 0.00187379 0.00438176 10.0295 0.413207 32 1 
788 1.20531 10.0293 0.00190705 0.00437383 10.0293 0.554645 32 1 
789.333 1.20538 10.0318 0.00198404 0.00441178 10.0318 0.683004 32 1 
790.667 1.20536 10.0253 0.00213916 0.00452844 10.0253 0.646177 32 1 
792 1.20534 10.0273 0.00232328 0.00466628 10.0273 0.619439 32 1 
793.333 1.20533 10.0298 0.00245101 0.00475516 10.0298 0.58929 32 1 
794.667 1.20532 10.0295 0.00249755 0.00476767 10.0295 0.580702 32 1 
796 1.20541 10.0357 0.0024812 0.00470134 10.0357 0.73755 32 1 
797.333 1.2055 10.0327 0.00237978 0.00456748 10.0327 0.896612 32 1 
798.667 1.20566 10.0372 0.00221405 0.00436339 10.0372 1.18799 32 1 
800 1.20579 10.0471 0.00212642 0.00425661 10.0471 1.42109 32 1 
