0,1.2055,9.99978,5.63734e-05,0.000120407,9.99978,0.907713,1,1,
1.33334,1.20548,10.0003,9.0573e-06,3.01116e-05,10.0003,0.872831,1,1,
2.66666,1.20547,10.001,-0.000103426,-0.000172924,10.001,0.844481,1,1,
4,1.20545,10.0007,-0.00019689,-0.000351916,10.0007,0.805465,1,1,
5.33334,1.20544,10.0005,-0.000272624,-0.000447861,10.0005,0.788924,1,1,
6.66666,1.20547,10.0009,-0.000378988,-0.000571366,10.0009,0.849611,1,1,
8,1.20549,10.0003,-0.000481261,-0.000707993,10.0004,0.885592,1,1,
9.33334,1.20556,9.99946,-0.000558536,-0.000765702,9.99949,1.00794,1,1,
10.6667,1.20565,9.99983,-0.000656689,-0.000824945,9.99986,1.17441,1,1,
12,1.20571,10.0001,-0.000762403,-0.000885274,10.0001,1.28438,1,1,
13.3333,1.20583,9.999,-0.000863666,-0.000905719,9.99904,1.50699,1,1,
14.6667,1.20595,9.99843,-0.000939354,-0.000890773,9.99847,1.71955,1,1,
16,1.20603,9.99826,-0.000994456,-0.000830202,9.9983,1.86688,1,1,
17.3333,1.20614,9.99784,-0.00104087,-0.000735133,9.99788,2.06032,1,1,
18.6667,1.20622,9.99685,-0.00107366,-0.000628132,9.99689,2.20629,1,1,
20,1.2063,9.99622,-0.00102122,-0.000414196,9.99625,2.34021,1,1,
21.3333,1.20637,9.99636,-0.000994883,-0.000218506,9.99638,2.47653,1,1,
21.3333,1.20637,9.99636,-0.000994883,-0.000218506,9.99638,2.47653,1,1,
22.6667,1.2064,9.99516,-0.000943434,-8.55164e-06,9.99518,2.52315,1,1,
24,1.20642,9.99423,-0.000850941,0.000274368,9.99423,2.56608,1,1,
25.3333,1.20644,9.9943,-0.000802917,0.000488638,9.99431,2.5999,1,1,
26.6667,1.20639,9.99356,-0.000712788,0.000714906,9.99356,2.51113,1,1,
28,1.20636,9.99217,-0.000597326,0.00101707,9.99217,2.4478,1,1,
29.3333,1.20631,9.99174,-0.000477813,0.0012808,9.99174,2.36646,1,1,
30.6667,1.2062,9.99203,-0.000363996,0.00149895,9.99203,2.17581,1,1,
32,1.20612,9.99132,-0.000247126,0.00174733,9.99133,2.02199,1,1,
33.3333,1.20601,9.98998,-0.000130579,0.00196263,9.98999,1.82407,1,1,
34.6667,1.20588,9.98987,-5.61913e-06,0.00216956,9.98989,1.58962,1,1,
36,1.20578,9.99076,7.20562e-05,0.00229335,9.99079,1.40977,1,1,
37.3333,1.20566,9.98977,0.000133467,0.00238271,9.98981,1.18462,1,1,
38.6667,1.20553,9.98941,0.000216296,0.0025102,9.98945,0.956505,1,1,
40,1.20543,9.99097,0.000244025,0.00253137,9.99101,0.776225,1,1,
41.3333,1.20531,9.99108,0.000208329,0.00245091,9.99112,0.551554,1,1,
42.6667,1.20521,9.99053,0.000170717,0.0024057,9.99056,0.371593,1,1,
42.6667,1.20521,9.99053,0.000170717,0.0024057,9.99056,0.371593,2,1,
44,1.20512,9.99068,0.00010492,0.00230534,9.99071,0.223085,2,1,
45.3333,1.20501,9.99148,-7.72532e-06,0.00209373,9.99151,0.022894,2,1,
46.6667,1.20496,9.99174,-9.84698e-05,0.00194825,9.99176,-0.075416,2,1,
48,1.20491,9.99183,-0.00018816,0.00180072,9.99185,-0.169469,2,1,
49.3333,1.20484,9.99261,-0.000282312,0.00159636,9.99261,-0.287176,2,1,
50.6667,1.20483,9.99342,-0.000388967,0.00141452,9.99342,-0.314389,2,1,
52,1.20481,9.99263,-0.000535432,0.00118676,9.99263,-0.339253,2,1,
53.3333,1.20482,9.99262,-0.000665711,0.00101453,9.99262,-0.333611,2,1,
54.6667,1.20484,9.99408,-0.000825228,0.000778356,9.99409,-0.292906,2,1,
56,1.20485,9.99359,-0.000993866,0.000549871,9.9936,-0.266765,2,1,
57.3333,1.20492,9.99272,-0.00111391,0.000462642,9.99273,-0.147948,2,1,
58.6667,1.20499,9.99339,-0.00125314,0.000310391,9.99341,-0.0169191,2,1,
60,1.20504,9.99364,-0.00137671,0.000197952,9.99366,0.0665536,2,1,
61.3333,1.20513,9.99255,-0.00145415,0.000192094,9.99257,0.235354,2,1,
62.6667,1.20521,9.9925,-0.00149393,0.000250715,9.99253,0.388277,2,1,
64,1.20529,9.99261,-0.00151912,0.000292275,9.99264,0.519311,2,1,
64,1.20529,9.99261,-0.00151912,0.000292275,9.99264,0.519311,2,1,
65.3333,1.20537,9.99271,-0.00153624,0.000379579,9.99273,0.673924,2,1,
66.6667,1.20546,9.99168,-0.00150344,0.000578166,9.99171,0.822676,2,1,
68,1.20554,9.9917,-0.00143863,0.000797778,9.99172,0.979724,2,1,
69.3333,1.20564,9.99246,-0.00140046,0.000975124,9.99248,1.15108,2,1,
70.6667,1.20569,9.99113,-0.00130066,0.00124581,9.99115,1.25253,2,1,
72,1.20574,9.99054,-0.00117858,0.00160599,9.99055,1.34481,2,1,
73.3333,1.20582,9.99093,-0.00105456,0.00189512,9.99094,1.47463,2,1,
74.6667,1.20583,9.99081,-0.00091663,0.00218648,9.99081,1.50731,2,1,
76,1.20587,9.98948,-0.000745951,0.00259334,9.98948,1.57165,2,1,
77.3333,1.20589,9.98931,-0.000575291,0.00295365,9.98931,1.60249,2,1,
78.6667,1.20587,9.9905,-0.000426588,0.00323225,9.9905,1.5747,2,1,
80,1.2059,9.99028,-0.000272924,0.00356701,9.99029,1.62071,2,1,
81.3333,1.20584,9.98927,-0.000120719,0.00390411,9.98928,1.52294,2,1,
82.6667,1.20577,9.98885,1.12472e-05,0.00417037,9.98886,1.39525,2,1,
84,1.20575,9.98873,7.38271e-05,0.00431493,9.98874,1.35361,2,1,
85.3333,1.20565,9.98826,0.000173058,0.00454512,9.98827,1.17815,2,1,
85.3333,1.20565,9.98826,0.000173058,0.00454512,9.98827,1.17815,3,1,
86.6667,1.20556,9.98763,0.000285773,0.00479566,9.98764,1.01836,3,1,
88,1.20551,9.98838,0.000300195,0.00484845,9.98839,0.91642,3,1,
89.3333,1.20541,9.98896,0.000348208,0.00492389,9.98897,0.746463,3,1,
90.6667,1.20532,9.9888,0.00040594,0.00508301,9.98881,0.578356,3,1,
92,1.20523,9.98819,0.00040121,0.0051172,9.9882,0.423501,3,1,
93.3333,1.20513,9.98797,0.000400382,0.00507641,9.98798,0.227551,3,1,
94.6667,1.20502,9.98851,0.000363729,0.00506412,9.98852,0.0310007,3,1,
96,1.20493,9.98782,0.000322432,0.00506291,9.98782,-0.128901,3,1,
97.3333,1.20485,9.98794,0.000261896,0.00496297,9.98794,-0.277929,3,1,
98.6667,1.20478,9.98886,0.000131348,0.00478471,9.98887,-0.402457,3,1,
100,1.20471,9.98861,9.70826e-05,0.00477255,9.98861,-0.524702,3,1,
101.333,1.20468,9.98846,7.69067e-06,0.00469843,9.98847,-0.585684,3,1,
102.667,1.20466,9.98931,-9.94975e-05,0.00454337,9.98931,-0.617991,3,1,
104,1.20461,9.9906,-9.99498e-05,0.00452404,9.9906,-0.702211,3,1,
105.333,1.20462,9.99065,-0.000170548,0.00454619,9.99065,-0.694697,3,1,
106.667,1.20462,9.99039,-0.000255015,0.00444481,9.9904,-0.683223,3,1,
106.667,1.20462,9.99039,-0.000255015,0.00444481,9.9904,-0.683223,3,1,
108,1.20461,9.99043,-0.000292473,0.00440131,9.99043,-0.705159,3,1,
109.333,1.20466,9.9903,-0.000313109,0.00448872,9.9903,-0.621712,3,1,
110.667,1.2047,9.98995,-0.000391399,0.00446937,9.98995,-0.550447,3,1,
112,1.20472,9.99074,-0.000422025,0.00446657,9.99074,-0.501346,3,1,
113.333,1.20481,9.99212,-0.000429938,0.00453406,9.99212,-0.339122,3,1,
114.667,1.20485,9.99252,-0.000434276,0.00467745,9.99253,-0.270845,3,1,
116,1.20487,9.99218,-0.000393158,0.00480913,9.99218,-0.227386,3,1,
117.333,1.20497,9.991,-0.000370069,0.00491708,9.991,-0.0565376,3,1,
118.667,1.20497,9.99168,-0.000272066,0.00514599,9.99168,-0.0561289,3,1,
120,1.20501,9.9904,-0.00020605,0.00539683,9.9904,0.0106049,3,1,
121.333,1.20507,9.98926,-0.000168774,0.00554993,9.98926,0.13526,3,1,
122.667,1.20508,9.99135,-5.21342e-05,0.00575092,9.99135,0.145281,3,1,
124,1.20512,9.99163,4.36266e-05,0.006041,9.99163,0.220198,3,1,
125.333,1.20512,9.99126,0.000112811,0.00627389,9.99127,0.21358,3,1,
126.667,1.20511,9.99018,0.000179491,0.00644654,9.99018,0.189792,3,1,
128,1.20509,9.99014,0.000301893,0.00669086,9.99015,0.159392,3,1,
128,1.20509,9.99014,0.000301893,0.00669086,9.99015,0.159392,3,1,
129.333,1.20505,9.98929,0.000370633,0.00694116,9.98929,0.0813855,3,1,
130.667,1.20501,9.98776,0.000452215,0.00717082,9.98777,0.00984565,3,1,
132,1.20497,9.98917,0.000552575,0.00735548,9.98918,-0.0618017,3,1,
133.333,1.20492,9.98996,0.000633563,0.00757891,9.98997,-0.142331,3,1,
134.667,1.20486,9.98924,0.000681357,0.00780143,9.98925,-0.256979,3,1,
136,1.20481,9.9882,0.000705534,0.00791217,9.9882,-0.339982,3,1,
137.333,1.20475,9.98883,0.000776465,0.00807638,9.98884,-0.455216,3,1,
138.667,1.20468,9.98949,0.000790007,0.00824544,9.98949,-0.572901,3,1,
140,1.20462,9.98916,0.000789459,0.00832525,9.98917,-0.684193,3,1,
141.333,1.20455,9.98938,0.000764714,0.00839105,9.98938,-0.806029,3,1,
142.667,1.2045,9.99001,0.000795192,0.00851398,9.99002,-0.899108,3,1,
144,1.20445,9.98946,0.000756332,0.00857124,9.98946,-1.00084,3,1,
145.333,1.2044,9.9881,0.000692265,0.00861846,9.98811,-1.07617,3,1,
146.667,1.20438,9.98954,0.000681781,0.00867221,9.98954,-1.11158,3,1,
148,1.20435,9.99104,0.000644726,0.00871172,9.99105,-1.17108,3,1,
149.333,1.20433,9.9902,0.000558115,0.00869763,9.99021,-1.21272,3,1,
149.333,1.20433,9.9902,0.000558115,0.00869763,9.99021,-1.21272,3,1,
150.667,1.20433,9.99029,0.000486392,0.00869342,9.9903,-1.20235,3,1,
152,1.20432,9.99137,0.000474296,0.00872366,9.99138,-1.2278,3,1,
153.333,1.20429,9.99123,0.000394972,0.00871819,9.99123,-1.27909,3,1,
154.667,1.20429,9.99004,0.000284807,0.00867753,9.99004,-1.28835,3,1,
156,1.2043,9.99019,0.000267497,0.00870531,9.99019,-1.27238,3,1,
157.333,1.20429,9.99149,0.000226845,0.00872624,9.9915,-1.28862,3,1,
158.667,1.20429,9.99057,0.000131902,0.00868615,9.99057,-1.28585,3,1,
160,1.2043,9.98927,0.00010248,0.00872974,9.98927,-1.26151,3,1,
161.333,1.20429,9.99075,0.000105929,0.00878211,9.99075,-1.28655,3,1,
162.667,1.20429,9.99071,6.68138e-05,0.0087966,9.99072,-1.29013,3,1,
164,1.20429,9.98873,3.58035e-06,0.00882557,9.98874,-1.29006,3,1,
165.333,1.20427,9.98964,-4.42061e-06,0.00891393,9.98964,-1.32075,3,1,
166.667,1.20427,9.99,2.42267e-05,0.0090186,9.99001,-1.31621,3,1,
168,1.20423,9.989,1.75957e-05,0.00905537,9.98901,-1.39965,3,1,
169.333,1.2042,9.98806,-1.7378e-05,0.00916116,9.98806,-1.45303,3,1,
170.667,1.20421,9.98845,6.07581e-05,0.00934362,9.98845,-1.43316,3,1,
170.667,1.20421,9.98845,6.07581e-05,0.00934362,9.98845,-1.43316,11,1,
172,1.20416,9.98959,0.000117528,0.00945298,9.98959,-1.5142,11,1,
173.333,1.20413,9.98754,0.000131598,0.00960845,9.98755,-1.56417,11,1,
174.667,1.20413,9.98708,0.000128191,0.00980859,9.98709,-1.57897,11,1,
176,1.2041,9.98787,0.000203554,0.00995845,9.98788,-1.62467,11,1,
177.333,1.20407,9.98716,0.000260515,0.0101084,9.98717,-1.68119,11,1,
178.667,1.20405,9.98609,0.000235611,0.010256,9.9861,-1.72005,11,1,
180,1.20403,9.98628,0.000310818,0.0104314,9.98629,-1.74954,11,1,
181.333,1.204,9.98818,0.000411234,0.0105962,9.98818,-1.79847,11,1,
182.667,1.20399,9.9875,0.000489185,0.0108269,9.9875,-1.83056,11,1,
184,1.20398,9.98555,0.000489345,0.0109838,9.98555,-1.83941,11,1,
185.333,1.20395,9.98565,0.000505526,0.0110866,9.98565,-1.89437,11,1,
186.667,1.20393,9.98455,0.0005512,0.0112274,9.98456,-1.92392,11,1,
188,1.20393,9.98331,0.000570451,0.0113749,9.98332,-1.92849,11,1,
189.333,1.2039,9.98482,0.000594264,0.0114849,9.98483,-1.9809,11,1,
190.667,1.20391,9.98517,0.000644541,0.0115671,9.98518,-1.97687,11,1,
192,1.2039,9.984,0.000754217,0.0118027,9.984,-1.98606,11,1,
192,1.2039,9.984,0.000754217,0.0118027,9.984,-1.98606,11,1,
193.333,1.20387,9.9831,0.000784439,0.0119224,9.98311,-2.04119,11,1,
194.667,1.20385,9.98157,0.000684115,0.0119128,9.98157,-2.07972,11,1,
196,1.20383,9.98075,0.000778312,0.012081,9.98075,-2.1125,11,1,
197.333,1.20382,9.98114,0.000871786,0.0122254,9.98115,-2.1318,11,1,
198.667,1.20382,9.98003,0.000750823,0.0121899,9.98004,-2.13473,11,1,
200,1.20379,9.97971,0.000806022,0.0123516,9.97972,-2.1808,11,1,
201.333,1.20375,9.97894,0.000808437,0.0124446,9.97894,-2.26566,11,1,
202.667,1.20373,9.97467,0.000698373,0.0123621,9.97468,-2.29199,11,1,
204,1.2037,9.97406,0.000756545,0.0125343,9.97407,-2.35603,11,1,
205.333,1.20367,9.97585,0.000708124,0.0125858,9.97586,-2.40253,11,1,
206.667,1.20369,9.97516,0.000757227,0.0127011,9.97517,-2.36947,11,1,
208,1.20364,9.97536,0.000860494,0.0128761,9.97538,-2.45871,11,1,
209.333,1.20361,9.97379,0.000745199,0.0128736,9.97379,-2.50516,11,1,
210.667,1.20362,9.96975,0.00076636,0.0129995,9.96976,-2.49834,11,1,
212,1.20357,9.96671,0.000820158,0.0130701,9.96673,-2.57909,11,1,
213.333,1.20356,9.96494,0.000781442,0.0131583,9.96495,-2.5985,11,1,
213.333,1.20356,9.96494,0.000781442,0.0131583,9.96495,-2.5985,11,1,
214.667,1.20358,9.965,0.000776452,0.0132978,9.96501,-2.56555,11,1,
216,1.20356,9.96597,0.000777782,0.0134335,9.96598,-2.59535,11,1,
217.333,1.20354,9.96607,0.000834701,0.013527,9.96608,-2.63158,11,1,
218.667,1.20358,9.9642,0.000860625,0.013654,9.96421,-2.56853,11,1,
220,1.20357,9.96186,0.000877383,0.0138012,9.96187,-2.57518,11,1,
221.333,1.20354,9.95754,0.000934024,0.0138871,9.95755,-2.6377,11,1,
222.667,1.20353,9.95169,0.000917278,0.013959,9.9517,-2.65138,11,1,
224,1.20352,9.95102,0.000862456,0.0140471,9.95103,-2.67278,11,1,
225.333,1.20355,9.95104,0.00085701,0.0141462,9.95105,-2.61397,11,1,
226.667,1.20357,9.94915,0.000969197,0.0142988,9.94917,-2.5764,11,1,
228,1.20355,9.94834,0.00104294,0.0144506,9.94835,-2.62524,11,1,
229.333,1.20355,9.94326,0.000994487,0.0145421,9.94327,-2.61203,11,1,
230.667,1.20355,9.93764,0.000912571,0.0145378,9.93765,-2.6144,11,1,
232,1.20352,9.93437,0.000935069,0.0145718,9.93438,-2.67677,11,1,
233.333,1.20355,9.93176,0.000981383,0.0147116,9.93177,-2.62199,11,1,
234.667,1.20361,9.93049,0.0010952,0.0148909,9.9305,-2.51871,11,1,
234.667,1.20361,9.93049,0.0010952,0.0148909,9.9305,-2.51871,11,1,
236,1.20354,9.92794,0.00111547,0.0150068,9.92795,-2.63431,11,1,
237.333,1.20353,9.92067,0.00104054,0.0150029,9.92068,-2.6464,11,1,
238.667,1.20356,9.91402,0.000959803,0.0149811,9.91403,-2.59234,11,1,
240,1.20352,9.91146,0.000952385,0.015079,9.91147,-2.66902,11,1,
241.333,1.20358,9.90579,0.00106237,0.0152685,9.9058,-2.57009,11,1,
242.667,1.20356,9.90387,0.00107906,0.0153668,9.90389,-2.59249,11,1,
244,1.20359,9.89772,0.00101241,0.015376,9.89773,-2.55241,11,1,
245.333,1.20359,9.88941,0.000956627,0.0153876,9.88942,-2.55096,11,1,
246.667,1.20358,9.88332,0.00101806,0.0156034,9.88334,-2.55653,11,1,
248,1.20368,9.87585,0.000897684,0.0155185,9.87586,-2.38909,11,1,
249.333,1.20366,9.8719,0.00104494,0.0157463,9.87192,-2.41366,11,1,
250.667,1.2037,9.86312,0.00111507,0.0159497,9.86313,-2.3471,11,1,
252,1.20373,9.8554,0.000845189,0.0157439,9.85542,-2.29863,11,1,
253.333,1.20383,9.84404,0.000946427,0.0159291,9.84405,-2.12163,11,1,
254.667,1.20384,9.83614,0.00102787,0.0160769,9.83615,-2.08719,11,1,
256,1.20386,9.82742,0.000986371,0.0161258,9.82743,-2.0539,11,1,
256,1.20386,9.82742,0.000986371,0.0161258,9.82743,-2.0539,13,1,
257.333,1.20401,9.81473,0.000993916,0.016202,9.81475,-1.79206,13,1,
258.667,1.20403,9.80544,0.000879966,0.016147,9.80545,-1.75523,13,1,
260,1.20409,9.79122,0.000918631,0.0162505,9.79123,-1.64838,13,1,
261.333,1.20423,9.77557,0.000980668,0.0163858,9.77558,-1.39539,13,1,
262.667,1.20433,9.76042,0.000946993,0.0164277,9.76044,-1.2187,13,1,
264,1.20432,9.74943,0.000972378,0.0165105,9.74944,-1.22712,13,1,
265.333,1.20448,9.73092,0.000923875,0.0165312,9.73093,-0.934818,13,1,
266.667,1.20471,9.70542,0.000883552,0.0165946,9.70544,-0.521109,13,1,
268,1.20465,9.68979,0.000886896,0.0166524,9.68981,-0.632482,13,1,
269.333,1.20483,9.66746,0.000940045,0.0167197,9.66748,-0.307626,13,1,
270.667,1.2052,9.63524,0.00085308,0.0167056,9.63525,0.363555,13,1,
272,1.20505,9.62132,0.000855069,0.0167556,9.62134,0.0955815,13,1,
273.333,1.20532,9.58885,0.000930395,0.0168495,9.58887,0.581261,13,1,
274.667,1.20583,9.54515,0.000843658,0.0168383,9.54518,1.50088,13,1,
276,1.20568,9.52195,0.000766269,0.0168175,9.52198,1.23098,13,1,
277.333,1.20597,9.47506,0.000820999,0.016873,9.47509,1.75406,13,1,
277.333,1.20597,9.47506,0.000820999,0.016873,9.47509,1.75406,13,1,
278.667,1.20645,9.42792,0.000868492,0.0169231,9.42796,2.62636,13,1,
280,1.20656,9.38434,0.000817331,0.0169366,9.38438,2.82167,13,1,
281.333,1.20685,9.32491,0.000792105,0.016982,9.32494,3.34561,13,1,
282.667,1.20725,9.27629,0.000785791,0.0170215,9.27631,4.05995,13,1,
284,1.20776,9.22672,0.000741171,0.0169986,9.22674,4.97642,13,1,
285.333,1.20826,9.16258,0.000726097,0.0169698,9.16267,5.8861,13,1,
286.667,1.20854,9.07477,0.000727232,0.0169027,9.07496,6.39544,13,1,
288,1.20887,8.97124,0.00072595,0.016825,8.9714,6.98626,13,1,
289.333,1.20945,8.88663,0.000670084,0.016806,8.88671,8.04524,13,1,
290.667,1.21026,8.80411,0.000603365,0.0167386,8.80418,9.50504,13,1,
292,1.21085,8.7061,0.000595204,0.016619,8.70627,10.565,13,1,
293.333,1.21117,8.60082,0.00058305,0.0164349,8.6011,11.1419,13,1,
294.667,1.2118,8.48538,0.000536899,0.0162438,8.48597,12.2755,13,1,
296,1.21259,8.37632,0.000530539,0.0157609,8.3768,13.7126,13,1,
297.333,1.21262,8.32222,0.000166982,0.0148033,8.32478,13.7616,13,1,
298.667,1.20516,8.25484,-0.00170344,0.0171516,8.68235,0.295489,13,1,
298.667,1.20516,8.25484,-0.00170344,0.0171516,8.68235,0.295489,14,1,
300,1.19303,8.30916,-0.00537644,0.0203052,8.85184,-21.6256,14,1,
301.333,1.18872,8.31976,-0.0091286,0.0199197,8.57608,-29.4143,14,1,
302.667,1.19027,8.09798,-0.0121403,0.0186592,8.28906,-26.6023,14,1,
304,1.19182,7.8854,-0.0144378,0.0179798,8.01804,-23.8121,14,1,
305.333,1.19281,7.69774,-0.0164177,0.0176508,7.80069,-22.0243,14,1,
306.667,1.19365,7.53586,-0.018009,0.0172721,7.59875,-20.5089,14,1,
308,1.19439,7.39483,-0.0194324,0.0170503,7.45574,-19.158,14,1,
309.333,1.195,7.27,-0.0208082,0.0168593,7.32347,-18.0598,14,1,
310.667,1.19569,7.16583,-0.0221399,0.0166938,7.21501,-16.8136,14,1,
312,1.19621,7.07218,-0.0233709,0.0165306,7.10985,-15.8797,14,1,
313.333,1.19663,6.9837,-0.0245155,0.0163856,7.01892,-15.1149,14,1,
314.667,1.19708,6.90171,-0.0255702,0.0162895,6.93523,-14.3081,14,1,
316,1.1974,6.82789,-0.0266694,0.016103,6.85939,-13.7219,14,1,
317.333,1.19771,6.76391,-0.0277038,0.0158923,6.79155,-13.1642,14,1,
318.667,1.19811,6.70866,-0.028597,0.0158032,6.73507,-12.4436,14,1,
320,1.19837,6.65126,-0.0295145,0.0156811,6.6757,-11.9827,14,1,
320,1.19837,6.65126,-0.0295145,0.0156811,6.6757,-11.9827,14,1,
321.333,1.19852,6.5974,-0.0304259,0.0154855,6.62119,-11.7079,14,1,
322.667,1.19878,6.55568,-0.0312964,0.0153137,6.57748,-11.2318,14,1,
324,1.19905,6.51278,-0.0321141,0.015205,6.53362,-10.7454,14,1,
325.333,1.19918,6.47246,-0.0329465,0.0151138,6.49238,-10.5051,14,1,
326.667,1.19934,6.44398,-0.0337452,0.0150049,6.46296,-10.2205,14,1,
328,1.19956,6.41419,-0.0345371,0.0149061,6.432,-9.82386,14,1,
329.333,1.19971,6.38301,-0.0353152,0.0148425,6.40042,-9.55421,14,1,
330.667,1.1998,6.35558,-0.0360897,0.0147776,6.3722,-9.39811,14,1,
332,1.19991,6.33233,-0.036851,0.0146734,6.34848,-9.19175,14,1,
333.333,1.2001,6.31809,-0.0375783,0.0145574,6.33349,-8.84174,14,1,
334.667,1.20027,6.30026,-0.0382492,0.0144671,6.31516,-8.54228,14,1,
336,1.20028,6.27281,-0.0389523,0.0143339,6.2873,-8.51863,14,1,
337.333,1.20032,6.25262,-0.0396335,0.0141089,6.26686,-8.45175,14,1,
338.667,1.2005,6.24163,-0.0402372,0.0139076,6.25541,-8.13251,14,1,
340,1.20066,6.23146,-0.040785,0.0137831,6.24481,-7.84128,14,1,
341.333,1.2007,6.21415,-0.0414021,0.0136104,6.22703,-7.77386,14,1,
341.333,1.2007,6.21415,-0.0414021,0.0136104,6.22703,-7.77386,15,1,
342.667,1.20069,6.18967,-0.0420305,0.0133695,6.20243,-7.789,15,1,
344,1.20079,6.17562,-0.042592,0.0131723,6.18813,-7.6091,15,1,
345.333,1.20093,6.17069,-0.0430725,0.0130281,6.18282,-7.34869,15,1,
346.667,1.20098,6.1581,-0.0436025,0.0128752,6.1698,-7.25957,15,1,
348,1.20101,6.13956,-0.0441224,0.0126559,6.15106,-7.20315,15,1,
349.333,1.20106,6.12197,-0.044604,0.012447,6.13331,-7.11977,15,1,
350.667,1.20112,6.11281,-0.0449868,0.0122931,6.12385,-7.00106,15,1,
352,1.20123,6.10902,-0.0453259,0.0120942,6.11962,-6.81406,15,1,
353.333,1.20127,6.09492,-0.0457081,0.0118167,6.10532,-6.73906,15,1,
354.667,1.20128,6.07794,-0.0461021,0.0115608,6.08815,-6.71437,15,1,
356,1.20134,6.06973,-0.0463734,0.0113545,6.07967,-6.60483,15,1,
357.333,1.20139,6.0627,-0.0466604,0.0111215,6.07234,-6.51175,15,1,
358.667,1.20145,6.05469,-0.0470302,0.0108159,6.0641,-6.41031,15,1,
360,1.2015,6.04558,-0.0474029,0.0105049,6.05476,-6.31531,15,1,
361.333,1.20153,6.03484,-0.0476884,0.0102541,6.0438,-6.27141,15,1,
362.667,1.20158,6.0278,-0.0479365,0.0100321,6.03651,-6.18507,15,1,
362.667,1.20158,6.0278,-0.0479365,0.0100321,6.03651,-6.18507,15,1,
364,1.20163,6.02294,-0.0481884,0.00976924,6.03148,-6.08098,15,1,
365.333,1.20167,6.01675,-0.0484331,0.00943153,6.0251,-6.01438,15,1,
366.667,1.2017,6.00941,-0.0485869,0.00905571,6.01753,-5.96615,15,1,
368,1.20173,6.00182,-0.0486897,0.00869682,6.00971,-5.91271,15,1,
369.333,1.20177,5.99681,-0.0487968,0.00833243,6.00458,-5.83663,15,1,
370.667,1.2018,5.99275,-0.0489605,0.00791035,6.0004,-5.77505,15,1,
372,1.20184,5.98805,-0.0491523,0.00746851,5.99549,-5.70091,15,1,
373.333,1.2019,5.98358,-0.0493228,0.00714705,5.9908,-5.60277,15,1,
374.667,1.20192,5.97771,-0.0495019,0.00699819,5.98486,-5.55632,15,1,
376,1.20194,5.97288,-0.0497686,0.0068542,5.97992,-5.52353,15,1,
377.333,1.20197,5.97015,-0.0501245,0.00654873,5.97704,-5.47421,15,1,
378.667,1.20199,5.96584,-0.0505806,0.00612549,5.97259,-5.43088,15,1,
380,1.20204,5.96165,-0.0510917,0.00574581,5.96829,-5.35474,15,1,
381.333,1.20208,5.95852,-0.0516261,0.00546186,5.96505,-5.28053,15,1,
382.667,1.2021,5.95487,-0.0521542,0.00522188,5.96133,-5.23678,15,1,
384,1.20213,5.95201,-0.0525415,0.00510386,5.95836,-5.18308,15,1,
384,1.20213,5.95201,-0.0525415,0.00510386,5.95836,-5.18308,15,1,
385.333,1.20215,5.94897,-0.0526814,0.00516517,5.95522,-5.14173,15,1,
386.667,1.20217,5.94495,-0.0526108,0.00517217,5.95112,-5.10925,15,1,
388,1.2022,5.94195,-0.052382,0.00483457,5.94804,-5.04922,15,1,
389.333,1.20224,5.93988,-0.0522385,0.00411217,5.94588,-4.98873,15,1,
390.667,1.20226,5.93759,-0.0524659,0.00326421,5.94351,-4.94412,15,1,
392,1.20229,5.9346,-0.0530631,0.00270069,5.94045,-4.89771,15,1,
393.333,1.20231,5.93115,-0.0538899,0.00260745,5.93694,-4.8531,15,1,
394.667,1.20233,5.92781,-0.0548347,0.00283248,5.93352,-4.8233,15,1,
396,1.20235,5.92478,-0.0556825,0.00312082,5.93043,-4.78908,15,1,
397.333,1.20238,5.92219,-0.056288,0.00331881,5.9278,-4.73332,15,1,
398.667,1.20241,5.91918,-0.0567007,0.00333173,5.92471,-4.68478,15,1,
400,1.20243,5.91551,-0.0570237,0.00316233,5.92095,-4.64607,15,1,
401.333,1.20246,5.91255,-0.0573037,0.00292487,5.91792,-4.59235,15,1,
402.667,1.20248,5.90973,-0.0575833,0.00268372,5.91505,-4.54995,15,1,
404,1.20249,5.90601,-0.05786,0.00240088,5.91127,-4.53742,15,1,
405.333,1.2025,5.9023,-0.0581002,0.00214774,5.90747,-4.51822,15,1,
405.333,1.2025,5.9023,-0.0581002,0.00214774,5.90747,-4.51822,15,1,
406.667,1.20253,5.89933,-0.0583208,0.00196888,5.90443,-4.46523,15,1,
408,1.20256,5.89693,-0.0586001,0.00175367,5.90197,-4.3991,15,1,
409.333,1.20259,5.89422,-0.0589361,0.00145648,5.8992,-4.35701,15,1,
410.667,1.2026,5.89074,-0.0592688,0.0012031,5.89566,-4.33234,15,1,
412,1.20262,5.88772,-0.0595568,0.00104939,5.89257,-4.29499,15,1,
413.333,1.20265,5.88553,-0.0598178,0.000903372,5.89032,-4.25105,15,1,
414.667,1.20266,5.88271,-0.0600915,0.000703909,5.88744,-4.21843,15,1,
416,1.20268,5.87941,-0.0603694,0.000543348,5.88409,-4.18937,15,1,
417.333,1.2027,5.8771,-0.0606115,0.000433411,5.88173,-4.14621,15,1,
418.667,1.20273,5.87522,-0.0608624,0.000280766,5.87979,-4.09796,15,1,
420,1.20275,5.87271,-0.0611497,8.52719e-05,5.87723,-4.05802,15,1,
421.333,1.20278,5.8702,-0.0614338,-8.06972e-05,5.87466,-4.01782,15,1,
422.667,1.20279,5.86815,-0.0616704,-0.00022937,5.87257,-3.98472,15,1,
424,1.20281,5.86613,-0.061882,-0.000381153,5.8705,-3.96023,15,1,
425.333,1.20283,5.86417,-0.0620958,-0.000519188,5.86849,-3.92211,15,1,
426.667,1.20286,5.86259,-0.0622969,-0.000652164,5.86687,-3.87212,15,1,
426.667,1.20286,5.86259,-0.0622969,-0.000652164,5.86687,-3.87212,20,1,
428,1.20288,5.86132,-0.0625006,-0.000830455,5.86555,-3.82261,20,1,
429.333,1.20291,5.86013,-0.0627323,-0.00102896,5.86431,-3.77988,20,1,
430.667,1.20292,5.85885,-0.0629509,-0.00120912,5.86299,-3.74886,20,1,
432,1.20294,5.85754,-0.0631582,-0.00140447,5.86164,-3.72443,20,1,
433.333,1.20295,5.85664,-0.0633636,-0.00161859,5.86069,-3.69406,20,1,
434.667,1.20298,5.85626,-0.0635484,-0.00180783,5.86027,-3.64764,20,1,
436,1.20301,5.85597,-0.0637307,-0.00200939,5.85995,-3.59784,20,1,
437.333,1.20303,5.85567,-0.0639297,-0.00225238,5.85962,-3.55753,20,1,
438.667,1.20305,5.85567,-0.0641183,-0.00249611,5.85958,-3.5146,20,1,
440,1.20308,5.85573,-0.0643171,-0.00272818,5.85961,-3.46926,20,1,
441.333,1.2031,5.85566,-0.0645345,-0.00299186,5.85951,-3.43593,20,1,
442.667,1.20311,5.85583,-0.0647358,-0.00328382,5.85965,-3.40874,20,1,
444,1.20313,5.85612,-0.0649076,-0.00355082,5.85991,-3.37442,20,1,
445.333,1.20315,5.8563,-0.065076,-0.00379258,5.86006,-3.33681,20,1,
446.667,1.20318,5.85685,-0.0652547,-0.00406959,5.86059,-3.29484,20,1,
448,1.20321,5.8578,-0.0654366,-0.00438353,5.86149,-3.242,20,1,
448,1.20321,5.8578,-0.0654366,-0.00438353,5.86149,-3.242,20,1,
449.333,1.20323,5.85853,-0.065622,-0.00469195,5.8622,-3.19262,20,1,
450.667,1.20325,5.85906,-0.0658042,-0.00499016,5.86271,-3.15794,20,1,
452,1.20327,5.85964,-0.0659509,-0.00528764,5.86325,-3.13248,20,1,
453.333,1.20328,5.86025,-0.0660938,-0.00559558,5.86383,-3.10201,20,1,
454.667,1.20331,5.86114,-0.0662635,-0.00592767,5.8647,-3.05534,20,1,
456,1.20334,5.86232,-0.066421,-0.00625476,5.86585,-3.00684,20,1,
457.333,1.20335,5.86318,-0.066549,-0.00657953,5.86667,-2.97332,20,1,
458.667,1.20337,5.86375,-0.06668,-0.00692919,5.86722,-2.94667,20,1,
460,1.20339,5.86475,-0.0668074,-0.00726075,5.86819,-2.90671,20,1,
461.333,1.20342,5.86614,-0.0669222,-0.00758092,5.86954,-2.85455,20,1,
462.667,1.20344,5.86727,-0.067036,-0.00794556,5.87065,-2.81211,20,1,
464,1.20346,5.86807,-0.0671515,-0.00832093,5.87143,-2.77857,20,1,
465.333,1.20348,5.86885,-0.0672556,-0.00866349,5.87218,-2.74632,20,1,
466.667,1.2035,5.86968,-0.067355,-0.00900725,5.87299,-2.71534,20,1,
468,1.20352,5.87075,-0.0674693,-0.00938661,5.87403,-2.6751,20,1,
469.333,1.20354,5.87183,-0.0675875,-0.00977617,5.87509,-2.63295,20,1,
469.333,1.20354,5.87183,-0.0675875,-0.00977617,5.87509,-2.63295,20,1,
470.667,1.20356,5.87229,-0.0676792,-0.010137,5.87553,-2.60175,20,1,
472,1.20358,5.87269,-0.0677592,-0.0104855,5.87591,-2.56763,20,1,
473.333,1.2036,5.87369,-0.0678579,-0.010851,5.87689,-2.5217,20,1,
474.667,1.20363,5.87443,-0.0679668,-0.0112287,5.8776,-2.47755,20,1,
476,1.20365,5.87455,-0.068067,-0.0116086,5.87769,-2.44493,20,1,
477.333,1.20366,5.87464,-0.0681702,-0.0119869,5.87777,-2.41504,20,1,
478.667,1.20368,5.87473,-0.0682851,-0.0123636,5.87785,-2.38172,20,1,
480,1.2037,5.87467,-0.0683973,-0.0127542,5.87777,-2.34678,20,1,
481.333,1.20372,5.87462,-0.0685041,-0.0131404,5.87769,-2.30863,20,1,
482.667,1.20374,5.87454,-0.0686225,-0.013515,5.8776,-2.26982,20,1,
484,1.20376,5.87425,-0.068742,-0.0139105,5.87729,-2.23144,20,1,
485.333,1.20379,5.87382,-0.0688619,-0.0143117,5.87684,-2.19319,20,1,
486.667,1.20381,5.87338,-0.068991,-0.0146879,5.87639,-2.15823,20,1,
488,1.20382,5.87286,-0.0691274,-0.0150687,5.87586,-2.12562,20,1,
489.333,1.20384,5.8724,-0.0692664,-0.0154753,5.87538,-2.09275,20,1,
490.667,1.20386,5.87199,-0.0694101,-0.0158704,5.87496,-2.05443,20,1,
490.667,1.20386,5.87199,-0.0694101,-0.0158704,5.87496,-2.05443,20,1,
492,1.20388,5.87137,-0.0695628,-0.0162455,5.87433,-2.01498,20,1,
493.333,1.2039,5.87073,-0.0697252,-0.0166361,5.87368,-1.98255,20,1,
494.667,1.20392,5.8705,-0.0698868,-0.0170368,5.87343,-1.94777,20,1,
496,1.20394,5.87041,-0.0700509,-0.0174167,5.87334,-1.90785,20,1,
497.333,1.20396,5.86999,-0.0702072,-0.017783,5.8729,-1.87124,20,1,
498.667,1.20398,5.86957,-0.0703507,-0.0181532,5.87249,-1.8372,20,1,
500,1.204,5.86961,-0.0705045,-0.0185217,5.87252,-1.80141,20,1,
501.333,1.20402,5.86977,-0.0706698,-0.0188841,5.87266,-1.76368,20,1,
502.667,1.20404,5.86987,-0.0708272,-0.0192463,5.87276,-1.72759,20,1,
504,1.20406,5.87011,-0.0709782,-0.0196088,5.87301,-1.69081,20,1,
505.333,1.20408,5.87038,-0.0711257,-0.0199708,5.87326,-1.65433,20,1,
506.667,1.2041,5.87078,-0.0712564,-0.0203182,5.87366,-1.62121,20,1,
508,1.20413,5.87156,-0.0713682,-0.0206414,5.87443,-1.57994,20,1,
509.333,1.20415,5.87235,-0.0714756,-0.0209648,5.87521,-1.53582,20,1,
510.667,1.20417,5.87298,-0.0715633,-0.0213031,5.87584,-1.50305,20,1,
512,1.20418,5.87372,-0.0716186,-0.0216152,5.87657,-1.47242,20,1,
512,1.20418,5.87372,-0.0716186,-0.0216152,5.87657,-1.47242,21,1,
513.333,1.20421,5.87471,-0.0716734,-0.0219066,5.87754,-1.43487,21,1,
514.667,1.20423,5.87588,-0.0717417,-0.0222364,5.8787,-1.39057,21,1,
516,1.20425,5.8771,-0.0718039,-0.0225786,5.87992,-1.34667,21,1,
517.333,1.20427,5.87832,-0.0718757,-0.0228974,5.88112,-1.31143,21,1,
518.667,1.20429,5.87947,-0.0719305,-0.0232196,5.88226,-1.28286,21,1,
520,1.20431,5.88071,-0.0719399,-0.0235547,5.88349,-1.25126,21,1,
521.333,1.20433,5.88234,-0.0719384,-0.0238868,5.88511,-1.2069,21,1,
522.667,1.20436,5.88414,-0.0719704,-0.0242238,5.88689,-1.15848,21,1,
524,1.20438,5.88572,-0.0720093,-0.0245736,5.88845,-1.11868,21,1,
525.333,1.2044,5.88721,-0.0719966,-0.0249083,5.88993,-1.08759,21,1,
526.667,1.20441,5.88878,-0.0719545,-0.0252317,5.89149,-1.06322,21,1,
528,1.20443,5.8906,-0.0719111,-0.0255793,5.89329,-1.03346,21,1,
529.333,1.20445,5.89272,-0.0718496,-0.0259358,5.89539,-0.990004,21,1,
530.667,1.20448,5.89479,-0.0717846,-0.026289,5.89745,-0.941812,21,1,
532,1.2045,5.89677,-0.0717568,-0.0266717,5.89941,-0.899328,21,1,
533.333,1.20452,5.89867,-0.0717354,-0.0270694,5.9013,-0.869379,21,1,
533.333,1.20452,5.89867,-0.0717354,-0.0270694,5.9013,-0.869379,21,1,
534.667,1.20453,5.90026,-0.0716865,-0.0274701,5.90288,-0.848192,21,1,
536,1.20455,5.9019,-0.0716406,-0.0278886,5.90451,-0.819495,21,1,
537.333,1.20457,5.90397,-0.0716306,-0.0282944,5.90657,-0.77622,21,1,
538.667,1.20459,5.90615,-0.0716446,-0.0286462,5.90874,-0.73176,21,1,
540,1.20461,5.90825,-0.0716523,-0.0289668,5.91083,-0.69615,21,1,
541.333,1.20463,5.91044,-0.0716319,-0.0292664,5.913,-0.666135,21,1,
542.667,1.20465,5.91292,-0.071553,-0.0295258,5.91547,-0.637721,21,1,
544,1.20466,5.91539,-0.0714364,-0.0297835,5.91791,-0.605565,21,1,
545.333,1.20469,5.91758,-0.0713044,-0.0300707,5.92008,-0.568587,21,1,
546.667,1.20471,5.91968,-0.0711803,-0.0303759,5.92217,-0.531041,21,1,
548,1.20473,5.92184,-0.0710819,-0.0306782,5.92432,-0.495814,21,1,
549.333,1.20474,5.92401,-0.0710032,-0.0309809,5.92648,-0.462976,21,1,
550.667,1.20476,5.926,-0.070941,-0.0312872,5.92845,-0.432196,21,1,
552,1.20478,5.92782,-0.0708873,-0.0315651,5.93027,-0.405489,21,1,
553.333,1.20479,5.92988,-0.070844,-0.0318345,5.93231,-0.376319,21,1,
554.667,1.20481,5.9322,-0.0708151,-0.0321074,5.93462,-0.343479,21,1,
554.667,1.20481,5.9322,-0.0708151,-0.0321074,5.93462,-0.343479,22,1,
556,1.20483,5.93456,-0.0707775,-0.0323597,5.93697,-0.311811,22,1,
557.333,1.20485,5.93708,-0.0707169,-0.0325893,5.93948,-0.277205,22,1,
558.667,1.20486,5.93973,-0.070639,-0.032809,5.94211,-0.244697,22,1,
560,1.20488,5.94238,-0.0705507,-0.0330208,5.94475,-0.216316,22,1,
561.333,1.2049,5.94525,-0.0704579,-0.0332213,5.94761,-0.18729,22,1,
562.667,1.20491,5.94828,-0.0703636,-0.0334228,5.95063,-0.161211,22,1,
564,1.20492,5.95129,-0.0702573,-0.0336216,5.95362,-0.137191,22,1,
565.333,1.20494,5.95436,-0.0701386,-0.03381,5.95668,-0.110627,22,1,
566.667,1.20496,5.95763,-0.0700089,-0.0339865,5.95992,-0.0806576,22,1,
568,1.20497,5.96112,-0.0698639,-0.0341612,5.9634,-0.0499659,22,1,
569.333,1.20499,5.96463,-0.0697237,-0.0343508,5.96689,-0.0217267,22,1,
570.667,1.205,5.96804,-0.0695817,-0.0345346,5.97029,0.00357051,22,1,
572,1.20502,5.97135,-0.0694264,-0.0347135,5.97358,0.0279838,22,1,
573.333,1.20503,5.97464,-0.0692783,-0.0348923,5.97686,0.0534763,22,1,
574.667,1.20504,5.97809,-0.0691459,-0.0350692,5.9803,0.0796679,22,1,
576,1.20506,5.98152,-0.0690335,-0.0352575,5.98371,0.101715,22,1,
576,1.20506,5.98152,-0.0690335,-0.0352575,5.98371,0.101715,22,1,
577.333,1.20507,5.98472,-0.0689226,-0.0354466,5.98689,0.118347,22,1,
578.667,1.20508,5.98795,-0.0687987,-0.0356329,5.99012,0.138981,22,1,
580,1.20509,5.99138,-0.0686757,-0.0358269,5.99353,0.163727,22,1,
581.333,1.20511,5.99479,-0.0685624,-0.0360285,5.99693,0.190241,22,1,
582.667,1.20512,5.99805,-0.0684719,-0.036227,6.00018,0.217393,22,1,
584,1.20513,6.00125,-0.0684154,-0.0364255,6.00337,0.237138,22,1,
585.333,1.20514,6.00451,-0.0683811,-0.036629,6.00663,0.251786,22,1,
586.667,1.20515,6.00791,-0.0683521,-0.0368173,6.01002,0.266234,22,1,
588,1.20516,6.0114,-0.0683117,-0.036999,6.01351,0.284314,22,1,
589.333,1.20517,6.01505,-0.0682531,-0.0371905,6.01716,0.306173,22,1,
590.667,1.20518,6.01878,-0.0681753,-0.0373909,6.02087,0.328051,22,1,
592,1.20519,6.02242,-0.0680818,-0.0375691,6.0245,0.34712,22,1,
593.333,1.2052,6.02604,-0.0679712,-0.0377184,6.02812,0.359972,22,1,
594.667,1.20521,6.02982,-0.0678676,-0.0378525,6.03189,0.374047,22,1,
596,1.20522,6.03398,-0.0677948,-0.0379568,6.03604,0.395917,22,1,
597.333,1.20523,6.03853,-0.0677386,-0.0380609,6.04059,0.424286,22,1,
597.333,1.20523,6.03853,-0.0677386,-0.0380609,6.04059,0.424286,24,1,
598.667,1.20525,6.04336,-0.0676858,-0.0381834,6.04541,0.449733,24,1,
600,1.20526,6.04823,-0.067603,-0.038317,6.05027,0.463946,24,1,
601.333,1.20526,6.05294,-0.0674598,-0.0384595,6.05497,0.469475,24,1,
602.667,1.20526,6.05751,-0.0672418,-0.038604,6.05953,0.473338,24,1,
604,1.20527,6.06196,-0.0669651,-0.0387409,6.06397,0.490857,24,1,
605.333,1.20529,6.06638,-0.0666621,-0.0388259,6.06837,0.52579,24,1,
606.667,1.20531,6.07068,-0.0663399,-0.0388334,6.07265,0.563174,24,1,
608,1.20532,6.07479,-0.0660113,-0.0387638,6.07673,0.585819,24,1,
609.333,1.20533,6.07896,-0.0656544,-0.0386382,6.08088,0.591156,24,1,
610.667,1.20533,6.08341,-0.0652269,-0.0385098,6.0853,0.595542,24,1,
612,1.20534,6.08804,-0.0646671,-0.0383974,6.0899,0.608874,24,1,
613.333,1.20535,6.09225,-0.0638597,-0.0382889,6.09406,0.63329,24,1,
614.667,1.20537,6.09528,-0.0626829,-0.0381507,6.09702,0.659997,24,1,
616,1.20538,6.09628,-0.061037,-0.037927,6.09795,0.678867,24,1,
617.333,1.20539,6.0946,-0.0588854,-0.0375332,6.09617,0.696097,24,1,
618.667,1.20539,6.08996,-0.0562651,-0.0368951,6.09141,0.713273,24,1,
618.667,1.20539,6.08996,-0.0562651,-0.0368951,6.09141,0.713273,24,1,
620,1.20541,6.08229,-0.0532863,-0.0360063,6.08361,0.732772,24,1,
621.333,1.20542,6.0718,-0.0501354,-0.0348957,6.07298,0.752802,24,1,
622.667,1.20543,6.05891,-0.0470045,-0.0336483,6.05997,0.769304,24,1,
624,1.20543,6.04408,-0.0439731,-0.032355,6.04502,0.783835,24,1,
625.333,1.20544,6.02768,-0.0409943,-0.0310193,6.0285,0.795398,24,1,
626.667,1.20545,6.01007,-0.0379562,-0.0295869,6.0108,0.81062,24,1,
628,1.20546,5.99169,-0.0347608,-0.0280057,5.99231,0.826241,24,1,
629.333,1.20546,5.97266,-0.0315395,-0.0263678,5.97318,0.8397,24,1,
630.667,1.20547,5.95331,-0.0287279,-0.0248741,5.95376,0.853107,24,1,
632,1.20548,5.93426,-0.0268674,-0.023761,5.93465,0.866947,24,1,
633.333,1.20549,5.91609,-0.026306,-0.0231484,5.91646,0.880939,24,1,
634.667,1.20549,5.89994,-0.0270109,-0.0229477,5.90032,0.883016,24,1,
636,1.20548,5.88709,-0.0285876,-0.0229555,5.8875,0.874839,24,1,
637.333,1.20548,5.87865,-0.0303965,-0.0228793,5.87909,0.86664,24,1,
638.667,1.20548,5.87531,-0.0317561,-0.0224418,5.87576,0.868482,24,1,
640,1.20549,5.87709,-0.0321472,-0.0214712,5.87754,0.880141,24,1,
640,1.20549,5.87709,-0.0321472,-0.0214712,5.87754,0.880141,24,1,
641.333,1.20549,5.88321,-0.0312329,-0.0199706,5.88363,0.893321,24,1,
642.667,1.2055,5.8921,-0.0289143,-0.0180819,5.89244,0.902869,24,1,
644,1.2055,5.90177,-0.0252591,-0.0159324,5.90203,0.901594,24,1,
645.333,1.2055,5.9099,-0.0204548,-0.0137163,5.91007,0.902816,24,1,
646.667,1.20551,5.91402,-0.0149556,-0.0117321,5.91412,0.917245,24,1,
648,1.20552,5.91152,-0.00958044,-0.0104127,5.91157,0.938216,24,1,
649.333,1.20553,5.90036,-0.00532627,-0.0100904,5.90039,0.951259,24,1,
650.667,1.20552,5.88005,-0.0029247,-0.0108001,5.88008,0.946903,24,1,
652,1.20552,5.85194,-0.00245807,-0.0121471,5.85198,0.930864,24,1,
653.333,1.2055,5.8191,-0.00338781,-0.0135156,5.81915,0.909627,24,1,
654.667,1.20549,5.78502,-0.00500428,-0.0145108,5.78508,0.893863,24,1,
656,1.20549,5.75257,-0.00682455,-0.0149726,5.75264,0.885961,24,1,
657.333,1.20549,5.72373,-0.00865648,-0.0149877,5.72381,0.876465,24,1,
658.667,1.20548,5.69968,-0.0105068,-0.0147583,5.69977,0.858643,24,1,
660,1.20546,5.68099,-0.0124139,-0.0144469,5.68109,0.83607,24,1,
661.333,1.20545,5.66804,-0.0143963,-0.0141451,5.66816,0.812406,24,1,
661.333,1.20545,5.66804,-0.0143963,-0.0141451,5.66816,0.812406,24,1,
662.667,1.20544,5.6607,-0.0164591,-0.0139011,5.66084,0.789802,24,1,
664,1.20543,5.6588,-0.0185649,-0.0137838,5.65896,0.77316,24,1,
665.333,1.20542,5.66195,-0.0206519,-0.0137517,5.66214,0.763517,24,1,
666.667,1.20542,5.66963,-0.0226741,-0.0137368,5.66985,0.755001,24,1,
668,1.20541,5.68154,-0.0245302,-0.0137376,5.68179,0.746566,24,1,
669.333,1.20541,5.69712,-0.0261887,-0.0137076,5.6974,0.744923,24,1,
670.667,1.20541,5.71629,-0.0276589,-0.0136172,5.7166,0.742426,24,1,
672,1.20541,5.73849,-0.0289028,-0.0134925,5.73882,0.744055,24,1,
673.333,1.20542,5.76342,-0.0299401,-0.0133186,5.76377,0.7502,24,1,
674.667,1.20542,5.79093,-0.0307526,-0.0130714,5.79129,0.753035,24,1,
676,1.20542,5.82051,-0.0313297,-0.0127453,5.82088,0.753558,24,1,
677.333,1.20541,5.85229,-0.0316546,-0.0123515,5.85266,0.748593,24,1,
678.667,1.20542,5.88583,-0.0317514,-0.0118833,5.8862,0.753986,24,1,
680,1.20542,5.92124,-0.0316709,-0.011349,5.92161,0.767221,24,1,
681.333,1.20544,5.95829,-0.0313934,-0.0107702,5.95865,0.789118,24,1,
682.667,1.20545,5.99658,-0.0309275,-0.0101382,5.99692,0.810342,24,1,
682.667,1.20545,5.99658,-0.0309275,-0.0101382,5.99692,0.810342,31,1,
684,1.20545,6.03609,-0.0302921,-0.00942814,6.03641,0.814936,31,1,
685.333,1.20545,6.07623,-0.0294785,-0.00866666,6.07653,0.816863,31,1,
686.667,1.20545,6.11756,-0.0285165,-0.00789333,6.11784,0.814777,31,1,
688,1.20546,6.15982,-0.0274375,-0.00706863,6.16007,0.826181,31,1,
689.333,1.20547,6.20293,-0.0262387,-0.00620947,6.20316,0.847286,31,1,
690.667,1.20548,6.24689,-0.024933,-0.00533103,6.2471,0.862851,31,1,
692,1.20548,6.29108,-0.02352,-0.00440457,6.29126,0.872582,31,1,
693.333,1.20548,6.33582,-0.0220224,-0.00349085,6.33598,0.86715,31,1,
694.667,1.20548,6.38098,-0.0204582,-0.00255561,6.38111,0.865228,31,1,
696,1.20549,6.42679,-0.0188233,-0.00162612,6.4269,0.878218,31,1,
697.333,1.2055,6.4733,-0.0171509,-0.000675623,6.4734,0.90186,31,1,
698.667,1.20551,6.52,-0.0154282,0.00028953,6.52008,0.921703,31,1,
700,1.20551,6.56665,-0.013672,0.00123618,6.56671,0.920864,31,1,
701.333,1.2055,6.61332,-0.0119086,0.00217099,6.61337,0.908784,31,1,
702.667,1.2055,6.66031,-0.0101353,0.00307013,6.66035,0.895225,31,1,
704,1.2055,6.70773,-0.00835869,0.00396754,6.70776,0.898322,31,1,
704,1.2055,6.70773,-0.00835869,0.00396754,6.70776,0.898322,31,1,
705.333,1.20551,6.75543,-0.0065987,0.00482789,6.75546,0.917734,31,1,
706.667,1.20551,6.80332,-0.00486082,0.00566921,6.80334,0.92943,31,1,
708,1.20552,6.85094,-0.0031143,0.00650971,6.85096,0.935446,31,1,
709.333,1.20551,6.89855,-0.00139373,0.00731668,6.89857,0.923386,31,1,
710.667,1.2055,6.94603,0.000272604,0.00808266,6.94606,0.907493,31,1,
712,1.2055,6.99341,0.00191285,0.00877837,6.99344,0.907309,31,1,
713.333,1.20551,7.0413,0.00352149,0.00947857,7.04134,0.913081,31,1,
714.667,1.20551,7.08902,0.00507792,0.0101749,7.08907,0.926176,31,1,
716,1.20551,7.13643,0.00655868,0.0107703,7.13649,0.917705,31,1,
717.333,1.2055,7.18321,0.00800316,0.0113639,7.18328,0.895507,31,1,
718.667,1.20549,7.22992,0.0094077,0.0119058,7.22999,0.876722,31,1,
720,1.20548,7.27695,0.0107339,0.0123955,7.27703,0.868715,31,1,
721.333,1.20549,7.32368,0.0120459,0.0128577,7.32377,0.883837,31,1,
722.667,1.20549,7.37021,0.013282,0.0132914,7.37031,0.892456,31,1,
724,1.20549,7.41619,0.0144269,0.0136894,7.4163,0.891856,31,1,
725.333,1.20548,7.46151,0.0155271,0.0140306,7.46164,0.873934,31,1,
725.333,1.20548,7.46151,0.0155271,0.0140306,7.46164,0.873934,31,1,
726.667,1.20546,7.50646,0.0165716,0.0143418,7.5066,0.83587,31,1,
728,1.20545,7.55114,0.0175498,0.0145854,7.55128,0.811353,31,1,
729.333,1.20545,7.59558,0.0184617,0.0147908,7.59573,0.807988,31,1,
730.667,1.20545,7.64007,0.0193337,0.0149936,7.64023,0.815407,31,1,
732,1.20546,7.68398,0.0201117,0.0151587,7.68415,0.822952,31,1,
733.333,1.20545,7.7271,0.0208262,0.0152336,7.72727,0.811761,31,1,
734.667,1.20543,7.76981,0.0214581,0.0152909,7.76999,0.782159,31,1,
736,1.20542,7.81171,0.0220523,0.0153812,7.8119,0.751915,31,1,
737.333,1.20541,7.85351,0.0226462,0.0153999,7.8537,0.733351,31,1,
738.667,1.20541,7.8952,0.0231442,0.0153731,7.8954,0.733553,31,1,
740,1.20541,7.93619,0.0235226,0.015351,7.93639,0.737164,31,1,
741.333,1.2054,7.97658,0.0238469,0.0152325,7.97679,0.715976,31,1,
742.667,1.20538,8.01618,0.0241482,0.0151342,8.01638,0.686581,31,1,
744,1.20537,8.05562,0.0243395,0.0150235,8.05583,0.662025,31,1,
745.333,1.20535,8.09499,0.0244858,0.0148551,8.09519,0.639234,31,1,
746.667,1.20536,8.13341,0.024625,0.0146461,8.13362,0.64891,31,1,
746.667,1.20536,8.13341,0.024625,0.0146461,8.13362,0.64891,31,1,
748,1.20536,8.17217,0.0246443,0.0144344,8.17238,0.659003,31,1,
749.333,1.20536,8.21007,0.0245651,0.0141941,8.21027,0.648251,31,1,
750.667,1.20534,8.24715,0.0244859,0.0138879,8.24734,0.613443,31,1,
752,1.20533,8.28377,0.0243341,0.0136193,8.28396,0.587701,31,1,
753.333,1.20531,8.32051,0.0240908,0.0133119,8.3207,0.566189,31,1,
754.667,1.20531,8.35712,0.0238781,0.0129522,8.3573,0.562354,31,1,
756,1.20533,8.39301,0.023595,0.0125989,8.39319,0.593425,31,1,
757.333,1.20533,8.43007,0.0232142,0.0121924,8.43024,0.589813,31,1,
758.667,1.20533,8.46508,0.0227028,0.0117759,8.46524,0.59142,31,1,
760,1.20531,8.50033,0.0222115,0.0113438,8.50048,0.56638,31,1,
761.333,1.2053,8.53584,0.0217186,0.010912,8.53598,0.549351,31,1,
762.667,1.20531,8.57055,0.0211883,0.0104629,8.57068,0.552493,31,1,
764,1.20531,8.60593,0.0206703,0.0100356,8.60606,0.554398,31,1,
765.333,1.20532,8.64162,0.0199483,0.00955936,8.64174,0.577462,31,1,
766.667,1.20533,8.67638,0.0191497,0.00891657,8.67649,0.593217,31,1,
768,1.20532,8.71125,0.0183706,0.0083906,8.71135,0.571417,31,1,
768,1.20532,8.71125,0.0183706,0.0083906,8.71135,0.571417,32,1,
769.333,1.20531,8.74644,0.017659,0.00791267,8.74653,0.556063,32,1,
770.667,1.20531,8.78109,0.0168864,0.00732146,8.78118,0.556854,32,1,
772,1.2053,8.81623,0.0160702,0.00675877,8.81631,0.546218,32,1,
773.333,1.20531,8.85141,0.0153022,0.0062254,8.85148,0.566521,32,1,
774.667,1.20533,8.88723,0.0144251,0.00555663,8.88729,0.587025,32,1,
776,1.20534,8.92204,0.0134578,0.00493836,8.9221,0.608789,32,1,
777.333,1.20533,8.9572,0.0126236,0.00431443,8.95725,0.587848,32,1,
778.667,1.20531,8.992,0.0117221,0.00361483,8.99204,0.556349,32,1,
780,1.20532,9.025,0.0109401,0.00301035,9.02503,0.581798,32,1,
781.333,1.20532,9.0597,0.0103784,0.00238169,9.05973,0.576285,32,1,
782.667,1.20533,9.09404,0.00974001,0.00190868,9.09406,0.59635,32,1,
784,1.20537,9.12711,0.00898209,0.00137028,9.12713,0.675667,32,1,
785.333,1.20539,9.16057,0.00809733,0.000511435,9.16059,0.709977,32,1,
786.667,1.2054,9.19163,0.00746026,-0.000142822,9.19164,0.722942,32,1,
788,1.20541,9.22165,0.00733783,-0.000428189,9.22167,0.741037,32,1,
789.333,1.20543,9.2522,0.00720249,-0.00076211,9.25221,0.77097,32,1,
790.667,1.20546,9.28123,0.00673702,-0.00138864,9.28124,0.836402,32,1,
792,1.20551,9.30876,0.00656254,-0.00186245,9.30877,0.917641,32,1,
793.333,1.20554,9.33622,0.00649033,-0.00214589,9.33623,0.980634,32,1,
794.667,1.2056,9.36145,0.0063586,-0.00247288,9.36146,1.09058,32,1,
796,1.20565,9.38581,0.00611223,-0.00313404,9.38581,1.18094,32,1,
797.333,1.20569,9.40747,0.00635267,-0.00334581,9.40747,1.24898,32,1,
798.667,1.20574,9.42706,0.00710807,-0.00366168,9.42706,1.3407,32,1,
800,1.20576,9.43792,0.00737038,-0.0042959,9.43793,1.36999,32,1,
