65.2066;r ;Density                 ;Velocity u              ;Velocity v              ;Velocity w              ;|Velocity|              ;Pressure                ;Distribution            ;Levels                  ;
0 1.20463 9.99938 -1.79937e-05 -0.000527892 9.99938 -0.67476 1 1 
2 1.20463 9.99856 -0.000102519 -0.000525733 9.99856 -0.667143 1 1 
4 1.20463 9.9974 -0.000220796 -8.05088e-05 9.9974 -0.663405 1 1 
6 1.20463 9.99686 -0.000334151 -5.8412e-05 9.99686 -0.661453 1 1 
8 1.20465 9.99597 -0.000429141 -2.99886e-07 9.99597 -0.636897 1 1 
10 1.20465 9.99515 -0.000525172 -0.000172584 9.99515 -0.630144 1 1 
12 1.20465 9.99401 -0.000647381 -0.000309738 9.99401 -0.628663 1 1 
14 1.20466 9.99256 -0.000764252 -0.000457984 9.99256 -0.616288 1 1 
16 1.20466 9.99232 -0.000870662 -0.000485577 9.99232 -0.619496 1 1 
18 1.20467 9.99206 -0.000975452 -0.000464761 9.99206 -0.595492 1 1 
20 1.20468 9.9912 -0.00108387 -0.000638726 9.9912 -0.57245 1 1 
22 1.20468 9.99025 -0.00117039 -0.000820837 9.99025 -0.580762 1 1 
24 1.20468 9.98926 -0.0012808 -0.00107162 9.98926 -0.579866 1 1 
26 1.20469 9.98877 -0.00138348 -0.00117003 9.98877 -0.559653 1 1 
28 1.2047 9.98826 -0.0014979 -0.00138652 9.98826 -0.539008 1 1 
30 1.2047 9.98727 -0.00161743 -0.00171505 9.98727 -0.534847 1 1 
32 1.2047 9.98633 -0.00172265 -0.001943 9.98633 -0.534881 1 1 
32 1.2047 9.98633 -0.00172265 -0.001943 9.98633 -0.534881 1 1 
34 1.20471 9.98583 -0.00183054 -0.0021161 9.98583 -0.51998 1 1 
36 1.20473 9.98521 -0.00192729 -0.0024264 9.98521 -0.496191 1 1 
38 1.20473 9.98405 -0.00204521 -0.00255605 9.98405 -0.490976 1 1 
40 1.20473 9.9827 -0.00213941 -0.0028198 9.9827 -0.491603 1 1 
42 1.20474 9.98184 -0.00222742 -0.00295362 9.98184 -0.47197 1 1 
44 1.20475 9.98152 -0.0023382 -0.00304314 9.98152 -0.458982 1 1 
46 1.20475 9.98067 -0.00246165 -0.00317334 9.98067 -0.453336 1 1 
48 1.20476 9.97923 -0.0025328 -0.00312707 9.97923 -0.43656 1 1 
50 1.20476 9.97849 -0.00262675 -0.00349271 9.97849 -0.427787 1 1 
52 1.20477 9.978 -0.00274258 -0.00354989 9.978 -0.412756 1 1 
54 1.20478 9.977 -0.00284813 -0.00352644 9.977 -0.398523 1 1 
56 1.20478 9.97583 -0.00296274 -0.0037527 9.97583 -0.39001 1 1 
58 1.20479 9.97493 -0.00302821 -0.00370954 9.97493 -0.373631 1 1 
60 1.2048 9.97437 -0.00310521 -0.0040805 9.97437 -0.362068 1 1 
62 1.20481 9.97339 -0.00321611 -0.00459499 9.97339 -0.340612 1 1 
64 1.20481 9.9724 -0.00332137 -0.00450733 9.9724 -0.335343 1 1 
64 1.20481 9.9724 -0.00332137 -0.00450733 9.9724 -0.335343 2 1 
66 1.20482 9.97169 -0.00340896 -0.00492884 9.97169 -0.333507 2 1 
68 1.20483 9.97067 -0.00352142 -0.00475758 9.97067 -0.304881 2 1 
70 1.20484 9.9696 -0.00361052 -0.00436112 9.9696 -0.284059 2 1 
72 1.20484 9.96931 -0.00370699 -0.00506461 9.96932 -0.28542 2 1 
74 1.20485 9.96859 -0.00380664 -0.00505949 9.9686 -0.263975 2 1 
76 1.20487 9.96758 -0.00387301 -0.00539241 9.96758 -0.242819 2 1 
78 1.20487 9.96677 -0.00396598 -0.00621391 9.96678 -0.23836 2 1 
80 1.20488 9.96542 -0.00406853 -0.00583184 9.96542 -0.218788 2 1 
82 1.20489 9.96454 -0.00415936 -0.00633096 9.96455 -0.204019 2 1 
84 1.2049 9.96376 -0.00424393 -0.00648418 9.96376 -0.186565 2 1 
86 1.2049 9.96304 -0.00433185 -0.00644484 9.96304 -0.177946 2 1 
88 1.20491 9.96204 -0.004417 -0.00710727 9.96205 -0.160243 2 1 
90 1.20493 9.9605 -0.00451533 -0.00668585 9.9605 -0.134013 2 1 
92 1.20493 9.95985 -0.00459511 -0.00687613 9.95985 -0.133242 2 1 
94 1.20493 9.95968 -0.00468869 -0.00779638 9.95968 -0.119126 2 1 
96 1.20495 9.95879 -0.00477604 -0.00787244 9.95879 -0.082494 2 1 
96 1.20495 9.95879 -0.00477604 -0.00787244 9.95879 -0.082494 2 1 
98 1.20496 9.95757 -0.00485737 -0.00819797 9.95758 -0.0782285 2 1 
100 1.20496 9.95608 -0.00496768 -0.00824391 9.95608 -0.0674154 2 1 
102 1.20498 9.95458 -0.00504771 -0.0080817 9.95458 -0.0297494 2 1 
104 1.20498 9.95422 -0.00513733 -0.00837191 9.95422 -0.0376772 2 1 
106 1.20499 9.95329 -0.00524574 -0.00860754 9.9533 -0.022587 2 1 
108 1.20501 9.95237 -0.0053127 -0.00910539 9.95238 0.0117108 2 1 
110 1.20501 9.95233 -0.00536099 -0.00957074 9.95233 0.0185286 2 1 
112 1.20503 9.95088 -0.00546731 -0.00977542 9.95089 0.0557849 2 1 
114 1.20503 9.94947 -0.00557202 -0.00990398 9.94948 0.0610378 2 1 
116 1.20503 9.94876 -0.00565951 -0.00974128 9.94877 0.0553361 2 1 
118 1.20506 9.94696 -0.00575578 -0.00970238 9.94697 0.103703 2 1 
120 1.20506 9.94585 -0.00581422 -0.00994896 9.94585 0.110081 2 1 
122 1.20506 9.94561 -0.00589216 -0.0105511 9.94562 0.111419 2 1 
124 1.2051 9.94385 -0.00600678 -0.0111231 9.94386 0.173231 2 1 
126 1.20509 9.94341 -0.00609709 -0.01135 9.94342 0.159431 2 1 
128 1.20508 9.94277 -0.0061653 -0.0113809 9.94278 0.153048 2 1 
128 1.20508 9.94277 -0.0061653 -0.0113809 9.94278 0.153048 10 1 
130 1.20512 9.94067 -0.00624038 -0.0111876 9.94068 0.225435 10 1 
132 1.20513 9.93997 -0.00634277 -0.0113719 9.93998 0.230244 10 1 
134 1.20512 9.93864 -0.00644704 -0.0121292 9.93865 0.221028 10 1 
136 1.20514 9.93745 -0.00656271 -0.0127742 9.93746 0.260354 10 1 
138 1.20516 9.9365 -0.00669525 -0.0128357 9.93651 0.29496 10 1 
140 1.20516 9.9356 -0.00681874 -0.0130414 9.93561 0.284528 10 1 
142 1.20517 9.93483 -0.0069183 -0.0126015 9.93484 0.305207 10 1 
144 1.20521 9.9325 -0.00698598 -0.0131519 9.93251 0.372715 10 1 
146 1.20519 9.9318 -0.00706818 -0.0138274 9.93181 0.352274 10 1 
148 1.20519 9.93128 -0.00719608 -0.0141818 9.9313 0.350849 10 1 
150 1.20524 9.92851 -0.00735866 -0.0143638 9.92853 0.438184 10 1 
152 1.20524 9.9279 -0.00750694 -0.0138737 9.92791 0.430882 10 1 
154 1.20523 9.92748 -0.00764281 -0.0137716 9.92749 0.408886 10 1 
156 1.20528 9.92497 -0.00774021 -0.0144803 9.92498 0.497537 10 1 
158 1.20528 9.92426 -0.00777362 -0.014665 9.92427 0.504543 10 1 
160 1.20527 9.92305 -0.00781784 -0.0154245 9.92306 0.4867 10 1 
160 1.20527 9.92305 -0.00781784 -0.0154245 9.92306 0.4867 10 1 
162 1.20531 9.92032 -0.0078779 -0.0153833 9.92033 0.5684 10 1 
164 1.20532 9.9199 -0.00793814 -0.0145063 9.91991 0.57702 10 1 
166 1.20533 9.9179 -0.00803375 -0.0147815 9.91791 0.588125 10 1 
168 1.20534 9.91555 -0.00814893 -0.0148871 9.91556 0.616823 10 1 
170 1.20535 9.91474 -0.00827308 -0.0156764 9.91476 0.631031 10 1 
172 1.20539 9.91177 -0.00834518 -0.016231 9.91178 0.711272 10 1 
174 1.20539 9.91073 -0.00848254 -0.0157118 9.91075 0.699616 10 1 
176 1.2054 9.90977 -0.00863384 -0.0157242 9.90979 0.715562 10 1 
178 1.20545 9.90662 -0.00873637 -0.016049 9.90663 0.816445 10 1 
180 1.20544 9.90503 -0.00886655 -0.0165027 9.90505 0.794581 10 1 
182 1.20545 9.90293 -0.00898017 -0.016831 9.90295 0.811437 10 1 
184 1.20551 9.90011 -0.0090649 -0.016138 9.90013 0.916528 10 1 
186 1.20551 9.89856 -0.00915163 -0.0156124 9.89858 0.917189 10 1 
188 1.2055 9.89664 -0.00930328 -0.0158104 9.89666 0.909989 10 1 
190 1.20556 9.89323 -0.00940462 -0.0168434 9.89325 1.01167 10 1 
192 1.2056 9.8893 -0.00956068 -0.0174599 9.88932 1.08179 10 1 
194 1.20558 9.88634 -0.00967376 -0.0179351 9.88636 1.0526 10 1 
196 1.20561 9.88406 -0.00976773 -0.0179213 9.88408 1.10558 10 1 
198 1.20568 9.88169 -0.00991324 -0.0165085 9.88171 1.21933 10 1 
200 1.20568 9.87934 -0.0100038 -0.0161583 9.87936 1.23373 10 1 
202 1.2057 9.87605 -0.0101022 -0.0160791 9.87607 1.26916 10 1 
204 1.20577 9.87088 -0.0102614 -0.015551 9.8709 1.38691 10 1 
206 1.2058 9.86551 -0.0103512 -0.016962 9.86553 1.43783 10 1 
208 1.20578 9.86168 -0.0103771 -0.0167648 9.8617 1.40499 10 1 
210 1.20585 9.85653 -0.0105354 -0.016919 9.85655 1.53181 10 1 
212 1.20594 9.85085 -0.0107055 -0.0184263 9.85088 1.69625 10 1 
214 1.20592 9.84804 -0.0109027 -0.0164076 9.84806 1.65889 10 1 
216 1.20597 9.84326 -0.011046 -0.0158985 9.84328 1.75943 10 1 
218 1.20607 9.83627 -0.0110854 -0.0158753 9.83629 1.93575 10 1 
220 1.20607 9.83051 -0.0111554 -0.0141084 9.83052 1.92748 10 1 
222 1.20612 9.82232 -0.0112539 -0.0169628 9.82235 2.02082 10 1 
224 1.20622 9.81353 -0.0113659 -0.0176199 9.81356 2.20472 10 1 
224 1.20622 9.81353 -0.0113659 -0.0176199 9.81356 2.20472 10 1 
226 1.20627 9.80588 -0.011534 -0.0141161 9.8059 2.29687 10 1 
228 1.2063 9.79722 -0.011729 -0.0156706 9.79724 2.34537 10 1 
230 1.20637 9.78967 -0.0118705 -0.01453 9.78969 2.47708 10 1 
232 1.20652 9.77939 -0.0119647 -0.0151879 9.77941 2.75364 10 1 
234 1.20657 9.76847 -0.0120055 -0.0166097 9.76849 2.82815 10 1 
236 1.2066 9.75801 -0.0121347 -0.0125336 9.75803 2.88335 10 1 
238 1.20677 9.74239 -0.012345 -0.0121227 9.74241 3.20585 10 1 
240 1.20684 9.72864 -0.0124597 -0.0120037 9.72866 3.31542 10 1 
242 1.20689 9.7155 -0.0126718 -0.0119118 9.71552 3.41596 10 1 
244 1.20711 9.69828 -0.0127934 -0.0131162 9.6983 3.80571 10 1 
246 1.20725 9.68085 -0.0127867 -0.00993057 9.68087 4.05576 10 1 
248 1.20729 9.66178 -0.0129881 -0.00774212 9.66179 4.13003 10 1 
250 1.20745 9.64003 -0.0132097 -0.00692269 9.64005 4.4202 10 1 
252 1.20771 9.61527 -0.0133814 -0.00463634 9.61528 4.90021 10 1 
254 1.20785 9.58833 -0.0135123 -0.00316698 9.58835 5.14185 10 1 
256 1.20797 9.56195 -0.0135787 -0.00270697 9.56197 5.35968 10 1 
256 1.20797 9.56195 -0.0135787 -0.00270697 9.56197 5.35968 11 1 
258 1.20828 9.53028 -0.0137196 0.00269541 9.5303 5.93309 11 1 
260 1.20855 9.49168 -0.0139943 0.00638538 9.49171 6.40803 11 1 
262 1.20866 9.45533 -0.0141376 0.0112166 9.45536 6.61572 11 1 
264 1.20903 9.41201 -0.0141795 0.0156188 9.41205 7.28104 11 1 
266 1.20953 9.35648 -0.0144115 0.0212996 9.35654 8.18851 11 1 
268 1.20965 9.3062 -0.0145819 0.032162 9.30629 8.40285 11 1 
270 1.21002 9.24514 -0.0146413 0.0418572 9.24528 9.07148 11 1 
272 1.21078 9.16446 -0.0148042 0.0549471 9.16468 10.4421 11 1 
274 1.21108 9.08956 -0.0149659 0.0705648 9.0899 10.9908 11 1 
276 1.2115 9.00305 -0.0151177 0.0873694 9.00353 11.7424 11 1 
278 1.2124 8.89665 -0.0152295 0.113781 8.89748 13.375 11 1 
280 1.21307 8.78779 -0.0153201 0.148691 8.78918 14.577 11 1 
282 1.21368 8.65346 -0.0153715 0.188734 8.65572 15.6859 11 1 
284 1.21454 8.50568 -0.0154174 0.232385 8.50904 17.2299 11 1 
286 1.21558 8.34958 -0.0154844 0.287972 8.35486 19.1119 11 1 
288 1.21659 8.16857 -0.0155334 0.3881 8.17834 20.9286 11 1 
288 1.21659 8.16857 -0.0155334 0.3881 8.17834 20.9286 11 1 
290 1.2173 7.98153 -0.0155631 0.473732 7.99589 22.2161 11 1 
292 1.21871 7.75071 -0.0155041 0.552497 7.77159 24.7656 11 1 
294 1.22022 7.47518 -0.015374 0.757203 7.51618 27.4998 11 1 
296 1.21914 7.09425 -0.0151518 0.845358 7.14635 25.5322 11 1 
298 1.21432 6.50971 -0.0149255 0.41197 6.53699 16.8315 11 1 
300 1.20718 5.90841 -0.0148177 -0.526188 5.96609 3.93334 11 1 
302 1.20106 5.49378 -0.0147443 -1.21692 5.63206 -7.11761 11 1 
304 1.19834 5.22202 -0.0145924 -1.20455 5.36138 -12.0264 11 1 
306 1.19808 4.99133 -0.0143845 -0.950247 5.0825 -12.4916 11 1 
308 1.19877 4.80252 -0.0141494 -0.772582 4.86491 -11.2586 11 1 
310 1.1999 4.67086 -0.0139191 -0.654438 4.71705 -9.2163 11 1 
312 1.20065 4.54596 -0.0137466 -0.552753 4.57993 -7.85798 11 1 
314 1.20088 4.39982 -0.0135998 -0.461694 4.42451 -7.44934 11 1 
316 1.2014 4.25344 -0.0133728 -0.38087 4.27094 -6.50983 11 1 
318 1.20211 4.12761 -0.0131331 -0.316688 4.14012 -5.21402 11 1 
320 1.20241 4.00908 -0.0129849 -0.260783 4.01785 -4.68387 11 1 
320 1.20241 4.00908 -0.0129849 -0.260783 4.01785 -4.68387 15 1 
322 1.2026 3.88694 -0.012821 -0.213608 3.89312 -4.33444 15 1 
324 1.20309 3.7732 -0.0126382 -0.182786 3.77789 -3.44814 15 1 
326 1.20348 3.67207 -0.0125024 -0.156659 3.67563 -2.7536 15 1 
328 1.2036 3.57276 -0.012383 -0.130492 3.57533 -2.53489 15 1 
330 1.20382 3.47694 -0.0122366 -0.111279 3.47889 -2.13954 15 1 
332 1.20417 3.395 -0.0120798 -0.0954152 3.39651 -1.49329 15 1 
334 1.20438 3.31595 -0.0119355 -0.083858 3.31717 -1.11699 15 1 
336 1.20446 3.23082 -0.0117872 -0.0744532 3.23181 -0.97344 15 1 
338 1.20467 3.15431 -0.0116312 -0.0645501 3.15508 -0.596206 15 1 
340 1.20493 3.09068 -0.0114683 -0.0565414 3.09131 -0.12924 15 1 
342 1.20504 3.02648 -0.0113228 -0.0509847 3.02704 0.0788406 15 1 
344 1.20513 2.95747 -0.0111868 -0.0460635 2.95795 0.233073 15 1 
346 1.20531 2.89213 -0.011054 -0.042252 2.89253 0.552578 15 1 
348 1.20548 2.83679 -0.010927 -0.0400699 2.83717 0.869479 15 1 
350 1.20557 2.78391 -0.0108152 -0.0357283 2.78426 1.02664 15 1 
352 1.20566 2.72603 -0.0107213 -0.0311667 2.72632 1.19153 15 1 
354 1.20581 2.67119 -0.0106111 -0.0296605 2.67145 1.46895 15 1 
356 1.20592 2.62215 -0.0105248 -0.0279341 2.62239 1.67066 15 1 
358 1.20599 2.5735 -0.0104782 -0.0235232 2.5737 1.79557 15 1 
360 1.20611 2.52721 -0.0104011 -0.0187762 2.52737 2.00268 15 1 
362 1.20623 2.48322 -0.0103312 -0.0163669 2.48336 2.22042 15 1 
364 1.2063 2.4392 -0.0103117 -0.0144758 2.43932 2.35272 15 1 
366 1.20638 2.39707 -0.0102877 -0.0103705 2.39717 2.48523 15 1 
368 1.20649 2.35861 -0.010286 -0.00536179 2.35868 2.68515 15 1 
370 1.20659 2.32307 -0.0103309 -0.0016454 2.32314 2.86569 15 1 
372 1.20665 2.2875 -0.0103707 0.00151682 2.28756 2.97293 15 1 
374 1.20672 2.25284 -0.0103163 0.00500594 2.2529 3.11156 15 1 
376 1.20683 2.22236 -0.0101776 0.00880401 2.22243 3.30348 15 1 
378 1.20691 2.19382 -0.0100087 0.0125401 2.19391 3.44604 15 1 
380 1.20697 2.16579 -0.00982144 0.0153249 2.16589 3.55557 15 1 
382 1.20705 2.13984 -0.00960934 0.0168977 2.13995 3.7054 15 1 
384 1.20714 2.1153 -0.00939537 0.0178162 2.11541 3.86365 15 1 
384 1.20714 2.1153 -0.00939537 0.0178162 2.11541 3.86365 16 1 
386 1.20721 2.0915 -0.00924995 0.0189286 2.09162 3.98331 16 1 
388 1.20727 2.06899 -0.00918302 0.0203516 2.06913 4.10661 16 1 
390 1.20736 2.04817 -0.00921135 0.0210765 2.04832 4.26577 16 1 
392 1.20744 2.02848 -0.00930781 0.0211263 2.02862 4.40099 16 1 
394 1.20749 2.00908 -0.00939325 0.0211485 2.00922 4.50188 16 1 
396 1.20757 1.99095 -0.00949282 0.021024 1.99109 4.6344 16 1 
398 1.20765 1.97424 -0.00964185 0.0206367 1.97438 4.78663 16 1 
400 1.20772 1.95784 -0.00984759 0.0201013 1.95798 4.90566 16 1 
402 1.20777 1.94201 -0.0100856 0.0195956 1.94215 5.00835 16 1 
404 1.20784 1.92718 -0.0103698 0.0185688 1.92731 5.13405 16 1 
406 1.20792 1.91302 -0.0107145 0.0170367 1.91313 5.26887 16 1 
408 1.20798 1.89872 -0.0110993 0.0159867 1.89883 5.38039 16 1 
410 1.20804 1.88469 -0.0115467 0.0153106 1.88479 5.48895 16 1 
412 1.20811 1.87231 -0.0120489 0.0143129 1.87241 5.61531 16 1 
414 1.20817 1.86052 -0.0125946 0.0131344 1.86062 5.72836 16 1 
416 1.20822 1.84771 -0.0131737 0.0123868 1.84781 5.82163 16 1 
416 1.20822 1.84771 -0.0131737 0.0123868 1.84781 5.82163 16 1 
418 1.20828 1.83532 -0.0138215 0.0123935 1.83542 5.92829 16 1 
420 1.20835 1.82492 -0.0145511 0.0127566 1.82503 6.04818 16 1 
422 1.2084 1.81558 -0.0153513 0.0132876 1.8157 6.14981 16 1 
424 1.20845 1.80633 -0.016203 0.0140434 1.80647 6.23553 16 1 
426 1.20851 1.79786 -0.0170534 0.0149642 1.79801 6.33509 16 1 
428 1.20857 1.79046 -0.0178535 0.0162736 1.79063 6.44189 16 1 
430 1.20862 1.78351 -0.018568 0.0181125 1.78371 6.53511 16 1 
432 1.20867 1.77689 -0.0192459 0.0200904 1.77712 6.62459 16 1 
434 1.20872 1.77061 -0.0199852 0.02178 1.77086 6.71705 16 1 
436 1.20877 1.76447 -0.0208103 0.0232564 1.76475 6.80201 16 1 
438 1.20881 1.75909 -0.0216935 0.0246705 1.7594 6.88102 16 1 
440 1.20886 1.75532 -0.0226258 0.025899 1.75566 6.9672 16 1 
442 1.20891 1.75305 -0.0235766 0.0270117 1.75342 7.05973 16 1 
444 1.20895 1.75099 -0.0244327 0.0282624 1.75139 7.14257 16 1 
446 1.20899 1.74796 -0.0250581 0.0297077 1.7484 7.21533 16 1 
448 1.20904 1.74401 -0.0254662 0.0313257 1.74449 7.29388 16 1 
448 1.20904 1.74401 -0.0254662 0.0313257 1.74449 7.29388 17 1 
450 1.20908 1.73922 -0.025752 0.0327515 1.73973 7.37795 17 1 
452 1.20913 1.73324 -0.0259054 0.0329585 1.73376 7.45555 17 1 
454 1.20917 1.72673 -0.0258007 0.0304707 1.7272 7.52932 17 1 
456 1.20921 1.72123 -0.0254177 0.0246173 1.7216 7.60736 17 1 
458 1.20925 1.71738 -0.0250432 0.0165926 1.71765 7.68357 17 1 
460 1.20929 1.71478 -0.025126 0.0090113 1.715 7.75399 17 1 
462 1.20933 1.71339 -0.0259377 0.00409535 1.71359 7.82858 17 1 
464 1.20938 1.7134 -0.0274384 0.00266639 1.71362 7.90794 17 1 
466 1.20942 1.7149 -0.0293769 0.00428291 1.71517 7.9817 17 1 
468 1.20946 1.7185 -0.0314452 0.00798953 1.71882 8.05163 17 1 
470 1.2095 1.72483 -0.0334216 0.0128003 1.72523 8.12752 17 1 
472 1.20954 1.73374 -0.0352074 0.0180427 1.73422 8.20898 17 1 
474 1.20959 1.74479 -0.0367844 0.0232406 1.74537 8.28958 17 1 
476 1.20963 1.75788 -0.0381469 0.0281926 1.75856 8.36956 17 1 
478 1.20968 1.77291 -0.0393323 0.0328783 1.7737 8.45244 17 1 
480 1.20973 1.78955 -0.040403 0.0372633 1.79044 8.53685 17 1 
480 1.20973 1.78955 -0.040403 0.0372633 1.79044 8.53685 17 1 
482 1.20977 1.80739 -0.0414 0.0412549 1.80839 8.62038 17 1 
484 1.20982 1.82635 -0.0423362 0.0448578 1.82744 8.7048 17 1 
486 1.20987 1.84649 -0.0432456 0.048075 1.84767 8.79155 17 1 
488 1.20991 1.86765 -0.0441631 0.0508841 1.86892 8.87599 17 1 
490 1.20996 1.88961 -0.0451008 0.0532196 1.89095 8.95618 17 1 
492 1.21 1.9125 -0.0460714 0.0550933 1.91391 9.03844 17 1 
494 1.21005 1.93653 -0.0470892 0.0565516 1.93799 9.12414 17 1 
496 1.2101 1.96163 -0.0481678 0.0575783 1.96313 9.20814 17 1 
498 1.21014 1.98771 -0.0493062 0.058151 1.98924 9.28908 17 1 
500 1.21019 2.01495 -0.0504973 0.0583272 2.0165 9.36885 17 1 
502 1.21023 2.04354 -0.0517381 0.058157 2.0451 9.44826 17 1 
504 1.21027 2.07336 -0.0530238 0.0576531 2.07492 9.52566 17 1 
506 1.21032 2.10437 -0.054352 0.0568114 2.10593 9.60135 17 1 
508 1.21036 2.13682 -0.055715 0.0556899 2.13836 9.67854 17 1 
510 1.2104 2.17079 -0.057104 0.0543496 2.17232 9.75584 17 1 
512 1.21044 2.20596 -0.0585138 0.0527562 2.20747 9.82891 17 1 
512 1.21044 2.20596 -0.0585138 0.0527562 2.20747 9.82891 25 1 
514 1.21048 2.24224 -0.0599366 0.0508842 2.24373 9.89804 25 1 
516 1.21052 2.27985 -0.06137 0.0488602 2.28132 9.9674 25 1 
518 1.21056 2.31877 -0.0628175 0.0467611 2.32022 10.0385 25 1 
520 1.2106 2.35879 -0.0642667 0.0445303 2.36021 10.1086 25 1 
522 1.21063 2.39974 -0.0657046 0.0421686 2.40115 10.1764 25 1 
524 1.21067 2.44159 -0.0671273 0.0397634 2.44298 10.2407 25 1 
526 1.2107 2.48426 -0.0685349 0.0373254 2.48564 10.3007 25 1 
528 1.21074 2.52776 -0.0699399 0.034823 2.52912 10.3609 25 1 
530 1.21077 2.57201 -0.0713265 0.0323383 2.57337 10.4244 25 1 
532 1.21081 2.61682 -0.0726822 0.0299225 2.61816 10.4885 25 1 
534 1.21084 2.66212 -0.0740103 0.0275225 2.66346 10.5496 25 1 
536 1.21087 2.70787 -0.0753054 0.0251526 2.70921 10.6064 25 1 
538 1.2109 2.75393 -0.0765735 0.0228255 2.75527 10.6588 25 1 
540 1.21093 2.80032 -0.0778125 0.0205515 2.80166 10.7107 25 1 
542 1.21096 2.84701 -0.0790237 0.0183622 2.84835 10.7644 25 1 
544 1.21099 2.89394 -0.0802062 0.0162688 2.89529 10.8174 25 1 
544 1.21099 2.89394 -0.0802062 0.0162688 2.89529 10.8174 25 1 
546 1.21102 2.94104 -0.0813432 0.014249 2.94239 10.8696 25 1 
548 1.21105 2.9883 -0.0824518 0.0122731 2.98966 10.9213 25 1 
550 1.21107 3.03569 -0.0835286 0.0104122 3.03706 10.9725 25 1 
552 1.2111 3.08311 -0.0845803 0.00865601 3.08449 11.0215 25 1 
554 1.21113 3.13056 -0.0856044 0.00697985 3.13194 11.0665 25 1 
556 1.21115 3.17801 -0.0865892 0.00539196 3.17939 11.109 25 1 
558 1.21117 3.22548 -0.0875472 0.00390461 3.22687 11.1504 25 1 
560 1.2112 3.273 -0.0884802 0.00252031 3.2744 11.1939 25 1 
562 1.21122 3.32054 -0.0893945 0.00121019 3.32195 11.2393 25 1 
564 1.21125 3.36804 -0.0902671 4.17137e-05 3.36945 11.2824 25 1 
566 1.21127 3.41548 -0.0911074 -0.00104032 3.4169 11.3237 25 1 
568 1.21129 3.46286 -0.0919285 -0.00205471 3.46428 11.3627 25 1 
570 1.21131 3.51017 -0.0927352 -0.00294322 3.5116 11.4014 25 1 
572 1.21133 3.55745 -0.0935183 -0.00372232 3.55889 11.4405 25 1 
574 1.21135 3.60466 -0.0942834 -0.00442634 3.6061 11.478 25 1 
576 1.21137 3.65173 -0.095024 -0.00503824 3.65317 11.5133 25 1 
576 1.21137 3.65173 -0.095024 -0.00503824 3.65317 11.5133 26 1 
578 1.21139 3.69871 -0.0957201 -0.00553847 3.70016 11.5473 26 1 
580 1.21141 3.74563 -0.0964099 -0.00598104 3.74708 11.5824 26 1 
582 1.21143 3.79251 -0.0970702 -0.00629997 3.79396 11.619 26 1 
584 1.21145 3.83928 -0.0977383 -0.00656963 3.84073 11.6561 26 1 
586 1.21147 3.88593 -0.0983915 -0.00678018 3.88738 11.693 26 1 
588 1.21149 3.93244 -0.0990187 -0.00690059 3.9339 11.7285 26 1 
590 1.21151 3.97886 -0.0996566 -0.00700897 3.98032 11.7614 26 1 
592 1.21153 4.02512 -0.10026 -0.00699483 4.02657 11.7952 26 1 
594 1.21155 4.07127 -0.100873 -0.00694758 4.07272 11.828 26 1 
596 1.21157 4.11728 -0.101471 -0.00686516 4.11874 11.8606 26 1 
598 1.21159 4.16313 -0.102071 -0.00675102 4.16459 11.8949 26 1 
600 1.2116 4.20895 -0.102663 -0.00665911 4.21041 11.9284 26 1 
602 1.21162 4.25462 -0.103259 -0.00653717 4.25609 11.9646 26 1 
604 1.21164 4.30019 -0.103873 -0.00641622 4.30166 12.0009 26 1 
606 1.21166 4.34557 -0.104486 -0.00626025 4.34704 12.0371 26 1 
608 1.21168 4.39083 -0.105128 -0.00614957 4.3923 12.0718 26 1 
608 1.21168 4.39083 -0.105128 -0.00614957 4.3923 12.0718 26 1 
610 1.2117 4.43597 -0.105765 -0.00607597 4.43745 12.1042 26 1 
612 1.21172 4.48092 -0.106406 -0.00604856 4.4824 12.1376 26 1 
614 1.21174 4.52581 -0.107061 -0.00608788 4.5273 12.169 26 1 
616 1.21176 4.57059 -0.107728 -0.0061691 4.57208 12.2035 26 1 
618 1.21178 4.61526 -0.108432 -0.00635238 4.61676 12.242 26 1 
620 1.2118 4.65992 -0.109154 -0.00658289 4.66144 12.2806 26 1 
622 1.21182 4.70449 -0.109899 -0.00693749 4.70601 12.3184 26 1 
624 1.21184 4.74891 -0.110666 -0.00739952 4.75044 12.3524 26 1 
626 1.21186 4.79313 -0.111434 -0.00793986 4.79468 12.3858 26 1 
628 1.21188 4.8374 -0.112247 -0.00868324 4.83896 12.4185 26 1 
630 1.2119 4.88162 -0.113062 -0.00946693 4.8832 12.4544 26 1 
632 1.21192 4.92581 -0.113924 -0.0104484 4.9274 12.4935 26 1 
634 1.21194 4.97004 -0.114802 -0.0115473 4.97165 12.5296 26 1 
636 1.21196 5.0141 -0.115695 -0.0127523 5.01572 12.5674 26 1 
638 1.21198 5.05821 -0.116625 -0.0142035 5.05985 12.6038 26 1 
640 1.212 5.10231 -0.117579 -0.015715 5.10398 12.6403 26 1 
642 1.21202 5.1464 -0.118556 -0.0174412 5.14809 12.6791 26 1 
644 1.21204 5.19045 -0.119533 -0.0192706 5.19217 12.7157 26 1 
646 1.21206 5.23447 -0.120553 -0.0212432 5.23621 12.7506 26 1 
648 1.21208 5.27845 -0.121534 -0.0233963 5.28021 12.7844 26 1 
650 1.2121 5.32247 -0.122577 -0.0256646 5.32426 12.8186 26 1 
652 1.21212 5.36652 -0.123612 -0.0281017 5.36834 12.858 26 1 
654 1.21214 5.41059 -0.124653 -0.0306184 5.41245 12.8983 26 1 
656 1.21216 5.45463 -0.12571 -0.0332279 5.45653 12.9384 26 1 
658 1.21219 5.49854 -0.126744 -0.0359745 5.50047 12.9789 26 1 
660 1.2122 5.54249 -0.127796 -0.0388026 5.54446 13.0132 26 1 
662 1.21223 5.58625 -0.128786 -0.0417062 5.58825 13.0505 26 1 
664 1.21225 5.62994 -0.129818 -0.0446914 5.63197 13.0873 26 1 
666 1.21227 5.67365 -0.130769 -0.0476329 5.67573 13.1234 26 1 
668 1.21229 5.71704 -0.131698 -0.0506558 5.71915 13.1673 26 1 
670 1.21231 5.76051 -0.132618 -0.0537243 5.76266 13.2027 26 1 
672 1.21233 5.80372 -0.133447 -0.0567439 5.80591 13.2423 26 1 
672 1.21233 5.80372 -0.133447 -0.0567439 5.80591 13.2423 27 1 
674 1.21236 5.84656 -0.134272 -0.059757 5.84878 13.2856 27 1 
676 1.21238 5.88947 -0.135033 -0.0627146 5.89172 13.3224 27 1 
678 1.2124 5.93183 -0.135694 -0.0655665 5.93411 13.3675 27 1 
680 1.21242 5.97414 -0.136323 -0.0684113 5.97646 13.4089 27 1 
682 1.21245 6.01594 -0.13686 -0.07121 6.01829 13.4522 27 1 
684 1.21247 6.05744 -0.137318 -0.0738191 6.05982 13.4883 27 1 
686 1.21249 6.09854 -0.137692 -0.0763911 6.10094 13.5279 27 1 
688 1.21251 6.13907 -0.13798 -0.0788326 6.14149 13.5699 27 1 
690 1.21253 6.17949 -0.138163 -0.0811543 6.18193 13.6058 27 1 
692 1.21256 6.21919 -0.138296 -0.0833958 6.22164 13.6531 27 1 
694 1.21258 6.25864 -0.138295 -0.0854614 6.26109 13.6938 27 1 
696 1.21261 6.29734 -0.13824 -0.0874368 6.2998 13.7387 27 1 
698 1.21263 6.33566 -0.138098 -0.0892428 6.33812 13.7766 27 1 
700 1.21265 6.37339 -0.13782 -0.0908643 6.37585 13.815 27 1 
702 1.21267 6.4103 -0.137465 -0.0924936 6.41275 13.8603 27 1 
704 1.21269 6.44715 -0.136957 -0.0938641 6.4496 13.8886 27 1 
704 1.21269 6.44715 -0.136957 -0.0938641 6.4496 13.8886 31 1 
706 1.21272 6.48298 -0.136423 -0.0951242 6.48541 13.9362 31 1 
708 1.21274 6.5185 -0.135785 -0.0963225 6.52092 13.9781 31 1 
710 1.21276 6.55352 -0.135079 -0.0971729 6.55591 14.01 31 1 
712 1.21278 6.58775 -0.134296 -0.0981171 6.59012 14.0515 31 1 
714 1.2128 6.62174 -0.133319 -0.0988664 6.62408 14.0886 31 1 
716 1.21282 6.65492 -0.132409 -0.0994091 6.65723 14.1316 31 1 
718 1.21284 6.68811 -0.131313 -0.100083 6.69039 14.1636 31 1 
720 1.21287 6.72044 -0.130232 -0.100395 6.72267 14.2108 31 1 
722 1.21289 6.7524 -0.129134 -0.100637 6.75461 14.2514 31 1 
724 1.2129 6.78412 -0.127815 -0.101049 6.78629 14.2753 31 1 
726 1.21293 6.81516 -0.126759 -0.101116 6.81729 14.3169 31 1 
728 1.21295 6.84623 -0.125419 -0.101089 6.84832 14.3554 31 1 
730 1.21297 6.87665 -0.124018 -0.101303 6.87869 14.3939 31 1 
732 1.21299 6.90715 -0.122799 -0.100979 6.90916 14.4303 31 1 
734 1.21302 6.93721 -0.12128 -0.10104 6.93917 14.4805 31 1 
736 1.21304 6.96717 -0.120052 -0.100857 6.96909 14.5191 31 1 
738 1.21306 6.99672 -0.118695 -0.100316 6.9986 14.5495 31 1 
740 1.21308 7.02662 -0.117158 -0.10025 7.02845 14.5859 31 1 
742 1.21311 7.05574 -0.11591 -0.099775 7.05753 14.6415 31 1 
744 1.21312 7.0853 -0.114548 -0.0994723 7.08705 14.6747 31 1 
746 1.21314 7.11524 -0.113103 -0.0990489 7.11695 14.7057 31 1 
748 1.21318 7.14388 -0.111899 -0.0984114 7.14555 14.7732 31 1 
750 1.21319 7.1738 -0.110538 -0.0978722 7.17543 14.794 31 1 
752 1.21321 7.20311 -0.109244 -0.0970472 7.2047 14.8258 31 1 
752 1.21321 7.20311 -0.109244 -0.0970472 7.2047 14.8258 31 1 
754 1.21324 7.23251 -0.108087 -0.0964301 7.23407 14.8876 31 1 
756 1.21327 7.26228 -0.106953 -0.0955384 7.2638 14.9326 31 1 
758 1.21328 7.2926 -0.10601 -0.0944386 7.29408 14.9571 31 1 
760 1.21331 7.32251 -0.105036 -0.0932931 7.32395 15.0155 31 1 
762 1.21334 7.35216 -0.104335 -0.0919002 7.35356 15.0713 31 1 
764 1.21335 7.3833 -0.103575 -0.0904319 7.38467 15.0767 31 1 
766 1.21339 7.41298 -0.102872 -0.0885577 7.41431 15.1462 31 1 
768 1.21341 7.4447 -0.102541 -0.086517 7.446 15.1951 31 1 
770 1.21344 7.47531 -0.102328 -0.0840522 7.47657 15.2386 31 1 
772 1.21345 7.50697 -0.102083 -0.0809556 7.50819 15.2609 31 1 
774 1.21348 7.53971 -0.102457 -0.0788798 7.5409 15.3112 31 1 
776 1.21351 7.57243 -0.102991 -0.0754459 7.5736 15.3782 31 1 
778 1.21352 7.60659 -0.102959 -0.0703951 7.6077 15.393 31 1 
780 1.21355 7.63941 -0.103349 -0.0663984 7.64049 15.4483 31 1 
782 1.21357 7.67471 -0.104814 -0.061596 7.67577 15.4845 31 1 
784 1.2136 7.70945 -0.106458 -0.0573733 7.7105 15.5323 31 1 
786 1.2136 7.74734 -0.107461 -0.0498588 7.74835 15.5325 31 1 
788 1.21364 7.78529 -0.108419 -0.0429448 7.78627 15.598 31 1 
790 1.21365 7.82476 -0.110796 -0.034914 7.82574 15.623 31 1 
792 1.21364 7.86562 -0.113206 -0.0243304 7.86661 15.6034 31 1 
794 1.21364 7.90932 -0.114582 -0.0129986 7.9103 15.6144 31 1 
796 1.21366 7.95265 -0.116979 0.00596707 7.95369 15.6478 31 1 
798 1.21363 7.99703 -0.120825 0.0329973 7.99823 15.5917 31 1 
800 1.21356 8.02335 -0.122978 0.0489662 8.02467 15.465 31 1 
