84.2252;r ;Density                 ;Velocity u              ;Velocity v              ;Velocity w              ;|Velocity|              ;Pressure                ;Distribution            ;Levels                  ;
0 1.21755 9.99911 -6.32307e-05 -0.000598707 9.99911 22.6689 1 1 
2 1.21756 9.99813 -0.00019156 -0.000632336 9.99813 22.6781 1 1 
4 1.21756 9.99662 -0.00040175 -0.000281298 9.99662 22.6856 1 1 
6 1.21756 9.99571 -0.000607522 -0.000377402 9.99571 22.6921 1 1 
8 1.21758 9.99448 -0.000789155 -0.000440033 9.99448 22.7207 1 1 
10 1.21758 9.9933 -0.000965575 -0.000749909 9.9933 22.7298 1 1 
12 1.21759 9.99179 -0.0011636 -0.00102707 9.99179 22.7329 1 1 
14 1.21759 9.98993 -0.00135423 -0.00125348 9.98993 22.7482 1 1 
16 1.21759 9.98932 -0.00153837 -0.00133525 9.98932 22.7478 1 1 
18 1.21761 9.98874 -0.00171563 -0.00144341 9.98874 22.7726 1 1 
20 1.21762 9.98755 -0.00189997 -0.00166981 9.98755 22.7958 1 1 
22 1.21762 9.98624 -0.00207495 -0.00188042 9.98624 22.7889 1 1 
24 1.21762 9.98498 -0.00227132 -0.00224052 9.98498 22.7913 1 1 
26 1.21763 9.9842 -0.00245546 -0.00246325 9.9842 22.812 1 1 
28 1.21764 9.98327 -0.0026542 -0.00274476 9.98327 22.8313 1 1 
30 1.21764 9.98192 -0.00284656 -0.00310645 9.98193 22.8331 1 1 
32 1.21764 9.98077 -0.00301413 -0.00340528 9.98077 22.8317 1 1 
32 1.21764 9.98077 -0.00301413 -0.00340528 9.98077 22.8317 1 1 
34 1.21765 9.97995 -0.00318919 -0.00363814 9.97995 22.8451 1 1 
36 1.21766 9.97896 -0.0033467 -0.00396046 9.97896 22.8659 1 1 
38 1.21766 9.97757 -0.00352372 -0.00413499 9.97757 22.8686 1 1 
40 1.21766 9.97603 -0.00369565 -0.00447296 9.97604 22.8661 1 1 
42 1.21767 9.97481 -0.00385791 -0.00464411 9.97481 22.8814 1 1 
44 1.21767 9.97407 -0.0040351 -0.00473785 9.97407 22.8895 1 1 
46 1.21767 9.97301 -0.00424833 -0.00491132 9.97301 22.8915 1 1 
48 1.21768 9.97136 -0.0044005 -0.00492241 9.97137 22.9037 1 1 
50 1.21768 9.97023 -0.00455185 -0.00526172 9.97023 22.9067 1 1 
52 1.21769 9.96946 -0.00473918 -0.00537207 9.96946 22.9162 1 1 
54 1.21769 9.96833 -0.00491959 -0.00542418 9.96833 22.9236 1 1 
56 1.21769 9.9669 -0.0050905 -0.00567345 9.9669 22.9252 1 1 
58 1.2177 9.96559 -0.00522255 -0.00558987 9.9656 22.9339 1 1 
60 1.2177 9.96481 -0.00537726 -0.00595364 9.96482 22.937 1 1 
62 1.21771 9.96373 -0.00555697 -0.00644946 9.96373 22.9503 1 1 
64 1.2177 9.96242 -0.00573748 -0.0063219 9.96242 22.9471 1 1 
64 1.2177 9.96242 -0.00573748 -0.0063219 9.96242 22.9471 2 1 
66 1.2177 9.96136 -0.00590781 -0.00673165 9.96136 22.94 2 1 
68 1.21771 9.9602 -0.00608797 -0.00661008 9.9602 22.9582 2 1 
70 1.21772 9.95898 -0.00624668 -0.00623531 9.95898 22.9665 2 1 
72 1.21771 9.95833 -0.0064161 -0.00690161 9.95834 22.9524 2 1 
74 1.21771 9.95735 -0.00657787 -0.00686173 9.95736 22.9614 2 1 
76 1.21772 9.95628 -0.00671947 -0.00720399 9.95628 22.9695 2 1 
78 1.21771 9.95523 -0.00687783 -0.00796388 9.95524 22.9615 2 1 
80 1.21772 9.95351 -0.00703847 -0.00750288 9.95352 22.9678 2 1 
82 1.21771 9.95251 -0.00721547 -0.008028 9.95252 22.9652 2 1 
84 1.21771 9.95167 -0.00737979 -0.0081582 9.95168 22.9646 2 1 
86 1.21771 9.95068 -0.00751591 -0.0080161 9.95069 22.9587 2 1 
88 1.21771 9.94946 -0.00767689 -0.00860947 9.94947 22.961 2 1 
90 1.21772 9.94787 -0.00787175 -0.00823916 9.94788 22.9699 2 1 
92 1.21771 9.94704 -0.00801132 -0.00837292 9.94705 22.9531 2 1 
94 1.21771 9.9465 -0.00817293 -0.00917511 9.94651 22.9485 2 1 
96 1.21771 9.94539 -0.00835641 -0.00925937 9.9454 22.9638 2 1 
96 1.21771 9.94539 -0.00835641 -0.00925937 9.9454 22.9638 2 1 
98 1.2177 9.94413 -0.00850718 -0.0095888 9.94414 22.946 2 1 
100 1.2177 9.94246 -0.00867303 -0.00954127 9.94247 22.9385 2 1 
102 1.21771 9.94072 -0.00883148 -0.00930889 9.94073 22.9581 2 1 
104 1.21769 9.94028 -0.00898929 -0.00957695 9.94029 22.9294 2 1 
106 1.21769 9.9393 -0.00916924 -0.00975868 9.93931 22.9232 2 1 
108 1.2177 9.93813 -0.00931975 -0.0101542 9.93814 22.9351 2 1 
110 1.21769 9.93779 -0.00943082 -0.0105766 9.9378 22.9187 2 1 
112 1.2177 9.93619 -0.00961394 -0.0107391 9.9362 22.9331 2 1 
114 1.21769 9.93462 -0.00982242 -0.0108342 9.93463 22.9156 2 1 
116 1.21767 9.93368 -0.00996277 -0.0105945 9.93369 22.8865 2 1 
118 1.21768 9.93168 -0.010101 -0.0104426 9.93169 22.9108 2 1 
120 1.21767 9.93047 -0.0102585 -0.010659 9.93048 22.8937 2 1 
122 1.21766 9.9301 -0.0104113 -0.0111969 9.93011 22.872 2 1 
124 1.21768 9.92813 -0.0105419 -0.0116314 9.92814 22.9107 2 1 
126 1.21766 9.92751 -0.0107058 -0.0117728 9.92752 22.874 2 1 
128 1.21765 9.92671 -0.0108803 -0.011792 9.92673 22.844 2 1 
128 1.21765 9.92671 -0.0108803 -0.011792 9.92673 22.844 10 1 
130 1.21767 9.92439 -0.0110008 -0.0115418 9.9244 22.8894 10 1 
132 1.21766 9.92344 -0.0111364 -0.0115732 9.92345 22.8664 10 1 
134 1.21764 9.92191 -0.0113012 -0.0122372 9.92193 22.8337 10 1 
136 1.21765 9.92056 -0.0114621 -0.0128211 9.92058 22.8501 10 1 
138 1.21766 9.91938 -0.0116263 -0.0127824 9.91939 22.8612 10 1 
140 1.21764 9.91816 -0.0117975 -0.0129066 9.91818 22.829 10 1 
142 1.21764 9.91723 -0.0119651 -0.0124077 9.91725 22.8262 10 1 
144 1.21766 9.91474 -0.0121184 -0.0129008 9.91476 22.868 10 1 
146 1.21763 9.91374 -0.0122536 -0.0134745 9.91376 22.8217 10 1 
148 1.21762 9.91295 -0.0124053 -0.013765 9.91296 22.7961 10 1 
150 1.21766 9.90997 -0.0126128 -0.0138812 9.90999 22.8616 10 1 
152 1.21764 9.90911 -0.0127913 -0.0133315 9.90913 22.8325 10 1 
154 1.21762 9.90838 -0.0129441 -0.0132042 9.90839 22.7883 10 1 
156 1.21765 9.90558 -0.0131396 -0.0138573 9.90559 22.8523 10 1 
158 1.21764 9.90456 -0.0133312 -0.0140517 9.90457 22.8321 10 1 
160 1.21762 9.903 -0.0134989 -0.0148874 9.90302 22.7893 10 1 
160 1.21762 9.903 -0.0134989 -0.0148874 9.90302 22.7893 10 1 
162 1.21765 9.90005 -0.0136715 -0.0148861 9.90007 22.8471 10 1 
164 1.21764 9.8995 -0.0138654 -0.0140543 9.89952 22.8311 10 1 
166 1.21763 9.89733 -0.0140497 -0.0143645 9.89735 22.8182 10 1 
168 1.21763 9.89476 -0.0142142 -0.0144991 9.89478 22.8216 10 1 
170 1.21763 9.89372 -0.0144298 -0.0152765 9.89374 22.8054 10 1 
172 1.21765 9.89051 -0.0145912 -0.0158976 9.89054 22.854 10 1 
174 1.21763 9.88925 -0.0147656 -0.0154417 9.88927 22.8126 10 1 
176 1.21762 9.88812 -0.0149943 -0.0154518 9.88814 22.7989 10 1 
178 1.21766 9.88487 -0.0152196 -0.0158853 9.88489 22.8701 10 1 
180 1.21763 9.88317 -0.0154166 -0.0164301 9.88319 22.8183 10 1 
182 1.21762 9.88089 -0.0155866 -0.0167868 9.88091 22.8027 10 1 
184 1.21766 9.87793 -0.0157782 -0.016188 9.87796 22.8721 10 1 
186 1.21764 9.87625 -0.0159659 -0.0158147 9.87627 22.8378 10 1 
188 1.21762 9.8742 -0.0161775 -0.0161157 9.87422 22.7986 10 1 
190 1.21766 9.8707 -0.0163507 -0.0171715 9.87073 22.8673 10 1 
192 1.21768 9.86672 -0.0166188 -0.0179757 9.86675 22.9021 10 1 
194 1.21764 9.86365 -0.016844 -0.0186647 9.86368 22.8371 10 1 
196 1.21765 9.86121 -0.017033 -0.01874 9.86124 22.8527 10 1 
198 1.21769 9.85869 -0.0172876 -0.0175093 9.85872 22.9285 10 1 
200 1.21768 9.85623 -0.0175034 -0.0174035 9.85626 22.9076 10 1 
202 1.21768 9.85287 -0.0177134 -0.0175049 9.8529 22.9097 10 1 
204 1.21773 9.84765 -0.0179654 -0.017149 9.84768 22.9923 10 1 
206 1.21774 9.84219 -0.0181677 -0.0188033 9.84222 23.0055 10 1 
208 1.2177 9.83826 -0.0183164 -0.0188224 9.83829 22.9344 10 1 
210 1.21775 9.83304 -0.0185885 -0.0191586 9.83308 23.0225 10 1 
212 1.21781 9.8273 -0.0188817 -0.0209126 9.82734 23.1471 10 1 
214 1.21777 9.8244 -0.0192057 -0.019185 9.82443 23.0712 10 1 
216 1.21781 9.81952 -0.0194772 -0.0189075 9.81956 23.1356 10 1 
218 1.21788 9.81251 -0.0196577 -0.0191618 9.81255 23.2715 10 1 
220 1.21786 9.8067 -0.0198429 -0.0177239 9.80674 23.2215 10 1 
222 1.21789 9.79846 -0.0200684 -0.0208603 9.7985 23.2767 10 1 
224 1.21797 9.78971 -0.0203673 -0.0217754 9.78976 23.4191 10 1 
224 1.21797 9.78971 -0.0203673 -0.0217754 9.78976 23.4191 10 1 
226 1.21799 9.7821 -0.0206965 -0.0185879 9.78215 23.4697 10 1 
228 1.218 9.77344 -0.0209863 -0.0203836 9.77348 23.4789 10 1 
230 1.21805 9.76593 -0.0212517 -0.0195267 9.76597 23.5671 10 1 
232 1.21818 9.75567 -0.0215411 -0.0205273 9.75572 23.7989 10 1 
234 1.21819 9.74473 -0.0217491 -0.0222836 9.74478 23.8302 10 1 
236 1.2182 9.73435 -0.0219987 -0.0185382 9.73439 23.8413 10 1 
238 1.21835 9.71882 -0.0223551 -0.0184478 9.71887 24.1208 10 1 
240 1.21839 9.70514 -0.0226546 -0.0186932 9.70519 24.187 10 1 
242 1.21842 9.69205 -0.0230321 -0.0189255 9.6921 24.2429 10 1 
244 1.21861 9.67494 -0.0232779 -0.0204734 9.67499 24.5887 10 1 
246 1.21873 9.65766 -0.0234096 -0.0176662 9.65771 24.7927 10 1 
248 1.21874 9.63869 -0.023823 -0.0158282 9.63873 24.8198 10 1 
250 1.21888 9.617 -0.0242469 -0.0154265 9.61705 25.0642 10 1 
252 1.21912 9.59235 -0.024533 -0.0134915 9.59239 25.4978 10 1 
254 1.21922 9.56559 -0.0248313 -0.0123161 9.56564 25.6913 10 1 
256 1.21932 9.53935 -0.0251335 -0.0122818 9.5394 25.862 10 1 
256 1.21932 9.53935 -0.0251335 -0.0122818 9.5394 25.862 11 1 
258 1.21961 9.50782 -0.0254094 -0.00731263 9.50787 26.3887 11 1 
260 1.21985 9.46945 -0.0258107 -0.0039621 9.4695 26.8163 11 1 
262 1.21994 9.43331 -0.0261562 0.000448976 9.43336 26.9768 11 1 
264 1.22028 9.3902 -0.0263961 0.00439452 9.39025 27.5965 11 1 
266 1.22075 9.33496 -0.0267975 0.00971729 9.33502 28.4573 11 1 
268 1.22085 9.28496 -0.0271225 0.0201278 9.28505 28.6211 11 1 
270 1.22119 9.22418 -0.0273452 0.0293619 9.2243 29.241 11 1 
272 1.22192 9.14388 -0.0276778 0.0420431 9.14406 30.5659 11 1 
274 1.2222 9.06937 -0.0279585 0.0571999 9.06964 31.0661 11 1 
276 1.22259 8.98326 -0.0282552 0.0735557 8.98365 31.7712 11 1 
278 1.22347 8.87737 -0.0285552 0.0995149 8.87805 33.3609 11 1 
280 1.22411 8.76907 -0.0287898 0.133878 8.77025 34.5172 11 1 
282 1.2247 8.63535 -0.0289504 0.173394 8.63732 35.5807 11 1 
284 1.22553 8.48827 -0.0291349 0.216485 8.49125 37.0804 11 1 
286 1.22655 8.33295 -0.0293013 0.2715 8.33773 38.9202 11 1 
288 1.22753 8.1528 -0.0294166 0.370986 8.16183 40.6957 11 1 
288 1.22753 8.1528 -0.0294166 0.370986 8.16183 40.6957 11 1 
290 1.22822 7.96678 -0.029521 0.455909 7.98017 41.9393 11 1 
292 1.22961 7.73714 -0.0295052 0.534103 7.7568 44.4535 11 1 
294 1.23111 7.46286 -0.0293808 0.737897 7.50201 47.1527 11 1 
296 1.22998 7.08376 -0.0290656 0.825617 7.13367 45.1245 11 1 
298 1.22511 6.50199 -0.0287167 0.393318 6.5282 36.3228 11 1 
300 1.2179 5.90348 -0.0285704 -0.542613 5.96263 23.293 11 1 
302 1.21171 5.49102 -0.028529 -1.23144 5.63256 12.1188 11 1 
304 1.20894 5.22139 -0.0284021 -1.21809 5.36388 7.12457 11 1 
306 1.20866 4.99334 -0.0282118 -0.963273 5.08698 6.60612 11 1 
308 1.20932 4.80758 -0.0279975 -0.785286 4.87199 7.80132 11 1 
310 1.21043 4.67906 -0.0277889 -0.666787 4.72695 9.81318 11 1 
312 1.21117 4.55716 -0.0277002 -0.564787 4.59256 11.137 11 1 
314 1.21137 4.41386 -0.0277041 -0.473368 4.43975 11.5036 11 1 
316 1.21187 4.27025 -0.0275859 -0.392346 4.28878 12.4065 11 1 
318 1.21257 4.1471 -0.0274292 -0.328142 4.1605 13.6705 11 1 
320 1.21284 4.03115 -0.0274325 -0.272343 4.0407 14.1606 11 1 
320 1.21284 4.03115 -0.0274325 -0.272343 4.0407 14.1606 15 1 
322 1.21301 3.91152 -0.0274535 -0.225275 3.91837 14.4683 15 1 
324 1.21348 3.80012 -0.0274707 -0.194603 3.80544 15.32 15 1 
326 1.21385 3.70133 -0.0275889 -0.16873 3.70547 15.9783 15 1 
328 1.21394 3.60452 -0.0277877 -0.142907 3.60761 16.1546 15 1 
330 1.21414 3.51111 -0.0279865 -0.124191 3.51356 16.5096 15 1 
332 1.21448 3.43139 -0.0281732 -0.108868 3.43336 17.1178 15 1 
334 1.21466 3.35452 -0.0284229 -0.0980534 3.3562 17.4521 15 1 
336 1.21472 3.27169 -0.0287257 -0.0898183 3.27316 17.5524 15 1 
338 1.2149 3.19735 -0.0290213 -0.0814988 3.1986 17.8884 15 1 
340 1.21514 3.13548 -0.0293216 -0.075225 3.1366 18.3108 15 1 
342 1.21523 3.07265 -0.0296783 -0.0710967 3.07373 18.4694 15 1 
344 1.21528 3.00495 -0.0300728 -0.0673234 3.00595 18.5756 15 1 
346 1.21544 2.94103 -0.0305018 -0.064723 2.94197 18.8503 15 1 
348 1.21558 2.88697 -0.0309431 -0.0641578 2.88792 19.119 15 1 
350 1.21564 2.83495 -0.0313975 -0.0618286 2.83589 19.2226 15 1 
352 1.2157 2.77754 -0.0319003 -0.0593682 2.77845 19.3327 15 1 
354 1.21583 2.72305 -0.0324159 -0.0599451 2.72397 19.5551 15 1 
356 1.21591 2.6743 -0.0329684 -0.0605125 2.67525 19.7005 15 1 
358 1.21594 2.62559 -0.0335508 -0.0588594 2.62653 19.7688 15 1 
360 1.21603 2.57862 -0.0341025 -0.0571555 2.57955 19.9172 15 1 
362 1.21611 2.53341 -0.0346666 -0.0577582 2.53437 20.0714 15 1 
364 1.21615 2.48786 -0.0353006 -0.0589563 2.48887 20.1385 15 1 
366 1.21619 2.44399 -0.0359443 -0.0583976 2.44501 20.2072 15 1 
368 1.21626 2.40319 -0.036553 -0.057438 2.4042 20.3424 15 1 
370 1.21632 2.36428 -0.0371825 -0.0579162 2.36533 20.4541 15 1 
372 1.21634 2.32428 -0.0378907 -0.0587822 2.32538 20.4902 15 1 
374 1.21638 2.2844 -0.0386122 -0.0592561 2.28554 20.5554 15 1 
376 1.21644 2.24798 -0.0392622 -0.0594513 2.24914 20.6697 15 1 
378 1.21648 2.21252 -0.0398567 -0.0594637 2.21371 20.734 15 1 
380 1.2165 2.17638 -0.0404681 -0.0597711 2.17761 20.7675 15 1 
382 1.21654 2.14137 -0.0411019 -0.0605021 2.14266 20.8405 15 1 
384 1.21658 2.1073 -0.041711 -0.0613503 2.10864 20.9176 15 1 
384 1.21658 2.1073 -0.041711 -0.0613503 2.10864 20.9176 16 1 
386 1.2166 2.0736 -0.0422561 -0.0617536 2.07498 20.9519 16 1 
388 1.21662 2.04045 -0.0427113 -0.0616513 2.04186 20.9878 16 1 
390 1.21666 2.00795 -0.0431947 -0.0619569 2.0094 21.0592 16 1 
392 1.21669 1.97571 -0.0437211 -0.0625647 1.97721 21.1084 16 1 
394 1.21669 1.94311 -0.0441693 -0.0628893 1.94466 21.1231 16 1 
396 1.21672 1.91109 -0.0445792 -0.0631114 1.91268 21.1644 16 1 
398 1.21675 1.87965 -0.0449736 -0.0633213 1.88128 21.222 16 1 
400 1.21676 1.84769 -0.0453693 -0.0632315 1.84936 21.2493 16 1 
402 1.21677 1.81581 -0.0457742 -0.0626444 1.8175 21.2646 16 1 
404 1.21679 1.78487 -0.0462225 -0.0620549 1.78657 21.303 16 1 
406 1.21682 1.75466 -0.0467273 -0.0612306 1.75638 21.346 16 1 
408 1.21683 1.72436 -0.0472266 -0.0591045 1.72604 21.3624 16 1 
410 1.21684 1.69461 -0.0476979 -0.0558816 1.69623 21.3777 16 1 
412 1.21686 1.66728 -0.0481305 -0.0524528 1.66882 21.4167 16 1 
414 1.21687 1.64141 -0.0485596 -0.0489234 1.64288 21.4478 16 1 
416 1.21688 1.61524 -0.0490255 -0.0450615 1.61664 21.4607 16 1 
416 1.21688 1.61524 -0.0490255 -0.0450615 1.61664 21.4607 16 1 
418 1.2169 1.59011 -0.049575 -0.040902 1.59144 21.4862 16 1 
420 1.21692 1.56739 -0.0502063 -0.0370575 1.56865 21.5253 16 1 
422 1.21693 1.54586 -0.0509245 -0.0337811 1.5471 21.5504 16 1 
424 1.21694 1.52445 -0.0517255 -0.0309419 1.52566 21.5655 16 1 
426 1.21696 1.50391 -0.0525806 -0.028646 1.50513 21.5974 16 1 
428 1.21698 1.48471 -0.0534821 -0.0267477 1.48593 21.6352 16 1 
430 1.21699 1.4664 -0.0544193 -0.0250321 1.46764 21.6588 16 1 
432 1.217 1.44921 -0.0553859 -0.0237136 1.45049 21.6836 16 1 
434 1.21702 1.43331 -0.0563886 -0.0231525 1.43463 21.7188 16 1 
436 1.21704 1.4183 -0.0574146 -0.0231985 1.41966 21.7511 16 1 
438 1.21706 1.40428 -0.0584209 -0.0234916 1.40571 21.7783 16 1 
440 1.21708 1.3918 -0.0593999 -0.0240795 1.39329 21.8115 16 1 
442 1.2171 1.38103 -0.0603866 -0.0251079 1.38259 21.8509 16 1 
444 1.21712 1.37148 -0.061432 -0.0264846 1.37312 21.8843 16 1 
446 1.21713 1.36298 -0.0625139 -0.0280131 1.36471 21.914 16 1 
448 1.21715 1.35637 -0.063606 -0.0295336 1.35819 21.9534 16 1 
448 1.21715 1.35637 -0.063606 -0.0295336 1.35819 21.9534 17 1 
450 1.21718 1.35192 -0.0646954 -0.0309658 1.35384 21.9971 17 1 
452 1.2172 1.34895 -0.0657688 -0.0322568 1.35094 22.0341 17 1 
454 1.21722 1.34733 -0.0668069 -0.0334356 1.34941 22.0708 17 1 
456 1.21724 1.34768 -0.0677756 -0.034512 1.34984 22.1157 17 1 
458 1.21727 1.34992 -0.0686967 -0.0354211 1.35215 22.1603 17 1 
460 1.21729 1.3536 -0.0696061 -0.036054 1.35588 22.1996 17 1 
462 1.21731 1.35894 -0.0705311 -0.0364649 1.36127 22.2429 17 1 
464 1.21734 1.36616 -0.0715044 -0.0366917 1.36854 22.291 17 1 
466 1.21737 1.37484 -0.072567 -0.0366482 1.37726 22.3347 17 1 
468 1.21739 1.38491 -0.0736789 -0.0362328 1.38736 22.3759 17 1 
470 1.21741 1.39653 -0.0747631 -0.035461 1.399 22.4204 17 1 
472 1.21744 1.40926 -0.0757646 -0.034357 1.41174 22.465 17 1 
474 1.21746 1.42251 -0.076625 -0.0330575 1.42498 22.5054 17 1 
476 1.21748 1.43612 -0.0772583 -0.03176 1.43857 22.5446 17 1 
478 1.2175 1.45002 -0.0776116 -0.0306899 1.45244 22.5855 17 1 
480 1.21753 1.46384 -0.0777127 -0.0301386 1.46623 22.6242 17 1 
480 1.21753 1.46384 -0.0777127 -0.0301386 1.46623 22.6242 17 1 
482 1.21754 1.4772 -0.0776537 -0.0303172 1.47957 22.6573 17 1 
484 1.21756 1.49014 -0.077584 -0.0311665 1.49249 22.6879 17 1 
486 1.21758 1.50292 -0.0777177 -0.0324349 1.50529 22.7191 17 1 
488 1.21759 1.51558 -0.0782381 -0.0338263 1.51798 22.7478 17 1 
490 1.21761 1.52818 -0.0792217 -0.0351922 1.53065 22.7715 17 1 
492 1.21762 1.54117 -0.0806512 -0.0364425 1.54373 22.7934 17 1 
494 1.21763 1.55501 -0.0824681 -0.0375417 1.55766 22.8138 17 1 
496 1.21764 1.56983 -0.0845976 -0.0385587 1.5726 22.8303 17 1 
498 1.21765 1.58572 -0.0869512 -0.0396176 1.58862 22.8446 17 1 
500 1.21766 1.60294 -0.0894399 -0.040764 1.60597 22.8586 17 1 
502 1.21766 1.62158 -0.0920199 -0.0420382 1.62475 22.8715 17 1 
504 1.21767 1.64142 -0.0946569 -0.0434914 1.64474 22.8812 17 1 
506 1.21767 1.66228 -0.0973288 -0.0451828 1.66576 22.8876 17 1 
508 1.21767 1.68433 -0.100033 -0.0470644 1.68797 22.8933 17 1 
510 1.21768 1.70754 -0.102777 -0.0490637 1.71136 22.8991 17 1 
512 1.21768 1.73159 -0.105553 -0.0512339 1.73559 22.9027 17 1 
512 1.21768 1.73159 -0.105553 -0.0512339 1.73559 22.9027 25 1 
514 1.21768 1.75636 -0.108351 -0.0536357 1.76053 22.9038 25 1 
516 1.21768 1.78198 -0.111172 -0.0561773 1.78635 22.9037 25 1 
518 1.21768 1.80843 -0.114025 -0.0587999 1.81299 22.903 25 1 
520 1.21768 1.83551 -0.116908 -0.0615624 1.84028 22.9008 25 1 
522 1.21768 1.8632 -0.11981 -0.0644653 1.86818 22.8977 25 1 
524 1.21768 1.89151 -0.122729 -0.0674322 1.89671 22.8946 25 1 
526 1.21767 1.92043 -0.125663 -0.0704778 1.92584 22.8898 25 1 
528 1.21767 1.94995 -0.128612 -0.0736248 1.95559 22.8842 25 1 
530 1.21767 1.98005 -0.131575 -0.0768297 1.98592 22.8786 25 1 
532 1.21766 2.01063 -0.134537 -0.0800522 2.01674 22.872 25 1 
534 1.21766 2.04176 -0.137479 -0.0833053 2.0481 22.8656 25 1 
536 1.21766 2.07347 -0.140422 -0.0865911 2.08004 22.8595 25 1 
538 1.21765 2.10568 -0.143348 -0.0898705 2.11249 22.8523 25 1 
540 1.21765 2.13839 -0.146247 -0.0931386 2.14542 22.8453 25 1 
542 1.21764 2.17162 -0.149121 -0.0963646 2.17888 22.8388 25 1 
544 1.21764 2.20531 -0.151948 -0.0995186 2.2128 22.8321 25 1 
544 1.21764 2.20531 -0.151948 -0.0995186 2.2128 22.8321 25 1 
546 1.21764 2.23947 -0.154734 -0.102637 2.24717 22.8253 25 1 
548 1.21763 2.27411 -0.157458 -0.105686 2.28202 22.819 25 1 
550 1.21763 2.30921 -0.160137 -0.108628 2.31732 22.8134 25 1 
552 1.21763 2.34472 -0.162758 -0.111451 2.35302 22.8075 25 1 
554 1.21762 2.38062 -0.165313 -0.114173 2.3891 22.8021 25 1 
556 1.21762 2.41692 -0.167797 -0.116775 2.42557 22.797 25 1 
558 1.21762 2.45359 -0.170196 -0.11923 2.46239 22.7919 25 1 
560 1.21762 2.49062 -0.172543 -0.121565 2.49956 22.7874 25 1 
562 1.21761 2.52797 -0.174802 -0.123728 2.53704 22.7835 25 1 
564 1.21761 2.56559 -0.176991 -0.125732 2.57478 22.7799 25 1 
566 1.21761 2.60353 -0.1791 -0.127598 2.61282 22.7767 25 1 
568 1.21761 2.64171 -0.181139 -0.129323 2.65108 22.7739 25 1 
570 1.21761 2.68011 -0.183099 -0.130867 2.68956 22.7706 25 1 
572 1.21761 2.71872 -0.18498 -0.132247 2.72823 22.768 25 1 
574 1.2176 2.75752 -0.186792 -0.13349 2.76708 22.7658 25 1 
576 1.2176 2.79646 -0.188526 -0.134565 2.80605 22.764 25 1 
576 1.2176 2.79646 -0.188526 -0.134565 2.80605 22.764 26 1 
578 1.2176 2.83553 -0.190211 -0.135515 2.84515 22.7628 26 1 
580 1.2176 2.87476 -0.191811 -0.13631 2.88439 22.7614 26 1 
582 1.2176 2.91405 -0.19336 -0.136964 2.92369 22.7605 26 1 
584 1.2176 2.95338 -0.194836 -0.137489 2.96301 22.7596 26 1 
586 1.2176 2.99276 -0.196254 -0.137892 3.00238 22.7588 26 1 
588 1.2176 3.03217 -0.197628 -0.138185 3.04176 22.7584 26 1 
590 1.2176 3.07156 -0.198928 -0.13836 3.08112 22.7582 26 1 
592 1.2176 3.11094 -0.200206 -0.138454 3.12047 22.7581 26 1 
594 1.2176 3.15027 -0.201396 -0.138438 3.15976 22.7577 26 1 
596 1.2176 3.1895 -0.202553 -0.138341 3.19894 22.7583 26 1 
598 1.2176 3.22868 -0.203666 -0.13819 3.23807 22.7588 26 1 
600 1.2176 3.26775 -0.204725 -0.137965 3.27709 22.7595 26 1 
602 1.2176 3.30671 -0.205756 -0.137691 3.31598 22.7603 26 1 
604 1.2176 3.34552 -0.206732 -0.137373 3.35474 22.7608 26 1 
606 1.2176 3.38415 -0.207658 -0.137018 3.39331 22.7611 26 1 
608 1.2176 3.42262 -0.208542 -0.136633 3.43171 22.7617 26 1 
608 1.2176 3.42262 -0.208542 -0.136633 3.43171 22.7617 26 1 
610 1.2176 3.46093 -0.2094 -0.136245 3.46996 22.763 26 1 
612 1.2176 3.49907 -0.210207 -0.135845 3.50803 22.7643 26 1 
614 1.2176 3.53697 -0.210979 -0.135426 3.54587 22.7655 26 1 
616 1.2176 3.57466 -0.21172 -0.135033 3.5835 22.766 26 1 
618 1.2176 3.6121 -0.212377 -0.134637 3.62087 22.7668 26 1 
620 1.2176 3.64935 -0.21304 -0.134269 3.65805 22.7679 26 1 
622 1.21761 3.68638 -0.213631 -0.133914 3.69502 22.769 26 1 
624 1.21761 3.72313 -0.214201 -0.133586 3.73171 22.7702 26 1 
626 1.21761 3.75959 -0.214721 -0.133289 3.7681 22.7708 26 1 
628 1.21761 3.79583 -0.215192 -0.133018 3.80428 22.7705 26 1 
630 1.21761 3.83182 -0.215614 -0.132815 3.84021 22.771 26 1 
632 1.21761 3.86753 -0.216009 -0.132615 3.87586 22.772 26 1 
634 1.21761 3.90298 -0.216367 -0.132461 3.91125 22.7724 26 1 
636 1.21761 3.93817 -0.21665 -0.13234 3.94638 22.7724 26 1 
638 1.21761 3.97305 -0.216916 -0.132265 3.9812 22.7734 26 1 
640 1.21761 4.0077 -0.217156 -0.132231 4.01579 22.7735 26 1 
642 1.21761 4.04213 -0.217299 -0.132234 4.05016 22.7724 26 1 
644 1.21761 4.0762 -0.217452 -0.13227 4.08417 22.7733 26 1 
646 1.21761 4.11004 -0.217563 -0.1323 4.11796 22.7732 26 1 
648 1.21761 4.14368 -0.217557 -0.132387 4.15154 22.7718 26 1 
650 1.21761 4.17699 -0.217633 -0.132496 4.18479 22.7732 26 1 
652 1.21761 4.21013 -0.217588 -0.132623 4.21787 22.7741 26 1 
654 1.21761 4.24302 -0.217533 -0.132756 4.2507 22.7735 26 1 
656 1.21761 4.27558 -0.217477 -0.132879 4.28322 22.7741 26 1 
658 1.21761 4.30804 -0.217348 -0.133025 4.31562 22.7737 26 1 
660 1.21761 4.34019 -0.217182 -0.133127 4.3477 22.7746 26 1 
662 1.21761 4.37222 -0.217078 -0.133299 4.37968 22.775 26 1 
664 1.21761 4.40401 -0.216844 -0.133356 4.41141 22.7764 26 1 
666 1.21761 4.43558 -0.216648 -0.133442 4.44292 22.7788 26 1 
668 1.21761 4.46704 -0.216474 -0.133501 4.47432 22.7788 26 1 
670 1.21761 4.49829 -0.216159 -0.133441 4.50551 22.7806 26 1 
672 1.21761 4.52942 -0.215995 -0.133462 4.53658 22.7836 26 1 
672 1.21761 4.52942 -0.215995 -0.133462 4.53658 22.7836 27 1 
674 1.21761 4.56037 -0.215689 -0.133323 4.56748 22.7858 27 1 
676 1.21762 4.59124 -0.215454 -0.133155 4.59828 22.7884 27 1 
678 1.21762 4.62194 -0.215199 -0.132944 4.62892 22.7928 27 1 
680 1.21762 4.65263 -0.21491 -0.132641 4.65955 22.7961 27 1 
682 1.21762 4.68314 -0.21467 -0.132258 4.68999 22.7996 27 1 
684 1.21762 4.71368 -0.214413 -0.131786 4.72046 22.8033 27 1 
686 1.21763 4.74408 -0.214159 -0.131219 4.75079 22.8094 27 1 
688 1.21763 4.77448 -0.213933 -0.130561 4.78112 22.8141 27 1 
690 1.21763 4.80485 -0.213728 -0.129808 4.81142 22.8196 27 1 
692 1.21764 4.83521 -0.213505 -0.128938 4.84171 22.8258 27 1 
694 1.21764 4.86554 -0.213326 -0.127976 4.87196 22.832 27 1 
696 1.21764 4.89589 -0.213151 -0.126854 4.90224 22.8364 27 1 
698 1.21765 4.92635 -0.212985 -0.125622 4.93262 22.8422 27 1 
700 1.21765 4.9567 -0.212896 -0.124323 4.9629 22.8523 27 1 
702 1.21765 4.9872 -0.21274 -0.122807 4.99331 22.8573 27 1 
704 1.21766 5.0177 -0.212661 -0.12124 5.02374 22.8625 27 1 
704 1.21766 5.0177 -0.212661 -0.12124 5.02374 22.8625 31 1 
706 1.21766 5.04825 -0.212588 -0.119547 5.0542 22.8719 31 1 
708 1.21767 5.07888 -0.212483 -0.117614 5.08475 22.8788 31 1 
710 1.21767 5.10964 -0.212497 -0.115665 5.11544 22.8834 31 1 
712 1.21767 5.14045 -0.2124 -0.113512 5.14616 22.8925 31 1 
714 1.21768 5.1712 -0.212423 -0.111303 5.17682 22.9029 31 1 
716 1.21768 5.20216 -0.212453 -0.108835 5.2077 22.9054 31 1 
718 1.21768 5.2331 -0.212302 -0.106393 5.23854 22.912 31 1 
720 1.21769 5.26417 -0.212376 -0.103807 5.26954 22.9233 31 1 
722 1.21769 5.29529 -0.212398 -0.10089 5.30057 22.9303 31 1 
724 1.2177 5.32658 -0.212218 -0.0981399 5.33176 22.9338 31 1 
726 1.2177 5.35777 -0.212443 -0.0949918 5.36287 22.9462 31 1 
728 1.21771 5.38889 -0.212301 -0.0919971 5.39391 22.9561 31 1 
730 1.21771 5.42022 -0.212193 -0.0887672 5.42514 22.9552 31 1 
732 1.21771 5.45152 -0.212209 -0.085339 5.45636 22.966 31 1 
734 1.21772 5.48278 -0.212118 -0.0821784 5.48754 22.9804 31 1 
736 1.21772 5.51413 -0.212016 -0.0784201 5.5188 22.9834 31 1 
738 1.21773 5.54549 -0.21203 -0.0748678 5.55009 22.9887 31 1 
740 1.21774 5.5766 -0.211743 -0.0713544 5.58111 23.0045 31 1 
742 1.21774 5.60772 -0.211628 -0.0674423 5.61215 23.0131 31 1 
744 1.21774 5.63878 -0.211704 -0.0639674 5.64315 23.0139 31 1 
746 1.21775 5.67011 -0.211183 -0.0599948 5.67439 23.0255 31 1 
748 1.21776 5.7007 -0.211303 -0.0561718 5.70493 23.0473 31 1 
750 1.21776 5.73152 -0.21101 -0.0521983 5.73568 23.0444 31 1 
752 1.21776 5.76275 -0.210722 -0.0485243 5.76684 23.046 31 1 
752 1.21776 5.76275 -0.210722 -0.0485243 5.76684 23.046 31 1 
754 1.21778 5.79261 -0.210792 -0.0446684 5.79665 23.0807 31 1 
756 1.21778 5.82316 -0.210247 -0.0405882 5.82713 23.078 31 1 
758 1.21777 5.85403 -0.210271 -0.0370486 5.85796 23.068 31 1 
760 1.21779 5.88367 -0.210087 -0.0332289 5.88755 23.1092 31 1 
762 1.2178 5.91354 -0.209903 -0.0294687 5.91737 23.1201 31 1 
764 1.21779 5.94433 -0.209739 -0.025703 5.94813 23.0947 31 1 
766 1.21781 5.97287 -0.209466 -0.0221464 5.97663 23.1367 31 1 
768 1.21782 6.00288 -0.209419 -0.0186283 6.00661 23.147 31 1 
770 1.21781 6.03272 -0.20967 -0.0154925 6.03643 23.1319 31 1 
772 1.21782 6.06166 -0.209428 -0.0119106 6.06534 23.1512 31 1 
774 1.21783 6.09102 -0.209423 -0.00894237 6.09469 23.1703 31 1 
776 1.21782 6.1213 -0.209995 -0.00622926 6.12497 23.1538 31 1 
778 1.21782 6.15147 -0.209657 -0.00236959 6.15511 23.159 31 1 
780 1.21784 6.18041 -0.209299 0.000273525 6.18402 23.1885 31 1 
782 1.21782 6.2103 -0.210342 0.00299641 6.21394 23.1556 31 1 
784 1.2178 6.23973 -0.211755 0.00442756 6.24341 23.1272 31 1 
786 1.21779 6.27353 -0.212401 0.00705909 6.27722 23.1059 31 1 
788 1.21782 6.30365 -0.212334 0.00991787 6.30732 23.1576 31 1 
790 1.21776 6.33866 -0.215514 0.0121187 6.34244 23.0452 31 1 
792 1.21773 6.37076 -0.219236 0.0138164 6.37466 22.995 31 1 
794 1.21774 6.40254 -0.220102 0.0142598 6.40645 23.0112 31 1 
796 1.21769 6.43754 -0.229367 0.0166718 6.44178 22.9213 31 1 
798 1.2177 6.46301 -0.248627 0.0163472 6.468 22.9468 31 1 
800 1.21771 6.47633 -0.259489 0.015049 6.48175 22.9565 31 1 
