35.3203;r ;Density                 ;Velocity u              ;Velocity v              ;Velocity w              ;|Velocity|              ;Pressure                ;Distribution            ;Levels                  ;
0 1.2036 10.0007 4.15641e-05 -0.000568107 10.0007 -2.52393 1 1 
2 1.20359 10.001 1.39688e-05 -0.000459037 10.001 -2.53876 1 1 
4 1.20358 10.0018 -4.76348e-05 -7.63807e-05 10.0018 -2.5693 1 1 
6 1.20358 10.0024 -0.000149689 3.92833e-05 10.0024 -2.57128 1 1 
8 1.2036 10.0021 -0.000252466 -1.05549e-05 10.0021 -2.52471 1 1 
10 1.20361 10.0022 -0.000342049 -0.00039036 10.0022 -2.51594 1 1 
12 1.20358 10.0028 -0.000437658 -0.000586068 10.0028 -2.55671 1 1 
14 1.20356 10.0034 -0.00053942 -0.000685053 10.0034 -2.59829 1 1 
16 1.20355 10.005 -0.000633605 -0.000522314 10.005 -2.62782 1 1 
18 1.20357 10.0062 -0.000717273 -0.000475542 10.0062 -2.58806 1 1 
20 1.2036 10.0063 -0.000816287 -0.000784111 10.0063 -2.53397 1 1 
22 1.2036 10.0066 -0.000905556 -0.00115757 10.0066 -2.53462 1 1 
24 1.20359 10.0075 -0.00100474 -0.00152557 10.0075 -2.55009 1 1 
26 1.20359 10.0091 -0.00107429 -0.0016465 10.0091 -2.54839 1 1 
28 1.20359 10.0102 -0.00116783 -0.00178731 10.0102 -2.54095 1 1 
30 1.20359 10.0105 -0.0012873 -0.00226966 10.0105 -2.54259 1 1 
32 1.2036 10.0108 -0.00139808 -0.00257148 10.0108 -2.5338 1 1 
32 1.2036 10.0108 -0.00139808 -0.00257148 10.0108 -2.5338 1 1 
34 1.20361 10.0115 -0.00150281 -0.00274859 10.0115 -2.50885 1 1 
36 1.20362 10.0121 -0.00160378 -0.00295199 10.0121 -2.49251 1 1 
38 1.20361 10.0124 -0.00173713 -0.00309789 10.0124 -2.50802 1 1 
40 1.2036 10.0126 -0.00181449 -0.00347986 10.0126 -2.53514 1 1 
42 1.20359 10.0129 -0.00184974 -0.00373934 10.0129 -2.54054 1 1 
44 1.2036 10.0135 -0.00196353 -0.00390351 10.0135 -2.53219 1 1 
46 1.20361 10.0137 -0.00212362 -0.00415799 10.0137 -2.51826 1 1 
48 1.20361 10.0134 -0.00214377 -0.0040263 10.0134 -2.50618 1 1 
50 1.20361 10.014 -0.00217834 -0.0042013 10.014 -2.51641 1 1 
52 1.20361 10.0149 -0.00233588 -0.00421314 10.0149 -2.51871 1 1 
54 1.20361 10.0149 -0.00246768 -0.00430727 10.0149 -2.51205 1 1 
56 1.20361 10.0144 -0.00252983 -0.00430769 10.0144 -2.51349 1 1 
58 1.2036 10.0141 -0.00261143 -0.00402394 10.0141 -2.52418 1 1 
60 1.20359 10.0145 -0.00274583 -0.00465995 10.0145 -2.55459 1 1 
62 1.20358 10.0145 -0.00284025 -0.0052449 10.0145 -2.57066 1 1 
64 1.20357 10.0143 -0.00292906 -0.00502703 10.0143 -2.58483 1 1 
64 1.20357 10.0143 -0.00292906 -0.00502703 10.0143 -2.58483 2 1 
66 1.20357 10.0142 -0.00304718 -0.00546114 10.0142 -2.59071 2 1 
68 1.20357 10.014 -0.00315907 -0.00531654 10.014 -2.57449 2 1 
70 1.20357 10.0141 -0.00325939 -0.00475214 10.0141 -2.58064 2 1 
72 1.20355 10.0147 -0.00339369 -0.00540023 10.0147 -2.61334 2 1 
74 1.20355 10.0147 -0.00349711 -0.0053547 10.0147 -2.61421 2 1 
76 1.20356 10.0142 -0.00357685 -0.00543813 10.0142 -2.60915 2 1 
78 1.20355 10.0141 -0.00369567 -0.00606269 10.0141 -2.62096 2 1 
80 1.20355 10.0135 -0.00377098 -0.00576625 10.0135 -2.6234 2 1 
82 1.20354 10.0136 -0.00385296 -0.00622612 10.0136 -2.63528 2 1 
84 1.20354 10.0139 -0.00399624 -0.00636662 10.0139 -2.6347 2 1 
86 1.20354 10.0141 -0.00409455 -0.0063406 10.0141 -2.62956 2 1 
88 1.20355 10.0139 -0.00415398 -0.00679077 10.0139 -2.61095 2 1 
90 1.20357 10.0134 -0.00428976 -0.00610091 10.0134 -2.58817 2 1 
92 1.20356 10.0138 -0.00437804 -0.00629891 10.0138 -2.60108 2 1 
94 1.20356 10.0143 -0.00441851 -0.00726512 10.0143 -2.60605 2 1 
96 1.20357 10.0143 -0.00453364 -0.00715228 10.0143 -2.58318 2 1 
96 1.20357 10.0143 -0.00453364 -0.00715228 10.0143 -2.58318 2 1 
98 1.20357 10.0142 -0.00466882 -0.00728938 10.0142 -2.5864 2 1 
100 1.20357 10.0135 -0.00473673 -0.00729797 10.0135 -2.58171 2 1 
102 1.20359 10.0127 -0.00482356 -0.00683265 10.0127 -2.55143 2 1 
104 1.20358 10.0132 -0.00502741 -0.0071654 10.0133 -2.56748 2 1 
106 1.20358 10.0133 -0.00514284 -0.00762873 10.0133 -2.56015 2 1 
108 1.2036 10.0131 -0.0051298 -0.0078988 10.0131 -2.53734 2 1 
110 1.20359 10.0139 -0.0052279 -0.00804769 10.0139 -2.53827 2 1 
112 1.20362 10.0134 -0.00539551 -0.00842927 10.0134 -2.49577 2 1 
114 1.20362 10.0129 -0.00541583 -0.00875695 10.0129 -2.48479 2 1 
116 1.20362 10.0128 -0.00547614 -0.0083237 10.0128 -2.49848 2 1 
118 1.20364 10.0117 -0.00568471 -0.008191 10.0117 -2.46358 2 1 
120 1.20363 10.0112 -0.00572549 -0.00854748 10.0112 -2.46983 2 1 
122 1.20363 10.0115 -0.00571648 -0.00888051 10.0115 -2.48335 2 1 
124 1.20365 10.0104 -0.00590178 -0.00927429 10.0105 -2.43806 2 1 
126 1.20364 10.0108 -0.0060611 -0.0097545 10.0109 -2.45689 2 1 
128 1.20364 10.011 -0.00604352 -0.00981678 10.011 -2.44784 2 1 
128 1.20364 10.011 -0.00604352 -0.00981678 10.011 -2.44784 10 1 
130 1.20369 10.0096 -0.0061243 -0.00914195 10.0096 -2.35945 10 1 
132 1.2037 10.0098 -0.00635474 -0.00914108 10.0098 -2.35644 10 1 
134 1.20368 10.0094 -0.00641009 -0.0101878 10.0094 -2.38075 10 1 
136 1.2037 10.0089 -0.00640458 -0.0106461 10.0089 -2.35645 10 1 
138 1.20371 10.0082 -0.00663048 -0.0103917 10.0082 -2.33252 10 1 
140 1.2037 10.0073 -0.00681791 -0.0106318 10.0073 -2.35039 10 1 
142 1.20371 10.0071 -0.00678226 -0.0102419 10.0071 -2.33339 10 1 
144 1.20374 10.0057 -0.00684423 -0.0104709 10.0057 -2.27101 10 1 
146 1.20373 10.0059 -0.00707056 -0.0109989 10.0059 -2.2947 10 1 
148 1.20373 10.006 -0.00711574 -0.0114747 10.006 -2.28932 10 1 
150 1.20379 10.0039 -0.00712078 -0.0114329 10.0039 -2.18976 10 1 
152 1.20379 10.0039 -0.00735384 -0.0105342 10.0039 -2.19167 10 1 
154 1.20377 10.0037 -0.0075425 -0.0105694 10.0037 -2.22499 10 1 
156 1.20381 10.0014 -0.00748565 -0.0115748 10.0014 -2.15809 10 1 
158 1.2038 10.0013 -0.00755101 -0.0116159 10.0013 -2.16876 10 1 
160 1.20379 10.0005 -0.00783464 -0.012143 10.0006 -2.18893 10 1 
160 1.20379 10.0005 -0.00783464 -0.012143 10.0006 -2.18893 10 1 
162 1.20384 9.99807 -0.007888 -0.012334 9.99808 -2.09472 10 1 
164 1.20385 9.99827 -0.00782477 -0.0115061 9.99827 -2.07794 10 1 
166 1.20385 9.99729 -0.00805234 -0.0114779 9.9973 -2.06976 10 1 
168 1.20387 9.99559 -0.00828223 -0.0115438 9.9956 -2.04547 10 1 
170 1.20387 9.99495 -0.00821274 -0.0125211 9.99496 -2.03438 10 1 
172 1.20392 9.99226 -0.00818796 -0.0129955 9.99227 -1.95646 10 1 
174 1.20391 9.99177 -0.00848022 -0.0123437 9.99178 -1.97294 10 1 
176 1.20391 9.99116 -0.00861596 -0.0125893 9.99117 -1.96176 10 1 
178 1.20397 9.98838 -0.00846997 -0.0129902 9.98839 -1.86406 10 1 
180 1.20395 9.98756 -0.00860697 -0.0129731 9.98757 -1.89106 10 1 
182 1.20396 9.98615 -0.00894933 -0.0130095 9.98616 -1.87297 10 1 
184 1.20402 9.98347 -0.00894686 -0.0125664 9.98348 -1.76561 10 1 
186 1.20402 9.98181 -0.00871978 -0.0122208 9.98182 -1.77293 10 1 
188 1.20401 9.98038 -0.00891268 -0.0122781 9.9804 -1.78791 10 1 
190 1.20407 9.97781 -0.00927668 -0.0133352 9.97782 -1.68487 10 1 
192 1.20411 9.97425 -0.00930588 -0.0142933 9.97426 -1.61378 10 1 
194 1.20409 9.97132 -0.00911148 -0.014687 9.97134 -1.64904 10 1 
196 1.20411 9.96947 -0.00932217 -0.0143267 9.96949 -1.60023 10 1 
198 1.20417 9.96769 -0.00973636 -0.0128214 9.96771 -1.49276 10 1 
200 1.20418 9.96549 -0.00963458 -0.0128649 9.9655 -1.48955 10 1 
202 1.20419 9.96222 -0.00941584 -0.0129071 9.96223 -1.4623 10 1 
204 1.20425 9.95767 -0.00971786 -0.0121403 9.95768 -1.34736 10 1 
206 1.20428 9.95323 -0.0100637 -0.0135894 9.95325 -1.29793 10 1 
208 1.20426 9.94985 -0.00989809 -0.013761 9.94987 -1.3396 10 1 
210 1.20432 9.94468 -0.00974267 -0.0140832 9.94469 -1.22109 10 1 
212 1.20441 9.9391 -0.0100807 -0.0153496 9.93912 -1.06185 10 1 
214 1.20438 9.93694 -0.0106585 -0.0132933 9.93695 -1.11201 10 1 
216 1.20443 9.93304 -0.0108068 -0.0131486 9.93305 -1.02589 10 1 
218 1.20452 9.92652 -0.010596 -0.0134642 9.92653 -0.85857 10 1 
220 1.20452 9.92101 -0.010716 -0.0116709 9.92103 -0.874821 10 1 
222 1.20456 9.91329 -0.0111473 -0.0141605 9.91331 -0.788017 10 1 
224 1.20466 9.90478 -0.011223 -0.0148584 9.9048 -0.613341 10 1 
224 1.20466 9.90478 -0.011223 -0.0148584 9.9048 -0.613341 10 1 
226 1.2047 9.89718 -0.0108371 -0.0115117 9.89719 -0.54183 10 1 
228 1.20471 9.88902 -0.0106533 -0.0129451 9.88903 -0.516285 10 1 
230 1.20478 9.8826 -0.010996 -0.0114343 9.88262 -0.400838 10 1 
232 1.20493 9.87344 -0.0113405 -0.0117822 9.87345 -0.131826 10 1 
234 1.20496 9.86329 -0.0111538 -0.0135796 9.86331 -0.0648229 10 1 
236 1.20499 9.85346 -0.0108199 -0.01023 9.85347 -0.0205417 10 1 
238 1.20516 9.83828 -0.0108319 -0.0102634 9.83829 0.291724 10 1 
240 1.20521 9.82452 -0.010876 -0.00980288 9.82454 0.377288 10 1 
242 1.20525 9.81112 -0.0106189 -0.00882835 9.81113 0.446022 10 1 
244 1.20545 9.79412 -0.00981243 -0.00920419 9.79413 0.812096 10 1 
246 1.20558 9.77768 -0.00914003 -0.00540658 9.77769 1.04601 10 1 
248 1.20561 9.76026 -0.00968531 -0.00292179 9.76027 1.10949 10 1 
250 1.20577 9.74031 -0.0110525 -0.00229138 9.74032 1.39207 10 1 
252 1.20603 9.71643 -0.0122165 -0.000638816 9.71644 1.86692 10 1 
254 1.20616 9.68923 -0.0125509 0.000246697 9.68924 2.09135 10 1 
256 1.20626 9.66214 -0.0120131 0.000130762 9.66215 2.2805 10 1 
256 1.20626 9.66214 -0.0120131 0.000130762 9.66215 2.2805 11 1 
258 1.20657 9.63007 -0.0110859 0.0053112 9.63009 2.8293 11 1 
260 1.20682 9.59167 -0.0104091 0.00955006 9.59169 3.28315 11 1 
262 1.20692 9.55601 -0.010059 0.0152511 9.55604 3.47021 11 1 
264 1.20728 9.51357 -0.00995013 0.0204221 9.51361 4.12502 11 1 
266 1.20779 9.45884 -0.010143 0.0265707 9.45891 5.03032 11 1 
268 1.20789 9.40933 -0.0102812 0.037784 9.40944 5.22698 11 1 
270 1.20826 9.34878 -0.0103012 0.0475655 9.34894 5.88247 11 1 
272 1.20901 9.26839 -0.0104129 0.0606878 9.26863 7.25145 11 1 
274 1.20931 9.19393 -0.0104953 0.0764422 9.19431 7.77887 11 1 
276 1.20971 9.10775 -0.0105747 0.0934874 9.10828 8.51389 11 1 
278 1.21062 9.00144 -0.0106621 0.120279 9.00234 10.1483 11 1 
280 1.21128 8.89271 -0.0107364 0.155515 8.89419 11.3421 11 1 
282 1.21189 8.75834 -0.010779 0.195958 8.76072 12.4445 11 1 
284 1.21275 8.61045 -0.0108304 0.240178 8.61397 13.9953 11 1 
286 1.2138 8.45426 -0.0108866 0.296398 8.45977 15.89 11 1 
288 1.21481 8.27298 -0.0109059 0.39781 8.28309 17.7192 11 1 
288 1.21481 8.27298 -0.0109059 0.39781 8.28309 17.7192 11 1 
290 1.21552 8.08557 -0.0109215 0.484468 8.10038 19.0045 11 1 
292 1.21695 7.85369 -0.0108948 0.563953 7.87513 21.5784 11 1 
294 1.21848 7.57657 -0.0108263 0.771566 7.61852 24.3419 11 1 
296 1.21733 7.19234 -0.0106945 0.859945 7.24548 22.2697 11 1 
298 1.21235 6.6016 -0.0105578 0.418545 6.62931 13.2692 11 1 
300 1.20497 5.99523 -0.010525 -0.534567 6.05382 -0.0491433 11 1 
302 1.19865 5.57971 -0.0105404 -1.23512 5.71986 -11.4645 11 1 
304 1.19584 5.30934 -0.0105215 -1.22113 5.4502 -16.5535 11 1 
306 1.19555 5.08 -0.0104747 -0.962173 5.17185 -17.0727 11 1 
308 1.19623 4.89276 -0.0104088 -0.781216 4.95537 -15.8492 11 1 
310 1.19737 4.76355 -0.0103476 -0.660716 4.80971 -13.7869 11 1 
312 1.19812 4.6414 -0.0103334 -0.556781 4.67514 -12.4211 11 1 
314 1.19834 4.49805 -0.0103449 -0.463608 4.52239 -12.033 11 1 
316 1.19885 4.35466 -0.0102964 -0.380871 4.37175 -11.1023 11 1 
318 1.19957 4.23221 -0.0102349 -0.315454 4.24431 -9.80405 11 1 
320 1.19985 4.11746 -0.0102521 -0.258545 4.12585 -9.29509 11 1 
320 1.19985 4.11746 -0.0102521 -0.258545 4.12585 -9.29509 15 1 
322 1.20003 3.99943 -0.0102636 -0.21032 4.00524 -8.97452 15 1 
324 1.20052 3.8901 -0.0102596 -0.178633 3.89443 -8.0951 15 1 
326 1.2009 3.79386 -0.0103005 -0.151823 3.79708 -7.4053 15 1 
328 1.20101 3.69991 -0.0103556 -0.12489 3.70217 -7.20711 15 1 
330 1.20122 3.60974 -0.0103914 -0.104676 3.61141 -6.83129 15 1 
332 1.20157 3.53385 -0.0104322 -0.0876143 3.53508 -6.19914 15 1 
334 1.20176 3.46123 -0.0104839 -0.075211 3.46217 -5.84878 15 1 
336 1.20182 3.38273 -0.0105415 -0.065445 3.38347 -5.73933 15 1 
338 1.20202 3.31319 -0.0106005 -0.0551579 3.31374 -5.38155 15 1 
340 1.20228 3.25722 -0.0106532 -0.046412 3.25764 -4.9205 15 1 
342 1.20238 3.20124 -0.0107315 -0.0398409 3.2016 -4.72827 15 1 
344 1.20245 3.14039 -0.0108274 -0.033986 3.14067 -4.60213 15 1 
346 1.20261 3.0833 -0.010927 -0.0296869 3.08352 -4.30983 15 1 
348 1.20278 3.03707 -0.0110374 -0.0273325 3.03726 -4.01745 15 1 
350 1.20285 2.99425 -0.0111714 -0.0229228 2.99443 -3.88278 15 1 
352 1.20293 2.94673 -0.0113236 -0.0186105 2.94687 -3.74054 15 1 
354 1.20307 2.90241 -0.0114549 -0.0178526 2.90253 -3.48547 15 1 
356 1.20317 2.86435 -0.0116046 -0.017258 2.86446 -3.3053 15 1 
358 1.20323 2.82704 -0.0118003 -0.0141413 2.82715 -3.20406 15 1 
360 1.20333 2.79251 -0.0119869 -0.0106945 2.7926 -3.01978 15 1 
362 1.20343 2.76092 -0.0121598 -0.00952968 2.761 -2.82893 15 1 
364 1.20349 2.73005 -0.0123482 -0.00891364 2.73011 -2.72799 15 1 
366 1.20355 2.70154 -0.0125449 -0.00647302 2.7016 -2.62271 15 1 
368 1.20365 2.67706 -0.0127267 -0.00441386 2.67712 -2.44713 15 1 
370 1.20373 2.65561 -0.01288 -0.00533493 2.65566 -2.29041 15 1 
372 1.20378 2.63346 -0.0130369 -0.00730123 2.63352 -2.21172 15 1 
374 1.20383 2.61066 -0.0132138 -0.00853211 2.61072 -2.10864 15 1 
376 1.20392 2.59088 -0.0133964 -0.00892643 2.59094 -1.95452 15 1 
378 1.20398 2.57297 -0.0135548 -0.00770641 2.57303 -1.85119 15 1 
380 1.20402 2.55545 -0.013687 -0.00587598 2.5555 -1.77749 15 1 
382 1.20408 2.54033 -0.0138007 -0.00532122 2.54038 -1.65999 15 1 
384 1.20415 2.52642 -0.0139108 -0.00483034 2.52646 -1.53875 15 1 
384 1.20415 2.52642 -0.0139108 -0.00483034 2.52646 -1.53875 16 1 
386 1.20419 2.51169 -0.0140181 -0.00263824 2.51173 -1.46298 16 1 
388 1.20423 2.49765 -0.0141194 -0.000696769 2.4977 -1.39037 16 1 
390 1.20429 2.4858 -0.0142363 -0.000586792 2.48585 -1.28117 16 1 
392 1.20434 2.47389 -0.0142349 -0.000585562 2.47393 -1.19029 16 1 
394 1.20437 2.45866 -0.0140279 -0.00133042 2.45871 -1.13464 16 1 
396 1.20442 2.44038 -0.0139022 -0.00435439 2.44044 -1.04706 16 1 
398 1.20448 2.42046 -0.0141267 -0.00784315 2.42053 -0.941945 16 1 
400 1.20451 2.40165 -0.0143863 -0.0144652 2.40176 -0.879455 16 1 
402 1.20453 2.39106 -0.0141233 -0.0327185 2.39139 -0.840685 16 1 
404 1.20457 2.39375 -0.0133099 -0.0641939 2.39483 -0.783127 16 1 
406 1.2046 2.4049 -0.0124963 -0.0961352 2.40707 -0.719242 16 1 
408 1.20462 2.41064 -0.0122565 -0.110482 2.41336 -0.686587 16 1 
410 1.20463 2.3997 -0.0127784 -0.0994534 2.4019 -0.666544 16 1 
412 1.20465 2.37092 -0.0138394 -0.0686065 2.37207 -0.626421 16 1 
414 1.20468 2.32901 -0.0151116 -0.0288072 2.32941 -0.586614 16 1 
416 1.20469 2.28066 -0.0164475 0.011456 2.28097 -0.555622 16 1 
416 1.20469 2.28066 -0.0164475 0.011456 2.28097 -0.555622 16 1 
418 1.20472 2.23328 -0.0178559 0.0475489 2.23412 -0.503663 16 1 
420 1.20476 2.19173 -0.0193561 0.0774863 2.19348 -0.430777 16 1 
422 1.2048 2.15738 -0.0209195 0.101374 2.16019 -0.369152 16 1 
424 1.20482 2.13106 -0.0224879 0.1203 2.13494 -0.318419 16 1 
426 1.20486 2.11406 -0.0239873 0.135094 2.11891 -0.250617 16 1 
428 1.20491 2.10632 -0.025373 0.14633 2.11197 -0.168433 16 1 
430 1.20495 2.1066 -0.0266451 0.154195 2.11284 -0.0910448 16 1 
432 1.20499 2.1146 -0.0278578 0.158434 2.12116 -0.0153925 16 1 
434 1.20503 2.1305 -0.0291066 0.158828 2.13707 0.0561052 16 1 
436 1.20506 2.1539 -0.0304649 0.155715 2.16024 0.106274 16 1 
438 1.20508 2.1845 -0.0319723 0.149761 2.19043 0.138469 16 1 
440 1.2051 2.22236 -0.0336193 0.141713 2.22777 0.178066 16 1 
442 1.20513 2.26742 -0.0353523 0.132286 2.2723 0.241006 16 1 
444 1.20517 2.31902 -0.0371195 0.12216 2.32339 0.315408 16 1 
446 1.20521 2.37615 -0.0388884 0.112009 2.3801 0.382591 16 1 
448 1.20524 2.43824 -0.0406189 0.102315 2.44184 0.438426 16 1 
448 1.20524 2.43824 -0.0406189 0.102315 2.44184 0.438426 17 1 
450 1.20527 2.50467 -0.0422619 0.0931562 2.50801 0.483057 17 1 
452 1.20529 2.57478 -0.0437953 0.0844664 2.57791 0.518492 17 1 
454 1.20531 2.64843 -0.045207 0.0762446 2.65141 0.563092 17 1 
456 1.20535 2.72572 -0.0464967 0.0685151 2.72857 0.636586 17 1 
458 1.2054 2.80612 -0.0476896 0.0612771 2.80889 0.723162 17 1 
460 1.20544 2.88888 -0.0487926 0.0545457 2.89158 0.798167 17 1 
462 1.20548 2.97375 -0.0497853 0.0482298 2.97641 0.865024 17 1 
464 1.20552 3.06083 -0.0506612 0.042178 3.06345 0.931631 17 1 
466 1.20555 3.14998 -0.0514393 0.0363927 3.15257 0.999752 17 1 
468 1.2056 3.24116 -0.0521314 0.0309936 3.24373 1.07769 17 1 
470 1.20565 3.33427 -0.0527295 0.0260691 3.33683 1.16949 17 1 
472 1.2057 3.42882 -0.0532359 0.0216571 3.43137 1.26101 17 1 
474 1.20574 3.52442 -0.0536685 0.0176965 3.52695 1.33837 17 1 
476 1.20578 3.62116 -0.054019 0.0141397 3.62368 1.40397 17 1 
478 1.20581 3.71916 -0.0542839 0.0110763 3.72167 1.46622 17 1 
480 1.20585 3.81831 -0.0544891 0.00853621 3.8208 1.53253 17 1 
480 1.20585 3.81831 -0.0544891 0.00853621 3.8208 1.53253 17 1 
482 1.20589 3.91827 -0.0546377 0.00647243 3.92075 1.60378 17 1 
484 1.20593 4.01886 -0.0547152 0.00497282 4.02131 1.67153 17 1 
486 1.20596 4.11999 -0.0547345 0.00413104 4.12241 1.73121 17 1 
488 1.20599 4.22149 -0.0547075 0.00393987 4.22389 1.78241 17 1 
490 1.20601 4.3232 -0.0546291 0.00434159 4.32557 1.81999 17 1 
492 1.20602 4.42519 -0.0545087 0.00531863 4.42752 1.84731 17 1 
494 1.20604 4.5275 -0.0543552 0.00692866 4.52979 1.8755 17 1 
496 1.20606 4.62998 -0.05416 0.00915265 4.63224 1.90766 17 1 
498 1.20607 4.73239 -0.0539373 0.0119874 4.73461 1.94008 17 1 
500 1.20609 4.83468 -0.0536996 0.0154844 4.83688 1.96924 17 1 
502 1.2061 4.93692 -0.053464 0.0196423 4.93909 1.99101 17 1 
504 1.20611 5.03895 -0.0532392 0.0244049 5.0411 1.99973 17 1 
506 1.20611 5.14063 -0.0530053 0.0297155 5.14277 1.99767 17 1 
508 1.20611 5.24216 -0.0527636 0.0356175 5.24429 1.99828 17 1 
510 1.20611 5.34353 -0.0525155 0.0421667 5.34568 2.00737 17 1 
512 1.20612 5.4445 -0.0522739 0.0493063 5.44666 2.01416 17 1 
512 1.20612 5.4445 -0.0522739 0.0493063 5.44666 2.01416 25 1 
514 1.20611 5.54505 -0.0520449 0.0569814 5.54725 2.01229 25 1 
516 1.20611 5.64538 -0.0518478 0.0652071 5.64765 2.01112 25 1 
518 1.20611 5.74543 -0.0517041 0.0739843 5.74777 2.01346 25 1 
520 1.20611 5.84491 -0.0515972 0.0831859 5.84735 2.00865 25 1 
522 1.2061 5.94368 -0.0515077 0.0927619 5.94622 1.99596 25 1 
524 1.2061 6.04174 -0.0514201 0.102809 6.04443 1.98308 25 1 
526 1.20609 6.1393 -0.0513604 0.113294 6.14214 1.96453 25 1 
528 1.20607 6.23646 -0.0513361 0.124109 6.23948 1.94117 25 1 
530 1.20607 6.3329 -0.051349 0.135227 6.33613 1.92816 25 1 
532 1.20607 6.42834 -0.0514098 0.146631 6.43179 1.92569 25 1 
534 1.20606 6.52292 -0.0514946 0.15817 6.52662 1.92049 25 1 
536 1.20605 6.6167 -0.0515876 0.169754 6.62066 1.90087 25 1 
538 1.20603 6.70941 -0.0516954 0.181397 6.71366 1.86712 25 1 
540 1.20602 6.80084 -0.0518281 0.193031 6.80538 1.8359 25 1 
542 1.20601 6.89103 -0.0519842 0.204608 6.89588 1.81832 25 1 
544 1.206 6.98016 -0.0521586 0.216094 6.98533 1.80521 25 1 
544 1.206 6.98016 -0.0521586 0.216094 6.98533 1.80521 25 1 
546 1.20599 7.06827 -0.0523324 0.227308 7.07376 1.78408 25 1 
548 1.20597 7.15515 -0.0524912 0.238162 7.16096 1.75732 25 1 
550 1.20596 7.24055 -0.0526384 0.248707 7.24668 1.73493 25 1 
552 1.20595 7.32442 -0.0527828 0.258922 7.33086 1.7158 25 1 
554 1.20594 7.40701 -0.0529238 0.268682 7.41375 1.69318 25 1 
556 1.20592 7.48837 -0.0530508 0.277903 7.4954 1.66432 25 1 
558 1.2059 7.56839 -0.0531493 0.286563 7.57568 1.63456 25 1 
560 1.20589 7.64698 -0.0532112 0.2946 7.65452 1.61267 25 1 
562 1.20588 7.72438 -0.0532364 0.302037 7.73214 1.59184 25 1 
564 1.20586 7.80069 -0.0532269 0.30902 7.80865 1.56163 25 1 
566 1.20585 7.87576 -0.0531785 0.315523 7.8839 1.53366 25 1 
568 1.20584 7.94948 -0.0530832 0.321466 7.95778 1.51553 25 1 
570 1.20583 8.02214 -0.0529319 0.326905 8.03056 1.49226 25 1 
572 1.20581 8.09413 -0.0527011 0.331926 8.10266 1.45629 25 1 
574 1.20579 8.16543 -0.0524028 0.336561 8.17404 1.42518 25 1 
576 1.20578 8.23575 -0.0520559 0.340916 8.24443 1.41361 25 1 
576 1.20578 8.23575 -0.0520559 0.340916 8.24443 1.41361 26 1 
578 1.20577 8.30525 -0.0516498 0.345081 8.31398 1.398 26 1 
580 1.20575 8.37414 -0.0511703 0.349107 8.38291 1.35976 26 1 
582 1.20573 8.4423 -0.0506031 0.353102 8.45112 1.32106 26 1 
584 1.20572 8.50977 -0.0499587 0.357019 8.51861 1.29773 26 1 
586 1.20571 8.57672 -0.0492518 0.360824 8.58558 1.28036 26 1 
588 1.2057 8.64315 -0.0485068 0.364562 8.65203 1.25893 26 1 
590 1.20569 8.70866 -0.0477209 0.368186 8.71756 1.23781 26 1 
592 1.20567 8.77294 -0.0468607 0.371535 8.78184 1.21521 26 1 
594 1.20565 8.83602 -0.0459198 0.374431 8.84491 1.17837 26 1 
596 1.20563 8.89791 -0.0449174 0.376791 8.90676 1.13739 26 1 
598 1.20562 8.95839 -0.0438753 0.378533 8.96718 1.11602 26 1 
600 1.20561 9.01707 -0.042809 0.379516 9.02578 1.10878 26 1 
602 1.20561 9.07356 -0.0417236 0.379601 9.08216 1.09311 26 1 
604 1.20559 9.12772 -0.0406096 0.37836 9.13615 1.06306 26 1 
606 1.20557 9.17958 -0.0394646 0.3752 9.18777 1.0306 26 1 
608 1.20556 9.22903 -0.0382884 0.369947 9.23691 1.00389 26 1 
608 1.20556 9.22903 -0.0382884 0.369947 9.23691 1.00389 26 1 
610 1.20554 9.27582 -0.037085 0.362811 9.28332 0.981511 26 1 
612 1.20553 9.31991 -0.0358682 0.353669 9.32697 0.964413 26 1 
614 1.20552 9.36138 -0.0346493 0.341904 9.36794 0.944923 26 1 
616 1.20551 9.40038 -0.0334768 0.327203 9.40634 0.91774 26 1 
618 1.20549 9.43715 -0.0323633 0.309796 9.44246 0.89323 26 1 
620 1.20549 9.47183 -0.0313108 0.289978 9.47647 0.877856 26 1 
622 1.20548 9.5043 -0.0303311 0.267998 9.50825 0.863571 26 1 
624 1.20547 9.53473 -0.0294317 0.244466 9.53801 0.840694 26 1 
626 1.20545 9.5636 -0.0286108 0.219862 9.56626 0.817468 26 1 
628 1.20544 9.59122 -0.0278494 0.194605 9.59331 0.802763 26 1 
630 1.20544 9.61775 -0.027132 0.169336 9.61935 0.786716 26 1 
632 1.20542 9.64343 -0.0264436 0.144449 9.6446 0.765348 26 1 
634 1.20541 9.66847 -0.0257868 0.119949 9.6693 0.746238 26 1 
636 1.20541 9.69298 -0.0251568 0.0960548 9.69352 0.732531 26 1 
638 1.2054 9.71717 -0.0245554 0.0733598 9.7175 0.718943 26 1 
640 1.20539 9.74108 -0.0239851 0.0523403 9.74127 0.698251 26 1 
642 1.20538 9.76433 -0.0234233 0.0334091 9.76444 0.680102 26 1 
644 1.20537 9.78659 -0.0228384 0.0170296 9.78664 0.670023 26 1 
646 1.20536 9.80795 -0.0222207 0.0037221 9.80799 0.659168 26 1 
648 1.20536 9.82827 -0.0215898 -0.00603709 9.8283 0.649345 26 1 
650 1.20536 9.84686 -0.0209614 -0.0119556 9.8469 0.643791 26 1 
652 1.20535 9.86364 -0.0203598 -0.0140661 9.86368 0.630018 26 1 
654 1.20533 9.87868 -0.0198664 -0.0131303 9.87871 0.603986 26 1 
656 1.20532 9.89195 -0.0195179 -0.0106491 9.89197 0.585115 26 1 
658 1.20532 9.90335 -0.0193091 -0.00835647 9.90337 0.582701 26 1 
660 1.20533 9.91296 -0.01921 -0.00730495 9.91298 0.591766 26 1 
662 1.20533 9.92101 -0.0191602 -0.00780038 9.92103 0.600197 26 1 
664 1.20533 9.92762 -0.0190707 -0.00940254 9.92765 0.595236 26 1 
666 1.20532 9.93299 -0.0189166 -0.0114659 9.93301 0.572471 26 1 
668 1.2053 9.93757 -0.0187305 -0.0133125 9.9376 0.549866 26 1 
670 1.20531 9.9414 -0.0185106 -0.0146471 9.94143 0.55333 26 1 
672 1.20532 9.94457 -0.018276 -0.0155705 9.9446 0.569682 26 1 
672 1.20532 9.94457 -0.018276 -0.0155705 9.9446 0.569682 27 1 
674 1.20532 9.94751 -0.0180498 -0.0160698 9.94754 0.569604 27 1 
676 1.20531 9.95016 -0.0178426 -0.0160529 9.95019 0.556155 27 1 
678 1.2053 9.9526 -0.0176628 -0.0157695 9.95263 0.548385 27 1 
680 1.2053 9.95514 -0.0175308 -0.0156153 9.95517 0.549476 27 1 
682 1.20531 9.95773 -0.017433 -0.0154596 9.95776 0.557003 27 1 
684 1.20531 9.95981 -0.0173336 -0.0152504 9.95984 0.561743 27 1 
686 1.20531 9.96156 -0.017223 -0.0150364 9.96159 0.552908 27 1 
688 1.20529 9.96338 -0.0171183 -0.0149139 9.96341 0.52846 27 1 
690 1.20529 9.96537 -0.0170109 -0.0148069 9.9654 0.514751 27 1 
692 1.20529 9.96751 -0.0168989 -0.0146735 9.96753 0.529163 27 1 
694 1.2053 9.96983 -0.0167875 -0.0145097 9.96986 0.547798 27 1 
696 1.20531 9.97224 -0.0166759 -0.0142646 9.97226 0.55238 27 1 
698 1.2053 9.97424 -0.0165635 -0.0139732 9.97426 0.544769 27 1 
700 1.2053 9.9761 -0.0164437 -0.0136932 9.97613 0.532795 27 1 
702 1.20529 9.97797 -0.0163217 -0.0135013 9.978 0.523459 27 1 
704 1.20529 9.97992 -0.0161951 -0.0133636 9.97994 0.530728 27 1 
704 1.20529 9.97992 -0.0161951 -0.0133636 9.97994 0.530728 31 1 
706 1.2053 9.98184 -0.016053 -0.0131358 9.98186 0.541877 31 1 
708 1.2053 9.98366 -0.0158908 -0.0129173 9.98368 0.537152 31 1 
710 1.2053 9.98523 -0.0157391 -0.0125974 9.98525 0.535778 31 1 
712 1.2053 9.98663 -0.0156236 -0.0122419 9.98665 0.547422 31 1 
714 1.20531 9.98817 -0.0155185 -0.0121419 9.98819 0.558326 31 1 
716 1.20531 9.98949 -0.0154158 -0.0121247 9.98951 0.557138 31 1 
718 1.2053 9.99031 -0.0152916 -0.0119695 9.99033 0.544873 31 1 
720 1.20529 9.99081 -0.0151581 -0.0118039 9.99083 0.531616 31 1 
722 1.20529 9.99158 -0.0150274 -0.0117792 9.9916 0.526512 31 1 
724 1.20531 9.99278 -0.0149279 -0.0117888 9.99279 0.552693 31 1 
726 1.20533 9.99365 -0.0148816 -0.0118033 9.99367 0.587154 31 1 
728 1.20532 9.9939 -0.0148428 -0.0116849 9.99391 0.575629 31 1 
730 1.2053 9.99365 -0.0147489 -0.0115412 9.99367 0.534251 31 1 
732 1.20528 9.99321 -0.0146344 -0.011387 9.99323 0.514735 31 1 
734 1.2053 9.99339 -0.0145734 -0.0113762 9.99341 0.5342 31 1 
736 1.20531 9.994 -0.0145223 -0.0114435 9.99401 0.567634 31 1 
738 1.20533 9.99438 -0.0145016 -0.0112006 9.99439 0.591776 31 1 
740 1.20532 9.99385 -0.0144636 -0.0108114 9.99387 0.580819 31 1 
742 1.2053 9.99282 -0.0143603 -0.010604 9.99283 0.532979 31 1 
744 1.20528 9.99241 -0.014231 -0.0105334 9.99243 0.508673 31 1 
746 1.2053 9.9925 -0.0141758 -0.0105246 9.99252 0.535691 31 1 
748 1.20532 9.99264 -0.0141883 -0.0105194 9.99265 0.574741 31 1 
750 1.20533 9.99265 -0.0141544 -0.0102485 9.99267 0.588222 31 1 
752 1.20532 9.99236 -0.0140992 -0.00993729 9.99238 0.569183 31 1 
752 1.20532 9.99236 -0.0140992 -0.00993729 9.99238 0.569183 31 1 
754 1.2053 9.99149 -0.0139793 -0.00984602 9.99151 0.537338 31 1 
756 1.20529 9.99094 -0.0138409 -0.0100327 9.99095 0.522856 31 1 
758 1.2053 9.99114 -0.0137811 -0.0100267 9.99116 0.543307 31 1 
760 1.20532 9.99142 -0.0137757 -0.00984721 9.99144 0.575597 31 1 
762 1.20532 9.99117 -0.0137597 -0.00964543 9.99119 0.574467 31 1 
764 1.20531 9.99061 -0.0137138 -0.00947326 9.99063 0.554828 31 1 
766 1.2053 9.99039 -0.0136289 -0.00938752 9.9904 0.54338 31 1 
768 1.2053 9.99031 -0.0135008 -0.0095158 9.99032 0.536691 31 1 
770 1.20531 9.99043 -0.0134418 -0.00958708 9.99045 0.552488 31 1 
772 1.20532 9.99077 -0.0134409 -0.00936779 9.99078 0.579865 31 1 
774 1.20532 9.99067 -0.0133942 -0.00919271 9.99069 0.577469 31 1 
776 1.2053 9.99037 -0.0133317 -0.00910101 9.99038 0.54267 31 1 
778 1.20529 9.9903 -0.0132786 -0.00905616 9.99032 0.527991 31 1 
780 1.20531 9.99052 -0.0132158 -0.00910288 9.99053 0.553329 31 1 
782 1.20531 9.991 -0.0131722 -0.00920234 9.99101 0.563773 31 1 
784 1.20532 9.99164 -0.0131386 -0.00908564 9.99165 0.575264 31 1 
786 1.20533 9.99192 -0.0130557 -0.00881645 9.99194 0.597514 31 1 
788 1.20531 9.99169 -0.0129835 -0.00873346 9.9917 0.565187 31 1 
790 1.20529 9.99184 -0.0129417 -0.00879188 9.99185 0.526094 31 1 
792 1.2053 9.99215 -0.0128656 -0.00880429 9.99216 0.533915 31 1 
794 1.20531 9.99249 -0.0128178 -0.0089535 9.9925 0.559521 31 1 
796 1.20533 9.99341 -0.0127954 -0.00897127 9.99342 0.594239 31 1 
798 1.20534 9.99433 -0.0127586 -0.00875968 9.99434 0.606799 31 1 
800 1.20533 9.99467 -0.0127371 -0.00864291 9.99468 0.599259 31 1 
