43.4711;r ;Density                 ;Velocity u              ;Velocity v              ;Velocity w              ;|Velocity|              ;Pressure                ;Distribution            ;Levels                  ;
0 1.20421 9.99942 -3.23372e-05 -0.000533105 9.99942 -1.42948 1 1 
2 1.20421 9.99863 -0.000115286 -0.000496803 9.99863 -1.42046 1 1 
4 1.20422 9.99765 -0.000237224 -2.44418e-06 9.99765 -1.41751 1 1 
6 1.20422 9.99736 -0.000350223 -4.80614e-05 9.99736 -1.41611 1 1 
8 1.20423 9.99664 -0.000453021 8.17259e-05 9.99664 -1.38873 1 1 
10 1.20423 9.99605 -0.000554088 -5.51058e-05 9.99605 -1.38286 1 1 
12 1.20423 9.99519 -0.000676824 -0.000210701 9.99519 -1.38466 1 1 
14 1.20424 9.99379 -0.000801969 -0.000313493 9.99379 -1.37165 1 1 
16 1.20424 9.99352 -0.000923056 -0.000258235 9.99352 -1.37435 1 1 
18 1.20425 9.99338 -0.00103888 -0.000148395 9.99338 -1.35536 1 1 
20 1.20426 9.99274 -0.0011539 -0.000325323 9.99274 -1.34049 1 1 
22 1.20425 9.99196 -0.00124871 -0.000429216 9.99196 -1.35307 1 1 
24 1.20425 9.9912 -0.00136731 -0.000702714 9.9912 -1.348 1 1 
26 1.20427 9.991 -0.00147171 -0.00078885 9.991 -1.32071 1 1 
28 1.20428 9.99062 -0.00158947 -0.000874889 9.99062 -1.29494 1 1 
30 1.20429 9.98968 -0.00169898 -0.00123978 9.98968 -1.28658 1 1 
32 1.20429 9.98904 -0.00179213 -0.00150078 9.98904 -1.29009 1 1 
32 1.20429 9.98904 -0.00179213 -0.00150078 9.98904 -1.29009 1 1 
34 1.20429 9.98883 -0.00191161 -0.00159918 9.98883 -1.2863 1 1 
36 1.2043 9.98824 -0.00201961 -0.00179689 9.98824 -1.26708 1 1 
38 1.2043 9.98719 -0.00212913 -0.00180836 9.98719 -1.25919 1 1 
40 1.2043 9.98607 -0.00222377 -0.0020747 9.98607 -1.25674 1 1 
42 1.20431 9.98525 -0.00231885 -0.00217727 9.98525 -1.23877 1 1 
44 1.20432 9.98508 -0.00242148 -0.00226006 9.98508 -1.23082 1 1 
46 1.20432 9.98463 -0.00254333 -0.00237242 9.98463 -1.2231 1 1 
48 1.20434 9.98345 -0.00262458 -0.00220962 9.98345 -1.19775 1 1 
50 1.20434 9.98283 -0.00270474 -0.00253964 9.98283 -1.18732 1 1 
52 1.20435 9.98258 -0.00281702 -0.0025916 9.98258 -1.17701 1 1 
54 1.20435 9.98184 -0.00293662 -0.0024947 9.98184 -1.16844 1 1 
56 1.20435 9.98083 -0.00304207 -0.0026296 9.98083 -1.16622 1 1 
58 1.20436 9.98006 -0.00310093 -0.00245657 9.98006 -1.15255 1 1 
60 1.20437 9.97968 -0.00318432 -0.00283765 9.97968 -1.14076 1 1 
62 1.20438 9.97893 -0.00329088 -0.00334465 9.97893 -1.12217 1 1 
64 1.20438 9.97826 -0.0033881 -0.0030794 9.97826 -1.12363 1 1 
64 1.20438 9.97826 -0.0033881 -0.0030794 9.97826 -1.12363 2 1 
66 1.20438 9.97781 -0.00346136 -0.00336351 9.97782 -1.12116 2 1 
68 1.2044 9.97699 -0.00352827 -0.00317782 9.97699 -1.08515 2 1 
70 1.20441 9.97614 -0.00359222 -0.00279505 9.97614 -1.07074 2 1 
72 1.2044 9.97619 -0.00369289 -0.00333214 9.97619 -1.08809 2 1 
74 1.2044 9.97585 -0.0037679 -0.00329091 9.97585 -1.07564 2 1 
76 1.20442 9.97497 -0.00380564 -0.00359784 9.97497 -1.05422 2 1 
78 1.20442 9.97425 -0.00391218 -0.00422157 9.97425 -1.04738 2 1 
80 1.20443 9.97321 -0.00400154 -0.00378255 9.97321 -1.03834 2 1 
82 1.20442 9.97272 -0.00400339 -0.00426526 9.97272 -1.03934 2 1 
84 1.20443 9.97217 -0.00401101 -0.00417943 9.97218 -1.02879 2 1 
86 1.20443 9.97164 -0.00409725 -0.00391312 9.97164 -1.02404 2 1 
88 1.20444 9.97092 -0.00419919 -0.00452822 9.97092 -1.01111 2 1 
90 1.20445 9.96975 -0.00428927 -0.00415314 9.96976 -0.993059 2 1 
92 1.20445 9.96949 -0.00436343 -0.00426776 9.96949 -1.00176 2 1 
94 1.20445 9.96952 -0.00449823 -0.00521034 9.96953 -0.994793 2 1 
96 1.20446 9.96878 -0.00463861 -0.00531636 9.96878 -0.967664 2 1 
96 1.20446 9.96878 -0.00463861 -0.00531636 9.96878 -0.967664 2 1 
98 1.20446 9.96788 -0.00470866 -0.00549259 9.96789 -0.973949 2 1 
100 1.20446 9.96679 -0.00477316 -0.0054518 9.96679 -0.976852 2 1 
102 1.20447 9.96558 -0.00488199 -0.00517418 9.96558 -0.955136 2 1 
104 1.20446 9.96536 -0.00503366 -0.00546772 9.96536 -0.969568 2 1 
106 1.20447 9.9648 -0.00512051 -0.00571403 9.96481 -0.95623 2 1 
108 1.20448 9.96444 -0.00515103 -0.00611207 9.96445 -0.932381 2 1 
110 1.20448 9.96474 -0.00526021 -0.00658868 9.96474 -0.941078 2 1 
112 1.20449 9.96353 -0.00543213 -0.00695649 9.96354 -0.917157 2 1 
114 1.20449 9.96237 -0.00551252 -0.00709566 9.96238 -0.9207 2 1 
116 1.20448 9.96193 -0.00560798 -0.00671251 9.96194 -0.936138 2 1 
118 1.2045 9.9605 -0.00578301 -0.00667299 9.9605 -0.904667 2 1 
120 1.20449 9.95977 -0.00584186 -0.00715073 9.95978 -0.915043 2 1 
122 1.20449 9.95994 -0.00589096 -0.00751323 9.95995 -0.92817 2 1 
124 1.20451 9.95856 -0.00605605 -0.00797375 9.95856 -0.880183 2 1 
126 1.2045 9.95838 -0.00618973 -0.00840137 9.95839 -0.904592 2 1 
128 1.20449 9.95813 -0.00622778 -0.00836708 9.95814 -0.922565 2 1 
128 1.20449 9.95813 -0.00622778 -0.00836708 9.95814 -0.922565 10 1 
130 1.20452 9.95649 -0.00633211 -0.00788737 9.9565 -0.862451 10 1 
132 1.20452 9.95622 -0.00649303 -0.00810227 9.95622 -0.872516 10 1 
134 1.2045 9.95535 -0.00655018 -0.00898416 9.95536 -0.901745 10 1 
136 1.20451 9.95456 -0.00662536 -0.00939365 9.95457 -0.876468 10 1 
138 1.20453 9.95391 -0.00681942 -0.00937998 9.95391 -0.85475 10 1 
140 1.20451 9.95321 -0.00693052 -0.00970318 9.95321 -0.884513 10 1 
142 1.20451 9.95283 -0.00696343 -0.00912103 9.95284 -0.884394 10 1 
144 1.20454 9.95113 -0.00710097 -0.00944883 9.95114 -0.837459 10 1 
146 1.20452 9.95101 -0.00725794 -0.0102125 9.95102 -0.872654 10 1 
148 1.20451 9.95097 -0.00730469 -0.010544 9.95097 -0.888272 10 1 
150 1.20455 9.94869 -0.00742487 -0.0104659 9.9487 -0.816291 10 1 
152 1.20454 9.94851 -0.00762769 -0.0099254 9.94852 -0.835929 10 1 
154 1.20451 9.94841 -0.00771996 -0.00996394 9.94841 -0.878788 10 1 
156 1.20455 9.94632 -0.00778682 -0.0105606 9.94633 -0.815452 10 1 
158 1.20454 9.94616 -0.00795363 -0.0107248 9.94617 -0.83395 10 1 
160 1.20451 9.94544 -0.00809652 -0.0116387 9.94545 -0.87657 10 1 
160 1.20451 9.94544 -0.00809652 -0.0116387 9.94545 -0.87657 10 1 
162 1.20455 9.94321 -0.0081305 -0.011595 9.94322 -0.813972 10 1 
164 1.20454 9.94342 -0.00824185 -0.0105247 9.94342 -0.830126 10 1 
166 1.20453 9.94211 -0.00841465 -0.0108722 9.94212 -0.84907 10 1 
168 1.20453 9.94047 -0.00847429 -0.0111424 9.94049 -0.851328 10 1 
170 1.20452 9.94052 -0.00857484 -0.0118685 9.94053 -0.867285 10 1 
172 1.20455 9.93844 -0.00871773 -0.0123867 9.93845 -0.814658 10 1 
174 1.20452 9.93826 -0.00879979 -0.0119114 9.93828 -0.863796 10 1 
176 1.2045 9.93817 -0.00886167 -0.0118345 9.93818 -0.898719 10 1 
178 1.20452 9.93601 -0.0090335 -0.0121194 9.93602 -0.858559 10 1 
180 1.20448 9.93553 -0.00918367 -0.0127718 9.93554 -0.94627 10 1 
182 1.20445 9.93454 -0.00919616 -0.0131504 9.93456 -0.991133 10 1 
184 1.20448 9.9331 -0.00932078 -0.0123536 9.93311 -0.940708 10 1 
186 1.20445 9.93307 -0.00950246 -0.0119303 9.93309 -0.991589 10 1 
188 1.20442 9.93245 -0.00955002 -0.0123798 9.93246 -1.05127 10 1 
190 1.20445 9.93016 -0.00956734 -0.0134885 9.93017 -1.00199 10 1 
192 1.20446 9.92731 -0.00983712 -0.0142962 9.92732 -0.983901 10 1 
194 1.20441 9.92522 -0.00995491 -0.0151734 9.92524 -1.06351 10 1 
196 1.20442 9.92363 -0.00989094 -0.0153202 9.92365 -1.05403 10 1 
198 1.20446 9.92197 -0.0100617 -0.0138891 9.92199 -0.974661 10 1 
200 1.20445 9.92036 -0.0102658 -0.0138131 9.92037 -0.989815 10 1 
202 1.20446 9.91758 -0.0102689 -0.014033 9.91759 -0.977216 10 1 
204 1.20452 9.91283 -0.0103214 -0.0135521 9.91284 -0.871555 10 1 
206 1.20454 9.908 -0.0105388 -0.0149702 9.90801 -0.831169 10 1 
208 1.20451 9.90462 -0.0106498 -0.0150515 9.90464 -0.876212 10 1 
210 1.20458 9.89963 -0.0106765 -0.0154968 9.89965 -0.758517 10 1 
212 1.20467 9.89406 -0.0108367 -0.0171933 9.89409 -0.6028 10 1 
214 1.20464 9.89147 -0.0112121 -0.0155241 9.89149 -0.651179 10 1 
216 1.20469 9.88685 -0.0113944 -0.0153586 9.88687 -0.559974 10 1 
218 1.20478 9.88013 -0.0113139 -0.0155094 9.88015 -0.390873 10 1 
220 1.20477 9.87492 -0.0114201 -0.0138324 9.87494 -0.408892 10 1 
222 1.20482 9.8672 -0.0116783 -0.0168674 9.86723 -0.328683 10 1 
224 1.20491 9.85858 -0.0117685 -0.017909 9.8586 -0.160378 10 1 
224 1.20491 9.85858 -0.0117685 -0.017909 9.8586 -0.160378 10 1 
226 1.20495 9.8512 -0.0118416 -0.0146607 9.85122 -0.0867714 10 1 
228 1.20497 9.8432 -0.0121557 -0.0163349 9.84323 -0.0596473 10 1 
230 1.20503 9.83643 -0.0124424 -0.0154794 9.83645 0.049874 10 1 
232 1.20517 9.82685 -0.0124744 -0.0165866 9.82687 0.302207 10 1 
234 1.20519 9.81668 -0.0124914 -0.0182781 9.81671 0.344449 10 1 
236 1.2052 9.80697 -0.0127846 -0.0142101 9.80699 0.365315 10 1 
238 1.20536 9.79204 -0.0130594 -0.0140874 9.79206 0.65377 10 1 
240 1.2054 9.77911 -0.0130531 -0.014513 9.77913 0.724517 10 1 
242 1.20544 9.76679 -0.0132945 -0.014641 9.76681 0.789593 10 1 
244 1.20564 9.7503 -0.0135987 -0.0159605 9.75033 1.14821 10 1 
246 1.20575 9.73372 -0.0135979 -0.0131458 9.73374 1.3633 10 1 
248 1.20577 9.71579 -0.0137241 -0.0113737 9.71581 1.39411 10 1 
250 1.20591 9.69516 -0.0140734 -0.0107466 9.69518 1.63902 10 1 
252 1.20615 9.67118 -0.0143811 -0.00860938 9.6712 2.08113 10 1 
254 1.20626 9.64514 -0.0144489 -0.00754945 9.64516 2.28248 10 1 
256 1.20636 9.61993 -0.0144612 -0.00760216 9.61995 2.45726 10 1 
256 1.20636 9.61993 -0.0144612 -0.00760216 9.61995 2.45726 11 1 
258 1.20666 9.58924 -0.014701 -0.00235582 9.58926 2.99074 11 1 
260 1.20689 9.55158 -0.0150742 0.00124845 9.5516 3.42 11 1 
262 1.20698 9.51653 -0.0151703 0.00551796 9.51655 3.57616 11 1 
264 1.20732 9.47452 -0.0151821 0.009503 9.47456 4.19549 11 1 
266 1.2078 9.41985 -0.0155564 0.01536 9.4199 5.06446 11 1 
268 1.2079 9.37056 -0.0158158 0.0260886 9.37064 5.23537 11 1 
270 1.20825 9.31095 -0.0158214 0.0351866 9.31107 5.86807 11 1 
272 1.20899 9.23155 -0.0160489 0.0480401 9.23173 7.20963 11 1 
274 1.20927 9.1575 -0.0163419 0.0637733 9.15779 7.70631 11 1 
276 1.20965 9.07178 -0.0164734 0.0804788 9.0722 8.40253 11 1 
278 1.21053 8.96651 -0.0165557 0.106706 8.96724 9.99406 11 1 
280 1.21117 8.8588 -0.0167967 0.141684 8.86007 11.1516 11 1 
282 1.21177 8.725 -0.0169743 0.181775 8.72709 12.223 11 1 
284 1.21261 8.57788 -0.0169555 0.225314 8.58103 13.7433 11 1 
286 1.21364 8.42316 -0.0170543 0.280976 8.42817 15.6076 11 1 
288 1.21463 8.24326 -0.0173352 0.381787 8.25266 17.4011 11 1 
288 1.21463 8.24326 -0.0173352 0.381787 8.25266 17.4011 11 1 
290 1.21532 8.05667 -0.0174723 0.467824 8.07056 18.646 11 1 
292 1.21672 7.82571 -0.0174572 0.546919 7.84602 21.1706 11 1 
294 1.21822 7.55012 -0.0175684 0.753494 7.59039 23.8852 11 1 
296 1.21707 7.16831 -0.0175245 0.841494 7.21947 21.8056 11 1 
298 1.21212 6.58091 -0.0172208 0.402375 6.60767 12.8523 11 1 
300 1.20478 5.97764 -0.0170167 -0.546386 6.03724 -0.392434 11 1 
302 1.19849 5.56406 -0.0169564 -1.24386 5.7065 -11.7545 11 1 
304 1.19568 5.29507 -0.016837 -1.22967 5.43823 -16.8381 11 1 
306 1.19538 5.06711 -0.0165421 -0.971408 5.16092 -17.3826 11 1 
308 1.19603 4.88119 -0.0160349 -0.790799 4.94548 -16.1942 11 1 
310 1.19715 4.75322 -0.0155993 -0.670559 4.80086 -14.1716 11 1 
312 1.19789 4.63214 -0.0156064 -0.567518 4.66725 -12.8391 11 1 
314 1.19809 4.48948 -0.0158363 -0.475981 4.51516 -12.4751 11 1 
316 1.19859 4.34642 -0.0157032 -0.394973 4.36481 -11.5694 11 1 
318 1.1993 4.22413 -0.0151874 -0.330308 4.2374 -10.2991 11 1 
320 1.19956 4.10948 -0.0147292 -0.273193 4.11885 -9.81772 11 1 
320 1.19956 4.10948 -0.0147292 -0.273193 4.11885 -9.81772 15 1 
322 1.19973 3.99149 -0.0144638 -0.224555 3.9981 -9.525 15 1 
324 1.2002 3.88203 -0.0143483 -0.192822 3.88707 -8.67621 15 1 
326 1.20056 3.78559 -0.0143402 -0.166514 3.78945 -8.01588 15 1 
328 1.20066 3.69147 -0.014363 -0.140526 3.69431 -7.84167 15 1 
330 1.20085 3.60101 -0.0143654 -0.121617 3.60322 -7.49053 15 1 
332 1.20119 3.52445 -0.0143658 -0.105999 3.5262 -6.88848 15 1 
334 1.20136 3.45088 -0.01439 -0.0949865 3.45234 -6.56853 15 1 
336 1.20141 3.37151 -0.0144303 -0.0866284 3.37275 -6.48626 15 1 
338 1.20159 3.30111 -0.014475 -0.0779673 3.30214 -6.15409 15 1 
340 1.20183 3.24392 -0.0145312 -0.0711167 3.24481 -5.71684 15 1 
342 1.20193 3.18623 -0.0146368 -0.0663577 3.18705 -5.54364 15 1 
344 1.20199 3.12353 -0.0147711 -0.0619995 3.12426 -5.43744 15 1 
346 1.20213 3.06442 -0.0149138 -0.058897 3.06508 -5.1761 15 1 
348 1.20227 3.01555 -0.0150547 -0.0576329 3.01619 -4.92558 15 1 
350 1.20232 2.96939 -0.0151996 -0.054331 2.97 -4.83784 15 1 
352 1.20238 2.91834 -0.0153603 -0.0509208 2.9189 -4.73431 15 1 
354 1.20251 2.87058 -0.0155121 -0.0506646 2.87112 -4.50047 15 1 
356 1.2026 2.82911 -0.0157011 -0.0502566 2.82964 -4.32921 15 1 
358 1.20266 2.78824 -0.0159464 -0.047162 2.78874 -4.23514 15 1 
360 1.20275 2.74946 -0.0161849 -0.0436353 2.74991 -4.06985 15 1 
362 1.20283 2.71259 -0.0164247 -0.0423951 2.71302 -3.91404 15 1 
364 1.20286 2.67563 -0.0166931 -0.0417212 2.67604 -3.86195 15 1 
366 1.20289 2.64071 -0.0169442 -0.0388653 2.64108 -3.81251 15 1 
368 1.20296 2.60964 -0.0171498 -0.035108 2.60996 -3.68406 15 1 
370 1.20303 2.58186 -0.0173302 -0.0326919 2.58215 -3.55621 15 1 
372 1.20307 2.55446 -0.0175399 -0.0310418 2.55473 -3.48608 15 1 
374 1.20313 2.52785 -0.0177733 -0.0292812 2.52809 -3.37742 15 1 
376 1.20322 2.50483 -0.017991 -0.0271865 2.50505 -3.21828 15 1 
378 1.20327 2.48319 -0.018192 -0.0249782 2.48339 -3.12298 15 1 
380 1.2033 2.46151 -0.018412 -0.0233259 2.4617 -3.07901 15 1 
382 1.20333 2.44151 -0.018633 -0.0221055 2.44168 -3.0099 15 1 
384 1.20337 2.42289 -0.0188207 -0.0209177 2.42306 -2.94075 15 1 
384 1.20337 2.42289 -0.0188207 -0.0209177 2.42306 -2.94075 16 1 
386 1.20339 2.4054 -0.0189829 -0.0191968 2.40556 -2.90607 16 1 
388 1.20342 2.38961 -0.019094 -0.0172811 2.38975 -2.85094 16 1 
390 1.20349 2.37593 -0.0192063 -0.0173039 2.37607 -2.7357 16 1 
392 1.20355 2.36365 -0.0193574 -0.0191527 2.36381 -2.6255 16 1 
394 1.20359 2.35087 -0.0194776 -0.0210421 2.35105 -2.54966 16 1 
396 1.20364 2.33792 -0.0195739 -0.0231456 2.33812 -2.45829 16 1 
398 1.20369 2.32561 -0.019766 -0.0253649 2.32583 -2.36758 16 1 
400 1.20371 2.3134 -0.0200826 -0.026073 2.31364 -2.32554 16 1 
402 1.20372 2.30214 -0.020408 -0.0252674 2.30237 -2.30513 16 1 
404 1.20375 2.29359 -0.0207104 -0.0252228 2.29382 -2.25674 16 1 
406 1.20379 2.28746 -0.0209521 -0.0255487 2.2877 -2.18771 16 1 
408 1.20382 2.28055 -0.0209612 -0.0243437 2.28078 -2.12993 16 1 
410 1.20386 2.27103 -0.0207751 -0.0229017 2.27124 -2.06398 16 1 
412 1.20391 2.26018 -0.0207705 -0.0226704 2.2604 -1.96912 16 1 
414 1.20396 2.24853 -0.0211325 -0.0237949 2.24876 -1.88328 16 1 
416 1.20399 2.23752 -0.0214328 -0.0293401 2.23782 -1.82477 16 1 
416 1.20399 2.23752 -0.0214328 -0.0293401 2.23782 -1.82477 16 1 
418 1.20402 2.23255 -0.0211393 -0.0440983 2.23312 -1.76405 16 1 
420 1.20406 2.23702 -0.0203739 -0.0665997 2.23818 -1.69735 16 1 
422 1.20408 2.24679 -0.0198802 -0.0865569 2.24862 -1.65435 16 1 
424 1.2041 2.25449 -0.0202836 -0.093395 2.25656 -1.63168 16 1 
426 1.20412 2.25578 -0.0215766 -0.0846297 2.2575 -1.597 16 1 
428 1.20414 2.25019 -0.0233106 -0.0646017 2.25128 -1.55375 16 1 
430 1.20416 2.23914 -0.0250074 -0.0396466 2.2397 -1.51874 16 1 
432 1.20418 2.22518 -0.0264369 -0.0147939 2.22548 -1.47542 16 1 
434 1.20422 2.21066 -0.0276157 0.00713738 2.21096 -1.41144 16 1 
436 1.20426 2.19695 -0.028667 0.0252621 2.19742 -1.33983 16 1 
438 1.2043 2.18503 -0.0297031 0.0396059 2.18575 -1.26936 16 1 
440 1.20434 2.1756 -0.0307755 0.0503842 2.17656 -1.19554 16 1 
442 1.20438 2.16914 -0.0318916 0.0578638 2.17032 -1.11818 16 1 
444 1.20442 2.16577 -0.0330321 0.062527 2.16712 -1.04903 16 1 
446 1.20445 2.16577 -0.034172 0.0649532 2.16722 -0.988717 16 1 
448 1.20449 2.16968 -0.0352871 0.0656416 2.17118 -0.923415 16 1 
448 1.20449 2.16968 -0.0352871 0.0656416 2.17118 -0.923415 17 1 
450 1.20453 2.17774 -0.036365 0.0647453 2.17923 -0.8537 17 1 
452 1.20456 2.18964 -0.0374125 0.062262 2.19108 -0.791018 17 1 
454 1.2046 2.20566 -0.0384562 0.058244 2.20701 -0.730913 17 1 
456 1.20463 2.22645 -0.0395193 0.0528551 2.22768 -0.663725 17 1 
458 1.20467 2.252 -0.0406533 0.0463246 2.25311 -0.595776 17 1 
460 1.2047 2.28188 -0.0418931 0.0389492 2.28288 -0.533985 17 1 
462 1.20474 2.31619 -0.0432282 0.0309926 2.31711 -0.471312 17 1 
464 1.20477 2.355 -0.0446407 0.0227423 2.35588 -0.406528 17 1 
466 1.20481 2.39787 -0.0461181 0.0145568 2.39872 -0.349687 17 1 
468 1.20483 2.44439 -0.0476319 0.00673377 2.44527 -0.302697 17 1 
470 1.20486 2.49439 -0.0491296 -0.000586944 2.49532 -0.258584 17 1 
472 1.20488 2.54738 -0.0505983 -0.00733452 2.54837 -0.215706 17 1 
474 1.2049 2.60301 -0.0520448 -0.0135309 2.60408 -0.176448 17 1 
476 1.20492 2.66123 -0.0534547 -0.019163 2.66239 -0.138066 17 1 
478 1.20495 2.72185 -0.0548088 -0.0241648 2.72309 -0.0966337 17 1 
480 1.20497 2.78445 -0.0561213 -0.0285987 2.78578 -0.0564568 17 1 
480 1.20497 2.78445 -0.0561213 -0.0285987 2.78578 -0.0564568 17 1 
482 1.20499 2.84873 -0.0573977 -0.0325892 2.85014 -0.0247939 17 1 
484 1.205 2.91461 -0.0586131 -0.0361759 2.9161 0.00222385 17 1 
486 1.20502 2.98215 -0.0597709 -0.0393902 2.98371 0.0338693 17 1 
488 1.20504 3.0512 -0.0608907 -0.0423019 3.05283 0.0667435 17 1 
490 1.20505 3.12148 -0.0619787 -0.0449997 3.12317 0.0949667 17 1 
492 1.20507 3.19289 -0.0630327 -0.0475434 3.19465 0.12542 17 1 
494 1.20509 3.2655 -0.0640501 -0.0499551 3.26731 0.161995 17 1 
496 1.20511 3.3392 -0.0650251 -0.0522924 3.34107 0.198617 17 1 
498 1.20513 3.41371 -0.0659614 -0.0545871 3.41563 0.2341 17 1 
500 1.20515 3.48891 -0.0668526 -0.0567887 3.49087 0.269798 17 1 
502 1.20517 3.56484 -0.0676987 -0.0588717 3.56685 0.301211 17 1 
504 1.20518 3.64128 -0.0685047 -0.0608947 3.64334 0.325656 17 1 
506 1.20519 3.71804 -0.0692618 -0.0629069 3.72014 0.348801 17 1 
508 1.20521 3.79534 -0.0699737 -0.0648791 3.79748 0.378993 17 1 
510 1.20523 3.87321 -0.0706317 -0.0667818 3.87539 0.415324 17 1 
512 1.20525 3.95123 -0.0712302 -0.0686402 3.95344 0.448981 17 1 
512 1.20525 3.95123 -0.0712302 -0.0686402 3.95344 0.448981 25 1 
514 1.20526 4.02916 -0.0717583 -0.0704579 4.03139 0.476048 25 1 
516 1.20528 4.10709 -0.0722121 -0.0721419 4.10935 0.498581 25 1 
518 1.20529 4.18506 -0.0726033 -0.0736457 4.18733 0.518428 25 1 
520 1.2053 4.2629 -0.0729332 -0.075047 4.26519 0.534116 25 1 
522 1.2053 4.34057 -0.0731933 -0.0763383 4.34287 0.549053 25 1 
524 1.20532 4.41801 -0.0733716 -0.0774404 4.42031 0.570176 25 1 
526 1.20533 4.49522 -0.0734817 -0.0783729 4.49751 0.592336 25 1 
528 1.20534 4.57222 -0.073523 -0.0791736 4.57451 0.609686 25 1 
530 1.20535 4.64883 -0.0734987 -0.0797566 4.6511 0.623731 25 1 
532 1.20535 4.72481 -0.0734131 -0.0800638 4.72706 0.634112 25 1 
534 1.20536 4.80029 -0.0732576 -0.0801499 4.8025 0.641379 25 1 
536 1.20536 4.87542 -0.0730345 -0.080016 4.87761 0.64572 25 1 
538 1.20536 4.95015 -0.0727512 -0.0796374 4.95229 0.649435 25 1 
540 1.20536 5.02437 -0.0724092 -0.0790278 5.02647 0.657929 25 1 
542 1.20537 5.0981 -0.0720123 -0.0781515 5.10015 0.668128 25 1 
544 1.20537 5.17133 -0.0715686 -0.0769467 5.17332 0.671674 25 1 
544 1.20537 5.17133 -0.0715686 -0.0769467 5.17332 0.671674 25 1 
546 1.20537 5.24408 -0.0710744 -0.0754514 5.24602 0.66917 25 1 
548 1.20537 5.31638 -0.0705323 -0.0737036 5.31825 0.66973 25 1 
550 1.20537 5.38825 -0.069956 -0.0716492 5.39005 0.673797 25 1 
552 1.20537 5.45974 -0.0693571 -0.0692757 5.46147 0.674758 25 1 
554 1.20537 5.53084 -0.0687388 -0.0666383 5.5325 0.672607 25 1 
556 1.20537 5.60158 -0.0680939 -0.0637127 5.60316 0.66723 25 1 
558 1.20536 5.67197 -0.0674273 -0.060469 5.67348 0.658455 25 1 
560 1.20536 5.74209 -0.0667602 -0.0569232 5.74354 0.65139 25 1 
562 1.20536 5.81204 -0.0660981 -0.0530556 5.81341 0.649317 25 1 
564 1.20536 5.88179 -0.0654427 -0.0488343 5.88309 0.649329 25 1 
566 1.20536 5.95142 -0.0648045 -0.0443136 5.95265 0.64649 25 1 
568 1.20535 6.02088 -0.0641858 -0.0395082 6.02205 0.63929 25 1 
570 1.20535 6.09016 -0.063598 -0.0343337 6.09127 0.628107 25 1 
572 1.20534 6.15938 -0.0630464 -0.0288172 6.16044 0.61769 25 1 
574 1.20534 6.22855 -0.0625299 -0.0229927 6.22956 0.611346 25 1 
576 1.20534 6.29771 -0.0620594 -0.0168043 6.29868 0.60503 25 1 
576 1.20534 6.29771 -0.0620594 -0.0168043 6.29868 0.60503 26 1 
578 1.20533 6.36693 -0.0616452 -0.0102417 6.36787 0.596203 26 1 
580 1.20532 6.43627 -0.0612893 -0.00333221 6.43719 0.583583 26 1 
582 1.20532 6.50566 -0.0609894 0.00394324 6.50657 0.573623 26 1 
584 1.20532 6.57501 -0.0607552 0.0115755 6.57591 0.569256 26 1 
586 1.20531 6.64449 -0.0605929 0.0195359 6.64541 0.561875 26 1 
588 1.20531 6.71412 -0.0605013 0.0278235 6.71506 0.55189 26 1 
590 1.2053 6.78377 -0.0604847 0.0364741 6.78476 0.542463 26 1 
592 1.2053 6.8534 -0.0605485 0.045497 6.85444 0.535176 26 1 
594 1.20529 6.92299 -0.0606789 0.0548196 6.9241 0.524683 26 1 
596 1.20528 6.99257 -0.0608672 0.0644034 6.99377 0.507815 26 1 
598 1.20527 7.06191 -0.0611092 0.0742091 7.06322 0.496395 26 1 
600 1.20527 7.13105 -0.0614065 0.0841797 7.13248 0.48939 26 1 
602 1.20527 7.20003 -0.0617684 0.094324 7.2016 0.481024 26 1 
604 1.20526 7.26867 -0.0621868 0.104639 7.27039 0.470253 26 1 
606 1.20526 7.33679 -0.0626473 0.115044 7.33868 0.461734 26 1 
608 1.20525 7.40422 -0.0631378 0.125428 7.40629 0.458819 26 1 
608 1.20525 7.40422 -0.0631378 0.125428 7.40629 0.458819 26 1 
610 1.20525 7.47106 -0.0636494 0.135702 7.47333 0.444967 26 1 
612 1.20524 7.53719 -0.0641712 0.145839 7.53966 0.426411 26 1 
614 1.20523 7.60237 -0.0647022 0.155826 7.60505 0.41579 26 1 
616 1.20523 7.66668 -0.0652391 0.165599 7.66958 0.406836 26 1 
618 1.20522 7.73008 -0.0657845 0.175055 7.7332 0.397265 26 1 
620 1.20521 7.79268 -0.0663266 0.184131 7.79602 0.382417 26 1 
622 1.20521 7.85427 -0.0668554 0.192791 7.85783 0.373611 26 1 
624 1.2052 7.91472 -0.0673549 0.201014 7.91848 0.368787 26 1 
626 1.2052 7.97425 -0.0678138 0.208755 7.97822 0.359111 26 1 
628 1.2052 8.0328 -0.0682269 0.215958 8.03696 0.354141 26 1 
630 1.20519 8.09041 -0.0685944 0.222581 8.09475 0.343344 26 1 
632 1.20518 8.14697 -0.068919 0.228585 8.15147 0.330017 26 1 
634 1.20517 8.2026 -0.0691898 0.234024 8.20725 0.315937 26 1 
636 1.20517 8.25751 -0.0693812 0.238966 8.26228 0.302462 26 1 
638 1.20517 8.31147 -0.0694829 0.24345 8.31635 0.303127 26 1 
640 1.20517 8.36469 -0.0695172 0.247447 8.36966 0.300353 26 1 
642 1.20516 8.41711 -0.0694649 0.250946 8.42216 0.295947 26 1 
644 1.20516 8.46879 -0.0693203 0.25398 8.4739 0.28505 26 1 
646 1.20515 8.51989 -0.0690988 0.256622 8.52504 0.266377 26 1 
648 1.20515 8.5703 -0.0687812 0.259052 8.57548 0.262188 26 1 
650 1.20514 8.62035 -0.068331 0.261404 8.62555 0.258021 26 1 
652 1.20514 8.66988 -0.067765 0.263757 8.6751 0.253823 26 1 
654 1.20513 8.71891 -0.067117 0.266105 8.72413 0.242845 26 1 
656 1.20513 8.76756 -0.0663924 0.268417 8.7728 0.229967 26 1 
658 1.20513 8.81583 -0.0656113 0.270752 8.82107 0.228279 26 1 
660 1.20512 8.864 -0.0647535 0.273194 8.86925 0.212866 26 1 
662 1.20511 8.91165 -0.0637854 0.275829 8.91691 0.204564 26 1 
664 1.20511 8.95885 -0.0627076 0.278682 8.96412 0.199518 26 1 
666 1.2051 9.00596 -0.0615618 0.281603 9.01124 0.185348 26 1 
668 1.2051 9.05263 -0.0604057 0.28439 9.05793 0.180183 26 1 
670 1.20509 9.09876 -0.0592104 0.287125 9.10407 0.170432 26 1 
672 1.20509 9.14396 -0.0579371 0.289939 9.14928 0.168601 26 1 
672 1.20509 9.14396 -0.0579371 0.289939 9.14928 0.168601 27 1 
674 1.20508 9.18817 -0.0566053 0.292815 9.19351 0.153385 27 1 
676 1.20507 9.23129 -0.0552379 0.295263 9.23664 0.132762 27 1 
678 1.20507 9.27291 -0.053842 0.296904 9.27824 0.1308 27 1 
680 1.20506 9.31327 -0.0524085 0.297755 9.31856 0.109687 27 1 
682 1.20505 9.35181 -0.0509125 0.297961 9.35705 0.0982493 27 1 
684 1.20505 9.3884 -0.0493674 0.297328 9.39355 0.0866676 27 1 
686 1.20504 9.4232 -0.0477987 0.29539 9.42823 0.0767088 27 1 
688 1.20504 9.45596 -0.0462263 0.291862 9.46083 0.0784411 27 1 
690 1.20503 9.487 -0.0446442 0.286625 9.49166 0.0540677 27 1 
692 1.20502 9.51546 -0.0430581 0.27962 9.51986 0.0409052 27 1 
694 1.20501 9.54185 -0.0414826 0.270737 9.54595 0.0126308 27 1 
696 1.20499 9.56675 -0.0398914 0.259856 9.57051 -0.0103379 27 1 
698 1.205 9.59005 -0.0383325 0.24667 9.59342 -0.00583684 27 1 
700 1.20499 9.6121 -0.0368449 0.23122 9.61506 -0.0193728 27 1 
702 1.20499 9.63243 -0.0354675 0.21396 9.63496 -0.0188582 27 1 
704 1.20498 9.65171 -0.0342264 0.195466 9.65383 -0.0383884 27 1 
704 1.20498 9.65171 -0.0342264 0.195466 9.65383 -0.0383884 31 1 
706 1.20497 9.66962 -0.033096 0.176027 9.67134 -0.0578947 31 1 
708 1.20496 9.68662 -0.03207 0.156087 9.68799 -0.069093 31 1 
710 1.20495 9.70345 -0.0310795 0.136003 9.7045 -0.0942773 31 1 
712 1.20495 9.71953 -0.030123 0.115906 9.72031 -0.0884594 31 1 
714 1.20494 9.73556 -0.0291998 0.0959768 9.73611 -0.0994396 31 1 
716 1.20494 9.75133 -0.0282767 0.0766991 9.7517 -0.11261 31 1 
718 1.20493 9.76696 -0.0273792 0.0583628 9.76719 -0.117501 31 1 
720 1.20492 9.78244 -0.0265573 0.0407732 9.78258 -0.138935 31 1 
722 1.20492 9.7978 -0.0257869 0.0240548 9.79788 -0.150394 31 1 
724 1.20491 9.81361 -0.0250984 0.00859055 9.81366 -0.170787 31 1 
726 1.20491 9.82897 -0.0244904 -0.00530118 9.82901 -0.165315 31 1 
728 1.20491 9.84391 -0.0238183 -0.0168588 9.84396 -0.162653 31 1 
730 1.2049 9.85827 -0.023039 -0.0251811 9.85833 -0.186673 31 1 
732 1.2049 9.87142 -0.0222088 -0.0297692 9.8715 -0.183016 31 1 
734 1.20489 9.88407 -0.0214241 -0.0307182 9.88414 -0.205113 31 1 
736 1.20488 9.89586 -0.020762 -0.0288383 9.89592 -0.222432 31 1 
738 1.20488 9.90641 -0.0203215 -0.0254476 9.90647 -0.209185 31 1 
740 1.20488 9.91588 -0.0201158 -0.0221868 9.91593 -0.209574 31 1 
742 1.20488 9.92434 -0.0200648 -0.0200461 9.92438 -0.220192 31 1 
744 1.20487 9.93153 -0.0200592 -0.0193016 9.93157 -0.237516 31 1 
746 1.20487 9.93745 -0.0200491 -0.0198537 9.93749 -0.228483 31 1 
748 1.20487 9.94299 -0.0200618 -0.0213124 9.94304 -0.227109 31 1 
750 1.20487 9.94761 -0.020026 -0.0232589 9.94766 -0.236016 31 1 
752 1.20488 9.95104 -0.0199005 -0.025101 9.95109 -0.224915 31 1 
752 1.20488 9.95104 -0.0199005 -0.025101 9.95109 -0.224915 31 1 
754 1.20487 9.95405 -0.0197571 -0.0266635 9.95411 -0.24263 31 1 
756 1.20486 9.95633 -0.0196043 -0.0278259 9.95639 -0.259067 31 1 
758 1.20486 9.95806 -0.0193673 -0.0284325 9.95812 -0.248963 31 1 
760 1.20486 9.95973 -0.0191474 -0.0285173 9.95979 -0.24939 31 1 
762 1.20486 9.96112 -0.0189838 -0.0282917 9.96118 -0.252781 31 1 
764 1.20486 9.96208 -0.0188207 -0.0279501 9.96214 -0.253256 31 1 
766 1.20486 9.96267 -0.0186546 -0.0277892 9.96272 -0.251999 31 1 
768 1.20485 9.9635 -0.0185892 -0.0279131 9.96356 -0.266712 31 1 
770 1.20485 9.96402 -0.0185873 -0.0280817 9.96408 -0.277876 31 1 
772 1.20486 9.96437 -0.018484 -0.0283354 9.96442 -0.257592 31 1 
774 1.20485 9.96513 -0.0183801 -0.028666 9.96519 -0.262847 31 1 
776 1.20485 9.9657 -0.0183501 -0.0289434 9.96576 -0.27295 31 1 
778 1.20486 9.96608 -0.0183134 -0.0291414 9.96614 -0.25521 31 1 
780 1.20486 9.96633 -0.01822 -0.0294419 9.96639 -0.256142 31 1 
782 1.20485 9.9666 -0.0181789 -0.0297511 9.96666 -0.266788 31 1 
784 1.20485 9.96664 -0.0181206 -0.0300584 9.9667 -0.269583 31 1 
786 1.20486 9.96676 -0.0179807 -0.0303536 9.96682 -0.25727 31 1 
788 1.20486 9.96706 -0.0178665 -0.0306869 9.96713 -0.25943 31 1 
790 1.20486 9.96714 -0.0177916 -0.0309096 9.9672 -0.251646 31 1 
792 1.20488 9.96702 -0.0176596 -0.0309419 9.96708 -0.223209 31 1 
794 1.20486 9.96685 -0.0174989 -0.0309109 9.96692 -0.247507 31 1 
796 1.20485 9.96662 -0.0173678 -0.0307459 9.96668 -0.263601 31 1 
798 1.20486 9.96636 -0.0171795 -0.0306127 9.96642 -0.250525 31 1 
800 1.20486 9.96632 -0.0170611 -0.0306032 9.96638 -0.25019 31 1 
