5.43388;r ;Density                 ;Velocity u              ;Velocity v              ;Velocity w              ;|Velocity|              ;Pressure                ;Distribution            ;Levels                  ;
0 1.205 10.0001 -3.5088e-06 -4.1009e-06 10.0001 0.000927354 1 1 
2 1.205 10.0001 1.86176e-07 9.27685e-06 10.0001 0.00506201 1 1 
4 1.205 10 1.28604e-06 4.69489e-05 10 -0.000285965 1 1 
6 1.205 10 -2.94353e-07 1.54821e-05 10 -0.00459574 1 1 
8 1.205 9.99985 1.16646e-06 2.76433e-05 9.99985 0.0071422 1 1 
10 1.205 10.0001 -2.88343e-08 3.39793e-05 10.0001 -0.00457373 1 1 
12 1.205 10.0002 -6.19506e-07 -7.62682e-05 10.0002 -0.00452285 1 1 
14 1.20501 9.99984 3.95942e-07 -0.000135604 9.99984 0.0118251 1 1 
16 1.205 9.99978 -8.4436e-07 4.71986e-05 9.99978 -0.00334941 1 1 
18 1.20499 9.99979 -2.93257e-07 0.000171092 9.99979 -0.0100588 1 1 
20 1.205 10.0001 1.58682e-06 -4.67888e-05 10.0001 0.00814105 1 1 
22 1.205 10.0003 1.46766e-06 -0.00010629 10.0003 0.00608852 1 1 
24 1.20499 10.0001 -7.4497e-07 0.000141257 10.0001 -0.0145534 1 1 
26 1.205 9.99979 -2.19635e-06 7.68608e-05 9.99979 0.00166202 1 1 
28 1.20501 10.0002 -9.03185e-07 -0.000152217 10.0002 0.00938147 1 1 
30 1.205 10.0003 6.37095e-07 1.38041e-05 10.0003 -0.00454147 1 1 
32 1.205 9.99975 1.76294e-06 5.10663e-05 9.99975 -0.00526263 1 1 
32 1.205 9.99975 1.76294e-06 5.10663e-05 9.99975 -0.00526263 1 1 
34 1.205 9.99993 -3.19587e-08 -5.62806e-05 9.99993 0.000825757 1 1 
36 1.205 10.0002 -7.89163e-07 2.93626e-05 10.0002 0.0038235 1 1 
38 1.205 10 -4.54503e-07 4.19649e-05 10 -0.00304496 1 1 
40 1.205 9.99988 -1.55781e-06 -6.61611e-05 9.99988 0.00248131 1 1 
42 1.205 9.99994 4.10656e-07 2.26737e-06 9.99994 0.0035686 1 1 
44 1.205 9.99998 1.92013e-06 8.192e-05 9.99998 -0.00447782 1 1 
46 1.205 9.99999 7.16114e-07 -4.27406e-05 9.99999 -0.00226869 1 1 
48 1.205 10.0001 -9.64952e-07 -5.85179e-05 10.0001 0.00143568 1 1 
50 1.205 9.99985 -5.84569e-07 6.1592e-06 9.99985 0.00182679 1 1 
52 1.205 9.9997 -1.1272e-06 -1.34163e-05 9.9997 -0.000935686 1 1 
54 1.205 9.99988 2.6722e-07 -0.000102699 9.99988 0.000363264 1 1 
56 1.205 9.99998 3.29694e-06 -9.30749e-07 9.99998 0.00392248 1 1 
58 1.20499 10.0002 -1.88534e-07 0.000176358 10.0002 -0.0136048 1 1 
60 1.205 10.0002 -1.44386e-06 1.78185e-05 10.0002 -0.00407651 1 1 
62 1.205 10.0003 -4.90482e-07 9.95914e-06 10.0003 0.00373409 1 1 
64 1.205 10.0003 -2.5457e-06 0.000192485 10.0003 -0.0074794 1 1 
64 1.205 10.0003 -2.5457e-06 0.000192485 10.0003 -0.0074794 2 1 
66 1.205 9.99997 -7.54465e-07 -2.47265e-05 9.99997 -0.00355352 2 1 
68 1.205 10 8.17769e-07 -2.65203e-05 10 -0.00413775 2 1 
70 1.205 9.99992 -1.4368e-06 -1.5183e-05 9.99992 0.00345088 2 1 
72 1.205 9.99994 -1.31397e-06 -0.000196801 9.99994 0.00430583 2 1 
74 1.205 9.99986 -5.52943e-07 1.86912e-05 9.99986 0.000121292 2 1 
76 1.205 9.99999 1.01055e-07 -2.80109e-05 9.99999 -0.00249722 2 1 
78 1.205 10.0003 -1.44089e-06 -5.36822e-05 10.0003 -0.00640161 2 1 
80 1.20499 10.0001 2.22358e-06 9.6887e-05 10.0001 -0.0107796 2 1 
82 1.205 9.99988 5.49922e-06 3.86101e-05 9.99988 -0.00503219 2 1 
84 1.20499 10.0003 1.80935e-06 8.86401e-07 10.0003 -0.0117873 2 1 
86 1.20499 10.0004 4.33574e-06 0.000109277 10.0004 -0.0149454 2 1 
88 1.205 9.99988 -2.49488e-06 3.71537e-05 9.99988 -0.00197376 2 1 
90 1.205 9.99984 -6.68087e-06 -8.9045e-05 9.99984 -0.00473121 2 1 
92 1.20501 9.9997 3.25528e-06 4.59997e-05 9.9997 0.0104592 2 1 
94 1.205 9.99991 -5.20034e-06 -3.34386e-05 9.99991 0.00746692 2 1 
96 1.20499 10.0007 -7.38897e-06 8.85301e-05 10.0007 -0.0177428 2 1 
96 1.20499 10.0007 -7.38897e-06 8.85301e-05 10.0007 -0.0177428 2 1 
98 1.205 10.0003 1.0122e-06 0.000295238 10.0003 -0.0079711 2 1 
100 1.20501 9.99943 -2.65683e-06 -0.000386775 9.99943 0.0267483 2 1 
102 1.20502 9.99902 3.61471e-06 -7.21961e-05 9.99902 0.0283167 2 1 
104 1.20498 10.0005 1.83432e-06 0.000284635 10.0005 -0.0338412 2 1 
106 1.20498 10.0012 -9.08934e-07 -0.000169614 10.0012 -0.0324981 2 1 
108 1.20501 9.9997 6.77759e-06 8.42751e-05 9.9997 0.0131063 2 1 
110 1.20503 9.99799 1.25122e-05 0.000214448 9.99799 0.0605734 2 1 
112 1.20514 9.99425 1.12859e-05 0.00010082 9.99425 0.258737 2 1 
114 1.20537 9.98674 4.86154e-06 0.000668529 9.98674 0.666323 2 1 
116 1.20583 9.97055 1.68084e-05 0.00170614 9.97055 1.49476 2 1 
118 1.20663 9.94149 1.11938e-05 0.00231548 9.94149 2.94533 2 1 
120 1.20751 9.91019 3.54464e-06 0.00309539 9.91019 4.54106 2 1 
122 1.20798 9.89453 1.71106e-05 0.00247271 9.89453 5.38753 2 1 
124 1.20771 9.903 1.83165e-05 -7.9144e-05 9.903 4.89831 2 1 
126 1.20688 9.92943 1.80248e-05 -0.00244557 9.92943 3.39312 2 1 
128 1.20621 9.95098 2.02455e-05 -0.00336907 9.95098 2.18381 2 1 
128 1.20621 9.95098 2.02455e-05 -0.00336907 9.95098 2.18381 10 1 
130 1.2061 9.95569 2.7924e-05 -0.00309667 9.95569 1.99155 10 1 
132 1.20598 9.96158 3.82908e-05 -0.000756651 9.96158 1.77804 10 1 
134 1.20526 9.98462 7.48919e-05 0.000453254 9.98462 0.478328 10 1 
136 1.20451 10.009 0.000151288 0.000876823 10.009 -0.891837 10 1 
138 1.20468 10.0043 0.000306722 0.00279442 10.0043 -0.576641 10 1 
140 1.20546 9.97968 0.000625509 0.0043569 9.97968 0.83778 10 1 
142 1.20572 9.971 0.00110617 0.00463069 9.971 1.30314 10 1 
144 1.20546 9.97771 0.00177367 0.00465506 9.97771 0.824933 10 1 
146 1.20561 9.97375 0.00262066 0.00587458 9.97375 1.10857 10 1 
148 1.20618 9.95792 0.00351266 0.00667912 9.95793 2.13403 10 1 
150 1.20628 9.95365 0.00426311 0.00525787 9.95365 2.30678 10 1 
152 1.20603 9.96058 0.00469484 0.00225346 9.96059 1.85594 10 1 
154 1.2062 9.95659 0.00471139 0.00120113 9.95659 2.16806 10 1 
156 1.20645 9.94984 0.00437939 0.00143288 9.94984 2.6268 10 1 
158 1.20621 9.95757 0.00385486 0.000301462 9.95757 2.1945 10 1 
160 1.20596 9.96528 0.00334109 -0.00109391 9.96528 1.72626 10 1 
160 1.20596 9.96528 0.00334109 -0.00109391 9.96528 1.72626 10 1 
162 1.20596 9.96516 0.00304438 -0.000402696 9.96516 1.73234 10 1 
164 1.20586 9.96922 0.00288994 0.00137265 9.96922 1.54731 10 1 
166 1.20564 9.97545 0.00277006 0.00112177 9.97545 1.15971 10 1 
168 1.20542 9.98131 0.0025386 -0.000398451 9.98131 0.756056 10 1 
170 1.20524 9.98709 0.0020884 8.86903e-05 9.98709 0.44067 10 1 
172 1.20522 9.98791 0.0015474 0.00193306 9.98791 0.404284 10 1 
174 1.20509 9.99127 0.00106715 0.003327 9.99127 0.15846 10 1 
176 1.20472 10.0007 0.000891706 0.00397846 10.0007 -0.50288 10 1 
178 1.20448 10.0072 0.00105939 0.00600454 10.0072 -0.940378 10 1 
180 1.20458 10.0044 0.00143659 0.00780583 10.0044 -0.750154 10 1 
182 1.20473 9.9993 0.00186187 0.00704784 9.99931 -0.488701 10 1 
184 1.20459 10.0025 0.00219247 0.00290365 10.0025 -0.736151 10 1 
186 1.20456 10.0033 0.00241283 0.00079626 10.0033 -0.797608 10 1 
188 1.20486 9.99477 0.00259764 0.00189281 9.99477 -0.248459 10 1 
190 1.20498 9.99077 0.00282984 0.00209474 9.99077 -0.0365819 10 1 
192 1.20468 9.99766 0.00301509 0.00185657 9.99766 -0.585915 10 1 
194 1.20449 10.002 0.00312312 0.00197127 10.002 -0.92591 10 1 
196 1.20473 9.99446 0.003085 0.00303351 9.99446 -0.479801 10 1 
198 1.20488 9.98934 0.00284132 0.00479515 9.98934 -0.217323 10 1 
200 1.20464 9.99463 0.00263621 0.00258532 9.99463 -0.655977 10 1 
202 1.20457 9.99616 0.00254644 0.00107678 9.99617 -0.775243 10 1 
204 1.20484 9.98789 0.00249078 0.00381147 9.9879 -0.290278 10 1 
206 1.20487 9.98435 0.00257931 0.00429634 9.98435 -0.230087 10 1 
208 1.20459 9.98887 0.00270424 0.0039718 9.98888 -0.736138 10 1 
210 1.20454 9.98815 0.0025915 0.00278853 9.98815 -0.830763 10 1 
212 1.20476 9.98073 0.0023805 0.00208728 9.98073 -0.440261 10 1 
214 1.2048 9.97748 0.00214415 0.00510505 9.97748 -0.362094 10 1 
216 1.20472 9.9781 0.00190699 0.00497821 9.9781 -0.499422 10 1 
218 1.20474 9.97501 0.00187417 0.00323103 9.97501 -0.477916 10 1 
220 1.20476 9.96999 0.00196559 0.0047477 9.96999 -0.42955 10 1 
222 1.20483 9.96415 0.00204998 0.00226634 9.96415 -0.312368 10 1 
224 1.20488 9.95954 0.00203681 0.00283484 9.95954 -0.220698 10 1 
224 1.20488 9.95954 0.00203681 0.00283484 9.95954 -0.220698 10 1 
226 1.20487 9.95612 0.00192347 0.00609205 9.95612 -0.24287 10 1 
228 1.20488 9.94999 0.00180062 0.00498482 9.94999 -0.217543 10 1 
230 1.20495 9.94519 0.00172705 0.00571546 9.94519 -0.0857641 10 1 
232 1.20509 9.93718 0.00171434 0.00417745 9.93718 0.165442 10 1 
234 1.20508 9.92949 0.00177252 0.00254685 9.92949 0.151879 10 1 
236 1.20508 9.92392 0.00177014 0.00628865 9.92392 0.150752 10 1 
238 1.20528 9.91153 0.00173467 0.00658529 9.91154 0.50738 10 1 
240 1.20531 9.90148 0.00183224 0.00783878 9.90148 0.556725 10 1 
242 1.20531 9.89342 0.00179491 0.00801962 9.89342 0.551768 10 1 
244 1.20549 9.88136 0.00184952 0.00565859 9.88136 0.891753 10 1 
246 1.20562 9.86777 0.002017 0.00961838 9.86777 1.11429 10 1 
248 1.20564 9.85246 0.00183737 0.0120251 9.85247 1.15827 10 1 
250 1.20579 9.83635 0.00169929 0.0127254 9.83636 1.4342 10 1 
252 1.20604 9.81716 0.00175403 0.0139253 9.81718 1.88195 10 1 
254 1.20612 9.796 0.00180554 0.014601 9.79601 2.02737 10 1 
256 1.20619 9.77697 0.00185741 0.0156977 9.77698 2.14547 10 1 
256 1.20619 9.77697 0.00185741 0.0156977 9.77698 2.14547 11 1 
258 1.20648 9.75226 0.00182713 0.0212223 9.75229 2.67225 11 1 
260 1.20674 9.71995 0.00170391 0.0248263 9.71999 3.13555 11 1 
262 1.20684 9.69062 0.00161366 0.0305599 9.69068 3.32339 11 1 
264 1.2072 9.65424 0.00161067 0.0343212 9.65431 3.97437 11 1 
266 1.20766 9.60654 0.00152853 0.0390869 9.60664 4.80696 11 1 
268 1.20768 9.567 0.00145959 0.0505347 9.56715 4.84364 11 1 
270 1.20802 9.51548 0.00147774 0.0604025 9.5157 5.4611 11 1 
272 1.2088 9.44315 0.00140795 0.0732486 9.44346 6.87158 11 1 
274 1.20907 9.37837 0.00130855 0.0890192 9.37883 7.35491 11 1 
276 1.20947 9.30213 0.00126117 0.105183 9.30276 8.07588 11 1 
278 1.21038 9.20647 0.00119531 0.132199 9.20749 9.72538 11 1 
280 1.211 9.10926 0.00113907 0.168099 9.11091 10.8404 11 1 
282 1.21156 8.9864 0.00109121 0.208603 8.98898 11.8573 11 1 
284 1.21244 8.85039 0.000994238 0.254185 8.85419 13.4373 11 1 
286 1.21352 8.70642 0.000918002 0.310659 8.71224 15.3955 11 1 
288 1.21454 8.53741 0.000866849 0.415165 8.54803 17.2271 11 1 
288 1.21454 8.53741 0.000866849 0.415165 8.54803 17.2271 11 1 
290 1.21523 8.36324 0.000794958 0.504608 8.3787 18.4723 11 1 
292 1.2167 8.14362 0.000741262 0.584202 8.16569 21.1387 11 1 
294 1.2183 7.87823 0.000699433 0.801254 7.92166 24.0273 11 1 
296 1.21697 7.50133 0.000640525 0.889819 7.5558 21.6163 11 1 
298 1.21141 6.90807 0.000559174 0.420879 6.93591 11.5738 11 1 
300 1.20318 6.30209 0.000441838 -0.585767 6.36587 -3.28384 11 1 
302 1.19609 5.90133 0.000325722 -1.3238 6.0528 -16.1023 11 1 
304 1.19289 5.65319 0.000224242 -1.30509 5.80405 -21.8714 11 1 
306 1.19253 5.44485 0.000104106 -1.03204 5.54328 -22.5241 11 1 
308 1.19324 5.27995 -1.40779e-05 -0.843057 5.34739 -21.2455 11 1 
310 1.19449 5.17548 -0.00014489 -0.719104 5.2257 -18.9849 11 1 
312 1.19535 5.07733 -0.000334621 -0.613286 5.11461 -17.4296 11 1 
314 1.1956 4.9583 -0.000558153 -0.519236 4.98581 -16.9725 11 1 
316 1.19618 4.84073 -0.000753212 -0.446081 4.86151 -15.9287 11 1 
318 1.19702 4.74724 -0.000873853 -0.409638 4.76508 -14.4173 11 1 
320 1.19737 4.6706 -0.000950058 -0.403568 4.68815 -13.7841 11 1 
320 1.19737 4.6706 -0.000950058 -0.403568 4.68815 -13.7841 15 1 
322 1.1976 4.59256 -0.000988068 -0.438696 4.61373 -13.374 15 1 
324 1.19822 4.49097 -0.000994154 -0.545576 4.52509 -12.2536 15 1 
326 1.19873 4.35199 -0.00103793 -0.725102 4.41394 -11.3229 15 1 
328 1.19889 4.20794 -0.00111696 -0.916072 4.30787 -11.0335 15 1 
330 1.19917 4.13831 -0.00119983 -0.997446 4.25696 -10.5338 15 1 
332 1.1997 4.19462 -0.00128543 -0.853845 4.28357 -9.57461 15 1 
334 1.20019 4.35263 -0.00134395 -0.495045 4.38753 -8.68494 15 1 
336 1.20075 4.58142 -0.00135169 -0.0387615 4.58865 -7.68084 15 1 
338 1.20169 4.88326 -0.00133711 0.393057 4.90366 -5.97372 15 1 
340 1.20282 5.24864 -0.00134954 0.718919 5.29993 -3.93372 15 1 
342 1.20375 5.64678 -0.00137032 0.906201 5.72052 -2.25761 15 1 
344 1.2045 6.05331 -0.00135578 0.964182 6.13117 -0.903633 15 1 
346 1.20519 6.45674 -0.00133215 0.923585 6.52417 0.336116 15 1 
348 1.20571 6.84865 -0.00131973 0.821606 6.89946 1.27936 15 1 
350 1.206 7.21833 -0.00132061 0.692205 7.25294 1.81496 15 1 
352 1.20621 7.55876 -0.00129299 0.558941 7.58065 2.18897 15 1 
354 1.2064 7.87042 -0.00121306 0.435516 7.88343 2.53404 15 1 
356 1.20644 8.15185 -0.00114662 0.330972 8.15926 2.60658 15 1 
358 1.20633 8.3991 -0.00115224 0.247909 8.40324 2.40973 15 1 
360 1.20625 8.61281 -0.00118762 0.185709 8.61515 2.26217 15 1 
362 1.20618 8.79551 -0.00116635 0.139524 8.79685 2.12358 15 1 
364 1.20605 8.95094 -0.00113389 0.106079 8.95173 1.89365 15 1 
366 1.20596 9.08286 -0.00114728 0.0822576 9.08334 1.72977 15 1 
368 1.20591 9.19475 -0.00119053 0.0640945 9.19505 1.6391 15 1 
370 1.20582 9.28989 -0.00119624 0.0504476 9.29008 1.48525 15 1 
372 1.20569 9.37149 -0.00115275 0.03915 9.37161 1.25496 15 1 
374 1.20563 9.44281 -0.00114629 0.0304814 9.44289 1.14101 15 1 
376 1.20565 9.50479 -0.00118564 0.0244071 9.50484 1.17455 15 1 
378 1.20563 9.55853 -0.00123392 0.0209908 9.55857 1.13446 15 1 
380 1.20555 9.60384 -0.00123972 0.017183 9.60386 1.00113 15 1 
382 1.20551 9.64239 -0.00120858 0.0121792 9.64241 0.912609 15 1 
384 1.20547 9.67761 -0.00118993 0.00929481 9.67762 0.85767 15 1 
384 1.20547 9.67761 -0.00118993 0.00929481 9.67762 0.85767 16 1 
386 1.20544 9.70901 -0.00121464 0.00889519 9.70902 0.789913 16 1 
388 1.20544 9.73708 -0.00127806 0.00837769 9.73709 0.789598 16 1 
390 1.20545 9.76021 -0.00131525 0.00556542 9.76022 0.807977 16 1 
392 1.20541 9.78053 -0.00130595 0.00316493 9.78053 0.744847 16 1 
394 1.20537 9.80099 -0.00130161 0.00298563 9.80099 0.671231 16 1 
396 1.20537 9.81824 -0.00131141 0.00300549 9.81825 0.661132 16 1 
398 1.20539 9.83473 -0.0013044 0.00188045 9.83473 0.710924 16 1 
400 1.20539 9.84703 -0.00129211 0.000318105 9.84703 0.698267 16 1 
402 1.20536 9.85781 -0.00130583 0.00100057 9.85781 0.654599 16 1 
404 1.20538 9.87124 -0.00135596 0.00204402 9.87124 0.680894 16 1 
406 1.20537 9.88124 -0.00139976 0.00168144 9.88124 0.663626 16 1 
408 1.20532 9.89115 -0.00140552 0.000974247 9.89115 0.583618 16 1 
410 1.2053 9.89946 -0.00139719 -0.00129674 9.89946 0.545356 16 1 
412 1.20535 9.90867 -0.00136314 -0.00284365 9.90867 0.63175 16 1 
414 1.20537 9.91652 -0.00130435 -0.00127432 9.91652 0.667599 16 1 
416 1.20532 9.92006 -0.00129729 0.0009339 9.92006 0.570773 16 1 
416 1.20532 9.92006 -0.00129729 0.0009339 9.92006 0.570773 16 1 
418 1.20533 9.92722 -0.00131466 0.00117313 9.92722 0.594471 16 1 
420 1.20542 9.93481 -0.00131587 -0.000558945 9.93481 0.758372 16 1 
422 1.20545 9.94183 -0.00134322 -0.00148133 9.94183 0.814981 16 1 
424 1.20533 9.94457 -0.0013682 -0.000492217 9.94457 0.587168 16 1 
426 1.20521 9.94747 -0.00137647 -0.000240604 9.94747 0.385998 16 1 
428 1.20527 9.9531 -0.00135958 -0.00167783 9.9531 0.48195 16 1 
430 1.20541 9.95807 -0.00130274 -0.00257942 9.95807 0.731795 16 1 
432 1.20547 9.96352 -0.00127946 -0.00177766 9.96352 0.850408 16 1 
434 1.20536 9.96392 -0.00126973 0.000285994 9.96392 0.655195 16 1 
436 1.20528 9.96563 -0.00125504 0.00105421 9.96563 0.514162 16 1 
438 1.20538 9.97098 -0.00128097 -0.000744499 9.97098 0.692604 16 1 
440 1.20549 9.9766 -0.00128699 -0.00227929 9.9766 0.890086 16 1 
442 1.2054 9.97821 -0.00127212 -0.0019988 9.97821 0.730803 16 1 
444 1.20524 9.97637 -0.00125095 -0.000887374 9.97637 0.424969 16 1 
446 1.20528 9.97941 -0.00117919 -0.000884375 9.97941 0.498568 16 1 
448 1.20546 9.98425 -0.00110786 -0.00172368 9.98425 0.825995 16 1 
448 1.20546 9.98425 -0.00110786 -0.00172368 9.98425 0.825995 17 1 
450 1.20552 9.98762 -0.00106961 -0.00160451 9.98762 0.933201 17 1 
452 1.2054 9.9867 -0.00104988 -0.000402083 9.9867 0.719168 17 1 
454 1.20533 9.98737 -0.00106726 0.000200329 9.98737 0.592557 17 1 
456 1.2054 9.99081 -0.00110925 -0.000728154 9.99081 0.729496 17 1 
458 1.20548 9.99429 -0.00113051 -0.0019217 9.99429 0.869364 17 1 
460 1.20544 9.99505 -0.00111264 -0.00160276 9.99505 0.789809 17 1 
462 1.20536 9.99437 -0.00106396 -0.00110929 9.99437 0.64936 17 1 
464 1.20537 9.99576 -0.000980665 -0.000929887 9.99576 0.664709 17 1 
466 1.20543 9.99746 -0.000882667 -0.00121976 9.99746 0.770848 17 1 
468 1.20548 9.99975 -0.000820936 -0.00182596 9.99975 0.873288 17 1 
470 1.20551 10.0018 -0.00084185 -0.00123203 10.0018 0.925319 17 1 
472 1.20547 10.002 -0.000925447 -0.000299078 10.002 0.853996 17 1 
474 1.20539 10.0002 -0.000996128 2.73794e-05 10.0002 0.703985 17 1 
476 1.20544 10.0026 -0.00102939 -0.00057537 10.0026 0.79601 17 1 
478 1.20559 10.0076 -0.00100236 -0.00200001 10.0076 1.07362 17 1 
480 1.20557 10.0075 -0.00091309 -0.00171821 10.0075 1.0246 17 1 
480 1.20557 10.0075 -0.00091309 -0.00171821 10.0075 1.0246 17 1 
482 1.20538 10.003 -0.000826607 -0.00120946 10.003 0.677948 17 1 
484 1.20538 10.0042 -0.00081781 -0.00128798 10.0042 0.679003 17 1 
486 1.2056 10.0106 -0.000948998 -0.000853216 10.0106 1.08344 17 1 
488 1.20566 10.0121 -0.00115954 -0.00142686 10.0121 1.19255 17 1 
490 1.20542 10.0067 -0.00135014 -0.0017896 10.0067 0.7546 17 1 
492 1.20527 10.0038 -0.00149557 -0.0017251 10.0038 0.495496 17 1 
494 1.20546 10.0086 -0.00153996 -0.00230006 10.0086 0.822495 17 1 
496 1.20561 10.013 -0.00151464 -0.00221081 10.013 1.1107 17 1 
498 1.20549 10.0104 -0.00150254 -0.00198687 10.0104 0.8792 17 1 
500 1.20527 10.0051 -0.00151128 -0.00120572 10.0051 0.494533 17 1 
502 1.20532 10.0065 -0.00159515 -0.000524276 10.0065 0.577604 17 1 
504 1.20555 10.0136 -0.00173795 -0.00254081 10.0136 1.00247 17 1 
506 1.20553 10.0129 -0.00188127 -0.00355509 10.0129 0.955396 17 1 
508 1.20523 10.0043 -0.00204666 -0.00268664 10.0044 0.41896 17 1 
510 1.20515 10.0025 -0.00220289 -0.00359828 10.0025 0.270536 17 1 
512 1.20539 10.0095 -0.002301 -0.00310062 10.0095 0.705751 17 1 
512 1.20539 10.0095 -0.002301 -0.00310062 10.0095 0.705751 25 1 
514 1.2056 10.0151 -0.00230656 -0.00140169 10.0151 1.09045 25 1 
516 1.20555 10.0139 -0.00215175 -0.00168079 10.0139 0.990974 25 1 
518 1.20532 10.0079 -0.00180366 -0.00086389 10.0079 0.581749 25 1 
520 1.20525 10.0057 -0.0013133 -0.000254467 10.0057 0.451742 25 1 
522 1.20541 10.0106 -0.000781454 -0.00190616 10.0106 0.736367 25 1 
524 1.20549 10.0131 -0.000334824 -0.00206027 10.0131 0.881158 25 1 
526 1.20534 10.0086 -9.65858e-05 -0.00101621 10.0086 0.618146 25 1 
528 1.20517 10.0036 -8.34763e-05 3.26028e-07 10.0036 0.306982 25 1 
530 1.2052 10.0045 -0.000232661 0.00181156 10.0045 0.35998 25 1 
532 1.2054 10.0102 -0.000459935 0.00295598 10.0102 0.716539 25 1 
534 1.2055 10.0131 -0.000673182 0.00295966 10.0131 0.895831 25 1 
536 1.20529 10.007 -0.000832062 0.00203392 10.007 0.518069 25 1 
538 1.20487 9.99471 -0.000968065 -0.000405133 9.99471 -0.237529 25 1 
540 1.20454 9.98442 -0.00115005 -0.00343913 9.98442 -0.834348 25 1 
542 1.20441 9.98031 -0.00143334 -0.0059466 9.98031 -1.06138 25 1 
544 1.20437 9.97931 -0.00182948 -0.00749921 9.97931 -1.13415 25 1 
544 1.20437 9.97931 -0.00182948 -0.00749921 9.97931 -1.13415 25 1 
546 1.20429 9.9769 -0.00228164 -0.00758847 9.97691 -1.27376 25 1 
548 1.20417 9.97226 -0.00269119 -0.0066039 9.97226 -1.50543 25 1 
550 1.20407 9.96865 -0.00296743 -0.00547486 9.96865 -1.68428 25 1 
552 1.20408 9.96899 -0.00304711 -0.00439321 9.96899 -1.65288 25 1 
554 1.2042 9.97222 -0.0029099 -0.00335429 9.97222 -1.43773 25 1 
556 1.20436 9.97647 -0.00259839 -0.00221901 9.97647 -1.16443 25 1 
558 1.20449 9.98081 -0.00217665 -0.0006789 9.98082 -0.914721 25 1 
560 1.20463 9.9853 -0.00171206 0.000878263 9.9853 -0.670747 25 1 
562 1.20482 9.9914 -0.0012724 0.00174577 9.9914 -0.33198 25 1 
564 1.20506 9.99928 -0.000891487 0.00202198 9.99928 0.112081 25 1 
566 1.2053 10.0069 -0.000594326 0.00149865 10.0069 0.541148 25 1 
568 1.20541 10.0103 -0.000380416 0.000168636 10.0103 0.738316 25 1 
570 1.20529 10.0056 -0.000227746 -0.00121538 10.0056 0.521524 25 1 
572 1.20494 9.99352 -0.000132529 -0.00195913 9.99352 -0.103258 25 1 
574 1.20445 9.97723 -7.61286e-05 -0.00178213 9.97723 -0.98508 25 1 
576 1.20397 9.96087 -4.01543e-05 -0.00125225 9.96087 -1.86747 25 1 
576 1.20397 9.96087 -4.01543e-05 -0.00125225 9.96087 -1.86747 26 1 
578 1.20361 9.94866 -2.19579e-05 -0.000663281 9.94866 -2.50939 26 1 
580 1.20344 9.94293 -1.06594e-05 0.000151642 9.94293 -2.82553 26 1 
582 1.20344 9.94393 -6.28783e-06 0.000850198 9.94393 -2.81087 26 1 
584 1.20361 9.95006 -4.60827e-06 0.00109348 9.95006 -2.51216 26 1 
586 1.20386 9.95893 -5.82208e-07 0.000948669 9.95893 -2.06426 26 1 
588 1.20413 9.96864 -2.55632e-07 0.000941768 9.96864 -1.5761 26 1 
590 1.20439 9.97766 1.3996e-07 0.000953517 9.97766 -1.11033 26 1 
592 1.20459 9.98501 -1.43621e-07 0.000477509 9.98501 -0.738916 26 1 
594 1.20474 9.99048 -8.75069e-07 0.000197648 9.99048 -0.471453 26 1 
596 1.20484 9.99422 9.05357e-07 0.000331768 9.99422 -0.286537 26 1 
598 1.2049 9.99659 -8.37187e-07 0.000197634 9.99659 -0.174011 26 1 
600 1.20495 9.99815 -9.23423e-07 3.90802e-05 9.99815 -0.0973061 26 1 
602 1.20498 9.9991 1.96905e-06 8.19822e-05 9.9991 -0.0434232 26 1 
604 1.20499 9.99962 -2.61437e-07 3.59201e-05 9.99962 -0.0139607 26 1 
606 1.205 9.99997 -1.01859e-06 -7.61102e-05 9.99997 -0.000175785 26 1 
608 1.205 9.99994 1.49898e-07 -2.7305e-05 9.99994 -0.00139095 26 1 
608 1.205 9.99994 1.49898e-07 -2.7305e-05 9.99994 -0.00139095 26 1 
610 1.20499 9.99978 -2.98535e-07 2.12679e-05 9.99978 -0.0100485 26 1 
612 1.20499 9.99992 1.29798e-06 2.19698e-05 9.99992 -0.0106617 26 1 
614 1.205 10 4.93636e-07 4.17658e-05 10 0.000624939 26 1 
616 1.205 10 -1.99395e-06 2.22953e-05 10 0.00656497 26 1 
618 1.205 10.0001 7.6625e-08 -1.23422e-05 10.0001 0.0014442 26 1 
620 1.205 10 1.37742e-06 -2.66107e-05 10 0.000885592 26 1 
622 1.205 9.99993 -9.05457e-07 -1.61322e-05 9.99993 -2.88743e-05 26 1 
624 1.205 9.99998 -8.48524e-08 -3.46117e-05 9.99998 -0.00627657 26 1 
626 1.205 9.99999 1.1467e-06 5.4816e-05 9.99999 0.000745796 26 1 
628 1.205 10 -1.03208e-06 4.31051e-05 10 0.00478761 26 1 
630 1.205 10.0001 -2.68486e-07 -7.87355e-05 10.0001 -0.00231296 26 1 
632 1.205 9.99998 9.85832e-07 2.41426e-07 9.99998 0.000616023 26 1 
634 1.205 9.99997 -5.01896e-07 4.52274e-05 9.99997 0.000743584 26 1 
636 1.205 10 -1.73784e-07 -2.49799e-06 10 -0.00260849 26 1 
638 1.205 9.99998 1.65158e-07 -2.32299e-05 9.99998 0.0015162 26 1 
640 1.205 10 -2.53347e-08 1.75345e-05 10 0.00115096 26 1 
642 1.205 10 3.85079e-07 -8.77387e-06 10 -0.00229739 26 1 
644 1.205 9.99998 -5.25751e-07 -2.91475e-05 9.99998 0.000895077 26 1 
646 1.205 9.99997 -1.51468e-07 3.73718e-05 9.99997 0.00159234 26 1 
648 1.205 10 7.88966e-07 1.4386e-05 10 -0.00202415 26 1 
650 1.205 10 -3.87242e-07 -2.20794e-05 10 2.77361e-05 26 1 
652 1.205 9.99998 -3.77518e-07 -2.33402e-05 9.99998 0.00145588 26 1 
654 1.205 10 3.67029e-07 6.03993e-06 10 -0.00089343 26 1 
656 1.205 10 5.93332e-09 3.39027e-05 10 -0.000319703 26 1 
658 1.205 9.99999 1.3026e-08 -3.14175e-06 9.99999 0.000644408 26 1 
660 1.205 10 -1.70077e-07 -2.61485e-05 10 -0.00012851 26 1 
662 1.205 10 -1.3436e-07 4.41538e-06 10 -0.000193198 26 1 
664 1.205 10 5.98698e-07 1.63066e-05 10 -0.000106987 26 1 
666 1.205 9.99999 6.61815e-09 -1.58325e-05 9.99999 6.73108e-05 26 1 
668 1.205 9.99999 -7.56846e-07 -1.63574e-06 9.99999 0.00051466 26 1 
670 1.205 10 1.67096e-07 2.15881e-05 10 -0.000277423 26 1 
672 1.205 10 6.2777e-07 -1.45683e-05 10 -0.000769115 26 1 
672 1.205 10 6.2777e-07 -1.45683e-05 10 -0.000769115 27 1 
674 1.205 9.99998 -4.57269e-07 -1.94952e-07 9.99998 0.000873926 27 1 
676 1.205 9.99999 -6.12324e-07 1.25805e-05 9.99999 0.00039467 27 1 
678 1.205 10 7.42682e-07 -2.12056e-05 10 -0.00111391 27 1 
680 1.205 10 7.51826e-07 -7.13897e-06 10 0.000197424 27 1 
682 1.205 9.99998 -7.30539e-07 1.65553e-05 9.99998 0.000535464 27 1 
684 1.205 9.99999 -7.6109e-07 1.61238e-05 9.99999 -4.51823e-05 27 1 
686 1.205 10 4.14997e-07 -1.06095e-05 10 -0.000183837 27 1 
688 1.205 10 5.62402e-07 -1.81069e-05 10 -0.000235561 27 1 
690 1.205 10 -6.63627e-08 1.18557e-05 10 0.000206995 27 1 
692 1.205 9.99999 -2.64607e-07 1.00216e-05 9.99999 0.000129776 27 1 
694 1.205 10 -5.52233e-08 -6.7784e-06 10 -0.000104312 27 1 
696 1.205 10 5.75347e-08 -5.18657e-06 10 -3.60797e-05 27 1 
698 1.205 10 2.68377e-08 6.24644e-07 10 2.21232e-05 27 1 
700 1.205 10 -1.29419e-09 2.53515e-06 10 1.35885e-05 27 1 
702 1.205 10 -3.22747e-09 1.47614e-06 10 -4.95092e-06 27 1 
704 1.205 10 -7.28872e-10 -1.46019e-07 10 -2.67829e-06 27 1 
704 1.205 10 -7.28872e-10 -1.46019e-07 10 -2.67829e-06 31 1 
706 1.205 10 -5.70726e-11 -1.3637e-06 10 -9.09841e-07 31 1 
708 1.205 10 5.80569e-12 1.07446e-07 10 1.01145e-06 31 1 
710 1.205 10 8.34498e-14 1.14289e-14 10 -9.36369e-13 31 1 
712 1.205 10 6.11348e-14 3.16049e-14 10 -3.02054e-13 31 1 
714 1.205 10 2.47093e-14 3.52443e-14 10 -1.44986e-12 31 1 
716 1.205 10 3.47654e-14 1.86118e-14 10 -3.17157e-12 31 1 
718 1.205 10 4.82055e-14 2.75825e-14 10 -2.80911e-12 31 1 
720 1.205 10 3.41908e-14 2.39112e-14 10 -1.78212e-12 31 1 
722 1.205 10 2.71036e-14 4.69285e-15 10 -1.57068e-12 31 1 
724 1.205 10 3.89156e-14 2.33047e-15 10 -2.32582e-12 31 1 
726 1.205 10 3.83409e-14 2.63055e-14 10 -1.57068e-12 31 1 
728 1.205 10 4.46619e-14 2.99768e-14 10 -1.32904e-12 31 1 
730 1.205 10 4.09268e-14 2.15807e-14 10 -2.96013e-12 31 1 
732 1.205 10 2.7359e-14 1.4302e-14 10 -2.05397e-12 31 1 
734 1.205 10 4.66412e-14 1.33124e-14 10 -1.35924e-12 31 1 
736 1.205 10 7.58519e-14 3.63616e-14 10 -1.57068e-12 31 1 
738 1.205 10 8.09597e-14 3.32012e-14 10 -1.54048e-12 31 1 
740 1.205 10 7.30425e-14 4.21399e-15 10 -2.14459e-12 31 1 
742 1.205 10 6.47103e-14 -5.04402e-15 10 -3.38301e-12 31 1 
744 1.205 10 5.53565e-14 2.29854e-15 10 -3.95691e-12 31 1 
746 1.205 10 4.6737e-14 9.03454e-15 10 -2.32582e-12 31 1 
748 1.205 10 6.44869e-14 9.54533e-15 10 -3.62465e-13 31 1 
750 1.205 10 7.54368e-14 2.31131e-14 10 -9.66574e-13 31 1 
752 1.205 10 7.86612e-14 3.02322e-14 10 -2.11438e-12 31 1 
752 1.205 10 7.86612e-14 3.02322e-14 10 -2.11438e-12 31 1 
754 1.205 10 7.23402e-14 2.91149e-14 10 -1.41966e-12 31 1 
756 1.205 10 5.31218e-14 2.85402e-14 10 6.04109e-14 31 1 
758 1.205 10 4.74074e-14 4.74393e-14 10 -1.20822e-13 31 1 
760 1.205 10 6.77431e-14 8.21728e-14 10 -2.68828e-12 31 1 
762 1.205 10 6.89243e-14 7.47026e-14 10 -3.29239e-12 31 1 
764 1.205 10 4.8844e-14 4.56197e-14 10 -2.59767e-12 31 1 
766 1.205 10 5.30261e-14 3.71598e-14 10 -2.62787e-12 31 1 
768 1.205 10 6.25395e-14 3.89475e-14 10 -3.11116e-12 31 1 
770 1.205 10 6.05602e-14 4.40554e-14 10 -1.60089e-12 31 1 
772 1.205 10 4.40554e-14 5.81978e-14 10 -7.24931e-13 31 1 
774 1.205 10 4.78544e-14 6.18691e-14 10 -3.17157e-12 31 1 
776 1.205 10 6.05283e-14 3.16369e-14 10 -4.77246e-12 31 1 
778 1.205 10 7.00417e-14 1.51001e-14 10 -3.44342e-12 31 1 
780 1.205 10 5.69847e-14 1.62175e-14 10 -1.84253e-12 31 1 
782 1.205 10 4.22995e-14 3.01684e-14 10 -2.83931e-12 31 1 
784 1.205 10 4.97379e-14 3.13176e-14 10 -2.89972e-12 31 1 
786 1.205 10 7.05525e-14 2.91787e-14 10 -1.6613e-12 31 1 
788 1.205 10 6.95309e-14 3.4957e-14 10 -1.72171e-12 31 1 
790 1.205 10 5.8964e-14 4.64497e-14 10 -2.29561e-12 31 1 
792 1.205 10 6.26353e-14 4.83013e-14 10 -2.56746e-12 31 1 
794 1.205 10 7.10313e-14 2.54116e-14 10 -3.53404e-12 31 1 
796 1.205 10 7.21806e-14 3.22115e-14 10 -3.95691e-12 31 1 
798 1.205 10 5.92194e-14 3.46058e-14 10 -3.59445e-12 31 1 
800 1.205 10 5.47819e-14 2.93703e-14 10 -3.3226e-12 31 1 
