21.7355;r ;Density                 ;Velocity u              ;Velocity v              ;Velocity w              ;|Velocity|              ;Pressure                ;Distribution            ;Levels                  ;
0 1.20352 10.0006 -7.31061e-05 -0.0017403 10.0006 -2.67748 1 1 
2 1.20354 10.0001 -9.88706e-05 -0.000975443 10.0001 -2.64581 1 1 
4 1.20357 9.99943 -0.000184883 -0.000258202 9.99943 -2.5905 1 1 
6 1.20358 9.99962 -0.000306659 -5.84118e-05 9.99962 -2.5606 1 1 
8 1.20356 10 -0.000413523 -0.000331854 10 -2.59499 1 1 
10 1.20353 10 -0.000570921 -0.000697509 10 -2.66181 1 1 
12 1.20354 9.99877 -0.000747979 -0.000534553 9.99877 -2.64602 1 1 
14 1.20355 9.99757 -0.000859427 -0.000846079 9.99757 -2.61014 1 1 
16 1.20354 9.9988 -0.000928742 -0.00114564 9.9988 -2.64495 1 1 
18 1.20353 10.0003 -0.000987611 -0.0011335 10.0003 -2.64978 1 1 
20 1.20356 10.0004 -0.00109994 -0.0010148 10.0004 -2.59856 1 1 
22 1.20359 9.9997 -0.00121278 -0.00086176 9.9997 -2.55398 1 1 
24 1.20358 9.99939 -0.00128156 -0.00139257 9.99939 -2.55907 1 1 
26 1.20355 9.99978 -0.00141065 -0.00173719 9.99978 -2.61468 1 1 
28 1.20353 9.9998 -0.00166371 -0.00212681 9.9998 -2.64832 1 1 
30 1.20354 9.99917 -0.0017736 -0.00262478 9.99917 -2.64319 1 1 
32 1.20355 9.99871 -0.00175245 -0.00251633 9.99871 -2.61454 1 1 
32 1.20355 9.99871 -0.00175245 -0.00251633 9.99871 -2.61454 1 1 
34 1.20357 9.99888 -0.00187833 -0.00273518 9.99888 -2.58227 1 1 
36 1.20357 9.99971 -0.0020069 -0.00312173 9.99971 -2.57465 1 1 
38 1.20358 10.0001 -0.00202327 -0.00346534 10.0001 -2.57051 1 1 
40 1.20359 9.99947 -0.00213591 -0.00323655 9.99947 -2.55569 1 1 
42 1.20359 9.99874 -0.00234158 -0.00299552 9.99874 -2.53998 1 1 
44 1.20358 9.99858 -0.00238718 -0.00342828 9.99858 -2.56913 1 1 
46 1.20355 9.99869 -0.00246538 -0.00383852 9.99869 -2.62658 1 1 
48 1.20355 9.99867 -0.0026304 -0.00407758 9.99867 -2.62641 1 1 
50 1.20357 9.99864 -0.00268759 -0.00439272 9.99864 -2.5869 1 1 
52 1.20359 9.99888 -0.00271724 -0.00438489 9.99888 -2.53812 1 1 
54 1.20361 9.99931 -0.00291079 -0.00419849 9.99932 -2.51225 1 1 
56 1.20361 9.99945 -0.00300391 -0.00435411 9.99946 -2.51472 1 1 
58 1.2036 9.99902 -0.00292692 -0.00434555 9.99902 -2.52603 1 1 
60 1.20358 9.99863 -0.00309219 -0.00452278 9.99863 -2.55799 1 1 
62 1.20358 9.99801 -0.00336505 -0.00516883 9.99801 -2.55987 1 1 
64 1.20359 9.99756 -0.00334995 -0.00545876 9.99756 -2.55086 1 1 
64 1.20359 9.99756 -0.00334995 -0.00545876 9.99756 -2.55086 2 1 
66 1.20359 9.99781 -0.0033625 -0.00591993 9.99781 -2.54767 2 1 
68 1.20361 9.99791 -0.00364805 -0.00526549 9.99791 -2.50902 2 1 
70 1.20363 9.99798 -0.0037178 -0.0045301 9.99798 -2.47104 2 1 
72 1.20363 9.99856 -0.00358507 -0.00558822 9.99856 -2.46727 2 1 
74 1.20364 9.99828 -0.00374447 -0.00561609 9.99829 -2.46477 2 1 
76 1.20363 9.9976 -0.00406684 -0.00578666 9.9976 -2.47926 2 1 
78 1.20361 9.99702 -0.00409954 -0.00673519 9.99703 -2.50843 2 1 
80 1.20362 9.99636 -0.00412171 -0.00640257 9.99637 -2.49873 2 1 
82 1.20362 9.997 -0.00454022 -0.00711714 9.99701 -2.48607 2 1 
84 1.20363 9.99771 -0.00486135 -0.00711669 9.99771 -2.47509 2 1 
86 1.20364 9.99772 -0.00469111 -0.00725435 9.99772 -2.4513 2 1 
88 1.20366 9.99736 -0.00462915 -0.0077156 9.99736 -2.42888 2 1 
90 1.20366 9.99683 -0.00493324 -0.00644344 9.99684 -2.4209 2 1 
92 1.20364 9.99671 -0.00488254 -0.0059481 9.99671 -2.46282 2 1 
94 1.20362 9.99681 -0.00433772 -0.00677321 9.99681 -2.5002 2 1 
96 1.20362 9.99725 -0.00416981 -0.00728679 9.99726 -2.48911 2 1 
96 1.20362 9.99725 -0.00416981 -0.00728679 9.99726 -2.48911 2 1 
98 1.20363 9.99828 -0.00465587 -0.00758033 9.99828 -2.48072 2 1 
100 1.20365 9.99855 -0.00498986 -0.00781522 9.99856 -2.4373 2 1 
102 1.20368 9.99727 -0.00461865 -0.00807116 9.99727 -2.38682 2 1 
104 1.20366 9.99676 -0.00412862 -0.00846695 9.99676 -2.42156 2 1 
106 1.20364 9.99634 -0.00398081 -0.00792687 9.99635 -2.45813 2 1 
108 1.20363 9.99588 -0.00369947 -0.0068342 9.99588 -2.47044 2 1 
110 1.20363 9.99639 -0.00299204 -0.00631275 9.99639 -2.46984 2 1 
112 1.20365 9.99634 -0.00259846 -0.00585723 9.99634 -2.43369 2 1 
114 1.20366 9.9972 -0.00330324 -0.0060435 9.9972 -2.42401 2 1 
116 1.20366 9.99853 -0.00478042 -0.00619516 9.99853 -2.42865 2 1 
118 1.20367 9.99754 -0.00588889 -0.00654761 9.99755 -2.39848 2 1 
120 1.20366 9.99623 -0.00579148 -0.0074563 9.99624 -2.41483 2 1 
122 1.20364 9.9953 -0.00477809 -0.00841786 9.99531 -2.44833 2 1 
124 1.20367 9.9935 -0.00365517 -0.00890498 9.9935 -2.40878 2 1 
126 1.20365 9.99408 -0.00298697 -0.00802605 9.99409 -2.43935 2 1 
128 1.20364 9.99489 -0.00278129 -0.00667784 9.99489 -2.4631 2 1 
128 1.20364 9.99489 -0.00278129 -0.00667784 9.99489 -2.4631 10 1 
130 1.20368 9.99409 -0.00277833 -0.00571635 9.99409 -2.39283 10 1 
132 1.20368 9.99425 -0.00283152 -0.00536536 9.99425 -2.39028 10 1 
134 1.20366 9.99372 -0.00289378 -0.00596832 9.99372 -2.41532 10 1 
136 1.20367 9.99309 -0.00291724 -0.00655185 9.99309 -2.4043 10 1 
138 1.20368 9.99253 -0.00289033 -0.00656338 9.99253 -2.38545 10 1 
140 1.20367 9.99209 -0.00288026 -0.00628504 9.9921 -2.40814 10 1 
142 1.20367 9.99231 -0.00288472 -0.00520557 9.99231 -2.40233 10 1 
144 1.2037 9.99121 -0.00290171 -0.00557673 9.99122 -2.34365 10 1 
146 1.20368 9.99127 -0.00292874 -0.00598942 9.99127 -2.37576 10 1 
148 1.20368 9.9911 -0.00294378 -0.00625712 9.9911 -2.37632 10 1 
150 1.20373 9.98863 -0.0029404 -0.00627575 9.98863 -2.29644 10 1 
152 1.20371 9.98863 -0.00293507 -0.00575569 9.98863 -2.32919 10 1 
154 1.20369 9.98888 -0.00295202 -0.00556929 9.98888 -2.3734 10 1 
156 1.20373 9.9873 -0.00295111 -0.00609071 9.9873 -2.29568 10 1 
158 1.20373 9.98771 -0.00294055 -0.00642299 9.98771 -2.28989 10 1 
160 1.20372 9.98717 -0.00296106 -0.00710216 9.98718 -2.31044 10 1 
160 1.20372 9.98717 -0.00296106 -0.00710216 9.98718 -2.31044 10 1 
162 1.20376 9.98487 -0.00298678 -0.00686401 9.98487 -2.23822 10 1 
164 1.20375 9.98494 -0.00299643 -0.00578161 9.98494 -2.24982 10 1 
166 1.20375 9.98362 -0.00300707 -0.00604303 9.98363 -2.25309 10 1 
168 1.20376 9.98206 -0.00298422 -0.00607613 9.98207 -2.24637 10 1 
170 1.20375 9.98218 -0.00298616 -0.00637741 9.98218 -2.25538 10 1 
172 1.2038 9.97984 -0.00297334 -0.00671843 9.97984 -2.17376 10 1 
174 1.20379 9.9793 -0.00298493 -0.00602018 9.9793 -2.18141 10 1 
176 1.2038 9.97875 -0.00300618 -0.00603944 9.97876 -2.17298 10 1 
178 1.20384 9.9762 -0.00301289 -0.00642979 9.97621 -2.10049 10 1 
180 1.20381 9.9753 -0.00303772 -0.00671961 9.97531 -2.15744 10 1 
182 1.20381 9.97381 -0.00301038 -0.00685966 9.97382 -2.15456 10 1 
184 1.20387 9.97175 -0.00299232 -0.00585469 9.97176 -2.0449 10 1 
186 1.20387 9.97088 -0.00298303 -0.00529404 9.97088 -2.04186 10 1 
188 1.20386 9.96956 -0.00299569 -0.00547795 9.96956 -2.06788 10 1 
190 1.2039 9.96644 -0.00298996 -0.00642012 9.96644 -1.9922 10 1 
192 1.20392 9.96292 -0.00306887 -0.00684907 9.96292 -1.94844 10 1 
194 1.20389 9.96064 -0.0030565 -0.00742788 9.96065 -1.99939 10 1 
196 1.20392 9.95941 -0.00301025 -0.00752858 9.95942 -1.95388 10 1 
198 1.20398 9.95798 -0.00307262 -0.00592228 9.95799 -1.84284 10 1 
200 1.20399 9.95622 -0.00308056 -0.00557798 9.95622 -1.82667 10 1 
202 1.204 9.95321 -0.00305579 -0.0052223 9.95321 -1.81494 10 1 
204 1.20404 9.94857 -0.00308296 -0.00471953 9.94858 -1.73799 10 1 
206 1.20405 9.94404 -0.00306727 -0.00625627 9.94405 -1.72345 10 1 
208 1.20402 9.94115 -0.0029913 -0.00594856 9.94115 -1.77488 10 1 
210 1.20409 9.93696 -0.00306234 -0.00606921 9.93696 -1.63871 10 1 
212 1.20418 9.93167 -0.00314052 -0.00745778 9.93167 -1.47525 10 1 
214 1.20415 9.92927 -0.00321322 -0.00553028 9.92928 -1.53968 10 1 
216 1.20418 9.9253 -0.00324968 -0.00509407 9.9253 -1.4896 10 1 
218 1.20425 9.91951 -0.00319496 -0.00517467 9.91951 -1.34955 10 1 
220 1.20424 9.91468 -0.00313352 -0.00338774 9.91469 -1.37412 10 1 
222 1.20429 9.9075 -0.00310688 -0.00587815 9.90751 -1.28043 10 1 
224 1.20439 9.89972 -0.003167 -0.00646185 9.89972 -1.09419 10 1 
224 1.20439 9.89972 -0.003167 -0.00646185 9.89972 -1.09419 10 1 
226 1.20443 9.89285 -0.00326367 -0.00300722 9.89285 -1.02906 10 1 
228 1.20443 9.88486 -0.00334282 -0.00473345 9.88487 -1.02499 10 1 
230 1.20448 9.87803 -0.00339859 -0.00364393 9.87803 -0.943544 10 1 
232 1.20461 9.8686 -0.00343163 -0.00423866 9.86861 -0.698997 10 1 
234 1.20464 9.85883 -0.00338414 -0.00560672 9.85883 -0.644223 10 1 
236 1.20467 9.84984 -0.00337724 -0.00143066 9.84984 -0.597754 10 1 
238 1.20485 9.83548 -0.00348347 -0.00120803 9.83548 -0.27413 10 1 
240 1.20489 9.82265 -0.00352241 -0.00113963 9.82266 -0.198482 10 1 
242 1.20491 9.81008 -0.00365337 -0.00110405 9.81009 -0.158811 10 1 
244 1.2051 9.79388 -0.0036619 -0.00239931 9.79388 0.183247 10 1 
246 1.20523 9.77806 -0.00353684 0.000670106 9.77806 0.417344 10 1 
248 1.20527 9.76056 -0.00369354 0.00295985 9.76057 0.488026 10 1 
250 1.20542 9.7402 -0.0038742 0.0038561 9.74021 0.757499 10 1 
252 1.20566 9.71646 -0.00391716 0.00612676 9.71647 1.19437 10 1 
254 1.20576 9.69033 -0.00395535 0.00758077 9.69034 1.36952 10 1 
256 1.20585 9.66525 -0.00399141 0.00776179 9.66525 1.53542 10 1 
256 1.20585 9.66525 -0.00399141 0.00776179 9.66525 1.53542 11 1 
258 1.20616 9.63534 -0.0040275 0.013046 9.63536 2.09515 11 1 
260 1.20642 9.59865 -0.00416801 0.0168846 9.59867 2.56778 11 1 
262 1.20652 9.56414 -0.00425933 0.0219382 9.56418 2.75385 11 1 
264 1.20687 9.52228 -0.00426762 0.0263749 9.52233 3.38268 11 1 
266 1.20735 9.46799 -0.00442872 0.0319224 9.46806 4.24632 11 1 
268 1.20743 9.41928 -0.00453868 0.0427255 9.4194 4.39555 11 1 
270 1.20778 9.35982 -0.00455575 0.052336 9.36 5.02463 11 1 
272 1.20854 9.28079 -0.00466252 0.0655524 9.28106 6.38878 11 1 
274 1.20883 9.20804 -0.00475844 0.0813411 9.20845 6.91533 11 1 
276 1.20923 9.12352 -0.00485995 0.0983969 9.1241 7.64912 11 1 
278 1.21013 9.01859 -0.004954 0.125097 9.01954 9.26429 11 1 
280 1.21076 8.91103 -0.00503915 0.160203 8.91259 10.4118 11 1 
282 1.21135 8.77798 -0.00509795 0.200477 8.78045 11.4755 11 1 
284 1.21221 8.63194 -0.00515363 0.24465 8.63557 13.0251 11 1 
286 1.21327 8.47781 -0.0052284 0.300986 8.48346 14.9326 11 1 
288 1.21428 8.29821 -0.00528842 0.402625 8.30852 16.7531 11 1 
288 1.21428 8.29821 -0.00528842 0.402625 8.30852 16.7531 11 1 
290 1.21496 8.11219 -0.00535723 0.489443 8.12724 17.9936 11 1 
292 1.21636 7.88148 -0.00539766 0.568797 7.90318 20.5234 11 1 
294 1.21789 7.60582 -0.00539684 0.777162 7.64818 23.2744 11 1 
296 1.21673 7.22316 -0.00535266 0.865313 7.27671 21.179 11 1 
298 1.21169 6.63308 -0.00531057 0.42096 6.66093 12.0894 11 1 
300 1.20423 6.02729 -0.00535036 -0.537527 6.08616 -1.39505 11 1 
302 1.19781 5.61352 -0.00543262 -1.24173 5.75427 -12.99 11 1 
304 1.19493 5.34604 -0.00549084 -1.22694 5.48726 -18.1917 11 1 
306 1.19462 5.12014 -0.00553431 -0.965973 5.21199 -18.7506 11 1 
308 1.1953 4.93697 -0.0055655 -0.783591 4.99938 -17.5234 11 1 
310 1.19645 4.81214 -0.00560587 -0.661992 4.858 -15.4462 11 1 
312 1.1972 4.69402 -0.00567325 -0.557044 4.7274 -14.0947 11 1 
314 1.19739 4.55462 -0.00573646 -0.462788 4.57855 -13.7487 11 1 
316 1.19789 4.4156 -0.00574314 -0.378951 4.43226 -12.8431 11 1 
318 1.19861 4.29807 -0.00572265 -0.312517 4.30974 -11.5423 11 1 
320 1.19889 4.18877 -0.00575884 -0.25442 4.19674 -11.0352 11 1 
320 1.19889 4.18877 -0.00575884 -0.25442 4.19674 -11.0352 15 1 
322 1.19906 4.07659 -0.00580403 -0.204968 4.08198 -10.7306 15 1 
324 1.19954 3.9729 -0.00585833 -0.173446 3.97688 -9.87045 15 1 
326 1.1999 3.88182 -0.00595755 -0.149646 3.88486 -9.20683 15 1 
328 1.2 3.79262 -0.00603814 -0.127187 3.79488 -9.03572 15 1 
330 1.2002 3.70705 -0.00608007 -0.109638 3.70879 -8.67175 15 1 
332 1.20055 3.63598 -0.00613664 -0.0918217 3.63725 -8.04353 15 1 
334 1.20073 3.56831 -0.00621668 -0.0767471 3.56924 -7.71144 15 1 
336 1.20077 3.4949 -0.00630391 -0.0647172 3.49559 -7.63199 15 1 
338 1.20097 3.43111 -0.00640009 -0.0535599 3.43159 -7.28796 15 1 
340 1.20122 3.38177 -0.00649782 -0.0448223 3.38213 -6.82445 15 1 
342 1.20132 3.33242 -0.00661177 -0.038687 3.33272 -6.64821 15 1 
344 1.20137 3.27774 -0.00674038 -0.0334132 3.27798 -6.56559 15 1 
346 1.20151 3.2273 -0.00686872 -0.029635 3.22748 -6.30878 15 1 
348 1.20167 3.18891 -0.00700397 -0.0278104 3.18908 -6.01502 15 1 
350 1.20176 3.15458 -0.00717252 -0.0232163 3.15472 -5.85845 15 1 
352 1.20184 3.11602 -0.00737768 -0.0189288 3.11613 -5.70884 15 1 
354 1.20197 3.0811 -0.00753504 -0.0192152 3.08119 -5.47332 15 1 
356 1.20205 3.05138 -0.00764751 -0.0186816 3.05147 -5.32393 15 1 
358 1.2021 3.02179 -0.00779717 -0.0149409 3.02187 -5.23971 15 1 
360 1.20221 2.99577 -0.00797813 -0.0116142 2.99583 -5.04579 15 1 
362 1.20232 2.97249 -0.00814081 -0.00784668 2.97253 -4.83345 15 1 
364 1.20239 2.94973 -0.00821596 -0.0055539 2.94976 -4.72016 15 1 
366 1.20244 2.93028 -0.00819874 -0.0113486 2.93032 -4.61525 15 1 
368 1.20254 2.91155 -0.00819065 -0.0178309 2.91162 -4.45195 15 1 
370 1.20261 2.88846 -0.00813055 -0.018944 2.88855 -4.31445 15 1 
372 1.20265 2.86626 -0.00772422 -0.0366798 2.86663 -4.25047 15 1 
374 1.20271 2.8581 -0.00683628 -0.0953148 2.86031 -4.14494 15 1 
376 1.20279 2.85687 -0.00574971 -0.179806 2.86347 -3.99003 15 1 
378 1.20281 2.82485 -0.00495376 -0.241148 2.83584 -3.94981 15 1 
380 1.20278 2.73066 -0.00479176 -0.23834 2.74166 -4.01574 15 1 
382 1.20276 2.57888 -0.00536189 -0.167833 2.58539 -4.04075 15 1 
384 1.20278 2.40152 -0.00662587 -0.0573251 2.40379 -4.00902 15 1 
384 1.20278 2.40152 -0.00662587 -0.0573251 2.40379 -4.00902 16 1 
386 1.20279 2.23563 -0.00844103 0.0600299 2.23827 -3.99674 16 1 
388 1.20279 2.10678 -0.0105456 0.163515 2.11495 -3.99098 16 1 
390 1.20283 2.02431 -0.0126831 0.245981 2.04104 -3.9135 16 1 
392 1.20291 1.98563 -0.0147106 0.309269 2.01161 -3.78192 16 1 
394 1.20298 1.98336 -0.0165714 0.357614 2.01787 -3.64197 16 1 
396 1.20308 2.01004 -0.0182564 0.394216 2.05156 -3.46756 16 1 
398 1.20319 2.05798 -0.0197442 0.421759 2.1048 -3.26184 16 1 
400 1.2033 2.12055 -0.0209794 0.443048 2.17117 -3.06621 16 1 
402 1.2034 2.19431 -0.0219547 0.459911 2.24746 -2.88553 16 1 
404 1.20351 2.27802 -0.0227204 0.472764 2.33252 -2.69347 16 1 
406 1.20363 2.37097 -0.0233186 0.481973 2.42581 -2.47614 16 1 
408 1.20376 2.47244 -0.0237828 0.488718 2.5269 -2.24586 16 1 
410 1.20389 2.58263 -0.0241704 0.493785 2.63618 -2.00511 16 1 
412 1.20403 2.7022 -0.0245141 0.497205 2.7544 -1.75692 16 1 
414 1.20416 2.83079 -0.0247991 0.499151 2.88133 -1.51744 16 1 
416 1.2043 2.96798 -0.0250153 0.500461 3.01673 -1.26917 16 1 
416 1.2043 2.96798 -0.0250153 0.500461 3.01673 -1.26917 16 1 
418 1.20445 3.11378 -0.0251758 0.502094 3.1608 -0.999172 16 1 
420 1.20458 3.26733 -0.0252889 0.504465 3.31276 -0.756621 16 1 
422 1.20468 3.42737 -0.0253569 0.507684 3.47138 -0.576404 16 1 
424 1.20478 3.59364 -0.0253741 0.511887 3.63641 -0.396784 16 1 
426 1.20492 3.76626 -0.0253418 0.517138 3.80795 -0.141796 16 1 
428 1.20508 3.94392 -0.0252799 0.523568 3.98471 0.146129 16 1 
430 1.2052 4.12446 -0.0252004 0.531262 4.16456 0.368051 16 1 
432 1.20528 4.307 -0.0251171 0.540091 4.34659 0.511404 16 1 
434 1.20535 4.49184 -0.0250261 0.549821 4.53103 0.63424 16 1 
436 1.20543 4.67902 -0.0248954 0.560292 4.71792 0.77369 16 1 
438 1.20551 4.86791 -0.0247065 0.571449 4.90661 0.917918 16 1 
440 1.20558 5.05743 -0.0244623 0.583236 5.09601 1.03951 16 1 
442 1.20562 5.24665 -0.0241962 0.595454 5.28518 1.12844 16 1 
444 1.20566 5.43521 -0.0239337 0.607768 5.47372 1.19038 16 1 
446 1.20569 5.62312 -0.0236745 0.619936 5.66159 1.24067 16 1 
448 1.20571 5.81034 -0.0234012 0.631911 5.84877 1.29051 16 1 
448 1.20571 5.81034 -0.0234012 0.631911 5.84877 1.29051 17 1 
450 1.20573 5.99653 -0.0230742 0.6434 6.03488 1.32733 17 1 
452 1.20574 6.18121 -0.0226803 0.653925 6.21939 1.33338 17 1 
454 1.20573 6.36406 -0.0222521 0.663282 6.40196 1.32099 17 1 
456 1.20573 6.54482 -0.0218249 0.6715 6.58234 1.314 17 1 
458 1.20572 6.72302 -0.0213949 0.678635 6.76008 1.29914 17 1 
460 1.20569 6.8982 -0.0209403 0.684575 6.93472 1.24724 17 1 
462 1.20565 7.07023 -0.0204151 0.688837 7.10608 1.16762 17 1 
464 1.20561 7.23895 -0.0197994 0.690909 7.27395 1.09743 17 1 
466 1.20558 7.40381 -0.0191404 0.690598 7.43781 1.05275 17 1 
468 1.20556 7.56429 -0.0184897 0.687638 7.59711 1.01191 17 1 
470 1.20552 7.71967 -0.0178596 0.681647 7.75111 0.94113 17 1 
472 1.20546 7.86898 -0.017229 0.672398 7.89885 0.827408 17 1 
474 1.20539 8.01204 -0.0165965 0.659487 8.04014 0.695732 17 1 
476 1.20533 8.14928 -0.0159467 0.642679 8.17543 0.587437 17 1 
478 1.20529 8.28096 -0.0152807 0.622215 8.305 0.516386 17 1 
480 1.20525 8.40672 -0.014636 0.598036 8.42854 0.458227 17 1 
480 1.20525 8.40672 -0.014636 0.598036 8.42854 0.458227 17 1 
482 1.20521 8.52559 -0.0140221 0.569735 8.54508 0.379666 17 1 
484 1.20515 8.63715 -0.0134318 0.53736 8.65423 0.271381 17 1 
486 1.20509 8.74213 -0.0129019 0.501336 8.75681 0.155668 17 1 
488 1.20503 8.84132 -0.0124544 0.462344 8.85367 0.0579565 17 1 
490 1.20499 8.93514 -0.0120513 0.420967 8.94527 -0.0198019 17 1 
492 1.20495 9.02395 -0.0116755 0.377804 9.03204 -0.084087 17 1 
494 1.20492 9.10786 -0.011332 0.333923 9.11413 -0.142768 17 1 
496 1.20488 9.18708 -0.0110086 0.290242 9.19179 -0.209166 17 1 
498 1.20484 9.26186 -0.0107208 0.247561 9.26528 -0.289338 17 1 
500 1.2048 9.33269 -0.010477 0.206364 9.33507 -0.366782 17 1 
502 1.20477 9.39994 -0.0102518 0.167592 9.40151 -0.408497 17 1 
504 1.20476 9.4632 -0.0100143 0.131988 9.46419 -0.431521 17 1 
506 1.20472 9.52228 -0.00975216 0.099899 9.52286 -0.502335 17 1 
508 1.20467 9.57667 -0.00947176 0.0720213 9.57698 -0.599665 17 1 
510 1.20465 9.62531 -0.00921692 0.0487257 9.62547 -0.640183 17 1 
512 1.20464 9.66858 -0.00902861 0.030487 9.66865 -0.64559 17 1 
512 1.20464 9.66858 -0.00902861 0.030487 9.66865 -0.64559 25 1 
514 1.20463 9.70736 -0.00884794 0.0170984 9.70739 -0.667341 25 1 
516 1.20464 9.74063 -0.00866576 0.0083253 9.74065 -0.656912 25 1 
518 1.20466 9.76741 -0.00854118 0.00328283 9.76742 -0.616442 25 1 
520 1.20463 9.78866 -0.00845041 0.000395745 9.78867 -0.666677 25 1 
522 1.20456 9.8058 -0.00835132 -0.00145419 9.80581 -0.788865 25 1 
524 1.20454 9.81948 -0.0082717 -0.00256401 9.81948 -0.824193 25 1 
526 1.20457 9.83124 -0.00827036 -0.00347614 9.83125 -0.779965 25 1 
528 1.20459 9.84293 -0.00829724 -0.00445648 9.84293 -0.746343 25 1 
530 1.20461 9.85335 -0.00827283 -0.00515241 9.85336 -0.702999 25 1 
532 1.20463 9.86176 -0.00822461 -0.00542756 9.86176 -0.664604 25 1 
534 1.20462 9.86982 -0.00814472 -0.00575362 9.86982 -0.684504 25 1 
536 1.20461 9.87758 -0.00802874 -0.00630872 9.87759 -0.705352 25 1 
538 1.20462 9.88484 -0.00794234 -0.00683507 9.88484 -0.688563 25 1 
540 1.20463 9.89252 -0.00793669 -0.00748904 9.89253 -0.667879 25 1 
542 1.20466 9.8999 -0.00799027 -0.0080037 9.89991 -0.616958 25 1 
544 1.2047 9.90685 -0.00806626 -0.00836858 9.90685 -0.548232 25 1 
544 1.2047 9.90685 -0.00806626 -0.00836858 9.90685 -0.548232 25 1 
546 1.2047 9.91365 -0.00811665 -0.00832372 9.91365 -0.544493 25 1 
548 1.20469 9.91896 -0.00811317 -0.0083422 9.91897 -0.551972 25 1 
550 1.20471 9.92338 -0.0080668 -0.00875549 9.92339 -0.518018 25 1 
552 1.20471 9.92866 -0.0080164 -0.00913421 9.92866 -0.516277 25 1 
554 1.20474 9.93388 -0.00799754 -0.00951926 9.93389 -0.477539 25 1 
556 1.2048 9.93834 -0.0079978 -0.0095823 9.93835 -0.369885 25 1 
558 1.20481 9.94273 -0.00798917 -0.00923811 9.94273 -0.343839 25 1 
560 1.20481 9.9463 -0.00797725 -0.00879796 9.94631 -0.348762 25 1 
562 1.20484 9.9489 -0.00797409 -0.00861079 9.94891 -0.295378 25 1 
564 1.20485 9.95219 -0.00796725 -0.0087681 9.95219 -0.277609 25 1 
566 1.20487 9.956 -0.00796963 -0.00879539 9.95601 -0.237441 25 1 
568 1.20494 9.95936 -0.00798977 -0.00874415 9.95937 -0.114381 25 1 
570 1.20498 9.96302 -0.00800811 -0.00847307 9.96303 -0.0384567 25 1 
572 1.205 9.96648 -0.00799795 -0.00800501 9.96649 0.0057848 25 1 
574 1.20504 9.96887 -0.00795852 -0.0079071 9.96888 0.0645655 25 1 
576 1.20504 9.97136 -0.00789371 -0.00799578 9.97136 0.0812208 25 1 
576 1.20504 9.97136 -0.00789371 -0.00799578 9.97136 0.0812208 26 1 
578 1.20507 9.974 -0.0077882 -0.00804156 9.97401 0.129002 26 1 
580 1.20514 9.97721 -0.00766622 -0.00775706 9.97722 0.245861 26 1 
582 1.20521 9.98211 -0.00760693 -0.00732207 9.98212 0.385864 26 1 
584 1.20533 9.98744 -0.00764147 -0.00727595 9.98745 0.5961 26 1 
586 1.20546 9.99259 -0.00774415 -0.00706125 9.99259 0.828266 26 1 
588 1.20555 9.99743 -0.00785386 -0.00693527 9.99744 0.990073 26 1 
590 1.20561 10.0005 -0.00791979 -0.00683463 10.0005 1.10011 26 1 
592 1.20563 10.0022 -0.00791155 -0.00676749 10.0022 1.13945 26 1 
594 1.20564 10.0044 -0.00783591 -0.00676872 10.0044 1.15452 26 1 
596 1.20569 10.0072 -0.00778219 -0.00686955 10.0072 1.25239 26 1 
598 1.20578 10.0108 -0.00782072 -0.00724598 10.0108 1.41748 26 1 
600 1.20589 10.0153 -0.00793953 -0.0073964 10.0153 1.60542 26 1 
602 1.20599 10.0203 -0.00809043 -0.00717688 10.0203 1.79517 26 1 
604 1.2061 10.0251 -0.00817937 -0.00664443 10.0251 1.99234 26 1 
606 1.20623 10.0297 -0.00817685 -0.006404 10.0297 2.2172 26 1 
608 1.20634 10.0345 -0.00817869 -0.00668942 10.0345 2.41776 26 1 
608 1.20634 10.0345 -0.00817869 -0.00668942 10.0345 2.41776 26 1 
610 1.20643 10.0389 -0.00822844 -0.00731507 10.0389 2.58636 26 1 
612 1.20652 10.0423 -0.00826367 -0.00761959 10.0423 2.75065 26 1 
614 1.2066 10.0462 -0.0082334 -0.00746533 10.0462 2.89504 26 1 
616 1.20671 10.0509 -0.00816527 -0.00712951 10.0509 3.09089 26 1 
618 1.20685 10.0559 -0.00809964 -0.00723102 10.0559 3.34167 26 1 
620 1.20698 10.061 -0.00804803 -0.00764026 10.061 3.58304 26 1 
622 1.20711 10.0656 -0.0079906 -0.00786962 10.0656 3.81337 26 1 
624 1.20719 10.0695 -0.00792596 -0.00759384 10.0695 3.96164 26 1 
626 1.20724 10.0723 -0.00784137 -0.00700268 10.0723 4.05261 26 1 
628 1.20731 10.0741 -0.00769422 -0.00660597 10.0741 4.16772 26 1 
630 1.20735 10.076 -0.00748097 -0.00660213 10.076 4.24906 26 1 
632 1.20738 10.0775 -0.00722514 -0.00685411 10.0775 4.30355 26 1 
634 1.2074 10.0783 -0.00694125 -0.00658012 10.0783 4.34056 26 1 
636 1.2074 10.0793 -0.00666815 -0.00593729 10.0793 4.34005 26 1 
638 1.20742 10.0801 -0.00644399 -0.00557632 10.0801 4.37014 26 1 
640 1.20744 10.0805 -0.00627445 -0.0056806 10.0805 4.41181 26 1 
642 1.20743 10.0798 -0.00612359 -0.00590631 10.0798 4.38214 26 1 
644 1.20735 10.0774 -0.00597822 -0.00559328 10.0774 4.24598 26 1 
646 1.20721 10.0735 -0.00589041 -0.00493805 10.0735 4.00042 26 1 
648 1.20706 10.0682 -0.00586929 -0.00448163 10.0682 3.71803 26 1 
650 1.20689 10.0622 -0.00587373 -0.00460696 10.0622 3.42021 26 1 
652 1.20669 10.0553 -0.00588495 -0.00494666 10.0553 3.05865 26 1 
654 1.20647 10.0476 -0.00587629 -0.00479349 10.0476 2.6546 26 1 
656 1.20623 10.04 -0.00583646 -0.00448352 10.04 2.22493 26 1 
658 1.20601 10.0331 -0.00583392 -0.00411148 10.0331 1.8282 26 1 
660 1.20585 10.0271 -0.0058563 -0.00417608 10.0271 1.52856 26 1 
662 1.2057 10.0219 -0.00583469 -0.00461596 10.0219 1.26645 26 1 
664 1.20556 10.0175 -0.00577037 -0.00479961 10.0175 1.01476 26 1 
666 1.20544 10.0138 -0.00571311 -0.00458752 10.0138 0.799685 26 1 
668 1.20534 10.0108 -0.00568968 -0.00431491 10.0108 0.621492 26 1 
670 1.20528 10.009 -0.00567017 -0.00419958 10.009 0.505934 26 1 
672 1.20525 10.0078 -0.00562642 -0.00435274 10.0078 0.453389 26 1 
672 1.20525 10.0078 -0.00562642 -0.00435274 10.0078 0.453389 27 1 
674 1.20523 10.0073 -0.00555369 -0.00449574 10.0073 0.410297 27 1 
676 1.2052 10.0068 -0.00547731 -0.00451673 10.0068 0.355417 27 1 
678 1.20516 10.0059 -0.00543191 -0.00437245 10.0059 0.289059 27 1 
680 1.20514 10.0057 -0.00541789 -0.00408414 10.0057 0.25029 27 1 
682 1.20515 10.0061 -0.00538082 -0.00402398 10.0061 0.278021 27 1 
684 1.20517 10.0065 -0.00530026 -0.00428986 10.0065 0.310853 27 1 
686 1.20516 10.0067 -0.00522605 -0.00424819 10.0067 0.283708 27 1 
688 1.20512 10.0065 -0.00518432 -0.00395797 10.0065 0.217973 27 1 
690 1.20511 10.0063 -0.00516734 -0.00366624 10.0063 0.193255 27 1 
692 1.20514 10.0068 -0.00513589 -0.00362303 10.0068 0.245665 27 1 
694 1.20517 10.0074 -0.00506664 -0.00394976 10.0074 0.304416 27 1 
696 1.20516 10.008 -0.00498309 -0.00402455 10.008 0.297319 27 1 
698 1.20513 10.0076 -0.00491563 -0.00381348 10.0076 0.243686 27 1 
700 1.20511 10.0071 -0.00490161 -0.00333201 10.0071 0.197548 27 1 
702 1.20511 10.0075 -0.00491199 -0.00295985 10.0075 0.205344 27 1 
704 1.20515 10.0081 -0.00485861 -0.00330684 10.0081 0.264331 27 1 
704 1.20515 10.0081 -0.00485861 -0.00330684 10.0081 0.264331 31 1 
706 1.20516 10.0082 -0.00475323 -0.00373271 10.0082 0.295814 31 1 
708 1.20514 10.0079 -0.00465035 -0.00364007 10.0079 0.260229 31 1 
710 1.20512 10.008 -0.00460967 -0.00301791 10.008 0.207662 31 1 
712 1.20512 10.0082 -0.00463917 -0.00242659 10.0082 0.209504 31 1 
714 1.20515 10.0083 -0.00463344 -0.00278373 10.0083 0.261831 31 1 
716 1.20516 10.0088 -0.00455615 -0.00327608 10.0088 0.296441 31 1 
718 1.20515 10.0087 -0.00444345 -0.00324302 10.0088 0.268602 31 1 
720 1.20511 10.0081 -0.00436496 -0.00256815 10.0081 0.2051 31 1 
722 1.2051 10.0077 -0.00434293 -0.00191817 10.0077 0.188153 31 1 
724 1.20513 10.0081 -0.00432644 -0.00205288 10.0081 0.23566 31 1 
726 1.20516 10.0093 -0.00429749 -0.00271617 10.0093 0.288612 31 1 
728 1.20516 10.0095 -0.00423849 -0.00298152 10.0095 0.292945 31 1 
730 1.20513 10.0084 -0.00416388 -0.00240243 10.0084 0.232208 31 1 
732 1.2051 10.0079 -0.00411484 -0.0017112 10.0079 0.175884 31 1 
734 1.20512 10.0085 -0.00407121 -0.00152045 10.0085 0.208426 31 1 
736 1.20516 10.0098 -0.00401852 -0.00192937 10.0098 0.284148 31 1 
738 1.20516 10.0101 -0.00396277 -0.00197785 10.0101 0.283094 31 1 
740 1.20511 10.0086 -0.00392633 -0.00157499 10.0086 0.201946 31 1 
742 1.20509 10.0075 -0.00389601 -0.00138173 10.0075 0.161136 31 1 
744 1.20512 10.0078 -0.00384012 -0.00147031 10.0078 0.207816 31 1 
746 1.20516 10.0094 -0.00377651 -0.00156887 10.0094 0.287291 31 1 
748 1.20517 10.0099 -0.00371482 -0.001307 10.0099 0.299468 31 1 
750 1.20512 10.009 -0.00367383 -0.000837471 10.009 0.224142 31 1 
752 1.20509 10.0084 -0.0036641 -0.000610921 10.0084 0.158366 31 1 
752 1.20509 10.0084 -0.0036641 -0.000610921 10.0084 0.158366 31 1 
754 1.2051 10.0076 -0.00362291 -0.000641419 10.0076 0.174763 31 1 
756 1.20514 10.0085 -0.00354987 -0.00068613 10.0085 0.248136 31 1 
758 1.20515 10.0095 -0.00350065 -0.000668206 10.0095 0.270358 31 1 
760 1.20514 10.0099 -0.00344038 -0.000706687 10.0099 0.247187 31 1 
762 1.20512 10.0094 -0.0034045 -0.000415623 10.0094 0.22445 31 1 
764 1.20511 10.0082 -0.00339565 -0.000258241 10.0082 0.191972 31 1 
766 1.20511 10.0086 -0.00334955 2.49436e-05 10.0086 0.205021 31 1 
768 1.20515 10.0085 -0.00327537 0.000205412 10.0085 0.267302 31 1 
770 1.20516 10.0086 -0.00320278 8.37909e-05 10.0086 0.284104 31 1 
772 1.20512 10.0087 -0.00318325 0.000284006 10.0087 0.219648 31 1 
774 1.2051 10.0081 -0.00317928 0.000622725 10.0081 0.172791 31 1 
776 1.20511 10.0086 -0.00314998 0.000673008 10.0086 0.195276 31 1 
778 1.20513 10.0095 -0.00308264 0.000507263 10.0095 0.236828 31 1 
780 1.20516 10.0103 -0.00299069 0.000455566 10.0103 0.288618 31 1 
782 1.20517 10.0097 -0.00294758 0.000719526 10.0097 0.30047 31 1 
784 1.20513 10.0081 -0.00294397 0.00110938 10.0081 0.241446 31 1 
786 1.2051 10.0075 -0.00294047 0.00151851 10.0075 0.177134 31 1 
788 1.20509 10.0075 -0.00290456 0.00147998 10.0075 0.17093 31 1 
790 1.20513 10.0092 -0.00283019 0.00130224 10.0092 0.239049 31 1 
792 1.20516 10.0102 -0.0027641 0.00128349 10.0102 0.294739 31 1 
794 1.20516 10.0096 -0.00271615 0.00136147 10.0096 0.282058 31 1 
796 1.20513 10.0092 -0.00268608 0.00169063 10.0092 0.226582 31 1 
798 1.20512 10.0088 -0.00268897 0.00211785 10.0088 0.209493 31 1 
800 1.20513 10.0084 -0.00269719 0.00268827 10.0084 0.228146 31 1 
