92.376;r ;Density                 ;Velocity u              ;Velocity v              ;Velocity w              ;|Velocity|              ;Pressure                ;Distribution            ;Levels                  ;
0 1.22077 9.9996 -8.68839e-05 -0.000641552 9.9996 28.4896 1 1 
2 1.22078 9.99901 -0.000241663 -0.000740996 9.99901 28.4942 1 1 
4 1.22077 9.99828 -0.000498304 -0.000492488 9.99828 28.4928 1 1 
6 1.22077 9.99814 -0.00075638 -0.000674209 9.99814 28.4911 1 1 
8 1.22079 9.99765 -0.000986636 -0.00080965 9.99765 28.5119 1 1 
10 1.22079 9.99725 -0.0012048 -0.00117532 9.99725 28.5134 1 1 
12 1.22078 9.99649 -0.00146346 -0.00150954 9.99649 28.5103 1 1 
14 1.22079 9.99536 -0.00172327 -0.00182218 9.99536 28.5199 1 1 
16 1.22079 9.99547 -0.0019582 -0.00199984 9.99547 28.5139 1 1 
18 1.2208 9.99566 -0.00218328 -0.00220109 9.99566 28.5332 1 1 
20 1.22081 9.9952 -0.00241577 -0.00252627 9.9952 28.5512 1 1 
22 1.2208 9.99455 -0.00263285 -0.00282942 9.99455 28.54 1 1 
24 1.2208 9.99396 -0.0028683 -0.00326859 9.99397 28.5397 1 1 
26 1.22081 9.99391 -0.00309646 -0.00357498 9.99391 28.5576 1 1 
28 1.22082 9.99365 -0.0033487 -0.00394044 9.99365 28.5734 1 1 
30 1.22082 9.99294 -0.0036091 -0.00440433 9.99294 28.5728 1 1 
32 1.22082 9.99248 -0.00385027 -0.00483339 9.99248 28.5701 1 1 
32 1.22082 9.99248 -0.00385027 -0.00483339 9.99248 28.5701 1 1 
34 1.22082 9.99235 -0.00409526 -0.00517307 9.99236 28.5821 1 1 
36 1.22083 9.992 -0.00433361 -0.00560495 9.992 28.6012 1 1 
38 1.22084 9.99123 -0.00458504 -0.00589419 9.99124 28.6031 1 1 
40 1.22083 9.99039 -0.00481043 -0.00629674 9.99039 28.6001 1 1 
42 1.22084 9.98981 -0.0050341 -0.00653348 9.98981 28.6156 1 1 
44 1.22085 9.98966 -0.00527528 -0.00677174 9.98967 28.6239 1 1 
46 1.22085 9.98924 -0.00553442 -0.00707414 9.98924 28.626 1 1 
48 1.22086 9.98825 -0.00574736 -0.00717469 9.98826 28.6383 1 1 
50 1.22086 9.98774 -0.00597678 -0.00765066 9.98775 28.6422 1 1 
52 1.22086 9.98758 -0.00622962 -0.00790009 9.98759 28.6536 1 1 
54 1.22087 9.98708 -0.00647347 -0.00801553 9.98709 28.6629 1 1 
56 1.22087 9.98629 -0.0067167 -0.00836098 9.98629 28.6659 1 1 
58 1.22088 9.9856 -0.00691472 -0.00842684 9.98561 28.677 1 1 
60 1.22088 9.98544 -0.00712655 -0.00892551 9.98545 28.6829 1 1 
62 1.22089 9.98498 -0.0073709 -0.00954807 9.98498 28.6991 1 1 
64 1.22089 9.98425 -0.00762523 -0.00955324 9.98426 28.6999 1 1 
64 1.22089 9.98425 -0.00762523 -0.00955324 9.98426 28.6999 2 1 
66 1.22089 9.98377 -0.00786907 -0.0101094 9.98378 28.6973 2 1 
68 1.2209 9.98321 -0.0081272 -0.0101135 9.98322 28.7201 2 1 
70 1.22091 9.98258 -0.00836309 -0.00980921 9.98259 28.7333 2 1 
72 1.2209 9.98251 -0.00861211 -0.0105788 9.98252 28.725 2 1 
74 1.22091 9.98213 -0.00884791 -0.0106976 9.98214 28.7409 2 1 
76 1.22092 9.98166 -0.00904545 -0.0111576 9.98167 28.7561 2 1 
78 1.22092 9.98121 -0.0092713 -0.0120122 9.98122 28.7549 2 1 
80 1.22093 9.98005 -0.00950969 -0.0117074 9.98006 28.7685 2 1 
82 1.22093 9.97961 -0.00974391 -0.0123579 9.97963 28.7746 2 1 
84 1.22094 9.97932 -0.00998509 -0.0125514 9.97933 28.7832 2 1 
86 1.22094 9.97886 -0.010221 -0.0125239 9.97887 28.7856 2 1 
88 1.22094 9.97818 -0.0104494 -0.0132801 9.97819 28.7973 2 1 
90 1.22095 9.97715 -0.0107135 -0.0130402 9.97717 28.817 2 1 
92 1.22095 9.9769 -0.0109465 -0.0133097 9.97692 28.8109 2 1 
94 1.22095 9.97692 -0.0111791 -0.0142462 9.97694 28.8172 2 1 
96 1.22097 9.97638 -0.0114183 -0.0144431 9.97639 28.8443 2 1 
96 1.22097 9.97638 -0.0114183 -0.0144431 9.97639 28.8443 2 1 
98 1.22097 9.97572 -0.0116554 -0.0148959 9.97574 28.8381 2 1 
100 1.22097 9.97462 -0.0119162 -0.0149273 9.97464 28.8415 2 1 
102 1.22099 9.97338 -0.0121656 -0.0147757 9.9734 28.8736 2 1 
104 1.22098 9.97348 -0.0124129 -0.0151896 9.9735 28.8588 2 1 
106 1.22098 9.97307 -0.0126762 -0.0155354 9.97309 28.8659 2 1 
108 1.22099 9.97242 -0.0129228 -0.0160427 9.97244 28.8905 2 1 
110 1.22099 9.97261 -0.0131339 -0.0165942 9.97264 28.8881 2 1 
112 1.22101 9.97162 -0.0133714 -0.0169035 9.97164 28.9181 2 1 
114 1.22101 9.97066 -0.0136373 -0.0170808 9.97068 28.9158 2 1 
116 1.221 9.97023 -0.0138921 -0.0169484 9.97025 28.9011 2 1 
118 1.22102 9.96876 -0.014103 -0.016959 9.96879 28.9406 2 1 
120 1.22102 9.96814 -0.0142949 -0.0172896 9.96816 28.939 2 1 
122 1.22102 9.96827 -0.014556 -0.0179448 9.96829 28.9326 2 1 
124 1.22105 9.96676 -0.0148098 -0.0185438 9.96679 28.9884 2 1 
126 1.22104 9.96667 -0.0150331 -0.018813 9.9667 28.9686 2 1 
128 1.22103 9.96644 -0.0152883 -0.0189181 9.96647 28.9547 2 1 
128 1.22103 9.96644 -0.0152883 -0.0189181 9.96647 28.9547 10 1 
130 1.22107 9.96464 -0.0155309 -0.0188313 9.96467 29.0173 10 1 
132 1.22106 9.96418 -0.0157562 -0.0190369 9.96421 29.0119 10 1 
134 1.22105 9.96318 -0.0159924 -0.019828 9.96321 28.9959 10 1 
136 1.22107 9.96232 -0.0162243 -0.020544 9.96236 29.0296 10 1 
138 1.22109 9.96158 -0.0164789 -0.020652 9.96161 29.0588 10 1 
140 1.22108 9.96086 -0.016748 -0.0208832 9.96089 29.0431 10 1 
142 1.22109 9.96041 -0.0169772 -0.0204696 9.96044 29.0568 10 1 
144 1.22112 9.95836 -0.0171916 -0.0210497 9.9584 29.1162 10 1 
146 1.2211 9.95782 -0.017448 -0.0217359 9.95786 29.0863 10 1 
148 1.2211 9.95748 -0.0176944 -0.0221685 9.95752 29.0767 10 1 
150 1.22114 9.95494 -0.0179254 -0.0224137 9.95498 29.1595 10 1 
152 1.22114 9.95448 -0.0181859 -0.0219712 9.95452 29.1473 10 1 
154 1.22112 9.95417 -0.0184611 -0.0219907 9.95422 29.119 10 1 
156 1.22117 9.95177 -0.0186948 -0.0227692 9.95182 29.2003 10 1 
158 1.22116 9.95113 -0.0189184 -0.0230339 9.95118 29.1969 10 1 
160 1.22115 9.94997 -0.0191991 -0.0239783 9.95002 29.1696 10 1 
160 1.22115 9.94997 -0.0191991 -0.0239783 9.95002 29.1696 10 1 
162 1.22119 9.94736 -0.0194577 -0.0240993 9.94741 29.2443 10 1 
164 1.22119 9.94713 -0.0196817 -0.0233318 9.94718 29.2463 10 1 
166 1.22119 9.94529 -0.0199324 -0.0237028 9.94534 29.2513 10 1 
168 1.22121 9.94301 -0.0201903 -0.0239506 9.94306 29.2726 10 1 
170 1.22121 9.94228 -0.0204745 -0.0248203 9.94233 29.2757 10 1 
172 1.22125 9.93932 -0.02069 -0.0254807 9.93938 29.3452 10 1 
174 1.22123 9.93829 -0.0209298 -0.0251248 9.93835 29.3234 10 1 
176 1.22124 9.93739 -0.0212438 -0.0252498 9.93745 29.3303 10 1 
178 1.22129 9.93431 -0.0215461 -0.0257513 9.93437 29.4244 10 1 
180 1.22127 9.9328 -0.0217729 -0.0263664 9.93286 29.3938 10 1 
182 1.22128 9.93072 -0.0219911 -0.0268235 9.93078 29.3995 10 1 
184 1.22133 9.92792 -0.0222769 -0.0262724 9.92798 29.4934 10 1 
186 1.22132 9.92641 -0.0225157 -0.0259307 9.92647 29.4833 10 1 
188 1.22131 9.92454 -0.0227512 -0.0263246 9.9246 29.4667 10 1 
190 1.22137 9.92117 -0.0230195 -0.027469 9.92124 29.5606 10 1 
192 1.2214 9.9173 -0.0233803 -0.0282984 9.91737 29.6212 10 1 
194 1.22138 9.91435 -0.0236207 -0.0290303 9.91442 29.5791 10 1 
196 1.2214 9.91202 -0.0238561 -0.02921 9.91209 29.6194 10 1 
198 1.22146 9.90963 -0.0242048 -0.0280283 9.9097 29.7226 10 1 
200 1.22146 9.90733 -0.0244678 -0.0279201 9.9074 29.7273 10 1 
202 1.22147 9.9041 -0.024702 -0.0280647 9.90417 29.7542 10 1 
204 1.22153 9.89899 -0.0250094 -0.0277665 9.89906 29.863 10 1 
206 1.22155 9.89363 -0.0252624 -0.0294236 9.89371 29.9024 10 1 
208 1.22153 9.8898 -0.0254456 -0.0294673 9.88988 29.8555 10 1 
210 1.22159 9.88466 -0.0257556 -0.0298275 9.88474 29.9703 10 1 
212 1.22168 9.87897 -0.026099 -0.0316152 9.87906 30.1248 10 1 
214 1.22165 9.87616 -0.0264903 -0.0298943 9.87624 30.0746 10 1 
216 1.2217 9.8714 -0.0268078 -0.0295937 9.87148 30.1652 10 1 
218 1.22179 9.86443 -0.0270119 -0.0299114 9.86452 30.3309 10 1 
220 1.22178 9.85871 -0.0272531 -0.0285077 9.85879 30.3069 10 1 
222 1.22182 9.85056 -0.0275423 -0.0316196 9.85065 30.3884 10 1 
224 1.22192 9.84179 -0.0278752 -0.0325174 9.84188 30.5609 10 1 
224 1.22192 9.84179 -0.0278752 -0.0325174 9.84188 30.5609 10 1 
226 1.22196 9.83415 -0.0282621 -0.0293445 9.83424 30.6394 10 1 
228 1.22198 9.82548 -0.028635 -0.0311737 9.82557 30.6748 10 1 
230 1.22205 9.81796 -0.0289358 -0.0303077 9.81805 30.791 10 1 
232 1.22219 9.8077 -0.0292612 -0.0312958 9.80779 31.0538 10 1 
234 1.22223 9.79681 -0.0295389 -0.0330747 9.79691 31.1132 10 1 
236 1.22225 9.78648 -0.0298512 -0.0293044 9.78657 31.1517 10 1 
238 1.22242 9.77091 -0.0302548 -0.0291654 9.771 31.4624 10 1 
240 1.22247 9.75717 -0.0306139 -0.0294286 9.75726 31.5566 10 1 
242 1.22252 9.74402 -0.0310398 -0.0296468 9.74411 31.6397 10 1 
244 1.22273 9.72683 -0.0313433 -0.0311265 9.72693 32.0162 10 1 
246 1.22285 9.70943 -0.031544 -0.0283033 9.70953 32.2505 10 1 
248 1.22289 9.69037 -0.0319999 -0.026459 9.69046 32.3059 10 1 
250 1.22304 9.66868 -0.0324755 -0.026018 9.66877 32.5807 10 1 
252 1.2233 9.64393 -0.032826 -0.0240518 9.64402 33.0478 10 1 
254 1.22342 9.61699 -0.0331559 -0.0228295 9.61708 33.2723 10 1 
256 1.22353 9.59063 -0.0334992 -0.0227303 9.59072 33.4726 10 1 
256 1.22353 9.59063 -0.0334992 -0.0227303 9.59072 33.4726 11 1 
258 1.22384 9.55894 -0.0338462 -0.0176747 9.55902 34.0345 11 1 
260 1.2241 9.52032 -0.0343063 -0.0142525 9.5204 34.4968 11 1 
262 1.2242 9.48394 -0.0346901 -0.00975893 9.48402 34.6872 11 1 
264 1.22457 9.44057 -0.0349753 -0.00574612 9.44065 35.3431 11 1 
266 1.22507 9.38503 -0.0354201 -0.000346181 9.38512 36.2452 11 1 
268 1.22517 9.33477 -0.0357543 0.0102105 9.33487 36.4407 11 1 
270 1.22554 9.2736 -0.0359969 0.0196163 9.27372 37.0982 11 1 
272 1.2263 9.19277 -0.0363865 0.0324708 9.19294 38.4718 11 1 
274 1.2266 9.11779 -0.0367005 0.0478213 9.11804 39.0092 11 1 
276 1.22701 9.03114 -0.0370217 0.0643493 9.03149 39.7537 11 1 
278 1.22792 8.92455 -0.0373495 0.0905477 8.92518 41.3955 11 1 
280 1.22858 8.81556 -0.0375808 0.12523 8.81665 42.5984 11 1 
282 1.2292 8.68102 -0.0377167 0.165155 8.68286 43.7078 11 1 
284 1.23006 8.53298 -0.0378993 0.208639 8.53579 45.2582 11 1 
286 1.23111 8.37662 -0.0380598 0.264157 8.38117 47.1541 11 1 
288 1.23212 8.19534 -0.0381539 0.364467 8.20407 48.9854 11 1 
288 1.23212 8.19534 -0.0381539 0.364467 8.20407 48.9854 11 1 
290 1.23283 8.00822 -0.0382209 0.450027 8.02125 50.2757 11 1 
292 1.23426 7.77713 -0.0381245 0.52892 7.79639 52.8564 11 1 
294 1.23579 7.50112 -0.0378927 0.734281 7.53979 55.6231 11 1 
296 1.23467 7.11979 -0.0374181 0.822729 7.16917 53.5901 11 1 
298 1.22974 6.53483 -0.0368838 0.388317 6.56083 44.6851 11 1 
300 1.22243 5.9334 -0.0365711 -0.552555 5.99362 31.4916 11 1 
302 1.21617 5.51894 -0.0363622 -1.24489 5.66283 20.1844 11 1 
304 1.21339 5.24762 -0.0360182 -1.23129 5.39248 15.1488 11 1 
306 1.21311 5.01781 -0.0355681 -0.975188 5.11332 14.652 11 1 
308 1.2138 4.83049 -0.0350682 -0.796314 4.89643 15.891 11 1 
310 1.21494 4.70087 -0.0345694 -0.677297 4.75008 17.957 11 1 
312 1.2157 4.57791 -0.0342137 -0.574735 4.61443 19.3262 11 1 
314 1.21592 4.43331 -0.0339544 -0.482735 4.46016 19.7245 11 1 
316 1.21644 4.28836 -0.0335372 -0.401218 4.30768 20.6646 11 1 
318 1.21716 4.16395 -0.0330949 -0.336581 4.17803 21.9714 11 1 
320 1.21745 4.04675 -0.0328678 -0.280267 4.05686 22.495 11 1 
320 1.21745 4.04675 -0.0328678 -0.280267 4.05686 22.495 15 1 
322 1.21764 3.9258 -0.032661 -0.232495 3.9331 22.8321 15 1 
324 1.21813 3.81313 -0.0324362 -0.201048 3.81881 23.7205 15 1 
326 1.21852 3.71327 -0.0323029 -0.174386 3.7177 24.4151 15 1 
328 1.21863 3.61552 -0.0322507 -0.147693 3.61883 24.6227 15 1 
330 1.21885 3.52121 -0.0321957 -0.128115 3.52383 25.0101 15 1 
332 1.2192 3.44066 -0.0321225 -0.11185 3.44276 25.6539 15 1 
334 1.21941 3.3631 -0.0321361 -0.10005 3.36487 26.0224 15 1 
336 1.21948 3.27981 -0.0322214 -0.0907682 3.28133 26.1553 15 1 
338 1.21969 3.20529 -0.0323098 -0.0814296 3.20657 26.5272 15 1 
340 1.21994 3.14342 -0.0324222 -0.0742178 3.14455 26.9876 15 1 
342 1.22005 3.08068 -0.0326231 -0.0689888 3.08173 27.1818 15 1 
344 1.22013 3.01319 -0.0328884 -0.0639434 3.01414 27.3238 15 1 
346 1.2203 2.94986 -0.033188 -0.0600203 2.95072 27.6379 15 1 
348 1.22047 2.8968 -0.0334909 -0.0581522 2.89765 27.9475 15 1 
350 1.22055 2.84605 -0.0338074 -0.0545401 2.84686 28.0906 15 1 
352 1.22063 2.79017 -0.0341991 -0.0508796 2.79093 28.2406 15 1 
354 1.22078 2.7376 -0.0346337 -0.0504933 2.73834 28.5054 15 1 
356 1.22089 2.6912 -0.0351278 -0.050374 2.69196 28.6942 15 1 
358 1.22095 2.64516 -0.0356638 -0.0482894 2.64591 28.8053 15 1 
360 1.22105 2.60105 -0.0361806 -0.0462951 2.60177 28.9971 15 1 
362 1.22116 2.55882 -0.0367401 -0.0467171 2.55956 29.1956 15 1 
364 1.22123 2.51645 -0.0373724 -0.047834 2.51723 29.3072 15 1 
366 1.22129 2.47601 -0.0379645 -0.0472733 2.47679 29.4209 15 1 
368 1.22139 2.43875 -0.0384858 -0.0464189 2.43953 29.6016 15 1 
370 1.22148 2.40337 -0.0390245 -0.0470726 2.40419 29.758 15 1 
372 1.22152 2.36691 -0.0396521 -0.0481361 2.36777 29.8378 15 1 
374 1.22158 2.3306 -0.0402715 -0.0488703 2.3315 29.9472 15 1 
376 1.22167 2.29778 -0.0407827 -0.0494137 2.2987 30.1062 15 1 
378 1.22173 2.26587 -0.0412259 -0.04981 2.26683 30.2137 15 1 
380 1.22177 2.23312 -0.0416817 -0.0504178 2.23411 30.2883 15 1 
382 1.22183 2.20138 -0.0421735 -0.0513085 2.20241 30.4023 15 1 
384 1.2219 2.17059 -0.0426514 -0.0523731 2.17167 30.5206 15 1 
384 1.2219 2.17059 -0.0426514 -0.0523731 2.17167 30.5206 16 1 
386 1.22194 2.14022 -0.0430805 -0.0532535 2.14134 30.5948 16 1 
388 1.22198 2.11021 -0.0434467 -0.0538392 2.11137 30.6688 16 1 
390 1.22204 2.08043 -0.0438781 -0.0548479 2.08164 30.7767 16 1 
392 1.22209 2.05057 -0.0443769 -0.0560746 2.05185 30.8614 16 1 
394 1.22211 2.02026 -0.0447806 -0.0570696 2.02159 30.9107 16 1 
396 1.22215 1.99045 -0.0451278 -0.0581883 1.99184 30.986 16 1 
398 1.22221 1.96101 -0.0454723 -0.0595581 1.96247 31.0767 16 1 
400 1.22224 1.93062 -0.0458413 -0.0608421 1.93215 31.1344 16 1 
402 1.22226 1.8998 -0.0461808 -0.0618038 1.90139 31.1778 16 1 
404 1.2223 1.86947 -0.0464833 -0.0631127 1.87114 31.2438 16 1 
406 1.22234 1.83935 -0.0468106 -0.0648637 1.84112 31.314 16 1 
408 1.22236 1.80824 -0.0471657 -0.0661462 1.81009 31.3566 16 1 
410 1.22238 1.77636 -0.0475563 -0.0670141 1.77829 31.3963 16 1 
412 1.22242 1.7455 -0.0479735 -0.0681436 1.74752 31.4575 16 1 
414 1.22244 1.71499 -0.048461 -0.0695362 1.71711 31.5088 16 1 
416 1.22246 1.6832 -0.0490632 -0.0706421 1.68543 31.5397 16 1 
416 1.22246 1.6832 -0.0490632 -0.0706421 1.68543 31.5397 16 1 
418 1.22248 1.65147 -0.0497958 -0.0709705 1.65377 31.5817 16 1 
420 1.22251 1.62132 -0.0506098 -0.0706096 1.62368 31.6363 16 1 
422 1.22254 1.59204 -0.0514723 -0.069495 1.59442 31.6755 16 1 
424 1.22255 1.56299 -0.0523458 -0.0673659 1.56535 31.7031 16 1 
426 1.22258 1.53514 -0.0532164 -0.0643726 1.53744 31.746 16 1 
428 1.2226 1.50896 -0.0541399 -0.060565 1.51118 31.7946 16 1 
430 1.22262 1.48401 -0.0551299 -0.0559719 1.48611 31.8293 16 1 
432 1.22264 1.46044 -0.0561673 -0.0510661 1.46244 31.865 16 1 
434 1.22267 1.43831 -0.0572648 -0.0464574 1.44022 31.9108 16 1 
436 1.22269 1.417 -0.058422 -0.0422131 1.41886 31.9535 16 1 
438 1.22271 1.3964 -0.0595894 -0.0381085 1.39821 31.9903 16 1 
440 1.22273 1.37678 -0.0607447 -0.0343116 1.37857 32.0321 16 1 
442 1.22276 1.35817 -0.0619098 -0.0311219 1.35996 32.0798 16 1 
444 1.22278 1.33996 -0.0631149 -0.0286063 1.34177 32.1217 16 1 
446 1.2228 1.32188 -0.0643191 -0.0267405 1.32374 32.1591 16 1 
448 1.22283 1.30467 -0.0654887 -0.0255105 1.30659 32.2047 16 1 
448 1.22283 1.30467 -0.0654887 -0.0255105 1.30659 32.2047 17 1 
450 1.22286 1.28859 -0.0666468 -0.0249308 1.29057 32.254 17 1 
452 1.22288 1.27297 -0.067844 -0.0249678 1.27504 32.296 17 1 
454 1.2229 1.25788 -0.0691198 -0.0256236 1.26006 32.3368 17 1 
456 1.22293 1.24423 -0.070468 -0.0268713 1.24653 32.3857 17 1 
458 1.22296 1.23218 -0.0719067 -0.0285665 1.23462 32.4349 17 1 
460 1.22298 1.22141 -0.0734569 -0.0305236 1.22402 32.4783 17 1 
462 1.22301 1.21236 -0.0750899 -0.0327511 1.21514 32.5252 17 1 
464 1.22304 1.20546 -0.0767746 -0.035259 1.20843 32.578 17 1 
466 1.22306 1.20052 -0.0785241 -0.0379354 1.2037 32.6283 17 1 
468 1.22309 1.19772 -0.0803098 -0.0406912 1.20112 32.6774 17 1 
470 1.22312 1.19754 -0.0821121 -0.043524 1.20116 32.7314 17 1 
472 1.22315 1.19985 -0.0839529 -0.046343 1.2037 32.7874 17 1 
474 1.22318 1.20442 -0.0858663 -0.0490922 1.20849 32.8405 17 1 
476 1.22321 1.21144 -0.0878191 -0.0516746 1.21574 32.894 17 1 
478 1.22324 1.22112 -0.0897654 -0.0539705 1.22563 32.9521 17 1 
480 1.22328 1.23319 -0.0916641 -0.0559467 1.23789 33.0109 17 1 
480 1.22328 1.23319 -0.0916641 -0.0559467 1.23789 33.0109 17 1 
482 1.22331 1.24724 -0.0934534 -0.05764 1.2521 33.0666 17 1 
484 1.22334 1.26321 -0.0950323 -0.0590374 1.26819 33.1225 17 1 
486 1.22337 1.28111 -0.096357 -0.0601268 1.28617 33.1813 17 1 
488 1.2234 1.30052 -0.0974216 -0.0609631 1.30562 33.239 17 1 
490 1.22343 1.32101 -0.098205 -0.061709 1.32613 33.2933 17 1 
492 1.22346 1.34248 -0.0987237 -0.0624534 1.34759 33.3481 17 1 
494 1.22349 1.36491 -0.0990642 -0.063177 1.36999 33.4031 17 1 
496 1.22352 1.388 -0.0993517 -0.0638867 1.39305 33.4546 17 1 
498 1.22355 1.4116 -0.09968 -0.0645742 1.41661 33.5037 17 1 
500 1.22358 1.43584 -0.100099 -0.0651693 1.44083 33.5525 17 1 
502 1.2236 1.46088 -0.100661 -0.0656357 1.46584 33.6001 17 1 
504 1.22363 1.48656 -0.101379 -0.0659869 1.49151 33.6448 17 1 
506 1.22365 1.51286 -0.102232 -0.0662834 1.51779 33.6859 17 1 
508 1.22367 1.54006 -0.103195 -0.0664923 1.54497 33.7252 17 1 
510 1.22369 1.56823 -0.104258 -0.0665818 1.57313 33.7631 17 1 
512 1.22371 1.59713 -0.105382 -0.0666411 1.60203 33.7983 17 1 
512 1.22371 1.59713 -0.105382 -0.0666411 1.60203 33.7983 25 1 
514 1.22373 1.6267 -0.106535 -0.0667617 1.63158 33.831 25 1 
516 1.22375 1.65708 -0.10771 -0.0668783 1.66196 33.8618 25 1 
518 1.22376 1.68823 -0.108915 -0.0669643 1.69309 33.8903 25 1 
520 1.22378 1.71991 -0.110141 -0.0671035 1.72477 33.9155 25 1 
522 1.22379 1.75207 -0.111381 -0.0673221 1.75693 33.9379 25 1 
524 1.2238 1.78472 -0.112638 -0.067569 1.78958 33.9587 25 1 
526 1.22381 1.81777 -0.113911 -0.0678666 1.82263 33.9767 25 1 
528 1.22382 1.8512 -0.115223 -0.0682731 1.85607 33.9927 25 1 
530 1.22383 1.88494 -0.116575 -0.0687562 1.88981 34.0071 25 1 
532 1.22383 1.91885 -0.117968 -0.0693103 1.92375 34.0182 25 1 
534 1.22384 1.95298 -0.119385 -0.0699646 1.95789 34.0274 25 1 
536 1.22384 1.98731 -0.120859 -0.0707394 1.99226 34.0349 25 1 
538 1.22385 2.02177 -0.122389 -0.0716216 2.02676 34.0395 25 1 
540 1.22385 2.05635 -0.123963 -0.0726209 2.06138 34.0426 25 1 
542 1.22385 2.09103 -0.125601 -0.0737431 2.09612 34.045 25 1 
544 1.22385 2.12579 -0.127289 -0.0749666 2.13093 34.0451 25 1 
544 1.22385 2.12579 -0.127289 -0.0749666 2.13093 34.0451 25 1 
546 1.22385 2.16059 -0.129035 -0.0763526 2.1658 34.043 25 1 
548 1.22385 2.19546 -0.130824 -0.0778694 2.20075 34.0399 25 1 
550 1.22384 2.23039 -0.132677 -0.0794973 2.23577 34.036 25 1 
552 1.22384 2.26534 -0.134587 -0.0812416 2.27081 34.0304 25 1 
554 1.22384 2.30031 -0.136536 -0.0831194 2.30587 34.0236 25 1 
556 1.22383 2.3353 -0.138533 -0.0851315 2.34096 34.0162 25 1 
558 1.22383 2.3703 -0.140553 -0.0872357 2.37608 34.0072 25 1 
560 1.22382 2.40534 -0.142629 -0.089475 2.41124 33.9978 25 1 
562 1.22382 2.44038 -0.144716 -0.0917785 2.4464 33.9882 25 1 
564 1.22381 2.47539 -0.146827 -0.0941633 2.48154 33.9777 25 1 
566 1.2238 2.51043 -0.148942 -0.0966391 2.51671 33.9666 25 1 
568 1.2238 2.54546 -0.151066 -0.0991933 2.55187 33.9552 25 1 
570 1.22379 2.58047 -0.153189 -0.101779 2.58702 33.9433 25 1 
572 1.22379 2.61549 -0.155293 -0.104388 2.62219 33.9314 25 1 
574 1.22378 2.65051 -0.157381 -0.107051 2.65734 33.9195 25 1 
576 1.22377 2.68548 -0.159428 -0.109697 2.69246 33.9076 25 1 
576 1.22377 2.68548 -0.159428 -0.109697 2.69246 33.9076 26 1 
578 1.22377 2.72045 -0.161459 -0.112364 2.72756 33.8954 26 1 
580 1.22376 2.75543 -0.163427 -0.114993 2.76268 33.8828 26 1 
582 1.22375 2.79038 -0.165358 -0.117588 2.79776 33.8704 26 1 
584 1.22374 2.8253 -0.167227 -0.120137 2.8328 33.858 26 1 
586 1.22374 2.86021 -0.169021 -0.122616 2.86783 33.8459 26 1 
588 1.22373 2.89511 -0.17076 -0.12504 2.90285 33.8345 26 1 
590 1.22373 2.93 -0.172407 -0.127345 2.93784 33.8232 26 1 
592 1.22372 2.96488 -0.17401 -0.129577 2.97282 33.8117 26 1 
594 1.22371 2.99974 -0.175489 -0.131665 3.00776 33.7998 26 1 
596 1.22371 3.03453 -0.176896 -0.133634 3.04264 33.7885 26 1 
598 1.2237 3.06935 -0.17821 -0.135479 3.07751 33.7769 26 1 
600 1.22369 3.10415 -0.179417 -0.137159 3.11237 33.7654 26 1 
602 1.22369 3.13893 -0.180555 -0.138706 3.14719 33.7549 26 1 
604 1.22368 3.17371 -0.181583 -0.140067 3.182 33.7444 26 1 
606 1.22368 3.20845 -0.182512 -0.14128 3.21675 33.7339 26 1 
608 1.22367 3.24316 -0.183345 -0.142306 3.25147 33.7236 26 1 
608 1.22367 3.24316 -0.183345 -0.142306 3.25147 33.7236 26 1 
610 1.22366 3.27788 -0.184089 -0.14317 3.28619 33.713 26 1 
612 1.22366 3.31258 -0.184733 -0.14385 3.32086 33.7026 26 1 
614 1.22365 3.34722 -0.185289 -0.144329 3.35547 33.6921 26 1 
616 1.22365 3.38186 -0.185768 -0.144649 3.39006 33.6811 26 1 
618 1.22364 3.41642 -0.186122 -0.144768 3.42457 33.6706 26 1 
620 1.22364 3.45098 -0.186438 -0.144731 3.45906 33.6601 26 1 
622 1.22363 3.48554 -0.186644 -0.144498 3.49354 33.6494 26 1 
624 1.22362 3.52002 -0.186788 -0.144093 3.52794 33.6393 26 1 
626 1.22362 3.5544 -0.186855 -0.143511 3.56223 33.6292 26 1 
628 1.22361 3.58878 -0.186853 -0.142772 3.5965 33.6181 26 1 
630 1.22361 3.62312 -0.186775 -0.141894 3.63073 33.607 26 1 
632 1.2236 3.65731 -0.186654 -0.14084 3.6648 33.5967 26 1 
634 1.22359 3.69145 -0.186477 -0.139663 3.69882 33.5846 26 1 
636 1.22359 3.72554 -0.186211 -0.138327 3.73278 33.5719 26 1 
638 1.22358 3.75943 -0.185917 -0.136887 3.76654 33.5618 26 1 
640 1.22357 3.79331 -0.185594 -0.135328 3.80028 33.5501 26 1 
642 1.22357 3.82713 -0.185184 -0.133672 3.83397 33.5368 26 1 
644 1.22356 3.86067 -0.184777 -0.131922 3.86737 33.526 26 1 
646 1.22355 3.89414 -0.184331 -0.130059 3.9007 33.5136 26 1 
648 1.22355 3.92755 -0.183786 -0.128167 3.93396 33.4982 26 1 
650 1.22354 3.96066 -0.1833 -0.126176 3.96694 33.4859 26 1 
652 1.22353 3.9937 -0.182725 -0.124186 3.99984 33.4729 26 1 
654 1.22352 4.02661 -0.182133 -0.122111 4.0326 33.4567 26 1 
656 1.22351 4.0592 -0.181529 -0.120008 4.06505 33.4426 26 1 
658 1.22351 4.09172 -0.180901 -0.117946 4.09744 33.4276 26 1 
660 1.2235 4.12399 -0.180196 -0.115771 4.12958 33.4114 26 1 
662 1.22349 4.15608 -0.179572 -0.113737 4.16154 33.3947 26 1 
664 1.22348 4.18793 -0.178835 -0.111593 4.19326 33.3786 26 1 
666 1.22347 4.21954 -0.178098 -0.109525 4.22475 33.3621 26 1 
668 1.22346 4.25094 -0.177394 -0.107507 4.25603 33.3431 26 1 
670 1.22345 4.28211 -0.176584 -0.105466 4.28707 33.3242 26 1 
672 1.22344 4.31301 -0.175829 -0.103547 4.31786 33.3066 26 1 
672 1.22344 4.31301 -0.175829 -0.103547 4.31786 33.3066 27 1 
674 1.22343 4.34364 -0.175015 -0.101628 4.34839 33.2868 27 1 
676 1.22342 4.37407 -0.174178 -0.0997601 4.3787 33.2658 27 1 
678 1.22341 4.40414 -0.173346 -0.0979744 4.40867 33.2474 27 1 
680 1.2234 4.43406 -0.172474 -0.0962914 4.43849 33.2265 27 1 
682 1.22338 4.46359 -0.171568 -0.0946095 4.46792 33.2048 27 1 
684 1.22337 4.49295 -0.170701 -0.0930531 4.49718 33.1826 27 1 
686 1.22336 4.52194 -0.169735 -0.0915369 4.52608 33.1627 27 1 
688 1.22335 4.55066 -0.168804 -0.0901208 4.55472 33.1403 27 1 
690 1.22333 4.57915 -0.167843 -0.0887623 4.58312 33.117 27 1 
692 1.22332 4.60733 -0.166854 -0.087492 4.61122 33.0959 27 1 
694 1.22331 4.6352 -0.165851 -0.0863089 4.639 33.074 27 1 
696 1.2233 4.66279 -0.16483 -0.0851608 4.66651 33.0493 27 1 
698 1.22328 4.69018 -0.163763 -0.0840543 4.69383 33.0249 27 1 
700 1.22327 4.71717 -0.162723 -0.0831196 4.72075 33.0066 27 1 
702 1.22326 4.74395 -0.161651 -0.0821438 4.74745 32.9823 27 1 
704 1.22325 4.77049 -0.16052 -0.0812349 4.77392 32.956 27 1 
704 1.22325 4.77049 -0.16052 -0.0812349 4.77392 32.956 31 1 
706 1.22324 4.79666 -0.159473 -0.0804747 4.80003 32.9375 31 1 
708 1.22322 4.82262 -0.158275 -0.079588 4.82592 32.9149 31 1 
710 1.22321 4.84837 -0.157203 -0.0788937 4.85161 32.8884 31 1 
712 1.2232 4.87389 -0.156011 -0.0781036 4.87706 32.8676 31 1 
714 1.22319 4.89901 -0.154893 -0.0774787 4.90211 32.8505 31 1 
716 1.22317 4.92396 -0.153759 -0.0766987 4.927 32.8247 31 1 
718 1.22316 4.94878 -0.152489 -0.0760239 4.95177 32.7988 31 1 
720 1.22315 4.97326 -0.15138 -0.0754758 4.97619 32.7852 31 1 
722 1.22314 4.99758 -0.15025 -0.0746102 5.00046 32.7647 31 1 
724 1.22312 5.02192 -0.148933 -0.0740207 5.02473 32.7354 31 1 
726 1.22312 5.04578 -0.147973 -0.0731433 5.04854 32.7227 31 1 
728 1.22311 5.06946 -0.146687 -0.0724979 5.07216 32.7075 31 1 
730 1.22309 5.09314 -0.145554 -0.0716499 5.09579 32.6776 31 1 
732 1.22308 5.1167 -0.144423 -0.0707405 5.1193 32.6594 31 1 
734 1.22308 5.14013 -0.143288 -0.070048 5.14267 32.6498 31 1 
736 1.22306 5.16336 -0.142245 -0.0687547 5.16585 32.6271 31 1 
738 1.22305 5.18677 -0.141197 -0.0678335 5.1892 32.598 31 1 
740 1.22304 5.20983 -0.140072 -0.0666727 5.21221 32.5883 31 1 
742 1.22303 5.23275 -0.139096 -0.0653733 5.23508 32.5744 31 1 
744 1.22301 5.25599 -0.138267 -0.0642761 5.25828 32.5384 31 1 
746 1.223 5.2794 -0.137171 -0.0626568 5.28164 32.5187 31 1 
748 1.223 5.30215 -0.136431 -0.0612027 5.30434 32.517 31 1 
750 1.22298 5.32535 -0.135519 -0.0592812 5.32749 32.4789 31 1 
752 1.22296 5.34926 -0.134717 -0.0577623 5.35135 32.4391 31 1 
752 1.22296 5.34926 -0.134717 -0.0577623 5.35135 32.4391 31 1 
754 1.22296 5.37182 -0.134219 -0.0559051 5.37387 32.4482 31 1 
756 1.22294 5.39545 -0.133235 -0.0535493 5.39745 32.4119 31 1 
758 1.22291 5.41981 -0.132901 -0.0516223 5.42177 32.3549 31 1 
760 1.22292 5.443 -0.132274 -0.049205 5.44492 32.3601 31 1 
762 1.2229 5.46682 -0.131823 -0.0467121 5.46869 32.3368 31 1 
764 1.22286 5.49217 -0.131491 -0.0440027 5.494 32.2636 31 1 
766 1.22286 5.51552 -0.131045 -0.041049 5.51732 32.2617 31 1 
768 1.22285 5.54082 -0.130711 -0.0380307 5.54258 32.2381 31 1 
770 1.22282 5.56631 -0.131014 -0.0353275 5.56805 32.1798 31 1 
772 1.2228 5.59129 -0.130603 -0.0315688 5.59298 32.1461 31 1 
774 1.22278 5.6176 -0.130634 -0.0282231 5.61928 32.1213 31 1 
776 1.22276 5.6447 -0.13126 -0.0248887 5.64637 32.0752 31 1 
778 1.22273 5.67312 -0.131081 -0.01997 5.67475 32.0168 31 1 
780 1.22272 5.70061 -0.131142 -0.0156732 5.70222 32.0006 31 1 
782 1.22268 5.72926 -0.132206 -0.0107459 5.73087 31.9423 31 1 
784 1.22263 5.75913 -0.134279 -0.00797082 5.76077 31.8468 31 1 
786 1.22259 5.79303 -0.135415 -0.0008744 5.79469 31.7757 31 1 
788 1.22259 5.82602 -0.136084 0.00556498 5.82769 31.7702 31 1 
790 1.2225 5.86432 -0.139506 0.0128403 5.86607 31.6178 31 1 
792 1.22243 5.90062 -0.145496 0.0222645 5.90251 31.4893 31 1 
794 1.22237 5.94253 -0.14821 0.0322241 5.94453 31.3764 31 1 
796 1.2223 5.98753 -0.157878 0.0510185 5.98991 31.2401 31 1 
798 1.22224 6.02524 -0.176385 0.0759292 6.0284 31.1354 31 1 
800 1.22217 6.04693 -0.18573 0.0908069 6.05054 31.016 31 1 
