24.4525;r ;Density                 ;Velocity u              ;Velocity v              ;Velocity w              ;|Velocity|              ;Pressure                ;Distribution            ;Levels                  ;
0 1.20364 9.99966 8.36598e-06 -0.000711084 9.99966 -2.45097 1 1 
2 1.20364 9.99934 -5.81877e-05 -0.00054474 9.99934 -2.46029 1 1 
4 1.20362 9.99921 -0.000184648 -0.000290198 9.99921 -2.48943 1 1 
6 1.20361 9.99963 -0.000288983 -0.000473253 9.99963 -2.50591 1 1 
8 1.20363 9.99944 -0.000383674 -0.000571361 9.99944 -2.47585 1 1 
10 1.20363 9.99936 -0.000473307 -0.000619541 9.99936 -2.47727 1 1 
12 1.20361 9.99908 -0.000534567 -0.000825 9.99908 -2.50253 1 1 
14 1.20362 9.99849 -0.000623319 -0.00104829 9.99849 -2.49199 1 1 
16 1.20362 9.99911 -0.000723948 -0.00119613 9.99911 -2.49454 1 1 
18 1.20362 9.99955 -0.000850033 -0.000960144 9.99955 -2.4978 1 1 
20 1.20361 9.99951 -0.0010078 -0.000781238 9.99951 -2.50801 1 1 
22 1.2036 9.99941 -0.00110452 -0.00117605 9.99941 -2.53192 1 1 
24 1.20359 9.99921 -0.00118643 -0.00179827 9.99921 -2.53849 1 1 
26 1.2036 9.99951 -0.00131086 -0.00206978 9.99951 -2.52866 1 1 
28 1.2036 9.99968 -0.00145138 -0.00219291 9.99969 -2.52806 1 1 
30 1.20359 9.99957 -0.00154867 -0.00255686 9.99957 -2.54541 1 1 
32 1.20358 9.99971 -0.00167793 -0.00293656 9.99971 -2.55862 1 1 
32 1.20358 9.99971 -0.00167793 -0.00293656 9.99971 -2.55862 1 1 
34 1.20358 9.99979 -0.0017938 -0.00314445 9.99979 -2.55925 1 1 
36 1.20359 9.99958 -0.00182866 -0.00331192 9.99958 -2.54957 1 1 
38 1.20359 9.99923 -0.00195518 -0.00317622 9.99924 -2.55561 1 1 
40 1.20358 9.99909 -0.0021334 -0.00364164 9.99909 -2.56792 1 1 
42 1.20357 9.99916 -0.00223714 -0.00374063 9.99916 -2.5756 1 1 
44 1.20357 9.99914 -0.00237388 -0.00357419 9.99914 -2.58202 1 1 
46 1.20358 9.99882 -0.00256063 -0.00363492 9.99882 -2.5698 1 1 
48 1.20359 9.99836 -0.00257272 -0.00358254 9.99836 -2.55215 1 1 
50 1.20358 9.99858 -0.00260787 -0.00415702 9.99858 -2.56733 1 1 
52 1.20357 9.99881 -0.00281704 -0.0040386 9.99882 -2.59131 1 1 
54 1.20357 9.99841 -0.00295572 -0.00439158 9.99841 -2.5866 1 1 
56 1.20358 9.99784 -0.002968 -0.00458902 9.99784 -2.56189 1 1 
58 1.20359 9.99767 -0.00309699 -0.00426715 9.99767 -2.53958 1 1 
60 1.20359 9.998 -0.0032831 -0.0046987 9.998 -2.54421 1 1 
62 1.20359 9.99802 -0.00329847 -0.00524708 9.99802 -2.54866 1 1 
64 1.20359 9.99782 -0.00337632 -0.00518889 9.99782 -2.54249 1 1 
64 1.20359 9.99782 -0.00337632 -0.00518889 9.99782 -2.54249 2 1 
66 1.20359 9.99737 -0.00359869 -0.00535454 9.99737 -2.53856 2 1 
68 1.2036 9.99682 -0.00367825 -0.00527516 9.99682 -2.53474 2 1 
70 1.20359 9.99659 -0.00365774 -0.00494219 9.99659 -2.54919 2 1 
72 1.20358 9.9969 -0.00382546 -0.00555794 9.9969 -2.57024 2 1 
74 1.2036 9.99664 -0.00396556 -0.00591923 9.99664 -2.53683 2 1 
76 1.20361 9.99632 -0.00392206 -0.00614882 9.99632 -2.50481 2 1 
78 1.20361 9.99661 -0.00404377 -0.0067771 9.99661 -2.50987 2 1 
80 1.20361 9.99612 -0.00427262 -0.0063693 9.99612 -2.509 2 1 
82 1.20362 9.99603 -0.00426099 -0.00701194 9.99603 -2.49861 2 1 
84 1.20363 9.99593 -0.00428553 -0.00685698 9.99593 -2.48248 2 1 
86 1.20362 9.99539 -0.0045686 -0.00607648 9.99539 -2.49096 2 1 
88 1.20362 9.99487 -0.00470376 -0.00715579 9.99487 -2.49802 2 1 
90 1.20362 9.99444 -0.00457304 -0.00707208 9.99445 -2.49919 2 1 
92 1.20361 9.99484 -0.00467551 -0.00705627 9.99485 -2.5051 2 1 
94 1.20362 9.99505 -0.00503885 -0.00757139 9.99506 -2.48924 2 1 
96 1.20364 9.99449 -0.00502193 -0.00769479 9.99449 -2.44929 2 1 
96 1.20364 9.99449 -0.00502193 -0.00769479 9.99449 -2.44929 2 1 
98 1.20364 9.99422 -0.00481079 -0.0083266 9.99423 -2.4479 2 1 
100 1.20364 9.99399 -0.00509465 -0.0078643 9.994 -2.45817 2 1 
102 1.20365 9.99321 -0.00546481 -0.00763202 9.99321 -2.43659 2 1 
104 1.20364 9.99288 -0.00538052 -0.00775154 9.99288 -2.45763 2 1 
106 1.20365 9.99241 -0.00538101 -0.00779402 9.99241 -2.44374 2 1 
108 1.20366 9.99247 -0.00588411 -0.00804432 9.99247 -2.41686 2 1 
110 1.20366 9.99309 -0.00620435 -0.00870368 9.9931 -2.42846 2 1 
112 1.20367 9.99229 -0.00595519 -0.0094824 9.99229 -2.407 2 1 
114 1.20367 9.99174 -0.0058776 -0.00939389 9.99175 -2.41111 2 1 
116 1.20366 9.99192 -0.00631482 -0.00897907 9.99193 -2.4116 2 1 
118 1.20368 9.99029 -0.00645786 -0.00841656 9.99029 -2.37736 2 1 
120 1.20368 9.98929 -0.00589421 -0.00838904 9.98929 -2.38977 2 1 
122 1.20368 9.9903 -0.00555658 -0.00884845 9.99031 -2.38809 2 1 
124 1.20372 9.99048 -0.00595523 -0.00907092 9.99048 -2.31795 2 1 
126 1.20371 9.99151 -0.00635035 -0.00931493 9.99152 -2.33154 2 1 
128 1.20369 9.99114 -0.00611029 -0.00953277 9.99115 -2.3669 2 1 
128 1.20369 9.99114 -0.00611029 -0.00953277 9.99115 -2.3669 10 1 
130 1.20371 9.98885 -0.00563788 -0.0100168 9.98886 -2.3246 10 1 
132 1.20371 9.9882 -0.00549436 -0.0100429 9.9882 -2.32308 10 1 
134 1.20371 9.98709 -0.00536138 -0.0093838 9.98709 -2.32566 10 1 
136 1.20373 9.98643 -0.00476183 -0.00860236 9.98644 -2.29062 10 1 
138 1.20374 9.98645 -0.00405342 -0.0075436 9.98645 -2.27427 10 1 
140 1.20373 9.98733 -0.00417731 -0.00742288 9.98733 -2.28793 10 1 
142 1.20375 9.98847 -0.00536752 -0.00689176 9.98848 -2.25383 10 1 
144 1.20379 9.98686 -0.00675532 -0.00778573 9.98686 -2.1848 10 1 
146 1.20376 9.98581 -0.00729225 -0.00897494 9.98582 -2.23343 10 1 
148 1.20375 9.98473 -0.00671527 -0.00973562 9.98473 -2.266 10 1 
150 1.20379 9.98176 -0.00562903 -0.0102957 9.98177 -2.18096 10 1 
152 1.20379 9.98148 -0.00468428 -0.00930155 9.98149 -2.18627 10 1 
154 1.20378 9.9818 -0.00419602 -0.00840363 9.9818 -2.20848 10 1 
156 1.20383 9.98019 -0.00408456 -0.00804439 9.9802 -2.12128 10 1 
158 1.20383 9.98032 -0.00414005 -0.00753328 9.98033 -2.11888 10 1 
160 1.20381 9.97977 -0.00422585 -0.00808281 9.97978 -2.14569 10 1 
160 1.20381 9.97977 -0.00422585 -0.00808281 9.97978 -2.14569 10 1 
162 1.20385 9.97762 -0.00424901 -0.00778611 9.97762 -2.08258 10 1 
164 1.20385 9.97768 -0.00424143 -0.00691073 9.97768 -2.08475 10 1 
166 1.20385 9.97626 -0.00424851 -0.0070495 9.97627 -2.07574 10 1 
168 1.20387 9.97478 -0.00423529 -0.00707755 9.97478 -2.04751 10 1 
170 1.20387 9.97468 -0.00424685 -0.00762666 9.97469 -2.03951 10 1 
172 1.20391 9.97219 -0.00422564 -0.00777954 9.97219 -1.9675 10 1 
174 1.2039 9.97176 -0.00423251 -0.00722935 9.97177 -1.99201 10 1 
176 1.20389 9.97141 -0.00426548 -0.00704818 9.97141 -1.99664 10 1 
178 1.20395 9.96878 -0.00429714 -0.00747765 9.96878 -1.90204 10 1 
180 1.20393 9.96773 -0.00433531 -0.00776124 9.96773 -1.92742 10 1 
182 1.20394 9.96649 -0.00429282 -0.00788285 9.96649 -1.91021 10 1 
184 1.204 9.96444 -0.0042542 -0.00716786 9.96445 -1.80616 10 1 
186 1.20399 9.96358 -0.00422762 -0.00649935 9.96359 -1.81879 10 1 
188 1.20398 9.96241 -0.00424362 -0.00696804 9.96241 -1.8444 10 1 
190 1.20402 9.95946 -0.00425392 -0.00781986 9.95946 -1.76741 10 1 
192 1.20405 9.95579 -0.00435111 -0.0084247 9.95579 -1.70847 10 1 
194 1.20403 9.95334 -0.0043693 -0.00892412 9.95334 -1.74843 10 1 
196 1.20406 9.95212 -0.00434962 -0.0088371 9.95213 -1.70123 10 1 
198 1.20412 9.95072 -0.00439814 -0.00737975 9.95073 -1.58784 10 1 
200 1.20412 9.94912 -0.00437144 -0.0069009 9.94912 -1.58558 10 1 
202 1.20413 9.9466 -0.00433344 -0.00683503 9.94661 -1.56786 10 1 
204 1.20418 9.94198 -0.00436167 -0.00620466 9.94198 -1.4797 10 1 
206 1.2042 9.93695 -0.00433644 -0.00775228 9.93696 -1.44778 10 1 
208 1.20417 9.93376 -0.00426474 -0.00758073 9.93376 -1.49517 10 1 
210 1.20424 9.92968 -0.00435025 -0.00765518 9.92968 -1.37767 10 1 
212 1.20432 9.92505 -0.00443321 -0.00921941 9.92505 -1.22068 10 1 
214 1.20429 9.92313 -0.00450199 -0.00704906 9.92314 -1.2779 10 1 
216 1.20434 9.91926 -0.00455195 -0.00661922 9.91926 -1.19557 10 1 
218 1.20442 9.91302 -0.00449805 -0.00668048 9.91303 -1.04376 10 1 
220 1.2044 9.90791 -0.00440752 -0.0051291 9.90791 -1.08077 10 1 
222 1.20444 9.90056 -0.00436896 -0.00781309 9.90057 -1.0197 10 1 
224 1.20452 9.89293 -0.00442877 -0.00834886 9.89294 -0.860979 10 1 
224 1.20452 9.89293 -0.00442877 -0.00834886 9.89294 -0.860979 10 1 
226 1.20457 9.88651 -0.00452791 -0.00491763 9.88651 -0.784084 10 1 
228 1.20459 9.87903 -0.00460342 -0.00648918 9.87904 -0.745369 10 1 
230 1.20466 9.87256 -0.00467028 -0.00550067 9.87257 -0.618941 10 1 
232 1.2048 9.86325 -0.0047015 -0.00614416 9.86325 -0.366581 10 1 
234 1.20481 9.85327 -0.00462876 -0.00769566 9.85328 -0.340218 10 1 
236 1.20481 9.84386 -0.00461031 -0.00354202 9.84386 -0.337374 10 1 
238 1.20497 9.8293 -0.00470972 -0.00316264 9.8293 -0.047469 10 1 
240 1.20502 9.8167 -0.00475605 -0.0033019 9.8167 0.039889 10 1 
242 1.20507 9.80486 -0.00489613 -0.00327389 9.80486 0.120939 10 1 
244 1.20528 9.78907 -0.00491397 -0.00467544 9.78907 0.497294 10 1 
246 1.2054 9.77332 -0.00478939 -0.00158082 9.77332 0.719515 10 1 
248 1.20542 9.75557 -0.00492499 0.000529458 9.75557 0.751629 10 1 
250 1.20555 9.73502 -0.00508685 0.00136707 9.73502 0.996199 10 1 
252 1.2058 9.71137 -0.00510921 0.00367656 9.71137 1.43793 10 1 
254 1.20591 9.68577 -0.00514317 0.00505596 9.68578 1.64354 10 1 
256 1.20601 9.66099 -0.00518735 0.00540158 9.661 1.82149 10 1 
256 1.20601 9.66099 -0.00518735 0.00540158 9.661 1.82149 11 1 
258 1.20631 9.63099 -0.00522924 0.0106115 9.63101 2.36702 11 1 
260 1.20656 9.59417 -0.00537476 0.0143347 9.59419 2.81366 11 1 
262 1.20665 9.55947 -0.00546569 0.0190742 9.5595 2.98337 11 1 
264 1.207 9.51777 -0.00546552 0.0233834 9.51781 3.61145 11 1 
266 1.20748 9.46355 -0.00560354 0.0290673 9.46362 4.4819 11 1 
268 1.20757 9.41501 -0.0056966 0.0398686 9.41512 4.64309 11 1 
270 1.20792 9.35566 -0.00570586 0.0495229 9.35583 5.27102 11 1 
272 1.20867 9.27664 -0.00579999 0.0625872 9.27689 6.62462 11 1 
274 1.20895 9.20364 -0.00588772 0.0782876 9.20403 7.133 11 1 
276 1.20935 9.11906 -0.00598989 0.0952561 9.11961 7.85608 11 1 
278 1.21025 9.01424 -0.0060844 0.121924 9.01515 9.47557 11 1 
280 1.21089 8.90694 -0.00616047 0.157086 8.90844 10.6398 11 1 
282 1.21148 8.77396 -0.00621282 0.197255 8.77636 11.7074 11 1 
284 1.21232 8.62736 -0.00625897 0.24138 8.63091 13.2273 11 1 
286 1.21336 8.47276 -0.00630872 0.297513 8.47829 15.1024 11 1 
288 1.21436 8.29296 -0.00634041 0.399106 8.3031 16.9136 11 1 
288 1.21436 8.29296 -0.00634041 0.399106 8.3031 16.9136 11 1 
290 1.21507 8.10733 -0.00638731 0.485863 8.12218 18.1829 11 1 
292 1.21649 7.87696 -0.00641046 0.565261 7.89842 20.7464 11 1 
294 1.21801 7.60139 -0.00639754 0.773474 7.64341 23.5028 11 1 
296 1.21684 7.2183 -0.00633632 0.861615 7.27145 21.3825 11 1 
298 1.21179 6.6278 -0.00625912 0.41777 6.65547 12.2718 11 1 
300 1.20434 6.02203 -0.00625569 -0.539844 6.08111 -1.19327 11 1 
302 1.19795 5.6083 -0.00629631 -1.24337 5.74953 -12.742 11 1 
304 1.19509 5.34078 -0.00632063 -1.22864 5.48251 -17.9053 11 1 
306 1.19478 5.11443 -0.00633417 -0.967936 5.20674 -18.4568 11 1 
308 1.19545 4.93045 -0.00633187 -0.785794 4.99329 -17.245 11 1 
310 1.19659 4.80471 -0.00632789 -0.664462 4.85098 -15.1836 11 1 
312 1.19734 4.68594 -0.00635079 -0.559806 4.71971 -13.8293 11 1 
314 1.19754 4.54603 -0.00638711 -0.465959 4.57034 -13.4686 11 1 
316 1.19805 4.40641 -0.00638823 -0.382668 4.42342 -12.5589 11 1 
318 1.19876 4.28814 -0.00638299 -0.31703 4.30017 -11.269 11 1 
320 1.19904 4.17791 -0.00643827 -0.25979 4.18623 -10.7743 11 1 
320 1.19904 4.17791 -0.00643827 -0.25979 4.18623 -10.7743 15 1 
322 1.1992 4.06451 -0.0064879 -0.210967 4.07023 -10.474 15 1 
324 1.19968 3.95971 -0.00651683 -0.178779 3.96395 -9.61824 15 1 
326 1.20004 3.8681 -0.00656574 -0.151731 3.87124 -8.96264 15 1 
328 1.20013 3.77924 -0.00660129 -0.124558 3.78142 -8.7995 15 1 
330 1.20033 3.69493 -0.00661127 -0.103843 3.6965 -8.44441 15 1 
332 1.20067 3.62556 -0.00664588 -0.0863466 3.6267 -7.82579 15 1 
334 1.20085 3.55951 -0.00671612 -0.0749464 3.5604 -7.50019 15 1 
336 1.20089 3.48694 -0.0068006 -0.0686316 3.4877 -7.42977 15 1 
338 1.20106 3.42256 -0.00686733 -0.0631509 3.42321 -7.11191 15 1 
340 1.2013 3.37128 -0.00689308 -0.0578028 3.37185 -6.68579 15 1 
342 1.20139 3.3195 -0.00692824 -0.0518004 3.31999 -6.52743 15 1 
344 1.20144 3.26248 -0.00700028 -0.0447839 3.26286 -6.43462 15 1 
346 1.20158 3.20928 -0.00709268 -0.0390296 3.20957 -6.1754 15 1 
348 1.20172 3.16711 -0.00719258 -0.0357517 3.16736 -5.91952 15 1 
350 1.20177 3.12834 -0.00729596 -0.0305779 3.12856 -5.82891 15 1 
352 1.20183 3.0853 -0.00740137 -0.0255302 3.08546 -5.72412 15 1 
354 1.20196 3.04617 -0.00748122 -0.0246348 3.04631 -5.48414 15 1 
356 1.20206 3.01347 -0.00759625 -0.0238267 3.0136 -5.31681 15 1 
358 1.20209 2.98188 -0.00779412 -0.0207778 2.98199 -5.25287 15 1 
360 1.20217 2.95374 -0.00798535 -0.0184047 2.95383 -5.11927 15 1 
362 1.20225 2.92782 -0.00811093 -0.0172843 2.9279 -4.96122 15 1 
364 1.2023 2.90099 -0.00822258 -0.0167171 2.90107 -4.86857 15 1 
366 1.20236 2.87676 -0.00839052 -0.0160665 2.87683 -4.76674 15 1 
368 1.20245 2.8572 -0.0085715 -0.013111 2.85726 -4.59951 15 1 
370 1.20253 2.84068 -0.00862381 -0.0109781 2.84072 -4.45355 15 1 
372 1.20257 2.82503 -0.00855464 -0.0157442 2.82509 -4.39214 15 1 
374 1.20262 2.80822 -0.00855575 -0.0234611 2.80833 -4.30327 15 1 
376 1.20271 2.78898 -0.00858906 -0.0270178 2.78913 -4.1435 15 1 
378 1.20277 2.77183 -0.00827447 -0.0385874 2.77218 -4.02931 15 1 
380 1.2028 2.7673 -0.00738144 -0.0796414 2.76883 -3.96642 15 1 
382 1.20284 2.77339 -0.006184 -0.144588 2.77783 -3.89511 15 1 
384 1.20287 2.76443 -0.00523342 -0.196661 2.77199 -3.85199 15 1 
384 1.20287 2.76443 -0.00523342 -0.196661 2.77199 -3.85199 16 1 
386 1.20286 2.71026 -0.00493471 -0.200587 2.71811 -3.86452 16 1 
388 1.20286 2.60323 -0.00538512 -0.148801 2.60813 -3.8701 16 1 
390 1.20288 2.46278 -0.00651774 -0.0614076 2.46456 -3.82572 16 1 
392 1.2029 2.318 -0.00821654 0.0348283 2.31953 -3.7906 16 1 
394 1.2029 2.19247 -0.0102847 0.122744 2.19725 -3.78641 16 1 
396 1.20293 2.10027 -0.012497 0.195595 2.11071 -3.74084 16 1 
398 1.20298 2.04434 -0.0146697 0.252732 2.06135 -3.64645 16 1 
400 1.20303 2.02025 -0.0166781 0.29597 2.04349 -3.55218 16 1 
402 1.20309 2.02297 -0.0185014 0.3275 2.05129 -3.44726 16 1 
404 1.20317 2.04826 -0.0202056 0.349094 2.08022 -3.30345 16 1 
406 1.20326 2.09102 -0.0218146 0.362958 2.12528 -3.14932 16 1 
408 1.20333 2.14584 -0.0232838 0.371829 2.18144 -3.02425 16 1 
410 1.2034 2.21005 -0.0245808 0.377545 2.24627 -2.89287 16 1 
412 1.2035 2.28334 -0.025677 0.380735 2.31957 -2.71393 16 1 
414 1.2036 2.36432 -0.0265533 0.3818 2.40008 -2.52578 16 1 
416 1.20369 2.45145 -0.0272389 0.381444 2.48642 -2.35947 16 1 
416 1.20369 2.45145 -0.0272389 0.381444 2.48642 -2.35947 16 1 
418 1.20379 2.54515 -0.0277941 0.380212 2.57909 -2.19219 16 1 
420 1.20388 2.6462 -0.0282713 0.378338 2.67897 -2.01476 16 1 
422 1.20398 2.75444 -0.0286855 0.376001 2.78594 -1.83824 16 1 
424 1.20409 2.86953 -0.0290167 0.37332 2.89971 -1.64123 16 1 
426 1.20422 2.9916 -0.02925 0.370457 3.02046 -1.40322 16 1 
428 1.20435 3.12038 -0.0294017 0.367956 3.14798 -1.17484 16 1 
430 1.20444 3.25489 -0.0295008 0.36646 3.28138 -1.00325 16 1 
432 1.20453 3.39434 -0.0295721 0.36612 3.41988 -0.844985 16 1 
434 1.20464 3.5385 -0.0296241 0.366756 3.56322 -0.654147 16 1 
436 1.20475 3.68746 -0.0296433 0.368441 3.71149 -0.459267 16 1 
438 1.20484 3.84076 -0.029616 0.371386 3.86424 -0.287794 16 1 
440 1.20494 3.99686 -0.0295483 0.375733 4.01994 -0.115905 16 1 
442 1.20503 4.15468 -0.0294704 0.381478 4.1775 0.0521089 16 1 
444 1.20509 4.3145 -0.0293924 0.388433 4.33718 0.165129 16 1 
446 1.20513 4.47631 -0.0293057 0.396469 4.49895 0.24369 16 1 
448 1.2052 4.63915 -0.029202 0.405645 4.66184 0.368783 16 1 
448 1.2052 4.63915 -0.029202 0.405645 4.66184 0.368783 17 1 
450 1.20529 4.80238 -0.029066 0.415912 4.82524 0.516906 17 1 
452 1.20533 4.96593 -0.0289052 0.42705 4.98902 0.596108 17 1 
454 1.20535 5.12907 -0.0287365 0.438805 5.15245 0.634237 17 1 
456 1.20539 5.29119 -0.0285663 0.450975 5.3149 0.709389 17 1 
458 1.20543 5.45276 -0.0283967 0.463466 5.47683 0.777367 17 1 
460 1.20544 5.61366 -0.0282231 0.476192 5.6381 0.789844 17 1 
462 1.20545 5.77282 -0.0280423 0.489019 5.79765 0.806047 17 1 
464 1.20546 5.93021 -0.0278526 0.501826 5.95543 0.838547 17 1 
466 1.20546 6.08643 -0.0276482 0.514509 6.11202 0.836936 17 1 
468 1.20546 6.24097 -0.0274171 0.526752 6.26689 0.831487 17 1 
470 1.20547 6.39336 -0.0271415 0.538311 6.41957 0.841761 17 1 
472 1.20545 6.54415 -0.0268335 0.549329 6.5706 0.805622 17 1 
474 1.20542 6.69315 -0.0265148 0.559727 6.71977 0.753996 17 1 
476 1.20542 6.83989 -0.0261779 0.569289 6.86662 0.754426 17 1 
478 1.20541 6.98516 -0.0258158 0.578105 7.01194 0.733675 17 1 
480 1.20537 7.12867 -0.0254283 0.586075 7.15544 0.665354 17 1 
480 1.20537 7.12867 -0.0254283 0.586075 7.15544 0.665354 17 1 
482 1.20535 7.26898 -0.024997 0.592826 7.29563 0.631224 17 1 
484 1.20533 7.40696 -0.0244996 0.598296 7.4334 0.587066 17 1 
486 1.20527 7.54353 -0.0239696 0.602672 7.56968 0.490784 17 1 
488 1.20524 7.67686 -0.0234216 0.605889 7.70265 0.439012 17 1 
490 1.20522 7.80663 -0.0228271 0.607593 7.83196 0.40372 17 1 
492 1.20517 7.93383 -0.0221804 0.607405 7.95857 0.307891 17 1 
494 1.20514 8.05722 -0.0214945 0.605086 8.08125 0.246142 17 1 
496 1.20512 8.1762 -0.0207791 0.600442 8.19939 0.222512 17 1 
498 1.20507 8.29141 -0.0200621 0.593322 8.31362 0.132003 17 1 
500 1.20502 8.40196 -0.0193686 0.583595 8.42307 0.0334375 17 1 
502 1.20499 8.50748 -0.0186876 0.570799 8.52734 -0.0222795 17 1 
504 1.20495 8.60843 -0.017991 0.554418 8.62688 -0.0909425 17 1 
506 1.20492 8.70415 -0.0172709 0.534448 8.72105 -0.149538 17 1 
508 1.20489 8.7948 -0.0165835 0.511069 8.81006 -0.202632 17 1 
510 1.20484 8.88086 -0.0159605 0.484282 8.8944 -0.296311 17 1 
512 1.20479 8.96173 -0.0153772 0.45398 8.9735 -0.377444 17 1 
512 1.20479 8.96173 -0.0153772 0.45398 8.9735 -0.377444 25 1 
514 1.20476 9.03807 -0.0148201 0.420514 9.04808 -0.430109 25 1 
516 1.20474 9.11105 -0.0143027 0.384679 9.11937 -0.477698 25 1 
518 1.20472 9.17995 -0.0138589 0.347356 9.18668 -0.500716 25 1 
520 1.2047 9.24432 -0.0134923 0.309216 9.24963 -0.54941 25 1 
522 1.20464 9.30516 -0.0131495 0.270612 9.30921 -0.645475 25 1 
524 1.2046 9.36342 -0.012817 0.232311 9.36641 -0.720442 25 1 
526 1.20458 9.41963 -0.0125273 0.195162 9.42173 -0.76114 25 1 
528 1.20456 9.47353 -0.0122424 0.159818 9.47496 -0.787039 25 1 
530 1.20454 9.52479 -0.0119546 0.127023 9.5257 -0.829637 25 1 
532 1.20451 9.57292 -0.0116923 0.0973148 9.57346 -0.893639 25 1 
534 1.20448 9.61785 -0.0114353 0.0710051 9.61815 -0.936181 25 1 
536 1.20446 9.66002 -0.0111468 0.0485717 9.66017 -0.976115 25 1 
538 1.20444 9.69866 -0.0108329 0.0305767 9.69873 -1.01544 25 1 
540 1.20443 9.73256 -0.010541 0.0172155 9.73259 -1.03248 25 1 
542 1.20441 9.7616 -0.0103223 0.00831275 9.76161 -1.0742 25 1 
544 1.20438 9.78611 -0.0101877 0.0033175 9.78612 -1.12299 25 1 
544 1.20438 9.78611 -0.0101877 0.0033175 9.78612 -1.12299 25 1 
546 1.20436 9.8065 -0.0100871 0.00105213 9.80651 -1.15666 25 1 
548 1.20434 9.82332 -0.0100084 -0.000100666 9.82333 -1.19933 25 1 
550 1.20433 9.83679 -0.00994956 -0.00120619 9.8368 -1.21074 25 1 
552 1.20433 9.84777 -0.00988716 -0.00238518 9.84778 -1.21652 25 1 
554 1.20431 9.85682 -0.00982194 -0.00379526 9.85683 -1.24696 25 1 
556 1.2043 9.86406 -0.00974051 -0.00521215 9.86407 -1.26032 25 1 
558 1.20429 9.87027 -0.00962782 -0.00612125 9.87028 -1.28782 25 1 
560 1.20427 9.87612 -0.0095203 -0.00676196 9.87613 -1.32547 25 1 
562 1.20426 9.88175 -0.00946333 -0.00731567 9.88176 -1.33716 25 1 
564 1.20425 9.8872 -0.00946666 -0.00735959 9.88721 -1.34725 25 1 
566 1.20425 9.89243 -0.00948188 -0.00745823 9.89244 -1.35385 25 1 
568 1.20424 9.89728 -0.00948546 -0.00802857 9.89729 -1.36935 25 1 
570 1.20423 9.90174 -0.00946747 -0.00842926 9.90175 -1.39025 25 1 
572 1.20423 9.9059 -0.00942924 -0.00855629 9.90591 -1.3938 25 1 
574 1.20422 9.91026 -0.00939147 -0.00876588 9.91027 -1.41465 25 1 
576 1.20421 9.91446 -0.00937354 -0.00893237 9.91447 -1.42999 25 1 
576 1.20421 9.91446 -0.00937354 -0.00893237 9.91447 -1.42999 26 1 
578 1.20422 9.91793 -0.00935335 -0.00881495 9.91794 -1.41629 26 1 
580 1.20421 9.92105 -0.00930692 -0.0086328 9.92105 -1.43248 26 1 
582 1.20419 9.92402 -0.00926313 -0.00853272 9.92403 -1.46208 26 1 
584 1.20418 9.92677 -0.00923615 -0.00828594 9.92678 -1.47472 26 1 
586 1.20417 9.92925 -0.00918937 -0.00798255 9.92926 -1.5029 26 1 
588 1.20416 9.9316 -0.00912072 -0.00789613 9.93161 -1.51302 26 1 
590 1.20417 9.93397 -0.00906263 -0.00803646 9.93398 -1.49204 26 1 
592 1.20417 9.93617 -0.00903724 -0.0081844 9.93618 -1.49264 26 1 
594 1.20416 9.93791 -0.00903443 -0.00833852 9.93792 -1.5132 26 1 
596 1.20415 9.93948 -0.00900879 -0.00817726 9.93949 -1.53566 26 1 
598 1.20414 9.9408 -0.00894388 -0.00790133 9.9408 -1.55318 26 1 
600 1.20414 9.94203 -0.00886435 -0.00802056 9.94203 -1.55512 26 1 
602 1.20414 9.94378 -0.00881432 -0.00823556 9.94379 -1.55427 26 1 
604 1.20414 9.94549 -0.00879747 -0.00830915 9.94549 -1.54912 26 1 
606 1.20414 9.94686 -0.00879983 -0.00830558 9.94687 -1.54565 26 1 
608 1.20413 9.94807 -0.00880526 -0.00824873 9.94807 -1.56626 26 1 
608 1.20413 9.94807 -0.00880526 -0.00824873 9.94807 -1.56626 26 1 
610 1.20413 9.94927 -0.00877726 -0.0079767 9.94928 -1.57422 26 1 
612 1.20413 9.95057 -0.00869098 -0.00795131 9.95057 -1.56638 26 1 
614 1.20413 9.95193 -0.00859475 -0.00804115 9.95193 -1.56914 26 1 
616 1.20413 9.95357 -0.0085494 -0.0079744 9.95358 -1.56505 26 1 
618 1.20413 9.95508 -0.00854005 -0.00770271 9.95508 -1.5658 26 1 
620 1.20412 9.95602 -0.00852932 -0.0075525 9.95602 -1.58122 26 1 
622 1.20412 9.95693 -0.00849137 -0.00750348 9.95694 -1.58594 26 1 
624 1.20412 9.95835 -0.00842153 -0.00744696 9.95836 -1.58352 26 1 
626 1.20413 9.95981 -0.00834413 -0.00740616 9.95981 -1.57719 26 1 
628 1.20414 9.96097 -0.00828024 -0.00748586 9.96097 -1.55205 26 1 
630 1.20414 9.96216 -0.00824547 -0.00737217 9.96217 -1.55601 26 1 
632 1.20412 9.96315 -0.00820653 -0.00703843 9.96316 -1.58784 26 1 
634 1.20412 9.96341 -0.00813857 -0.00693395 9.96342 -1.59676 26 1 
636 1.20412 9.96387 -0.00806121 -0.00696151 9.96388 -1.59066 26 1 
638 1.20412 9.96499 -0.00801057 -0.00699575 9.96499 -1.58792 26 1 
640 1.20412 9.966 -0.00798832 -0.00703173 9.966 -1.58828 26 1 
642 1.20414 9.96683 -0.00797951 -0.00693294 9.96683 -1.56071 26 1 
644 1.20415 9.96753 -0.0079426 -0.00666793 9.96754 -1.53284 26 1 
646 1.20414 9.96793 -0.00786554 -0.00660061 9.96794 -1.5455 26 1 
648 1.20413 9.96775 -0.00777733 -0.006606 9.96776 -1.5733 26 1 
650 1.20412 9.96764 -0.00768715 -0.00670855 9.96764 -1.59181 26 1 
652 1.20412 9.96812 -0.00760573 -0.006905 9.96812 -1.58344 26 1 
654 1.20415 9.96935 -0.00756212 -0.0069436 9.96935 -1.53828 26 1 
656 1.20419 9.97087 -0.00755817 -0.00664273 9.97087 -1.46927 26 1 
658 1.20421 9.97145 -0.00754699 -0.00643686 9.97145 -1.42529 26 1 
660 1.2042 9.97115 -0.00751193 -0.00637083 9.97116 -1.44699 26 1 
662 1.20417 9.97074 -0.00745518 -0.00634998 9.97075 -1.49543 26 1 
664 1.20417 9.97092 -0.00739991 -0.0063038 9.97093 -1.49932 26 1 
666 1.2042 9.97197 -0.00736924 -0.00633216 9.97198 -1.44265 26 1 
668 1.20425 9.97348 -0.00735215 -0.00649718 9.97349 -1.35457 26 1 
670 1.20428 9.97455 -0.00730974 -0.00641052 9.97455 -1.29701 26 1 
672 1.20427 9.9746 -0.00720359 -0.00612872 9.9746 -1.31559 26 1 
672 1.20427 9.9746 -0.00720359 -0.00612872 9.9746 -1.31559 27 1 
674 1.20425 9.97419 -0.00707296 -0.00607144 9.9742 -1.35767 27 1 
676 1.20427 9.97471 -0.00700235 -0.00595595 9.97471 -1.32589 27 1 
678 1.20433 9.97651 -0.00700659 -0.00596576 9.97651 -1.2094 27 1 
680 1.2044 9.97882 -0.00709448 -0.00603033 9.97882 -1.08454 27 1 
682 1.20444 9.98043 -0.00719293 -0.00587585 9.98044 -1.02028 27 1 
684 1.20443 9.98053 -0.0071973 -0.00569101 9.98053 -1.02197 27 1 
686 1.20442 9.98008 -0.00706182 -0.00577106 9.98009 -1.05515 27 1 
688 1.20441 9.98007 -0.00686917 -0.0060461 9.98007 -1.06655 27 1 
690 1.20444 9.98096 -0.00674353 -0.00594305 9.98097 -1.00501 27 1 
692 1.20451 9.98301 -0.00669631 -0.00547549 9.98301 -0.892464 27 1 
694 1.20457 9.98551 -0.00673464 -0.00512428 9.98551 -0.769958 27 1 
696 1.20464 9.98771 -0.00676077 -0.00497743 9.98771 -0.657017 27 1 
698 1.20468 9.989 -0.00668548 -0.00522766 9.98901 -0.587023 27 1 
700 1.20467 9.98915 -0.00654852 -0.00553401 9.98915 -0.595595 27 1 
702 1.20464 9.98868 -0.00641194 -0.00528651 9.98869 -0.642135 27 1 
704 1.20464 9.98835 -0.00635165 -0.00472431 9.98836 -0.650102 27 1 
704 1.20464 9.98835 -0.00635165 -0.00472431 9.98836 -0.650102 31 1 
706 1.20466 9.98933 -0.00635736 -0.00432728 9.98934 -0.606618 31 1 
708 1.20472 9.99159 -0.00638571 -0.00458815 9.99159 -0.510313 31 1 
710 1.20479 9.99424 -0.00638909 -0.00485549 9.99424 -0.373071 31 1 
712 1.20486 9.99633 -0.00634936 -0.00486182 9.99633 -0.254067 31 1 
714 1.20488 9.99692 -0.00633381 -0.00471119 9.99693 -0.21721 31 1 
716 1.20487 9.99686 -0.00635389 -0.00443007 9.99686 -0.241648 31 1 
718 1.20486 9.9969 -0.00637016 -0.00414173 9.9969 -0.251829 31 1 
720 1.20489 9.99794 -0.00634798 -0.00411574 9.99794 -0.205886 31 1 
722 1.20495 10.0003 -0.00625817 -0.00418357 10.0003 -0.0917871 31 1 
724 1.20504 10.0033 -0.00613735 -0.00415324 10.0033 0.0794153 31 1 
726 1.20516 10.0074 -0.00607851 -0.00399996 10.0074 0.281287 31 1 
728 1.20527 10.0119 -0.00611128 -0.00397852 10.0119 0.490095 31 1 
730 1.20538 10.0157 -0.0061668 -0.00393463 10.0157 0.689806 31 1 
732 1.20546 10.0185 -0.00618732 -0.00376338 10.0185 0.838788 31 1 
734 1.20551 10.0199 -0.00616933 -0.00342597 10.0199 0.92721 31 1 
736 1.20556 10.0214 -0.00614738 -0.00338509 10.0214 1.00342 31 1 
738 1.20562 10.0241 -0.00615932 -0.00364445 10.0241 1.11803 31 1 
740 1.20572 10.0282 -0.00619125 -0.00401762 10.0282 1.30004 31 1 
742 1.20586 10.0331 -0.00625225 -0.00415779 10.0331 1.54679 31 1 
744 1.20601 10.0381 -0.00634518 -0.00386094 10.0381 1.82915 31 1 
746 1.20616 10.0432 -0.00644419 -0.00347869 10.0432 2.09622 31 1 
748 1.20628 10.0479 -0.00652954 -0.00323323 10.0479 2.31445 31 1 
750 1.20639 10.0523 -0.00656451 -0.00338895 10.0523 2.50465 31 1 
752 1.2065 10.0563 -0.00654568 -0.00374665 10.0564 2.71358 31 1 
752 1.2065 10.0563 -0.00654568 -0.00374665 10.0564 2.71358 31 1 
754 1.20663 10.0602 -0.00649191 -0.00391565 10.0602 2.9405 31 1 
756 1.20674 10.0638 -0.00641935 -0.0038053 10.0638 3.14485 31 1 
758 1.20683 10.0679 -0.00635149 -0.00348217 10.0679 3.31153 31 1 
760 1.20693 10.0725 -0.00626662 -0.00331832 10.0725 3.48721 31 1 
762 1.20706 10.0769 -0.00613989 -0.00353437 10.0769 3.71788 31 1 
764 1.20719 10.0812 -0.0059978 -0.00379081 10.0812 3.96092 31 1 
766 1.20729 10.0842 -0.00588678 -0.00372026 10.0842 4.14142 31 1 
768 1.20734 10.0861 -0.00579994 -0.00316612 10.0861 4.23289 31 1 
770 1.20736 10.0871 -0.00569116 -0.00265866 10.0871 4.25988 31 1 
772 1.20737 10.088 -0.00553445 -0.00270187 10.088 4.28388 31 1 
774 1.20739 10.0888 -0.00530904 -0.00281606 10.0888 4.32382 31 1 
776 1.20739 10.0886 -0.00506415 -0.0025864 10.0886 4.32478 31 1 
778 1.20737 10.0882 -0.00486316 -0.00214089 10.0882 4.28477 31 1 
780 1.20735 10.0873 -0.00468135 -0.0016644 10.0873 4.24536 31 1 
782 1.20733 10.0861 -0.00452665 -0.00158352 10.0861 4.20674 31 1 
784 1.20729 10.0848 -0.00439245 -0.00175105 10.0848 4.13425 31 1 
786 1.20721 10.082 -0.00426277 -0.00159871 10.082 3.99652 31 1 
788 1.2071 10.0785 -0.00418742 -0.00115785 10.0785 3.79538 31 1 
790 1.20695 10.0737 -0.0041447 -0.000885471 10.0737 3.52928 31 1 
792 1.20678 10.0679 -0.00410761 -0.000816759 10.0679 3.21544 31 1 
794 1.20658 10.0615 -0.00408064 -0.00072949 10.0615 2.86017 31 1 
796 1.20637 10.0543 -0.00406851 -0.000732016 10.0543 2.46805 31 1 
798 1.20615 10.0483 -0.004077 -0.000532658 10.0483 2.07381 31 1 
800 1.20604 10.0456 -0.00408249 -0.000151709 10.0456 1.87872 31 1 
