0;r ;Density                 ;Velocity u              ;Velocity v              ;Velocity w              ;|Velocity|              ;Pressure                ;Distribution            ;Levels                  ;
0 1.205 10 0 0 10 -9.66574e-13 1 1 
2 1.205 10 0 0 10 -9.66574e-13 1 1 
4 1.205 10 0 0 10 -9.66574e-13 1 1 
6 1.205 10 0 0 10 -9.66574e-13 1 1 
8 1.205 10 0 0 10 -9.66574e-13 1 1 
10 1.205 10 0 0 10 -9.66574e-13 1 1 
12 1.205 10 0 0 10 -9.66574e-13 1 1 
14 1.205 10 0 0 10 -9.66574e-13 1 1 
16 1.205 10 0 0 10 -9.66574e-13 1 1 
18 1.205 10 0 0 10 -9.66574e-13 1 1 
20 1.205 10 0 0 10 -9.66574e-13 1 1 
22 1.205 10 0 0 10 -9.66574e-13 1 1 
24 1.205 10 0 0 10 -9.66574e-13 1 1 
26 1.205 10 0 0 10 -9.66574e-13 1 1 
28 1.205 10 0 0 10 -9.66574e-13 1 1 
30 1.205 10 0 0 10 -9.66574e-13 1 1 
32 1.205 10 0 0 10 -9.66574e-13 1 1 
32 1.205 10 0 0 10 -9.66574e-13 1 1 
34 1.205 10 0 0 10 -9.66574e-13 1 1 
36 1.205 10 0 0 10 -9.66574e-13 1 1 
38 1.205 10 0 0 10 -9.66574e-13 1 1 
40 1.205 10 0 0 10 -9.66574e-13 1 1 
42 1.205 10 0 0 10 -9.66574e-13 1 1 
44 1.205 10 0 0 10 -9.66574e-13 1 1 
46 1.205 10 0 0 10 -9.66574e-13 1 1 
48 1.205 10 0 0 10 -9.66574e-13 1 1 
50 1.205 10 0 0 10 -9.66574e-13 1 1 
52 1.205 10 0 0 10 -9.66574e-13 1 1 
54 1.205 10 0 0 10 -9.66574e-13 1 1 
56 1.205 10 0 0 10 -9.66574e-13 1 1 
58 1.205 10 0 0 10 -9.66574e-13 1 1 
60 1.205 10 0 0 10 -9.66574e-13 1 1 
62 1.205 10 0 0 10 -9.66574e-13 1 1 
64 1.205 10 0 0 10 -9.66574e-13 1 1 
64 1.205 10 0 0 10 -9.66574e-13 2 1 
66 1.205 10 0 0 10 -9.66574e-13 2 1 
68 1.205 10 0 0 10 -9.66574e-13 2 1 
70 1.205 10 0 0 10 -9.66574e-13 2 1 
72 1.205 10 0 0 10 -9.66574e-13 2 1 
74 1.205 10 0 0 10 -9.66574e-13 2 1 
76 1.205 10 0 0 10 -9.66574e-13 2 1 
78 1.205 10 0 0 10 -9.66574e-13 2 1 
80 1.205 10 0 0 10 -9.66574e-13 2 1 
82 1.205 10 0 0 10 -9.66574e-13 2 1 
84 1.205 10 0 0 10 -9.66574e-13 2 1 
86 1.205 10 0 0 10 -9.66574e-13 2 1 
88 1.205 10 0 0 10 -9.66574e-13 2 1 
90 1.205 10 0 0 10 -9.66574e-13 2 1 
92 1.205 10 0 0 10 -9.66574e-13 2 1 
94 1.205 10 0 0 10 -9.66574e-13 2 1 
96 1.205 10 0 0 10 -9.66574e-13 2 1 
96 1.205 10 0 0 10 -9.66574e-13 2 1 
98 1.205 10 0 0 10 -9.66574e-13 2 1 
100 1.205 10 0 0 10 -9.66574e-13 2 1 
102 1.205 10 0 0 10 -9.66574e-13 2 1 
104 1.205 10 0 0 10 -9.66574e-13 2 1 
106 1.205 10 0 0 10 -9.66574e-13 2 1 
108 1.205 10 0 0 10 -9.66574e-13 2 1 
110 1.205 10 0 0 10 -9.66574e-13 2 1 
112 1.205 10 0 0 10 -9.66574e-13 2 1 
114 1.205 10 0 0 10 -9.66574e-13 2 1 
116 1.205 10 0 0 10 -9.66574e-13 2 1 
118 1.205 10 0 0 10 -9.66574e-13 2 1 
120 1.205 10 0 0 10 -9.66574e-13 2 1 
122 1.205 10 0 0 10 -9.66574e-13 2 1 
124 1.205 10 0 0 10 -9.66574e-13 2 1 
126 1.205 10 0 0 10 -9.66574e-13 2 1 
128 1.205 10 0 0 10 -9.66574e-13 2 1 
128 1.205 10 0 0 10 -9.66574e-13 10 1 
130 1.205 10 0 0 10 -9.66574e-13 10 1 
132 1.205 10 0 0 10 -9.66574e-13 10 1 
134 1.205 10 0 0 10 -9.66574e-13 10 1 
136 1.205 10 0 0 10 -9.66574e-13 10 1 
138 1.205 10 0 0 10 -9.66574e-13 10 1 
140 1.205 10 0 0 10 -9.66574e-13 10 1 
142 1.205 10 0 0 10 -9.66574e-13 10 1 
144 1.205 10 0 0 10 -9.66574e-13 10 1 
146 1.205 10 0 0 10 -9.66574e-13 10 1 
148 1.205 10 0 0 10 -9.66574e-13 10 1 
150 1.205 10 0 0 10 -9.66574e-13 10 1 
152 1.205 10 0 0 10 -9.66574e-13 10 1 
154 1.205 10 0 0 10 -9.66574e-13 10 1 
156 1.205 10 0 0 10 -9.66574e-13 10 1 
158 1.205 10 0 0 10 -9.66574e-13 10 1 
160 1.205 10 0 0 10 -9.66574e-13 10 1 
160 1.205 10 0 0 10 -9.66574e-13 10 1 
162 1.205 10 0 0 10 -9.66574e-13 10 1 
164 1.205 10 0 0 10 -9.66574e-13 10 1 
166 1.205 10 0 0 10 -9.66574e-13 10 1 
168 1.205 10 0 0 10 -9.66574e-13 10 1 
170 1.205 10 0 0 10 -9.66574e-13 10 1 
172 1.205 10 0 0 10 -9.66574e-13 10 1 
174 1.205 10 0 0 10 -9.66574e-13 10 1 
176 1.205 10 0 0 10 -9.66574e-13 10 1 
178 1.205 10 0 0 10 -9.66574e-13 10 1 
180 1.205 10 0 0 10 -9.66574e-13 10 1 
182 1.205 10 0 0 10 -9.66574e-13 10 1 
184 1.205 10 0 0 10 -9.66574e-13 10 1 
186 1.205 10 0 0 10 -9.66574e-13 10 1 
188 1.205 10 0 0 10 -9.66574e-13 10 1 
190 1.205 10 0 0 10 -9.66574e-13 10 1 
192 1.205 10 0 0 10 -9.66574e-13 10 1 
194 1.205 10 0 0 10 -9.66574e-13 10 1 
196 1.205 10 0 0 10 -9.66574e-13 10 1 
198 1.205 10 0 0 10 -9.66574e-13 10 1 
200 1.205 10 0 0 10 -9.66574e-13 10 1 
202 1.205 10 0 0 10 -9.66574e-13 10 1 
204 1.205 10 0 0 10 -9.66574e-13 10 1 
206 1.205 10 0 0 10 -9.66574e-13 10 1 
208 1.205 10 0 0 10 -9.66574e-13 10 1 
210 1.205 10 0 0 10 -9.66574e-13 10 1 
212 1.205 10 0 0 10 -9.66574e-13 10 1 
214 1.205 10 0 0 10 -9.66574e-13 10 1 
216 1.205 10 0 0 10 -9.66574e-13 10 1 
218 1.205 10 0 0 10 -9.66574e-13 10 1 
220 1.205 10 0 0 10 -9.66574e-13 10 1 
222 1.205 10 0 0 10 -9.66574e-13 10 1 
224 1.205 10 0 0 10 -9.66574e-13 10 1 
224 1.205 10 0 0 10 -9.66574e-13 10 1 
226 1.205 10 0 0 10 -9.66574e-13 10 1 
228 1.205 10 0 0 10 -9.66574e-13 10 1 
230 1.205 10 0 0 10 -9.66574e-13 10 1 
232 1.205 10 0 0 10 -9.66574e-13 10 1 
234 1.205 10 0 0 10 -9.66574e-13 10 1 
236 1.205 10 0 0 10 -9.66574e-13 10 1 
238 1.205 10 0 0 10 -9.66574e-13 10 1 
240 1.205 10 0 0 10 -9.66574e-13 10 1 
242 1.205 10 0 0 10 -9.66574e-13 10 1 
244 1.205 10 0 0 10 -9.66574e-13 10 1 
246 1.205 10 0 0 10 -9.66574e-13 10 1 
248 1.205 10 0 0 10 -9.66574e-13 10 1 
250 1.205 10 0 0 10 -9.66574e-13 10 1 
252 1.205 10 0 0 10 -9.66574e-13 10 1 
254 1.205 10 0 0 10 -9.66574e-13 10 1 
256 1.205 10 0 0 10 -9.66574e-13 10 1 
256 1.205 10 0 0 10 -9.66574e-13 11 1 
258 1.205 10 0 0 10 -9.66574e-13 11 1 
260 1.205 10 0 0 10 -9.66574e-13 11 1 
262 1.205 10 0 0 10 -9.66574e-13 11 1 
264 1.205 10 0 0 10 -9.66574e-13 11 1 
266 1.205 10 0 0 10 -9.66574e-13 11 1 
268 1.205 10 0 0 10 -9.66574e-13 11 1 
270 1.205 10 0 0 10 -9.66574e-13 11 1 
272 1.205 10 0 0 10 -9.66574e-13 11 1 
274 1.205 10 0 0 10 -9.66574e-13 11 1 
276 1.205 10 0 0 10 -9.66574e-13 11 1 
278 1.205 10 0 0 10 -9.66574e-13 11 1 
280 1.205 10 0 0 10 -9.66574e-13 11 1 
282 1.205 10 0 0 10 -9.66574e-13 11 1 
284 1.205 10 0 0 10 -9.66574e-13 11 1 
286 1.205 10 0 0 10 -9.66574e-13 11 1 
288 1.205 10 0 0 10 -9.66574e-13 11 1 
288 1.205 10 0 0 10 -9.66574e-13 11 1 
290 1.205 10 0 0 10 -9.66574e-13 11 1 
292 1.205 10 0 0 10 -9.66574e-13 11 1 
294 1.205 10 0 0 10 -9.66574e-13 11 1 
296 1.205 10 0 0 10 -9.66574e-13 11 1 
298 1.205 10 0 0 10 -9.66574e-13 11 1 
300 1.205 10 0 0 10 -9.66574e-13 11 1 
302 1.205 10 0 0 10 -9.66574e-13 11 1 
304 1.205 10 0 0 10 -9.66574e-13 11 1 
306 1.205 10 0 0 10 -9.66574e-13 11 1 
308 1.205 10 0 0 10 -9.66574e-13 11 1 
310 1.205 10 0 0 10 -9.66574e-13 11 1 
312 1.205 10 0 0 10 -9.66574e-13 11 1 
314 1.205 10 0 0 10 -9.66574e-13 11 1 
316 1.205 10 0 0 10 -9.66574e-13 11 1 
318 1.205 10 0 0 10 -9.66574e-13 11 1 
320 1.205 10 0 0 10 -9.66574e-13 11 1 
320 1.205 10 0 0 10 -9.66574e-13 15 1 
322 1.205 10 0 0 10 -9.66574e-13 15 1 
324 1.205 10 0 0 10 -9.66574e-13 15 1 
326 1.205 10 0 0 10 -9.66574e-13 15 1 
328 1.205 10 0 0 10 -9.66574e-13 15 1 
330 1.205 10 0 0 10 -9.66574e-13 15 1 
332 1.205 10 0 0 10 -9.66574e-13 15 1 
334 1.205 10 0 0 10 -9.66574e-13 15 1 
336 1.205 10 0 0 10 -9.66574e-13 15 1 
338 1.205 10 0 0 10 -9.66574e-13 15 1 
340 1.205 10 0 0 10 -9.66574e-13 15 1 
342 1.205 10 0 0 10 -9.66574e-13 15 1 
344 1.205 10 0 0 10 -9.66574e-13 15 1 
346 1.205 10 0 0 10 -9.66574e-13 15 1 
348 1.205 10 0 0 10 -9.66574e-13 15 1 
350 1.205 10 0 0 10 -9.66574e-13 15 1 
352 1.205 10 0 0 10 -9.66574e-13 15 1 
354 1.205 10 0 0 10 -9.66574e-13 15 1 
356 1.205 10 0 0 10 -9.66574e-13 15 1 
358 1.205 10 0 0 10 -9.66574e-13 15 1 
360 1.205 10 0 0 10 -9.66574e-13 15 1 
362 1.205 10 0 0 10 -9.66574e-13 15 1 
364 1.205 10 0 0 10 -9.66574e-13 15 1 
366 1.205 10 0 0 10 -9.66574e-13 15 1 
368 1.205 10 0 0 10 -9.66574e-13 15 1 
370 1.205 10 0 0 10 -9.66574e-13 15 1 
372 1.205 10 0 0 10 -9.66574e-13 15 1 
374 1.205 10 0 0 10 -9.66574e-13 15 1 
376 1.205 10 0 0 10 -9.66574e-13 15 1 
378 1.205 10 0 0 10 -9.66574e-13 15 1 
380 1.205 10 0 0 10 -9.66574e-13 15 1 
382 1.205 10 0 0 10 -9.66574e-13 15 1 
384 1.205 10 0 0 10 -9.66574e-13 15 1 
384 1.205 10 0 0 10 -9.66574e-13 16 1 
386 1.205 10 0 0 10 -9.66574e-13 16 1 
388 1.205 10 0 0 10 -9.66574e-13 16 1 
390 1.205 10 0 0 10 -9.66574e-13 16 1 
392 1.205 10 0 0 10 -9.66574e-13 16 1 
394 1.205 10 0 0 10 -9.66574e-13 16 1 
396 1.205 10 0 0 10 -9.66574e-13 16 1 
398 1.205 10 0 0 10 -9.66574e-13 16 1 
400 1.205 10 0 0 10 -9.66574e-13 16 1 
402 1.205 10 0 0 10 -9.66574e-13 16 1 
404 1.205 10 0 0 10 -9.66574e-13 16 1 
406 1.205 10 0 0 10 -9.66574e-13 16 1 
408 1.205 10 0 0 10 -9.66574e-13 16 1 
410 1.205 10 0 0 10 -9.66574e-13 16 1 
412 1.205 10 0 0 10 -9.66574e-13 16 1 
414 1.205 10 0 0 10 -9.66574e-13 16 1 
416 1.205 10 0 0 10 -9.66574e-13 16 1 
416 1.205 10 0 0 10 -9.66574e-13 16 1 
418 1.205 10 0 0 10 -9.66574e-13 16 1 
420 1.205 10 0 0 10 -9.66574e-13 16 1 
422 1.205 10 0 0 10 -9.66574e-13 16 1 
424 1.205 10 0 0 10 -9.66574e-13 16 1 
426 1.205 10 0 0 10 -9.66574e-13 16 1 
428 1.205 10 0 0 10 -9.66574e-13 16 1 
430 1.205 10 0 0 10 -9.66574e-13 16 1 
432 1.205 10 0 0 10 -9.66574e-13 16 1 
434 1.205 10 0 0 10 -9.66574e-13 16 1 
436 1.205 10 0 0 10 -9.66574e-13 16 1 
438 1.205 10 0 0 10 -9.66574e-13 16 1 
440 1.205 10 0 0 10 -9.66574e-13 16 1 
442 1.205 10 0 0 10 -9.66574e-13 16 1 
444 1.205 10 0 0 10 -9.66574e-13 16 1 
446 1.205 10 0 0 10 -9.66574e-13 16 1 
448 1.205 10 0 0 10 -9.66574e-13 16 1 
448 1.205 10 0 0 10 -9.66574e-13 17 1 
450 1.205 10 0 0 10 -9.66574e-13 17 1 
452 1.205 10 0 0 10 -9.66574e-13 17 1 
454 1.205 10 0 0 10 -9.66574e-13 17 1 
456 1.205 10 0 0 10 -9.66574e-13 17 1 
458 1.205 10 0 0 10 -9.66574e-13 17 1 
460 1.205 10 0 0 10 -9.66574e-13 17 1 
462 1.205 10 0 0 10 -9.66574e-13 17 1 
464 1.205 10 0 0 10 -9.66574e-13 17 1 
466 1.205 10 0 0 10 -9.66574e-13 17 1 
468 1.205 10 0 0 10 -9.66574e-13 17 1 
470 1.205 10 0 0 10 -9.66574e-13 17 1 
472 1.205 10 0 0 10 -9.66574e-13 17 1 
474 1.205 10 0 0 10 -9.66574e-13 17 1 
476 1.205 10 0 0 10 -9.66574e-13 17 1 
478 1.205 10 0 0 10 -9.66574e-13 17 1 
480 1.205 10 0 0 10 -9.66574e-13 17 1 
480 1.205 10 0 0 10 -9.66574e-13 17 1 
482 1.205 10 0 0 10 -9.66574e-13 17 1 
484 1.205 10 0 0 10 -9.66574e-13 17 1 
486 1.205 10 0 0 10 -9.66574e-13 17 1 
488 1.205 10 0 0 10 -9.66574e-13 17 1 
490 1.205 10 0 0 10 -9.66574e-13 17 1 
492 1.205 10 0 0 10 -9.66574e-13 17 1 
494 1.205 10 0 0 10 -9.66574e-13 17 1 
496 1.205 10 0 0 10 -9.66574e-13 17 1 
498 1.205 10 0 0 10 -9.66574e-13 17 1 
500 1.205 10 0 0 10 -9.66574e-13 17 1 
502 1.205 10 0 0 10 -9.66574e-13 17 1 
504 1.205 10 0 0 10 -9.66574e-13 17 1 
506 1.205 10 0 0 10 -9.66574e-13 17 1 
508 1.205 10 0 0 10 -9.66574e-13 17 1 
510 1.205 10 0 0 10 -9.66574e-13 17 1 
512 1.205 10 0 0 10 -9.66574e-13 17 1 
512 1.205 10 0 0 10 -9.66574e-13 25 1 
514 1.205 10 0 0 10 -9.66574e-13 25 1 
516 1.205 10 0 0 10 -9.66574e-13 25 1 
518 1.205 10 0 0 10 -9.66574e-13 25 1 
520 1.205 10 0 0 10 -9.66574e-13 25 1 
522 1.205 10 0 0 10 -9.66574e-13 25 1 
524 1.205 10 0 0 10 -9.66574e-13 25 1 
526 1.205 10 0 0 10 -9.66574e-13 25 1 
528 1.205 10 0 0 10 -9.66574e-13 25 1 
530 1.205 10 0 0 10 -9.66574e-13 25 1 
532 1.205 10 0 0 10 -9.66574e-13 25 1 
534 1.205 10 0 0 10 -9.66574e-13 25 1 
536 1.205 10 0 0 10 -9.66574e-13 25 1 
538 1.205 10 0 0 10 -9.66574e-13 25 1 
540 1.205 10 0 0 10 -9.66574e-13 25 1 
542 1.205 10 0 0 10 -9.66574e-13 25 1 
544 1.205 10 0 0 10 -9.66574e-13 25 1 
544 1.205 10 0 0 10 -9.66574e-13 25 1 
546 1.205 10 0 0 10 -9.66574e-13 25 1 
548 1.205 10 0 0 10 -9.66574e-13 25 1 
550 1.205 10 0 0 10 -9.66574e-13 25 1 
552 1.205 10 0 0 10 -9.66574e-13 25 1 
554 1.205 10 0 0 10 -9.66574e-13 25 1 
556 1.205 10 0 0 10 -9.66574e-13 25 1 
558 1.205 10 0 0 10 -9.66574e-13 25 1 
560 1.205 10 0 0 10 -9.66574e-13 25 1 
562 1.205 10 0 0 10 -9.66574e-13 25 1 
564 1.205 10 0 0 10 -9.66574e-13 25 1 
566 1.205 10 0 0 10 -9.66574e-13 25 1 
568 1.205 10 0 0 10 -9.66574e-13 25 1 
570 1.205 10 0 0 10 -9.66574e-13 25 1 
572 1.205 10 0 0 10 -9.66574e-13 25 1 
574 1.205 10 0 0 10 -9.66574e-13 25 1 
576 1.205 10 0 0 10 -9.66574e-13 25 1 
576 1.205 10 0 0 10 -9.66574e-13 26 1 
578 1.205 10 0 0 10 -9.66574e-13 26 1 
580 1.205 10 0 0 10 -9.66574e-13 26 1 
582 1.205 10 0 0 10 -9.66574e-13 26 1 
584 1.205 10 0 0 10 -9.66574e-13 26 1 
586 1.205 10 0 0 10 -9.66574e-13 26 1 
588 1.205 10 0 0 10 -9.66574e-13 26 1 
590 1.205 10 0 0 10 -9.66574e-13 26 1 
592 1.205 10 0 0 10 -9.66574e-13 26 1 
594 1.205 10 0 0 10 -9.66574e-13 26 1 
596 1.205 10 0 0 10 -9.66574e-13 26 1 
598 1.205 10 0 0 10 -9.66574e-13 26 1 
600 1.205 10 0 0 10 -9.66574e-13 26 1 
602 1.205 10 0 0 10 -9.66574e-13 26 1 
604 1.205 10 0 0 10 -9.66574e-13 26 1 
606 1.205 10 0 0 10 -9.66574e-13 26 1 
608 1.205 10 0 0 10 -9.66574e-13 26 1 
608 1.205 10 0 0 10 -9.66574e-13 26 1 
610 1.205 10 0 0 10 -9.66574e-13 26 1 
612 1.205 10 0 0 10 -9.66574e-13 26 1 
614 1.205 10 0 0 10 -9.66574e-13 26 1 
616 1.205 10 0 0 10 -9.66574e-13 26 1 
618 1.205 10 0 0 10 -9.66574e-13 26 1 
620 1.205 10 0 0 10 -9.66574e-13 26 1 
622 1.205 10 0 0 10 -9.66574e-13 26 1 
624 1.205 10 0 0 10 -9.66574e-13 26 1 
626 1.205 10 0 0 10 -9.66574e-13 26 1 
628 1.205 10 0 0 10 -9.66574e-13 26 1 
630 1.205 10 0 0 10 -9.66574e-13 26 1 
632 1.205 10 0 0 10 -9.66574e-13 26 1 
634 1.205 10 0 0 10 -9.66574e-13 26 1 
636 1.205 10 0 0 10 -9.66574e-13 26 1 
638 1.205 10 0 0 10 -9.66574e-13 26 1 
640 1.205 10 0 0 10 -9.66574e-13 26 1 
642 1.205 10 0 0 10 -9.66574e-13 26 1 
644 1.205 10 0 0 10 -9.66574e-13 26 1 
646 1.205 10 0 0 10 -9.66574e-13 26 1 
648 1.205 10 0 0 10 -9.66574e-13 26 1 
650 1.205 10 0 0 10 -9.66574e-13 26 1 
652 1.205 10 0 0 10 -9.66574e-13 26 1 
654 1.205 10 0 0 10 -9.66574e-13 26 1 
656 1.205 10 0 0 10 -9.66574e-13 26 1 
658 1.205 10 0 0 10 -9.66574e-13 26 1 
660 1.205 10 0 0 10 -9.66574e-13 26 1 
662 1.205 10 0 0 10 -9.66574e-13 26 1 
664 1.205 10 0 0 10 -9.66574e-13 26 1 
666 1.205 10 0 0 10 -9.66574e-13 26 1 
668 1.205 10 0 0 10 -9.66574e-13 26 1 
670 1.205 10 0 0 10 -9.66574e-13 26 1 
672 1.205 10 0 0 10 -9.66574e-13 26 1 
672 1.205 10 0 0 10 -9.66574e-13 27 1 
674 1.205 10 0 0 10 -9.66574e-13 27 1 
676 1.205 10 0 0 10 -9.66574e-13 27 1 
678 1.205 10 0 0 10 -9.66574e-13 27 1 
680 1.205 10 0 0 10 -9.66574e-13 27 1 
682 1.205 10 0 0 10 -9.66574e-13 27 1 
684 1.205 10 0 0 10 -9.66574e-13 27 1 
686 1.205 10 0 0 10 -9.66574e-13 27 1 
688 1.205 10 0 0 10 -9.66574e-13 27 1 
690 1.205 10 0 0 10 -9.66574e-13 27 1 
692 1.205 10 0 0 10 -9.66574e-13 27 1 
694 1.205 10 0 0 10 -9.66574e-13 27 1 
696 1.205 10 0 0 10 -9.66574e-13 27 1 
698 1.205 10 0 0 10 -9.66574e-13 27 1 
700 1.205 10 0 0 10 -9.66574e-13 27 1 
702 1.205 10 0 0 10 -9.66574e-13 27 1 
704 1.205 10 0 0 10 -9.66574e-13 27 1 
704 1.205 10 0 0 10 -9.66574e-13 31 1 
706 1.205 10 0 0 10 -9.66574e-13 31 1 
708 1.205 10 0 0 10 -9.66574e-13 31 1 
710 1.205 10 0 0 10 -9.66574e-13 31 1 
712 1.205 10 0 0 10 -9.66574e-13 31 1 
714 1.205 10 0 0 10 -9.66574e-13 31 1 
716 1.205 10 0 0 10 -9.66574e-13 31 1 
718 1.205 10 0 0 10 -9.66574e-13 31 1 
720 1.205 10 0 0 10 -9.66574e-13 31 1 
722 1.205 10 0 0 10 -9.66574e-13 31 1 
724 1.205 10 0 0 10 -9.66574e-13 31 1 
726 1.205 10 0 0 10 -9.66574e-13 31 1 
728 1.205 10 0 0 10 -9.66574e-13 31 1 
730 1.205 10 0 0 10 -9.66574e-13 31 1 
732 1.205 10 0 0 10 -9.66574e-13 31 1 
734 1.205 10 0 0 10 -9.66574e-13 31 1 
736 1.205 10 0 0 10 -9.66574e-13 31 1 
738 1.205 10 0 0 10 -9.66574e-13 31 1 
740 1.205 10 0 0 10 -9.66574e-13 31 1 
742 1.205 10 0 0 10 -9.66574e-13 31 1 
744 1.205 10 0 0 10 -9.66574e-13 31 1 
746 1.205 10 0 0 10 -9.66574e-13 31 1 
748 1.205 10 0 0 10 -9.66574e-13 31 1 
750 1.205 10 0 0 10 -9.66574e-13 31 1 
752 1.205 10 0 0 10 -9.66574e-13 31 1 
752 1.205 10 0 0 10 -9.66574e-13 31 1 
754 1.205 10 0 0 10 -9.66574e-13 31 1 
756 1.205 10 0 0 10 -9.66574e-13 31 1 
758 1.205 10 0 0 10 -9.66574e-13 31 1 
760 1.205 10 0 0 10 -9.66574e-13 31 1 
762 1.205 10 0 0 10 -9.66574e-13 31 1 
764 1.205 10 0 0 10 -9.66574e-13 31 1 
766 1.205 10 0 0 10 -9.66574e-13 31 1 
768 1.205 10 0 0 10 -9.66574e-13 31 1 
770 1.205 10 0 0 10 -9.66574e-13 31 1 
772 1.205 10 0 0 10 -9.66574e-13 31 1 
774 1.205 10 0 0 10 -9.66574e-13 31 1 
776 1.205 10 0 0 10 -9.66574e-13 31 1 
778 1.205 10 0 0 10 -9.66574e-13 31 1 
780 1.205 10 0 0 10 -9.66574e-13 31 1 
782 1.205 10 0 0 10 -9.66574e-13 31 1 
784 1.205 10 0 0 10 -9.66574e-13 31 1 
786 1.205 10 0 0 10 -9.66574e-13 31 1 
788 1.205 10 0 0 10 -9.66574e-13 31 1 
790 1.205 10 0 0 10 -9.66574e-13 31 1 
792 1.205 10 0 0 10 -9.66574e-13 31 1 
794 1.205 10 0 0 10 -9.66574e-13 31 1 
796 1.205 10 0 0 10 -9.66574e-13 31 1 
798 1.205 10 0 0 10 -9.66574e-13 31 1 
800 1.205 10 0 0 10 -9.66574e-13 31 1 
