70.6405;r ;Density                 ;Velocity u              ;Velocity v              ;Velocity w              ;|Velocity|              ;Pressure                ;Distribution            ;Levels                  ;
0 1.20567 10.0005 -1.7563e-05 -0.000993819 10.0005 1.20497 1 1 
2 1.20567 9.99991 -4.64625e-05 8.92548e-06 9.99991 1.20242 1 1 
4 1.20567 9.99899 -0.00011547 0.000178578 9.99899 1.20421 1 1 
6 1.20568 9.99846 -0.000185508 0.000145623 9.99846 1.22071 1 1 
8 1.20569 9.99774 -0.000224035 0.000319234 9.99774 1.24466 1 1 
10 1.20569 9.99674 -0.000278895 0.000256702 9.99674 1.24384 1 1 
12 1.20569 9.99555 -0.000328052 0.000201541 9.99555 1.24435 1 1 
14 1.2057 9.99458 -0.000401933 0.000420421 9.99458 1.27004 1 1 
16 1.20571 9.994 -0.000456828 0.000617344 9.994 1.28654 1 1 
18 1.20571 9.99309 -0.000517714 0.000809211 9.99309 1.29086 1 1 
20 1.20572 9.99203 -0.000569231 0.00102269 9.99203 1.30268 1 1 
22 1.20573 9.99109 -0.00061845 0.00112918 9.99109 1.32671 1 1 
24 1.20574 9.99023 -0.000665657 0.000729258 9.99023 1.33508 1 1 
26 1.20574 9.9891 -0.000710132 0.000510689 9.9891 1.34358 1 1 
28 1.20575 9.98796 -0.00077443 0.000892949 9.98796 1.36177 1 1 
30 1.20576 9.98714 -0.000840492 0.000882787 9.98714 1.37167 1 1 
32 1.20577 9.98615 -0.000902934 0.000869324 9.98615 1.38878 1 1 
32 1.20577 9.98615 -0.000902934 0.000869324 9.98615 1.38878 1 1 
34 1.20578 9.98521 -0.000940635 0.00105469 9.98521 1.40616 1 1 
36 1.20579 9.98444 -0.000993703 0.00106289 9.98444 1.41879 1 1 
38 1.2058 9.98357 -0.00103209 0.000836137 9.98357 1.4361 1 1 
40 1.2058 9.98264 -0.00110032 0.000714678 9.98264 1.45262 1 1 
42 1.20581 9.98172 -0.00114518 0.000778632 9.98172 1.46714 1 1 
44 1.20582 9.98079 -0.00120957 0.0010604 9.98079 1.48368 1 1 
46 1.20583 9.97983 -0.00125853 0.00133917 9.97983 1.50234 1 1 
48 1.20584 9.97904 -0.00132526 0.00128843 9.97904 1.51755 1 1 
50 1.20585 9.97828 -0.00138641 0.00120269 9.97828 1.53409 1 1 
52 1.20586 9.97736 -0.00141712 0.00113846 9.97736 1.5514 1 1 
54 1.20587 9.97645 -0.00147922 0.00112495 9.97645 1.5685 1 1 
56 1.20588 9.97551 -0.0015471 0.00117078 9.97551 1.59511 1 1 
58 1.20589 9.97469 -0.00159947 0.00125968 9.97469 1.61343 1 1 
60 1.2059 9.97396 -0.00164287 0.0013774 9.97396 1.62201 1 1 
62 1.20591 9.97243 -0.00168419 0.00108349 9.97243 1.65247 1 1 
64 1.20592 9.97099 -0.00174494 0.000646225 9.97099 1.66412 1 1 
64 1.20592 9.97099 -0.00174494 0.000646225 9.97099 1.66412 2 1 
66 1.20593 9.97025 -0.00180854 0.000685478 9.97025 1.67426 2 1 
68 1.20595 9.96945 -0.00186747 0.000739314 9.96945 1.71871 2 1 
70 1.20596 9.96903 -0.00192443 0.00108684 9.96903 1.72956 2 1 
72 1.20596 9.96786 -0.00198833 0.00116866 9.96786 1.7424 2 1 
74 1.20598 9.96629 -0.00203063 0.000993144 9.96629 1.77561 2 1 
76 1.20599 9.96544 -0.00208588 0.000902085 9.96544 1.79402 2 1 
78 1.20601 9.96448 -0.00214243 0.000349935 9.96448 1.81955 2 1 
80 1.20602 9.96368 -0.00219982 0.000110156 9.96368 1.83963 2 1 
82 1.20603 9.96262 -0.00225206 5.7127e-05 9.96262 1.86131 2 1 
84 1.20605 9.96096 -0.00229768 -0.000131184 9.96096 1.89281 2 1 
86 1.20606 9.96008 -0.00234789 0.000438573 9.96008 1.90704 2 1 
88 1.20607 9.95908 -0.00238808 0.000278366 9.95908 1.93599 2 1 
90 1.20609 9.95801 -0.00244179 0.000199161 9.95801 1.96571 2 1 
92 1.20609 9.95761 -0.00248089 0.000319435 9.95762 1.97515 2 1 
94 1.20611 9.95658 -0.00252824 -0.000180576 9.95658 2.0101 2 1 
96 1.20614 9.95523 -0.00259101 -0.000375861 9.95523 2.05259 2 1 
96 1.20614 9.95523 -0.00259101 -0.000375861 9.95523 2.05259 2 1 
98 1.20614 9.95393 -0.00263639 -0.000325365 9.95393 2.0612 2 1 
100 1.20615 9.95241 -0.00269353 -0.00025841 9.95241 2.0716 2 1 
102 1.20617 9.95099 -0.00272969 -6.76163e-05 9.95099 2.11874 2 1 
104 1.20619 9.95006 -0.00276662 0.000311263 9.95006 2.14367 2 1 
106 1.20619 9.94918 -0.0028112 -6.06246e-05 9.94918 2.15334 2 1 
108 1.20622 9.94796 -0.00283944 -0.000647742 9.94796 2.20213 2 1 
110 1.20624 9.94701 -0.00288205 -0.000966184 9.94701 2.23154 2 1 
112 1.20623 9.94658 -0.00292909 -0.000964746 9.94658 2.2303 2 1 
114 1.20626 9.94501 -0.00296872 -0.000617446 9.94501 2.28433 2 1 
116 1.20629 9.94317 -0.00302009 -0.000207385 9.94317 2.32527 2 1 
118 1.20628 9.94213 -0.00307062 -0.000206091 9.94213 2.31861 2 1 
120 1.20631 9.94034 -0.00308352 -0.000639946 9.94034 2.36302 2 1 
122 1.20633 9.93889 -0.00312099 -0.00120516 9.93889 2.40693 2 1 
124 1.20634 9.93833 -0.00315871 -0.00160532 9.93833 2.41191 2 1 
126 1.20636 9.93705 -0.00320719 -0.00168239 9.93705 2.46173 2 1 
128 1.20639 9.93558 -0.0032522 -0.00119763 9.93558 2.51314 2 1 
128 1.20639 9.93558 -0.0032522 -0.00119763 9.93558 2.51314 10 1 
130 1.20639 9.93498 -0.00329389 -0.000549869 9.93498 2.50682 10 1 
132 1.20641 9.93321 -0.00333548 -0.000498358 9.93321 2.55213 10 1 
134 1.20644 9.93104 -0.00337006 -0.00110422 9.93104 2.60434 10 1 
136 1.20644 9.9304 -0.00342454 -0.00178342 9.9304 2.60529 10 1 
138 1.20648 9.92849 -0.00347926 -0.00218568 9.92849 2.66917 10 1 
140 1.2065 9.92663 -0.0035185 -0.00236189 9.92663 2.70799 10 1 
142 1.20649 9.92634 -0.0035593 -0.00178095 9.92634 2.69691 10 1 
144 1.20654 9.92425 -0.00357807 -0.00171561 9.92425 2.773 10 1 
146 1.20656 9.92217 -0.00361018 -0.00172312 9.92217 2.82157 10 1 
148 1.20656 9.92161 -0.00363611 -0.00201663 9.92162 2.80952 10 1 
150 1.20659 9.91947 -0.00366374 -0.00261023 9.91947 2.88088 10 1 
152 1.20662 9.91721 -0.00372048 -0.00236666 9.91721 2.9279 10 1 
154 1.20661 9.91651 -0.00376172 -0.00188405 9.91651 2.90888 10 1 
156 1.20666 9.91435 -0.00378866 -0.00192268 9.91435 2.99031 10 1 
158 1.20669 9.91206 -0.00385005 -0.00223581 9.91206 3.06104 10 1 
160 1.20668 9.91144 -0.00389287 -0.00270591 9.91144 3.04276 10 1 
160 1.20668 9.91144 -0.00389287 -0.00270591 9.91144 3.04276 10 1 
162 1.20672 9.90934 -0.00393336 -0.0029233 9.90934 3.10098 10 1 
164 1.20676 9.90671 -0.00393116 -0.0026649 9.90671 3.17873 10 1 
166 1.20676 9.90514 -0.00395577 -0.00294128 9.90514 3.18148 10 1 
168 1.20678 9.90253 -0.0040095 -0.00227154 9.90253 3.21808 10 1 
170 1.20683 9.89972 -0.00405327 -0.00199889 9.89972 3.30181 10 1 
172 1.20684 9.89826 -0.00407735 -0.00252997 9.89826 3.32928 10 1 
174 1.20686 9.89601 -0.00414363 -0.00270497 9.89601 3.35667 10 1 
176 1.20691 9.89316 -0.00417706 -0.00319855 9.89316 3.44264 10 1 
178 1.20694 9.89073 -0.00421933 -0.00333061 9.89074 3.50012 10 1 
180 1.20695 9.88784 -0.00426148 -0.00312205 9.88784 3.51607 10 1 
182 1.20697 9.88569 -0.0043112 -0.0026694 9.88569 3.56577 10 1 
184 1.20703 9.88309 -0.00434477 -0.00246762 9.88309 3.65931 10 1 
186 1.20706 9.87925 -0.0044251 -0.00195775 9.87926 3.71208 10 1 
188 1.20707 9.8763 -0.00447731 -0.00168844 9.87631 3.73489 10 1 
190 1.20712 9.87288 -0.00452489 -0.00207456 9.87289 3.82785 10 1 
192 1.20716 9.86873 -0.00461199 -0.00364112 9.86874 3.90919 10 1 
194 1.20717 9.86576 -0.00468743 -0.00409112 9.86576 3.91043 10 1 
196 1.20722 9.86214 -0.00476712 -0.00369086 9.86214 4.00482 10 1 
198 1.20729 9.85783 -0.00487409 -0.00302516 9.85783 4.14196 10 1 
200 1.2073 9.85515 -0.00493937 -0.00173617 9.85515 4.14955 10 1 
202 1.20733 9.85154 -0.00499051 -0.00149852 9.85154 4.20918 10 1 
204 1.20742 9.84552 -0.00508128 -0.00213811 9.84552 4.36589 10 1 
206 1.20744 9.83993 -0.00517322 -0.00241646 9.83994 4.41407 10 1 
208 1.20746 9.83428 -0.00526593 -0.00255676 9.83429 4.45098 10 1 
210 1.20755 9.8271 -0.00534845 -0.00239754 9.8271 4.61026 10 1 
212 1.2076 9.82207 -0.00539091 -0.00193991 9.82207 4.69679 10 1 
214 1.20762 9.81749 -0.00538955 -0.00205447 9.81749 4.73802 10 1 
216 1.20772 9.81089 -0.00546707 0.000572934 9.81089 4.90945 10 1 
218 1.20779 9.80526 -0.00544553 0.00131856 9.80526 5.04569 10 1 
220 1.20784 9.79682 -0.00546938 3.68209e-05 9.79682 5.122 10 1 
222 1.2079 9.78685 -0.0054792 -0.000283916 9.78685 5.22918 10 1 
224 1.20796 9.77838 -0.00566552 -0.00175482 9.77838 5.35282 10 1 
224 1.20796 9.77838 -0.00566552 -0.00175482 9.77838 5.35282 10 1 
226 1.20807 9.76672 -0.00585698 0.000553022 9.76673 5.54565 10 1 
228 1.20812 9.75747 -0.00596737 0.00402503 9.75748 5.64174 10 1 
230 1.20821 9.74842 -0.00596961 0.00512687 9.74843 5.79454 10 1 
232 1.20836 9.73466 -0.00598638 0.00500619 9.73466 6.07012 10 1 
234 1.20838 9.72429 -0.00610415 0.00317297 9.72429 6.1082 10 1 
236 1.20848 9.71158 -0.00629009 0.00419688 9.71158 6.28647 10 1 
238 1.20869 9.69456 -0.0064413 0.00557496 9.69457 6.66676 10 1 
240 1.20875 9.67953 -0.00647891 0.0076877 9.67953 6.77864 10 1 
242 1.20883 9.66116 -0.00650446 0.0115311 9.66117 6.92589 10 1 
244 1.20903 9.64046 -0.00667421 0.012785 9.64047 7.28302 10 1 
246 1.20918 9.62052 -0.00685466 0.0139279 9.62054 7.55261 10 1 
248 1.20931 9.59841 -0.00697592 0.0170474 9.59843 7.78339 10 1 
250 1.20952 9.57394 -0.00707874 0.018452 9.57397 8.16777 10 1 
252 1.20975 9.54613 -0.00722263 0.0225775 9.54617 8.57345 10 1 
254 1.20989 9.51477 -0.00743849 0.0284931 9.51482 8.83289 10 1 
256 1.2101 9.48153 -0.0074594 0.0319688 9.48159 9.21868 10 1 
256 1.2101 9.48153 -0.0074594 0.0319688 9.48159 9.21868 11 1 
258 1.21044 9.4445 -0.00758962 0.0383877 9.44459 9.82287 11 1 
260 1.21071 9.40272 -0.00775185 0.0468538 9.40285 10.3176 11 1 
262 1.21096 9.35708 -0.00787813 0.0531724 9.35725 10.7602 11 1 
264 1.2113 9.30629 -0.00804792 0.0658003 9.30655 11.3841 11 1 
266 1.21174 9.24768 -0.00816857 0.0796872 9.24805 12.1669 11 1 
268 1.21211 9.18367 -0.00830855 0.0956805 9.1842 12.8466 11 1 
270 1.21249 9.11725 -0.0084711 0.120415 9.11809 13.5376 11 1 
272 1.21313 9.03753 -0.00859844 0.148347 9.03881 14.6843 11 1 
274 1.21372 8.94244 -0.00873204 0.178064 8.94432 15.743 11 1 
276 1.21411 8.84296 -0.00883579 0.213188 8.84565 16.4579 11 1 
278 1.21484 8.73312 -0.00894582 0.259474 8.7371 17.766 11 1 
280 1.2157 8.61623 -0.00907994 0.323206 8.62248 19.3242 11 1 
282 1.21625 8.49908 -0.00919118 0.40409 8.50897 20.3267 11 1 
284 1.21698 8.36574 -0.00930417 0.486508 8.38018 21.6453 11 1 
286 1.2179 8.21387 -0.00940577 0.594253 8.23593 23.3044 11 1 
288 1.21841 8.07275 -0.00946684 0.716077 8.10504 24.2263 11 1 
288 1.21841 8.07275 -0.00946684 0.716077 8.10504 24.2263 11 1 
290 1.21916 7.91786 -0.00951446 0.849273 7.9643 25.5779 11 1 
292 1.2202 7.74841 -0.0095667 1.02302 7.81692 27.4459 11 1 
294 1.22028 7.61412 -0.00958282 1.23078 7.71436 27.5918 11 1 
296 1.219 7.25532 -0.00951038 1.0813 7.34164 25.2921 11 1 
298 1.2147 6.48234 -0.00948279 0.313087 6.51719 17.5235 11 1 
300 1.20863 5.63052 -0.00950897 -0.722965 5.72002 6.55095 11 1 
302 1.20464 5.06702 -0.00951959 -1.52614 5.30918 -0.645671 11 1 
304 1.20249 4.82306 -0.00957825 -1.70557 5.1169 -4.53233 11 1 
306 1.20178 4.66307 -0.00957313 -1.54726 4.91387 -5.81365 11 1 
308 1.20213 4.46448 -0.00949167 -1.34433 4.66439 -5.17993 11 1 
310 1.20242 4.30028 -0.0093877 -1.11278 4.44308 -4.65586 11 1 
312 1.20294 4.17778 -0.00929443 -0.964289 4.28817 -3.71545 11 1 
314 1.20345 4.05665 -0.00927698 -0.837527 4.14294 -2.80571 11 1 
316 1.20369 3.91571 -0.00924487 -0.714148 3.98083 -2.36799 11 1 
318 1.20403 3.76674 -0.00917006 -0.621726 3.81814 -1.75554 11 1 
320 1.20439 3.63865 -0.00908946 -0.528489 3.67731 -1.09364 11 1 
320 1.20439 3.63865 -0.00908946 -0.528489 3.67731 -1.09364 15 1 
322 1.20471 3.52588 -0.00898196 -0.446747 3.55438 -0.527951 15 1 
324 1.20503 3.40694 -0.00885469 -0.391214 3.42968 0.050088 15 1 
326 1.20529 3.28048 -0.00875708 -0.343364 3.29874 0.516537 15 1 
328 1.20548 3.15809 -0.00866987 -0.299029 3.17248 0.865591 15 1 
330 1.20571 3.05024 -0.00854817 -0.263492 3.06177 1.29013 15 1 
332 1.20595 2.95493 -0.00841246 -0.234362 2.96441 1.71855 15 1 
334 1.20613 2.85861 -0.00829493 -0.21017 2.86655 2.03683 15 1 
336 1.20628 2.75826 -0.00817639 -0.191063 2.76509 2.30631 15 1 
338 1.20644 2.66214 -0.00802846 -0.171638 2.66782 2.6022 15 1 
340 1.20661 2.57543 -0.00786871 -0.153327 2.58012 2.89963 15 1 
342 1.20673 2.49509 -0.00772374 -0.138021 2.49907 3.13287 15 1 
344 1.20685 2.41438 -0.00759748 -0.125149 2.4178 3.35 15 1 
346 1.20699 2.33233 -0.00747551 -0.111674 2.33515 3.59348 15 1 
348 1.20711 2.25266 -0.00732847 -0.0971917 2.25489 3.81076 15 1 
350 1.20721 2.17747 -0.00716609 -0.0830063 2.17919 3.99482 15 1 
352 1.20732 2.10624 -0.00701796 -0.0707593 2.10758 4.185 15 1 
354 1.20743 2.03651 -0.00686949 -0.059571 2.03753 4.38625 15 1 
356 1.20753 1.96648 -0.00667497 -0.0478104 1.9672 4.57088 15 1 
358 1.20762 1.8976 -0.00644715 -0.0354764 1.89807 4.73554 15 1 
360 1.20772 1.83236 -0.00623687 -0.0241413 1.83266 4.91043 15 1 
362 1.20781 1.77026 -0.00603561 -0.0138654 1.77046 5.08297 15 1 
364 1.2079 1.7095 -0.00580949 -0.00413427 1.70966 5.23767 15 1 
366 1.20799 1.65024 -0.00557317 0.00608342 1.6504 5.40278 15 1 
368 1.20808 1.59302 -0.00536378 0.0165524 1.59325 5.57102 15 1 
370 1.20817 1.53801 -0.00515903 0.026557 1.5384 5.71897 15 1 
372 1.20825 1.48564 -0.00491654 0.0360504 1.48625 5.86191 15 1 
374 1.20833 1.43542 -0.0046391 0.0455528 1.43633 6.01877 15 1 
376 1.20842 1.38652 -0.00434472 0.0553932 1.38783 6.18179 15 1 
378 1.2085 1.3388 -0.00403899 0.0653835 1.34061 6.32877 15 1 
380 1.20858 1.29293 -0.00372686 0.0744699 1.29531 6.46762 15 1 
382 1.20866 1.24958 -0.00343362 0.0826585 1.25257 6.6181 15 1 
384 1.20875 1.20787 -0.00318007 0.0905365 1.21156 6.76975 15 1 
384 1.20875 1.20787 -0.00318007 0.0905365 1.21156 6.76975 16 1 
386 1.20883 1.16685 -0.00296328 0.0982166 1.17129 6.9141 16 1 
388 1.20891 1.12707 -0.00278203 0.105521 1.13235 7.05879 16 1 
390 1.20899 1.08934 -0.00264506 0.112526 1.09552 7.2062 16 1 
392 1.20907 1.05328 -0.00255999 0.119501 1.06048 7.34917 16 1 
394 1.20915 1.01847 -0.00252919 0.126457 1.02679 7.48741 16 1 
396 1.20923 0.985441 -0.00255244 0.133269 0.994943 7.63395 16 1 
398 1.20931 0.954418 -0.00263349 0.139968 0.965205 7.78315 16 1 
400 1.20939 0.925148 -0.00277791 0.146315 0.937282 7.92289 16 1 
402 1.20946 0.897979 -0.00298977 0.152137 0.911468 8.06467 16 1 
404 1.20955 0.873029 -0.00326009 0.157491 0.88787 8.21289 16 1 
406 1.20963 0.84982 -0.00358605 0.162334 0.865988 8.35895 16 1 
408 1.20971 0.828267 -0.00397819 0.166579 0.845699 8.50252 16 1 
410 1.20979 0.808618 -0.00443035 0.170159 0.827215 8.64822 16 1 
412 1.20987 0.790864 -0.00494604 0.173076 0.810518 8.79605 16 1 
414 1.20995 0.774665 -0.00553863 0.175331 0.795249 8.93985 16 1 
416 1.21003 0.759927 -0.00620705 0.176791 0.781238 9.08151 16 1 
416 1.21003 0.759927 -0.00620705 0.176791 0.781238 9.08151 16 1 
418 1.21011 0.746918 -0.00694402 0.177506 0.768739 9.22635 16 1 
420 1.21019 0.735646 -0.0077602 0.177541 0.75779 9.36995 16 1 
422 1.21027 0.725958 -0.00868291 0.176819 0.748215 9.51024 16 1 
424 1.21034 0.717937 -0.00971059 0.175336 0.740061 9.65002 16 1 
426 1.21042 0.711734 -0.0108321 0.17326 0.733515 9.78998 16 1 
428 1.2105 0.707231 -0.0120543 0.170749 0.728521 9.92673 16 1 
430 1.21057 0.704291 -0.013386 0.167806 0.724953 10.0582 16 1 
432 1.21064 0.703131 -0.0148014 0.164519 0.723043 10.1897 16 1 
434 1.21071 0.703728 -0.0162769 0.161111 0.722836 10.3212 16 1 
436 1.21078 0.705749 -0.0177953 0.157709 0.724043 10.4477 16 1 
438 1.21085 0.709116 -0.0193238 0.154351 0.726592 10.572 16 1 
440 1.21092 0.71369 -0.0208162 0.151085 0.730369 10.6952 16 1 
442 1.21099 0.719136 -0.0222204 0.147926 0.735051 10.815 16 1 
444 1.21105 0.725206 -0.0235127 0.14489 0.740393 10.932 16 1 
446 1.21112 0.73166 -0.0246633 0.141934 0.746149 11.0475 16 1 
448 1.21118 0.738187 -0.0256396 0.138959 0.751991 11.1614 16 1 
448 1.21118 0.738187 -0.0256396 0.138959 0.751991 11.1614 17 1 
450 1.21124 0.744516 -0.0264413 0.135838 0.757631 11.2712 17 1 
452 1.2113 0.750699 -0.0270973 0.13246 0.763099 11.3773 17 1 
454 1.21136 0.75702 -0.0276373 0.128773 0.768669 11.4825 17 1 
456 1.21141 0.763794 -0.0280948 0.124695 0.774645 11.5859 17 1 
458 1.21147 0.771449 -0.0285172 0.120127 0.781446 11.687 17 1 
460 1.21153 0.780621 -0.0289622 0.11502 0.789712 11.786 17 1 
462 1.21158 0.792091 -0.0294704 0.10936 0.800234 11.8827 17 1 
464 1.21163 0.80652 -0.0300708 0.103252 0.813711 11.9769 17 1 
466 1.21168 0.824297 -0.0307847 0.0967993 0.830566 12.0673 17 1 
468 1.21173 0.845767 -0.0316265 0.0900923 0.851169 12.1561 17 1 
470 1.21178 0.87115 -0.0325967 0.0832942 0.875769 12.2449 17 1 
472 1.21183 0.900379 -0.0336858 0.076549 0.904313 12.331 17 1 
474 1.21187 0.933342 -0.0348905 0.0700238 0.9367 12.4143 17 1 
476 1.21192 0.969855 -0.0362077 0.0638898 0.972743 12.4955 17 1 
478 1.21196 1.00957 -0.0376128 0.0581973 1.01208 12.5743 17 1 
480 1.212 1.05209 -0.0390731 0.0529681 1.05431 12.6508 17 1 
480 1.212 1.05209 -0.0390731 0.0529681 1.05431 12.6508 17 1 
482 1.21205 1.09718 -0.0405846 0.0482473 1.09917 12.725 17 1 
484 1.21209 1.14462 -0.042146 0.0440899 1.14644 12.7981 17 1 
486 1.21212 1.19406 -0.0437342 0.0405259 1.19575 12.8686 17 1 
488 1.21216 1.24511 -0.0453384 0.0374938 1.24671 12.9353 17 1 
490 1.2122 1.29756 -0.0469573 0.0349469 1.2991 12.9994 17 1 
492 1.21223 1.35128 -0.0485875 0.032866 1.35277 13.0615 17 1 
494 1.21226 1.40608 -0.0502233 0.0312038 1.40755 13.1216 17 1 
496 1.2123 1.46175 -0.0518625 0.0299344 1.4632 13.1795 17 1 
498 1.21233 1.51809 -0.0535062 0.0290297 1.51953 13.2346 17 1 
500 1.21236 1.57498 -0.0551495 0.0284184 1.57642 13.2872 17 1 
502 1.21238 1.63231 -0.0567898 0.028045 1.63376 13.3369 17 1 
504 1.21241 1.69002 -0.058428 0.027857 1.69148 13.3838 17 1 
506 1.21243 1.74804 -0.0600623 0.0278692 1.74952 13.429 17 1 
508 1.21246 1.80621 -0.0617017 0.0280587 1.8077 13.4717 17 1 
510 1.21248 1.86445 -0.0633344 0.0283388 1.86597 13.512 17 1 
512 1.2125 1.92276 -0.064964 0.0286849 1.92429 13.5503 17 1 
512 1.2125 1.92276 -0.064964 0.0286849 1.92429 13.5503 25 1 
514 1.21252 1.98109 -0.0665927 0.0291001 1.98264 13.5863 25 1 
516 1.21254 2.0394 -0.0682162 0.0295833 2.04098 13.6203 25 1 
518 1.21256 2.09762 -0.0698379 0.0300785 2.09922 13.6519 25 1 
520 1.21257 2.15565 -0.0714491 0.0305781 2.15728 13.6811 25 1 
522 1.21259 2.21351 -0.0730512 0.0310924 2.21516 13.7088 25 1 
524 1.2126 2.27123 -0.0746557 0.0315897 2.2729 13.7348 25 1 
526 1.21262 2.32879 -0.07625 0.0320724 2.33049 13.7596 25 1 
528 1.21263 2.38608 -0.0778323 0.0325439 2.3878 13.7825 25 1 
530 1.21264 2.44304 -0.0794109 0.0330015 2.44478 13.8028 25 1 
532 1.21265 2.49974 -0.0809645 0.0334391 2.50151 13.8214 25 1 
534 1.21266 2.55621 -0.0825152 0.033841 2.55799 13.8388 25 1 
536 1.21267 2.6124 -0.0840555 0.0342238 2.61421 13.8556 25 1 
538 1.21268 2.66825 -0.0855754 0.0346089 2.67008 13.871 25 1 
540 1.21269 2.72375 -0.0870865 0.0349905 2.7256 13.8844 25 1 
542 1.21269 2.77894 -0.0885742 0.0353817 2.78081 13.8971 25 1 
544 1.2127 2.83383 -0.0900448 0.0357476 2.83572 13.9085 25 1 
544 1.2127 2.83383 -0.0900448 0.0357476 2.83572 13.9085 25 1 
546 1.21271 2.8884 -0.0914965 0.0361434 2.89032 13.9188 25 1 
548 1.21271 2.94262 -0.0929363 0.0365665 2.94456 13.9285 25 1 
550 1.21272 2.99649 -0.0943514 0.0370169 2.99845 13.9368 25 1 
552 1.21272 3.05002 -0.0957435 0.0375018 3.052 13.9442 25 1 
554 1.21272 3.10325 -0.0971189 0.0380406 3.10525 13.9506 25 1 
556 1.21273 3.15615 -0.0984731 0.0386398 3.15817 13.9569 25 1 
558 1.21273 3.20872 -0.0998075 0.0392667 3.21076 13.9627 25 1 
560 1.21273 3.26096 -0.101116 0.0400154 3.26302 13.9672 25 1 
562 1.21273 3.31283 -0.10241 0.0408175 3.31492 13.9711 25 1 
564 1.21274 3.36439 -0.103677 0.0417048 3.3665 13.9741 25 1 
566 1.21274 3.41564 -0.104929 0.0426817 3.41777 13.9769 25 1 
568 1.21274 3.46657 -0.106157 0.043748 3.46873 13.9794 25 1 
570 1.21274 3.51715 -0.107367 0.0449364 3.51934 13.9816 25 1 
572 1.21274 3.56739 -0.108553 0.0462168 3.5696 13.9828 25 1 
574 1.21274 3.61731 -0.109715 0.0476061 3.61955 13.9838 25 1 
576 1.21274 3.66688 -0.110865 0.0490826 3.66915 13.9849 25 1 
576 1.21274 3.66688 -0.110865 0.0490826 3.66915 13.9849 26 1 
578 1.21274 3.71616 -0.111991 0.0506985 3.71846 13.9856 26 1 
580 1.21274 3.76509 -0.113106 0.0524041 3.76742 13.9868 26 1 
582 1.21274 3.81366 -0.114199 0.054247 3.81601 13.9876 26 1 
584 1.21274 3.86188 -0.115278 0.0561628 3.86427 13.9881 26 1 
586 1.21274 3.90978 -0.116341 0.0581823 3.91221 13.9887 26 1 
588 1.21275 3.95733 -0.11739 0.0603664 3.95979 13.9902 26 1 
590 1.21275 4.00455 -0.118435 0.0625749 4.00705 13.9914 26 1 
592 1.21275 4.05137 -0.119458 0.0649539 4.05392 13.9925 26 1 
594 1.21275 4.09781 -0.120477 0.0673697 4.1004 13.9941 26 1 
596 1.21275 4.14394 -0.121481 0.0698784 4.14657 13.9953 26 1 
598 1.21275 4.1897 -0.122482 0.0724935 4.19238 13.9975 26 1 
600 1.21275 4.23509 -0.123482 0.0751567 4.23782 13.9997 26 1 
602 1.21275 4.28004 -0.124466 0.0779177 4.28282 14.002 26 1 
604 1.21275 4.32465 -0.125457 0.0806489 4.32748 14.003 26 1 
606 1.21275 4.36888 -0.126433 0.0834797 4.37176 14.0048 26 1 
608 1.21275 4.41272 -0.127423 0.0862917 4.41566 14.0073 26 1 
608 1.21275 4.41272 -0.127423 0.0862917 4.41566 14.0073 26 1 
610 1.21276 4.45624 -0.128401 0.0891546 4.45923 14.0083 26 1 
612 1.21276 4.49928 -0.129373 0.0920071 4.50233 14.0108 26 1 
614 1.21276 4.54193 -0.130353 0.0948415 4.54505 14.0119 26 1 
616 1.21276 4.58429 -0.131324 0.0976547 4.58746 14.0109 26 1 
618 1.21276 4.62621 -0.132288 0.100388 4.62944 14.0116 26 1 
620 1.21276 4.66775 -0.133246 0.103131 4.67104 14.0121 26 1 
622 1.21276 4.70894 -0.134201 0.105775 4.71229 14.0115 26 1 
624 1.21276 4.74969 -0.135146 0.108382 4.75309 14.0118 26 1 
626 1.21276 4.79009 -0.136061 0.110852 4.79355 14.0119 26 1 
628 1.21276 4.83013 -0.137011 0.113218 4.83365 14.01 26 1 
630 1.21276 4.86977 -0.137919 0.115478 4.87334 14.0077 26 1 
632 1.21275 4.909 -0.138816 0.117566 4.91262 14.0072 26 1 
634 1.21275 4.94792 -0.139749 0.119534 4.95158 14.0057 26 1 
636 1.21275 4.9865 -0.140622 0.121277 4.9902 14.0052 26 1 
638 1.21275 5.02478 -0.141528 0.122815 5.02852 14.0054 26 1 
640 1.21275 5.06272 -0.142452 0.124168 5.0665 14.0043 26 1 
642 1.21275 5.10038 -0.143345 0.125223 5.10419 14.0028 26 1 
644 1.21275 5.13781 -0.144257 0.126045 5.14164 14.0013 26 1 
646 1.21275 5.175 -0.145202 0.126645 5.17885 14.0026 26 1 
648 1.21275 5.2121 -0.146108 0.126873 5.21596 14.0035 26 1 
650 1.21275 5.24904 -0.147107 0.126882 5.25291 14.0037 26 1 
652 1.21275 5.28572 -0.148082 0.126549 5.28959 14.007 26 1 
654 1.21275 5.32248 -0.149092 0.125863 5.32634 14.0066 26 1 
656 1.21275 5.35915 -0.150156 0.124883 5.363 14.0065 26 1 
658 1.21276 5.3958 -0.151203 0.123482 5.39964 14.0109 26 1 
660 1.21276 5.43264 -0.152339 0.121748 5.43645 14.0127 26 1 
662 1.21276 5.46941 -0.153488 0.119582 5.4732 14.0164 26 1 
664 1.21276 5.50644 -0.154696 0.117007 5.51019 14.0206 26 1 
666 1.21276 5.54365 -0.155934 0.114027 5.54736 14.0243 26 1 
668 1.21277 5.58113 -0.157241 0.11061 5.5848 14.0292 26 1 
670 1.21277 5.6189 -0.158593 0.106733 5.62253 14.0338 26 1 
672 1.21277 5.65694 -0.160013 0.102468 5.66052 14.04 26 1 
672 1.21277 5.65694 -0.160013 0.102468 5.66052 14.04 27 1 
674 1.21278 5.69534 -0.161457 0.0977289 5.69888 14.047 27 1 
676 1.21278 5.73416 -0.163015 0.0925404 5.73765 14.0538 27 1 
678 1.21278 5.77336 -0.16459 0.0869818 5.77681 14.0615 27 1 
680 1.21279 5.81296 -0.166218 0.080948 5.81636 14.0701 27 1 
682 1.21279 5.85287 -0.167922 0.0745576 5.85624 14.0783 27 1 
684 1.2128 5.89326 -0.169628 0.0678021 5.8966 14.0855 27 1 
686 1.21281 5.93401 -0.171386 0.0606477 5.93732 14.0988 27 1 
688 1.21281 5.97505 -0.173188 0.0531733 5.97835 14.1107 27 1 
690 1.21282 6.01646 -0.174962 0.0453398 6.01975 14.1175 27 1 
692 1.21282 6.05806 -0.176777 0.0372675 6.06135 14.1315 27 1 
694 1.21283 6.09992 -0.178592 0.0289447 6.10322 14.1443 27 1 
696 1.21284 6.14199 -0.180364 0.0202807 6.14531 14.1547 27 1 
698 1.21284 6.18427 -0.182175 0.0115389 6.18762 14.1681 27 1 
700 1.21285 6.22652 -0.183894 0.00244582 6.2299 14.1851 27 1 
702 1.21286 6.26864 -0.1856 -0.00666907 6.27208 14.2003 27 1 
704 1.21287 6.31101 -0.187278 -0.015949 6.31452 14.2065 27 1 
704 1.21287 6.31101 -0.187278 -0.015949 6.31452 14.2065 31 1 
706 1.21288 6.353 -0.188838 -0.0253894 6.35658 14.2291 31 1 
708 1.21289 6.39501 -0.190447 -0.0347932 6.39867 14.2462 31 1 
710 1.21289 6.43699 -0.191981 -0.0443488 6.44075 14.2556 31 1 
712 1.21291 6.47836 -0.193459 -0.0538696 6.48223 14.2808 31 1 
714 1.21292 6.51956 -0.19488 -0.0633881 6.52355 14.2976 31 1 
716 1.21292 6.56026 -0.196294 -0.0728177 6.56437 14.3098 31 1 
718 1.21293 6.60083 -0.197498 -0.0823646 6.60507 14.325 31 1 
720 1.21295 6.64087 -0.198777 -0.0916553 6.64525 14.3521 31 1 
722 1.21296 6.68054 -0.200167 -0.100794 6.68508 14.3708 31 1 
724 1.21296 6.72 -0.201175 -0.109858 6.72468 14.3832 31 1 
726 1.21298 6.7585 -0.202511 -0.118743 6.76335 14.4134 31 1 
728 1.21299 6.79667 -0.203551 -0.127317 6.80167 14.4324 31 1 
730 1.213 6.83422 -0.204503 -0.135843 6.83939 14.4437 31 1 
732 1.21301 6.87128 -0.205681 -0.143944 6.87662 14.4671 31 1 
734 1.21303 6.90746 -0.206369 -0.151881 6.91294 14.5038 31 1 
736 1.21304 6.94345 -0.207311 -0.159255 6.94909 14.5135 31 1 
738 1.21305 6.97798 -0.208019 -0.166375 6.98377 14.5406 31 1 
740 1.21307 7.01207 -0.208512 -0.173164 7.01799 14.5699 31 1 
742 1.21308 7.04508 -0.209145 -0.17963 7.05114 14.5905 31 1 
744 1.21309 7.07706 -0.209486 -0.185908 7.08325 14.6147 31 1 
746 1.2131 7.10896 -0.209503 -0.191185 7.11524 14.6382 31 1 
748 1.21313 7.13813 -0.209756 -0.196436 7.14452 14.6908 31 1 
750 1.21313 7.16792 -0.209491 -0.201245 7.17438 14.6903 31 1 
752 1.21315 7.19553 -0.209184 -0.205483 7.20205 14.7267 31 1 
752 1.21315 7.19553 -0.209184 -0.205483 7.20205 14.7267 31 1 
754 1.21318 7.22186 -0.208758 -0.209554 7.22844 14.7782 31 1 
756 1.21319 7.24748 -0.208129 -0.213305 7.2541 14.7908 31 1 
758 1.2132 7.27227 -0.207436 -0.216269 7.27892 14.8093 31 1 
760 1.21324 7.29492 -0.206403 -0.219338 7.30158 14.8824 31 1 
762 1.21326 7.31627 -0.205625 -0.222151 7.32294 14.9144 31 1 
764 1.21325 7.33836 -0.204399 -0.224065 7.34502 14.899 31 1 
766 1.21331 7.35576 -0.202792 -0.226364 7.3624 15.0059 31 1 
768 1.21332 7.37528 -0.201465 -0.228203 7.3819 15.0218 31 1 
770 1.21333 7.39245 -0.200363 -0.230149 7.39907 15.0419 31 1 
772 1.21337 7.40755 -0.198064 -0.231878 7.41413 15.1157 31 1 
774 1.21339 7.42383 -0.19663 -0.233887 7.43039 15.1551 31 1 
776 1.21341 7.43942 -0.195332 -0.23656 7.44599 15.186 31 1 
778 1.21345 7.45343 -0.192731 -0.236117 7.45989 15.259 31 1 
780 1.21348 7.46641 -0.190503 -0.238326 7.47287 15.3234 31 1 
782 1.2135 7.47835 -0.188635 -0.241477 7.48483 15.3492 31 1 
784 1.21352 7.49043 -0.187822 -0.2445 7.49697 15.394 31 1 
786 1.21356 7.50407 -0.184944 -0.247454 7.5106 15.4616 31 1 
788 1.21361 7.51613 -0.181882 -0.249459 7.52263 15.5596 31 1 
790 1.21361 7.53103 -0.181419 -0.2529 7.53761 15.5485 31 1 
792 1.21364 7.54354 -0.179342 -0.255938 7.55015 15.6113 31 1 
794 1.21366 7.56136 -0.176642 -0.259375 7.568 15.6407 31 1 
796 1.21364 7.58203 -0.17714 -0.259558 7.58866 15.6067 31 1 
798 1.2135 7.62107 -0.184402 -0.259877 7.62787 15.3582 31 1 
800 1.21335 7.65271 -0.190215 -0.261414 7.65969 15.078 31 1 
