105.961;r ;Density                 ;Velocity u              ;Velocity v              ;Velocity w              ;|Velocity|              ;Pressure                ;Distribution            ;Levels                  ;
0 1.21772 10.0009 -0.000115477 -0.00111073 10.0009 22.9679 1 1 
2 1.21771 10.0006 -0.000236174 -0.000224485 10.0006 22.9617 1 1 
4 1.21771 10.0003 -0.000497344 -0.000291634 10.0003 22.9569 1 1 
6 1.21771 10.0004 -0.000761422 -0.000525137 10.0004 22.9658 1 1 
8 1.21772 10.0004 -0.000986623 -0.000552175 10.0004 22.9806 1 1 
10 1.21772 9.99998 -0.00122534 -0.000829667 9.99998 22.9722 1 1 
12 1.21772 9.99935 -0.00146725 -0.00108338 9.99935 22.9679 1 1 
14 1.21773 9.999 -0.00174604 -0.00101271 9.999 22.9877 1 1 
16 1.21773 9.99906 -0.00199479 -0.000997094 9.99906 22.9953 1 1 
18 1.21773 9.99878 -0.00223556 -0.00107279 9.99878 22.9906 1 1 
20 1.21773 9.99831 -0.00246701 -0.00110101 9.99831 22.9949 1 1 
22 1.21774 9.99797 -0.00270748 -0.00110599 9.99797 23.0134 1 1 
24 1.21774 9.99773 -0.00293882 -0.00165105 9.99774 23.016 1 1 
26 1.21774 9.99721 -0.00315513 -0.00213279 9.99721 23.0162 1 1 
28 1.21775 9.99671 -0.00339868 -0.00194544 9.99671 23.0252 1 1 
30 1.21775 9.99647 -0.00365696 -0.00201706 9.99647 23.0289 1 1 
32 1.21776 9.99606 -0.0039096 -0.00218455 9.99606 23.0429 1 1 
32 1.21776 9.99606 -0.0039096 -0.00218455 9.99606 23.0429 1 1 
34 1.21776 9.99572 -0.00412661 -0.00222396 9.99572 23.0542 1 1 
36 1.21777 9.99557 -0.00436322 -0.00235032 9.99557 23.0577 1 1 
38 1.21777 9.9953 -0.00459254 -0.00270791 9.9953 23.0684 1 1 
40 1.21778 9.99496 -0.00484673 -0.00302297 9.99496 23.0803 1 1 
42 1.21778 9.99463 -0.00507089 -0.00310577 9.99463 23.0892 1 1 
44 1.21779 9.99431 -0.00531885 -0.00292905 9.99431 23.0987 1 1 
46 1.2178 9.99395 -0.005551 -0.0028322 9.99396 23.1108 1 1 
48 1.2178 9.9938 -0.0057932 -0.00303987 9.9938 23.1197 1 1 
50 1.21781 9.99363 -0.00603699 -0.00318975 9.99364 23.1307 1 1 
52 1.21781 9.99326 -0.00625917 -0.00335619 9.99327 23.1444 1 1 
54 1.21782 9.99294 -0.00650551 -0.00352046 9.99295 23.1565 1 1 
56 1.21783 9.99268 -0.00675909 -0.00356498 9.99268 23.1752 1 1 
58 1.21784 9.99251 -0.00700539 -0.00358712 9.99251 23.1861 1 1 
60 1.21784 9.99237 -0.00723307 -0.00362162 9.99237 23.1897 1 1 
62 1.21785 9.99146 -0.00745351 -0.00404367 9.99147 23.216 1 1 
64 1.21786 9.99065 -0.00769339 -0.00457141 9.99065 23.2218 1 1 
64 1.21786 9.99065 -0.00769339 -0.00457141 9.99065 23.2218 2 1 
66 1.21786 9.99053 -0.00794072 -0.00461133 9.99053 23.2242 2 1 
68 1.21788 9.99032 -0.00818089 -0.00461757 9.99033 23.2625 2 1 
70 1.21788 9.99052 -0.00841477 -0.00432233 9.99053 23.2686 2 1 
72 1.21789 9.99002 -0.00866166 -0.00429069 9.99002 23.2761 2 1 
74 1.2179 9.98906 -0.00889825 -0.00452694 9.98907 23.3028 2 1 
76 1.21791 9.98887 -0.00914555 -0.0047325 9.98888 23.3144 2 1 
78 1.21792 9.9886 -0.0093863 -0.00539313 9.98861 23.3327 2 1 
80 1.21793 9.98841 -0.00963223 -0.0056949 9.98842 23.3467 2 1 
82 1.21794 9.98794 -0.00986971 -0.00581157 9.98794 23.3642 2 1 
84 1.21795 9.98688 -0.0100986 -0.0060739 9.98689 23.3901 2 1 
86 1.21795 9.98668 -0.010336 -0.00553787 9.98668 23.3961 2 1 
88 1.21797 9.98631 -0.0105714 -0.00572225 9.98632 23.4181 2 1 
90 1.21798 9.98585 -0.0108242 -0.00589191 9.98586 23.4436 2 1 
92 1.21798 9.98613 -0.0110633 -0.00583654 9.98614 23.4481 2 1 
94 1.218 9.98574 -0.011307 -0.00633385 9.98575 23.477 2 1 
96 1.21802 9.98497 -0.011563 -0.00661066 9.98498 23.5138 2 1 
96 1.21802 9.98497 -0.011563 -0.00661066 9.98498 23.5138 2 1 
98 1.21802 9.98429 -0.0118126 -0.00666642 9.9843 23.5169 2 1 
100 1.21802 9.98344 -0.0120782 -0.0066028 9.98345 23.5211 2 1 
102 1.21805 9.98264 -0.0123088 -0.00642059 9.98265 23.5638 2 1 
104 1.21806 9.98228 -0.0125454 -0.00616146 9.98229 23.5842 2 1 
106 1.21806 9.98207 -0.0128026 -0.00658269 9.98208 23.5877 2 1 
108 1.21808 9.98158 -0.0130556 -0.00712333 9.98159 23.6308 2 1 
110 1.2181 9.98122 -0.013312 -0.00751231 9.98123 23.6558 2 1 
112 1.21809 9.98135 -0.0135771 -0.00759355 9.98136 23.6504 2 1 
114 1.21812 9.98044 -0.0138424 -0.00722385 9.98045 23.6996 2 1 
116 1.21814 9.97925 -0.0141111 -0.00688504 9.97926 23.7348 2 1 
118 1.21813 9.97883 -0.0143705 -0.00698313 9.97884 23.7216 2 1 
120 1.21815 9.97768 -0.014601 -0.00746317 9.97769 23.7602 2 1 
122 1.21818 9.97697 -0.0148622 -0.00804729 9.97698 23.7986 2 1 
124 1.21817 9.9771 -0.0151236 -0.00848174 9.97712 23.7974 2 1 
126 1.2182 9.97646 -0.0154008 -0.00856627 9.97647 23.8409 2 1 
128 1.21822 9.97572 -0.0156737 -0.00809912 9.97573 23.8861 2 1 
128 1.21822 9.97572 -0.0156737 -0.00809912 9.97573 23.8861 10 1 
130 1.21822 9.97582 -0.0159413 -0.00752968 9.97583 23.8731 10 1 
132 1.21824 9.97466 -0.0162074 -0.00751682 9.97468 23.9127 10 1 
134 1.21826 9.9731 -0.0164757 -0.00817822 9.97311 23.9587 10 1 
136 1.21826 9.97315 -0.0167637 -0.00891146 9.97317 23.9523 10 1 
138 1.21829 9.97198 -0.0170472 -0.00931364 9.972 24.0105 10 1 
140 1.21831 9.97079 -0.0173081 -0.00949837 9.97081 24.0435 10 1 
142 1.2183 9.97123 -0.0175819 -0.00893728 9.97125 24.0261 10 1 
144 1.21834 9.96987 -0.0178386 -0.00886803 9.96989 24.0982 10 1 
146 1.21837 9.96845 -0.0180976 -0.00894148 9.96848 24.1415 10 1 
148 1.21835 9.96858 -0.0183538 -0.00933554 9.96861 24.1221 10 1 
150 1.21839 9.96709 -0.0186223 -0.00994892 9.96711 24.1889 10 1 
152 1.21842 9.9655 -0.018919 -0.00967545 9.96552 24.2326 10 1 
154 1.2184 9.96547 -0.0192005 -0.00924978 9.96549 24.2078 10 1 
156 1.21845 9.96396 -0.0194777 -0.00935442 9.96398 24.2854 10 1 
158 1.21848 9.96234 -0.0197829 -0.00969279 9.96236 24.353 10 1 
160 1.21847 9.96243 -0.0200735 -0.0101856 9.96245 24.3268 10 1 
160 1.21847 9.96243 -0.0200735 -0.0101856 9.96245 24.3268 10 1 
162 1.2185 9.96104 -0.0203512 -0.0104732 9.96106 24.3796 10 1 
164 1.21854 9.95909 -0.0206066 -0.0102744 9.95912 24.4549 10 1 
166 1.21854 9.95823 -0.0208929 -0.0105831 9.95826 24.4523 10 1 
168 1.21855 9.95634 -0.0211872 -0.00997084 9.95637 24.483 10 1 
170 1.2186 9.95421 -0.0214921 -0.00975974 9.95423 24.5625 10 1 
172 1.21861 9.9534 -0.0217963 -0.010429 9.95343 24.5845 10 1 
174 1.21862 9.95186 -0.0221417 -0.0106764 9.95189 24.6057 10 1 
176 1.21867 9.94972 -0.0224417 -0.0111862 9.94975 24.6877 10 1 
178 1.2187 9.94804 -0.0227404 -0.0114447 9.94807 24.7403 10 1 
180 1.2187 9.94595 -0.0230356 -0.0113606 9.94598 24.7488 10 1 
182 1.21873 9.94457 -0.0233507 -0.0109153 9.94461 24.7915 10 1 
184 1.21878 9.94268 -0.0236411 -0.0107665 9.94271 24.8815 10 1 
186 1.2188 9.93956 -0.0239674 -0.0103735 9.9396 24.9296 10 1 
188 1.21881 9.93734 -0.0242718 -0.0102358 9.93738 24.9451 10 1 
190 1.21886 9.93461 -0.0245873 -0.0107168 9.93464 25.0325 10 1 
192 1.2189 9.93116 -0.0249099 -0.0123869 9.9312 25.1084 10 1 
194 1.2189 9.92897 -0.0252078 -0.0129024 9.92901 25.102 10 1 
196 1.21895 9.92615 -0.0255395 -0.0125993 9.92619 25.1909 10 1 
198 1.21902 9.92257 -0.0259239 -0.0120866 9.92261 25.3251 10 1 
200 1.21902 9.92063 -0.0262513 -0.0108772 9.92067 25.3248 10 1 
202 1.21905 9.91776 -0.0265374 -0.0107537 9.9178 25.3753 10 1 
204 1.21913 9.91244 -0.0268731 -0.0115698 9.91248 25.5278 10 1 
206 1.21916 9.90754 -0.0271948 -0.0119304 9.90758 25.5704 10 1 
208 1.21917 9.90267 -0.0275104 -0.0121939 9.90271 25.5988 10 1 
210 1.21926 9.89626 -0.0278626 -0.0122848 9.8963 25.754 10 1 
212 1.2193 9.89188 -0.0282481 -0.0120769 9.89193 25.8361 10 1 
214 1.21932 9.88804 -0.0285997 -0.0124578 9.88809 25.8667 10 1 
216 1.21941 9.88217 -0.0289968 -0.0101023 9.88222 26.033 10 1 
218 1.21949 9.87714 -0.0292835 -0.00958067 9.87719 26.1674 10 1 
220 1.21952 9.8695 -0.0296304 -0.0110933 9.86955 26.2348 10 1 
222 1.21958 9.86034 -0.0299289 -0.0116322 9.8604 26.3357 10 1 
224 1.21965 9.85259 -0.0303725 -0.0132931 9.85265 26.4574 10 1 
224 1.21965 9.85259 -0.0303725 -0.0132931 9.85265 26.4574 10 1 
226 1.21975 9.84164 -0.0308542 -0.011215 9.8417 26.6444 10 1 
228 1.2198 9.83298 -0.0312613 -0.00806665 9.83303 26.7342 10 1 
230 1.21988 9.82457 -0.0315247 -0.00723465 9.82462 26.8848 10 1 
232 1.22004 9.81151 -0.0318315 -0.00759376 9.81157 27.1583 10 1 
234 1.22005 9.80181 -0.0322533 -0.00977903 9.80186 27.1897 10 1 
236 1.22015 9.7898 -0.0327323 -0.00906375 9.78986 27.3648 10 1 
238 1.22036 9.77344 -0.0331507 -0.00783334 9.7735 27.7466 10 1 
240 1.22042 9.75898 -0.0334908 -0.00600567 9.75904 27.8536 10 1 
242 1.2205 9.74117 -0.0338439 -0.00255007 9.74123 27.9957 10 1 
244 1.2207 9.72105 -0.0343137 -0.00157586 9.72112 28.3545 10 1 
246 1.22085 9.70169 -0.0347775 -0.000699583 9.70176 28.6241 10 1 
248 1.22097 9.68015 -0.0351767 0.00208637 9.68022 28.851 10 1 
250 1.22119 9.65628 -0.0355708 0.00319564 9.65635 29.236 10 1 
252 1.22141 9.62898 -0.0359666 0.00704068 9.62906 29.6449 10 1 
254 1.22155 9.59808 -0.0364426 0.0126857 9.59817 29.9026 10 1 
256 1.22177 9.56528 -0.0367589 0.0158783 9.56537 30.2886 10 1 
256 1.22177 9.56528 -0.0367589 0.0158783 9.56537 30.2886 11 1 
258 1.22211 9.52861 -0.0371666 0.0220124 9.52872 30.9003 11 1 
260 1.22238 9.48716 -0.0375994 0.0302656 9.48729 31.3997 11 1 
262 1.22263 9.44189 -0.0379772 0.0363581 9.44205 31.8436 11 1 
264 1.22298 9.39142 -0.0384024 0.0487119 9.39165 32.4753 11 1 
266 1.22342 9.33301 -0.0387629 0.0624176 9.33332 33.2723 11 1 
268 1.2238 9.26912 -0.0391075 0.0782798 9.26956 33.9612 11 1 
270 1.22419 9.20279 -0.0394916 0.102946 9.20349 34.661 11 1 
272 1.22484 9.12298 -0.0398203 0.130843 9.12407 35.8338 11 1 
274 1.22544 9.02766 -0.0401017 0.160613 9.02929 36.9152 11 1 
276 1.22584 8.92797 -0.0403148 0.195818 8.93032 37.6386 11 1 
278 1.22658 8.81774 -0.040535 0.242357 8.82129 38.978 11 1 
280 1.22746 8.70031 -0.0407799 0.306488 8.70599 40.5772 11 1 
282 1.22803 8.58274 -0.040957 0.388079 8.59189 41.5991 11 1 
284 1.22878 8.44878 -0.0411241 0.471128 8.46231 42.9498 11 1 
286 1.22972 8.29604 -0.0412114 0.579908 8.31698 44.6538 11 1 
288 1.23024 8.15429 -0.0411351 0.702894 8.18521 45.5951 11 1 
288 1.23024 8.15429 -0.0411351 0.702894 8.18521 45.5951 11 1 
290 1.23101 7.9986 -0.0410259 0.837383 8.04345 46.9796 11 1 
292 1.23207 7.82821 -0.0409037 1.013 7.89485 48.9004 11 1 
294 1.23215 7.69372 -0.0406283 1.22274 7.7918 49.0428 11 1 
296 1.23083 7.33242 -0.0400228 1.07183 7.41677 46.656 11 1 
298 1.22638 6.55278 -0.0395129 0.295635 6.58732 38.6212 11 1 
300 1.2201 5.69431 -0.0390953 -0.750781 5.7875 27.2749 11 1 
302 1.21598 5.12719 -0.0385294 -1.56193 5.37743 19.8302 11 1 
304 1.21375 4.88215 -0.0381037 -1.74296 5.18525 15.8081 11 1 
306 1.21302 4.72093 -0.0373951 -1.58245 4.98003 14.4788 11 1 
308 1.21337 4.51988 -0.0363224 -1.37681 4.72697 15.1261 11 1 
310 1.21367 4.35361 -0.0352008 -1.14247 4.50232 15.6583 11 1 
312 1.2142 4.22989 -0.0341837 -0.992409 4.34543 16.6254 11 1 
314 1.21472 4.10786 -0.0334884 -0.864487 4.19871 17.5609 11 1 
316 1.21497 3.96593 -0.032834 -0.740124 4.03505 18.0069 11 1 
318 1.21532 3.81581 -0.0320504 -0.646948 3.87083 18.6365 11 1 
320 1.2157 3.68647 -0.0312569 -0.552836 3.72829 19.3178 11 1 
320 1.2157 3.68647 -0.0312569 -0.552836 3.72829 19.3178 15 1 
322 1.21602 3.57217 -0.0304168 -0.470509 3.60346 19.8971 15 1 
324 1.21634 3.45136 -0.0295042 -0.414525 3.47664 20.4889 15 1 
326 1.21661 3.32277 -0.0286586 -0.366036 3.34333 20.9677 15 1 
328 1.21681 3.19816 -0.0278224 -0.320998 3.21461 21.327 15 1 
330 1.21705 3.08794 -0.0268873 -0.28493 3.10134 21.7632 15 1 
332 1.21729 2.99 -0.0259652 -0.255494 3.00121 22.2016 15 1 
334 1.21747 2.89084 -0.0251401 -0.231012 2.90039 22.528 15 1 
336 1.21763 2.78755 -0.0243242 -0.211548 2.79589 22.8072 15 1 
338 1.2178 2.6883 -0.0234581 -0.191864 2.69539 23.1131 15 1 
340 1.21797 2.59807 -0.0226063 -0.173473 2.60408 23.4185 15 1 
342 1.2181 2.51385 -0.02184 -0.158139 2.51907 23.6585 15 1 
344 1.21822 2.42914 -0.0211533 -0.145211 2.43375 23.8843 15 1 
346 1.21836 2.34312 -0.0204816 -0.131911 2.34707 24.1383 15 1 
348 1.21849 2.25926 -0.019777 -0.118322 2.26256 24.3647 15 1 
350 1.21859 2.17936 -0.0191108 -0.105807 2.18214 24.5555 15 1 
352 1.2187 2.10305 -0.0185399 -0.095778 2.10546 24.7522 15 1 
354 1.21882 2.0283 -0.0180071 -0.0872486 2.0304 24.9609 15 1 
356 1.21893 1.95359 -0.0174215 -0.0788229 1.95539 25.1527 15 1 
358 1.21902 1.88046 -0.0168084 -0.0708167 1.88198 25.3224 15 1 
360 1.21912 1.81138 -0.01625 -0.064776 1.81272 25.4997 15 1 
362 1.21921 1.74596 -0.015743 -0.0604062 1.74719 25.6726 15 1 
364 1.2193 1.68244 -0.0152458 -0.0568111 1.68358 25.8263 15 1 
366 1.21939 1.62076 -0.0147652 -0.052807 1.62179 25.9901 15 1 
368 1.21948 1.56094 -0.0143758 -0.0486156 1.56186 26.1558 15 1 
370 1.21956 1.50268 -0.0141352 -0.0447117 1.5035 26.2996 15 1 
372 1.21964 1.44631 -0.0140598 -0.0408821 1.44705 26.4382 15 1 
374 1.21972 1.39159 -0.0141754 -0.0365494 1.39225 26.5909 15 1 
376 1.21981 1.3378 -0.0145041 -0.0315121 1.33835 26.7495 15 1 
378 1.21989 1.28474 -0.0150405 -0.026174 1.2852 26.8928 15 1 
380 1.21996 1.23337 -0.0157604 -0.0215697 1.23377 27.03 15 1 
382 1.22005 1.18497 -0.0166414 -0.0176334 1.18533 27.1807 15 1 
384 1.22013 1.13936 -0.0176456 -0.0138854 1.13969 27.3336 15 1 
384 1.22013 1.13936 -0.0176456 -0.0138854 1.13969 27.3336 16 1 
386 1.22021 1.09584 -0.0187273 -0.0105239 1.09616 27.4795 16 1 
388 1.22029 1.05493 -0.0198701 -0.00794293 1.05525 27.6257 16 1 
390 1.22038 1.01744 -0.0210859 -0.00606713 1.01778 27.7751 16 1 
392 1.22046 0.983264 -0.02236 -0.00450036 0.98363 27.922 16 1 
394 1.22054 0.951984 -0.0236766 -0.00304302 0.952379 28.065 16 1 
396 1.22062 0.92372 -0.0250467 -0.00159875 0.924151 28.2139 16 1 
398 1.2207 0.898327 -0.026466 0.000120423 0.898807 28.3623 16 1 
400 1.22078 0.875478 -0.0279094 0.00217923 0.876021 28.5 16 1 
402 1.22086 0.855494 -0.0293701 0.00476154 0.856111 28.6387 16 1 
404 1.22093 0.838307 -0.0308359 0.00820833 0.839022 28.7816 16 1 
406 1.22101 0.823176 -0.0322637 0.0126179 0.824027 28.9196 16 1 
408 1.22108 0.809753 -0.03361 0.0179636 0.81079 29.0518 16 1 
410 1.22116 0.798067 -0.0348308 0.0242512 0.799358 29.1826 16 1 
412 1.22123 0.787882 -0.0359034 0.0315605 0.789525 29.3132 16 1 
414 1.2213 0.778513 -0.0367877 0.0398861 0.780638 29.4387 16 1 
416 1.22137 0.769363 -0.0374201 0.0490026 0.772114 29.5601 16 1 
416 1.22137 0.769363 -0.0374201 0.0490026 0.772114 29.5601 16 1 
418 1.22143 0.760108 -0.0377535 0.0587932 0.763649 29.6811 16 1 
420 1.2215 0.750251 -0.0377693 0.0691218 0.754782 29.7976 16 1 
422 1.22156 0.739206 -0.0374588 0.0796745 0.744929 29.9082 16 1 
424 1.22162 0.72657 -0.0368006 0.0901725 0.733669 30.0162 16 1 
426 1.22168 0.711983 -0.035787 0.100436 0.720639 30.1225 16 1 
428 1.22173 0.694926 -0.0344506 0.110209 0.705311 30.2238 16 1 
430 1.22178 0.675032 -0.0328531 0.119093 0.687262 30.3176 16 1 
432 1.22184 0.652374 -0.0310503 0.126818 0.666511 30.4088 16 1 
434 1.22188 0.626901 -0.0291194 0.13326 0.642985 30.4972 16 1 
436 1.22193 0.598481 -0.0271644 0.13817 0.61648 30.578 16 1 
438 1.22197 0.567462 -0.0253223 0.14128 0.587237 30.654 16 1 
440 1.22201 0.534402 -0.0237341 0.142435 0.555733 30.7264 16 1 
442 1.22205 0.499925 -0.0225484 0.14156 0.522514 30.7932 16 1 
444 1.22208 0.464953 -0.0219592 0.138673 0.488407 30.8547 16 1 
446 1.22211 0.430564 -0.0221477 0.133836 0.454386 30.9129 16 1 
448 1.22215 0.397778 -0.0232324 0.127174 0.421407 30.9688 16 1 
448 1.22215 0.397778 -0.0232324 0.127174 0.421407 30.9688 17 1 
450 1.22217 0.367598 -0.0253002 0.118876 0.39045 31.021 17 1 
452 1.2222 0.341147 -0.0284225 0.109249 0.362673 31.0712 17 1 
454 1.22223 0.319372 -0.0325713 0.0986816 0.33915 31.1227 17 1 
456 1.22226 0.302817 -0.0376381 0.0874467 0.320593 31.1749 17 1 
458 1.22229 0.291858 -0.043497 0.075783 0.307593 31.2283 17 1 
460 1.22232 0.286797 -0.0500212 0.0640011 0.300721 31.2847 17 1 
462 1.22235 0.287793 -0.0570327 0.0524046 0.300366 31.3454 17 1 
464 1.22239 0.294708 -0.0643633 0.0412099 0.306505 31.4109 17 1 
466 1.22243 0.307212 -0.0718836 0.0305049 0.318786 31.4805 17 1 
468 1.22247 0.325084 -0.0794753 0.0203933 0.336871 31.5553 17 1 
470 1.22251 0.348008 -0.0870192 0.0109979 0.360291 31.6359 17 1 
472 1.22256 0.375515 -0.0944099 0.00231216 0.388433 31.7206 17 1 
474 1.22261 0.407257 -0.101606 -0.00565393 0.420845 31.8102 17 1 
476 1.22266 0.44292 -0.108579 -0.0128454 0.457138 31.905 17 1 
478 1.22272 0.482092 -0.115281 -0.0193119 0.496853 32.0037 17 1 
480 1.22277 0.52436 -0.121663 -0.025124 0.539557 32.1055 17 1 
480 1.22277 0.52436 -0.121663 -0.025124 0.539557 32.1055 17 1 
482 1.22283 0.56945 -0.127723 -0.0303059 0.584971 32.2097 17 1 
484 1.22289 0.617143 -0.13347 -0.0348357 0.632877 32.3168 17 1 
486 1.22295 0.667091 -0.138891 -0.0387343 0.682934 32.4258 17 1 
488 1.22301 0.718962 -0.143979 -0.0421059 0.734823 32.5356 17 1 
490 1.22307 0.772559 -0.148736 -0.0449815 0.788363 32.646 17 1 
492 1.22313 0.82769 -0.153177 -0.0473573 0.84337 32.7563 17 1 
494 1.2232 0.884137 -0.157296 -0.0492693 0.899631 32.8658 17 1 
496 1.22326 0.94166 -0.161111 -0.0507576 0.956922 32.9743 17 1 
498 1.22331 1.00007 -0.164637 -0.0518355 1.01506 33.0809 17 1 
500 1.22337 1.0592 -0.167868 -0.0525321 1.0739 33.1858 17 1 
502 1.22343 1.11891 -0.170817 -0.0528926 1.13328 33.2881 17 1 
504 1.22348 1.17904 -0.173501 -0.0529439 1.19307 33.3875 17 1 
506 1.22354 1.23947 -0.175939 -0.0526718 1.25315 33.4844 17 1 
508 1.22359 1.30001 -0.178136 -0.0520804 1.31333 33.5778 17 1 
510 1.22364 1.36056 -0.180096 -0.0512469 1.37352 33.6677 17 1 
512 1.22369 1.42104 -0.181831 -0.0501897 1.43363 33.7543 17 1 
512 1.22369 1.42104 -0.181831 -0.0501897 1.43363 33.7543 25 1 
514 1.22373 1.48136 -0.183365 -0.0488931 1.49358 33.8375 25 1 
516 1.22378 1.54141 -0.184705 -0.0473673 1.55327 33.9171 25 1 
518 1.22382 1.60109 -0.185867 -0.0456513 1.6126 33.993 25 1 
520 1.22386 1.66032 -0.186844 -0.0437787 1.67148 34.065 25 1 
522 1.2239 1.71905 -0.187649 -0.0417413 1.72986 34.1333 25 1 
524 1.22393 1.77726 -0.188321 -0.0395599 1.78775 34.1979 25 1 
526 1.22397 1.83491 -0.188848 -0.0372523 1.84508 34.2592 25 1 
528 1.224 1.89189 -0.189255 -0.0348331 1.90174 34.3168 25 1 
530 1.22403 1.94816 -0.189539 -0.0323191 1.95771 34.3704 25 1 
532 1.22406 2.00374 -0.189716 -0.0297386 2.01301 34.4205 25 1 
534 1.22408 2.05865 -0.189796 -0.0270961 2.06764 34.4673 25 1 
536 1.22411 2.11282 -0.189799 -0.0244096 2.12156 34.5109 25 1 
538 1.22413 2.16623 -0.189732 -0.021687 2.17471 34.5511 25 1 
540 1.22415 2.21886 -0.189586 -0.0189366 2.2271 34.5879 25 1 
542 1.22417 2.27075 -0.189397 -0.016203 2.27877 34.6222 25 1 
544 1.22419 2.32192 -0.189141 -0.0134914 2.32973 34.6537 25 1 
544 1.22419 2.32192 -0.189141 -0.0134914 2.32973 34.6537 25 1 
546 1.2242 2.37236 -0.188867 -0.0108066 2.37997 34.6826 25 1 
548 1.22422 2.42205 -0.18856 -0.00814301 2.42947 34.7094 25 1 
550 1.22423 2.471 -0.18823 -0.00554954 2.47824 34.734 25 1 
552 1.22424 2.51925 -0.187883 -0.00303592 2.52633 34.7566 25 1 
554 1.22425 2.56685 -0.187526 -0.000592638 2.57377 34.7777 25 1 
556 1.22427 2.61378 -0.187188 0.00173704 2.62055 34.7975 25 1 
558 1.22428 2.66006 -0.186843 0.00396376 2.66669 34.8158 25 1 
560 1.22428 2.70571 -0.186526 0.0060714 2.71222 34.8328 25 1 
562 1.22429 2.75077 -0.186207 0.00805991 2.75715 34.8491 25 1 
564 1.2243 2.79527 -0.185929 0.00988643 2.80154 34.8648 25 1 
566 1.22431 2.83925 -0.185676 0.0115526 2.84541 34.8796 25 1 
568 1.22432 2.8827 -0.185457 0.0130686 2.88876 34.8939 25 1 
570 1.22433 2.92566 -0.185281 0.0144176 2.93162 34.9077 25 1 
572 1.22433 2.96815 -0.185135 0.0155942 2.97403 34.9207 25 1 
574 1.22434 3.01022 -0.185043 0.0165637 3.01601 34.9335 25 1 
576 1.22435 3.05188 -0.184984 0.0173559 3.05759 34.9462 25 1 
576 1.22435 3.05188 -0.184984 0.0173559 3.05759 34.9462 26 1 
578 1.22435 3.09316 -0.184996 0.0179414 3.09881 34.9584 26 1 
580 1.22436 3.13408 -0.185041 0.01835 3.13966 34.9702 26 1 
582 1.22437 3.17463 -0.185139 0.0185553 3.18014 34.982 26 1 
584 1.22437 3.21486 -0.185293 0.0185402 3.22031 34.9936 26 1 
586 1.22438 3.25482 -0.185485 0.0183385 3.26021 35.0049 26 1 
588 1.22439 3.29448 -0.185753 0.0179261 3.29982 35.0164 26 1 
590 1.22439 3.33385 -0.186046 0.0173382 3.33914 35.0278 26 1 
592 1.2244 3.37295 -0.186419 0.0165336 3.37819 35.0385 26 1 
594 1.2244 3.41179 -0.186811 0.0155532 3.41699 35.0491 26 1 
596 1.22441 3.45039 -0.187266 0.0143817 3.45554 35.0603 26 1 
598 1.22442 3.48877 -0.187778 0.0130185 3.4939 35.071 26 1 
600 1.22442 3.5269 -0.188317 0.0115158 3.53199 35.0817 26 1 
602 1.22443 3.56474 -0.18892 0.00983599 3.56981 35.0925 26 1 
604 1.22443 3.60239 -0.189544 0.00800228 3.60742 35.1027 26 1 
606 1.22444 3.63981 -0.190221 0.00602131 3.64482 35.1133 26 1 
608 1.22445 3.67698 -0.190933 0.00393246 3.68197 35.1242 26 1 
608 1.22445 3.67698 -0.190933 0.00393246 3.68197 35.1242 26 1 
610 1.22445 3.71391 -0.191687 0.00170707 3.71889 35.1346 26 1 
612 1.22446 3.75056 -0.192462 -0.000610908 3.75553 35.145 26 1 
614 1.22446 3.78693 -0.193262 -0.00299498 3.79189 35.1557 26 1 
616 1.22447 3.8231 -0.194109 -0.0054883 3.82806 35.1662 26 1 
618 1.22448 3.85899 -0.194946 -0.00801721 3.86394 35.1776 26 1 
620 1.22448 3.89456 -0.195842 -0.0105825 3.89952 35.1891 26 1 
622 1.22449 3.92984 -0.196728 -0.0131618 3.93481 35.2004 26 1 
624 1.22449 3.96483 -0.197634 -0.0157648 3.96981 35.2121 26 1 
626 1.2245 3.9995 -0.198528 -0.0183401 4.00449 35.2253 26 1 
628 1.22451 4.03389 -0.19946 -0.0208914 4.03889 35.2384 26 1 
630 1.22452 4.06796 -0.200355 -0.0234057 4.07298 35.2518 26 1 
632 1.22453 4.10162 -0.201258 -0.025823 4.10665 35.2674 26 1 
634 1.22453 4.13498 -0.202162 -0.0281836 4.14003 35.2823 26 1 
636 1.22454 4.16807 -0.203014 -0.0304421 4.17314 35.2976 26 1 
638 1.22455 4.20074 -0.203869 -0.0325911 4.20583 35.316 26 1 
640 1.22456 4.2331 -0.204724 -0.0345792 4.2382 35.3339 26 1 
642 1.22457 4.26514 -0.205493 -0.0364297 4.27027 35.3511 26 1 
644 1.22458 4.29675 -0.206265 -0.0381282 4.30189 35.3712 26 1 
646 1.22459 4.32811 -0.207027 -0.0396052 4.33326 35.3917 26 1 
648 1.2246 4.35918 -0.207648 -0.0409289 4.36434 35.4108 26 1 
650 1.22462 4.38985 -0.208354 -0.042017 4.39501 35.4324 26 1 
652 1.22463 4.42022 -0.20889 -0.0428866 4.42538 35.4545 26 1 
654 1.22464 4.45032 -0.209431 -0.0435039 4.45547 35.4744 26 1 
656 1.22465 4.48011 -0.209871 -0.0438837 4.48526 35.4959 26 1 
658 1.22466 4.50967 -0.210308 -0.0440259 4.51481 35.5187 26 1 
660 1.22468 4.53893 -0.210593 -0.0438345 4.54405 35.5399 26 1 
662 1.22469 4.56796 -0.210883 -0.0434321 4.57305 35.5603 26 1 
664 1.2247 4.5967 -0.211064 -0.042684 4.60177 35.5822 26 1 
666 1.22471 4.62527 -0.211123 -0.041669 4.63031 35.6035 26 1 
668 1.22472 4.65364 -0.211195 -0.0403782 4.65864 35.6236 26 1 
670 1.22473 4.68181 -0.211102 -0.0387522 4.68675 35.6443 26 1 
672 1.22475 4.70973 -0.210968 -0.0368464 4.71463 35.6665 26 1 
672 1.22475 4.70973 -0.210968 -0.0368464 4.71463 35.6665 27 1 
674 1.22476 4.73752 -0.210731 -0.0346389 4.74236 35.686 27 1 
676 1.22477 4.76519 -0.210411 -0.0321091 4.76997 35.7053 27 1 
678 1.22478 4.79261 -0.209997 -0.0293177 4.79733 35.7281 27 1 
680 1.22479 4.82003 -0.20953 -0.0262548 4.82469 35.7475 27 1 
682 1.2248 4.84716 -0.208922 -0.0228388 4.85175 35.7674 27 1 
684 1.22481 4.87427 -0.208307 -0.0191966 4.87879 35.7873 27 1 
686 1.22482 4.90123 -0.207565 -0.0152705 4.90569 35.8085 27 1 
688 1.22484 4.92808 -0.206746 -0.0110812 4.93247 35.828 27 1 
690 1.22485 4.95484 -0.205898 -0.00665379 4.95916 35.8466 27 1 
692 1.22486 4.98148 -0.204936 -0.00198992 4.98573 35.8675 27 1 
694 1.22487 5.00799 -0.203935 0.00290185 5.01218 35.8872 27 1 
696 1.22488 5.03445 -0.202866 0.00800602 5.03857 35.9049 27 1 
698 1.22489 5.06085 -0.201743 0.0132976 5.06493 35.9239 27 1 
700 1.2249 5.08702 -0.200582 0.0187115 5.09105 35.9464 27 1 
702 1.22491 5.11312 -0.199375 0.0243801 5.1171 35.9643 27 1 
704 1.22492 5.13913 -0.198064 0.0301099 5.14307 35.981 27 1 
704 1.22492 5.13913 -0.198064 0.0301099 5.14307 35.981 31 1 
706 1.22493 5.16498 -0.196828 0.0359215 5.16889 36.0049 31 1 
708 1.22495 5.19072 -0.195436 0.0419342 5.1946 36.0257 31 1 
710 1.22495 5.21639 -0.194156 0.0479113 5.22025 36.0428 31 1 
712 1.22497 5.24186 -0.192759 0.0540254 5.24571 36.0667 31 1 
714 1.22498 5.26705 -0.191371 0.0600841 5.27089 36.0922 31 1 
716 1.22499 5.29219 -0.190005 0.066247 5.29604 36.1101 31 1 
718 1.225 5.31722 -0.188479 0.0723026 5.32108 36.1315 31 1 
720 1.22502 5.34201 -0.187148 0.078256 5.34588 36.1617 31 1 
722 1.22503 5.36664 -0.185759 0.0844014 5.37054 36.185 31 1 
724 1.22504 5.39126 -0.184159 0.0902414 5.39519 36.2019 31 1 
726 1.22506 5.4155 -0.182966 0.0961209 5.41947 36.2332 31 1 
728 1.22508 5.43947 -0.181414 0.101784 5.44347 36.2616 31 1 
730 1.22508 5.46352 -0.179962 0.107298 5.46756 36.2756 31 1 
732 1.2251 5.48734 -0.178654 0.112729 5.49143 36.3036 31 1 
734 1.22512 5.5109 -0.177104 0.11788 5.51502 36.3368 31 1 
736 1.22513 5.53438 -0.175777 0.123074 5.53856 36.3545 31 1 
738 1.22514 5.55789 -0.174382 0.127901 5.56211 36.3722 31 1 
740 1.22516 5.58073 -0.17293 0.132382 5.58499 36.4093 31 1 
742 1.22517 5.60358 -0.171475 0.136885 5.60789 36.433 31 1 
744 1.22518 5.62655 -0.170235 0.140941 5.63091 36.4428 31 1 
746 1.22519 5.64934 -0.168693 0.144764 5.65373 36.476 31 1 
748 1.22521 5.67156 -0.167298 0.148544 5.67599 36.5131 31 1 
750 1.22522 5.69403 -0.165916 0.15199 5.6985 36.5185 31 1 
752 1.22523 5.71671 -0.164444 0.154822 5.7212 36.5369 31 1 
752 1.22523 5.71671 -0.164444 0.154822 5.7212 36.5369 31 1 
754 1.22526 5.73799 -0.163283 0.157626 5.7425 36.5913 31 1 
756 1.22526 5.7604 -0.161488 0.16045 5.76492 36.5952 31 1 
758 1.22526 5.7828 -0.160363 0.162394 5.78733 36.5997 31 1 
760 1.2253 5.8038 -0.158761 0.164419 5.80832 36.6594 31 1 
762 1.2253 5.82567 -0.157361 0.166299 5.8302 36.6731 31 1 
764 1.2253 5.84826 -0.156125 0.167539 5.85277 36.6609 31 1 
766 1.22533 5.86871 -0.15441 0.168876 5.8732 36.7206 31 1 
768 1.22534 5.89089 -0.152885 0.16988 5.89536 36.7378 31 1 
770 1.22533 5.91298 -0.152039 0.170188 5.91741 36.7265 31 1 
772 1.22535 5.93413 -0.150413 0.170713 5.93853 36.7634 31 1 
774 1.22537 5.95581 -0.148706 0.170942 5.96016 36.7931 31 1 
776 1.22536 5.97878 -0.147941 0.170887 5.98309 36.7719 31 1 
778 1.22537 6.00186 -0.146659 0.171198 6.00613 36.786 31 1 
780 1.2254 6.02293 -0.144928 0.170837 6.02713 36.8397 31 1 
782 1.22537 6.04664 -0.144499 0.16992 6.05079 36.7955 31 1 
784 1.22536 6.0684 -0.144956 0.168538 6.07251 36.7837 31 1 
786 1.22536 6.09432 -0.144691 0.168003 6.09839 36.783 31 1 
788 1.22538 6.11884 -0.143741 0.16769 6.12287 36.817 31 1 
790 1.22535 6.14437 -0.145729 0.167037 6.14842 36.7595 31 1 
792 1.22533 6.16745 -0.151687 0.164827 6.17157 36.728 31 1 
794 1.22534 6.1905 -0.153242 0.16274 6.19459 36.7428 31 1 
796 1.22533 6.21663 -0.169536 0.162169 6.22115 36.7146 31 1 
798 1.22539 6.2322 -0.197039 0.159378 6.23746 36.8263 31 1 
800 1.22542 6.23894 -0.207451 0.157382 6.24447 36.8893 31 1 
