86.9422;r ;Density                 ;Velocity u              ;Velocity v              ;Velocity w              ;|Velocity|              ;Pressure                ;Distribution            ;Levels                  ;
0 1.21942 10.0004 -6.48769e-05 -0.000915723 10.0004 26.0548 1 1 
2 1.21942 9.99969 -0.000138212 -7.06339e-05 9.99969 26.0532 1 1 
4 1.21943 9.99853 -0.000295428 5.13766e-05 9.99853 26.0572 1 1 
6 1.21944 9.99779 -0.000451832 -1.57277e-05 9.99779 26.0747 1 1 
8 1.21945 9.9969 -0.000576909 0.000111291 9.9969 26.097 1 1 
10 1.21945 9.9957 -0.00072109 1.45763e-05 9.9957 26.0949 1 1 
12 1.21945 9.99425 -0.000864727 -7.44583e-05 9.99425 26.0966 1 1 
14 1.21946 9.99308 -0.0010404 0.000131487 9.99308 26.1217 1 1 
16 1.21947 9.99238 -0.00119179 0.000317954 9.99238 26.1329 1 1 
18 1.21947 9.99134 -0.00134503 0.000429952 9.99134 26.1305 1 1 
20 1.21947 9.99009 -0.00148127 0.00054152 9.99009 26.1379 1 1 
22 1.21948 9.98896 -0.00161664 0.000650966 9.98896 26.1581 1 1 
24 1.21948 9.98796 -0.00174811 0.000297583 9.98796 26.1606 1 1 
26 1.21948 9.98666 -0.00186896 2.16035e-05 9.98666 26.1599 1 1 
28 1.21949 9.98537 -0.00200726 0.000329778 9.98537 26.1671 1 1 
30 1.21949 9.9844 -0.00215455 0.000422636 9.9844 26.1693 1 1 
32 1.21949 9.98329 -0.00230956 0.000505927 9.98329 26.1795 1 1 
32 1.21949 9.98329 -0.00230956 0.000505927 9.98329 26.1795 1 1 
34 1.2195 9.98227 -0.00243372 0.000633879 9.98227 26.1855 1 1 
36 1.2195 9.98141 -0.00257166 0.000611281 9.98141 26.1838 1 1 
38 1.2195 9.98043 -0.00270228 0.000421632 9.98043 26.1887 1 1 
40 1.2195 9.97937 -0.00286067 0.000291768 9.97937 26.1938 1 1 
42 1.2195 9.97832 -0.00298422 0.000327018 9.97832 26.1946 1 1 
44 1.2195 9.97731 -0.00313079 0.000635182 9.97731 26.1954 1 1 
46 1.2195 9.97628 -0.00326555 0.000937282 9.97629 26.1979 1 1 
48 1.2195 9.97544 -0.00341493 0.000916262 9.97544 26.1972 1 1 
50 1.2195 9.9746 -0.00355748 0.000902094 9.9746 26.1987 1 1 
52 1.21951 9.97359 -0.00368593 0.000881036 9.97359 26.2005 1 1 
54 1.21951 9.97262 -0.00383988 0.000896945 9.97262 26.2002 1 1 
56 1.21951 9.97164 -0.00398493 0.00101748 9.97164 26.2067 1 1 
58 1.21951 9.97078 -0.00411386 0.00115074 9.97078 26.2051 1 1 
60 1.2195 9.96999 -0.00423356 0.00130137 9.96999 26.1959 1 1 
62 1.21951 9.96844 -0.00434179 0.00111119 9.96844 26.2081 1 1 
64 1.2195 9.96699 -0.00446088 0.00075987 9.96699 26.1986 1 1 
64 1.2195 9.96699 -0.00446088 0.00075987 9.96699 26.1986 2 1 
66 1.2195 9.96621 -0.00459083 0.000869407 9.96621 26.1857 2 1 
68 1.21951 9.96539 -0.00472625 0.00103941 9.96539 26.2074 2 1 
70 1.2195 9.96497 -0.00486176 0.00148598 9.96497 26.1963 2 1 
72 1.2195 9.96383 -0.00499824 0.00166583 9.96383 26.1866 2 1 
74 1.2195 9.96231 -0.00512147 0.00159736 9.96231 26.1931 2 1 
76 1.2195 9.96156 -0.00526125 0.00157104 9.96156 26.1818 2 1 
78 1.21949 9.96069 -0.00539086 0.00108124 9.9607 26.1794 2 1 
80 1.21949 9.95995 -0.0055096 0.000987903 9.95995 26.1711 2 1 
82 1.21948 9.959 -0.00562767 0.00105611 9.959 26.1619 2 1 
84 1.21948 9.95747 -0.00573817 0.000939233 9.95747 26.161 2 1 
86 1.21947 9.95677 -0.00584215 0.00164033 9.95677 26.1407 2 1 
88 1.21947 9.95594 -0.00594474 0.0016654 9.95594 26.134 2 1 
90 1.21947 9.95507 -0.00607479 0.00166731 9.95507 26.1279 2 1 
92 1.21945 9.95492 -0.00618757 0.00191345 9.95493 26.1014 2 1 
94 1.21945 9.95413 -0.00630047 0.00164715 9.95413 26.0978 2 1 
96 1.21945 9.953 -0.00642343 0.0015737 9.953 26.0984 2 1 
96 1.21945 9.953 -0.00642343 0.0015737 9.953 26.0984 2 1 
98 1.21943 9.95196 -0.0065409 0.00170556 9.95196 26.0667 2 1 
100 1.21942 9.9507 -0.0066745 0.00193415 9.9507 26.0385 2 1 
102 1.21942 9.94954 -0.00676498 0.0022722 9.94954 26.044 2 1 
104 1.21941 9.94888 -0.00685935 0.00273931 9.94888 26.0245 2 1 
106 1.21939 9.94831 -0.00698991 0.00250866 9.94831 25.9906 2 1 
108 1.21939 9.94747 -0.00709792 0.00213008 9.94747 25.9956 2 1 
110 1.21938 9.94682 -0.00719419 0.00197936 9.94682 25.9804 2 1 
112 1.21936 9.94664 -0.0073131 0.00211654 9.94665 25.9349 2 1 
114 1.21936 9.94544 -0.00744149 0.00262569 9.94544 25.9433 2 1 
116 1.21936 9.94394 -0.00755504 0.00318752 9.94395 25.9358 2 1 
118 1.21933 9.94318 -0.00766059 0.00334226 9.94318 25.8805 2 1 
120 1.21933 9.9417 -0.00775735 0.00303388 9.94171 25.8773 2 1 
122 1.21932 9.94067 -0.00788199 0.00263934 9.94067 25.8714 2 1 
124 1.2193 9.94052 -0.00798924 0.00243552 9.94053 25.8243 2 1 
126 1.2193 9.93967 -0.00810908 0.00251146 9.93967 25.8226 2 1 
128 1.2193 9.93867 -0.00823675 0.00314497 9.93867 25.8217 2 1 
128 1.2193 9.93867 -0.00823675 0.00314497 9.93867 25.8217 10 1 
130 1.21926 9.93848 -0.0083581 0.00394311 9.93849 25.762 10 1 
132 1.21926 9.93705 -0.00846763 0.00414798 9.93705 25.7543 10 1 
134 1.21926 9.93525 -0.00857212 0.00369487 9.93526 25.7518 10 1 
136 1.21923 9.93506 -0.00871771 0.00316442 9.93506 25.6952 10 1 
138 1.21923 9.93359 -0.00885642 0.00292718 9.9336 25.7024 10 1 
140 1.21922 9.93218 -0.00895464 0.00292161 9.93218 25.6855 10 1 
142 1.21918 9.93239 -0.00906859 0.0037103 9.9324 25.6175 10 1 
144 1.21919 9.93082 -0.00918783 0.00393248 9.93082 25.6363 10 1 
146 1.21919 9.92919 -0.00929522 0.00403306 9.92919 25.6259 10 1 
148 1.21915 9.92908 -0.00938739 0.00388691 9.92909 25.5535 10 1 
150 1.21915 9.9274 -0.00950651 0.00344365 9.9274 25.5654 10 1 
152 1.21915 9.92561 -0.00964606 0.00384544 9.92562 25.5534 10 1 
154 1.2191 9.92538 -0.00975122 0.00449419 9.92538 25.4745 10 1 
156 1.21911 9.92369 -0.00986139 0.00461208 9.92369 25.4936 10 1 
158 1.21912 9.92189 -0.0100218 0.00446031 9.92189 25.5012 10 1 
160 1.21907 9.92173 -0.0101518 0.00416302 9.92174 25.4211 10 1 
160 1.21907 9.92173 -0.0101518 0.00416302 9.92174 25.4211 10 1 
162 1.21907 9.92015 -0.0102723 0.00410219 9.92015 25.4161 10 1 
164 1.21908 9.91805 -0.0103695 0.00444326 9.91806 25.4291 10 1 
166 1.21904 9.91698 -0.010497 0.00429667 9.91699 25.3674 10 1 
168 1.21903 9.91489 -0.0106331 0.00512326 9.9149 25.3381 10 1 
170 1.21904 9.91265 -0.0107591 0.00548125 9.91266 25.3543 10 1 
172 1.21902 9.91169 -0.0108805 0.00502337 9.9117 25.3154 10 1 
174 1.21899 9.90993 -0.011056 0.00501927 9.90994 25.277 10 1 
176 1.219 9.90763 -0.0111861 0.00463417 9.90764 25.2939 10 1 
178 1.219 9.90579 -0.0113182 0.00451868 9.9058 25.2802 10 1 
180 1.21897 9.90349 -0.0114724 0.00484437 9.90349 25.2271 10 1 
182 1.21896 9.90195 -0.0116344 0.00540776 9.90196 25.2067 10 1 
184 1.21897 9.89997 -0.0117516 0.00564721 9.89998 25.2284 10 1 
186 1.21896 9.89671 -0.0119229 0.00624511 9.89672 25.2103 10 1 
188 1.21893 9.89432 -0.012074 0.00657277 9.89433 25.161 10 1 
190 1.21894 9.89149 -0.012203 0.0062383 9.8915 25.1802 10 1 
192 1.21894 9.8879 -0.0123659 0.00475904 9.88791 25.1873 10 1 
194 1.2189 9.88547 -0.0125393 0.00437399 9.88548 25.1153 10 1 
196 1.21892 9.88247 -0.0127255 0.00477013 9.88248 25.1348 10 1 
198 1.21895 9.87881 -0.0129357 0.00545279 9.87882 25.1954 10 1 
200 1.21891 9.87672 -0.013103 0.00677667 9.87673 25.1265 10 1 
202 1.2189 9.87372 -0.01324 0.00698245 9.87373 25.1086 10 1 
204 1.21894 9.86834 -0.013395 0.00637068 9.86835 25.1874 10 1 
206 1.21893 9.86339 -0.0135535 0.00617549 9.8634 25.1574 10 1 
208 1.2189 9.85833 -0.0137389 0.00594467 9.85834 25.116 10 1 
210 1.21895 9.85176 -0.0139575 0.0060087 9.85177 25.1955 10 1 
212 1.21895 9.84735 -0.0141795 0.00641874 9.84736 25.2005 10 1 
214 1.21893 9.84339 -0.0143675 0.0061056 9.8434 25.1608 10 1 
216 1.21898 9.83743 -0.0146172 0.00849606 9.83745 25.2512 10 1 
218 1.21901 9.83247 -0.0147652 0.00918468 9.83248 25.3052 10 1 
220 1.21901 9.82469 -0.0149419 0.00780312 9.82471 25.2993 10 1 
222 1.21902 9.81534 -0.0150785 0.00728284 9.81536 25.3229 10 1 
224 1.21904 9.80753 -0.0153913 0.00567481 9.80754 25.362 10 1 
224 1.21904 9.80753 -0.0153913 0.00567481 9.80754 25.362 10 1 
226 1.2191 9.79655 -0.0157255 0.00783971 9.79657 25.4713 10 1 
228 1.21911 9.78794 -0.0159737 0.01107 9.78796 25.483 10 1 
230 1.21915 9.77958 -0.0161135 0.011935 9.7796 25.5503 10 1 
232 1.21925 9.76653 -0.0162928 0.0116706 9.76655 25.7414 10 1 
234 1.21922 9.7568 -0.0165692 0.00958996 9.75682 25.6937 10 1 
236 1.21927 9.74473 -0.0168902 0.0103392 9.74475 25.7843 10 1 
238 1.21944 9.72837 -0.0171718 0.0115552 9.72839 26.0782 10 1 
240 1.21945 9.71397 -0.0173737 0.0133921 9.714 26.1021 10 1 
242 1.21948 9.69626 -0.017571 0.016911 9.69629 26.1601 10 1 
244 1.21963 9.67626 -0.0178981 0.0178938 9.6763 26.4291 10 1 
246 1.21973 9.65703 -0.0182488 0.0187295 9.65706 26.6109 10 1 
248 1.21981 9.63564 -0.0185518 0.021544 9.63569 26.752 10 1 
250 1.21997 9.61193 -0.0188163 0.0226464 9.61198 27.0457 10 1 
252 1.22015 9.58485 -0.0190981 0.0264029 9.58491 27.3616 10 1 
254 1.22024 9.55421 -0.0194788 0.0319701 9.55429 27.53 10 1 
256 1.2204 9.52168 -0.0196941 0.0351382 9.52178 27.8239 10 1 
256 1.2204 9.52168 -0.0196941 0.0351382 9.52178 27.8239 11 1 
258 1.22069 9.48537 -0.0199973 0.0411782 9.48549 28.3392 11 1 
260 1.22091 9.44434 -0.0203309 0.0493047 9.4445 28.7447 11 1 
262 1.22111 9.3995 -0.0206341 0.0552963 9.3997 29.0952 11 1 
264 1.2214 9.34949 -0.0209745 0.067485 9.34978 29.6283 11 1 
266 1.22179 9.29165 -0.0212456 0.0809834 9.29204 30.3246 11 1 
268 1.22212 9.2284 -0.021533 0.0966185 9.22896 30.9156 11 1 
270 1.22245 9.16274 -0.021865 0.120988 9.1636 31.5171 11 1 
272 1.22304 9.08373 -0.0221544 0.148557 9.08503 32.5833 11 1 
274 1.22358 8.98933 -0.0224215 0.177909 8.99122 33.56 11 1 
276 1.22393 8.89059 -0.022651 0.212619 8.89328 34.1859 11 1 
278 1.22461 8.78144 -0.0228897 0.25855 8.78539 35.417 11 1 
280 1.22543 8.66523 -0.0231428 0.321938 8.67143 36.9036 11 1 
282 1.22594 8.54887 -0.0233552 0.402628 8.55866 37.8241 11 1 
284 1.22663 8.41625 -0.0235689 0.484787 8.43053 39.0677 11 1 
286 1.22751 8.26505 -0.0237314 0.592454 8.28687 40.6594 11 1 
288 1.22798 8.12473 -0.0237899 0.714149 8.15667 41.5004 11 1 
288 1.22798 8.12473 -0.0237899 0.714149 8.15667 41.5004 11 1 
290 1.22868 7.97063 -0.0238298 0.847246 8.01659 42.7798 11 1 
292 1.22969 7.80199 -0.0238731 1.02117 7.86983 44.5884 11 1 
294 1.22971 7.66897 -0.0238301 1.22907 7.76827 44.6399 11 1 
296 1.22835 7.30984 -0.023596 1.07727 7.39511 42.1836 11 1 
298 1.22389 6.53385 -0.0234506 0.302605 6.56848 34.1218 11 1 
300 1.21761 5.67946 -0.0234096 -0.740833 5.7711 22.7763 11 1 
302 1.21347 5.11624 -0.0233171 -1.54844 5.36273 15.2944 11 1 
304 1.2112 4.87549 -0.0233313 -1.72649 5.17338 11.2066 11 1 
306 1.21042 4.71959 -0.0232017 -1.56366 4.97273 9.79668 11 1 
308 1.21073 4.52473 -0.0228785 -1.35606 4.72556 10.351 11 1 
310 1.21098 4.36462 -0.0225288 -1.1202 4.50732 10.7969 11 1 
312 1.21146 4.24644 -0.0222457 -0.968413 4.35607 11.6768 11 1 
314 1.21193 4.1295 -0.0221727 -0.838607 4.21459 12.5235 11 1 
316 1.21214 3.99234 -0.0221343 -0.712562 4.05599 12.8894 11 1 
318 1.21244 3.84673 -0.0220391 -0.618148 3.89656 13.4391 11 1 
320 1.21277 3.722 -0.0219667 -0.523365 3.75914 14.0377 11 1 
320 1.21277 3.722 -0.0219667 -0.523365 3.75914 14.0377 15 1 
322 1.21305 3.61268 -0.021905 -0.440837 3.63983 14.5413 15 1 
324 1.21334 3.4973 -0.0218329 -0.385295 3.51884 15.0614 15 1 
326 1.21356 3.37441 -0.021806 -0.338013 3.39166 15.4652 15 1 
328 1.21372 3.25554 -0.0217788 -0.295139 3.26919 15.7473 15 1 
330 1.21392 3.15139 -0.0216959 -0.262209 3.1625 16.1078 15 1 
332 1.21412 3.06017 -0.0216476 -0.236757 3.06955 16.4732 15 1 
334 1.21426 2.96824 -0.0216893 -0.217241 2.97645 16.724 15 1 
336 1.21437 2.87237 -0.0217623 -0.203756 2.87985 16.9223 15 1 
338 1.21449 2.78073 -0.0218163 -0.190976 2.78748 17.1443 15 1 
340 1.21461 2.69877 -0.021874 -0.180273 2.70497 17.3627 15 1 
342 1.2147 2.62364 -0.0219877 -0.173223 2.62956 17.5126 15 1 
344 1.21477 2.5485 -0.0221605 -0.168786 2.5543 17.6433 15 1 
346 1.21485 2.47221 -0.0223622 -0.163839 2.47784 17.7961 15 1 
348 1.21492 2.39834 -0.0225668 -0.158169 2.40373 17.9158 15 1 
350 1.21496 2.32858 -0.0228192 -0.152522 2.33376 17.9954 15 1 
352 1.21501 2.26201 -0.0231811 -0.147639 2.26702 18.0762 15 1 
354 1.21506 2.196 -0.0236277 -0.142052 2.20081 18.1647 15 1 
356 1.21509 2.12875 -0.0240928 -0.134223 2.13319 18.2335 15 1 
358 1.21512 2.06137 -0.0245818 -0.124505 2.06534 18.2782 15 1 
360 1.21515 1.99582 -0.0251494 -0.114507 1.99934 18.3289 15 1 
362 1.21517 1.93155 -0.0257873 -0.104262 1.93462 18.3746 15 1 
364 1.21519 1.86712 -0.0264369 -0.093404 1.86974 18.4019 15 1 
366 1.21521 1.80285 -0.0270827 -0.0814298 1.80499 18.4396 15 1 
368 1.21523 1.73908 -0.0277518 -0.0691951 1.74078 18.4784 15 1 
370 1.21524 1.67601 -0.0284302 -0.0576435 1.67735 18.4941 15 1 
372 1.21524 1.61466 -0.0290824 -0.0467382 1.61572 18.5036 15 1 
374 1.21526 1.55527 -0.0297175 -0.0358721 1.55609 18.5257 15 1 
376 1.21527 1.49705 -0.0303645 -0.024707 1.49769 18.5515 15 1 
378 1.21528 1.43957 -0.0310218 -0.0132948 1.44011 18.5594 15 1 
380 1.21528 1.38355 -0.0316906 -0.00229914 1.38407 18.559 15 1 
382 1.21528 1.33008 -0.0323916 0.00861065 1.33067 18.5707 15 1 
384 1.21529 1.27866 -0.0331317 0.0199736 1.27945 18.5841 15 1 
384 1.21529 1.27866 -0.0331317 0.0199736 1.27945 18.5841 16 1 
386 1.21529 1.22824 -0.033894 0.0315218 1.22933 18.5902 16 1 
388 1.2153 1.17912 -0.0346589 0.0426435 1.18065 18.597 16 1 
390 1.2153 1.13214 -0.0354229 0.0531848 1.13422 18.6081 16 1 
392 1.21531 1.08712 -0.0361821 0.0632659 1.08989 18.6181 16 1 
394 1.21531 1.04357 -0.0369305 0.0727559 1.04712 18.6257 16 1 
396 1.21532 1.00163 -0.0376705 0.0814121 1.00605 18.6415 16 1 
398 1.21533 0.961256 -0.038414 0.0892544 0.966618 18.6599 16 1 
400 1.21534 0.922178 -0.0391766 0.0961309 0.928523 18.671 16 1 
402 1.21535 0.884834 -0.0399781 0.101974 0.892166 18.6864 16 1 
404 1.21536 0.849354 -0.0408272 0.106941 0.857674 18.7097 16 1 
406 1.21537 0.815184 -0.0417245 0.111023 0.824473 18.7313 16 1 
408 1.21538 0.782251 -0.0426741 0.114172 0.792455 18.7508 16 1 
410 1.21539 0.751004 -0.0436629 0.116448 0.762049 18.7733 16 1 
412 1.21541 0.721641 -0.0446885 0.118015 0.733471 18.8006 16 1 
414 1.21542 0.693885 -0.0457484 0.118943 0.706442 18.8274 16 1 
416 1.21544 0.667664 -0.0468172 0.119142 0.680826 18.8543 16 1 
416 1.21544 0.667664 -0.0468172 0.119142 0.680826 18.8543 16 1 
418 1.21546 0.643293 -0.0478712 0.118754 0.656941 18.8852 16 1 
420 1.21547 0.620849 -0.0489085 0.117926 0.634902 18.9163 16 1 
422 1.21549 0.60025 -0.0499413 0.116596 0.614606 18.9469 16 1 
424 1.21551 0.581637 -0.0509571 0.114781 0.596154 18.9805 16 1 
426 1.21553 0.565188 -0.0519451 0.112669 0.579751 19.0177 16 1 
428 1.21555 0.550817 -0.052918 0.110368 0.565342 19.0551 16 1 
430 1.21557 0.538471 -0.0538923 0.10782 0.552859 19.0906 16 1 
432 1.21559 0.528482 -0.0548566 0.105104 0.542632 19.1293 16 1 
434 1.21561 0.520957 -0.0558119 0.102424 0.534819 19.1713 16 1 
436 1.21564 0.515768 -0.0567733 0.0998105 0.529298 19.212 16 1 
438 1.21566 0.513081 -0.0577501 0.0972498 0.526223 19.2542 16 1 
440 1.21568 0.513018 -0.0587476 0.0948031 0.525742 19.2985 16 1 
442 1.21571 0.515521 -0.05976 0.0925043 0.527816 19.3425 16 1 
444 1.21573 0.520658 -0.0608111 0.0903907 0.53252 19.3863 16 1 
446 1.21576 0.528496 -0.0619044 0.0884697 0.539924 19.431 16 1 
448 1.21578 0.538939 -0.0630232 0.0867323 0.54994 19.4766 16 1 
448 1.21578 0.538939 -0.0630232 0.0867323 0.54994 19.4766 17 1 
450 1.21581 0.551818 -0.0641629 0.0851311 0.5624 19.5207 17 1 
452 1.21583 0.567132 -0.0653385 0.0836457 0.577305 19.5633 17 1 
454 1.21585 0.584908 -0.0665519 0.0823239 0.594689 19.6061 17 1 
456 1.21588 0.604957 -0.067793 0.0811436 0.614369 19.6472 17 1 
458 1.2159 0.627056 -0.0690594 0.0800202 0.636111 19.6858 17 1 
460 1.21592 0.651087 -0.0703626 0.078908 0.659796 19.7223 17 1 
462 1.21594 0.677036 -0.0717087 0.0777875 0.685411 19.7566 17 1 
464 1.21596 0.704812 -0.0730907 0.0766697 0.712868 19.7888 17 1 
466 1.21597 0.734198 -0.0745132 0.0754957 0.741947 19.8168 17 1 
468 1.21599 0.765132 -0.0759835 0.0741813 0.772579 19.8418 17 1 
470 1.216 0.79759 -0.0775032 0.0727153 0.804742 19.8642 17 1 
472 1.21601 0.831459 -0.0790685 0.0710452 0.838322 19.8822 17 1 
474 1.21602 0.866728 -0.0806911 0.0691592 0.873308 19.8964 17 1 
476 1.21602 0.903413 -0.0824021 0.0670824 0.909724 19.9074 17 1 
478 1.21603 0.941425 -0.0841982 0.064777 0.947481 19.9146 17 1 
480 1.21603 0.980652 -0.0860692 0.0621991 0.986463 19.9179 17 1 
480 1.21603 0.980652 -0.0860692 0.0621991 0.986463 19.9179 17 1 
482 1.21603 1.02111 -0.0880307 0.0593483 1.02669 19.9168 17 1 
484 1.21602 1.06284 -0.0900971 0.0562726 1.06821 19.9127 17 1 
486 1.21602 1.10573 -0.0922631 0.0530152 1.11092 19.9053 17 1 
488 1.21601 1.14963 -0.0945192 0.0495348 1.15465 19.8934 17 1 
490 1.21601 1.19447 -0.0968703 0.0458329 1.19935 19.878 17 1 
492 1.21599 1.24025 -0.0993183 0.041955 1.24501 19.8593 17 1 
494 1.21598 1.2869 -0.101854 0.0379261 1.29158 19.8377 17 1 
496 1.21597 1.3343 -0.10448 0.0337756 1.33891 19.8133 17 1 
498 1.21595 1.38233 -0.1072 0.0295311 1.3869 19.7855 17 1 
500 1.21594 1.43092 -0.109998 0.0252052 1.43546 19.755 17 1 
502 1.21592 1.48 -0.112866 0.0208048 1.48455 19.7215 17 1 
504 1.2159 1.52953 -0.115803 0.0163447 1.5341 19.6852 17 1 
506 1.21588 1.57944 -0.118808 0.0118937 1.58405 19.6476 17 1 
508 1.21586 1.62961 -0.121871 0.00748182 1.63429 19.6079 17 1 
510 1.21583 1.67996 -0.12498 0.00307369 1.68472 19.5661 17 1 
512 1.21581 1.73047 -0.128125 -0.00131682 1.73533 19.5222 17 1 
512 1.21581 1.73047 -0.128125 -0.00131682 1.73533 19.5222 25 1 
514 1.21578 1.78111 -0.131305 -0.00563571 1.78607 19.4762 25 1 
516 1.21576 1.83183 -0.134513 -0.00985326 1.8369 19.4292 25 1 
518 1.21573 1.88255 -0.137738 -0.0139786 1.88775 19.3808 25 1 
520 1.2157 1.9332 -0.140968 -0.0180115 1.93853 19.3314 25 1 
522 1.21567 1.98376 -0.144191 -0.0219159 1.98924 19.2809 25 1 
524 1.21565 2.03427 -0.147415 -0.0256824 2.03988 19.2294 25 1 
526 1.21562 2.08468 -0.150627 -0.0293071 2.09044 19.1772 25 1 
528 1.21559 2.13489 -0.153815 -0.0327597 2.14079 19.124 25 1 
530 1.21556 2.18486 -0.156974 -0.0360451 2.19091 19.0699 25 1 
532 1.21553 2.23464 -0.160099 -0.0391662 2.24083 19.0153 25 1 
534 1.2155 2.28425 -0.163176 -0.0421066 2.29058 18.9606 25 1 
536 1.21547 2.33362 -0.166216 -0.0448659 2.34009 18.9059 25 1 
538 1.21544 2.38271 -0.169205 -0.0474171 2.3893 18.8506 25 1 
540 1.21541 2.43151 -0.172128 -0.0497628 2.43822 18.7948 25 1 
542 1.21537 2.48004 -0.175001 -0.0519264 2.48687 18.739 25 1 
544 1.21534 2.52831 -0.177792 -0.0538999 2.53524 18.6832 25 1 
544 1.21534 2.52831 -0.177792 -0.0538999 2.53524 18.6832 25 1 
546 1.21531 2.57629 -0.180531 -0.0556754 2.58333 18.6273 25 1 
548 1.21528 2.62396 -0.183196 -0.0572288 2.63109 18.5716 25 1 
550 1.21525 2.6713 -0.185789 -0.0585973 2.67851 18.5158 25 1 
552 1.21522 2.71835 -0.188305 -0.0597828 2.72564 18.4598 25 1 
554 1.21519 2.7651 -0.190745 -0.0607683 2.77246 18.4045 25 1 
556 1.21516 2.81156 -0.193127 -0.0615858 2.81897 18.3496 25 1 
558 1.21513 2.85769 -0.195419 -0.0622244 2.86516 18.2948 25 1 
560 1.2151 2.90351 -0.197656 -0.0626897 2.91102 18.2398 25 1 
562 1.21507 2.94901 -0.199804 -0.0629824 2.95656 18.1851 25 1 
564 1.21504 2.9942 -0.201892 -0.0631395 3.00179 18.1314 25 1 
566 1.21501 3.03912 -0.203915 -0.0631589 3.04673 18.0777 25 1 
568 1.21498 3.08373 -0.205873 -0.0630357 3.09136 18.025 25 1 
570 1.21495 3.12804 -0.207771 -0.0627816 3.13569 17.9724 25 1 
572 1.21492 3.17204 -0.209604 -0.0624229 3.1797 17.9197 25 1 
574 1.21489 3.21576 -0.211387 -0.0619817 3.22343 17.868 25 1 
576 1.21486 3.25922 -0.213108 -0.0614459 3.26688 17.8172 25 1 
576 1.21486 3.25922 -0.213108 -0.0614459 3.26688 17.8172 26 1 
578 1.21484 3.30241 -0.214805 -0.0608406 3.31007 17.7673 26 1 
580 1.21481 3.34533 -0.216434 -0.0601551 3.35299 17.7174 26 1 
582 1.21478 3.38795 -0.218041 -0.0594235 3.39561 17.6683 26 1 
584 1.21475 3.43031 -0.219595 -0.0586762 3.43797 17.6195 26 1 
586 1.21473 3.47246 -0.221119 -0.0579034 3.48011 17.5713 26 1 
588 1.2147 3.51437 -0.222629 -0.0571098 3.52201 17.5245 26 1 
590 1.21468 3.55603 -0.224077 -0.0563088 3.56366 17.4787 26 1 
592 1.21465 3.59744 -0.225547 -0.0555354 3.60506 17.433 26 1 
594 1.21463 3.63862 -0.226949 -0.0547835 3.64623 17.3877 26 1 
596 1.2146 3.67958 -0.228353 -0.054077 3.68719 17.3437 26 1 
598 1.21458 3.72038 -0.229741 -0.0534271 3.72798 17.2997 26 1 
600 1.21455 3.76092 -0.231103 -0.0528197 3.76852 17.257 26 1 
602 1.21453 3.80123 -0.232455 -0.0522896 3.80883 17.2149 26 1 
604 1.21451 3.84137 -0.233788 -0.0518558 3.84896 17.1731 26 1 
606 1.21449 3.88131 -0.235116 -0.051509 3.8889 17.1324 26 1 
608 1.21446 3.92108 -0.236424 -0.0512482 3.92867 17.0918 26 1 
608 1.21446 3.92108 -0.236424 -0.0512482 3.92867 17.0918 26 1 
610 1.21444 3.96064 -0.237734 -0.0511047 3.96823 17.0521 26 1 
612 1.21442 4 -0.239011 -0.0510655 4.00759 17.0124 26 1 
614 1.2144 4.03915 -0.24028 -0.0511345 4.04674 16.9741 26 1 
616 1.21438 4.07818 -0.241557 -0.0513586 4.08578 16.936 26 1 
618 1.21436 4.117 -0.242778 -0.051675 4.12461 16.8985 26 1 
620 1.21434 4.15564 -0.244038 -0.0521163 4.16324 16.8616 26 1 
622 1.21431 4.19405 -0.245235 -0.0526847 4.20167 16.8246 26 1 
624 1.21429 4.23231 -0.246441 -0.0533722 4.23993 16.7885 26 1 
626 1.21428 4.27037 -0.247607 -0.0541979 4.278 16.7536 26 1 
628 1.21426 4.30825 -0.24878 -0.0551314 4.3159 16.7192 26 1 
630 1.21424 4.34597 -0.24991 -0.0561917 4.35362 16.6845 26 1 
632 1.21422 4.38339 -0.251016 -0.0573433 4.39106 16.6514 26 1 
634 1.2142 4.42064 -0.252132 -0.0586082 4.42831 16.6182 26 1 
636 1.21418 4.45775 -0.253158 -0.0599885 4.46544 16.5849 26 1 
638 1.21417 4.49458 -0.254217 -0.0614436 4.50228 16.5547 26 1 
640 1.21415 4.5312 -0.255238 -0.0629859 4.53892 16.5241 26 1 
642 1.21413 4.56765 -0.256188 -0.0645963 4.57538 16.4922 26 1 
644 1.21411 4.60375 -0.25715 -0.0662916 4.61149 16.4635 26 1 
646 1.2141 4.63969 -0.258095 -0.0680061 4.64745 16.4345 26 1 
648 1.21408 4.67546 -0.258906 -0.069789 4.68323 16.4047 26 1 
650 1.21407 4.71086 -0.25983 -0.071614 4.71864 16.3787 26 1 
652 1.21405 4.74606 -0.260612 -0.073399 4.75385 16.352 26 1 
654 1.21404 4.78102 -0.261374 -0.0752507 4.78883 16.3243 26 1 
656 1.21402 4.81564 -0.262151 -0.0770537 4.82347 16.2996 26 1 
658 1.21401 4.85012 -0.262837 -0.0788698 4.85796 16.2738 26 1 
660 1.214 4.88425 -0.26348 -0.0806261 4.89209 16.2497 26 1 
662 1.21398 4.9181 -0.264156 -0.0823284 4.92595 16.2259 26 1 
664 1.21397 4.95172 -0.264704 -0.0839915 4.95958 16.2023 26 1 
666 1.21396 4.98501 -0.265236 -0.0855417 4.99287 16.1811 26 1 
668 1.21395 5.01812 -0.265802 -0.0870753 5.02599 16.1573 26 1 
670 1.21393 5.0509 -0.266181 -0.0884303 5.05876 16.1359 26 1 
672 1.21392 5.08337 -0.266672 -0.0897381 5.09123 16.1157 26 1 
672 1.21392 5.08337 -0.266672 -0.0897381 5.09123 16.1157 27 1 
674 1.21391 5.11564 -0.26699 -0.0908936 5.12349 16.094 27 1 
676 1.2139 5.14762 -0.267336 -0.0919028 5.15546 16.0744 27 1 
678 1.21389 5.17934 -0.267611 -0.09283 5.18717 16.0556 27 1 
680 1.21388 5.21087 -0.267833 -0.0935519 5.21868 16.0357 27 1 
682 1.21387 5.24202 -0.268018 -0.0941357 5.24981 16.0162 27 1 
684 1.21386 5.27306 -0.26816 -0.0945311 5.28082 15.9971 27 1 
686 1.21385 5.3038 -0.268231 -0.0947738 5.31153 15.98 27 1 
688 1.21384 5.33439 -0.268272 -0.0948235 5.34208 15.9622 27 1 
690 1.21383 5.36468 -0.268292 -0.0946735 5.37233 15.9451 27 1 
692 1.21382 5.39484 -0.268192 -0.0943315 5.40244 15.9268 27 1 
694 1.21381 5.42472 -0.268122 -0.0937773 5.43228 15.911 27 1 
696 1.2138 5.4545 -0.267936 -0.0929945 5.462 15.8931 27 1 
698 1.21379 5.48421 -0.267736 -0.0920192 5.49165 15.8762 27 1 
700 1.21378 5.51353 -0.267528 -0.0907992 5.52091 15.8648 27 1 
702 1.21377 5.54285 -0.267169 -0.0893438 5.55015 15.8463 27 1 
704 1.21376 5.57191 -0.266861 -0.087662 5.57914 15.8298 27 1 
704 1.21376 5.57191 -0.266861 -0.087662 5.57914 15.8298 31 1 
706 1.21376 5.60092 -0.266443 -0.0857615 5.60807 15.8169 31 1 
708 1.21375 5.62982 -0.265976 -0.0836062 5.63688 15.8021 31 1 
710 1.21374 5.65863 -0.265579 -0.0811317 5.6656 15.7866 31 1 
712 1.21373 5.68734 -0.264999 -0.0785387 5.69422 15.7733 31 1 
714 1.21373 5.71573 -0.264479 -0.0755872 5.72251 15.7636 31 1 
716 1.21372 5.74424 -0.263943 -0.0724308 5.75093 15.7453 31 1 
718 1.21371 5.77258 -0.263196 -0.069167 5.77917 15.7318 31 1 
720 1.21371 5.80093 -0.262608 -0.0655068 5.80742 15.7238 31 1 
722 1.2137 5.82916 -0.262052 -0.0615548 5.83555 15.711 31 1 
724 1.21369 5.85746 -0.261151 -0.0574646 5.86374 15.6947 31 1 
726 1.21369 5.88556 -0.260774 -0.0531311 5.89175 15.6876 31 1 
728 1.21368 5.91343 -0.259962 -0.0485594 5.91953 15.6797 31 1 
730 1.21367 5.94157 -0.259153 -0.0438478 5.94756 15.6597 31 1 
732 1.21367 5.96951 -0.258652 -0.0387191 5.97542 15.6534 31 1 
734 1.21366 5.99732 -0.257859 -0.0336304 6.00314 15.6504 31 1 
736 1.21365 6.02539 -0.25724 -0.0281106 6.03112 15.6324 31 1 
738 1.21365 6.05315 -0.256695 -0.0222976 6.05881 15.624 31 1 
740 1.21365 6.08066 -0.255855 -0.0167612 6.08623 15.6221 31 1 
742 1.21364 6.10831 -0.255285 -0.0103535 6.11382 15.6087 31 1 
744 1.21364 6.1356 -0.254917 -0.00449044 6.14106 15.5981 31 1 
746 1.21363 6.16328 -0.253899 0.00197689 6.16867 15.5914 31 1 
748 1.21363 6.18997 -0.253647 0.00867207 6.19532 15.5957 31 1 
750 1.21362 6.21709 -0.252982 0.0152045 6.2224 15.5744 31 1 
752 1.21362 6.24421 -0.252345 0.022026 6.24948 15.5639 31 1 
752 1.21362 6.24421 -0.252345 0.022026 6.24948 15.5639 31 1 
754 1.21363 6.26995 -0.251995 0.0287643 6.27522 15.5817 31 1 
756 1.21361 6.29654 -0.251189 0.0359842 6.30177 15.5569 31 1 
758 1.2136 6.3228 -0.25079 0.0426634 6.32804 15.5394 31 1 
760 1.21362 6.34796 -0.250279 0.0497295 6.3532 15.5634 31 1 
762 1.21361 6.37333 -0.249732 0.056854 6.37858 15.5514 31 1 
764 1.21359 6.39936 -0.249288 0.063803 6.40464 15.5146 31 1 
766 1.21361 6.42279 -0.24856 0.0709153 6.42809 15.5501 31 1 
768 1.2136 6.44817 -0.248111 0.0777296 6.4535 15.5301 31 1 
770 1.21359 6.4725 -0.248194 0.0845926 6.4779 15.5086 31 1 
772 1.21359 6.49582 -0.247133 0.0910691 6.50124 15.5228 31 1 
774 1.21359 6.52025 -0.247105 0.0980306 6.52575 15.511 31 1 
776 1.21358 6.54355 -0.246856 0.10456 6.54912 15.5027 31 1 
778 1.21357 6.56874 -0.246513 0.111084 6.57439 15.4739 31 1 
780 1.21359 6.59058 -0.246088 0.118336 6.59632 15.5136 31 1 
782 1.21357 6.61322 -0.246001 0.122806 6.61901 15.4786 31 1 
784 1.21353 6.63743 -0.247718 0.129055 6.64339 15.4068 31 1 
786 1.21355 6.66081 -0.248318 0.134386 6.66688 15.4502 31 1 
788 1.21356 6.68491 -0.247579 0.139343 6.69105 15.4572 31 1 
790 1.2135 6.71083 -0.251676 0.144317 6.7172 15.3603 31 1 
792 1.21352 6.73129 -0.256854 0.144674 6.73785 15.3888 31 1 
794 1.21351 6.75486 -0.258678 0.143719 6.76146 15.3641 31 1 
796 1.21347 6.78016 -0.273416 0.137917 6.78723 15.3045 31 1 
798 1.21351 6.80133 -0.300695 0.122149 6.80927 15.3675 31 1 
800 1.21351 6.81435 -0.314845 0.111319 6.82272 15.3703 31 1 
