43.4711;r ;Density                 ;Velocity u              ;Velocity v              ;Velocity w              ;|Velocity|              ;Pressure                ;Distribution            ;Levels                  ;
0 1.20362 10.0012 -1.02498e-05 -0.00124993 10.0012 -2.50042 1 1 
2 1.2036 10.0011 -3.23357e-05 -9.94427e-05 10.0011 -2.52155 1 1 
4 1.20359 10.001 -8.67932e-05 7.91153e-05 10.001 -2.53778 1 1 
6 1.20361 10.0012 -0.000133016 9.20278e-05 10.0012 -2.51453 1 1 
8 1.20362 10.0012 -0.000145238 0.000385057 10.0012 -2.49473 1 1 
10 1.2036 10.0013 -0.000175228 0.000179373 10.0013 -2.52102 1 1 
12 1.20359 10.0011 -0.000212592 -4.40592e-05 10.0011 -2.54115 1 1 
14 1.20361 10.0009 -0.000273267 9.7145e-05 10.0009 -2.518 1 1 
16 1.20362 10.0011 -0.000319393 0.00041994 10.0011 -2.49971 1 1 
18 1.20362 10.0009 -0.000365633 0.000750937 10.001 -2.50097 1 1 
20 1.20361 10.0009 -0.000404319 0.000811068 10.0009 -2.50896 1 1 
22 1.20361 10.0011 -0.000445258 0.000899318 10.0011 -2.51351 1 1 
24 1.20361 10.001 -0.000489403 0.000466517 10.001 -2.51036 1 1 
26 1.20362 10.0005 -0.000524639 0.000281585 10.0005 -2.48943 1 1 
28 1.20363 10.0002 -0.000572763 0.000735875 10.0002 -2.47552 1 1 
30 1.20362 10.0005 -0.000622768 0.000486132 10.0005 -2.49185 1 1 
32 1.20361 10.0007 -0.000683007 0.000358854 10.0007 -2.50273 1 1 
32 1.20361 10.0007 -0.000683007 0.000358854 10.0007 -2.50273 1 1 
34 1.20362 10.0006 -0.000708101 0.000490245 10.0006 -2.48755 1 1 
36 1.20364 10.0005 -0.000745198 0.000608294 10.0005 -2.46273 1 1 
38 1.20364 10.0005 -0.000770417 0.000302947 10.0005 -2.45434 1 1 
40 1.20363 10.0006 -0.000820632 -1.23316e-05 10.0006 -2.46724 1 1 
42 1.20363 10.0006 -0.000847549 8.69164e-05 10.0006 -2.47117 1 1 
44 1.20364 10.0005 -0.00090647 0.000397345 10.0005 -2.45164 1 1 
46 1.20366 10.0003 -0.000948108 0.000741368 10.0003 -2.42687 1 1 
48 1.20366 10.0005 -0.000992763 0.000684197 10.0005 -2.41952 1 1 
50 1.20366 10.0008 -0.00104109 0.000414407 10.0008 -2.42589 1 1 
52 1.20366 10.0008 -0.00107601 0.000170042 10.0008 -2.42333 1 1 
54 1.20367 10.0006 -0.00113805 0.000164536 10.0006 -2.39988 1 1 
56 1.20369 10.0004 -0.00119151 0.000244825 10.0004 -2.37102 1 1 
58 1.20369 10.0006 -0.00123872 0.000238351 10.0006 -2.37304 1 1 
60 1.20368 10.0009 -0.00128074 0.000218775 10.0009 -2.39342 1 1 
62 1.20369 10.0001 -0.00132435 -0.000127974 10.0001 -2.3714 1 1 
64 1.2037 9.99942 -0.00136117 -0.000446015 9.99942 -2.3481 1 1 
64 1.2037 9.99942 -0.00136117 -0.000446015 9.99942 -2.3481 2 1 
66 1.20371 9.99957 -0.0013878 -0.000300065 9.99957 -2.33699 2 1 
68 1.20372 9.99975 -0.00141137 -0.000269916 9.99975 -2.31339 2 1 
70 1.20371 10.0003 -0.00144556 -1.94712e-05 10.0003 -2.33136 2 1 
72 1.20371 10.0001 -0.00148772 4.28088e-05 10.0001 -2.33134 2 1 
74 1.20373 9.99926 -0.0015094 -3.09391e-05 9.99926 -2.2953 2 1 
76 1.20374 9.99906 -0.00154593 -0.000197002 9.99906 -2.28123 2 1 
78 1.20374 9.99909 -0.00159917 -0.000818276 9.99909 -2.27912 2 1 
80 1.20373 9.99945 -0.00163544 -0.00112996 9.99945 -2.28581 2 1 
82 1.20374 9.99929 -0.00161474 -0.00107291 9.99929 -2.27166 2 1 
84 1.20376 9.9983 -0.0015651 -0.000879629 9.9983 -2.23774 2 1 
86 1.20376 9.99824 -0.00156585 -0.000285971 9.99824 -2.23443 2 1 
88 1.20376 9.9982 -0.00159505 -0.000616561 9.9982 -2.23268 2 1 
90 1.20377 9.99798 -0.00164168 -0.00077763 9.99798 -2.22742 2 1 
92 1.20377 9.9983 -0.00167848 -0.000613088 9.9983 -2.22848 2 1 
94 1.20378 9.99803 -0.00175554 -0.00115003 9.99803 -2.20135 2 1 
96 1.2038 9.99755 -0.00183861 -0.0014275 9.99755 -2.1764 2 1 
96 1.2038 9.99755 -0.00183861 -0.0014275 9.99755 -2.1764 2 1 
98 1.20379 9.99721 -0.00185636 -0.00134828 9.99721 -2.19232 2 1 
100 1.20378 9.99671 -0.00187727 -0.00136747 9.99671 -2.19905 2 1 
102 1.20381 9.99604 -0.00191123 -0.00115776 9.99604 -2.15744 2 1 
104 1.20381 9.99569 -0.0019497 -0.000634839 9.99569 -2.14305 2 1 
106 1.2038 9.99569 -0.0019719 -0.00109087 9.99569 -2.15882 2 1 
108 1.20381 9.9955 -0.00197197 -0.00171546 9.99551 -2.14231 2 1 
110 1.20382 9.99541 -0.00202759 -0.00213661 9.99541 -2.13777 2 1 
112 1.20381 9.99568 -0.00211254 -0.00215018 9.99568 -2.14803 2 1 
114 1.20384 9.99488 -0.00214952 -0.00180743 9.99488 -2.09818 2 1 
116 1.20385 9.99394 -0.00218325 -0.00130454 9.99394 -2.07621 2 1 
118 1.20383 9.99386 -0.00224688 -0.0013104 9.99386 -2.11531 2 1 
120 1.20384 9.99292 -0.00226856 -0.00200008 9.99292 -2.10186 2 1 
122 1.20385 9.99228 -0.00226733 -0.00243815 9.99228 -2.07995 2 1 
124 1.20384 9.99256 -0.00230723 -0.00267013 9.99256 -2.09131 2 1 
126 1.20386 9.99213 -0.00238126 -0.0028671 9.99213 -2.06177 2 1 
128 1.20387 9.99166 -0.00241127 -0.00248609 9.99166 -2.03463 2 1 
128 1.20387 9.99166 -0.00241127 -0.00248609 9.99166 -2.03463 10 1 
130 1.20386 9.99206 -0.00244041 -0.00161725 9.99206 -2.06609 10 1 
132 1.20387 9.99112 -0.00251216 -0.00146929 9.99112 -2.04058 10 1 
134 1.20389 9.98977 -0.00254006 -0.00211757 9.98977 -2.00807 10 1 
136 1.20387 9.98993 -0.00256879 -0.00261483 9.98993 -2.03526 10 1 
138 1.20389 9.98879 -0.0026404 -0.00295958 9.98879 -2.00328 10 1 
140 1.2039 9.98776 -0.00268489 -0.0033169 9.98776 -1.99559 10 1 
142 1.20388 9.98834 -0.00267982 -0.00255678 9.98834 -2.02641 10 1 
144 1.20391 9.98713 -0.0027031 -0.00223088 9.98713 -1.96404 10 1 
146 1.20393 9.98609 -0.00278374 -0.00232433 9.98609 -1.94026 10 1 
148 1.2039 9.98654 -0.00280486 -0.00278139 9.98654 -1.98573 10 1 
150 1.20392 9.98512 -0.00282005 -0.00309634 9.98512 -1.94424 10 1 
152 1.20394 9.98359 -0.00291759 -0.00277499 9.98359 -1.91745 10 1 
154 1.20392 9.98373 -0.00298265 -0.00244232 9.98373 -1.95857 10 1 
156 1.20394 9.98253 -0.00298177 -0.0023568 9.98253 -1.90619 10 1 
158 1.20397 9.98127 -0.003059 -0.00249905 9.98127 -1.86882 10 1 
160 1.20394 9.98164 -0.0031436 -0.00304466 9.98164 -1.92165 10 1 
160 1.20394 9.98164 -0.0031436 -0.00304466 9.98164 -1.92165 10 1 
162 1.20395 9.9806 -0.0031885 -0.00323497 9.9806 -1.88946 10 1 
164 1.20398 9.97896 -0.00318575 -0.00267172 9.97896 -1.83995 10 1 
166 1.20396 9.97836 -0.00325203 -0.00297792 9.97836 -1.87587 10 1 
168 1.20396 9.97689 -0.00332033 -0.00251706 9.97689 -1.88666 10 1 
170 1.20398 9.97529 -0.00336124 -0.00210042 9.97529 -1.8497 10 1 
172 1.20397 9.97504 -0.00340997 -0.00265894 9.97504 -1.86238 10 1 
174 1.20396 9.97418 -0.00349905 -0.00300198 9.97418 -1.87747 10 1 
176 1.20398 9.97285 -0.00352069 -0.0034177 9.97285 -1.84308 10 1 
178 1.20397 9.97204 -0.00357952 -0.00337622 9.97204 -1.85284 10 1 
180 1.20394 9.97076 -0.0036624 -0.0034164 9.97076 -1.90888 10 1 
182 1.20393 9.9701 -0.00371748 -0.00313481 9.9701 -1.92369 10 1 
184 1.20395 9.96904 -0.00374965 -0.00265308 9.96904 -1.88909 10 1 
186 1.20395 9.96693 -0.00386151 -0.00220952 9.96693 -1.89673 10 1 
188 1.20393 9.96569 -0.00390574 -0.00239886 9.9657 -1.93811 10 1 
190 1.20395 9.96381 -0.00389547 -0.00289049 9.96381 -1.90133 10 1 
192 1.20397 9.96091 -0.00397261 -0.00434956 9.96091 -1.86788 10 1 
194 1.20394 9.95911 -0.00404768 -0.00512518 9.95912 -1.91483 10 1 
196 1.20397 9.95675 -0.00407113 -0.00503595 9.95675 -1.86867 10 1 
198 1.20402 9.95359 -0.00413521 -0.00423022 9.95359 -1.77572 10 1 
200 1.204 9.95189 -0.00421445 -0.00295089 9.95189 -1.80519 10 1 
202 1.20402 9.94913 -0.00421804 -0.00312032 9.94914 -1.77212 10 1 
204 1.2041 9.94384 -0.00420128 -0.00381062 9.94384 -1.62783 10 1 
206 1.20412 9.93898 -0.00426439 -0.00380261 9.93898 -1.59159 10 1 
208 1.20413 9.93411 -0.0043928 -0.00415959 9.93411 -1.57289 10 1 
210 1.20421 9.92749 -0.00444862 -0.00453375 9.9275 -1.42702 10 1 
212 1.20425 9.92292 -0.00450563 -0.00410581 9.92293 -1.35433 10 1 
214 1.20426 9.919 -0.00464068 -0.00430331 9.919 -1.33057 10 1 
216 1.20435 9.91306 -0.00481777 -0.00216569 9.91306 -1.16637 10 1 
218 1.20443 9.9081 -0.00476456 -0.00172314 9.90811 -1.03112 10 1 
220 1.20447 9.90051 -0.00478814 -0.00278935 9.90051 -0.965697 10 1 
222 1.20451 9.89126 -0.00486825 -0.00313823 9.89126 -0.876222 10 1 
224 1.20457 9.88331 -0.00504106 -0.00518444 9.88332 -0.772172 10 1 
224 1.20457 9.88331 -0.00504106 -0.00518444 9.88332 -0.772172 10 1 
226 1.20467 9.8722 -0.00516527 -0.00309532 9.8722 -0.602088 10 1 
228 1.20471 9.86362 -0.00531367 0.000547278 9.86362 -0.528185 10 1 
230 1.20478 9.85535 -0.00539834 0.00133053 9.85536 -0.392873 10 1 
232 1.20492 9.84251 -0.005392 0.000528673 9.84251 -0.137328 10 1 
234 1.20493 9.83326 -0.00547353 -0.00166914 9.83326 -0.131131 10 1 
236 1.20501 9.8217 -0.00572432 -0.000761357 9.8217 0.0135502 10 1 
238 1.2052 9.80568 -0.00593014 9.92509e-05 9.80569 0.362745 10 1 
240 1.20524 9.7916 -0.00591302 0.00147998 9.79161 0.438748 10 1 
242 1.20531 9.77429 -0.00591377 0.00507716 9.77429 0.552074 10 1 
244 1.20549 9.75477 -0.00617465 0.0063125 9.75478 0.879896 10 1 
246 1.20562 9.73609 -0.00640124 0.00698178 9.7361 1.11602 10 1 
248 1.20572 9.71529 -0.00645795 0.00955587 9.7153 1.30564 10 1 
250 1.20591 9.69211 -0.00656337 0.0109615 9.69213 1.64934 10 1 
252 1.20612 9.6655 -0.00680084 0.0150329 9.66552 2.01822 10 1 
254 1.20624 9.63541 -0.00703607 0.0202987 9.63544 2.23773 10 1 
256 1.20643 9.60349 -0.00699457 0.0232697 9.60353 2.5855 10 1 
256 1.20643 9.60349 -0.00699457 0.0232697 9.60353 2.5855 11 1 
258 1.20675 9.56767 -0.0071471 0.0298445 9.56772 3.15718 11 1 
260 1.207 9.52713 -0.00740071 0.0382204 9.52722 3.61223 11 1 
262 1.20722 9.48297 -0.00753627 0.0437282 9.4831 4.0081 11 1 
264 1.20754 9.43361 -0.00768192 0.0558108 9.4338 4.59178 11 1 
266 1.20796 9.37613 -0.00786833 0.0698625 9.37642 5.3415 11 1 
268 1.20831 9.3133 -0.00808226 0.0857842 9.31373 5.98417 11 1 
270 1.20868 9.24843 -0.00824729 0.110008 9.24913 6.63955 11 1 
272 1.2093 9.17002 -0.00840589 0.137695 9.17112 7.76234 11 1 
274 1.20986 9.07573 -0.00861824 0.167618 9.07739 8.78494 11 1 
276 1.21023 8.97714 -0.00874009 0.202715 8.97955 9.44964 11 1 
278 1.21094 8.86843 -0.0088548 0.249046 8.87205 10.7335 11 1 
280 1.2118 8.75275 -0.00908349 0.313321 8.75855 12.2806 11 1 
282 1.21234 8.63669 -0.00926807 0.395141 8.64601 13.2535 11 1 
284 1.21306 8.50431 -0.00933174 0.478155 8.51805 14.55 11 1 
286 1.21396 8.35361 -0.0094438 0.58723 8.37481 16.1926 11 1 
288 1.21445 8.21396 -0.00964325 0.710515 8.24521 17.0688 11 1 
288 1.21445 8.21396 -0.00964325 0.710515 8.24521 17.0688 11 1 
290 1.21518 8.06 -0.0097618 0.845388 8.10526 18.3899 11 1 
292 1.21621 7.89152 -0.00985561 1.02193 7.95868 20.2559 11 1 
294 1.21626 7.7599 -0.0100409 1.23285 7.85865 20.3443 11 1 
296 1.2149 7.39901 -0.0101065 1.07911 7.4837 17.8865 11 1 
298 1.21039 6.61558 -0.0100432 0.294212 6.65014 9.72802 11 1 
300 1.20401 5.75368 -0.00999353 -0.762379 5.84801 -1.78302 11 1 
302 1.19981 5.18699 -0.00999663 -1.58089 5.44002 -9.37397 11 1 
304 1.19752 4.94652 -0.0100792 -1.76212 5.25219 -13.5137 11 1 
306 1.19674 4.79122 -0.00990289 -1.59782 5.05143 -14.9219 11 1 
308 1.19707 4.59579 -0.00938671 -1.38749 4.80264 -14.3279 11 1 
310 1.19733 4.43559 -0.00909555 -1.14794 4.58293 -13.8486 11 1 
312 1.19784 4.31778 -0.00932966 -0.994469 4.43138 -12.9291 11 1 
314 1.19833 4.20119 -0.00961877 -0.863811 4.28982 -12.0548 11 1 
316 1.19854 4.06443 -0.00942606 -0.736435 4.13112 -11.6766 11 1 
318 1.19885 3.91975 -0.00894241 -0.6396 3.97202 -11.0997 11 1 
320 1.19921 3.79705 -0.00859525 -0.540585 3.83582 -10.4611 11 1 
320 1.19921 3.79705 -0.00859525 -0.540585 3.83582 -10.4611 15 1 
322 1.19951 3.69029 -0.00844352 -0.453299 3.71832 -9.91155 15 1 
324 1.19983 3.57703 -0.00836887 -0.393433 3.59893 -9.34595 15 1 
326 1.20007 3.45571 -0.00832859 -0.341953 3.47289 -8.9128 15 1 
328 1.20023 3.33827 -0.00829703 -0.294405 3.35147 -8.61226 15 1 
330 1.20045 3.23602 -0.00823897 -0.256067 3.24629 -8.22572 15 1 
332 1.20067 3.14749 -0.00817524 -0.22434 3.15566 -7.81846 15 1 
334 1.20084 3.05859 -0.00814598 -0.197901 3.06518 -7.51306 15 1 
336 1.20098 2.96545 -0.00813483 -0.177088 2.97092 -7.25825 15 1 
338 1.20113 2.87641 -0.00811158 -0.156049 2.88077 -6.9836 15 1 
340 1.20128 2.79758 -0.00808375 -0.136173 2.801 -6.71594 15 1 
342 1.20139 2.72642 -0.00807163 -0.119781 2.72918 -6.51735 15 1 
344 1.2015 2.65571 -0.00809021 -0.106727 2.658 -6.33065 15 1 
346 1.20162 2.58397 -0.0081307 -0.0942942 2.5858 -6.10766 15 1 
348 1.20173 2.5153 -0.00816913 -0.0816076 2.51671 -5.90069 15 1 
350 1.20183 2.45225 -0.00822856 -0.0694723 2.45333 -5.72285 15 1 
352 1.20193 2.39389 -0.00833642 -0.0595279 2.39474 -5.5457 15 1 
354 1.20203 2.33661 -0.00847302 -0.0509779 2.33728 -5.3717 15 1 
356 1.20211 2.27825 -0.00858741 -0.0422183 2.27874 -5.22481 15 1 
358 1.20218 2.22114 -0.00867692 -0.0329127 2.22147 -5.09574 15 1 
360 1.20226 2.16863 -0.00878644 -0.0246923 2.16886 -4.94646 15 1 
362 1.20235 2.12008 -0.00890664 -0.0181069 2.12026 -4.79331 15 1 
364 1.20242 2.07298 -0.00899864 -0.0129417 2.07311 -4.65877 15 1 
366 1.2025 2.02727 -0.00906751 -0.00798983 2.02737 -4.51878 15 1 
368 1.20257 1.98423 -0.00915269 -0.00295132 1.98431 -4.38308 15 1 
370 1.20263 1.94473 -0.00925542 0.0020032 1.9448 -4.27512 15 1 
372 1.20269 1.90885 -0.00935625 0.00717182 1.90894 -4.17706 15 1 
374 1.20275 1.87539 -0.00947132 0.013352 1.87552 -4.06826 15 1 
376 1.20281 1.84318 -0.00961979 0.0209491 1.84337 -3.95331 15 1 
378 1.20287 1.81205 -0.00979241 0.029686 1.81237 -3.84919 15 1 
380 1.20293 1.78222 -0.00996637 0.0382969 1.78272 -3.74734 15 1 
382 1.20299 1.75336 -0.0101479 0.0464139 1.75407 -3.63143 15 1 
384 1.20305 1.72389 -0.010347 0.0543655 1.72487 -3.51552 15 1 
384 1.20305 1.72389 -0.010347 0.0543655 1.72487 -3.51552 16 1 
386 1.20311 1.69275 -0.0105544 0.062354 1.69404 -3.41094 16 1 
388 1.20317 1.66099 -0.0107805 0.0704564 1.66264 -3.31018 16 1 
390 1.20322 1.63021 -0.011052 0.0788307 1.6323 -3.20627 16 1 
392 1.20328 1.60085 -0.0114036 0.0876577 1.60346 -3.10182 16 1 
394 1.20334 1.57306 -0.0118563 0.0968824 1.57627 -2.9968 16 1 
396 1.20341 1.54782 -0.0124054 0.106369 1.55172 -2.87913 16 1 
398 1.20347 1.52577 -0.0130216 0.116281 1.53048 -2.75595 16 1 
400 1.20354 1.50667 -0.0136566 0.126517 1.51231 -2.6421 16 1 
402 1.2036 1.49026 -0.0142504 0.136841 1.49691 -2.52806 16 1 
404 1.20367 1.47587 -0.0147213 0.147142 1.48361 -2.40977 16 1 
406 1.20373 1.46218 -0.0150027 0.157364 1.47108 -2.2956 16 1 
408 1.20379 1.44799 -0.0150405 0.167432 1.45812 -2.18364 16 1 
410 1.20386 1.43201 -0.0147798 0.176895 1.44339 -2.0653 16 1 
412 1.20393 1.41258 -0.0141784 0.184933 1.42515 -1.93846 16 1 
414 1.204 1.388 -0.0132464 0.190578 1.40155 -1.81154 16 1 
416 1.20407 1.35743 -0.0120616 0.192527 1.37153 -1.68801 16 1 
416 1.20407 1.35743 -0.0120616 0.192527 1.37153 -1.68801 16 1 
418 1.20413 1.32163 -0.0107458 0.189274 1.3356 -1.5654 16 1 
420 1.2042 1.28297 -0.00948426 0.179346 1.29588 -1.44895 16 1 
422 1.20426 1.24525 -0.00850633 0.161549 1.25606 -1.34137 16 1 
424 1.20432 1.21333 -0.00800307 0.135564 1.22124 -1.23744 16 1 
426 1.20437 1.19191 -0.00806545 0.102463 1.19674 -1.13311 16 1 
428 1.20443 1.18394 -0.00871374 0.0644539 1.18625 -1.03284 16 1 
430 1.20448 1.19044 -0.00989389 0.0240893 1.19135 -0.941293 16 1 
432 1.20453 1.21102 -0.0114543 -0.016092 1.21185 -0.850008 16 1 
434 1.20458 1.24419 -0.0132249 -0.0538172 1.24606 -0.753705 16 1 
436 1.20464 1.28756 -0.0150854 -0.0875787 1.29118 -0.656446 16 1 
438 1.20469 1.33892 -0.0169472 -0.116808 1.34459 -0.555255 16 1 
440 1.20475 1.39647 -0.0187606 -0.141562 1.40417 -0.448741 16 1 
442 1.20481 1.45882 -0.0204875 -0.162236 1.46834 -0.342156 16 1 
444 1.20487 1.52507 -0.022126 -0.17921 1.5361 -0.238772 16 1 
446 1.20492 1.59457 -0.023689 -0.192834 1.60673 -0.138816 16 1 
448 1.20498 1.66677 -0.0251726 -0.203565 1.67973 -0.0412957 16 1 
448 1.20498 1.66677 -0.0251726 -0.203565 1.67973 -0.0412957 17 1 
450 1.20503 1.74132 -0.0265835 -0.21185 1.75477 0.0529358 17 1 
452 1.20508 1.81808 -0.0279475 -0.218076 1.83176 0.145587 17 1 
454 1.20513 1.89695 -0.0292783 -0.222561 1.91065 0.239134 17 1 
456 1.20518 1.97767 -0.0305835 -0.225593 1.99121 0.329769 17 1 
458 1.20523 2.05989 -0.0318753 -0.227405 2.07316 0.414118 17 1 
460 1.20527 2.14341 -0.0331595 -0.228294 2.15633 0.490434 17 1 
462 1.20531 2.22819 -0.0344432 -0.228559 2.24071 0.558549 17 1 
464 1.20534 2.31424 -0.0357258 -0.228356 2.32635 0.620894 17 1 
466 1.20538 2.40135 -0.0370076 -0.227765 2.41304 0.677951 17 1 
468 1.2054 2.48932 -0.0382973 -0.22693 2.5006 0.731168 17 1 
470 1.20543 2.57806 -0.0395948 -0.226018 2.58894 0.780119 17 1 
472 1.20545 2.66746 -0.0408935 -0.22519 2.67798 0.820344 17 1 
474 1.20547 2.75742 -0.0421937 -0.224523 2.76763 0.851616 17 1 
476 1.20548 2.84788 -0.0435021 -0.22405 2.85781 0.875019 17 1 
478 1.20549 2.93869 -0.04481 -0.22385 2.94838 0.890795 17 1 
480 1.2055 3.02974 -0.0461041 -0.223994 3.03924 0.902228 17 1 
480 1.2055 3.02974 -0.0461041 -0.223994 3.03924 0.902228 17 1 
482 1.20551 3.12103 -0.0473933 -0.224531 3.13038 0.913294 17 1 
484 1.20551 3.21261 -0.0486763 -0.225504 3.22186 0.925991 17 1 
486 1.20552 3.30437 -0.0499382 -0.226893 3.31354 0.936813 17 1 
488 1.20552 3.39602 -0.051169 -0.228668 3.40516 0.941256 17 1 
490 1.20552 3.48746 -0.0523677 -0.230817 3.49659 0.940367 17 1 
492 1.20552 3.57877 -0.0535289 -0.233352 3.58792 0.937512 17 1 
494 1.20552 3.66996 -0.0546471 -0.23626 3.67917 0.937365 17 1 
496 1.20552 3.76096 -0.0557134 -0.239465 3.77024 0.941916 17 1 
498 1.20552 3.85159 -0.0567332 -0.242881 3.86096 0.946518 17 1 
500 1.20552 3.9417 -0.0576986 -0.246491 3.95116 0.946365 17 1 
502 1.20552 4.03123 -0.058598 -0.25029 4.04079 0.94156 17 1 
504 1.20552 4.12019 -0.0594342 -0.254222 4.12987 0.936856 17 1 
506 1.20552 4.20862 -0.0601967 -0.258176 4.21841 0.934942 17 1 
508 1.20552 4.29637 -0.060892 -0.262073 4.30627 0.933649 17 1 
510 1.20552 4.38333 -0.0615144 -0.265895 4.39333 0.932546 17 1 
512 1.20552 4.46944 -0.0620641 -0.269601 4.47953 0.931782 17 1 
512 1.20552 4.46944 -0.0620641 -0.269601 4.47953 0.931782 25 1 
514 1.20551 4.55469 -0.0625424 -0.273101 4.56485 0.929139 25 1 
516 1.20551 4.63905 -0.0629399 -0.276333 4.64926 0.923044 25 1 
518 1.20551 4.72243 -0.0632579 -0.279254 4.73268 0.915156 25 1 
520 1.2055 4.8047 -0.0634939 -0.281823 4.81496 0.907715 25 1 
522 1.2055 4.88589 -0.0636573 -0.284009 4.89613 0.900853 25 1 
524 1.20549 4.9661 -0.0637473 -0.285805 4.97631 0.893303 25 1 
526 1.20549 5.04531 -0.06376 -0.287154 5.05544 0.885093 25 1 
528 1.20549 5.12328 -0.0636862 -0.287993 5.13331 0.877596 25 1 
530 1.20548 5.19993 -0.0635308 -0.288305 5.20983 0.868875 25 1 
532 1.20547 5.27542 -0.063294 -0.288096 5.28517 0.857125 25 1 
534 1.20547 5.34982 -0.0629799 -0.287396 5.35938 0.844259 25 1 
536 1.20546 5.42308 -0.0626009 -0.286172 5.43242 0.832339 25 1 
538 1.20545 5.49516 -0.0621527 -0.284376 5.50426 0.820081 25 1 
540 1.20545 5.56609 -0.0616349 -0.28201 5.57493 0.804556 25 1 
542 1.20544 5.63602 -0.0610559 -0.279107 5.64457 0.787788 25 1 
544 1.20543 5.70503 -0.0604258 -0.275686 5.71327 0.77296 25 1 
544 1.20543 5.70503 -0.0604258 -0.275686 5.71327 0.77296 25 1 
546 1.20542 5.77319 -0.0597564 -0.271756 5.78111 0.75929 25 1 
548 1.20541 5.84056 -0.0590572 -0.267296 5.84814 0.745527 25 1 
550 1.2054 5.90723 -0.0583279 -0.262309 5.91446 0.729779 25 1 
552 1.20539 5.9733 -0.0575699 -0.256825 5.98017 0.712911 25 1 
554 1.20538 6.03889 -0.0567963 -0.250849 6.04539 0.695525 25 1 
556 1.20537 6.10417 -0.0560218 -0.244398 6.11029 0.676239 25 1 
558 1.20536 6.16926 -0.0552553 -0.237479 6.175 0.657459 25 1 
560 1.20535 6.23429 -0.0545063 -0.230046 6.23965 0.64021 25 1 
562 1.20535 6.29945 -0.0537831 -0.222106 6.30443 0.624146 25 1 
564 1.20534 6.36493 -0.053096 -0.213658 6.36954 0.607471 25 1 
566 1.20533 6.43091 -0.0524604 -0.204644 6.43515 0.589949 25 1 
568 1.20532 6.49747 -0.0518856 -0.194984 6.50135 0.575378 25 1 
570 1.20531 6.56475 -0.0513921 -0.184595 6.56826 0.560633 25 1 
572 1.2053 6.63288 -0.0509984 -0.173467 6.63604 0.542931 25 1 
574 1.20529 6.70199 -0.0507031 -0.161592 6.70481 0.524236 25 1 
576 1.20528 6.77216 -0.0505156 -0.148907 6.77466 0.506705 25 1 
576 1.20528 6.77216 -0.0505156 -0.148907 6.77466 0.506705 26 1 
578 1.20527 6.84343 -0.0504479 -0.135318 6.84562 0.493092 26 1 
580 1.20527 6.91574 -0.0505038 -0.120785 6.91766 0.479327 26 1 
582 1.20526 6.9889 -0.0506773 -0.105348 6.99056 0.466489 26 1 
584 1.20525 7.0626 -0.0509735 -0.0890709 7.06405 0.456314 26 1 
586 1.20525 7.13666 -0.0513937 -0.0719954 7.13793 0.443795 26 1 
588 1.20524 7.21072 -0.0519152 -0.054212 7.21186 0.429943 26 1 
590 1.20523 7.28443 -0.0525286 -0.0358776 7.2855 0.413242 26 1 
592 1.20522 7.35742 -0.0532264 -0.0171707 7.35847 0.397099 26 1 
594 1.20521 7.42939 -0.0539953 0.00166025 7.43047 0.384188 26 1 
596 1.20521 7.50022 -0.05483 0.0203595 7.50138 0.371413 26 1 
598 1.2052 7.56964 -0.0557207 0.0386838 7.57094 0.362228 26 1 
600 1.2052 7.63754 -0.0566569 0.056371 7.63901 0.352647 26 1 
602 1.20519 7.70391 -0.0576142 0.0731544 7.7056 0.341534 26 1 
604 1.20518 7.76886 -0.0585709 0.0887725 7.77077 0.33093 26 1 
606 1.20518 7.83257 -0.0595027 0.103045 7.83473 0.321326 26 1 
608 1.20518 7.89502 -0.0603795 0.115846 7.89742 0.316355 26 1 
608 1.20518 7.89502 -0.0603795 0.115846 7.89742 0.316355 26 1 
610 1.20517 7.95624 -0.0611837 0.127055 7.95887 0.311517 26 1 
612 1.20517 8.01617 -0.0618932 0.136626 8.019 0.310096 26 1 
614 1.20517 8.07485 -0.0624837 0.144529 8.07786 0.310829 26 1 
616 1.20517 8.13236 -0.0629415 0.150786 8.13551 0.309481 26 1 
618 1.20517 8.18853 -0.0632718 0.155534 8.19178 0.309585 26 1 
620 1.20517 8.24333 -0.0634769 0.158916 8.24664 0.307493 26 1 
622 1.20517 8.29671 -0.063568 0.16109 8.30005 0.309445 26 1 
624 1.20517 8.34873 -0.0635473 0.162175 8.35208 0.31353 26 1 
626 1.20518 8.39953 -0.0634294 0.162292 8.40285 0.319108 26 1 
628 1.20518 8.44906 -0.0632436 0.161595 8.45233 0.328009 26 1 
630 1.20518 8.49749 -0.0629941 0.160206 8.5007 0.328219 26 1 
632 1.20518 8.54475 -0.062684 0.15826 8.54788 0.330179 26 1 
634 1.20518 8.59095 -0.0623192 0.155911 8.59399 0.332406 26 1 
636 1.20518 8.63637 -0.0618961 0.1533 8.63931 0.333464 26 1 
638 1.20519 8.68096 -0.0614247 0.150524 8.6838 0.339766 26 1 
640 1.20519 8.72486 -0.0609363 0.147653 8.7276 0.339544 26 1 
642 1.20519 8.76802 -0.0604288 0.144788 8.77066 0.344759 26 1 
644 1.20519 8.81065 -0.0598966 0.142105 8.81318 0.347987 26 1 
646 1.20519 8.85288 -0.0593434 0.139783 8.85532 0.346438 26 1 
648 1.20519 8.89454 -0.0587426 0.137911 8.89689 0.350926 26 1 
650 1.20519 8.93589 -0.0580845 0.136427 8.93816 0.346826 26 1 
652 1.20519 8.9769 -0.057419 0.135298 8.97909 0.347693 26 1 
654 1.20519 9.01768 -0.0567606 0.134635 9.01981 0.345177 26 1 
656 1.20519 9.05829 -0.0560688 0.134653 9.06037 0.338533 26 1 
658 1.20519 9.09853 -0.0553177 0.13556 9.10056 0.339738 26 1 
660 1.20518 9.13869 -0.0545281 0.137373 9.14069 0.328742 26 1 
662 1.20518 9.17865 -0.0537441 0.14 9.18063 0.324504 26 1 
664 1.20518 9.21859 -0.052986 0.143442 9.22057 0.319806 26 1 
666 1.20517 9.25863 -0.0522259 0.147859 9.26063 0.311604 26 1 
668 1.20517 9.29842 -0.0514177 0.15343 9.30045 0.312536 26 1 
670 1.20516 9.33816 -0.050562 0.16005 9.34025 0.297923 26 1 
672 1.20516 9.37768 -0.049707 0.1674 9.37985 0.288293 26 1 
672 1.20516 9.37768 -0.049707 0.1674 9.37985 0.288293 27 1 
674 1.20515 9.41694 -0.0489004 0.175325 9.41921 0.275663 27 1 
676 1.20514 9.45572 -0.048115 0.183883 9.45811 0.260132 27 1 
678 1.20514 9.49356 -0.0472938 0.193101 9.49608 0.257 27 1 
680 1.20513 9.53069 -0.0464316 0.202639 9.53337 0.241031 27 1 
682 1.20513 9.56642 -0.0455411 0.21221 9.56927 0.239213 27 1 
684 1.20513 9.60061 -0.0446257 0.221528 9.60363 0.226781 27 1 
686 1.20511 9.63296 -0.0436823 0.230348 9.63615 0.202072 27 1 
688 1.20511 9.66266 -0.0426886 0.238436 9.66601 0.191909 27 1 
690 1.20509 9.69006 -0.0416557 0.245331 9.69354 0.168122 27 1 
692 1.20509 9.71465 -0.040595 0.250534 9.71823 0.161621 27 1 
694 1.20508 9.73657 -0.039521 0.253572 9.74019 0.148955 27 1 
696 1.20507 9.75543 -0.0384042 0.25423 9.75903 0.133075 27 1 
698 1.20507 9.77085 -0.0372557 0.252221 9.77437 0.124786 27 1 
700 1.20505 9.78346 -0.0360874 0.247255 9.78682 0.096725 27 1 
702 1.20505 9.7931 -0.0349432 0.239345 9.79624 0.0915111 27 1 
704 1.20504 9.80088 -0.0338626 0.228674 9.80374 0.075762 27 1 
704 1.20504 9.80088 -0.0338626 0.228674 9.80374 0.075762 31 1 
706 1.20503 9.80678 -0.0328574 0.215644 9.80933 0.0629809 31 1 
708 1.20503 9.81117 -0.0319292 0.200804 9.81338 0.0625274 31 1 
710 1.20502 9.81487 -0.0310051 0.184671 9.81674 0.0426446 31 1 
712 1.20502 9.81778 -0.0301046 0.167557 9.81933 0.0409992 31 1 
714 1.20502 9.82064 -0.0292558 0.149569 9.82189 0.0298582 31 1 
716 1.20501 9.82363 -0.028444 0.130876 9.8246 0.0202938 31 1 
718 1.20501 9.82721 -0.0276875 0.111707 9.82793 0.0120541 31 1 
720 1.205 9.8316 -0.0270171 0.0922985 9.83211 -0.00713441 31 1 
722 1.205 9.83678 -0.026414 0.0730928 9.83712 -0.00302643 31 1 
724 1.20499 9.84336 -0.0258218 0.0545256 9.84357 -0.012906 31 1 
726 1.20499 9.85073 -0.02522 0.0370477 9.85085 -0.0153949 31 1 
728 1.20499 9.85902 -0.024556 0.021153 9.85909 -0.0161587 31 1 
730 1.20498 9.86841 -0.0238138 0.0075646 9.86845 -0.0393208 31 1 
732 1.20498 9.87821 -0.0230083 -0.00291748 9.87824 -0.0391059 31 1 
734 1.20497 9.88868 -0.0222175 -0.0098124 9.88872 -0.0459871 31 1 
736 1.20497 9.8992 -0.0215115 -0.0130339 9.89923 -0.045575 31 1 
738 1.20498 9.90936 -0.02092 -0.0131719 9.90939 -0.0410821 31 1 
740 1.20497 9.91888 -0.0204988 -0.0113909 9.91891 -0.0527067 31 1 
742 1.20497 9.92756 -0.0202515 -0.00897739 9.92758 -0.0513995 31 1 
744 1.20497 9.93546 -0.0201357 -0.00714661 9.93548 -0.0543585 31 1 
746 1.20497 9.94213 -0.0200756 -0.00645734 9.94215 -0.0483737 31 1 
748 1.20497 9.94807 -0.0201131 -0.00712636 9.9481 -0.0454632 31 1 
750 1.20497 9.95311 -0.0201727 -0.00916312 9.95314 -0.0468392 31 1 
752 1.20498 9.9573 -0.0201599 -0.0119915 9.95732 -0.0377505 31 1 
752 1.20498 9.9573 -0.0201599 -0.0119915 9.95732 -0.0377505 31 1 
754 1.20497 9.96113 -0.0200507 -0.0149868 9.96116 -0.0484855 31 1 
756 1.20497 9.96412 -0.0199131 -0.0175618 9.96416 -0.0488122 31 1 
758 1.20498 9.96651 -0.0197246 -0.0193906 9.96655 -0.0393518 31 1 
760 1.20497 9.96873 -0.0194988 -0.0203838 9.96877 -0.0496098 31 1 
762 1.20497 9.97064 -0.0192882 -0.0206639 9.97068 -0.0465432 31 1 
764 1.20498 9.97212 -0.0191265 -0.0205338 9.97216 -0.0383198 31 1 
766 1.20498 9.97347 -0.0189474 -0.0204678 9.97351 -0.0398471 31 1 
768 1.20498 9.97488 -0.0188149 -0.0203616 9.97492 -0.0445622 31 1 
770 1.20498 9.97587 -0.0187811 -0.0204253 9.97591 -0.0437253 31 1 
772 1.20498 9.9769 -0.0186904 -0.0207335 9.97694 -0.0338452 31 1 
774 1.20498 9.97832 -0.0185903 -0.021134 9.97836 -0.0410152 31 1 
776 1.20498 9.97951 -0.0185688 -0.0213489 9.97956 -0.0355163 31 1 
778 1.20499 9.98039 -0.0185767 -0.0215208 9.98043 -0.0145652 31 1 
780 1.20499 9.98128 -0.0185111 -0.0217282 9.98132 -0.0247126 31 1 
782 1.20498 9.9822 -0.0184777 -0.0219101 9.98224 -0.0295163 31 1 
784 1.20499 9.98295 -0.0184238 -0.0222365 9.983 -0.0153337 31 1 
786 1.205 9.98373 -0.0182945 -0.0224576 9.98377 -0.00539924 31 1 
788 1.205 9.98435 -0.0181797 -0.0226735 9.98439 -0.00815958 31 1 
790 1.205 9.98452 -0.0180818 -0.0227952 9.98456 -0.00356345 31 1 
792 1.20501 9.9847 -0.0179381 -0.0227754 9.98474 0.00912385 31 1 
794 1.205 9.98515 -0.017765 -0.0228397 9.98519 -0.00167473 31 1 
796 1.20501 9.98524 -0.0175943 -0.022782 9.98528 0.0106371 31 1 
798 1.20502 9.98507 -0.017365 -0.0225813 9.98511 0.0308637 31 1 
800 1.20502 9.98509 -0.017227 -0.0225625 9.98513 0.028188 31 1 
