35.3203;r ;Density                 ;Velocity u              ;Velocity v              ;Velocity w              ;|Velocity|              ;Pressure                ;Distribution            ;Levels                  ;
0 1.20383 10.0014 2.92256e-05 -0.00103279 10.0014 -2.11621 1 1 
2 1.20382 10.0015 4.30025e-05 4.71872e-05 10.0015 -2.12963 1 1 
4 1.20381 10.0019 3.26539e-05 0.000205187 10.0019 -2.14129 1 1 
6 1.20382 10.0025 -7.18564e-06 9.57279e-05 10.0025 -2.12815 1 1 
8 1.20383 10.003 -4.89318e-05 1.37953e-05 10.003 -2.11272 1 1 
10 1.20382 10.0034 -0.000122554 -0.000328671 10.0034 -2.13458 1 1 
12 1.20381 10.0035 -0.000175295 -0.000476551 10.0035 -2.14703 1 1 
14 1.20383 10.0037 -0.000247485 -0.000384881 10.0037 -2.11908 1 1 
16 1.20383 10.0044 -0.000297488 -0.000371315 10.0044 -2.1087 1 1 
18 1.20383 10.0048 -0.000338644 -0.000325219 10.0048 -2.1153 1 1 
20 1.20383 10.0051 -0.000373053 -0.000351563 10.0051 -2.10903 1 1 
22 1.20384 10.0055 -0.00042006 -0.000313028 10.0055 -2.09819 1 1 
24 1.20384 10.0061 -0.000466546 -0.000869962 10.0061 -2.09738 1 1 
26 1.20385 10.0062 -0.000501111 -0.00128442 10.0062 -2.08018 1 1 
28 1.20386 10.0062 -0.00054334 -0.00106433 10.0062 -2.06289 1 1 
30 1.20385 10.0068 -0.00060224 -0.00131976 10.0068 -2.06978 1 1 
32 1.20386 10.0074 -0.000660606 -0.00133518 10.0074 -2.06734 1 1 
32 1.20386 10.0074 -0.000660606 -0.00133518 10.0074 -2.06734 1 1 
34 1.20386 10.0078 -0.000676651 -0.00123783 10.0078 -2.0506 1 1 
36 1.20388 10.0079 -0.000724729 -0.00137403 10.0079 -2.03152 1 1 
38 1.20389 10.0079 -0.000762768 -0.00163045 10.0079 -2.00974 1 1 
40 1.20389 10.0082 -0.000812649 -0.00190836 10.0082 -2.0023 1 1 
42 1.20388 10.0089 -0.00081922 -0.00201065 10.0089 -2.01717 1 1 
44 1.20388 10.0092 -0.000882723 -0.0018823 10.0092 -2.02456 1 1 
46 1.20389 10.009 -0.000930655 -0.00170775 10.009 -2.01111 1 1 
48 1.20389 10.0089 -0.000958578 -0.00175632 10.0089 -2.00062 1 1 
50 1.20389 10.0093 -0.00098618 -0.00177253 10.0093 -2.00332 1 1 
52 1.20389 10.0096 -0.0010301 -0.00186755 10.0096 -2.0125 1 1 
54 1.20389 10.0096 -0.00107841 -0.0020536 10.0096 -2.01125 1 1 
56 1.20389 10.0093 -0.00108228 -0.00186262 10.0093 -1.99698 1 1 
58 1.20389 10.0093 -0.00111116 -0.00167988 10.0093 -2.00136 1 1 
60 1.20388 10.0095 -0.0011864 -0.00181715 10.0095 -2.02621 1 1 
62 1.20388 10.0088 -0.00123214 -0.00219608 10.0088 -2.02709 1 1 
64 1.20387 10.008 -0.00126061 -0.00254507 10.008 -2.03538 1 1 
64 1.20387 10.008 -0.00126061 -0.00254507 10.008 -2.03538 2 1 
66 1.20386 10.0079 -0.0013191 -0.00249728 10.0079 -2.05103 2 1 
68 1.20387 10.0079 -0.00138315 -0.00242405 10.0079 -2.04244 2 1 
70 1.20385 10.0084 -0.00143221 -0.00192649 10.0084 -2.07132 2 1 
72 1.20384 10.0082 -0.0014941 -0.00187974 10.0082 -2.08793 2 1 
74 1.20385 10.0071 -0.00154468 -0.00213023 10.0071 -2.07137 2 1 
76 1.20385 10.007 -0.00158301 -0.00203093 10.007 -2.07839 2 1 
78 1.20384 10.0071 -0.00163046 -0.00258932 10.0072 -2.08857 2 1 
80 1.20384 10.0074 -0.00168195 -0.0030049 10.0074 -2.1031 2 1 
82 1.20384 10.0072 -0.00173524 -0.00294738 10.0072 -2.10305 2 1 
84 1.20385 10.0064 -0.00178929 -0.00296526 10.0064 -2.08393 2 1 
86 1.20384 10.0065 -0.00185788 -0.00257428 10.0065 -2.08717 2 1 
88 1.20385 10.0064 -0.00189777 -0.00270923 10.0064 -2.08205 2 1 
90 1.20385 10.0063 -0.00195723 -0.00259655 10.0063 -2.07798 2 1 
92 1.20384 10.007 -0.00201007 -0.0026843 10.007 -2.09339 2 1 
94 1.20385 10.0069 -0.00205264 -0.00350252 10.0069 -2.08138 2 1 
96 1.20386 10.0063 -0.0020987 -0.00360982 10.0063 -2.05972 2 1 
96 1.20386 10.0063 -0.0020987 -0.00360982 10.0063 -2.05972 2 1 
98 1.20385 10.0058 -0.00215424 -0.00346743 10.0058 -2.07071 2 1 
100 1.20385 10.0055 -0.00222128 -0.00348084 10.0055 -2.0807 2 1 
102 1.20386 10.0052 -0.00226415 -0.00320616 10.0052 -2.05116 2 1 
104 1.20387 10.0053 -0.0023365 -0.00266661 10.0053 -2.04253 2 1 
106 1.20387 10.0055 -0.00242035 -0.00315441 10.0055 -2.04881 2 1 
108 1.20388 10.0053 -0.00244078 -0.00371513 10.0053 -2.01584 2 1 
110 1.20389 10.0053 -0.00248475 -0.00393588 10.0053 -2.00632 2 1 
112 1.20387 10.006 -0.00257334 -0.00432468 10.006 -2.03202 2 1 
114 1.20389 10.0054 -0.00259459 -0.00437859 10.0054 -2.00593 2 1 
116 1.2039 10.0045 -0.00260264 -0.00380554 10.0045 -1.9905 2 1 
118 1.20388 10.0043 -0.00266613 -0.00349958 10.0043 -2.01513 2 1 
120 1.2039 10.0036 -0.0026916 -0.00415793 10.0036 -1.98437 2 1 
122 1.20392 10.0033 -0.00268382 -0.00481942 10.0033 -1.95865 2 1 
124 1.2039 10.0038 -0.00273221 -0.00496642 10.0038 -1.97849 2 1 
126 1.20392 10.0035 -0.00282609 -0.00517854 10.0035 -1.95286 2 1 
128 1.20394 10.0032 -0.00284135 -0.00496314 10.0032 -1.92301 2 1 
128 1.20394 10.0032 -0.00284135 -0.00496314 10.0032 -1.92301 10 1 
130 1.20392 10.0036 -0.00286374 -0.00410985 10.0036 -1.95302 10 1 
132 1.20393 10.0028 -0.00297211 -0.00389979 10.0028 -1.93145 10 1 
134 1.20395 10.0017 -0.00303484 -0.00486972 10.0017 -1.9012 10 1 
136 1.20394 10.0022 -0.00304324 -0.00558714 10.0022 -1.92232 10 1 
138 1.20396 10.0013 -0.00310804 -0.00561036 10.0013 -1.88155 10 1 
140 1.20396 10.0005 -0.00318444 -0.00592858 10.0005 -1.86965 10 1 
142 1.20394 10.0012 -0.00317588 -0.00555027 10.0012 -1.90826 10 1 
144 1.20397 10 -0.0031668 -0.0051315 10 -1.85495 10 1 
146 1.20399 9.99877 -0.0032611 -0.00491401 9.99877 -1.82756 10 1 
148 1.20397 9.99916 -0.00330101 -0.00556238 9.99917 -1.86119 10 1 
150 1.204 9.99817 -0.00328933 -0.0061791 9.99817 -1.8123 10 1 
152 1.20401 9.99714 -0.00339214 -0.00566991 9.99714 -1.78959 10 1 
154 1.20399 9.99738 -0.00350616 -0.00558073 9.99738 -1.83201 10 1 
156 1.20402 9.99589 -0.0035026 -0.00625267 9.9959 -1.77323 10 1 
158 1.20404 9.9945 -0.0035384 -0.00640728 9.9945 -1.73091 10 1 
160 1.20401 9.995 -0.00364325 -0.006569 9.995 -1.78443 10 1 
160 1.20401 9.995 -0.00364325 -0.006569 9.995 -1.78443 10 1 
162 1.20403 9.99403 -0.00370677 -0.00713758 9.99403 -1.75539 10 1 
164 1.20406 9.99247 -0.00364243 -0.00718505 9.99247 -1.69597 10 1 
166 1.20405 9.99204 -0.00369121 -0.00701011 9.99204 -1.71134 10 1 
168 1.20406 9.99067 -0.00382716 -0.00617592 9.99067 -1.69888 10 1 
170 1.20409 9.9889 -0.00384383 -0.00621497 9.9889 -1.64349 10 1 
172 1.20409 9.98834 -0.00381772 -0.00662358 9.98835 -1.64556 10 1 
174 1.20409 9.98719 -0.00395306 -0.00638844 9.98719 -1.64811 10 1 
176 1.20412 9.98545 -0.00402521 -0.00719521 9.98546 -1.59132 10 1 
178 1.20414 9.98415 -0.00396051 -0.00777566 9.98415 -1.5622 10 1 
180 1.20413 9.98261 -0.00398405 -0.00718085 9.98262 -1.5778 10 1 
182 1.20414 9.98186 -0.00416927 -0.00642394 9.98186 -1.56052 10 1 
184 1.20417 9.98022 -0.00420628 -0.00674839 9.98022 -1.49601 10 1 
186 1.20419 9.97705 -0.00411789 -0.00660225 9.97705 -1.46959 10 1 
188 1.20418 9.97513 -0.00415845 -0.00598348 9.97513 -1.47433 10 1 
190 1.20422 9.97318 -0.0043586 -0.00629032 9.97318 -1.41371 10 1 
192 1.20424 9.97031 -0.00442214 -0.00846196 9.97031 -1.36734 10 1 
194 1.20422 9.96817 -0.00431923 -0.0091234 9.96818 -1.40142 10 1 
196 1.20426 9.96555 -0.0044057 -0.0081927 9.96556 -1.33685 10 1 
198 1.20432 9.96253 -0.00465384 -0.00739879 9.96253 -1.23045 10 1 
200 1.2043 9.96091 -0.0046656 -0.00669786 9.96092 -1.26846 10 1 
202 1.2043 9.95829 -0.0045153 -0.00673301 9.9583 -1.25807 10 1 
204 1.20437 9.95363 -0.00459174 -0.00673956 9.95364 -1.13621 10 1 
206 1.20438 9.94966 -0.00480428 -0.00671047 9.94967 -1.11864 10 1 
208 1.20438 9.94549 -0.0048443 -0.00762908 9.94549 -1.11858 10 1 
210 1.20445 9.93942 -0.00475623 -0.008254 9.93943 -0.993965 10 1 
212 1.20448 9.93562 -0.00488512 -0.00746551 9.93563 -0.947976 10 1 
214 1.20447 9.93277 -0.00519334 -0.00719766 9.93278 -0.957357 10 1 
216 1.20454 9.92785 -0.00542284 -0.00519699 9.92785 -0.831055 10 1 
218 1.20459 9.92365 -0.00534553 -0.00528534 9.92366 -0.736559 10 1 
220 1.20461 9.91665 -0.00541942 -0.00652796 9.91665 -0.708274 10 1 
222 1.20464 9.90804 -0.00561001 -0.00639572 9.90805 -0.65011 10 1 
224 1.20468 9.90086 -0.00576694 -0.00816109 9.90087 -0.56953 10 1 
224 1.20468 9.90086 -0.00576694 -0.00816109 9.90087 -0.56953 10 1 
226 1.20477 9.8905 -0.00561661 -0.00648279 9.89051 -0.421728 10 1 
228 1.20479 9.88276 -0.00543047 -0.002805 9.88276 -0.373605 10 1 
230 1.20486 9.87557 -0.00546623 -0.000766982 9.87558 -0.260769 10 1 
232 1.20499 9.8638 -0.00563968 -0.00043737 9.86381 -0.025718 10 1 
234 1.20498 9.85525 -0.00569247 -0.00324912 9.85525 -0.0412979 10 1 
236 1.20505 9.84399 -0.00557782 -0.00385244 9.844 0.0828626 10 1 
238 1.20523 9.82822 -0.00546786 -0.00332247 9.82823 0.414531 10 1 
240 1.20526 9.81432 -0.00528994 -0.000852321 9.81433 0.472199 10 1 
242 1.20531 9.79701 -0.00481977 0.00394293 9.79701 0.568994 10 1 
244 1.20549 9.77765 -0.00417798 0.00596811 9.77765 0.884334 10 1 
246 1.20561 9.75965 -0.00379578 0.00769822 9.75965 1.11036 10 1 
248 1.20572 9.74011 -0.00418013 0.0114538 9.74012 1.29245 10 1 
250 1.2059 9.71822 -0.00528044 0.0132953 9.71823 1.62854 10 1 
252 1.2061 9.69221 -0.00643384 0.0170214 9.69223 1.98963 10 1 
254 1.20622 9.6618 -0.00699919 0.0217049 9.66184 2.1979 10 1 
256 1.2064 9.62917 -0.00653375 0.0236503 9.62921 2.53072 10 1 
256 1.2064 9.62917 -0.00653375 0.0236503 9.62921 2.53072 11 1 
258 1.20671 9.59305 -0.00569248 0.0290625 9.59311 3.09069 11 1 
260 1.20696 9.55283 -0.00492048 0.037573 9.55292 3.53786 11 1 
262 1.20718 9.50923 -0.00447127 0.0446819 9.50935 3.93099 11 1 
264 1.2075 9.46047 -0.00441911 0.0583067 9.46067 4.51695 11 1 
266 1.20792 9.40366 -0.00447095 0.0729037 9.40397 5.26773 11 1 
268 1.20827 9.34134 -0.00456992 0.0892955 9.34179 5.90321 11 1 
270 1.20862 9.27656 -0.00471282 0.114338 9.27731 6.54677 11 1 
272 1.20924 9.1983 -0.00481449 0.14244 9.19947 7.66454 11 1 
274 1.20981 9.10462 -0.00490761 0.172293 9.10636 8.69047 11 1 
276 1.21018 9.00667 -0.00498901 0.207724 9.00918 9.36291 11 1 
278 1.2109 8.89821 -0.00509019 0.254617 8.90197 10.6553 11 1 
280 1.21176 8.78268 -0.00518584 0.319158 8.78867 12.2032 11 1 
282 1.21229 8.66706 -0.00524812 0.401394 8.67663 13.1682 11 1 
284 1.21301 8.53494 -0.00532523 0.485111 8.54902 14.4608 11 1 
286 1.21392 8.38408 -0.00539668 0.594816 8.40574 16.1091 11 1 
288 1.21441 8.24464 -0.00544374 0.71877 8.27649 16.9945 11 1 
288 1.21441 8.24464 -0.00544374 0.71877 8.27649 16.9945 11 1 
290 1.21515 8.09133 -0.00548724 0.854406 8.13736 18.3309 11 1 
292 1.21619 7.92333 -0.00553449 1.03175 7.9915 20.2109 11 1 
294 1.21623 7.79192 -0.00555796 1.24363 7.89196 20.2891 11 1 
296 1.21485 7.42977 -0.00552379 1.08893 7.51557 17.794 11 1 
298 1.21029 6.64332 -0.00552295 0.299939 6.67821 9.54826 11 1 
300 1.20385 5.77872 -0.00556723 -0.762005 5.87295 -2.07222 11 1 
302 1.19961 5.21122 -0.00561736 -1.58427 5.46421 -9.7277 11 1 
304 1.1973 4.97205 -0.0057038 -1.76508 5.27725 -13.9015 11 1 
306 1.19652 4.81881 -0.0057509 -1.59851 5.07782 -15.3249 11 1 
308 1.19684 4.62528 -0.00575253 -1.38602 4.83048 -14.7375 11 1 
310 1.1971 4.4673 -0.00572808 -1.14386 4.61264 -14.2677 11 1 
312 1.19762 4.35222 -0.00570658 -0.987172 4.46333 -13.3391 11 1 
314 1.19811 4.23885 -0.00573723 -0.85219 4.32443 -12.4454 11 1 
316 1.19833 4.10506 -0.00575507 -0.720816 4.16837 -12.0472 11 1 
318 1.19866 3.96244 -0.00576082 -0.621641 4.01132 -11.4525 11 1 
320 1.19902 3.84128 -0.00578147 -0.521568 3.87701 -10.8087 11 1 
320 1.19902 3.84128 -0.00578147 -0.521568 3.87701 -10.8087 15 1 
322 1.19932 3.73614 -0.00578207 -0.433621 3.7615 -10.2579 15 1 
324 1.19964 3.62486 -0.00576122 -0.372911 3.6443 -9.6829 15 1 
326 1.19989 3.50584 -0.0057572 -0.320165 3.52072 -9.23166 15 1 
328 1.20007 3.39079 -0.00576846 -0.271017 3.40184 -8.90739 15 1 
330 1.2003 3.29103 -0.00576278 -0.231017 3.29927 -8.49656 15 1 
332 1.20053 3.20514 -0.00574903 -0.197794 3.21141 -8.07205 15 1 
334 1.2007 3.11871 -0.00575733 -0.17017 3.12353 -7.76106 15 1 
336 1.20084 3.02756 -0.00577558 -0.148372 3.03137 -7.50651 15 1 
338 1.201 2.94037 -0.00577937 -0.126328 2.9432 -7.22445 15 1 
340 1.20116 2.86381 -0.00577798 -0.105634 2.86587 -6.93363 15 1 
342 1.20129 2.79532 -0.00579309 -0.0888918 2.79685 -6.70227 15 1 
344 1.20141 2.72686 -0.00583629 -0.0758675 2.72805 -6.48761 15 1 
346 1.20154 2.65646 -0.00589151 -0.0636259 2.65733 -6.25181 15 1 
348 1.20165 2.58863 -0.00592521 -0.0511508 2.58923 -6.04559 15 1 
350 1.20175 2.52677 -0.00595146 -0.0394765 2.52717 -5.86959 15 1 
352 1.20185 2.47034 -0.00599765 -0.0306541 2.47063 -5.68389 15 1 
354 1.20196 2.41558 -0.00605211 -0.0240332 2.4158 -5.48982 15 1 
356 1.20206 2.36061 -0.00607577 -0.0179441 2.36076 -5.3187 15 1 
358 1.20214 2.3085 -0.00607481 -0.0118781 2.30859 -5.16978 15 1 
360 1.20223 2.26297 -0.00610584 -0.00725687 2.26304 -5.00891 15 1 
362 1.20231 2.22271 -0.00616616 -0.00412159 2.22277 -4.8531 15 1 
364 1.20239 2.18411 -0.00621266 -0.00145435 2.18417 -4.72207 15 1 
366 1.20246 2.14639 -0.00625064 0.00286253 2.14644 -4.58629 15 1 
368 1.20254 2.11031 -0.0063182 0.00966443 2.11039 -4.451 15 1 
370 1.2026 2.07622 -0.00640412 0.0184118 2.07636 -4.33587 15 1 
372 1.20266 2.04335 -0.00646387 0.0282699 2.04361 -4.22166 15 1 
374 1.20274 2.00965 -0.00649761 0.0388222 2.01011 -4.08994 15 1 
376 1.20281 1.97348 -0.00653512 0.0499229 1.97421 -3.95085 15 1 
378 1.20288 1.93488 -0.00659531 0.0617029 1.93599 -3.82693 15 1 
380 1.20295 1.89476 -0.00669499 0.0740585 1.89637 -3.71159 15 1 
382 1.20301 1.85398 -0.00687819 0.0877687 1.85628 -3.58702 15 1 
384 1.20308 1.8126 -0.00716524 0.103762 1.81585 -3.4621 15 1 
384 1.20308 1.8126 -0.00716524 0.103762 1.81585 -3.4621 16 1 
386 1.20315 1.77108 -0.0075118 0.122108 1.77564 -3.34145 16 1 
388 1.20322 1.7309 -0.00785141 0.142198 1.73716 -3.21498 16 1 
390 1.2033 1.6929 -0.00811832 0.163297 1.70127 -3.07808 16 1 
392 1.20337 1.65583 -0.00825927 0.184675 1.66672 -2.93934 16 1 
394 1.20345 1.61783 -0.00823051 0.205509 1.63153 -2.80359 16 1 
396 1.20353 1.57757 -0.00800318 0.224979 1.59432 -2.66023 16 1 
398 1.20361 1.53383 -0.00758167 0.242652 1.55376 -2.51548 16 1 
400 1.20368 1.48538 -0.00701006 0.257637 1.50849 -2.38116 16 1 
402 1.20376 1.43262 -0.00637327 0.268178 1.45846 -2.24466 16 1 
404 1.20384 1.37775 -0.00580241 0.271887 1.40519 -2.10273 16 1 
406 1.20391 1.32455 -0.00547399 0.266644 1.35181 -1.969 16 1 
408 1.20398 1.27842 -0.00556702 0.251314 1.30335 -1.84755 16 1 
410 1.20404 1.24507 -0.00619978 0.226037 1.26574 -1.73327 16 1 
412 1.2041 1.22875 -0.00736939 0.192485 1.24404 -1.62235 16 1 
414 1.20416 1.23111 -0.0089718 0.153665 1.24104 -1.51729 16 1 
416 1.20422 1.25143 -0.0108686 0.112924 1.25697 -1.41725 16 1 
416 1.20422 1.25143 -0.0108686 0.112924 1.25697 -1.41725 16 1 
418 1.20427 1.28752 -0.0128961 0.0731114 1.29009 -1.31644 16 1 
420 1.20433 1.33638 -0.0149262 0.0360331 1.33739 -1.21611 16 1 
422 1.20438 1.39498 -0.0168889 0.00235407 1.39554 -1.11704 16 1 
424 1.20444 1.46118 -0.0187579 -0.0277185 1.46206 -1.0138 16 1 
426 1.2045 1.53352 -0.0205119 -0.0542801 1.53519 -0.903898 16 1 
428 1.20456 1.6108 -0.0221661 -0.077719 1.61347 -0.792288 16 1 
430 1.20462 1.69208 -0.023758 -0.0986504 1.69587 -0.685022 16 1 
432 1.20468 1.77727 -0.0252979 -0.117645 1.7822 -0.576709 16 1 
434 1.20474 1.86623 -0.0267921 -0.134999 1.87228 -0.464002 16 1 
436 1.2048 1.95856 -0.0282463 -0.15091 1.96566 -0.355564 16 1 
438 1.20486 2.05387 -0.0296598 -0.165494 2.06195 -0.256663 16 1 
440 1.20491 2.15194 -0.0310339 -0.17888 2.16093 -0.168044 16 1 
442 1.20495 2.25268 -0.0323606 -0.191234 2.26248 -0.0857125 16 1 
444 1.205 2.35606 -0.0336349 -0.202648 2.36658 -0.00101967 16 1 
446 1.20505 2.46186 -0.0348661 -0.213143 2.47302 0.0883326 16 1 
448 1.2051 2.56968 -0.0360366 -0.222795 2.58141 0.176913 16 1 
448 1.2051 2.56968 -0.0360366 -0.222795 2.58141 0.176913 17 1 
450 1.20514 2.67908 -0.0371376 -0.231641 2.69129 0.258577 17 1 
452 1.20518 2.78983 -0.0381712 -0.23969 2.80244 0.332955 17 1 
454 1.20522 2.90183 -0.0391259 -0.246921 2.91476 0.402999 17 1 
456 1.20526 3.01488 -0.0399981 -0.253289 3.02805 0.470958 17 1 
458 1.2053 3.12865 -0.0407885 -0.258727 3.14198 0.540045 17 1 
460 1.20534 3.24287 -0.0414875 -0.263288 3.25629 0.609623 17 1 
462 1.20537 3.35748 -0.0420998 -0.267038 3.3709 0.676114 17 1 
464 1.20541 3.47243 -0.0426258 -0.269908 3.48579 0.742948 17 1 
466 1.20545 3.58749 -0.0430618 -0.271783 3.60071 0.812317 17 1 
468 1.20549 3.7024 -0.0434115 -0.272612 3.7154 0.881575 17 1 
470 1.20553 3.81697 -0.0436798 -0.272433 3.8297 0.948376 17 1 
472 1.20556 3.93111 -0.0438634 -0.271321 3.94349 1.00711 17 1 
474 1.20558 4.04478 -0.0439683 -0.269276 4.05677 1.05583 17 1 
476 1.20561 4.15799 -0.0440086 -0.266233 4.16953 1.0989 17 1 
478 1.20563 4.27066 -0.0439804 -0.262172 4.28171 1.14264 17 1 
480 1.20566 4.38268 -0.0438798 -0.2571 4.3932 1.18707 17 1 
480 1.20566 4.38268 -0.0438798 -0.2571 4.3932 1.18707 17 1 
482 1.20568 4.49402 -0.0437245 -0.251057 4.50398 1.22719 17 1 
484 1.2057 4.60469 -0.0435281 -0.244099 4.61406 1.26372 17 1 
486 1.20572 4.71467 -0.0432837 -0.236222 4.72344 1.29217 17 1 
488 1.20572 4.82386 -0.0429967 -0.227384 4.83202 1.30563 17 1 
490 1.20572 4.93226 -0.0426833 -0.217617 4.9398 1.30945 17 1 
492 1.20573 5.03997 -0.042354 -0.207015 5.04691 1.31343 17 1 
494 1.20573 5.14715 -0.0420158 -0.195599 5.15349 1.31818 17 1 
496 1.20573 5.25381 -0.0416732 -0.18329 5.25957 1.3199 17 1 
498 1.20573 5.35989 -0.0413445 -0.170033 5.36509 1.31651 17 1 
500 1.20572 5.46533 -0.0410237 -0.155907 5.47001 1.30703 17 1 
502 1.20572 5.57021 -0.0407084 -0.141027 5.5744 1.29291 17 1 
504 1.20571 5.67464 -0.0404234 -0.125413 5.67839 1.27839 17 1 
506 1.2057 5.7786 -0.0401728 -0.109042 5.78196 1.26724 17 1 
508 1.20569 5.8819 -0.0399752 -0.091885 5.88492 1.25383 17 1 
510 1.20568 5.98442 -0.0398213 -0.0740147 5.98716 1.23246 17 1 
512 1.20567 6.08617 -0.0397109 -0.0555521 6.0887 1.20518 17 1 
512 1.20567 6.08617 -0.0397109 -0.0555521 6.0887 1.20518 25 1 
514 1.20565 6.1871 -0.039647 -0.0365302 6.18948 1.17814 25 1 
516 1.20564 6.28713 -0.0396244 -0.0170104 6.28943 1.15619 25 1 
518 1.20563 6.3861 -0.0396469 0.00288774 6.3884 1.13812 25 1 
520 1.20562 6.48376 -0.0397075 0.023007 6.48612 1.12183 25 1 
522 1.20561 6.58 -0.0398185 0.0431822 6.5825 1.10215 25 1 
524 1.2056 6.67483 -0.039967 0.0632257 6.67752 1.07652 25 1 
526 1.20558 6.76809 -0.0401505 0.0829736 6.77104 1.04974 25 1 
528 1.20557 6.85961 -0.0403569 0.102288 6.86287 1.02361 25 1 
530 1.20555 6.94947 -0.0405759 0.120967 6.95308 0.997686 25 1 
532 1.20554 7.03786 -0.040801 0.138787 7.04184 0.974949 25 1 
534 1.20553 7.12484 -0.0410306 0.155566 7.1292 0.956721 25 1 
536 1.20552 7.21026 -0.041264 0.171208 7.215 0.943544 25 1 
538 1.20552 7.29393 -0.0414762 0.18572 7.29905 0.933324 25 1 
540 1.20551 7.37594 -0.0416505 0.199021 7.38141 0.917921 25 1 
542 1.2055 7.45639 -0.0417795 0.211022 7.46218 0.898504 25 1 
544 1.20549 7.5352 -0.0418607 0.221724 7.54128 0.88329 25 1 
544 1.20549 7.5352 -0.0418607 0.221724 7.54128 0.88329 25 1 
546 1.20548 7.61226 -0.041901 0.23119 7.61859 0.873757 25 1 
548 1.20548 7.68765 -0.0419078 0.23953 7.69419 0.864735 25 1 
550 1.20547 7.76147 -0.0418762 0.246829 7.76817 0.851307 25 1 
552 1.20546 7.83368 -0.0417956 0.253166 7.84052 0.837106 25 1 
554 1.20546 7.90431 -0.0416724 0.258677 7.91124 0.826556 25 1 
556 1.20545 7.97353 -0.0415271 0.263396 7.98053 0.820353 25 1 
558 1.20545 8.04148 -0.0413644 0.267413 8.04852 0.819284 25 1 
560 1.20545 8.10818 -0.0411889 0.270881 8.11524 0.817241 25 1 
562 1.20545 8.17366 -0.0409993 0.273886 8.18072 0.806391 25 1 
564 1.20544 8.23803 -0.0407832 0.276515 8.24507 0.788967 25 1 
566 1.20543 8.30141 -0.0405335 0.278855 8.30842 0.771815 25 1 
568 1.20542 8.36398 -0.0402628 0.281033 8.37095 0.761893 25 1 
570 1.20542 8.42591 -0.03999 0.283148 8.43284 0.757243 25 1 
572 1.20541 8.48729 -0.0397142 0.285263 8.49418 0.749449 25 1 
574 1.20541 8.54804 -0.0394212 0.287571 8.55489 0.736772 25 1 
576 1.2054 8.6082 -0.0390929 0.290226 8.61502 0.721602 25 1 
576 1.2054 8.6082 -0.0390929 0.290226 8.61502 0.721602 26 1 
578 1.20539 8.66798 -0.0387244 0.29326 8.67479 0.706079 26 1 
580 1.20538 8.72751 -0.0383282 0.296692 8.73431 0.690702 26 1 
582 1.20537 8.78671 -0.037913 0.300556 8.79352 0.673612 26 1 
584 1.20536 8.84531 -0.0374772 0.305012 8.85215 0.657089 26 1 
586 1.20535 8.90326 -0.0370064 0.310233 8.91016 0.639193 26 1 
588 1.20534 8.96073 -0.0365024 0.316268 8.96772 0.609763 26 1 
590 1.20532 9.01785 -0.0359719 0.322985 9.02496 0.576726 26 1 
592 1.20531 9.07455 -0.0354191 0.330255 9.0818 0.552935 26 1 
594 1.2053 9.13058 -0.0348608 0.338125 9.138 0.53884 26 1 
596 1.20529 9.18568 -0.034286 0.346648 9.19329 0.524261 26 1 
598 1.20528 9.23947 -0.033673 0.355605 9.2473 0.497921 26 1 
600 1.20526 9.2916 -0.0330025 0.36456 9.29967 0.461888 26 1 
602 1.20523 9.34175 -0.0322895 0.373154 9.35005 0.423429 26 1 
604 1.20522 9.38964 -0.0315656 0.381175 9.39816 0.391503 26 1 
606 1.20521 9.43488 -0.0308371 0.388315 9.44357 0.372734 26 1 
608 1.2052 9.47698 -0.0300806 0.394056 9.48582 0.353336 26 1 
608 1.2052 9.47698 -0.0300806 0.394056 9.48582 0.353336 26 1 
610 1.20518 9.51566 -0.0292719 0.397817 9.52455 0.319122 26 1 
612 1.20515 9.55063 -0.0284237 0.399154 9.55948 0.279378 26 1 
614 1.20514 9.5819 -0.0275487 0.397536 9.59061 0.24614 26 1 
616 1.20512 9.60957 -0.0266742 0.392604 9.618 0.223618 26 1 
618 1.20512 9.63361 -0.0258221 0.384216 9.64163 0.208505 26 1 
620 1.20511 9.65414 -0.0250127 0.37217 9.66163 0.193412 26 1 
622 1.20509 9.67142 -0.0242418 0.356519 9.67827 0.166092 26 1 
624 1.20507 9.68601 -0.0234935 0.337595 9.69214 0.126284 26 1 
626 1.20505 9.6986 -0.0227737 0.316155 9.70396 0.0948152 26 1 
628 1.20505 9.70982 -0.0220874 0.292892 9.71441 0.0825843 26 1 
630 1.20504 9.72034 -0.0214354 0.268177 9.72419 0.0781228 26 1 
632 1.20504 9.73038 -0.0208202 0.242315 9.73353 0.0681532 26 1 
634 1.20503 9.74021 -0.0202572 0.215636 9.74271 0.0476116 26 1 
636 1.20501 9.75035 -0.0197563 0.188531 9.75227 0.0191439 26 1 
638 1.205 9.76129 -0.0193205 0.161519 9.76271 -0.00291129 26 1 
640 1.20499 9.77321 -0.0189394 0.135323 9.77421 -0.0126039 26 1 
642 1.20499 9.78606 -0.0185671 0.110706 9.78675 -0.0178917 26 1 
644 1.20498 9.79977 -0.0181694 0.0882573 9.80022 -0.0271979 26 1 
646 1.20498 9.81396 -0.0177358 0.0685561 9.81424 -0.0409597 26 1 
648 1.20497 9.82847 -0.0172552 0.0518748 9.82864 -0.0595323 26 1 
650 1.20496 9.84329 -0.0167342 0.0385414 9.84339 -0.0802981 26 1 
652 1.20495 9.85807 -0.0162157 0.0289849 9.85813 -0.0927962 26 1 
654 1.20495 9.87247 -0.0157577 0.023144 9.87252 -0.0942343 26 1 
656 1.20495 9.88601 -0.0154136 0.0206246 9.88604 -0.0934408 26 1 
658 1.20494 9.89814 -0.0151884 0.0203445 9.89817 -0.0998112 26 1 
660 1.20494 9.90865 -0.0150845 0.020729 9.90868 -0.114239 26 1 
662 1.20493 9.91766 -0.0150779 0.0203328 9.91769 -0.129608 26 1 
664 1.20493 9.92533 -0.0151109 0.0186511 9.92537 -0.134648 26 1 
666 1.20493 9.93173 -0.0151024 0.0157966 9.93176 -0.130522 26 1 
668 1.20493 9.93715 -0.0150307 0.0122166 9.93717 -0.127098 26 1 
670 1.20493 9.94173 -0.0148905 0.00875717 9.94175 -0.131171 26 1 
672 1.20492 9.94558 -0.0147074 0.00613327 9.94559 -0.138768 26 1 
672 1.20492 9.94558 -0.0147074 0.00613327 9.94559 -0.138768 27 1 
674 1.20492 9.94901 -0.0145173 0.00420722 9.94903 -0.14118 27 1 
676 1.20492 9.95216 -0.0143541 0.00289002 9.95217 -0.140616 27 1 
678 1.20492 9.95513 -0.014227 0.00217329 9.95514 -0.143387 27 1 
680 1.20492 9.95797 -0.0141195 0.00196146 9.95798 -0.150116 27 1 
682 1.20492 9.9607 -0.0140433 0.00207778 9.96071 -0.153737 27 1 
684 1.20491 9.96331 -0.0139974 0.00225587 9.96332 -0.153927 27 1 
686 1.20491 9.96584 -0.0139792 0.00224806 9.96585 -0.155809 27 1 
688 1.20491 9.96821 -0.0139544 0.00206307 9.96822 -0.157897 27 1 
690 1.20491 9.97019 -0.0139102 0.0019775 9.9702 -0.157903 27 1 
692 1.20491 9.97208 -0.0138397 0.00202096 9.97209 -0.162137 27 1 
694 1.20491 9.9742 -0.0137753 0.00202207 9.97421 -0.171538 27 1 
696 1.2049 9.97633 -0.013698 0.00201689 9.97634 -0.1762 27 1 
698 1.2049 9.97827 -0.0136257 0.00207124 9.97828 -0.175161 27 1 
700 1.20491 9.98009 -0.0135469 0.0021703 9.9801 -0.171265 27 1 
702 1.20491 9.98201 -0.0134633 0.00237303 9.98202 -0.167695 27 1 
704 1.20491 9.98397 -0.0133831 0.0025864 9.98398 -0.168293 27 1 
704 1.20491 9.98397 -0.0133831 0.0025864 9.98398 -0.168293 31 1 
706 1.2049 9.9859 -0.0133321 0.00287537 9.98591 -0.172645 31 1 
708 1.2049 9.98765 -0.0132855 0.00317568 9.98766 -0.177283 31 1 
710 1.2049 9.98911 -0.0132194 0.00341068 9.98912 -0.174997 31 1 
712 1.20491 9.99052 -0.013136 0.00356121 9.99053 -0.170422 31 1 
714 1.20491 9.99186 -0.0130562 0.00370154 9.99187 -0.17093 31 1 
716 1.2049 9.99306 -0.012989 0.00388497 9.99307 -0.175341 31 1 
718 1.2049 9.99399 -0.0129252 0.00410999 9.994 -0.181096 31 1 
720 1.2049 9.99478 -0.0128685 0.00419854 9.99479 -0.177684 31 1 
722 1.20491 9.99567 -0.0128115 0.00400659 9.99568 -0.171439 31 1 
724 1.2049 9.9964 -0.0127542 0.00377034 9.99641 -0.172792 31 1 
726 1.2049 9.99679 -0.0126996 0.00370261 9.99679 -0.181036 31 1 
728 1.2049 9.99702 -0.0126697 0.003684 9.99702 -0.189215 31 1 
730 1.2049 9.99727 -0.0126363 0.00362314 9.99728 -0.186526 31 1 
732 1.2049 9.99758 -0.0126028 0.00358856 9.99759 -0.182859 31 1 
734 1.2049 9.99787 -0.0125867 0.00356142 9.99788 -0.183705 31 1 
736 1.2049 9.99794 -0.0125645 0.00348126 9.99795 -0.184906 31 1 
738 1.20489 9.99782 -0.0125358 0.00345093 9.99783 -0.190931 31 1 
740 1.20489 9.99775 -0.0125261 0.00342422 9.99775 -0.19788 31 1 
742 1.20489 9.99778 -0.0125056 0.00353683 9.99779 -0.197758 31 1 
744 1.2049 9.99777 -0.0124533 0.00363475 9.99778 -0.189424 31 1 
746 1.2049 9.9977 -0.0124025 0.00360932 9.99771 -0.188548 31 1 
748 1.20489 9.9976 -0.0123827 0.00348795 9.99761 -0.20027 31 1 
750 1.20489 9.99736 -0.0123354 0.00354117 9.99737 -0.205103 31 1 
752 1.20489 9.99711 -0.0123089 0.00364767 9.99712 -0.204647 31 1 
752 1.20489 9.99711 -0.0123089 0.00364767 9.99712 -0.204647 31 1 
754 1.20489 9.99708 -0.0122805 0.0035964 9.99708 -0.203962 31 1 
756 1.20489 9.997 -0.0122458 0.00349019 9.99701 -0.202348 31 1 
758 1.20489 9.99682 -0.012209 0.00351207 9.99683 -0.205372 31 1 
760 1.20488 9.99664 -0.0121722 0.00353666 9.99665 -0.212656 31 1 
762 1.20488 9.99642 -0.0121194 0.00349915 9.99642 -0.217404 31 1 
764 1.20488 9.99624 -0.0120969 0.00352186 9.99625 -0.212365 31 1 
766 1.20489 9.99619 -0.0120779 0.0034842 9.9962 -0.207619 31 1 
768 1.20488 9.99604 -0.0120363 0.00347245 9.99605 -0.218843 31 1 
770 1.20487 9.99575 -0.0120223 0.00336908 9.99576 -0.232535 31 1 
772 1.20487 9.9957 -0.0120143 0.00337419 9.99571 -0.229341 31 1 
774 1.20488 9.99595 -0.0119784 0.00334793 9.99596 -0.216762 31 1 
776 1.20488 9.99605 -0.0119551 0.00328202 9.99606 -0.213562 31 1 
778 1.20488 9.99585 -0.0119285 0.0032621 9.99586 -0.220416 31 1 
780 1.20487 9.99558 -0.0118801 0.00321487 9.99559 -0.232222 31 1 
782 1.20486 9.99556 -0.0118497 0.00311826 9.99557 -0.252717 31 1 
784 1.20486 9.99601 -0.0118365 0.00313001 9.99602 -0.248356 31 1 
786 1.20488 9.99665 -0.0118348 0.00320937 9.99666 -0.215029 31 1 
788 1.20488 9.99688 -0.0118334 0.00311739 9.99689 -0.209345 31 1 
790 1.20487 9.99676 -0.0118058 0.00303134 9.99677 -0.226431 31 1 
792 1.20487 9.9968 -0.0117292 0.00300502 9.99681 -0.240314 31 1 
794 1.20486 9.99696 -0.0116727 0.00293437 9.99696 -0.252166 31 1 
796 1.20486 9.99727 -0.0116381 0.00282285 9.99728 -0.244451 31 1 
798 1.20487 9.99782 -0.0116479 0.00271329 9.99783 -0.231838 31 1 
800 1.20487 9.99812 -0.0116592 0.00266262 9.99812 -0.231003 31 1 
