138.564;r ;Density                 ;Velocity u              ;Velocity v              ;Velocity w              ;|Velocity|              ;Pressure                ;Distribution            ;Levels                  ;
0 1.23308 10.0003 -1.99564e-05 -0.00108926 10.0003 50.7204 1 1 
2 1.23308 9.99971 -7.60605e-05 -0.000114984 9.99971 50.7199 1 1 
4 1.23308 9.99867 -0.000207349 -4.75182e-05 9.99867 50.7242 1 1 
6 1.23309 9.99799 -0.000340872 -0.000150874 9.99799 50.7397 1 1 
8 1.2331 9.99721 -0.000437955 -9.11236e-05 9.99721 50.7619 1 1 
10 1.2331 9.99613 -0.000546529 -0.000283517 9.99613 50.762 1 1 
12 1.23311 9.99487 -0.000656596 -0.000435798 9.99487 50.7656 1 1 
14 1.23312 9.99381 -0.000804486 -0.000240249 9.99381 50.7909 1 1 
16 1.23313 9.99313 -0.000921537 -0.000156955 9.99313 50.8039 1 1 
18 1.23313 9.99221 -0.00102447 -0.000173433 9.99221 50.8068 1 1 
20 1.23313 9.99104 -0.00113198 -5.69977e-05 9.99104 50.8178 1 1 
22 1.23315 9.98999 -0.00126013 3.86052e-05 9.98999 50.8406 1 1 
24 1.23315 9.98903 -0.0013786 -0.00049385 9.98903 50.8468 1 1 
26 1.23315 9.98785 -0.00147908 -0.000893548 9.98785 50.8521 1 1 
28 1.23316 9.98673 -0.00160326 -0.000565583 9.98673 50.8665 1 1 
30 1.23317 9.98579 -0.00174857 -0.000605195 9.98579 50.8731 1 1 
32 1.23317 9.9847 -0.00188073 -0.000802245 9.9847 50.8897 1 1 
32 1.23317 9.9847 -0.00188073 -0.000802245 9.9847 50.8897 1 1 
34 1.23318 9.9837 -0.00197706 -0.000743058 9.9837 50.9044 1 1 
36 1.23319 9.98291 -0.0021031 -0.000740002 9.98291 50.9112 1 1 
38 1.23319 9.98205 -0.00223115 -0.00109984 9.98205 50.924 1 1 
40 1.2332 9.98105 -0.00238799 -0.00138673 9.98105 50.9363 1 1 
42 1.23321 9.98013 -0.00250666 -0.0013363 9.98013 50.9468 1 1 
44 1.23321 9.97919 -0.0026427 -0.00108112 9.97919 50.9582 1 1 
46 1.23322 9.97816 -0.00277246 -0.00102163 9.97816 50.9709 1 1 
48 1.23322 9.97734 -0.0029212 -0.00118453 9.97734 50.9796 1 1 
50 1.23323 9.97647 -0.00307615 -0.00124056 9.97647 50.9906 1 1 
52 1.23324 9.97549 -0.00320556 -0.00141337 9.97549 51.004 1 1 
54 1.23324 9.97458 -0.00336404 -0.00158478 9.97458 51.0147 1 1 
56 1.23325 9.97366 -0.00353131 -0.00154664 9.97366 51.0318 1 1 
58 1.23326 9.97284 -0.00368641 -0.0015255 9.97284 51.0413 1 1 
60 1.23326 9.97204 -0.00382058 -0.00156486 9.97204 51.0432 1 1 
62 1.23327 9.97046 -0.00395052 -0.00191108 9.97046 51.0675 1 1 
64 1.23327 9.96902 -0.00411079 -0.00234616 9.96902 51.0707 1 1 
64 1.23327 9.96902 -0.00411079 -0.00234616 9.96902 51.0707 2 1 
66 1.23327 9.96824 -0.00427987 -0.0024105 9.96825 51.0702 2 1 
68 1.23329 9.96749 -0.00442935 -0.00245709 9.96749 51.1048 2 1 
70 1.23329 9.96714 -0.00457204 -0.00214359 9.96714 51.1067 2 1 
72 1.2333 9.96605 -0.00473618 -0.00214108 9.96606 51.1106 2 1 
74 1.23331 9.9645 -0.00489738 -0.00243195 9.9645 51.1332 2 1 
76 1.23331 9.96365 -0.00507479 -0.0025935 9.96365 51.1392 2 1 
78 1.23332 9.96273 -0.00523888 -0.00316296 9.96273 51.153 2 1 
80 1.23333 9.96192 -0.00539978 -0.00342942 9.96192 51.1623 2 1 
82 1.23333 9.96085 -0.00555648 -0.00355126 9.96086 51.1725 2 1 
84 1.23334 9.95928 -0.00569919 -0.00380452 9.95929 51.1919 2 1 
86 1.23334 9.95851 -0.00585404 -0.00330458 9.95852 51.192 2 1 
88 1.23335 9.95752 -0.00601683 -0.00359912 9.95752 51.2069 2 1 
90 1.23336 9.95643 -0.00619386 -0.00383245 9.95643 51.2245 2 1 
92 1.23336 9.95606 -0.00637295 -0.00372133 9.95606 51.2222 2 1 
94 1.23337 9.95511 -0.00656073 -0.00417341 9.95511 51.2445 2 1 
96 1.23339 9.95379 -0.00674922 -0.00450679 9.95379 51.2721 2 1 
96 1.23339 9.95379 -0.00674922 -0.00450679 9.95379 51.2721 2 1 
98 1.23338 9.95259 -0.00692931 -0.00454544 9.9526 51.2655 2 1 
100 1.23338 9.95123 -0.00712635 -0.00446585 9.95124 51.2626 2 1 
102 1.2334 9.94987 -0.00727112 -0.00437937 9.94987 51.2965 2 1 
104 1.23341 9.94892 -0.0074089 -0.00417663 9.94892 51.307 2 1 
106 1.2334 9.9481 -0.00758218 -0.00450731 9.9481 51.302 2 1 
108 1.23342 9.947 -0.00776387 -0.00504348 9.947 51.3366 2 1 
110 1.23343 9.9461 -0.00796236 -0.00552845 9.9461 51.3511 2 1 
112 1.23342 9.94569 -0.00816382 -0.00564978 9.9457 51.3351 2 1 
114 1.23344 9.94424 -0.00836791 -0.00528409 9.94425 51.375 2 1 
116 1.23346 9.9425 -0.00858048 -0.00500666 9.94251 51.3994 2 1 
118 1.23344 9.94145 -0.00876556 -0.00516718 9.94146 51.3752 2 1 
120 1.23346 9.93972 -0.00890164 -0.00557975 9.93972 51.4041 2 1 
122 1.23347 9.93843 -0.00908651 -0.00605939 9.93843 51.4316 2 1 
124 1.23347 9.93803 -0.00927869 -0.00654046 9.93804 51.4187 2 1 
126 1.23349 9.9369 -0.0094724 -0.00672826 9.93691 51.4515 2 1 
128 1.2335 9.93564 -0.00966229 -0.00627213 9.93565 51.4843 2 1 
128 1.2335 9.93564 -0.00966229 -0.00627213 9.93565 51.4843 10 1 
130 1.23349 9.93518 -0.00987934 -0.00576854 9.93519 51.4586 10 1 
132 1.2335 9.9334 -0.0100996 -0.00589013 9.93341 51.4858 10 1 
134 1.23352 9.93128 -0.0103147 -0.00650083 9.93128 51.5195 10 1 
136 1.23351 9.93077 -0.010555 -0.0071072 9.93078 51.5005 10 1 
138 1.23354 9.929 -0.0107728 -0.00757212 9.929 51.5451 10 1 
140 1.23355 9.9273 -0.0109588 -0.00786257 9.92731 51.5645 10 1 
142 1.23353 9.92721 -0.0111355 -0.0073189 9.92722 51.533 10 1 
144 1.23356 9.92533 -0.0112901 -0.00727164 9.92535 51.5902 10 1 
146 1.23358 9.92339 -0.0114725 -0.00740125 9.9234 51.6186 10 1 
148 1.23356 9.92294 -0.0116534 -0.00778906 9.92295 51.5849 10 1 
150 1.23359 9.9209 -0.0118813 -0.008369 9.92091 51.6371 10 1 
152 1.2336 9.91873 -0.012163 -0.00811648 9.91874 51.6649 10 1 
154 1.23358 9.91812 -0.012414 -0.00776915 9.91813 51.6252 10 1 
156 1.23362 9.91606 -0.0126384 -0.00797034 9.91607 51.6863 10 1 
158 1.23364 9.91393 -0.0128568 -0.00833317 9.91395 51.7359 10 1 
160 1.23362 9.91348 -0.0130408 -0.00881169 9.91349 51.6952 10 1 
160 1.23362 9.91348 -0.0130408 -0.00881169 9.91349 51.6952 10 1 
162 1.23364 9.91155 -0.013197 -0.00908766 9.91157 51.732 10 1 
164 1.23367 9.90909 -0.0133422 -0.00883117 9.9091 51.7897 10 1 
166 1.23366 9.90764 -0.0135469 -0.00907619 9.90765 51.7718 10 1 
168 1.23367 9.9051 -0.0138102 -0.00856187 9.90511 51.7859 10 1 
170 1.2337 9.90239 -0.0141002 -0.00847724 9.9024 51.8462 10 1 
172 1.23371 9.90102 -0.0143526 -0.0091225 9.90104 51.8511 10 1 
174 1.23371 9.89893 -0.014597 -0.00935299 9.89894 51.8567 10 1 
176 1.23374 9.89628 -0.0147754 -0.00988142 9.8963 51.9204 10 1 
178 1.23376 9.89404 -0.0149692 -0.0100651 9.89406 51.9546 10 1 
180 1.23376 9.89134 -0.0152082 -0.00990661 9.89135 51.9469 10 1 
182 1.23377 9.88932 -0.0154686 -0.00958548 9.88933 51.972 10 1 
184 1.23381 9.88679 -0.0156854 -0.00958562 9.88681 52.042 10 1 
186 1.23383 9.8831 -0.0159408 -0.00918513 9.88312 52.0717 10 1 
188 1.23383 9.88033 -0.0161608 -0.00899117 9.88035 52.0703 10 1 
190 1.23387 9.87707 -0.0163501 -0.00942967 9.87709 52.1386 10 1 
192 1.2339 9.87305 -0.0165528 -0.0110245 9.87307 52.1948 10 1 
194 1.23388 9.87024 -0.0167859 -0.01153 9.87026 52.1715 10 1 
196 1.23392 9.86677 -0.0170863 -0.0113195 9.86679 52.2414 10 1 
198 1.23398 9.86254 -0.0174401 -0.0108848 9.86256 52.353 10 1 
200 1.23397 9.85996 -0.0176993 -0.00970914 9.85998 52.3335 10 1 
202 1.23399 9.8565 -0.0178892 -0.00956524 9.85652 52.366 10 1 
204 1.23406 9.8507 -0.018085 -0.0103452 9.85072 52.4967 10 1 
206 1.23408 9.84527 -0.0182713 -0.010715 9.84529 52.5187 10 1 
208 1.23408 9.83976 -0.0185111 -0.0109945 9.83978 52.5302 10 1 
210 1.23416 9.83271 -0.0188331 -0.011066 9.83273 52.6629 10 1 
212 1.23419 9.82771 -0.0191497 -0.0108526 9.82773 52.721 10 1 
214 1.2342 9.8232 -0.0193788 -0.0112112 9.82323 52.7346 10 1 
216 1.23428 9.81674 -0.0196937 -0.00887273 9.81677 52.8793 10 1 
218 1.23434 9.81122 -0.0199021 -0.00838874 9.81125 52.9889 10 1 
220 1.23436 9.80293 -0.0201358 -0.00989496 9.80296 53.0384 10 1 
222 1.23441 9.79311 -0.0203621 -0.0104099 9.79314 53.1194 10 1 
224 1.23446 9.78468 -0.0207587 -0.0120806 9.78471 53.2161 10 1 
224 1.23446 9.78468 -0.0207587 -0.0120806 9.78471 53.2161 10 1 
226 1.23455 9.77306 -0.0211463 -0.0100597 9.77309 53.3822 10 1 
228 1.23459 9.76384 -0.0214058 -0.00684816 9.76387 53.4522 10 1 
230 1.23466 9.7549 -0.0215132 -0.00593194 9.75493 53.5795 10 1 
232 1.2348 9.74131 -0.0217134 -0.00624914 9.74134 53.8311 10 1 
234 1.23481 9.73096 -0.02205 -0.00837705 9.73099 53.8435 10 1 
236 1.23489 9.71824 -0.0224302 -0.0076502 9.71827 53.9967 10 1 
238 1.23509 9.70116 -0.022773 -0.0064697 9.70119 54.3546 10 1 
240 1.23514 9.68595 -0.0230522 -0.00466926 9.68598 54.44 10 1 
242 1.23521 9.66751 -0.0233012 -0.0011501 9.66754 54.5616 10 1 
244 1.23539 9.64682 -0.0236334 -9.12423e-05 9.64685 54.8974 10 1 
246 1.23553 9.62688 -0.0239899 0.000809586 9.62691 55.1442 10 1 
248 1.23564 9.6047 -0.0242832 0.00357059 9.60474 55.3515 10 1 
250 1.23585 9.58016 -0.0245571 0.00464173 9.5802 55.7146 10 1 
252 1.23606 9.55222 -0.0248971 0.00842271 9.55226 56.0995 10 1 
254 1.23619 9.52061 -0.025336 0.0140114 9.52067 56.3356 10 1 
256 1.23639 9.48718 -0.0255747 0.0172735 9.48724 56.6998 10 1 
256 1.23639 9.48718 -0.0255747 0.0172735 9.48724 56.6998 11 1 
258 1.23672 9.44999 -0.0258601 0.0234601 9.45006 57.2867 11 1 
260 1.23698 9.40806 -0.0261702 0.0316364 9.40816 57.7638 11 1 
262 1.23721 9.3623 -0.0264407 0.0376807 9.36243 58.1878 11 1 
264 1.23755 9.31131 -0.0267595 0.0499475 9.31151 58.7957 11 1 
266 1.23798 9.25243 -0.0270654 0.0635226 9.25271 59.5675 11 1 
268 1.23835 9.18801 -0.0273839 0.0792435 9.18842 60.2334 11 1 
270 1.23872 9.12122 -0.0277064 0.103719 9.12189 60.9099 11 1 
272 1.23936 9.04119 -0.0279511 0.131432 9.04225 62.0551 11 1 
274 1.23994 8.94576 -0.0281589 0.160929 8.94736 63.112 11 1 
276 1.24033 8.84595 -0.0283227 0.195709 8.84827 63.8155 11 1 
278 1.24106 8.73564 -0.0285297 0.241679 8.73915 65.1265 11 1 
280 1.24192 8.61816 -0.0287905 0.305075 8.62379 66.6956 11 1 
282 1.24248 8.5005 -0.0289873 0.385738 8.50958 67.6951 11 1 
284 1.24321 8.36661 -0.0291472 0.467921 8.38004 69.0197 11 1 
286 1.24414 8.21419 -0.0292366 0.575527 8.23496 70.694 11 1 
288 1.24465 8.0725 -0.029202 0.697129 8.10317 71.615 11 1 
288 1.24465 8.0725 -0.029202 0.697129 8.10317 71.615 11 1 
290 1.2454 7.91699 -0.0291604 0.829943 7.96145 72.9756 11 1 
292 1.24645 7.74693 -0.0291475 1.00334 7.81294 74.8653 11 1 
294 1.24652 7.61214 -0.0290376 1.21049 7.70923 74.9976 11 1 
296 1.24521 7.25365 -0.028668 1.06179 7.33722 72.6299 11 1 
298 1.24081 6.48175 -0.0283172 0.295288 6.51592 64.6819 11 1 
300 1.2346 5.63086 -0.0279569 -0.738797 5.72244 53.463 11 1 
302 1.23052 5.06752 -0.0274456 -1.54025 5.31379 46.0967 11 1 
304 1.22832 4.82279 -0.0270221 -1.71905 5.12122 42.1156 11 1 
306 1.22759 4.66151 -0.0263742 -1.56004 4.9165 40.795 11 1 
308 1.22794 4.46137 -0.0254367 -1.35642 4.66496 41.4287 11 1 
310 1.22822 4.2956 -0.024434 -1.1247 4.44161 41.9504 11 1 
312 1.22875 4.17182 -0.0234977 -0.976118 4.2851 42.8957 11 1 
314 1.22926 4.04955 -0.0227951 -0.849622 4.13851 43.8111 11 1 
316 1.2295 3.90758 -0.0221104 -0.726645 3.97515 44.2443 11 1 
318 1.22983 3.75761 -0.0213278 -0.634599 3.81131 44.8557 11 1 
320 1.2302 3.62813 -0.0205372 -0.542017 3.66892 45.5192 11 1 
320 1.2302 3.62813 -0.0205372 -0.542017 3.66892 45.5192 15 1 
322 1.23051 3.51346 -0.0196907 -0.461359 3.54398 46.0807 15 1 
324 1.23083 3.39242 -0.0187611 -0.407006 3.41715 46.6519 15 1 
326 1.23108 3.26377 -0.0178677 -0.360368 3.28398 47.1135 15 1 
328 1.23127 3.13907 -0.0169634 -0.317614 3.1554 47.4567 15 1 
330 1.2315 3.02851 -0.0159548 -0.28427 3.04204 47.8721 15 1 
332 1.23173 2.92993 -0.01492 -0.258044 2.9415 48.287 15 1 
334 1.2319 2.83017 -0.0139237 -0.237126 2.84035 48.5905 15 1 
336 1.23204 2.72661 -0.0129065 -0.221479 2.73584 48.848 15 1 
338 1.2322 2.62721 -0.011806 -0.206275 2.63547 49.1289 15 1 
340 1.23235 2.53661 -0.0106692 -0.193141 2.5441 49.4037 15 1 
342 1.23247 2.45177 -0.00956061 -0.183551 2.4588 49.6094 15 1 
344 1.23257 2.36658 -0.00845756 -0.176348 2.37332 49.7993 15 1 
346 1.23269 2.28043 -0.00730772 -0.168497 2.2868 50.0164 15 1 
348 1.23279 2.1964 -0.00607619 -0.160324 2.20236 50.2012 15 1 
350 1.23287 2.11563 -0.00480873 -0.152964 2.12128 50.3435 15 1 
352 1.23295 2.03753 -0.00354352 -0.147207 2.04297 50.487 15 1 
354 1.23304 1.96041 -0.0022238 -0.141525 1.96564 50.6415 15 1 
356 1.23311 1.88285 -0.000775107 -0.134377 1.88776 50.778 15 1 
358 1.23317 1.80551 0.000783127 -0.12632 1.81003 50.8882 15 1 
360 1.23324 1.72991 0.00239133 -0.118789 1.7341 51.0014 15 1 
362 1.2333 1.65561 0.00406145 -0.111141 1.65946 51.1083 15 1 
364 1.23334 1.58157 0.00584472 -0.102368 1.58501 51.1967 15 1 
366 1.2334 1.5081 0.00773419 -0.0917167 1.51104 51.2953 15 1 
368 1.23345 1.43494 0.00965654 -0.0799319 1.43733 51.3943 15 1 
370 1.2335 1.36177 0.0115821 -0.0677375 1.36365 51.4699 15 1 
372 1.23353 1.28979 0.0135295 -0.0550477 1.29121 51.5408 15 1 
374 1.23358 1.21977 0.0154702 -0.0415133 1.22077 51.6272 15 1 
376 1.23363 1.15108 0.0173682 -0.0273148 1.15176 51.7198 15 1 
378 1.23368 1.08316 0.0192178 -0.01324 1.08368 51.797 15 1 
380 1.23372 1.01696 0.0210067 -0.000441672 1.01751 51.8684 15 1 
382 1.23376 0.954082 0.0227009 0.0112991 0.954809 51.9537 15 1 
384 1.23381 0.894392 0.0242651 0.0225757 0.89548 52.0411 15 1 
384 1.23381 0.894392 0.0242651 0.0225757 0.89548 52.0411 16 1 
386 1.23386 0.837003 0.0256694 0.0332195 0.838627 52.1219 16 1 
388 1.2339 0.782129 0.026885 0.0430333 0.784461 52.2034 16 1 
390 1.23395 0.730405 0.0279038 0.0524388 0.733672 52.2886 16 1 
392 1.23399 0.681788 0.0287572 0.0621321 0.686319 52.3722 16 1 
394 1.23404 0.635979 0.0294827 0.0725273 0.642209 52.4534 16 1 
396 1.23409 0.592817 0.0301434 0.0837765 0.601347 52.5428 16 1 
398 1.23414 0.551608 0.030856 0.0958792 0.563261 52.6351 16 1 
400 1.23419 0.511807 0.0317039 0.108583 0.527596 52.7207 16 1 
402 1.23424 0.473695 0.0327125 0.121914 0.494919 52.8107 16 1 
404 1.23429 0.436806 0.0339361 0.135913 0.465203 52.9088 16 1 
406 1.23435 0.399846 0.0354242 0.150103 0.437489 53.0067 16 1 
408 1.2344 0.362258 0.0371333 0.164054 0.411513 53.1034 16 1 
410 1.23445 0.324137 0.0390068 0.177687 0.387948 53.2026 16 1 
412 1.23451 0.285232 0.0409923 0.190867 0.367352 53.3052 16 1 
414 1.23457 0.244962 0.0430031 0.20319 0.34957 53.4059 16 1 
416 1.23462 0.2032 0.044952 0.21426 0.334303 53.5056 16 1 
416 1.23462 0.2032 0.044952 0.21426 0.334303 53.5056 16 1 
418 1.23468 0.160186 0.0467622 0.223916 0.321669 53.6075 16 1 
420 1.23473 0.116067 0.0483274 0.231897 0.311841 53.7066 16 1 
422 1.23479 0.0712357 0.0495181 0.237923 0.304787 53.8012 16 1 
424 1.23484 0.0263454 0.0502905 0.241938 0.300405 53.894 16 1 
426 1.23489 -0.0180362 0.0506309 0.243899 0.29864 53.9858 16 1 
428 1.23494 -0.061363 0.050475 0.24375 0.299591 54.0734 16 1 
430 1.23498 -0.102782 0.049803 0.241629 0.303428 54.1549 16 1 
432 1.23503 -0.141348 0.0486832 0.237795 0.309972 54.2352 16 1 
434 1.23507 -0.176588 0.0471526 0.232422 0.318521 54.3146 16 1 
436 1.23511 -0.208082 0.0452147 0.225701 0.328025 54.3898 16 1 
438 1.23515 -0.23518 0.0429484 0.217999 0.337316 54.4645 16 1 
440 1.2352 -0.257589 0.0404433 0.209628 0.345407 54.5406 16 1 
442 1.23524 -0.27524 0.0377299 0.200798 0.351524 54.6166 16 1 
444 1.23528 -0.287945 0.0348297 0.191797 0.354984 54.6938 16 1 
446 1.23532 -0.295671 0.0318219 0.18283 0.355311 54.7741 16 1 
448 1.23537 -0.298636 0.0287674 0.17399 0.352333 54.8583 16 1 
448 1.23537 -0.298636 0.0287674 0.17399 0.352333 54.8583 17 1 
450 1.23542 -0.297003 0.0256699 0.165433 0.346012 54.9448 17 1 
452 1.23547 -0.2908 0.0225631 0.157358 0.336292 55.0343 17 1 
454 1.23552 -0.280322 0.0195337 0.149742 0.323291 55.1288 17 1 
456 1.23558 -0.265989 0.0166247 0.142439 0.307277 55.2266 17 1 
458 1.23563 -0.247994 0.0138164 0.135534 0.288557 55.3271 17 1 
460 1.23569 -0.22649 0.0111089 0.129172 0.267518 55.4308 17 1 
462 1.23575 -0.201758 0.00853941 0.123256 0.244692 55.5374 17 1 
464 1.23581 -0.17415 0.00609929 0.117615 0.220916 55.6464 17 1 
466 1.23587 -0.14388 0.00374324 0.112238 0.197414 55.7563 17 1 
468 1.23593 -0.111025 0.00146062 0.107202 0.175704 55.8677 17 1 
470 1.23599 -0.0758177 -0.000732014 0.102434 0.157478 55.9804 17 1 
472 1.23605 -0.0385201 -0.00283562 0.0977832 0.144886 56.0925 17 1 
474 1.23612 0.000782792 -0.00489481 0.0932721 0.140422 56.2043 17 1 
476 1.23618 0.0419851 -0.00691335 0.0889512 0.144937 56.3156 17 1 
478 1.23624 0.0848787 -0.00886743 0.0847261 0.157045 56.4256 17 1 
480 1.2363 0.12927 -0.0107462 0.0805196 0.175726 56.5338 17 1 
480 1.2363 0.12927 -0.0107462 0.0805196 0.175726 56.5338 17 1 
482 1.23636 0.17508 -0.0125729 0.076361 0.202446 56.6395 17 1 
484 1.23641 0.222224 -0.0143638 0.0723022 0.238465 56.7431 17 1 
486 1.23647 0.270476 -0.0161008 0.0682988 0.281265 56.844 17 1 
488 1.23652 0.319662 -0.0177743 0.0642737 0.327493 56.9413 17 1 
490 1.23658 0.369714 -0.0193909 0.0602823 0.375691 57.0355 17 1 
492 1.23663 0.420517 -0.0209537 0.0563898 0.425232 57.1259 17 1 
494 1.23667 0.471917 -0.0224449 0.052583 0.475729 57.2125 17 1 
496 1.23672 0.523741 -0.0238688 0.0488475 0.526879 57.2953 17 1 
498 1.23676 0.57587 -0.0252277 0.0452365 0.578499 57.3736 17 1 
500 1.23681 0.628221 -0.0265056 0.0417943 0.630462 57.4479 17 1 
502 1.23684 0.680675 -0.0277042 0.0385203 0.682615 57.5179 17 1 
504 1.23688 0.73312 -0.0288212 0.0354109 0.734825 57.5834 17 1 
506 1.23691 0.785459 -0.0298691 0.0325238 0.786979 57.6448 17 1 
508 1.23695 0.837564 -0.0308395 0.029901 0.838939 57.7015 17 1 
510 1.23697 0.889369 -0.0317171 0.0275114 0.890629 57.7539 17 1 
512 1.237 0.940813 -0.0325125 0.025362 0.94198 57.802 17 1 
512 1.237 0.940813 -0.0325125 0.025362 0.94198 57.802 25 1 
514 1.23703 0.991823 -0.033235 0.0235039 0.992914 57.8459 25 1 
516 1.23705 1.04234 -0.0338937 0.0219562 1.04337 57.8856 25 1 
518 1.23707 1.09229 -0.0344919 0.020704 1.09327 57.9212 25 1 
520 1.23708 1.14161 -0.0350188 0.0197497 1.14255 57.9526 25 1 
522 1.2371 1.1903 -0.0354955 0.0191227 1.19121 57.9801 25 1 
524 1.23711 1.23837 -0.0359483 0.0188266 1.23924 58.0039 25 1 
526 1.23712 1.28578 -0.0363764 0.0188547 1.28664 58.0242 25 1 
528 1.23713 1.33248 -0.0367914 0.0192095 1.33332 58.0409 25 1 
530 1.23714 1.37846 -0.0372027 0.0198948 1.37929 58.0542 25 1 
532 1.23715 1.42378 -0.0376138 0.0209007 1.4246 58.0643 25 1 
534 1.23715 1.46845 -0.0380434 0.0222251 1.46928 58.0716 25 1 
536 1.23715 1.51247 -0.0385175 0.0238525 1.51331 58.0762 25 1 
538 1.23715 1.55582 -0.0390247 0.0257873 1.55667 58.0781 25 1 
540 1.23715 1.59854 -0.0395811 0.0280216 1.59941 58.0775 25 1 
542 1.23715 1.64068 -0.0401892 0.0305171 1.64159 58.075 25 1 
544 1.23715 1.68227 -0.0408643 0.0332668 1.68323 58.0705 25 1 
544 1.23715 1.68227 -0.0408643 0.0332668 1.68323 58.0705 25 1 
546 1.23715 1.72334 -0.0416234 0.036257 1.72435 58.0642 25 1 
548 1.23714 1.76389 -0.042466 0.0394825 1.76495 58.0565 25 1 
550 1.23714 1.80395 -0.0433941 0.0428972 1.80509 58.0474 25 1 
552 1.23713 1.8436 -0.0444075 0.0464884 1.84482 58.037 25 1 
554 1.23713 1.88286 -0.045528 0.050243 1.88418 58.026 25 1 
556 1.23712 1.92176 -0.0467511 0.0541122 1.92318 58.0143 25 1 
558 1.23711 1.96033 -0.048084 0.0580881 1.96187 58.0019 25 1 
560 1.2371 1.99861 -0.0495159 0.0621448 2.00027 57.989 25 1 
562 1.2371 2.03662 -0.0510464 0.0662654 2.03842 57.9761 25 1 
564 1.23709 2.07442 -0.0526854 0.0704001 2.07636 57.9633 25 1 
566 1.23708 2.11204 -0.0544226 0.0745277 2.11413 57.9504 25 1 
568 1.23708 2.1495 -0.0562606 0.0786317 2.15173 57.938 25 1 
570 1.23707 2.1868 -0.0581836 0.0826959 2.1892 57.9262 25 1 
572 1.23706 2.224 -0.0601959 0.0866865 2.22656 57.9144 25 1 
574 1.23706 2.26112 -0.0622752 0.0905638 2.26385 57.9037 25 1 
576 1.23705 2.29818 -0.0644305 0.0943298 2.30107 57.894 25 1 
576 1.23705 2.29818 -0.0644305 0.0943298 2.30107 57.894 26 1 
578 1.23705 2.33521 -0.066646 0.0979526 2.33826 57.8849 26 1 
580 1.23704 2.37221 -0.0689198 0.10143 2.37542 57.8769 26 1 
582 1.23704 2.40918 -0.0712241 0.104736 2.41255 57.87 26 1 
584 1.23704 2.44616 -0.0735762 0.107848 2.44968 57.8644 26 1 
586 1.23703 2.48319 -0.0759494 0.11077 2.48685 57.8599 26 1 
588 1.23703 2.52024 -0.0783465 0.113476 2.52405 57.857 26 1 
590 1.23703 2.55731 -0.0807638 0.115981 2.56125 57.8557 26 1 
592 1.23703 2.59442 -0.0831839 0.118255 2.59848 57.8551 26 1 
594 1.23703 2.63158 -0.0855979 0.120308 2.63575 57.8562 26 1 
596 1.23703 2.66877 -0.0880009 0.122129 2.67304 57.8593 26 1 
598 1.23704 2.70603 -0.0903972 0.123713 2.71039 57.8636 26 1 
600 1.23704 2.7433 -0.0927597 0.125082 2.74774 57.8693 26 1 
602 1.23704 2.78056 -0.0950932 0.126222 2.78507 57.8766 26 1 
604 1.23705 2.81785 -0.0973782 0.127141 2.82242 57.8852 26 1 
606 1.23705 2.85516 -0.0996128 0.127839 2.85978 57.8953 26 1 
608 1.23706 2.89245 -0.101796 0.128347 2.89711 57.9069 26 1 
608 1.23706 2.89245 -0.101796 0.128347 2.89711 57.9069 26 1 
610 1.23707 2.92969 -0.103913 0.128646 2.93438 57.9201 26 1 
612 1.23707 2.96688 -0.105954 0.128773 2.97159 57.934 26 1 
614 1.23708 3.00398 -0.107909 0.128748 3.0087 57.9492 26 1 
616 1.23709 3.04102 -0.109789 0.128545 3.04574 57.9659 26 1 
618 1.2371 3.07795 -0.111568 0.128219 3.08267 57.9836 26 1 
620 1.23711 3.11471 -0.113257 0.127777 3.11941 58.0023 26 1 
622 1.23712 3.15131 -0.114851 0.12724 3.15599 58.0215 26 1 
624 1.23713 3.18773 -0.116319 0.126623 3.19239 58.0419 26 1 
626 1.23715 3.22392 -0.117677 0.125944 3.22855 58.0633 26 1 
628 1.23716 3.25992 -0.118935 0.125224 3.26451 58.0847 26 1 
630 1.23717 3.29564 -0.12006 0.124481 3.30021 58.1072 26 1 
632 1.23718 3.33103 -0.121068 0.123753 3.33556 58.1306 26 1 
634 1.2372 3.36614 -0.121958 0.123043 3.37063 58.1534 26 1 
636 1.23721 3.40098 -0.122702 0.122364 3.40543 58.1763 26 1 
638 1.23722 3.43541 -0.123337 0.121752 3.43982 58.2014 26 1 
640 1.23724 3.46949 -0.123867 0.121232 3.47386 58.2256 26 1 
642 1.23725 3.50322 -0.124219 0.120803 3.50755 58.2483 26 1 
644 1.23726 3.53646 -0.12449 0.120491 3.54075 58.2738 26 1 
646 1.23728 3.56933 -0.124632 0.120337 3.57358 58.2984 26 1 
648 1.23729 3.60184 -0.124612 0.120311 3.60606 58.321 26 1 
650 1.2373 3.6338 -0.124528 0.12045 3.63799 58.3465 26 1 
652 1.23732 3.66533 -0.124279 0.120802 3.66949 58.3715 26 1 
654 1.23733 3.69643 -0.123919 0.121334 3.70056 58.3942 26 1 
656 1.23734 3.72702 -0.123431 0.122079 3.73113 58.4184 26 1 
658 1.23736 3.75717 -0.122882 0.123046 3.76127 58.4435 26 1 
660 1.23737 3.7868 -0.12214 0.12426 3.79088 58.4674 26 1 
662 1.23738 3.81596 -0.121373 0.125718 3.82004 58.4897 26 1 
664 1.2374 3.84458 -0.120457 0.127426 3.84867 58.5147 26 1 
666 1.23741 3.87273 -0.119429 0.129425 3.87683 58.5391 26 1 
668 1.23742 3.90041 -0.11834 0.131655 3.90453 58.5611 26 1 
670 1.23743 3.92756 -0.117137 0.134201 3.93171 58.5851 26 1 
672 1.23745 3.95415 -0.115834 0.137007 3.95833 58.6103 26 1 
672 1.23745 3.95415 -0.115834 0.137007 3.95833 58.6103 27 1 
674 1.23746 3.98029 -0.114465 0.140137 3.98451 58.6327 27 1 
676 1.23747 4.00595 -0.112999 0.143509 4.01023 58.6545 27 1 
678 1.23749 4.03101 -0.111442 0.147204 4.03536 58.6806 27 1 
680 1.2375 4.05565 -0.10985 0.15119 4.06009 58.7038 27 1 
682 1.23751 4.07971 -0.108156 0.155443 4.08424 58.7249 27 1 
684 1.23753 4.10326 -0.106397 0.160051 4.10789 58.7493 27 1 
686 1.23754 4.12627 -0.104593 0.164875 4.13103 58.774 27 1 
688 1.23755 4.14881 -0.102729 0.170053 4.15371 58.7946 27 1 
690 1.23756 4.17075 -0.100779 0.175442 4.1758 58.8176 27 1 
692 1.23758 4.19217 -0.0988472 0.181167 4.19739 58.8424 27 1 
694 1.23759 4.21299 -0.0968047 0.187136 4.21841 58.8643 27 1 
696 1.2376 4.23329 -0.0947585 0.193375 4.23891 58.8848 27 1 
698 1.23761 4.25307 -0.0926534 0.199847 4.25893 58.9076 27 1 
700 1.23763 4.27213 -0.0905365 0.206575 4.27823 58.9327 27 1 
702 1.23764 4.29067 -0.0883934 0.213566 4.29705 58.9509 27 1 
704 1.23765 4.30863 -0.0861412 0.220711 4.31529 58.9706 27 1 
704 1.23765 4.30863 -0.0861412 0.220711 4.31529 58.9706 31 1 
706 1.23766 4.32585 -0.0839929 0.228143 4.33283 58.9966 31 1 
708 1.23767 4.34255 -0.0816779 0.235666 4.34986 59.0147 31 1 
710 1.23768 4.35863 -0.0794565 0.243475 4.36629 59.0317 31 1 
712 1.23769 4.37402 -0.0771433 0.251352 4.38206 59.0547 31 1 
714 1.23771 4.38859 -0.0748264 0.259439 4.39703 59.0766 31 1 
716 1.23771 4.40267 -0.0725175 0.26764 4.41154 59.0892 31 1 
718 1.23772 4.4161 -0.0700416 0.275827 4.4254 59.1065 31 1 
720 1.23774 4.42866 -0.0677745 0.284244 4.43842 59.1328 31 1 
722 1.23774 4.44073 -0.0653282 0.292687 4.45097 59.1443 31 1 
724 1.23775 4.45213 -0.0628123 0.30121 4.46288 59.1559 31 1 
726 1.23776 4.46268 -0.0605254 0.309668 4.47395 59.1808 31 1 
728 1.23777 4.47244 -0.0579305 0.318225 4.48424 59.1968 31 1 
730 1.23778 4.48183 -0.0554182 0.326702 4.49417 59.2017 31 1 
732 1.23779 4.49057 -0.0529525 0.335145 4.50348 59.2209 31 1 
734 1.2378 4.49824 -0.0503495 0.343663 4.51173 59.2469 31 1 
736 1.2378 4.50562 -0.0478438 0.352 4.5197 59.2486 31 1 
738 1.23781 4.51265 -0.0451322 0.360339 4.52733 59.2555 31 1 
740 1.23782 4.51814 -0.0425523 0.368496 4.53343 59.2902 31 1 
742 1.23783 4.52361 -0.0399111 0.376719 4.53953 59.295 31 1 
744 1.23782 4.52908 -0.0371295 0.38446 4.54561 59.2894 31 1 
746 1.23784 4.53329 -0.0345011 0.392391 4.55045 59.3248 31 1 
748 1.23786 4.5369 -0.0316711 0.400239 4.55471 59.3447 31 1 
750 1.23784 4.54099 -0.0288197 0.407693 4.55942 59.3258 31 1 
752 1.23786 4.54418 -0.025926 0.415048 4.56323 59.3479 31 1 
752 1.23786 4.54418 -0.025926 0.415048 4.56323 59.3479 31 1 
754 1.23788 4.54599 -0.0234314 0.42222 4.56567 59.3912 31 1 
756 1.23787 4.54958 -0.0199941 0.429524 4.56992 59.3651 31 1 
758 1.23787 4.55219 -0.0173054 0.43616 4.57313 59.3684 31 1 
760 1.2379 4.55333 -0.0143012 0.442892 4.57489 59.4258 31 1 
762 1.23789 4.55581 -0.0109758 0.449779 4.57802 59.4099 31 1 
764 1.23788 4.55903 -0.00819929 0.455894 4.58183 59.3824 31 1 
766 1.23791 4.55966 -0.00491111 0.462384 4.5831 59.4488 31 1 
768 1.23791 4.56278 -0.00136117 0.468553 4.58682 59.444 31 1 
770 1.23789 4.56618 0.00156733 0.474538 4.59082 59.4045 31 1 
772 1.23791 4.56856 0.00501191 0.480228 4.59377 59.4429 31 1 
774 1.23792 4.57237 0.00855199 0.485904 4.59817 59.4669 31 1 
776 1.2379 4.57668 0.0121303 0.492876 4.60321 59.4254 31 1 
778 1.23788 4.58334 0.0154906 0.498377 4.61043 59.3958 31 1 
780 1.23792 4.58908 0.0195983 0.504651 4.61683 59.4534 31 1 
782 1.2379 4.59614 0.0225713 0.508782 4.62432 59.4312 31 1 
784 1.23785 4.6063 0.0258331 0.51549 4.63519 59.3312 31 1 
786 1.23785 4.61792 0.0296182 0.521856 4.64747 59.3353 31 1 
788 1.23786 4.63277 0.0342666 0.527234 4.66287 59.3501 31 1 
790 1.23779 4.65273 0.0353471 0.531998 4.68325 59.2199 31 1 
792 1.23774 4.67175 0.0356386 0.53385 4.70238 59.131 31 1 
794 1.23767 4.70324 0.0401606 0.536119 4.73395 59.0179 31 1 
796 1.23759 4.74145 0.0352628 0.533633 4.77164 58.8729 31 1 
798 1.23742 4.79621 0.0256707 0.52287 4.82489 58.5628 31 1 
800 1.23726 4.83587 0.0211855 0.51397 4.86334 58.2751 31 1 
