89.6591;r ;Density                 ;Velocity u              ;Velocity v              ;Velocity w              ;|Velocity|              ;Pressure                ;Distribution            ;Levels                  ;
0 1.22071 10.0007 -7.43519e-05 -0.000919457 10.0007 28.3687 1 1 
2 1.2207 10.0003 -0.000157435 -8.70156e-05 10.0003 28.3634 1 1 
4 1.2207 9.99977 -0.000339067 -1.86206e-06 9.99977 28.3593 1 1 
6 1.22071 9.99964 -0.000520677 -9.85131e-05 9.99964 28.3679 1 1 
8 1.22071 9.99937 -0.000669786 2.69123e-07 9.99937 28.3806 1 1 
10 1.22071 9.9988 -0.000831754 -0.000135504 9.9988 28.3685 1 1 
12 1.2207 9.99796 -0.000982405 -0.000253503 9.99796 28.3601 1 1 
14 1.22071 9.99738 -0.00116267 -5.75223e-05 9.99738 28.3741 1 1 
16 1.22071 9.99726 -0.00131827 0.000114644 9.99726 28.3742 1 1 
18 1.2207 9.99677 -0.00147581 0.000216852 9.99677 28.3612 1 1 
20 1.2207 9.99608 -0.00162444 0.000337989 9.99608 28.3574 1 1 
22 1.2207 9.99553 -0.00177813 0.000453963 9.99553 28.3656 1 1 
24 1.2207 9.99512 -0.00192976 8.57919e-05 9.99513 28.356 1 1 
26 1.22069 9.99443 -0.00207337 -0.000228844 9.99443 28.3435 1 1 
28 1.22069 9.99373 -0.0022299 4.42768e-05 9.99373 28.3391 1 1 
30 1.22068 9.99333 -0.00239054 0.000102096 9.99333 28.3293 1 1 
32 1.22068 9.99278 -0.00255299 0.000123093 9.99278 28.3273 1 1 
32 1.22068 9.99278 -0.00255299 0.000123093 9.99278 28.3273 1 1 
34 1.22068 9.9923 -0.00268091 0.000221802 9.9923 28.3212 1 1 
36 1.22067 9.992 -0.00282577 0.000209583 9.992 28.3072 1 1 
38 1.22067 9.99159 -0.00296823 1.60417e-05 9.99159 28.2995 1 1 
40 1.22066 9.99112 -0.00314274 -0.000105413 9.99112 28.2917 1 1 
42 1.22066 9.99066 -0.00328683 -5.88066e-05 9.99066 28.2796 1 1 
44 1.22065 9.99023 -0.0034571 0.000233753 9.99023 28.2675 1 1 
46 1.22064 9.98979 -0.00361004 0.000497702 9.9898 28.2572 1 1 
48 1.22064 9.98952 -0.00377004 0.000434062 9.98952 28.2431 1 1 
50 1.22063 9.98928 -0.00392023 0.000376263 9.98928 28.2307 1 1 
52 1.22062 9.98888 -0.00404761 0.000333938 9.98888 28.2193 1 1 
54 1.22062 9.98851 -0.00420137 0.000352287 9.98851 28.2053 1 1 
56 1.22061 9.98818 -0.00435658 0.000457736 9.98818 28.1978 1 1 
58 1.2206 9.98794 -0.00450229 0.000595683 9.98795 28.1818 1 1 
60 1.22059 9.98778 -0.00464903 0.000765111 9.98778 28.1581 1 1 
62 1.22059 9.98685 -0.00479441 0.000531122 9.98685 28.1559 1 1 
64 1.22057 9.98603 -0.0049511 0.000133545 9.98603 28.1323 1 1 
64 1.22057 9.98603 -0.0049511 0.000133545 9.98603 28.1323 2 1 
66 1.22056 9.98591 -0.00511099 0.000193016 9.98591 28.1054 2 1 
68 1.22056 9.98574 -0.0052667 0.000280896 9.98574 28.1132 2 1 
70 1.22055 9.98598 -0.00542053 0.000685959 9.98599 28.0886 2 1 
72 1.22054 9.98549 -0.00557454 0.000848208 9.98549 28.0655 2 1 
74 1.22053 9.98457 -0.00571543 0.000746275 9.98457 28.0591 2 1 
76 1.22052 9.98443 -0.00587994 0.000713053 9.98443 28.0361 2 1 
78 1.22051 9.98416 -0.00604183 0.000258825 9.98416 28.0222 2 1 
80 1.2205 9.98401 -0.00619851 0.00014101 9.98401 28.0028 2 1 
82 1.22049 9.98363 -0.00635357 0.000150795 9.98364 27.9836 2 1 
84 1.22049 9.98269 -0.00650085 1.87473e-05 9.98269 27.9735 2 1 
86 1.22047 9.98256 -0.00664052 0.000677908 9.98257 27.9442 2 1 
88 1.22046 9.98228 -0.00676709 0.000616285 9.98229 27.9291 2 1 
90 1.22046 9.98196 -0.00691266 0.000594623 9.98196 27.9158 2 1 
92 1.22044 9.98233 -0.00704896 0.000824473 9.98233 27.8825 2 1 
94 1.22043 9.98202 -0.00719128 0.000499183 9.98203 27.8724 2 1 
96 1.22043 9.98138 -0.00734592 0.000400637 9.98138 27.8669 2 1 
96 1.22043 9.98138 -0.00734592 0.000400637 9.98138 27.8669 2 1 
98 1.22041 9.98081 -0.00750389 0.00052683 9.98081 27.8291 2 1 
100 1.22039 9.98006 -0.00768196 0.000713542 9.98006 27.7947 2 1 
102 1.22039 9.97939 -0.00781476 0.00103474 9.9794 27.795 2 1 
104 1.22037 9.97922 -0.00794616 0.00146485 9.97923 27.7709 2 1 
106 1.22035 9.97915 -0.00810662 0.00116537 9.97916 27.7319 2 1 
108 1.22035 9.97877 -0.00824302 0.000767351 9.97877 27.7317 2 1 
110 1.22034 9.97857 -0.00836297 0.000572394 9.97857 27.7116 2 1 
112 1.22031 9.97882 -0.00849873 0.000646743 9.97883 27.661 2 1 
114 1.22032 9.97805 -0.00865288 0.00116216 9.97805 27.6648 2 1 
116 1.22031 9.97699 -0.00880729 0.00172765 9.977 27.6532 2 1 
118 1.22028 9.9767 -0.00894684 0.00185789 9.9767 27.5934 2 1 
120 1.22027 9.97572 -0.00906445 0.00156352 9.97573 27.586 2 1 
122 1.22027 9.97516 -0.00921612 0.00118248 9.97516 27.576 2 1 
124 1.22024 9.97546 -0.00935413 0.000927398 9.97547 27.5253 2 1 
126 1.22024 9.97503 -0.00948824 0.000970764 9.97503 27.52 2 1 
128 1.22023 9.97443 -0.00963192 0.00158708 9.97443 27.5158 2 1 
128 1.22023 9.97443 -0.00963192 0.00158708 9.97443 27.5158 10 1 
130 1.2202 9.97465 -0.0097912 0.00231992 9.97466 27.4526 10 1 
132 1.22019 9.97363 -0.00993539 0.00250374 9.97363 27.4418 10 1 
134 1.22019 9.97226 -0.0100648 0.00207055 9.97226 27.4364 10 1 
136 1.22016 9.97252 -0.0102349 0.00151596 9.97252 27.377 10 1 
138 1.22016 9.97152 -0.0103982 0.0012524 9.97153 27.3821 10 1 
140 1.22015 9.97053 -0.0105205 0.00126563 9.97054 27.3624 10 1 
142 1.22011 9.97115 -0.0106471 0.00203555 9.97116 27.291 10 1 
144 1.22012 9.96998 -0.010782 0.00222024 9.96998 27.3072 10 1 
146 1.22011 9.96875 -0.0109337 0.00233539 9.96876 27.2949 10 1 
148 1.22007 9.96906 -0.0110621 0.0021753 9.96906 27.2195 10 1 
150 1.22007 9.96778 -0.011193 0.00170828 9.96779 27.2291 10 1 
152 1.22007 9.96641 -0.0113694 0.00212251 9.96642 27.2152 10 1 
154 1.22002 9.96659 -0.01153 0.00274215 9.9666 27.133 10 1 
156 1.22003 9.96532 -0.0116616 0.00280338 9.96533 27.1495 10 1 
158 1.22003 9.96393 -0.0118251 0.00265938 9.96394 27.1549 10 1 
160 1.21999 9.96423 -0.0119931 0.00235764 9.96423 27.0712 10 1 
160 1.21999 9.96423 -0.0119931 0.00235764 9.96423 27.0712 10 1 
162 1.21998 9.96308 -0.0121555 0.00223285 9.96309 27.063 10 1 
164 1.21999 9.96139 -0.0122637 0.00259244 9.9614 27.0745 10 1 
166 1.21995 9.96072 -0.0124156 0.00248509 9.96073 27.0103 10 1 
168 1.21994 9.95901 -0.0126048 0.00324966 9.95902 26.9774 10 1 
170 1.21994 9.95715 -0.0127697 0.0036091 9.95716 26.9908 10 1 
172 1.21992 9.95659 -0.0129087 0.00318742 9.9566 26.9487 10 1 
174 1.2199 9.95528 -0.0131118 0.00311165 9.95529 26.9069 10 1 
176 1.2199 9.9534 -0.0132782 0.00271497 9.95341 26.9213 10 1 
178 1.2199 9.95198 -0.0134342 0.0026528 9.95199 26.9055 10 1 
180 1.21986 9.95011 -0.0136023 0.00293669 9.95012 26.8487 10 1 
182 1.21985 9.94897 -0.0137983 0.00347457 9.94899 26.824 10 1 
184 1.21986 9.94736 -0.0139581 0.00379208 9.94737 26.8431 10 1 
186 1.21985 9.94446 -0.0141428 0.00440724 9.94447 26.8223 10 1 
188 1.21982 9.94247 -0.0143041 0.00469609 9.94248 26.7694 10 1 
190 1.21983 9.94002 -0.014475 0.00438433 9.94003 26.7854 10 1 
192 1.21983 9.93683 -0.0146683 0.00289796 9.93684 26.7896 10 1 
194 1.21979 9.93482 -0.0148461 0.0024928 9.93484 26.7132 10 1 
196 1.2198 9.93224 -0.0150641 0.00294149 9.93226 26.7288 10 1 
198 1.21983 9.92899 -0.0153211 0.00363413 9.929 26.7877 10 1 
200 1.21979 9.92731 -0.0154954 0.00493499 9.92732 26.7151 10 1 
202 1.21978 9.92472 -0.0156359 0.00519319 9.92473 26.6923 10 1 
204 1.21982 9.91969 -0.0158347 0.00457268 9.91971 26.7685 10 1 
206 1.2198 9.91509 -0.0160229 0.00430808 9.9151 26.7353 10 1 
208 1.21978 9.91045 -0.0162152 0.00414266 9.91046 26.6888 10 1 
210 1.21982 9.90429 -0.0164674 0.00424864 9.9043 26.7658 10 1 
212 1.21982 9.90029 -0.0167239 0.00457294 9.9003 26.769 10 1 
214 1.2198 9.89676 -0.0169237 0.00432026 9.89678 26.7239 10 1 
216 1.21984 9.89119 -0.0172032 0.00682543 9.89121 26.8112 10 1 
218 1.21987 9.88657 -0.0173915 0.00744232 9.88659 26.8643 10 1 
220 1.21987 9.8792 -0.0175932 0.00599508 9.87921 26.8544 10 1 
222 1.21988 9.87028 -0.0177536 0.00555525 9.8703 26.8753 10 1 
224 1.2199 9.86282 -0.0180911 0.00393491 9.86284 26.914 10 1 
224 1.2199 9.86282 -0.0180911 0.00393491 9.86284 26.914 10 1 
226 1.21996 9.85223 -0.0184481 0.00604164 9.85226 27.0216 10 1 
228 1.21997 9.84401 -0.0187206 0.00937313 9.84403 27.0309 10 1 
230 1.22 9.83597 -0.0188776 0.0103182 9.836 27.0979 10 1 
232 1.22011 9.82326 -0.019082 0.010027 9.82328 27.2895 10 1 
234 1.22008 9.81389 -0.0193943 0.00795934 9.81391 27.24 10 1 
236 1.22013 9.80221 -0.0197436 0.00875331 9.80223 27.3318 10 1 
238 1.2203 9.7862 -0.020051 0.00994468 9.78622 27.6296 10 1 
240 1.22031 9.77212 -0.020286 0.0117708 9.77215 27.6542 10 1 
242 1.22034 9.75474 -0.0205073 0.0153547 9.75478 27.7128 10 1 
244 1.22049 9.73505 -0.020849 0.0163988 9.73508 27.9856 10 1 
246 1.2206 9.71607 -0.0212204 0.0172474 9.71611 28.1714 10 1 
248 1.22068 9.69495 -0.0215459 0.0200701 9.69499 28.3154 10 1 
250 1.22084 9.67149 -0.0218421 0.0212109 9.67155 28.6142 10 1 
252 1.22102 9.64463 -0.022173 0.0250088 9.6447 28.9373 10 1 
254 1.22112 9.61422 -0.0225992 0.0305679 9.6143 29.1105 10 1 
256 1.22128 9.58193 -0.0228388 0.0337622 9.58203 29.4099 10 1 
256 1.22128 9.58193 -0.0228388 0.0337622 9.58203 29.4099 11 1 
258 1.22157 9.54581 -0.0231588 0.0398751 9.54593 29.9349 11 1 
260 1.2218 9.50491 -0.0235075 0.0480183 9.50507 30.3494 11 1 
262 1.222 9.46018 -0.0238237 0.0540196 9.46038 30.7069 11 1 
264 1.2223 9.41021 -0.0241947 0.0663174 9.4105 31.2505 11 1 
266 1.22269 9.35236 -0.0245099 0.0799046 9.35275 31.9609 11 1 
268 1.22303 9.2891 -0.0248343 0.0956226 9.28966 32.5631 11 1 
270 1.22337 9.22345 -0.0251936 0.120184 9.2243 33.1761 11 1 
272 1.22397 9.14432 -0.0254987 0.147914 9.14561 34.2622 11 1 
274 1.22452 9.04969 -0.0257697 0.177402 9.05157 35.2565 11 1 
276 1.22487 8.95071 -0.0260038 0.212346 8.95338 35.8939 11 1 
278 1.22557 8.84119 -0.0262587 0.258627 8.84513 37.1476 11 1 
280 1.2264 8.72457 -0.0265339 0.322452 8.73075 38.6611 11 1 
282 1.22692 8.60782 -0.0267581 0.403725 8.61761 39.5979 11 1 
284 1.22762 8.47472 -0.0269742 0.486456 8.48902 40.8637 11 1 
286 1.22852 8.32291 -0.0271293 0.594902 8.34477 42.4844 11 1 
288 1.229 8.18211 -0.0271692 0.717475 8.21414 43.3418 11 1 
288 1.229 8.18211 -0.0271692 0.717475 8.21414 43.3418 11 1 
290 1.22972 8.0274 -0.0271914 0.851542 8.07351 44.6437 11 1 
292 1.23074 7.85801 -0.0272159 1.02679 7.92612 46.4845 11 1 
294 1.23077 7.72467 -0.0271386 1.2362 7.82441 46.5395 11 1 
296 1.22938 7.36318 -0.0268381 1.08283 7.44878 44.0448 11 1 
298 1.22485 6.58161 -0.026629 0.301716 6.61641 35.8523 11 1 
300 1.21847 5.72179 -0.0265295 -0.74985 5.8146 24.3232 11 1 
302 1.21426 5.15566 -0.0263679 -1.56365 5.405 16.7247 11 1 
304 1.21196 4.91426 -0.0263258 -1.74294 5.21543 12.5759 11 1 
306 1.21117 4.75799 -0.0261139 -1.57872 5.01393 11.1488 11 1 
308 1.21149 4.56227 -0.0256783 -1.36923 4.76533 11.7171 11 1 
310 1.21174 4.40174 -0.0252165 -1.13105 4.54599 12.1747 11 1 
312 1.21224 4.28361 -0.0248298 -0.977542 4.39436 13.0771 11 1 
314 1.21272 4.16689 -0.024678 -0.845933 4.25271 13.9452 11 1 
316 1.21293 4.02982 -0.0245584 -0.718042 4.09387 14.3247 11 1 
318 1.21325 3.88415 -0.0243586 -0.621966 3.93412 14.8932 11 1 
320 1.21359 3.75951 -0.0241694 -0.525417 3.79659 15.5111 11 1 
320 1.21359 3.75951 -0.0241694 -0.525417 3.79659 15.5111 15 1 
322 1.21388 3.6504 -0.0239686 -0.441214 3.67733 16.0332 15 1 
324 1.21418 3.53517 -0.0237387 -0.384212 3.55638 16.5742 15 1 
326 1.21441 3.41234 -0.0235803 -0.335544 3.42918 16.997 15 1 
328 1.21458 3.29356 -0.0234624 -0.291262 3.30673 17.2966 15 1 
330 1.21479 3.18969 -0.0233121 -0.256903 3.20025 17.6777 15 1 
332 1.215 3.099 -0.0232057 -0.229993 3.10777 18.0654 15 1 
334 1.21515 3.00769 -0.0231774 -0.20912 3.01522 18.3373 15 1 
336 1.21527 2.91235 -0.0231462 -0.194575 2.9191 18.5556 15 1 
338 1.21541 2.82127 -0.023075 -0.181039 2.82727 18.7989 15 1 
340 1.21554 2.74015 -0.0230201 -0.169948 2.7456 19.0408 15 1 
342 1.21564 2.66621 -0.0230453 -0.16298 2.67139 19.2148 15 1 
344 1.21572 2.59239 -0.0231458 -0.159125 2.59749 19.3689 15 1 
346 1.21582 2.51741 -0.0232735 -0.155257 2.5224 19.5439 15 1 
348 1.2159 2.44501 -0.0233888 -0.151105 2.44986 19.6853 15 1 
350 1.21595 2.37725 -0.0235403 -0.147431 2.38201 19.7871 15 1 
352 1.21601 2.31331 -0.0237946 -0.145027 2.31805 19.89 15 1 
354 1.21607 2.25038 -0.0241332 -0.142325 2.25508 19.9995 15 1 
356 1.21612 2.18642 -0.0244999 -0.137597 2.19095 20.0873 15 1 
358 1.21616 2.12255 -0.0249161 -0.130936 2.12679 20.1492 15 1 
360 1.21619 2.06065 -0.0254445 -0.123747 2.06458 20.2164 15 1 
362 1.21623 1.99996 -0.0260702 -0.11595 2.00356 20.2778 15 1 
364 1.21625 1.93882 -0.0267278 -0.107095 1.94203 20.3196 15 1 
366 1.21628 1.87746 -0.0273989 -0.0966319 1.88022 20.3707 15 1 
368 1.21631 1.81626 -0.0281134 -0.0854542 1.81857 20.4218 15 1 
370 1.21632 1.75546 -0.0288572 -0.074607 1.75736 20.4489 15 1 
372 1.21633 1.69606 -0.0295871 -0.0641529 1.69762 20.4693 15 1 
374 1.21635 1.63831 -0.0302996 -0.0535789 1.63956 20.5023 15 1 
376 1.21637 1.58145 -0.031014 -0.0426818 1.58243 20.538 15 1 
378 1.21638 1.52506 -0.0317258 -0.0315852 1.52583 20.5541 15 1 
380 1.21638 1.46983 -0.0324406 -0.0209128 1.47046 20.5602 15 1 
382 1.21639 1.41684 -0.0331856 -0.0102325 1.41741 20.5772 15 1 
384 1.2164 1.36563 -0.0339744 0.00110213 1.3662 20.5952 15 1 
384 1.2164 1.36563 -0.0339744 0.00110213 1.3662 20.5952 16 1 
386 1.21641 1.31507 -0.0347993 0.0129156 1.31576 20.6048 16 1 
388 1.21641 1.26544 -0.0356476 0.0246374 1.26637 20.6132 16 1 
390 1.21642 1.21764 -0.0365155 0.0361043 1.21895 20.6247 16 1 
392 1.21642 1.1716 -0.0373908 0.0474101 1.17342 20.6343 16 1 
394 1.21643 1.12681 -0.0382584 0.058381 1.12927 20.641 16 1 
396 1.21644 1.08339 -0.0391125 0.0686943 1.08661 20.6554 16 1 
398 1.21644 1.04128 -0.0399575 0.0782943 1.04536 20.6717 16 1 
400 1.21645 1.00019 -0.0408019 0.0869773 1.00523 20.68 16 1 
402 1.21646 0.960569 -0.0416635 0.0946187 0.966607 20.6922 16 1 
404 1.21647 0.922533 -0.0425568 0.1013 0.929602 20.7124 16 1 
406 1.21648 0.885508 -0.0434906 0.106953 0.893616 20.7311 16 1 
408 1.21649 0.849386 -0.0444779 0.111475 0.858495 20.7476 16 1 
410 1.2165 0.814604 -0.0455165 0.11487 0.824648 20.7669 16 1 
412 1.21651 0.78139 -0.0466167 0.117265 0.792303 20.7906 16 1 
414 1.21652 0.749489 -0.0477838 0.11873 0.761201 20.8141 16 1 
416 1.21654 0.718805 -0.0489944 0.119178 0.731184 20.8382 16 1 
416 1.21654 0.718805 -0.0489944 0.119178 0.731184 20.8382 16 1 
418 1.21655 0.689655 -0.0502268 0.118735 0.702559 20.8671 16 1 
420 1.21657 0.662178 -0.0514804 0.117566 0.6755 20.8967 16 1 
422 1.21659 0.63636 -0.0527653 0.115641 0.649975 20.9255 16 1 
424 1.2166 0.612385 -0.0540644 0.11299 0.626133 20.957 16 1 
426 1.21662 0.590493 -0.0553613 0.109813 0.604233 20.9927 16 1 
428 1.21664 0.570681 -0.0566669 0.106244 0.584308 21.03 16 1 
430 1.21666 0.552977 -0.0579976 0.102259 0.566374 21.0665 16 1 
432 1.21669 0.537764 -0.0593415 0.0979606 0.550821 21.1069 16 1 
434 1.21671 0.5252 -0.060698 0.0935842 0.537861 21.1509 16 1 
436 1.21673 0.515215 -0.0620759 0.0892056 0.527439 21.1939 16 1 
438 1.21676 0.50804 -0.06348 0.0848485 0.519781 21.2392 16 1 
440 1.21679 0.503864 -0.064908 0.080619 0.515107 21.288 16 1 
442 1.21681 0.502682 -0.0663483 0.076596 0.513438 21.3377 16 1 
444 1.21684 0.5046 -0.0678205 0.0728503 0.514888 21.3883 16 1 
446 1.21687 0.509716 -0.0693229 0.0694131 0.519558 21.4406 16 1 
448 1.2169 0.517959 -0.0708356 0.0663056 0.527385 21.4942 16 1 
448 1.2169 0.517959 -0.0708356 0.0663056 0.527385 21.4942 17 1 
450 1.21693 0.529179 -0.0723485 0.0635051 0.53822 21.5468 17 1 
452 1.21696 0.543383 -0.0738731 0.0610029 0.552068 21.599 17 1 
454 1.21699 0.560589 -0.0754068 0.0588624 0.568952 21.6528 17 1 
456 1.21702 0.580593 -0.076937 0.057076 0.588666 21.7056 17 1 
458 1.21704 0.603139 -0.078458 0.0555664 0.610947 21.7563 17 1 
460 1.21707 0.62807 -0.0799754 0.0542863 0.635634 21.805 17 1 
462 1.2171 0.655324 -0.0814899 0.0532224 0.662663 21.8516 17 1 
464 1.21712 0.684761 -0.0829941 0.0523856 0.691894 21.8963 17 1 
466 1.21715 0.716107 -0.0844919 0.0517088 0.723049 21.9376 17 1 
468 1.21717 0.749235 -0.08599 0.0511061 0.755997 21.9763 17 1 
470 1.21719 0.784047 -0.0874895 0.0505602 0.790637 22.0125 17 1 
472 1.2172 0.820353 -0.0889827 0.0499997 0.826778 22.0439 17 1 
474 1.21722 0.858071 -0.0904779 0.0493907 0.864336 22.0714 17 1 
476 1.21723 0.897159 -0.0920034 0.0487487 0.903272 22.0956 17 1 
478 1.21724 0.937476 -0.0935627 0.0480146 0.943445 22.1159 17 1 
480 1.21725 0.97887 -0.0951448 0.0471183 0.984698 22.1323 17 1 
480 1.21725 0.97887 -0.0951448 0.0471183 0.984698 22.1323 17 1 
482 1.21726 1.02132 -0.0967696 0.0460409 1.02701 22.1444 17 1 
484 1.21726 1.06484 -0.0984575 0.0448079 1.07041 22.1532 17 1 
486 1.21727 1.10933 -0.100208 0.043433 1.11478 22.158 17 1 
488 1.21727 1.1546 -0.102016 0.0418498 1.15994 22.1583 17 1 
490 1.21727 1.20062 -0.103889 0.0400497 1.20586 22.155 17 1 
492 1.21726 1.24738 -0.10584 0.0380538 1.25253 22.1483 17 1 
494 1.21726 1.29483 -0.107862 0.0358607 1.2999 22.1383 17 1 
496 1.21725 1.34285 -0.109964 0.0334802 1.34786 22.1252 17 1 
498 1.21724 1.39135 -0.112157 0.030927 1.3963 22.1083 17 1 
500 1.21723 1.44027 -0.114428 0.0281973 1.44518 22.0884 17 1 
502 1.21722 1.48956 -0.116776 0.0252861 1.49444 22.0654 17 1 
504 1.2172 1.53919 -0.119204 0.0222032 1.54406 22.0398 17 1 
506 1.21719 1.58911 -0.121722 0.0190026 1.59398 22.0121 17 1 
508 1.21717 1.6392 -0.124324 0.0157038 1.64409 21.9818 17 1 
510 1.21715 1.68941 -0.126997 0.0122688 1.69433 21.949 17 1 
512 1.21713 1.73973 -0.129738 0.00871343 1.74468 21.9141 17 1 
512 1.21713 1.73973 -0.129738 0.00871343 1.74468 21.9141 25 1 
514 1.21711 1.79012 -0.132551 0.00508574 1.79513 21.877 25 1 
516 1.21709 1.84054 -0.13543 0.00141291 1.84562 21.8384 25 1 
518 1.21707 1.89094 -0.138369 -0.0023127 1.89609 21.7983 25 1 
520 1.21705 1.94123 -0.141356 -0.00609108 1.94648 21.7563 25 1 
522 1.21702 1.9914 -0.144382 -0.00988403 1.99676 21.7127 25 1 
524 1.217 2.0415 -0.147454 -0.0136773 2.04696 21.668 25 1 
526 1.21697 2.09148 -0.150558 -0.0174619 2.09706 21.6223 25 1 
528 1.21694 2.14125 -0.153689 -0.0212064 2.14696 21.5754 25 1 
530 1.21692 2.19076 -0.156833 -0.0249074 2.19661 21.5273 25 1 
532 1.21689 2.24008 -0.159993 -0.0285622 2.24606 21.4785 25 1 
534 1.21686 2.2892 -0.163149 -0.0321425 2.29532 21.4289 25 1 
536 1.21684 2.33807 -0.166309 -0.0356416 2.34435 21.3788 25 1 
538 1.21681 2.38665 -0.16946 -0.0390275 2.39307 21.3278 25 1 
540 1.21678 2.43492 -0.172577 -0.0422881 2.44149 21.2762 25 1 
542 1.21675 2.48292 -0.175684 -0.045439 2.48964 21.2245 25 1 
544 1.21672 2.53065 -0.178737 -0.0484624 2.53751 21.1727 25 1 
544 1.21672 2.53065 -0.178737 -0.0484624 2.53751 21.1727 25 1 
546 1.21669 2.57808 -0.181768 -0.0513415 2.58508 21.1206 25 1 
548 1.21666 2.62519 -0.184747 -0.0540384 2.63232 21.0683 25 1 
550 1.21663 2.67195 -0.187672 -0.0565823 2.67922 21.0157 25 1 
552 1.21661 2.71841 -0.190538 -0.0589628 2.7258 20.963 25 1 
554 1.21658 2.76456 -0.193334 -0.0611519 2.77207 20.9109 25 1 
556 1.21655 2.8104 -0.196084 -0.0631706 2.81802 20.859 25 1 
558 1.21652 2.85591 -0.198742 -0.0649959 2.86364 20.8072 25 1 
560 1.21649 2.90108 -0.201344 -0.0666272 2.90891 20.7553 25 1 
562 1.21646 2.94593 -0.203849 -0.0680524 2.95384 20.7038 25 1 
564 1.21643 2.99046 -0.206282 -0.0693027 2.99844 20.6532 25 1 
566 1.21641 3.03469 -0.208636 -0.0703631 3.04275 20.6028 25 1 
568 1.21638 3.07861 -0.210906 -0.0712203 3.08673 20.5534 25 1 
570 1.21635 3.1222 -0.213097 -0.0718747 3.13037 20.5042 25 1 
572 1.21632 3.16546 -0.215194 -0.0723461 3.17368 20.4551 25 1 
574 1.2163 3.20843 -0.217217 -0.072654 3.21668 20.4067 25 1 
576 1.21627 3.25111 -0.219141 -0.0727741 3.25939 20.3591 25 1 
576 1.21627 3.25111 -0.219141 -0.0727741 3.25939 20.3591 26 1 
578 1.21625 3.2935 -0.221015 -0.0727319 3.30179 20.3127 26 1 
580 1.21622 3.33561 -0.222783 -0.0725038 3.34391 20.2666 26 1 
582 1.2162 3.37739 -0.224493 -0.0721205 3.3857 20.2214 26 1 
584 1.21617 3.4189 -0.226119 -0.0716143 3.4272 20.1767 26 1 
586 1.21615 3.46015 -0.227672 -0.0709656 3.46845 20.1325 26 1 
588 1.21612 3.50114 -0.22918 -0.070184 3.50943 20.0894 26 1 
590 1.2161 3.54185 -0.230585 -0.0692744 3.55011 20.0473 26 1 
592 1.21608 3.58229 -0.231977 -0.0682755 3.59053 20.0056 26 1 
594 1.21605 3.62247 -0.233265 -0.067177 3.63069 19.9645 26 1 
596 1.21603 3.66241 -0.234525 -0.0660086 3.67059 19.9248 26 1 
598 1.21601 3.70215 -0.235736 -0.0647842 3.71031 19.885 26 1 
600 1.21599 3.74162 -0.236887 -0.0634853 3.74974 19.8464 26 1 
602 1.21597 3.78082 -0.238005 -0.0621582 3.78891 19.8084 26 1 
604 1.21595 3.81983 -0.239071 -0.0608205 3.82788 19.7707 26 1 
606 1.21593 3.85863 -0.240112 -0.059474 3.86664 19.7344 26 1 
608 1.21591 3.89722 -0.241112 -0.0581174 3.9052 19.6985 26 1 
608 1.21591 3.89722 -0.241112 -0.0581174 3.9052 19.6985 26 1 
610 1.21589 3.93559 -0.242094 -0.0567967 3.94354 19.6631 26 1 
612 1.21587 3.97375 -0.243027 -0.055497 3.98166 19.6278 26 1 
614 1.21585 4.01168 -0.243938 -0.0542329 4.01956 19.5936 26 1 
616 1.21583 4.04948 -0.244847 -0.0530581 4.05733 19.5596 26 1 
618 1.21581 4.08709 -0.245687 -0.0519298 4.0949 19.5266 26 1 
620 1.21579 4.12449 -0.246564 -0.0508819 4.13227 19.4944 26 1 
622 1.21577 4.1617 -0.247375 -0.0499263 4.16945 19.4619 26 1 
624 1.21576 4.19875 -0.248189 -0.0490741 4.20647 19.4298 26 1 
626 1.21574 4.23562 -0.248967 -0.0483352 4.24331 19.3992 26 1 
628 1.21572 4.27233 -0.249758 -0.0477048 4.27999 19.3684 26 1 
630 1.21571 4.30891 -0.250499 -0.0472167 4.31655 19.3374 26 1 
632 1.21569 4.34522 -0.25123 -0.046835 4.35283 19.3086 26 1 
634 1.21567 4.3814 -0.251973 -0.0466071 4.38899 19.2791 26 1 
636 1.21566 4.41751 -0.252631 -0.046527 4.42507 19.2491 26 1 
638 1.21564 4.45335 -0.253339 -0.0465735 4.46089 19.2223 26 1 
640 1.21563 4.48905 -0.254007 -0.0467707 4.49657 19.1945 26 1 
642 1.21561 4.52464 -0.254617 -0.0471054 4.53213 19.1652 26 1 
644 1.2156 4.55991 -0.255252 -0.0476077 4.56739 19.1395 26 1 
646 1.21558 4.59512 -0.255874 -0.0482159 4.60258 19.1132 26 1 
648 1.21557 4.6302 -0.256381 -0.048995 4.63764 19.0854 26 1 
650 1.21555 4.66496 -0.257008 -0.0499012 4.67239 19.0612 26 1 
652 1.21554 4.69959 -0.257491 -0.0509023 4.707 19.0363 26 1 
654 1.21552 4.73407 -0.257979 -0.0520694 4.74146 19.0097 26 1 
656 1.21551 4.76825 -0.25848 -0.0533234 4.77563 18.9868 26 1 
658 1.2155 4.80235 -0.258912 -0.0547015 4.80971 18.9629 26 1 
660 1.21549 4.83618 -0.259311 -0.0561504 4.84352 18.9393 26 1 
662 1.21547 4.86973 -0.259736 -0.0577002 4.87706 18.9163 26 1 
664 1.21546 4.90311 -0.260065 -0.0593176 4.91044 18.8929 26 1 
666 1.21545 4.93623 -0.260361 -0.0609772 4.94354 18.8717 26 1 
668 1.21544 4.96915 -0.260715 -0.0627352 4.97645 18.8494 26 1 
670 1.21542 5.00182 -0.260907 -0.0644768 5.0091 18.8281 26 1 
672 1.21541 5.03415 -0.261184 -0.0662736 5.04142 18.8084 26 1 
672 1.21541 5.03415 -0.261184 -0.0662736 5.04142 18.8084 27 1 
674 1.2154 5.06628 -0.261344 -0.0680718 5.07353 18.7863 27 1 
676 1.21539 5.09814 -0.261501 -0.0698467 5.10538 18.7658 27 1 
678 1.21538 5.1297 -0.261617 -0.0716551 5.13692 18.7473 27 1 
680 1.21537 5.16108 -0.261691 -0.0733941 5.16829 18.7274 27 1 
682 1.21536 5.19201 -0.261709 -0.0750886 5.19921 18.7088 27 1 
684 1.21535 5.22281 -0.261741 -0.0767431 5.22998 18.6894 27 1 
686 1.21534 5.25323 -0.261677 -0.0783025 5.26039 18.6718 27 1 
688 1.21533 5.28342 -0.261606 -0.0797975 5.29056 18.6532 27 1 
690 1.21532 5.31328 -0.261515 -0.0811911 5.3204 18.6357 27 1 
692 1.21531 5.34291 -0.261313 -0.0824698 5.35 18.6185 27 1 
694 1.2153 5.37221 -0.261149 -0.0836283 5.37927 18.6026 27 1 
696 1.21529 5.40127 -0.260888 -0.0846203 5.4083 18.5857 27 1 
698 1.21528 5.43017 -0.260606 -0.0855182 5.43716 18.5679 27 1 
700 1.21527 5.45859 -0.260319 -0.0862442 5.46555 18.5556 27 1 
702 1.21526 5.48689 -0.259897 -0.0867742 5.49381 18.5378 27 1 
704 1.21525 5.51489 -0.259504 -0.0871485 5.52176 18.5215 27 1 
704 1.21525 5.51489 -0.259504 -0.0871485 5.52176 18.5215 31 1 
706 1.21525 5.5427 -0.25904 -0.087369 5.54952 18.5098 31 1 
708 1.21524 5.57031 -0.258497 -0.0873676 5.57708 18.4952 31 1 
710 1.21523 5.5977 -0.258025 -0.0871035 5.60442 18.4799 31 1 
712 1.21522 5.62491 -0.257356 -0.0867268 5.63157 18.466 31 1 
714 1.21522 5.65174 -0.256762 -0.0860847 5.65833 18.4555 31 1 
716 1.21521 5.67856 -0.256097 -0.085197 5.68508 18.4391 31 1 
718 1.2152 5.70519 -0.25523 -0.0842011 5.71164 18.4249 31 1 
720 1.2152 5.73169 -0.254508 -0.0828835 5.73805 18.4175 31 1 
722 1.21519 5.75802 -0.253738 -0.0812232 5.7643 18.4046 31 1 
724 1.21518 5.78435 -0.252659 -0.0794484 5.79054 18.3866 31 1 
726 1.21518 5.81038 -0.252015 -0.0773756 5.8165 18.3802 31 1 
728 1.21517 5.8362 -0.250875 -0.075052 5.84221 18.3706 31 1 
730 1.21516 5.86217 -0.249816 -0.0725847 5.86809 18.3512 31 1 
732 1.21516 5.88797 -0.248898 -0.069629 5.89379 18.3441 31 1 
734 1.21515 5.91366 -0.247687 -0.0667106 5.91937 18.3384 31 1 
736 1.21514 5.93948 -0.246668 -0.0632689 5.9451 18.3215 31 1 
738 1.21514 5.96517 -0.245571 -0.0595119 5.97068 18.3094 31 1 
740 1.21513 5.99062 -0.244289 -0.0559441 5.99603 18.306 31 1 
742 1.21513 6.01625 -0.243125 -0.0514877 6.02155 18.2928 31 1 
744 1.21512 6.04174 -0.242171 -0.0474309 6.04695 18.2788 31 1 
746 1.21511 6.06769 -0.240667 -0.0426631 6.07279 18.2701 31 1 
748 1.21511 6.09297 -0.239709 -0.0375899 6.09797 18.2699 31 1 
750 1.2151 6.11864 -0.23851 -0.0324921 6.12355 18.2491 31 1 
752 1.21509 6.14476 -0.237221 -0.0269883 6.14957 18.2318 31 1 
752 1.21509 6.14476 -0.237221 -0.0269883 6.14957 18.2318 31 1 
754 1.2151 6.16965 -0.236338 -0.0214017 6.17439 18.246 31 1 
756 1.21509 6.19561 -0.234899 -0.0151318 6.20026 18.2216 31 1 
758 1.21507 6.22171 -0.233957 -0.00907455 6.22629 18.1956 31 1 
760 1.21508 6.24678 -0.232894 -0.00252729 6.25129 18.2146 31 1 
762 1.21508 6.27245 -0.231774 0.00436572 6.27691 18.1986 31 1 
764 1.21505 6.29895 -0.230877 0.0114883 6.30336 18.1575 31 1 
766 1.21507 6.32323 -0.229637 0.0188268 6.3276 18.1839 31 1 
768 1.21505 6.34954 -0.228837 0.0264241 6.35388 18.1601 31 1 
770 1.21504 6.37513 -0.228296 0.0341613 6.37946 18.1321 31 1 
772 1.21504 6.40004 -0.227089 0.0420278 6.40436 18.1348 31 1 
774 1.21503 6.42565 -0.226436 0.0507357 6.42999 18.1214 31 1 
776 1.21502 6.45115 -0.22584 0.0588506 6.45551 18.094 31 1 
778 1.215 6.47831 -0.225351 0.0685691 6.48273 18.0629 31 1 
780 1.21502 6.5015 -0.224115 0.0779612 6.50596 18.1046 31 1 
782 1.21498 6.52731 -0.224057 0.0862536 6.53186 18.028 31 1 
784 1.21495 6.55253 -0.225638 0.0958102 6.55723 17.973 31 1 
786 1.21497 6.57792 -0.225133 0.104995 6.58273 18.0007 31 1 
788 1.21494 6.60505 -0.224148 0.116177 6.61 17.9629 31 1 
790 1.21491 6.63149 -0.227505 0.126075 6.6367 17.8921 31 1 
792 1.2149 6.65414 -0.231908 0.13461 6.65965 17.8869 31 1 
794 1.21487 6.67924 -0.232923 0.142547 6.68493 17.8281 31 1 
796 1.21485 6.70458 -0.246985 0.148564 6.71089 17.7836 31 1 
798 1.21489 6.72385 -0.274715 0.147706 6.73121 17.8552 31 1 
800 1.21489 6.73485 -0.288805 0.143732 6.74267 17.8634 31 1 
