48.905;r ;Density                 ;Velocity u              ;Velocity v              ;Velocity w              ;|Velocity|              ;Pressure                ;Distribution            ;Levels                  ;
0 1.20392 10.0016 -1.55438e-05 -0.0011172 10.0016 -1.94695 1 1 
2 1.20392 10.0018 -4.13575e-05 -0.000171526 10.0018 -1.9542 1 1 
4 1.20391 10.0024 -0.000111745 -7.11298e-06 10.0024 -1.96663 1 1 
6 1.20391 10.0036 -0.000183315 -0.000145006 10.0036 -1.97605 1 1 
8 1.2039 10.0047 -0.000231923 -0.00016655 10.0047 -1.99383 1 1 
10 1.20387 10.0053 -0.000295391 -0.000276902 10.0053 -2.03218 1 1 
12 1.20387 10.0053 -0.000350023 -0.000352091 10.0053 -2.0445 1 1 
14 1.20387 10.0055 -0.000423905 -9.77119e-05 10.0055 -2.0328 1 1 
16 1.20387 10.0062 -0.00048299 -6.51323e-05 10.0062 -2.04933 1 1 
18 1.20385 10.0065 -0.000546895 -0.000139074 10.0065 -2.08001 1 1 
20 1.20385 10.0063 -0.000601862 1.36747e-05 10.0063 -2.0829 1 1 
22 1.20386 10.0059 -0.000646023 0.000110857 10.0059 -2.05401 1 1 
24 1.20387 10.0055 -0.000695177 -0.000207223 10.0055 -2.03687 1 1 
26 1.20388 10.0049 -0.000742388 -0.000554892 10.0049 -2.0223 1 1 
28 1.20389 10.0042 -0.000801626 -0.000269457 10.0042 -2.00613 1 1 
30 1.2039 10.0037 -0.000863911 -0.000242985 10.0037 -1.98647 1 1 
32 1.20393 10.0028 -0.000936395 -0.000156277 10.0028 -1.93877 1 1 
32 1.20393 10.0028 -0.000936395 -0.000156277 10.0028 -1.93877 1 1 
34 1.20395 10.0019 -0.000984821 0.000107454 10.0019 -1.8977 1 1 
36 1.20396 10.0014 -0.00104273 -7.21843e-05 10.0014 -1.88219 1 1 
38 1.20397 10.0008 -0.00108708 -0.00041822 10.0008 -1.86684 1 1 
40 1.20399 9.99982 -0.00115271 -0.000537115 9.99982 -1.83287 1 1 
42 1.20401 9.99886 -0.00119034 -0.000408124 9.99886 -1.7928 1 1 
44 1.20402 9.99814 -0.00125426 -0.000103007 9.99814 -1.76157 1 1 
46 1.20404 9.99755 -0.00130913 1.76504e-05 9.99755 -1.74274 1 1 
48 1.20404 9.99721 -0.00136303 3.56045e-05 9.99721 -1.73704 1 1 
50 1.20405 9.99689 -0.00142389 6.4113e-05 9.99689 -1.71876 1 1 
52 1.20406 9.99623 -0.00147053 6.37331e-05 9.99623 -1.69208 1 1 
54 1.20407 9.99568 -0.00152784 8.14141e-05 9.99568 -1.67692 1 1 
56 1.20408 9.99538 -0.00156969 6.53377e-05 9.99539 -1.66876 1 1 
58 1.20408 9.99518 -0.00160858 0.000147892 9.99518 -1.66798 1 1 
60 1.20408 9.99495 -0.00163855 0.000212491 9.99495 -1.66246 1 1 
62 1.2041 9.99385 -0.00165916 0.000117528 9.99385 -1.63477 1 1 
64 1.2041 9.99301 -0.001697 -0.000283721 9.99301 -1.63324 1 1 
64 1.2041 9.99301 -0.001697 -0.000283721 9.99301 -1.63324 2 1 
66 1.20409 9.99299 -0.00174339 -0.000337954 9.99299 -1.64674 2 1 
68 1.2041 9.99279 -0.00177795 -0.000204268 9.99279 -1.62713 2 1 
70 1.2041 9.9929 -0.00181708 0.000210311 9.9929 -1.62326 2 1 
72 1.20411 9.9923 -0.00187283 0.000332429 9.9923 -1.61128 2 1 
74 1.20412 9.99139 -0.00191174 0.000188593 9.99139 -1.58756 2 1 
76 1.20412 9.99131 -0.00196037 5.62485e-05 9.99131 -1.59607 2 1 
78 1.20412 9.99112 -0.00201558 -0.000609816 9.99112 -1.597 2 1 
80 1.20412 9.9909 -0.00206993 -0.000838679 9.99091 -1.5872 2 1 
82 1.20413 9.9903 -0.00211363 -0.000711071 9.9903 -1.57277 2 1 
84 1.20414 9.9893 -0.00214376 -0.00096561 9.98931 -1.5585 2 1 
86 1.20413 9.98935 -0.00217478 -0.000542484 9.98935 -1.57611 2 1 
88 1.20413 9.98928 -0.00220202 -0.000659092 9.98928 -1.576 2 1 
90 1.20414 9.98897 -0.00225521 -0.000724192 9.98897 -1.56145 2 1 
92 1.20413 9.98922 -0.0022902 -0.000576839 9.98922 -1.56546 2 1 
94 1.20414 9.98903 -0.00232638 -0.00107256 9.98903 -1.55332 2 1 
96 1.20414 9.98861 -0.00238691 -0.00140707 9.98861 -1.54793 2 1 
96 1.20414 9.98861 -0.00238691 -0.00140707 9.98861 -1.54793 2 1 
98 1.20413 9.98819 -0.00243853 -0.00151394 9.98819 -1.57622 2 1 
100 1.20412 9.98756 -0.00249323 -0.00136576 9.98756 -1.59051 2 1 
102 1.20414 9.98693 -0.00251866 -0.00110359 9.98693 -1.56189 2 1 
104 1.20414 9.98682 -0.00254722 -0.000773412 9.98682 -1.5623 2 1 
106 1.20412 9.98701 -0.00259851 -0.00124223 9.98701 -1.59249 2 1 
108 1.20412 9.9869 -0.00263798 -0.00186532 9.9869 -1.58337 2 1 
110 1.20412 9.98686 -0.00267628 -0.00227791 9.98687 -1.58373 2 1 
112 1.20411 9.98726 -0.00273836 -0.00233231 9.98726 -1.60852 2 1 
114 1.20412 9.98663 -0.00280211 -0.00198669 9.98663 -1.5817 2 1 
116 1.20412 9.9858 -0.00285116 -0.00175209 9.9858 -1.58166 2 1 
118 1.2041 9.98575 -0.0028737 -0.00175842 9.98575 -1.63244 2 1 
120 1.2041 9.98491 -0.00289475 -0.00212135 9.98491 -1.62358 2 1 
122 1.20411 9.98447 -0.00293282 -0.0028058 9.98447 -1.60746 2 1 
124 1.2041 9.98492 -0.00292684 -0.00321584 9.98492 -1.63238 2 1 
126 1.2041 9.98469 -0.00294801 -0.003227 9.98469 -1.62308 2 1 
128 1.20411 9.98442 -0.00302904 -0.0028594 9.98442 -1.61612 2 1 
128 1.20411 9.98442 -0.00302904 -0.0028594 9.98442 -1.61612 10 1 
130 1.20408 9.98497 -0.00309891 -0.00241172 9.98497 -1.6624 10 1 
132 1.20409 9.98416 -0.00310148 -0.00227753 9.98416 -1.64964 10 1 
134 1.2041 9.98289 -0.00309019 -0.00271248 9.98289 -1.63279 10 1 
136 1.20407 9.98329 -0.00313113 -0.003543 9.98329 -1.67556 10 1 
138 1.20408 9.98251 -0.00313812 -0.00394618 9.98251 -1.65495 10 1 
140 1.20408 9.98181 -0.00308583 -0.00409441 9.98181 -1.65511 10 1 
142 1.20406 9.98269 -0.00309357 -0.00355041 9.9827 -1.70198 10 1 
144 1.20408 9.98168 -0.00316451 -0.00351045 9.98168 -1.66288 10 1 
146 1.20408 9.98069 -0.0032401 -0.00366331 9.98069 -1.65604 10 1 
148 1.20405 9.98129 -0.00325081 -0.00413093 9.98129 -1.71383 10 1 
150 1.20407 9.9802 -0.00327294 -0.00482136 9.9802 -1.68594 10 1 
152 1.20407 9.97893 -0.00335281 -0.00449858 9.97893 -1.67799 10 1 
154 1.20404 9.97924 -0.00339286 -0.00412693 9.97925 -1.73881 10 1 
156 1.20406 9.97822 -0.00338066 -0.00447448 9.97822 -1.70028 10 1 
158 1.20407 9.97718 -0.00343374 -0.00479296 9.97718 -1.67112 10 1 
160 1.20404 9.97781 -0.00350223 -0.00535796 9.97781 -1.73258 10 1 
160 1.20404 9.97781 -0.00350223 -0.00535796 9.97781 -1.73258 10 1 
162 1.20405 9.97695 -0.0035481 -0.00584752 9.97695 -1.71484 10 1 
164 1.20407 9.97551 -0.00353982 -0.00567234 9.97551 -1.67765 10 1 
166 1.20405 9.97509 -0.00360114 -0.00593773 9.97509 -1.72074 10 1 
168 1.20404 9.97361 -0.00367345 -0.00554645 9.97361 -1.73361 10 1 
170 1.20406 9.97186 -0.00368194 -0.0056015 9.97187 -1.69708 10 1 
172 1.20405 9.9715 -0.00369713 -0.00607904 9.9715 -1.7131 10 1 
174 1.20404 9.97049 -0.00380264 -0.00633327 9.97049 -1.73051 10 1 
176 1.20407 9.96891 -0.00382904 -0.00723612 9.96891 -1.68765 10 1 
178 1.20407 9.9678 -0.00384065 -0.00748864 9.9678 -1.6735 10 1 
180 1.20406 9.96629 -0.00392599 -0.00729256 9.96629 -1.70506 10 1 
182 1.20406 9.96545 -0.00401207 -0.00705275 9.96546 -1.70377 10 1 
184 1.20408 9.96402 -0.00399333 -0.00704511 9.96403 -1.65712 10 1 
186 1.20409 9.96137 -0.00404847 -0.00641225 9.96137 -1.65104 10 1 
188 1.20407 9.95963 -0.00413935 -0.00628761 9.95964 -1.67721 10 1 
190 1.2041 9.95739 -0.00414503 -0.00706493 9.95739 -1.63245 10 1 
192 1.20412 9.95441 -0.00415257 -0.00864399 9.95441 -1.59769 10 1 
194 1.20409 9.95268 -0.00424375 -0.00904738 9.95268 -1.64441 10 1 
196 1.20412 9.95037 -0.00435034 -0.00895325 9.95037 -1.59742 10 1 
198 1.20417 9.9473 -0.0044042 -0.00853158 9.94731 -1.50801 10 1 
200 1.20414 9.94586 -0.00444291 -0.007166 9.94587 -1.55168 10 1 
202 1.20415 9.9436 -0.00451576 -0.0070839 9.9436 -1.54338 10 1 
204 1.20421 9.93889 -0.00455776 -0.00807906 9.93889 -1.43337 10 1 
206 1.20421 9.93465 -0.00457395 -0.00835534 9.93465 -1.43304 10 1 
208 1.2042 9.93046 -0.00468386 -0.00856417 9.93047 -1.44929 10 1 
210 1.20426 9.92457 -0.00480252 -0.0088555 9.92458 -1.3388 10 1 
212 1.20428 9.92072 -0.0048652 -0.00865354 9.92073 -1.30054 10 1 
214 1.20427 9.91756 -0.00493255 -0.00881557 9.91757 -1.31502 10 1 
216 1.20434 9.91236 -0.00510277 -0.00650574 9.91237 -1.1937 10 1 
218 1.20439 9.90803 -0.0051064 -0.0062262 9.90803 -1.10352 10 1 
220 1.2044 9.90108 -0.00512933 -0.00769652 9.90108 -1.07955 10 1 
222 1.20443 9.8926 -0.005165 -0.00823494 9.89261 -1.02273 10 1 
224 1.20448 9.88543 -0.00534996 -0.0102219 9.88544 -0.9458 10 1 
224 1.20448 9.88543 -0.00534996 -0.0102219 9.88544 -0.9458 10 1 
226 1.20456 9.87497 -0.0055224 -0.00825806 9.87498 -0.80302 10 1 
228 1.20458 9.86701 -0.00565876 -0.00494393 9.86701 -0.76004 10 1 
230 1.20464 9.85938 -0.00568661 -0.00422681 9.85938 -0.657183 10 1 
232 1.20476 9.84696 -0.00569014 -0.00485688 9.84697 -0.430077 10 1 
234 1.20475 9.83788 -0.0058291 -0.00691846 9.83789 -0.445073 10 1 
236 1.20483 9.82662 -0.00606481 -0.00613944 9.82663 -0.315966 10 1 
238 1.20501 9.81117 -0.00620976 -0.00528865 9.81117 0.0198985 10 1 
240 1.20505 9.79772 -0.00623331 -0.00368832 9.79772 0.0815926 10 1 
242 1.2051 9.78097 -0.00632292 -0.000141799 9.78098 0.176757 10 1 
244 1.20527 9.7618 -0.00653228 0.000601563 9.76181 0.485484 10 1 
246 1.20539 9.7432 -0.00667482 0.0011256 9.7432 0.706842 10 1 
248 1.20549 9.72245 -0.00680673 0.00400147 9.72245 0.884975 10 1 
250 1.20568 9.69951 -0.00697481 0.00514314 9.69952 1.22018 10 1 
252 1.20588 9.67317 -0.00708251 0.00857594 9.67319 1.58108 10 1 
254 1.20599 9.6432 -0.00724395 0.0140424 9.64322 1.78896 10 1 
256 1.20617 9.61138 -0.0073475 0.0173911 9.6114 2.1222 10 1 
256 1.20617 9.61138 -0.0073475 0.0173911 9.6114 2.1222 11 1 
258 1.20648 9.57569 -0.00754445 0.0233012 9.57573 2.68048 11 1 
260 1.20673 9.53528 -0.00763346 0.0311447 9.53534 3.12807 11 1 
262 1.20695 9.49128 -0.00775546 0.0373588 9.49137 3.52049 11 1 
264 1.20727 9.44217 -0.00804837 0.0497219 9.44233 4.10112 11 1 
266 1.20768 9.38502 -0.00817074 0.0628344 9.38525 4.84591 11 1 
268 1.20803 9.32238 -0.00825928 0.0786265 9.32275 5.47897 11 1 
270 1.20839 9.25739 -0.00853982 0.103717 9.25801 6.12293 11 1 
272 1.20901 9.17873 -0.00873724 0.131484 9.17974 7.23898 11 1 
274 1.20957 9.08455 -0.00878238 0.161024 9.08609 8.26308 11 1 
276 1.20995 8.98625 -0.00892216 0.1965 8.98852 8.93249 11 1 
278 1.21066 8.87742 -0.0091545 0.243106 8.88086 10.2191 11 1 
280 1.21151 8.76143 -0.00928046 0.307072 8.767 11.7632 11 1 
282 1.21205 8.64539 -0.00939984 0.389005 8.65442 12.728 11 1 
284 1.21276 8.51289 -0.00959884 0.472272 8.52628 14.0229 11 1 
286 1.21368 8.36161 -0.00971043 0.58127 8.38239 15.6721 11 1 
288 1.21417 8.2216 -0.0097506 0.704616 8.25232 16.5586 11 1 
288 1.21417 8.2216 -0.0097506 0.704616 8.25232 16.5586 11 1 
290 1.21491 8.06769 -0.00981967 0.839742 8.11232 17.8909 11 1 
292 1.21594 7.89912 -0.00988688 1.01636 7.9655 19.7622 11 1 
294 1.21599 7.76711 -0.0099122 1.22731 7.8649 19.8447 11 1 
296 1.21462 7.40579 -0.00985597 1.07387 7.48966 17.375 11 1 
298 1.2101 6.62193 -0.00982532 0.288636 6.65632 9.20447 11 1 
300 1.20372 5.75963 -0.00983429 -0.76888 5.85485 -2.3141 11 1 
302 1.19952 5.19258 -0.00983465 -1.58807 5.4475 -9.90081 11 1 
304 1.19723 4.95176 -0.00987552 -1.76913 5.25949 -14.0338 11 1 
306 1.19645 4.79595 -0.00984404 -1.60411 5.05791 -15.4406 11 1 
308 1.19678 4.59979 -0.0097451 -1.39334 4.80815 -14.849 11 1 
310 1.19704 4.43907 -0.00962426 -1.15326 4.58765 -14.3714 11 1 
312 1.19756 4.32154 -0.00953706 -0.998411 4.43593 -13.4411 11 1 
314 1.19806 4.20595 -0.00955078 -0.865617 4.29486 -12.5432 11 1 
316 1.19828 4.07023 -0.00956431 -0.7364 4.13683 -12.1383 11 1 
318 1.19861 3.92593 -0.00961523 -0.639003 3.97802 -11.5413 11 1 
320 1.19897 3.80279 -0.00972442 -0.540576 3.8415 -10.8954 11 1 
320 1.19897 3.80279 -0.00972442 -0.540576 3.8415 -10.8954 15 1 
322 1.19927 3.69524 -0.00979884 -0.454171 3.72335 -10.3468 15 1 
324 1.19959 3.58144 -0.00985275 -0.394925 3.60348 -9.77796 15 1 
326 1.19984 3.45995 -0.00984066 -0.343908 3.47731 -9.32695 15 1 
328 1.20002 3.34258 -0.00965331 -0.296866 3.35598 -8.99741 15 1 
330 1.20025 3.24027 -0.00947539 -0.259568 3.25081 -8.5845 15 1 
332 1.20048 3.15122 -0.00951611 -0.23014 3.15979 -8.16522 15 1 
334 1.20065 3.06127 -0.00957463 -0.206795 3.06845 -7.86205 15 1 
336 1.20079 2.96677 -0.00942784 -0.188528 2.97295 -7.61151 15 1 
338 1.20094 2.87622 -0.00920323 -0.169139 2.88132 -7.33271 15 1 
340 1.2011 2.79569 -0.00910533 -0.150639 2.79986 -7.05025 15 1 
342 1.20122 2.72251 -0.0091586 -0.135738 2.72603 -6.83254 15 1 
344 1.20133 2.64932 -0.00928802 -0.123966 2.65237 -6.63286 15 1 
346 1.20145 2.57457 -0.00942495 -0.112244 2.57714 -6.40952 15 1 
348 1.20156 2.50221 -0.00952708 -0.0999013 2.50431 -6.21332 15 1 
350 1.20165 2.43485 -0.0096187 -0.087885 2.43654 -6.04837 15 1 
352 1.20175 2.37198 -0.00973222 -0.0777422 2.37337 -5.87679 15 1 
354 1.20185 2.31069 -0.00985525 -0.0686645 2.31183 -5.69717 15 1 
356 1.20193 2.24909 -0.00994851 -0.0592515 2.24998 -5.53775 15 1 
358 1.20201 2.18916 -0.010017 -0.0494369 2.18982 -5.39896 15 1 
360 1.20209 2.13367 -0.0101063 -0.0407776 2.13416 -5.24866 15 1 
362 1.20218 2.08182 -0.0102057 -0.0335928 2.0822 -5.10108 15 1 
364 1.20225 2.03116 -0.0102737 -0.0276277 2.03145 -4.97268 15 1 
366 1.20232 1.98155 -0.0103118 -0.0218605 1.98177 -4.83489 15 1 
368 1.2024 1.93392 -0.0103558 -0.016392 1.93408 -4.69608 15 1 
370 1.20246 1.88913 -0.0104039 -0.0117798 1.88926 -4.58028 15 1 
372 1.20252 1.84783 -0.0104357 -0.00788276 1.84793 -4.47175 15 1 
374 1.20259 1.80938 -0.0104725 -0.00380102 1.80948 -4.35304 15 1 
376 1.20266 1.77285 -0.0105445 0.00124419 1.77294 -4.23229 15 1 
378 1.20271 1.73814 -0.0106541 0.00758351 1.73824 -4.12807 15 1 
380 1.20277 1.70577 -0.0107874 0.0145818 1.70592 -4.02966 15 1 
382 1.20283 1.67601 -0.0109525 0.0222226 1.67625 -3.91783 15 1 
384 1.20289 1.64772 -0.0111544 0.0306799 1.6481 -3.80497 15 1 
384 1.20289 1.64772 -0.0111544 0.0306799 1.6481 -3.80497 16 1 
386 1.20295 1.61963 -0.0113722 0.0395586 1.62022 -3.70075 16 1 
388 1.20301 1.59215 -0.0115939 0.0482371 1.59299 -3.59676 16 1 
390 1.20307 1.56598 -0.0118167 0.0563855 1.56712 -3.48829 16 1 
392 1.20313 1.54058 -0.0120491 0.0640356 1.54206 -3.38129 16 1 
394 1.20319 1.51514 -0.0123082 0.0712234 1.51698 -3.27796 16 1 
396 1.20325 1.49001 -0.0126175 0.0780217 1.49222 -3.16763 16 1 
398 1.20331 1.46585 -0.0130022 0.0848419 1.4685 -3.05704 16 1 
400 1.20336 1.44305 -0.0134829 0.0918379 1.44618 -2.95785 16 1 
402 1.20342 1.42241 -0.0140645 0.098983 1.42609 -2.85609 16 1 
404 1.20348 1.40443 -0.0147211 0.10626 1.40871 -2.74602 16 1 
406 1.20354 1.38901 -0.015427 0.113647 1.39395 -2.6378 16 1 
408 1.2036 1.37619 -0.0161494 0.1212 1.38185 -2.53405 16 1 
410 1.20365 1.36595 -0.0168307 0.128857 1.37238 -2.4302 16 1 
412 1.20371 1.35772 -0.0174069 0.13651 1.36496 -2.32325 16 1 
414 1.20377 1.35047 -0.0178208 0.144203 1.35858 -2.21723 16 1 
416 1.20383 1.34307 -0.0180051 0.151846 1.35207 -2.11127 16 1 
416 1.20383 1.34307 -0.0180051 0.151846 1.35207 -2.11127 16 1 
418 1.20389 1.33439 -0.0178756 0.159183 1.34431 -2.0018 16 1 
420 1.20395 1.32306 -0.0173689 0.165711 1.33386 -1.89487 16 1 
422 1.20401 1.30761 -0.0164801 0.17057 1.31914 -1.79354 16 1 
424 1.20406 1.28721 -0.015252 0.172741 1.29919 -1.69325 16 1 
426 1.20412 1.26212 -0.0137867 0.171172 1.27408 -1.58945 16 1 
428 1.20418 1.23361 -0.0122687 0.164781 1.24493 -1.48519 16 1 
430 1.20423 1.20418 -0.0109258 0.15249 1.21412 -1.38636 16 1 
432 1.20429 1.17771 -0.00995762 0.133686 1.18556 -1.28976 16 1 
434 1.20434 1.1582 -0.00951711 0.108789 1.16361 -1.19621 16 1 
436 1.20438 1.14862 -0.00970439 0.0791301 1.15175 -1.11104 16 1 
438 1.20443 1.15082 -0.0105322 0.0465135 1.15228 -1.02949 16 1 
440 1.20448 1.16526 -0.0119211 0.0129161 1.16594 -0.946795 16 1 
442 1.20452 1.19116 -0.0137067 -0.0198489 1.19198 -0.863342 16 1 
444 1.20457 1.22704 -0.0157273 -0.0502653 1.22872 -0.780551 16 1 
446 1.20461 1.27108 -0.017847 -0.0773772 1.27405 -0.699611 16 1 
448 1.20466 1.32147 -0.0199569 -0.100827 1.3259 -0.620013 16 1 
448 1.20466 1.32147 -0.0199569 -0.100827 1.3259 -0.620013 17 1 
450 1.2047 1.37676 -0.0219961 -0.120687 1.38262 -0.541504 17 1 
452 1.20474 1.43596 -0.0239475 -0.137196 1.44308 -0.460876 17 1 
454 1.20479 1.49836 -0.0257929 -0.150648 1.50651 -0.376791 17 1 
456 1.20484 1.56328 -0.0275145 -0.161365 1.57221 -0.295165 17 1 
458 1.20488 1.63014 -0.0291016 -0.16964 1.6396 -0.220228 17 1 
460 1.20492 1.69862 -0.0305544 -0.175796 1.70838 -0.150948 17 1 
462 1.20495 1.76865 -0.031888 -0.18015 1.77851 -0.0820232 17 1 
464 1.20499 1.84019 -0.033121 -0.182894 1.85 -0.00996974 17 1 
466 1.20503 1.91296 -0.0342753 -0.184144 1.92256 0.0616956 17 1 
468 1.20507 1.98665 -0.0353728 -0.184103 1.99594 0.128347 17 1 
470 1.2051 2.06115 -0.0364185 -0.182994 2.07006 0.186873 17 1 
472 1.20513 2.13639 -0.0374052 -0.181025 2.14486 0.237453 17 1 
474 1.20516 2.21236 -0.0383336 -0.178296 2.22037 0.28642 17 1 
476 1.20519 2.28906 -0.0392285 -0.17486 2.29658 0.338642 17 1 
478 1.20522 2.36631 -0.0401022 -0.170833 2.37332 0.391042 17 1 
480 1.20524 2.44386 -0.0409562 -0.166352 2.45038 0.436838 17 1 
480 1.20524 2.44386 -0.0409562 -0.166352 2.45038 0.436838 17 1 
482 1.20526 2.52163 -0.0418093 -0.161535 2.52768 0.47295 17 1 
484 1.20528 2.59975 -0.0426674 -0.156495 2.60534 0.503089 17 1 
486 1.20529 2.67819 -0.0435216 -0.151279 2.68336 0.5327 17 1 
488 1.20531 2.7568 -0.0443677 -0.145945 2.76157 0.56273 17 1 
490 1.20533 2.8355 -0.0452228 -0.140588 2.83991 0.592374 17 1 
492 1.20534 2.91427 -0.0460976 -0.13533 2.91835 0.619054 17 1 
494 1.20535 2.99308 -0.0469941 -0.130281 2.99688 0.639256 17 1 
496 1.20536 3.07193 -0.0479086 -0.125468 3.07547 0.654592 17 1 
498 1.20537 3.15076 -0.0488434 -0.120898 3.15408 0.668166 17 1 
500 1.20538 3.22953 -0.0497937 -0.116644 3.23266 0.681385 17 1 
502 1.20538 3.3082 -0.0507558 -0.112788 3.31117 0.692705 17 1 
504 1.20539 3.38681 -0.0517431 -0.109388 3.38964 0.69966 17 1 
506 1.20539 3.46534 -0.0527565 -0.106459 3.46807 0.705333 17 1 
508 1.20539 3.54374 -0.0537928 -0.104056 3.54639 0.710813 17 1 
510 1.2054 3.62199 -0.0548409 -0.102246 3.62459 0.715863 17 1 
512 1.2054 3.70013 -0.0558964 -0.101032 3.7027 0.722161 17 1 
512 1.2054 3.70013 -0.0558964 -0.101032 3.7027 0.722161 25 1 
514 1.2054 3.77811 -0.0569556 -0.100371 3.78066 0.725622 25 1 
516 1.2054 3.85585 -0.0580134 -0.100249 3.8584 0.723398 25 1 
518 1.2054 3.93328 -0.0590753 -0.100692 3.93586 0.715829 25 1 
520 1.20539 4.01041 -0.0601381 -0.101719 4.01302 0.706681 25 1 
522 1.20539 4.08732 -0.0611974 -0.103328 4.08999 0.703459 25 1 
524 1.20539 4.16414 -0.0622469 -0.105527 4.16688 0.70644 25 1 
526 1.20539 4.24079 -0.0632745 -0.108255 4.2436 0.711776 25 1 
528 1.20539 4.31694 -0.064264 -0.111427 4.31985 0.712132 25 1 
530 1.20539 4.39245 -0.0652132 -0.114992 4.39546 0.701175 25 1 
532 1.20538 4.46742 -0.0661188 -0.118921 4.47054 0.682816 25 1 
534 1.20537 4.54199 -0.0669929 -0.123214 4.54523 0.664494 25 1 
536 1.20536 4.61626 -0.0678384 -0.127836 4.61962 0.655896 25 1 
538 1.20536 4.69012 -0.0686409 -0.132713 4.69362 0.658806 25 1 
540 1.20537 4.76347 -0.0693911 -0.137778 4.76711 0.665024 25 1 
542 1.20537 4.83613 -0.0700784 -0.142967 4.83992 0.667033 25 1 
544 1.20536 4.90798 -0.070687 -0.148218 4.91191 0.657009 25 1 
544 1.20536 4.90798 -0.070687 -0.148218 4.91191 0.657009 25 1 
546 1.20535 4.97896 -0.0712212 -0.153456 4.98303 0.636476 25 1 
548 1.20534 5.04913 -0.0716952 -0.158643 5.05334 0.612798 25 1 
550 1.20533 5.11865 -0.0721135 -0.16377 5.123 0.59424 25 1 
552 1.20533 5.18756 -0.0724777 -0.168804 5.19205 0.589258 25 1 
554 1.20533 5.25582 -0.0727876 -0.173668 5.26043 0.593621 25 1 
556 1.20533 5.32325 -0.0730275 -0.178301 5.32797 0.599249 25 1 
558 1.20533 5.38963 -0.0731819 -0.182641 5.39445 0.597222 25 1 
560 1.20532 5.45485 -0.0732458 -0.186613 5.45976 0.582609 25 1 
562 1.20531 5.51889 -0.0732179 -0.190226 5.52387 0.561591 25 1 
564 1.2053 5.5819 -0.0731164 -0.193505 5.58694 0.537722 25 1 
566 1.20529 5.64396 -0.0729482 -0.196431 5.64904 0.519464 25 1 
568 1.20528 5.70506 -0.0727085 -0.198978 5.71017 0.512276 25 1 
570 1.20528 5.76517 -0.0723971 -0.20108 5.77029 0.510377 25 1 
572 1.20528 5.82415 -0.0720023 -0.202723 5.82925 0.509531 25 1 
574 1.20528 5.88194 -0.0715118 -0.203921 5.88701 0.503173 25 1 
576 1.20527 5.9385 -0.0709302 -0.204661 5.94352 0.490972 25 1 
576 1.20527 5.9385 -0.0709302 -0.204661 5.94352 0.490972 26 1 
578 1.20526 5.99389 -0.0702739 -0.204949 5.99884 0.47362 26 1 
580 1.20525 6.04817 -0.0695448 -0.204774 6.05304 0.45195 26 1 
582 1.20524 6.10141 -0.0687465 -0.204208 6.10618 0.432722 26 1 
584 1.20523 6.15377 -0.0678933 -0.203274 6.15842 0.416278 26 1 
586 1.20522 6.20532 -0.066991 -0.201938 6.20985 0.405789 26 1 
588 1.20522 6.25609 -0.0660346 -0.200214 6.26049 0.400024 26 1 
590 1.20522 6.30611 -0.0650241 -0.198092 6.31036 0.392097 26 1 
592 1.20521 6.35533 -0.0639609 -0.195626 6.35942 0.380998 26 1 
594 1.2052 6.40386 -0.0628448 -0.192846 6.40779 0.364736 26 1 
596 1.20519 6.4519 -0.0616841 -0.189771 6.45567 0.346713 26 1 
598 1.20518 6.49964 -0.0604947 -0.186407 6.50323 0.328963 26 1 
600 1.20517 6.54712 -0.0593003 -0.182751 6.55054 0.312231 26 1 
602 1.20516 6.59446 -0.0581025 -0.178832 6.59769 0.298085 26 1 
604 1.20516 6.64187 -0.0569073 -0.174632 6.64493 0.283373 26 1 
606 1.20515 6.68949 -0.0557329 -0.170138 6.69236 0.270388 26 1 
608 1.20514 6.73747 -0.0545898 -0.1653 6.74016 0.258161 26 1 
608 1.20514 6.73747 -0.0545898 -0.1653 6.74016 0.258161 26 1 
610 1.20514 6.78591 -0.0534923 -0.160093 6.78843 0.245819 26 1 
612 1.20513 6.83496 -0.0524637 -0.154504 6.8373 0.23513 26 1 
614 1.20512 6.88487 -0.0515329 -0.148468 6.88703 0.222062 26 1 
616 1.20512 6.93585 -0.0507119 -0.141943 6.93783 0.209103 26 1 
618 1.20511 6.98804 -0.0500273 -0.134796 6.98985 0.19813 26 1 
620 1.2051 7.04164 -0.0495121 -0.126913 7.04327 0.184916 26 1 
622 1.2051 7.09683 -0.0491637 -0.118217 7.09829 0.171803 26 1 
624 1.20509 7.15374 -0.0489937 -0.108576 7.15504 0.162049 26 1 
626 1.20509 7.21258 -0.049027 -0.0979088 7.21372 0.155913 26 1 
628 1.20508 7.27332 -0.0492642 -0.0861047 7.27431 0.150735 26 1 
630 1.20508 7.33577 -0.0496865 -0.073104 7.33663 0.144715 26 1 
632 1.20508 7.39968 -0.0503007 -0.058937 7.40043 0.139889 26 1 
634 1.20507 7.46482 -0.0510961 -0.0436499 7.46549 0.131501 26 1 
636 1.20507 7.53078 -0.0520419 -0.0273366 7.5314 0.122165 26 1 
638 1.20506 7.59701 -0.0531366 -0.0101337 7.59762 0.114821 26 1 
640 1.20506 7.66306 -0.0543471 0.0077384 7.66372 0.106514 26 1 
642 1.20506 7.72834 -0.0556621 0.0260007 7.72909 0.101308 26 1 
644 1.20505 7.79256 -0.0570537 0.0443726 7.79345 0.0941949 26 1 
646 1.20505 7.8554 -0.0585138 0.0624925 7.85648 0.087689 26 1 
648 1.20505 7.91664 -0.0600276 0.0800157 7.91794 0.0817279 26 1 
650 1.20504 7.97621 -0.0615464 0.0966844 7.97776 0.0732703 26 1 
652 1.20504 8.03415 -0.0630705 0.112181 8.03597 0.0658299 26 1 
654 1.20503 8.09082 -0.0645663 0.126268 8.09291 0.0576011 26 1 
656 1.20503 8.14613 -0.0659907 0.138725 8.14849 0.0572741 26 1 
658 1.20503 8.20035 -0.0672936 0.149389 8.20296 0.0572192 26 1 
660 1.20503 8.25336 -0.0684588 0.158204 8.25618 0.0592771 26 1 
662 1.20504 8.30508 -0.0694303 0.165151 8.30808 0.0641338 26 1 
664 1.20504 8.35569 -0.0701808 0.170291 8.35883 0.0641264 26 1 
666 1.20504 8.40496 -0.0707385 0.173671 8.40819 0.0681429 26 1 
668 1.20504 8.45316 -0.0710963 0.1755 8.45643 0.071178 26 1 
670 1.20504 8.49991 -0.0712577 0.175948 8.50318 0.0802993 26 1 
672 1.20505 8.5454 -0.0712376 0.175192 8.54865 0.087151 26 1 
672 1.20505 8.5454 -0.0712376 0.175192 8.54865 0.087151 27 1 
674 1.20505 8.58959 -0.0710567 0.173385 8.59278 0.0943836 27 1 
676 1.20506 8.63241 -0.0707508 0.170591 8.63552 0.101224 27 1 
678 1.20506 8.67423 -0.0703448 0.167053 8.67724 0.101522 27 1 
680 1.20506 8.71474 -0.0698796 0.162896 8.71763 0.113496 27 1 
682 1.20507 8.75448 -0.0693215 0.158345 8.75724 0.123242 27 1 
684 1.20508 8.79314 -0.0686584 0.153507 8.79577 0.13678 27 1 
686 1.20508 8.83099 -0.0679537 0.148395 8.83349 0.145885 27 1 
688 1.20509 8.86804 -0.0671761 0.143212 8.87041 0.156195 27 1 
690 1.20509 8.90426 -0.0663916 0.138003 8.9065 0.16779 27 1 
692 1.20509 8.9401 -0.0655722 0.133032 8.94222 0.170542 27 1 
694 1.2051 8.97503 -0.0647248 0.128456 8.97703 0.188575 27 1 
696 1.20511 9.00959 -0.0638299 0.124244 9.01149 0.196807 27 1 
698 1.20511 9.04355 -0.0629027 0.120509 9.04535 0.207097 27 1 
700 1.20512 9.07714 -0.0620008 0.117043 9.07884 0.219315 27 1 
702 1.20513 9.1106 -0.0610707 0.113913 9.11221 0.227707 27 1 
704 1.20513 9.1436 -0.060126 0.111387 9.14514 0.243654 27 1 
704 1.20513 9.1436 -0.060126 0.111387 9.14514 0.243654 31 1 
706 1.20514 9.17639 -0.0591191 0.109674 9.17786 0.251739 31 1 
708 1.20515 9.20864 -0.058052 0.108861 9.21005 0.268848 31 1 
710 1.20515 9.24089 -0.0570017 0.108791 9.24226 0.279916 31 1 
712 1.20516 9.27329 -0.0559973 0.109476 9.27462 0.287062 31 1 
714 1.20517 9.30551 -0.0550123 0.111017 9.30683 0.306528 31 1 
716 1.20518 9.33777 -0.0539719 0.113761 9.33908 0.316887 31 1 
718 1.20518 9.36985 -0.0528978 0.117452 9.37117 0.332891 31 1 
720 1.20519 9.40207 -0.051854 0.121893 9.40341 0.347042 31 1 
722 1.2052 9.43443 -0.0508441 0.127146 9.43579 0.359515 31 1 
724 1.20521 9.46675 -0.0498852 0.133141 9.46817 0.376114 31 1 
726 1.20521 9.49914 -0.0489131 0.140232 9.50063 0.380179 31 1 
728 1.20523 9.53094 -0.0479354 0.148142 9.53252 0.407326 31 1 
730 1.20524 9.56276 -0.0469645 0.156429 9.56444 0.425757 31 1 
732 1.20524 9.59445 -0.0460106 0.165105 9.59625 0.430658 31 1 
734 1.20525 9.62498 -0.0450558 0.174182 9.62691 0.450922 31 1 
736 1.20525 9.65429 -0.0440671 0.183389 9.65637 0.458155 31 1 
738 1.20525 9.68254 -0.0430746 0.192427 9.68476 0.458155 31 1 
740 1.20526 9.70914 -0.0421019 0.201048 9.71152 0.469121 31 1 
742 1.20527 9.73373 -0.0411109 0.208773 9.73625 0.494129 31 1 
744 1.20527 9.75679 -0.0400858 0.21536 9.75943 0.490276 31 1 
746 1.20527 9.77701 -0.0389937 0.220819 9.77975 0.485607 31 1 
748 1.20528 9.79389 -0.0378068 0.224438 9.79669 0.505905 31 1 
750 1.20527 9.80868 -0.0365759 0.225781 9.81149 0.486659 31 1 
752 1.20527 9.82067 -0.0353514 0.224681 9.82343 0.481606 31 1 
752 1.20527 9.82067 -0.0353514 0.224681 9.82343 0.481606 31 1 
754 1.20528 9.82953 -0.0341455 0.220992 9.83219 0.507599 31 1 
756 1.20527 9.8365 -0.0329463 0.214535 9.839 0.49119 31 1 
758 1.20526 9.8415 -0.0318788 0.20566 9.8438 0.47227 31 1 
760 1.20527 9.84436 -0.0308366 0.194677 9.84642 0.485002 31 1 
762 1.20527 9.84597 -0.029769 0.181701 9.84777 0.484047 31 1 
764 1.20525 9.84734 -0.0287763 0.1678 9.84888 0.453038 31 1 
766 1.20526 9.84736 -0.027893 0.153073 9.84864 0.463803 31 1 
768 1.20526 9.84701 -0.0269634 0.137551 9.84806 0.478318 31 1 
770 1.20524 9.84713 -0.0260262 0.121716 9.84796 0.440729 31 1 
772 1.20524 9.84657 -0.025192 0.105344 9.8472 0.436101 31 1 
774 1.20525 9.84704 -0.0244469 0.0885396 9.8475 0.447636 31 1 
776 1.20524 9.84871 -0.0237017 0.0715522 9.84902 0.440477 31 1 
778 1.20525 9.85074 -0.0229329 0.0544986 9.85094 0.443911 31 1 
780 1.20524 9.85404 -0.0222434 0.0378873 9.85415 0.437592 31 1 
782 1.20524 9.85886 -0.0215679 0.0222701 9.85892 0.437322 31 1 
784 1.20525 9.8643 -0.0207241 0.00872907 9.86433 0.457306 31 1 
786 1.20525 9.87053 -0.0198219 -0.00197945 9.87055 0.45417 31 1 
788 1.20526 9.87777 -0.0190249 -0.00985354 9.8778 0.462208 31 1 
790 1.20527 9.88521 -0.0182764 -0.0145436 9.88524 0.495788 31 1 
792 1.20528 9.89266 -0.0175632 -0.0157748 9.89268 0.508392 31 1 
794 1.20528 9.90029 -0.0169701 -0.0152293 9.90032 0.513692 31 1 
796 1.20531 9.90707 -0.016504 -0.0139013 9.90709 0.559472 31 1 
798 1.20534 9.91224 -0.0160545 -0.0121618 9.91226 0.617932 31 1 
800 1.20535 9.91453 -0.0158591 -0.0114251 9.91455 0.637266 31 1 
