62.4897;r ;Density                 ;Velocity u              ;Velocity v              ;Velocity w              ;|Velocity|              ;Pressure                ;Distribution            ;Levels                  ;
0 1.20334 10.0009 -1.86313e-05 -0.00107763 10.0009 -2.98951 1 1 
2 1.20334 10.0006 -4.77297e-05 -0.000137734 10.0006 -2.99635 1 1 
4 1.20334 10.0003 -0.000122599 -0.000108585 10.0003 -3.00233 1 1 
6 1.20334 10.0005 -0.00019564 -0.000295546 10.0005 -2.99348 1 1 
8 1.20335 10.0004 -0.000232743 -0.000268782 10.0004 -2.97821 1 1 
10 1.20335 10.0001 -0.000283238 -0.00046504 10.0001 -2.98608 1 1 
12 1.20334 9.99946 -0.00032932 -0.00065864 9.99946 -2.99116 1 1 
14 1.20335 9.99911 -0.000407433 -0.000594549 9.99911 -2.97331 1 1 
16 1.20336 9.9992 -0.000467768 -0.000578432 9.9992 -2.96594 1 1 
18 1.20336 9.99895 -0.000525438 -0.000523642 9.99895 -2.96913 1 1 
20 1.20336 9.9985 -0.000571403 -0.000445179 9.9985 -2.964 1 1 
22 1.20337 9.99819 -0.000624194 -0.000522637 9.99819 -2.94746 1 1 
24 1.20337 9.998 -0.000675741 -0.00107262 9.998 -2.94593 1 1 
26 1.20337 9.99749 -0.000713247 -0.00140569 9.99749 -2.94454 1 1 
28 1.20337 9.99697 -0.00076767 -0.00120085 9.99697 -2.93518 1 1 
30 1.20338 9.9968 -0.000829701 -0.00138848 9.9968 -2.9337 1 1 
32 1.20338 9.99649 -0.000895003 -0.00150386 9.99649 -2.92402 1 1 
32 1.20338 9.99649 -0.000895003 -0.00150386 9.99649 -2.92402 1 1 
34 1.20339 9.9962 -0.000928554 -0.00144243 9.9962 -2.91392 1 1 
36 1.20339 9.99611 -0.000974795 -0.00164068 9.99611 -2.90838 1 1 
38 1.2034 9.99593 -0.00100965 -0.00204112 9.99593 -2.89839 1 1 
40 1.2034 9.99564 -0.00107835 -0.00225876 9.99564 -2.88995 1 1 
42 1.2034 9.99531 -0.0011222 -0.00232842 9.99531 -2.88349 1 1 
44 1.20341 9.99503 -0.00118446 -0.00224872 9.99503 -2.87514 1 1 
46 1.20341 9.99471 -0.00123106 -0.00212893 9.99471 -2.8651 1 1 
48 1.20342 9.99457 -0.00128878 -0.00229584 9.99457 -2.85878 1 1 
50 1.20342 9.99448 -0.0013476 -0.00253013 9.99448 -2.85022 1 1 
52 1.20343 9.99426 -0.00138506 -0.00275384 9.99426 -2.83956 1 1 
54 1.20343 9.99404 -0.00144621 -0.00288431 9.99404 -2.82999 1 1 
56 1.20344 9.99379 -0.00150269 -0.00297527 9.99379 -2.81324 1 1 
58 1.20345 9.99365 -0.00155318 -0.00305782 9.99365 -2.80401 1 1 
60 1.20345 9.99358 -0.00160502 -0.00307049 9.99358 -2.80301 1 1 
62 1.20346 9.99269 -0.00165234 -0.00348843 9.99269 -2.7806 1 1 
64 1.20346 9.99191 -0.00170464 -0.00410785 9.99191 -2.77747 1 1 
64 1.20346 9.99191 -0.00170464 -0.00410785 9.99191 -2.77747 2 1 
66 1.20346 9.99187 -0.0017634 -0.00421323 9.99187 -2.77742 2 1 
68 1.20348 9.99176 -0.00182256 -0.00426863 9.99176 -2.74233 2 1 
70 1.20348 9.99203 -0.00188009 -0.00404038 9.99203 -2.73941 2 1 
72 1.20349 9.99162 -0.0019319 -0.0041127 9.99162 -2.73486 2 1 
74 1.2035 9.99075 -0.00196569 -0.00439229 9.99076 -2.71034 2 1 
76 1.2035 9.99055 -0.00202361 -0.00459764 9.99056 -2.70107 2 1 
78 1.20351 9.99028 -0.00208183 -0.00532894 9.99028 -2.68482 2 1 
80 1.20352 9.99019 -0.00213561 -0.00567836 9.99019 -2.67437 2 1 
82 1.20353 9.98982 -0.00219186 -0.00580833 9.98983 -2.66188 2 1 
84 1.20354 9.98881 -0.00223568 -0.00613724 9.98881 -2.63998 2 1 
86 1.20354 9.98864 -0.00227051 -0.0057101 9.98864 -2.6369 2 1 
88 1.20355 9.98841 -0.00230623 -0.00597418 9.98841 -2.61773 2 1 
90 1.20356 9.98807 -0.00236725 -0.006175 9.98807 -2.59661 2 1 
92 1.20356 9.98837 -0.0024092 -0.00618699 9.98837 -2.59697 2 1 
94 1.20358 9.98807 -0.00245403 -0.00676324 9.98808 -2.5717 2 1 
96 1.20359 9.98743 -0.0025221 -0.00706645 9.98743 -2.53779 2 1 
96 1.20359 9.98743 -0.0025221 -0.00706645 9.98743 -2.53779 2 1 
98 1.20359 9.9868 -0.00257186 -0.00714797 9.9868 -2.53829 2 1 
100 1.20359 9.98598 -0.00262938 -0.00714732 9.98598 -2.5399 2 1 
102 1.20361 9.98528 -0.00266822 -0.00707422 9.98528 -2.50375 2 1 
104 1.20362 9.98504 -0.00271916 -0.00682604 9.98504 -2.48753 2 1 
106 1.20362 9.9849 -0.00278704 -0.00727735 9.9849 -2.48871 2 1 
108 1.20364 9.98445 -0.00284647 -0.00794732 9.98445 -2.45063 2 1 
110 1.20365 9.98425 -0.00291961 -0.00840794 9.98426 -2.43018 2 1 
112 1.20365 9.98456 -0.00300091 -0.00849799 9.98456 -2.44026 2 1 
114 1.20367 9.98372 -0.00307131 -0.008164 9.98372 -2.39633 2 1 
116 1.20369 9.98261 -0.00314112 -0.00786329 9.98262 -2.36623 2 1 
118 1.20368 9.98234 -0.00320966 -0.00796417 9.98234 -2.38309 2 1 
120 1.2037 9.9813 -0.00325994 -0.00843453 9.98131 -2.34982 2 1 
122 1.20372 9.98064 -0.00335386 -0.00907809 9.98064 -2.31734 2 1 
124 1.20371 9.98085 -0.0034579 -0.00953899 9.98086 -2.323 2 1 
126 1.20374 9.98035 -0.00356855 -0.00966106 9.98036 -2.28343 2 1 
128 1.20376 9.9797 -0.00363708 -0.00920954 9.97971 -2.24307 2 1 
128 1.20376 9.9797 -0.00363708 -0.00920954 9.97971 -2.24307 10 1 
130 1.20375 9.9799 -0.00365536 -0.00858258 9.9799 -2.2617 10 1 
132 1.20377 9.97891 -0.00365636 -0.00845812 9.97892 -2.22679 10 1 
134 1.20379 9.97753 -0.00365248 -0.00894922 9.97753 -2.18458 10 1 
136 1.20379 9.97765 -0.00367391 -0.00962655 9.97765 -2.19415 10 1 
138 1.20381 9.97649 -0.00371224 -0.0099727 9.9765 -2.14075 10 1 
140 1.20383 9.9754 -0.00375782 -0.0100833 9.97541 -2.11288 10 1 
142 1.20382 9.97593 -0.00381594 -0.00945644 9.97594 -2.1342 10 1 
144 1.20386 9.9746 -0.00385708 -0.00935693 9.97461 -2.06779 10 1 
146 1.20388 9.97327 -0.00390816 -0.00936143 9.97328 -2.0286 10 1 
148 1.20386 9.97353 -0.00394982 -0.00958872 9.97353 -2.05065 10 1 
150 1.2039 9.97212 -0.00399746 -0.0100862 9.97213 -1.98799 10 1 
152 1.20392 9.97057 -0.0040629 -0.00983122 9.97057 -1.94965 10 1 
154 1.2039 9.97062 -0.00410138 -0.00929584 9.97062 -1.97987 10 1 
156 1.20394 9.96922 -0.00414215 -0.00921728 9.96922 -1.90692 10 1 
158 1.20398 9.96765 -0.00422717 -0.00944472 9.96766 -1.84363 10 1 
160 1.20396 9.96781 -0.00427562 -0.00991434 9.96782 -1.8719 10 1 
160 1.20396 9.96781 -0.00427562 -0.00991434 9.96782 -1.8719 10 1 
162 1.20399 9.96657 -0.00431948 -0.0100333 9.96658 -1.82281 10 1 
164 1.20403 9.96474 -0.00434186 -0.00963068 9.96475 -1.75334 10 1 
166 1.20403 9.96395 -0.00438369 -0.00986955 9.96395 -1.76112 10 1 
168 1.20404 9.96212 -0.00442315 -0.00913908 9.96213 -1.73659 10 1 
170 1.20408 9.96009 -0.00446148 -0.00871978 9.9601 -1.66154 10 1 
172 1.20409 9.95935 -0.00449648 -0.0091827 9.95936 -1.64256 10 1 
174 1.2041 9.9579 -0.00455597 -0.00931471 9.9579 -1.62527 10 1 
176 1.20414 9.95589 -0.0045783 -0.0096626 9.95589 -1.54813 10 1 
178 1.20417 9.95426 -0.0046214 -0.00973267 9.95426 -1.50046 10 1 
180 1.20417 9.9522 -0.00467227 -0.00953058 9.9522 -1.49587 10 1 
182 1.20419 9.95091 -0.00472666 -0.00893774 9.95092 -1.45823 10 1 
184 1.20424 9.94913 -0.00474215 -0.00858159 9.94914 -1.37405 10 1 
186 1.20426 9.94606 -0.00478996 -0.00800769 9.94606 -1.33114 10 1 
188 1.20427 9.94386 -0.00481477 -0.00767281 9.94386 -1.32074 10 1 
190 1.20431 9.94125 -0.00483284 -0.00792334 9.94126 -1.23751 10 1 
192 1.20435 9.93791 -0.00486426 -0.00943567 9.93791 -1.166 10 1 
194 1.20435 9.93573 -0.004885 -0.00982161 9.93574 -1.17619 10 1 
196 1.20439 9.93299 -0.004953 -0.00927362 9.93299 -1.09363 10 1 
198 1.20446 9.92958 -0.00505417 -0.00860637 9.92959 -0.967024 10 1 
200 1.20446 9.92774 -0.00505376 -0.00724418 9.92774 -0.971868 10 1 
202 1.20449 9.9249 -0.00501625 -0.006827 9.9249 -0.926704 10 1 
204 1.20457 9.91963 -0.00505404 -0.00737097 9.91963 -0.77933 10 1 
206 1.20459 9.91478 -0.00509321 -0.0076471 9.91478 -0.74237 10 1 
208 1.2046 9.90996 -0.00510672 -0.00777533 9.90997 -0.720034 10 1 
210 1.20468 9.90359 -0.00515962 -0.00760457 9.90359 -0.571568 10 1 
212 1.20473 9.89931 -0.00527867 -0.00724934 9.89931 -0.496294 10 1 
214 1.20474 9.89558 -0.00534179 -0.00746564 9.89559 -0.470777 10 1 
216 1.20483 9.8898 -0.00540418 -0.00484453 9.8898 -0.312195 10 1 
218 1.2049 9.88498 -0.00537957 -0.00417679 9.88499 -0.185203 10 1 
220 1.20493 9.87748 -0.00543551 -0.005538 9.87748 -0.12407 10 1 
222 1.20498 9.86839 -0.00540933 -0.00589203 9.86839 -0.0303686 10 1 
224 1.20505 9.86073 -0.00549916 -0.00743644 9.86073 0.0843003 10 1 
224 1.20505 9.86073 -0.00549916 -0.00743644 9.86073 0.0843003 10 1 
226 1.20515 9.84987 -0.00566345 -0.00523023 9.84988 0.264188 10 1 
228 1.20519 9.84139 -0.0058018 -0.00183712 9.84139 0.346936 10 1 
230 1.20527 9.83308 -0.00575902 -0.000830596 9.83308 0.488459 10 1 
232 1.20542 9.82007 -0.00570394 -0.00101623 9.82007 0.752871 10 1 
234 1.20543 9.81051 -0.005832 -0.00291657 9.81051 0.776659 10 1 
236 1.20552 9.79866 -0.0060269 -0.00211672 9.79866 0.943596 10 1 
238 1.20573 9.78249 -0.00610348 -0.000880457 9.7825 1.31621 10 1 
240 1.20578 9.76829 -0.00608597 0.00111392 9.76829 1.41456 10 1 
242 1.20586 9.75069 -0.00613331 0.00479682 9.7507 1.54901 10 1 
244 1.20605 9.7307 -0.0063042 0.00587766 9.73071 1.8968 10 1 
246 1.20619 9.71146 -0.00643596 0.00686416 9.71146 2.15576 10 1 
248 1.20631 9.69007 -0.00653698 0.00994533 9.69008 2.37347 10 1 
250 1.20652 9.66634 -0.00664582 0.0111741 9.66635 2.74682 10 1 
252 1.20674 9.63921 -0.0067544 0.0150913 9.63923 3.14483 10 1 
254 1.20688 9.60859 -0.00693953 0.0209839 9.60862 3.39147 10 1 
256 1.20708 9.57613 -0.00695423 0.0242576 9.57617 3.7654 10 1 
256 1.20708 9.57613 -0.00695423 0.0242576 9.57617 3.7654 11 1 
258 1.20742 9.53975 -0.00704633 0.0305912 9.53981 4.36342 11 1 
260 1.20768 9.49857 -0.00714903 0.0391523 9.49866 4.8496 11 1 
262 1.20792 9.45363 -0.00724941 0.0452847 9.45376 5.28159 11 1 
264 1.20827 9.40351 -0.00742931 0.057765 9.40371 5.89844 11 1 
266 1.2087 9.34542 -0.00753277 0.0717583 9.34571 6.67842 11 1 
268 1.20907 9.28185 -0.00761345 0.0877732 9.2823 7.35072 11 1 
270 1.20945 9.21592 -0.00772091 0.112636 9.21665 8.03512 11 1 
272 1.21009 9.13658 -0.00778948 0.140902 9.13773 9.18784 11 1 
274 1.21067 9.04171 -0.00785879 0.170759 9.04343 10.2489 11 1 
276 1.21107 8.94246 -0.00794156 0.205979 8.94496 10.9575 11 1 
278 1.2118 8.83269 -0.00807461 0.252684 8.83642 12.2745 11 1 
280 1.21267 8.71577 -0.00822131 0.316928 8.72173 13.8474 11 1 
282 1.21322 8.59872 -0.00832712 0.398614 8.60825 14.85 11 1 
284 1.21396 8.46529 -0.00842809 0.48187 8.47931 16.1783 11 1 
286 1.21489 8.31313 -0.0085005 0.590858 8.33469 17.8569 11 1 
288 1.2154 8.17198 -0.00852767 0.714007 8.2037 18.7796 11 1 
288 1.2154 8.17198 -0.00852767 0.714007 8.2037 18.7796 11 1 
290 1.21615 8.0169 -0.00855203 0.848688 8.06274 20.1417 11 1 
292 1.2172 7.84713 -0.0085874 1.0246 7.91501 22.0346 11 1 
294 1.21727 7.71334 -0.0085896 1.23475 7.81297 22.1624 11 1 
296 1.21595 7.35177 -0.00850689 1.08271 7.43739 19.7798 11 1 
298 1.21152 6.57052 -0.00845577 0.30345 6.6053 11.7826 11 1 
300 1.20527 5.71071 -0.00843926 -0.746548 5.80314 0.49255 11 1 
302 1.20117 5.14372 -0.00839771 -1.56017 5.39259 -6.92198 11 1 
304 1.19894 4.90051 -0.00838621 -1.74089 5.20172 -10.9376 11 1 
306 1.1982 4.74188 -0.0082983 -1.5788 4.99861 -12.2744 11 1 
308 1.19855 4.54352 -0.00812364 -1.37131 4.7479 -11.6446 11 1 
310 1.19884 4.3801 -0.00791383 -1.13471 4.52588 -11.1276 11 1 
312 1.19937 4.25913 -0.00771339 -0.982502 4.37155 -10.1752 11 1 
314 1.19988 4.13979 -0.00758653 -0.852094 4.22733 -9.25678 11 1 
316 1.20012 4.0004 -0.00744609 -0.725111 4.06611 -8.82311 11 1 
318 1.20046 3.8527 -0.00727718 -0.629457 3.90421 -8.20359 11 1 
320 1.20083 3.72616 -0.00711843 -0.53269 3.76453 -7.5341 11 1 
320 1.20083 3.72616 -0.00711843 -0.53269 3.76453 -7.5341 15 1 
322 1.20115 3.61512 -0.0069274 -0.447562 3.64302 -6.96194 15 1 
324 1.20147 3.49775 -0.00669451 -0.388825 3.51964 -6.37352 15 1 
326 1.20173 3.37282 -0.00647267 -0.337362 3.38997 -5.90091 15 1 
328 1.20193 3.25213 -0.00625649 -0.289039 3.2652 -5.54801 15 1 
330 1.20217 3.14636 -0.00600204 -0.249992 3.15645 -5.11328 15 1 
332 1.20241 3.05365 -0.00571835 -0.218376 3.06163 -4.67105 15 1 
334 1.2026 2.96008 -0.00544356 -0.192537 2.96655 -4.3413 15 1 
336 1.20275 2.86229 -0.00516714 -0.172084 2.86766 -4.06269 15 1 
338 1.20292 2.76863 -0.00485965 -0.151182 2.77289 -3.7561 15 1 
340 1.20309 2.6848 -0.00453654 -0.131443 2.68813 -3.44563 15 1 
342 1.20323 2.60796 -0.00422558 -0.115082 2.61064 -3.19899 15 1 
344 1.20336 2.53107 -0.00393217 -0.101617 2.53327 -2.96833 15 1 
346 1.2035 2.45286 -0.00362954 -0.0881379 2.45458 -2.7117 15 1 
348 1.20363 2.37727 -0.00329386 -0.0742276 2.37854 -2.48181 15 1 
350 1.20374 2.30664 -0.00296433 -0.0610401 2.30756 -2.28482 15 1 
352 1.20385 2.24031 -0.00268708 -0.0500274 2.24099 -2.08207 15 1 
354 1.20396 2.1754 -0.00246516 -0.040117 2.1759 -1.87031 15 1 
356 1.20407 2.11007 -0.0022527 -0.0296263 2.11039 -1.67718 15 1 
358 1.20417 2.04614 -0.00201874 -0.0184146 2.04633 -1.50349 15 1 
360 1.20427 1.98632 -0.00177502 -0.00799603 1.98645 -1.31835 15 1 
362 1.20437 1.92985 -0.00151365 0.00146527 1.92997 -1.13672 15 1 
364 1.20446 1.87435 -0.00121767 0.010358 1.8745 -0.975062 15 1 
366 1.20455 1.81957 -0.000914043 0.0196389 1.8198 -0.804324 15 1 
368 1.20465 1.76604 -0.000671285 0.0289391 1.76641 -0.631218 15 1 
370 1.20474 1.71411 -0.000515544 0.0374022 1.71466 -0.477857 15 1 
372 1.20482 1.66429 -0.000430594 0.0448595 1.66505 -0.327758 15 1 
374 1.20491 1.61618 -0.000414675 0.0518558 1.61717 -0.164466 15 1 
376 1.205 1.56909 -0.000467047 0.0588017 1.57035 0.000770526 15 1 
378 1.20508 1.52312 -0.000572455 0.0656894 1.52471 0.146334 15 1 
380 1.20516 1.47918 -0.00071264 0.071769 1.48109 0.28301 15 1 
382 1.20524 1.43807 -0.000900569 0.0772899 1.44034 0.432722 15 1 
384 1.20532 1.39912 -0.0011575 0.082929 1.40177 0.585394 15 1 
384 1.20532 1.39912 -0.0011575 0.082929 1.40177 0.585394 16 1 
386 1.2054 1.36136 -0.00148187 0.0887186 1.36444 0.730783 16 1 
388 1.20548 1.32526 -0.00187427 0.0942913 1.32882 0.874375 16 1 
390 1.20556 1.29166 -0.00234346 0.0995072 1.2957 1.01937 16 1 
392 1.20564 1.26025 -0.00289121 0.104506 1.26481 1.16162 16 1 
394 1.20572 1.23044 -0.00351079 0.109277 1.23553 1.30144 16 1 
396 1.2058 1.20245 -0.00418984 0.113674 1.20806 1.44959 16 1 
398 1.20589 1.17635 -0.00491074 0.117781 1.18249 1.59851 16 1 
400 1.20596 1.15186 -0.0056558 0.121475 1.15853 1.7366 16 1 
402 1.20604 1.12927 -0.0064122 0.12467 1.13643 1.87711 16 1 
404 1.20612 1.10861 -0.00716548 0.127441 1.11622 2.02507 16 1 
406 1.2062 1.08933 -0.00791325 0.129781 1.09736 2.17024 16 1 
408 1.20628 1.07137 -0.00866439 0.131678 1.07977 2.31005 16 1 
410 1.20636 1.05508 -0.0094109 0.133077 1.06379 2.44907 16 1 
412 1.20643 1.04063 -0.0101549 0.133953 1.04957 2.5899 16 1 
414 1.20651 1.02782 -0.0109146 0.134416 1.03694 2.72828 16 1 
416 1.20659 1.01662 -0.0116984 0.134517 1.02585 2.86498 16 1 
416 1.20659 1.01662 -0.0116984 0.134517 1.02585 2.86498 16 1 
418 1.20666 1.00728 -0.0125009 0.134426 1.01659 3.00374 16 1 
420 1.20674 0.999954 -0.0133185 0.134346 1.00932 3.1398 16 1 
422 1.20681 0.99452 -0.0141611 0.134359 1.00395 3.27121 16 1 
424 1.20688 0.990994 -0.0150052 0.134578 1.0005 3.40216 16 1 
426 1.20696 0.989424 -0.0158095 0.135207 0.99904 3.53514 16 1 
428 1.20703 0.989537 -0.0165474 0.136417 0.999329 3.66686 16 1 
430 1.2071 0.9909 -0.0171973 0.13816 1.00093 3.79413 16 1 
432 1.20717 0.993334 -0.0177092 0.140357 1.00366 3.92243 16 1 
434 1.20724 0.996384 -0.0180358 0.143023 1.00706 4.0522 16 1 
436 1.20731 0.999198 -0.0181491 0.146051 1.01028 4.17815 16 1 
438 1.20738 1.00115 -0.018011 0.149179 1.01266 4.30323 16 1 
440 1.20745 1.00173 -0.0175905 0.152071 1.01365 4.42928 16 1 
442 1.20752 1.00047 -0.0168868 0.154352 1.01272 4.55372 16 1 
444 1.20759 0.997286 -0.0159657 0.155697 1.00975 4.67649 16 1 
446 1.20766 0.992569 -0.0149175 0.155752 1.00506 4.79884 16 1 
448 1.20772 0.987098 -0.0138409 0.154167 0.999359 4.92107 16 1 
448 1.20772 0.987098 -0.0138409 0.154167 0.999359 4.92107 17 1 
450 1.20779 0.982087 -0.0128627 0.150675 0.993816 5.04073 17 1 
452 1.20786 0.979152 -0.0121029 0.145155 0.990034 5.15811 17 1 
454 1.20792 0.979966 -0.0116409 0.137683 0.989728 5.27528 17 1 
456 1.20798 0.985809 -0.0115239 0.12851 0.994268 5.39021 17 1 
458 1.20805 0.997522 -0.0117839 0.118039 1.00461 5.50239 17 1 
460 1.20811 1.01557 -0.012439 0.106733 1.02132 5.61325 17 1 
462 1.20817 1.04011 -0.0134614 0.0950365 1.04466 5.72386 17 1 
464 1.20823 1.07091 -0.0147875 0.083439 1.07444 5.83396 17 1 
466 1.20829 1.1073 -0.0163458 0.072324 1.10999 5.9408 17 1 
468 1.20835 1.14859 -0.0180791 0.0619318 1.15064 6.0454 17 1 
470 1.2084 1.19416 -0.0199338 0.0524387 1.19573 6.14919 17 1 
472 1.20846 1.24334 -0.0218604 0.0439157 1.24457 6.24996 17 1 
474 1.20851 1.29553 -0.0238208 0.0364125 1.29654 6.34804 17 1 
476 1.20857 1.35026 -0.0257947 0.0299612 1.35111 6.44437 17 1 
478 1.20862 1.40699 -0.0277525 0.0244732 1.40775 6.53871 17 1 
480 1.20867 1.46526 -0.0296628 0.0198567 1.46597 6.63076 17 1 
480 1.20867 1.46526 -0.0296628 0.0198567 1.46597 6.63076 17 1 
482 1.20872 1.52482 -0.0315244 0.0160338 1.52551 6.71991 17 1 
484 1.20877 1.58551 -0.0333388 0.0129558 1.58619 6.80693 17 1 
486 1.20881 1.64706 -0.0350863 0.0105728 1.64775 6.89079 17 1 
488 1.20886 1.70918 -0.0367584 0.00880614 1.70988 6.97022 17 1 
490 1.2089 1.77174 -0.0383562 0.00760072 1.77246 7.04731 17 1 
492 1.20894 1.83472 -0.0398826 0.00687889 1.83546 7.12307 17 1 
494 1.20898 1.89803 -0.0413325 0.00659703 1.89879 7.19698 17 1 
496 1.20902 1.96154 -0.0427112 0.00672022 1.96232 7.26799 17 1 
498 1.20906 2.02511 -0.0440211 0.0072455 2.02591 7.33557 17 1 
500 1.2091 2.08869 -0.0452596 0.00811691 2.08951 7.4005 17 1 
502 1.20913 2.15225 -0.04643 0.00927108 2.15309 7.46263 17 1 
504 1.20916 2.21579 -0.0475342 0.0106879 2.21664 7.52287 17 1 
506 1.2092 2.27928 -0.0485802 0.0123849 2.28016 7.58265 17 1 
508 1.20923 2.34262 -0.0495685 0.0143724 2.34351 7.6408 17 1 
510 1.20926 2.40573 -0.0505019 0.0165673 2.40665 7.6962 17 1 
512 1.20929 2.46863 -0.0513785 0.0189477 2.46957 7.74882 17 1 
512 1.20929 2.46863 -0.0513785 0.0189477 2.46957 7.74882 25 1 
514 1.20932 2.53132 -0.0522033 0.021541 2.53228 7.79872 25 1 
516 1.20934 2.5938 -0.052982 0.024343 2.59479 7.84695 25 1 
518 1.20937 2.65603 -0.0537204 0.0273333 2.65704 7.89409 25 1 
520 1.2094 2.71795 -0.0544139 0.0304898 2.71899 7.94025 25 1 
522 1.20942 2.77954 -0.0550668 0.033825 2.78062 7.98566 25 1 
524 1.20945 2.84088 -0.0556932 0.0373032 2.842 8.0293 25 1 
526 1.20947 2.90196 -0.0562787 0.0409335 2.90312 8.07066 25 1 
528 1.20949 2.96262 -0.0568341 0.0447235 2.96383 8.10952 25 1 
530 1.20951 3.02287 -0.0573639 0.0486704 3.02413 8.14571 25 1 
532 1.20953 3.08276 -0.0578632 0.0527467 3.08408 8.18062 25 1 
534 1.20955 3.14235 -0.0583485 0.0569209 3.14373 8.21465 25 1 
536 1.20957 3.2016 -0.0588172 0.0611997 3.20304 8.24841 25 1 
538 1.20958 3.26041 -0.0592669 0.0655884 3.26192 8.28126 25 1 
540 1.2096 3.3188 -0.0596965 0.0700859 3.32039 8.31197 25 1 
542 1.20962 3.37677 -0.0601183 0.0746512 3.37844 8.34179 25 1 
544 1.20963 3.43434 -0.0605238 0.0792682 3.4361 8.36988 25 1 
544 1.20963 3.43434 -0.0605238 0.0792682 3.4361 8.36988 25 1 
546 1.20965 3.49148 -0.0609222 0.0839393 3.49333 8.39628 25 1 
548 1.20966 3.54814 -0.0613298 0.0886554 3.55008 8.4209 25 1 
550 1.20967 3.60433 -0.0617261 0.0933827 3.60637 8.44346 25 1 
552 1.20969 3.66005 -0.0621218 0.098111 3.6622 8.46505 25 1 
554 1.2097 3.71535 -0.0625266 0.102842 3.7176 8.48564 25 1 
556 1.20971 3.77021 -0.0629329 0.107526 3.77257 8.5072 25 1 
558 1.20972 3.82464 -0.0633455 0.112145 3.82711 8.52933 25 1 
560 1.20973 3.8786 -0.0637676 0.116718 3.88118 8.55124 25 1 
562 1.20975 3.93207 -0.0642055 0.121187 3.93476 8.57171 25 1 
564 1.20976 3.98508 -0.0646517 0.125548 3.98788 8.58957 25 1 
566 1.20976 4.03762 -0.065113 0.129777 4.04053 8.60566 25 1 
568 1.20977 4.08974 -0.0655847 0.133847 4.09276 8.62032 25 1 
570 1.20978 4.14142 -0.0660755 0.13776 4.14455 8.63555 25 1 
572 1.20979 4.19271 -0.0665827 0.141454 4.19593 8.65093 25 1 
574 1.2098 4.24361 -0.0671023 0.144923 4.24693 8.66646 25 1 
576 1.20981 4.29416 -0.0676429 0.148127 4.29756 8.68178 25 1 
576 1.20981 4.29416 -0.0676429 0.148127 4.29756 8.68178 26 1 
578 1.20981 4.34439 -0.0681942 0.151093 4.34787 8.69645 26 1 
580 1.20982 4.39429 -0.0687655 0.15377 4.39784 8.71189 26 1 
582 1.20983 4.44388 -0.0693379 0.156143 4.44749 8.72736 26 1 
584 1.20984 4.4932 -0.0699467 0.158164 4.49686 8.74287 26 1 
586 1.20985 4.54227 -0.07057 0.159823 4.54597 8.75762 26 1 
588 1.20986 4.59114 -0.0712117 0.161151 4.59487 8.77047 26 1 
590 1.20986 4.63981 -0.0718864 0.162047 4.64355 8.78148 26 1 
592 1.20987 4.68828 -0.0725703 0.162549 4.69202 8.79243 26 1 
594 1.20987 4.7367 -0.0732906 0.162606 4.74043 8.80384 26 1 
596 1.20988 4.78508 -0.0740182 0.162203 4.78878 8.81786 26 1 
598 1.20989 4.83348 -0.074793 0.161336 4.83714 8.83313 26 1 
600 1.2099 4.88191 -0.0755975 0.160002 4.88551 8.84682 26 1 
602 1.20991 4.93029 -0.0764139 0.158187 4.93382 8.86079 26 1 
604 1.20991 4.97878 -0.0772774 0.155816 4.98224 8.87332 26 1 
606 1.20992 5.0274 -0.0781621 0.152986 5.03077 8.88719 26 1 
608 1.20993 5.0762 -0.0790831 0.149624 5.07947 8.90182 26 1 
608 1.20993 5.0762 -0.0790831 0.149624 5.07947 8.90182 26 1 
610 1.20994 5.12508 -0.080039 0.145751 5.12824 8.91536 26 1 
612 1.20994 5.17413 -0.0810267 0.141431 5.17717 8.92654 26 1 
614 1.20995 5.2233 -0.0820255 0.136569 5.22622 8.93661 26 1 
616 1.20995 5.27262 -0.0830579 0.131238 5.27542 8.94719 26 1 
618 1.20996 5.3223 -0.0841114 0.125402 5.32497 8.95602 26 1 
620 1.20997 5.372 -0.0851537 0.119135 5.37454 8.96855 26 1 
622 1.20997 5.42188 -0.0862376 0.112455 5.42429 8.98027 26 1 
624 1.20998 5.47193 -0.0873215 0.10535 5.47423 8.98768 26 1 
626 1.20998 5.52201 -0.0883845 0.0979004 5.52418 8.99666 26 1 
628 1.20998 5.5722 -0.0894764 0.0900198 5.57427 9.00301 26 1 
630 1.20999 5.62244 -0.090541 0.0818846 5.62441 9.00602 26 1 
632 1.20999 5.67261 -0.0915789 0.0734022 5.67448 9.01125 26 1 
634 1.20999 5.72272 -0.0926118 0.0646907 5.72451 9.01505 26 1 
636 1.20999 5.77285 -0.0936092 0.0557947 5.77456 9.01622 26 1 
638 1.20999 5.82278 -0.0945754 0.0466837 5.82444 9.01924 26 1 
640 1.20999 5.87247 -0.0955234 0.0374599 5.87408 9.02185 26 1 
642 1.20999 5.92202 -0.0964293 0.0280778 5.92359 9.01988 26 1 
644 1.20999 5.97114 -0.0972591 0.0186831 5.9727 9.01942 26 1 
646 1.20999 6.02001 -0.0980912 0.00923995 6.02156 9.02075 26 1 
648 1.20999 6.06856 -0.098829 -0.000158453 6.07012 9.02192 26 1 
650 1.21 6.11671 -0.0995581 -0.00951476 6.11829 9.02381 26 1 
652 1.21 6.16434 -0.100243 -0.0187729 6.16596 9.02945 26 1 
654 1.21 6.2116 -0.100851 -0.0278504 6.21326 9.03384 26 1 
656 1.21 6.25832 -0.101433 -0.0367877 6.26002 9.04003 26 1 
658 1.21001 6.30448 -0.101948 -0.0454602 6.30625 9.05034 26 1 
660 1.21002 6.35029 -0.102425 -0.0539053 6.35212 9.05959 26 1 
662 1.21003 6.39518 -0.102815 -0.0620138 6.39708 9.07888 26 1 
664 1.21004 6.4397 -0.103198 -0.0697758 6.44168 9.09494 26 1 
666 1.21005 6.48356 -0.103464 -0.0771705 6.48561 9.11503 26 1 
668 1.21006 6.52652 -0.103683 -0.0841514 6.52864 9.14526 26 1 
670 1.21008 6.56898 -0.103833 -0.090727 6.57118 9.16735 26 1 
672 1.21009 6.61046 -0.103863 -0.0968183 6.61273 9.20219 26 1 
672 1.21009 6.61046 -0.103863 -0.0968183 6.61273 9.20219 27 1 
674 1.21012 6.65108 -0.103842 -0.102425 6.65341 9.24308 27 1 
676 1.21014 6.69104 -0.1037 -0.107581 6.69344 9.27712 27 1 
678 1.21016 6.72986 -0.103473 -0.112213 6.7323 9.32307 27 1 
680 1.21019 6.76779 -0.103138 -0.116362 6.77027 9.36805 27 1 
682 1.21021 6.80459 -0.102692 -0.120014 6.80711 9.41474 27 1 
684 1.21024 6.84041 -0.102145 -0.123098 6.84294 9.462 27 1 
686 1.21027 6.87528 -0.101511 -0.125802 6.87782 9.51661 27 1 
688 1.2103 6.90891 -0.100757 -0.127989 6.91145 9.57474 27 1 
690 1.21033 6.94165 -0.0998956 -0.129739 6.94418 9.62292 27 1 
692 1.21036 6.97314 -0.0989843 -0.131037 6.97565 9.68291 27 1 
694 1.21039 7.00363 -0.0979431 -0.131881 7.00612 9.73708 27 1 
696 1.21042 7.03309 -0.0968283 -0.132391 7.03554 9.79255 27 1 
698 1.21045 7.06169 -0.0956618 -0.132493 7.06409 9.84557 27 1 
700 1.21048 7.08929 -0.0944004 -0.132264 7.09164 9.89964 27 1 
702 1.21051 7.11583 -0.0930265 -0.13188 7.11812 9.9588 27 1 
704 1.21053 7.14196 -0.0916057 -0.13103 7.14419 9.99718 27 1 
704 1.21053 7.14196 -0.0916057 -0.13103 7.14419 9.99718 31 1 
706 1.21057 7.16703 -0.0901144 -0.129992 7.16918 10.0544 31 1 
708 1.21059 7.19181 -0.0885551 -0.128776 7.19389 10.1056 31 1 
710 1.21062 7.21603 -0.0870456 -0.127265 7.21804 10.147 31 1 
712 1.21064 7.23971 -0.0853672 -0.125606 7.24164 10.1955 31 1 
714 1.21067 7.26327 -0.0836421 -0.123963 7.26512 10.2374 31 1 
716 1.21069 7.28631 -0.0819838 -0.122162 7.2881 10.279 31 1 
718 1.21071 7.30982 -0.0800586 -0.120245 7.31152 10.3079 31 1 
720 1.21073 7.333 -0.0783032 -0.118276 7.33462 10.3549 31 1 
722 1.21076 7.35643 -0.0764687 -0.116076 7.35798 10.396 31 1 
724 1.21077 7.38035 -0.0744947 -0.113987 7.38181 10.4224 31 1 
726 1.21079 7.40446 -0.0727739 -0.111854 7.40585 10.4637 31 1 
728 1.21081 7.42922 -0.0708286 -0.109701 7.43053 10.498 31 1 
730 1.21083 7.45416 -0.0688895 -0.107389 7.45541 10.525 31 1 
732 1.21084 7.48046 -0.0672277 -0.104978 7.48164 10.5503 31 1 
734 1.21087 7.50738 -0.0654342 -0.102303 7.50849 10.5956 31 1 
736 1.21089 7.53535 -0.0638032 -0.0994378 7.5364 10.6328 31 1 
738 1.2109 7.56459 -0.0624741 -0.096116 7.56556 10.6573 31 1 
740 1.21092 7.59547 -0.0611236 -0.0924358 7.59638 10.6891 31 1 
742 1.21095 7.62721 -0.060157 -0.0881508 7.62806 10.7388 31 1 
744 1.21095 7.66207 -0.0595332 -0.0830117 7.66285 10.7525 31 1 
746 1.21097 7.69899 -0.0590294 -0.0771755 7.6997 10.7888 31 1 
748 1.21101 7.73735 -0.0590393 -0.0700752 7.73799 10.8524 31 1 
750 1.21102 7.77977 -0.059417 -0.0616415 7.78034 10.8672 31 1 
752 1.21104 7.82335 -0.0599855 -0.0520894 7.82386 10.9118 31 1 
752 1.21104 7.82335 -0.0599855 -0.0520894 7.82386 10.9118 31 1 
754 1.21106 7.87039 -0.0609619 -0.0409775 7.87085 10.9543 31 1 
756 1.21109 7.91903 -0.0622539 -0.0286045 7.91946 11.0015 31 1 
758 1.2111 7.9703 -0.0637435 -0.0149397 7.97071 11.0168 31 1 
760 1.21113 8.02168 -0.0654275 0.000590038 8.02211 11.0768 31 1 
762 1.21116 8.07322 -0.0673192 0.0162159 8.0737 11.1326 31 1 
764 1.21117 8.12579 -0.0690704 0.0329056 8.12636 11.1371 31 1 
766 1.21121 8.17576 -0.071091 0.050071 8.17646 11.2099 31 1 
768 1.21123 8.22548 -0.0731257 0.0665165 8.22635 11.2566 31 1 
770 1.21124 8.27322 -0.0750898 0.0838465 8.27429 11.2799 31 1 
772 1.21127 8.31855 -0.0770953 0.0993083 8.31984 11.3303 31 1 
774 1.2113 8.36395 -0.0794993 0.113528 8.36548 11.3773 31 1 
776 1.21134 8.40718 -0.0816124 0.127584 8.40897 11.4432 31 1 
778 1.21137 8.44825 -0.0827544 0.140657 8.45028 11.5021 31 1 
780 1.21139 8.48824 -0.0843606 0.151476 8.49051 11.5339 31 1 
782 1.21143 8.52435 -0.0857951 0.15845 8.52678 11.6182 31 1 
784 1.21145 8.56249 -0.0871773 0.165478 8.56509 11.6541 31 1 
786 1.21151 8.59719 -0.0871986 0.171036 8.59991 11.754 31 1 
788 1.21156 8.63066 -0.0867405 0.174814 8.63346 11.8434 31 1 
790 1.21158 8.66396 -0.0865061 0.177508 8.66683 11.8793 31 1 
792 1.21167 8.68947 -0.0857045 0.177204 8.69233 12.0402 31 1 
794 1.2117 8.71734 -0.0828903 0.176269 8.72014 12.0937 31 1 
796 1.21177 8.73992 -0.0798654 0.174952 8.74264 12.2243 31 1 
798 1.21188 8.75859 -0.075404 0.167612 8.76111 12.4248 31 1 
800 1.2119 8.77048 -0.0712434 0.161222 8.77283 12.4595 31 1 
