81.5083;r ;Density                 ;Velocity u              ;Velocity v              ;Velocity w              ;|Velocity|              ;Pressure                ;Distribution            ;Levels                  ;
0 1.21459 9.99981 -5.67623e-05 -0.000916694 9.99981 17.3259 1 1 
2 1.21459 9.99868 -0.000116717 -2.40252e-05 9.99868 17.3304 1 1 
4 1.2146 9.99661 -0.000245233 0.000134915 9.99661 17.3467 1 1 
6 1.21462 9.99496 -0.000368448 0.000104888 9.99496 17.3774 1 1 
8 1.21464 9.99319 -0.000458085 0.000267812 9.99319 17.4125 1 1 
10 1.21465 9.99113 -0.000561081 0.000213379 9.99113 17.422 1 1 
12 1.21465 9.98881 -0.000659071 0.000171642 9.98881 17.4369 1 1 
14 1.21468 9.98672 -0.000794968 0.000433636 9.98672 17.478 1 1 
16 1.21469 9.9851 -0.000914712 0.000678229 9.9851 17.5053 1 1 
18 1.2147 9.98316 -0.00103757 0.000824712 9.98316 17.5167 1 1 
20 1.21471 9.98102 -0.00114627 0.00098471 9.98102 17.5384 1 1 
22 1.21473 9.97899 -0.00125517 0.00114775 9.97899 17.5751 1 1 
24 1.21474 9.97709 -0.00135788 0.000827732 9.97709 17.5951 1 1 
26 1.21475 9.97494 -0.00144447 0.000590165 9.97494 17.6112 1 1 
28 1.21476 9.9728 -0.00154056 0.000945026 9.9728 17.6346 1 1 
30 1.21477 9.97098 -0.00164739 0.00103823 9.97098 17.6526 1 1 
32 1.21479 9.969 -0.00176252 0.00111441 9.96901 17.68 1 1 
32 1.21479 9.969 -0.00176252 0.00111441 9.96901 17.68 1 1 
34 1.2148 9.9671 -0.00184082 0.00131705 9.9671 17.7048 1 1 
36 1.21481 9.96536 -0.00193298 0.00138612 9.96536 17.7211 1 1 
38 1.21482 9.96353 -0.00201967 0.00126097 9.96354 17.7425 1 1 
40 1.21484 9.96167 -0.00213136 0.00121484 9.96167 17.7644 1 1 
42 1.21485 9.95979 -0.00220608 0.00133896 9.95979 17.7839 1 1 
44 1.21486 9.95792 -0.00230531 0.00171012 9.95792 17.8031 1 1 
46 1.21487 9.95608 -0.00239298 0.00203374 9.95608 17.8226 1 1 
48 1.21488 9.95443 -0.00249359 0.00199371 9.95443 17.8385 1 1 
50 1.21489 9.95277 -0.00258931 0.00199346 9.95277 17.8566 1 1 
52 1.2149 9.95095 -0.00266661 0.00205196 9.95095 17.8754 1 1 
54 1.21491 9.94919 -0.00276713 0.00212067 9.94919 17.8924 1 1 
56 1.21492 9.94745 -0.00285897 0.0022699 9.94745 17.9166 1 1 
58 1.21493 9.94583 -0.00293838 0.00248937 9.94583 17.9313 1 1 
60 1.21493 9.94428 -0.0030159 0.00269782 9.94428 17.9378 1 1 
62 1.21495 9.94197 -0.00308353 0.00248454 9.94197 17.9667 1 1 
64 1.21495 9.93973 -0.00316444 0.00217169 9.93973 17.9748 1 1 
64 1.21495 9.93973 -0.00316444 0.00217169 9.93973 17.9748 2 1 
66 1.21495 9.93818 -0.00326117 0.00232716 9.93818 17.9793 2 1 
68 1.21497 9.93661 -0.00335564 0.00249687 9.93661 18.0171 2 1 
70 1.21498 9.93547 -0.00343597 0.00297273 9.93547 18.0224 2 1 
72 1.21498 9.93357 -0.00351965 0.00320743 9.93357 18.0308 2 1 
74 1.215 9.93125 -0.00359131 0.00318289 9.93126 18.057 2 1 
76 1.215 9.92974 -0.00367292 0.0032114 9.92974 18.0663 2 1 
78 1.21501 9.92808 -0.00374764 0.00277368 9.92808 18.0838 2 1 
80 1.21502 9.92654 -0.00383007 0.0027003 9.92654 18.0959 2 1 
82 1.21503 9.92477 -0.00391402 0.00282336 9.92477 18.1084 2 1 
84 1.21504 9.92242 -0.00398046 0.00275396 9.92242 18.1303 2 1 
86 1.21504 9.9209 -0.00404247 0.00343608 9.9209 18.1339 2 1 
88 1.21505 9.91924 -0.00411136 0.00347742 9.91924 18.1512 2 1 
90 1.21506 9.91755 -0.00420281 0.00350726 9.91755 18.1695 2 1 
92 1.21506 9.91657 -0.00425932 0.00371101 9.91658 18.1691 2 1 
94 1.21507 9.91491 -0.00432087 0.00342522 9.91491 18.1927 2 1 
96 1.21509 9.91292 -0.00441329 0.00340408 9.91292 18.2205 2 1 
96 1.21509 9.91292 -0.00441329 0.00340408 9.91292 18.2205 2 1 
98 1.21508 9.91101 -0.00448849 0.0035531 9.91102 18.2151 2 1 
100 1.21508 9.90892 -0.00455735 0.00380758 9.90892 18.2139 2 1 
102 1.2151 9.90693 -0.00460597 0.00422112 9.90693 18.2471 2 1 
104 1.21511 9.90541 -0.00467498 0.00471474 9.90541 18.2554 2 1 
106 1.2151 9.90399 -0.0047548 0.00446639 9.90399 18.2501 2 1 
108 1.21512 9.9023 -0.00480445 0.00411522 9.90231 18.2836 2 1 
110 1.21513 9.90082 -0.00487292 0.00394035 9.90082 18.2969 2 1 
112 1.21512 9.89979 -0.00495672 0.00405413 9.89979 18.28 2 1 
114 1.21514 9.8977 -0.00502552 0.00460378 9.8977 18.3174 2 1 
116 1.21515 9.89536 -0.0050982 0.00516057 9.89537 18.3395 2 1 
118 1.21514 9.89379 -0.00517949 0.00529093 9.89379 18.3132 2 1 
120 1.21515 9.8915 -0.00523004 0.00501457 9.8915 18.3387 2 1 
122 1.21517 9.88965 -0.0052947 0.00461751 9.88966 18.3625 2 1 
124 1.21516 9.8887 -0.00536018 0.00436028 9.8887 18.347 2 1 
126 1.21517 9.887 -0.00544926 0.00447784 9.887 18.3765 2 1 
128 1.21519 9.88511 -0.00553136 0.00513257 9.88511 18.4063 2 1 
128 1.21519 9.88511 -0.00553136 0.00513257 9.88511 18.4063 10 1 
130 1.21517 9.88404 -0.00559828 0.00587411 9.88404 18.3778 10 1 
132 1.21519 9.88178 -0.00567735 0.00608487 9.88178 18.4009 10 1 
134 1.2152 9.87915 -0.00576377 0.00565326 9.87915 18.43 10 1 
136 1.21519 9.87811 -0.00585878 0.00506766 9.87812 18.4069 10 1 
138 1.21521 9.87585 -0.00594124 0.00481348 9.87585 18.447 10 1 
140 1.21522 9.87363 -0.00602024 0.00483845 9.87363 18.4622 10 1 
142 1.2152 9.87299 -0.00610219 0.00555771 9.87299 18.4273 10 1 
144 1.21523 9.87054 -0.00615448 0.00574571 9.87054 18.4789 10 1 
146 1.21524 9.86809 -0.00622542 0.00590734 9.8681 18.5018 10 1 
148 1.21522 9.86717 -0.00629688 0.00572631 9.86717 18.4642 10 1 
150 1.21525 9.86465 -0.00636476 0.00520387 9.86466 18.5092 10 1 
152 1.21526 9.86209 -0.00646167 0.00563415 9.86209 18.5298 10 1 
154 1.21523 9.86106 -0.00655275 0.00626365 9.86107 18.4851 10 1 
156 1.21526 9.85857 -0.00662881 0.00631707 9.85858 18.5387 10 1 
158 1.21529 9.85598 -0.00673309 0.00615808 9.85599 18.58 10 1 
160 1.21526 9.85506 -0.00682239 0.00581035 9.85507 18.5344 10 1 
160 1.21526 9.85506 -0.00682239 0.00581035 9.85507 18.5344 10 1 
162 1.21528 9.85271 -0.00690973 0.00565988 9.85272 18.5636 10 1 
164 1.2153 9.84986 -0.00695632 0.00601054 9.84986 18.6096 10 1 
166 1.21529 9.84805 -0.00703058 0.0058821 9.84806 18.5826 10 1 
168 1.21529 9.84523 -0.00713325 0.00661461 9.84523 18.5889 10 1 
170 1.21532 9.84223 -0.00723092 0.00695167 9.84224 18.6398 10 1 
172 1.21532 9.84055 -0.00731408 0.0065263 9.84055 18.6355 10 1 
174 1.21532 9.83807 -0.00743931 0.0064246 9.83807 18.6322 10 1 
176 1.21534 9.83505 -0.00753076 0.00595134 9.83506 18.684 10 1 
178 1.21536 9.83251 -0.00763259 0.00585476 9.83252 18.7052 10 1 
180 1.21535 9.82954 -0.00773332 0.0061228 9.82954 18.6881 10 1 
182 1.21536 9.82733 -0.00784053 0.00657348 9.82734 18.7041 10 1 
184 1.21539 9.82466 -0.00792976 0.0067977 9.82467 18.7618 10 1 
186 1.2154 9.82073 -0.00805262 0.00737121 9.82074 18.7793 10 1 
188 1.21539 9.81766 -0.00813746 0.00764105 9.81767 18.767 10 1 
190 1.21542 9.81413 -0.00822881 0.00727172 9.81414 18.8219 10 1 
192 1.21544 9.80986 -0.00835709 0.00573986 9.80987 18.8642 10 1 
194 1.21542 9.8068 -0.00846515 0.00530747 9.8068 18.8296 10 1 
196 1.21546 9.80317 -0.00860067 0.00571652 9.80317 18.8863 10 1 
198 1.21551 9.79889 -0.00877767 0.00634899 9.7989 18.9819 10 1 
200 1.21549 9.79621 -0.00888052 0.0075826 9.79622 18.9495 10 1 
202 1.2155 9.79258 -0.0089502 0.00779445 9.79259 18.9695 10 1 
204 1.21557 9.78661 -0.00905925 0.00717561 9.78661 19.0832 10 1 
206 1.21557 9.78104 -0.00917139 0.0068723 9.78105 19.0887 10 1 
208 1.21557 9.77534 -0.00929704 0.00664103 9.77535 19.0855 10 1 
210 1.21563 9.76817 -0.00946153 0.00675481 9.76818 19.2001 10 1 
212 1.21565 9.76319 -0.00962851 0.00705834 9.7632 19.2399 10 1 
214 1.21565 9.75861 -0.00975211 0.00668421 9.75862 19.2388 10 1 
216 1.21572 9.7521 -0.00993899 0.00915452 9.75211 19.3651 10 1 
218 1.21577 9.74661 -0.0100271 0.00980293 9.74662 19.4529 10 1 
220 1.21579 9.73825 -0.0101387 0.00834382 9.73826 19.4848 10 1 
222 1.21582 9.72834 -0.0102016 0.00787367 9.72835 19.5461 10 1 
224 1.21586 9.72 -0.0104443 0.00630986 9.72001 19.6205 10 1 
224 1.21586 9.72 -0.0104443 0.00630986 9.72001 19.6205 10 1 
226 1.21594 9.70842 -0.0107173 0.00839846 9.70843 19.7667 10 1 
228 1.21597 9.69922 -0.010905 0.0115961 9.69923 19.8168 10 1 
230 1.21603 9.69033 -0.0109681 0.0125707 9.69034 19.921 10 1 
232 1.21615 9.67673 -0.0110734 0.0123229 9.67675 20.1485 10 1 
234 1.21615 9.66645 -0.0112892 0.0101673 9.66646 20.1407 10 1 
236 1.21622 9.65385 -0.0115343 0.0109468 9.65386 20.2694 10 1 
238 1.2164 9.63697 -0.011747 0.0122481 9.63699 20.5983 10 1 
240 1.21644 9.62206 -0.0118942 0.014073 9.62208 20.662 10 1 
242 1.21649 9.60383 -0.0120247 0.0175763 9.60386 20.7603 10 1 
244 1.21666 9.5833 -0.0122753 0.0186224 9.58333 21.0662 10 1 
246 1.21678 9.56357 -0.0125515 0.0194788 9.5636 21.2847 10 1 
248 1.21688 9.54172 -0.0127799 0.0222507 9.54175 21.4643 10 1 
250 1.21707 9.51756 -0.0129775 0.0233702 9.5176 21.7944 10 1 
252 1.21726 9.49005 -0.0132114 0.0271647 9.49011 22.1444 10 1 
254 1.21737 9.45904 -0.0135371 0.0327239 9.45911 22.3499 10 1 
256 1.21756 9.42617 -0.0136843 0.0358857 9.42625 22.6803 10 1 
256 1.21756 9.42617 -0.0136843 0.0358857 9.42625 22.6803 11 1 
258 1.21786 9.38957 -0.0139236 0.0419552 9.38968 23.2256 11 1 
260 1.2181 9.34826 -0.0141826 0.0500483 9.34842 23.6612 11 1 
262 1.21831 9.30313 -0.0144124 0.0559925 9.30333 24.0444 11 1 
264 1.21862 9.25293 -0.0146948 0.0681587 9.25321 24.606 11 1 
266 1.21902 9.195 -0.0149198 0.0816252 9.19539 25.3252 11 1 
268 1.21936 9.13168 -0.0151601 0.0971519 9.13224 25.9427 11 1 
270 1.21971 9.06597 -0.015438 0.121328 9.06683 26.5701 11 1 
272 1.22031 8.98712 -0.0156804 0.148724 8.98843 27.6486 11 1 
274 1.22086 8.89302 -0.0159065 0.177874 8.89492 28.6405 11 1 
276 1.22122 8.79451 -0.0161006 0.21233 8.79721 29.2909 11 1 
278 1.2219 8.68576 -0.0163105 0.257885 8.68972 30.5294 11 1 
280 1.22273 8.57002 -0.0165395 0.320764 8.57622 32.0169 11 1 
282 1.22324 8.45402 -0.0167319 0.400706 8.46381 32.9537 11 1 
284 1.22394 8.32195 -0.0169237 0.482134 8.33623 34.2045 11 1 
286 1.22482 8.17151 -0.0170851 0.588745 8.19329 35.7924 11 1 
288 1.22529 8.03171 -0.0171795 0.709275 8.06356 36.6491 11 1 
288 1.22529 8.03171 -0.0171795 0.709275 8.06356 36.6491 11 1 
290 1.226 7.87825 -0.0172682 0.841105 7.92405 37.9339 11 1 
292 1.227 7.71037 -0.0173674 1.01323 7.77792 39.7318 11 1 
294 1.22705 7.57745 -0.0174006 1.2191 7.67629 39.819 11 1 
296 1.22574 7.22163 -0.0172892 1.07015 7.30667 37.4695 11 1 
298 1.22143 6.45406 -0.0172623 0.306041 6.48851 29.6712 11 1 
300 1.21534 5.60769 -0.0173434 -0.724404 5.6973 18.679 11 1 
302 1.21133 5.04814 -0.0174005 -1.52264 5.28994 11.4404 11 1 
304 1.20915 4.80699 -0.0175189 -1.69982 5.09986 7.50092 11 1 
306 1.20841 4.64996 -0.0174939 -1.54052 4.89932 6.16199 11 1 
308 1.20873 4.45472 -0.0173144 -1.33706 4.65297 6.73352 11 1 
310 1.20899 4.29361 -0.0171327 -1.10573 4.43489 7.19864 11 1 
312 1.20947 4.17381 -0.0170241 -0.957337 4.28277 8.07881 11 1 
314 1.20994 4.05514 -0.0170836 -0.830908 4.14015 8.92778 11 1 
316 1.21015 3.91657 -0.0171578 -0.708134 3.98062 9.30757 11 1 
318 1.21046 3.76987 -0.0171796 -0.61654 3.82041 9.86162 11 1 
320 1.21079 3.64379 -0.0172139 -0.524652 3.68186 10.4645 11 1 
320 1.21079 3.64379 -0.0172139 -0.524652 3.68186 10.4645 15 1 
322 1.21107 3.53285 -0.0172403 -0.444756 3.56106 10.9719 15 1 
324 1.21136 3.41584 -0.0172414 -0.391394 3.43856 11.4908 15 1 
326 1.21159 3.29139 -0.0172831 -0.346053 3.30988 11.8971 15 1 
328 1.21175 3.17096 -0.0173463 -0.304771 3.18585 12.185 15 1 
330 1.21195 3.065 -0.0173705 -0.272847 3.07732 12.5469 15 1 
332 1.21215 2.97151 -0.0174035 -0.247868 2.98205 12.9105 15 1 
334 1.21229 2.87707 -0.0174908 -0.228335 2.88638 13.1614 15 1 
336 1.2124 2.77878 -0.0176039 -0.214256 2.78727 13.362 15 1 
338 1.21252 2.68465 -0.0177105 -0.200269 2.69229 13.5857 15 1 
340 1.21264 2.59968 -0.0178283 -0.187572 2.60661 13.8052 15 1 
342 1.21273 2.52083 -0.0180015 -0.17763 2.52727 13.957 15 1 
344 1.2128 2.44156 -0.0182332 -0.169524 2.44765 14.0913 15 1 
346 1.21289 2.36102 -0.0184921 -0.160247 2.36665 14.2497 15 1 
348 1.21296 2.28262 -0.0187396 -0.14971 2.2877 14.3773 15 1 
350 1.21301 2.20787 -0.0190016 -0.13894 2.21242 14.4666 15 1 
352 1.21306 2.13603 -0.0193372 -0.12902 2.14012 14.5591 15 1 
354 1.21312 2.06491 -0.0197324 -0.118844 2.06854 14.662 15 1 
356 1.21317 1.99292 -0.0201282 -0.107022 1.99601 14.7484 15 1 
358 1.2132 1.92115 -0.0205237 -0.0939987 1.92366 14.8136 15 1 
360 1.21324 1.8516 -0.0209623 -0.0814953 1.85362 14.8866 15 1 
362 1.21328 1.7839 -0.021429 -0.069596 1.78551 14.9558 15 1 
364 1.21331 1.71677 -0.021869 -0.0579292 1.71802 15.0076 15 1 
366 1.21334 1.65066 -0.0222777 -0.045819 1.65157 15.0708 15 1 
368 1.21338 1.58593 -0.0226886 -0.0338001 1.58659 15.1371 15 1 
370 1.21341 1.52278 -0.0230942 -0.0225801 1.52326 15.1824 15 1 
372 1.21343 1.46212 -0.0234694 -0.0120477 1.46251 15.2226 15 1 
374 1.21346 1.40405 -0.0238349 -0.0016045 1.40442 15.2761 15 1 
376 1.21349 1.34777 -0.0242225 0.00912059 1.3482 15.3345 15 1 
378 1.21351 1.29284 -0.0246244 0.020028 1.29342 15.3773 15 1 
380 1.21353 1.23988 -0.0250244 0.030297 1.24071 15.414 15 1 
382 1.21356 1.18979 -0.0254262 0.0401231 1.19098 15.4642 15 1 
384 1.21359 1.1419 -0.0258315 0.0500055 1.14356 15.5164 15 1 
384 1.21359 1.1419 -0.0258315 0.0500055 1.14356 15.5164 16 1 
386 1.21362 1.09519 -0.0262203 0.0597172 1.09743 15.5617 16 1 
388 1.21364 1.05009 -0.0265778 0.06875 1.05301 15.6081 16 1 
390 1.21367 1.00737 -0.0269154 0.0770424 1.01104 15.6589 16 1 
392 1.2137 0.966694 -0.0272522 0.0847656 0.971216 15.7084 16 1 
394 1.21372 0.927559 -0.0276003 0.091852 0.932986 15.7559 16 1 
396 1.21375 0.890222 -0.0279695 0.0982012 0.896587 15.8116 16 1 
398 1.21379 0.854652 -0.0283734 0.103973 0.862008 15.8689 16 1 
400 1.21381 0.820525 -0.0288206 0.109106 0.828905 15.9175 16 1 
402 1.21384 0.788261 -0.0293147 0.113619 0.797677 15.9695 16 1 
404 1.21387 0.758026 -0.029846 0.117759 0.768507 16.029 16 1 
406 1.21391 0.729358 -0.0304007 0.12156 0.740932 16.0872 16 1 
408 1.21394 0.702259 -0.0309741 0.124966 0.714924 16.1433 16 1 
410 1.21397 0.677168 -0.0315458 0.128008 0.690907 16.2014 16 1 
412 1.214 0.654214 -0.032108 0.130784 0.669036 16.2625 16 1 
414 1.21404 0.633088 -0.0326618 0.133269 0.648982 16.3223 16 1 
416 1.21407 0.613719 -0.0331937 0.135303 0.630591 16.3824 16 1 
416 1.21407 0.613719 -0.0331937 0.135303 0.630591 16.3824 16 1 
418 1.21411 0.596359 -0.033692 0.136991 0.614112 16.4465 16 1 
420 1.21414 0.58093 -0.0341627 0.138415 0.59951 16.5098 16 1 
422 1.21417 0.567229 -0.0346263 0.139444 0.586539 16.5708 16 1 
424 1.21421 0.555346 -0.0350807 0.140064 0.575231 16.633 16 1 
426 1.21424 0.545419 -0.0355218 0.140428 0.565744 16.6976 16 1 
428 1.21428 0.537294 -0.0359688 0.140591 0.557954 16.7614 16 1 
430 1.21431 0.530859 -0.0364466 0.140437 0.55171 16.8222 16 1 
432 1.21435 0.526394 -0.0369541 0.139994 0.547276 16.8844 16 1 
434 1.21438 0.523958 -0.0375006 0.139406 0.544756 16.9475 16 1 
436 1.21442 0.523362 -0.0381082 0.138646 0.543961 17.0072 16 1 
438 1.21445 0.52472 -0.0387939 0.137668 0.54498 17.0664 16 1 
440 1.21448 0.528096 -0.0395657 0.136497 0.547904 17.1256 16 1 
442 1.21451 0.533381 -0.0404211 0.13514 0.552645 17.1823 16 1 
444 1.21454 0.5406 -0.0413803 0.133623 0.55924 17.237 16 1 
446 1.21457 0.549779 -0.0424401 0.131957 0.567725 17.2906 16 1 
448 1.2146 0.560782 -0.0435754 0.130126 0.577981 17.3429 16 1 
448 1.2146 0.560782 -0.0435754 0.130126 0.577981 17.3429 17 1 
450 1.21463 0.573416 -0.0447752 0.128077 0.589823 17.3916 17 1 
452 1.21465 0.587677 -0.046048 0.125797 0.603252 17.4374 17 1 
454 1.21468 0.603597 -0.0473912 0.123335 0.618322 17.4821 17 1 
456 1.2147 0.62101 -0.0487945 0.120675 0.63488 17.5233 17 1 
458 1.21472 0.639739 -0.0502562 0.117738 0.652746 17.5607 17 1 
460 1.21474 0.659758 -0.0517862 0.114496 0.671896 17.5946 17 1 
462 1.21476 0.681175 -0.0533893 0.110942 0.692447 17.6256 17 1 
464 1.21477 0.704044 -0.0550612 0.107105 0.714468 17.654 17 1 
466 1.21479 0.728314 -0.056807 0.102954 0.737913 17.6784 17 1 
468 1.2148 0.754093 -0.0586401 0.0984442 0.762888 17.6992 17 1 
470 1.21481 0.781528 -0.0605696 0.0936066 0.789556 17.7165 17 1 
472 1.21482 0.810664 -0.0625923 0.0884271 0.817968 17.7291 17 1 
474 1.21482 0.841626 -0.0647181 0.0829539 0.848261 17.7384 17 1 
476 1.21482 0.874531 -0.0669701 0.077271 0.880564 17.7452 17 1 
478 1.21483 0.909337 -0.0693345 0.0713971 0.914839 17.7489 17 1 
480 1.21483 0.945948 -0.0717905 0.0653359 0.950989 17.7487 17 1 
480 1.21483 0.945948 -0.0717905 0.0653359 0.950989 17.7487 17 1 
482 1.21482 0.984366 -0.0743387 0.0591397 0.989017 17.7442 17 1 
484 1.21482 1.02461 -0.0769872 0.0529107 1.02895 17.7365 17 1 
486 1.21481 1.06654 -0.0797135 0.0467344 1.07063 17.7262 17 1 
488 1.21481 1.10992 -0.0825013 0.0406127 1.11383 17.7127 17 1 
490 1.2148 1.15467 -0.0853509 0.0345657 1.15845 17.6969 17 1 
492 1.21479 1.2007 -0.0882517 0.0286665 1.2044 17.6781 17 1 
494 1.21478 1.2479 -0.0911879 0.0229453 1.25156 17.6563 17 1 
496 1.21476 1.29607 -0.0941464 0.0174509 1.29974 17.6314 17 1 
498 1.21475 1.34507 -0.0971254 0.0122091 1.34877 17.6035 17 1 
500 1.21473 1.3948 -0.100104 0.00722384 1.39855 17.5738 17 1 
502 1.21471 1.44515 -0.103072 0.00249291 1.44898 17.5423 17 1 
504 1.21469 1.49606 -0.106029 -0.00197962 1.49998 17.5086 17 1 
506 1.21467 1.54744 -0.108967 -0.0061327 1.55144 17.4728 17 1 
508 1.21465 1.59911 -0.111879 -0.00996509 1.60322 17.4342 17 1 
510 1.21463 1.65102 -0.11475 -0.0135226 1.65523 17.3935 17 1 
512 1.21461 1.70314 -0.117578 -0.0168148 1.70745 17.3513 17 1 
512 1.21461 1.70314 -0.117578 -0.0168148 1.70745 17.3513 25 1 
514 1.21458 1.75542 -0.120365 -0.0198016 1.75983 17.3078 25 1 
516 1.21456 1.80781 -0.123106 -0.0224812 1.81231 17.2633 25 1 
518 1.21453 1.86022 -0.1258 -0.0248838 1.86481 17.2169 25 1 
520 1.21451 1.91257 -0.128438 -0.0270324 1.91724 17.1685 25 1 
522 1.21448 1.96483 -0.131011 -0.0289116 1.96959 17.1185 25 1 
524 1.21445 2.01706 -0.133539 -0.0305357 2.02188 17.0674 25 1 
526 1.21442 2.06921 -0.136014 -0.0319266 2.0741 17.0156 25 1 
528 1.21439 2.12119 -0.138429 -0.0330722 2.12614 16.9629 25 1 
530 1.21436 2.17294 -0.140799 -0.0340121 2.17794 16.9091 25 1 
532 1.21433 2.22453 -0.143112 -0.0347583 2.22958 16.8541 25 1 
534 1.2143 2.27595 -0.145377 -0.035325 2.28104 16.7983 25 1 
536 1.21427 2.32716 -0.147599 -0.0357246 2.3323 16.7417 25 1 
538 1.21424 2.37812 -0.149776 -0.0359524 2.38328 16.6842 25 1 
540 1.2142 2.42882 -0.151911 -0.0360396 2.43401 16.6261 25 1 
542 1.21417 2.47929 -0.154011 -0.0360232 2.48451 16.568 25 1 
544 1.21414 2.52953 -0.156073 -0.0359185 2.53478 16.5094 25 1 
544 1.21414 2.52953 -0.156073 -0.0359185 2.53478 16.5094 25 1 
546 1.21411 2.57953 -0.158109 -0.0357211 2.5848 16.4499 25 1 
548 1.21407 2.62925 -0.160121 -0.0354337 2.63454 16.3903 25 1 
550 1.21404 2.67869 -0.162105 -0.0350968 2.684 16.3305 25 1 
552 1.21401 2.72789 -0.164068 -0.0347375 2.73323 16.2705 25 1 
554 1.21397 2.77685 -0.166021 -0.0343462 2.7822 16.2108 25 1 
556 1.21394 2.82555 -0.167961 -0.033964 2.83092 16.1509 25 1 
558 1.21391 2.87399 -0.169891 -0.0335885 2.87938 16.0905 25 1 
560 1.21387 2.92216 -0.171816 -0.0332255 2.92757 16.0299 25 1 
562 1.21384 2.97007 -0.17373 -0.0328905 2.97551 15.9699 25 1 
564 1.21381 3.01774 -0.175645 -0.0326156 3.0232 15.9106 25 1 
566 1.21378 3.06518 -0.177563 -0.0324126 3.07067 15.8509 25 1 
568 1.21374 3.11237 -0.179482 -0.0322657 3.11788 15.7917 25 1 
570 1.21371 3.15929 -0.181401 -0.0321938 3.16483 15.7322 25 1 
572 1.21368 3.20596 -0.183322 -0.0322093 3.21153 15.6728 25 1 
574 1.21364 3.2524 -0.185243 -0.0323297 3.258 15.614 25 1 
576 1.21361 3.29859 -0.187167 -0.0325485 3.30423 15.556 25 1 
576 1.21361 3.29859 -0.187167 -0.0325485 3.30423 15.556 26 1 
578 1.21358 3.34456 -0.189103 -0.0328694 3.35023 15.4981 26 1 
580 1.21355 3.39029 -0.191037 -0.0332795 3.396 15.44 26 1 
582 1.21352 3.43574 -0.192978 -0.0338057 3.44148 15.3824 26 1 
584 1.21348 3.48094 -0.194905 -0.0344576 3.48672 15.3251 26 1 
586 1.21345 3.52594 -0.19685 -0.0352157 3.53176 15.2683 26 1 
588 1.21342 3.5707 -0.198789 -0.0360652 3.57656 15.2127 26 1 
590 1.21339 3.6152 -0.200718 -0.037014 3.6211 15.1578 26 1 
592 1.21336 3.65944 -0.202665 -0.0380621 3.66539 15.1024 26 1 
594 1.21333 3.7034 -0.204579 -0.0392098 3.7094 15.0475 26 1 
596 1.2133 3.74713 -0.206493 -0.040447 3.75318 14.9935 26 1 
598 1.21327 3.79064 -0.208405 -0.0417683 3.79674 14.9394 26 1 
600 1.21324 3.83386 -0.210304 -0.0431491 3.84 14.8868 26 1 
602 1.21321 3.8768 -0.212175 -0.0445931 3.88299 14.8346 26 1 
604 1.21318 3.91948 -0.214047 -0.0461118 3.92572 14.783 26 1 
606 1.21316 3.96191 -0.215891 -0.0476656 3.9682 14.732 26 1 
608 1.21313 4.00408 -0.217724 -0.0492649 4.01042 14.6812 26 1 
608 1.21313 4.00408 -0.217724 -0.0492649 4.01042 14.6812 26 1 
610 1.2131 4.04595 -0.219538 -0.0508791 4.05235 14.6314 26 1 
612 1.21307 4.08754 -0.221312 -0.0525137 4.09399 14.5815 26 1 
614 1.21305 4.12883 -0.223075 -0.0541401 4.13532 14.5331 26 1 
616 1.21302 4.1699 -0.224815 -0.0557863 4.17644 14.4851 26 1 
618 1.21299 4.21068 -0.226507 -0.0573805 4.21727 14.4382 26 1 
620 1.21297 4.25116 -0.228202 -0.0589596 4.2578 14.392 26 1 
622 1.21294 4.29134 -0.229834 -0.0604876 4.29803 14.3456 26 1 
624 1.21292 4.33126 -0.231452 -0.0619395 4.338 14.3005 26 1 
626 1.21289 4.37089 -0.233029 -0.0633608 4.37767 14.2571 26 1 
628 1.21287 4.41028 -0.234584 -0.06467 4.41711 14.2137 26 1 
630 1.21285 4.44941 -0.236092 -0.0658937 4.45628 14.1709 26 1 
632 1.21282 4.48817 -0.237559 -0.0670164 4.49508 14.1298 26 1 
634 1.2128 4.52672 -0.239024 -0.0680155 4.53366 14.0882 26 1 
636 1.21278 4.56503 -0.240399 -0.0689062 4.572 14.0471 26 1 
638 1.21276 4.60305 -0.241768 -0.0696503 4.61005 14.0087 26 1 
640 1.21273 4.64082 -0.243122 -0.0702532 4.64785 13.97 26 1 
642 1.21271 4.67836 -0.244368 -0.0707087 4.6854 13.9305 26 1 
644 1.21269 4.71559 -0.245612 -0.0710137 4.72266 13.8943 26 1 
646 1.21267 4.75261 -0.246857 -0.0711462 4.7597 13.8583 26 1 
648 1.21265 4.78947 -0.247938 -0.0710995 4.79656 13.8213 26 1 
650 1.21263 4.82602 -0.24913 -0.0709013 4.83312 13.7867 26 1 
652 1.21261 4.8623 -0.250169 -0.0704688 4.86939 13.7528 26 1 
654 1.21259 4.89844 -0.251177 -0.0699153 4.90554 13.7174 26 1 
656 1.21258 4.93434 -0.252212 -0.0691221 4.94143 13.6847 26 1 
658 1.21256 4.97003 -0.253115 -0.0681794 4.97711 13.6539 26 1 
660 1.21254 5.00554 -0.254027 -0.0669976 5.0126 13.6222 26 1 
662 1.21252 5.0408 -0.254925 -0.0656327 5.04784 13.5901 26 1 
664 1.21251 5.07584 -0.255695 -0.0640906 5.08286 13.5601 26 1 
666 1.21249 5.11073 -0.256491 -0.0622897 5.11773 13.5311 26 1 
668 1.21247 5.14547 -0.257266 -0.0603929 5.15244 13.5007 26 1 
670 1.21246 5.17995 -0.257911 -0.058174 5.18689 13.4739 26 1 
672 1.21244 5.21426 -0.25866 -0.0558443 5.22116 13.4461 26 1 
672 1.21244 5.21426 -0.25866 -0.0558443 5.22116 13.4461 27 1 
674 1.21243 5.24835 -0.259233 -0.0532623 5.25521 13.4172 27 1 
676 1.21241 5.28228 -0.259877 -0.0505149 5.28911 13.3904 27 1 
678 1.2124 5.31605 -0.260424 -0.0475962 5.32283 13.3646 27 1 
680 1.21239 5.34962 -0.260975 -0.0444347 5.35636 13.3402 27 1 
682 1.21237 5.38295 -0.261505 -0.0411513 5.38965 13.3139 27 1 
684 1.21236 5.41614 -0.261987 -0.0376373 5.4228 13.2891 27 1 
686 1.21234 5.44909 -0.262468 -0.0340088 5.4557 13.2657 27 1 
688 1.21233 5.48192 -0.262928 -0.0302011 5.48849 13.2411 27 1 
690 1.21232 5.51444 -0.263376 -0.0262669 5.52098 13.2191 27 1 
692 1.21231 5.54688 -0.263755 -0.0221762 5.55337 13.1965 27 1 
694 1.2123 5.57899 -0.264227 -0.0179471 5.58545 13.1774 27 1 
696 1.21228 5.61102 -0.264582 -0.013633 5.61744 13.153 27 1 
698 1.21227 5.64285 -0.265013 -0.00918948 5.64925 13.1323 27 1 
700 1.21226 5.67428 -0.265427 -0.00467963 5.68065 13.116 27 1 
702 1.21225 5.70562 -0.265759 -7.44508e-05 5.71197 13.0929 27 1 
704 1.21224 5.73659 -0.266157 0.00459882 5.74291 13.0753 27 1 
704 1.21224 5.73659 -0.266157 0.00459882 5.74291 13.0753 31 1 
706 1.21223 5.76746 -0.266476 0.00929955 5.77376 13.0584 31 1 
708 1.21222 5.79792 -0.266855 0.0140603 5.80421 13.0414 31 1 
710 1.21221 5.82822 -0.267236 0.0188558 5.83451 13.0206 31 1 
712 1.2122 5.8582 -0.267572 0.0235907 5.86448 13.0046 31 1 
714 1.21219 5.88764 -0.267911 0.0284066 5.89392 12.9939 31 1 
716 1.21218 5.91706 -0.268283 0.0330858 5.92336 12.9715 31 1 
718 1.21217 5.946 -0.268472 0.0376837 5.9523 12.9586 31 1 
720 1.21217 5.9747 -0.268766 0.0422743 5.981 12.9491 31 1 
722 1.21216 6.00306 -0.269219 0.046762 6.00939 12.9314 31 1 
724 1.21215 6.03123 -0.269204 0.0512228 6.03756 12.9151 31 1 
726 1.21215 6.05896 -0.269788 0.0553284 6.06532 12.9072 31 1 
728 1.21214 6.08626 -0.269957 0.0593603 6.09264 12.8979 31 1 
730 1.21213 6.1136 -0.269994 0.0632274 6.12 12.8785 31 1 
732 1.21213 6.14056 -0.270515 0.0668308 6.14699 12.8719 31 1 
734 1.21213 6.16711 -0.270646 0.0702771 6.17357 12.8702 31 1 
736 1.21211 6.19398 -0.270964 0.0734237 6.20046 12.8484 31 1 
738 1.21211 6.2203 -0.271421 0.0763859 6.22681 12.8418 31 1 
740 1.21211 6.24631 -0.271527 0.0789648 6.25284 12.8439 31 1 
742 1.2121 6.27261 -0.272012 0.08136 6.27917 12.8275 31 1 
744 1.2121 6.29848 -0.27271 0.0832141 6.30508 12.8209 31 1 
746 1.2121 6.32481 -0.272745 0.0849845 6.33142 12.8184 31 1 
748 1.2121 6.35029 -0.273802 0.0863683 6.35695 12.8211 31 1 
750 1.21209 6.37663 -0.274292 0.0873192 6.38331 12.7994 31 1 
752 1.21209 6.40292 -0.274952 0.0880213 6.40963 12.7998 31 1 
752 1.21209 6.40292 -0.274952 0.0880213 6.40963 12.7998 31 1 
754 1.2121 6.42838 -0.276004 0.0881828 6.43513 12.8203 31 1 
756 1.21208 6.45505 -0.276649 0.0881152 6.46181 12.794 31 1 
758 1.21208 6.4815 -0.277898 0.087437 6.48829 12.7873 31 1 
760 1.2121 6.50763 -0.278856 0.0864362 6.51444 12.8153 31 1 
762 1.21209 6.53419 -0.280124 0.0851403 6.54103 12.806 31 1 
764 1.21207 6.56195 -0.281277 0.0833318 6.56881 12.7756 31 1 
766 1.2121 6.58771 -0.282328 0.0812746 6.59459 12.8237 31 1 
768 1.21209 6.61582 -0.283685 0.0784204 6.62271 12.812 31 1 
770 1.21208 6.64352 -0.285582 0.0752565 6.65045 12.7934 31 1 
772 1.2121 6.67036 -0.28642 0.0715948 6.67728 12.8233 31 1 
774 1.2121 6.69895 -0.288078 0.0674895 6.70589 12.8205 31 1 
776 1.2121 6.72706 -0.289827 0.0635857 6.73403 12.8158 31 1 
778 1.2121 6.7565 -0.29089 0.0579037 6.76346 12.8167 31 1 
780 1.21212 6.78426 -0.291988 0.053552 6.79122 12.8541 31 1 
782 1.21211 6.81258 -0.293858 0.0458658 6.81956 12.8377 31 1 
784 1.21209 6.84194 -0.295881 0.0392666 6.84896 12.804 31 1 
786 1.2121 6.87203 -0.297884 0.0320038 6.87909 12.831 31 1 
788 1.21213 6.90068 -0.298635 0.0215629 6.90772 12.8836 31 1 
790 1.21209 6.93226 -0.30151 0.0122588 6.9394 12.807 31 1 
792 1.21211 6.95904 -0.305686 -0.00357448 6.96637 12.8411 31 1 
794 1.21214 6.98543 -0.306516 -0.0198001 6.9928 12.8941 31 1 
796 1.21211 7.01413 -0.314097 -0.0413691 7.02193 12.8352 31 1 
798 1.21214 7.03925 -0.328263 -0.0718624 7.04796 12.8954 31 1 
800 1.21216 7.05363 -0.335672 -0.0875243 7.06284 12.9313 31 1 
